data/raw/Final_POL_Test_2/SOP026_Ch4.csv

"Record Length",1000,"Points",-0.002495,0.017800001
"Sample Interval",5E-06,s,-0.00249,0.016400001
"Trigger Point",499,"Samples",-0.002485,0.016000001
"Trigger Time",6.6273596240535E-07,s,-0.00248,0.016400001
"",,,-0.002475,0.018400001
"Horizontal Offset",-0.0025,s,-0.00247,0.016800001
,,,-0.002465,0.018200001
,,,-0.00246,0.017400001
,,,-0.002455,0.017400001
,,,-0.00245,0.017000001
,,,-0.002445,0.017000001
,,,-0.00244,0.016000001
,,,-0.002435,0.018000001
,,,-0.00243,0.018600001
,,,-0.002425,0.016800001
,,,-0.00242,0.017000001
,,,-0.002415,0.017000001
,,,-0.00241,0.016200001
,,,-0.002405,0.016400001
,,,-0.0024,0.017400001
,,,-0.002395,0.017200001
,,,-0.00239,0.017000001
,,,-0.002385,0.016400001
,,,-0.00238,0.016000001
,,,-0.002375,0.017200001
,,,-0.00237,0.016800001
,,,-0.002365,0.018000001
,,,-0.00236,0.016600001
,,,-0.002355,0.016000001
,,,-0.00235,0.017000001
,,,-0.002345,0.016600001
,,,-0.00234,0.017000001
,,,-0.002335,0.016800001
,,,-0.00233,0.016000001
,,,-0.002325,0.017000001
,,,-0.00232,0.017000001
,,,-0.002315,0.017400001
,,,-0.00231,0.017000001
,,,-0.002305,0.017400001
,,,-0.0023,0.017200001
,,,-0.002295,0.017200001
,,,-0.00229,0.017200001
,,,-0.002285,0.018600001
,,,-0.00228,0.017800001
,,,-0.002275,0.016400001
,,,-0.00227,0.018000001
,,,-0.002265,0.018200001
,,,-0.00226,0.017200001
,,,-0.002255,0.017400001
,,,-0.00225,0.016800001
,,,-0.002245,0.017000001
,,,-0.00224,0.016400001
,,,-0.002235,0.017200001
,,,-0.00223,0.017200001
,,,-0.002225,0.016400001
,,,-0.00222,0.017400001
,,,-0.002215,0.016600001
,,,-0.00221,0.017400001
,,,-0.002205,0.016800001
,,,-0.0022,0.016800001
,,,-0.002195,0.016600001
,,,-0.00219,0.017200001
,,,-0.002185,0.017000001
,,,-0.00218,0.016600001
,,,-0.002175,0.016800001
,,,-0.00217,0.017200001
,,,-0.002165,0.017200001
,,,-0.00216,0.017400001
,,,-0.002155,0.017200001
,,,-0.00215,0.016600001
,,,-0.002145,0.017400001
,,,-0.00214,0.016200001
,,,-0.002135,0.017400001
,,,-0.00213,0.016400001
,,,-0.002125,0.016600001
,,,-0.00212,0.017400001
,,,-0.002115,0.016400001
,,,-0.00211,0.016400001
,,,-0.002105,0.017400001
,,,-0.0021,0.017200001
,,,-0.002095,0.016000001
,,,-0.00209,0.017000001
,,,-0.002085,0.017000001
,,,-0.00208,0.017600001
,,,-0.002075,0.017200001
,,,-0.00207,0.017200001
,,,-0.002065,0.017200001
,,,-0.00206,0.017400001
,,,-0.002055,0.017400001
,,,-0.00205,0.017800001
,,,-0.002045,0.017400001
,,,-0.00204,0.017400001
,,,-0.002035,0.017600001
,,,-0.00203,0.017000001
,,,-0.002025,0.016000001
,,,-0.00202,0.017800001
,,,-0.002015,0.017400001
,,,-0.00201,0.017400001
,,,-0.002005,0.017000001
,,,-0.002,0.017600001
,,,-0.001995,0.016200001
,,,-0.00199,0.016600001
,,,-0.001985,0.016800001
,,,-0.00198,0.016800001
,,,-0.001975,0.017400001
,,,-0.00197,0.017000001
,,,-0.001965,0.017800001
,,,-0.00196,0.017400001
,,,-0.001955,0.017600001
,,,-0.00195,0.017400001
,,,-0.001945,0.017000001
,,,-0.00194,0.016800001
,,,-0.001935,0.017200001
,,,-0.00193,0.017200001
,,,-0.001925,0.017200001
,,,-0.00192,0.016000001
,,,-0.001915,0.016600001
,,,-0.00191,0.016200001
,,,-0.001905,0.018800001
,,,-0.0019,0.017200001
,,,-0.001895,0.017200001
,,,-0.00189,0.017400001
,,,-0.001885,0.016400001
,,,-0.00188,0.018200001
,,,-0.001875,0.017400001
,,,-0.00187,0.017800001
,,,-0.001865,0.017800001
,,,-0.00186,0.016400001
,,,-0.001855,0.017400001
,,,-0.00185,0.017000001
,,,-0.001845,0.017200001
,,,-0.00184,0.017600001
,,,-0.001835,0.017000001
,,,-0.00183,0.016600001
,,,-0.001825,0.016400001
,,,-0.00182,0.017800001
,,,-0.001815,0.017800001
,,,-0.00181,0.016600001
,,,-0.001805,0.017200001
,,,-0.0018,0.016800001
,,,-0.001795,0.017200001
,,,-0.00179,0.017000001
,,,-0.001785,0.016600001
,,,-0.00178,0.017600001
,,,-0.001775,0.017400001
,,,-0.00177,0.017200001
,,,-0.001765,0.017200001
,,,-0.00176,0.018400001
,,,-0.001755,0.016600001
,,,-0.00175,0.017200001
,,,-0.001745,0.016400001
,,,-0.00174,0.016800001
,,,-0.001735,0.017800001
,,,-0.00173,0.017000001
,,,-0.001725,0.017400001
,,,-0.00172,0.017200001
,,,-0.001715,0.016600001
,,,-0.00171,0.018400001
,,,-0.001705,0.016800001
,,,-0.0017,0.017600001
,,,-0.001695,0.016200001
,,,-0.00169,0.016200001
,,,-0.001685,0.016200001
,,,-0.00168,0.016200001
,,,-0.001675,0.017200001
,,,-0.00167,0.017200001
,,,-0.001665,0.016800001
,,,-0.00166,0.017400001
,,,-0.001655,0.018200001
,,,-0.00165,0.017000001
,,,-0.001645,0.017400001
,,,-0.00164,0.017200001
,,,-0.001635,0.017600001
,,,-0.00163,0.017200001
,,,-0.001625,0.016600001
,,,-0.00162,0.017800001
,,,-0.001615,0.017400001
,,,-0.00161,0.017200001
,,,-0.001605,0.016200001
,,,-0.0016,0.017600001
,,,-0.001595,0.017400001
,,,-0.00159,0.017800001
,,,-0.001585,0.017400001
,,,-0.00158,0.016800001
,,,-0.001575,0.017200001
,,,-0.00157,0.017000001
,,,-0.001565,0.017000001
,,,-0.00156,0.017600001
,,,-0.001555,0.017400001
,,,-0.00155,0.017000001
,,,-0.001545,0.017000001
,,,-0.00154,0.016800001
,,,-0.001535,0.017800001
,,,-0.00153,0.016400001
,,,-0.001525,0.017400001
,,,-0.00152,0.016400001
,,,-0.001515,0.017200001
,,,-0.00151,0.017800001
,,,-0.001505,0.016800001
,,,-0.0015,0.016400001
,,,-0.001495,0.017200001
,,,-0.00149,0.017000001
,,,-0.001485,0.017000001
,,,-0.00148,0.015800001
,,,-0.001475,0.016800001
,,,-0.00147,0.016800001
,,,-0.001465,0.018000001
,,,-0.00146,0.016600001
,,,-0.001455,0.016800001
,,,-0.00145,0.016600001
,,,-0.001445,0.017200001
,,,-0.00144,0.017400001
,,,-0.001435,0.016600001
,,,-0.00143,0.016600001
,,,-0.001425,0.016400001
,,,-0.00142,0.017400001
,,,-0.001415,0.017400001
,,,-0.00141,0.016400001
,,,-0.001405,0.016600001
,,,-0.0014,0.017000001
,,,-0.001395,0.017200001
,,,-0.00139,0.017200001
,,,-0.001385,0.018000001
,,,-0.00138,0.017400001
,,,-0.001375,0.018600001
,,,-0.00137,0.017000001
,,,-0.001365,0.015800001
,,,-0.00136,0.017600001
,,,-0.001355,0.016000001
,,,-0.00135,0.017200001
,,,-0.001345,0.016600001
,,,-0.00134,0.016600001
,,,-0.001335,0.017200001
,,,-0.00133,0.017400001
,,,-0.001325,0.016400001
,,,-0.00132,0.016400001
,,,-0.001315,0.017400001
,,,-0.00131,0.017400001
,,,-0.001305,0.017400001
,,,-0.0013,0.017200001
,,,-0.001295,0.017000001
,,,-0.00129,0.017000001
,,,-0.001285,0.017600001
,,,-0.00128,0.016400001
,,,-0.001275,0.017000001
,,,-0.00127,0.017800001
,,,-0.001265,0.016000001
,,,-0.00126,0.017000001
,,,-0.001255,0.017200001
,,,-0.00125,0.017600001
,,,-0.001245,0.017600001
,,,-0.00124,0.017200001
,,,-0.001235,0.018000001
,,,-0.00123,0.018400001
,,,-0.001225,0.017800001
,,,-0.00122,0.017600001
,,,-0.001215,0.016800001
,,,-0.00121,0.017800001
,,,-0.001205,0.017000001
,,,-0.0012,0.017400001
,,,-0.001195,0.018000001
,,,-0.00119,0.017200001
,,,-0.001185,0.017600001
,,,-0.00118,0.018000001
,,,-0.001175,0.017200001
,,,-0.00117,0.018200001
,,,-0.001165,0.017800001
,,,-0.00116,0.018000001
,,,-0.001155,0.017200001
,,,-0.00115,0.017200001
,,,-0.001145,0.017600001
,,,-0.00114,0.017400001
,,,-0.001135,0.017600001
,,,-0.00113,0.017400001
,,,-0.001125,0.017800001
,,,-0.00112,0.018000001
,,,-0.001115,0.017800001
,,,-0.00111,0.016400001
,,,-0.001105,0.016600001
,,,-0.0011,0.017400001
,,,-0.001095,0.017400001
,,,-0.00109,0.017400001
,,,-0.001085,0.015800001
,,,-0.00108,0.017000001
,,,-0.001075,0.016800001
,,,-0.00107,0.017600001
,,,-0.001065,0.017200001
,,,-0.00106,0.017600001
,,,-0.001055,0.016600001
,,,-0.00105,0.016600001
,,,-0.001045,0.016800001
,,,-0.00104,0.018400001
,,,-0.001035,0.016800001
,,,-0.00103,0.017400001
,,,-0.001025,0.017000001
,,,-0.00102,0.016400001
,,,-0.001015,0.017400001
,,,-0.00101,0.017400001
,,,-0.001005,0.016600001
,,,-0.001,0.016600001
,,,-0.000995,0.017400001
,,,-0.00099,0.017600001
,,,-0.000985,0.017800001
,,,-0.00098,0.016400001
,,,-0.000975,0.017200001
,,,-0.00097,0.016800001
,,,-0.000965,0.016800001
,,,-0.00096,0.016200001
,,,-0.000955,0.016400001
,,,-0.00095,0.018000001
,,,-0.000945,0.017600001
,,,-0.00094,0.017800001
,,,-0.000935,0.015800001
,,,-0.00093,0.016800001
,,,-0.000925,0.016800001
,,,-0.00092,0.017800001
,,,-0.000915,0.017600001
,,,-0.00091,0.017400001
,,,-0.000905,0.018000001
,,,-0.0009,0.016800001
,,,-0.000895,0.017000001
,,,-0.00089,0.018200001
,,,-0.000885,0.017400001
,,,-0.00088,0.017800001
,,,-0.000875,0.018200001
,,,-0.00087,0.016800001
,,,-0.000865,0.017800001
,,,-0.00086,0.017400001
,,,-0.000855,0.017400001
,,,-0.00085,0.015800001
,,,-0.000845,0.016000001
,,,-0.00084,0.016400001
,,,-0.000835,0.017400001
,,,-0.00083,0.017400001
,,,-0.000825,0.017200001
,,,-0.00082,0.016400001
,,,-0.000815,0.016400001
,,,-0.00081,0.017000001
,,,-0.000805,0.016600001
,,,-0.0008,0.016400001
,,,-0.000795,0.016400001
,,,-0.00079,0.017400001
,,,-0.000785,0.016400001
,,,-0.00078,0.016800001
,,,-0.000775,0.018000001
,,,-0.00077,0.016400001
,,,-0.000765,0.017200001
,,,-0.00076,0.016600001
,,,-0.000755,0.017600001
,,,-0.00075,0.017000001
,,,-0.000745,0.018200001
,,,-0.00074,0.016600001
,,,-0.000735,0.017400001
,,,-0.00073,0.016600001
,,,-0.000725,0.017200001
,,,-0.00072,0.016800001
,,,-0.000715,0.017400001
,,,-0.00071,0.016000001
,,,-0.000705,0.017600001
,,,-0.0007,0.016800001
,,,-0.000695,0.018400001
,,,-0.00069,0.017200001
,,,-0.000685,0.016400001
,,,-0.00068,0.015800001
,,,-0.000675,0.017200001
,,,-0.00067,0.016400001
,,,-0.000665,0.017600001
,,,-0.00066,0.017000001
,,,-0.000655,0.017400001
,,,-0.00065,0.016800001
,,,-0.000645,0.017200001
,,,-0.00064,0.017600001
,,,-0.000635,0.017000001
,,,-0.00063,0.017800001
,,,-0.000625,0.017200001
,,,-0.00062,0.017600001
,,,-0.000615,0.017400001
,,,-0.00061,0.017200001
,,,-0.000605,0.017400001
,,,-0.0006,0.015800001
,,,-0.000595,0.017200001
,,,-0.00059,0.017000001
,,,-0.000585,0.016400001
,,,-0.00058,0.018000001
,,,-0.000575,0.017200001
,,,-0.00057,0.016000001
,,,-0.000565,0.017400001
,,,-0.00056,0.017000001
,,,-0.000555,0.018200001
,,,-0.00055,0.017600001
,,,-0.000545,0.017000001
,,,-0.00054,0.017200001
,,,-0.000535,0.018200001
,,,-0.00053,0.016600001
,,,-0.000525,0.016800001
,,,-0.00052,0.016800001
,,,-0.000515,0.016800001
,,,-0.00051,0.016400001
,,,-0.000505,0.017400001
,,,-0.0005,0.017400001
,,,-0.000495,0.017600001
,,,-0.00049,0.018000001
,,,-0.000485,0.017600001
,,,-0.00048,0.017000001
,,,-0.000475,0.017000001
,,,-0.00047,0.018000001
,,,-0.000465,0.017200001
,,,-0.00046,0.017800001
,,,-0.000455,0.018000001
,,,-0.00045,0.018200001
,,,-0.000445,0.016800001
,,,-0.00044,0.016200001
,,,-0.000435,0.017600001
,,,-0.00043,0.017200001
,,,-0.000425,0.017400001
,,,-0.00042,0.017000001
,,,-0.000415,0.016600001
,,,-0.00041,0.016800001
,,,-0.000405,0.017600001
,,,-0.0004,0.017400001
,,,-0.000395,0.017000001
,,,-0.00039,0.016800001
,,,-0.000385,0.017600001
,,,-0.00038,0.016800001
,,,-0.000375,0.017400001
,,,-0.00037,0.017800001
,,,-0.000365,0.017600001
,,,-0.00036,0.016800001
,,,-0.000355,0.017400001
,,,-0.00035,0.016200001
,,,-0.000345,0.016200001
,,,-0.00034,0.017400001
,,,-0.000335,0.016800001
,,,-0.00033,0.017200001
,,,-0.000325,0.017200001
,,,-0.00032,0.017400001
,,,-0.000315,0.017800001
,,,-0.00031,0.017000001
,,,-0.000305,0.016600001
,,,-0.0003,0.017400001
,,,-0.000295,0.017600001
,,,-0.00029,0.016800001
,,,-0.000285,0.016800001
,,,-0.00028,0.015800001
,,,-0.000275,0.017200001
,,,-0.00027,0.017400001
,,,-0.000265,0.016800001
,,,-0.00026,0.017200001
,,,-0.000255,0.017400001
,,,-0.00025,0.018000001
,,,-0.000245,0.016800001
,,,-0.00024,0.017600001
,,,-0.000235,0.017000001
,,,-0.00023,0.017200001
,,,-0.000225,0.018000001
,,,-0.00022,0.016600001
,,,-0.000215,0.016200001
,,,-0.00021,0.017200001
,,,-0.000205,0.016200001
,,,-0.0002,0.016800001
,,,-0.000195,0.017200001
,,,-0.00019,0.016400001
,,,-0.000185,0.016400001
,,,-0.00018,0.016200001
,,,-0.000175,0.016600001
,,,-0.00017,0.017600001
,,,-0.000165,0.017200001
,,,-0.00016,0.017000001
,,,-0.000155,0.018000001
,,,-0.00015,0.018000001
,,,-0.000145,0.018000001
,,,-0.00014,0.017200001
,,,-0.000135,0.017600001
,,,-0.00013,0.017000001
,,,-0.000125,0.017600001
,,,-0.00012,0.018200001
,,,-0.000115,0.018200001
,,,-0.00011,0.018000001
,,,-0.000105,0.017200001
,,,-0.0001,0.016600001
,,,-9.5E-05,0.017400001
,,,-9E-05,0.016800001
,,,-8.5E-05,0.018200001
,,,-8E-05,0.017800001
,,,-7.5E-05,0.017200001
,,,-7E-05,0.016800001
,,,-6.5E-05,0.017400001
,,,-6E-05,0.017600001
,,,-5.5E-05,0.016200001
,,,-5E-05,0.017400001
,,,-4.5E-05,0.017200001
,,,-4E-05,0.016600001
,,,-3.5E-05,0.016400001
,,,-3E-05,0.016400001
,,,-2.5E-05,0.017000001
,,,-2E-05,0.017200001
,,,-1.5E-05,0.018000001
,,,-1E-05,0.017200001
,,,-5E-06,0.017200001
,,,0,0.017600001
,,,5E-06,0.017400001
,,,1E-05,0.018000001
,,,1.5E-05,0.018200001
,,,2E-05,0.017400001
,,,2.5E-05,0.016600001
,,,3E-05,0.017800001
,,,3.5E-05,0.016800001
,,,4E-05,0.017600001
,,,4.5E-05,0.017200001
,,,5E-05,0.017400001
,,,5.5E-05,0.017600001
,,,6E-05,0.017400001
,,,6.5E-05,0.017200001
,,,7E-05,0.017200001
,,,7.5E-05,0.016600001
,,,8E-05,0.017600001
,,,8.5E-05,0.016800001
,,,9E-05,0.017800001
,,,9.5E-05,0.017800001
,,,0.0001,0.017200001
,,,0.000105,0.016000001
,,,0.00011,0.017600001
,,,0.000115,0.017400001
,,,0.00012,0.017600001
,,,0.000125,0.016400001
,,,0.00013,0.017600001
,,,0.000135,0.017200001
,,,0.00014,0.017400001
,,,0.000145,0.018400001
,,,0.00015,0.017200001
,,,0.000155,0.017600001
,,,0.00016,0.016400001
,,,0.000165,0.016600001
,,,0.00017,0.017800001
,,,0.000175,0.017400001
,,,0.00018,0.017400001
,,,0.000185,0.017400001
,,,0.00019,0.016800001
,,,0.000195,0.016400001
,,,0.0002,0.017000001
,,,0.000205,0.017200001
,,,0.00021,0.017600001
,,,0.000215,0.017000001
,,,0.00022,0.017200001
,,,0.000225,0.017800001
,,,0.00023,0.017600001
,,,0.000235,0.017800001
,,,0.00024,0.016600001
,,,0.000245,0.017000001
,,,0.00025,0.017200001
,,,0.000255,0.017800001
,,,0.00026,0.017000001
,,,0.000265,0.016400001
,,,0.00027,0.017600001
,,,0.000275,0.016800001
,,,0.00028,0.017400001
,,,0.000285,0.017600001
,,,0.00029,0.016600001
,,,0.000295,0.016400001
,,,0.0003,0.016000001
,,,0.000305,0.018000001
,,,0.00031,0.018000001
,,,0.000315,0.017800001
,,,0.00032,0.017600001
,,,0.000325,0.018000001
,,,0.00033,0.017000001
,,,0.000335,0.017200001
,,,0.00034,0.016400001
,,,0.000345,0.016200001
,,,0.00035,0.017200001
,,,0.000355,0.017800001
,,,0.00036,0.016000001
,,,0.000365,0.017400001
,,,0.00037,0.017200001
,,,0.000375,0.017600001
,,,0.00038,0.017000001
,,,0.000385,0.018000001
,,,0.00039,0.016600001
,,,0.000395,0.018000001
,,,0.0004,0.017400001
,,,0.000405,0.019200001
,,,0.00041,0.017200001
,,,0.000415,0.016800001
,,,0.00042,0.017800001
,,,0.000425,0.017000001
,,,0.00043,0.017600001
,,,0.000435,0.018600001
,,,0.00044,0.017000001
,,,0.000445,0.016600001
,,,0.00045,0.016800001
,,,0.000455,0.017400001
,,,0.00046,0.016800001
,,,0.000465,0.017800001
,,,0.00047,0.016400001
,,,0.000475,0.017800001
,,,0.00048,0.017400001
,,,0.000485,0.017200001
,,,0.00049,0.017600001
,,,0.000495,0.017400001
,,,0.0005,0.018000001
,,,0.000505,0.016800001
,,,0.00051,0.017200001
,,,0.000515,0.018000001
,,,0.00052,0.017400001
,,,0.000525,0.017800001
,,,0.00053,0.017000001
,,,0.000535,0.017200001
,,,0.00054,0.018400001
,,,0.000545,0.017000001
,,,0.00055,0.017200001
,,,0.000555,0.017200001
,,,0.00056,0.016400001
,,,0.000565,0.017200001
,,,0.00057,0.018400001
,,,0.000575,0.017800001
,,,0.00058,0.016800001
,,,0.000585,0.016600001
,,,0.00059,0.018000001
,,,0.000595,0.017000001
,,,0.0006,0.017800001
,,,0.000605,0.016400001
,,,0.00061,0.017200001
,,,0.000615,0.018000001
,,,0.00062,0.017800001
,,,0.000625,0.017800001
,,,0.00063,0.017000001
,,,0.000635,0.016000001
,,,0.00064,0.017000001
,,,0.000645,0.017200001
,,,0.00065,0.016400001
,,,0.000655,0.017000001
,,,0.00066,0.016200001
,,,0.000665,0.018200001
,,,0.00067,0.016800001
,,,0.000675,0.016600001
,,,0.00068,0.017400001
,,,0.000685,0.017000001
,,,0.00069,0.017000001
,,,0.000695,0.017600001
,,,0.0007,0.017400001
,,,0.000705,0.017200001
,,,0.00071,0.017600001
,,,0.000715,0.017200001
,,,0.00072,0.017400001
,,,0.000725,0.016800001
,,,0.00073,0.016600001
,,,0.000735,0.016600001
,,,0.00074,0.017000001
,,,0.000745,0.017400001
,,,0.00075,0.017400001
,,,0.000755,0.017200001
,,,0.00076,0.017200001
,,,0.000765,0.016800001
,,,0.00077,0.018200001
,,,0.000775,0.017200001
,,,0.00078,0.017400001
,,,0.000785,0.016800001
,,,0.00079,0.017800001
,,,0.000795,0.016000001
,,,0.0008,0.017400001
,,,0.000805,0.017400001
,,,0.00081,0.017400001
,,,0.000815,0.018400001
,,,0.00082,0.018000001
,,,0.000825,0.017600001
,,,0.00083,0.017000001
,,,0.000835,0.018200001
,,,0.00084,0.016200001
,,,0.000845,0.017800001
,,,0.00085,0.018000001
,,,0.000855,0.017600001
,,,0.00086,0.016800001
,,,0.000865,0.017400001
,,,0.00087,0.016800001
,,,0.000875,0.018000001
,,,0.00088,0.018600001
,,,0.000885,0.017800001
,,,0.00089,0.017600001
,,,0.000895,0.017400001
,,,0.0009,0.017400001
,,,0.000905,0.017200001
,,,0.00091,0.017800001
,,,0.000915,0.017200001
,,,0.00092,0.017400001
,,,0.000925,0.018200001
,,,0.00093,0.017400001
,,,0.000935,0.017200001
,,,0.00094,0.017600001
,,,0.000945,0.017400001
,,,0.00095,0.018600001
,,,0.000955,0.017400001
,,,0.00096,0.017200001
,,,0.000965,0.017400001
,,,0.00097,0.017200001
,,,0.000975,0.017800001
,,,0.00098,0.017800001
,,,0.000985,0.017600001
,,,0.00099,0.016600001
,,,0.000995,0.018000001
,,,0.001,0.016800001
,,,0.001005,0.017400001
,,,0.00101,0.017200001
,,,0.001015,0.017800001
,,,0.00102,0.017600001
,,,0.001025,0.018000001
,,,0.00103,0.017600001
,,,0.001035,0.017000001
,,,0.00104,0.016800001
,,,0.001045,0.018000001
,,,0.00105,0.017800001
,,,0.001055,0.017000001
,,,0.00106,0.017600001
,,,0.001065,0.017200001
,,,0.00107,0.017800001
,,,0.001075,0.016800001
,,,0.00108,0.017800001
,,,0.001085,0.016800001
,,,0.00109,0.017200001
,,,0.001095,0.018600001
,,,0.0011,0.018000001
,,,0.001105,0.017800001
,,,0.00111,0.017800001
,,,0.001115,0.017600001
,,,0.00112,0.017800001
,,,0.001125,0.017400001
,,,0.00113,0.017200001
,,,0.001135,0.018200001
,,,0.00114,0.017200001
,,,0.001145,0.018600001
,,,0.00115,0.017000001
,,,0.001155,0.017000001
,,,0.00116,0.017000001
,,,0.001165,0.016400001
,,,0.00117,0.019400001
,,,0.001175,0.018000001
,,,0.00118,0.016400001
,,,0.001185,0.017800001
,,,0.00119,0.017400001
,,,0.001195,0.018000001
,,,0.0012,0.016200001
,,,0.001205,0.017200001
,,,0.00121,0.016800001
,,,0.001215,0.016800001
,,,0.00122,0.017800001
,,,0.001225,0.017800001
,,,0.00123,0.017800001
,,,0.001235,0.018000001
,,,0.00124,0.016800001
,,,0.001245,0.017600001
,,,0.00125,0.016800001
,,,0.001255,0.016600001
,,,0.00126,0.018200001
,,,0.001265,0.017800001
,,,0.00127,0.017600001
,,,0.001275,0.016600001
,,,0.00128,0.017800001
,,,0.001285,0.017400001
,,,0.00129,0.018200001
,,,0.001295,0.017000001
,,,0.0013,0.016400001
,,,0.001305,0.018600001
,,,0.00131,0.017200001
,,,0.001315,0.017200001
,,,0.00132,0.017400001
,,,0.001325,0.016600001
,,,0.00133,0.017400001
,,,0.001335,0.018400001
,,,0.00134,0.017800001
,,,0.001345,0.017800001
,,,0.00135,0.016800001
,,,0.001355,0.017600001
,,,0.00136,0.018200001
,,,0.001365,0.017200001
,,,0.00137,0.017600001
,,,0.001375,0.017600001
,,,0.00138,0.017200001
,,,0.001385,0.017000001
,,,0.00139,0.016200001
,,,0.001395,0.017000001
,,,0.0014,0.017600001
,,,0.001405,0.018200001
,,,0.00141,0.017600001
,,,0.001415,0.017000001
,,,0.00142,0.017400001
,,,0.001425,0.017200001
,,,0.00143,0.017600001
,,,0.001435,0.017000001
,,,0.00144,0.017800001
,,,0.001445,0.017600001
,,,0.00145,0.016400001
,,,0.001455,0.016400001
,,,0.00146,0.016200001
,,,0.001465,0.017000001
,,,0.00147,0.018000001
,,,0.001475,0.017400001
,,,0.00148,0.018200001
,,,0.001485,0.017800001
,,,0.00149,0.016400001
,,,0.001495,0.017600001
,,,0.0015,0.017600001
,,,0.001505,0.017200001
,,,0.00151,0.017200001
,,,0.001515,0.017200001
,,,0.00152,0.018200001
,,,0.001525,0.017800001
,,,0.00153,0.018000001
,,,0.001535,0.015400001
,,,0.00154,0.017600001
,,,0.001545,0.016800001
,,,0.00155,0.017800001
,,,0.001555,0.016200001
,,,0.00156,0.017800001
,,,0.001565,0.018000001
,,,0.00157,0.016400001
,,,0.001575,0.017200001
,,,0.00158,0.016400001
,,,0.001585,0.018000001
,,,0.00159,0.017200001
,,,0.001595,0.017000001
,,,0.0016,0.017400001
,,,0.001605,0.017800001
,,,0.00161,0.016800001
,,,0.001615,0.017400001
,,,0.00162,0.017000001
,,,0.001625,0.016600001
,,,0.00163,0.017400001
,,,0.001635,0.017000001
,,,0.00164,0.018400001
