data/raw/Final_POL_Test_1/SOP036_Ch4.csv

"Record Length",1000,"Points",-5E-06,0.018338125
"Sample Interval",1E-08,s,-4.99E-06,0.018376875
"Trigger Point",500,"Samples",-4.98E-06,0.018364375
"Trigger Time",0,s,-4.97E-06,0.0181725
"",,,-4.96E-06,0.018095
"Horizontal Offset",-5E-06,s,-4.95E-06,0.018589375
,,,-4.94E-06,0.018249375
,,,-4.93E-06,0.018430625
,,,-4.92E-06,0.018401875
,,,-4.91E-06,0.018701875
,,,-4.9E-06,0.018283125
,,,-4.89E-06,0.018700625
,,,-4.88E-06,0.018324375
,,,-4.87E-06,0.018409375
,,,-4.86E-06,0.018428125
,,,-4.85E-06,0.0183325
,,,-4.84E-06,0.018339375
,,,-4.83E-06,0.01832
,,,-4.82E-06,0.018521875
,,,-4.81E-06,0.0182975
,,,-4.8E-06,0.01831375
,,,-4.79E-06,0.01822875
,,,-4.78E-06,0.018354375
,,,-4.77E-06,0.018334375
,,,-4.76E-06,0.018298125
,,,-4.75E-06,0.018170625
,,,-4.74E-06,0.018598125
,,,-4.73E-06,0.01834625
,,,-4.72E-06,0.018335
,,,-4.71E-06,0.018556875
,,,-4.7E-06,0.01826
,,,-4.69E-06,0.018458125
,,,-4.68E-06,0.018320625
,,,-4.67E-06,0.018443125
,,,-4.66E-06,0.018413125
,,,-4.65E-06,0.01838875
,,,-4.64E-06,0.01827625
,,,-4.63E-06,0.0184675
,,,-4.62E-06,0.018288125
,,,-4.61E-06,0.01863625
,,,-4.6E-06,0.01813625
,,,-4.59E-06,0.018303125
,,,-4.58E-06,0.0184275
,,,-4.57E-06,0.018210625
,,,-4.56E-06,0.018454375
,,,-4.55E-06,0.0183875
,,,-4.54E-06,0.018309375
,,,-4.53E-06,0.01807375
,,,-4.52E-06,0.018310625
,,,-4.51E-06,0.01829875
,,,-4.5E-06,0.01840875
,,,-4.49E-06,0.01839125
,,,-4.48E-06,0.018488125
,,,-4.47E-06,0.01862
,,,-4.46E-06,0.018543125
,,,-4.45E-06,0.018600625
,,,-4.44E-06,0.01856
,,,-4.43E-06,0.01852125
,,,-4.42E-06,0.0184425
,,,-4.41E-06,0.018426875
,,,-4.4E-06,0.018315625
,,,-4.39E-06,0.018469375
,,,-4.38E-06,0.017985
,,,-4.37E-06,0.018541875
,,,-4.36E-06,0.0181875
,,,-4.35E-06,0.0181975
,,,-4.34E-06,0.01835625
,,,-4.33E-06,0.01863375
,,,-4.32E-06,0.0183175
,,,-4.31E-06,0.018488125
,,,-4.3E-06,0.01839625
,,,-4.29E-06,0.018304375
,,,-4.28E-06,0.018408125
,,,-4.27E-06,0.018363125
,,,-4.26E-06,0.0183675
,,,-4.25E-06,0.018320625
,,,-4.24E-06,0.018240625
,,,-4.23E-06,0.018384375
,,,-4.22E-06,0.018465
,,,-4.21E-06,0.018150625
,,,-4.2E-06,0.018375625
,,,-4.19E-06,0.01821125
,,,-4.18E-06,0.01839875
,,,-4.17E-06,0.018336875
,,,-4.16E-06,0.01844
,,,-4.15E-06,0.018434375
,,,-4.14E-06,0.018361875
,,,-4.13E-06,0.018324375
,,,-4.12E-06,0.018289375
,,,-4.11E-06,0.018456875
,,,-4.1E-06,0.018203125
,,,-4.09E-06,0.01851
,,,-4.08E-06,0.018395
,,,-4.07E-06,0.018410625
,,,-4.06E-06,0.01840375
,,,-4.05E-06,0.01839
,,,-4.04E-06,0.01817375
,,,-4.03E-06,0.018209375
,,,-4.02E-06,0.018198125
,,,-4.01E-06,0.018613125
,,,-4E-06,0.01831375
,,,-3.99E-06,0.018440625
,,,-3.98E-06,0.01836375
,,,-3.97E-06,0.0186575
,,,-3.96E-06,0.01828875
,,,-3.95E-06,0.018438125
,,,-3.94E-06,0.018246875
,,,-3.93E-06,0.018195625
,,,-3.92E-06,0.018278125
,,,-3.91E-06,0.01816125
,,,-3.9E-06,0.0185925
,,,-3.89E-06,0.018218125
,,,-3.88E-06,0.018490625
,,,-3.87E-06,0.01847125
,,,-3.86E-06,0.0183525
,,,-3.85E-06,0.018473125
,,,-3.84E-06,0.018436875
,,,-3.83E-06,0.018176875
,,,-3.82E-06,0.018145625
,,,-3.81E-06,0.018456875
,,,-3.8E-06,0.018205625
,,,-3.79E-06,0.018341875
,,,-3.78E-06,0.01834375
,,,-3.77E-06,0.018389375
,,,-3.76E-06,0.0184425
,,,-3.75E-06,0.018334375
,,,-3.74E-06,0.0183775
,,,-3.73E-06,0.01838
,,,-3.72E-06,0.018476875
,,,-3.71E-06,0.018238125
,,,-3.7E-06,0.018346875
,,,-3.69E-06,0.018366875
,,,-3.68E-06,0.018169375
,,,-3.67E-06,0.018331875
,,,-3.66E-06,0.018295
,,,-3.65E-06,0.01838875
,,,-3.64E-06,0.018334375
,,,-3.63E-06,0.018316875
,,,-3.62E-06,0.018460625
,,,-3.61E-06,0.018474375
,,,-3.6E-06,0.01814625
,,,-3.59E-06,0.01826
,,,-3.58E-06,0.018253125
,,,-3.57E-06,0.018459375
,,,-3.56E-06,0.018344375
,,,-3.55E-06,0.018328125
,,,-3.54E-06,0.0183575
,,,-3.53E-06,0.01848875
,,,-3.52E-06,0.0182325
,,,-3.51E-06,0.01817
,,,-3.5E-06,0.018361875
,,,-3.49E-06,0.01834125
,,,-3.48E-06,0.01851125
,,,-3.47E-06,0.0182625
,,,-3.46E-06,0.018380625
,,,-3.45E-06,0.0184175
,,,-3.44E-06,0.018455
,,,-3.43E-06,0.018260625
,,,-3.42E-06,0.018331875
,,,-3.41E-06,0.018336875
,,,-3.4E-06,0.0183325
,,,-3.39E-06,0.0182725
,,,-3.38E-06,0.01834625
,,,-3.37E-06,0.0182425
,,,-3.36E-06,0.01827875
,,,-3.35E-06,0.018471875
,,,-3.34E-06,0.018331875
,,,-3.33E-06,0.018055625
,,,-3.32E-06,0.018434375
,,,-3.31E-06,0.0182975
,,,-3.3E-06,0.0183675
,,,-3.29E-06,0.018425
,,,-3.28E-06,0.01822
,,,-3.27E-06,0.018371875
,,,-3.26E-06,0.01844
,,,-3.25E-06,0.018215
,,,-3.24E-06,0.0185
,,,-3.23E-06,0.018379375
,,,-3.22E-06,0.018621875
,,,-3.21E-06,0.018535625
,,,-3.2E-06,0.0186075
,,,-3.19E-06,0.01833
,,,-3.18E-06,0.018539375
,,,-3.17E-06,0.018365625
,,,-3.16E-06,0.01832875
,,,-3.15E-06,0.018100625
,,,-3.14E-06,0.018423125
,,,-3.13E-06,0.01820625
,,,-3.12E-06,0.018306875
,,,-3.11E-06,0.018495625
,,,-3.1E-06,0.018236875
,,,-3.09E-06,0.018255625
,,,-3.08E-06,0.018589375
,,,-3.07E-06,0.0184675
,,,-3.06E-06,0.01829375
,,,-3.05E-06,0.01829875
,,,-3.04E-06,0.01816125
,,,-3.03E-06,0.018204375
,,,-3.02E-06,0.0183625
,,,-3.01E-06,0.018395625
,,,-3E-06,0.018363125
,,,-2.99E-06,0.01837
,,,-2.98E-06,0.018408125
,,,-2.97E-06,0.01814375
,,,-2.96E-06,0.0182625
,,,-2.95E-06,0.018445625
,,,-2.94E-06,0.01825
,,,-2.93E-06,0.01823375
,,,-2.92E-06,0.018328125
,,,-2.91E-06,0.0186975
,,,-2.9E-06,0.018726875
,,,-2.89E-06,0.018560625
,,,-2.88E-06,0.018159375
,,,-2.87E-06,0.018441875
,,,-2.86E-06,0.018278125
,,,-2.85E-06,0.01849
,,,-2.84E-06,0.018594375
,,,-2.83E-06,0.0183925
,,,-2.82E-06,0.018053125
,,,-2.81E-06,0.018250625
,,,-2.8E-06,0.018325625
,,,-2.79E-06,0.0182525
,,,-2.78E-06,0.018464375
,,,-2.77E-06,0.01841875
,,,-2.76E-06,0.018251875
,,,-2.75E-06,0.018463125
,,,-2.74E-06,0.01836625
,,,-2.73E-06,0.018380625
,,,-2.72E-06,0.0183375
,,,-2.71E-06,0.018339375
,,,-2.7E-06,0.018551875
,,,-2.69E-06,0.018214375
,,,-2.68E-06,0.018280625
,,,-2.67E-06,0.018331875
,,,-2.66E-06,0.018244375
,,,-2.65E-06,0.018374375
,,,-2.64E-06,0.01829875
,,,-2.63E-06,0.01818875
,,,-2.62E-06,0.018545625
,,,-2.61E-06,0.018355
,,,-2.6E-06,0.018326875
,,,-2.59E-06,0.018398125
,,,-2.58E-06,0.01835625
,,,-2.57E-06,0.018458125
,,,-2.56E-06,0.01814
,,,-2.55E-06,0.01820375
,,,-2.54E-06,0.01837625
,,,-2.53E-06,0.01823625
,,,-2.52E-06,0.01822875
,,,-2.51E-06,0.0184975
,,,-2.5E-06,0.018384375
,,,-2.49E-06,0.01823625
,,,-2.48E-06,0.018363125
,,,-2.47E-06,0.01834625
,,,-2.46E-06,0.018286875
,,,-2.45E-06,0.018413125
,,,-2.44E-06,0.018258125
,,,-2.43E-06,0.018275625
,,,-2.42E-06,0.01852
,,,-2.41E-06,0.018135625
,,,-2.4E-06,0.01828375
,,,-2.39E-06,0.0185175
,,,-2.38E-06,0.018291875
,,,-2.37E-06,0.01821
,,,-2.36E-06,0.01835625
,,,-2.35E-06,0.018169375
,,,-2.34E-06,0.01849625
,,,-2.33E-06,0.018215625
,,,-2.32E-06,0.018443125
,,,-2.31E-06,0.01831375
,,,-2.3E-06,0.01835
,,,-2.29E-06,0.018376875
,,,-2.28E-06,0.01821
,,,-2.27E-06,0.0182675
,,,-2.26E-06,0.018219375
,,,-2.25E-06,0.0185225
,,,-2.24E-06,0.018448125
,,,-2.23E-06,0.018514375
,,,-2.22E-06,0.018575
,,,-2.21E-06,0.018408125
,,,-2.2E-06,0.0181525
,,,-2.19E-06,0.0184325
,,,-2.18E-06,0.01809625
,,,-2.17E-06,0.0182975
,,,-2.16E-06,0.018369375
,,,-2.15E-06,0.018378125
,,,-2.14E-06,0.0183925
,,,-2.13E-06,0.018294375
,,,-2.12E-06,0.018245
,,,-2.11E-06,0.018375625
,,,-2.1E-06,0.01836
,,,-2.09E-06,0.0183425
,,,-2.08E-06,0.01854375
,,,-2.07E-06,0.01875
,,,-2.06E-06,0.018183125
,,,-2.05E-06,0.018023125
,,,-2.04E-06,0.018375625
,,,-2.03E-06,0.018159375
,,,-2.02E-06,0.018250625
,,,-2.01E-06,0.01854375
,,,-2E-06,0.0184875
,,,-1.99E-06,0.018403125
,,,-1.98E-06,0.018418125
,,,-1.97E-06,0.01842375
,,,-1.96E-06,0.018263125
,,,-1.95E-06,0.0184725
,,,-1.94E-06,0.018365
,,,-1.93E-06,0.01834125
,,,-1.92E-06,0.0184925
,,,-1.91E-06,0.01835125
,,,-1.9E-06,0.018233125
,,,-1.89E-06,0.018199375
,,,-1.88E-06,0.018303125
,,,-1.87E-06,0.018550625
,,,-1.86E-06,0.018141875
,,,-1.85E-06,0.0183225
,,,-1.84E-06,0.018518125
,,,-1.83E-06,0.01844
,,,-1.82E-06,0.0184575
,,,-1.81E-06,0.018023125
,,,-1.8E-06,0.01832
,,,-1.79E-06,0.01852375
,,,-1.78E-06,0.01832875
,,,-1.77E-06,0.01824875
,,,-1.76E-06,0.018326875
,,,-1.75E-06,0.018495
,,,-1.74E-06,0.018423125
,,,-1.73E-06,0.01828875
,,,-1.72E-06,0.018040625
,,,-1.71E-06,0.017990625
,,,-1.7E-06,0.018295625
,,,-1.69E-06,0.01832375
,,,-1.68E-06,0.01821875
,,,-1.67E-06,0.018589375
,,,-1.66E-06,0.018635625
,,,-1.65E-06,0.0183275
,,,-1.64E-06,0.0185175
,,,-1.63E-06,0.018305625
,,,-1.62E-06,0.01817875
,,,-1.61E-06,0.0184925
,,,-1.6E-06,0.01815375
,,,-1.59E-06,0.018338125
,,,-1.58E-06,0.01841875
,,,-1.57E-06,0.018365
,,,-1.56E-06,0.01809875
,,,-1.55E-06,0.01834375
,,,-1.54E-06,0.018234375
,,,-1.53E-06,0.01847625
,,,-1.52E-06,0.018541875
,,,-1.51E-06,0.018365
,,,-1.5E-06,0.018388125
,,,-1.49E-06,0.018501875
,,,-1.48E-06,0.018348125
,,,-1.47E-06,0.018411875
,,,-1.46E-06,0.018354375
,,,-1.45E-06,0.018375
,,,-1.44E-06,0.01818
,,,-1.43E-06,0.018584375
,,,-1.42E-06,0.01836125
,,,-1.41E-06,0.018574375
,,,-1.4E-06,0.018315
,,,-1.39E-06,0.018304375
,,,-1.38E-06,0.01838625
,,,-1.37E-06,0.01843625
,,,-1.36E-06,0.018495
,,,-1.35E-06,0.01815625
,,,-1.34E-06,0.01846875
,,,-1.33E-06,0.018295625
,,,-1.32E-06,0.01834625
,,,-1.31E-06,0.01833
,,,-1.3E-06,0.01842625
,,,-1.29E-06,0.018364375
,,,-1.28E-06,0.018380625
,,,-1.27E-06,0.018095
,,,-1.26E-06,0.0184475
,,,-1.25E-06,0.0183025
,,,-1.24E-06,0.018320625
,,,-1.23E-06,0.018506875
,,,-1.22E-06,0.018085
,,,-1.21E-06,0.018153125
,,,-1.2E-06,0.01838375
,,,-1.19E-06,0.0184225
,,,-1.18E-06,0.01836125
,,,-1.17E-06,0.01822625
,,,-1.16E-06,0.018425625
,,,-1.15E-06,0.018315
,,,-1.14E-06,0.01849375
,,,-1.13E-06,0.0184425
,,,-1.12E-06,0.018385
,,,-1.11E-06,0.0185875
,,,-1.1E-06,0.018354375
,,,-1.09E-06,0.01858
,,,-1.08E-06,0.01856
,,,-1.07E-06,0.018279375
,,,-1.06E-06,0.018371875
,,,-1.05E-06,0.018468125
,,,-1.04E-06,0.018271875
,,,-1.03E-06,0.018405
,,,-1.02E-06,0.018320625
,,,-1.01E-06,0.018244375
,,,-1E-06,0.018495
,,,-9.9E-07,0.0183
,,,-9.8E-07,0.01845375
,,,-9.7E-07,0.018265625
,,,-9.6E-07,0.0180725
,,,-9.5E-07,0.01828
,,,-9.4E-07,0.018409375
,,,-9.3E-07,0.018485
,,,-9.2E-07,0.0183925
,,,-9.1E-07,0.018400625
,,,-9E-07,0.01843125
,,,-8.9E-07,0.0184825
,,,-8.8E-07,0.018358125
,,,-8.7E-07,0.018285625
,,,-8.6E-07,0.018223125
,,,-8.5E-07,0.018455625
,,,-8.4E-07,0.0183375
,,,-8.3E-07,0.018353125
,,,-8.2E-07,0.018395625
,,,-8.1E-07,0.018410625
,,,-8E-07,0.018493125
,,,-7.9E-07,0.018371875
,,,-7.8E-07,0.01858625
,,,-7.7E-07,0.01856375
,,,-7.6E-07,0.018299375
,,,-7.5E-07,0.018284375
,,,-7.4E-07,0.01821875
,,,-7.3E-07,0.018319375
,,,-7.2E-07,0.018435
,,,-7.1E-07,0.018176875
,,,-7E-07,0.01841875
,,,-6.9E-07,0.01852375
,,,-6.8E-07,0.018205
,,,-6.7E-07,0.01846125
,,,-6.6E-07,0.018378125
,,,-6.5E-07,0.018449375
,,,-6.4E-07,0.01849125
,,,-6.3E-07,0.01828
,,,-6.2E-07,0.01837875
,,,-6.1E-07,0.018324375
,,,-6E-07,0.018438125
,,,-5.9E-07,0.01823
,,,-5.8E-07,0.01832375
,,,-5.7E-07,0.018490625
,,,-5.6E-07,0.0183975
,,,-5.5E-07,0.018323125
,,,-5.4E-07,0.01833125
,,,-5.3E-07,0.01860375
,,,-5.2E-07,0.01846875
,,,-5.1E-07,0.018338125
,,,-5E-07,0.01828875
,,,-4.9E-07,0.01825125
,,,-4.8E-07,0.01828125
,,,-4.7E-07,0.018225
,,,-4.6E-07,0.018246875
,,,-4.5E-07,0.01835125
,,,-4.4E-07,0.01854625
,,,-4.3E-07,0.0181925
,,,-4.2E-07,0.018583125
,,,-4.1E-07,0.018371875
,,,-4E-07,0.0183875
,,,-3.9E-07,0.0181325
,,,-3.8E-07,0.01844125
,,,-3.7E-07,0.018591875
,,,-3.6E-07,0.018271875
,,,-3.5E-07,0.0183575
,,,-3.4E-07,0.018006875
,,,-3.3E-07,0.018176875
,,,-3.2E-07,0.01820125
,,,-3.1E-07,0.018330625
,,,-3E-07,0.01838125
,,,-2.9E-07,0.018365
,,,-2.8E-07,0.01838875
,,,-2.7E-07,0.01842375
,,,-2.6E-07,0.01847375
,,,-2.5E-07,0.01832375
,,,-2.4E-07,0.018415
,,,-2.3E-07,0.01825125
,,,-2.2E-07,0.01847
,,,-2.1E-07,0.018536875
,,,-2E-07,0.0183775
,,,-1.9E-07,0.018438125
,,,-1.8E-07,0.01839625
,,,-1.7E-07,0.018395
,,,-1.6E-07,0.018526875
,,,-1.5E-07,0.018199375
,,,-1.4E-07,0.01848875
,,,-1.3E-07,0.018441875
,,,-1.2E-07,0.018196875
,,,-1.1E-07,0.01853375
,,,-1E-07,0.018621875
,,,-9E-08,0.018191875
,,,-8E-08,0.018280625
,,,-7E-08,0.0184975
,,,-6E-08,0.018110625
,,,-5E-08,0.018544375
,,,-4E-08,0.019313125
,,,-3E-08,0.019705625
,,,-2E-08,0.01679
,,,-1E-08,0.0150575
,,,0,0.01595375
,,,1E-08,0.021318125
,,,2E-08,0.022530625
,,,3E-08,0.021488125
,,,4E-08,0.017468125
,,,5E-08,0.01562875
,,,6E-08,0.015485
,,,7E-08,0.01767125
,,,8E-08,0.01924625
,,,9E-08,0.020590625
,,,1E-07,0.020321875
,,,1.1E-07,0.01891875
,,,1.2E-07,0.017299375
,,,1.3E-07,0.0170675
,,,1.4E-07,0.017801875
,,,1.5E-07,0.0190175
,,,1.6E-07,0.01866125
,,,1.7E-07,0.01899125
,,,1.8E-07,0.0185375
,,,1.9E-07,0.018611875
,,,2E-07,0.0182075
,,,2.1E-07,0.018010625
,,,2.2E-07,0.01801625
,,,2.3E-07,0.018330625
,,,2.4E-07,0.018395
,,,2.5E-07,0.018491875
,,,2.6E-07,0.01827875
,,,2.7E-07,0.018675625
,,,2.8E-07,0.018464375
,,,2.9E-07,0.01826875
,,,3E-07,0.018311875
,,,3.1E-07,0.0181925
,,,3.2E-07,0.018609375
,,,3.3E-07,0.01851125
,,,3.4E-07,0.018468125
,,,3.5E-07,0.0184975
,,,3.6E-07,0.018391875
,,,3.7E-07,0.018628125
,,,3.8E-07,0.01835625
,,,3.9E-07,0.018103125
,,,4E-07,0.018190625
,,,4.1E-07,0.018303125
,,,4.2E-07,0.018489375
,,,4.3E-07,0.01835375
,,,4.4E-07,0.018299375
,,,4.5E-07,0.01827375
,,,4.6E-07,0.0183425
,,,4.7E-07,0.018144375
,,,4.8E-07,0.018455625
,,,4.9E-07,0.018318125
,,,5E-07,0.01857625
,,,5.1E-07,0.018240625
,,,5.2E-07,0.018274375
,,,5.3E-07,0.018370625
,,,5.4E-07,0.0184325
,,,5.5E-07,0.018416875
,,,5.6E-07,0.0183375
,,,5.7E-07,0.01814
,,,5.8E-07,0.01835
,,,5.9E-07,0.018435625
,,,6E-07,0.018395625
,,,6.1E-07,0.018325
,,,6.2E-07,0.01825875
,,,6.3E-07,0.01836125
,,,6.4E-07,0.0183325
,,,6.5E-07,0.01834125
,,,6.6E-07,0.018303125
,,,6.7E-07,0.01847625
,,,6.8E-07,0.018426875
,,,6.9E-07,0.01836625
,,,7E-07,0.018435625
,,,7.1E-07,0.018323125
,,,7.2E-07,0.0183025
,,,7.3E-07,0.018481875
,,,7.4E-07,0.018294375
,,,7.5E-07,0.018495
,,,7.6E-07,0.018535
,,,7.7E-07,0.018031875
,,,7.8E-07,0.0183775
,,,7.9E-07,0.018471875
,,,8E-07,0.01823375
,,,8.1E-07,0.018363125
,,,8.2E-07,0.018269375
,,,8.3E-07,0.018319375
,,,8.4E-07,0.018605
,,,8.5E-07,0.018388125
,,,8.6E-07,0.018461875
,,,8.7E-07,0.018215625
,,,8.8E-07,0.01822875
,,,8.9E-07,0.018230625
,,,9E-07,0.018194375
,,,9.1E-07,0.018525
,,,9.2E-07,0.018060625
,,,9.3E-07,0.018560625
,,,9.4E-07,0.0182975
,,,9.5E-07,0.01824125
,,,9.6E-07,0.018310625
,,,9.7E-07,0.018295
,,,9.8E-07,0.018176875
,,,9.9E-07,0.018438125
,,,1E-06,0.01835
,,,1.01E-06,0.018176875
,,,1.02E-06,0.018221875
,,,1.03E-06,0.018288125
,,,1.04E-06,0.0181625
,,,1.05E-06,0.018104375
,,,1.06E-06,0.01824875
,,,1.07E-06,0.018195625
,,,1.08E-06,0.0186525
,,,1.09E-06,0.018756875
,,,1.1E-06,0.017989375
,,,1.11E-06,0.01844
,,,1.12E-06,0.018796875
,,,1.13E-06,0.018455
,,,1.14E-06,0.018504375
,,,1.15E-06,0.018601875
,,,1.16E-06,0.01837125
,,,1.17E-06,0.01828625
,,,1.18E-06,0.01828125
,,,1.19E-06,0.018323125
,,,1.2E-06,0.018335625
,,,1.21E-06,0.018226875
,,,1.22E-06,0.01836
,,,1.23E-06,0.018488125
,,,1.24E-06,0.01839375
,,,1.25E-06,0.01833
,,,1.26E-06,0.018279375
,,,1.27E-06,0.0183
,,,1.28E-06,0.01844625
,,,1.29E-06,0.01859875
,,,1.3E-06,0.018305625
,,,1.31E-06,0.018680625
,,,1.32E-06,0.018023125
,,,1.33E-06,0.0187425
,,,1.34E-06,0.018175625
,,,1.35E-06,0.018144375
,,,1.36E-06,0.018311875
,,,1.37E-06,0.018089375
,,,1.38E-06,0.018578125
,,,1.39E-06,0.018464375
,,,1.4E-06,0.018200625
,,,1.41E-06,0.01845375
,,,1.42E-06,0.01845125
,,,1.43E-06,0.018191875
,,,1.44E-06,0.018403125
,,,1.45E-06,0.018288125
,,,1.46E-06,0.018331875
,,,1.47E-06,0.018244375
,,,1.48E-06,0.01844375
,,,1.49E-06,0.018243125
,,,1.5E-06,0.0182525
,,,1.51E-06,0.018529375
,,,1.52E-06,0.01816625
,,,1.53E-06,0.01832125
,,,1.54E-06,0.018313125
,,,1.55E-06,0.01843375
,,,1.56E-06,0.018463125
,,,1.57E-06,0.0185075
,,,1.58E-06,0.018353125
,,,1.59E-06,0.01838625
,,,1.6E-06,0.01829625
,,,1.61E-06,0.018411875
,,,1.62E-06,0.018574375
,,,1.63E-06,0.01801875
,,,1.64E-06,0.018244375
,,,1.65E-06,0.01837125
,,,1.66E-06,0.0183875
,,,1.67E-06,0.018380625
,,,1.68E-06,0.018225
,,,1.69E-06,0.01832375
,,,1.7E-06,0.01821375
,,,1.71E-06,0.01832125
,,,1.72E-06,0.018539375
,,,1.73E-06,0.0184525
,,,1.74E-06,0.018213125
,,,1.75E-06,0.018175
,,,1.76E-06,0.018324375
,,,1.77E-06,0.018335625
,,,1.78E-06,0.018435625
,,,1.79E-06,0.018335
,,,1.8E-06,0.018306875
,,,1.81E-06,0.01817375
,,,1.82E-06,0.018356875
,,,1.83E-06,0.018395
,,,1.84E-06,0.018138125
,,,1.85E-06,0.018330625
,,,1.86E-06,0.018495625
,,,1.87E-06,0.018253125
,,,1.88E-06,0.018505
,,,1.89E-06,0.0182275
,,,1.9E-06,0.01843625
,,,1.91E-06,0.018384375
,,,1.92E-06,0.01819875
,,,1.93E-06,0.01826
,,,1.94E-06,0.018728125
,,,1.95E-06,0.018243125
,,,1.96E-06,0.017995625
,,,1.97E-06,0.018585625
,,,1.98E-06,0.01827625
,,,1.99E-06,0.01836125
,,,2E-06,0.0185125
,,,2.01E-06,0.018485
,,,2.02E-06,0.018478125
,,,2.03E-06,0.018471875
,,,2.04E-06,0.018538125
,,,2.05E-06,0.018410625
,,,2.06E-06,0.018345
,,,2.07E-06,0.01834125
,,,2.08E-06,0.0183875
,,,2.09E-06,0.0182725
,,,2.1E-06,0.018154375
,,,2.11E-06,0.01818375
,,,2.12E-06,0.01861375
,,,2.13E-06,0.01813
,,,2.14E-06,0.01830875
,,,2.15E-06,0.018341875
,,,2.16E-06,0.01858
,,,2.17E-06,0.0183925
,,,2.18E-06,0.01830125
,,,2.19E-06,0.018295
,,,2.2E-06,0.018295625
,,,2.21E-06,0.01826375
,,,2.22E-06,0.018630625
,,,2.23E-06,0.018274375
,,,2.24E-06,0.0185125
,,,2.25E-06,0.018301875
,,,2.26E-06,0.01815875
,,,2.27E-06,0.0182475
,,,2.28E-06,0.018371875
,,,2.29E-06,0.018538125
,,,2.3E-06,0.018128125
,,,2.31E-06,0.018375625
,,,2.32E-06,0.018415
,,,2.33E-06,0.018263125
,,,2.34E-06,0.01852125
,,,2.35E-06,0.018101875
,,,2.36E-06,0.0181775
,,,2.37E-06,0.018540625
,,,2.38E-06,0.018358125
,,,2.39E-06,0.01833125
,,,2.4E-06,0.018360625
,,,2.41E-06,0.018283125
,,,2.42E-06,0.018093125
,,,2.43E-06,0.018296875
,,,2.44E-06,0.0184275
,,,2.45E-06,0.0183075
,,,2.46E-06,0.018085
,,,2.47E-06,0.018473125
,,,2.48E-06,0.01829625
,,,2.49E-06,0.01827
,,,2.5E-06,0.018210625
,,,2.51E-06,0.01828625
,,,2.52E-06,0.018478125
,,,2.53E-06,0.018248125
,,,2.54E-06,0.01843
,,,2.55E-06,0.018285
,,,2.56E-06,0.018564375
,,,2.57E-06,0.01810125
,,,2.58E-06,0.018443125
,,,2.59E-06,0.018495
,,,2.6E-06,0.0182975
,,,2.61E-06,0.0184075
,,,2.62E-06,0.018224375
,,,2.63E-06,0.0182175
,,,2.64E-06,0.01827875
,,,2.65E-06,0.018413125
,,,2.66E-06,0.01815375
,,,2.67E-06,0.01858125
,,,2.68E-06,0.01838625
,,,2.69E-06,0.01828
,,,2.7E-06,0.018185
,,,2.71E-06,0.018598125
,,,2.72E-06,0.018480625
,,,2.73E-06,0.018395625
,,,2.74E-06,0.018245625
,,,2.75E-06,0.01822375
,,,2.76E-06,0.018595
,,,2.77E-06,0.018346875
,,,2.78E-06,0.018325
,,,2.79E-06,0.018246875
,,,2.8E-06,0.018445
,,,2.81E-06,0.018109375
,,,2.82E-06,0.01844
,,,2.83E-06,0.01828625
,,,2.84E-06,0.018535625
,,,2.85E-06,0.01829
,,,2.86E-06,0.018233125
,,,2.87E-06,0.01849125
,,,2.88E-06,0.018098125
,,,2.89E-06,0.01852625
,,,2.9E-06,0.018456875
,,,2.91E-06,0.0185175
,,,2.92E-06,0.01809375
,,,2.93E-06,0.018365625
,,,2.94E-06,0.017961875
,,,2.95E-06,0.018225625
,,,2.96E-06,0.01847
,,,2.97E-06,0.018529375
,,,2.98E-06,0.018428125
,,,2.99E-06,0.018518125
,,,3E-06,0.0183275
,,,3.01E-06,0.0182025
,,,3.02E-06,0.0182075
,,,3.03E-06,0.01848375
,,,3.04E-06,0.018483125
,,,3.05E-06,0.018146875
,,,3.06E-06,0.018201875
,,,3.07E-06,0.01852125
,,,3.08E-06,0.018360625
,,,3.09E-06,0.018384375
,,,3.1E-06,0.018476875
,,,3.11E-06,0.01827875
,,,3.12E-06,0.018548125
,,,3.13E-06,0.018178125
,,,3.14E-06,0.018339375
,,,3.15E-06,0.018350625
,,,3.16E-06,0.018470625
,,,3.17E-06,0.018475625
,,,3.18E-06,0.018495625
,,,3.19E-06,0.018226875
,,,3.2E-06,0.01834125
,,,3.21E-06,0.01824
,,,3.22E-06,0.01846625
,,,3.23E-06,0.018349375
,,,3.24E-06,0.018505625
,,,3.25E-06,0.0182875
,,,3.26E-06,0.018291875
,,,3.27E-06,0.01841
,,,3.28E-06,0.018248125
,,,3.29E-06,0.01840625
,,,3.3E-06,0.0184525
,,,3.31E-06,0.018241875
,,,3.32E-06,0.0186125
,,,3.33E-06,0.018369375
,,,3.34E-06,0.0182925
,,,3.35E-06,0.018480625
,,,3.36E-06,0.018331875
,,,3.37E-06,0.018706875
,,,3.38E-06,0.018278125
,,,3.39E-06,0.0183575
,,,3.4E-06,0.018095625
,,,3.41E-06,0.018150625
,,,3.42E-06,0.0182275
,,,3.43E-06,0.01850375
,,,3.44E-06,0.0183275
,,,3.45E-06,0.0182725
,,,3.46E-06,0.018599375
,,,3.47E-06,0.018444375
,,,3.48E-06,0.018365625
,,,3.49E-06,0.018285625
,,,3.5E-06,0.018400625
,,,3.51E-06,0.01839625
,,,3.52E-06,0.01847
,,,3.53E-06,0.0185275
,,,3.54E-06,0.01841
,,,3.55E-06,0.018533125
