data/raw/Final_POL_Test_1/SOP076_Ch3.csv

"Record Length",1000,"Points",-5E-06,0.021685001
"Sample Interval",1E-08,s,-4.99E-06,0.021980626
"Trigger Point",500,"Samples",-4.98E-06,0.021836876
"Trigger Time",0,s,-4.97E-06,0.022005001
"",,,-4.96E-06,0.021694376
"Horizontal Offset",-5E-06,s,-4.95E-06,0.021686251
,,,-4.94E-06,0.021761251
,,,-4.93E-06,0.021585001
,,,-4.92E-06,0.021680001
,,,-4.91E-06,0.021760001
,,,-4.9E-06,0.021837501
,,,-4.89E-06,0.022012501
,,,-4.88E-06,0.021811251
,,,-4.87E-06,0.021621876
,,,-4.86E-06,0.021808751
,,,-4.85E-06,0.021648751
,,,-4.84E-06,0.021741876
,,,-4.83E-06,0.021804376
,,,-4.82E-06,0.021453751
,,,-4.81E-06,0.021744376
,,,-4.8E-06,0.021861876
,,,-4.79E-06,0.021853751
,,,-4.78E-06,0.021794376
,,,-4.77E-06,0.021914376
,,,-4.76E-06,0.021748751
,,,-4.75E-06,0.021478751
,,,-4.74E-06,0.021874376
,,,-4.73E-06,0.021871876
,,,-4.72E-06,0.021657501
,,,-4.71E-06,0.021803751
,,,-4.7E-06,0.021726251
,,,-4.69E-06,0.021498751
,,,-4.68E-06,0.021739376
,,,-4.67E-06,0.021975001
,,,-4.66E-06,0.021872501
,,,-4.65E-06,0.021843751
,,,-4.64E-06,0.021735001
,,,-4.63E-06,0.021898751
,,,-4.62E-06,0.021768751
,,,-4.61E-06,0.021822501
,,,-4.6E-06,0.021829376
,,,-4.59E-06,0.022146876
,,,-4.58E-06,0.021826251
,,,-4.57E-06,0.021403751
,,,-4.56E-06,0.021948751
,,,-4.55E-06,0.021765626
,,,-4.54E-06,0.021892501
,,,-4.53E-06,0.021568126
,,,-4.52E-06,0.021756251
,,,-4.51E-06,0.022037501
,,,-4.5E-06,0.021685626
,,,-4.49E-06,0.022051876
,,,-4.48E-06,0.021726876
,,,-4.47E-06,0.021775626
,,,-4.46E-06,0.021860001
,,,-4.45E-06,0.021826251
,,,-4.44E-06,0.021684376
,,,-4.43E-06,0.021480626
,,,-4.42E-06,0.021661251
,,,-4.41E-06,0.021783126
,,,-4.4E-06,0.021970001
,,,-4.39E-06,0.021690626
,,,-4.38E-06,0.021801876
,,,-4.37E-06,0.021543126
,,,-4.36E-06,0.021594376
,,,-4.35E-06,0.021679376
,,,-4.34E-06,0.022047501
,,,-4.33E-06,0.021940001
,,,-4.32E-06,0.021854376
,,,-4.31E-06,0.021750626
,,,-4.3E-06,0.021842501
,,,-4.29E-06,0.021766251
,,,-4.28E-06,0.021654376
,,,-4.27E-06,0.021685001
,,,-4.26E-06,0.021763751
,,,-4.25E-06,0.021939376
,,,-4.24E-06,0.021743126
,,,-4.23E-06,0.021937501
,,,-4.22E-06,0.021812501
,,,-4.21E-06,0.021793751
,,,-4.2E-06,0.021723751
,,,-4.19E-06,0.021710626
,,,-4.18E-06,0.021731251
,,,-4.17E-06,0.021795626
,,,-4.16E-06,0.021938126
,,,-4.15E-06,0.021656876
,,,-4.14E-06,0.021805001
,,,-4.13E-06,0.021924376
,,,-4.12E-06,0.021879376
,,,-4.11E-06,0.021903126
,,,-4.1E-06,0.021676251
,,,-4.09E-06,0.021733751
,,,-4.08E-06,0.021802501
,,,-4.07E-06,0.021826876
,,,-4.06E-06,0.021795001
,,,-4.05E-06,0.021745626
,,,-4.04E-06,0.021740626
,,,-4.03E-06,0.021595001
,,,-4.02E-06,0.021841876
,,,-4.01E-06,0.021831876
,,,-4E-06,0.021918751
,,,-3.99E-06,0.021800001
,,,-3.98E-06,0.021739376
,,,-3.97E-06,0.021675626
,,,-3.96E-06,0.021763126
,,,-3.95E-06,0.021903126
,,,-3.94E-06,0.021796876
,,,-3.93E-06,0.021716251
,,,-3.92E-06,0.021724376
,,,-3.91E-06,0.021834376
,,,-3.9E-06,0.021970001
,,,-3.89E-06,0.021872501
,,,-3.88E-06,0.021535001
,,,-3.87E-06,0.021626251
,,,-3.86E-06,0.021878751
,,,-3.85E-06,0.021597501
,,,-3.84E-06,0.021722501
,,,-3.83E-06,0.021812501
,,,-3.82E-06,0.021841876
,,,-3.81E-06,0.021782501
,,,-3.8E-06,0.021950626
,,,-3.79E-06,0.022111876
,,,-3.78E-06,0.021957501
,,,-3.77E-06,0.021550001
,,,-3.76E-06,0.021823126
,,,-3.75E-06,0.021895626
,,,-3.74E-06,0.021651251
,,,-3.73E-06,0.021769376
,,,-3.72E-06,0.021722501
,,,-3.71E-06,0.021604376
,,,-3.7E-06,0.021654376
,,,-3.69E-06,0.021777501
,,,-3.68E-06,0.021693751
,,,-3.67E-06,0.021668126
,,,-3.66E-06,0.021929376
,,,-3.65E-06,0.021881251
,,,-3.64E-06,0.021708751
,,,-3.63E-06,0.021912501
,,,-3.62E-06,0.021730626
,,,-3.61E-06,0.021470626
,,,-3.6E-06,0.021518751
,,,-3.59E-06,0.021708751
,,,-3.58E-06,0.021714376
,,,-3.57E-06,0.021937501
,,,-3.56E-06,0.021726876
,,,-3.55E-06,0.021687501
,,,-3.54E-06,0.021740001
,,,-3.53E-06,0.021732501
,,,-3.52E-06,0.021870001
,,,-3.51E-06,0.021712501
,,,-3.5E-06,0.021582501
,,,-3.49E-06,0.021620001
,,,-3.48E-06,0.021845001
,,,-3.47E-06,0.021870001
,,,-3.46E-06,0.021713751
,,,-3.45E-06,0.021758751
,,,-3.44E-06,0.021781876
,,,-3.43E-06,0.021776876
,,,-3.42E-06,0.021813751
,,,-3.41E-06,0.021740001
,,,-3.4E-06,0.021719376
,,,-3.39E-06,0.021689376
,,,-3.38E-06,0.021943126
,,,-3.37E-06,0.021647501
,,,-3.36E-06,0.021780001
,,,-3.35E-06,0.021823751
,,,-3.34E-06,0.021828751
,,,-3.33E-06,0.021851876
,,,-3.32E-06,0.021552501
,,,-3.31E-06,0.021943126
,,,-3.3E-06,0.021470001
,,,-3.29E-06,0.021543126
,,,-3.28E-06,0.021618751
,,,-3.27E-06,0.021826251
,,,-3.26E-06,0.021509376
,,,-3.25E-06,0.021874376
,,,-3.24E-06,0.021895001
,,,-3.23E-06,0.021553751
,,,-3.22E-06,0.021635626
,,,-3.21E-06,0.021812501
,,,-3.2E-06,0.021765001
,,,-3.19E-06,0.021685626
,,,-3.18E-06,0.021886251
,,,-3.17E-06,0.021906251
,,,-3.16E-06,0.021953751
,,,-3.15E-06,0.021778126
,,,-3.14E-06,0.021665001
,,,-3.13E-06,0.021935626
,,,-3.12E-06,0.021767501
,,,-3.11E-06,0.021633126
,,,-3.1E-06,0.021704376
,,,-3.09E-06,0.021784376
,,,-3.08E-06,0.021948751
,,,-3.07E-06,0.021565001
,,,-3.06E-06,0.021569376
,,,-3.05E-06,0.021776251
,,,-3.04E-06,0.021248751
,,,-3.03E-06,0.021601876
,,,-3.02E-06,0.021730626
,,,-3.01E-06,0.021789376
,,,-3E-06,0.021521251
,,,-2.99E-06,0.021791251
,,,-2.98E-06,0.021988751
,,,-2.97E-06,0.021788126
,,,-2.96E-06,0.021633126
,,,-2.95E-06,0.021682501
,,,-2.94E-06,0.021522501
,,,-2.93E-06,0.021780001
,,,-2.92E-06,0.021615626
,,,-2.91E-06,0.021798751
,,,-2.9E-06,0.021848126
,,,-2.89E-06,0.021781876
,,,-2.88E-06,0.021703126
,,,-2.87E-06,0.022065001
,,,-2.86E-06,0.021776876
,,,-2.85E-06,0.021626251
,,,-2.84E-06,0.021881251
,,,-2.83E-06,0.021773126
,,,-2.82E-06,0.021617501
,,,-2.81E-06,0.021788751
,,,-2.8E-06,0.021960626
,,,-2.79E-06,0.022038751
,,,-2.78E-06,0.021731251
,,,-2.77E-06,0.021497501
,,,-2.76E-06,0.021795001
,,,-2.75E-06,0.021661251
,,,-2.74E-06,0.022105626
,,,-2.73E-06,0.021941876
,,,-2.72E-06,0.021813126
,,,-2.71E-06,0.021796876
,,,-2.7E-06,0.021550626
,,,-2.69E-06,0.021658126
,,,-2.68E-06,0.021894376
,,,-2.67E-06,0.021748751
,,,-2.66E-06,0.021775626
,,,-2.65E-06,0.021578126
,,,-2.64E-06,0.021656251
,,,-2.63E-06,0.021736876
,,,-2.62E-06,0.021743751
,,,-2.61E-06,0.021604376
,,,-2.6E-06,0.021823126
,,,-2.59E-06,0.021795626
,,,-2.58E-06,0.021765626
,,,-2.57E-06,0.021889376
,,,-2.56E-06,0.021541876
,,,-2.55E-06,0.021815626
,,,-2.54E-06,0.021822501
,,,-2.53E-06,0.021828751
,,,-2.52E-06,0.021924376
,,,-2.51E-06,0.021714376
,,,-2.5E-06,0.021680001
,,,-2.49E-06,0.021621876
,,,-2.48E-06,0.021498126
,,,-2.47E-06,0.021829376
,,,-2.46E-06,0.021749376
,,,-2.45E-06,0.021615001
,,,-2.44E-06,0.021791251
,,,-2.43E-06,0.021811251
,,,-2.42E-06,0.021586251
,,,-2.41E-06,0.022018751
,,,-2.4E-06,0.021886251
,,,-2.39E-06,0.021755001
,,,-2.38E-06,0.021641251
,,,-2.37E-06,0.021839376
,,,-2.36E-06,0.021748751
,,,-2.35E-06,0.021675001
,,,-2.34E-06,0.021620001
,,,-2.33E-06,0.021852501
,,,-2.32E-06,0.021772501
,,,-2.31E-06,0.021900626
,,,-2.3E-06,0.021830001
,,,-2.29E-06,0.021581876
,,,-2.28E-06,0.021844376
,,,-2.27E-06,0.021843751
,,,-2.26E-06,0.021754376
,,,-2.25E-06,0.021728126
,,,-2.24E-06,0.021728126
,,,-2.23E-06,0.021640626
,,,-2.22E-06,0.021670001
,,,-2.21E-06,0.021865001
,,,-2.2E-06,0.021830626
,,,-2.19E-06,0.021686251
,,,-2.18E-06,0.021893751
,,,-2.17E-06,0.021723751
,,,-2.16E-06,0.021836876
,,,-2.15E-06,0.021586251
,,,-2.14E-06,0.021854376
,,,-2.13E-06,0.021830001
,,,-2.12E-06,0.021852501
,,,-2.11E-06,0.021827501
,,,-2.1E-06,0.021920626
,,,-2.09E-06,0.021978126
,,,-2.08E-06,0.021930001
,,,-2.07E-06,0.022138751
,,,-2.06E-06,0.021768751
,,,-2.05E-06,0.021599376
,,,-2.04E-06,0.021929376
,,,-2.03E-06,0.021761876
,,,-2.02E-06,0.021754376
,,,-2.01E-06,0.021643126
,,,-2E-06,0.021790001
,,,-1.99E-06,0.021898126
,,,-1.98E-06,0.021736251
,,,-1.97E-06,0.021860626
,,,-1.96E-06,0.021762501
,,,-1.95E-06,0.021645626
,,,-1.94E-06,0.021716876
,,,-1.93E-06,0.021868751
,,,-1.92E-06,0.021881251
,,,-1.91E-06,0.021867501
,,,-1.9E-06,0.021580001
,,,-1.89E-06,0.021558751
,,,-1.88E-06,0.021811251
,,,-1.87E-06,0.021748751
,,,-1.86E-06,0.021857501
,,,-1.85E-06,0.021938751
,,,-1.84E-06,0.021888751
,,,-1.83E-06,0.021985626
,,,-1.82E-06,0.021910626
,,,-1.81E-06,0.021609376
,,,-1.8E-06,0.021817501
,,,-1.79E-06,0.021682501
,,,-1.78E-06,0.021557501
,,,-1.77E-06,0.021652501
,,,-1.76E-06,0.021908751
,,,-1.75E-06,0.021917501
,,,-1.74E-06,0.021833751
,,,-1.73E-06,0.021833126
,,,-1.72E-06,0.021788126
,,,-1.71E-06,0.021910626
,,,-1.7E-06,0.021661876
,,,-1.69E-06,0.021776251
,,,-1.68E-06,0.021796876
,,,-1.67E-06,0.021696876
,,,-1.66E-06,0.021691876
,,,-1.65E-06,0.021906251
,,,-1.64E-06,0.021716251
,,,-1.63E-06,0.021853126
,,,-1.62E-06,0.021991251
,,,-1.61E-06,0.021728126
,,,-1.6E-06,0.021564376
,,,-1.59E-06,0.021819376
,,,-1.58E-06,0.021895001
,,,-1.57E-06,0.021657501
,,,-1.56E-06,0.021631251
,,,-1.55E-06,0.021769376
,,,-1.54E-06,0.021822501
,,,-1.53E-06,0.022049376
,,,-1.52E-06,0.021928126
,,,-1.51E-06,0.021701251
,,,-1.5E-06,0.021652501
,,,-1.49E-06,0.021747501
,,,-1.48E-06,0.021810001
,,,-1.47E-06,0.021821876
,,,-1.46E-06,0.021723751
,,,-1.45E-06,0.021904376
,,,-1.44E-06,0.021690001
,,,-1.43E-06,0.021780626
,,,-1.42E-06,0.021760001
,,,-1.41E-06,0.021927501
,,,-1.4E-06,0.021798126
,,,-1.39E-06,0.021578751
,,,-1.38E-06,0.021465626
,,,-1.37E-06,0.021896251
,,,-1.36E-06,0.021805001
,,,-1.35E-06,0.021798126
,,,-1.34E-06,0.022058126
,,,-1.33E-06,0.021851251
,,,-1.32E-06,0.021875001
,,,-1.31E-06,0.021695626
,,,-1.3E-06,0.021710001
,,,-1.29E-06,0.021546251
,,,-1.28E-06,0.021763751
,,,-1.27E-06,0.021880001
,,,-1.26E-06,0.021656876
,,,-1.25E-06,0.021678751
,,,-1.24E-06,0.021863751
,,,-1.23E-06,0.021905001
,,,-1.22E-06,0.021540001
,,,-1.21E-06,0.021695626
,,,-1.2E-06,0.021743126
,,,-1.19E-06,0.021600626
,,,-1.18E-06,0.021605626
,,,-1.17E-06,0.021732501
,,,-1.16E-06,0.021694376
,,,-1.15E-06,0.021638126
,,,-1.14E-06,0.021806876
,,,-1.13E-06,0.021975626
,,,-1.12E-06,0.021789376
,,,-1.11E-06,0.021523751
,,,-1.1E-06,0.021608126
,,,-1.09E-06,0.021947501
,,,-1.08E-06,0.021897501
,,,-1.07E-06,0.021772501
,,,-1.06E-06,0.021891876
,,,-1.05E-06,0.021945626
,,,-1.04E-06,0.021715001
,,,-1.03E-06,0.021678126
,,,-1.02E-06,0.021741876
,,,-1.01E-06,0.021687501
,,,-1E-06,0.021595626
,,,-9.9E-07,0.021921876
,,,-9.8E-07,0.021772501
,,,-9.7E-07,0.021765626
,,,-9.6E-07,0.021539376
,,,-9.5E-07,0.021861251
,,,-9.4E-07,0.021711251
,,,-9.3E-07,0.021782501
,,,-9.2E-07,0.021455001
,,,-9.1E-07,0.021750001
,,,-9E-07,0.021580001
,,,-8.9E-07,0.021787501
,,,-8.8E-07,0.021700001
,,,-8.7E-07,0.021652501
,,,-8.6E-07,0.021806876
,,,-8.5E-07,0.021726876
,,,-8.4E-07,0.021823126
,,,-8.3E-07,0.021835001
,,,-8.2E-07,0.021615626
,,,-8.1E-07,0.021526876
,,,-8E-07,0.021832501
,,,-7.9E-07,0.021671876
,,,-7.8E-07,0.021750001
,,,-7.7E-07,0.021685001
,,,-7.6E-07,0.021852501
,,,-7.5E-07,0.022030001
,,,-7.4E-07,0.021771251
,,,-7.3E-07,0.021823751
,,,-7.2E-07,0.021523126
,,,-7.1E-07,0.021784376
,,,-7E-07,0.021616876
,,,-6.9E-07,0.021818126
,,,-6.8E-07,0.021580001
,,,-6.7E-07,0.021882501
,,,-6.6E-07,0.021497501
,,,-6.5E-07,0.021815626
,,,-6.4E-07,0.021891876
,,,-6.3E-07,0.021826876
,,,-6.2E-07,0.021550626
,,,-6.1E-07,0.021499376
,,,-6E-07,0.021696876
,,,-5.9E-07,0.021833751
,,,-5.8E-07,0.021771251
,,,-5.7E-07,0.021733126
,,,-5.6E-07,0.021970001
,,,-5.5E-07,0.021760001
,,,-5.4E-07,0.021725001
,,,-5.3E-07,0.022152501
,,,-5.2E-07,0.021677501
,,,-5.1E-07,0.021896876
,,,-5E-07,0.022012501
,,,-4.9E-07,0.021665001
,,,-4.8E-07,0.021701876
,,,-4.7E-07,0.021835001
,,,-4.6E-07,0.021761251
,,,-4.5E-07,0.021659376
,,,-4.4E-07,0.022052501
,,,-4.3E-07,0.021955626
,,,-4.2E-07,0.021830626
,,,-4.1E-07,0.021747501
,,,-4E-07,0.021868751
,,,-3.9E-07,0.021766251
,,,-3.8E-07,0.021624376
,,,-3.7E-07,0.021751251
,,,-3.6E-07,0.021630626
,,,-3.5E-07,0.021751251
,,,-3.4E-07,0.022024376
,,,-3.3E-07,0.021656251
,,,-3.2E-07,0.021748126
,,,-3.1E-07,0.021727501
,,,-3E-07,0.021920001
,,,-2.9E-07,0.021899376
,,,-2.8E-07,0.021867501
,,,-2.7E-07,0.021845001
,,,-2.6E-07,0.021729376
,,,-2.5E-07,0.021776876
,,,-2.4E-07,0.021486251
,,,-2.3E-07,0.021372501
,,,-2.2E-07,0.021684376
,,,-2.1E-07,0.021820626
,,,-2E-07,0.021802501
,,,-1.9E-07,0.021630001
,,,-1.8E-07,0.021688126
,,,-1.7E-07,0.021766251
,,,-1.6E-07,0.021973126
,,,-1.5E-07,0.021609376
,,,-1.4E-07,0.021725626
,,,-1.3E-07,0.021715001
,,,-1.2E-07,0.021965001
,,,-1.1E-07,0.021650001
,,,-1E-07,0.021941251
,,,-9E-08,0.021696876
,,,-8E-08,0.021443751
,,,-7E-08,0.021577501
,,,-6E-08,0.021752501
,,,-5E-08,0.021800626
,,,-4E-08,0.022871251
,,,-3E-08,0.023798126
,,,-2E-08,0.019545001
,,,-1E-08,0.017606876
,,,0,0.018938126
,,,1E-08,0.024857501
,,,2E-08,0.027045001
,,,3E-08,0.025491876
,,,4E-08,0.020761251
,,,5E-08,0.018590001
,,,6E-08,0.018152501
,,,7E-08,0.020991251
,,,8E-08,0.022567501
,,,9E-08,0.024370001
,,,1E-07,0.024057501
,,,1.1E-07,0.022332501
,,,1.2E-07,0.020396876
,,,1.3E-07,0.020068126
,,,1.4E-07,0.020944376
,,,1.5E-07,0.022183751
,,,1.6E-07,0.022286251
,,,1.7E-07,0.022011876
,,,1.8E-07,0.022021251
,,,1.9E-07,0.021939376
,,,2E-07,0.022032501
,,,2.1E-07,0.021438126
,,,2.2E-07,0.021493126
,,,2.3E-07,0.021756251
,,,2.4E-07,0.021872501
,,,2.5E-07,0.022304376
,,,2.6E-07,0.021645626
,,,2.7E-07,0.021665001
,,,2.8E-07,0.021827501
,,,2.9E-07,0.021755626
,,,3E-07,0.021694376
,,,3.1E-07,0.021794376
,,,3.2E-07,0.021977501
,,,3.3E-07,0.021841876
,,,3.4E-07,0.021915626
,,,3.5E-07,0.021528751
,,,3.6E-07,0.021911251
,,,3.7E-07,0.021731876
,,,3.8E-07,0.021826251
,,,3.9E-07,0.021793751
,,,4E-07,0.021820626
,,,4.1E-07,0.021985001
,,,4.2E-07,0.021536251
,,,4.3E-07,0.021971251
,,,4.4E-07,0.021808126
,,,4.5E-07,0.021636876
,,,4.6E-07,0.021965626
,,,4.7E-07,0.021791876
,,,4.8E-07,0.021751251
,,,4.9E-07,0.021529376
,,,5E-07,0.021710626
,,,5.1E-07,0.021779376
,,,5.2E-07,0.021865626
,,,5.3E-07,0.021800001
,,,5.4E-07,0.021643126
,,,5.5E-07,0.021579376
,,,5.6E-07,0.021645001
,,,5.7E-07,0.021956876
,,,5.8E-07,0.021915001
,,,5.9E-07,0.021585626
,,,6E-07,0.021572501
,,,6.1E-07,0.021663751
,,,6.2E-07,0.022085001
,,,6.3E-07,0.021679376
,,,6.4E-07,0.021841876
,,,6.5E-07,0.021700001
,,,6.6E-07,0.021767501
,,,6.7E-07,0.021920001
,,,6.8E-07,0.021904376
,,,6.9E-07,0.021461251
,,,7E-07,0.021985001
,,,7.1E-07,0.021614376
,,,7.2E-07,0.021788751
,,,7.3E-07,0.021970626
,,,7.4E-07,0.021849376
,,,7.5E-07,0.021900001
,,,7.6E-07,0.021770001
,,,7.7E-07,0.021716251
,,,7.8E-07,0.021726251
,,,7.9E-07,0.021695626
,,,8E-07,0.021637501
,,,8.1E-07,0.021560001
,,,8.2E-07,0.021995626
,,,8.3E-07,0.021885001
,,,8.4E-07,0.021892501
,,,8.5E-07,0.021911876
,,,8.6E-07,0.021628126
,,,8.7E-07,0.022019376
,,,8.8E-07,0.021825001
,,,8.9E-07,0.021867501
,,,9E-07,0.021705001
,,,9.1E-07,0.021658126
,,,9.2E-07,0.021851251
,,,9.3E-07,0.021898126
,,,9.4E-07,0.021699376
,,,9.5E-07,0.021677501
,,,9.6E-07,0.021697501
,,,9.7E-07,0.021605001
,,,9.8E-07,0.021799376
,,,9.9E-07,0.021625626
,,,1E-06,0.021630001
,,,1.01E-06,0.021583751
,,,1.02E-06,0.021484376
,,,1.03E-06,0.021726876
,,,1.04E-06,0.021765001
,,,1.05E-06,0.021598751
,,,1.06E-06,0.021883126
,,,1.07E-06,0.021750626
,,,1.08E-06,0.021780001
,,,1.09E-06,0.021773751
,,,1.1E-06,0.021766876
,,,1.11E-06,0.021695626
,,,1.12E-06,0.021786251
,,,1.13E-06,0.021727501
,,,1.14E-06,0.021715001
,,,1.15E-06,0.021790001
,,,1.16E-06,0.021902501
,,,1.17E-06,0.021672501
,,,1.18E-06,0.021576251
,,,1.19E-06,0.021986251
,,,1.2E-06,0.021841876
,,,1.21E-06,0.021671251
,,,1.22E-06,0.021876251
,,,1.23E-06,0.021650001
,,,1.24E-06,0.021940001
,,,1.25E-06,0.021581251
,,,1.26E-06,0.021775626
,,,1.27E-06,0.021746876
,,,1.28E-06,0.021944376
,,,1.29E-06,0.021678126
,,,1.3E-06,0.021811251
,,,1.31E-06,0.021921251
,,,1.32E-06,0.021800626
,,,1.33E-06,0.021773126
,,,1.34E-06,0.021649376
,,,1.35E-06,0.021846876
,,,1.36E-06,0.021937501
,,,1.37E-06,0.021570001
,,,1.38E-06,0.021886251
,,,1.39E-06,0.021817501
,,,1.4E-06,0.021895626
,,,1.41E-06,0.021911251
,,,1.42E-06,0.021675626
,,,1.43E-06,0.021919376
,,,1.44E-06,0.021960001
,,,1.45E-06,0.021850001
,,,1.46E-06,0.021717501
,,,1.47E-06,0.021711251
,,,1.48E-06,0.021727501
,,,1.49E-06,0.021651251
,,,1.5E-06,0.021808751
,,,1.51E-06,0.021763751
,,,1.52E-06,0.021710001
,,,1.53E-06,0.021650001
,,,1.54E-06,0.021776876
,,,1.55E-06,0.021472501
,,,1.56E-06,0.021821876
,,,1.57E-06,0.021663751
,,,1.58E-06,0.021843751
,,,1.59E-06,0.021977501
,,,1.6E-06,0.021505626
,,,1.61E-06,0.021984376
,,,1.62E-06,0.021896876
,,,1.63E-06,0.021747501
,,,1.64E-06,0.021881251
,,,1.65E-06,0.022027501
,,,1.66E-06,0.021933126
,,,1.67E-06,0.021906251
,,,1.68E-06,0.021863126
,,,1.69E-06,0.021516876
,,,1.7E-06,0.021713126
,,,1.71E-06,0.021719376
,,,1.72E-06,0.021620001
,,,1.73E-06,0.021945626
,,,1.74E-06,0.021772501
,,,1.75E-06,0.021623126
,,,1.76E-06,0.021583126
,,,1.77E-06,0.021805001
,,,1.78E-06,0.021613126
,,,1.79E-06,0.021684376
,,,1.8E-06,0.021750626
,,,1.81E-06,0.021577501
,,,1.82E-06,0.021951876
,,,1.83E-06,0.021861876
,,,1.84E-06,0.021618126
,,,1.85E-06,0.021801876
,,,1.86E-06,0.021675001
,,,1.87E-06,0.021497501
,,,1.88E-06,0.021616251
,,,1.89E-06,0.021855001
,,,1.9E-06,0.021714376
,,,1.91E-06,0.021754376
,,,1.92E-06,0.021739376
,,,1.93E-06,0.021733751
,,,1.94E-06,0.021870626
,,,1.95E-06,0.021768126
,,,1.96E-06,0.021533126
,,,1.97E-06,0.021636251
,,,1.98E-06,0.021600001
,,,1.99E-06,0.021803126
,,,2E-06,0.021851251
,,,2.01E-06,0.021746251
,,,2.02E-06,0.021735001
,,,2.03E-06,0.021723751
,,,2.04E-06,0.021482501
,,,2.05E-06,0.021835626
,,,2.06E-06,0.021690001
,,,2.07E-06,0.021721251
,,,2.08E-06,0.021900626
,,,2.09E-06,0.021614376
,,,2.1E-06,0.021933126
,,,2.11E-06,0.021834376
,,,2.12E-06,0.021828751
,,,2.13E-06,0.021685001
,,,2.14E-06,0.021718751
,,,2.15E-06,0.021989376
,,,2.16E-06,0.021885626
,,,2.17E-06,0.021940626
,,,2.18E-06,0.021636251
,,,2.19E-06,0.021881876
,,,2.2E-06,0.021770001
,,,2.21E-06,0.022057501
,,,2.22E-06,0.021785001
,,,2.23E-06,0.021688126
,,,2.24E-06,0.021763126
,,,2.25E-06,0.021722501
,,,2.26E-06,0.021599376
,,,2.27E-06,0.021766251
,,,2.28E-06,0.021945001
,,,2.29E-06,0.021645626
,,,2.3E-06,0.021600001
,,,2.31E-06,0.021712501
,,,2.32E-06,0.021792501
,,,2.33E-06,0.021970626
,,,2.34E-06,0.021841876
,,,2.35E-06,0.021622501
,,,2.36E-06,0.021561876
,,,2.37E-06,0.021808751
,,,2.38E-06,0.022025626
,,,2.39E-06,0.021763751
,,,2.4E-06,0.021883751
,,,2.41E-06,0.021886876
,,,2.42E-06,0.021861251
,,,2.43E-06,0.021907501
,,,2.44E-06,0.021806251
,,,2.45E-06,0.021536251
,,,2.46E-06,0.021661876
,,,2.47E-06,0.021791876
,,,2.48E-06,0.021775626
,,,2.49E-06,0.022023751
,,,2.5E-06,0.021798126
,,,2.51E-06,0.021656251
,,,2.52E-06,0.021703751
,,,2.53E-06,0.021635626
,,,2.54E-06,0.022052501
,,,2.55E-06,0.021937501
,,,2.56E-06,0.021846876
,,,2.57E-06,0.021793751
,,,2.58E-06,0.021801876
,,,2.59E-06,0.021673751
,,,2.6E-06,0.021933751
,,,2.61E-06,0.021678126
,,,2.62E-06,0.021926876
,,,2.63E-06,0.021660001
,,,2.64E-06,0.021831251
,,,2.65E-06,0.021904376
,,,2.66E-06,0.021834376
,,,2.67E-06,0.021671251
,,,2.68E-06,0.021866876
,,,2.69E-06,0.021871251
,,,2.7E-06,0.021800001
,,,2.71E-06,0.021810001
,,,2.72E-06,0.022125001
,,,2.73E-06,0.021836251
,,,2.74E-06,0.021716251
,,,2.75E-06,0.021882501
,,,2.76E-06,0.022068751
,,,2.77E-06,0.021964376
,,,2.78E-06,0.021605626
,,,2.79E-06,0.021756251
,,,2.8E-06,0.021934376
,,,2.81E-06,0.021940001
,,,2.82E-06,0.021790001
,,,2.83E-06,0.022000001
,,,2.84E-06,0.021889376
,,,2.85E-06,0.021820626
,,,2.86E-06,0.021824376
,,,2.87E-06,0.021990626
,,,2.88E-06,0.021656876
,,,2.89E-06,0.021833126
,,,2.9E-06,0.021734376
,,,2.91E-06,0.021645001
,,,2.92E-06,0.021715626
,,,2.93E-06,0.021956876
,,,2.94E-06,0.021645626
,,,2.95E-06,0.021626876
,,,2.96E-06,0.021728751
,,,2.97E-06,0.021686251
,,,2.98E-06,0.021858751
,,,2.99E-06,0.021894376
,,,3E-06,0.021766251
,,,3.01E-06,0.021776876
,,,3.02E-06,0.021666876
,,,3.03E-06,0.021785626
,,,3.04E-06,0.022074376
,,,3.05E-06,0.021821876
,,,3.06E-06,0.021908751
,,,3.07E-06,0.021801251
,,,3.08E-06,0.021678751
,,,3.09E-06,0.021959376
,,,3.1E-06,0.021693751
,,,3.11E-06,0.021640626
,,,3.12E-06,0.021831876
,,,3.13E-06,0.021516251
,,,3.14E-06,0.021970001
,,,3.15E-06,0.021776876
,,,3.16E-06,0.021918126
,,,3.17E-06,0.021741876
,,,3.18E-06,0.021794376
,,,3.19E-06,0.021577501
,,,3.2E-06,0.022156876
,,,3.21E-06,0.021573126
