data/raw/Final_POL_Test_1/SOP017_Ch4.csv

"Record Length",1000,"Points",-5E-06,0.017515625
"Sample Interval",1E-08,s,-4.99E-06,0.017865625
"Trigger Point",500,"Samples",-4.98E-06,0.017854375
"Trigger Time",0,s,-4.97E-06,0.017295625
"",,,-4.96E-06,0.01761
"Horizontal Offset",-5E-06,s,-4.95E-06,0.017755
,,,-4.94E-06,0.017519375
,,,-4.93E-06,0.017540625
,,,-4.92E-06,0.017403125
,,,-4.91E-06,0.01746
,,,-4.9E-06,0.01748125
,,,-4.89E-06,0.017500625
,,,-4.88E-06,0.017321875
,,,-4.87E-06,0.017628125
,,,-4.86E-06,0.017588125
,,,-4.85E-06,0.017491875
,,,-4.84E-06,0.01735
,,,-4.83E-06,0.017468125
,,,-4.82E-06,0.01758875
,,,-4.81E-06,0.0171825
,,,-4.8E-06,0.017498125
,,,-4.79E-06,0.017615
,,,-4.78E-06,0.017436875
,,,-4.77E-06,0.0177625
,,,-4.76E-06,0.017781875
,,,-4.75E-06,0.01750625
,,,-4.74E-06,0.017523125
,,,-4.73E-06,0.017629375
,,,-4.72E-06,0.01767125
,,,-4.71E-06,0.01763875
,,,-4.7E-06,0.017440625
,,,-4.69E-06,0.01720625
,,,-4.68E-06,0.017364375
,,,-4.67E-06,0.017894375
,,,-4.66E-06,0.017746875
,,,-4.65E-06,0.017604375
,,,-4.64E-06,0.017299375
,,,-4.63E-06,0.017585
,,,-4.62E-06,0.01786
,,,-4.61E-06,0.017551875
,,,-4.6E-06,0.017373125
,,,-4.59E-06,0.017351875
,,,-4.58E-06,0.01727125
,,,-4.57E-06,0.01728875
,,,-4.56E-06,0.017380625
,,,-4.55E-06,0.01743375
,,,-4.54E-06,0.017473125
,,,-4.53E-06,0.01761
,,,-4.52E-06,0.017623125
,,,-4.51E-06,0.017363125
,,,-4.5E-06,0.017369375
,,,-4.49E-06,0.0176725
,,,-4.48E-06,0.017311875
,,,-4.47E-06,0.0176
,,,-4.46E-06,0.01777875
,,,-4.45E-06,0.0174425
,,,-4.44E-06,0.017633125
,,,-4.43E-06,0.017551875
,,,-4.42E-06,0.0177375
,,,-4.41E-06,0.01753625
,,,-4.4E-06,0.0174275
,,,-4.39E-06,0.017365
,,,-4.38E-06,0.01725375
,,,-4.37E-06,0.01731625
,,,-4.36E-06,0.01766125
,,,-4.35E-06,0.017595
,,,-4.34E-06,0.017676875
,,,-4.33E-06,0.017691875
,,,-4.32E-06,0.01748375
,,,-4.31E-06,0.0174025
,,,-4.3E-06,0.017605625
,,,-4.29E-06,0.017464375
,,,-4.28E-06,0.017608125
,,,-4.27E-06,0.0174275
,,,-4.26E-06,0.0175
,,,-4.25E-06,0.017415625
,,,-4.24E-06,0.017355
,,,-4.23E-06,0.01776375
,,,-4.22E-06,0.017701875
,,,-4.21E-06,0.017871875
,,,-4.2E-06,0.0174
,,,-4.19E-06,0.01770375
,,,-4.18E-06,0.017501875
,,,-4.17E-06,0.01771875
,,,-4.16E-06,0.017418125
,,,-4.15E-06,0.017386875
,,,-4.14E-06,0.017353125
,,,-4.13E-06,0.0174125
,,,-4.12E-06,0.017713125
,,,-4.11E-06,0.017493125
,,,-4.1E-06,0.017480625
,,,-4.09E-06,0.01742375
,,,-4.08E-06,0.017221875
,,,-4.07E-06,0.017621875
,,,-4.06E-06,0.017645625
,,,-4.05E-06,0.01735875
,,,-4.04E-06,0.01745125
,,,-4.03E-06,0.01736625
,,,-4.02E-06,0.01758125
,,,-4.01E-06,0.017783125
,,,-4E-06,0.0177275
,,,-3.99E-06,0.017381875
,,,-3.98E-06,0.01764375
,,,-3.97E-06,0.017459375
,,,-3.96E-06,0.017795
,,,-3.95E-06,0.017514375
,,,-3.94E-06,0.0173675
,,,-3.93E-06,0.01762375
,,,-3.92E-06,0.01752
,,,-3.91E-06,0.017464375
,,,-3.9E-06,0.017480625
,,,-3.89E-06,0.017643125
,,,-3.88E-06,0.017518125
,,,-3.87E-06,0.01733
,,,-3.86E-06,0.017188125
,,,-3.85E-06,0.0175125
,,,-3.84E-06,0.01755875
,,,-3.83E-06,0.01763
,,,-3.82E-06,0.017266875
,,,-3.81E-06,0.01767375
,,,-3.8E-06,0.01765375
,,,-3.79E-06,0.017515625
,,,-3.78E-06,0.01747875
,,,-3.77E-06,0.017461875
,,,-3.76E-06,0.017650625
,,,-3.75E-06,0.017401875
,,,-3.74E-06,0.017296875
,,,-3.73E-06,0.017386875
,,,-3.72E-06,0.01757875
,,,-3.71E-06,0.01756
,,,-3.7E-06,0.017325625
,,,-3.69E-06,0.017404375
,,,-3.68E-06,0.017285625
,,,-3.67E-06,0.017479375
,,,-3.66E-06,0.017396875
,,,-3.65E-06,0.01747875
,,,-3.64E-06,0.01759375
,,,-3.63E-06,0.017639375
,,,-3.62E-06,0.01760375
,,,-3.61E-06,0.017465
,,,-3.6E-06,0.01760875
,,,-3.59E-06,0.017534375
,,,-3.58E-06,0.017371875
,,,-3.57E-06,0.0175025
,,,-3.56E-06,0.017495
,,,-3.55E-06,0.01752
,,,-3.54E-06,0.01751125
,,,-3.53E-06,0.01746625
,,,-3.52E-06,0.017419375
,,,-3.51E-06,0.01750375
,,,-3.5E-06,0.01760125
,,,-3.49E-06,0.01773875
,,,-3.48E-06,0.017710625
,,,-3.47E-06,0.017636875
,,,-3.46E-06,0.01763125
,,,-3.45E-06,0.017585
,,,-3.44E-06,0.01738625
,,,-3.43E-06,0.01743875
,,,-3.42E-06,0.017455
,,,-3.41E-06,0.01728125
,,,-3.4E-06,0.01758875
,,,-3.39E-06,0.017469375
,,,-3.38E-06,0.0176575
,,,-3.37E-06,0.01755125
,,,-3.36E-06,0.017699375
,,,-3.35E-06,0.017771875
,,,-3.34E-06,0.01753375
,,,-3.33E-06,0.01737625
,,,-3.32E-06,0.01718
,,,-3.31E-06,0.017855625
,,,-3.3E-06,0.01745
,,,-3.29E-06,0.017485
,,,-3.28E-06,0.017386875
,,,-3.27E-06,0.01758625
,,,-3.26E-06,0.01750625
,,,-3.25E-06,0.017548125
,,,-3.24E-06,0.017551875
,,,-3.23E-06,0.0177675
,,,-3.22E-06,0.01753
,,,-3.21E-06,0.017234375
,,,-3.2E-06,0.017563125
,,,-3.19E-06,0.017561875
,,,-3.18E-06,0.017561875
,,,-3.17E-06,0.01756
,,,-3.16E-06,0.0175
,,,-3.15E-06,0.0174325
,,,-3.14E-06,0.01730375
,,,-3.13E-06,0.01734625
,,,-3.12E-06,0.017565625
,,,-3.11E-06,0.017528125
,,,-3.1E-06,0.01746125
,,,-3.09E-06,0.017461875
,,,-3.08E-06,0.01767875
,,,-3.07E-06,0.0175225
,,,-3.06E-06,0.01754
,,,-3.05E-06,0.017294375
,,,-3.04E-06,0.017380625
,,,-3.03E-06,0.017625
,,,-3.02E-06,0.01749375
,,,-3.01E-06,0.01733125
,,,-3E-06,0.017451875
,,,-2.99E-06,0.017385625
,,,-2.98E-06,0.0172675
,,,-2.97E-06,0.01762875
,,,-2.96E-06,0.017413125
,,,-2.95E-06,0.017504375
,,,-2.94E-06,0.01758
,,,-2.93E-06,0.01737375
,,,-2.92E-06,0.017469375
,,,-2.91E-06,0.017735625
,,,-2.9E-06,0.017453125
,,,-2.89E-06,0.0172825
,,,-2.88E-06,0.01731375
,,,-2.87E-06,0.017494375
,,,-2.86E-06,0.01750125
,,,-2.85E-06,0.017658125
,,,-2.84E-06,0.01753125
,,,-2.83E-06,0.017501875
,,,-2.82E-06,0.017444375
,,,-2.81E-06,0.017445625
,,,-2.8E-06,0.01751
,,,-2.79E-06,0.017545
,,,-2.78E-06,0.017346875
,,,-2.77E-06,0.01759125
,,,-2.76E-06,0.01766375
,,,-2.75E-06,0.017495
,,,-2.74E-06,0.017581875
,,,-2.73E-06,0.0172675
,,,-2.72E-06,0.017465625
,,,-2.71E-06,0.017108125
,,,-2.7E-06,0.0174575
,,,-2.69E-06,0.017499375
,,,-2.68E-06,0.017558125
,,,-2.67E-06,0.017656875
,,,-2.66E-06,0.017605
,,,-2.65E-06,0.017559375
,,,-2.64E-06,0.017635625
,,,-2.63E-06,0.017455
,,,-2.62E-06,0.017443125
,,,-2.61E-06,0.017508125
,,,-2.6E-06,0.01725375
,,,-2.59E-06,0.01739375
,,,-2.58E-06,0.017375625
,,,-2.57E-06,0.017423125
,,,-2.56E-06,0.017568125
,,,-2.55E-06,0.017465
,,,-2.54E-06,0.01758
,,,-2.53E-06,0.017369375
,,,-2.52E-06,0.017745
,,,-2.51E-06,0.0176525
,,,-2.5E-06,0.017403125
,,,-2.49E-06,0.017544375
,,,-2.48E-06,0.0174875
,,,-2.47E-06,0.017785
,,,-2.46E-06,0.01724375
,,,-2.45E-06,0.017553125
,,,-2.44E-06,0.017535
,,,-2.43E-06,0.01754875
,,,-2.42E-06,0.01750875
,,,-2.41E-06,0.01743
,,,-2.4E-06,0.01734
,,,-2.39E-06,0.017416875
,,,-2.38E-06,0.017373125
,,,-2.37E-06,0.01733125
,,,-2.36E-06,0.01755625
,,,-2.35E-06,0.017528125
,,,-2.34E-06,0.017561875
,,,-2.33E-06,0.0173475
,,,-2.32E-06,0.017480625
,,,-2.31E-06,0.01769875
,,,-2.3E-06,0.017460625
,,,-2.29E-06,0.0173125
,,,-2.28E-06,0.01743375
,,,-2.27E-06,0.017474375
,,,-2.26E-06,0.017411875
,,,-2.25E-06,0.0174975
,,,-2.24E-06,0.0175575
,,,-2.23E-06,0.0176475
,,,-2.22E-06,0.01759
,,,-2.21E-06,0.01757125
,,,-2.2E-06,0.017668125
,,,-2.19E-06,0.017560625
,,,-2.18E-06,0.017499375
,,,-2.17E-06,0.017484375
,,,-2.16E-06,0.017488125
,,,-2.15E-06,0.0174625
,,,-2.14E-06,0.01758625
,,,-2.13E-06,0.017281875
,,,-2.12E-06,0.017504375
,,,-2.11E-06,0.01757375
,,,-2.1E-06,0.017714375
,,,-2.09E-06,0.017396875
,,,-2.08E-06,0.0176925
,,,-2.07E-06,0.017555
,,,-2.06E-06,0.01761375
,,,-2.05E-06,0.017326875
,,,-2.04E-06,0.01751375
,,,-2.03E-06,0.017546875
,,,-2.02E-06,0.01767875
,,,-2.01E-06,0.017589375
,,,-2E-06,0.0174775
,,,-1.99E-06,0.0176625
,,,-1.98E-06,0.017713125
,,,-1.97E-06,0.017590625
,,,-1.96E-06,0.017395625
,,,-1.95E-06,0.017395625
,,,-1.94E-06,0.017468125
,,,-1.93E-06,0.017446875
,,,-1.92E-06,0.017400625
,,,-1.91E-06,0.017640625
,,,-1.9E-06,0.017575625
,,,-1.89E-06,0.01746125
,,,-1.88E-06,0.01723875
,,,-1.87E-06,0.017405
,,,-1.86E-06,0.017705
,,,-1.85E-06,0.017728125
,,,-1.84E-06,0.0176
,,,-1.83E-06,0.017713125
,,,-1.82E-06,0.01741875
,,,-1.81E-06,0.0176775
,,,-1.8E-06,0.01732
,,,-1.79E-06,0.017638125
,,,-1.78E-06,0.017401875
,,,-1.77E-06,0.0174025
,,,-1.76E-06,0.017421875
,,,-1.75E-06,0.01751125
,,,-1.74E-06,0.017426875
,,,-1.73E-06,0.01740625
,,,-1.72E-06,0.01731
,,,-1.71E-06,0.01747375
,,,-1.7E-06,0.017398125
,,,-1.69E-06,0.01775375
,,,-1.68E-06,0.017560625
,,,-1.67E-06,0.017696875
,,,-1.66E-06,0.0172775
,,,-1.65E-06,0.017615
,,,-1.64E-06,0.017395
,,,-1.63E-06,0.017593125
,,,-1.62E-06,0.017393125
,,,-1.61E-06,0.017628125
,,,-1.6E-06,0.017330625
,,,-1.59E-06,0.0173875
,,,-1.58E-06,0.0176675
,,,-1.57E-06,0.017495
,,,-1.56E-06,0.01756
,,,-1.55E-06,0.017175
,,,-1.54E-06,0.017285
,,,-1.53E-06,0.0172925
,,,-1.52E-06,0.017636875
,,,-1.51E-06,0.017705625
,,,-1.5E-06,0.0177775
,,,-1.49E-06,0.0175225
,,,-1.48E-06,0.01733625
,,,-1.47E-06,0.01741625
,,,-1.46E-06,0.017489375
,,,-1.45E-06,0.017645
,,,-1.44E-06,0.01751125
,,,-1.43E-06,0.017645625
,,,-1.42E-06,0.017606875
,,,-1.41E-06,0.01740125
,,,-1.4E-06,0.01755375
,,,-1.39E-06,0.01753375
,,,-1.38E-06,0.017561875
,,,-1.37E-06,0.017671875
,,,-1.36E-06,0.0175875
,,,-1.35E-06,0.01758625
,,,-1.34E-06,0.017363125
,,,-1.33E-06,0.017569375
,,,-1.32E-06,0.01736
,,,-1.31E-06,0.01743875
,,,-1.3E-06,0.01738625
,,,-1.29E-06,0.017384375
,,,-1.28E-06,0.0175175
,,,-1.27E-06,0.017420625
,,,-1.26E-06,0.0174625
,,,-1.25E-06,0.01765875
,,,-1.24E-06,0.017605
,,,-1.23E-06,0.017625625
,,,-1.22E-06,0.01756875
,,,-1.21E-06,0.01757
,,,-1.2E-06,0.0176175
,,,-1.19E-06,0.01748875
,,,-1.18E-06,0.017445
,,,-1.17E-06,0.017455
,,,-1.16E-06,0.0174
,,,-1.15E-06,0.01763875
,,,-1.14E-06,0.017244375
,,,-1.13E-06,0.017388125
,,,-1.12E-06,0.01737375
,,,-1.11E-06,0.01755625
,,,-1.1E-06,0.017544375
,,,-1.09E-06,0.01735375
,,,-1.08E-06,0.01772125
,,,-1.07E-06,0.01757375
,,,-1.06E-06,0.01742
,,,-1.05E-06,0.0173275
,,,-1.04E-06,0.01745375
,,,-1.03E-06,0.01760375
,,,-1.02E-06,0.017565
,,,-1.01E-06,0.01742375
,,,-1E-06,0.017681875
,,,-9.9E-07,0.017444375
,,,-9.8E-07,0.017695
,,,-9.7E-07,0.017558125
,,,-9.6E-07,0.017739375
,,,-9.5E-07,0.017513125
,,,-9.4E-07,0.01722875
,,,-9.3E-07,0.01761875
,,,-9.2E-07,0.017566875
,,,-9.1E-07,0.01763125
,,,-9E-07,0.017948125
,,,-8.9E-07,0.01751875
,,,-8.8E-07,0.017449375
,,,-8.7E-07,0.0176175
,,,-8.6E-07,0.0175375
,,,-8.5E-07,0.017475
,,,-8.4E-07,0.017610625
,,,-8.3E-07,0.01736875
,,,-8.2E-07,0.01747375
,,,-8.1E-07,0.017321875
,,,-8E-07,0.017564375
,,,-7.9E-07,0.0171925
,,,-7.8E-07,0.0174875
,,,-7.7E-07,0.017365
,,,-7.6E-07,0.01770125
,,,-7.5E-07,0.017494375
,,,-7.4E-07,0.017699375
,,,-7.3E-07,0.017505625
,,,-7.2E-07,0.017771875
,,,-7.1E-07,0.017469375
,,,-7E-07,0.01744375
,,,-6.9E-07,0.01734375
,,,-6.8E-07,0.01749
,,,-6.7E-07,0.01737125
,,,-6.6E-07,0.017385625
,,,-6.5E-07,0.01751
,,,-6.4E-07,0.0173925
,,,-6.3E-07,0.01747125
,,,-6.2E-07,0.01751875
,,,-6.1E-07,0.017343125
,,,-6E-07,0.017696875
,,,-5.9E-07,0.01763375
,,,-5.8E-07,0.0176
,,,-5.7E-07,0.0175
,,,-5.6E-07,0.0174875
,,,-5.5E-07,0.017525625
,,,-5.4E-07,0.017480625
,,,-5.3E-07,0.017640625
,,,-5.2E-07,0.017379375
,,,-5.1E-07,0.017684375
,,,-5E-07,0.01736625
,,,-4.9E-07,0.017611875
,,,-4.8E-07,0.017315
,,,-4.7E-07,0.017588125
,,,-4.6E-07,0.01737625
,,,-4.5E-07,0.017568125
,,,-4.4E-07,0.01752
,,,-4.3E-07,0.017628125
,,,-4.2E-07,0.017435
,,,-4.1E-07,0.017526875
,,,-4E-07,0.017264375
,,,-3.9E-07,0.017695625
,,,-3.8E-07,0.017390625
,,,-3.7E-07,0.0174525
,,,-3.6E-07,0.017468125
,,,-3.5E-07,0.01746625
,,,-3.4E-07,0.017358125
,,,-3.3E-07,0.01742125
,,,-3.2E-07,0.01752625
,,,-3.1E-07,0.01775375
,,,-3E-07,0.017261875
,,,-2.9E-07,0.01771875
,,,-2.8E-07,0.017520625
,,,-2.7E-07,0.01738125
,,,-2.6E-07,0.017694375
,,,-2.5E-07,0.0174875
,,,-2.4E-07,0.017243125
,,,-2.3E-07,0.01766625
,,,-2.2E-07,0.017426875
,,,-2.1E-07,0.017394375
,,,-2E-07,0.017409375
,,,-1.9E-07,0.017648125
,,,-1.8E-07,0.017508125
,,,-1.7E-07,0.017476875
,,,-1.6E-07,0.017598125
,,,-1.5E-07,0.017286875
,,,-1.4E-07,0.0176375
,,,-1.3E-07,0.017505
,,,-1.2E-07,0.017580625
,,,-1.1E-07,0.01751125
,,,-1E-07,0.017694375
,,,-9E-08,0.01736125
,,,-8E-08,0.017494375
,,,-7E-08,0.017238125
,,,-6E-08,0.01774375
,,,-5E-08,0.017500625
,,,-4E-08,0.017994375
,,,-3E-08,0.01894875
,,,-2E-08,0.016114375
,,,-1E-08,0.015675
,,,0,0.014499375
,,,1E-08,0.019654375
,,,2E-08,0.020321875
,,,3E-08,0.020339375
,,,4E-08,0.016789375
,,,5E-08,0.01583875
,,,6E-08,0.014920625
,,,7E-08,0.016955
,,,8E-08,0.01804125
,,,9E-08,0.018798125
,,,1E-07,0.018879375
,,,1.1E-07,0.018118125
,,,1.2E-07,0.016604375
,,,1.3E-07,0.016174375
,,,1.4E-07,0.016836875
,,,1.5E-07,0.01762875
,,,1.6E-07,0.018029375
,,,1.7E-07,0.01795875
,,,1.8E-07,0.0175575
,,,1.9E-07,0.017435625
,,,2E-07,0.017491875
,,,2.1E-07,0.017284375
,,,2.2E-07,0.017345
,,,2.3E-07,0.017501875
,,,2.4E-07,0.01747875
,,,2.5E-07,0.017465
,,,2.6E-07,0.017639375
,,,2.7E-07,0.017445
,,,2.8E-07,0.0174525
,,,2.9E-07,0.0177225
,,,3E-07,0.0175775
,,,3.1E-07,0.017245
,,,3.2E-07,0.01743875
,,,3.3E-07,0.01759125
,,,3.4E-07,0.01752125
,,,3.5E-07,0.017341875
,,,3.6E-07,0.01730625
,,,3.7E-07,0.017398125
,,,3.8E-07,0.0177425
,,,3.9E-07,0.017468125
,,,4E-07,0.017481875
,,,4.1E-07,0.017420625
,,,4.2E-07,0.017590625
,,,4.3E-07,0.01767875
,,,4.4E-07,0.0174425
,,,4.5E-07,0.017484375
,,,4.6E-07,0.017411875
,,,4.7E-07,0.01752
,,,4.8E-07,0.01750875
,,,4.9E-07,0.0176375
,,,5E-07,0.01759
,,,5.1E-07,0.0176475
,,,5.2E-07,0.0175025
,,,5.3E-07,0.017383125
,,,5.4E-07,0.017605625
,,,5.5E-07,0.017494375
,,,5.6E-07,0.01785625
,,,5.7E-07,0.017471875
,,,5.8E-07,0.017485625
,,,5.9E-07,0.01755625
,,,6E-07,0.01760875
,,,6.1E-07,0.017475
,,,6.2E-07,0.01712
,,,6.3E-07,0.01773875
,,,6.4E-07,0.017533125
,,,6.5E-07,0.01781125
,,,6.6E-07,0.01748
,,,6.7E-07,0.017610625
,,,6.8E-07,0.01760375
,,,6.9E-07,0.017673125
,,,7E-07,0.01720125
,,,7.1E-07,0.017546875
,,,7.2E-07,0.017714375
,,,7.3E-07,0.01753625
,,,7.4E-07,0.01744625
,,,7.5E-07,0.017760625
,,,7.6E-07,0.0174875
,,,7.7E-07,0.01743875
,,,7.8E-07,0.0176525
,,,7.9E-07,0.017525
,,,8E-07,0.017294375
,,,8.1E-07,0.0176375
,,,8.2E-07,0.017306875
,,,8.3E-07,0.017535625
,,,8.4E-07,0.017299375
,,,8.5E-07,0.017365625
,,,8.6E-07,0.01757125
,,,8.7E-07,0.0173125
,,,8.8E-07,0.017501875
,,,8.9E-07,0.01769625
,,,9E-07,0.01749375
,,,9.1E-07,0.017566875
,,,9.2E-07,0.017738125
,,,9.3E-07,0.01736125
,,,9.4E-07,0.017701875
,,,9.5E-07,0.0173975
,,,9.6E-07,0.01767375
,,,9.7E-07,0.0175225
,,,9.8E-07,0.01746125
,,,9.9E-07,0.017536875
,,,1E-06,0.01780625
,,,1.01E-06,0.01741125
,,,1.02E-06,0.01776375
,,,1.03E-06,0.017465625
,,,1.04E-06,0.017465625
,,,1.05E-06,0.017640625
,,,1.06E-06,0.017619375
,,,1.07E-06,0.01742875
,,,1.08E-06,0.017695
,,,1.09E-06,0.017486875
,,,1.1E-06,0.01757625
,,,1.11E-06,0.017373125
,,,1.12E-06,0.017535625
,,,1.13E-06,0.017605
,,,1.14E-06,0.017454375
,,,1.15E-06,0.01764375
,,,1.16E-06,0.0178825
,,,1.17E-06,0.017486875
,,,1.18E-06,0.0174675
,,,1.19E-06,0.017458125
,,,1.2E-06,0.01749
,,,1.21E-06,0.0175125
,,,1.22E-06,0.017250625
,,,1.23E-06,0.017518125
,,,1.24E-06,0.017528125
,,,1.25E-06,0.01737
,,,1.26E-06,0.017484375
,,,1.27E-06,0.01748625
,,,1.28E-06,0.017331875
,,,1.29E-06,0.0173
,,,1.3E-06,0.017363125
,,,1.31E-06,0.017675625
,,,1.32E-06,0.0174125
,,,1.33E-06,0.0173425
,,,1.34E-06,0.017553125
,,,1.35E-06,0.0174125
,,,1.36E-06,0.0173625
,,,1.37E-06,0.017485625
,,,1.38E-06,0.01751
,,,1.39E-06,0.017339375
,,,1.4E-06,0.017373125
,,,1.41E-06,0.017721875
,,,1.42E-06,0.017133125
,,,1.43E-06,0.017441875
,,,1.44E-06,0.01733125
,,,1.45E-06,0.017536875
,,,1.46E-06,0.017345625
,,,1.47E-06,0.017469375
,,,1.48E-06,0.017581875
,,,1.49E-06,0.01742875
,,,1.5E-06,0.01743125
,,,1.51E-06,0.0174825
,,,1.52E-06,0.01735125
,,,1.53E-06,0.01736875
,,,1.54E-06,0.01758125
,,,1.55E-06,0.017490625
,,,1.56E-06,0.017428125
,,,1.57E-06,0.017585625
,,,1.58E-06,0.0175925
,,,1.59E-06,0.017703125
,,,1.6E-06,0.01730625
,,,1.61E-06,0.0176375
,,,1.62E-06,0.017395
,,,1.63E-06,0.017505625
,,,1.64E-06,0.017851875
,,,1.65E-06,0.017471875
,,,1.66E-06,0.017510625
,,,1.67E-06,0.0173775
,,,1.68E-06,0.01735625
,,,1.69E-06,0.0179025
,,,1.7E-06,0.01759625
,,,1.71E-06,0.017460625
,,,1.72E-06,0.017344375
,,,1.73E-06,0.017475
,,,1.74E-06,0.017868125
,,,1.75E-06,0.017336875
,,,1.76E-06,0.0174125
,,,1.77E-06,0.01752875
,,,1.78E-06,0.017431875
,,,1.79E-06,0.017396875
,,,1.8E-06,0.0176025
,,,1.81E-06,0.017630625
,,,1.82E-06,0.017713125
,,,1.83E-06,0.017616875
,,,1.84E-06,0.01746625
,,,1.85E-06,0.01746
,,,1.86E-06,0.01737875
,,,1.87E-06,0.01763625
,,,1.88E-06,0.017446875
,,,1.89E-06,0.01745
,,,1.9E-06,0.017723125
,,,1.91E-06,0.017565625
,,,1.92E-06,0.0173975
,,,1.93E-06,0.017199375
,,,1.94E-06,0.017309375
,,,1.95E-06,0.017345625
,,,1.96E-06,0.0175225
,,,1.97E-06,0.01757625
,,,1.98E-06,0.017554375
,,,1.99E-06,0.017346875
,,,2E-06,0.017436875
,,,2.01E-06,0.01760375
,,,2.02E-06,0.01742125
,,,2.03E-06,0.01746875
,,,2.04E-06,0.017431875
,,,2.05E-06,0.01755125
,,,2.06E-06,0.01765375
,,,2.07E-06,0.017446875
,,,2.08E-06,0.017328125
,,,2.09E-06,0.017438125
,,,2.1E-06,0.017645
,,,2.11E-06,0.017384375
,,,2.12E-06,0.017530625
,,,2.13E-06,0.01767625
,,,2.14E-06,0.01743125
,,,2.15E-06,0.0175175
,,,2.16E-06,0.017384375
,,,2.17E-06,0.0175625
,,,2.18E-06,0.01761875
,,,2.19E-06,0.01757375
,,,2.2E-06,0.017505
,,,2.21E-06,0.01754125
,,,2.22E-06,0.017308125
,,,2.23E-06,0.0175325
,,,2.24E-06,0.017731875
,,,2.25E-06,0.017584375
,,,2.26E-06,0.017539375
,,,2.27E-06,0.017346875
,,,2.28E-06,0.017409375
,,,2.29E-06,0.017503125
,,,2.3E-06,0.01758
,,,2.31E-06,0.017668125
,,,2.32E-06,0.01755625
,,,2.33E-06,0.017618125
,,,2.34E-06,0.017408125
,,,2.35E-06,0.017564375
,,,2.36E-06,0.01729
,,,2.37E-06,0.017368125
,,,2.38E-06,0.017675625
,,,2.39E-06,0.017470625
,,,2.4E-06,0.0174975
,,,2.41E-06,0.017294375
,,,2.42E-06,0.01734125
,,,2.43E-06,0.01764875
,,,2.44E-06,0.01759
,,,2.45E-06,0.017360625
,,,2.46E-06,0.0177525
,,,2.47E-06,0.017420625
,,,2.48E-06,0.017489375
,,,2.49E-06,0.01761375
,,,2.5E-06,0.0175975
,,,2.51E-06,0.017521875
,,,2.52E-06,0.017479375
,,,2.53E-06,0.017601875
,,,2.54E-06,0.017365625
,,,2.55E-06,0.01744625
,,,2.56E-06,0.017671875
,,,2.57E-06,0.017248125
,,,2.58E-06,0.01762125
,,,2.59E-06,0.01744625
,,,2.6E-06,0.017439375
,,,2.61E-06,0.017634375
,,,2.62E-06,0.017561875
,,,2.63E-06,0.017518125
,,,2.64E-06,0.0171975
,,,2.65E-06,0.017476875
,,,2.66E-06,0.017483125
,,,2.67E-06,0.01728
,,,2.68E-06,0.01745125
,,,2.69E-06,0.01752875
,,,2.7E-06,0.017600625
,,,2.71E-06,0.01768625
,,,2.72E-06,0.01756375
,,,2.73E-06,0.01775625
,,,2.74E-06,0.017599375
,,,2.75E-06,0.017428125
,,,2.76E-06,0.017645
,,,2.77E-06,0.0172475
,,,2.78E-06,0.017299375
,,,2.79E-06,0.01754625
,,,2.8E-06,0.017396875
,,,2.81E-06,0.017545625
,,,2.82E-06,0.017420625
,,,2.83E-06,0.017725625
,,,2.84E-06,0.017449375
,,,2.85E-06,0.017259375
,,,2.86E-06,0.017460625
,,,2.87E-06,0.01756875
,,,2.88E-06,0.017680625
,,,2.89E-06,0.017346875
,,,2.9E-06,0.0175025
,,,2.91E-06,0.017636875
,,,2.92E-06,0.0174425
,,,2.93E-06,0.0174775
,,,2.94E-06,0.0174725
,,,2.95E-06,0.017760625
,,,2.96E-06,0.0177775
,,,2.97E-06,0.017526875
,,,2.98E-06,0.0178375
,,,2.99E-06,0.017505625
,,,3E-06,0.0173975
,,,3.01E-06,0.017346875
,,,3.02E-06,0.017285
,,,3.03E-06,0.017795625
,,,3.04E-06,0.017459375
,,,3.05E-06,0.01742625
,,,3.06E-06,0.017598125
,,,3.07E-06,0.017440625
,,,3.08E-06,0.017588125
,,,3.09E-06,0.017569375
,,,3.1E-06,0.017555
,,,3.11E-06,0.017614375
,,,3.12E-06,0.0174975
,,,3.13E-06,0.017693125
,,,3.14E-06,0.017750625
,,,3.15E-06,0.017549375
,,,3.16E-06,0.017459375
,,,3.17E-06,0.017426875
,,,3.18E-06,0.017505
,,,3.19E-06,0.01720375
,,,3.2E-06,0.017341875
,,,3.21E-06,0.017514375
,,,3.22E-06,0.017565625
,,,3.23E-06,0.017715625
,,,3.24E-06,0.0174425
,,,3.25E-06,0.017503125
,,,3.26E-06,0.0176925
,,,3.27E-06,0.017523125
,,,3.28E-06,0.017605
,,,3.29E-06,0.017635625
,,,3.3E-06,0.0175225
,,,3.31E-06,0.01756
,,,3.32E-06,0.0175175
,,,3.33E-06,0.017435625
,,,3.34E-06,0.017303125
,,,3.35E-06,0.017456875
,,,3.36E-06,0.017436875
,,,3.37E-06,0.01761125
,,,3.38E-06,0.017473125
,,,3.39E-06,0.0177875
,,,3.4E-06,0.01743
,,,3.41E-06,0.01741
,,,3.42E-06,0.017565625
,,,3.43E-06,0.017353125
,,,3.44E-06,0.017783125
,,,3.45E-06,0.0173925
,,,3.46E-06,0.01766125
,,,3.47E-06,0.017809375
,,,3.48E-06,0.01738
,,,3.49E-06,0.01752
,,,3.5E-06,0.01765625
,,,3.51E-06,0.01748625
,,,3.52E-06,0.017453125
,,,3.53E-06,0.017345
,,,3.54E-06,0.017355625
,,,3.55E-06,0.017558125
,,,3.56E-06,0.017558125
