data/raw/Final_POL_Test_1/SOP073_Ch4.csv

"Record Length",1000,"Points",-5E-06,0.014639375
"Sample Interval",1E-08,s,-4.99E-06,0.014396875
"Trigger Point",500,"Samples",-4.98E-06,0.01445875
"Trigger Time",0,s,-4.97E-06,0.014611875
"",,,-4.96E-06,0.014713125
"Horizontal Offset",-5E-06,s,-4.95E-06,0.01456625
,,,-4.94E-06,0.01448
,,,-4.93E-06,0.014545625
,,,-4.92E-06,0.014575
,,,-4.91E-06,0.01447125
,,,-4.9E-06,0.014448125
,,,-4.89E-06,0.01457125
,,,-4.88E-06,0.01456875
,,,-4.87E-06,0.01437375
,,,-4.86E-06,0.01448375
,,,-4.85E-06,0.014476875
,,,-4.84E-06,0.01438125
,,,-4.83E-06,0.01451375
,,,-4.82E-06,0.01441375
,,,-4.81E-06,0.01443625
,,,-4.8E-06,0.014524375
,,,-4.79E-06,0.014358125
,,,-4.78E-06,0.01454875
,,,-4.77E-06,0.014426875
,,,-4.76E-06,0.01455
,,,-4.75E-06,0.014541875
,,,-4.74E-06,0.014551875
,,,-4.73E-06,0.01456875
,,,-4.72E-06,0.01474
,,,-4.71E-06,0.014419375
,,,-4.7E-06,0.014424375
,,,-4.69E-06,0.014635
,,,-4.68E-06,0.014575625
,,,-4.67E-06,0.014720625
,,,-4.66E-06,0.01464875
,,,-4.65E-06,0.014445
,,,-4.64E-06,0.0144725
,,,-4.63E-06,0.01461125
,,,-4.62E-06,0.0147975
,,,-4.61E-06,0.01468875
,,,-4.6E-06,0.014361875
,,,-4.59E-06,0.014526875
,,,-4.58E-06,0.01445375
,,,-4.57E-06,0.01457875
,,,-4.56E-06,0.014498125
,,,-4.55E-06,0.014639375
,,,-4.54E-06,0.014580625
,,,-4.53E-06,0.0145
,,,-4.52E-06,0.014416875
,,,-4.51E-06,0.014589375
,,,-4.5E-06,0.014573125
,,,-4.49E-06,0.01449375
,,,-4.48E-06,0.01477125
,,,-4.47E-06,0.0146275
,,,-4.46E-06,0.014415
,,,-4.45E-06,0.01442125
,,,-4.44E-06,0.014504375
,,,-4.43E-06,0.0145525
,,,-4.42E-06,0.01454125
,,,-4.41E-06,0.014568125
,,,-4.4E-06,0.01437375
,,,-4.39E-06,0.01473
,,,-4.38E-06,0.01462875
,,,-4.37E-06,0.01442625
,,,-4.36E-06,0.0143775
,,,-4.35E-06,0.014483125
,,,-4.34E-06,0.014576875
,,,-4.33E-06,0.014488125
,,,-4.32E-06,0.014550625
,,,-4.31E-06,0.01452125
,,,-4.3E-06,0.014318125
,,,-4.29E-06,0.01467875
,,,-4.28E-06,0.01462625
,,,-4.27E-06,0.014420625
,,,-4.26E-06,0.014765
,,,-4.25E-06,0.014776875
,,,-4.24E-06,0.01480875
,,,-4.23E-06,0.014550625
,,,-4.22E-06,0.01443125
,,,-4.21E-06,0.014581875
,,,-4.2E-06,0.014756875
,,,-4.19E-06,0.014733125
,,,-4.18E-06,0.0145775
,,,-4.17E-06,0.01445625
,,,-4.16E-06,0.01452
,,,-4.15E-06,0.01446375
,,,-4.14E-06,0.014418125
,,,-4.13E-06,0.014299375
,,,-4.12E-06,0.014676875
,,,-4.11E-06,0.014385
,,,-4.1E-06,0.014440625
,,,-4.09E-06,0.014599375
,,,-4.08E-06,0.014468125
,,,-4.07E-06,0.01439375
,,,-4.06E-06,0.014629375
,,,-4.05E-06,0.014544375
,,,-4.04E-06,0.0144825
,,,-4.03E-06,0.014658125
,,,-4.02E-06,0.01448
,,,-4.01E-06,0.014554375
,,,-4E-06,0.0145875
,,,-3.99E-06,0.014700625
,,,-3.98E-06,0.014510625
,,,-3.97E-06,0.014596875
,,,-3.96E-06,0.014510625
,,,-3.95E-06,0.014331875
,,,-3.94E-06,0.014395
,,,-3.93E-06,0.01451375
,,,-3.92E-06,0.01460375
,,,-3.91E-06,0.01450125
,,,-3.9E-06,0.014723125
,,,-3.89E-06,0.01463375
,,,-3.88E-06,0.01460625
,,,-3.87E-06,0.01436125
,,,-3.86E-06,0.01440375
,,,-3.85E-06,0.0145175
,,,-3.84E-06,0.0145975
,,,-3.83E-06,0.014460625
,,,-3.82E-06,0.014535625
,,,-3.81E-06,0.01459875
,,,-3.8E-06,0.01446
,,,-3.79E-06,0.0147475
,,,-3.78E-06,0.014834375
,,,-3.77E-06,0.014474375
,,,-3.76E-06,0.014364375
,,,-3.75E-06,0.014489375
,,,-3.74E-06,0.014706875
,,,-3.73E-06,0.01441125
,,,-3.72E-06,0.014469375
,,,-3.71E-06,0.014453125
,,,-3.7E-06,0.014358125
,,,-3.69E-06,0.014473125
,,,-3.68E-06,0.014489375
,,,-3.67E-06,0.01473625
,,,-3.66E-06,0.01456125
,,,-3.65E-06,0.0145575
,,,-3.64E-06,0.01458
,,,-3.63E-06,0.0145875
,,,-3.62E-06,0.014165625
,,,-3.61E-06,0.01425625
,,,-3.6E-06,0.01450375
,,,-3.59E-06,0.014555
,,,-3.58E-06,0.01474125
,,,-3.57E-06,0.014769375
,,,-3.56E-06,0.014496875
,,,-3.55E-06,0.0145525
,,,-3.54E-06,0.0145225
,,,-3.53E-06,0.0144775
,,,-3.52E-06,0.014396875
,,,-3.51E-06,0.014274375
,,,-3.5E-06,0.014396875
,,,-3.49E-06,0.01456875
,,,-3.48E-06,0.01412875
,,,-3.47E-06,0.014554375
,,,-3.46E-06,0.014475
,,,-3.45E-06,0.014481875
,,,-3.44E-06,0.014601875
,,,-3.43E-06,0.01461625
,,,-3.42E-06,0.01404125
,,,-3.41E-06,0.01468
,,,-3.4E-06,0.01460375
,,,-3.39E-06,0.014383125
,,,-3.38E-06,0.01467
,,,-3.37E-06,0.014494375
,,,-3.36E-06,0.014591875
,,,-3.35E-06,0.014515
,,,-3.34E-06,0.01472375
,,,-3.33E-06,0.0143925
,,,-3.32E-06,0.014585
,,,-3.31E-06,0.014426875
,,,-3.3E-06,0.0145175
,,,-3.29E-06,0.014335
,,,-3.28E-06,0.014371875
,,,-3.27E-06,0.014599375
,,,-3.26E-06,0.01449
,,,-3.25E-06,0.0144975
,,,-3.24E-06,0.0145775
,,,-3.23E-06,0.014676875
,,,-3.22E-06,0.014616875
,,,-3.21E-06,0.014526875
,,,-3.2E-06,0.014546875
,,,-3.19E-06,0.014501875
,,,-3.18E-06,0.014230625
,,,-3.17E-06,0.01443125
,,,-3.16E-06,0.014641875
,,,-3.15E-06,0.01451
,,,-3.14E-06,0.014555
,,,-3.13E-06,0.014701875
,,,-3.12E-06,0.014398125
,,,-3.11E-06,0.014521875
,,,-3.1E-06,0.014523125
,,,-3.09E-06,0.014575625
,,,-3.08E-06,0.01463
,,,-3.07E-06,0.01475125
,,,-3.06E-06,0.0144
,,,-3.05E-06,0.014379375
,,,-3.04E-06,0.014409375
,,,-3.03E-06,0.01448375
,,,-3.02E-06,0.014493125
,,,-3.01E-06,0.01462
,,,-3E-06,0.014568125
,,,-2.99E-06,0.014460625
,,,-2.98E-06,0.0147225
,,,-2.97E-06,0.014415
,,,-2.96E-06,0.014573125
,,,-2.95E-06,0.014290625
,,,-2.94E-06,0.01437375
,,,-2.93E-06,0.014349375
,,,-2.92E-06,0.014370625
,,,-2.91E-06,0.014475625
,,,-2.9E-06,0.014585625
,,,-2.89E-06,0.014655
,,,-2.88E-06,0.014600625
,,,-2.87E-06,0.014339375
,,,-2.86E-06,0.014410625
,,,-2.85E-06,0.01483625
,,,-2.84E-06,0.01445375
,,,-2.83E-06,0.01476125
,,,-2.82E-06,0.014795
,,,-2.81E-06,0.01457125
,,,-2.8E-06,0.0145
,,,-2.79E-06,0.014519375
,,,-2.78E-06,0.014518125
,,,-2.77E-06,0.014164375
,,,-2.76E-06,0.01460125
,,,-2.75E-06,0.014605625
,,,-2.74E-06,0.014189375
,,,-2.73E-06,0.014131875
,,,-2.72E-06,0.014541875
,,,-2.71E-06,0.01454125
,,,-2.7E-06,0.014539375
,,,-2.69E-06,0.01447875
,,,-2.68E-06,0.01483
,,,-2.67E-06,0.01459875
,,,-2.66E-06,0.0145925
,,,-2.65E-06,0.01440625
,,,-2.64E-06,0.01459625
,,,-2.63E-06,0.0146225
,,,-2.62E-06,0.014308125
,,,-2.61E-06,0.0145575
,,,-2.6E-06,0.014578125
,,,-2.59E-06,0.01436625
,,,-2.58E-06,0.01470875
,,,-2.57E-06,0.01432125
,,,-2.56E-06,0.01460375
,,,-2.55E-06,0.014509375
,,,-2.54E-06,0.014415
,,,-2.53E-06,0.014399375
,,,-2.52E-06,0.0148275
,,,-2.51E-06,0.01453875
,,,-2.5E-06,0.014343125
,,,-2.49E-06,0.01465625
,,,-2.48E-06,0.01452625
,,,-2.47E-06,0.0144325
,,,-2.46E-06,0.01447
,,,-2.45E-06,0.01474
,,,-2.44E-06,0.014361875
,,,-2.43E-06,0.01457125
,,,-2.42E-06,0.01452375
,,,-2.41E-06,0.014739375
,,,-2.4E-06,0.0143775
,,,-2.39E-06,0.01455125
,,,-2.38E-06,0.014465
,,,-2.37E-06,0.014445
,,,-2.36E-06,0.01452
,,,-2.35E-06,0.014428125
,,,-2.34E-06,0.0146575
,,,-2.33E-06,0.014650625
,,,-2.32E-06,0.014645625
,,,-2.31E-06,0.014460625
,,,-2.3E-06,0.014213125
,,,-2.29E-06,0.014246875
,,,-2.28E-06,0.014354375
,,,-2.27E-06,0.014384375
,,,-2.26E-06,0.014574375
,,,-2.25E-06,0.014700625
,,,-2.24E-06,0.014250625
,,,-2.23E-06,0.0144825
,,,-2.22E-06,0.014459375
,,,-2.21E-06,0.01431
,,,-2.2E-06,0.014600625
,,,-2.19E-06,0.014694375
,,,-2.18E-06,0.014545625
,,,-2.17E-06,0.01448
,,,-2.16E-06,0.014749375
,,,-2.15E-06,0.014483125
,,,-2.14E-06,0.01441
,,,-2.13E-06,0.01464125
,,,-2.12E-06,0.014343125
,,,-2.11E-06,0.01439875
,,,-2.1E-06,0.01452625
,,,-2.09E-06,0.014580625
,,,-2.08E-06,0.01431125
,,,-2.07E-06,0.01433625
,,,-2.06E-06,0.014605625
,,,-2.05E-06,0.014308125
,,,-2.04E-06,0.014383125
,,,-2.03E-06,0.0144975
,,,-2.02E-06,0.0146775
,,,-2.01E-06,0.0145225
,,,-2E-06,0.0144225
,,,-1.99E-06,0.0145025
,,,-1.98E-06,0.0144425
,,,-1.97E-06,0.014475
,,,-1.96E-06,0.01466
,,,-1.95E-06,0.014535
,,,-1.94E-06,0.014670625
,,,-1.93E-06,0.01453375
,,,-1.92E-06,0.0144575
,,,-1.91E-06,0.014599375
,,,-1.9E-06,0.014264375
,,,-1.89E-06,0.01452375
,,,-1.88E-06,0.014293125
,,,-1.87E-06,0.014675625
,,,-1.86E-06,0.014569375
,,,-1.85E-06,0.014601875
,,,-1.84E-06,0.014424375
,,,-1.83E-06,0.01445375
,,,-1.82E-06,0.014421875
,,,-1.81E-06,0.014541875
,,,-1.8E-06,0.014409375
,,,-1.79E-06,0.01458
,,,-1.78E-06,0.01441125
,,,-1.77E-06,0.01459125
,,,-1.76E-06,0.014630625
,,,-1.75E-06,0.014400625
,,,-1.74E-06,0.01462875
,,,-1.73E-06,0.01450625
,,,-1.72E-06,0.01429625
,,,-1.71E-06,0.014391875
,,,-1.7E-06,0.0146975
,,,-1.69E-06,0.014518125
,,,-1.68E-06,0.014649375
,,,-1.67E-06,0.014651875
,,,-1.66E-06,0.01447625
,,,-1.65E-06,0.01461
,,,-1.64E-06,0.014501875
,,,-1.63E-06,0.01432125
,,,-1.62E-06,0.014569375
,,,-1.61E-06,0.014511875
,,,-1.6E-06,0.014778125
,,,-1.59E-06,0.0144725
,,,-1.58E-06,0.014665
,,,-1.57E-06,0.01447375
,,,-1.56E-06,0.01447
,,,-1.55E-06,0.014355
,,,-1.54E-06,0.014603125
,,,-1.53E-06,0.014796875
,,,-1.52E-06,0.014556875
,,,-1.51E-06,0.014478125
,,,-1.5E-06,0.01436125
,,,-1.49E-06,0.01439875
,,,-1.48E-06,0.014680625
,,,-1.47E-06,0.014574375
,,,-1.46E-06,0.014475625
,,,-1.45E-06,0.014545
,,,-1.44E-06,0.01451875
,,,-1.43E-06,0.01463125
,,,-1.42E-06,0.0143725
,,,-1.41E-06,0.014424375
,,,-1.4E-06,0.01449125
,,,-1.39E-06,0.014598125
,,,-1.38E-06,0.01446625
,,,-1.37E-06,0.01427375
,,,-1.36E-06,0.014755
,,,-1.35E-06,0.014476875
,,,-1.34E-06,0.014379375
,,,-1.33E-06,0.014381875
,,,-1.32E-06,0.01436
,,,-1.31E-06,0.014655
,,,-1.3E-06,0.01405375
,,,-1.29E-06,0.014321875
,,,-1.28E-06,0.014626875
,,,-1.27E-06,0.01462125
,,,-1.26E-06,0.01461125
,,,-1.25E-06,0.014778125
,,,-1.24E-06,0.014353125
,,,-1.23E-06,0.014319375
,,,-1.22E-06,0.01442125
,,,-1.21E-06,0.0145975
,,,-1.2E-06,0.0147025
,,,-1.19E-06,0.014454375
,,,-1.18E-06,0.014695
,,,-1.17E-06,0.01452
,,,-1.16E-06,0.01458125
,,,-1.15E-06,0.014358125
,,,-1.14E-06,0.014324375
,,,-1.13E-06,0.014648125
,,,-1.12E-06,0.014544375
,,,-1.11E-06,0.014429375
,,,-1.1E-06,0.01448625
,,,-1.09E-06,0.01461
,,,-1.08E-06,0.014594375
,,,-1.07E-06,0.0143875
,,,-1.06E-06,0.01426625
,,,-1.05E-06,0.014663125
,,,-1.04E-06,0.0145525
,,,-1.03E-06,0.01465
,,,-1.02E-06,0.014516875
,,,-1.01E-06,0.014336875
,,,-1E-06,0.014471875
,,,-9.9E-07,0.014426875
,,,-9.8E-07,0.014358125
,,,-9.7E-07,0.01472375
,,,-9.6E-07,0.014589375
,,,-9.5E-07,0.014645
,,,-9.4E-07,0.014448125
,,,-9.3E-07,0.0149175
,,,-9.2E-07,0.01455
,,,-9.1E-07,0.01441875
,,,-9E-07,0.014473125
,,,-8.9E-07,0.01433375
,,,-8.8E-07,0.014466875
,,,-8.7E-07,0.01477625
,,,-8.6E-07,0.01435875
,,,-8.5E-07,0.014608125
,,,-8.4E-07,0.014431875
,,,-8.3E-07,0.01482
,,,-8.2E-07,0.014670625
,,,-8.1E-07,0.014440625
,,,-8E-07,0.014419375
,,,-7.9E-07,0.014570625
,,,-7.8E-07,0.014498125
,,,-7.7E-07,0.0147575
,,,-7.6E-07,0.014568125
,,,-7.5E-07,0.014475
,,,-7.4E-07,0.014554375
,,,-7.3E-07,0.014338125
,,,-7.2E-07,0.01438
,,,-7.1E-07,0.01447625
,,,-7E-07,0.01451625
,,,-6.9E-07,0.01467
,,,-6.8E-07,0.014505
,,,-6.7E-07,0.014686875
,,,-6.6E-07,0.01459875
,,,-6.5E-07,0.014585
,,,-6.4E-07,0.014559375
,,,-6.3E-07,0.014486875
,,,-6.2E-07,0.014464375
,,,-6.1E-07,0.014408125
,,,-6E-07,0.014545625
,,,-5.9E-07,0.01451875
,,,-5.8E-07,0.01435375
,,,-5.7E-07,0.01456875
,,,-5.6E-07,0.014551875
,,,-5.5E-07,0.014414375
,,,-5.4E-07,0.014516875
,,,-5.3E-07,0.014781875
,,,-5.2E-07,0.014519375
,,,-5.1E-07,0.014510625
,,,-5E-07,0.0144725
,,,-4.9E-07,0.014479375
,,,-4.8E-07,0.014563125
,,,-4.7E-07,0.014306875
,,,-4.6E-07,0.01441
,,,-4.5E-07,0.01446375
,,,-4.4E-07,0.0146675
,,,-4.3E-07,0.0145275
,,,-4.2E-07,0.01452
,,,-4.1E-07,0.014490625
,,,-4E-07,0.014464375
,,,-3.9E-07,0.014446875
,,,-3.8E-07,0.01439875
,,,-3.7E-07,0.014505625
,,,-3.6E-07,0.014370625
,,,-3.5E-07,0.014591875
,,,-3.4E-07,0.014485625
,,,-3.3E-07,0.014486875
,,,-3.2E-07,0.014313125
,,,-3.1E-07,0.0146575
,,,-3E-07,0.014339375
,,,-2.9E-07,0.01456375
,,,-2.8E-07,0.01463
,,,-2.7E-07,0.014660625
,,,-2.6E-07,0.014789375
,,,-2.5E-07,0.0144925
,,,-2.4E-07,0.0146375
,,,-2.3E-07,0.01475625
,,,-2.2E-07,0.01456875
,,,-2.1E-07,0.0147175
,,,-2E-07,0.0143325
,,,-1.9E-07,0.01439625
,,,-1.8E-07,0.014571875
,,,-1.7E-07,0.014574375
,,,-1.6E-07,0.01486
,,,-1.5E-07,0.0145675
,,,-1.4E-07,0.01443875
,,,-1.3E-07,0.01433125
,,,-1.2E-07,0.014520625
,,,-1.1E-07,0.014561875
,,,-1E-07,0.0149075
,,,-9E-08,0.01466125
,,,-8E-08,0.014665
,,,-7E-08,0.014564375
,,,-6E-08,0.01437875
,,,-5E-08,0.01502125
,,,-4E-08,0.015788125
,,,-3E-08,0.014655625
,,,-2E-08,0.012428125
,,,-1E-08,0.01132625
,,,0,0.013454375
,,,1E-08,0.017564375
,,,2E-08,0.018359375
,,,3E-08,0.01646375
,,,4E-08,0.01340375
,,,5E-08,0.0114925
,,,6E-08,0.011981875
,,,7E-08,0.0137925
,,,8E-08,0.015524375
,,,9E-08,0.01660625
,,,1E-07,0.01619375
,,,1.1E-07,0.014555625
,,,1.2E-07,0.013606875
,,,1.3E-07,0.01299125
,,,1.4E-07,0.01405375
,,,1.5E-07,0.014884375
,,,1.6E-07,0.014960625
,,,1.7E-07,0.015013125
,,,1.8E-07,0.014665
,,,1.9E-07,0.01451
,,,2E-07,0.0144875
,,,2.1E-07,0.01419375
,,,2.2E-07,0.014225
,,,2.3E-07,0.01445
,,,2.4E-07,0.01454875
,,,2.5E-07,0.014646875
,,,2.6E-07,0.01457
,,,2.7E-07,0.014716875
,,,2.8E-07,0.014384375
,,,2.9E-07,0.01437125
,,,3E-07,0.014391875
,,,3.1E-07,0.014323125
,,,3.2E-07,0.014713125
,,,3.3E-07,0.014416875
,,,3.4E-07,0.014533125
,,,3.5E-07,0.0145825
,,,3.6E-07,0.014594375
,,,3.7E-07,0.014595
,,,3.8E-07,0.014515625
,,,3.9E-07,0.014640625
,,,4E-07,0.014564375
,,,4.1E-07,0.01459
,,,4.2E-07,0.01457375
,,,4.3E-07,0.01474
,,,4.4E-07,0.01446375
,,,4.5E-07,0.014586875
,,,4.6E-07,0.014389375
,,,4.7E-07,0.014463125
,,,4.8E-07,0.014509375
,,,4.9E-07,0.014601875
,,,5E-07,0.01464875
,,,5.1E-07,0.01443875
,,,5.2E-07,0.01487375
,,,5.3E-07,0.014594375
,,,5.4E-07,0.014336875
,,,5.5E-07,0.014505625
,,,5.6E-07,0.01427
,,,5.7E-07,0.014393125
,,,5.8E-07,0.014605
,,,5.9E-07,0.0144975
,,,6E-07,0.01475
,,,6.1E-07,0.0142925
,,,6.2E-07,0.014815625
,,,6.3E-07,0.014253125
,,,6.4E-07,0.014243125
,,,6.5E-07,0.01470625
,,,6.6E-07,0.01467375
,,,6.7E-07,0.01459625
,,,6.8E-07,0.01432
,,,6.9E-07,0.014350625
,,,7E-07,0.01438625
,,,7.1E-07,0.014530625
,,,7.2E-07,0.014335625
,,,7.3E-07,0.01474375
,,,7.4E-07,0.014776875
,,,7.5E-07,0.01447125
,,,7.6E-07,0.01486375
,,,7.7E-07,0.014564375
,,,7.8E-07,0.01471625
,,,7.9E-07,0.01471
,,,8E-07,0.01457625
,,,8.1E-07,0.014305625
,,,8.2E-07,0.014441875
,,,8.3E-07,0.01452875
,,,8.4E-07,0.0146475
,,,8.5E-07,0.014406875
,,,8.6E-07,0.01447375
,,,8.7E-07,0.014553125
,,,8.8E-07,0.01439125
,,,8.9E-07,0.014514375
,,,9E-07,0.01463625
,,,9.1E-07,0.0143325
,,,9.2E-07,0.014619375
,,,9.3E-07,0.01445875
,,,9.4E-07,0.0144375
,,,9.5E-07,0.01473125
,,,9.6E-07,0.0144675
,,,9.7E-07,0.01435
,,,9.8E-07,0.014333125
,,,9.9E-07,0.014670625
,,,1E-06,0.014505625
,,,1.01E-06,0.014315
,,,1.02E-06,0.014461875
,,,1.03E-06,0.014630625
,,,1.04E-06,0.014375625
,,,1.05E-06,0.01453375
,,,1.06E-06,0.01463625
,,,1.07E-06,0.014448125
,,,1.08E-06,0.01466
,,,1.09E-06,0.01446375
,,,1.1E-06,0.014620625
,,,1.11E-06,0.014438125
,,,1.12E-06,0.0145475
,,,1.13E-06,0.01451
,,,1.14E-06,0.01458125
,,,1.15E-06,0.01452375
,,,1.16E-06,0.014688125
,,,1.17E-06,0.014719375
,,,1.18E-06,0.014510625
,,,1.19E-06,0.0146025
,,,1.2E-06,0.014508125
,,,1.21E-06,0.014531875
,,,1.22E-06,0.0143
,,,1.23E-06,0.01461
,,,1.24E-06,0.014414375
,,,1.25E-06,0.01436625
,,,1.26E-06,0.014610625
,,,1.27E-06,0.014444375
,,,1.28E-06,0.014486875
,,,1.29E-06,0.0146675
,,,1.3E-06,0.014419375
,,,1.31E-06,0.01459375
,,,1.32E-06,0.014656875
,,,1.33E-06,0.014529375
,,,1.34E-06,0.01461625
,,,1.35E-06,0.014633125
,,,1.36E-06,0.01464
,,,1.37E-06,0.014483125
,,,1.38E-06,0.01466125
,,,1.39E-06,0.01446875
,,,1.4E-06,0.014505
,,,1.41E-06,0.014458125
,,,1.42E-06,0.01456625
,,,1.43E-06,0.01446625
,,,1.44E-06,0.01464
,,,1.45E-06,0.0144575
,,,1.46E-06,0.01451125
,,,1.47E-06,0.0145825
,,,1.48E-06,0.01466375
,,,1.49E-06,0.0143725
,,,1.5E-06,0.014438125
,,,1.51E-06,0.014415625
,,,1.52E-06,0.01465125
,,,1.53E-06,0.014574375
,,,1.54E-06,0.014403125
,,,1.55E-06,0.01447875
,,,1.56E-06,0.014504375
,,,1.57E-06,0.0145625
,,,1.58E-06,0.0142975
,,,1.59E-06,0.0144425
,,,1.6E-06,0.01449625
,,,1.61E-06,0.014365
,,,1.62E-06,0.014509375
,,,1.63E-06,0.014649375
,,,1.64E-06,0.014365
,,,1.65E-06,0.014581875
,,,1.66E-06,0.01435375
,,,1.67E-06,0.014521875
,,,1.68E-06,0.014500625
,,,1.69E-06,0.014610625
,,,1.7E-06,0.01440625
,,,1.71E-06,0.014591875
,,,1.72E-06,0.014499375
,,,1.73E-06,0.014245625
,,,1.74E-06,0.014675625
,,,1.75E-06,0.014515
,,,1.76E-06,0.014426875
,,,1.77E-06,0.01448625
,,,1.78E-06,0.014408125
,,,1.79E-06,0.014444375
,,,1.8E-06,0.01492125
,,,1.81E-06,0.01457875
,,,1.82E-06,0.014686875
,,,1.83E-06,0.01471375
,,,1.84E-06,0.014624375
,,,1.85E-06,0.01459125
,,,1.86E-06,0.0143575
,,,1.87E-06,0.014723125
,,,1.88E-06,0.014444375
,,,1.89E-06,0.014563125
,,,1.9E-06,0.014533125
,,,1.91E-06,0.0145475
,,,1.92E-06,0.014494375
,,,1.93E-06,0.0143925
,,,1.94E-06,0.01456625
,,,1.95E-06,0.014881875
,,,1.96E-06,0.01450125
,,,1.97E-06,0.014839375
,,,1.98E-06,0.0145175
,,,1.99E-06,0.01465625
,,,2E-06,0.01448375
,,,2.01E-06,0.014588125
,,,2.02E-06,0.014558125
,,,2.03E-06,0.0145025
,,,2.04E-06,0.014446875
,,,2.05E-06,0.014725625
,,,2.06E-06,0.0145675
,,,2.07E-06,0.014381875
,,,2.08E-06,0.0144825
,,,2.09E-06,0.014591875
,,,2.1E-06,0.01440125
,,,2.11E-06,0.014525
,,,2.12E-06,0.01444
,,,2.13E-06,0.01466
,,,2.14E-06,0.014474375
,,,2.15E-06,0.01437875
,,,2.16E-06,0.0147675
,,,2.17E-06,0.014579375
,,,2.18E-06,0.014710625
,,,2.19E-06,0.014568125
,,,2.2E-06,0.014421875
,,,2.21E-06,0.01445875
,,,2.22E-06,0.01480125
,,,2.23E-06,0.014285
,,,2.24E-06,0.014360625
,,,2.25E-06,0.014491875
,,,2.26E-06,0.01467125
,,,2.27E-06,0.01437125
,,,2.28E-06,0.014485625
,,,2.29E-06,0.01462
,,,2.3E-06,0.014713125
,,,2.31E-06,0.0144325
,,,2.32E-06,0.01442875
,,,2.33E-06,0.01458875
,,,2.34E-06,0.014678125
,,,2.35E-06,0.014493125
,,,2.36E-06,0.014414375
,,,2.37E-06,0.014461875
,,,2.38E-06,0.014530625
,,,2.39E-06,0.0146425
,,,2.4E-06,0.014558125
,,,2.41E-06,0.0145175
,,,2.42E-06,0.0142875
,,,2.43E-06,0.0144825
,,,2.44E-06,0.014645
,,,2.45E-06,0.01451
,,,2.46E-06,0.01447125
,,,2.47E-06,0.014351875
,,,2.48E-06,0.01456625
,,,2.49E-06,0.01458375
,,,2.5E-06,0.0146725
,,,2.51E-06,0.014609375
,,,2.52E-06,0.014480625
,,,2.53E-06,0.014498125
,,,2.54E-06,0.01449375
,,,2.55E-06,0.01458
,,,2.56E-06,0.0145125
,,,2.57E-06,0.014608125
,,,2.58E-06,0.01450875
,,,2.59E-06,0.01430375
,,,2.6E-06,0.014410625
,,,2.61E-06,0.01489125
,,,2.62E-06,0.01451875
,,,2.63E-06,0.0145175
,,,2.64E-06,0.014718125
,,,2.65E-06,0.0141925
,,,2.66E-06,0.0142375
,,,2.67E-06,0.014534375
,,,2.68E-06,0.0144475
,,,2.69E-06,0.014556875
,,,2.7E-06,0.014446875
,,,2.71E-06,0.01448375
,,,2.72E-06,0.014556875
,,,2.73E-06,0.014495625
,,,2.74E-06,0.014678125
,,,2.75E-06,0.01449125
,,,2.76E-06,0.01429875
,,,2.77E-06,0.014405625
,,,2.78E-06,0.014575
,,,2.79E-06,0.01448125
,,,2.8E-06,0.01458625
,,,2.81E-06,0.01452625
,,,2.82E-06,0.0146975
,,,2.83E-06,0.014246875
,,,2.84E-06,0.014139375
,,,2.85E-06,0.014516875
,,,2.86E-06,0.01457625
,,,2.87E-06,0.0144175
,,,2.88E-06,0.014589375
,,,2.89E-06,0.0143225
,,,2.9E-06,0.01430375
,,,2.91E-06,0.014455
,,,2.92E-06,0.01441375
,,,2.93E-06,0.014545625
,,,2.94E-06,0.01441125
,,,2.95E-06,0.014505625
,,,2.96E-06,0.014554375
,,,2.97E-06,0.014678125
,,,2.98E-06,0.014486875
,,,2.99E-06,0.014570625
,,,3E-06,0.014506875
,,,3.01E-06,0.014485
,,,3.02E-06,0.014605
,,,3.03E-06,0.01438875
,,,3.04E-06,0.014785625
,,,3.05E-06,0.01441375
,,,3.06E-06,0.014724375
,,,3.07E-06,0.014406875
,,,3.08E-06,0.014388125
,,,3.09E-06,0.0146775
,,,3.1E-06,0.014321875
,,,3.11E-06,0.014558125
,,,3.12E-06,0.014715625
,,,3.13E-06,0.01460875
,,,3.14E-06,0.01447
,,,3.15E-06,0.014388125
,,,3.16E-06,0.0143325
,,,3.17E-06,0.014569375
,,,3.18E-06,0.014329375
,,,3.19E-06,0.014623125
,,,3.2E-06,0.014529375
,,,3.21E-06,0.014543125
,,,3.22E-06,0.01451375
,,,3.23E-06,0.01459
,,,3.24E-06,0.014535625
,,,3.25E-06,0.01462125
,,,3.26E-06,0.014763125
,,,3.27E-06,0.014368125
,,,3.28E-06,0.014473125
,,,3.29E-06,0.01453875
,,,3.3E-06,0.014673125
,,,3.31E-06,0.01438
,,,3.32E-06,0.014708125
,,,3.33E-06,0.01451125
,,,3.34E-06,0.014555625
,,,3.35E-06,0.014751875
,,,3.36E-06,0.014295625
,,,3.37E-06,0.014741875
,,,3.38E-06,0.01456625
,,,3.39E-06,0.014558125
,,,3.4E-06,0.0145775
,,,3.41E-06,0.014618125
,,,3.42E-06,0.014685
,,,3.43E-06,0.014620625
,,,3.44E-06,0.01449375
,,,3.45E-06,0.01467125
,,,3.46E-06,0.014473125
,,,3.47E-06,0.014625625
,,,3.48E-06,0.014590625
,,,3.49E-06,0.014525625
,,,3.5E-06,0.014424375
,,,3.51E-06,0.014465
,,,3.52E-06,0.01446125
,,,3.53E-06,0.014695625
,,,3.54E-06,0.01481375
,,,3.55E-06,0.014671875
,,,3.56E-06,0.014379375
