data/raw/Final_POL_Test_1/SOP070_Ch4.csv

"Record Length",1000,"Points",-5E-06,0.0164975
"Sample Interval",1E-08,s,-4.99E-06,0.016478125
"Trigger Point",500,"Samples",-4.98E-06,0.0162125
"Trigger Time",0,s,-4.97E-06,0.016395
"",,,-4.96E-06,0.016259375
"Horizontal Offset",-5E-06,s,-4.95E-06,0.016066875
,,,-4.94E-06,0.01641
,,,-4.93E-06,0.016186875
,,,-4.92E-06,0.01634375
,,,-4.91E-06,0.016425625
,,,-4.9E-06,0.01638875
,,,-4.89E-06,0.016261875
,,,-4.88E-06,0.01641875
,,,-4.87E-06,0.016359375
,,,-4.86E-06,0.016235
,,,-4.85E-06,0.016291875
,,,-4.84E-06,0.016271875
,,,-4.83E-06,0.01628625
,,,-4.82E-06,0.01635875
,,,-4.81E-06,0.0163475
,,,-4.8E-06,0.016584375
,,,-4.79E-06,0.016401875
,,,-4.78E-06,0.01623875
,,,-4.77E-06,0.01627875
,,,-4.76E-06,0.01656875
,,,-4.75E-06,0.016529375
,,,-4.74E-06,0.016283125
,,,-4.73E-06,0.01632875
,,,-4.72E-06,0.01631
,,,-4.71E-06,0.016505
,,,-4.7E-06,0.01623125
,,,-4.69E-06,0.01609125
,,,-4.68E-06,0.016300625
,,,-4.67E-06,0.016390625
,,,-4.66E-06,0.016338125
,,,-4.65E-06,0.01645125
,,,-4.64E-06,0.016449375
,,,-4.63E-06,0.016029375
,,,-4.62E-06,0.01627375
,,,-4.61E-06,0.01609125
,,,-4.6E-06,0.01632875
,,,-4.59E-06,0.016568125
,,,-4.58E-06,0.016468125
,,,-4.57E-06,0.016178125
,,,-4.56E-06,0.01641875
,,,-4.55E-06,0.016335
,,,-4.54E-06,0.016095
,,,-4.53E-06,0.01652625
,,,-4.52E-06,0.0163325
,,,-4.51E-06,0.016358125
,,,-4.5E-06,0.01663
,,,-4.49E-06,0.0164
,,,-4.48E-06,0.016226875
,,,-4.47E-06,0.016695625
,,,-4.46E-06,0.016433125
,,,-4.45E-06,0.0164075
,,,-4.44E-06,0.016294375
,,,-4.43E-06,0.016390625
,,,-4.42E-06,0.016291875
,,,-4.41E-06,0.016151875
,,,-4.4E-06,0.016555
,,,-4.39E-06,0.016480625
,,,-4.38E-06,0.016111875
,,,-4.37E-06,0.01632875
,,,-4.36E-06,0.016345
,,,-4.35E-06,0.016263125
,,,-4.34E-06,0.0163125
,,,-4.33E-06,0.016414375
,,,-4.32E-06,0.016358125
,,,-4.31E-06,0.016321875
,,,-4.3E-06,0.01634
,,,-4.29E-06,0.01641625
,,,-4.28E-06,0.016051875
,,,-4.27E-06,0.016355625
,,,-4.26E-06,0.01624
,,,-4.25E-06,0.016185
,,,-4.24E-06,0.016489375
,,,-4.23E-06,0.016481875
,,,-4.22E-06,0.016193125
,,,-4.21E-06,0.016308125
,,,-4.2E-06,0.01647375
,,,-4.19E-06,0.01627625
,,,-4.18E-06,0.01634375
,,,-4.17E-06,0.016580625
,,,-4.16E-06,0.01642
,,,-4.15E-06,0.016350625
,,,-4.14E-06,0.016296875
,,,-4.13E-06,0.016434375
,,,-4.12E-06,0.016154375
,,,-4.11E-06,0.016674375
,,,-4.1E-06,0.016511875
,,,-4.09E-06,0.01632125
,,,-4.08E-06,0.016428125
,,,-4.07E-06,0.016570625
,,,-4.06E-06,0.01653125
,,,-4.05E-06,0.016395625
,,,-4.04E-06,0.016306875
,,,-4.03E-06,0.016604375
,,,-4.02E-06,0.016093125
,,,-4.01E-06,0.016224375
,,,-4E-06,0.01661625
,,,-3.99E-06,0.016301875
,,,-3.98E-06,0.016324375
,,,-3.97E-06,0.016218125
,,,-3.96E-06,0.01643125
,,,-3.95E-06,0.016586875
,,,-3.94E-06,0.016305625
,,,-3.93E-06,0.01651
,,,-3.92E-06,0.01646625
,,,-3.91E-06,0.01627375
,,,-3.9E-06,0.01655625
,,,-3.89E-06,0.016566875
,,,-3.88E-06,0.016245625
,,,-3.87E-06,0.0162
,,,-3.86E-06,0.01642
,,,-3.85E-06,0.0162725
,,,-3.84E-06,0.016516875
,,,-3.83E-06,0.016219375
,,,-3.82E-06,0.016585625
,,,-3.81E-06,0.01642875
,,,-3.8E-06,0.01634
,,,-3.79E-06,0.01606875
,,,-3.78E-06,0.0163225
,,,-3.77E-06,0.01618
,,,-3.76E-06,0.01645875
,,,-3.75E-06,0.016273125
,,,-3.74E-06,0.016425625
,,,-3.73E-06,0.0163225
,,,-3.72E-06,0.0163475
,,,-3.71E-06,0.016250625
,,,-3.7E-06,0.01618125
,,,-3.69E-06,0.0160375
,,,-3.68E-06,0.0161625
,,,-3.67E-06,0.01621125
,,,-3.66E-06,0.01665125
,,,-3.65E-06,0.016289375
,,,-3.64E-06,0.01644625
,,,-3.63E-06,0.01654625
,,,-3.62E-06,0.016399375
,,,-3.61E-06,0.016373125
,,,-3.6E-06,0.01639
,,,-3.59E-06,0.0163175
,,,-3.58E-06,0.0164975
,,,-3.57E-06,0.016386875
,,,-3.56E-06,0.016255625
,,,-3.55E-06,0.016188125
,,,-3.54E-06,0.016333125
,,,-3.53E-06,0.0161625
,,,-3.52E-06,0.016183125
,,,-3.51E-06,0.01618875
,,,-3.5E-06,0.016359375
,,,-3.49E-06,0.016364375
,,,-3.48E-06,0.016368125
,,,-3.47E-06,0.016125625
,,,-3.46E-06,0.016415625
,,,-3.45E-06,0.016323125
,,,-3.44E-06,0.01638875
,,,-3.43E-06,0.01622375
,,,-3.42E-06,0.016443125
,,,-3.41E-06,0.0163225
,,,-3.4E-06,0.01606125
,,,-3.39E-06,0.01642125
,,,-3.38E-06,0.016404375
,,,-3.37E-06,0.016438125
,,,-3.36E-06,0.016454375
,,,-3.35E-06,0.016391875
,,,-3.34E-06,0.016405625
,,,-3.33E-06,0.016311875
,,,-3.32E-06,0.016306875
,,,-3.31E-06,0.016323125
,,,-3.3E-06,0.01626
,,,-3.29E-06,0.016025625
,,,-3.28E-06,0.01649625
,,,-3.27E-06,0.01629125
,,,-3.26E-06,0.016411875
,,,-3.25E-06,0.016355
,,,-3.24E-06,0.01642875
,,,-3.23E-06,0.01633625
,,,-3.22E-06,0.01608625
,,,-3.21E-06,0.016536875
,,,-3.2E-06,0.016395625
,,,-3.19E-06,0.016178125
,,,-3.18E-06,0.01639
,,,-3.17E-06,0.016575
,,,-3.16E-06,0.016301875
,,,-3.15E-06,0.016385625
,,,-3.14E-06,0.016215625
,,,-3.13E-06,0.016181875
,,,-3.12E-06,0.016169375
,,,-3.11E-06,0.01625375
,,,-3.1E-06,0.01641
,,,-3.09E-06,0.0164775
,,,-3.08E-06,0.016541875
,,,-3.07E-06,0.016258125
,,,-3.06E-06,0.016184375
,,,-3.05E-06,0.016456875
,,,-3.04E-06,0.016539375
,,,-3.03E-06,0.016295
,,,-3.02E-06,0.01656375
,,,-3.01E-06,0.01629125
,,,-3E-06,0.016213125
,,,-2.99E-06,0.016308125
,,,-2.98E-06,0.016381875
,,,-2.97E-06,0.01635875
,,,-2.96E-06,0.01640125
,,,-2.95E-06,0.016199375
,,,-2.94E-06,0.016456875
,,,-2.93E-06,0.016414375
,,,-2.92E-06,0.01635125
,,,-2.91E-06,0.01663
,,,-2.9E-06,0.016323125
,,,-2.89E-06,0.016336875
,,,-2.88E-06,0.01634
,,,-2.87E-06,0.01638
,,,-2.86E-06,0.0164275
,,,-2.85E-06,0.016395
,,,-2.84E-06,0.016285
,,,-2.83E-06,0.016345625
,,,-2.82E-06,0.01627625
,,,-2.81E-06,0.01609
,,,-2.8E-06,0.016348125
,,,-2.79E-06,0.01613
,,,-2.78E-06,0.016134375
,,,-2.77E-06,0.016315
,,,-2.76E-06,0.016225
,,,-2.75E-06,0.01641
,,,-2.74E-06,0.016334375
,,,-2.73E-06,0.016229375
,,,-2.72E-06,0.0161225
,,,-2.71E-06,0.016199375
,,,-2.7E-06,0.016091875
,,,-2.69E-06,0.01660625
,,,-2.68E-06,0.01615375
,,,-2.67E-06,0.016451875
,,,-2.66E-06,0.016260625
,,,-2.65E-06,0.0162675
,,,-2.64E-06,0.016204375
,,,-2.63E-06,0.0160625
,,,-2.62E-06,0.0162775
,,,-2.61E-06,0.016569375
,,,-2.6E-06,0.01650375
,,,-2.59E-06,0.016383125
,,,-2.58E-06,0.01631125
,,,-2.57E-06,0.016363125
,,,-2.56E-06,0.01646375
,,,-2.55E-06,0.016473125
,,,-2.54E-06,0.016256875
,,,-2.53E-06,0.016506875
,,,-2.52E-06,0.01619875
,,,-2.51E-06,0.016169375
,,,-2.5E-06,0.016618125
,,,-2.49E-06,0.01625375
,,,-2.48E-06,0.01628875
,,,-2.47E-06,0.016426875
,,,-2.46E-06,0.016245
,,,-2.45E-06,0.01655875
,,,-2.44E-06,0.01603625
,,,-2.43E-06,0.01647625
,,,-2.42E-06,0.016359375
,,,-2.41E-06,0.01651375
,,,-2.4E-06,0.016280625
,,,-2.39E-06,0.0161975
,,,-2.38E-06,0.0163975
,,,-2.37E-06,0.0163325
,,,-2.36E-06,0.01639625
,,,-2.35E-06,0.016564375
,,,-2.34E-06,0.016399375
,,,-2.33E-06,0.016258125
,,,-2.32E-06,0.01628375
,,,-2.31E-06,0.016436875
,,,-2.3E-06,0.016305625
,,,-2.29E-06,0.0162525
,,,-2.28E-06,0.016203125
,,,-2.27E-06,0.0163975
,,,-2.26E-06,0.0162825
,,,-2.25E-06,0.016475625
,,,-2.24E-06,0.0164175
,,,-2.23E-06,0.016430625
,,,-2.22E-06,0.016349375
,,,-2.21E-06,0.016443125
,,,-2.2E-06,0.016205625
,,,-2.19E-06,0.01603375
,,,-2.18E-06,0.016565625
,,,-2.17E-06,0.016491875
,,,-2.16E-06,0.016396875
,,,-2.15E-06,0.01627875
,,,-2.14E-06,0.016235
,,,-2.13E-06,0.016314375
,,,-2.12E-06,0.016574375
,,,-2.11E-06,0.01632
,,,-2.1E-06,0.016575625
,,,-2.09E-06,0.01625
,,,-2.08E-06,0.01648625
,,,-2.07E-06,0.01625
,,,-2.06E-06,0.016433125
,,,-2.05E-06,0.016365625
,,,-2.04E-06,0.0163075
,,,-2.03E-06,0.01643625
,,,-2.02E-06,0.01630875
,,,-2.01E-06,0.0164775
,,,-2E-06,0.016323125
,,,-1.99E-06,0.016521875
,,,-1.98E-06,0.01637
,,,-1.97E-06,0.016195625
,,,-1.96E-06,0.01603875
,,,-1.95E-06,0.016451875
,,,-1.94E-06,0.016350625
,,,-1.93E-06,0.0162475
,,,-1.92E-06,0.01654
,,,-1.91E-06,0.0165275
,,,-1.9E-06,0.016368125
,,,-1.89E-06,0.016346875
,,,-1.88E-06,0.016315
,,,-1.87E-06,0.016611875
,,,-1.86E-06,0.016098125
,,,-1.85E-06,0.016439375
,,,-1.84E-06,0.0160075
,,,-1.83E-06,0.016396875
,,,-1.82E-06,0.016454375
,,,-1.81E-06,0.0165575
,,,-1.8E-06,0.01629375
,,,-1.79E-06,0.0164025
,,,-1.78E-06,0.016285
,,,-1.77E-06,0.016508125
,,,-1.76E-06,0.016073125
,,,-1.75E-06,0.01656875
,,,-1.74E-06,0.016378125
,,,-1.73E-06,0.01629375
,,,-1.72E-06,0.016385
,,,-1.71E-06,0.0163975
,,,-1.7E-06,0.01658
,,,-1.69E-06,0.016626875
,,,-1.68E-06,0.016254375
,,,-1.67E-06,0.01605
,,,-1.66E-06,0.01599625
,,,-1.65E-06,0.016170625
,,,-1.64E-06,0.0161175
,,,-1.63E-06,0.01647125
,,,-1.62E-06,0.0164575
,,,-1.61E-06,0.016390625
,,,-1.6E-06,0.016441875
,,,-1.59E-06,0.016409375
,,,-1.58E-06,0.016601875
,,,-1.57E-06,0.016435
,,,-1.56E-06,0.01639125
,,,-1.55E-06,0.016405
,,,-1.54E-06,0.016465
,,,-1.53E-06,0.016175
,,,-1.52E-06,0.0164675
,,,-1.51E-06,0.016695625
,,,-1.5E-06,0.01647875
,,,-1.49E-06,0.0163175
,,,-1.48E-06,0.016083125
,,,-1.47E-06,0.016525625
,,,-1.46E-06,0.01589625
,,,-1.45E-06,0.01625875
,,,-1.44E-06,0.01616125
,,,-1.43E-06,0.01621
,,,-1.42E-06,0.0164625
,,,-1.41E-06,0.01638625
,,,-1.4E-06,0.0163075
,,,-1.39E-06,0.016129375
,,,-1.38E-06,0.0163875
,,,-1.37E-06,0.01642625
,,,-1.36E-06,0.016315
,,,-1.35E-06,0.016575625
,,,-1.34E-06,0.01606375
,,,-1.33E-06,0.0163725
,,,-1.32E-06,0.016271875
,,,-1.31E-06,0.0163375
,,,-1.3E-06,0.016181875
,,,-1.29E-06,0.016364375
,,,-1.28E-06,0.01607625
,,,-1.27E-06,0.016499375
,,,-1.26E-06,0.016168125
,,,-1.25E-06,0.01627
,,,-1.24E-06,0.015926875
,,,-1.23E-06,0.016399375
,,,-1.22E-06,0.01649
,,,-1.21E-06,0.01632125
,,,-1.2E-06,0.01637875
,,,-1.19E-06,0.01648375
,,,-1.18E-06,0.016345625
,,,-1.17E-06,0.01642375
,,,-1.16E-06,0.01629
,,,-1.15E-06,0.0161875
,,,-1.14E-06,0.0164725
,,,-1.13E-06,0.016254375
,,,-1.12E-06,0.016466875
,,,-1.11E-06,0.016334375
,,,-1.1E-06,0.016254375
,,,-1.09E-06,0.016228125
,,,-1.08E-06,0.016221875
,,,-1.07E-06,0.0163075
,,,-1.06E-06,0.016343125
,,,-1.05E-06,0.016336875
,,,-1.04E-06,0.016163125
,,,-1.03E-06,0.01632
,,,-1.02E-06,0.01633375
,,,-1.01E-06,0.016475
,,,-1E-06,0.01637375
,,,-9.9E-07,0.0164575
,,,-9.8E-07,0.016225
,,,-9.7E-07,0.0165675
,,,-9.6E-07,0.016435
,,,-9.5E-07,0.016079375
,,,-9.4E-07,0.016583125
,,,-9.3E-07,0.01601875
,,,-9.2E-07,0.016291875
,,,-9.1E-07,0.016181875
,,,-9E-07,0.016269375
,,,-8.9E-07,0.016365625
,,,-8.8E-07,0.01629375
,,,-8.7E-07,0.016170625
,,,-8.6E-07,0.01622
,,,-8.5E-07,0.016375
,,,-8.4E-07,0.016435
,,,-8.3E-07,0.01639625
,,,-8.2E-07,0.01661875
,,,-8.1E-07,0.016335
,,,-8E-07,0.016105
,,,-7.9E-07,0.01644875
,,,-7.8E-07,0.016330625
,,,-7.7E-07,0.016191875
,,,-7.6E-07,0.016418125
,,,-7.5E-07,0.01616125
,,,-7.4E-07,0.01631125
,,,-7.3E-07,0.016416875
,,,-7.2E-07,0.01644375
,,,-7.1E-07,0.016243125
,,,-7E-07,0.01635375
,,,-6.9E-07,0.016474375
,,,-6.8E-07,0.016250625
,,,-6.7E-07,0.01608625
,,,-6.6E-07,0.016288125
,,,-6.5E-07,0.015924375
,,,-6.4E-07,0.016069375
,,,-6.3E-07,0.016343125
,,,-6.2E-07,0.016388125
,,,-6.1E-07,0.016145625
,,,-6E-07,0.016528125
,,,-5.9E-07,0.016439375
,,,-5.8E-07,0.016363125
,,,-5.7E-07,0.016466875
,,,-5.6E-07,0.016445
,,,-5.5E-07,0.016490625
,,,-5.4E-07,0.0161875
,,,-5.3E-07,0.016453125
,,,-5.2E-07,0.0166575
,,,-5.1E-07,0.016373125
,,,-5E-07,0.01626125
,,,-4.9E-07,0.016219375
,,,-4.8E-07,0.016314375
,,,-4.7E-07,0.0162025
,,,-4.6E-07,0.0161375
,,,-4.5E-07,0.0164
,,,-4.4E-07,0.0164225
,,,-4.3E-07,0.016458125
,,,-4.2E-07,0.01620125
,,,-4.1E-07,0.01647
,,,-4E-07,0.01613125
,,,-3.9E-07,0.016433125
,,,-3.8E-07,0.01622125
,,,-3.7E-07,0.01644375
,,,-3.6E-07,0.016241875
,,,-3.5E-07,0.016460625
,,,-3.4E-07,0.01623875
,,,-3.3E-07,0.01620875
,,,-3.2E-07,0.01637
,,,-3.1E-07,0.01643875
,,,-3E-07,0.01618125
,,,-2.9E-07,0.016585
,,,-2.8E-07,0.016241875
,,,-2.7E-07,0.016523125
,,,-2.6E-07,0.016361875
,,,-2.5E-07,0.016378125
,,,-2.4E-07,0.01624875
,,,-2.3E-07,0.016270625
,,,-2.2E-07,0.016361875
,,,-2.1E-07,0.016501875
,,,-2E-07,0.01622875
,,,-1.9E-07,0.01647
,,,-1.8E-07,0.016306875
,,,-1.7E-07,0.0161875
,,,-1.6E-07,0.016490625
,,,-1.5E-07,0.01649625
,,,-1.4E-07,0.01646125
,,,-1.3E-07,0.01620125
,,,-1.2E-07,0.016343125
,,,-1.1E-07,0.016480625
,,,-1E-07,0.01631375
,,,-9E-08,0.01647
,,,-8E-08,0.016219375
,,,-7E-08,0.01571375
,,,-6E-08,0.01599
,,,-5E-08,0.0172475
,,,-4E-08,0.017856875
,,,-3E-08,0.016888125
,,,-2E-08,0.014513125
,,,-1E-08,0.0135275
,,,0,0.01521875
,,,1E-08,0.01812375
,,,2E-08,0.019070625
,,,3E-08,0.01817625
,,,4E-08,0.015643125
,,,5E-08,0.014840625
,,,6E-08,0.014353125
,,,7E-08,0.0156875
,,,8E-08,0.01682
,,,9E-08,0.0178675
,,,1E-07,0.0175525
,,,1.1E-07,0.016568125
,,,1.2E-07,0.015158125
,,,1.3E-07,0.01532875
,,,1.4E-07,0.01615125
,,,1.5E-07,0.016695625
,,,1.6E-07,0.016521875
,,,1.7E-07,0.0164925
,,,1.8E-07,0.01637875
,,,1.9E-07,0.016469375
,,,2E-07,0.016319375
,,,2.1E-07,0.016160625
,,,2.2E-07,0.01615125
,,,2.3E-07,0.016174375
,,,2.4E-07,0.016304375
,,,2.5E-07,0.01661
,,,2.6E-07,0.016518125
,,,2.7E-07,0.016403125
,,,2.8E-07,0.016369375
,,,2.9E-07,0.016135
,,,3E-07,0.016335
,,,3.1E-07,0.0163625
,,,3.2E-07,0.01631375
,,,3.3E-07,0.0165275
,,,3.4E-07,0.016505
,,,3.5E-07,0.016184375
,,,3.6E-07,0.0163275
,,,3.7E-07,0.016213125
,,,3.8E-07,0.016305
,,,3.9E-07,0.01616
,,,4E-07,0.01620375
,,,4.1E-07,0.01648875
,,,4.2E-07,0.01637375
,,,4.3E-07,0.016389375
,,,4.4E-07,0.01654875
,,,4.5E-07,0.01619875
,,,4.6E-07,0.01653875
,,,4.7E-07,0.01638375
,,,4.8E-07,0.016256875
,,,4.9E-07,0.015810625
,,,5E-07,0.01627375
,,,5.1E-07,0.016611875
,,,5.2E-07,0.016434375
,,,5.3E-07,0.01646125
,,,5.4E-07,0.01640375
,,,5.5E-07,0.0163625
,,,5.6E-07,0.016406875
,,,5.7E-07,0.016295
,,,5.8E-07,0.01636625
,,,5.9E-07,0.0164975
,,,6E-07,0.016280625
,,,6.1E-07,0.016328125
,,,6.2E-07,0.016295625
,,,6.3E-07,0.01635375
,,,6.4E-07,0.01634
,,,6.5E-07,0.016206875
,,,6.6E-07,0.016323125
,,,6.7E-07,0.01619625
,,,6.8E-07,0.016339375
,,,6.9E-07,0.016305625
,,,7E-07,0.016249375
,,,7.1E-07,0.016130625
,,,7.2E-07,0.0162175
,,,7.3E-07,0.016338125
,,,7.4E-07,0.01652125
,,,7.5E-07,0.016275
,,,7.6E-07,0.01624625
,,,7.7E-07,0.016219375
,,,7.8E-07,0.016395
,,,7.9E-07,0.016536875
,,,8E-07,0.016144375
,,,8.1E-07,0.01652625
,,,8.2E-07,0.0162675
,,,8.3E-07,0.016586875
,,,8.4E-07,0.0162975
,,,8.5E-07,0.0165725
,,,8.6E-07,0.01627
,,,8.7E-07,0.01639125
,,,8.8E-07,0.01617
,,,8.9E-07,0.016131875
,,,9E-07,0.016314375
,,,9.1E-07,0.0164125
,,,9.2E-07,0.0161375
,,,9.3E-07,0.01637625
,,,9.4E-07,0.016008125
,,,9.5E-07,0.016509375
,,,9.6E-07,0.016523125
,,,9.7E-07,0.016166875
,,,9.8E-07,0.016460625
,,,9.9E-07,0.016300625
,,,1E-06,0.01663875
,,,1.01E-06,0.016268125
,,,1.02E-06,0.016338125
,,,1.03E-06,0.01632625
,,,1.04E-06,0.016425625
,,,1.05E-06,0.016375625
,,,1.06E-06,0.01651375
,,,1.07E-06,0.016395625
,,,1.08E-06,0.01640125
,,,1.09E-06,0.0164225
,,,1.1E-06,0.0164275
,,,1.11E-06,0.01612
,,,1.12E-06,0.01632875
,,,1.13E-06,0.01608375
,,,1.14E-06,0.016460625
,,,1.15E-06,0.0163375
,,,1.16E-06,0.016354375
,,,1.17E-06,0.016395625
,,,1.18E-06,0.0163975
,,,1.19E-06,0.0165275
,,,1.2E-06,0.016368125
,,,1.21E-06,0.01625125
,,,1.22E-06,0.0165325
,,,1.23E-06,0.016495
,,,1.24E-06,0.0162875
,,,1.25E-06,0.016495
,,,1.26E-06,0.016363125
,,,1.27E-06,0.016265
,,,1.28E-06,0.016420625
,,,1.29E-06,0.016273125
,,,1.3E-06,0.01626125
,,,1.31E-06,0.016556875
,,,1.32E-06,0.016479375
,,,1.33E-06,0.016610625
,,,1.34E-06,0.01634125
,,,1.35E-06,0.016320625
,,,1.36E-06,0.01669625
,,,1.37E-06,0.01646875
,,,1.38E-06,0.01634375
,,,1.39E-06,0.016270625
,,,1.4E-06,0.016065
,,,1.41E-06,0.01644
,,,1.42E-06,0.0164825
,,,1.43E-06,0.01627875
,,,1.44E-06,0.01646875
,,,1.45E-06,0.016139375
,,,1.46E-06,0.0162
,,,1.47E-06,0.016285
,,,1.48E-06,0.01626
,,,1.49E-06,0.016295
,,,1.5E-06,0.016234375
,,,1.51E-06,0.0166425
,,,1.52E-06,0.01652
,,,1.53E-06,0.016259375
,,,1.54E-06,0.016464375
,,,1.55E-06,0.01637625
,,,1.56E-06,0.016254375
,,,1.57E-06,0.01646375
,,,1.58E-06,0.016589375
,,,1.59E-06,0.016465625
,,,1.6E-06,0.016143125
,,,1.61E-06,0.016065625
,,,1.62E-06,0.016186875
,,,1.63E-06,0.0163425
,,,1.64E-06,0.01621875
,,,1.65E-06,0.016319375
,,,1.66E-06,0.016181875
,,,1.67E-06,0.01655125
,,,1.68E-06,0.016340625
,,,1.69E-06,0.016478125
,,,1.7E-06,0.016411875
,,,1.71E-06,0.016440625
,,,1.72E-06,0.016361875
,,,1.73E-06,0.01622375
,,,1.74E-06,0.01641125
,,,1.75E-06,0.01648625
,,,1.76E-06,0.016231875
,,,1.77E-06,0.01617
,,,1.78E-06,0.016423125
,,,1.79E-06,0.016346875
,,,1.8E-06,0.01623625
,,,1.81E-06,0.01646125
,,,1.82E-06,0.01623875
,,,1.83E-06,0.016321875
,,,1.84E-06,0.016374375
,,,1.85E-06,0.016339375
,,,1.86E-06,0.016325625
,,,1.87E-06,0.0161525
,,,1.88E-06,0.016179375
,,,1.89E-06,0.01592125
,,,1.9E-06,0.016673125
,,,1.91E-06,0.016504375
,,,1.92E-06,0.016540625
,,,1.93E-06,0.0162075
,,,1.94E-06,0.016199375
,,,1.95E-06,0.01661875
,,,1.96E-06,0.016378125
,,,1.97E-06,0.01614125
,,,1.98E-06,0.016476875
,,,1.99E-06,0.016251875
,,,2E-06,0.016494375
,,,2.01E-06,0.0162925
,,,2.02E-06,0.016236875
,,,2.03E-06,0.016239375
,,,2.04E-06,0.016180625
,,,2.05E-06,0.016315625
,,,2.06E-06,0.016255
,,,2.07E-06,0.016278125
,,,2.08E-06,0.0163075
,,,2.09E-06,0.01649875
,,,2.1E-06,0.0163625
,,,2.11E-06,0.01624875
,,,2.12E-06,0.0163775
,,,2.13E-06,0.01637125
,,,2.14E-06,0.01627
,,,2.15E-06,0.016489375
,,,2.16E-06,0.016345625
,,,2.17E-06,0.016458125
,,,2.18E-06,0.01621625
,,,2.19E-06,0.016261875
,,,2.2E-06,0.016358125
,,,2.21E-06,0.01609
,,,2.22E-06,0.01633875
,,,2.23E-06,0.01656125
,,,2.24E-06,0.01638
,,,2.25E-06,0.016359375
,,,2.26E-06,0.0162675
,,,2.27E-06,0.01639
,,,2.28E-06,0.0162175
,,,2.29E-06,0.016320625
,,,2.3E-06,0.01643
,,,2.31E-06,0.0163275
,,,2.32E-06,0.016241875
,,,2.33E-06,0.01655625
,,,2.34E-06,0.016314375
,,,2.35E-06,0.016191875
,,,2.36E-06,0.016516875
,,,2.37E-06,0.016248125
,,,2.38E-06,0.0163875
,,,2.39E-06,0.016321875
,,,2.4E-06,0.01643875
,,,2.41E-06,0.016480625
,,,2.42E-06,0.01643875
,,,2.43E-06,0.016448125
,,,2.44E-06,0.016216875
,,,2.45E-06,0.016636875
,,,2.46E-06,0.016520625
,,,2.47E-06,0.016414375
,,,2.48E-06,0.01615625
,,,2.49E-06,0.016388125
,,,2.5E-06,0.016418125
,,,2.51E-06,0.01636
,,,2.52E-06,0.01626
,,,2.53E-06,0.01625375
,,,2.54E-06,0.016384375
,,,2.55E-06,0.01641125
,,,2.56E-06,0.01617375
,,,2.57E-06,0.016466875
,,,2.58E-06,0.016320625
,,,2.59E-06,0.0163925
,,,2.6E-06,0.016250625
,,,2.61E-06,0.01656
,,,2.62E-06,0.016168125
,,,2.63E-06,0.0164775
,,,2.64E-06,0.0164625
,,,2.65E-06,0.016395
,,,2.66E-06,0.0165225
,,,2.67E-06,0.01602125
,,,2.68E-06,0.01661625
,,,2.69E-06,0.016053125
,,,2.7E-06,0.016104375
,,,2.71E-06,0.0162425
,,,2.72E-06,0.016336875
,,,2.73E-06,0.016423125
,,,2.74E-06,0.0163625
,,,2.75E-06,0.016415625
,,,2.76E-06,0.016169375
,,,2.77E-06,0.016091875
,,,2.78E-06,0.016194375
,,,2.79E-06,0.016188125
,,,2.8E-06,0.01628875
,,,2.81E-06,0.0162675
,,,2.82E-06,0.016274375
,,,2.83E-06,0.0163175
,,,2.84E-06,0.016359375
,,,2.85E-06,0.0163575
,,,2.86E-06,0.016240625
,,,2.87E-06,0.016325625
,,,2.88E-06,0.016193125
,,,2.89E-06,0.016485
,,,2.9E-06,0.0161975
,,,2.91E-06,0.016255
,,,2.92E-06,0.016483125
,,,2.93E-06,0.01604625
,,,2.94E-06,0.01618125
,,,2.95E-06,0.016178125
,,,2.96E-06,0.01636625
,,,2.97E-06,0.01641
,,,2.98E-06,0.01637625
,,,2.99E-06,0.01649625
,,,3E-06,0.0163475
,,,3.01E-06,0.016505625
,,,3.02E-06,0.016265
,,,3.03E-06,0.01636375
,,,3.04E-06,0.01638625
,,,3.05E-06,0.01630375
,,,3.06E-06,0.016629375
,,,3.07E-06,0.016185
,,,3.08E-06,0.016173125
,,,3.09E-06,0.016355
,,,3.1E-06,0.01624
,,,3.11E-06,0.01634875
,,,3.12E-06,0.01650125
,,,3.13E-06,0.016248125
,,,3.14E-06,0.016264375
,,,3.15E-06,0.016425
,,,3.16E-06,0.0162825
,,,3.17E-06,0.016316875
,,,3.18E-06,0.016406875
,,,3.19E-06,0.0161425
,,,3.2E-06,0.016088125
,,,3.21E-06,0.0163375
,,,3.22E-06,0.0166825
,,,3.23E-06,0.01638375
,,,3.24E-06,0.016708125
,,,3.25E-06,0.01630375
,,,3.26E-06,0.016285
,,,3.27E-06,0.01630625
,,,3.28E-06,0.01645875
,,,3.29E-06,0.01644
,,,3.3E-06,0.01626125
,,,3.31E-06,0.01639125
,,,3.32E-06,0.016435625
,,,3.33E-06,0.016410625
,,,3.34E-06,0.01622625
,,,3.35E-06,0.0163225
,,,3.36E-06,0.016315625
,,,3.37E-06,0.01625875
,,,3.38E-06,0.01634875
,,,3.39E-06,0.016525
,,,3.4E-06,0.01638875
,,,3.41E-06,0.0161525
,,,3.42E-06,0.01625375
,,,3.43E-06,0.016474375
,,,3.44E-06,0.016614375
,,,3.45E-06,0.0163375
,,,3.46E-06,0.016234375
,,,3.47E-06,0.01646875
,,,3.48E-06,0.0159525
,,,3.49E-06,0.016344375
,,,3.5E-06,0.016585625
,,,3.51E-06,0.016271875
,,,3.52E-06,0.0162325
,,,3.53E-06,0.016450625
,,,3.54E-06,0.016425
,,,3.55E-06,0.016346875
,,,3.56E-06,0.016108125
,,,3.57E-06,0.016594375
