data/raw/Final_POL_Test_1/SOP079_Ch2.csv

"Record Length",1000,"Points",-5E-06,0.023139375
"Sample Interval",1E-08,s,-4.99E-06,0.02335875
"Trigger Point",500,"Samples",-4.98E-06,0.023154375
"Trigger Time",0,s,-4.97E-06,0.02312
"",,,-4.96E-06,0.023236875
"Horizontal Offset",-5E-06,s,-4.95E-06,0.022969375
,,,-4.94E-06,0.02337375
,,,-4.93E-06,0.0231625
,,,-4.92E-06,0.02280625
,,,-4.91E-06,0.023199375
,,,-4.9E-06,0.02282125
,,,-4.89E-06,0.02312125
,,,-4.88E-06,0.0233725
,,,-4.87E-06,0.023368125
,,,-4.86E-06,0.023105625
,,,-4.85E-06,0.023105625
,,,-4.84E-06,0.0231325
,,,-4.83E-06,0.023134375
,,,-4.82E-06,0.02327125
,,,-4.81E-06,0.023143125
,,,-4.8E-06,0.02329125
,,,-4.79E-06,0.02303875
,,,-4.78E-06,0.02326125
,,,-4.77E-06,0.02294625
,,,-4.76E-06,0.02313625
,,,-4.75E-06,0.023139375
,,,-4.74E-06,0.023235
,,,-4.73E-06,0.02295375
,,,-4.72E-06,0.02319625
,,,-4.71E-06,0.0231125
,,,-4.7E-06,0.023051875
,,,-4.69E-06,0.0231025
,,,-4.68E-06,0.023025
,,,-4.67E-06,0.023144375
,,,-4.66E-06,0.022905625
,,,-4.65E-06,0.023146875
,,,-4.64E-06,0.023245625
,,,-4.63E-06,0.023259375
,,,-4.62E-06,0.023126875
,,,-4.61E-06,0.022948125
,,,-4.6E-06,0.023135
,,,-4.59E-06,0.02299625
,,,-4.58E-06,0.023181875
,,,-4.57E-06,0.02322875
,,,-4.56E-06,0.0233075
,,,-4.55E-06,0.02330625
,,,-4.54E-06,0.02321125
,,,-4.53E-06,0.023134375
,,,-4.52E-06,0.0232
,,,-4.51E-06,0.023225
,,,-4.5E-06,0.02325875
,,,-4.49E-06,0.023219375
,,,-4.48E-06,0.023368125
,,,-4.47E-06,0.02309625
,,,-4.46E-06,0.023108125
,,,-4.45E-06,0.023323125
,,,-4.44E-06,0.023261875
,,,-4.43E-06,0.023268125
,,,-4.42E-06,0.023093125
,,,-4.41E-06,0.0230875
,,,-4.4E-06,0.023190625
,,,-4.39E-06,0.023236875
,,,-4.38E-06,0.023024375
,,,-4.37E-06,0.023164375
,,,-4.36E-06,0.022854375
,,,-4.35E-06,0.02323375
,,,-4.34E-06,0.02301875
,,,-4.33E-06,0.0230425
,,,-4.32E-06,0.02302875
,,,-4.31E-06,0.022979375
,,,-4.3E-06,0.023309375
,,,-4.29E-06,0.0228725
,,,-4.28E-06,0.023005625
,,,-4.27E-06,0.022845625
,,,-4.26E-06,0.02322625
,,,-4.25E-06,0.02314125
,,,-4.24E-06,0.023293125
,,,-4.23E-06,0.023365625
,,,-4.22E-06,0.0231475
,,,-4.21E-06,0.022858125
,,,-4.2E-06,0.022943125
,,,-4.19E-06,0.023098125
,,,-4.18E-06,0.02321625
,,,-4.17E-06,0.02319875
,,,-4.16E-06,0.02319
,,,-4.15E-06,0.023131875
,,,-4.14E-06,0.023019375
,,,-4.13E-06,0.023228125
,,,-4.12E-06,0.02311
,,,-4.11E-06,0.02329625
,,,-4.1E-06,0.023006875
,,,-4.09E-06,0.02320625
,,,-4.08E-06,0.023105
,,,-4.07E-06,0.02309375
,,,-4.06E-06,0.023154375
,,,-4.05E-06,0.023224375
,,,-4.04E-06,0.023088125
,,,-4.03E-06,0.02313
,,,-4.02E-06,0.02320625
,,,-4.01E-06,0.02332375
,,,-4E-06,0.023098125
,,,-3.99E-06,0.02349125
,,,-3.98E-06,0.02329375
,,,-3.97E-06,0.023124375
,,,-3.96E-06,0.023195625
,,,-3.95E-06,0.023051875
,,,-3.94E-06,0.023100625
,,,-3.93E-06,0.023139375
,,,-3.92E-06,0.022993125
,,,-3.91E-06,0.023098125
,,,-3.9E-06,0.023191875
,,,-3.89E-06,0.0231425
,,,-3.88E-06,0.023306875
,,,-3.87E-06,0.023231875
,,,-3.86E-06,0.023044375
,,,-3.85E-06,0.02298875
,,,-3.84E-06,0.0230575
,,,-3.83E-06,0.022976875
,,,-3.82E-06,0.022950625
,,,-3.81E-06,0.023291875
,,,-3.8E-06,0.02333125
,,,-3.79E-06,0.023121875
,,,-3.78E-06,0.022894375
,,,-3.77E-06,0.0228175
,,,-3.76E-06,0.023268125
,,,-3.75E-06,0.023133125
,,,-3.74E-06,0.02335625
,,,-3.73E-06,0.02314625
,,,-3.72E-06,0.023169375
,,,-3.71E-06,0.02299125
,,,-3.7E-06,0.023104375
,,,-3.69E-06,0.023374375
,,,-3.68E-06,0.0231575
,,,-3.67E-06,0.02317125
,,,-3.66E-06,0.023159375
,,,-3.65E-06,0.022985
,,,-3.64E-06,0.023224375
,,,-3.63E-06,0.0232975
,,,-3.62E-06,0.023275
,,,-3.61E-06,0.02288375
,,,-3.6E-06,0.023005
,,,-3.59E-06,0.02311375
,,,-3.58E-06,0.02312375
,,,-3.57E-06,0.023034375
,,,-3.56E-06,0.02308875
,,,-3.55E-06,0.023140625
,,,-3.54E-06,0.022991875
,,,-3.53E-06,0.023086875
,,,-3.52E-06,0.02318875
,,,-3.51E-06,0.0231075
,,,-3.5E-06,0.023021875
,,,-3.49E-06,0.023153125
,,,-3.48E-06,0.02325
,,,-3.47E-06,0.023064375
,,,-3.46E-06,0.023003125
,,,-3.45E-06,0.02308375
,,,-3.44E-06,0.02321125
,,,-3.43E-06,0.022970625
,,,-3.42E-06,0.02328875
,,,-3.41E-06,0.0229425
,,,-3.4E-06,0.02323625
,,,-3.39E-06,0.023196875
,,,-3.38E-06,0.0231775
,,,-3.37E-06,0.02317125
,,,-3.36E-06,0.023270625
,,,-3.35E-06,0.023448125
,,,-3.34E-06,0.02326
,,,-3.33E-06,0.02330875
,,,-3.32E-06,0.02313125
,,,-3.31E-06,0.02323125
,,,-3.3E-06,0.0232825
,,,-3.29E-06,0.023073125
,,,-3.28E-06,0.022990625
,,,-3.27E-06,0.023019375
,,,-3.26E-06,0.02335
,,,-3.25E-06,0.023344375
,,,-3.24E-06,0.02326625
,,,-3.23E-06,0.02346875
,,,-3.22E-06,0.02297
,,,-3.21E-06,0.023145625
,,,-3.2E-06,0.023200625
,,,-3.19E-06,0.023043125
,,,-3.18E-06,0.0231125
,,,-3.17E-06,0.023225625
,,,-3.16E-06,0.023254375
,,,-3.15E-06,0.02292125
,,,-3.14E-06,0.02327625
,,,-3.13E-06,0.023053125
,,,-3.12E-06,0.022869375
,,,-3.11E-06,0.02324
,,,-3.1E-06,0.02317375
,,,-3.09E-06,0.022758125
,,,-3.08E-06,0.023035
,,,-3.07E-06,0.02316375
,,,-3.06E-06,0.02302125
,,,-3.05E-06,0.02327125
,,,-3.04E-06,0.023095
,,,-3.03E-06,0.023225625
,,,-3.02E-06,0.02314125
,,,-3.01E-06,0.02312875
,,,-3E-06,0.02301
,,,-2.99E-06,0.0232075
,,,-2.98E-06,0.02328
,,,-2.97E-06,0.023128125
,,,-2.96E-06,0.02341875
,,,-2.95E-06,0.023295
,,,-2.94E-06,0.02318375
,,,-2.93E-06,0.022930625
,,,-2.92E-06,0.023335
,,,-2.91E-06,0.02317375
,,,-2.9E-06,0.0233075
,,,-2.89E-06,0.023133125
,,,-2.88E-06,0.023123125
,,,-2.87E-06,0.0231875
,,,-2.86E-06,0.02318125
,,,-2.85E-06,0.022961875
,,,-2.84E-06,0.0232125
,,,-2.83E-06,0.0232975
,,,-2.82E-06,0.023219375
,,,-2.81E-06,0.02332375
,,,-2.8E-06,0.0232525
,,,-2.79E-06,0.0230425
,,,-2.78E-06,0.02303375
,,,-2.77E-06,0.02299125
,,,-2.76E-06,0.02318
,,,-2.75E-06,0.02312875
,,,-2.74E-06,0.0233
,,,-2.73E-06,0.023223125
,,,-2.72E-06,0.0228175
,,,-2.71E-06,0.0231425
,,,-2.7E-06,0.022978125
,,,-2.69E-06,0.02325125
,,,-2.68E-06,0.023315625
,,,-2.67E-06,0.022813125
,,,-2.66E-06,0.023290625
,,,-2.65E-06,0.02327
,,,-2.64E-06,0.023195
,,,-2.63E-06,0.022965
,,,-2.62E-06,0.02345125
,,,-2.61E-06,0.023174375
,,,-2.6E-06,0.023041875
,,,-2.59E-06,0.023278125
,,,-2.58E-06,0.023125
,,,-2.57E-06,0.022879375
,,,-2.56E-06,0.023036875
,,,-2.55E-06,0.0231875
,,,-2.54E-06,0.02292
,,,-2.53E-06,0.022938125
,,,-2.52E-06,0.023315625
,,,-2.51E-06,0.023039375
,,,-2.5E-06,0.023211875
,,,-2.49E-06,0.023108125
,,,-2.48E-06,0.023075625
,,,-2.47E-06,0.02308
,,,-2.46E-06,0.023158125
,,,-2.45E-06,0.022924375
,,,-2.44E-06,0.023164375
,,,-2.43E-06,0.0232825
,,,-2.42E-06,0.02333875
,,,-2.41E-06,0.023261875
,,,-2.4E-06,0.02305875
,,,-2.39E-06,0.02273875
,,,-2.38E-06,0.02302125
,,,-2.37E-06,0.02307125
,,,-2.36E-06,0.023293125
,,,-2.35E-06,0.023435
,,,-2.34E-06,0.023296875
,,,-2.33E-06,0.022914375
,,,-2.32E-06,0.022804375
,,,-2.31E-06,0.023073125
,,,-2.3E-06,0.023026875
,,,-2.29E-06,0.023051875
,,,-2.28E-06,0.023403125
,,,-2.27E-06,0.023233125
,,,-2.26E-06,0.02313125
,,,-2.25E-06,0.023125625
,,,-2.24E-06,0.023108125
,,,-2.23E-06,0.0230125
,,,-2.22E-06,0.023178125
,,,-2.21E-06,0.023203125
,,,-2.2E-06,0.022935625
,,,-2.19E-06,0.02345625
,,,-2.18E-06,0.0230525
,,,-2.17E-06,0.023271875
,,,-2.16E-06,0.02332
,,,-2.15E-06,0.023091875
,,,-2.14E-06,0.022888125
,,,-2.13E-06,0.02309375
,,,-2.12E-06,0.02307375
,,,-2.11E-06,0.02321875
,,,-2.1E-06,0.02322375
,,,-2.09E-06,0.0232125
,,,-2.08E-06,0.023128125
,,,-2.07E-06,0.02325875
,,,-2.06E-06,0.023203125
,,,-2.05E-06,0.023215
,,,-2.04E-06,0.02329
,,,-2.03E-06,0.023101875
,,,-2.02E-06,0.023316875
,,,-2.01E-06,0.02338125
,,,-2E-06,0.02299875
,,,-1.99E-06,0.02282
,,,-1.98E-06,0.023195625
,,,-1.97E-06,0.023333125
,,,-1.96E-06,0.02304625
,,,-1.95E-06,0.023215
,,,-1.94E-06,0.02303125
,,,-1.93E-06,0.023010625
,,,-1.92E-06,0.02332
,,,-1.91E-06,0.023339375
,,,-1.9E-06,0.02312125
,,,-1.89E-06,0.023213125
,,,-1.88E-06,0.023215625
,,,-1.87E-06,0.023014375
,,,-1.86E-06,0.023330625
,,,-1.85E-06,0.023091875
,,,-1.84E-06,0.023269375
,,,-1.83E-06,0.0229375
,,,-1.82E-06,0.023280625
,,,-1.81E-06,0.02299375
,,,-1.8E-06,0.023105625
,,,-1.79E-06,0.02307625
,,,-1.78E-06,0.02299125
,,,-1.77E-06,0.02307
,,,-1.76E-06,0.023025
,,,-1.75E-06,0.02316625
,,,-1.74E-06,0.02317875
,,,-1.73E-06,0.023309375
,,,-1.72E-06,0.022905
,,,-1.71E-06,0.02324875
,,,-1.7E-06,0.0229975
,,,-1.69E-06,0.02308375
,,,-1.68E-06,0.023241875
,,,-1.67E-06,0.0232225
,,,-1.66E-06,0.023235
,,,-1.65E-06,0.023108125
,,,-1.64E-06,0.02305625
,,,-1.63E-06,0.023109375
,,,-1.62E-06,0.02323625
,,,-1.61E-06,0.023394375
,,,-1.6E-06,0.02326
,,,-1.59E-06,0.023386875
,,,-1.58E-06,0.023085625
,,,-1.57E-06,0.023034375
,,,-1.56E-06,0.022965625
,,,-1.55E-06,0.02324
,,,-1.54E-06,0.022896875
,,,-1.53E-06,0.02325875
,,,-1.52E-06,0.023093125
,,,-1.51E-06,0.023205625
,,,-1.5E-06,0.023260625
,,,-1.49E-06,0.023023125
,,,-1.48E-06,0.02327875
,,,-1.47E-06,0.023015
,,,-1.46E-06,0.023134375
,,,-1.45E-06,0.023095
,,,-1.44E-06,0.023195
,,,-1.43E-06,0.023305
,,,-1.42E-06,0.0232075
,,,-1.41E-06,0.02318125
,,,-1.4E-06,0.023155625
,,,-1.39E-06,0.02299875
,,,-1.38E-06,0.023174375
,,,-1.37E-06,0.02322875
,,,-1.36E-06,0.023250625
,,,-1.35E-06,0.0229375
,,,-1.34E-06,0.02336375
,,,-1.33E-06,0.023063125
,,,-1.32E-06,0.023054375
,,,-1.31E-06,0.023180625
,,,-1.3E-06,0.023159375
,,,-1.29E-06,0.023065625
,,,-1.28E-06,0.023286875
,,,-1.27E-06,0.0232275
,,,-1.26E-06,0.023055
,,,-1.25E-06,0.0231275
,,,-1.24E-06,0.02325625
,,,-1.23E-06,0.023049375
,,,-1.22E-06,0.0232125
,,,-1.21E-06,0.02298375
,,,-1.2E-06,0.0230525
,,,-1.19E-06,0.023235625
,,,-1.18E-06,0.02323375
,,,-1.17E-06,0.02348
,,,-1.16E-06,0.023211875
,,,-1.15E-06,0.023380625
,,,-1.14E-06,0.023300625
,,,-1.13E-06,0.023181875
,,,-1.12E-06,0.023076875
,,,-1.11E-06,0.022975
,,,-1.1E-06,0.02298125
,,,-1.09E-06,0.023164375
,,,-1.08E-06,0.023026875
,,,-1.07E-06,0.0230775
,,,-1.06E-06,0.023099375
,,,-1.05E-06,0.02322
,,,-1.04E-06,0.02318375
,,,-1.03E-06,0.02334125
,,,-1.02E-06,0.0229225
,,,-1.01E-06,0.023053125
,,,-1E-06,0.023250625
,,,-9.9E-07,0.023335625
,,,-9.8E-07,0.023076875
,,,-9.7E-07,0.02326875
,,,-9.6E-07,0.0232
,,,-9.5E-07,0.023009375
,,,-9.4E-07,0.0230875
,,,-9.3E-07,0.023035625
,,,-9.2E-07,0.02325
,,,-9.1E-07,0.023250625
,,,-9E-07,0.022883125
,,,-8.9E-07,0.0231925
,,,-8.8E-07,0.02303875
,,,-8.7E-07,0.02294375
,,,-8.6E-07,0.023146875
,,,-8.5E-07,0.02313375
,,,-8.4E-07,0.023120625
,,,-8.3E-07,0.023128125
,,,-8.2E-07,0.02325
,,,-8.1E-07,0.023395
,,,-8E-07,0.023295
,,,-7.9E-07,0.022974375
,,,-7.8E-07,0.023125
,,,-7.7E-07,0.023246875
,,,-7.6E-07,0.02319625
,,,-7.5E-07,0.02337375
,,,-7.4E-07,0.0231875
,,,-7.3E-07,0.02303625
,,,-7.2E-07,0.02325375
,,,-7.1E-07,0.0231425
,,,-7E-07,0.0234325
,,,-6.9E-07,0.023176875
,,,-6.8E-07,0.0230275
,,,-6.7E-07,0.0234275
,,,-6.6E-07,0.023186875
,,,-6.5E-07,0.02312875
,,,-6.4E-07,0.023288125
,,,-6.3E-07,0.02307125
,,,-6.2E-07,0.023035
,,,-6.1E-07,0.023175625
,,,-6E-07,0.023153125
,,,-5.9E-07,0.023083125
,,,-5.8E-07,0.0231125
,,,-5.7E-07,0.023266875
,,,-5.6E-07,0.0229275
,,,-5.5E-07,0.0232575
,,,-5.4E-07,0.023430625
,,,-5.3E-07,0.02302
,,,-5.2E-07,0.023076875
,,,-5.1E-07,0.023125
,,,-5E-07,0.02316
,,,-4.9E-07,0.023151875
,,,-4.8E-07,0.023290625
,,,-4.7E-07,0.023084375
,,,-4.6E-07,0.0231975
,,,-4.5E-07,0.0231925
,,,-4.4E-07,0.023144375
,,,-4.3E-07,0.02306375
,,,-4.2E-07,0.023385625
,,,-4.1E-07,0.02271
,,,-4E-07,0.023230625
,,,-3.9E-07,0.023065
,,,-3.8E-07,0.023165625
,,,-3.7E-07,0.023326875
,,,-3.6E-07,0.023256875
,,,-3.5E-07,0.023165625
,,,-3.4E-07,0.02319875
,,,-3.3E-07,0.02319625
,,,-3.2E-07,0.023008125
,,,-3.1E-07,0.023034375
,,,-3E-07,0.023238125
,,,-2.9E-07,0.023208125
,,,-2.8E-07,0.023115
,,,-2.7E-07,0.023084375
,,,-2.6E-07,0.0231775
,,,-2.5E-07,0.0231675
,,,-2.4E-07,0.023276875
,,,-2.3E-07,0.023245625
,,,-2.2E-07,0.02315125
,,,-2.1E-07,0.0232
,,,-2E-07,0.023098125
,,,-1.9E-07,0.023258125
,,,-1.8E-07,0.022948125
,,,-1.7E-07,0.02315375
,,,-1.6E-07,0.0231025
,,,-1.5E-07,0.02338625
,,,-1.4E-07,0.023060625
,,,-1.3E-07,0.023250625
,,,-1.2E-07,0.0231625
,,,-1.1E-07,0.023359375
,,,-1E-07,0.0232925
,,,-9E-08,0.023275
,,,-8E-08,0.022966875
,,,-7E-08,0.02324
,,,-6E-08,0.02320125
,,,-5E-08,0.023279375
,,,-4E-08,0.024198125
,,,-3E-08,0.02417875
,,,-2E-08,0.022085
,,,-1E-08,0.019976875
,,,0,0.02126
,,,1E-08,0.025655
,,,2E-08,0.02658
,,,3E-08,0.02576375
,,,4E-08,0.02234375
,,,5E-08,0.020479375
,,,6E-08,0.020474375
,,,7E-08,0.022275625
,,,8E-08,0.023791875
,,,9E-08,0.02507875
,,,1E-07,0.02495625
,,,1.1E-07,0.023370625
,,,1.2E-07,0.022099375
,,,1.3E-07,0.0220225
,,,1.4E-07,0.022529375
,,,1.5E-07,0.023455
,,,1.6E-07,0.023303125
,,,1.7E-07,0.023365
,,,1.8E-07,0.02308125
,,,1.9E-07,0.023261875
,,,2E-07,0.022995625
,,,2.1E-07,0.023111875
,,,2.2E-07,0.023241875
,,,2.3E-07,0.02327875
,,,2.4E-07,0.0234675
,,,2.5E-07,0.0236075
,,,2.6E-07,0.023268125
,,,2.7E-07,0.02317875
,,,2.8E-07,0.02299
,,,2.9E-07,0.022954375
,,,3E-07,0.023225625
,,,3.1E-07,0.023243125
,,,3.2E-07,0.02319875
,,,3.3E-07,0.02303375
,,,3.4E-07,0.02316375
,,,3.5E-07,0.023025
,,,3.6E-07,0.0232075
,,,3.7E-07,0.023135
,,,3.8E-07,0.022761875
,,,3.9E-07,0.023375625
,,,4E-07,0.023078125
,,,4.1E-07,0.0230275
,,,4.2E-07,0.02301875
,,,4.3E-07,0.02337625
,,,4.4E-07,0.02326875
,,,4.5E-07,0.0231875
,,,4.6E-07,0.02311875
,,,4.7E-07,0.022995625
,,,4.8E-07,0.023113125
,,,4.9E-07,0.02316125
,,,5E-07,0.023036875
,,,5.1E-07,0.023084375
,,,5.2E-07,0.02323625
,,,5.3E-07,0.02309375
,,,5.4E-07,0.02290625
,,,5.5E-07,0.022968125
,,,5.6E-07,0.02297125
,,,5.7E-07,0.023180625
,,,5.8E-07,0.023294375
,,,5.9E-07,0.023310625
,,,6E-07,0.02300375
,,,6.1E-07,0.0229625
,,,6.2E-07,0.023023125
,,,6.3E-07,0.023185625
,,,6.4E-07,0.022999375
,,,6.5E-07,0.023241875
,,,6.6E-07,0.02316
,,,6.7E-07,0.023403125
,,,6.8E-07,0.02324375
,,,6.9E-07,0.02304
,,,7E-07,0.02311625
,,,7.1E-07,0.023229375
,,,7.2E-07,0.02320625
,,,7.3E-07,0.023270625
,,,7.4E-07,0.023203125
,,,7.5E-07,0.023146875
,,,7.6E-07,0.023015
,,,7.7E-07,0.0233025
,,,7.8E-07,0.023116875
,,,7.9E-07,0.02324375
,,,8E-07,0.023130625
,,,8.1E-07,0.023025625
,,,8.2E-07,0.023066875
,,,8.3E-07,0.02332125
,,,8.4E-07,0.022988125
,,,8.5E-07,0.0232225
,,,8.6E-07,0.022965
,,,8.7E-07,0.023009375
,,,8.8E-07,0.023200625
,,,8.9E-07,0.023188125
,,,9E-07,0.02349
,,,9.1E-07,0.023181875
,,,9.2E-07,0.02312375
,,,9.3E-07,0.023076875
,,,9.4E-07,0.023094375
,,,9.5E-07,0.02333375
,,,9.6E-07,0.023098125
,,,9.7E-07,0.02302
,,,9.8E-07,0.02334625
,,,9.9E-07,0.02339125
,,,1E-06,0.0231725
,,,1.01E-06,0.02332625
,,,1.02E-06,0.02296625
,,,1.03E-06,0.0229
,,,1.04E-06,0.022914375
,,,1.05E-06,0.023358125
,,,1.06E-06,0.02316625
,,,1.07E-06,0.023529375
,,,1.08E-06,0.02325125
,,,1.09E-06,0.0230925
,,,1.1E-06,0.02317875
,,,1.11E-06,0.0229675
,,,1.12E-06,0.02297125
,,,1.13E-06,0.02319375
,,,1.14E-06,0.0230775
,,,1.15E-06,0.023168125
,,,1.16E-06,0.023166875
,,,1.17E-06,0.02332125
,,,1.18E-06,0.02303875
,,,1.19E-06,0.0231825
,,,1.2E-06,0.023146875
,,,1.21E-06,0.0230225
,,,1.22E-06,0.023524375
,,,1.23E-06,0.02323625
,,,1.24E-06,0.023179375
,,,1.25E-06,0.02327
,,,1.26E-06,0.02306375
,,,1.27E-06,0.0231775
,,,1.28E-06,0.02318125
,,,1.29E-06,0.023084375
,,,1.3E-06,0.022854375
,,,1.31E-06,0.023236875
,,,1.32E-06,0.022931875
,,,1.33E-06,0.022858125
,,,1.34E-06,0.023168125
,,,1.35E-06,0.0232125
,,,1.36E-06,0.023115625
,,,1.37E-06,0.0232625
,,,1.38E-06,0.023564375
,,,1.39E-06,0.023234375
,,,1.4E-06,0.02296125
,,,1.41E-06,0.023400625
,,,1.42E-06,0.023145
,,,1.43E-06,0.0229375
,,,1.44E-06,0.023025625
,,,1.45E-06,0.023170625
,,,1.46E-06,0.0230575
,,,1.47E-06,0.023054375
,,,1.48E-06,0.02322
,,,1.49E-06,0.0229975
,,,1.5E-06,0.023403125
,,,1.51E-06,0.02304
,,,1.52E-06,0.023105625
,,,1.53E-06,0.023279375
,,,1.54E-06,0.023195625
,,,1.55E-06,0.023420625
,,,1.56E-06,0.02342875
,,,1.57E-06,0.02338875
,,,1.58E-06,0.02301875
,,,1.59E-06,0.023103125
,,,1.6E-06,0.02323
,,,1.61E-06,0.022821875
,,,1.62E-06,0.02308375
,,,1.63E-06,0.023378125
,,,1.64E-06,0.023175625
,,,1.65E-06,0.0231275
,,,1.66E-06,0.023111875
,,,1.67E-06,0.0233025
,,,1.68E-06,0.02317
,,,1.69E-06,0.02314
,,,1.7E-06,0.022925
,,,1.71E-06,0.02327
,,,1.72E-06,0.0231575
,,,1.73E-06,0.0230425
,,,1.74E-06,0.023315625
,,,1.75E-06,0.02324375
,,,1.76E-06,0.0231475
,,,1.77E-06,0.02341875
,,,1.78E-06,0.0233325
,,,1.79E-06,0.022984375
,,,1.8E-06,0.023264375
,,,1.81E-06,0.0230175
,,,1.82E-06,0.023065
,,,1.83E-06,0.023115625
,,,1.84E-06,0.022909375
,,,1.85E-06,0.023206875
,,,1.86E-06,0.02330125
,,,1.87E-06,0.02341375
,,,1.88E-06,0.0232425
,,,1.89E-06,0.023045
,,,1.9E-06,0.023395625
,,,1.91E-06,0.023148125
,,,1.92E-06,0.023500625
,,,1.93E-06,0.023215
,,,1.94E-06,0.02322875
,,,1.95E-06,0.022963125
,,,1.96E-06,0.02325875
,,,1.97E-06,0.023185
,,,1.98E-06,0.02303
,,,1.99E-06,0.02334125
,,,2E-06,0.02301125
,,,2.01E-06,0.023236875
,,,2.02E-06,0.023379375
,,,2.03E-06,0.023091875
,,,2.04E-06,0.02307
,,,2.05E-06,0.02333
,,,2.06E-06,0.0234475
,,,2.07E-06,0.023033125
,,,2.08E-06,0.023315625
,,,2.09E-06,0.02307
,,,2.1E-06,0.02320375
,,,2.11E-06,0.0234375
,,,2.12E-06,0.023063125
,,,2.13E-06,0.0233725
,,,2.14E-06,0.023329375
,,,2.15E-06,0.023391875
,,,2.16E-06,0.0234525
,,,2.17E-06,0.023275625
,,,2.18E-06,0.023200625
,,,2.19E-06,0.023049375
,,,2.2E-06,0.023144375
,,,2.21E-06,0.023103125
,,,2.22E-06,0.02301625
,,,2.23E-06,0.023281875
,,,2.24E-06,0.02308375
,,,2.25E-06,0.023208125
,,,2.26E-06,0.023150625
,,,2.27E-06,0.023026875
,,,2.28E-06,0.023038125
,,,2.29E-06,0.02320125
,,,2.3E-06,0.0232125
,,,2.31E-06,0.023035
,,,2.32E-06,0.022969375
,,,2.33E-06,0.023215
,,,2.34E-06,0.02311
,,,2.35E-06,0.023248125
,,,2.36E-06,0.023295
,,,2.37E-06,0.0230275
,,,2.38E-06,0.02304875
,,,2.39E-06,0.02325
,,,2.4E-06,0.023083125
,,,2.41E-06,0.023478125
,,,2.42E-06,0.023048125
,,,2.43E-06,0.02333125
,,,2.44E-06,0.02304
,,,2.45E-06,0.023268125
,,,2.46E-06,0.02310625
,,,2.47E-06,0.023094375
,,,2.48E-06,0.0233975
,,,2.49E-06,0.02327625
,,,2.5E-06,0.02332
,,,2.51E-06,0.02313625
,,,2.52E-06,0.023034375
,,,2.53E-06,0.022976875
,,,2.54E-06,0.023098125
,,,2.55E-06,0.023218125
,,,2.56E-06,0.023116875
,,,2.57E-06,0.0232775
,,,2.58E-06,0.02319
,,,2.59E-06,0.0232575
,,,2.6E-06,0.02308375
,,,2.61E-06,0.023070625
,,,2.62E-06,0.023128125
,,,2.63E-06,0.022989375
,,,2.64E-06,0.023154375
,,,2.65E-06,0.0231025
,,,2.66E-06,0.02333875
,,,2.67E-06,0.022883125
,,,2.68E-06,0.02325875
,,,2.69E-06,0.023350625
,,,2.7E-06,0.02300375
,,,2.71E-06,0.0231625
,,,2.72E-06,0.02307625
,,,2.73E-06,0.02307625
,,,2.74E-06,0.0232275
,,,2.75E-06,0.0231325
,,,2.76E-06,0.023116875
,,,2.77E-06,0.02306375
,,,2.78E-06,0.023280625
,,,2.79E-06,0.02305125
,,,2.8E-06,0.022926875
,,,2.81E-06,0.023261875
,,,2.82E-06,0.0232125
,,,2.83E-06,0.02323
,,,2.84E-06,0.023285
,,,2.85E-06,0.02313875
,,,2.86E-06,0.02314625
,,,2.87E-06,0.02328375
,,,2.88E-06,0.02322125
,,,2.89E-06,0.023064375
,,,2.9E-06,0.02319375
,,,2.91E-06,0.023348125
,,,2.92E-06,0.023223125
,,,2.93E-06,0.023196875
,,,2.94E-06,0.022949375
,,,2.95E-06,0.023201875
,,,2.96E-06,0.02316875
,,,2.97E-06,0.023136875
,,,2.98E-06,0.023126875
,,,2.99E-06,0.023235
,,,3E-06,0.02304125
,,,3.01E-06,0.023014375
,,,3.02E-06,0.02312
,,,3.03E-06,0.02337875
,,,3.04E-06,0.02304125
,,,3.05E-06,0.02321125
,,,3.06E-06,0.023218125
,,,3.07E-06,0.023105625
,,,3.08E-06,0.022816875
,,,3.09E-06,0.023378125
,,,3.1E-06,0.023155625
,,,3.11E-06,0.02323625
,,,3.12E-06,0.0233925
,,,3.13E-06,0.023268125
,,,3.14E-06,0.023175625
,,,3.15E-06,0.02306875
,,,3.16E-06,0.022904375
,,,3.17E-06,0.023366875
,,,3.18E-06,0.0230375
,,,3.19E-06,0.023049375
,,,3.2E-06,0.02294
,,,3.21E-06,0.0233375
,,,3.22E-06,0.022999375
,,,3.23E-06,0.023209375
,,,3.24E-06,0.022985
,,,3.25E-06,0.0229375
,,,3.26E-06,0.022981875
,,,3.27E-06,0.023216875
,,,3.28E-06,0.02327
,,,3.29E-06,0.022943125
,,,3.3E-06,0.02291375
,,,3.31E-06,0.022930625
,,,3.32E-06,0.023236875
,,,3.33E-06,0.023239375
,,,3.34E-06,0.023295625
,,,3.35E-06,0.023005625
,,,3.36E-06,0.02331875
,,,3.37E-06,0.023131875
,,,3.38E-06,0.02310625
,,,3.39E-06,0.0231725
,,,3.4E-06,0.023045625
,,,3.41E-06,0.02307375
,,,3.42E-06,0.023293125
,,,3.43E-06,0.02332875
,,,3.44E-06,0.02304125
,,,3.45E-06,0.02317875
,,,3.46E-06,0.0232975
,,,3.47E-06,0.02313
,,,3.48E-06,0.0231525
,,,3.49E-06,0.023244375
,,,3.5E-06,0.023104375
,,,3.51E-06,0.023170625
,,,3.52E-06,0.023098125
,,,3.53E-06,0.023156875
,,,3.54E-06,0.023115
,,,3.55E-06,0.02299875
,,,3.56E-06,0.02326
,,,3.57E-06,0.023368125
