data/raw/Final_POL_Test_1/SOP046_Ch4.csv

"Record Length",1000,"Points",-5E-06,0.015629375
"Sample Interval",1E-08,s,-4.99E-06,0.015676875
"Trigger Point",500,"Samples",-4.98E-06,0.01571125
"Trigger Time",0,s,-4.97E-06,0.015955625
"",,,-4.96E-06,0.01596
"Horizontal Offset",-5E-06,s,-4.95E-06,0.015655625
,,,-4.94E-06,0.015865625
,,,-4.93E-06,0.015596875
,,,-4.92E-06,0.015929375
,,,-4.91E-06,0.015545
,,,-4.9E-06,0.01564875
,,,-4.89E-06,0.015974375
,,,-4.88E-06,0.01592875
,,,-4.87E-06,0.01586125
,,,-4.86E-06,0.015745
,,,-4.85E-06,0.0157775
,,,-4.84E-06,0.0157775
,,,-4.83E-06,0.0158375
,,,-4.82E-06,0.015888125
,,,-4.81E-06,0.0160275
,,,-4.8E-06,0.01584875
,,,-4.79E-06,0.015839375
,,,-4.78E-06,0.015926875
,,,-4.77E-06,0.01564
,,,-4.76E-06,0.015834375
,,,-4.75E-06,0.01572625
,,,-4.74E-06,0.0156425
,,,-4.73E-06,0.015958125
,,,-4.72E-06,0.015950625
,,,-4.71E-06,0.015821875
,,,-4.7E-06,0.0157725
,,,-4.69E-06,0.01572375
,,,-4.68E-06,0.01557125
,,,-4.67E-06,0.015788125
,,,-4.66E-06,0.01571
,,,-4.65E-06,0.0158325
,,,-4.64E-06,0.015775625
,,,-4.63E-06,0.01576875
,,,-4.62E-06,0.015888125
,,,-4.61E-06,0.01607875
,,,-4.6E-06,0.01614875
,,,-4.59E-06,0.015653125
,,,-4.58E-06,0.0155425
,,,-4.57E-06,0.01601
,,,-4.56E-06,0.0158025
,,,-4.55E-06,0.01587125
,,,-4.54E-06,0.01599875
,,,-4.53E-06,0.015685625
,,,-4.52E-06,0.01575625
,,,-4.51E-06,0.015738125
,,,-4.5E-06,0.01583375
,,,-4.49E-06,0.01562375
,,,-4.48E-06,0.015621875
,,,-4.47E-06,0.015700625
,,,-4.46E-06,0.01581875
,,,-4.45E-06,0.015738125
,,,-4.44E-06,0.0158025
,,,-4.43E-06,0.015594375
,,,-4.42E-06,0.015885625
,,,-4.41E-06,0.015785625
,,,-4.4E-06,0.015733125
,,,-4.39E-06,0.0159725
,,,-4.38E-06,0.015823125
,,,-4.37E-06,0.01573375
,,,-4.36E-06,0.015925
,,,-4.35E-06,0.015726875
,,,-4.34E-06,0.0157175
,,,-4.33E-06,0.015783125
,,,-4.32E-06,0.015868125
,,,-4.31E-06,0.015729375
,,,-4.3E-06,0.01604875
,,,-4.29E-06,0.015805625
,,,-4.28E-06,0.015651875
,,,-4.27E-06,0.015975625
,,,-4.26E-06,0.01582125
,,,-4.25E-06,0.0158325
,,,-4.24E-06,0.01587875
,,,-4.23E-06,0.01601
,,,-4.22E-06,0.01583625
,,,-4.21E-06,0.01574625
,,,-4.2E-06,0.015774375
,,,-4.19E-06,0.015883125
,,,-4.18E-06,0.01577
,,,-4.17E-06,0.015834375
,,,-4.16E-06,0.01583375
,,,-4.15E-06,0.01576625
,,,-4.14E-06,0.016020625
,,,-4.13E-06,0.015879375
,,,-4.12E-06,0.01585375
,,,-4.11E-06,0.0158675
,,,-4.1E-06,0.016006875
,,,-4.09E-06,0.0157475
,,,-4.08E-06,0.01575125
,,,-4.07E-06,0.015595625
,,,-4.06E-06,0.01581875
,,,-4.05E-06,0.016038125
,,,-4.04E-06,0.015831875
,,,-4.03E-06,0.015759375
,,,-4.02E-06,0.015635625
,,,-4.01E-06,0.015925625
,,,-4E-06,0.015685
,,,-3.99E-06,0.01583
,,,-3.98E-06,0.015919375
,,,-3.97E-06,0.01581
,,,-3.96E-06,0.015735625
,,,-3.95E-06,0.0158675
,,,-3.94E-06,0.0157
,,,-3.93E-06,0.015983125
,,,-3.92E-06,0.0157525
,,,-3.91E-06,0.015950625
,,,-3.9E-06,0.015996875
,,,-3.89E-06,0.015883125
,,,-3.88E-06,0.016135625
,,,-3.87E-06,0.015744375
,,,-3.86E-06,0.015843125
,,,-3.85E-06,0.01586375
,,,-3.84E-06,0.015699375
,,,-3.83E-06,0.0159
,,,-3.82E-06,0.016041875
,,,-3.81E-06,0.015855625
,,,-3.8E-06,0.015900625
,,,-3.79E-06,0.01584
,,,-3.78E-06,0.015875
,,,-3.77E-06,0.016015
,,,-3.76E-06,0.015674375
,,,-3.75E-06,0.01599375
,,,-3.74E-06,0.0158275
,,,-3.73E-06,0.015664375
,,,-3.72E-06,0.015671875
,,,-3.71E-06,0.015685625
,,,-3.7E-06,0.015959375
,,,-3.69E-06,0.0156025
,,,-3.68E-06,0.015703125
,,,-3.67E-06,0.015839375
,,,-3.66E-06,0.01591
,,,-3.65E-06,0.015809375
,,,-3.64E-06,0.015916875
,,,-3.63E-06,0.015966875
,,,-3.62E-06,0.015863125
,,,-3.61E-06,0.015694375
,,,-3.6E-06,0.01579875
,,,-3.59E-06,0.01578875
,,,-3.58E-06,0.015755625
,,,-3.57E-06,0.01579875
,,,-3.56E-06,0.0159
,,,-3.55E-06,0.0158775
,,,-3.54E-06,0.015640625
,,,-3.53E-06,0.01588
,,,-3.52E-06,0.015780625
,,,-3.51E-06,0.0161475
,,,-3.5E-06,0.01596125
,,,-3.49E-06,0.015671875
,,,-3.48E-06,0.01564
,,,-3.47E-06,0.0157875
,,,-3.46E-06,0.01585625
,,,-3.45E-06,0.016049375
,,,-3.44E-06,0.015571875
,,,-3.43E-06,0.0157225
,,,-3.42E-06,0.01596375
,,,-3.41E-06,0.0157225
,,,-3.4E-06,0.016054375
,,,-3.39E-06,0.01576375
,,,-3.38E-06,0.015883125
,,,-3.37E-06,0.015874375
,,,-3.36E-06,0.015880625
,,,-3.35E-06,0.0159425
,,,-3.34E-06,0.015813125
,,,-3.33E-06,0.01578
,,,-3.32E-06,0.015948125
,,,-3.31E-06,0.015754375
,,,-3.3E-06,0.015973125
,,,-3.29E-06,0.015673125
,,,-3.28E-06,0.015905
,,,-3.27E-06,0.015894375
,,,-3.26E-06,0.01596125
,,,-3.25E-06,0.015824375
,,,-3.24E-06,0.015788125
,,,-3.23E-06,0.0157075
,,,-3.22E-06,0.01608125
,,,-3.21E-06,0.015694375
,,,-3.2E-06,0.015648125
,,,-3.19E-06,0.01582
,,,-3.18E-06,0.01591875
,,,-3.17E-06,0.015989375
,,,-3.16E-06,0.015791875
,,,-3.15E-06,0.015865
,,,-3.14E-06,0.016025
,,,-3.13E-06,0.015755
,,,-3.12E-06,0.015795
,,,-3.11E-06,0.015780625
,,,-3.1E-06,0.01581875
,,,-3.09E-06,0.01576875
,,,-3.08E-06,0.015685625
,,,-3.07E-06,0.015945
,,,-3.06E-06,0.0160525
,,,-3.05E-06,0.015758125
,,,-3.04E-06,0.015956875
,,,-3.03E-06,0.015970625
,,,-3.02E-06,0.015825
,,,-3.01E-06,0.015895
,,,-3E-06,0.0158
,,,-2.99E-06,0.01583
,,,-2.98E-06,0.015846875
,,,-2.97E-06,0.01593875
,,,-2.96E-06,0.015806875
,,,-2.95E-06,0.01576625
,,,-2.94E-06,0.015680625
,,,-2.93E-06,0.015785
,,,-2.92E-06,0.0160825
,,,-2.91E-06,0.01578375
,,,-2.9E-06,0.015891875
,,,-2.89E-06,0.01593875
,,,-2.88E-06,0.01575375
,,,-2.87E-06,0.015860625
,,,-2.86E-06,0.015815
,,,-2.85E-06,0.016104375
,,,-2.84E-06,0.0158375
,,,-2.83E-06,0.015691875
,,,-2.82E-06,0.01572375
,,,-2.81E-06,0.01587625
,,,-2.8E-06,0.015625
,,,-2.79E-06,0.01571875
,,,-2.78E-06,0.015656875
,,,-2.77E-06,0.015795
,,,-2.76E-06,0.0159125
,,,-2.75E-06,0.015915
,,,-2.74E-06,0.0161625
,,,-2.73E-06,0.0159675
,,,-2.72E-06,0.015738125
,,,-2.71E-06,0.015513125
,,,-2.7E-06,0.01605375
,,,-2.69E-06,0.015819375
,,,-2.68E-06,0.0159025
,,,-2.67E-06,0.0158625
,,,-2.66E-06,0.015683125
,,,-2.65E-06,0.016094375
,,,-2.64E-06,0.016043125
,,,-2.63E-06,0.015645625
,,,-2.62E-06,0.015786875
,,,-2.61E-06,0.015768125
,,,-2.6E-06,0.0156775
,,,-2.59E-06,0.015668125
,,,-2.58E-06,0.016201875
,,,-2.57E-06,0.01577875
,,,-2.56E-06,0.015676875
,,,-2.55E-06,0.01598875
,,,-2.54E-06,0.01560125
,,,-2.53E-06,0.015769375
,,,-2.52E-06,0.01573125
,,,-2.51E-06,0.016099375
,,,-2.5E-06,0.015831875
,,,-2.49E-06,0.016009375
,,,-2.48E-06,0.015991875
,,,-2.47E-06,0.01585125
,,,-2.46E-06,0.015739375
,,,-2.45E-06,0.015964375
,,,-2.44E-06,0.015971875
,,,-2.43E-06,0.015823125
,,,-2.42E-06,0.015871875
,,,-2.41E-06,0.015894375
,,,-2.4E-06,0.01598
,,,-2.39E-06,0.01586875
,,,-2.38E-06,0.01599
,,,-2.37E-06,0.0157425
,,,-2.36E-06,0.015633125
,,,-2.35E-06,0.01574875
,,,-2.34E-06,0.015805625
,,,-2.33E-06,0.01576125
,,,-2.32E-06,0.015875625
,,,-2.31E-06,0.016036875
,,,-2.3E-06,0.0161575
,,,-2.29E-06,0.015755625
,,,-2.28E-06,0.015925
,,,-2.27E-06,0.015908125
,,,-2.26E-06,0.0155625
,,,-2.25E-06,0.015814375
,,,-2.24E-06,0.015919375
,,,-2.23E-06,0.016151875
,,,-2.22E-06,0.0157575
,,,-2.21E-06,0.015848125
,,,-2.2E-06,0.01581375
,,,-2.19E-06,0.0158925
,,,-2.18E-06,0.01583875
,,,-2.17E-06,0.015761875
,,,-2.16E-06,0.01610625
,,,-2.15E-06,0.015715625
,,,-2.14E-06,0.016169375
,,,-2.13E-06,0.015969375
,,,-2.12E-06,0.01583375
,,,-2.11E-06,0.0158525
,,,-2.1E-06,0.015844375
,,,-2.09E-06,0.015661875
,,,-2.08E-06,0.015735
,,,-2.07E-06,0.015853125
,,,-2.06E-06,0.01568375
,,,-2.05E-06,0.015880625
,,,-2.04E-06,0.01586875
,,,-2.03E-06,0.015896875
,,,-2.02E-06,0.015871875
,,,-2.01E-06,0.016135625
,,,-2E-06,0.015650625
,,,-1.99E-06,0.0158625
,,,-1.98E-06,0.01580375
,,,-1.97E-06,0.0157325
,,,-1.96E-06,0.015726875
,,,-1.95E-06,0.015766875
,,,-1.94E-06,0.015561875
,,,-1.93E-06,0.016004375
,,,-1.92E-06,0.0157825
,,,-1.91E-06,0.016096875
,,,-1.9E-06,0.01585125
,,,-1.89E-06,0.01588125
,,,-1.88E-06,0.01567625
,,,-1.87E-06,0.01589625
,,,-1.86E-06,0.01573375
,,,-1.85E-06,0.015919375
,,,-1.84E-06,0.015919375
,,,-1.83E-06,0.015916875
,,,-1.82E-06,0.015598125
,,,-1.81E-06,0.0157125
,,,-1.8E-06,0.01563125
,,,-1.79E-06,0.01577125
,,,-1.78E-06,0.01576125
,,,-1.77E-06,0.015908125
,,,-1.76E-06,0.01573
,,,-1.75E-06,0.015976875
,,,-1.74E-06,0.01555625
,,,-1.73E-06,0.015761875
,,,-1.72E-06,0.01582375
,,,-1.71E-06,0.016014375
,,,-1.7E-06,0.0159325
,,,-1.69E-06,0.01575125
,,,-1.68E-06,0.0158025
,,,-1.67E-06,0.01591375
,,,-1.66E-06,0.015843125
,,,-1.65E-06,0.015815625
,,,-1.64E-06,0.015744375
,,,-1.63E-06,0.0157175
,,,-1.62E-06,0.015945625
,,,-1.61E-06,0.01592
,,,-1.6E-06,0.01571875
,,,-1.59E-06,0.01592375
,,,-1.58E-06,0.016068125
,,,-1.57E-06,0.015951875
,,,-1.56E-06,0.015905625
,,,-1.55E-06,0.015579375
,,,-1.54E-06,0.01570875
,,,-1.53E-06,0.0158425
,,,-1.52E-06,0.01577125
,,,-1.51E-06,0.015669375
,,,-1.5E-06,0.015930625
,,,-1.49E-06,0.015933125
,,,-1.48E-06,0.01586375
,,,-1.47E-06,0.015966875
,,,-1.46E-06,0.015609375
,,,-1.45E-06,0.0158275
,,,-1.44E-06,0.015903125
,,,-1.43E-06,0.01579875
,,,-1.42E-06,0.01604125
,,,-1.41E-06,0.015666875
,,,-1.4E-06,0.01583125
,,,-1.39E-06,0.015599375
,,,-1.38E-06,0.01554625
,,,-1.37E-06,0.01580625
,,,-1.36E-06,0.015933125
,,,-1.35E-06,0.015760625
,,,-1.34E-06,0.0159875
,,,-1.33E-06,0.01580625
,,,-1.32E-06,0.015903125
,,,-1.31E-06,0.015785625
,,,-1.3E-06,0.015956875
,,,-1.29E-06,0.015801875
,,,-1.28E-06,0.015675625
,,,-1.27E-06,0.015844375
,,,-1.26E-06,0.015745625
,,,-1.25E-06,0.0159425
,,,-1.24E-06,0.015690625
,,,-1.23E-06,0.015938125
,,,-1.22E-06,0.015926875
,,,-1.21E-06,0.015485
,,,-1.2E-06,0.0156275
,,,-1.19E-06,0.01563625
,,,-1.18E-06,0.015970625
,,,-1.17E-06,0.015746875
,,,-1.16E-06,0.015853125
,,,-1.15E-06,0.015858125
,,,-1.14E-06,0.015833125
,,,-1.13E-06,0.0157575
,,,-1.12E-06,0.01589625
,,,-1.11E-06,0.015825625
,,,-1.1E-06,0.01593625
,,,-1.09E-06,0.015844375
,,,-1.08E-06,0.015765
,,,-1.07E-06,0.015755
,,,-1.06E-06,0.01582625
,,,-1.05E-06,0.015931875
,,,-1.04E-06,0.015806875
,,,-1.03E-06,0.015898125
,,,-1.02E-06,0.015765
,,,-1.01E-06,0.015655625
,,,-1E-06,0.015786875
,,,-9.9E-07,0.01624625
,,,-9.8E-07,0.015893125
,,,-9.7E-07,0.016071875
,,,-9.6E-07,0.01564625
,,,-9.5E-07,0.01574625
,,,-9.4E-07,0.0158375
,,,-9.3E-07,0.016018125
,,,-9.2E-07,0.015930625
,,,-9.1E-07,0.0159175
,,,-9E-07,0.015841875
,,,-8.9E-07,0.01570375
,,,-8.8E-07,0.01571875
,,,-8.7E-07,0.015718125
,,,-8.6E-07,0.01582875
,,,-8.5E-07,0.01594625
,,,-8.4E-07,0.01586125
,,,-8.3E-07,0.01578
,,,-8.2E-07,0.015804375
,,,-8.1E-07,0.01557875
,,,-8E-07,0.015835
,,,-7.9E-07,0.015601875
,,,-7.8E-07,0.01571375
,,,-7.7E-07,0.015725
,,,-7.6E-07,0.015955
,,,-7.5E-07,0.01589625
,,,-7.4E-07,0.015948125
,,,-7.3E-07,0.01587375
,,,-7.2E-07,0.01579
,,,-7.1E-07,0.01602875
,,,-7E-07,0.015804375
,,,-6.9E-07,0.01587125
,,,-6.8E-07,0.015944375
,,,-6.7E-07,0.015945
,,,-6.6E-07,0.0158275
,,,-6.5E-07,0.015810625
,,,-6.4E-07,0.015774375
,,,-6.3E-07,0.015603125
,,,-6.2E-07,0.015760625
,,,-6.1E-07,0.015946875
,,,-6E-07,0.015819375
,,,-5.9E-07,0.015765625
,,,-5.8E-07,0.015915
,,,-5.7E-07,0.015921875
,,,-5.6E-07,0.015994375
,,,-5.5E-07,0.015774375
,,,-5.4E-07,0.015750625
,,,-5.3E-07,0.01564875
,,,-5.2E-07,0.01580625
,,,-5.1E-07,0.015731875
,,,-5E-07,0.015819375
,,,-4.9E-07,0.0156725
,,,-4.8E-07,0.01589625
,,,-4.7E-07,0.01593625
,,,-4.6E-07,0.015839375
,,,-4.5E-07,0.015701875
,,,-4.4E-07,0.015805
,,,-4.3E-07,0.01591625
,,,-4.2E-07,0.015654375
,,,-4.1E-07,0.01581875
,,,-4E-07,0.015719375
,,,-3.9E-07,0.01590375
,,,-3.8E-07,0.015829375
,,,-3.7E-07,0.015811875
,,,-3.6E-07,0.015823125
,,,-3.5E-07,0.01582625
,,,-3.4E-07,0.0158375
,,,-3.3E-07,0.01597875
,,,-3.2E-07,0.015630625
,,,-3.1E-07,0.01589875
,,,-3E-07,0.015841875
,,,-2.9E-07,0.015880625
,,,-2.8E-07,0.015808125
,,,-2.7E-07,0.015929375
,,,-2.6E-07,0.0157925
,,,-2.5E-07,0.0158275
,,,-2.4E-07,0.0160625
,,,-2.3E-07,0.0157425
,,,-2.2E-07,0.015838125
,,,-2.1E-07,0.015929375
,,,-2E-07,0.015806875
,,,-1.9E-07,0.01584875
,,,-1.8E-07,0.01587125
,,,-1.7E-07,0.015680625
,,,-1.6E-07,0.01585625
,,,-1.5E-07,0.015748125
,,,-1.4E-07,0.01584875
,,,-1.3E-07,0.015959375
,,,-1.2E-07,0.015884375
,,,-1.1E-07,0.015873125
,,,-1E-07,0.0158675
,,,-9E-08,0.0157225
,,,-8E-08,0.015616875
,,,-7E-08,0.015736875
,,,-6E-08,0.015838125
,,,-5E-08,0.015794375
,,,-4E-08,0.016219375
,,,-3E-08,0.017433125
,,,-2E-08,0.014778125
,,,-1E-08,0.013228125
,,,0,0.01266875
,,,1E-08,0.017855
,,,2E-08,0.019176875
,,,3E-08,0.019408125
,,,4E-08,0.015254375
,,,5E-08,0.013595
,,,6E-08,0.01292625
,,,7E-08,0.014694375
,,,8E-08,0.01625125
,,,9E-08,0.017515625
,,,1E-07,0.017624375
,,,1.1E-07,0.01642875
,,,1.2E-07,0.015279375
,,,1.3E-07,0.014626875
,,,1.4E-07,0.01522
,,,1.5E-07,0.016048125
,,,1.6E-07,0.016093125
,,,1.7E-07,0.016085625
,,,1.8E-07,0.0160825
,,,1.9E-07,0.016006875
,,,2E-07,0.01613
,,,2.1E-07,0.01547
,,,2.2E-07,0.015583125
,,,2.3E-07,0.01602875
,,,2.4E-07,0.016054375
,,,2.5E-07,0.016128125
,,,2.6E-07,0.01597875
,,,2.7E-07,0.015648125
,,,2.8E-07,0.015585625
,,,2.9E-07,0.01581
,,,3E-07,0.0155825
,,,3.1E-07,0.0159025
,,,3.2E-07,0.016015625
,,,3.3E-07,0.01603125
,,,3.4E-07,0.015805625
,,,3.5E-07,0.015828125
,,,3.6E-07,0.015870625
,,,3.7E-07,0.015866875
,,,3.8E-07,0.015875
,,,3.9E-07,0.015619375
,,,4E-07,0.016016875
,,,4.1E-07,0.016005
,,,4.2E-07,0.0158925
,,,4.3E-07,0.015651875
,,,4.4E-07,0.01576375
,,,4.5E-07,0.015548125
,,,4.6E-07,0.0157875
,,,4.7E-07,0.015856875
,,,4.8E-07,0.01571875
,,,4.9E-07,0.015570625
,,,5E-07,0.015983125
,,,5.1E-07,0.015649375
,,,5.2E-07,0.01604875
,,,5.3E-07,0.015841875
,,,5.4E-07,0.015479375
,,,5.5E-07,0.015834375
,,,5.6E-07,0.015814375
,,,5.7E-07,0.016038125
,,,5.8E-07,0.015784375
,,,5.9E-07,0.015850625
,,,6E-07,0.016076875
,,,6.1E-07,0.015825
,,,6.2E-07,0.0158325
,,,6.3E-07,0.01553375
,,,6.4E-07,0.016040625
,,,6.5E-07,0.015714375
,,,6.6E-07,0.0158325
,,,6.7E-07,0.01582375
,,,6.8E-07,0.016026875
,,,6.9E-07,0.015861875
,,,7E-07,0.01580125
,,,7.1E-07,0.015678125
,,,7.2E-07,0.015739375
,,,7.3E-07,0.01588375
,,,7.4E-07,0.015910625
,,,7.5E-07,0.016015
,,,7.6E-07,0.01577625
,,,7.7E-07,0.01568375
,,,7.8E-07,0.015758125
,,,7.9E-07,0.01563625
,,,8E-07,0.0157775
,,,8.1E-07,0.015714375
,,,8.2E-07,0.0156725
,,,8.3E-07,0.01581625
,,,8.4E-07,0.01609625
,,,8.5E-07,0.01578875
,,,8.6E-07,0.015929375
,,,8.7E-07,0.01574375
,,,8.8E-07,0.015956875
,,,8.9E-07,0.01603125
,,,9E-07,0.015908125
,,,9.1E-07,0.015614375
,,,9.2E-07,0.015945
,,,9.3E-07,0.0158225
,,,9.4E-07,0.015459375
,,,9.5E-07,0.01572125
,,,9.6E-07,0.015929375
,,,9.7E-07,0.01584375
,,,9.8E-07,0.015815
,,,9.9E-07,0.01587125
,,,1E-06,0.015668125
,,,1.01E-06,0.01585125
,,,1.02E-06,0.015785
,,,1.03E-06,0.015755625
,,,1.04E-06,0.015745
,,,1.05E-06,0.015893125
,,,1.06E-06,0.01595
,,,1.07E-06,0.0158625
,,,1.08E-06,0.015780625
,,,1.09E-06,0.015876875
,,,1.1E-06,0.01561875
,,,1.11E-06,0.015850625
,,,1.12E-06,0.016013125
,,,1.13E-06,0.01574125
,,,1.14E-06,0.01575625
,,,1.15E-06,0.015839375
,,,1.16E-06,0.016088125
,,,1.17E-06,0.015865
,,,1.18E-06,0.015829375
,,,1.19E-06,0.015573125
,,,1.2E-06,0.0157075
,,,1.21E-06,0.0158725
,,,1.22E-06,0.015853125
,,,1.23E-06,0.01581625
,,,1.24E-06,0.01588375
,,,1.25E-06,0.015905625
,,,1.26E-06,0.015984375
,,,1.27E-06,0.015670625
,,,1.28E-06,0.015815625
,,,1.29E-06,0.015973125
,,,1.3E-06,0.01571375
,,,1.31E-06,0.0158525
,,,1.32E-06,0.01572375
,,,1.33E-06,0.015716875
,,,1.34E-06,0.015785
,,,1.35E-06,0.01577375
,,,1.36E-06,0.015725
,,,1.37E-06,0.015830625
,,,1.38E-06,0.0160175
,,,1.39E-06,0.01571125
,,,1.4E-06,0.015745
,,,1.41E-06,0.015788125
,,,1.42E-06,0.016076875
,,,1.43E-06,0.015854375
,,,1.44E-06,0.01596
,,,1.45E-06,0.01590125
,,,1.46E-06,0.016175
,,,1.47E-06,0.01604625
,,,1.48E-06,0.015905625
,,,1.49E-06,0.016138125
,,,1.5E-06,0.015936875
,,,1.51E-06,0.016118125
,,,1.52E-06,0.015820625
,,,1.53E-06,0.015875625
,,,1.54E-06,0.015858125
,,,1.55E-06,0.01582125
,,,1.56E-06,0.016030625
,,,1.57E-06,0.015794375
,,,1.58E-06,0.015738125
,,,1.59E-06,0.015906875
,,,1.6E-06,0.015731875
,,,1.61E-06,0.0156675
,,,1.62E-06,0.01587125
,,,1.63E-06,0.015893125
,,,1.64E-06,0.01574625
,,,1.65E-06,0.015889375
,,,1.66E-06,0.01570125
,,,1.67E-06,0.01598375
,,,1.68E-06,0.01593125
,,,1.69E-06,0.015533125
,,,1.7E-06,0.01606375
,,,1.71E-06,0.015706875
,,,1.72E-06,0.0159175
,,,1.73E-06,0.01603625
,,,1.74E-06,0.0157825
,,,1.75E-06,0.01586125
,,,1.76E-06,0.015744375
,,,1.77E-06,0.01592125
,,,1.78E-06,0.01584625
,,,1.79E-06,0.01574625
,,,1.8E-06,0.015670625
,,,1.81E-06,0.0156725
,,,1.82E-06,0.015914375
,,,1.83E-06,0.01596875
,,,1.84E-06,0.01574375
,,,1.85E-06,0.015946875
,,,1.86E-06,0.01574625
,,,1.87E-06,0.015773125
,,,1.88E-06,0.0162025
,,,1.89E-06,0.015913125
,,,1.9E-06,0.015825
,,,1.91E-06,0.015729375
,,,1.92E-06,0.015874375
,,,1.93E-06,0.0156925
,,,1.94E-06,0.0158225
,,,1.95E-06,0.015751875
,,,1.96E-06,0.01590375
,,,1.97E-06,0.015551875
,,,1.98E-06,0.015961875
,,,1.99E-06,0.015883125
,,,2E-06,0.0157375
,,,2.01E-06,0.015850625
,,,2.02E-06,0.01579875
,,,2.03E-06,0.015928125
,,,2.04E-06,0.01581875
,,,2.05E-06,0.015861875
,,,2.06E-06,0.015798125
,,,2.07E-06,0.015708125
,,,2.08E-06,0.01586375
,,,2.09E-06,0.015871875
,,,2.1E-06,0.015980625
,,,2.11E-06,0.015705
,,,2.12E-06,0.01562875
,,,2.13E-06,0.01600125
,,,2.14E-06,0.015803125
,,,2.15E-06,0.015801875
,,,2.16E-06,0.015728125
,,,2.17E-06,0.01602375
,,,2.18E-06,0.0158575
,,,2.19E-06,0.015745
,,,2.2E-06,0.01561875
,,,2.21E-06,0.01606375
,,,2.22E-06,0.015755625
,,,2.23E-06,0.015771875
,,,2.24E-06,0.015941875
,,,2.25E-06,0.01572875
,,,2.26E-06,0.01574375
,,,2.27E-06,0.0160175
,,,2.28E-06,0.01586375
,,,2.29E-06,0.01559375
,,,2.3E-06,0.015775
,,,2.31E-06,0.015943125
,,,2.32E-06,0.015845
,,,2.33E-06,0.015908125
,,,2.34E-06,0.015833125
,,,2.35E-06,0.016
,,,2.36E-06,0.0156125
,,,2.37E-06,0.015951875
,,,2.38E-06,0.01577625
,,,2.39E-06,0.015918125
,,,2.4E-06,0.01601375
,,,2.41E-06,0.01581125
,,,2.42E-06,0.01586625
,,,2.43E-06,0.0159975
,,,2.44E-06,0.01591875
,,,2.45E-06,0.016094375
,,,2.46E-06,0.01568375
,,,2.47E-06,0.015559375
,,,2.48E-06,0.015955
,,,2.49E-06,0.016010625
,,,2.5E-06,0.015889375
,,,2.51E-06,0.015984375
,,,2.52E-06,0.01568875
,,,2.53E-06,0.01573375
,,,2.54E-06,0.015816875
,,,2.55E-06,0.015866875
,,,2.56E-06,0.0157625
,,,2.57E-06,0.0156575
,,,2.58E-06,0.01563375
,,,2.59E-06,0.015819375
,,,2.6E-06,0.015956875
,,,2.61E-06,0.015613125
,,,2.62E-06,0.01604375
,,,2.63E-06,0.0158375
,,,2.64E-06,0.01577875
,,,2.65E-06,0.015899375
,,,2.66E-06,0.015958125
,,,2.67E-06,0.016004375
,,,2.68E-06,0.0155575
,,,2.69E-06,0.01579
,,,2.7E-06,0.01570375
,,,2.71E-06,0.01611
,,,2.72E-06,0.01612875
,,,2.73E-06,0.01583
,,,2.74E-06,0.01573875
,,,2.75E-06,0.01575625
,,,2.76E-06,0.0159275
,,,2.77E-06,0.015853125
,,,2.78E-06,0.01584625
,,,2.79E-06,0.015983125
,,,2.8E-06,0.01580375
,,,2.81E-06,0.015946875
,,,2.82E-06,0.015546875
,,,2.83E-06,0.015728125
,,,2.84E-06,0.015614375
,,,2.85E-06,0.01574125
,,,2.86E-06,0.01574
,,,2.87E-06,0.01574625
,,,2.88E-06,0.015675625
,,,2.89E-06,0.0156075
,,,2.9E-06,0.015885
,,,2.91E-06,0.016109375
,,,2.92E-06,0.015853125
,,,2.93E-06,0.01570375
,,,2.94E-06,0.01574375
,,,2.95E-06,0.0158325
,,,2.96E-06,0.015973125
,,,2.97E-06,0.01565375
,,,2.98E-06,0.015775625
,,,2.99E-06,0.01560125
,,,3E-06,0.016009375
,,,3.01E-06,0.015825625
,,,3.02E-06,0.015838125
,,,3.03E-06,0.01559
,,,3.04E-06,0.01598875
,,,3.05E-06,0.01589875
,,,3.06E-06,0.0160975
,,,3.07E-06,0.015833125
,,,3.08E-06,0.015783125
,,,3.09E-06,0.015799375
,,,3.1E-06,0.015895
,,,3.11E-06,0.015803125
,,,3.12E-06,0.015845625
,,,3.13E-06,0.015740625
,,,3.14E-06,0.015911875
,,,3.15E-06,0.0157375
,,,3.16E-06,0.015793125
,,,3.17E-06,0.015745
,,,3.18E-06,0.015815625
,,,3.19E-06,0.015895
,,,3.2E-06,0.015675
,,,3.21E-06,0.01597625
,,,3.22E-06,0.015846875
,,,3.23E-06,0.01602875
,,,3.24E-06,0.015715625
,,,3.25E-06,0.01572375
,,,3.26E-06,0.015715
,,,3.27E-06,0.0157575
,,,3.28E-06,0.015563125
,,,3.29E-06,0.01573375
,,,3.3E-06,0.015630625
,,,3.31E-06,0.0157175
,,,3.32E-06,0.0159175
,,,3.33E-06,0.015778125
,,,3.34E-06,0.0161
,,,3.35E-06,0.0159675
,,,3.36E-06,0.01603625
,,,3.37E-06,0.01589
,,,3.38E-06,0.01569375
,,,3.39E-06,0.01602125
,,,3.4E-06,0.015879375
,,,3.41E-06,0.01584375
,,,3.42E-06,0.015733125
,,,3.43E-06,0.0159325
,,,3.44E-06,0.015795625
,,,3.45E-06,0.015791875
,,,3.46E-06,0.01583625
,,,3.47E-06,0.01589875
,,,3.48E-06,0.0159825
,,,3.49E-06,0.01570875
,,,3.5E-06,0.016031875
,,,3.51E-06,0.015895
,,,3.52E-06,0.01601375
,,,3.53E-06,0.015935625
