data/raw/Final_POL_Test_1/SOP002_Ch4.csv

"Record Length",1000,"Points",-5E-06,0.01848125
"Sample Interval",1E-08,s,-4.99E-06,0.018235625
"Trigger Point",500,"Samples",-4.98E-06,0.017831875
"Trigger Time",0,s,-4.97E-06,0.01834125
"",,,-4.96E-06,0.01834375
"Horizontal Offset",-5E-06,s,-4.95E-06,0.018055
,,,-4.94E-06,0.018373125
,,,-4.93E-06,0.018068125
,,,-4.92E-06,0.018180625
,,,-4.91E-06,0.018294375
,,,-4.9E-06,0.017969375
,,,-4.89E-06,0.018205
,,,-4.88E-06,0.018125625
,,,-4.87E-06,0.018216875
,,,-4.86E-06,0.018129375
,,,-4.85E-06,0.018086875
,,,-4.84E-06,0.01807125
,,,-4.83E-06,0.0181375
,,,-4.82E-06,0.018005
,,,-4.81E-06,0.018318125
,,,-4.8E-06,0.0181
,,,-4.79E-06,0.018255625
,,,-4.78E-06,0.018200625
,,,-4.77E-06,0.018165625
,,,-4.76E-06,0.01832625
,,,-4.75E-06,0.0180725
,,,-4.74E-06,0.018335625
,,,-4.73E-06,0.01820375
,,,-4.72E-06,0.0180775
,,,-4.71E-06,0.018110625
,,,-4.7E-06,0.018225625
,,,-4.69E-06,0.018235
,,,-4.68E-06,0.018040625
,,,-4.67E-06,0.01831875
,,,-4.66E-06,0.01821
,,,-4.65E-06,0.01839125
,,,-4.64E-06,0.018185625
,,,-4.63E-06,0.01808375
,,,-4.62E-06,0.018175625
,,,-4.61E-06,0.01816375
,,,-4.6E-06,0.018286875
,,,-4.59E-06,0.0181325
,,,-4.58E-06,0.017861875
,,,-4.57E-06,0.018154375
,,,-4.56E-06,0.018230625
,,,-4.55E-06,0.018138125
,,,-4.54E-06,0.0181525
,,,-4.53E-06,0.018173125
,,,-4.52E-06,0.0182075
,,,-4.51E-06,0.0180275
,,,-4.5E-06,0.01814125
,,,-4.49E-06,0.01820125
,,,-4.48E-06,0.018115625
,,,-4.47E-06,0.01801375
,,,-4.46E-06,0.0181175
,,,-4.45E-06,0.018225
,,,-4.44E-06,0.01821375
,,,-4.43E-06,0.01818625
,,,-4.42E-06,0.01844625
,,,-4.41E-06,0.018243125
,,,-4.4E-06,0.0181925
,,,-4.39E-06,0.018165
,,,-4.38E-06,0.018335625
,,,-4.37E-06,0.0182125
,,,-4.36E-06,0.018194375
,,,-4.35E-06,0.018135
,,,-4.34E-06,0.017928125
,,,-4.33E-06,0.01825375
,,,-4.32E-06,0.018076875
,,,-4.31E-06,0.018114375
,,,-4.3E-06,0.0180325
,,,-4.29E-06,0.018435
,,,-4.28E-06,0.0183125
,,,-4.27E-06,0.018425625
,,,-4.26E-06,0.018015625
,,,-4.25E-06,0.018190625
,,,-4.24E-06,0.01837625
,,,-4.23E-06,0.018285
,,,-4.22E-06,0.01828625
,,,-4.21E-06,0.01818
,,,-4.2E-06,0.018215625
,,,-4.19E-06,0.018219375
,,,-4.18E-06,0.018083125
,,,-4.17E-06,0.018518125
,,,-4.16E-06,0.0180725
,,,-4.15E-06,0.018080625
,,,-4.14E-06,0.01817
,,,-4.13E-06,0.018315625
,,,-4.12E-06,0.01817125
,,,-4.11E-06,0.01827375
,,,-4.1E-06,0.0181225
,,,-4.09E-06,0.018165625
,,,-4.08E-06,0.018235625
,,,-4.07E-06,0.0180325
,,,-4.06E-06,0.01833375
,,,-4.05E-06,0.017940625
,,,-4.04E-06,0.018238125
,,,-4.03E-06,0.0183075
,,,-4.02E-06,0.018129375
,,,-4.01E-06,0.0182325
,,,-4E-06,0.018020625
,,,-3.99E-06,0.018106875
,,,-3.98E-06,0.018141875
,,,-3.97E-06,0.01818625
,,,-3.96E-06,0.018241875
,,,-3.95E-06,0.0181125
,,,-3.94E-06,0.01807625
,,,-3.93E-06,0.018161875
,,,-3.92E-06,0.01808875
,,,-3.91E-06,0.017945
,,,-3.9E-06,0.01832625
,,,-3.89E-06,0.018239375
,,,-3.88E-06,0.018394375
,,,-3.87E-06,0.01816125
,,,-3.86E-06,0.018193125
,,,-3.85E-06,0.018435625
,,,-3.84E-06,0.018093125
,,,-3.83E-06,0.018310625
,,,-3.82E-06,0.01807125
,,,-3.81E-06,0.018405
,,,-3.8E-06,0.018160625
,,,-3.79E-06,0.0182175
,,,-3.78E-06,0.018416875
,,,-3.77E-06,0.01833625
,,,-3.76E-06,0.018176875
,,,-3.75E-06,0.018413125
,,,-3.74E-06,0.018239375
,,,-3.73E-06,0.0182725
,,,-3.72E-06,0.0183375
,,,-3.71E-06,0.018168125
,,,-3.7E-06,0.018186875
,,,-3.69E-06,0.018263125
,,,-3.68E-06,0.018274375
,,,-3.67E-06,0.018278125
,,,-3.66E-06,0.017796875
,,,-3.65E-06,0.018273125
,,,-3.64E-06,0.0184075
,,,-3.63E-06,0.018135
,,,-3.62E-06,0.018053125
,,,-3.61E-06,0.018359375
,,,-3.6E-06,0.018188125
,,,-3.59E-06,0.0183275
,,,-3.58E-06,0.018308125
,,,-3.57E-06,0.0181025
,,,-3.56E-06,0.01811375
,,,-3.55E-06,0.018188125
,,,-3.54E-06,0.01824
,,,-3.53E-06,0.018455625
,,,-3.52E-06,0.0180575
,,,-3.51E-06,0.018050625
,,,-3.5E-06,0.01815125
,,,-3.49E-06,0.018016875
,,,-3.48E-06,0.018171875
,,,-3.47E-06,0.01833125
,,,-3.46E-06,0.0179475
,,,-3.45E-06,0.01807625
,,,-3.44E-06,0.01826875
,,,-3.43E-06,0.01825625
,,,-3.42E-06,0.01812125
,,,-3.41E-06,0.018184375
,,,-3.4E-06,0.018303125
,,,-3.39E-06,0.01811625
,,,-3.38E-06,0.0181775
,,,-3.37E-06,0.018081875
,,,-3.36E-06,0.018116875
,,,-3.35E-06,0.018079375
,,,-3.34E-06,0.018155
,,,-3.33E-06,0.0180325
,,,-3.32E-06,0.01819875
,,,-3.31E-06,0.0181375
,,,-3.3E-06,0.018000625
,,,-3.29E-06,0.0183275
,,,-3.28E-06,0.0182425
,,,-3.27E-06,0.017993125
,,,-3.26E-06,0.018096875
,,,-3.25E-06,0.01834
,,,-3.24E-06,0.017824375
,,,-3.23E-06,0.01815
,,,-3.22E-06,0.01820625
,,,-3.21E-06,0.01812
,,,-3.2E-06,0.018206875
,,,-3.19E-06,0.018058125
,,,-3.18E-06,0.018315625
,,,-3.17E-06,0.018088125
,,,-3.16E-06,0.018111875
,,,-3.15E-06,0.018269375
,,,-3.14E-06,0.0181275
,,,-3.13E-06,0.01818125
,,,-3.12E-06,0.018549375
,,,-3.11E-06,0.01835875
,,,-3.1E-06,0.018020625
,,,-3.09E-06,0.01799875
,,,-3.08E-06,0.018166875
,,,-3.07E-06,0.01825625
,,,-3.06E-06,0.018216875
,,,-3.05E-06,0.01845625
,,,-3.04E-06,0.018149375
,,,-3.03E-06,0.018083125
,,,-3.02E-06,0.018365
,,,-3.01E-06,0.018214375
,,,-3E-06,0.018088125
,,,-2.99E-06,0.018111875
,,,-2.98E-06,0.018154375
,,,-2.97E-06,0.018450625
,,,-2.96E-06,0.018310625
,,,-2.95E-06,0.018211875
,,,-2.94E-06,0.018099375
,,,-2.93E-06,0.018025
,,,-2.92E-06,0.01825875
,,,-2.91E-06,0.018073125
,,,-2.9E-06,0.01818625
,,,-2.89E-06,0.018138125
,,,-2.88E-06,0.01824875
,,,-2.87E-06,0.01817
,,,-2.86E-06,0.0180275
,,,-2.85E-06,0.018025625
,,,-2.84E-06,0.01808125
,,,-2.83E-06,0.018115625
,,,-2.82E-06,0.01814
,,,-2.81E-06,0.018376875
,,,-2.8E-06,0.01815625
,,,-2.79E-06,0.018219375
,,,-2.78E-06,0.018141875
,,,-2.77E-06,0.017904375
,,,-2.76E-06,0.01808375
,,,-2.75E-06,0.01793375
,,,-2.74E-06,0.0182975
,,,-2.73E-06,0.018106875
,,,-2.72E-06,0.01829
,,,-2.71E-06,0.018295625
,,,-2.7E-06,0.018043125
,,,-2.69E-06,0.01834
,,,-2.68E-06,0.0182625
,,,-2.67E-06,0.018149375
,,,-2.66E-06,0.018280625
,,,-2.65E-06,0.01835875
,,,-2.64E-06,0.018094375
,,,-2.63E-06,0.018438125
,,,-2.62E-06,0.018173125
,,,-2.61E-06,0.018236875
,,,-2.6E-06,0.018046875
,,,-2.59E-06,0.018091875
,,,-2.58E-06,0.0183275
,,,-2.57E-06,0.018293125
,,,-2.56E-06,0.01786125
,,,-2.55E-06,0.018311875
,,,-2.54E-06,0.018123125
,,,-2.53E-06,0.01813375
,,,-2.52E-06,0.01804
,,,-2.51E-06,0.0180875
,,,-2.5E-06,0.018064375
,,,-2.49E-06,0.017928125
,,,-2.48E-06,0.017920625
,,,-2.47E-06,0.018145625
,,,-2.46E-06,0.01823
,,,-2.45E-06,0.0181575
,,,-2.44E-06,0.0182475
,,,-2.43E-06,0.018195
,,,-2.42E-06,0.017985
,,,-2.41E-06,0.0181775
,,,-2.4E-06,0.0182975
,,,-2.39E-06,0.017966875
,,,-2.38E-06,0.01858875
,,,-2.37E-06,0.01825
,,,-2.36E-06,0.0180875
,,,-2.35E-06,0.017924375
,,,-2.34E-06,0.0179625
,,,-2.33E-06,0.018205625
,,,-2.32E-06,0.0182
,,,-2.31E-06,0.01816125
,,,-2.3E-06,0.0182775
,,,-2.29E-06,0.018255625
,,,-2.28E-06,0.018076875
,,,-2.27E-06,0.01801625
,,,-2.26E-06,0.018100625
,,,-2.25E-06,0.017939375
,,,-2.24E-06,0.01801125
,,,-2.23E-06,0.01807
,,,-2.22E-06,0.018133125
,,,-2.21E-06,0.018205
,,,-2.2E-06,0.018253125
,,,-2.19E-06,0.018135
,,,-2.18E-06,0.01827375
,,,-2.17E-06,0.017883125
,,,-2.16E-06,0.01800875
,,,-2.15E-06,0.01825375
,,,-2.14E-06,0.018045625
,,,-2.13E-06,0.018245
,,,-2.12E-06,0.01807125
,,,-2.11E-06,0.018125625
,,,-2.1E-06,0.01812875
,,,-2.09E-06,0.017983125
,,,-2.08E-06,0.018221875
,,,-2.07E-06,0.017911875
,,,-2.06E-06,0.01826875
,,,-2.05E-06,0.018249375
,,,-2.04E-06,0.018220625
,,,-2.03E-06,0.018095
,,,-2.02E-06,0.018015
,,,-2.01E-06,0.018075
,,,-2E-06,0.018125
,,,-1.99E-06,0.018281875
,,,-1.98E-06,0.018278125
,,,-1.97E-06,0.01809625
,,,-1.96E-06,0.018240625
,,,-1.95E-06,0.0182975
,,,-1.94E-06,0.01818875
,,,-1.93E-06,0.018005625
,,,-1.92E-06,0.01826
,,,-1.91E-06,0.01810125
,,,-1.9E-06,0.018289375
,,,-1.89E-06,0.018245
,,,-1.88E-06,0.01833625
,,,-1.87E-06,0.018053125
,,,-1.86E-06,0.01819875
,,,-1.85E-06,0.018124375
,,,-1.84E-06,0.018203125
,,,-1.83E-06,0.01802
,,,-1.82E-06,0.01828125
,,,-1.81E-06,0.01818625
,,,-1.8E-06,0.018476875
,,,-1.79E-06,0.01801
,,,-1.78E-06,0.0182625
,,,-1.77E-06,0.018081875
,,,-1.76E-06,0.018199375
,,,-1.75E-06,0.018104375
,,,-1.74E-06,0.018235
,,,-1.73E-06,0.018195625
,,,-1.72E-06,0.018368125
,,,-1.71E-06,0.018248125
,,,-1.7E-06,0.01828375
,,,-1.69E-06,0.018245
,,,-1.68E-06,0.018151875
,,,-1.67E-06,0.01803875
,,,-1.66E-06,0.018135
,,,-1.65E-06,0.018094375
,,,-1.64E-06,0.018225625
,,,-1.63E-06,0.01802
,,,-1.62E-06,0.018015625
,,,-1.61E-06,0.018145625
,,,-1.6E-06,0.01834125
,,,-1.59E-06,0.018135
,,,-1.58E-06,0.018051875
,,,-1.57E-06,0.018364375
,,,-1.56E-06,0.018290625
,,,-1.55E-06,0.01812875
,,,-1.54E-06,0.01824
,,,-1.53E-06,0.018353125
,,,-1.52E-06,0.018125625
,,,-1.51E-06,0.01817375
,,,-1.5E-06,0.018011875
,,,-1.49E-06,0.0184
,,,-1.48E-06,0.01794375
,,,-1.47E-06,0.0180925
,,,-1.46E-06,0.01831625
,,,-1.45E-06,0.01816125
,,,-1.44E-06,0.018216875
,,,-1.43E-06,0.01797125
,,,-1.42E-06,0.01825375
,,,-1.41E-06,0.018278125
,,,-1.4E-06,0.018244375
,,,-1.39E-06,0.018076875
,,,-1.38E-06,0.017995625
,,,-1.37E-06,0.018193125
,,,-1.36E-06,0.01821875
,,,-1.35E-06,0.018271875
,,,-1.34E-06,0.01820875
,,,-1.33E-06,0.018186875
,,,-1.32E-06,0.018350625
,,,-1.31E-06,0.018244375
,,,-1.3E-06,0.01829
,,,-1.29E-06,0.018223125
,,,-1.28E-06,0.01833125
,,,-1.27E-06,0.01808625
,,,-1.26E-06,0.018221875
,,,-1.25E-06,0.018163125
,,,-1.24E-06,0.018215625
,,,-1.23E-06,0.018125625
,,,-1.22E-06,0.018058125
,,,-1.21E-06,0.01813
,,,-1.2E-06,0.01825375
,,,-1.19E-06,0.0180075
,,,-1.18E-06,0.017874375
,,,-1.17E-06,0.018303125
,,,-1.16E-06,0.018158125
,,,-1.15E-06,0.01814
,,,-1.14E-06,0.01827
,,,-1.13E-06,0.018031875
,,,-1.12E-06,0.018068125
,,,-1.11E-06,0.0181425
,,,-1.1E-06,0.018021875
,,,-1.09E-06,0.018268125
,,,-1.08E-06,0.0183275
,,,-1.07E-06,0.01809375
,,,-1.06E-06,0.018288125
,,,-1.05E-06,0.018283125
,,,-1.04E-06,0.018184375
,,,-1.03E-06,0.018156875
,,,-1.02E-06,0.0182375
,,,-1.01E-06,0.018205625
,,,-1E-06,0.018240625
,,,-9.9E-07,0.0182525
,,,-9.8E-07,0.018165
,,,-9.7E-07,0.01795875
,,,-9.6E-07,0.01832625
,,,-9.5E-07,0.018309375
,,,-9.4E-07,0.018120625
,,,-9.3E-07,0.01815
,,,-9.2E-07,0.018385
,,,-9.1E-07,0.018225
,,,-9E-07,0.01813
,,,-8.9E-07,0.018255
,,,-8.8E-07,0.01820625
,,,-8.7E-07,0.01807375
,,,-8.6E-07,0.018475625
,,,-8.5E-07,0.017884375
,,,-8.4E-07,0.018384375
,,,-8.3E-07,0.0178825
,,,-8.2E-07,0.018124375
,,,-8.1E-07,0.018074375
,,,-8E-07,0.018205
,,,-7.9E-07,0.0180125
,,,-7.8E-07,0.018305625
,,,-7.7E-07,0.018064375
,,,-7.6E-07,0.018228125
,,,-7.5E-07,0.0181775
,,,-7.4E-07,0.0180875
,,,-7.3E-07,0.01799125
,,,-7.2E-07,0.018396875
,,,-7.1E-07,0.0180725
,,,-7E-07,0.018411875
,,,-6.9E-07,0.018274375
,,,-6.8E-07,0.018226875
,,,-6.7E-07,0.018101875
,,,-6.6E-07,0.01824625
,,,-6.5E-07,0.0182075
,,,-6.4E-07,0.018166875
,,,-6.3E-07,0.018065
,,,-6.2E-07,0.01832125
,,,-6.1E-07,0.017985625
,,,-6E-07,0.018095625
,,,-5.9E-07,0.0183175
,,,-5.8E-07,0.018193125
,,,-5.7E-07,0.0180525
,,,-5.6E-07,0.01841875
,,,-5.5E-07,0.018229375
,,,-5.4E-07,0.018246875
,,,-5.3E-07,0.018000625
,,,-5.2E-07,0.018334375
,,,-5.1E-07,0.01825375
,,,-5E-07,0.018351875
,,,-4.9E-07,0.01850375
,,,-4.8E-07,0.018088125
,,,-4.7E-07,0.018325
,,,-4.6E-07,0.018100625
,,,-4.5E-07,0.01801625
,,,-4.4E-07,0.017919375
,,,-4.3E-07,0.01827
,,,-4.2E-07,0.018105
,,,-4.1E-07,0.0184725
,,,-4E-07,0.0180875
,,,-3.9E-07,0.01807
,,,-3.8E-07,0.018489375
,,,-3.7E-07,0.01798125
,,,-3.6E-07,0.018294375
,,,-3.5E-07,0.01834625
,,,-3.4E-07,0.018129375
,,,-3.3E-07,0.0183475
,,,-3.2E-07,0.0183275
,,,-3.1E-07,0.01818
,,,-3E-07,0.01812
,,,-2.9E-07,0.01818875
,,,-2.8E-07,0.018001875
,,,-2.7E-07,0.018046875
,,,-2.6E-07,0.018210625
,,,-2.5E-07,0.01816
,,,-2.4E-07,0.018240625
,,,-2.3E-07,0.0182325
,,,-2.2E-07,0.01817375
,,,-2.1E-07,0.018153125
,,,-2E-07,0.018188125
,,,-1.9E-07,0.01801375
,,,-1.8E-07,0.01825
,,,-1.7E-07,0.01805625
,,,-1.6E-07,0.01821
,,,-1.5E-07,0.018215625
,,,-1.4E-07,0.018170625
,,,-1.3E-07,0.018359375
,,,-1.2E-07,0.018046875
,,,-1.1E-07,0.0182025
,,,-1E-07,0.018109375
,,,-9E-08,0.01816625
,,,-8E-08,0.018229375
,,,-7E-08,0.01819625
,,,-6E-08,0.01864
,,,-5E-08,0.01823375
,,,-4E-08,0.01811375
,,,-3E-08,0.0182125
,,,-2E-08,0.0184725
,,,-1E-08,0.018198125
,,,0,0.0182325
,,,1E-08,0.01841
,,,2E-08,0.01836
,,,3E-08,0.0183925
,,,4E-08,0.0178775
,,,5E-08,0.018324375
,,,6E-08,0.0180475
,,,7E-08,0.017999375
,,,8E-08,0.01806625
,,,9E-08,0.018380625
,,,1E-07,0.018330625
,,,1.1E-07,0.018338125
,,,1.2E-07,0.01819625
,,,1.3E-07,0.01820375
,,,1.4E-07,0.0178675
,,,1.5E-07,0.0181325
,,,1.6E-07,0.01811125
,,,1.7E-07,0.01806875
,,,1.8E-07,0.018264375
,,,1.9E-07,0.018384375
,,,2E-07,0.018191875
,,,2.1E-07,0.018033125
,,,2.2E-07,0.018078125
,,,2.3E-07,0.018250625
,,,2.4E-07,0.018420625
,,,2.5E-07,0.018156875
,,,2.6E-07,0.018165625
,,,2.7E-07,0.01816375
,,,2.8E-07,0.018109375
,,,2.9E-07,0.018180625
,,,3E-07,0.01828375
,,,3.1E-07,0.018079375
,,,3.2E-07,0.018171875
,,,3.3E-07,0.01835375
,,,3.4E-07,0.018180625
,,,3.5E-07,0.0183075
,,,3.6E-07,0.0179975
,,,3.7E-07,0.018134375
,,,3.8E-07,0.017933125
,,,3.9E-07,0.018060625
,,,4E-07,0.01813375
,,,4.1E-07,0.018233125
,,,4.2E-07,0.018163125
,,,4.3E-07,0.018024375
,,,4.4E-07,0.018425625
,,,4.5E-07,0.01844375
,,,4.6E-07,0.01827125
,,,4.7E-07,0.018273125
,,,4.8E-07,0.018240625
,,,4.9E-07,0.018444375
,,,5E-07,0.017899375
,,,5.1E-07,0.018300625
,,,5.2E-07,0.01818375
,,,5.3E-07,0.018151875
,,,5.4E-07,0.017875
,,,5.5E-07,0.01839375
,,,5.6E-07,0.018135625
,,,5.7E-07,0.018168125
,,,5.8E-07,0.018165
,,,5.9E-07,0.018221875
,,,6E-07,0.01833375
,,,6.1E-07,0.018225
,,,6.2E-07,0.01821125
,,,6.3E-07,0.01823625
,,,6.4E-07,0.01813125
,,,6.5E-07,0.018039375
,,,6.6E-07,0.018425625
,,,6.7E-07,0.018260625
,,,6.8E-07,0.01824
,,,6.9E-07,0.018455
,,,7E-07,0.0181725
,,,7.1E-07,0.018145
,,,7.2E-07,0.0183175
,,,7.3E-07,0.018359375
,,,7.4E-07,0.01830875
,,,7.5E-07,0.01812
,,,7.6E-07,0.018218125
,,,7.7E-07,0.01829625
,,,7.8E-07,0.018085
,,,7.9E-07,0.01825125
,,,8E-07,0.01830625
,,,8.1E-07,0.018125
,,,8.2E-07,0.0182525
,,,8.3E-07,0.018316875
,,,8.4E-07,0.018381875
,,,8.5E-07,0.01835625
,,,8.6E-07,0.018185
,,,8.7E-07,0.018328125
,,,8.8E-07,0.018134375
,,,8.9E-07,0.01823875
,,,9E-07,0.0183775
,,,9.1E-07,0.018178125
,,,9.2E-07,0.018156875
,,,9.3E-07,0.01813
,,,9.4E-07,0.01843875
,,,9.5E-07,0.0182975
,,,9.6E-07,0.018340625
,,,9.7E-07,0.018088125
,,,9.8E-07,0.0181875
,,,9.9E-07,0.0183225
,,,1E-06,0.01836
,,,1.01E-06,0.018235
,,,1.02E-06,0.018103125
,,,1.03E-06,0.018218125
,,,1.04E-06,0.018211875
,,,1.05E-06,0.017915
,,,1.06E-06,0.018185
,,,1.07E-06,0.018010625
,,,1.08E-06,0.018286875
,,,1.09E-06,0.018149375
,,,1.1E-06,0.018228125
,,,1.11E-06,0.01830375
,,,1.12E-06,0.01823
,,,1.13E-06,0.018240625
,,,1.14E-06,0.01805375
,,,1.15E-06,0.018058125
,,,1.16E-06,0.018208125
,,,1.17E-06,0.018204375
,,,1.18E-06,0.018115625
,,,1.19E-06,0.018098125
,,,1.2E-06,0.018283125
,,,1.21E-06,0.018185625
,,,1.22E-06,0.01824
,,,1.23E-06,0.01819
,,,1.24E-06,0.018483125
,,,1.25E-06,0.01776375
,,,1.26E-06,0.018175625
,,,1.27E-06,0.018065625
,,,1.28E-06,0.018265625
,,,1.29E-06,0.0184875
,,,1.3E-06,0.018103125
,,,1.31E-06,0.018214375
,,,1.32E-06,0.01846875
,,,1.33E-06,0.01825125
,,,1.34E-06,0.018300625
,,,1.35E-06,0.018049375
,,,1.36E-06,0.018173125
,,,1.37E-06,0.0180125
,,,1.38E-06,0.0180075
,,,1.39E-06,0.018131875
,,,1.4E-06,0.018120625
,,,1.41E-06,0.01825
,,,1.42E-06,0.0181325
,,,1.43E-06,0.018208125
,,,1.44E-06,0.0183475
,,,1.45E-06,0.018004375
,,,1.46E-06,0.017859375
,,,1.47E-06,0.018269375
,,,1.48E-06,0.01827875
,,,1.49E-06,0.017893125
,,,1.5E-06,0.018093125
,,,1.51E-06,0.018206875
,,,1.52E-06,0.018196875
,,,1.53E-06,0.017986875
,,,1.54E-06,0.018136875
,,,1.55E-06,0.01812625
,,,1.56E-06,0.0182475
,,,1.57E-06,0.01818875
,,,1.58E-06,0.018518125
,,,1.59E-06,0.0183725
,,,1.6E-06,0.01832
,,,1.61E-06,0.0181275
,,,1.62E-06,0.017855625
,,,1.63E-06,0.018346875
,,,1.64E-06,0.017965625
,,,1.65E-06,0.018138125
,,,1.66E-06,0.018126875
,,,1.67E-06,0.01826125
,,,1.68E-06,0.018130625
,,,1.69E-06,0.01795625
,,,1.7E-06,0.0181775
,,,1.71E-06,0.0179325
,,,1.72E-06,0.018395625
,,,1.73E-06,0.017995
,,,1.74E-06,0.0183175
,,,1.75E-06,0.01805
,,,1.76E-06,0.0183775
,,,1.77E-06,0.017915
,,,1.78E-06,0.017936875
,,,1.79E-06,0.01828625
,,,1.8E-06,0.018013125
,,,1.81E-06,0.01809375
,,,1.82E-06,0.0179775
,,,1.83E-06,0.01826125
,,,1.84E-06,0.018130625
,,,1.85E-06,0.018180625
,,,1.86E-06,0.01819375
,,,1.87E-06,0.018241875
,,,1.88E-06,0.018113125
,,,1.89E-06,0.0180025
,,,1.9E-06,0.018183125
,,,1.91E-06,0.018421875
,,,1.92E-06,0.017739375
,,,1.93E-06,0.0182975
,,,1.94E-06,0.017996875
,,,1.95E-06,0.018174375
,,,1.96E-06,0.018108125
,,,1.97E-06,0.0181225
,,,1.98E-06,0.01835625
,,,1.99E-06,0.01805375
,,,2E-06,0.018376875
,,,2.01E-06,0.018175
,,,2.02E-06,0.01809375
,,,2.03E-06,0.01790875
,,,2.04E-06,0.01809375
,,,2.05E-06,0.0182875
,,,2.06E-06,0.01813
,,,2.07E-06,0.01815875
,,,2.08E-06,0.0181325
,,,2.09E-06,0.018339375
,,,2.1E-06,0.018145625
,,,2.11E-06,0.018001875
,,,2.12E-06,0.018145625
,,,2.13E-06,0.018286875
,,,2.14E-06,0.018068125
,,,2.15E-06,0.018314375
,,,2.16E-06,0.018240625
,,,2.17E-06,0.018229375
,,,2.18E-06,0.018170625
,,,2.19E-06,0.01808875
,,,2.2E-06,0.018065
,,,2.21E-06,0.0181925
,,,2.22E-06,0.01802875
,,,2.23E-06,0.018101875
,,,2.24E-06,0.0180825
,,,2.25E-06,0.018188125
,,,2.26E-06,0.018125
,,,2.27E-06,0.018169375
,,,2.28E-06,0.01800125
,,,2.29E-06,0.018064375
,,,2.3E-06,0.01818375
,,,2.31E-06,0.0182725
,,,2.32E-06,0.01804625
,,,2.33E-06,0.018244375
,,,2.34E-06,0.0179075
,,,2.35E-06,0.018019375
,,,2.36E-06,0.01801125
,,,2.37E-06,0.01835375
,,,2.38E-06,0.018175
,,,2.39E-06,0.01821375
,,,2.4E-06,0.01827625
,,,2.41E-06,0.018085625
,,,2.42E-06,0.01805625
,,,2.43E-06,0.01798875
,,,2.44E-06,0.01828375
,,,2.45E-06,0.01802125
,,,2.46E-06,0.01833125
,,,2.47E-06,0.018126875
,,,2.48E-06,0.018143125
,,,2.49E-06,0.01820625
,,,2.5E-06,0.0183375
,,,2.51E-06,0.018035
,,,2.52E-06,0.018161875
,,,2.53E-06,0.0178525
,,,2.54E-06,0.018185625
,,,2.55E-06,0.018240625
,,,2.56E-06,0.01802625
,,,2.57E-06,0.017898125
,,,2.58E-06,0.018124375
,,,2.59E-06,0.01819375
,,,2.6E-06,0.0183025
,,,2.61E-06,0.01805
,,,2.62E-06,0.017985625
,,,2.63E-06,0.018119375
,,,2.64E-06,0.01819375
,,,2.65E-06,0.01845625
,,,2.66E-06,0.0182425
,,,2.67E-06,0.018136875
,,,2.68E-06,0.018335625
,,,2.69E-06,0.0181025
,,,2.7E-06,0.018125
,,,2.71E-06,0.018050625
,,,2.72E-06,0.018295
,,,2.73E-06,0.018256875
,,,2.74E-06,0.018141875
,,,2.75E-06,0.01809
,,,2.76E-06,0.018155
,,,2.77E-06,0.018098125
,,,2.78E-06,0.01820625
,,,2.79E-06,0.018100625
,,,2.8E-06,0.0179725
,,,2.81E-06,0.018166875
,,,2.82E-06,0.01827625
,,,2.83E-06,0.01821625
,,,2.84E-06,0.01818625
,,,2.85E-06,0.01824375
,,,2.86E-06,0.01816625
,,,2.87E-06,0.018214375
,,,2.88E-06,0.0178475
,,,2.89E-06,0.018125
,,,2.9E-06,0.0182
,,,2.91E-06,0.01826375
,,,2.92E-06,0.018011875
,,,2.93E-06,0.0182
,,,2.94E-06,0.018054375
,,,2.95E-06,0.018168125
,,,2.96E-06,0.01821125
,,,2.97E-06,0.01806875
,,,2.98E-06,0.0181
,,,2.99E-06,0.018190625
,,,3E-06,0.018164375
,,,3.01E-06,0.018125625
,,,3.02E-06,0.01832
,,,3.03E-06,0.017833125
,,,3.04E-06,0.018151875
,,,3.05E-06,0.01805625
,,,3.06E-06,0.018279375
,,,3.07E-06,0.018449375
,,,3.08E-06,0.018205625
,,,3.09E-06,0.0181175
,,,3.1E-06,0.018385625
,,,3.11E-06,0.018016875
,,,3.12E-06,0.017964375
,,,3.13E-06,0.018219375
,,,3.14E-06,0.018230625
,,,3.15E-06,0.01826
,,,3.16E-06,0.0181175
,,,3.17E-06,0.018290625
,,,3.18E-06,0.0179575
,,,3.19E-06,0.018260625
,,,3.2E-06,0.018229375
,,,3.21E-06,0.018541875
,,,3.22E-06,0.01814875
,,,3.23E-06,0.01816
,,,3.24E-06,0.018140625
,,,3.25E-06,0.0183025
,,,3.26E-06,0.018248125
,,,3.27E-06,0.0182475
,,,3.28E-06,0.018065
,,,3.29E-06,0.0183175
,,,3.3E-06,0.01820375
,,,3.31E-06,0.01818875
,,,3.32E-06,0.018356875
,,,3.33E-06,0.0179325
,,,3.34E-06,0.01843375
,,,3.35E-06,0.0181725
,,,3.36E-06,0.01803875
,,,3.37E-06,0.01807625
,,,3.38E-06,0.01796875
,,,3.39E-06,0.018236875
,,,3.4E-06,0.018250625
,,,3.41E-06,0.018394375
,,,3.42E-06,0.01843
,,,3.43E-06,0.01807625
,,,3.44E-06,0.01810875
,,,3.45E-06,0.018065625
,,,3.46E-06,0.01805625
,,,3.47E-06,0.01806375
,,,3.48E-06,0.0183725
,,,3.49E-06,0.0181925
,,,3.5E-06,0.018161875
,,,3.51E-06,0.018293125
,,,3.52E-06,0.018208125
,,,3.53E-06,0.01814
,,,3.54E-06,0.01844
,,,3.55E-06,0.018276875
,,,3.56E-06,0.017935625
,,,3.57E-06,0.0182325
