data/raw/Final_POL_Test_1/SOP047_Ch3.csv

"Record Length",1000,"Points",-5E-06,0.020390626
"Sample Interval",1E-08,s,-4.99E-06,0.020497501
"Trigger Point",500,"Samples",-4.98E-06,0.020568126
"Trigger Time",0,s,-4.97E-06,0.020595001
"",,,-4.96E-06,0.020548126
"Horizontal Offset",-5E-06,s,-4.95E-06,0.020513126
,,,-4.94E-06,0.020505626
,,,-4.93E-06,0.020361876
,,,-4.92E-06,0.020607501
,,,-4.91E-06,0.020640626
,,,-4.9E-06,0.020568126
,,,-4.89E-06,0.020280626
,,,-4.88E-06,0.020489376
,,,-4.87E-06,0.020773751
,,,-4.86E-06,0.020386876
,,,-4.85E-06,0.020589376
,,,-4.84E-06,0.020397501
,,,-4.83E-06,0.020360626
,,,-4.82E-06,0.020580626
,,,-4.81E-06,0.020471251
,,,-4.8E-06,0.020413751
,,,-4.79E-06,0.020443126
,,,-4.78E-06,0.020484376
,,,-4.77E-06,0.020730001
,,,-4.76E-06,0.020551876
,,,-4.75E-06,0.020452501
,,,-4.74E-06,0.020488126
,,,-4.73E-06,0.020700001
,,,-4.72E-06,0.020490626
,,,-4.71E-06,0.020501251
,,,-4.7E-06,0.020655626
,,,-4.69E-06,0.020425001
,,,-4.68E-06,0.020549376
,,,-4.67E-06,0.020646876
,,,-4.66E-06,0.020510001
,,,-4.65E-06,0.020316876
,,,-4.64E-06,0.020505001
,,,-4.63E-06,0.020410626
,,,-4.62E-06,0.020673751
,,,-4.61E-06,0.020489376
,,,-4.6E-06,0.020346251
,,,-4.59E-06,0.020645626
,,,-4.58E-06,0.020395001
,,,-4.57E-06,0.020293751
,,,-4.56E-06,0.020552501
,,,-4.55E-06,0.020598751
,,,-4.54E-06,0.020246876
,,,-4.53E-06,0.020458751
,,,-4.52E-06,0.020297501
,,,-4.51E-06,0.020578126
,,,-4.5E-06,0.020501876
,,,-4.49E-06,0.020375626
,,,-4.48E-06,0.020522501
,,,-4.47E-06,0.020469376
,,,-4.46E-06,0.020397501
,,,-4.45E-06,0.020405001
,,,-4.44E-06,0.020481251
,,,-4.43E-06,0.020500001
,,,-4.42E-06,0.020472501
,,,-4.41E-06,0.020332501
,,,-4.4E-06,0.020541876
,,,-4.39E-06,0.020706251
,,,-4.38E-06,0.020596876
,,,-4.37E-06,0.020411251
,,,-4.36E-06,0.020418126
,,,-4.35E-06,0.020506876
,,,-4.34E-06,0.020473126
,,,-4.33E-06,0.020638126
,,,-4.32E-06,0.020740001
,,,-4.31E-06,0.020789376
,,,-4.3E-06,0.020860001
,,,-4.29E-06,0.020601251
,,,-4.28E-06,0.020308751
,,,-4.27E-06,0.020595001
,,,-4.26E-06,0.020418126
,,,-4.25E-06,0.020434376
,,,-4.24E-06,0.020611876
,,,-4.23E-06,0.020350626
,,,-4.22E-06,0.020606251
,,,-4.21E-06,0.020466876
,,,-4.2E-06,0.020616251
,,,-4.19E-06,0.020616876
,,,-4.18E-06,0.020513126
,,,-4.17E-06,0.020647501
,,,-4.16E-06,0.020817501
,,,-4.15E-06,0.020483126
,,,-4.14E-06,0.020245001
,,,-4.13E-06,0.020430626
,,,-4.12E-06,0.020381876
,,,-4.11E-06,0.020586251
,,,-4.1E-06,0.020518126
,,,-4.09E-06,0.020475626
,,,-4.08E-06,0.020504376
,,,-4.07E-06,0.020705001
,,,-4.06E-06,0.020568126
,,,-4.05E-06,0.020530626
,,,-4.04E-06,0.020560626
,,,-4.03E-06,0.020476251
,,,-4.02E-06,0.020521876
,,,-4.01E-06,0.020800001
,,,-4E-06,0.020428751
,,,-3.99E-06,0.020576251
,,,-3.98E-06,0.020542501
,,,-3.97E-06,0.020333126
,,,-3.96E-06,0.020718751
,,,-3.95E-06,0.020487501
,,,-3.94E-06,0.020350626
,,,-3.93E-06,0.020377501
,,,-3.92E-06,0.020360001
,,,-3.91E-06,0.020657501
,,,-3.9E-06,0.020749376
,,,-3.89E-06,0.020572501
,,,-3.88E-06,0.020321876
,,,-3.87E-06,0.020412501
,,,-3.86E-06,0.020553126
,,,-3.85E-06,0.020540001
,,,-3.84E-06,0.020403126
,,,-3.83E-06,0.020526876
,,,-3.82E-06,0.020518126
,,,-3.81E-06,0.020566251
,,,-3.8E-06,0.020769376
,,,-3.79E-06,0.020613126
,,,-3.78E-06,0.020759376
,,,-3.77E-06,0.020193751
,,,-3.76E-06,0.020582501
,,,-3.75E-06,0.020355001
,,,-3.74E-06,0.020572501
,,,-3.73E-06,0.020503126
,,,-3.72E-06,0.020758126
,,,-3.71E-06,0.020246876
,,,-3.7E-06,0.020500626
,,,-3.69E-06,0.020663751
,,,-3.68E-06,0.020788126
,,,-3.67E-06,0.020492501
,,,-3.66E-06,0.020477501
,,,-3.65E-06,0.020678126
,,,-3.64E-06,0.020746876
,,,-3.63E-06,0.020593751
,,,-3.62E-06,0.020726876
,,,-3.61E-06,0.020394376
,,,-3.6E-06,0.020647501
,,,-3.59E-06,0.020620001
,,,-3.58E-06,0.020353751
,,,-3.57E-06,0.020503751
,,,-3.56E-06,0.020775001
,,,-3.55E-06,0.020586251
,,,-3.54E-06,0.020513126
,,,-3.53E-06,0.020728126
,,,-3.52E-06,0.020360001
,,,-3.51E-06,0.020543126
,,,-3.5E-06,0.020554376
,,,-3.49E-06,0.020483126
,,,-3.48E-06,0.020716876
,,,-3.47E-06,0.020742501
,,,-3.46E-06,0.020790001
,,,-3.45E-06,0.020387501
,,,-3.44E-06,0.020658126
,,,-3.43E-06,0.020515626
,,,-3.42E-06,0.020529376
,,,-3.41E-06,0.020523126
,,,-3.4E-06,0.020343751
,,,-3.39E-06,0.020454376
,,,-3.38E-06,0.020460626
,,,-3.37E-06,0.020637501
,,,-3.36E-06,0.020579376
,,,-3.35E-06,0.020425626
,,,-3.34E-06,0.020546876
,,,-3.33E-06,0.020511251
,,,-3.32E-06,0.020756876
,,,-3.31E-06,0.020465001
,,,-3.3E-06,0.020331876
,,,-3.29E-06,0.020452501
,,,-3.28E-06,0.020556251
,,,-3.27E-06,0.020406251
,,,-3.26E-06,0.020214376
,,,-3.25E-06,0.020486876
,,,-3.24E-06,0.020407501
,,,-3.23E-06,0.020525626
,,,-3.22E-06,0.020539376
,,,-3.21E-06,0.020706251
,,,-3.2E-06,0.020173751
,,,-3.19E-06,0.020698126
,,,-3.18E-06,0.020542501
,,,-3.17E-06,0.020543751
,,,-3.16E-06,0.020641251
,,,-3.15E-06,0.020581876
,,,-3.14E-06,0.020626251
,,,-3.13E-06,0.020392501
,,,-3.12E-06,0.020436251
,,,-3.11E-06,0.020628126
,,,-3.1E-06,0.020717501
,,,-3.09E-06,0.020570626
,,,-3.08E-06,0.020395001
,,,-3.07E-06,0.020723751
,,,-3.06E-06,0.020647501
,,,-3.05E-06,0.020355001
,,,-3.04E-06,0.020537501
,,,-3.03E-06,0.020493126
,,,-3.02E-06,0.020520001
,,,-3.01E-06,0.020398126
,,,-3E-06,0.020355001
,,,-2.99E-06,0.020681251
,,,-2.98E-06,0.020456251
,,,-2.97E-06,0.020837501
,,,-2.96E-06,0.020526251
,,,-2.95E-06,0.020650001
,,,-2.94E-06,0.020370001
,,,-2.93E-06,0.020381876
,,,-2.92E-06,0.020614376
,,,-2.91E-06,0.020588126
,,,-2.9E-06,0.020535626
,,,-2.89E-06,0.020740001
,,,-2.88E-06,0.020403751
,,,-2.87E-06,0.020688751
,,,-2.86E-06,0.020519376
,,,-2.85E-06,0.020389376
,,,-2.84E-06,0.020375001
,,,-2.83E-06,0.020631876
,,,-2.82E-06,0.020508751
,,,-2.81E-06,0.020748126
,,,-2.8E-06,0.020373751
,,,-2.79E-06,0.020757501
,,,-2.78E-06,0.020437501
,,,-2.77E-06,0.020448126
,,,-2.76E-06,0.020463126
,,,-2.75E-06,0.020473751
,,,-2.74E-06,0.020656251
,,,-2.73E-06,0.020709376
,,,-2.72E-06,0.020549376
,,,-2.71E-06,0.020507501
,,,-2.7E-06,0.020216251
,,,-2.69E-06,0.020698751
,,,-2.68E-06,0.020537501
,,,-2.67E-06,0.020660001
,,,-2.66E-06,0.020536251
,,,-2.65E-06,0.020436251
,,,-2.64E-06,0.020473126
,,,-2.63E-06,0.020684376
,,,-2.62E-06,0.020560001
,,,-2.61E-06,0.020475001
,,,-2.6E-06,0.020505001
,,,-2.59E-06,0.020650626
,,,-2.58E-06,0.020586876
,,,-2.57E-06,0.020246251
,,,-2.56E-06,0.020263126
,,,-2.55E-06,0.020566251
,,,-2.54E-06,0.020341251
,,,-2.53E-06,0.020243751
,,,-2.52E-06,0.020392501
,,,-2.51E-06,0.020551251
,,,-2.5E-06,0.020395001
,,,-2.49E-06,0.020573126
,,,-2.48E-06,0.020625001
,,,-2.47E-06,0.020754376
,,,-2.46E-06,0.020460001
,,,-2.45E-06,0.020507501
,,,-2.44E-06,0.020268751
,,,-2.43E-06,0.020835626
,,,-2.42E-06,0.020438126
,,,-2.41E-06,0.020735001
,,,-2.4E-06,0.020581876
,,,-2.39E-06,0.020666876
,,,-2.38E-06,0.020482501
,,,-2.37E-06,0.020780001
,,,-2.36E-06,0.020288126
,,,-2.35E-06,0.020500626
,,,-2.34E-06,0.020484376
,,,-2.33E-06,0.020573126
,,,-2.32E-06,0.020375001
,,,-2.31E-06,0.020765001
,,,-2.3E-06,0.020403126
,,,-2.29E-06,0.020504376
,,,-2.28E-06,0.020568751
,,,-2.27E-06,0.020543126
,,,-2.26E-06,0.020662501
,,,-2.25E-06,0.020473751
,,,-2.24E-06,0.020618126
,,,-2.23E-06,0.020655626
,,,-2.22E-06,0.020713126
,,,-2.21E-06,0.020716251
,,,-2.2E-06,0.020337501
,,,-2.19E-06,0.020471251
,,,-2.18E-06,0.020483751
,,,-2.17E-06,0.020640001
,,,-2.16E-06,0.020471876
,,,-2.15E-06,0.020355626
,,,-2.14E-06,0.020794376
,,,-2.13E-06,0.020385001
,,,-2.12E-06,0.020308126
,,,-2.11E-06,0.020409376
,,,-2.1E-06,0.020433126
,,,-2.09E-06,0.020632501
,,,-2.08E-06,0.020421876
,,,-2.07E-06,0.020653751
,,,-2.06E-06,0.020530001
,,,-2.05E-06,0.020370001
,,,-2.04E-06,0.020752501
,,,-2.03E-06,0.020604376
,,,-2.02E-06,0.020435626
,,,-2.01E-06,0.020430626
,,,-2E-06,0.020440626
,,,-1.99E-06,0.020449376
,,,-1.98E-06,0.020704376
,,,-1.97E-06,0.020285001
,,,-1.96E-06,0.020563126
,,,-1.95E-06,0.020578751
,,,-1.94E-06,0.020361251
,,,-1.93E-06,0.020574376
,,,-1.92E-06,0.020658751
,,,-1.91E-06,0.020604376
,,,-1.9E-06,0.020758126
,,,-1.89E-06,0.020568751
,,,-1.88E-06,0.020623126
,,,-1.87E-06,0.020420626
,,,-1.86E-06,0.020603126
,,,-1.85E-06,0.020611251
,,,-1.84E-06,0.020393751
,,,-1.83E-06,0.020895626
,,,-1.82E-06,0.020307501
,,,-1.81E-06,0.020752501
,,,-1.8E-06,0.020645626
,,,-1.79E-06,0.020612501
,,,-1.78E-06,0.020473751
,,,-1.77E-06,0.020710001
,,,-1.76E-06,0.020632501
,,,-1.75E-06,0.020680626
,,,-1.74E-06,0.020500626
,,,-1.73E-06,0.020548751
,,,-1.72E-06,0.020590001
,,,-1.71E-06,0.020680001
,,,-1.7E-06,0.020482501
,,,-1.69E-06,0.020685001
,,,-1.68E-06,0.020707501
,,,-1.67E-06,0.020612501
,,,-1.66E-06,0.020510626
,,,-1.65E-06,0.020631876
,,,-1.64E-06,0.020621251
,,,-1.63E-06,0.020388751
,,,-1.62E-06,0.020322501
,,,-1.61E-06,0.020418126
,,,-1.6E-06,0.020541876
,,,-1.59E-06,0.020608126
,,,-1.58E-06,0.020481876
,,,-1.57E-06,0.020448751
,,,-1.56E-06,0.020338751
,,,-1.55E-06,0.020705626
,,,-1.54E-06,0.020658751
,,,-1.53E-06,0.020650626
,,,-1.52E-06,0.020397501
,,,-1.51E-06,0.020383126
,,,-1.5E-06,0.020589376
,,,-1.49E-06,0.020678126
,,,-1.48E-06,0.020497501
,,,-1.47E-06,0.020391251
,,,-1.46E-06,0.020401251
,,,-1.45E-06,0.020329376
,,,-1.44E-06,0.020390001
,,,-1.43E-06,0.020603751
,,,-1.42E-06,0.020580626
,,,-1.41E-06,0.020542501
,,,-1.4E-06,0.020355626
,,,-1.39E-06,0.020611876
,,,-1.38E-06,0.020510626
,,,-1.37E-06,0.020590626
,,,-1.36E-06,0.020551876
,,,-1.35E-06,0.020481251
,,,-1.34E-06,0.020411251
,,,-1.33E-06,0.020476251
,,,-1.32E-06,0.020555626
,,,-1.31E-06,0.020453126
,,,-1.3E-06,0.020565001
,,,-1.29E-06,0.020571876
,,,-1.28E-06,0.020329376
,,,-1.27E-06,0.020388751
,,,-1.26E-06,0.020554376
,,,-1.25E-06,0.020520001
,,,-1.24E-06,0.020698126
,,,-1.23E-06,0.020305001
,,,-1.22E-06,0.020646251
,,,-1.21E-06,0.020381876
,,,-1.2E-06,0.020820001
,,,-1.19E-06,0.020549376
,,,-1.18E-06,0.020454376
,,,-1.17E-06,0.020385626
,,,-1.16E-06,0.020800626
,,,-1.15E-06,0.020589376
,,,-1.14E-06,0.020721251
,,,-1.13E-06,0.020456876
,,,-1.12E-06,0.020354376
,,,-1.11E-06,0.020348751
,,,-1.1E-06,0.020483126
,,,-1.09E-06,0.020643751
,,,-1.08E-06,0.020572501
,,,-1.07E-06,0.020614376
,,,-1.06E-06,0.020555001
,,,-1.05E-06,0.020435626
,,,-1.04E-06,0.020679376
,,,-1.03E-06,0.020498126
,,,-1.02E-06,0.020496251
,,,-1.01E-06,0.020393126
,,,-1E-06,0.020579376
,,,-9.9E-07,0.020612501
,,,-9.8E-07,0.020892501
,,,-9.7E-07,0.020443751
,,,-9.6E-07,0.020696876
,,,-9.5E-07,0.020353751
,,,-9.4E-07,0.020610626
,,,-9.3E-07,0.020613751
,,,-9.2E-07,0.020578126
,,,-9.1E-07,0.020415001
,,,-9E-07,0.020635626
,,,-8.9E-07,0.020276876
,,,-8.8E-07,0.020528126
,,,-8.7E-07,0.020513126
,,,-8.6E-07,0.020641251
,,,-8.5E-07,0.020401876
,,,-8.4E-07,0.020689376
,,,-8.3E-07,0.020526876
,,,-8.2E-07,0.020551876
,,,-8.1E-07,0.020498126
,,,-8E-07,0.020379376
,,,-7.9E-07,0.020456251
,,,-7.8E-07,0.020435001
,,,-7.7E-07,0.020311251
,,,-7.6E-07,0.020988126
,,,-7.5E-07,0.020545001
,,,-7.4E-07,0.020582501
,,,-7.3E-07,0.020377501
,,,-7.2E-07,0.020382501
,,,-7.1E-07,0.020405001
,,,-7E-07,0.020580001
,,,-6.9E-07,0.020521876
,,,-6.8E-07,0.020646876
,,,-6.7E-07,0.020321876
,,,-6.6E-07,0.020668751
,,,-6.5E-07,0.020620626
,,,-6.4E-07,0.020407501
,,,-6.3E-07,0.020469376
,,,-6.2E-07,0.020485626
,,,-6.1E-07,0.020506876
,,,-6E-07,0.020587501
,,,-5.9E-07,0.020830626
,,,-5.8E-07,0.020611876
,,,-5.7E-07,0.020545626
,,,-5.6E-07,0.020591251
,,,-5.5E-07,0.020481876
,,,-5.4E-07,0.020380001
,,,-5.3E-07,0.020476251
,,,-5.2E-07,0.020650001
,,,-5.1E-07,0.020508751
,,,-5E-07,0.020281876
,,,-4.9E-07,0.020557501
,,,-4.8E-07,0.020703751
,,,-4.7E-07,0.020693126
,,,-4.6E-07,0.020364376
,,,-4.5E-07,0.020700001
,,,-4.4E-07,0.020833126
,,,-4.3E-07,0.020625001
,,,-4.2E-07,0.020362501
,,,-4.1E-07,0.020601876
,,,-4E-07,0.020251876
,,,-3.9E-07,0.020510626
,,,-3.8E-07,0.020525626
,,,-3.7E-07,0.020679376
,,,-3.6E-07,0.020516251
,,,-3.5E-07,0.020538126
,,,-3.4E-07,0.020648126
,,,-3.3E-07,0.020519376
,,,-3.2E-07,0.020670001
,,,-3.1E-07,0.020257501
,,,-3E-07,0.020401251
,,,-2.9E-07,0.020527501
,,,-2.8E-07,0.020368126
,,,-2.7E-07,0.020683751
,,,-2.6E-07,0.020570626
,,,-2.5E-07,0.020537501
,,,-2.4E-07,0.020311876
,,,-2.3E-07,0.020323751
,,,-2.2E-07,0.020631876
,,,-2.1E-07,0.020526251
,,,-2E-07,0.020243751
,,,-1.9E-07,0.020612501
,,,-1.8E-07,0.020637501
,,,-1.7E-07,0.020425001
,,,-1.6E-07,0.020727501
,,,-1.5E-07,0.020558751
,,,-1.4E-07,0.020531251
,,,-1.3E-07,0.020352501
,,,-1.2E-07,0.020515001
,,,-1.1E-07,0.020350626
,,,-1E-07,0.020371876
,,,-9E-08,0.020466251
,,,-8E-08,0.020770001
,,,-7E-08,0.020415001
,,,-6E-08,0.020511876
,,,-5E-08,0.020634376
,,,-4E-08,0.021075626
,,,-3E-08,0.020162501
,,,-2E-08,0.019636251
,,,-1E-08,0.018843126
,,,0,0.021010626
,,,1E-08,0.022045001
,,,2E-08,0.022446876
,,,3E-08,0.020838126
,,,4E-08,0.019804376
,,,5E-08,0.019494376
,,,6E-08,0.019632501
,,,7E-08,0.020750001
,,,8E-08,0.021265626
,,,9E-08,0.021522501
,,,1E-07,0.020857501
,,,1.1E-07,0.020275626
,,,1.2E-07,0.020076876
,,,1.3E-07,0.020499376
,,,1.4E-07,0.020588751
,,,1.5E-07,0.020631251
,,,1.6E-07,0.020656876
,,,1.7E-07,0.020603126
,,,1.8E-07,0.020483751
,,,1.9E-07,0.020892501
,,,2E-07,0.020413751
,,,2.1E-07,0.020374376
,,,2.2E-07,0.020675626
,,,2.3E-07,0.020681876
,,,2.4E-07,0.020641251
,,,2.5E-07,0.020356876
,,,2.6E-07,0.020436876
,,,2.7E-07,0.020627501
,,,2.8E-07,0.020379376
,,,2.9E-07,0.020424376
,,,3E-07,0.020546876
,,,3.1E-07,0.020533751
,,,3.2E-07,0.020343751
,,,3.3E-07,0.020652501
,,,3.4E-07,0.020677501
,,,3.5E-07,0.020797501
,,,3.6E-07,0.020413126
,,,3.7E-07,0.020437501
,,,3.8E-07,0.020508751
,,,3.9E-07,0.020705001
,,,4E-07,0.020537501
,,,4.1E-07,0.020508751
,,,4.2E-07,0.020539376
,,,4.3E-07,0.020625626
,,,4.4E-07,0.020451876
,,,4.5E-07,0.020420626
,,,4.6E-07,0.020718126
,,,4.7E-07,0.020365626
,,,4.8E-07,0.020384376
,,,4.9E-07,0.020641251
,,,5E-07,0.020574376
,,,5.1E-07,0.020541251
,,,5.2E-07,0.020564376
,,,5.3E-07,0.020445626
,,,5.4E-07,0.020663751
,,,5.5E-07,0.020362501
,,,5.6E-07,0.020545626
,,,5.7E-07,0.020613126
,,,5.8E-07,0.020463751
,,,5.9E-07,0.020367501
,,,6E-07,0.020408126
,,,6.1E-07,0.020610001
,,,6.2E-07,0.020310001
,,,6.3E-07,0.020605001
,,,6.4E-07,0.020492501
,,,6.5E-07,0.020608751
,,,6.6E-07,0.020807501
,,,6.7E-07,0.020601876
,,,6.8E-07,0.020503751
,,,6.9E-07,0.020270001
,,,7E-07,0.020460001
,,,7.1E-07,0.020459376
,,,7.2E-07,0.020580626
,,,7.3E-07,0.020745626
,,,7.4E-07,0.020731876
,,,7.5E-07,0.020666251
,,,7.6E-07,0.020395001
,,,7.7E-07,0.020537501
,,,7.8E-07,0.020498751
,,,7.9E-07,0.020525001
,,,8E-07,0.020435001
,,,8.1E-07,0.020645001
,,,8.2E-07,0.020276251
,,,8.3E-07,0.020635001
,,,8.4E-07,0.020890001
,,,8.5E-07,0.020448751
,,,8.6E-07,0.020388126
,,,8.7E-07,0.020365626
,,,8.8E-07,0.020460626
,,,8.9E-07,0.020478126
,,,9E-07,0.020667501
,,,9.1E-07,0.020550001
,,,9.2E-07,0.020535626
,,,9.3E-07,0.020306251
,,,9.4E-07,0.020420626
,,,9.5E-07,0.020691251
,,,9.6E-07,0.020347501
,,,9.7E-07,0.020630626
,,,9.8E-07,0.020753751
,,,9.9E-07,0.020583751
,,,1E-06,0.020565626
,,,1.01E-06,0.020718126
,,,1.02E-06,0.020531251
,,,1.03E-06,0.020377501
,,,1.04E-06,0.020627501
,,,1.05E-06,0.020598126
,,,1.06E-06,0.020459376
,,,1.07E-06,0.020640001
,,,1.08E-06,0.020591876
,,,1.09E-06,0.020585626
,,,1.1E-06,0.020420001
,,,1.11E-06,0.020409376
,,,1.12E-06,0.020471251
,,,1.13E-06,0.020369376
,,,1.14E-06,0.020416876
,,,1.15E-06,0.020553751
,,,1.16E-06,0.020674376
,,,1.17E-06,0.020345626
,,,1.18E-06,0.020875001
,,,1.19E-06,0.020409376
,,,1.2E-06,0.020393751
,,,1.21E-06,0.020496251
,,,1.22E-06,0.020620626
,,,1.23E-06,0.020705001
,,,1.24E-06,0.020184376
,,,1.25E-06,0.020494376
,,,1.26E-06,0.020295001
,,,1.27E-06,0.020481251
,,,1.28E-06,0.020645001
,,,1.29E-06,0.020390001
,,,1.3E-06,0.020285001
,,,1.31E-06,0.020592501
,,,1.32E-06,0.020543126
,,,1.33E-06,0.020541876
,,,1.34E-06,0.020741876
,,,1.35E-06,0.020212501
,,,1.36E-06,0.020654376
,,,1.37E-06,0.020786251
,,,1.38E-06,0.020581876
,,,1.39E-06,0.020725626
,,,1.4E-06,0.020697501
,,,1.41E-06,0.020403126
,,,1.42E-06,0.020401251
,,,1.43E-06,0.020232501
,,,1.44E-06,0.020547501
,,,1.45E-06,0.020483751
,,,1.46E-06,0.020436876
,,,1.47E-06,0.020680001
,,,1.48E-06,0.020324376
,,,1.49E-06,0.020676876
,,,1.5E-06,0.020492501
,,,1.51E-06,0.020368126
,,,1.52E-06,0.020419376
,,,1.53E-06,0.020474376
,,,1.54E-06,0.020606876
,,,1.55E-06,0.020309376
,,,1.56E-06,0.020740626
,,,1.57E-06,0.020376876
,,,1.58E-06,0.020606251
,,,1.59E-06,0.020455001
,,,1.6E-06,0.020565001
,,,1.61E-06,0.020435001
,,,1.62E-06,0.020476876
,,,1.63E-06,0.020536876
,,,1.64E-06,0.020581876
,,,1.65E-06,0.020473126
,,,1.66E-06,0.020533126
,,,1.67E-06,0.020514376
,,,1.68E-06,0.020659376
,,,1.69E-06,0.020283126
,,,1.7E-06,0.020351876
,,,1.71E-06,0.020588751
,,,1.72E-06,0.020486876
,,,1.73E-06,0.020466251
,,,1.74E-06,0.020406251
,,,1.75E-06,0.020435001
,,,1.76E-06,0.020675001
,,,1.77E-06,0.020405001
,,,1.78E-06,0.020553126
,,,1.79E-06,0.020611251
,,,1.8E-06,0.020740626
,,,1.81E-06,0.020487501
,,,1.82E-06,0.020441876
,,,1.83E-06,0.020494376
,,,1.84E-06,0.020820626
,,,1.85E-06,0.020273126
,,,1.86E-06,0.020472501
,,,1.87E-06,0.020466251
,,,1.88E-06,0.020567501
,,,1.89E-06,0.020645626
,,,1.9E-06,0.020416876
,,,1.91E-06,0.020328751
,,,1.92E-06,0.020696876
,,,1.93E-06,0.020433126
,,,1.94E-06,0.020590626
,,,1.95E-06,0.020545626
,,,1.96E-06,0.020515001
,,,1.97E-06,0.020538751
,,,1.98E-06,0.020347501
,,,1.99E-06,0.020690001
,,,2E-06,0.020538751
,,,2.01E-06,0.020460626
,,,2.02E-06,0.020371876
,,,2.03E-06,0.020397501
,,,2.04E-06,0.020558751
,,,2.05E-06,0.020528751
,,,2.06E-06,0.020431251
,,,2.07E-06,0.020531251
,,,2.08E-06,0.020506251
,,,2.09E-06,0.020366251
,,,2.1E-06,0.020568751
,,,2.11E-06,0.020607501
,,,2.12E-06,0.020847501
,,,2.13E-06,0.020388751
,,,2.14E-06,0.020453751
,,,2.15E-06,0.020375001
,,,2.16E-06,0.020384376
,,,2.17E-06,0.020733751
,,,2.18E-06,0.020403751
,,,2.19E-06,0.020715001
,,,2.2E-06,0.020647501
,,,2.21E-06,0.020684376
,,,2.22E-06,0.020267501
,,,2.23E-06,0.020666251
,,,2.24E-06,0.020325626
,,,2.25E-06,0.020358126
,,,2.26E-06,0.020840001
,,,2.27E-06,0.020457501
,,,2.28E-06,0.020371876
,,,2.29E-06,0.020380001
,,,2.3E-06,0.020726251
,,,2.31E-06,0.020375626
,,,2.32E-06,0.020466876
,,,2.33E-06,0.020356251
,,,2.34E-06,0.020266251
,,,2.35E-06,0.020470001
,,,2.36E-06,0.020404376
,,,2.37E-06,0.020619376
,,,2.38E-06,0.020689376
,,,2.39E-06,0.020864376
,,,2.4E-06,0.020613751
,,,2.41E-06,0.020606251
,,,2.42E-06,0.020461876
,,,2.43E-06,0.020461876
,,,2.44E-06,0.020679376
,,,2.45E-06,0.020621251
,,,2.46E-06,0.020601251
,,,2.47E-06,0.020691876
,,,2.48E-06,0.020534376
,,,2.49E-06,0.020510626
,,,2.5E-06,0.020443126
,,,2.51E-06,0.020416251
,,,2.52E-06,0.020508126
,,,2.53E-06,0.020605001
,,,2.54E-06,0.020675001
,,,2.55E-06,0.020320001
,,,2.56E-06,0.020775001
,,,2.57E-06,0.020506251
,,,2.58E-06,0.020266251
,,,2.59E-06,0.020240001
,,,2.6E-06,0.020661876
,,,2.61E-06,0.020474376
,,,2.62E-06,0.020511251
,,,2.63E-06,0.020723751
,,,2.64E-06,0.020674376
,,,2.65E-06,0.020491251
,,,2.66E-06,0.020566876
,,,2.67E-06,0.020523751
,,,2.68E-06,0.020496251
,,,2.69E-06,0.020414376
,,,2.7E-06,0.020475626
,,,2.71E-06,0.020638751
,,,2.72E-06,0.020473751
,,,2.73E-06,0.020418126
,,,2.74E-06,0.020880626
,,,2.75E-06,0.020567501
,,,2.76E-06,0.020438126
,,,2.77E-06,0.020405626
,,,2.78E-06,0.020428126
,,,2.79E-06,0.020555626
,,,2.8E-06,0.020491251
,,,2.81E-06,0.020563751
,,,2.82E-06,0.020470626
,,,2.83E-06,0.020663751
,,,2.84E-06,0.020351251
,,,2.85E-06,0.020339376
,,,2.86E-06,0.020835626
,,,2.87E-06,0.020759376
,,,2.88E-06,0.020328751
,,,2.89E-06,0.020559376
,,,2.9E-06,0.020430626
,,,2.91E-06,0.020547501
,,,2.92E-06,0.020487501
,,,2.93E-06,0.020535626
,,,2.94E-06,0.020460001
,,,2.95E-06,0.020473751
,,,2.96E-06,0.020338126
,,,2.97E-06,0.020326876
,,,2.98E-06,0.020361876
,,,2.99E-06,0.020567501
,,,3E-06,0.020610001
,,,3.01E-06,0.020517501
,,,3.02E-06,0.020526251
,,,3.03E-06,0.020400626
,,,3.04E-06,0.020531876
,,,3.05E-06,0.020530626
,,,3.06E-06,0.020579376
,,,3.07E-06,0.020687501
,,,3.08E-06,0.020516251
,,,3.09E-06,0.020615001
,,,3.1E-06,0.020780626
,,,3.11E-06,0.020676876
,,,3.12E-06,0.020505001
,,,3.13E-06,0.020551251
,,,3.14E-06,0.020525001
,,,3.15E-06,0.020450001
,,,3.16E-06,0.020421876
,,,3.17E-06,0.020721251
,,,3.18E-06,0.020408126
,,,3.19E-06,0.020596251
,,,3.2E-06,0.020911876
,,,3.21E-06,0.020518751
