data/raw/Final_POL_Test_1/SOP053_Ch2.csv

"Record Length",1000,"Points",-5E-06,0.022421875
"Sample Interval",1E-08,s,-4.99E-06,0.02239375
"Trigger Point",500,"Samples",-4.98E-06,0.022181875
"Trigger Time",0,s,-4.97E-06,0.02217125
"",,,-4.96E-06,0.022195
"Horizontal Offset",-5E-06,s,-4.95E-06,0.022338125
,,,-4.94E-06,0.022348125
,,,-4.93E-06,0.022200625
,,,-4.92E-06,0.022444375
,,,-4.91E-06,0.022541875
,,,-4.9E-06,0.022393125
,,,-4.89E-06,0.0222275
,,,-4.88E-06,0.022221875
,,,-4.87E-06,0.0225025
,,,-4.86E-06,0.02236
,,,-4.85E-06,0.022130625
,,,-4.84E-06,0.022229375
,,,-4.83E-06,0.02237125
,,,-4.82E-06,0.02230875
,,,-4.81E-06,0.022225625
,,,-4.8E-06,0.022484375
,,,-4.79E-06,0.022090625
,,,-4.78E-06,0.022593125
,,,-4.77E-06,0.02198375
,,,-4.76E-06,0.02231625
,,,-4.75E-06,0.0222975
,,,-4.74E-06,0.022771875
,,,-4.73E-06,0.02229
,,,-4.72E-06,0.022371875
,,,-4.71E-06,0.022323125
,,,-4.7E-06,0.022413125
,,,-4.69E-06,0.022138125
,,,-4.68E-06,0.022218125
,,,-4.67E-06,0.022485625
,,,-4.66E-06,0.02229
,,,-4.65E-06,0.022378125
,,,-4.64E-06,0.022393125
,,,-4.63E-06,0.0222025
,,,-4.62E-06,0.022111875
,,,-4.61E-06,0.022323125
,,,-4.6E-06,0.02241875
,,,-4.59E-06,0.02217375
,,,-4.58E-06,0.0222725
,,,-4.57E-06,0.02239875
,,,-4.56E-06,0.022646875
,,,-4.55E-06,0.022340625
,,,-4.54E-06,0.022625625
,,,-4.53E-06,0.02223
,,,-4.52E-06,0.02229625
,,,-4.51E-06,0.02237125
,,,-4.5E-06,0.02233125
,,,-4.49E-06,0.02236
,,,-4.48E-06,0.02205625
,,,-4.47E-06,0.022334375
,,,-4.46E-06,0.02214625
,,,-4.45E-06,0.02236875
,,,-4.44E-06,0.022563125
,,,-4.43E-06,0.0223775
,,,-4.42E-06,0.022390625
,,,-4.41E-06,0.022546875
,,,-4.4E-06,0.0225625
,,,-4.39E-06,0.022331875
,,,-4.38E-06,0.0221675
,,,-4.37E-06,0.022394375
,,,-4.36E-06,0.022205625
,,,-4.35E-06,0.022059375
,,,-4.34E-06,0.02226
,,,-4.33E-06,0.02247375
,,,-4.32E-06,0.02254
,,,-4.31E-06,0.02233
,,,-4.3E-06,0.021988125
,,,-4.29E-06,0.02208125
,,,-4.28E-06,0.02234875
,,,-4.27E-06,0.022359375
,,,-4.26E-06,0.022395625
,,,-4.25E-06,0.02210375
,,,-4.24E-06,0.022176875
,,,-4.23E-06,0.022433125
,,,-4.22E-06,0.02247125
,,,-4.21E-06,0.02222625
,,,-4.2E-06,0.022245625
,,,-4.19E-06,0.02234125
,,,-4.18E-06,0.022348125
,,,-4.17E-06,0.022211875
,,,-4.16E-06,0.022459375
,,,-4.15E-06,0.02241625
,,,-4.14E-06,0.022175625
,,,-4.13E-06,0.022473125
,,,-4.12E-06,0.02223375
,,,-4.11E-06,0.022319375
,,,-4.1E-06,0.02249125
,,,-4.09E-06,0.022285625
,,,-4.08E-06,0.02250375
,,,-4.07E-06,0.0223525
,,,-4.06E-06,0.02211625
,,,-4.05E-06,0.022398125
,,,-4.04E-06,0.0223575
,,,-4.03E-06,0.022310625
,,,-4.02E-06,0.022429375
,,,-4.01E-06,0.022395
,,,-4E-06,0.022331875
,,,-3.99E-06,0.02245875
,,,-3.98E-06,0.0224925
,,,-3.97E-06,0.0223875
,,,-3.96E-06,0.0225175
,,,-3.95E-06,0.02228875
,,,-3.94E-06,0.022358125
,,,-3.93E-06,0.022389375
,,,-3.92E-06,0.022436875
,,,-3.91E-06,0.022221875
,,,-3.9E-06,0.02239625
,,,-3.89E-06,0.0220925
,,,-3.88E-06,0.0222325
,,,-3.87E-06,0.022260625
,,,-3.86E-06,0.022178125
,,,-3.85E-06,0.022276875
,,,-3.84E-06,0.022349375
,,,-3.83E-06,0.022536875
,,,-3.82E-06,0.022300625
,,,-3.81E-06,0.022264375
,,,-3.8E-06,0.022175
,,,-3.79E-06,0.02257
,,,-3.78E-06,0.022564375
,,,-3.77E-06,0.02255
,,,-3.76E-06,0.02243625
,,,-3.75E-06,0.022116875
,,,-3.74E-06,0.022618125
,,,-3.73E-06,0.022455625
,,,-3.72E-06,0.022148125
,,,-3.71E-06,0.022194375
,,,-3.7E-06,0.022469375
,,,-3.69E-06,0.022306875
,,,-3.68E-06,0.02236625
,,,-3.67E-06,0.022341875
,,,-3.66E-06,0.0224625
,,,-3.65E-06,0.0223675
,,,-3.64E-06,0.022324375
,,,-3.63E-06,0.02208
,,,-3.62E-06,0.022226875
,,,-3.61E-06,0.02207125
,,,-3.6E-06,0.022198125
,,,-3.59E-06,0.022605625
,,,-3.58E-06,0.022679375
,,,-3.57E-06,0.022348125
,,,-3.56E-06,0.022409375
,,,-3.55E-06,0.02244
,,,-3.54E-06,0.022534375
,,,-3.53E-06,0.0221775
,,,-3.52E-06,0.022283125
,,,-3.51E-06,0.022296875
,,,-3.5E-06,0.022414375
,,,-3.49E-06,0.0222175
,,,-3.48E-06,0.022083125
,,,-3.47E-06,0.022404375
,,,-3.46E-06,0.022476875
,,,-3.45E-06,0.02230875
,,,-3.44E-06,0.022184375
,,,-3.43E-06,0.02233125
,,,-3.42E-06,0.022251875
,,,-3.41E-06,0.02219375
,,,-3.4E-06,0.0224325
,,,-3.39E-06,0.02230875
,,,-3.38E-06,0.022375625
,,,-3.37E-06,0.02239875
,,,-3.36E-06,0.022333125
,,,-3.35E-06,0.0223525
,,,-3.34E-06,0.022436875
,,,-3.33E-06,0.02247625
,,,-3.32E-06,0.022166875
,,,-3.31E-06,0.022040625
,,,-3.3E-06,0.022695625
,,,-3.29E-06,0.022435
,,,-3.28E-06,0.0224325
,,,-3.27E-06,0.02217
,,,-3.26E-06,0.02255
,,,-3.25E-06,0.0225075
,,,-3.24E-06,0.022309375
,,,-3.23E-06,0.022421875
,,,-3.22E-06,0.022224375
,,,-3.21E-06,0.022370625
,,,-3.2E-06,0.022125
,,,-3.19E-06,0.022459375
,,,-3.18E-06,0.022360625
,,,-3.17E-06,0.02243125
,,,-3.16E-06,0.022349375
,,,-3.15E-06,0.022220625
,,,-3.14E-06,0.022345
,,,-3.13E-06,0.022335
,,,-3.12E-06,0.022353125
,,,-3.11E-06,0.022744375
,,,-3.1E-06,0.02252125
,,,-3.09E-06,0.022593125
,,,-3.08E-06,0.022460625
,,,-3.07E-06,0.022401875
,,,-3.06E-06,0.02205125
,,,-3.05E-06,0.0224025
,,,-3.04E-06,0.0223525
,,,-3.03E-06,0.0221625
,,,-3.02E-06,0.0223075
,,,-3.01E-06,0.022495
,,,-3E-06,0.02218625
,,,-2.99E-06,0.02219875
,,,-2.98E-06,0.022465
,,,-2.97E-06,0.022311875
,,,-2.96E-06,0.021894375
,,,-2.95E-06,0.02226375
,,,-2.94E-06,0.022474375
,,,-2.93E-06,0.022515625
,,,-2.92E-06,0.02221625
,,,-2.91E-06,0.022291875
,,,-2.9E-06,0.0221825
,,,-2.89E-06,0.022334375
,,,-2.88E-06,0.022345625
,,,-2.87E-06,0.02232375
,,,-2.86E-06,0.02227
,,,-2.85E-06,0.022349375
,,,-2.84E-06,0.02253375
,,,-2.83E-06,0.022270625
,,,-2.82E-06,0.022541875
,,,-2.81E-06,0.022318125
,,,-2.8E-06,0.0221575
,,,-2.79E-06,0.022353125
,,,-2.78E-06,0.022505625
,,,-2.77E-06,0.022343125
,,,-2.76E-06,0.022299375
,,,-2.75E-06,0.022319375
,,,-2.74E-06,0.022176875
,,,-2.73E-06,0.02224875
,,,-2.72E-06,0.022279375
,,,-2.71E-06,0.02234875
,,,-2.7E-06,0.02249625
,,,-2.69E-06,0.022284375
,,,-2.68E-06,0.02235125
,,,-2.67E-06,0.022485
,,,-2.66E-06,0.022575625
,,,-2.65E-06,0.02236875
,,,-2.64E-06,0.0224475
,,,-2.63E-06,0.022155625
,,,-2.62E-06,0.022196875
,,,-2.61E-06,0.022443125
,,,-2.6E-06,0.022426875
,,,-2.59E-06,0.022321875
,,,-2.58E-06,0.02228875
,,,-2.57E-06,0.022210625
,,,-2.56E-06,0.022484375
,,,-2.55E-06,0.02226625
,,,-2.54E-06,0.022211875
,,,-2.53E-06,0.022525625
,,,-2.52E-06,0.02230375
,,,-2.51E-06,0.022331875
,,,-2.5E-06,0.022285
,,,-2.49E-06,0.0222475
,,,-2.48E-06,0.022175625
,,,-2.47E-06,0.02223375
,,,-2.46E-06,0.022315625
,,,-2.45E-06,0.022595625
,,,-2.44E-06,0.022385625
,,,-2.43E-06,0.022460625
,,,-2.42E-06,0.022255
,,,-2.41E-06,0.02241625
,,,-2.4E-06,0.02250625
,,,-2.39E-06,0.022383125
,,,-2.38E-06,0.022530625
,,,-2.37E-06,0.02247125
,,,-2.36E-06,0.0224025
,,,-2.35E-06,0.02244625
,,,-2.34E-06,0.0223375
,,,-2.33E-06,0.02243625
,,,-2.32E-06,0.02252875
,,,-2.31E-06,0.022134375
,,,-2.3E-06,0.02224875
,,,-2.29E-06,0.0223975
,,,-2.28E-06,0.02230375
,,,-2.27E-06,0.0224775
,,,-2.26E-06,0.02222625
,,,-2.25E-06,0.02259
,,,-2.24E-06,0.022529375
,,,-2.23E-06,0.022301875
,,,-2.22E-06,0.02230875
,,,-2.21E-06,0.022414375
,,,-2.2E-06,0.022193125
,,,-2.19E-06,0.022204375
,,,-2.18E-06,0.022329375
,,,-2.17E-06,0.0224
,,,-2.16E-06,0.022459375
,,,-2.15E-06,0.022140625
,,,-2.14E-06,0.0224875
,,,-2.13E-06,0.022599375
,,,-2.12E-06,0.022270625
,,,-2.11E-06,0.02229375
,,,-2.1E-06,0.022401875
,,,-2.09E-06,0.02235125
,,,-2.08E-06,0.022216875
,,,-2.07E-06,0.022349375
,,,-2.06E-06,0.02223
,,,-2.05E-06,0.0223025
,,,-2.04E-06,0.0222175
,,,-2.03E-06,0.022379375
,,,-2.02E-06,0.022475625
,,,-2.01E-06,0.022271875
,,,-2E-06,0.022170625
,,,-1.99E-06,0.0224075
,,,-1.98E-06,0.022301875
,,,-1.97E-06,0.022311875
,,,-1.96E-06,0.022285
,,,-1.95E-06,0.02218125
,,,-1.94E-06,0.022271875
,,,-1.93E-06,0.02235125
,,,-1.92E-06,0.022114375
,,,-1.91E-06,0.022508125
,,,-1.9E-06,0.02226375
,,,-1.89E-06,0.0224875
,,,-1.88E-06,0.022128125
,,,-1.87E-06,0.022238125
,,,-1.86E-06,0.022083125
,,,-1.85E-06,0.02246
,,,-1.84E-06,0.02249625
,,,-1.83E-06,0.02237125
,,,-1.82E-06,0.022399375
,,,-1.81E-06,0.022305
,,,-1.8E-06,0.022274375
,,,-1.79E-06,0.022285625
,,,-1.78E-06,0.022231875
,,,-1.77E-06,0.022690625
,,,-1.76E-06,0.022456875
,,,-1.75E-06,0.022621875
,,,-1.74E-06,0.022251875
,,,-1.73E-06,0.02223
,,,-1.72E-06,0.022175625
,,,-1.71E-06,0.022134375
,,,-1.7E-06,0.022395
,,,-1.69E-06,0.02205375
,,,-1.68E-06,0.022196875
,,,-1.67E-06,0.022586875
,,,-1.66E-06,0.022406875
,,,-1.65E-06,0.022220625
,,,-1.64E-06,0.022439375
,,,-1.63E-06,0.02229
,,,-1.62E-06,0.02218375
,,,-1.61E-06,0.02202875
,,,-1.6E-06,0.022319375
,,,-1.59E-06,0.0223175
,,,-1.58E-06,0.022115625
,,,-1.57E-06,0.02236375
,,,-1.56E-06,0.0221475
,,,-1.55E-06,0.02224625
,,,-1.54E-06,0.02226
,,,-1.53E-06,0.022248125
,,,-1.52E-06,0.0224325
,,,-1.51E-06,0.02243375
,,,-1.5E-06,0.022365
,,,-1.49E-06,0.022120625
,,,-1.48E-06,0.02222875
,,,-1.47E-06,0.022126875
,,,-1.46E-06,0.022225625
,,,-1.45E-06,0.02227875
,,,-1.44E-06,0.022535625
,,,-1.43E-06,0.02234625
,,,-1.42E-06,0.022325625
,,,-1.41E-06,0.022446875
,,,-1.4E-06,0.0223425
,,,-1.39E-06,0.022296875
,,,-1.38E-06,0.022569375
,,,-1.37E-06,0.0223125
,,,-1.36E-06,0.02213875
,,,-1.35E-06,0.022286875
,,,-1.34E-06,0.0221875
,,,-1.33E-06,0.022171875
,,,-1.32E-06,0.022383125
,,,-1.31E-06,0.022355
,,,-1.3E-06,0.022429375
,,,-1.29E-06,0.022573125
,,,-1.28E-06,0.022355
,,,-1.27E-06,0.022384375
,,,-1.26E-06,0.022360625
,,,-1.25E-06,0.022226875
,,,-1.24E-06,0.022144375
,,,-1.23E-06,0.022330625
,,,-1.22E-06,0.022285
,,,-1.21E-06,0.022299375
,,,-1.2E-06,0.022221875
,,,-1.19E-06,0.022526875
,,,-1.18E-06,0.022330625
,,,-1.17E-06,0.022359375
,,,-1.16E-06,0.0223025
,,,-1.15E-06,0.02223375
,,,-1.14E-06,0.022246875
,,,-1.13E-06,0.02247375
,,,-1.12E-06,0.022489375
,,,-1.11E-06,0.0223525
,,,-1.1E-06,0.022155
,,,-1.09E-06,0.02226125
,,,-1.08E-06,0.02228
,,,-1.07E-06,0.02209
,,,-1.06E-06,0.022401875
,,,-1.05E-06,0.0221175
,,,-1.04E-06,0.0224275
,,,-1.03E-06,0.022244375
,,,-1.02E-06,0.022316875
,,,-1.01E-06,0.022188125
,,,-1E-06,0.022261875
,,,-9.9E-07,0.022345
,,,-9.8E-07,0.022253125
,,,-9.7E-07,0.022146875
,,,-9.6E-07,0.022193125
,,,-9.5E-07,0.0223425
,,,-9.4E-07,0.02213375
,,,-9.3E-07,0.0224775
,,,-9.2E-07,0.022336875
,,,-9.1E-07,0.022351875
,,,-9E-07,0.0224325
,,,-8.9E-07,0.022123125
,,,-8.8E-07,0.02254
,,,-8.7E-07,0.02231625
,,,-8.6E-07,0.022421875
,,,-8.5E-07,0.022075
,,,-8.4E-07,0.022288125
,,,-8.3E-07,0.0225075
,,,-8.2E-07,0.02229375
,,,-8.1E-07,0.02226125
,,,-8E-07,0.022416875
,,,-7.9E-07,0.02227875
,,,-7.8E-07,0.022459375
,,,-7.7E-07,0.0223525
,,,-7.6E-07,0.022146875
,,,-7.5E-07,0.022064375
,,,-7.4E-07,0.02237375
,,,-7.3E-07,0.02211875
,,,-7.2E-07,0.02232375
,,,-7.1E-07,0.022190625
,,,-7E-07,0.022210625
,,,-6.9E-07,0.022565
,,,-6.8E-07,0.02240125
,,,-6.7E-07,0.022224375
,,,-6.6E-07,0.022310625
,,,-6.5E-07,0.022165
,,,-6.4E-07,0.022243125
,,,-6.3E-07,0.022305625
,,,-6.2E-07,0.02201
,,,-6.1E-07,0.022495625
,,,-6E-07,0.022459375
,,,-5.9E-07,0.02227
,,,-5.8E-07,0.022374375
,,,-5.7E-07,0.02204625
,,,-5.6E-07,0.0224225
,,,-5.5E-07,0.022225625
,,,-5.4E-07,0.02250375
,,,-5.3E-07,0.022494375
,,,-5.2E-07,0.02225
,,,-5.1E-07,0.02242
,,,-5E-07,0.022108125
,,,-4.9E-07,0.02257375
,,,-4.8E-07,0.02227625
,,,-4.7E-07,0.022068125
,,,-4.6E-07,0.0223225
,,,-4.5E-07,0.022518125
,,,-4.4E-07,0.02238875
,,,-4.3E-07,0.0223075
,,,-4.2E-07,0.0220425
,,,-4.1E-07,0.02217625
,,,-4E-07,0.022280625
,,,-3.9E-07,0.022513125
,,,-3.8E-07,0.022358125
,,,-3.7E-07,0.022560625
,,,-3.6E-07,0.022580625
,,,-3.5E-07,0.022428125
,,,-3.4E-07,0.02219375
,,,-3.3E-07,0.022113125
,,,-3.2E-07,0.022226875
,,,-3.1E-07,0.022265
,,,-3E-07,0.02237125
,,,-2.9E-07,0.022230625
,,,-2.8E-07,0.02261125
,,,-2.7E-07,0.022529375
,,,-2.6E-07,0.02245125
,,,-2.5E-07,0.022196875
,,,-2.4E-07,0.022100625
,,,-2.3E-07,0.02250125
,,,-2.2E-07,0.022350625
,,,-2.1E-07,0.02226125
,,,-2E-07,0.022328125
,,,-1.9E-07,0.022109375
,,,-1.8E-07,0.0222975
,,,-1.7E-07,0.022488125
,,,-1.6E-07,0.022185
,,,-1.5E-07,0.022345625
,,,-1.4E-07,0.022400625
,,,-1.3E-07,0.022075625
,,,-1.2E-07,0.022429375
,,,-1.1E-07,0.022650625
,,,-1E-07,0.022255
,,,-9E-08,0.022419375
,,,-8E-08,0.0221725
,,,-7E-08,0.02191125
,,,-6E-08,0.022116875
,,,-5E-08,0.023328125
,,,-4E-08,0.024038125
,,,-3E-08,0.022874375
,,,-2E-08,0.020244375
,,,-1E-08,0.0193175
,,,0,0.02122625
,,,1E-08,0.024015625
,,,2E-08,0.025358125
,,,3E-08,0.0238125
,,,4E-08,0.021821875
,,,5E-08,0.020545
,,,6E-08,0.0201725
,,,7E-08,0.021729375
,,,8E-08,0.02296125
,,,9E-08,0.02386
,,,1E-07,0.0234025
,,,1.1E-07,0.02266125
,,,1.2E-07,0.021515625
,,,1.3E-07,0.0216075
,,,1.4E-07,0.02173
,,,1.5E-07,0.022251875
,,,1.6E-07,0.02246
,,,1.7E-07,0.0224675
,,,1.8E-07,0.02263375
,,,1.9E-07,0.0224275
,,,2E-07,0.022256875
,,,2.1E-07,0.022183125
,,,2.2E-07,0.022161875
,,,2.3E-07,0.02228375
,,,2.4E-07,0.022341875
,,,2.5E-07,0.02245125
,,,2.6E-07,0.02290625
,,,2.7E-07,0.022386875
,,,2.8E-07,0.022421875
,,,2.9E-07,0.022024375
,,,3E-07,0.0223525
,,,3.1E-07,0.02231375
,,,3.2E-07,0.02249375
,,,3.3E-07,0.022126875
,,,3.4E-07,0.0222375
,,,3.5E-07,0.022395
,,,3.6E-07,0.0220575
,,,3.7E-07,0.022516875
,,,3.8E-07,0.0223225
,,,3.9E-07,0.022113125
,,,4E-07,0.02231
,,,4.1E-07,0.022365
,,,4.2E-07,0.022170625
,,,4.3E-07,0.022134375
,,,4.4E-07,0.022278125
,,,4.5E-07,0.02239375
,,,4.6E-07,0.02240625
,,,4.7E-07,0.02235625
,,,4.8E-07,0.022398125
,,,4.9E-07,0.02225
,,,5E-07,0.022475625
,,,5.1E-07,0.02242125
,,,5.2E-07,0.022378125
,,,5.3E-07,0.02240875
,,,5.4E-07,0.02209375
,,,5.5E-07,0.022401875
,,,5.6E-07,0.022450625
,,,5.7E-07,0.02226
,,,5.8E-07,0.02240125
,,,5.9E-07,0.02240125
,,,6E-07,0.022598125
,,,6.1E-07,0.0225025
,,,6.2E-07,0.022371875
,,,6.3E-07,0.02231875
,,,6.4E-07,0.02243625
,,,6.5E-07,0.022329375
,,,6.6E-07,0.022528125
,,,6.7E-07,0.022340625
,,,6.8E-07,0.02238375
,,,6.9E-07,0.022400625
,,,7E-07,0.0225025
,,,7.1E-07,0.0224675
,,,7.2E-07,0.022135
,,,7.3E-07,0.0223525
,,,7.4E-07,0.022284375
,,,7.5E-07,0.02223125
,,,7.6E-07,0.02220875
,,,7.7E-07,0.02217
,,,7.8E-07,0.02236875
,,,7.9E-07,0.02214375
,,,8E-07,0.022191875
,,,8.1E-07,0.022438125
,,,8.2E-07,0.02224625
,,,8.3E-07,0.0223525
,,,8.4E-07,0.022368125
,,,8.5E-07,0.02225125
,,,8.6E-07,0.022551875
,,,8.7E-07,0.022306875
,,,8.8E-07,0.02242125
,,,8.9E-07,0.02236375
,,,9E-07,0.0221725
,,,9.1E-07,0.022409375
,,,9.2E-07,0.02234
,,,9.3E-07,0.022371875
,,,9.4E-07,0.022519375
,,,9.5E-07,0.02235125
,,,9.6E-07,0.022414375
,,,9.7E-07,0.02237
,,,9.8E-07,0.022175
,,,9.9E-07,0.022375
,,,1E-06,0.022295625
,,,1.01E-06,0.022053125
,,,1.02E-06,0.022313125
,,,1.03E-06,0.0224325
,,,1.04E-06,0.02244
,,,1.05E-06,0.022359375
,,,1.06E-06,0.022306875
,,,1.07E-06,0.022493125
,,,1.08E-06,0.022281875
,,,1.09E-06,0.022355
,,,1.1E-06,0.022365
,,,1.11E-06,0.0221475
,,,1.12E-06,0.022571875
,,,1.13E-06,0.0222975
,,,1.14E-06,0.022270625
,,,1.15E-06,0.022316875
,,,1.16E-06,0.022364375
,,,1.17E-06,0.022345625
,,,1.18E-06,0.02219625
,,,1.19E-06,0.0220525
,,,1.2E-06,0.0224475
,,,1.21E-06,0.0224175
,,,1.22E-06,0.022383125
,,,1.23E-06,0.022285
,,,1.24E-06,0.02243625
,,,1.25E-06,0.0224775
,,,1.26E-06,0.022225625
,,,1.27E-06,0.02222375
,,,1.28E-06,0.022388125
,,,1.29E-06,0.022225
,,,1.3E-06,0.0221675
,,,1.31E-06,0.0223725
,,,1.32E-06,0.022203125
,,,1.33E-06,0.022274375
,,,1.34E-06,0.022398125
,,,1.35E-06,0.022285
,,,1.36E-06,0.0225975
,,,1.37E-06,0.022541875
,,,1.38E-06,0.022215
,,,1.39E-06,0.022398125
,,,1.4E-06,0.022450625
,,,1.41E-06,0.02251375
,,,1.42E-06,0.022284375
,,,1.43E-06,0.0222775
,,,1.44E-06,0.022370625
,,,1.45E-06,0.022021875
,,,1.46E-06,0.022396875
,,,1.47E-06,0.02238
,,,1.48E-06,0.022351875
,,,1.49E-06,0.022383125
,,,1.5E-06,0.022671875
,,,1.51E-06,0.02230625
,,,1.52E-06,0.02223625
,,,1.53E-06,0.022620625
,,,1.54E-06,0.022288125
,,,1.55E-06,0.022335625
,,,1.56E-06,0.022203125
,,,1.57E-06,0.022255625
,,,1.58E-06,0.022425625
,,,1.59E-06,0.02205
,,,1.6E-06,0.022420625
,,,1.61E-06,0.02210875
,,,1.62E-06,0.0223475
,,,1.63E-06,0.022095
,,,1.64E-06,0.022404375
,,,1.65E-06,0.0221725
,,,1.66E-06,0.02242875
,,,1.67E-06,0.02222875
,,,1.68E-06,0.02226375
,,,1.69E-06,0.0223575
,,,1.7E-06,0.02230125
,,,1.71E-06,0.022129375
,,,1.72E-06,0.02231375
,,,1.73E-06,0.022214375
,,,1.74E-06,0.022515
,,,1.75E-06,0.02235125
,,,1.76E-06,0.022341875
,,,1.77E-06,0.022316875
,,,1.78E-06,0.022454375
,,,1.79E-06,0.0223975
,,,1.8E-06,0.022484375
,,,1.81E-06,0.02230875
,,,1.82E-06,0.022275625
,,,1.83E-06,0.022304375
,,,1.84E-06,0.022220625
,,,1.85E-06,0.021981875
,,,1.86E-06,0.022296875
,,,1.87E-06,0.022249375
,,,1.88E-06,0.022358125
,,,1.89E-06,0.022375625
,,,1.9E-06,0.022661875
,,,1.91E-06,0.022254375
,,,1.92E-06,0.02236
,,,1.93E-06,0.022535
,,,1.94E-06,0.02246625
,,,1.95E-06,0.0221275
,,,1.96E-06,0.0222425
,,,1.97E-06,0.02253875
,,,1.98E-06,0.022350625
,,,1.99E-06,0.02249125
,,,2E-06,0.02261
,,,2.01E-06,0.0225425
,,,2.02E-06,0.02217875
,,,2.03E-06,0.02222375
,,,2.04E-06,0.0222675
,,,2.05E-06,0.02209875
,,,2.06E-06,0.022423125
,,,2.07E-06,0.022380625
,,,2.08E-06,0.022359375
,,,2.09E-06,0.02237
,,,2.1E-06,0.022366875
,,,2.11E-06,0.022310625
,,,2.12E-06,0.022475625
,,,2.13E-06,0.022481875
,,,2.14E-06,0.0225075
,,,2.15E-06,0.022369375
,,,2.16E-06,0.0226125
,,,2.17E-06,0.0222525
,,,2.18E-06,0.022213125
,,,2.19E-06,0.02217625
,,,2.2E-06,0.0221475
,,,2.21E-06,0.022336875
,,,2.22E-06,0.022390625
,,,2.23E-06,0.022604375
,,,2.24E-06,0.022645
,,,2.25E-06,0.02240625
,,,2.26E-06,0.02243875
,,,2.27E-06,0.02242875
,,,2.28E-06,0.022608125
,,,2.29E-06,0.02236625
,,,2.3E-06,0.022301875
,,,2.31E-06,0.022270625
,,,2.32E-06,0.022453125
,,,2.33E-06,0.02227625
,,,2.34E-06,0.02229375
,,,2.35E-06,0.022515
,,,2.36E-06,0.022189375
,,,2.37E-06,0.0222775
,,,2.38E-06,0.022245
,,,2.39E-06,0.022424375
,,,2.4E-06,0.02252
,,,2.41E-06,0.02256
,,,2.42E-06,0.022175625
,,,2.43E-06,0.02256875
,,,2.44E-06,0.022403125
,,,2.45E-06,0.02237625
,,,2.46E-06,0.022366875
,,,2.47E-06,0.0222225
,,,2.48E-06,0.022365625
,,,2.49E-06,0.022541875
,,,2.5E-06,0.02224125
,,,2.51E-06,0.02220625
,,,2.52E-06,0.02252125
,,,2.53E-06,0.0222475
,,,2.54E-06,0.02223875
,,,2.55E-06,0.02242625
,,,2.56E-06,0.022284375
,,,2.57E-06,0.022211875
,,,2.58E-06,0.022180625
,,,2.59E-06,0.022195625
,,,2.6E-06,0.022415
,,,2.61E-06,0.0223
,,,2.62E-06,0.022341875
,,,2.63E-06,0.022189375
,,,2.64E-06,0.021940625
,,,2.65E-06,0.0222325
,,,2.66E-06,0.02229125
,,,2.67E-06,0.022175625
,,,2.68E-06,0.02230625
,,,2.69E-06,0.02256
,,,2.7E-06,0.02207125
,,,2.71E-06,0.02241375
,,,2.72E-06,0.022395625
,,,2.73E-06,0.02242
,,,2.74E-06,0.022213125
,,,2.75E-06,0.022341875
,,,2.76E-06,0.02249625
,,,2.77E-06,0.02224
,,,2.78E-06,0.02222875
,,,2.79E-06,0.022354375
,,,2.8E-06,0.022424375
,,,2.81E-06,0.022310625
,,,2.82E-06,0.02231125
,,,2.83E-06,0.022513125
,,,2.84E-06,0.022435
,,,2.85E-06,0.02240125
,,,2.86E-06,0.0221925
,,,2.87E-06,0.02204875
,,,2.88E-06,0.02249375
,,,2.89E-06,0.022424375
,,,2.9E-06,0.022355
,,,2.91E-06,0.022334375
,,,2.92E-06,0.022345
,,,2.93E-06,0.02234
,,,2.94E-06,0.02236125
,,,2.95E-06,0.022181875
,,,2.96E-06,0.022054375
,,,2.97E-06,0.02219625
,,,2.98E-06,0.022558125
,,,2.99E-06,0.02254125
,,,3E-06,0.02227875
,,,3.01E-06,0.02260625
,,,3.02E-06,0.022205
,,,3.03E-06,0.0225175
,,,3.04E-06,0.02213375
,,,3.05E-06,0.022336875
,,,3.06E-06,0.022464375
,,,3.07E-06,0.022375
,,,3.08E-06,0.022140625
,,,3.09E-06,0.02207
,,,3.1E-06,0.02251625
,,,3.11E-06,0.022179375
,,,3.12E-06,0.0223275
,,,3.13E-06,0.02217625
,,,3.14E-06,0.02215875
,,,3.15E-06,0.0223175
,,,3.16E-06,0.022419375
,,,3.17E-06,0.02216625
,,,3.18E-06,0.0222725
,,,3.19E-06,0.02212875
,,,3.2E-06,0.022221875
,,,3.21E-06,0.022483125
,,,3.22E-06,0.022391875
,,,3.23E-06,0.022389375
,,,3.24E-06,0.022504375
,,,3.25E-06,0.022355625
,,,3.26E-06,0.022345
,,,3.27E-06,0.02246375
,,,3.28E-06,0.02228875
,,,3.29E-06,0.022343125
,,,3.3E-06,0.02228625
,,,3.31E-06,0.02258625
,,,3.32E-06,0.02247875
,,,3.33E-06,0.022436875
,,,3.34E-06,0.022374375
,,,3.35E-06,0.022296875
,,,3.36E-06,0.022281875
,,,3.37E-06,0.02245375
,,,3.38E-06,0.022075625
,,,3.39E-06,0.022086875
,,,3.4E-06,0.022325625
,,,3.41E-06,0.02230625
,,,3.42E-06,0.0221125
,,,3.43E-06,0.0222175
,,,3.44E-06,0.022418125
,,,3.45E-06,0.022301875
,,,3.46E-06,0.022461875
,,,3.47E-06,0.02245
,,,3.48E-06,0.022489375
,,,3.49E-06,0.02229625
,,,3.5E-06,0.022301875
,,,3.51E-06,0.022368125
,,,3.52E-06,0.022344375
,,,3.53E-06,0.0222225
,,,3.54E-06,0.02218375
