data/raw/Final_POL_Test_1/SOP011_Ch2.csv

"Record Length",1000,"Points",-5E-06,0.019638125
"Sample Interval",1E-08,s,-4.99E-06,0.019580625
"Trigger Point",500,"Samples",-4.98E-06,0.0193625
"Trigger Time",0,s,-4.97E-06,0.01936625
"",,,-4.96E-06,0.019521875
"Horizontal Offset",-5E-06,s,-4.95E-06,0.019638125
,,,-4.94E-06,0.01922375
,,,-4.93E-06,0.0197025
,,,-4.92E-06,0.019225
,,,-4.91E-06,0.019489375
,,,-4.9E-06,0.019056875
,,,-4.89E-06,0.01968875
,,,-4.88E-06,0.019238125
,,,-4.87E-06,0.019166875
,,,-4.86E-06,0.019310625
,,,-4.85E-06,0.01918375
,,,-4.84E-06,0.019253125
,,,-4.83E-06,0.0196
,,,-4.82E-06,0.019321875
,,,-4.81E-06,0.019449375
,,,-4.8E-06,0.019365
,,,-4.79E-06,0.019074375
,,,-4.78E-06,0.01946625
,,,-4.77E-06,0.01947
,,,-4.76E-06,0.019315
,,,-4.75E-06,0.01927
,,,-4.74E-06,0.019289375
,,,-4.73E-06,0.019593125
,,,-4.72E-06,0.019499375
,,,-4.71E-06,0.01939375
,,,-4.7E-06,0.01914
,,,-4.69E-06,0.019245
,,,-4.68E-06,0.019338125
,,,-4.67E-06,0.019468125
,,,-4.66E-06,0.019231875
,,,-4.65E-06,0.019465
,,,-4.64E-06,0.01945375
,,,-4.63E-06,0.01913875
,,,-4.62E-06,0.01918125
,,,-4.61E-06,0.019195625
,,,-4.6E-06,0.019181875
,,,-4.59E-06,0.019355625
,,,-4.58E-06,0.01949375
,,,-4.57E-06,0.01942125
,,,-4.56E-06,0.019236875
,,,-4.55E-06,0.0194825
,,,-4.54E-06,0.019474375
,,,-4.53E-06,0.019283125
,,,-4.52E-06,0.019425
,,,-4.51E-06,0.01956625
,,,-4.5E-06,0.019271875
,,,-4.49E-06,0.0194725
,,,-4.48E-06,0.019115625
,,,-4.47E-06,0.019416875
,,,-4.46E-06,0.01927875
,,,-4.45E-06,0.019359375
,,,-4.44E-06,0.019268125
,,,-4.43E-06,0.0194925
,,,-4.42E-06,0.019350625
,,,-4.41E-06,0.019354375
,,,-4.4E-06,0.01932
,,,-4.39E-06,0.019329375
,,,-4.38E-06,0.01932125
,,,-4.37E-06,0.0193725
,,,-4.36E-06,0.019106875
,,,-4.35E-06,0.0193125
,,,-4.34E-06,0.019215625
,,,-4.33E-06,0.0193425
,,,-4.32E-06,0.019480625
,,,-4.31E-06,0.019301875
,,,-4.3E-06,0.01940625
,,,-4.29E-06,0.01922875
,,,-4.28E-06,0.019390625
,,,-4.27E-06,0.01940125
,,,-4.26E-06,0.01921875
,,,-4.25E-06,0.01917
,,,-4.24E-06,0.019163125
,,,-4.23E-06,0.019218125
,,,-4.22E-06,0.019354375
,,,-4.21E-06,0.019505
,,,-4.2E-06,0.019466875
,,,-4.19E-06,0.019185625
,,,-4.18E-06,0.018946875
,,,-4.17E-06,0.019531875
,,,-4.16E-06,0.019516875
,,,-4.15E-06,0.019309375
,,,-4.14E-06,0.019474375
,,,-4.13E-06,0.019508125
,,,-4.12E-06,0.019308125
,,,-4.11E-06,0.0195525
,,,-4.1E-06,0.019423125
,,,-4.09E-06,0.019359375
,,,-4.08E-06,0.019438125
,,,-4.07E-06,0.01940875
,,,-4.06E-06,0.01958
,,,-4.05E-06,0.019255
,,,-4.04E-06,0.01931625
,,,-4.03E-06,0.0192925
,,,-4.02E-06,0.01927125
,,,-4.01E-06,0.019495625
,,,-4E-06,0.01935625
,,,-3.99E-06,0.01910875
,,,-3.98E-06,0.0193075
,,,-3.97E-06,0.01948375
,,,-3.96E-06,0.0194125
,,,-3.95E-06,0.01953
,,,-3.94E-06,0.0193825
,,,-3.93E-06,0.019394375
,,,-3.92E-06,0.019339375
,,,-3.91E-06,0.01938875
,,,-3.9E-06,0.019260625
,,,-3.89E-06,0.0193675
,,,-3.88E-06,0.019310625
,,,-3.87E-06,0.019489375
,,,-3.86E-06,0.0193925
,,,-3.85E-06,0.019393125
,,,-3.84E-06,0.019300625
,,,-3.83E-06,0.019683125
,,,-3.82E-06,0.01937875
,,,-3.81E-06,0.0195125
,,,-3.8E-06,0.019528125
,,,-3.79E-06,0.019055
,,,-3.78E-06,0.019271875
,,,-3.77E-06,0.01926125
,,,-3.76E-06,0.019495625
,,,-3.75E-06,0.01969875
,,,-3.74E-06,0.019524375
,,,-3.73E-06,0.01956625
,,,-3.72E-06,0.019335625
,,,-3.71E-06,0.019233125
,,,-3.7E-06,0.01910125
,,,-3.69E-06,0.019525
,,,-3.68E-06,0.01941375
,,,-3.67E-06,0.01951125
,,,-3.66E-06,0.019534375
,,,-3.65E-06,0.019315625
,,,-3.64E-06,0.019344375
,,,-3.63E-06,0.01958875
,,,-3.62E-06,0.01936
,,,-3.61E-06,0.01944875
,,,-3.6E-06,0.01934375
,,,-3.59E-06,0.019220625
,,,-3.58E-06,0.019176875
,,,-3.57E-06,0.01931625
,,,-3.56E-06,0.01930625
,,,-3.55E-06,0.019420625
,,,-3.54E-06,0.019238125
,,,-3.53E-06,0.019361875
,,,-3.52E-06,0.019300625
,,,-3.51E-06,0.019324375
,,,-3.5E-06,0.01918
,,,-3.49E-06,0.01951375
,,,-3.48E-06,0.019290625
,,,-3.47E-06,0.019406875
,,,-3.46E-06,0.0192975
,,,-3.45E-06,0.01918625
,,,-3.44E-06,0.01920875
,,,-3.43E-06,0.01903
,,,-3.42E-06,0.0193075
,,,-3.41E-06,0.01927875
,,,-3.4E-06,0.01933375
,,,-3.39E-06,0.019375
,,,-3.38E-06,0.019256875
,,,-3.37E-06,0.019250625
,,,-3.36E-06,0.019548125
,,,-3.35E-06,0.0192525
,,,-3.34E-06,0.019391875
,,,-3.33E-06,0.01919875
,,,-3.32E-06,0.019311875
,,,-3.31E-06,0.019503125
,,,-3.3E-06,0.01941625
,,,-3.29E-06,0.019665625
,,,-3.28E-06,0.019265
,,,-3.27E-06,0.01949
,,,-3.26E-06,0.018953125
,,,-3.25E-06,0.019259375
,,,-3.24E-06,0.01948125
,,,-3.23E-06,0.0191975
,,,-3.22E-06,0.019516875
,,,-3.21E-06,0.019354375
,,,-3.2E-06,0.019450625
,,,-3.19E-06,0.0194275
,,,-3.18E-06,0.01931
,,,-3.17E-06,0.019509375
,,,-3.16E-06,0.01937125
,,,-3.15E-06,0.01906
,,,-3.14E-06,0.0195425
,,,-3.13E-06,0.01939625
,,,-3.12E-06,0.0193775
,,,-3.11E-06,0.019391875
,,,-3.1E-06,0.01949625
,,,-3.09E-06,0.019178125
,,,-3.08E-06,0.01935
,,,-3.07E-06,0.019265625
,,,-3.06E-06,0.0195125
,,,-3.05E-06,0.019439375
,,,-3.04E-06,0.019353125
,,,-3.03E-06,0.019271875
,,,-3.02E-06,0.0192525
,,,-3.01E-06,0.01930375
,,,-3E-06,0.019268125
,,,-2.99E-06,0.019504375
,,,-2.98E-06,0.01952875
,,,-2.97E-06,0.019183125
,,,-2.96E-06,0.01956375
,,,-2.95E-06,0.0192525
,,,-2.94E-06,0.019229375
,,,-2.93E-06,0.019295
,,,-2.92E-06,0.01961125
,,,-2.91E-06,0.019609375
,,,-2.9E-06,0.019461875
,,,-2.89E-06,0.0191675
,,,-2.88E-06,0.018903125
,,,-2.87E-06,0.0194275
,,,-2.86E-06,0.019351875
,,,-2.85E-06,0.019294375
,,,-2.84E-06,0.01940125
,,,-2.83E-06,0.01943625
,,,-2.82E-06,0.01942875
,,,-2.81E-06,0.019230625
,,,-2.8E-06,0.0192125
,,,-2.79E-06,0.019279375
,,,-2.78E-06,0.01942375
,,,-2.77E-06,0.0192525
,,,-2.76E-06,0.019435
,,,-2.75E-06,0.019358125
,,,-2.74E-06,0.01965375
,,,-2.73E-06,0.01947
,,,-2.72E-06,0.019320625
,,,-2.71E-06,0.01916875
,,,-2.7E-06,0.01932625
,,,-2.69E-06,0.019095625
,,,-2.68E-06,0.01946625
,,,-2.67E-06,0.019713125
,,,-2.66E-06,0.019378125
,,,-2.65E-06,0.019213125
,,,-2.64E-06,0.019641875
,,,-2.63E-06,0.0195025
,,,-2.62E-06,0.019279375
,,,-2.61E-06,0.019334375
,,,-2.6E-06,0.01928
,,,-2.59E-06,0.01924125
,,,-2.58E-06,0.0194575
,,,-2.57E-06,0.019335625
,,,-2.56E-06,0.019315
,,,-2.55E-06,0.01917
,,,-2.54E-06,0.01934
,,,-2.53E-06,0.01925125
,,,-2.52E-06,0.019513125
,,,-2.51E-06,0.019230625
,,,-2.5E-06,0.019101875
,,,-2.49E-06,0.01917625
,,,-2.48E-06,0.01935875
,,,-2.47E-06,0.01931875
,,,-2.46E-06,0.019081875
,,,-2.45E-06,0.01942875
,,,-2.44E-06,0.0194225
,,,-2.43E-06,0.01931625
,,,-2.42E-06,0.019379375
,,,-2.41E-06,0.019526875
,,,-2.4E-06,0.01920875
,,,-2.39E-06,0.019495625
,,,-2.38E-06,0.019510625
,,,-2.37E-06,0.019323125
,,,-2.36E-06,0.019434375
,,,-2.35E-06,0.019483125
,,,-2.34E-06,0.0193575
,,,-2.33E-06,0.019375
,,,-2.32E-06,0.01940625
,,,-2.31E-06,0.01951875
,,,-2.3E-06,0.0196775
,,,-2.29E-06,0.01952
,,,-2.28E-06,0.0191675
,,,-2.27E-06,0.0194725
,,,-2.26E-06,0.019496875
,,,-2.25E-06,0.0194125
,,,-2.24E-06,0.019474375
,,,-2.23E-06,0.01951625
,,,-2.22E-06,0.019441875
,,,-2.21E-06,0.0194875
,,,-2.2E-06,0.01935875
,,,-2.19E-06,0.01944
,,,-2.18E-06,0.0194075
,,,-2.17E-06,0.0194925
,,,-2.16E-06,0.019313125
,,,-2.15E-06,0.019308125
,,,-2.14E-06,0.01925375
,,,-2.13E-06,0.019295625
,,,-2.12E-06,0.0194125
,,,-2.11E-06,0.01921625
,,,-2.1E-06,0.019423125
,,,-2.09E-06,0.01935125
,,,-2.08E-06,0.01941375
,,,-2.07E-06,0.019269375
,,,-2.06E-06,0.019318125
,,,-2.05E-06,0.01941125
,,,-2.04E-06,0.0192
,,,-2.03E-06,0.019433125
,,,-2.02E-06,0.01947
,,,-2.01E-06,0.019460625
,,,-2E-06,0.019496875
,,,-1.99E-06,0.019349375
,,,-1.98E-06,0.01922625
,,,-1.97E-06,0.0192975
,,,-1.96E-06,0.01946875
,,,-1.95E-06,0.019623125
,,,-1.94E-06,0.019455
,,,-1.93E-06,0.01938
,,,-1.92E-06,0.019360625
,,,-1.91E-06,0.0192725
,,,-1.9E-06,0.019416875
,,,-1.89E-06,0.019339375
,,,-1.88E-06,0.01943375
,,,-1.87E-06,0.01920875
,,,-1.86E-06,0.019684375
,,,-1.85E-06,0.019338125
,,,-1.84E-06,0.019241875
,,,-1.83E-06,0.019329375
,,,-1.82E-06,0.01943625
,,,-1.81E-06,0.01947
,,,-1.8E-06,0.019320625
,,,-1.79E-06,0.019203125
,,,-1.78E-06,0.019155625
,,,-1.77E-06,0.01933
,,,-1.76E-06,0.01947625
,,,-1.75E-06,0.01911
,,,-1.74E-06,0.0192725
,,,-1.73E-06,0.019385
,,,-1.72E-06,0.019391875
,,,-1.71E-06,0.019350625
,,,-1.7E-06,0.0194025
,,,-1.69E-06,0.0193025
,,,-1.68E-06,0.019243125
,,,-1.67E-06,0.01968875
,,,-1.66E-06,0.01935125
,,,-1.65E-06,0.0194
,,,-1.64E-06,0.01941375
,,,-1.63E-06,0.019504375
,,,-1.62E-06,0.019480625
,,,-1.61E-06,0.01933125
,,,-1.6E-06,0.019475
,,,-1.59E-06,0.019126875
,,,-1.58E-06,0.019036875
,,,-1.57E-06,0.019448125
,,,-1.56E-06,0.01937375
,,,-1.55E-06,0.01945
,,,-1.54E-06,0.01919125
,,,-1.53E-06,0.019393125
,,,-1.52E-06,0.019463125
,,,-1.51E-06,0.0192925
,,,-1.5E-06,0.019481875
,,,-1.49E-06,0.01935875
,,,-1.48E-06,0.01925
,,,-1.47E-06,0.01947625
,,,-1.46E-06,0.019335625
,,,-1.45E-06,0.01913
,,,-1.44E-06,0.01939125
,,,-1.43E-06,0.019590625
,,,-1.42E-06,0.0192875
,,,-1.41E-06,0.019509375
,,,-1.4E-06,0.01923
,,,-1.39E-06,0.019254375
,,,-1.38E-06,0.019496875
,,,-1.37E-06,0.01905875
,,,-1.36E-06,0.01948625
,,,-1.35E-06,0.019406875
,,,-1.34E-06,0.019361875
,,,-1.33E-06,0.019425625
,,,-1.32E-06,0.019395
,,,-1.31E-06,0.019405625
,,,-1.3E-06,0.019461875
,,,-1.29E-06,0.019374375
,,,-1.28E-06,0.01930625
,,,-1.27E-06,0.0193075
,,,-1.26E-06,0.019508125
,,,-1.25E-06,0.019536875
,,,-1.24E-06,0.019303125
,,,-1.23E-06,0.019323125
,,,-1.22E-06,0.01922
,,,-1.21E-06,0.019246875
,,,-1.2E-06,0.0194975
,,,-1.19E-06,0.01952375
,,,-1.18E-06,0.01943875
,,,-1.17E-06,0.019465
,,,-1.16E-06,0.01934125
,,,-1.15E-06,0.01941375
,,,-1.14E-06,0.019321875
,,,-1.13E-06,0.01936625
,,,-1.12E-06,0.01946
,,,-1.11E-06,0.01944625
,,,-1.1E-06,0.01951875
,,,-1.09E-06,0.019354375
,,,-1.08E-06,0.01944875
,,,-1.07E-06,0.019386875
,,,-1.06E-06,0.019315625
,,,-1.05E-06,0.019396875
,,,-1.04E-06,0.01937
,,,-1.03E-06,0.01945375
,,,-1.02E-06,0.01921375
,,,-1.01E-06,0.019210625
,,,-1E-06,0.019465
,,,-9.9E-07,0.0193725
,,,-9.8E-07,0.0194375
,,,-9.7E-07,0.019021875
,,,-9.6E-07,0.019408125
,,,-9.5E-07,0.019515625
,,,-9.4E-07,0.01929875
,,,-9.3E-07,0.019405
,,,-9.2E-07,0.019615
,,,-9.1E-07,0.01946
,,,-9E-07,0.01933625
,,,-8.9E-07,0.01926375
,,,-8.8E-07,0.019260625
,,,-8.7E-07,0.019273125
,,,-8.6E-07,0.019526875
,,,-8.5E-07,0.01938875
,,,-8.4E-07,0.019268125
,,,-8.3E-07,0.019463125
,,,-8.2E-07,0.01950875
,,,-8.1E-07,0.019465625
,,,-8E-07,0.019453125
,,,-7.9E-07,0.019401875
,,,-7.8E-07,0.0194425
,,,-7.7E-07,0.019213125
,,,-7.6E-07,0.019558125
,,,-7.5E-07,0.01943875
,,,-7.4E-07,0.019305625
,,,-7.3E-07,0.019191875
,,,-7.2E-07,0.019260625
,,,-7.1E-07,0.0194075
,,,-7E-07,0.0193925
,,,-6.9E-07,0.019535
,,,-6.8E-07,0.01942375
,,,-6.7E-07,0.01938625
,,,-6.6E-07,0.01938125
,,,-6.5E-07,0.019195625
,,,-6.4E-07,0.01939375
,,,-6.3E-07,0.01933
,,,-6.2E-07,0.019115
,,,-6.1E-07,0.01925875
,,,-6E-07,0.01947125
,,,-5.9E-07,0.01937
,,,-5.8E-07,0.019315625
,,,-5.7E-07,0.019228125
,,,-5.6E-07,0.019168125
,,,-5.5E-07,0.019456875
,,,-5.4E-07,0.0191375
,,,-5.3E-07,0.01948125
,,,-5.2E-07,0.01942875
,,,-5.1E-07,0.01949
,,,-5E-07,0.01930125
,,,-4.9E-07,0.0193025
,,,-4.8E-07,0.0193475
,,,-4.7E-07,0.01922375
,,,-4.6E-07,0.019489375
,,,-4.5E-07,0.019313125
,,,-4.4E-07,0.0194225
,,,-4.3E-07,0.01954125
,,,-4.2E-07,0.019660625
,,,-4.1E-07,0.019428125
,,,-4E-07,0.019163125
,,,-3.9E-07,0.019430625
,,,-3.8E-07,0.019414375
,,,-3.7E-07,0.01948875
,,,-3.6E-07,0.019509375
,,,-3.5E-07,0.019479375
,,,-3.4E-07,0.019395
,,,-3.3E-07,0.019483125
,,,-3.2E-07,0.019538125
,,,-3.1E-07,0.01934875
,,,-3E-07,0.01943
,,,-2.9E-07,0.01924375
,,,-2.8E-07,0.019194375
,,,-2.7E-07,0.0192875
,,,-2.6E-07,0.0195025
,,,-2.5E-07,0.01955375
,,,-2.4E-07,0.019485
,,,-2.3E-07,0.019329375
,,,-2.2E-07,0.01927625
,,,-2.1E-07,0.019428125
,,,-2E-07,0.01916375
,,,-1.9E-07,0.01945625
,,,-1.8E-07,0.019363125
,,,-1.7E-07,0.01958125
,,,-1.6E-07,0.019326875
,,,-1.5E-07,0.019239375
,,,-1.4E-07,0.01936625
,,,-1.3E-07,0.019281875
,,,-1.2E-07,0.01933
,,,-1.1E-07,0.019255625
,,,-1E-07,0.019389375
,,,-9E-08,0.019641875
,,,-8E-08,0.019248125
,,,-7E-08,0.01920125
,,,-6E-08,0.019315625
,,,-5E-08,0.01941625
,,,-4E-08,0.020235
,,,-3E-08,0.0212425
,,,-2E-08,0.017735
,,,-1E-08,0.015236249
,,,0,0.016206249
,,,1E-08,0.022234375
,,,2E-08,0.02439625
,,,3E-08,0.0232
,,,4E-08,0.018201875
,,,5E-08,0.016038749
,,,6E-08,0.015316874
,,,7E-08,0.017878125
,,,8E-08,0.020173125
,,,9E-08,0.02173625
,,,1E-07,0.02155875
,,,1.1E-07,0.019946875
,,,1.2E-07,0.018075
,,,1.3E-07,0.017605625
,,,1.4E-07,0.018738125
,,,1.5E-07,0.01955375
,,,1.6E-07,0.020141875
,,,1.7E-07,0.01986625
,,,1.8E-07,0.019541875
,,,1.9E-07,0.019645625
,,,2E-07,0.019306875
,,,2.1E-07,0.019350625
,,,2.2E-07,0.01902875
,,,2.3E-07,0.019296875
,,,2.4E-07,0.01940125
,,,2.5E-07,0.019460625
,,,2.6E-07,0.019381875
,,,2.7E-07,0.01957375
,,,2.8E-07,0.01937625
,,,2.9E-07,0.019486875
,,,3E-07,0.019304375
,,,3.1E-07,0.019225
,,,3.2E-07,0.019373125
,,,3.3E-07,0.0194
,,,3.4E-07,0.0193225
,,,3.5E-07,0.01931625
,,,3.6E-07,0.01927125
,,,3.7E-07,0.01954375
,,,3.8E-07,0.0193625
,,,3.9E-07,0.0192175
,,,4E-07,0.019424375
,,,4.1E-07,0.0192
,,,4.2E-07,0.019533125
,,,4.3E-07,0.019234375
,,,4.4E-07,0.019151875
,,,4.5E-07,0.01945375
,,,4.6E-07,0.019471875
,,,4.7E-07,0.01946125
,,,4.8E-07,0.01938125
,,,4.9E-07,0.019273125
,,,5E-07,0.019474375
,,,5.1E-07,0.019663125
,,,5.2E-07,0.019258125
,,,5.3E-07,0.018990625
,,,5.4E-07,0.019406875
,,,5.5E-07,0.019174375
,,,5.6E-07,0.019421875
,,,5.7E-07,0.0194575
,,,5.8E-07,0.019494375
,,,5.9E-07,0.019265
,,,6E-07,0.0194125
,,,6.1E-07,0.01914125
,,,6.2E-07,0.019198125
,,,6.3E-07,0.01909125
,,,6.4E-07,0.019446875
,,,6.5E-07,0.0193925
,,,6.6E-07,0.019640625
,,,6.7E-07,0.0194675
,,,6.8E-07,0.019531875
,,,6.9E-07,0.019454375
,,,7E-07,0.019536875
,,,7.1E-07,0.01957
,,,7.2E-07,0.019404375
,,,7.3E-07,0.019610625
,,,7.4E-07,0.0193025
,,,7.5E-07,0.019535
,,,7.6E-07,0.019319375
,,,7.7E-07,0.0194725
,,,7.8E-07,0.019363125
,,,7.9E-07,0.01936
,,,8E-07,0.019164375
,,,8.1E-07,0.019385
,,,8.2E-07,0.019415
,,,8.3E-07,0.019610625
,,,8.4E-07,0.019245
,,,8.5E-07,0.019243125
,,,8.6E-07,0.01935375
,,,8.7E-07,0.019441875
,,,8.8E-07,0.019365
,,,8.9E-07,0.01947375
,,,9E-07,0.019238125
,,,9.1E-07,0.019468125
,,,9.2E-07,0.019471875
,,,9.3E-07,0.01941125
,,,9.4E-07,0.01926625
,,,9.5E-07,0.019425
,,,9.6E-07,0.019370625
,,,9.7E-07,0.019344375
,,,9.8E-07,0.019511875
,,,9.9E-07,0.019528125
,,,1E-06,0.01952375
,,,1.01E-06,0.01920375
,,,1.02E-06,0.019485625
,,,1.03E-06,0.01928375
,,,1.04E-06,0.01938125
,,,1.05E-06,0.019375
,,,1.06E-06,0.01937875
,,,1.07E-06,0.01941375
,,,1.08E-06,0.019164375
,,,1.09E-06,0.019320625
,,,1.1E-06,0.019328125
,,,1.11E-06,0.019380625
,,,1.12E-06,0.019170625
,,,1.13E-06,0.01934625
,,,1.14E-06,0.018996875
,,,1.15E-06,0.01951625
,,,1.16E-06,0.019533125
,,,1.17E-06,0.019558125
,,,1.18E-06,0.019134375
,,,1.19E-06,0.0191975
,,,1.2E-06,0.019435
,,,1.21E-06,0.019185
,,,1.22E-06,0.019295625
,,,1.23E-06,0.01930125
,,,1.24E-06,0.0193825
,,,1.25E-06,0.01929
,,,1.26E-06,0.01923875
,,,1.27E-06,0.01934375
,,,1.28E-06,0.019331875
,,,1.29E-06,0.019315625
,,,1.3E-06,0.019308125
,,,1.31E-06,0.019260625
,,,1.32E-06,0.01953125
,,,1.33E-06,0.019358125
,,,1.34E-06,0.01946625
,,,1.35E-06,0.0191225
,,,1.36E-06,0.019421875
,,,1.37E-06,0.01931
,,,1.38E-06,0.019531875
,,,1.39E-06,0.019414375
,,,1.4E-06,0.0195825
,,,1.41E-06,0.0194075
,,,1.42E-06,0.01907
,,,1.43E-06,0.019135
,,,1.44E-06,0.0194675
,,,1.45E-06,0.01944125
,,,1.46E-06,0.019124375
,,,1.47E-06,0.019355625
,,,1.48E-06,0.019486875
,,,1.49E-06,0.019348125
,,,1.5E-06,0.019246875
,,,1.51E-06,0.01948125
,,,1.52E-06,0.01930125
,,,1.53E-06,0.019231875
,,,1.54E-06,0.019329375
,,,1.55E-06,0.01942
,,,1.56E-06,0.019209375
,,,1.57E-06,0.019363125
,,,1.58E-06,0.019448125
,,,1.59E-06,0.01951375
,,,1.6E-06,0.01943125
,,,1.61E-06,0.019370625
,,,1.62E-06,0.0193425
,,,1.63E-06,0.019543125
,,,1.64E-06,0.019468125
,,,1.65E-06,0.019579375
,,,1.66E-06,0.019718125
,,,1.67E-06,0.019165625
,,,1.68E-06,0.0193075
,,,1.69E-06,0.0192225
,,,1.7E-06,0.019555
,,,1.71E-06,0.01929125
,,,1.72E-06,0.01946125
,,,1.73E-06,0.019500625
,,,1.74E-06,0.019396875
,,,1.75E-06,0.019410625
,,,1.76E-06,0.019258125
,,,1.77E-06,0.0192575
,,,1.78E-06,0.019470625
,,,1.79E-06,0.019233125
,,,1.8E-06,0.019474375
,,,1.81E-06,0.01948375
,,,1.82E-06,0.019558125
,,,1.83E-06,0.019279375
,,,1.84E-06,0.0192575
,,,1.85E-06,0.019315
,,,1.86E-06,0.0194225
,,,1.87E-06,0.019368125
,,,1.88E-06,0.019278125
,,,1.89E-06,0.019445
,,,1.9E-06,0.01947375
,,,1.91E-06,0.019241875
,,,1.92E-06,0.01941375
,,,1.93E-06,0.0193
,,,1.94E-06,0.019370625
,,,1.95E-06,0.01938
,,,1.96E-06,0.01948
,,,1.97E-06,0.0195075
,,,1.98E-06,0.01963125
,,,1.99E-06,0.019439375
,,,2E-06,0.01945
,,,2.01E-06,0.0192075
,,,2.02E-06,0.019375625
,,,2.03E-06,0.019143125
,,,2.04E-06,0.0193375
,,,2.05E-06,0.01937125
,,,2.06E-06,0.019454375
,,,2.07E-06,0.019455625
,,,2.08E-06,0.0193225
,,,2.09E-06,0.019315625
,,,2.1E-06,0.019310625
,,,2.11E-06,0.01951875
,,,2.12E-06,0.0193475
,,,2.13E-06,0.019495
,,,2.14E-06,0.01937875
,,,2.15E-06,0.01940375
,,,2.16E-06,0.019215
,,,2.17E-06,0.01925875
,,,2.18E-06,0.019373125
,,,2.19E-06,0.019391875
,,,2.2E-06,0.019433125
,,,2.21E-06,0.0191675
,,,2.22E-06,0.01937625
,,,2.23E-06,0.019593125
,,,2.24E-06,0.019464375
,,,2.25E-06,0.019354375
,,,2.26E-06,0.019105
,,,2.27E-06,0.01918375
,,,2.28E-06,0.01931
,,,2.29E-06,0.019353125
,,,2.3E-06,0.01927
,,,2.31E-06,0.019335
,,,2.32E-06,0.01952
,,,2.33E-06,0.01952
,,,2.34E-06,0.019505
,,,2.35E-06,0.019135
,,,2.36E-06,0.019270625
,,,2.37E-06,0.01922
,,,2.38E-06,0.01937625
,,,2.39E-06,0.01956375
,,,2.4E-06,0.01954625
,,,2.41E-06,0.019326875
,,,2.42E-06,0.019253125
,,,2.43E-06,0.019506875
,,,2.44E-06,0.019445
,,,2.45E-06,0.0194825
,,,2.46E-06,0.01962875
,,,2.47E-06,0.019208125
,,,2.48E-06,0.01919125
,,,2.49E-06,0.01943625
,,,2.5E-06,0.01933625
,,,2.51E-06,0.019179375
,,,2.52E-06,0.019195
,,,2.53E-06,0.01940625
,,,2.54E-06,0.01937125
,,,2.55E-06,0.019643125
,,,2.56E-06,0.019603125
,,,2.57E-06,0.019325
,,,2.58E-06,0.0191825
,,,2.59E-06,0.0192675
,,,2.6E-06,0.019314375
,,,2.61E-06,0.0194975
,,,2.62E-06,0.019458125
,,,2.63E-06,0.019383125
,,,2.64E-06,0.01955375
,,,2.65E-06,0.019439375
,,,2.66E-06,0.019509375
,,,2.67E-06,0.01926625
,,,2.68E-06,0.019418125
,,,2.69E-06,0.01941625
,,,2.7E-06,0.019211875
,,,2.71E-06,0.01933875
,,,2.72E-06,0.01934875
,,,2.73E-06,0.01944625
,,,2.74E-06,0.019338125
,,,2.75E-06,0.019329375
,,,2.76E-06,0.019489375
,,,2.77E-06,0.01949625
,,,2.78E-06,0.019399375
,,,2.79E-06,0.019391875
,,,2.8E-06,0.019201875
,,,2.81E-06,0.01959625
,,,2.82E-06,0.01948625
,,,2.83E-06,0.01946625
,,,2.84E-06,0.019355
,,,2.85E-06,0.019309375
,,,2.86E-06,0.019566875
,,,2.87E-06,0.01936875
,,,2.88E-06,0.01922
,,,2.89E-06,0.01936
,,,2.9E-06,0.019405
,,,2.91E-06,0.019440625
,,,2.92E-06,0.019355625
,,,2.93E-06,0.019235625
,,,2.94E-06,0.0193875
,,,2.95E-06,0.019263125
,,,2.96E-06,0.01915375
,,,2.97E-06,0.019240625
,,,2.98E-06,0.019486875
,,,2.99E-06,0.0195725
,,,3E-06,0.01947
,,,3.01E-06,0.01922125
,,,3.02E-06,0.0196025
,,,3.03E-06,0.019418125
,,,3.04E-06,0.01928125
,,,3.05E-06,0.01952
,,,3.06E-06,0.019359375
,,,3.07E-06,0.019563125
,,,3.08E-06,0.0195675
,,,3.09E-06,0.01947875
,,,3.1E-06,0.019364375
,,,3.11E-06,0.01925125
,,,3.12E-06,0.01931875
,,,3.13E-06,0.0193075
,,,3.14E-06,0.01931375
,,,3.15E-06,0.019459375
,,,3.16E-06,0.019363125
,,,3.17E-06,0.019536875
,,,3.18E-06,0.01913875
,,,3.19E-06,0.019231875
,,,3.2E-06,0.019544375
,,,3.21E-06,0.019599375
,,,3.22E-06,0.019633125
,,,3.23E-06,0.019441875
,,,3.24E-06,0.01944375
,,,3.25E-06,0.019298125
,,,3.26E-06,0.019316875
,,,3.27E-06,0.019088125
,,,3.28E-06,0.019246875
,,,3.29E-06,0.019305
,,,3.3E-06,0.01944875
,,,3.31E-06,0.01942
,,,3.32E-06,0.01925375
,,,3.33E-06,0.019599375
,,,3.34E-06,0.0193175
,,,3.35E-06,0.019145
,,,3.36E-06,0.019401875
,,,3.37E-06,0.01947625
,,,3.38E-06,0.01940125
,,,3.39E-06,0.0195475
,,,3.4E-06,0.019443125
,,,3.41E-06,0.019278125
,,,3.42E-06,0.01898875
,,,3.43E-06,0.019235
,,,3.44E-06,0.01941
,,,3.45E-06,0.0191675
,,,3.46E-06,0.019246875
,,,3.47E-06,0.01926375
,,,3.48E-06,0.019138125
,,,3.49E-06,0.019356875
,,,3.5E-06,0.01921625
,,,3.51E-06,0.01933
,,,3.52E-06,0.01921875
,,,3.53E-06,0.019425625
,,,3.54E-06,0.0194125
,,,3.55E-06,0.01935
,,,3.56E-06,0.0192
,,,3.57E-06,0.0193975
,,,3.58E-06,0.019366875
