data/raw/Final_POL_Test_1/SOP099_Ch1.csv

"Record Length",1000,"Points",-5E-06,0.007348125
"Sample Interval",1E-08,s,-4.99E-06,0.0072425
"Trigger Point",500,"Samples",-4.98E-06,0.007138125
"Trigger Time",0,s,-4.97E-06,0.007560625
"",,,-4.96E-06,0.007273125
"Horizontal Offset",-5E-06,s,-4.95E-06,0.007365625
,,,-4.94E-06,0.007118125
,,,-4.93E-06,0.007245625
,,,-4.92E-06,0.00733625
,,,-4.91E-06,0.007291875
,,,-4.9E-06,0.007395625
,,,-4.89E-06,0.007368125
,,,-4.88E-06,0.00722125
,,,-4.87E-06,0.00707625
,,,-4.86E-06,0.0072775
,,,-4.85E-06,0.0068525
,,,-4.84E-06,0.00708875
,,,-4.83E-06,0.007336875
,,,-4.82E-06,0.007329375
,,,-4.81E-06,0.00715125
,,,-4.8E-06,0.007525625
,,,-4.79E-06,0.007285625
,,,-4.78E-06,0.00739375
,,,-4.77E-06,0.007355
,,,-4.76E-06,0.007185
,,,-4.75E-06,0.00697125
,,,-4.74E-06,0.007495625
,,,-4.73E-06,0.00719375
,,,-4.72E-06,0.007085625
,,,-4.71E-06,0.00730875
,,,-4.7E-06,0.006955625
,,,-4.69E-06,0.007245
,,,-4.68E-06,0.00736875
,,,-4.67E-06,0.007283125
,,,-4.66E-06,0.00713125
,,,-4.65E-06,0.00725625
,,,-4.64E-06,0.007066875
,,,-4.63E-06,0.007280625
,,,-4.62E-06,0.00732875
,,,-4.61E-06,0.007208125
,,,-4.6E-06,0.007608125
,,,-4.59E-06,0.007598125
,,,-4.58E-06,0.0072925
,,,-4.57E-06,0.007260625
,,,-4.56E-06,0.00742125
,,,-4.55E-06,0.007229375
,,,-4.54E-06,0.0072625
,,,-4.53E-06,0.00717
,,,-4.52E-06,0.007240625
,,,-4.51E-06,0.007358125
,,,-4.5E-06,0.0074175
,,,-4.49E-06,0.00735875
,,,-4.48E-06,0.00721125
,,,-4.47E-06,0.00727625
,,,-4.46E-06,0.007215
,,,-4.45E-06,0.0073075
,,,-4.44E-06,0.0072775
,,,-4.43E-06,0.00709375
,,,-4.42E-06,0.00733125
,,,-4.41E-06,0.007428125
,,,-4.4E-06,0.007323125
,,,-4.39E-06,0.007343125
,,,-4.38E-06,0.0072225
,,,-4.37E-06,0.007109375
,,,-4.36E-06,0.007253125
,,,-4.35E-06,0.00723875
,,,-4.34E-06,0.00737375
,,,-4.33E-06,0.007328125
,,,-4.32E-06,0.007055625
,,,-4.31E-06,0.007324375
,,,-4.3E-06,0.0070375
,,,-4.29E-06,0.007118125
,,,-4.28E-06,0.007069375
,,,-4.27E-06,0.007175
,,,-4.26E-06,0.007299375
,,,-4.25E-06,0.007125
,,,-4.24E-06,0.00726875
,,,-4.23E-06,0.007545
,,,-4.22E-06,0.007349375
,,,-4.21E-06,0.00713875
,,,-4.2E-06,0.007228125
,,,-4.19E-06,0.0071775
,,,-4.18E-06,0.007165625
,,,-4.17E-06,0.007469375
,,,-4.16E-06,0.0071925
,,,-4.15E-06,0.00743
,,,-4.14E-06,0.00738875
,,,-4.13E-06,0.0073425
,,,-4.12E-06,0.007290625
,,,-4.11E-06,0.007345625
,,,-4.1E-06,0.0072425
,,,-4.09E-06,0.007205
,,,-4.08E-06,0.007433125
,,,-4.07E-06,0.007200625
,,,-4.06E-06,0.007443125
,,,-4.05E-06,0.007375
,,,-4.04E-06,0.007265625
,,,-4.03E-06,0.007284375
,,,-4.02E-06,0.007499375
,,,-4.01E-06,0.00722125
,,,-4E-06,0.007223125
,,,-3.99E-06,0.007169375
,,,-3.98E-06,0.0074175
,,,-3.97E-06,0.007256875
,,,-3.96E-06,0.0071175
,,,-3.95E-06,0.007131875
,,,-3.94E-06,0.007326875
,,,-3.93E-06,0.0073175
,,,-3.92E-06,0.00740875
,,,-3.91E-06,0.007231875
,,,-3.9E-06,0.00735125
,,,-3.89E-06,0.0074925
,,,-3.88E-06,0.00714
,,,-3.87E-06,0.0073675
,,,-3.86E-06,0.007088125
,,,-3.85E-06,0.007199375
,,,-3.84E-06,0.00732125
,,,-3.83E-06,0.00713625
,,,-3.82E-06,0.0072975
,,,-3.81E-06,0.00739875
,,,-3.8E-06,0.007149375
,,,-3.79E-06,0.007255625
,,,-3.78E-06,0.00725625
,,,-3.77E-06,0.00704875
,,,-3.76E-06,0.007328125
,,,-3.75E-06,0.007434375
,,,-3.74E-06,0.00722625
,,,-3.73E-06,0.00730875
,,,-3.72E-06,0.007195
,,,-3.71E-06,0.00732875
,,,-3.7E-06,0.00740625
,,,-3.69E-06,0.00745625
,,,-3.68E-06,0.00732375
,,,-3.67E-06,0.007159375
,,,-3.66E-06,0.0070825
,,,-3.65E-06,0.007530625
,,,-3.64E-06,0.00735875
,,,-3.63E-06,0.0073775
,,,-3.62E-06,0.007268125
,,,-3.61E-06,0.007475
,,,-3.6E-06,0.007254375
,,,-3.59E-06,0.0072175
,,,-3.58E-06,0.0072325
,,,-3.57E-06,0.0071325
,,,-3.56E-06,0.00719875
,,,-3.55E-06,0.00751
,,,-3.54E-06,0.00721625
,,,-3.53E-06,0.0072175
,,,-3.52E-06,0.007281875
,,,-3.51E-06,0.00728625
,,,-3.5E-06,0.0071625
,,,-3.49E-06,0.007154375
,,,-3.48E-06,0.007383125
,,,-3.47E-06,0.00720125
,,,-3.46E-06,0.007495
,,,-3.45E-06,0.007265
,,,-3.44E-06,0.007181875
,,,-3.43E-06,0.006945
,,,-3.42E-06,0.007305625
,,,-3.41E-06,0.007345
,,,-3.4E-06,0.0076325
,,,-3.39E-06,0.0072175
,,,-3.38E-06,0.00732
,,,-3.37E-06,0.0073125
,,,-3.36E-06,0.007300625
,,,-3.35E-06,0.0072225
,,,-3.34E-06,0.00728875
,,,-3.33E-06,0.007110625
,,,-3.32E-06,0.00715375
,,,-3.31E-06,0.00731
,,,-3.3E-06,0.007291875
,,,-3.29E-06,0.007131875
,,,-3.28E-06,0.007245
,,,-3.27E-06,0.007166875
,,,-3.26E-06,0.007134375
,,,-3.25E-06,0.00721125
,,,-3.24E-06,0.0073725
,,,-3.23E-06,0.0072875
,,,-3.22E-06,0.007340625
,,,-3.21E-06,0.007341875
,,,-3.2E-06,0.007055
,,,-3.19E-06,0.00735375
,,,-3.18E-06,0.00732875
,,,-3.17E-06,0.007320625
,,,-3.16E-06,0.00738625
,,,-3.15E-06,0.007429375
,,,-3.14E-06,0.00733375
,,,-3.13E-06,0.007085
,,,-3.12E-06,0.007301875
,,,-3.11E-06,0.006995625
,,,-3.1E-06,0.007285625
,,,-3.09E-06,0.00731
,,,-3.08E-06,0.00722125
,,,-3.07E-06,0.007359375
,,,-3.06E-06,0.007223125
,,,-3.05E-06,0.007258125
,,,-3.04E-06,0.00692125
,,,-3.03E-06,0.007181875
,,,-3.02E-06,0.0070875
,,,-3.01E-06,0.007298125
,,,-3E-06,0.007345
,,,-2.99E-06,0.007293125
,,,-2.98E-06,0.00737875
,,,-2.97E-06,0.00726625
,,,-2.96E-06,0.007195
,,,-2.95E-06,0.0070175
,,,-2.94E-06,0.007034375
,,,-2.93E-06,0.007136875
,,,-2.92E-06,0.00710375
,,,-2.91E-06,0.00746
,,,-2.9E-06,0.0074
,,,-2.89E-06,0.007324375
,,,-2.88E-06,0.007285625
,,,-2.87E-06,0.007210625
,,,-2.86E-06,0.007353125
,,,-2.85E-06,0.007281875
,,,-2.84E-06,0.00729125
,,,-2.83E-06,0.00722625
,,,-2.82E-06,0.007253125
,,,-2.81E-06,0.007328125
,,,-2.8E-06,0.007405625
,,,-2.79E-06,0.00736
,,,-2.78E-06,0.007184375
,,,-2.77E-06,0.00736125
,,,-2.76E-06,0.007428125
,,,-2.75E-06,0.007286875
,,,-2.74E-06,0.007505625
,,,-2.73E-06,0.007179375
,,,-2.72E-06,0.0073575
,,,-2.71E-06,0.00734625
,,,-2.7E-06,0.007341875
,,,-2.69E-06,0.0072
,,,-2.68E-06,0.007218125
,,,-2.67E-06,0.007196875
,,,-2.66E-06,0.00730375
,,,-2.65E-06,0.007285625
,,,-2.64E-06,0.00731625
,,,-2.63E-06,0.007151875
,,,-2.62E-06,0.007040625
,,,-2.61E-06,0.00704
,,,-2.6E-06,0.007306875
,,,-2.59E-06,0.0073975
,,,-2.58E-06,0.0075325
,,,-2.57E-06,0.007558125
,,,-2.56E-06,0.007111875
,,,-2.55E-06,0.007318125
,,,-2.54E-06,0.0071425
,,,-2.53E-06,0.00705
,,,-2.52E-06,0.007218125
,,,-2.51E-06,0.00764875
,,,-2.5E-06,0.00713125
,,,-2.49E-06,0.007331875
,,,-2.48E-06,0.0072625
,,,-2.47E-06,0.007348125
,,,-2.46E-06,0.00721625
,,,-2.45E-06,0.007333125
,,,-2.44E-06,0.007144375
,,,-2.43E-06,0.007234375
,,,-2.42E-06,0.007391875
,,,-2.41E-06,0.007154375
,,,-2.4E-06,0.007278125
,,,-2.39E-06,0.007121875
,,,-2.38E-06,0.007095625
,,,-2.37E-06,0.007269375
,,,-2.36E-06,0.007300625
,,,-2.35E-06,0.00710375
,,,-2.34E-06,0.007155625
,,,-2.33E-06,0.007394375
,,,-2.32E-06,0.00733875
,,,-2.31E-06,0.00706125
,,,-2.3E-06,0.0072325
,,,-2.29E-06,0.00708875
,,,-2.28E-06,0.00721875
,,,-2.27E-06,0.007366875
,,,-2.26E-06,0.007283125
,,,-2.25E-06,0.007465
,,,-2.24E-06,0.007166875
,,,-2.23E-06,0.00731875
,,,-2.22E-06,0.00734125
,,,-2.21E-06,0.007193125
,,,-2.2E-06,0.007096875
,,,-2.19E-06,0.0072875
,,,-2.18E-06,0.00704125
,,,-2.17E-06,0.007156875
,,,-2.16E-06,0.0073575
,,,-2.15E-06,0.007026875
,,,-2.14E-06,0.007303125
,,,-2.13E-06,0.00709625
,,,-2.12E-06,0.00732125
,,,-2.11E-06,0.007505625
,,,-2.1E-06,0.00714125
,,,-2.09E-06,0.007198125
,,,-2.08E-06,0.00728875
,,,-2.07E-06,0.00744125
,,,-2.06E-06,0.007305625
,,,-2.05E-06,0.007160625
,,,-2.04E-06,0.007331875
,,,-2.03E-06,0.0072
,,,-2.02E-06,0.007389375
,,,-2.01E-06,0.00722
,,,-2E-06,0.00707
,,,-1.99E-06,0.007304375
,,,-1.98E-06,0.007370625
,,,-1.97E-06,0.007186875
,,,-1.96E-06,0.00745875
,,,-1.95E-06,0.00706
,,,-1.94E-06,0.007013125
,,,-1.93E-06,0.007551875
,,,-1.92E-06,0.00738375
,,,-1.91E-06,0.007139375
,,,-1.9E-06,0.007236875
,,,-1.89E-06,0.00719375
,,,-1.88E-06,0.00732125
,,,-1.87E-06,0.00743125
,,,-1.86E-06,0.0072475
,,,-1.85E-06,0.00729625
,,,-1.84E-06,0.00746125
,,,-1.83E-06,0.00725125
,,,-1.82E-06,0.007326875
,,,-1.81E-06,0.007319375
,,,-1.8E-06,0.00746875
,,,-1.79E-06,0.007641875
,,,-1.78E-06,0.007131875
,,,-1.77E-06,0.0072575
,,,-1.76E-06,0.007080625
,,,-1.75E-06,0.00733625
,,,-1.74E-06,0.00729875
,,,-1.73E-06,0.007405
,,,-1.72E-06,0.007253125
,,,-1.71E-06,0.00702625
,,,-1.7E-06,0.0071125
,,,-1.69E-06,0.00730875
,,,-1.68E-06,0.007510625
,,,-1.67E-06,0.0075325
,,,-1.66E-06,0.007405625
,,,-1.65E-06,0.00741625
,,,-1.64E-06,0.007088125
,,,-1.63E-06,0.00725625
,,,-1.62E-06,0.00726
,,,-1.61E-06,0.0072875
,,,-1.6E-06,0.00720875
,,,-1.59E-06,0.0074175
,,,-1.58E-06,0.0074675
,,,-1.57E-06,0.00742875
,,,-1.56E-06,0.007356875
,,,-1.55E-06,0.00725125
,,,-1.54E-06,0.00729375
,,,-1.53E-06,0.007274375
,,,-1.52E-06,0.00741125
,,,-1.51E-06,0.007289375
,,,-1.5E-06,0.00739375
,,,-1.49E-06,0.00731875
,,,-1.48E-06,0.007354375
,,,-1.47E-06,0.007173125
,,,-1.46E-06,0.00741
,,,-1.45E-06,0.00724875
,,,-1.44E-06,0.00753125
,,,-1.43E-06,0.0072175
,,,-1.42E-06,0.007530625
,,,-1.41E-06,0.00725375
,,,-1.4E-06,0.00729625
,,,-1.39E-06,0.007204375
,,,-1.38E-06,0.007084375
,,,-1.37E-06,0.007111875
,,,-1.36E-06,0.00726
,,,-1.35E-06,0.0073125
,,,-1.34E-06,0.007270625
,,,-1.33E-06,0.007315
,,,-1.32E-06,0.007115625
,,,-1.31E-06,0.00748
,,,-1.3E-06,0.00714
,,,-1.29E-06,0.0072325
,,,-1.28E-06,0.007169375
,,,-1.27E-06,0.007434375
,,,-1.26E-06,0.007159375
,,,-1.25E-06,0.00743125
,,,-1.24E-06,0.00755875
,,,-1.23E-06,0.007108125
,,,-1.22E-06,0.007275
,,,-1.21E-06,0.007084375
,,,-1.2E-06,0.0072125
,,,-1.19E-06,0.007385625
,,,-1.18E-06,0.00731
,,,-1.17E-06,0.007384375
,,,-1.16E-06,0.007130625
,,,-1.15E-06,0.0072225
,,,-1.14E-06,0.00739875
,,,-1.13E-06,0.007326875
,,,-1.12E-06,0.0073
,,,-1.11E-06,0.0074075
,,,-1.1E-06,0.00724125
,,,-1.09E-06,0.0073575
,,,-1.08E-06,0.007498125
,,,-1.07E-06,0.00723625
,,,-1.06E-06,0.00715875
,,,-1.05E-06,0.007151875
,,,-1.04E-06,0.007306875
,,,-1.03E-06,0.00744625
,,,-1.02E-06,0.00712375
,,,-1.01E-06,0.00739875
,,,-1E-06,0.007189375
,,,-9.9E-07,0.007354375
,,,-9.8E-07,0.007276875
,,,-9.7E-07,0.007601875
,,,-9.6E-07,0.00746
,,,-9.5E-07,0.007114375
,,,-9.4E-07,0.007320625
,,,-9.3E-07,0.00738375
,,,-9.2E-07,0.007358125
,,,-9.1E-07,0.0073325
,,,-9E-07,0.007156875
,,,-8.9E-07,0.00697375
,,,-8.8E-07,0.007159375
,,,-8.7E-07,0.007120625
,,,-8.6E-07,0.0073425
,,,-8.5E-07,0.007334375
,,,-8.4E-07,0.007305625
,,,-8.3E-07,0.007251875
,,,-8.2E-07,0.00713625
,,,-8.1E-07,0.00728875
,,,-8E-07,0.00734
,,,-7.9E-07,0.00731625
,,,-7.8E-07,0.007271875
,,,-7.7E-07,0.0072775
,,,-7.6E-07,0.00729875
,,,-7.5E-07,0.00730125
,,,-7.4E-07,0.007281875
,,,-7.3E-07,0.00725875
,,,-7.2E-07,0.007501875
,,,-7.1E-07,0.0073
,,,-7E-07,0.007324375
,,,-6.9E-07,0.007216875
,,,-6.8E-07,0.007355
,,,-6.7E-07,0.007355
,,,-6.6E-07,0.00753125
,,,-6.5E-07,0.007179375
,,,-6.4E-07,0.00721
,,,-6.3E-07,0.007345625
,,,-6.2E-07,0.007325
,,,-6.1E-07,0.007325
,,,-6E-07,0.0073375
,,,-5.9E-07,0.007195
,,,-5.8E-07,0.007206875
,,,-5.7E-07,0.00733875
,,,-5.6E-07,0.00728625
,,,-5.5E-07,0.00738625
,,,-5.4E-07,0.007354375
,,,-5.3E-07,0.007498125
,,,-5.2E-07,0.00722125
,,,-5.1E-07,0.007295625
,,,-5E-07,0.00707125
,,,-4.9E-07,0.00731625
,,,-4.8E-07,0.007221875
,,,-4.7E-07,0.007114375
,,,-4.6E-07,0.00731
,,,-4.5E-07,0.007173125
,,,-4.4E-07,0.007205625
,,,-4.3E-07,0.0073
,,,-4.2E-07,0.00735625
,,,-4.1E-07,0.007338125
,,,-4E-07,0.007060625
,,,-3.9E-07,0.007233125
,,,-3.8E-07,0.0072825
,,,-3.7E-07,0.00738875
,,,-3.6E-07,0.00719125
,,,-3.5E-07,0.007178125
,,,-3.4E-07,0.007341875
,,,-3.3E-07,0.007533125
,,,-3.2E-07,0.00723
,,,-3.1E-07,0.007260625
,,,-3E-07,0.007088125
,,,-2.9E-07,0.007016875
,,,-2.8E-07,0.007189375
,,,-2.7E-07,0.00735375
,,,-2.6E-07,0.007525
,,,-2.5E-07,0.007466875
,,,-2.4E-07,0.007144375
,,,-2.3E-07,0.00699875
,,,-2.2E-07,0.00731625
,,,-2.1E-07,0.007364375
,,,-2E-07,0.0074375
,,,-1.9E-07,0.007120625
,,,-1.8E-07,0.00731375
,,,-1.7E-07,0.0073875
,,,-1.6E-07,0.00736375
,,,-1.5E-07,0.007305
,,,-1.4E-07,0.00724625
,,,-1.3E-07,0.00739125
,,,-1.2E-07,0.007214375
,,,-1.1E-07,0.00733875
,,,-1E-07,0.0073825
,,,-9E-08,0.00711875
,,,-8E-08,0.007393125
,,,-7E-08,0.007035625
,,,-6E-08,0.007050625
,,,-5E-08,0.007663125
,,,-4E-08,0.008338125
,,,-3E-08,0.0084725
,,,-2E-08,0.0051275
,,,-1E-08,0.003843125
,,,0,0.004240625
,,,1E-08,0.010446875
,,,2E-08,0.01142
,,,3E-08,0.010376875
,,,4E-08,0.005946875
,,,5E-08,0.004444375
,,,6E-08,0.003969375
,,,7E-08,0.006481875
,,,8E-08,0.008215625
,,,9E-08,0.009411875
,,,1E-07,0.009145
,,,1.1E-07,0.00777375
,,,1.2E-07,0.005933125
,,,1.3E-07,0.005543125
,,,1.4E-07,0.006729375
,,,1.5E-07,0.00754
,,,1.6E-07,0.0079975
,,,1.7E-07,0.007634375
,,,1.8E-07,0.007600625
,,,1.9E-07,0.00741
,,,2E-07,0.007515625
,,,2.1E-07,0.006614375
,,,2.2E-07,0.00702375
,,,2.3E-07,0.00723
,,,2.4E-07,0.00728625
,,,2.5E-07,0.00756375
,,,2.6E-07,0.00726375
,,,2.7E-07,0.007280625
,,,2.8E-07,0.006965625
,,,2.9E-07,0.00748625
,,,3E-07,0.0071125
,,,3.1E-07,0.007416875
,,,3.2E-07,0.00724
,,,3.3E-07,0.007543125
,,,3.4E-07,0.00757125
,,,3.5E-07,0.0071175
,,,3.6E-07,0.007329375
,,,3.7E-07,0.0073125
,,,3.8E-07,0.007339375
,,,3.9E-07,0.00722375
,,,4E-07,0.00722375
,,,4.1E-07,0.007216875
,,,4.2E-07,0.00713
,,,4.3E-07,0.007249375
,,,4.4E-07,0.007280625
,,,4.5E-07,0.0072475
,,,4.6E-07,0.00727
,,,4.7E-07,0.007461875
,,,4.8E-07,0.0072525
,,,4.9E-07,0.007015625
,,,5E-07,0.007318125
,,,5.1E-07,0.007421875
,,,5.2E-07,0.00756625
,,,5.3E-07,0.00738125
,,,5.4E-07,0.007438125
,,,5.5E-07,0.007128125
,,,5.6E-07,0.00728625
,,,5.7E-07,0.007205625
,,,5.8E-07,0.007245
,,,5.9E-07,0.007363125
,,,6E-07,0.007315625
,,,6.1E-07,0.00721875
,,,6.2E-07,0.00738375
,,,6.3E-07,0.00737
,,,6.4E-07,0.00721875
,,,6.5E-07,0.007444375
,,,6.6E-07,0.00719125
,,,6.7E-07,0.007194375
,,,6.8E-07,0.00724625
,,,6.9E-07,0.0073575
,,,7E-07,0.007219375
,,,7.1E-07,0.007285
,,,7.2E-07,0.007141875
,,,7.3E-07,0.007366875
,,,7.4E-07,0.007325625
,,,7.5E-07,0.00711625
,,,7.6E-07,0.00726625
,,,7.7E-07,0.00713375
,,,7.8E-07,0.007395
,,,7.9E-07,0.0070425
,,,8E-07,0.007315625
,,,8.1E-07,0.00722875
,,,8.2E-07,0.007323125
,,,8.3E-07,0.007256875
,,,8.4E-07,0.007599375
,,,8.5E-07,0.007223125
,,,8.6E-07,0.00718125
,,,8.7E-07,0.00727
,,,8.8E-07,0.007256875
,,,8.9E-07,0.00733
,,,9E-07,0.007214375
,,,9.1E-07,0.00715625
,,,9.2E-07,0.00733625
,,,9.3E-07,0.007268125
,,,9.4E-07,0.007154375
,,,9.5E-07,0.00725625
,,,9.6E-07,0.007225
,,,9.7E-07,0.007114375
,,,9.8E-07,0.00725
,,,9.9E-07,0.007473125
,,,1E-06,0.00726625
,,,1.01E-06,0.007300625
,,,1.02E-06,0.0070925
,,,1.03E-06,0.0074125
,,,1.04E-06,0.0073475
,,,1.05E-06,0.00761
,,,1.06E-06,0.00735125
,,,1.07E-06,0.007239375
,,,1.08E-06,0.00725
,,,1.09E-06,0.007196875
,,,1.1E-06,0.00729
,,,1.11E-06,0.007300625
,,,1.12E-06,0.00713125
,,,1.13E-06,0.007351875
,,,1.14E-06,0.00712375
,,,1.15E-06,0.007290625
,,,1.16E-06,0.007346875
,,,1.17E-06,0.0071575
,,,1.18E-06,0.0070525
,,,1.19E-06,0.00733
,,,1.2E-06,0.0072525
,,,1.21E-06,0.00732125
,,,1.22E-06,0.007408125
,,,1.23E-06,0.0072375
,,,1.24E-06,0.00723875
,,,1.25E-06,0.006955625
,,,1.26E-06,0.007254375
,,,1.27E-06,0.007501875
,,,1.28E-06,0.00726625
,,,1.29E-06,0.007263125
,,,1.3E-06,0.00748875
,,,1.31E-06,0.007209375
,,,1.32E-06,0.00739
,,,1.33E-06,0.007251875
,,,1.34E-06,0.007164375
,,,1.35E-06,0.00728875
,,,1.36E-06,0.007308125
,,,1.37E-06,0.007110625
,,,1.38E-06,0.007390625
,,,1.39E-06,0.007356875
,,,1.4E-06,0.007230625
,,,1.41E-06,0.007235625
,,,1.42E-06,0.007004375
,,,1.43E-06,0.0072425
,,,1.44E-06,0.007278125
,,,1.45E-06,0.00716
,,,1.46E-06,0.007534375
,,,1.47E-06,0.00713375
,,,1.48E-06,0.00717625
,,,1.49E-06,0.007365
,,,1.5E-06,0.007028125
,,,1.51E-06,0.00707125
,,,1.52E-06,0.006981875
,,,1.53E-06,0.007374375
,,,1.54E-06,0.007206875
,,,1.55E-06,0.007515
,,,1.56E-06,0.007454375
,,,1.57E-06,0.0074175
,,,1.58E-06,0.00691625
,,,1.59E-06,0.007084375
,,,1.6E-06,0.007205
,,,1.61E-06,0.007344375
,,,1.62E-06,0.007325625
,,,1.63E-06,0.0072525
,,,1.64E-06,0.00745375
,,,1.65E-06,0.007185
,,,1.66E-06,0.00722625
,,,1.67E-06,0.00741125
,,,1.68E-06,0.007415625
,,,1.69E-06,0.0072625
,,,1.7E-06,0.00752375
,,,1.71E-06,0.007095625
,,,1.72E-06,0.007425625
,,,1.73E-06,0.00727375
,,,1.74E-06,0.007263125
,,,1.75E-06,0.007389375
,,,1.76E-06,0.00715
,,,1.77E-06,0.00726875
,,,1.78E-06,0.0074325
,,,1.79E-06,0.0071225
,,,1.8E-06,0.007345
,,,1.81E-06,0.007445625
,,,1.82E-06,0.007490625
,,,1.83E-06,0.007059375
,,,1.84E-06,0.007311875
,,,1.85E-06,0.007258125
,,,1.86E-06,0.007009375
,,,1.87E-06,0.007235625
,,,1.88E-06,0.00740375
,,,1.89E-06,0.007339375
,,,1.9E-06,0.0074375
,,,1.91E-06,0.007423125
,,,1.92E-06,0.007138125
,,,1.93E-06,0.006994375
,,,1.94E-06,0.00717375
,,,1.95E-06,0.007325625
,,,1.96E-06,0.007235625
,,,1.97E-06,0.00729875
,,,1.98E-06,0.007180625
,,,1.99E-06,0.00744375
,,,2E-06,0.007304375
,,,2.01E-06,0.007385625
,,,2.02E-06,0.007288125
,,,2.03E-06,0.007308125
,,,2.04E-06,0.007075
,,,2.05E-06,0.00727375
,,,2.06E-06,0.007220625
,,,2.07E-06,0.007389375
,,,2.08E-06,0.00731625
,,,2.09E-06,0.0070225
,,,2.1E-06,0.007040625
,,,2.11E-06,0.007015
,,,2.12E-06,0.0072475
,,,2.13E-06,0.007024375
,,,2.14E-06,0.00720125
,,,2.15E-06,0.007438125
,,,2.16E-06,0.00743875
,,,2.17E-06,0.007236875
,,,2.18E-06,0.007098125
,,,2.19E-06,0.00715625
,,,2.2E-06,0.007348125
,,,2.21E-06,0.007354375
,,,2.22E-06,0.007233125
,,,2.23E-06,0.00714625
,,,2.24E-06,0.00726125
,,,2.25E-06,0.00733625
,,,2.26E-06,0.00723625
,,,2.27E-06,0.007330625
,,,2.28E-06,0.007354375
,,,2.29E-06,0.007295625
,,,2.3E-06,0.0072675
,,,2.31E-06,0.007175625
,,,2.32E-06,0.007324375
,,,2.33E-06,0.007105
,,,2.34E-06,0.007159375
,,,2.35E-06,0.00713625
,,,2.36E-06,0.007176875
,,,2.37E-06,0.007174375
,,,2.38E-06,0.007296875
,,,2.39E-06,0.007100625
,,,2.4E-06,0.00731125
,,,2.41E-06,0.0072625
,,,2.42E-06,0.00720125
,,,2.43E-06,0.006994375
,,,2.44E-06,0.007483125
,,,2.45E-06,0.007305625
,,,2.46E-06,0.007046875
,,,2.47E-06,0.0074675
,,,2.48E-06,0.007296875
,,,2.49E-06,0.0073375
,,,2.5E-06,0.00732875
,,,2.51E-06,0.006994375
,,,2.52E-06,0.00728875
,,,2.53E-06,0.007305625
,,,2.54E-06,0.0072625
,,,2.55E-06,0.007074375
,,,2.56E-06,0.007413125
,,,2.57E-06,0.007264375
,,,2.58E-06,0.00733
,,,2.59E-06,0.007231875
,,,2.6E-06,0.007458125
,,,2.61E-06,0.00722375
,,,2.62E-06,0.00697125
,,,2.63E-06,0.007084375
,,,2.64E-06,0.007148125
,,,2.65E-06,0.00713875
,,,2.66E-06,0.007224375
,,,2.67E-06,0.007200625
,,,2.68E-06,0.007074375
,,,2.69E-06,0.007606875
,,,2.7E-06,0.007324375
,,,2.71E-06,0.0073
,,,2.72E-06,0.00745625
,,,2.73E-06,0.00747625
,,,2.74E-06,0.0071975
,,,2.75E-06,0.007444375
,,,2.76E-06,0.007074375
,,,2.77E-06,0.007675
,,,2.78E-06,0.007448125
,,,2.79E-06,0.0072625
,,,2.8E-06,0.007320625
,,,2.81E-06,0.007408125
,,,2.82E-06,0.007355625
,,,2.83E-06,0.00731
,,,2.84E-06,0.007280625
,,,2.85E-06,0.007174375
,,,2.86E-06,0.0071625
,,,2.87E-06,0.00736
,,,2.88E-06,0.0072675
,,,2.89E-06,0.00756
,,,2.9E-06,0.0072425
,,,2.91E-06,0.007334375
,,,2.92E-06,0.00717
,,,2.93E-06,0.0075325
,,,2.94E-06,0.007245
,,,2.95E-06,0.007383125
,,,2.96E-06,0.007120625
,,,2.97E-06,0.007290625
,,,2.98E-06,0.00726
,,,2.99E-06,0.00716
,,,3E-06,0.007260625
,,,3.01E-06,0.007153125
,,,3.02E-06,0.00726125
,,,3.03E-06,0.0071375
,,,3.04E-06,0.007175625
,,,3.05E-06,0.00740125
,,,3.06E-06,0.007388125
,,,3.07E-06,0.007135625
,,,3.08E-06,0.007065
,,,3.09E-06,0.00693125
,,,3.1E-06,0.007218125
,,,3.11E-06,0.007408125
,,,3.12E-06,0.007124375
,,,3.13E-06,0.007359375
,,,3.14E-06,0.00729875
,,,3.15E-06,0.00732875
,,,3.16E-06,0.00712625
,,,3.17E-06,0.007185625
,,,3.18E-06,0.007065625
,,,3.19E-06,0.0071025
,,,3.2E-06,0.00736
,,,3.21E-06,0.007435625
,,,3.22E-06,0.007295625
,,,3.23E-06,0.0071325
,,,3.24E-06,0.00738
,,,3.25E-06,0.007064375
,,,3.26E-06,0.007240625
,,,3.27E-06,0.006980625
,,,3.28E-06,0.00738875
,,,3.29E-06,0.00744875
,,,3.3E-06,0.007399375
,,,3.31E-06,0.007213125
,,,3.32E-06,0.0075275
,,,3.33E-06,0.007216875
,,,3.34E-06,0.00713
,,,3.35E-06,0.00727375
,,,3.36E-06,0.007393125
,,,3.37E-06,0.00729875
,,,3.38E-06,0.007330625
,,,3.39E-06,0.007250625
,,,3.4E-06,0.0072675
,,,3.41E-06,0.007335
,,,3.42E-06,0.00708
,,,3.43E-06,0.007330625
,,,3.44E-06,0.007234375
,,,3.45E-06,0.00720875
,,,3.46E-06,0.0073225
,,,3.47E-06,0.00716125
,,,3.48E-06,0.007299375
,,,3.49E-06,0.00736
,,,3.5E-06,0.007098125
,,,3.51E-06,0.00726375
,,,3.52E-06,0.007303125
,,,3.53E-06,0.007515625
,,,3.54E-06,0.007320625
,,,3.55E-06,0.0074325
,,,3.56E-06,0.007348125
