data/raw/Final_POL_Test_1/SOP017_Ch2.csv

"Record Length",1000,"Points",-5E-06,0.020803125
"Sample Interval",1E-08,s,-4.99E-06,0.0209625
"Trigger Point",500,"Samples",-4.98E-06,0.021040625
"Trigger Time",0,s,-4.97E-06,0.02099125
"",,,-4.96E-06,0.0207475
"Horizontal Offset",-5E-06,s,-4.95E-06,0.021115625
,,,-4.94E-06,0.02133
,,,-4.93E-06,0.020905
,,,-4.92E-06,0.021148125
,,,-4.91E-06,0.020916875
,,,-4.9E-06,0.021048125
,,,-4.89E-06,0.02107
,,,-4.88E-06,0.020945625
,,,-4.87E-06,0.020884375
,,,-4.86E-06,0.02107
,,,-4.85E-06,0.021099375
,,,-4.84E-06,0.02102
,,,-4.83E-06,0.02086875
,,,-4.82E-06,0.0211375
,,,-4.81E-06,0.02090875
,,,-4.8E-06,0.02133125
,,,-4.79E-06,0.020790625
,,,-4.78E-06,0.02092125
,,,-4.77E-06,0.020765
,,,-4.76E-06,0.021125625
,,,-4.75E-06,0.021089375
,,,-4.74E-06,0.0211025
,,,-4.73E-06,0.021401875
,,,-4.72E-06,0.021005625
,,,-4.71E-06,0.021099375
,,,-4.7E-06,0.020969375
,,,-4.69E-06,0.02095
,,,-4.68E-06,0.02088
,,,-4.67E-06,0.021119375
,,,-4.66E-06,0.020715625
,,,-4.65E-06,0.02109375
,,,-4.64E-06,0.02087625
,,,-4.63E-06,0.020860625
,,,-4.62E-06,0.02110375
,,,-4.61E-06,0.02083625
,,,-4.6E-06,0.02092125
,,,-4.59E-06,0.020908125
,,,-4.58E-06,0.021369375
,,,-4.57E-06,0.020983125
,,,-4.56E-06,0.02102625
,,,-4.55E-06,0.02118875
,,,-4.54E-06,0.021003125
,,,-4.53E-06,0.021075
,,,-4.52E-06,0.021165625
,,,-4.51E-06,0.02103
,,,-4.5E-06,0.02117625
,,,-4.49E-06,0.02104375
,,,-4.48E-06,0.020905
,,,-4.47E-06,0.02093625
,,,-4.46E-06,0.02096625
,,,-4.45E-06,0.02105875
,,,-4.44E-06,0.02112625
,,,-4.43E-06,0.02110625
,,,-4.42E-06,0.0208
,,,-4.41E-06,0.0211825
,,,-4.4E-06,0.020938125
,,,-4.39E-06,0.020844375
,,,-4.38E-06,0.02087375
,,,-4.37E-06,0.02104125
,,,-4.36E-06,0.021035
,,,-4.35E-06,0.02071625
,,,-4.34E-06,0.021069375
,,,-4.33E-06,0.020995
,,,-4.32E-06,0.02084375
,,,-4.31E-06,0.0208175
,,,-4.3E-06,0.020995
,,,-4.29E-06,0.02085375
,,,-4.28E-06,0.021164375
,,,-4.27E-06,0.0208625
,,,-4.26E-06,0.020875625
,,,-4.25E-06,0.020913125
,,,-4.24E-06,0.021063125
,,,-4.23E-06,0.020916875
,,,-4.22E-06,0.021039375
,,,-4.21E-06,0.02076125
,,,-4.2E-06,0.021099375
,,,-4.19E-06,0.0211375
,,,-4.18E-06,0.021119375
,,,-4.17E-06,0.020831875
,,,-4.16E-06,0.021073125
,,,-4.15E-06,0.021236875
,,,-4.14E-06,0.02094625
,,,-4.13E-06,0.02075
,,,-4.12E-06,0.0211425
,,,-4.11E-06,0.02099
,,,-4.1E-06,0.0208475
,,,-4.09E-06,0.02103
,,,-4.08E-06,0.021330625
,,,-4.07E-06,0.020995625
,,,-4.06E-06,0.021008125
,,,-4.05E-06,0.020830625
,,,-4.04E-06,0.02107
,,,-4.03E-06,0.021165
,,,-4.02E-06,0.02086625
,,,-4.01E-06,0.02093375
,,,-4E-06,0.021298125
,,,-3.99E-06,0.020764375
,,,-3.98E-06,0.020955625
,,,-3.97E-06,0.02086125
,,,-3.96E-06,0.0211875
,,,-3.95E-06,0.02101
,,,-3.94E-06,0.02099625
,,,-3.93E-06,0.02121125
,,,-3.92E-06,0.020998125
,,,-3.91E-06,0.0213125
,,,-3.9E-06,0.02106125
,,,-3.89E-06,0.02108875
,,,-3.88E-06,0.020998125
,,,-3.87E-06,0.021021875
,,,-3.86E-06,0.020938125
,,,-3.85E-06,0.02095
,,,-3.84E-06,0.020739375
,,,-3.83E-06,0.021181875
,,,-3.82E-06,0.020729375
,,,-3.81E-06,0.021055
,,,-3.8E-06,0.021071875
,,,-3.79E-06,0.0207425
,,,-3.78E-06,0.021131875
,,,-3.77E-06,0.02077375
,,,-3.76E-06,0.020901875
,,,-3.75E-06,0.020971875
,,,-3.74E-06,0.02126375
,,,-3.73E-06,0.0209875
,,,-3.72E-06,0.02113125
,,,-3.71E-06,0.02096375
,,,-3.7E-06,0.020888125
,,,-3.69E-06,0.0209675
,,,-3.68E-06,0.021019375
,,,-3.67E-06,0.0210675
,,,-3.66E-06,0.0208875
,,,-3.65E-06,0.020876875
,,,-3.64E-06,0.02127
,,,-3.63E-06,0.021055
,,,-3.62E-06,0.02118625
,,,-3.61E-06,0.021130625
,,,-3.6E-06,0.020939375
,,,-3.59E-06,0.02101375
,,,-3.58E-06,0.0210125
,,,-3.57E-06,0.02102625
,,,-3.56E-06,0.020738125
,,,-3.55E-06,0.021204375
,,,-3.54E-06,0.021154375
,,,-3.53E-06,0.02098625
,,,-3.52E-06,0.020775
,,,-3.51E-06,0.021179375
,,,-3.5E-06,0.0207475
,,,-3.49E-06,0.0210275
,,,-3.48E-06,0.020911875
,,,-3.47E-06,0.0210025
,,,-3.46E-06,0.020868125
,,,-3.45E-06,0.02131125
,,,-3.44E-06,0.02099
,,,-3.43E-06,0.0210625
,,,-3.42E-06,0.021065625
,,,-3.41E-06,0.02097
,,,-3.4E-06,0.0210125
,,,-3.39E-06,0.020974375
,,,-3.38E-06,0.021115625
,,,-3.37E-06,0.021135625
,,,-3.36E-06,0.021095
,,,-3.35E-06,0.020918125
,,,-3.34E-06,0.02090875
,,,-3.33E-06,0.02102625
,,,-3.32E-06,0.021176875
,,,-3.31E-06,0.021006875
,,,-3.3E-06,0.020905625
,,,-3.29E-06,0.0209475
,,,-3.28E-06,0.020910625
,,,-3.27E-06,0.02090375
,,,-3.26E-06,0.02078875
,,,-3.25E-06,0.02093
,,,-3.24E-06,0.02120875
,,,-3.23E-06,0.0207525
,,,-3.22E-06,0.020951875
,,,-3.21E-06,0.0210325
,,,-3.2E-06,0.02090375
,,,-3.19E-06,0.021284375
,,,-3.18E-06,0.021050625
,,,-3.17E-06,0.02092375
,,,-3.16E-06,0.021171875
,,,-3.15E-06,0.020873125
,,,-3.14E-06,0.021145
,,,-3.13E-06,0.021171875
,,,-3.12E-06,0.021060625
,,,-3.11E-06,0.020925
,,,-3.1E-06,0.021056875
,,,-3.09E-06,0.021004375
,,,-3.08E-06,0.02090375
,,,-3.07E-06,0.021039375
,,,-3.06E-06,0.021039375
,,,-3.05E-06,0.021000625
,,,-3.04E-06,0.02080125
,,,-3.03E-06,0.02092125
,,,-3.02E-06,0.021215
,,,-3.01E-06,0.020975
,,,-3E-06,0.0210225
,,,-2.99E-06,0.020948125
,,,-2.98E-06,0.020944375
,,,-2.97E-06,0.02122625
,,,-2.96E-06,0.021116875
,,,-2.95E-06,0.020781875
,,,-2.94E-06,0.02085
,,,-2.93E-06,0.0208775
,,,-2.92E-06,0.020876875
,,,-2.91E-06,0.02097375
,,,-2.9E-06,0.021030625
,,,-2.89E-06,0.020964375
,,,-2.88E-06,0.021125625
,,,-2.87E-06,0.021029375
,,,-2.86E-06,0.020828125
,,,-2.85E-06,0.02109625
,,,-2.84E-06,0.021050625
,,,-2.83E-06,0.021078125
,,,-2.82E-06,0.02106
,,,-2.81E-06,0.021054375
,,,-2.8E-06,0.020898125
,,,-2.79E-06,0.020989375
,,,-2.78E-06,0.021008125
,,,-2.77E-06,0.020598125
,,,-2.76E-06,0.02094625
,,,-2.75E-06,0.020925
,,,-2.74E-06,0.02110375
,,,-2.73E-06,0.020955
,,,-2.72E-06,0.02114875
,,,-2.71E-06,0.020879375
,,,-2.7E-06,0.0209475
,,,-2.69E-06,0.020845625
,,,-2.68E-06,0.020850625
,,,-2.67E-06,0.021004375
,,,-2.66E-06,0.021244375
,,,-2.65E-06,0.02076
,,,-2.64E-06,0.02086
,,,-2.63E-06,0.021008125
,,,-2.62E-06,0.02113875
,,,-2.61E-06,0.020933125
,,,-2.6E-06,0.02122625
,,,-2.59E-06,0.021229375
,,,-2.58E-06,0.020844375
,,,-2.57E-06,0.0208775
,,,-2.56E-06,0.0208725
,,,-2.55E-06,0.02103625
,,,-2.54E-06,0.02093875
,,,-2.53E-06,0.02090875
,,,-2.52E-06,0.0211425
,,,-2.51E-06,0.02109
,,,-2.5E-06,0.020945
,,,-2.49E-06,0.020925
,,,-2.48E-06,0.021090625
,,,-2.47E-06,0.020941875
,,,-2.46E-06,0.020745
,,,-2.45E-06,0.021385625
,,,-2.44E-06,0.020880625
,,,-2.43E-06,0.02112125
,,,-2.42E-06,0.021054375
,,,-2.41E-06,0.02097625
,,,-2.4E-06,0.020941875
,,,-2.39E-06,0.02106
,,,-2.38E-06,0.020876875
,,,-2.37E-06,0.0209725
,,,-2.36E-06,0.020910625
,,,-2.35E-06,0.021334375
,,,-2.34E-06,0.020961875
,,,-2.33E-06,0.021181875
,,,-2.32E-06,0.021009375
,,,-2.31E-06,0.021073125
,,,-2.3E-06,0.021251875
,,,-2.29E-06,0.020961875
,,,-2.28E-06,0.02121875
,,,-2.27E-06,0.0209575
,,,-2.26E-06,0.020941875
,,,-2.25E-06,0.0210775
,,,-2.24E-06,0.020986875
,,,-2.23E-06,0.02124375
,,,-2.22E-06,0.0209
,,,-2.21E-06,0.02092875
,,,-2.2E-06,0.02104375
,,,-2.19E-06,0.0209075
,,,-2.18E-06,0.021164375
,,,-2.17E-06,0.021339375
,,,-2.16E-06,0.02106625
,,,-2.15E-06,0.02097
,,,-2.14E-06,0.021115
,,,-2.13E-06,0.020860625
,,,-2.12E-06,0.02099375
,,,-2.11E-06,0.020975625
,,,-2.1E-06,0.021093125
,,,-2.09E-06,0.02094
,,,-2.08E-06,0.02114875
,,,-2.07E-06,0.020696875
,,,-2.06E-06,0.021026875
,,,-2.05E-06,0.0209325
,,,-2.04E-06,0.020943125
,,,-2.03E-06,0.020875
,,,-2.02E-06,0.021125625
,,,-2.01E-06,0.0212425
,,,-2E-06,0.02088625
,,,-1.99E-06,0.021155625
,,,-1.98E-06,0.02119375
,,,-1.97E-06,0.020741875
,,,-1.96E-06,0.021058125
,,,-1.95E-06,0.021185
,,,-1.94E-06,0.021323125
,,,-1.93E-06,0.0209975
,,,-1.92E-06,0.0208625
,,,-1.91E-06,0.020991875
,,,-1.9E-06,0.021149375
,,,-1.89E-06,0.021084375
,,,-1.88E-06,0.020923125
,,,-1.87E-06,0.021036875
,,,-1.86E-06,0.02106
,,,-1.85E-06,0.021039375
,,,-1.84E-06,0.02103125
,,,-1.83E-06,0.021001875
,,,-1.82E-06,0.021069375
,,,-1.81E-06,0.020893125
,,,-1.8E-06,0.020858125
,,,-1.79E-06,0.020925625
,,,-1.78E-06,0.020934375
,,,-1.77E-06,0.020879375
,,,-1.76E-06,0.021031875
,,,-1.75E-06,0.02096
,,,-1.74E-06,0.021010625
,,,-1.73E-06,0.02072875
,,,-1.72E-06,0.02095375
,,,-1.71E-06,0.0211375
,,,-1.7E-06,0.02096
,,,-1.69E-06,0.020995
,,,-1.68E-06,0.0208125
,,,-1.67E-06,0.02097625
,,,-1.66E-06,0.02102375
,,,-1.65E-06,0.021080625
,,,-1.64E-06,0.0208125
,,,-1.63E-06,0.021118125
,,,-1.62E-06,0.02097125
,,,-1.61E-06,0.020675625
,,,-1.6E-06,0.021171875
,,,-1.59E-06,0.0210325
,,,-1.58E-06,0.020695625
,,,-1.57E-06,0.020985
,,,-1.56E-06,0.02114125
,,,-1.55E-06,0.020989375
,,,-1.54E-06,0.0209325
,,,-1.53E-06,0.021110625
,,,-1.52E-06,0.02085625
,,,-1.51E-06,0.02084625
,,,-1.5E-06,0.02093
,,,-1.49E-06,0.02107
,,,-1.48E-06,0.020938125
,,,-1.47E-06,0.02118375
,,,-1.46E-06,0.020899375
,,,-1.45E-06,0.020825
,,,-1.44E-06,0.021068125
,,,-1.43E-06,0.020843125
,,,-1.42E-06,0.0209625
,,,-1.41E-06,0.020960625
,,,-1.4E-06,0.02092125
,,,-1.39E-06,0.020875
,,,-1.38E-06,0.021233125
,,,-1.37E-06,0.020825625
,,,-1.36E-06,0.0211275
,,,-1.35E-06,0.021251875
,,,-1.34E-06,0.02119875
,,,-1.33E-06,0.021098125
,,,-1.32E-06,0.02110875
,,,-1.31E-06,0.020670625
,,,-1.3E-06,0.02074625
,,,-1.29E-06,0.021204375
,,,-1.28E-06,0.02102
,,,-1.27E-06,0.02082875
,,,-1.26E-06,0.0210675
,,,-1.25E-06,0.02069375
,,,-1.24E-06,0.02108125
,,,-1.23E-06,0.021108125
,,,-1.22E-06,0.021193125
,,,-1.21E-06,0.020993125
,,,-1.2E-06,0.020925
,,,-1.19E-06,0.021141875
,,,-1.18E-06,0.02101875
,,,-1.17E-06,0.020805625
,,,-1.16E-06,0.021168125
,,,-1.15E-06,0.0210625
,,,-1.14E-06,0.020841875
,,,-1.13E-06,0.021033125
,,,-1.12E-06,0.020865
,,,-1.11E-06,0.0211875
,,,-1.1E-06,0.020988125
,,,-1.09E-06,0.02088875
,,,-1.08E-06,0.02121
,,,-1.07E-06,0.02103125
,,,-1.06E-06,0.021114375
,,,-1.05E-06,0.02115375
,,,-1.04E-06,0.020718125
,,,-1.03E-06,0.021020625
,,,-1.02E-06,0.020739375
,,,-1.01E-06,0.02103625
,,,-1E-06,0.020976875
,,,-9.9E-07,0.021103125
,,,-9.8E-07,0.020905625
,,,-9.7E-07,0.020865
,,,-9.6E-07,0.021046875
,,,-9.5E-07,0.02115
,,,-9.4E-07,0.0211075
,,,-9.3E-07,0.020866875
,,,-9.2E-07,0.02092125
,,,-9.1E-07,0.020885
,,,-9E-07,0.02118125
,,,-8.9E-07,0.021175
,,,-8.8E-07,0.0209475
,,,-8.7E-07,0.020869375
,,,-8.6E-07,0.02123375
,,,-8.5E-07,0.020796875
,,,-8.4E-07,0.0210225
,,,-8.3E-07,0.021066875
,,,-8.2E-07,0.02081125
,,,-8.1E-07,0.02096
,,,-8E-07,0.021025625
,,,-7.9E-07,0.020936875
,,,-7.8E-07,0.02099
,,,-7.7E-07,0.020943125
,,,-7.6E-07,0.020995
,,,-7.5E-07,0.020924375
,,,-7.4E-07,0.021290625
,,,-7.3E-07,0.020943125
,,,-7.2E-07,0.020863125
,,,-7.1E-07,0.020871875
,,,-7E-07,0.020974375
,,,-6.9E-07,0.02091125
,,,-6.8E-07,0.021235
,,,-6.7E-07,0.02069375
,,,-6.6E-07,0.0209475
,,,-6.5E-07,0.0207225
,,,-6.4E-07,0.021070625
,,,-6.3E-07,0.02085375
,,,-6.2E-07,0.02095
,,,-6.1E-07,0.02090125
,,,-6E-07,0.02106125
,,,-5.9E-07,0.02082375
,,,-5.8E-07,0.02107875
,,,-5.7E-07,0.02080875
,,,-5.6E-07,0.021159375
,,,-5.5E-07,0.021126875
,,,-5.4E-07,0.021038125
,,,-5.3E-07,0.021008125
,,,-5.2E-07,0.020964375
,,,-5.1E-07,0.020965
,,,-5E-07,0.020720625
,,,-4.9E-07,0.0210025
,,,-4.8E-07,0.020931875
,,,-4.7E-07,0.02108
,,,-4.6E-07,0.021013125
,,,-4.5E-07,0.021046875
,,,-4.4E-07,0.021015625
,,,-4.3E-07,0.021141875
,,,-4.2E-07,0.021020625
,,,-4.1E-07,0.0207275
,,,-4E-07,0.020728125
,,,-3.9E-07,0.02106
,,,-3.8E-07,0.02105625
,,,-3.7E-07,0.02093375
,,,-3.6E-07,0.020670625
,,,-3.5E-07,0.021084375
,,,-3.4E-07,0.020943125
,,,-3.3E-07,0.020894375
,,,-3.2E-07,0.021060625
,,,-3.1E-07,0.021214375
,,,-3E-07,0.020860625
,,,-2.9E-07,0.02087875
,,,-2.8E-07,0.020989375
,,,-2.7E-07,0.02118
,,,-2.6E-07,0.02102875
,,,-2.5E-07,0.02113
,,,-2.4E-07,0.021066875
,,,-2.3E-07,0.02107375
,,,-2.2E-07,0.020921875
,,,-2.1E-07,0.021191875
,,,-2E-07,0.020965625
,,,-1.9E-07,0.0210925
,,,-1.8E-07,0.020818125
,,,-1.7E-07,0.02084625
,,,-1.6E-07,0.02073125
,,,-1.5E-07,0.020935625
,,,-1.4E-07,0.021035625
,,,-1.3E-07,0.021140625
,,,-1.2E-07,0.021420625
,,,-1.1E-07,0.0209075
,,,-1E-07,0.021281875
,,,-9E-08,0.021000625
,,,-8E-08,0.020924375
,,,-7E-08,0.020971875
,,,-6E-08,0.02113125
,,,-5E-08,0.020965625
,,,-4E-08,0.021384375
,,,-3E-08,0.021540625
,,,-2E-08,0.02022125
,,,-1E-08,0.019758125
,,,0,0.0203
,,,1E-08,0.0219225
,,,2E-08,0.022361875
,,,3E-08,0.021903125
,,,4E-08,0.020731875
,,,5E-08,0.019893125
,,,6E-08,0.020094375
,,,7E-08,0.020715625
,,,8E-08,0.021235
,,,9E-08,0.021590625
,,,1E-07,0.02162875
,,,1.1E-07,0.02119375
,,,1.2E-07,0.02076
,,,1.3E-07,0.0204475
,,,1.4E-07,0.0206375
,,,1.5E-07,0.020993125
,,,1.6E-07,0.021259375
,,,1.7E-07,0.021008125
,,,1.8E-07,0.02113
,,,1.9E-07,0.02090125
,,,2E-07,0.0210275
,,,2.1E-07,0.020759375
,,,2.2E-07,0.020570625
,,,2.3E-07,0.02114125
,,,2.4E-07,0.021099375
,,,2.5E-07,0.020960625
,,,2.6E-07,0.02104125
,,,2.7E-07,0.02129875
,,,2.8E-07,0.021200625
,,,2.9E-07,0.02097875
,,,3E-07,0.0207825
,,,3.1E-07,0.020741875
,,,3.2E-07,0.02066
,,,3.3E-07,0.02127125
,,,3.4E-07,0.02108
,,,3.5E-07,0.02129125
,,,3.6E-07,0.0210925
,,,3.7E-07,0.020858125
,,,3.8E-07,0.021283125
,,,3.9E-07,0.02094
,,,4E-07,0.020926875
,,,4.1E-07,0.020925625
,,,4.2E-07,0.02098625
,,,4.3E-07,0.02111125
,,,4.4E-07,0.021076875
,,,4.5E-07,0.02104625
,,,4.6E-07,0.020696875
,,,4.7E-07,0.0207425
,,,4.8E-07,0.02126
,,,4.9E-07,0.02099
,,,5E-07,0.021148125
,,,5.1E-07,0.02099625
,,,5.2E-07,0.020893125
,,,5.3E-07,0.021105
,,,5.4E-07,0.020873125
,,,5.5E-07,0.02091
,,,5.6E-07,0.020980625
,,,5.7E-07,0.020935
,,,5.8E-07,0.020940625
,,,5.9E-07,0.020726875
,,,6E-07,0.02109375
,,,6.1E-07,0.02090875
,,,6.2E-07,0.020896875
,,,6.3E-07,0.021015625
,,,6.4E-07,0.02096125
,,,6.5E-07,0.020755625
,,,6.6E-07,0.020988125
,,,6.7E-07,0.020961875
,,,6.8E-07,0.020895625
,,,6.9E-07,0.020850625
,,,7E-07,0.021288125
,,,7.1E-07,0.020754375
,,,7.2E-07,0.021116875
,,,7.3E-07,0.020925
,,,7.4E-07,0.0208975
,,,7.5E-07,0.02102375
,,,7.6E-07,0.020834375
,,,7.7E-07,0.020855
,,,7.8E-07,0.02092375
,,,7.9E-07,0.0212325
,,,8E-07,0.020924375
,,,8.1E-07,0.020736875
,,,8.2E-07,0.020931875
,,,8.3E-07,0.02116375
,,,8.4E-07,0.02109625
,,,8.5E-07,0.02118375
,,,8.6E-07,0.0208875
,,,8.7E-07,0.021250625
,,,8.8E-07,0.0209625
,,,8.9E-07,0.020810625
,,,9E-07,0.021026875
,,,9.1E-07,0.0212975
,,,9.2E-07,0.021161875
,,,9.3E-07,0.021300625
,,,9.4E-07,0.021204375
,,,9.5E-07,0.02078375
,,,9.6E-07,0.020864375
,,,9.7E-07,0.0212775
,,,9.8E-07,0.021000625
,,,9.9E-07,0.020885
,,,1E-06,0.02109875
,,,1.01E-06,0.021155625
,,,1.02E-06,0.02105125
,,,1.03E-06,0.020928125
,,,1.04E-06,0.021164375
,,,1.05E-06,0.021094375
,,,1.06E-06,0.020929375
,,,1.07E-06,0.02090125
,,,1.08E-06,0.02089875
,,,1.09E-06,0.02105875
,,,1.1E-06,0.020771875
,,,1.11E-06,0.0210525
,,,1.12E-06,0.020925
,,,1.13E-06,0.0208125
,,,1.14E-06,0.020809375
,,,1.15E-06,0.021003125
,,,1.16E-06,0.020869375
,,,1.17E-06,0.02073
,,,1.18E-06,0.021168125
,,,1.19E-06,0.020870625
,,,1.2E-06,0.02083875
,,,1.21E-06,0.021048125
,,,1.22E-06,0.020985625
,,,1.23E-06,0.020934375
,,,1.24E-06,0.02094125
,,,1.25E-06,0.02083
,,,1.26E-06,0.0206625
,,,1.27E-06,0.021070625
,,,1.28E-06,0.02090875
,,,1.29E-06,0.02093875
,,,1.3E-06,0.020961875
,,,1.31E-06,0.021039375
,,,1.32E-06,0.02106875
,,,1.33E-06,0.021248125
,,,1.34E-06,0.021193125
,,,1.35E-06,0.021016875
,,,1.36E-06,0.02101
,,,1.37E-06,0.02084625
,,,1.38E-06,0.02096
,,,1.39E-06,0.021046875
,,,1.4E-06,0.020896875
,,,1.41E-06,0.0208575
,,,1.42E-06,0.021190625
,,,1.43E-06,0.020575625
,,,1.44E-06,0.02097875
,,,1.45E-06,0.020791875
,,,1.46E-06,0.02118875
,,,1.47E-06,0.020948125
,,,1.48E-06,0.020995625
,,,1.49E-06,0.020976875
,,,1.5E-06,0.020765
,,,1.51E-06,0.021089375
,,,1.52E-06,0.02108125
,,,1.53E-06,0.021254375
,,,1.54E-06,0.02106875
,,,1.55E-06,0.02083625
,,,1.56E-06,0.020880625
,,,1.57E-06,0.0212225
,,,1.58E-06,0.020758125
,,,1.59E-06,0.020990625
,,,1.6E-06,0.020943125
,,,1.61E-06,0.02099875
,,,1.62E-06,0.0210775
,,,1.63E-06,0.020930625
,,,1.64E-06,0.020881875
,,,1.65E-06,0.021003125
,,,1.66E-06,0.021015
,,,1.67E-06,0.020860625
,,,1.68E-06,0.021045
,,,1.69E-06,0.0209625
,,,1.7E-06,0.021049375
,,,1.71E-06,0.02086125
,,,1.72E-06,0.0210725
,,,1.73E-06,0.0208675
,,,1.74E-06,0.02094
,,,1.75E-06,0.02083
,,,1.76E-06,0.020881875
,,,1.77E-06,0.021076875
,,,1.78E-06,0.020663125
,,,1.79E-06,0.020861875
,,,1.8E-06,0.021011875
,,,1.81E-06,0.020968125
,,,1.82E-06,0.02106875
,,,1.83E-06,0.021186875
,,,1.84E-06,0.020825625
,,,1.85E-06,0.021078125
,,,1.86E-06,0.02064375
,,,1.87E-06,0.020975625
,,,1.88E-06,0.021271875
,,,1.89E-06,0.0211475
,,,1.9E-06,0.0210425
,,,1.91E-06,0.021153125
,,,1.92E-06,0.021014375
,,,1.93E-06,0.021060625
,,,1.94E-06,0.0211475
,,,1.95E-06,0.021054375
,,,1.96E-06,0.020815625
,,,1.97E-06,0.02108
,,,1.98E-06,0.020914375
,,,1.99E-06,0.02089375
,,,2E-06,0.021004375
,,,2.01E-06,0.021051875
,,,2.02E-06,0.020910625
,,,2.03E-06,0.020793125
,,,2.04E-06,0.02116625
,,,2.05E-06,0.02099875
,,,2.06E-06,0.020915
,,,2.07E-06,0.020964375
,,,2.08E-06,0.020854375
,,,2.09E-06,0.020784375
,,,2.1E-06,0.021081875
,,,2.11E-06,0.0211125
,,,2.12E-06,0.0209575
,,,2.13E-06,0.021386875
,,,2.14E-06,0.0207025
,,,2.15E-06,0.021055
,,,2.16E-06,0.021060625
,,,2.17E-06,0.020865625
,,,2.18E-06,0.020836875
,,,2.19E-06,0.020904375
,,,2.2E-06,0.02103875
,,,2.21E-06,0.02089625
,,,2.22E-06,0.021185625
,,,2.23E-06,0.021118125
,,,2.24E-06,0.02079
,,,2.25E-06,0.021193125
,,,2.26E-06,0.020879375
,,,2.27E-06,0.021045
,,,2.28E-06,0.020823125
,,,2.29E-06,0.020893125
,,,2.3E-06,0.020938125
,,,2.31E-06,0.02107375
,,,2.32E-06,0.02124
,,,2.33E-06,0.020765
,,,2.34E-06,0.021073125
,,,2.35E-06,0.02087
,,,2.36E-06,0.02100375
,,,2.37E-06,0.021046875
,,,2.38E-06,0.021094375
,,,2.39E-06,0.020985625
,,,2.4E-06,0.0213825
,,,2.41E-06,0.020998125
,,,2.42E-06,0.0211425
,,,2.43E-06,0.0210975
,,,2.44E-06,0.02073125
,,,2.45E-06,0.02123375
,,,2.46E-06,0.02098875
,,,2.47E-06,0.020959375
,,,2.48E-06,0.02101625
,,,2.49E-06,0.02112875
,,,2.5E-06,0.021011875
,,,2.51E-06,0.021154375
,,,2.52E-06,0.020798125
,,,2.53E-06,0.02077625
,,,2.54E-06,0.02095
,,,2.55E-06,0.02100625
,,,2.56E-06,0.02076375
,,,2.57E-06,0.020706875
,,,2.58E-06,0.021169375
,,,2.59E-06,0.021103125
,,,2.6E-06,0.020926875
,,,2.61E-06,0.020854375
,,,2.62E-06,0.021190625
,,,2.63E-06,0.020770625
,,,2.64E-06,0.020873125
,,,2.65E-06,0.02112875
,,,2.66E-06,0.0209425
,,,2.67E-06,0.020588125
,,,2.68E-06,0.021365
,,,2.69E-06,0.02118375
,,,2.7E-06,0.02113
,,,2.71E-06,0.021088125
,,,2.72E-06,0.020905625
,,,2.73E-06,0.021038125
,,,2.74E-06,0.021005625
,,,2.75E-06,0.02122375
,,,2.76E-06,0.020920625
,,,2.77E-06,0.02094875
,,,2.78E-06,0.020943125
,,,2.79E-06,0.020888125
,,,2.8E-06,0.021
,,,2.81E-06,0.021031875
,,,2.82E-06,0.02118125
,,,2.83E-06,0.02093125
,,,2.84E-06,0.02081875
,,,2.85E-06,0.020915
,,,2.86E-06,0.0214025
,,,2.87E-06,0.020875
,,,2.88E-06,0.020869375
,,,2.89E-06,0.02109625
,,,2.9E-06,0.02078125
,,,2.91E-06,0.0210525
,,,2.92E-06,0.021104375
,,,2.93E-06,0.021003125
,,,2.94E-06,0.02106375
,,,2.95E-06,0.0211625
,,,2.96E-06,0.02121375
,,,2.97E-06,0.021218125
,,,2.98E-06,0.021115
,,,2.99E-06,0.020938125
,,,3E-06,0.02094125
,,,3.01E-06,0.0209525
,,,3.02E-06,0.020938125
,,,3.03E-06,0.021036875
,,,3.04E-06,0.021065625
,,,3.05E-06,0.020953125
,,,3.06E-06,0.020779375
,,,3.07E-06,0.021134375
,,,3.08E-06,0.021091875
,,,3.09E-06,0.020993125
,,,3.1E-06,0.021020625
,,,3.11E-06,0.02087
,,,3.12E-06,0.020946875
,,,3.13E-06,0.021205625
,,,3.14E-06,0.021084375
,,,3.15E-06,0.020789375
,,,3.16E-06,0.02089625
,,,3.17E-06,0.021366875
,,,3.18E-06,0.02094125
,,,3.19E-06,0.020709375
,,,3.2E-06,0.0212275
,,,3.21E-06,0.020705625
,,,3.22E-06,0.021196875
,,,3.23E-06,0.020875
,,,3.24E-06,0.02111375
,,,3.25E-06,0.021066875
,,,3.26E-06,0.02100625
,,,3.27E-06,0.020895625
,,,3.28E-06,0.02115
,,,3.29E-06,0.0209475
,,,3.3E-06,0.02098
,,,3.31E-06,0.02098
,,,3.32E-06,0.02095
,,,3.33E-06,0.02105
,,,3.34E-06,0.02074
,,,3.35E-06,0.020933125
,,,3.36E-06,0.02106125
,,,3.37E-06,0.020979375
,,,3.38E-06,0.0210475
,,,3.39E-06,0.021146875
,,,3.4E-06,0.020855
,,,3.41E-06,0.020895
,,,3.42E-06,0.020828125
,,,3.43E-06,0.020805625
,,,3.44E-06,0.021063125
,,,3.45E-06,0.020915625
,,,3.46E-06,0.0209
,,,3.47E-06,0.020996875
,,,3.48E-06,0.020813125
,,,3.49E-06,0.02076125
,,,3.5E-06,0.020833125
,,,3.51E-06,0.0207325
,,,3.52E-06,0.02086625
,,,3.53E-06,0.020911875
,,,3.54E-06,0.02101125
,,,3.55E-06,0.02089625
,,,3.56E-06,0.021055625
,,,3.57E-06,0.021115
