data/raw/Final_POL_Test_1/SOP053_Ch4.csv

"Record Length",1000,"Points",-5E-06,0.01963625
"Sample Interval",1E-08,s,-4.99E-06,0.019834375
"Trigger Point",500,"Samples",-4.98E-06,0.019824375
"Trigger Time",0,s,-4.97E-06,0.020178125
"",,,-4.96E-06,0.019880625
"Horizontal Offset",-5E-06,s,-4.95E-06,0.02004125
,,,-4.94E-06,0.019925625
,,,-4.93E-06,0.01991625
,,,-4.92E-06,0.01995375
,,,-4.91E-06,0.019913125
,,,-4.9E-06,0.01991
,,,-4.89E-06,0.020164375
,,,-4.88E-06,0.020085
,,,-4.87E-06,0.020068125
,,,-4.86E-06,0.019949375
,,,-4.85E-06,0.019835625
,,,-4.84E-06,0.01994
,,,-4.83E-06,0.019734375
,,,-4.82E-06,0.02001125
,,,-4.81E-06,0.020118125
,,,-4.8E-06,0.01985625
,,,-4.79E-06,0.020016875
,,,-4.78E-06,0.020229375
,,,-4.77E-06,0.01990625
,,,-4.76E-06,0.01964375
,,,-4.75E-06,0.020128125
,,,-4.74E-06,0.01978375
,,,-4.73E-06,0.02007625
,,,-4.72E-06,0.02024
,,,-4.71E-06,0.019843125
,,,-4.7E-06,0.0200225
,,,-4.69E-06,0.02000875
,,,-4.68E-06,0.019933125
,,,-4.67E-06,0.019863125
,,,-4.66E-06,0.019976875
,,,-4.65E-06,0.01974375
,,,-4.64E-06,0.01985875
,,,-4.63E-06,0.01998
,,,-4.62E-06,0.01987875
,,,-4.61E-06,0.019715
,,,-4.6E-06,0.02004125
,,,-4.59E-06,0.020115625
,,,-4.58E-06,0.019604375
,,,-4.57E-06,0.0199475
,,,-4.56E-06,0.020015
,,,-4.55E-06,0.02011625
,,,-4.54E-06,0.019788125
,,,-4.53E-06,0.0199025
,,,-4.52E-06,0.0199575
,,,-4.51E-06,0.01981125
,,,-4.5E-06,0.020094375
,,,-4.49E-06,0.019764375
,,,-4.48E-06,0.019945625
,,,-4.47E-06,0.020065
,,,-4.46E-06,0.019860625
,,,-4.45E-06,0.02003125
,,,-4.44E-06,0.01971125
,,,-4.43E-06,0.020171875
,,,-4.42E-06,0.01984
,,,-4.41E-06,0.019905625
,,,-4.4E-06,0.019975625
,,,-4.39E-06,0.01986625
,,,-4.38E-06,0.020125625
,,,-4.37E-06,0.0198825
,,,-4.36E-06,0.01991125
,,,-4.35E-06,0.01972375
,,,-4.34E-06,0.019966875
,,,-4.33E-06,0.019918125
,,,-4.32E-06,0.02022125
,,,-4.31E-06,0.019828125
,,,-4.3E-06,0.020195
,,,-4.29E-06,0.020041875
,,,-4.28E-06,0.02007625
,,,-4.27E-06,0.019801875
,,,-4.26E-06,0.01982125
,,,-4.25E-06,0.01988875
,,,-4.24E-06,0.019789375
,,,-4.23E-06,0.020134375
,,,-4.22E-06,0.019838125
,,,-4.21E-06,0.019945625
,,,-4.2E-06,0.019885625
,,,-4.19E-06,0.019925
,,,-4.18E-06,0.01993875
,,,-4.17E-06,0.01988
,,,-4.16E-06,0.0198325
,,,-4.15E-06,0.01985125
,,,-4.14E-06,0.019950625
,,,-4.13E-06,0.01999875
,,,-4.12E-06,0.019940625
,,,-4.11E-06,0.020018125
,,,-4.1E-06,0.01992125
,,,-4.09E-06,0.02001375
,,,-4.08E-06,0.01982625
,,,-4.07E-06,0.02017625
,,,-4.06E-06,0.019701875
,,,-4.05E-06,0.020074375
,,,-4.04E-06,0.0200925
,,,-4.03E-06,0.019843125
,,,-4.02E-06,0.019886875
,,,-4.01E-06,0.019908125
,,,-4E-06,0.02006
,,,-3.99E-06,0.02002125
,,,-3.98E-06,0.0202025
,,,-3.97E-06,0.0199575
,,,-3.96E-06,0.0198525
,,,-3.95E-06,0.020001875
,,,-3.94E-06,0.019945625
,,,-3.93E-06,0.019733125
,,,-3.92E-06,0.019766875
,,,-3.91E-06,0.019974375
,,,-3.9E-06,0.019984375
,,,-3.89E-06,0.02029125
,,,-3.88E-06,0.019975
,,,-3.87E-06,0.019974375
,,,-3.86E-06,0.0201225
,,,-3.85E-06,0.02000125
,,,-3.84E-06,0.01993
,,,-3.83E-06,0.02017625
,,,-3.82E-06,0.020115625
,,,-3.81E-06,0.020111875
,,,-3.8E-06,0.020024375
,,,-3.79E-06,0.02009
,,,-3.78E-06,0.020086875
,,,-3.77E-06,0.019903125
,,,-3.76E-06,0.019855625
,,,-3.75E-06,0.02017125
,,,-3.74E-06,0.019890625
,,,-3.73E-06,0.01986375
,,,-3.72E-06,0.019779375
,,,-3.71E-06,0.019774375
,,,-3.7E-06,0.020129375
,,,-3.69E-06,0.01966625
,,,-3.68E-06,0.020014375
,,,-3.67E-06,0.020095
,,,-3.66E-06,0.020035
,,,-3.65E-06,0.019683125
,,,-3.64E-06,0.02016625
,,,-3.63E-06,0.01997
,,,-3.62E-06,0.020045625
,,,-3.61E-06,0.019880625
,,,-3.6E-06,0.019970625
,,,-3.59E-06,0.019964375
,,,-3.58E-06,0.01998375
,,,-3.57E-06,0.019751875
,,,-3.56E-06,0.019974375
,,,-3.55E-06,0.019970625
,,,-3.54E-06,0.019861875
,,,-3.53E-06,0.019850625
,,,-3.52E-06,0.019895
,,,-3.51E-06,0.019945625
,,,-3.5E-06,0.020025625
,,,-3.49E-06,0.019910625
,,,-3.48E-06,0.01989
,,,-3.47E-06,0.020096875
,,,-3.46E-06,0.019751875
,,,-3.45E-06,0.020009375
,,,-3.44E-06,0.01981
,,,-3.43E-06,0.020104375
,,,-3.42E-06,0.020031875
,,,-3.41E-06,0.020064375
,,,-3.4E-06,0.020160625
,,,-3.39E-06,0.020013125
,,,-3.38E-06,0.01999625
,,,-3.37E-06,0.019984375
,,,-3.36E-06,0.019828125
,,,-3.35E-06,0.0198775
,,,-3.34E-06,0.019975
,,,-3.33E-06,0.0198625
,,,-3.32E-06,0.020011875
,,,-3.31E-06,0.019996875
,,,-3.3E-06,0.020075
,,,-3.29E-06,0.019883125
,,,-3.28E-06,0.02006875
,,,-3.27E-06,0.019970625
,,,-3.26E-06,0.02016875
,,,-3.25E-06,0.020129375
,,,-3.24E-06,0.02014875
,,,-3.23E-06,0.01970875
,,,-3.22E-06,0.0201375
,,,-3.21E-06,0.020101875
,,,-3.2E-06,0.0198575
,,,-3.19E-06,0.019891875
,,,-3.18E-06,0.020098125
,,,-3.17E-06,0.02011
,,,-3.16E-06,0.019798125
,,,-3.15E-06,0.019926875
,,,-3.14E-06,0.019775625
,,,-3.13E-06,0.01988125
,,,-3.12E-06,0.02014125
,,,-3.11E-06,0.019814375
,,,-3.1E-06,0.019890625
,,,-3.09E-06,0.0200075
,,,-3.08E-06,0.019833125
,,,-3.07E-06,0.0200075
,,,-3.06E-06,0.0198975
,,,-3.05E-06,0.01993
,,,-3.04E-06,0.020081875
,,,-3.03E-06,0.019955
,,,-3.02E-06,0.019878125
,,,-3.01E-06,0.019914375
,,,-3E-06,0.01999125
,,,-2.99E-06,0.019998125
,,,-2.98E-06,0.02015375
,,,-2.97E-06,0.01982
,,,-2.96E-06,0.019864375
,,,-2.95E-06,0.01987875
,,,-2.94E-06,0.01982375
,,,-2.93E-06,0.0200125
,,,-2.92E-06,0.019894375
,,,-2.91E-06,0.02000375
,,,-2.9E-06,0.019774375
,,,-2.89E-06,0.020036875
,,,-2.88E-06,0.020119375
,,,-2.87E-06,0.02006125
,,,-2.86E-06,0.019926875
,,,-2.85E-06,0.019820625
,,,-2.84E-06,0.020048125
,,,-2.83E-06,0.019935625
,,,-2.82E-06,0.02006875
,,,-2.81E-06,0.02008125
,,,-2.8E-06,0.019749375
,,,-2.79E-06,0.02001375
,,,-2.78E-06,0.019648125
,,,-2.77E-06,0.019795625
,,,-2.76E-06,0.020003125
,,,-2.75E-06,0.02013125
,,,-2.74E-06,0.020190625
,,,-2.73E-06,0.0199075
,,,-2.72E-06,0.020055
,,,-2.71E-06,0.0199525
,,,-2.7E-06,0.019865625
,,,-2.69E-06,0.020049375
,,,-2.68E-06,0.0198725
,,,-2.67E-06,0.020146875
,,,-2.66E-06,0.0201325
,,,-2.65E-06,0.0199925
,,,-2.64E-06,0.020184375
,,,-2.63E-06,0.020275625
,,,-2.62E-06,0.019999375
,,,-2.61E-06,0.0196525
,,,-2.6E-06,0.0201575
,,,-2.59E-06,0.019685
,,,-2.58E-06,0.020154375
,,,-2.57E-06,0.02009375
,,,-2.56E-06,0.02000125
,,,-2.55E-06,0.019835
,,,-2.54E-06,0.019704375
,,,-2.53E-06,0.0200175
,,,-2.52E-06,0.020178125
,,,-2.51E-06,0.01999625
,,,-2.5E-06,0.020118125
,,,-2.49E-06,0.019883125
,,,-2.48E-06,0.019813125
,,,-2.47E-06,0.019991875
,,,-2.46E-06,0.019729375
,,,-2.45E-06,0.019863125
,,,-2.44E-06,0.020001875
,,,-2.43E-06,0.0200675
,,,-2.42E-06,0.020058125
,,,-2.41E-06,0.019665
,,,-2.4E-06,0.020131875
,,,-2.39E-06,0.019803125
,,,-2.38E-06,0.020000625
,,,-2.37E-06,0.0197825
,,,-2.36E-06,0.019794375
,,,-2.35E-06,0.020105
,,,-2.34E-06,0.0196425
,,,-2.33E-06,0.01993
,,,-2.32E-06,0.01996125
,,,-2.31E-06,0.020035625
,,,-2.3E-06,0.02002625
,,,-2.29E-06,0.0199175
,,,-2.28E-06,0.0197175
,,,-2.27E-06,0.01988375
,,,-2.26E-06,0.02009625
,,,-2.25E-06,0.01998
,,,-2.24E-06,0.019939375
,,,-2.23E-06,0.019748125
,,,-2.22E-06,0.0199675
,,,-2.21E-06,0.01975
,,,-2.2E-06,0.020015625
,,,-2.19E-06,0.01996125
,,,-2.18E-06,0.019885
,,,-2.17E-06,0.019908125
,,,-2.16E-06,0.019920625
,,,-2.15E-06,0.020135625
,,,-2.14E-06,0.020206875
,,,-2.13E-06,0.020078125
,,,-2.12E-06,0.0198625
,,,-2.11E-06,0.0199525
,,,-2.1E-06,0.01972625
,,,-2.09E-06,0.019973125
,,,-2.08E-06,0.020156875
,,,-2.07E-06,0.02010875
,,,-2.06E-06,0.0199675
,,,-2.05E-06,0.020043125
,,,-2.04E-06,0.020128125
,,,-2.03E-06,0.020125625
,,,-2.02E-06,0.020020625
,,,-2.01E-06,0.019779375
,,,-2E-06,0.01994125
,,,-1.99E-06,0.019925625
,,,-1.98E-06,0.0199725
,,,-1.97E-06,0.020240625
,,,-1.96E-06,0.02022
,,,-1.95E-06,0.020049375
,,,-1.94E-06,0.019900625
,,,-1.93E-06,0.020016875
,,,-1.92E-06,0.020005625
,,,-1.91E-06,0.0199525
,,,-1.9E-06,0.01983375
,,,-1.89E-06,0.019851875
,,,-1.88E-06,0.019764375
,,,-1.87E-06,0.01978125
,,,-1.86E-06,0.02006125
,,,-1.85E-06,0.019891875
,,,-1.84E-06,0.019980625
,,,-1.83E-06,0.0201125
,,,-1.82E-06,0.0199575
,,,-1.81E-06,0.0197875
,,,-1.8E-06,0.02003625
,,,-1.79E-06,0.019981875
,,,-1.78E-06,0.01998875
,,,-1.77E-06,0.01995125
,,,-1.76E-06,0.0199575
,,,-1.75E-06,0.0200925
,,,-1.74E-06,0.0199475
,,,-1.73E-06,0.01998625
,,,-1.72E-06,0.019674375
,,,-1.71E-06,0.0198575
,,,-1.7E-06,0.019995625
,,,-1.69E-06,0.0200425
,,,-1.68E-06,0.020116875
,,,-1.67E-06,0.020149375
,,,-1.66E-06,0.019770625
,,,-1.65E-06,0.020009375
,,,-1.64E-06,0.019914375
,,,-1.63E-06,0.02016875
,,,-1.62E-06,0.01979
,,,-1.61E-06,0.02005125
,,,-1.6E-06,0.019729375
,,,-1.59E-06,0.01991125
,,,-1.58E-06,0.020136875
,,,-1.57E-06,0.020110625
,,,-1.56E-06,0.02007125
,,,-1.55E-06,0.019895
,,,-1.54E-06,0.020024375
,,,-1.53E-06,0.019985
,,,-1.52E-06,0.019803125
,,,-1.51E-06,0.01990375
,,,-1.5E-06,0.019901875
,,,-1.49E-06,0.01987125
,,,-1.48E-06,0.01977875
,,,-1.47E-06,0.020045625
,,,-1.46E-06,0.01985625
,,,-1.45E-06,0.01994
,,,-1.44E-06,0.019875625
,,,-1.43E-06,0.020109375
,,,-1.42E-06,0.0199175
,,,-1.41E-06,0.019890625
,,,-1.4E-06,0.019911875
,,,-1.39E-06,0.02018125
,,,-1.38E-06,0.020220625
,,,-1.37E-06,0.019833125
,,,-1.36E-06,0.0200025
,,,-1.35E-06,0.01994625
,,,-1.34E-06,0.019989375
,,,-1.33E-06,0.019866875
,,,-1.32E-06,0.020195
,,,-1.31E-06,0.019923125
,,,-1.3E-06,0.02000625
,,,-1.29E-06,0.019851875
,,,-1.28E-06,0.019896875
,,,-1.27E-06,0.02000625
,,,-1.26E-06,0.019735625
,,,-1.25E-06,0.02002
,,,-1.24E-06,0.02007625
,,,-1.23E-06,0.0198
,,,-1.22E-06,0.0201775
,,,-1.21E-06,0.0200325
,,,-1.2E-06,0.019709375
,,,-1.19E-06,0.019954375
,,,-1.18E-06,0.019920625
,,,-1.17E-06,0.019975625
,,,-1.16E-06,0.02002625
,,,-1.15E-06,0.019815
,,,-1.14E-06,0.02018125
,,,-1.13E-06,0.020016875
,,,-1.12E-06,0.02013
,,,-1.11E-06,0.01994
,,,-1.1E-06,0.019969375
,,,-1.09E-06,0.02020875
,,,-1.08E-06,0.02001875
,,,-1.07E-06,0.0198675
,,,-1.06E-06,0.01998
,,,-1.05E-06,0.02003625
,,,-1.04E-06,0.019725625
,,,-1.03E-06,0.0199075
,,,-1.02E-06,0.0201875
,,,-1.01E-06,0.02008625
,,,-1E-06,0.01994875
,,,-9.9E-07,0.019945
,,,-9.8E-07,0.019864375
,,,-9.7E-07,0.02003125
,,,-9.6E-07,0.019700625
,,,-9.5E-07,0.019953125
,,,-9.4E-07,0.019753125
,,,-9.3E-07,0.019756875
,,,-9.2E-07,0.02006375
,,,-9.1E-07,0.01979875
,,,-9E-07,0.02001
,,,-8.9E-07,0.02027
,,,-8.8E-07,0.01967125
,,,-8.7E-07,0.019825625
,,,-8.6E-07,0.01975
,,,-8.5E-07,0.01992625
,,,-8.4E-07,0.020025625
,,,-8.3E-07,0.019934375
,,,-8.2E-07,0.020070625
,,,-8.1E-07,0.019954375
,,,-8E-07,0.019945625
,,,-7.9E-07,0.019896875
,,,-7.8E-07,0.020003125
,,,-7.7E-07,0.019908125
,,,-7.6E-07,0.020256875
,,,-7.5E-07,0.019926875
,,,-7.4E-07,0.019923125
,,,-7.3E-07,0.019994375
,,,-7.2E-07,0.019878125
,,,-7.1E-07,0.019829375
,,,-7E-07,0.0201275
,,,-6.9E-07,0.019936875
,,,-6.8E-07,0.019868125
,,,-6.7E-07,0.019935625
,,,-6.6E-07,0.019959375
,,,-6.5E-07,0.01988
,,,-6.4E-07,0.020055
,,,-6.3E-07,0.020039375
,,,-6.2E-07,0.01986375
,,,-6.1E-07,0.01989875
,,,-6E-07,0.02015125
,,,-5.9E-07,0.02000875
,,,-5.8E-07,0.019998125
,,,-5.7E-07,0.020008125
,,,-5.6E-07,0.020183125
,,,-5.5E-07,0.019841875
,,,-5.4E-07,0.020056875
,,,-5.3E-07,0.01981625
,,,-5.2E-07,0.019993125
,,,-5.1E-07,0.0197975
,,,-5E-07,0.019719375
,,,-4.9E-07,0.02021625
,,,-4.8E-07,0.0202025
,,,-4.7E-07,0.020018125
,,,-4.6E-07,0.020250625
,,,-4.5E-07,0.0198175
,,,-4.4E-07,0.019903125
,,,-4.3E-07,0.02026375
,,,-4.2E-07,0.020170625
,,,-4.1E-07,0.02020625
,,,-4E-07,0.019859375
,,,-3.9E-07,0.020035625
,,,-3.8E-07,0.01979625
,,,-3.7E-07,0.020079375
,,,-3.6E-07,0.019929375
,,,-3.5E-07,0.0198375
,,,-3.4E-07,0.01994125
,,,-3.3E-07,0.019870625
,,,-3.2E-07,0.020026875
,,,-3.1E-07,0.019924375
,,,-3E-07,0.0198025
,,,-2.9E-07,0.0198725
,,,-2.8E-07,0.019914375
,,,-2.7E-07,0.019874375
,,,-2.6E-07,0.0200825
,,,-2.5E-07,0.019778125
,,,-2.4E-07,0.019974375
,,,-2.3E-07,0.019999375
,,,-2.2E-07,0.01982375
,,,-2.1E-07,0.019920625
,,,-2E-07,0.01990125
,,,-1.9E-07,0.020029375
,,,-1.8E-07,0.019793125
,,,-1.7E-07,0.020110625
,,,-1.6E-07,0.0198375
,,,-1.5E-07,0.0198825
,,,-1.4E-07,0.01976375
,,,-1.3E-07,0.0200775
,,,-1.2E-07,0.019705
,,,-1.1E-07,0.02006
,,,-1E-07,0.01997
,,,-9E-08,0.019971875
,,,-8E-08,0.019778125
,,,-7E-08,0.019719375
,,,-6E-08,0.019865
,,,-5E-08,0.019951875
,,,-4E-08,0.0202925
,,,-3E-08,0.020739375
,,,-2E-08,0.01919125
,,,-1E-08,0.018623125
,,,0,0.019055
,,,1E-08,0.02084375
,,,2E-08,0.021394375
,,,3E-08,0.021065625
,,,4E-08,0.019355625
,,,5E-08,0.019161875
,,,6E-08,0.019210625
,,,7E-08,0.019419375
,,,8E-08,0.020284375
,,,9E-08,0.020464375
,,,1E-07,0.020615625
,,,1.1E-07,0.019775625
,,,1.2E-07,0.01949625
,,,1.3E-07,0.01957375
,,,1.4E-07,0.019799375
,,,1.5E-07,0.020046875
,,,1.6E-07,0.020269375
,,,1.7E-07,0.020095625
,,,1.8E-07,0.0199575
,,,1.9E-07,0.0196375
,,,2E-07,0.02013875
,,,2.1E-07,0.019849375
,,,2.2E-07,0.019869375
,,,2.3E-07,0.0199925
,,,2.4E-07,0.01986625
,,,2.5E-07,0.01994375
,,,2.6E-07,0.019845
,,,2.7E-07,0.0200725
,,,2.8E-07,0.0197825
,,,2.9E-07,0.01993
,,,3E-07,0.019869375
,,,3.1E-07,0.019985
,,,3.2E-07,0.01983125
,,,3.3E-07,0.01971625
,,,3.4E-07,0.019975625
,,,3.5E-07,0.019830625
,,,3.6E-07,0.01995625
,,,3.7E-07,0.019860625
,,,3.8E-07,0.01979375
,,,3.9E-07,0.0198125
,,,4E-07,0.0198575
,,,4.1E-07,0.020065
,,,4.2E-07,0.01998125
,,,4.3E-07,0.01994125
,,,4.4E-07,0.019874375
,,,4.5E-07,0.01996625
,,,4.6E-07,0.01993375
,,,4.7E-07,0.020111875
,,,4.8E-07,0.0199
,,,4.9E-07,0.019718125
,,,5E-07,0.019639375
,,,5.1E-07,0.019965625
,,,5.2E-07,0.0197425
,,,5.3E-07,0.0198625
,,,5.4E-07,0.02011125
,,,5.5E-07,0.01986125
,,,5.6E-07,0.019763125
,,,5.7E-07,0.02005375
,,,5.8E-07,0.019896875
,,,5.9E-07,0.019911875
,,,6E-07,0.019978125
,,,6.1E-07,0.019755625
,,,6.2E-07,0.0196475
,,,6.3E-07,0.019836875
,,,6.4E-07,0.019824375
,,,6.5E-07,0.01992875
,,,6.6E-07,0.01995
,,,6.7E-07,0.01980625
,,,6.8E-07,0.019941875
,,,6.9E-07,0.019850625
,,,7E-07,0.02020875
,,,7.1E-07,0.01997875
,,,7.2E-07,0.0197725
,,,7.3E-07,0.019995
,,,7.4E-07,0.019948125
,,,7.5E-07,0.02009125
,,,7.6E-07,0.01999375
,,,7.7E-07,0.02004625
,,,7.8E-07,0.019926875
,,,7.9E-07,0.019906875
,,,8E-07,0.019825
,,,8.1E-07,0.02001
,,,8.2E-07,0.020095625
,,,8.3E-07,0.01991
,,,8.4E-07,0.019946875
,,,8.5E-07,0.0202175
,,,8.6E-07,0.019920625
,,,8.7E-07,0.020061875
,,,8.8E-07,0.019925625
,,,8.9E-07,0.019984375
,,,9E-07,0.019918125
,,,9.1E-07,0.01981625
,,,9.2E-07,0.020120625
,,,9.3E-07,0.019864375
,,,9.4E-07,0.019771875
,,,9.5E-07,0.01987
,,,9.6E-07,0.01990375
,,,9.7E-07,0.020013125
,,,9.8E-07,0.01959625
,,,9.9E-07,0.019848125
,,,1E-06,0.019935625
,,,1.01E-06,0.019750625
,,,1.02E-06,0.019815625
,,,1.03E-06,0.019905
,,,1.04E-06,0.019848125
,,,1.05E-06,0.02000625
,,,1.06E-06,0.01983
,,,1.07E-06,0.01985
,,,1.08E-06,0.019955
,,,1.09E-06,0.020120625
,,,1.1E-06,0.02002375
,,,1.11E-06,0.019795625
,,,1.12E-06,0.019676875
,,,1.13E-06,0.019990625
,,,1.14E-06,0.01970375
,,,1.15E-06,0.019933125
,,,1.16E-06,0.0199125
,,,1.17E-06,0.0202575
,,,1.18E-06,0.020045625
,,,1.19E-06,0.019831875
,,,1.2E-06,0.01981625
,,,1.21E-06,0.01975875
,,,1.22E-06,0.020136875
,,,1.23E-06,0.02001125
,,,1.24E-06,0.01995125
,,,1.25E-06,0.019663125
,,,1.26E-06,0.020263125
,,,1.27E-06,0.019704375
,,,1.28E-06,0.0200225
,,,1.29E-06,0.020116875
,,,1.3E-06,0.019965
,,,1.31E-06,0.0196975
,,,1.32E-06,0.020119375
,,,1.33E-06,0.019985
,,,1.34E-06,0.019745
,,,1.35E-06,0.02003
,,,1.36E-06,0.02000875
,,,1.37E-06,0.01997375
,,,1.38E-06,0.01992
,,,1.39E-06,0.019879375
,,,1.4E-06,0.0200875
,,,1.41E-06,0.019880625
,,,1.42E-06,0.019939375
,,,1.43E-06,0.0199775
,,,1.44E-06,0.0199575
,,,1.45E-06,0.019779375
,,,1.46E-06,0.019993125
,,,1.47E-06,0.019808125
,,,1.48E-06,0.019758125
,,,1.49E-06,0.01988875
,,,1.5E-06,0.01987625
,,,1.51E-06,0.019879375
,,,1.52E-06,0.019805625
,,,1.53E-06,0.020016875
,,,1.54E-06,0.019705625
,,,1.55E-06,0.019955
,,,1.56E-06,0.019844375
,,,1.57E-06,0.020181875
,,,1.58E-06,0.019935
,,,1.59E-06,0.019946875
,,,1.6E-06,0.020059375
,,,1.61E-06,0.020044375
,,,1.62E-06,0.019946875
,,,1.63E-06,0.020078125
,,,1.64E-06,0.019925625
,,,1.65E-06,0.019964375
,,,1.66E-06,0.01986625
,,,1.67E-06,0.020003125
,,,1.68E-06,0.019764375
,,,1.69E-06,0.019904375
,,,1.7E-06,0.01973125
,,,1.71E-06,0.0200275
,,,1.72E-06,0.01984
,,,1.73E-06,0.020054375
,,,1.74E-06,0.0200675
,,,1.75E-06,0.020040625
,,,1.76E-06,0.019769375
,,,1.77E-06,0.0197825
,,,1.78E-06,0.020030625
,,,1.79E-06,0.020133125
,,,1.8E-06,0.019665625
,,,1.81E-06,0.0198875
,,,1.82E-06,0.019765625
,,,1.83E-06,0.020099375
,,,1.84E-06,0.019889375
,,,1.85E-06,0.02016375
,,,1.86E-06,0.019868125
,,,1.87E-06,0.019996875
,,,1.88E-06,0.019751875
,,,1.89E-06,0.020053125
,,,1.9E-06,0.01996
,,,1.91E-06,0.02002875
,,,1.92E-06,0.019815625
,,,1.93E-06,0.019776875
,,,1.94E-06,0.0197625
,,,1.95E-06,0.019956875
,,,1.96E-06,0.01978
,,,1.97E-06,0.019923125
,,,1.98E-06,0.01996
,,,1.99E-06,0.019973125
,,,2E-06,0.0199675
,,,2.01E-06,0.019869375
,,,2.02E-06,0.02000625
,,,2.03E-06,0.019918125
,,,2.04E-06,0.019889375
,,,2.05E-06,0.019928125
,,,2.06E-06,0.020133125
,,,2.07E-06,0.019995
,,,2.08E-06,0.020069375
,,,2.09E-06,0.01974375
,,,2.1E-06,0.019983125
,,,2.11E-06,0.01993875
,,,2.12E-06,0.019878125
,,,2.13E-06,0.019880625
,,,2.14E-06,0.020125
,,,2.15E-06,0.019911875
,,,2.16E-06,0.019843125
,,,2.17E-06,0.019904375
,,,2.18E-06,0.01974
,,,2.19E-06,0.02007125
,,,2.2E-06,0.019919375
,,,2.21E-06,0.020026875
,,,2.22E-06,0.020335
,,,2.23E-06,0.019753125
,,,2.24E-06,0.019846875
,,,2.25E-06,0.019983125
,,,2.26E-06,0.019785625
,,,2.27E-06,0.01983125
,,,2.28E-06,0.019950625
,,,2.29E-06,0.01987125
,,,2.3E-06,0.020051875
,,,2.31E-06,0.019865
,,,2.32E-06,0.019705
,,,2.33E-06,0.02009125
,,,2.34E-06,0.01988375
,,,2.35E-06,0.01993375
,,,2.36E-06,0.020053125
,,,2.37E-06,0.02004
,,,2.38E-06,0.020051875
,,,2.39E-06,0.020375625
,,,2.4E-06,0.01985625
,,,2.41E-06,0.020028125
,,,2.42E-06,0.019860625
,,,2.43E-06,0.019615
,,,2.44E-06,0.0199225
,,,2.45E-06,0.0198425
,,,2.46E-06,0.01988625
,,,2.47E-06,0.019828125
,,,2.48E-06,0.019925625
,,,2.49E-06,0.02000375
,,,2.5E-06,0.020010625
,,,2.51E-06,0.019964375
,,,2.52E-06,0.019916875
,,,2.53E-06,0.019798125
,,,2.54E-06,0.019955
,,,2.55E-06,0.019891875
,,,2.56E-06,0.02007625
,,,2.57E-06,0.019714375
,,,2.58E-06,0.019925
,,,2.59E-06,0.0199025
,,,2.6E-06,0.01989375
,,,2.61E-06,0.019813125
,,,2.62E-06,0.0198225
,,,2.63E-06,0.019723125
,,,2.64E-06,0.020096875
,,,2.65E-06,0.020085
,,,2.66E-06,0.019964375
,,,2.67E-06,0.019665625
,,,2.68E-06,0.020049375
,,,2.69E-06,0.0197575
,,,2.7E-06,0.02013375
,,,2.71E-06,0.01984625
,,,2.72E-06,0.020014375
,,,2.73E-06,0.019943125
,,,2.74E-06,0.019755625
,,,2.75E-06,0.01975125
,,,2.76E-06,0.019821875
,,,2.77E-06,0.020000625
,,,2.78E-06,0.020145
,,,2.79E-06,0.020109375
,,,2.8E-06,0.01993375
,,,2.81E-06,0.020149375
,,,2.82E-06,0.01998625
,,,2.83E-06,0.020144375
,,,2.84E-06,0.01980625
,,,2.85E-06,0.019944375
,,,2.86E-06,0.01989875
,,,2.87E-06,0.01983375
,,,2.88E-06,0.0200425
,,,2.89E-06,0.0199775
,,,2.9E-06,0.019795
,,,2.91E-06,0.0199825
,,,2.92E-06,0.019723125
,,,2.93E-06,0.019903125
,,,2.94E-06,0.0199625
,,,2.95E-06,0.019966875
,,,2.96E-06,0.019838125
,,,2.97E-06,0.019845625
,,,2.98E-06,0.019653125
,,,2.99E-06,0.0198825
,,,3E-06,0.020031875
,,,3.01E-06,0.01980625
,,,3.02E-06,0.019980625
,,,3.03E-06,0.019713125
,,,3.04E-06,0.020058125
,,,3.05E-06,0.01984125
,,,3.06E-06,0.020068125
,,,3.07E-06,0.019938125
,,,3.08E-06,0.019921875
,,,3.09E-06,0.01991125
,,,3.1E-06,0.0199125
,,,3.11E-06,0.02017125
,,,3.12E-06,0.01993875
,,,3.13E-06,0.020095
,,,3.14E-06,0.019760625
,,,3.15E-06,0.02017375
,,,3.16E-06,0.019925
,,,3.17E-06,0.0198525
,,,3.18E-06,0.019968125
,,,3.19E-06,0.020038125
,,,3.2E-06,0.01988625
,,,3.21E-06,0.019685
,,,3.22E-06,0.02016625
,,,3.23E-06,0.01986125
,,,3.24E-06,0.0199625
,,,3.25E-06,0.01995
,,,3.26E-06,0.02034625
,,,3.27E-06,0.0199225
,,,3.28E-06,0.020063125
,,,3.29E-06,0.01978
,,,3.3E-06,0.0200775
,,,3.31E-06,0.020121875
,,,3.32E-06,0.019895
,,,3.33E-06,0.020056875
,,,3.34E-06,0.01986875
,,,3.35E-06,0.019979375
,,,3.36E-06,0.020376875
,,,3.37E-06,0.01997
,,,3.38E-06,0.019898125
,,,3.39E-06,0.019904375
,,,3.4E-06,0.01988875
,,,3.41E-06,0.01992875
,,,3.42E-06,0.019728125
,,,3.43E-06,0.01993125
,,,3.44E-06,0.01994875
,,,3.45E-06,0.019720625
,,,3.46E-06,0.019775
,,,3.47E-06,0.019991875
,,,3.48E-06,0.01993125
,,,3.49E-06,0.01995
,,,3.5E-06,0.019806875
,,,3.51E-06,0.019936875
,,,3.52E-06,0.019871875
,,,3.53E-06,0.020038125
,,,3.54E-06,0.0199775
