data/raw/Final_POL_Test_1/SOP019_Ch2.csv

"Record Length",1000,"Points",-5E-06,0.02156
"Sample Interval",1E-08,s,-4.99E-06,0.0216525
"Trigger Point",500,"Samples",-4.98E-06,0.021533125
"Trigger Time",0,s,-4.97E-06,0.0216875
"",,,-4.96E-06,0.02152375
"Horizontal Offset",-5E-06,s,-4.95E-06,0.021761875
,,,-4.94E-06,0.02158
,,,-4.93E-06,0.0214275
,,,-4.92E-06,0.021604375
,,,-4.91E-06,0.021600625
,,,-4.9E-06,0.021599375
,,,-4.89E-06,0.021826875
,,,-4.88E-06,0.021581875
,,,-4.87E-06,0.021744375
,,,-4.86E-06,0.021465
,,,-4.85E-06,0.0215125
,,,-4.84E-06,0.0216725
,,,-4.83E-06,0.021674375
,,,-4.82E-06,0.021646875
,,,-4.81E-06,0.02125625
,,,-4.8E-06,0.021465625
,,,-4.79E-06,0.0214375
,,,-4.78E-06,0.0215825
,,,-4.77E-06,0.02157
,,,-4.76E-06,0.02177
,,,-4.75E-06,0.021469375
,,,-4.74E-06,0.02159875
,,,-4.73E-06,0.021571875
,,,-4.72E-06,0.02187375
,,,-4.71E-06,0.021616875
,,,-4.7E-06,0.021408125
,,,-4.69E-06,0.02144625
,,,-4.68E-06,0.021699375
,,,-4.67E-06,0.021234375
,,,-4.66E-06,0.02171125
,,,-4.65E-06,0.021458125
,,,-4.64E-06,0.021575
,,,-4.63E-06,0.021584375
,,,-4.62E-06,0.02175625
,,,-4.61E-06,0.021373125
,,,-4.6E-06,0.021379375
,,,-4.59E-06,0.021358125
,,,-4.58E-06,0.0216975
,,,-4.57E-06,0.021575
,,,-4.56E-06,0.0215175
,,,-4.55E-06,0.021700625
,,,-4.54E-06,0.021615625
,,,-4.53E-06,0.02168875
,,,-4.52E-06,0.02143625
,,,-4.51E-06,0.021391875
,,,-4.5E-06,0.021554375
,,,-4.49E-06,0.021453125
,,,-4.48E-06,0.021410625
,,,-4.47E-06,0.021349375
,,,-4.46E-06,0.021350625
,,,-4.45E-06,0.021494375
,,,-4.44E-06,0.021800625
,,,-4.43E-06,0.02181
,,,-4.42E-06,0.021695
,,,-4.41E-06,0.021649375
,,,-4.4E-06,0.0214825
,,,-4.39E-06,0.02176625
,,,-4.38E-06,0.021705
,,,-4.37E-06,0.021408125
,,,-4.36E-06,0.021559375
,,,-4.35E-06,0.021645625
,,,-4.34E-06,0.0217475
,,,-4.33E-06,0.021663125
,,,-4.32E-06,0.02127125
,,,-4.31E-06,0.021558125
,,,-4.3E-06,0.021688125
,,,-4.29E-06,0.02160625
,,,-4.28E-06,0.021843125
,,,-4.27E-06,0.0213775
,,,-4.26E-06,0.0214575
,,,-4.25E-06,0.021299375
,,,-4.24E-06,0.02117375
,,,-4.23E-06,0.021650625
,,,-4.22E-06,0.021625
,,,-4.21E-06,0.02141125
,,,-4.2E-06,0.02146375
,,,-4.19E-06,0.0212975
,,,-4.18E-06,0.021548125
,,,-4.17E-06,0.0216025
,,,-4.16E-06,0.02173875
,,,-4.15E-06,0.021838125
,,,-4.14E-06,0.02151125
,,,-4.13E-06,0.02138125
,,,-4.12E-06,0.021524375
,,,-4.11E-06,0.02150625
,,,-4.1E-06,0.021690625
,,,-4.09E-06,0.021621875
,,,-4.08E-06,0.0213625
,,,-4.07E-06,0.0214675
,,,-4.06E-06,0.021344375
,,,-4.05E-06,0.021646875
,,,-4.04E-06,0.02153625
,,,-4.03E-06,0.021343125
,,,-4.02E-06,0.021645
,,,-4.01E-06,0.02154125
,,,-4E-06,0.021723125
,,,-3.99E-06,0.021435625
,,,-3.98E-06,0.02164875
,,,-3.97E-06,0.021508125
,,,-3.96E-06,0.02165375
,,,-3.95E-06,0.021640625
,,,-3.94E-06,0.0215925
,,,-3.93E-06,0.0215625
,,,-3.92E-06,0.0216575
,,,-3.91E-06,0.021555625
,,,-3.9E-06,0.02150875
,,,-3.89E-06,0.02140125
,,,-3.88E-06,0.021411875
,,,-3.87E-06,0.021413125
,,,-3.86E-06,0.021423125
,,,-3.85E-06,0.02133375
,,,-3.84E-06,0.021756875
,,,-3.83E-06,0.021779375
,,,-3.82E-06,0.0213325
,,,-3.81E-06,0.02174875
,,,-3.8E-06,0.021415
,,,-3.79E-06,0.02162625
,,,-3.78E-06,0.02148875
,,,-3.77E-06,0.021554375
,,,-3.76E-06,0.02148375
,,,-3.75E-06,0.021639375
,,,-3.74E-06,0.02154625
,,,-3.73E-06,0.02162625
,,,-3.72E-06,0.021656875
,,,-3.71E-06,0.021493125
,,,-3.7E-06,0.021330625
,,,-3.69E-06,0.021645
,,,-3.68E-06,0.021528125
,,,-3.67E-06,0.02159125
,,,-3.66E-06,0.02147
,,,-3.65E-06,0.0216775
,,,-3.64E-06,0.021631875
,,,-3.63E-06,0.02146125
,,,-3.62E-06,0.021458125
,,,-3.61E-06,0.021624375
,,,-3.6E-06,0.021668125
,,,-3.59E-06,0.021476875
,,,-3.58E-06,0.0214875
,,,-3.57E-06,0.021533125
,,,-3.56E-06,0.021481875
,,,-3.55E-06,0.021578125
,,,-3.54E-06,0.021614375
,,,-3.53E-06,0.021440625
,,,-3.52E-06,0.021758125
,,,-3.51E-06,0.021529375
,,,-3.5E-06,0.021705625
,,,-3.49E-06,0.021530625
,,,-3.48E-06,0.02166125
,,,-3.47E-06,0.021670625
,,,-3.46E-06,0.021573125
,,,-3.45E-06,0.021606875
,,,-3.44E-06,0.02175375
,,,-3.43E-06,0.021608125
,,,-3.42E-06,0.0216525
,,,-3.41E-06,0.02167375
,,,-3.4E-06,0.02147
,,,-3.39E-06,0.021468125
,,,-3.38E-06,0.021561875
,,,-3.37E-06,0.021468125
,,,-3.36E-06,0.021609375
,,,-3.35E-06,0.02158625
,,,-3.34E-06,0.02168625
,,,-3.33E-06,0.021393125
,,,-3.32E-06,0.02169
,,,-3.31E-06,0.021700625
,,,-3.3E-06,0.021679375
,,,-3.29E-06,0.02146
,,,-3.28E-06,0.021580625
,,,-3.27E-06,0.02157125
,,,-3.26E-06,0.021348125
,,,-3.25E-06,0.0216725
,,,-3.24E-06,0.021315625
,,,-3.23E-06,0.021555
,,,-3.22E-06,0.02164125
,,,-3.21E-06,0.021485
,,,-3.2E-06,0.0213625
,,,-3.19E-06,0.02163
,,,-3.18E-06,0.021585
,,,-3.17E-06,0.02158375
,,,-3.16E-06,0.021640625
,,,-3.15E-06,0.021545625
,,,-3.14E-06,0.021454375
,,,-3.13E-06,0.0216325
,,,-3.12E-06,0.02148
,,,-3.11E-06,0.0213875
,,,-3.1E-06,0.021636875
,,,-3.09E-06,0.02117
,,,-3.08E-06,0.0213625
,,,-3.07E-06,0.02183625
,,,-3.06E-06,0.021365625
,,,-3.05E-06,0.021708125
,,,-3.04E-06,0.021578125
,,,-3.03E-06,0.021425
,,,-3.02E-06,0.02167
,,,-3.01E-06,0.021725625
,,,-3E-06,0.02171375
,,,-2.99E-06,0.021828125
,,,-2.98E-06,0.021583125
,,,-2.97E-06,0.02143625
,,,-2.96E-06,0.021549375
,,,-2.95E-06,0.021325
,,,-2.94E-06,0.021568125
,,,-2.93E-06,0.0216225
,,,-2.92E-06,0.021755
,,,-2.91E-06,0.0216575
,,,-2.9E-06,0.02177
,,,-2.89E-06,0.021503125
,,,-2.88E-06,0.021518125
,,,-2.87E-06,0.0216725
,,,-2.86E-06,0.0215775
,,,-2.85E-06,0.02138
,,,-2.84E-06,0.02144625
,,,-2.83E-06,0.02139125
,,,-2.82E-06,0.02179
,,,-2.81E-06,0.021510625
,,,-2.8E-06,0.02167875
,,,-2.79E-06,0.02176375
,,,-2.78E-06,0.021649375
,,,-2.77E-06,0.02162
,,,-2.76E-06,0.02151
,,,-2.75E-06,0.02162875
,,,-2.74E-06,0.02147125
,,,-2.73E-06,0.021604375
,,,-2.72E-06,0.02158
,,,-2.71E-06,0.021249375
,,,-2.7E-06,0.0214875
,,,-2.69E-06,0.02166
,,,-2.68E-06,0.0216825
,,,-2.67E-06,0.02150125
,,,-2.66E-06,0.02182625
,,,-2.65E-06,0.02155375
,,,-2.64E-06,0.02175625
,,,-2.63E-06,0.021723125
,,,-2.62E-06,0.02158875
,,,-2.61E-06,0.021309375
,,,-2.6E-06,0.0215525
,,,-2.59E-06,0.021408125
,,,-2.58E-06,0.02144875
,,,-2.57E-06,0.0217
,,,-2.56E-06,0.02164625
,,,-2.55E-06,0.021551875
,,,-2.54E-06,0.021754375
,,,-2.53E-06,0.021474375
,,,-2.52E-06,0.02168625
,,,-2.51E-06,0.0217425
,,,-2.5E-06,0.021741875
,,,-2.49E-06,0.021623125
,,,-2.48E-06,0.021426875
,,,-2.47E-06,0.021773125
,,,-2.46E-06,0.021628125
,,,-2.45E-06,0.021455
,,,-2.44E-06,0.021603125
,,,-2.43E-06,0.021570625
,,,-2.42E-06,0.021679375
,,,-2.41E-06,0.021866875
,,,-2.4E-06,0.02151125
,,,-2.39E-06,0.02175125
,,,-2.38E-06,0.02164125
,,,-2.37E-06,0.021318125
,,,-2.36E-06,0.021563125
,,,-2.35E-06,0.02181125
,,,-2.34E-06,0.021531875
,,,-2.33E-06,0.02178125
,,,-2.32E-06,0.021555625
,,,-2.31E-06,0.021401875
,,,-2.3E-06,0.021494375
,,,-2.29E-06,0.021618125
,,,-2.28E-06,0.02157625
,,,-2.27E-06,0.02134625
,,,-2.26E-06,0.021631875
,,,-2.25E-06,0.02154375
,,,-2.24E-06,0.02165125
,,,-2.23E-06,0.02134125
,,,-2.22E-06,0.0216925
,,,-2.21E-06,0.0215575
,,,-2.2E-06,0.02163125
,,,-2.19E-06,0.02158625
,,,-2.18E-06,0.02161
,,,-2.17E-06,0.02146125
,,,-2.16E-06,0.021586875
,,,-2.15E-06,0.021543125
,,,-2.14E-06,0.021459375
,,,-2.13E-06,0.021355
,,,-2.12E-06,0.0215675
,,,-2.11E-06,0.021660625
,,,-2.1E-06,0.021565
,,,-2.09E-06,0.021715625
,,,-2.08E-06,0.021595625
,,,-2.07E-06,0.02144875
,,,-2.06E-06,0.02155875
,,,-2.05E-06,0.02164125
,,,-2.04E-06,0.021594375
,,,-2.03E-06,0.0213875
,,,-2.02E-06,0.021495625
,,,-2.01E-06,0.021375
,,,-2E-06,0.021269375
,,,-1.99E-06,0.02159125
,,,-1.98E-06,0.021281875
,,,-1.97E-06,0.02175625
,,,-1.96E-06,0.02149375
,,,-1.95E-06,0.021591875
,,,-1.94E-06,0.021229375
,,,-1.93E-06,0.02165875
,,,-1.92E-06,0.021419375
,,,-1.91E-06,0.021701875
,,,-1.9E-06,0.021509375
,,,-1.89E-06,0.02132875
,,,-1.88E-06,0.021519375
,,,-1.87E-06,0.02150625
,,,-1.86E-06,0.0216225
,,,-1.85E-06,0.0215975
,,,-1.84E-06,0.021809375
,,,-1.83E-06,0.02145625
,,,-1.82E-06,0.0213425
,,,-1.81E-06,0.021694375
,,,-1.8E-06,0.02154
,,,-1.79E-06,0.02137875
,,,-1.78E-06,0.02162625
,,,-1.77E-06,0.021478125
,,,-1.76E-06,0.021415625
,,,-1.75E-06,0.021541875
,,,-1.74E-06,0.0215725
,,,-1.73E-06,0.021598125
,,,-1.72E-06,0.02153625
,,,-1.71E-06,0.021798125
,,,-1.7E-06,0.021423125
,,,-1.69E-06,0.021653125
,,,-1.68E-06,0.021609375
,,,-1.67E-06,0.021578125
,,,-1.66E-06,0.021323125
,,,-1.65E-06,0.021565
,,,-1.64E-06,0.021571875
,,,-1.63E-06,0.02162875
,,,-1.62E-06,0.02144375
,,,-1.61E-06,0.021645
,,,-1.6E-06,0.021644375
,,,-1.59E-06,0.021614375
,,,-1.58E-06,0.02162125
,,,-1.57E-06,0.02169
,,,-1.56E-06,0.021445
,,,-1.55E-06,0.021453125
,,,-1.54E-06,0.0212875
,,,-1.53E-06,0.021643125
,,,-1.52E-06,0.0215775
,,,-1.51E-06,0.021708125
,,,-1.5E-06,0.021694375
,,,-1.49E-06,0.021415
,,,-1.48E-06,0.021623125
,,,-1.47E-06,0.02152625
,,,-1.46E-06,0.02148875
,,,-1.45E-06,0.021375625
,,,-1.44E-06,0.021491875
,,,-1.43E-06,0.021539375
,,,-1.42E-06,0.0217425
,,,-1.41E-06,0.02168375
,,,-1.4E-06,0.02166875
,,,-1.39E-06,0.021465625
,,,-1.38E-06,0.021835625
,,,-1.37E-06,0.021391875
,,,-1.36E-06,0.021625
,,,-1.35E-06,0.02171625
,,,-1.34E-06,0.021659375
,,,-1.33E-06,0.021535
,,,-1.32E-06,0.0216125
,,,-1.31E-06,0.02157875
,,,-1.3E-06,0.02139375
,,,-1.29E-06,0.02163125
,,,-1.28E-06,0.021745625
,,,-1.27E-06,0.02167625
,,,-1.26E-06,0.0216225
,,,-1.25E-06,0.021750625
,,,-1.24E-06,0.0216175
,,,-1.23E-06,0.02153125
,,,-1.22E-06,0.021650625
,,,-1.21E-06,0.021729375
,,,-1.2E-06,0.021553125
,,,-1.19E-06,0.021568125
,,,-1.18E-06,0.021449375
,,,-1.17E-06,0.0216325
,,,-1.16E-06,0.021675625
,,,-1.15E-06,0.021645
,,,-1.14E-06,0.021633125
,,,-1.13E-06,0.021516875
,,,-1.12E-06,0.021475625
,,,-1.11E-06,0.0215475
,,,-1.1E-06,0.0215325
,,,-1.09E-06,0.021758125
,,,-1.08E-06,0.02157125
,,,-1.07E-06,0.0214425
,,,-1.06E-06,0.0214575
,,,-1.05E-06,0.021428125
,,,-1.04E-06,0.021550625
,,,-1.03E-06,0.02168125
,,,-1.02E-06,0.021620625
,,,-1.01E-06,0.021865625
,,,-1E-06,0.02147625
,,,-9.9E-07,0.021754375
,,,-9.8E-07,0.021671875
,,,-9.7E-07,0.0213875
,,,-9.6E-07,0.021380625
,,,-9.5E-07,0.0212725
,,,-9.4E-07,0.0214875
,,,-9.3E-07,0.02167625
,,,-9.2E-07,0.021678125
,,,-9.1E-07,0.021463125
,,,-9E-07,0.0217
,,,-8.9E-07,0.021564375
,,,-8.8E-07,0.02161125
,,,-8.7E-07,0.021435
,,,-8.6E-07,0.021639375
,,,-8.5E-07,0.021505625
,,,-8.4E-07,0.021574375
,,,-8.3E-07,0.021560625
,,,-8.2E-07,0.02142375
,,,-8.1E-07,0.021399375
,,,-8E-07,0.02163
,,,-7.9E-07,0.021405625
,,,-7.8E-07,0.021729375
,,,-7.7E-07,0.021508125
,,,-7.6E-07,0.021674375
,,,-7.5E-07,0.021613125
,,,-7.4E-07,0.021956875
,,,-7.3E-07,0.021568125
,,,-7.2E-07,0.021435
,,,-7.1E-07,0.021796875
,,,-7E-07,0.02178875
,,,-6.9E-07,0.021325625
,,,-6.8E-07,0.0216225
,,,-6.7E-07,0.021441875
,,,-6.6E-07,0.02170375
,,,-6.5E-07,0.021609375
,,,-6.4E-07,0.021326875
,,,-6.3E-07,0.021431875
,,,-6.2E-07,0.0216025
,,,-6.1E-07,0.02173375
,,,-6E-07,0.02137
,,,-5.9E-07,0.02168
,,,-5.8E-07,0.021655
,,,-5.7E-07,0.02153
,,,-5.6E-07,0.021471875
,,,-5.5E-07,0.021509375
,,,-5.4E-07,0.021389375
,,,-5.3E-07,0.02165
,,,-5.2E-07,0.0215675
,,,-5.1E-07,0.02146625
,,,-5E-07,0.021505
,,,-4.9E-07,0.021855
,,,-4.8E-07,0.02157125
,,,-4.7E-07,0.021571875
,,,-4.6E-07,0.02153375
,,,-4.5E-07,0.021361875
,,,-4.4E-07,0.021801875
,,,-4.3E-07,0.0217225
,,,-4.2E-07,0.02182875
,,,-4.1E-07,0.021426875
,,,-4E-07,0.021506875
,,,-3.9E-07,0.021636875
,,,-3.8E-07,0.021565
,,,-3.7E-07,0.021693125
,,,-3.6E-07,0.021463125
,,,-3.5E-07,0.021594375
,,,-3.4E-07,0.021571875
,,,-3.3E-07,0.0217575
,,,-3.2E-07,0.021748125
,,,-3.1E-07,0.02122
,,,-3E-07,0.0216375
,,,-2.9E-07,0.021505
,,,-2.8E-07,0.02164
,,,-2.7E-07,0.021665625
,,,-2.6E-07,0.02167
,,,-2.5E-07,0.0217225
,,,-2.4E-07,0.02160625
,,,-2.3E-07,0.021654375
,,,-2.2E-07,0.02142125
,,,-2.1E-07,0.021710625
,,,-2E-07,0.021695
,,,-1.9E-07,0.021523125
,,,-1.8E-07,0.021396875
,,,-1.7E-07,0.021571875
,,,-1.6E-07,0.02171125
,,,-1.5E-07,0.021225
,,,-1.4E-07,0.021505625
,,,-1.3E-07,0.021625
,,,-1.2E-07,0.0216175
,,,-1.1E-07,0.02167
,,,-1E-07,0.0213425
,,,-9E-08,0.0217675
,,,-8E-08,0.021603125
,,,-7E-08,0.021415625
,,,-6E-08,0.02156375
,,,-5E-08,0.021628125
,,,-4E-08,0.022190625
,,,-3E-08,0.022859375
,,,-2E-08,0.0203825
,,,-1E-08,0.01874
,,,0,0.019110625
,,,1E-08,0.023904375
,,,2E-08,0.02544625
,,,3E-08,0.024565625
,,,4E-08,0.021026875
,,,5E-08,0.01917875
,,,6E-08,0.01864625
,,,7E-08,0.020335
,,,8E-08,0.02245375
,,,9E-08,0.023371875
,,,1E-07,0.023394375
,,,1.1E-07,0.022065625
,,,1.2E-07,0.020678125
,,,1.3E-07,0.02018625
,,,1.4E-07,0.020938125
,,,1.5E-07,0.021769375
,,,1.6E-07,0.022073125
,,,1.7E-07,0.022065
,,,1.8E-07,0.02183125
,,,1.9E-07,0.021545
,,,2E-07,0.02174875
,,,2.1E-07,0.02136875
,,,2.2E-07,0.021174375
,,,2.3E-07,0.021499375
,,,2.4E-07,0.021845
,,,2.5E-07,0.02169
,,,2.6E-07,0.02153125
,,,2.7E-07,0.02128875
,,,2.8E-07,0.021624375
,,,2.9E-07,0.02152375
,,,3E-07,0.0216625
,,,3.1E-07,0.021460625
,,,3.2E-07,0.021571875
,,,3.3E-07,0.021628125
,,,3.4E-07,0.021528125
,,,3.5E-07,0.0217475
,,,3.6E-07,0.021454375
,,,3.7E-07,0.02153625
,,,3.8E-07,0.021426875
,,,3.9E-07,0.021500625
,,,4E-07,0.02151
,,,4.1E-07,0.02128
,,,4.2E-07,0.021601875
,,,4.3E-07,0.021584375
,,,4.4E-07,0.021648125
,,,4.5E-07,0.021530625
,,,4.6E-07,0.0215775
,,,4.7E-07,0.021575625
,,,4.8E-07,0.021546875
,,,4.9E-07,0.0215725
,,,5E-07,0.02179125
,,,5.1E-07,0.02164625
,,,5.2E-07,0.021769375
,,,5.3E-07,0.021438125
,,,5.4E-07,0.021384375
,,,5.5E-07,0.02128375
,,,5.6E-07,0.021679375
,,,5.7E-07,0.0215275
,,,5.8E-07,0.021430625
,,,5.9E-07,0.021610625
,,,6E-07,0.02137625
,,,6.1E-07,0.02116875
,,,6.2E-07,0.021396875
,,,6.3E-07,0.02163125
,,,6.4E-07,0.021653125
,,,6.5E-07,0.021291875
,,,6.6E-07,0.02176625
,,,6.7E-07,0.02159375
,,,6.8E-07,0.021414375
,,,6.9E-07,0.0215425
,,,7E-07,0.02152625
,,,7.1E-07,0.02149
,,,7.2E-07,0.02186875
,,,7.3E-07,0.021543125
,,,7.4E-07,0.02160875
,,,7.5E-07,0.0215325
,,,7.6E-07,0.021339375
,,,7.7E-07,0.0215
,,,7.8E-07,0.021308125
,,,7.9E-07,0.02176375
,,,8E-07,0.02167625
,,,8.1E-07,0.0216375
,,,8.2E-07,0.021463125
,,,8.3E-07,0.02154125
,,,8.4E-07,0.02165625
,,,8.5E-07,0.02165
,,,8.6E-07,0.02141
,,,8.7E-07,0.02156
,,,8.8E-07,0.021549375
,,,8.9E-07,0.02176
,,,9E-07,0.02179875
,,,9.1E-07,0.021273125
,,,9.2E-07,0.02161375
,,,9.3E-07,0.02167375
,,,9.4E-07,0.021458125
,,,9.5E-07,0.02142
,,,9.6E-07,0.0214825
,,,9.7E-07,0.0214275
,,,9.8E-07,0.021516875
,,,9.9E-07,0.021598125
,,,1E-06,0.021745625
,,,1.01E-06,0.02152875
,,,1.02E-06,0.021438125
,,,1.03E-06,0.021644375
,,,1.04E-06,0.021251875
,,,1.05E-06,0.021768125
,,,1.06E-06,0.021608125
,,,1.07E-06,0.021561875
,,,1.08E-06,0.021455
,,,1.09E-06,0.0217525
,,,1.1E-06,0.02158625
,,,1.11E-06,0.0214725
,,,1.12E-06,0.0216
,,,1.13E-06,0.02141625
,,,1.14E-06,0.0215825
,,,1.15E-06,0.021449375
,,,1.16E-06,0.02196625
,,,1.17E-06,0.02147625
,,,1.18E-06,0.02158125
,,,1.19E-06,0.02165125
,,,1.2E-06,0.021223125
,,,1.21E-06,0.0217075
,,,1.22E-06,0.02152
,,,1.23E-06,0.021465625
,,,1.24E-06,0.021481875
,,,1.25E-06,0.02142875
,,,1.26E-06,0.021386875
,,,1.27E-06,0.0215125
,,,1.28E-06,0.021745
,,,1.29E-06,0.021405625
,,,1.3E-06,0.0215025
,,,1.31E-06,0.02184625
,,,1.32E-06,0.021465625
,,,1.33E-06,0.021428125
,,,1.34E-06,0.021618125
,,,1.35E-06,0.0214225
,,,1.36E-06,0.021401875
,,,1.37E-06,0.02139125
,,,1.38E-06,0.02153875
,,,1.39E-06,0.02146875
,,,1.4E-06,0.0216325
,,,1.41E-06,0.021551875
,,,1.42E-06,0.021451875
,,,1.43E-06,0.02171625
,,,1.44E-06,0.021338125
,,,1.45E-06,0.021495625
,,,1.46E-06,0.021605
,,,1.47E-06,0.021775
,,,1.48E-06,0.021431875
,,,1.49E-06,0.0215825
,,,1.5E-06,0.021698125
,,,1.51E-06,0.021674375
,,,1.52E-06,0.02128
,,,1.53E-06,0.0214025
,,,1.54E-06,0.021629375
,,,1.55E-06,0.021568125
,,,1.56E-06,0.021570625
,,,1.57E-06,0.021788125
,,,1.58E-06,0.021631875
,,,1.59E-06,0.02139
,,,1.6E-06,0.02134625
,,,1.61E-06,0.0216775
,,,1.62E-06,0.02162875
,,,1.63E-06,0.021588125
,,,1.64E-06,0.021755625
,,,1.65E-06,0.021735
,,,1.66E-06,0.0213775
,,,1.67E-06,0.02138625
,,,1.68E-06,0.021320625
,,,1.69E-06,0.021251875
,,,1.7E-06,0.021695625
,,,1.71E-06,0.02151375
,,,1.72E-06,0.021823125
,,,1.73E-06,0.02155375
,,,1.74E-06,0.0216
,,,1.75E-06,0.0217575
,,,1.76E-06,0.0213125
,,,1.77E-06,0.0214825
,,,1.78E-06,0.021608125
,,,1.79E-06,0.0216
,,,1.8E-06,0.021650625
,,,1.81E-06,0.021819375
,,,1.82E-06,0.0218025
,,,1.83E-06,0.0214
,,,1.84E-06,0.021485
,,,1.85E-06,0.021535625
,,,1.86E-06,0.02155375
,,,1.87E-06,0.02135625
,,,1.88E-06,0.0215125
,,,1.89E-06,0.02165
,,,1.9E-06,0.02161625
,,,1.91E-06,0.02157125
,,,1.92E-06,0.021418125
,,,1.93E-06,0.0217525
,,,1.94E-06,0.021488125
,,,1.95E-06,0.021786875
,,,1.96E-06,0.02157125
,,,1.97E-06,0.021756875
,,,1.98E-06,0.021994375
,,,1.99E-06,0.02178125
,,,2E-06,0.021740625
,,,2.01E-06,0.02148125
,,,2.02E-06,0.021489375
,,,2.03E-06,0.021638125
,,,2.04E-06,0.021645
,,,2.05E-06,0.021360625
,,,2.06E-06,0.0217525
,,,2.07E-06,0.0216
,,,2.08E-06,0.021755
,,,2.09E-06,0.021520625
,,,2.1E-06,0.021640625
,,,2.11E-06,0.02149625
,,,2.12E-06,0.02143
,,,2.13E-06,0.021564375
,,,2.14E-06,0.02132875
,,,2.15E-06,0.02162625
,,,2.16E-06,0.021590625
,,,2.17E-06,0.02139875
,,,2.18E-06,0.02169125
,,,2.19E-06,0.021601875
,,,2.2E-06,0.021458125
,,,2.21E-06,0.02183875
,,,2.22E-06,0.02174875
,,,2.23E-06,0.021783125
,,,2.24E-06,0.02180625
,,,2.25E-06,0.021441875
,,,2.26E-06,0.021649375
,,,2.27E-06,0.021425
,,,2.28E-06,0.021441875
,,,2.29E-06,0.02158625
,,,2.3E-06,0.02129
,,,2.31E-06,0.021664375
,,,2.32E-06,0.021728125
,,,2.33E-06,0.021245625
,,,2.34E-06,0.021763125
,,,2.35E-06,0.02144125
,,,2.36E-06,0.02163875
,,,2.37E-06,0.021810625
,,,2.38E-06,0.021533125
,,,2.39E-06,0.021479375
,,,2.4E-06,0.0216675
,,,2.41E-06,0.02141875
,,,2.42E-06,0.021260625
,,,2.43E-06,0.021520625
,,,2.44E-06,0.021751875
,,,2.45E-06,0.021618125
,,,2.46E-06,0.02173375
,,,2.47E-06,0.021425625
,,,2.48E-06,0.02170875
,,,2.49E-06,0.02151
,,,2.5E-06,0.0216225
,,,2.51E-06,0.021610625
,,,2.52E-06,0.02153375
,,,2.53E-06,0.021713125
,,,2.54E-06,0.02156125
,,,2.55E-06,0.02168
,,,2.56E-06,0.021644375
,,,2.57E-06,0.02158375
,,,2.58E-06,0.021735625
,,,2.59E-06,0.02158625
,,,2.6E-06,0.02188125
,,,2.61E-06,0.021776875
,,,2.62E-06,0.021560625
,,,2.63E-06,0.021405
,,,2.64E-06,0.0214225
,,,2.65E-06,0.02152125
,,,2.66E-06,0.0216575
,,,2.67E-06,0.0214075
,,,2.68E-06,0.021688125
,,,2.69E-06,0.02140125
,,,2.7E-06,0.02174
,,,2.71E-06,0.02156125
,,,2.72E-06,0.021614375
,,,2.73E-06,0.021551875
,,,2.74E-06,0.0214325
,,,2.75E-06,0.021525
,,,2.76E-06,0.021603125
,,,2.77E-06,0.02155125
,,,2.78E-06,0.0214225
,,,2.79E-06,0.02147
,,,2.8E-06,0.021898125
,,,2.81E-06,0.021536875
,,,2.82E-06,0.02154
,,,2.83E-06,0.021453125
,,,2.84E-06,0.021459375
,,,2.85E-06,0.0214075
,,,2.86E-06,0.021635625
,,,2.87E-06,0.02159
,,,2.88E-06,0.021535
,,,2.89E-06,0.021358125
,,,2.9E-06,0.021650625
,,,2.91E-06,0.021341875
,,,2.92E-06,0.021645
,,,2.93E-06,0.021405
,,,2.94E-06,0.0216075
,,,2.95E-06,0.021464375
,,,2.96E-06,0.021531875
,,,2.97E-06,0.021515
,,,2.98E-06,0.021714375
,,,2.99E-06,0.021633125
,,,3E-06,0.02161625
,,,3.01E-06,0.021348125
,,,3.02E-06,0.0217075
,,,3.03E-06,0.021649375
,,,3.04E-06,0.021858125
,,,3.05E-06,0.021883125
,,,3.06E-06,0.02157375
,,,3.07E-06,0.02162
,,,3.08E-06,0.021406875
,,,3.09E-06,0.021621875
,,,3.1E-06,0.021540625
,,,3.11E-06,0.0213975
,,,3.12E-06,0.021655625
,,,3.13E-06,0.02161125
,,,3.14E-06,0.021641875
,,,3.15E-06,0.021556875
,,,3.16E-06,0.021785625
,,,3.17E-06,0.021445625
,,,3.18E-06,0.02129875
,,,3.19E-06,0.021558125
,,,3.2E-06,0.021400625
,,,3.21E-06,0.021551875
,,,3.22E-06,0.021699375
,,,3.23E-06,0.021859375
,,,3.24E-06,0.021403125
,,,3.25E-06,0.02149125
,,,3.26E-06,0.02157
,,,3.27E-06,0.0215275
,,,3.28E-06,0.02150625
,,,3.29E-06,0.02151625
,,,3.3E-06,0.021906875
,,,3.31E-06,0.0215175
,,,3.32E-06,0.02157
,,,3.33E-06,0.02150875
,,,3.34E-06,0.021421875
,,,3.35E-06,0.0217625
,,,3.36E-06,0.021498125
,,,3.37E-06,0.0215675
,,,3.38E-06,0.021565
,,,3.39E-06,0.02164
,,,3.4E-06,0.021645625
,,,3.41E-06,0.021774375
,,,3.42E-06,0.02172625
,,,3.43E-06,0.021605
,,,3.44E-06,0.0216225
,,,3.45E-06,0.021635
,,,3.46E-06,0.021671875
,,,3.47E-06,0.021440625
,,,3.48E-06,0.0216325
,,,3.49E-06,0.02158875
,,,3.5E-06,0.02160375
,,,3.51E-06,0.02142
,,,3.52E-06,0.021443125
,,,3.53E-06,0.021641875
,,,3.54E-06,0.02155
,,,3.55E-06,0.02157875
,,,3.56E-06,0.02160375
,,,3.57E-06,0.02128125
,,,3.58E-06,0.021724375
