data/raw/Final_POL_Test_1/SOP012_Ch2.csv

"Record Length",1000,"Points",-5E-06,0.02281875
"Sample Interval",1E-08,s,-4.99E-06,0.023091875
"Trigger Point",500,"Samples",-4.98E-06,0.02291875
"Trigger Time",0,s,-4.97E-06,0.02299625
"",,,-4.96E-06,0.023220625
"Horizontal Offset",-5E-06,s,-4.95E-06,0.02312625
,,,-4.94E-06,0.022696875
,,,-4.93E-06,0.022879375
,,,-4.92E-06,0.022818125
,,,-4.91E-06,0.0228275
,,,-4.9E-06,0.022808125
,,,-4.89E-06,0.02293125
,,,-4.88E-06,0.02289625
,,,-4.87E-06,0.0226525
,,,-4.86E-06,0.022839375
,,,-4.85E-06,0.022809375
,,,-4.84E-06,0.022905625
,,,-4.83E-06,0.022844375
,,,-4.82E-06,0.02273875
,,,-4.81E-06,0.023016875
,,,-4.8E-06,0.02292625
,,,-4.79E-06,0.022894375
,,,-4.78E-06,0.0229425
,,,-4.77E-06,0.02296125
,,,-4.76E-06,0.022775625
,,,-4.75E-06,0.02296125
,,,-4.74E-06,0.02291375
,,,-4.73E-06,0.02305375
,,,-4.72E-06,0.02298
,,,-4.71E-06,0.022891875
,,,-4.7E-06,0.022655
,,,-4.69E-06,0.022805625
,,,-4.68E-06,0.022990625
,,,-4.67E-06,0.02275875
,,,-4.66E-06,0.022836875
,,,-4.65E-06,0.0230125
,,,-4.64E-06,0.0228925
,,,-4.63E-06,0.02308625
,,,-4.62E-06,0.022795625
,,,-4.61E-06,0.02260125
,,,-4.6E-06,0.0226675
,,,-4.59E-06,0.022890625
,,,-4.58E-06,0.02286625
,,,-4.57E-06,0.02311375
,,,-4.56E-06,0.022838125
,,,-4.55E-06,0.023060625
,,,-4.54E-06,0.02286375
,,,-4.53E-06,0.02293625
,,,-4.52E-06,0.0230075
,,,-4.51E-06,0.022819375
,,,-4.5E-06,0.023126875
,,,-4.49E-06,0.023120625
,,,-4.48E-06,0.022699375
,,,-4.47E-06,0.022885625
,,,-4.46E-06,0.022926875
,,,-4.45E-06,0.022914375
,,,-4.44E-06,0.0229375
,,,-4.43E-06,0.0230125
,,,-4.42E-06,0.022809375
,,,-4.41E-06,0.022848125
,,,-4.4E-06,0.022778125
,,,-4.39E-06,0.022901875
,,,-4.38E-06,0.02266
,,,-4.37E-06,0.022805
,,,-4.36E-06,0.022795625
,,,-4.35E-06,0.0231525
,,,-4.34E-06,0.0227975
,,,-4.33E-06,0.02294625
,,,-4.32E-06,0.0230325
,,,-4.31E-06,0.022785
,,,-4.3E-06,0.02296125
,,,-4.29E-06,0.022768125
,,,-4.28E-06,0.022821875
,,,-4.27E-06,0.02280375
,,,-4.26E-06,0.02299125
,,,-4.25E-06,0.0227775
,,,-4.24E-06,0.02302625
,,,-4.23E-06,0.02294625
,,,-4.22E-06,0.023081875
,,,-4.21E-06,0.023015
,,,-4.2E-06,0.0230125
,,,-4.19E-06,0.022701875
,,,-4.18E-06,0.0228625
,,,-4.17E-06,0.02278625
,,,-4.16E-06,0.02274625
,,,-4.15E-06,0.023025625
,,,-4.14E-06,0.022895625
,,,-4.13E-06,0.022830625
,,,-4.12E-06,0.02284375
,,,-4.11E-06,0.0228775
,,,-4.1E-06,0.023085
,,,-4.09E-06,0.02294
,,,-4.08E-06,0.022996875
,,,-4.07E-06,0.0228525
,,,-4.06E-06,0.02313
,,,-4.05E-06,0.0226625
,,,-4.04E-06,0.022823125
,,,-4.03E-06,0.02289375
,,,-4.02E-06,0.022881875
,,,-4.01E-06,0.02291375
,,,-4E-06,0.02299625
,,,-3.99E-06,0.02275375
,,,-3.98E-06,0.022965625
,,,-3.97E-06,0.0228375
,,,-3.96E-06,0.022914375
,,,-3.95E-06,0.022808125
,,,-3.94E-06,0.022855
,,,-3.93E-06,0.02316875
,,,-3.92E-06,0.0226875
,,,-3.91E-06,0.0229175
,,,-3.9E-06,0.022969375
,,,-3.89E-06,0.022890625
,,,-3.88E-06,0.02280375
,,,-3.87E-06,0.022835
,,,-3.86E-06,0.0228825
,,,-3.85E-06,0.022901875
,,,-3.84E-06,0.022913125
,,,-3.83E-06,0.02310375
,,,-3.82E-06,0.022758125
,,,-3.81E-06,0.023020625
,,,-3.8E-06,0.022955
,,,-3.79E-06,0.0226575
,,,-3.78E-06,0.022910625
,,,-3.77E-06,0.0227875
,,,-3.76E-06,0.022955
,,,-3.75E-06,0.022911875
,,,-3.74E-06,0.0229975
,,,-3.73E-06,0.02287875
,,,-3.72E-06,0.022865625
,,,-3.71E-06,0.02276375
,,,-3.7E-06,0.022993125
,,,-3.69E-06,0.0228325
,,,-3.68E-06,0.0230425
,,,-3.67E-06,0.022990625
,,,-3.66E-06,0.02284125
,,,-3.65E-06,0.02281
,,,-3.64E-06,0.023054375
,,,-3.63E-06,0.023104375
,,,-3.62E-06,0.022870625
,,,-3.61E-06,0.022869375
,,,-3.6E-06,0.0228125
,,,-3.59E-06,0.02289375
,,,-3.58E-06,0.02280375
,,,-3.57E-06,0.022901875
,,,-3.56E-06,0.0227775
,,,-3.55E-06,0.02306
,,,-3.54E-06,0.022796875
,,,-3.53E-06,0.022825
,,,-3.52E-06,0.022771875
,,,-3.51E-06,0.0230175
,,,-3.5E-06,0.02266625
,,,-3.49E-06,0.023055625
,,,-3.48E-06,0.02297125
,,,-3.47E-06,0.02299875
,,,-3.46E-06,0.022835
,,,-3.45E-06,0.02299875
,,,-3.44E-06,0.0226725
,,,-3.43E-06,0.022933125
,,,-3.42E-06,0.022930625
,,,-3.41E-06,0.023050625
,,,-3.4E-06,0.022796875
,,,-3.39E-06,0.022806875
,,,-3.38E-06,0.022870625
,,,-3.37E-06,0.023053125
,,,-3.36E-06,0.02289625
,,,-3.35E-06,0.0230375
,,,-3.34E-06,0.023125625
,,,-3.33E-06,0.022774375
,,,-3.32E-06,0.02265625
,,,-3.31E-06,0.02287
,,,-3.3E-06,0.022869375
,,,-3.29E-06,0.023244375
,,,-3.28E-06,0.02271625
,,,-3.27E-06,0.0232275
,,,-3.26E-06,0.022669375
,,,-3.25E-06,0.022698125
,,,-3.24E-06,0.02309625
,,,-3.23E-06,0.02274875
,,,-3.22E-06,0.02291125
,,,-3.21E-06,0.022795
,,,-3.2E-06,0.022879375
,,,-3.19E-06,0.02289
,,,-3.18E-06,0.0228425
,,,-3.17E-06,0.023049375
,,,-3.16E-06,0.022819375
,,,-3.15E-06,0.022718125
,,,-3.14E-06,0.022988125
,,,-3.13E-06,0.0228075
,,,-3.12E-06,0.02272125
,,,-3.11E-06,0.023210625
,,,-3.1E-06,0.023001875
,,,-3.09E-06,0.022999375
,,,-3.08E-06,0.02275125
,,,-3.07E-06,0.022763125
,,,-3.06E-06,0.02298125
,,,-3.05E-06,0.023016875
,,,-3.04E-06,0.02282875
,,,-3.03E-06,0.022761875
,,,-3.02E-06,0.022825
,,,-3.01E-06,0.02289875
,,,-3E-06,0.022543125
,,,-2.99E-06,0.023005
,,,-2.98E-06,0.022940625
,,,-2.97E-06,0.0230325
,,,-2.96E-06,0.02302625
,,,-2.95E-06,0.0228
,,,-2.94E-06,0.0228825
,,,-2.93E-06,0.02290625
,,,-2.92E-06,0.02309625
,,,-2.91E-06,0.023034375
,,,-2.9E-06,0.022843125
,,,-2.89E-06,0.02285625
,,,-2.88E-06,0.022763125
,,,-2.87E-06,0.022781875
,,,-2.86E-06,0.022629375
,,,-2.85E-06,0.0228625
,,,-2.84E-06,0.022800625
,,,-2.83E-06,0.0231225
,,,-2.82E-06,0.02298875
,,,-2.81E-06,0.0228775
,,,-2.8E-06,0.022825
,,,-2.79E-06,0.02312875
,,,-2.78E-06,0.022886875
,,,-2.77E-06,0.022933125
,,,-2.76E-06,0.0227125
,,,-2.75E-06,0.022870625
,,,-2.74E-06,0.02306125
,,,-2.73E-06,0.023078125
,,,-2.72E-06,0.02279375
,,,-2.71E-06,0.0227675
,,,-2.7E-06,0.02268875
,,,-2.69E-06,0.02282625
,,,-2.68E-06,0.02311375
,,,-2.67E-06,0.0230925
,,,-2.66E-06,0.022728125
,,,-2.65E-06,0.022951875
,,,-2.64E-06,0.023075625
,,,-2.63E-06,0.02291875
,,,-2.62E-06,0.02286875
,,,-2.61E-06,0.023090625
,,,-2.6E-06,0.022868125
,,,-2.59E-06,0.02302125
,,,-2.58E-06,0.02303
,,,-2.57E-06,0.022835625
,,,-2.56E-06,0.022865625
,,,-2.55E-06,0.02255875
,,,-2.54E-06,0.02277
,,,-2.53E-06,0.022845625
,,,-2.52E-06,0.023063125
,,,-2.51E-06,0.022916875
,,,-2.5E-06,0.02287
,,,-2.49E-06,0.02297875
,,,-2.48E-06,0.0228125
,,,-2.47E-06,0.022991875
,,,-2.46E-06,0.022941875
,,,-2.45E-06,0.0229
,,,-2.44E-06,0.02288625
,,,-2.43E-06,0.02266875
,,,-2.42E-06,0.022786875
,,,-2.41E-06,0.023191875
,,,-2.4E-06,0.022823125
,,,-2.39E-06,0.023118125
,,,-2.38E-06,0.02312125
,,,-2.37E-06,0.022775
,,,-2.36E-06,0.02264125
,,,-2.35E-06,0.02292125
,,,-2.34E-06,0.023093125
,,,-2.33E-06,0.0230425
,,,-2.32E-06,0.02309
,,,-2.31E-06,0.022895
,,,-2.3E-06,0.023109375
,,,-2.29E-06,0.023134375
,,,-2.28E-06,0.023036875
,,,-2.27E-06,0.023028125
,,,-2.26E-06,0.02299
,,,-2.25E-06,0.022926875
,,,-2.24E-06,0.02320875
,,,-2.23E-06,0.023116875
,,,-2.22E-06,0.022549375
,,,-2.21E-06,0.02282
,,,-2.2E-06,0.02298875
,,,-2.19E-06,0.023115625
,,,-2.18E-06,0.0227375
,,,-2.17E-06,0.023046875
,,,-2.16E-06,0.0228675
,,,-2.15E-06,0.022788125
,,,-2.14E-06,0.02252875
,,,-2.13E-06,0.022780625
,,,-2.12E-06,0.023095625
,,,-2.11E-06,0.022765625
,,,-2.1E-06,0.022989375
,,,-2.09E-06,0.0228725
,,,-2.08E-06,0.022849375
,,,-2.07E-06,0.023116875
,,,-2.06E-06,0.023010625
,,,-2.05E-06,0.022951875
,,,-2.04E-06,0.0227025
,,,-2.03E-06,0.022791875
,,,-2.02E-06,0.02289375
,,,-2.01E-06,0.022786875
,,,-2E-06,0.022951875
,,,-1.99E-06,0.022875
,,,-1.98E-06,0.022558125
,,,-1.97E-06,0.022810625
,,,-1.96E-06,0.022725625
,,,-1.95E-06,0.022874375
,,,-1.94E-06,0.0229275
,,,-1.93E-06,0.022900625
,,,-1.92E-06,0.023038125
,,,-1.91E-06,0.022875
,,,-1.9E-06,0.022974375
,,,-1.89E-06,0.022875625
,,,-1.88E-06,0.0228175
,,,-1.87E-06,0.0226625
,,,-1.86E-06,0.023024375
,,,-1.85E-06,0.02307375
,,,-1.84E-06,0.022825
,,,-1.83E-06,0.022844375
,,,-1.82E-06,0.02304875
,,,-1.81E-06,0.022883125
,,,-1.8E-06,0.022838125
,,,-1.79E-06,0.02289375
,,,-1.78E-06,0.02294875
,,,-1.77E-06,0.0228775
,,,-1.76E-06,0.02280625
,,,-1.75E-06,0.022935625
,,,-1.74E-06,0.022843125
,,,-1.73E-06,0.02278875
,,,-1.72E-06,0.022835
,,,-1.71E-06,0.0230825
,,,-1.7E-06,0.02307875
,,,-1.69E-06,0.022988125
,,,-1.68E-06,0.022776875
,,,-1.67E-06,0.022970625
,,,-1.66E-06,0.0231725
,,,-1.65E-06,0.02278375
,,,-1.64E-06,0.023023125
,,,-1.63E-06,0.0226675
,,,-1.62E-06,0.023024375
,,,-1.61E-06,0.022785
,,,-1.6E-06,0.022785625
,,,-1.59E-06,0.0229775
,,,-1.58E-06,0.02285625
,,,-1.57E-06,0.02264375
,,,-1.56E-06,0.022891875
,,,-1.55E-06,0.022711875
,,,-1.54E-06,0.02289125
,,,-1.53E-06,0.0227675
,,,-1.52E-06,0.02295625
,,,-1.51E-06,0.022985625
,,,-1.5E-06,0.022991875
,,,-1.49E-06,0.0229425
,,,-1.48E-06,0.02276875
,,,-1.47E-06,0.02281
,,,-1.46E-06,0.02302625
,,,-1.45E-06,0.022871875
,,,-1.44E-06,0.022956875
,,,-1.43E-06,0.02289
,,,-1.42E-06,0.022940625
,,,-1.41E-06,0.0229525
,,,-1.4E-06,0.022925625
,,,-1.39E-06,0.022780625
,,,-1.38E-06,0.023125625
,,,-1.37E-06,0.022919375
,,,-1.36E-06,0.02292
,,,-1.35E-06,0.023131875
,,,-1.34E-06,0.0226875
,,,-1.33E-06,0.02315
,,,-1.32E-06,0.022719375
,,,-1.31E-06,0.022741875
,,,-1.3E-06,0.02287375
,,,-1.29E-06,0.02273375
,,,-1.28E-06,0.02296375
,,,-1.27E-06,0.023235
,,,-1.26E-06,0.023128125
,,,-1.25E-06,0.023151875
,,,-1.24E-06,0.02298625
,,,-1.23E-06,0.02296125
,,,-1.22E-06,0.02291
,,,-1.21E-06,0.02276
,,,-1.2E-06,0.02305375
,,,-1.19E-06,0.023053125
,,,-1.18E-06,0.022983125
,,,-1.17E-06,0.023134375
,,,-1.16E-06,0.022946875
,,,-1.15E-06,0.02296
,,,-1.14E-06,0.0230425
,,,-1.13E-06,0.02305375
,,,-1.12E-06,0.022988125
,,,-1.11E-06,0.023200625
,,,-1.1E-06,0.023050625
,,,-1.09E-06,0.022838125
,,,-1.08E-06,0.02287875
,,,-1.07E-06,0.022890625
,,,-1.06E-06,0.022904375
,,,-1.05E-06,0.022905625
,,,-1.04E-06,0.02286625
,,,-1.03E-06,0.023126875
,,,-1.02E-06,0.0227275
,,,-1.01E-06,0.0231275
,,,-1E-06,0.0227725
,,,-9.9E-07,0.02309
,,,-9.8E-07,0.023130625
,,,-9.7E-07,0.02286375
,,,-9.6E-07,0.022860625
,,,-9.5E-07,0.022938125
,,,-9.4E-07,0.022760625
,,,-9.3E-07,0.022786875
,,,-9.2E-07,0.0230925
,,,-9.1E-07,0.023228125
,,,-9E-07,0.02310375
,,,-8.9E-07,0.022720625
,,,-8.8E-07,0.0228875
,,,-8.7E-07,0.022679375
,,,-8.6E-07,0.0230575
,,,-8.5E-07,0.023088125
,,,-8.4E-07,0.022875
,,,-8.3E-07,0.02293875
,,,-8.2E-07,0.02298375
,,,-8.1E-07,0.022918125
,,,-8E-07,0.022826875
,,,-7.9E-07,0.022718125
,,,-7.8E-07,0.0228075
,,,-7.7E-07,0.022795625
,,,-7.6E-07,0.023068125
,,,-7.5E-07,0.022766875
,,,-7.4E-07,0.023024375
,,,-7.3E-07,0.022854375
,,,-7.2E-07,0.022943125
,,,-7.1E-07,0.022903125
,,,-7E-07,0.023144375
,,,-6.9E-07,0.02280125
,,,-6.8E-07,0.022648125
,,,-6.7E-07,0.022828125
,,,-6.6E-07,0.022653125
,,,-6.5E-07,0.02288375
,,,-6.4E-07,0.023
,,,-6.3E-07,0.0229975
,,,-6.2E-07,0.022788125
,,,-6.1E-07,0.02281875
,,,-6E-07,0.02278625
,,,-5.9E-07,0.0228225
,,,-5.8E-07,0.02289875
,,,-5.7E-07,0.022894375
,,,-5.6E-07,0.022828125
,,,-5.5E-07,0.022904375
,,,-5.4E-07,0.022968125
,,,-5.3E-07,0.02282
,,,-5.2E-07,0.022895
,,,-5.1E-07,0.023074375
,,,-5E-07,0.0227025
,,,-4.9E-07,0.022921875
,,,-4.8E-07,0.022963125
,,,-4.7E-07,0.023081875
,,,-4.6E-07,0.022968125
,,,-4.5E-07,0.023060625
,,,-4.4E-07,0.022995625
,,,-4.3E-07,0.023044375
,,,-4.2E-07,0.02291625
,,,-4.1E-07,0.0230575
,,,-4E-07,0.02271125
,,,-3.9E-07,0.023006875
,,,-3.8E-07,0.023044375
,,,-3.7E-07,0.022845
,,,-3.6E-07,0.02297875
,,,-3.5E-07,0.022955
,,,-3.4E-07,0.023003125
,,,-3.3E-07,0.02305875
,,,-3.2E-07,0.022778125
,,,-3.1E-07,0.02300625
,,,-3E-07,0.02257125
,,,-2.9E-07,0.02276
,,,-2.8E-07,0.022924375
,,,-2.7E-07,0.02278375
,,,-2.6E-07,0.02301875
,,,-2.5E-07,0.023045
,,,-2.4E-07,0.023006875
,,,-2.3E-07,0.022814375
,,,-2.2E-07,0.023005625
,,,-2.1E-07,0.022969375
,,,-2E-07,0.02287
,,,-1.9E-07,0.02296
,,,-1.8E-07,0.0229575
,,,-1.7E-07,0.023081875
,,,-1.6E-07,0.022895625
,,,-1.5E-07,0.02272875
,,,-1.4E-07,0.022856875
,,,-1.3E-07,0.023055625
,,,-1.2E-07,0.022999375
,,,-1.1E-07,0.02299125
,,,-1E-07,0.022950625
,,,-9E-08,0.02298
,,,-8E-08,0.023094375
,,,-7E-08,0.022821875
,,,-6E-08,0.022990625
,,,-5E-08,0.02275375
,,,-4E-08,0.02378
,,,-3E-08,0.024466875
,,,-2E-08,0.0208725
,,,-1E-08,0.01942375
,,,0,0.02001125
,,,1E-08,0.026160625
,,,2E-08,0.02782375
,,,3E-08,0.0261125
,,,4E-08,0.021634375
,,,5E-08,0.01947
,,,6E-08,0.019365
,,,7E-08,0.0216775
,,,8E-08,0.024030625
,,,9E-08,0.025364375
,,,1E-07,0.0252225
,,,1.1E-07,0.02349125
,,,1.2E-07,0.021689375
,,,1.3E-07,0.021305625
,,,1.4E-07,0.0221875
,,,1.5E-07,0.0233575
,,,1.6E-07,0.023653125
,,,1.7E-07,0.023403125
,,,1.8E-07,0.023026875
,,,1.9E-07,0.023280625
,,,2E-07,0.0227475
,,,2.1E-07,0.022656875
,,,2.2E-07,0.0224425
,,,2.3E-07,0.022758125
,,,2.4E-07,0.02291375
,,,2.5E-07,0.02317375
,,,2.6E-07,0.02305
,,,2.7E-07,0.023015
,,,2.8E-07,0.02275125
,,,2.9E-07,0.022915625
,,,3E-07,0.02263
,,,3.1E-07,0.022885625
,,,3.2E-07,0.023021875
,,,3.3E-07,0.022904375
,,,3.4E-07,0.022936875
,,,3.5E-07,0.02269625
,,,3.6E-07,0.022799375
,,,3.7E-07,0.0229
,,,3.8E-07,0.0230375
,,,3.9E-07,0.022888125
,,,4E-07,0.023001875
,,,4.1E-07,0.023001875
,,,4.2E-07,0.023026875
,,,4.3E-07,0.02299
,,,4.4E-07,0.02264
,,,4.5E-07,0.023114375
,,,4.6E-07,0.02278
,,,4.7E-07,0.022836875
,,,4.8E-07,0.0231
,,,4.9E-07,0.022841875
,,,5E-07,0.0227775
,,,5.1E-07,0.023289375
,,,5.2E-07,0.022744375
,,,5.3E-07,0.02298125
,,,5.4E-07,0.022888125
,,,5.5E-07,0.022753125
,,,5.6E-07,0.022900625
,,,5.7E-07,0.022849375
,,,5.8E-07,0.02316875
,,,5.9E-07,0.023023125
,,,6E-07,0.02298
,,,6.1E-07,0.022849375
,,,6.2E-07,0.0230375
,,,6.3E-07,0.0229175
,,,6.4E-07,0.023266875
,,,6.5E-07,0.02292875
,,,6.6E-07,0.0229075
,,,6.7E-07,0.022738125
,,,6.8E-07,0.022901875
,,,6.9E-07,0.022868125
,,,7E-07,0.02294375
,,,7.1E-07,0.02306875
,,,7.2E-07,0.023051875
,,,7.3E-07,0.023001875
,,,7.4E-07,0.02296375
,,,7.5E-07,0.022848125
,,,7.6E-07,0.0228375
,,,7.7E-07,0.0229175
,,,7.8E-07,0.022984375
,,,7.9E-07,0.023218125
,,,8E-07,0.022739375
,,,8.1E-07,0.02306
,,,8.2E-07,0.022823125
,,,8.3E-07,0.0230075
,,,8.4E-07,0.02283375
,,,8.5E-07,0.023091875
,,,8.6E-07,0.0229375
,,,8.7E-07,0.02294
,,,8.8E-07,0.022815
,,,8.9E-07,0.0229625
,,,9E-07,0.022705625
,,,9.1E-07,0.0228525
,,,9.2E-07,0.022823125
,,,9.3E-07,0.02302
,,,9.4E-07,0.02286625
,,,9.5E-07,0.023001875
,,,9.6E-07,0.02285875
,,,9.7E-07,0.022851875
,,,9.8E-07,0.022975
,,,9.9E-07,0.023086875
,,,1E-06,0.02273
,,,1.01E-06,0.0228625
,,,1.02E-06,0.02302875
,,,1.03E-06,0.022709375
,,,1.04E-06,0.02296
,,,1.05E-06,0.02307125
,,,1.06E-06,0.02314
,,,1.07E-06,0.022914375
,,,1.08E-06,0.02293125
,,,1.09E-06,0.023009375
,,,1.1E-06,0.023105
,,,1.11E-06,0.022701875
,,,1.12E-06,0.022754375
,,,1.13E-06,0.022731875
,,,1.14E-06,0.02279625
,,,1.15E-06,0.022898125
,,,1.16E-06,0.023013125
,,,1.17E-06,0.022779375
,,,1.18E-06,0.022749375
,,,1.19E-06,0.02287
,,,1.2E-06,0.022801875
,,,1.21E-06,0.02275
,,,1.22E-06,0.023060625
,,,1.23E-06,0.023013125
,,,1.24E-06,0.02295625
,,,1.25E-06,0.022876875
,,,1.26E-06,0.02296875
,,,1.27E-06,0.023040625
,,,1.28E-06,0.0228275
,,,1.29E-06,0.022841875
,,,1.3E-06,0.0228725
,,,1.31E-06,0.02279
,,,1.32E-06,0.022859375
,,,1.33E-06,0.023006875
,,,1.34E-06,0.0230675
,,,1.35E-06,0.02282625
,,,1.36E-06,0.02285125
,,,1.37E-06,0.023006875
,,,1.38E-06,0.022933125
,,,1.39E-06,0.022811875
,,,1.4E-06,0.022984375
,,,1.41E-06,0.02275
,,,1.42E-06,0.0228975
,,,1.43E-06,0.022978125
,,,1.44E-06,0.02272875
,,,1.45E-06,0.022874375
,,,1.46E-06,0.023016875
,,,1.47E-06,0.02289
,,,1.48E-06,0.0230875
,,,1.49E-06,0.022966875
,,,1.5E-06,0.02291875
,,,1.51E-06,0.0228375
,,,1.52E-06,0.022875
,,,1.53E-06,0.0225375
,,,1.54E-06,0.02286625
,,,1.55E-06,0.022685
,,,1.56E-06,0.022704375
,,,1.57E-06,0.022941875
,,,1.58E-06,0.023065
,,,1.59E-06,0.022998125
,,,1.6E-06,0.022883125
,,,1.61E-06,0.022718125
,,,1.62E-06,0.022815
,,,1.63E-06,0.022964375
,,,1.64E-06,0.023039375
,,,1.65E-06,0.023001875
,,,1.66E-06,0.02293625
,,,1.67E-06,0.022874375
,,,1.68E-06,0.02265875
,,,1.69E-06,0.023070625
,,,1.7E-06,0.02292125
,,,1.71E-06,0.022681875
,,,1.72E-06,0.02278375
,,,1.73E-06,0.02282
,,,1.74E-06,0.02295375
,,,1.75E-06,0.022705625
,,,1.76E-06,0.02303
,,,1.77E-06,0.02297375
,,,1.78E-06,0.0228725
,,,1.79E-06,0.02292
,,,1.8E-06,0.022978125
,,,1.81E-06,0.023036875
,,,1.82E-06,0.02324
,,,1.83E-06,0.022981875
,,,1.84E-06,0.02274
,,,1.85E-06,0.022639375
,,,1.86E-06,0.02274875
,,,1.87E-06,0.022875
,,,1.88E-06,0.022963125
,,,1.89E-06,0.022806875
,,,1.9E-06,0.022855625
,,,1.91E-06,0.023035
,,,1.92E-06,0.022816875
,,,1.93E-06,0.022751875
,,,1.94E-06,0.02313375
,,,1.95E-06,0.02269625
,,,1.96E-06,0.02287
,,,1.97E-06,0.022978125
,,,1.98E-06,0.0229525
,,,1.99E-06,0.02289125
,,,2E-06,0.023015
,,,2.01E-06,0.022685
,,,2.02E-06,0.02282125
,,,2.03E-06,0.022840625
,,,2.04E-06,0.0228075
,,,2.05E-06,0.022834375
,,,2.06E-06,0.022889375
,,,2.07E-06,0.0231775
,,,2.08E-06,0.02279875
,,,2.09E-06,0.022914375
,,,2.1E-06,0.02297875
,,,2.11E-06,0.02295375
,,,2.12E-06,0.0229725
,,,2.13E-06,0.023044375
,,,2.14E-06,0.022866875
,,,2.15E-06,0.023151875
,,,2.16E-06,0.022799375
,,,2.17E-06,0.022935
,,,2.18E-06,0.02263
,,,2.19E-06,0.022781875
,,,2.2E-06,0.022895
,,,2.21E-06,0.02290875
,,,2.22E-06,0.02305375
,,,2.23E-06,0.02265125
,,,2.24E-06,0.02295375
,,,2.25E-06,0.022839375
,,,2.26E-06,0.02267125
,,,2.27E-06,0.022945625
,,,2.28E-06,0.02285625
,,,2.29E-06,0.02281875
,,,2.3E-06,0.02275125
,,,2.31E-06,0.022835625
,,,2.32E-06,0.022704375
,,,2.33E-06,0.022870625
,,,2.34E-06,0.02310875
,,,2.35E-06,0.02288
,,,2.36E-06,0.022706875
,,,2.37E-06,0.022879375
,,,2.38E-06,0.02293625
,,,2.39E-06,0.02314625
,,,2.4E-06,0.022803125
,,,2.41E-06,0.02289375
,,,2.42E-06,0.02291
,,,2.43E-06,0.02290875
,,,2.44E-06,0.02303875
,,,2.45E-06,0.02292
,,,2.46E-06,0.0230475
,,,2.47E-06,0.022754375
,,,2.48E-06,0.022793125
,,,2.49E-06,0.0227525
,,,2.5E-06,0.02291125
,,,2.51E-06,0.0226225
,,,2.52E-06,0.02298375
,,,2.53E-06,0.0230575
,,,2.54E-06,0.02307
,,,2.55E-06,0.023055
,,,2.56E-06,0.022791875
,,,2.57E-06,0.02284
,,,2.58E-06,0.0227075
,,,2.59E-06,0.022874375
,,,2.6E-06,0.022785
,,,2.61E-06,0.0229675
,,,2.62E-06,0.023140625
,,,2.63E-06,0.02304875
,,,2.64E-06,0.022959375
,,,2.65E-06,0.0231725
,,,2.66E-06,0.022956875
,,,2.67E-06,0.022945625
,,,2.68E-06,0.022846875
,,,2.69E-06,0.02286625
,,,2.7E-06,0.022965625
,,,2.71E-06,0.02293125
,,,2.72E-06,0.0228775
,,,2.73E-06,0.02277125
,,,2.74E-06,0.022985
,,,2.75E-06,0.0230525
,,,2.76E-06,0.02277125
,,,2.77E-06,0.02303
,,,2.78E-06,0.0229825
,,,2.79E-06,0.022938125
,,,2.8E-06,0.023159375
,,,2.81E-06,0.022944375
,,,2.82E-06,0.023175
,,,2.83E-06,0.022968125
,,,2.84E-06,0.022868125
,,,2.85E-06,0.022565
,,,2.86E-06,0.022804375
,,,2.87E-06,0.022881875
,,,2.88E-06,0.022906875
,,,2.89E-06,0.02288875
,,,2.9E-06,0.02296125
,,,2.91E-06,0.0228
,,,2.92E-06,0.02306625
,,,2.93E-06,0.022926875
,,,2.94E-06,0.022765625
,,,2.95E-06,0.02284125
,,,2.96E-06,0.0229925
,,,2.97E-06,0.0227475
,,,2.98E-06,0.023224375
,,,2.99E-06,0.02291625
,,,3E-06,0.022756875
,,,3.01E-06,0.022828125
,,,3.02E-06,0.022945625
,,,3.03E-06,0.023123125
,,,3.04E-06,0.023099375
,,,3.05E-06,0.02274125
,,,3.06E-06,0.0230175
,,,3.07E-06,0.022890625
,,,3.08E-06,0.0228525
,,,3.09E-06,0.02303
,,,3.1E-06,0.0227875
,,,3.11E-06,0.02280125
,,,3.12E-06,0.0228925
,,,3.13E-06,0.022746875
,,,3.14E-06,0.02312
,,,3.15E-06,0.022981875
,,,3.16E-06,0.022874375
,,,3.17E-06,0.02257125
,,,3.18E-06,0.022805625
,,,3.19E-06,0.022898125
,,,3.2E-06,0.0228775
,,,3.21E-06,0.022785
,,,3.22E-06,0.023144375
,,,3.23E-06,0.02296
,,,3.24E-06,0.0227475
,,,3.25E-06,0.022709375
,,,3.26E-06,0.0229275
,,,3.27E-06,0.022924375
,,,3.28E-06,0.022881875
,,,3.29E-06,0.022934375
,,,3.3E-06,0.022953125
,,,3.31E-06,0.02303375
,,,3.32E-06,0.022744375
,,,3.33E-06,0.02284125
,,,3.34E-06,0.022775625
,,,3.35E-06,0.0228325
,,,3.36E-06,0.023135
,,,3.37E-06,0.02281625
,,,3.38E-06,0.02286
,,,3.39E-06,0.022930625
,,,3.4E-06,0.023023125
,,,3.41E-06,0.022901875
,,,3.42E-06,0.022821875
,,,3.43E-06,0.022929375
,,,3.44E-06,0.022793125
,,,3.45E-06,0.023058125
,,,3.46E-06,0.0227675
,,,3.47E-06,0.022954375
,,,3.48E-06,0.022745625
,,,3.49E-06,0.022764375
,,,3.5E-06,0.023015
,,,3.51E-06,0.022924375
,,,3.52E-06,0.0228525
,,,3.53E-06,0.02312875
,,,3.54E-06,0.023043125
,,,3.55E-06,0.022986875
,,,3.56E-06,0.022665
,,,3.57E-06,0.02270375
,,,3.58E-06,0.022951875
