data/raw/Final_POL_Test_1/SOP082_Ch2.csv

"Record Length",1000,"Points",-5E-06,0.020030625
"Sample Interval",1E-08,s,-4.99E-06,0.019928125
"Trigger Point",500,"Samples",-4.98E-06,0.02018875
"Trigger Time",0,s,-4.97E-06,0.019830625
"",,,-4.96E-06,0.019919375
"Horizontal Offset",-5E-06,s,-4.95E-06,0.01988625
,,,-4.94E-06,0.020091875
,,,-4.93E-06,0.019973125
,,,-4.92E-06,0.0200575
,,,-4.91E-06,0.01995
,,,-4.9E-06,0.01978375
,,,-4.89E-06,0.0199025
,,,-4.88E-06,0.019861875
,,,-4.87E-06,0.02000125
,,,-4.86E-06,0.01992125
,,,-4.85E-06,0.020008125
,,,-4.84E-06,0.01979375
,,,-4.83E-06,0.02003375
,,,-4.82E-06,0.019926875
,,,-4.81E-06,0.020055
,,,-4.8E-06,0.020040625
,,,-4.79E-06,0.02001125
,,,-4.78E-06,0.01997125
,,,-4.77E-06,0.02026
,,,-4.76E-06,0.020056875
,,,-4.75E-06,0.01985875
,,,-4.74E-06,0.02015125
,,,-4.73E-06,0.0200425
,,,-4.72E-06,0.020085625
,,,-4.71E-06,0.0200375
,,,-4.7E-06,0.019695625
,,,-4.69E-06,0.019925625
,,,-4.68E-06,0.02004875
,,,-4.67E-06,0.019944375
,,,-4.66E-06,0.020019375
,,,-4.65E-06,0.019854375
,,,-4.64E-06,0.019913125
,,,-4.63E-06,0.019785625
,,,-4.62E-06,0.0201525
,,,-4.61E-06,0.020056875
,,,-4.6E-06,0.019916875
,,,-4.59E-06,0.020021875
,,,-4.58E-06,0.01996125
,,,-4.57E-06,0.01991375
,,,-4.56E-06,0.0198775
,,,-4.55E-06,0.020089375
,,,-4.54E-06,0.01978875
,,,-4.53E-06,0.019918125
,,,-4.52E-06,0.02015
,,,-4.51E-06,0.02014375
,,,-4.5E-06,0.020068125
,,,-4.49E-06,0.0198775
,,,-4.48E-06,0.019921875
,,,-4.47E-06,0.0201525
,,,-4.46E-06,0.02005125
,,,-4.45E-06,0.020031875
,,,-4.44E-06,0.02001375
,,,-4.43E-06,0.019954375
,,,-4.42E-06,0.0198425
,,,-4.41E-06,0.019738125
,,,-4.4E-06,0.02014125
,,,-4.39E-06,0.0198175
,,,-4.38E-06,0.020128125
,,,-4.37E-06,0.019830625
,,,-4.36E-06,0.019733125
,,,-4.35E-06,0.0199825
,,,-4.34E-06,0.01994875
,,,-4.33E-06,0.019975625
,,,-4.32E-06,0.01984375
,,,-4.31E-06,0.020098125
,,,-4.3E-06,0.01997
,,,-4.29E-06,0.019991875
,,,-4.28E-06,0.020020625
,,,-4.27E-06,0.019755625
,,,-4.26E-06,0.020143125
,,,-4.25E-06,0.019896875
,,,-4.24E-06,0.019991875
,,,-4.23E-06,0.01989375
,,,-4.22E-06,0.019845625
,,,-4.21E-06,0.02004125
,,,-4.2E-06,0.02010875
,,,-4.19E-06,0.019835
,,,-4.18E-06,0.019999375
,,,-4.17E-06,0.019959375
,,,-4.16E-06,0.01996625
,,,-4.15E-06,0.020083125
,,,-4.14E-06,0.02009
,,,-4.13E-06,0.01998125
,,,-4.12E-06,0.019994375
,,,-4.11E-06,0.020098125
,,,-4.1E-06,0.02010125
,,,-4.09E-06,0.01993125
,,,-4.08E-06,0.019911875
,,,-4.07E-06,0.0201175
,,,-4.06E-06,0.0197725
,,,-4.05E-06,0.019898125
,,,-4.04E-06,0.019994375
,,,-4.03E-06,0.020005
,,,-4.02E-06,0.01996625
,,,-4.01E-06,0.019968125
,,,-4E-06,0.02008625
,,,-3.99E-06,0.0200375
,,,-3.98E-06,0.0198075
,,,-3.97E-06,0.019945625
,,,-3.96E-06,0.02001125
,,,-3.95E-06,0.019741875
,,,-3.94E-06,0.020046875
,,,-3.93E-06,0.0200775
,,,-3.92E-06,0.02019125
,,,-3.91E-06,0.019930625
,,,-3.9E-06,0.019821875
,,,-3.89E-06,0.020105
,,,-3.88E-06,0.019969375
,,,-3.87E-06,0.01988
,,,-3.86E-06,0.020038125
,,,-3.85E-06,0.019914375
,,,-3.84E-06,0.01979
,,,-3.83E-06,0.019891875
,,,-3.82E-06,0.01994375
,,,-3.81E-06,0.020039375
,,,-3.8E-06,0.019698125
,,,-3.79E-06,0.020074375
,,,-3.78E-06,0.01993375
,,,-3.77E-06,0.019755
,,,-3.76E-06,0.0200425
,,,-3.75E-06,0.020200625
,,,-3.74E-06,0.020118125
,,,-3.73E-06,0.020093125
,,,-3.72E-06,0.02003875
,,,-3.71E-06,0.020085625
,,,-3.7E-06,0.019991875
,,,-3.69E-06,0.020115
,,,-3.68E-06,0.019871875
,,,-3.67E-06,0.0200725
,,,-3.66E-06,0.020051875
,,,-3.65E-06,0.02008375
,,,-3.64E-06,0.02005
,,,-3.63E-06,0.01992
,,,-3.62E-06,0.019970625
,,,-3.61E-06,0.01979125
,,,-3.6E-06,0.0201775
,,,-3.59E-06,0.020119375
,,,-3.58E-06,0.02019375
,,,-3.57E-06,0.019873125
,,,-3.56E-06,0.020155625
,,,-3.55E-06,0.0198175
,,,-3.54E-06,0.019983125
,,,-3.53E-06,0.01988
,,,-3.52E-06,0.019939375
,,,-3.51E-06,0.019958125
,,,-3.5E-06,0.019985
,,,-3.49E-06,0.019691875
,,,-3.48E-06,0.019714375
,,,-3.47E-06,0.02005
,,,-3.46E-06,0.020141875
,,,-3.45E-06,0.01993
,,,-3.44E-06,0.019918125
,,,-3.43E-06,0.019998125
,,,-3.42E-06,0.02004375
,,,-3.41E-06,0.020006875
,,,-3.4E-06,0.020058125
,,,-3.39E-06,0.020009375
,,,-3.38E-06,0.01989875
,,,-3.37E-06,0.020063125
,,,-3.36E-06,0.020096875
,,,-3.35E-06,0.020180625
,,,-3.34E-06,0.0201225
,,,-3.33E-06,0.01979125
,,,-3.32E-06,0.019830625
,,,-3.31E-06,0.02
,,,-3.3E-06,0.020015625
,,,-3.29E-06,0.0200125
,,,-3.28E-06,0.02005
,,,-3.27E-06,0.0198
,,,-3.26E-06,0.0201075
,,,-3.25E-06,0.0202675
,,,-3.24E-06,0.019973125
,,,-3.23E-06,0.020105
,,,-3.22E-06,0.01994125
,,,-3.21E-06,0.019908125
,,,-3.2E-06,0.019935625
,,,-3.19E-06,0.020036875
,,,-3.18E-06,0.02010625
,,,-3.17E-06,0.019969375
,,,-3.16E-06,0.019881875
,,,-3.15E-06,0.01992625
,,,-3.14E-06,0.020189375
,,,-3.13E-06,0.01974125
,,,-3.12E-06,0.01960125
,,,-3.11E-06,0.020056875
,,,-3.1E-06,0.019705
,,,-3.09E-06,0.019841875
,,,-3.08E-06,0.01988
,,,-3.07E-06,0.0198375
,,,-3.06E-06,0.020161875
,,,-3.05E-06,0.01986875
,,,-3.04E-06,0.019900625
,,,-3.03E-06,0.01985375
,,,-3.02E-06,0.019989375
,,,-3.01E-06,0.02012625
,,,-3E-06,0.019998125
,,,-2.99E-06,0.019898125
,,,-2.98E-06,0.01980875
,,,-2.97E-06,0.019730625
,,,-2.96E-06,0.020023125
,,,-2.95E-06,0.019903125
,,,-2.94E-06,0.019946875
,,,-2.93E-06,0.019895
,,,-2.92E-06,0.0198975
,,,-2.91E-06,0.01987
,,,-2.9E-06,0.019945625
,,,-2.89E-06,0.020100625
,,,-2.88E-06,0.019968125
,,,-2.87E-06,0.01989375
,,,-2.86E-06,0.020063125
,,,-2.85E-06,0.019946875
,,,-2.84E-06,0.02008125
,,,-2.83E-06,0.01996625
,,,-2.82E-06,0.01999125
,,,-2.81E-06,0.02004
,,,-2.8E-06,0.020035625
,,,-2.79E-06,0.019680625
,,,-2.78E-06,0.02014625
,,,-2.77E-06,0.019975625
,,,-2.76E-06,0.0199925
,,,-2.75E-06,0.02002375
,,,-2.74E-06,0.019815
,,,-2.73E-06,0.019878125
,,,-2.72E-06,0.01981375
,,,-2.71E-06,0.019910625
,,,-2.7E-06,0.02000125
,,,-2.69E-06,0.01992
,,,-2.68E-06,0.020005
,,,-2.67E-06,0.02009375
,,,-2.66E-06,0.01995
,,,-2.65E-06,0.01986
,,,-2.64E-06,0.020101875
,,,-2.63E-06,0.020045
,,,-2.62E-06,0.01983
,,,-2.61E-06,0.019800625
,,,-2.6E-06,0.0201325
,,,-2.59E-06,0.019923125
,,,-2.58E-06,0.0198825
,,,-2.57E-06,0.01997125
,,,-2.56E-06,0.019916875
,,,-2.55E-06,0.020125625
,,,-2.54E-06,0.019821875
,,,-2.53E-06,0.02012125
,,,-2.52E-06,0.019929375
,,,-2.51E-06,0.020195625
,,,-2.5E-06,0.0198325
,,,-2.49E-06,0.0200625
,,,-2.48E-06,0.02002625
,,,-2.47E-06,0.020055625
,,,-2.46E-06,0.019791875
,,,-2.45E-06,0.02012875
,,,-2.44E-06,0.0200425
,,,-2.43E-06,0.02014875
,,,-2.42E-06,0.020025
,,,-2.41E-06,0.0200075
,,,-2.4E-06,0.01995125
,,,-2.39E-06,0.019986875
,,,-2.38E-06,0.02011125
,,,-2.37E-06,0.020133125
,,,-2.36E-06,0.020049375
,,,-2.35E-06,0.020025
,,,-2.34E-06,0.019821875
,,,-2.33E-06,0.020164375
,,,-2.32E-06,0.0198275
,,,-2.31E-06,0.0199275
,,,-2.3E-06,0.0198375
,,,-2.29E-06,0.0199925
,,,-2.28E-06,0.02000375
,,,-2.27E-06,0.019654375
,,,-2.26E-06,0.01964875
,,,-2.25E-06,0.019966875
,,,-2.24E-06,0.01988125
,,,-2.23E-06,0.0199225
,,,-2.22E-06,0.020141875
,,,-2.21E-06,0.019936875
,,,-2.2E-06,0.02027875
,,,-2.19E-06,0.019908125
,,,-2.18E-06,0.0199375
,,,-2.17E-06,0.02001625
,,,-2.16E-06,0.019736875
,,,-2.15E-06,0.02010375
,,,-2.14E-06,0.02001
,,,-2.13E-06,0.019874375
,,,-2.12E-06,0.020034375
,,,-2.11E-06,0.019983125
,,,-2.1E-06,0.0201725
,,,-2.09E-06,0.020024375
,,,-2.08E-06,0.0199825
,,,-2.07E-06,0.02003625
,,,-2.06E-06,0.0197675
,,,-2.05E-06,0.020025
,,,-2.04E-06,0.01999
,,,-2.03E-06,0.020044375
,,,-2.02E-06,0.01989125
,,,-2.01E-06,0.0198725
,,,-2E-06,0.019925625
,,,-1.99E-06,0.0200525
,,,-1.98E-06,0.020091875
,,,-1.97E-06,0.02005
,,,-1.96E-06,0.0201675
,,,-1.95E-06,0.020010625
,,,-1.94E-06,0.01999
,,,-1.93E-06,0.019765
,,,-1.92E-06,0.0200325
,,,-1.91E-06,0.0201425
,,,-1.9E-06,0.019945
,,,-1.89E-06,0.01998375
,,,-1.88E-06,0.019915625
,,,-1.87E-06,0.02018
,,,-1.86E-06,0.019951875
,,,-1.85E-06,0.020079375
,,,-1.84E-06,0.0200375
,,,-1.83E-06,0.0198925
,,,-1.82E-06,0.019985625
,,,-1.81E-06,0.020018125
,,,-1.8E-06,0.0199525
,,,-1.79E-06,0.0199125
,,,-1.78E-06,0.01997125
,,,-1.77E-06,0.02003875
,,,-1.76E-06,0.019744375
,,,-1.75E-06,0.01989
,,,-1.74E-06,0.019928125
,,,-1.73E-06,0.0199425
,,,-1.72E-06,0.019905
,,,-1.71E-06,0.020018125
,,,-1.7E-06,0.02004625
,,,-1.69E-06,0.019891875
,,,-1.68E-06,0.020179375
,,,-1.67E-06,0.02005
,,,-1.66E-06,0.020060625
,,,-1.65E-06,0.020023125
,,,-1.64E-06,0.019988125
,,,-1.63E-06,0.019981875
,,,-1.62E-06,0.019931875
,,,-1.61E-06,0.019914375
,,,-1.6E-06,0.0198225
,,,-1.59E-06,0.01992625
,,,-1.58E-06,0.02007625
,,,-1.57E-06,0.02005875
,,,-1.56E-06,0.019966875
,,,-1.55E-06,0.020073125
,,,-1.54E-06,0.0198875
,,,-1.53E-06,0.019879375
,,,-1.52E-06,0.019888125
,,,-1.51E-06,0.02011625
,,,-1.5E-06,0.019846875
,,,-1.49E-06,0.019883125
,,,-1.48E-06,0.01977125
,,,-1.47E-06,0.01992625
,,,-1.46E-06,0.019759375
,,,-1.45E-06,0.019755625
,,,-1.44E-06,0.0200525
,,,-1.43E-06,0.01981
,,,-1.42E-06,0.02007625
,,,-1.41E-06,0.01988125
,,,-1.4E-06,0.019901875
,,,-1.39E-06,0.01998375
,,,-1.38E-06,0.019860625
,,,-1.37E-06,0.019889375
,,,-1.36E-06,0.020054375
,,,-1.35E-06,0.01978375
,,,-1.34E-06,0.0199575
,,,-1.33E-06,0.020219375
,,,-1.32E-06,0.0199475
,,,-1.31E-06,0.0198625
,,,-1.3E-06,0.020011875
,,,-1.29E-06,0.01977375
,,,-1.28E-06,0.01991625
,,,-1.27E-06,0.020009375
,,,-1.26E-06,0.020041875
,,,-1.25E-06,0.019800625
,,,-1.24E-06,0.0198925
,,,-1.23E-06,0.019948125
,,,-1.22E-06,0.019755
,,,-1.21E-06,0.020235625
,,,-1.2E-06,0.020058125
,,,-1.19E-06,0.01971625
,,,-1.18E-06,0.02007375
,,,-1.17E-06,0.019724375
,,,-1.16E-06,0.02006375
,,,-1.15E-06,0.01992625
,,,-1.14E-06,0.019978125
,,,-1.13E-06,0.019679375
,,,-1.12E-06,0.02001125
,,,-1.11E-06,0.0200175
,,,-1.1E-06,0.020101875
,,,-1.09E-06,0.02005
,,,-1.08E-06,0.019995
,,,-1.07E-06,0.019975625
,,,-1.06E-06,0.019876875
,,,-1.05E-06,0.019821875
,,,-1.04E-06,0.02002625
,,,-1.03E-06,0.020115625
,,,-1.02E-06,0.019766875
,,,-1.01E-06,0.01996
,,,-1E-06,0.0198775
,,,-9.9E-07,0.02012625
,,,-9.8E-07,0.020115
,,,-9.7E-07,0.019965
,,,-9.6E-07,0.01993625
,,,-9.5E-07,0.02002875
,,,-9.4E-07,0.020165
,,,-9.3E-07,0.020076875
,,,-9.2E-07,0.02002375
,,,-9.1E-07,0.019851875
,,,-9E-07,0.02015625
,,,-8.9E-07,0.020055
,,,-8.8E-07,0.01999875
,,,-8.7E-07,0.01977875
,,,-8.6E-07,0.019931875
,,,-8.5E-07,0.01996
,,,-8.4E-07,0.02017375
,,,-8.3E-07,0.01994875
,,,-8.2E-07,0.01992
,,,-8.1E-07,0.020015
,,,-8E-07,0.02021125
,,,-7.9E-07,0.01997625
,,,-7.8E-07,0.0199875
,,,-7.7E-07,0.0199175
,,,-7.6E-07,0.019849375
,,,-7.5E-07,0.020065625
,,,-7.4E-07,0.020074375
,,,-7.3E-07,0.019925625
,,,-7.2E-07,0.020070625
,,,-7.1E-07,0.019873125
,,,-7E-07,0.020040625
,,,-6.9E-07,0.01972875
,,,-6.8E-07,0.01988625
,,,-6.7E-07,0.019924375
,,,-6.6E-07,0.01989
,,,-6.5E-07,0.019908125
,,,-6.4E-07,0.020113125
,,,-6.3E-07,0.0198025
,,,-6.2E-07,0.019916875
,,,-6.1E-07,0.019894375
,,,-6E-07,0.019944375
,,,-5.9E-07,0.019884375
,,,-5.8E-07,0.019945625
,,,-5.7E-07,0.01999375
,,,-5.6E-07,0.02014
,,,-5.5E-07,0.019773125
,,,-5.4E-07,0.0200825
,,,-5.3E-07,0.019901875
,,,-5.2E-07,0.01999625
,,,-5.1E-07,0.019960625
,,,-5E-07,0.020091875
,,,-4.9E-07,0.0199925
,,,-4.8E-07,0.019870625
,,,-4.7E-07,0.019924375
,,,-4.6E-07,0.019794375
,,,-4.5E-07,0.020039375
,,,-4.4E-07,0.02004625
,,,-4.3E-07,0.020123125
,,,-4.2E-07,0.0199275
,,,-4.1E-07,0.0200675
,,,-4E-07,0.01991375
,,,-3.9E-07,0.01978125
,,,-3.8E-07,0.019905625
,,,-3.7E-07,0.01973
,,,-3.6E-07,0.02008375
,,,-3.5E-07,0.019688125
,,,-3.4E-07,0.020003125
,,,-3.3E-07,0.020008125
,,,-3.2E-07,0.0203075
,,,-3.1E-07,0.020090625
,,,-3E-07,0.02000875
,,,-2.9E-07,0.019976875
,,,-2.8E-07,0.0200225
,,,-2.7E-07,0.019986875
,,,-2.6E-07,0.02004625
,,,-2.5E-07,0.01991875
,,,-2.4E-07,0.019945
,,,-2.3E-07,0.019835
,,,-2.2E-07,0.020140625
,,,-2.1E-07,0.02006375
,,,-2E-07,0.019911875
,,,-1.9E-07,0.019784375
,,,-1.8E-07,0.0200875
,,,-1.7E-07,0.0201825
,,,-1.6E-07,0.019945625
,,,-1.5E-07,0.02007875
,,,-1.4E-07,0.020035625
,,,-1.3E-07,0.02007625
,,,-1.2E-07,0.0199425
,,,-1.1E-07,0.01988375
,,,-1E-07,0.01991125
,,,-9E-08,0.020019375
,,,-8E-08,0.019840625
,,,-7E-08,0.019965625
,,,-6E-08,0.02014
,,,-5E-08,0.01990375
,,,-4E-08,0.02030375
,,,-3E-08,0.02048
,,,-2E-08,0.0194675
,,,-1E-08,0.018881875
,,,0,0.019046875
,,,1E-08,0.020701875
,,,2E-08,0.02141375
,,,3E-08,0.02091625
,,,4E-08,0.01972875
,,,5E-08,0.01918375
,,,6E-08,0.0190525
,,,7E-08,0.01956125
,,,8E-08,0.020063125
,,,9E-08,0.02077125
,,,1E-07,0.020648125
,,,1.1E-07,0.020058125
,,,1.2E-07,0.019773125
,,,1.3E-07,0.019455625
,,,1.4E-07,0.019699375
,,,1.5E-07,0.01993375
,,,1.6E-07,0.020280625
,,,1.7E-07,0.01995625
,,,1.8E-07,0.020046875
,,,1.9E-07,0.020045625
,,,2E-07,0.01985
,,,2.1E-07,0.01976
,,,2.2E-07,0.019788125
,,,2.3E-07,0.020005625
,,,2.4E-07,0.020035625
,,,2.5E-07,0.019836875
,,,2.6E-07,0.01996
,,,2.7E-07,0.01981625
,,,2.8E-07,0.02014625
,,,2.9E-07,0.019770625
,,,3E-07,0.0199575
,,,3.1E-07,0.02004375
,,,3.2E-07,0.01991125
,,,3.3E-07,0.02004
,,,3.4E-07,0.019975625
,,,3.5E-07,0.019805625
,,,3.6E-07,0.01994875
,,,3.7E-07,0.019716875
,,,3.8E-07,0.020046875
,,,3.9E-07,0.019805
,,,4E-07,0.020041875
,,,4.1E-07,0.019984375
,,,4.2E-07,0.02001
,,,4.3E-07,0.020053125
,,,4.4E-07,0.020060625
,,,4.5E-07,0.019870625
,,,4.6E-07,0.01994125
,,,4.7E-07,0.01991375
,,,4.8E-07,0.0201125
,,,4.9E-07,0.02009
,,,5E-07,0.020210625
,,,5.1E-07,0.01997
,,,5.2E-07,0.0199825
,,,5.3E-07,0.019823125
,,,5.4E-07,0.019841875
,,,5.5E-07,0.0199775
,,,5.6E-07,0.019833125
,,,5.7E-07,0.020063125
,,,5.8E-07,0.01985375
,,,5.9E-07,0.019760625
,,,6E-07,0.0200575
,,,6.1E-07,0.020255
,,,6.2E-07,0.019913125
,,,6.3E-07,0.020054375
,,,6.4E-07,0.0200675
,,,6.5E-07,0.01982
,,,6.6E-07,0.020119375
,,,6.7E-07,0.0199325
,,,6.8E-07,0.01983
,,,6.9E-07,0.019866875
,,,7E-07,0.019994375
,,,7.1E-07,0.01998875
,,,7.2E-07,0.020069375
,,,7.3E-07,0.019835
,,,7.4E-07,0.020025625
,,,7.5E-07,0.019825
,,,7.6E-07,0.019575
,,,7.7E-07,0.02007375
,,,7.8E-07,0.020041875
,,,7.9E-07,0.020118125
,,,8E-07,0.0201775
,,,8.1E-07,0.019945
,,,8.2E-07,0.0199075
,,,8.3E-07,0.02019375
,,,8.4E-07,0.020169375
,,,8.5E-07,0.019845
,,,8.6E-07,0.019954375
,,,8.7E-07,0.0199725
,,,8.8E-07,0.019820625
,,,8.9E-07,0.0198975
,,,9E-07,0.019826875
,,,9.1E-07,0.020126875
,,,9.2E-07,0.01986625
,,,9.3E-07,0.01999375
,,,9.4E-07,0.020013125
,,,9.5E-07,0.02009875
,,,9.6E-07,0.0200025
,,,9.7E-07,0.019785
,,,9.8E-07,0.019945625
,,,9.9E-07,0.020141875
,,,1E-06,0.019880625
,,,1.01E-06,0.01966
,,,1.02E-06,0.02002
,,,1.03E-06,0.0201275
,,,1.04E-06,0.01994125
,,,1.05E-06,0.02012625
,,,1.06E-06,0.01972375
,,,1.07E-06,0.019879375
,,,1.08E-06,0.020009375
,,,1.09E-06,0.0200075
,,,1.1E-06,0.02000875
,,,1.11E-06,0.020041875
,,,1.12E-06,0.0202475
,,,1.13E-06,0.019895625
,,,1.14E-06,0.020021875
,,,1.15E-06,0.020173125
,,,1.16E-06,0.020010625
,,,1.17E-06,0.02002375
,,,1.18E-06,0.020098125
,,,1.19E-06,0.0199825
,,,1.2E-06,0.019885625
,,,1.21E-06,0.019671875
,,,1.22E-06,0.0199775
,,,1.23E-06,0.019918125
,,,1.24E-06,0.019941875
,,,1.25E-06,0.01999375
,,,1.26E-06,0.020049375
,,,1.27E-06,0.01988375
,,,1.28E-06,0.019751875
,,,1.29E-06,0.020030625
,,,1.3E-06,0.019983125
,,,1.31E-06,0.019968125
,,,1.32E-06,0.019938125
,,,1.33E-06,0.02001
,,,1.34E-06,0.02000625
,,,1.35E-06,0.019910625
,,,1.36E-06,0.019966875
,,,1.37E-06,0.019884375
,,,1.38E-06,0.019894375
,,,1.39E-06,0.019849375
,,,1.4E-06,0.01986125
,,,1.41E-06,0.02001375
,,,1.42E-06,0.0197775
,,,1.43E-06,0.019923125
,,,1.44E-06,0.020088125
,,,1.45E-06,0.01997125
,,,1.46E-06,0.020206875
,,,1.47E-06,0.020018125
,,,1.48E-06,0.02015625
,,,1.49E-06,0.01987
,,,1.5E-06,0.01988875
,,,1.51E-06,0.02016125
,,,1.52E-06,0.019851875
,,,1.53E-06,0.020066875
,,,1.54E-06,0.0201025
,,,1.55E-06,0.019995625
,,,1.56E-06,0.0201125
,,,1.57E-06,0.019873125
,,,1.58E-06,0.019919375
,,,1.59E-06,0.019788125
,,,1.6E-06,0.01998125
,,,1.61E-06,0.01996625
,,,1.62E-06,0.020015
,,,1.63E-06,0.020015
,,,1.64E-06,0.01983625
,,,1.65E-06,0.01997125
,,,1.66E-06,0.0199975
,,,1.67E-06,0.02019125
,,,1.68E-06,0.020046875
,,,1.69E-06,0.02001
,,,1.7E-06,0.0199125
,,,1.71E-06,0.020019375
,,,1.72E-06,0.019988125
,,,1.73E-06,0.019965
,,,1.74E-06,0.01986125
,,,1.75E-06,0.0199625
,,,1.76E-06,0.020070625
,,,1.77E-06,0.019709375
,,,1.78E-06,0.01998625
,,,1.79E-06,0.02011375
,,,1.8E-06,0.019943125
,,,1.81E-06,0.01987125
,,,1.82E-06,0.01999
,,,1.83E-06,0.019715625
,,,1.84E-06,0.02013
,,,1.85E-06,0.019836875
,,,1.86E-06,0.0202125
,,,1.87E-06,0.01975375
,,,1.88E-06,0.02015125
,,,1.89E-06,0.02020125
,,,1.9E-06,0.01992625
,,,1.91E-06,0.0200575
,,,1.92E-06,0.020101875
,,,1.93E-06,0.01993875
,,,1.94E-06,0.019904375
,,,1.95E-06,0.0198075
,,,1.96E-06,0.020134375
,,,1.97E-06,0.01979625
,,,1.98E-06,0.01979625
,,,1.99E-06,0.019911875
,,,2E-06,0.019839375
,,,2.01E-06,0.019776875
,,,2.02E-06,0.019943125
,,,2.03E-06,0.020226875
,,,2.04E-06,0.01994625
,,,2.05E-06,0.019975
,,,2.06E-06,0.020034375
,,,2.07E-06,0.020076875
,,,2.08E-06,0.020085
,,,2.09E-06,0.019996875
,,,2.1E-06,0.01982125
,,,2.11E-06,0.0199575
,,,2.12E-06,0.01995
,,,2.13E-06,0.01990375
,,,2.14E-06,0.01988
,,,2.15E-06,0.019604375
,,,2.16E-06,0.0200325
,,,2.17E-06,0.020140625
,,,2.18E-06,0.019885625
,,,2.19E-06,0.02006625
,,,2.2E-06,0.019881875
,,,2.21E-06,0.02014375
,,,2.22E-06,0.02035875
,,,2.23E-06,0.02021
,,,2.24E-06,0.01976125
,,,2.25E-06,0.01999625
,,,2.26E-06,0.019950625
,,,2.27E-06,0.01990625
,,,2.28E-06,0.02009875
,,,2.29E-06,0.019985625
,,,2.3E-06,0.020243125
,,,2.31E-06,0.019916875
,,,2.32E-06,0.01996625
,,,2.33E-06,0.02006625
,,,2.34E-06,0.020231875
,,,2.35E-06,0.01996875
,,,2.36E-06,0.020004375
,,,2.37E-06,0.0201275
,,,2.38E-06,0.020040625
,,,2.39E-06,0.019875625
,,,2.4E-06,0.020038125
,,,2.41E-06,0.020098125
,,,2.42E-06,0.019868125
,,,2.43E-06,0.02002125
,,,2.44E-06,0.020063125
,,,2.45E-06,0.02006625
,,,2.46E-06,0.02018375
,,,2.47E-06,0.020005
,,,2.48E-06,0.01981
,,,2.49E-06,0.020010625
,,,2.5E-06,0.019935
,,,2.51E-06,0.0201475
,,,2.52E-06,0.019871875
,,,2.53E-06,0.020008125
,,,2.54E-06,0.020075
,,,2.55E-06,0.020030625
,,,2.56E-06,0.02013125
,,,2.57E-06,0.01981125
,,,2.58E-06,0.019836875
,,,2.59E-06,0.019723125
,,,2.6E-06,0.019996875
,,,2.61E-06,0.02011625
,,,2.62E-06,0.019996875
,,,2.63E-06,0.019883125
,,,2.64E-06,0.019835625
,,,2.65E-06,0.019839375
,,,2.66E-06,0.020025625
,,,2.67E-06,0.020006875
,,,2.68E-06,0.020026875
,,,2.69E-06,0.020001875
,,,2.7E-06,0.020154375
,,,2.71E-06,0.01992375
,,,2.72E-06,0.02002875
,,,2.73E-06,0.019881875
,,,2.74E-06,0.0199225
,,,2.75E-06,0.020014375
,,,2.76E-06,0.019864375
,,,2.77E-06,0.020204375
,,,2.78E-06,0.0199675
,,,2.79E-06,0.019934375
,,,2.8E-06,0.01998
,,,2.81E-06,0.019955625
,,,2.82E-06,0.020266875
,,,2.83E-06,0.02035375
,,,2.84E-06,0.02016625
,,,2.85E-06,0.020030625
,,,2.86E-06,0.019843125
,,,2.87E-06,0.0201
,,,2.88E-06,0.0197375
,,,2.89E-06,0.020243125
,,,2.9E-06,0.0201675
,,,2.91E-06,0.01994
,,,2.92E-06,0.019915
,,,2.93E-06,0.020005
,,,2.94E-06,0.0201175
,,,2.95E-06,0.01995375
,,,2.96E-06,0.01998625
,,,2.97E-06,0.019659375
,,,2.98E-06,0.020045
,,,2.99E-06,0.019846875
,,,3E-06,0.02018125
,,,3.01E-06,0.020153125
,,,3.02E-06,0.019851875
,,,3.03E-06,0.01999125
,,,3.04E-06,0.02009
,,,3.05E-06,0.019973125
,,,3.06E-06,0.019996875
,,,3.07E-06,0.0201
,,,3.08E-06,0.019963125
,,,3.09E-06,0.0199825
,,,3.1E-06,0.020005
,,,3.11E-06,0.019905625
,,,3.12E-06,0.019851875
,,,3.13E-06,0.020030625
,,,3.14E-06,0.020264375
,,,3.15E-06,0.019864375
,,,3.16E-06,0.01988375
,,,3.17E-06,0.020005
,,,3.18E-06,0.01988875
,,,3.19E-06,0.02012125
,,,3.2E-06,0.02011
,,,3.21E-06,0.019705625
,,,3.22E-06,0.020190625
,,,3.23E-06,0.0200325
,,,3.24E-06,0.019728125
,,,3.25E-06,0.01987375
,,,3.26E-06,0.0197475
,,,3.27E-06,0.019998125
,,,3.28E-06,0.02013
,,,3.29E-06,0.02001625
,,,3.3E-06,0.02013625
,,,3.31E-06,0.02006625
,,,3.32E-06,0.01993375
,,,3.33E-06,0.0199925
,,,3.34E-06,0.0198925
,,,3.35E-06,0.02009
,,,3.36E-06,0.0199575
,,,3.37E-06,0.019990625
,,,3.38E-06,0.019980625
,,,3.39E-06,0.019949375
,,,3.4E-06,0.019844375
,,,3.41E-06,0.019865625
,,,3.42E-06,0.02009
,,,3.43E-06,0.0200825
,,,3.44E-06,0.019865625
,,,3.45E-06,0.019925625
,,,3.46E-06,0.02004
,,,3.47E-06,0.02002
,,,3.48E-06,0.020325
,,,3.49E-06,0.020225625
,,,3.5E-06,0.019713125
,,,3.51E-06,0.020063125
,,,3.52E-06,0.019966875
,,,3.53E-06,0.02004625
,,,3.54E-06,0.019905
,,,3.55E-06,0.01996
,,,3.56E-06,0.02005
,,,3.57E-06,0.019843125
,,,3.58E-06,0.019924375
