data/raw/Final_POL_Test_1/SOP065_Ch2.csv

"Record Length",1000,"Points",-5E-06,0.02116625
"Sample Interval",1E-08,s,-4.99E-06,0.020934375
"Trigger Point",500,"Samples",-4.98E-06,0.02115
"Trigger Time",0,s,-4.97E-06,0.02100375
"",,,-4.96E-06,0.02122375
"Horizontal Offset",-5E-06,s,-4.95E-06,0.021139375
,,,-4.94E-06,0.0211025
,,,-4.93E-06,0.02094375
,,,-4.92E-06,0.02104375
,,,-4.91E-06,0.0212475
,,,-4.9E-06,0.02088125
,,,-4.89E-06,0.02095125
,,,-4.88E-06,0.021096875
,,,-4.87E-06,0.02112375
,,,-4.86E-06,0.02099625
,,,-4.85E-06,0.02111375
,,,-4.84E-06,0.021134375
,,,-4.83E-06,0.02115125
,,,-4.82E-06,0.02116875
,,,-4.81E-06,0.020861875
,,,-4.8E-06,0.021281875
,,,-4.79E-06,0.021166875
,,,-4.78E-06,0.021131875
,,,-4.77E-06,0.021005
,,,-4.76E-06,0.020926875
,,,-4.75E-06,0.021146875
,,,-4.74E-06,0.0208975
,,,-4.73E-06,0.02093875
,,,-4.72E-06,0.021075
,,,-4.71E-06,0.0211375
,,,-4.7E-06,0.020885
,,,-4.69E-06,0.02101
,,,-4.68E-06,0.021039375
,,,-4.67E-06,0.02113
,,,-4.66E-06,0.02123
,,,-4.65E-06,0.02101125
,,,-4.64E-06,0.0210225
,,,-4.63E-06,0.0211075
,,,-4.62E-06,0.02114
,,,-4.61E-06,0.02099125
,,,-4.6E-06,0.02096625
,,,-4.59E-06,0.021030625
,,,-4.58E-06,0.020914375
,,,-4.57E-06,0.02103625
,,,-4.56E-06,0.02107
,,,-4.55E-06,0.0213325
,,,-4.54E-06,0.020973125
,,,-4.53E-06,0.021011875
,,,-4.52E-06,0.020915625
,,,-4.51E-06,0.021235
,,,-4.5E-06,0.021219375
,,,-4.49E-06,0.02118
,,,-4.48E-06,0.021030625
,,,-4.47E-06,0.021111875
,,,-4.46E-06,0.02101
,,,-4.45E-06,0.02087125
,,,-4.44E-06,0.0212325
,,,-4.43E-06,0.021114375
,,,-4.42E-06,0.02121625
,,,-4.41E-06,0.021051875
,,,-4.4E-06,0.021146875
,,,-4.39E-06,0.021053125
,,,-4.38E-06,0.0209125
,,,-4.37E-06,0.020736875
,,,-4.36E-06,0.02120125
,,,-4.35E-06,0.020776875
,,,-4.34E-06,0.02100875
,,,-4.33E-06,0.020925
,,,-4.32E-06,0.02124625
,,,-4.31E-06,0.021045
,,,-4.3E-06,0.02129375
,,,-4.29E-06,0.0211875
,,,-4.28E-06,0.02121125
,,,-4.27E-06,0.02087375
,,,-4.26E-06,0.02096
,,,-4.25E-06,0.02111625
,,,-4.24E-06,0.02103625
,,,-4.23E-06,0.020833125
,,,-4.22E-06,0.020858125
,,,-4.21E-06,0.0211925
,,,-4.2E-06,0.021010625
,,,-4.19E-06,0.021174375
,,,-4.18E-06,0.021001875
,,,-4.17E-06,0.020996875
,,,-4.16E-06,0.02107625
,,,-4.15E-06,0.021026875
,,,-4.14E-06,0.0207825
,,,-4.13E-06,0.021111875
,,,-4.12E-06,0.02098375
,,,-4.11E-06,0.02121625
,,,-4.1E-06,0.0208275
,,,-4.09E-06,0.02094125
,,,-4.08E-06,0.020955
,,,-4.07E-06,0.02129875
,,,-4.06E-06,0.020989375
,,,-4.05E-06,0.020958125
,,,-4.04E-06,0.02097375
,,,-4.03E-06,0.021091875
,,,-4.02E-06,0.021224375
,,,-4.01E-06,0.021209375
,,,-4E-06,0.020986875
,,,-3.99E-06,0.02101
,,,-3.98E-06,0.02102
,,,-3.97E-06,0.020890625
,,,-3.96E-06,0.0208175
,,,-3.95E-06,0.021071875
,,,-3.94E-06,0.020888125
,,,-3.93E-06,0.02101625
,,,-3.92E-06,0.020963125
,,,-3.91E-06,0.0210975
,,,-3.9E-06,0.021045625
,,,-3.89E-06,0.02113
,,,-3.88E-06,0.0211625
,,,-3.87E-06,0.02107875
,,,-3.86E-06,0.021084375
,,,-3.85E-06,0.0211
,,,-3.84E-06,0.0211025
,,,-3.83E-06,0.02108125
,,,-3.82E-06,0.0209125
,,,-3.81E-06,0.02118375
,,,-3.8E-06,0.021323125
,,,-3.79E-06,0.02110625
,,,-3.78E-06,0.02104
,,,-3.77E-06,0.0211125
,,,-3.76E-06,0.021055625
,,,-3.75E-06,0.020763125
,,,-3.74E-06,0.02105375
,,,-3.73E-06,0.021126875
,,,-3.72E-06,0.0209325
,,,-3.71E-06,0.0211325
,,,-3.7E-06,0.021064375
,,,-3.69E-06,0.02103875
,,,-3.68E-06,0.021078125
,,,-3.67E-06,0.02113625
,,,-3.66E-06,0.02117
,,,-3.65E-06,0.02082
,,,-3.64E-06,0.020859375
,,,-3.63E-06,0.020944375
,,,-3.62E-06,0.020984375
,,,-3.61E-06,0.021025625
,,,-3.6E-06,0.021066875
,,,-3.59E-06,0.020973125
,,,-3.58E-06,0.0212825
,,,-3.57E-06,0.021011875
,,,-3.56E-06,0.0212
,,,-3.55E-06,0.020924375
,,,-3.54E-06,0.02112
,,,-3.53E-06,0.020685625
,,,-3.52E-06,0.020685625
,,,-3.51E-06,0.02114875
,,,-3.5E-06,0.02097375
,,,-3.49E-06,0.02128375
,,,-3.48E-06,0.020934375
,,,-3.47E-06,0.0212425
,,,-3.46E-06,0.0211625
,,,-3.45E-06,0.0208375
,,,-3.44E-06,0.020919375
,,,-3.43E-06,0.02115
,,,-3.42E-06,0.0211125
,,,-3.41E-06,0.021201875
,,,-3.4E-06,0.020865625
,,,-3.39E-06,0.020994375
,,,-3.38E-06,0.020869375
,,,-3.37E-06,0.0208
,,,-3.36E-06,0.02099875
,,,-3.35E-06,0.021170625
,,,-3.34E-06,0.021126875
,,,-3.33E-06,0.020956875
,,,-3.32E-06,0.020806875
,,,-3.31E-06,0.020965
,,,-3.3E-06,0.020865625
,,,-3.29E-06,0.02103125
,,,-3.28E-06,0.0211
,,,-3.27E-06,0.0210475
,,,-3.26E-06,0.020958125
,,,-3.25E-06,0.021064375
,,,-3.24E-06,0.02097875
,,,-3.23E-06,0.020895625
,,,-3.22E-06,0.0211875
,,,-3.21E-06,0.02102
,,,-3.2E-06,0.021125625
,,,-3.19E-06,0.02129
,,,-3.18E-06,0.020876875
,,,-3.17E-06,0.020953125
,,,-3.16E-06,0.021306875
,,,-3.15E-06,0.0210575
,,,-3.14E-06,0.02112375
,,,-3.13E-06,0.020980625
,,,-3.12E-06,0.021101875
,,,-3.11E-06,0.02091875
,,,-3.1E-06,0.0208975
,,,-3.09E-06,0.021015
,,,-3.08E-06,0.021158125
,,,-3.07E-06,0.021226875
,,,-3.06E-06,0.02117875
,,,-3.05E-06,0.02094875
,,,-3.04E-06,0.02091
,,,-3.03E-06,0.02107375
,,,-3.02E-06,0.0208975
,,,-3.01E-06,0.02114625
,,,-3E-06,0.02140375
,,,-2.99E-06,0.021055
,,,-2.98E-06,0.02119
,,,-2.97E-06,0.0210925
,,,-2.96E-06,0.020849375
,,,-2.95E-06,0.021026875
,,,-2.94E-06,0.021058125
,,,-2.93E-06,0.02113
,,,-2.92E-06,0.020903125
,,,-2.91E-06,0.02094375
,,,-2.9E-06,0.020905
,,,-2.89E-06,0.02114125
,,,-2.88E-06,0.0209225
,,,-2.87E-06,0.021309375
,,,-2.86E-06,0.02114
,,,-2.85E-06,0.020911875
,,,-2.84E-06,0.021218125
,,,-2.83E-06,0.0209425
,,,-2.82E-06,0.02106125
,,,-2.81E-06,0.02079375
,,,-2.8E-06,0.02089125
,,,-2.79E-06,0.021045625
,,,-2.78E-06,0.020866875
,,,-2.77E-06,0.021034375
,,,-2.76E-06,0.021165
,,,-2.75E-06,0.021025
,,,-2.74E-06,0.021108125
,,,-2.73E-06,0.021159375
,,,-2.72E-06,0.021083125
,,,-2.71E-06,0.021180625
,,,-2.7E-06,0.021018125
,,,-2.69E-06,0.020918125
,,,-2.68E-06,0.02105125
,,,-2.67E-06,0.02124
,,,-2.66E-06,0.021234375
,,,-2.65E-06,0.021273125
,,,-2.64E-06,0.0210175
,,,-2.63E-06,0.020960625
,,,-2.62E-06,0.021060625
,,,-2.61E-06,0.02091375
,,,-2.6E-06,0.02093625
,,,-2.59E-06,0.0210725
,,,-2.58E-06,0.02086375
,,,-2.57E-06,0.02111125
,,,-2.56E-06,0.02077875
,,,-2.55E-06,0.0209875
,,,-2.54E-06,0.02100625
,,,-2.53E-06,0.020886875
,,,-2.52E-06,0.020965
,,,-2.51E-06,0.020980625
,,,-2.5E-06,0.020891875
,,,-2.49E-06,0.021175625
,,,-2.48E-06,0.021066875
,,,-2.47E-06,0.02093625
,,,-2.46E-06,0.020919375
,,,-2.45E-06,0.021038125
,,,-2.44E-06,0.02109625
,,,-2.43E-06,0.0210425
,,,-2.42E-06,0.0212175
,,,-2.41E-06,0.02090375
,,,-2.4E-06,0.0209775
,,,-2.39E-06,0.02076
,,,-2.38E-06,0.02103625
,,,-2.37E-06,0.02085
,,,-2.36E-06,0.021025625
,,,-2.35E-06,0.021036875
,,,-2.34E-06,0.021323125
,,,-2.33E-06,0.020940625
,,,-2.32E-06,0.02063375
,,,-2.31E-06,0.020939375
,,,-2.3E-06,0.020988125
,,,-2.29E-06,0.020985
,,,-2.28E-06,0.021171875
,,,-2.27E-06,0.021144375
,,,-2.26E-06,0.021019375
,,,-2.25E-06,0.020983125
,,,-2.24E-06,0.02100125
,,,-2.23E-06,0.02095875
,,,-2.22E-06,0.020959375
,,,-2.21E-06,0.020904375
,,,-2.2E-06,0.02104125
,,,-2.19E-06,0.02102125
,,,-2.18E-06,0.021024375
,,,-2.17E-06,0.02096125
,,,-2.16E-06,0.02108
,,,-2.15E-06,0.020915
,,,-2.14E-06,0.021238125
,,,-2.13E-06,0.021081875
,,,-2.12E-06,0.02123375
,,,-2.11E-06,0.021264375
,,,-2.1E-06,0.021120625
,,,-2.09E-06,0.020956875
,,,-2.08E-06,0.020969375
,,,-2.07E-06,0.021091875
,,,-2.06E-06,0.020893125
,,,-2.05E-06,0.020895625
,,,-2.04E-06,0.020896875
,,,-2.03E-06,0.0209025
,,,-2.02E-06,0.021010625
,,,-2.01E-06,0.02116
,,,-2E-06,0.02079375
,,,-1.99E-06,0.02109375
,,,-1.98E-06,0.02099875
,,,-1.97E-06,0.02101
,,,-1.96E-06,0.021160625
,,,-1.95E-06,0.020948125
,,,-1.94E-06,0.021286875
,,,-1.93E-06,0.02107
,,,-1.92E-06,0.021263125
,,,-1.91E-06,0.020941875
,,,-1.9E-06,0.0210925
,,,-1.89E-06,0.0210275
,,,-1.88E-06,0.021366875
,,,-1.87E-06,0.0213225
,,,-1.86E-06,0.021183125
,,,-1.85E-06,0.020814375
,,,-1.84E-06,0.021110625
,,,-1.83E-06,0.020834375
,,,-1.82E-06,0.0210125
,,,-1.81E-06,0.02102625
,,,-1.8E-06,0.020953125
,,,-1.79E-06,0.02115875
,,,-1.78E-06,0.020775625
,,,-1.77E-06,0.021146875
,,,-1.76E-06,0.021319375
,,,-1.75E-06,0.021083125
,,,-1.74E-06,0.021084375
,,,-1.73E-06,0.020699375
,,,-1.72E-06,0.0210425
,,,-1.71E-06,0.0209625
,,,-1.7E-06,0.021163125
,,,-1.69E-06,0.020965
,,,-1.68E-06,0.021020625
,,,-1.67E-06,0.02109375
,,,-1.66E-06,0.021085
,,,-1.65E-06,0.0209075
,,,-1.64E-06,0.020856875
,,,-1.63E-06,0.02083125
,,,-1.62E-06,0.021103125
,,,-1.61E-06,0.021130625
,,,-1.6E-06,0.0210325
,,,-1.59E-06,0.02111625
,,,-1.58E-06,0.02111375
,,,-1.57E-06,0.021036875
,,,-1.56E-06,0.021328125
,,,-1.55E-06,0.020948125
,,,-1.54E-06,0.020811875
,,,-1.53E-06,0.02099
,,,-1.52E-06,0.021205
,,,-1.51E-06,0.02107
,,,-1.5E-06,0.0210175
,,,-1.49E-06,0.0210475
,,,-1.48E-06,0.02117375
,,,-1.47E-06,0.02102875
,,,-1.46E-06,0.0211575
,,,-1.45E-06,0.0209575
,,,-1.44E-06,0.020985625
,,,-1.43E-06,0.0210975
,,,-1.42E-06,0.021005
,,,-1.41E-06,0.021156875
,,,-1.4E-06,0.021241875
,,,-1.39E-06,0.02121875
,,,-1.38E-06,0.021043125
,,,-1.37E-06,0.02106125
,,,-1.36E-06,0.021135625
,,,-1.35E-06,0.02123625
,,,-1.34E-06,0.02110625
,,,-1.33E-06,0.021020625
,,,-1.32E-06,0.02116125
,,,-1.31E-06,0.02108875
,,,-1.3E-06,0.021089375
,,,-1.29E-06,0.021181875
,,,-1.28E-06,0.021086875
,,,-1.27E-06,0.021030625
,,,-1.26E-06,0.021000625
,,,-1.25E-06,0.021053125
,,,-1.24E-06,0.02106875
,,,-1.23E-06,0.021034375
,,,-1.22E-06,0.021098125
,,,-1.21E-06,0.021058125
,,,-1.2E-06,0.021229375
,,,-1.19E-06,0.0209225
,,,-1.18E-06,0.020879375
,,,-1.17E-06,0.021126875
,,,-1.16E-06,0.021165
,,,-1.15E-06,0.020999375
,,,-1.14E-06,0.020926875
,,,-1.13E-06,0.02097625
,,,-1.12E-06,0.02086125
,,,-1.11E-06,0.0210925
,,,-1.1E-06,0.02124375
,,,-1.09E-06,0.021283125
,,,-1.08E-06,0.020988125
,,,-1.07E-06,0.021095625
,,,-1.06E-06,0.020604375
,,,-1.05E-06,0.0210425
,,,-1.04E-06,0.0210325
,,,-1.03E-06,0.021151875
,,,-1.02E-06,0.021265625
,,,-1.01E-06,0.02092375
,,,-1E-06,0.021081875
,,,-9.9E-07,0.020849375
,,,-9.8E-07,0.020858125
,,,-9.7E-07,0.02105
,,,-9.6E-07,0.021154375
,,,-9.5E-07,0.021115
,,,-9.4E-07,0.02109625
,,,-9.3E-07,0.020944375
,,,-9.2E-07,0.02111625
,,,-9.1E-07,0.020974375
,,,-9E-07,0.02118375
,,,-8.9E-07,0.0209525
,,,-8.8E-07,0.020955
,,,-8.7E-07,0.0210725
,,,-8.6E-07,0.020894375
,,,-8.5E-07,0.021035625
,,,-8.4E-07,0.021095625
,,,-8.3E-07,0.02080375
,,,-8.2E-07,0.020935625
,,,-8.1E-07,0.021256875
,,,-8E-07,0.020990625
,,,-7.9E-07,0.020826875
,,,-7.8E-07,0.021194375
,,,-7.7E-07,0.020998125
,,,-7.6E-07,0.020785625
,,,-7.5E-07,0.02114375
,,,-7.4E-07,0.02094375
,,,-7.3E-07,0.0209175
,,,-7.2E-07,0.02111375
,,,-7.1E-07,0.020990625
,,,-7E-07,0.021105
,,,-6.9E-07,0.0210325
,,,-6.8E-07,0.021239375
,,,-6.7E-07,0.021201875
,,,-6.6E-07,0.020921875
,,,-6.5E-07,0.020948125
,,,-6.4E-07,0.021101875
,,,-6.3E-07,0.020855
,,,-6.2E-07,0.021195625
,,,-6.1E-07,0.021091875
,,,-6E-07,0.02114
,,,-5.9E-07,0.020939375
,,,-5.8E-07,0.02095625
,,,-5.7E-07,0.02087875
,,,-5.6E-07,0.02138875
,,,-5.5E-07,0.020751875
,,,-5.4E-07,0.02092
,,,-5.3E-07,0.0210625
,,,-5.2E-07,0.021096875
,,,-5.1E-07,0.021190625
,,,-5E-07,0.021185
,,,-4.9E-07,0.020908125
,,,-4.8E-07,0.021066875
,,,-4.7E-07,0.0211775
,,,-4.6E-07,0.02124625
,,,-4.5E-07,0.0211775
,,,-4.4E-07,0.02119
,,,-4.3E-07,0.02116125
,,,-4.2E-07,0.02104
,,,-4.1E-07,0.021130625
,,,-4E-07,0.021256875
,,,-3.9E-07,0.02097875
,,,-3.8E-07,0.020910625
,,,-3.7E-07,0.0207925
,,,-3.6E-07,0.021093125
,,,-3.5E-07,0.02107
,,,-3.4E-07,0.020978125
,,,-3.3E-07,0.021098125
,,,-3.2E-07,0.02092875
,,,-3.1E-07,0.021319375
,,,-3E-07,0.02094125
,,,-2.9E-07,0.0211925
,,,-2.8E-07,0.02115125
,,,-2.7E-07,0.020953125
,,,-2.6E-07,0.021081875
,,,-2.5E-07,0.02097
,,,-2.4E-07,0.020788125
,,,-2.3E-07,0.021189375
,,,-2.2E-07,0.020934375
,,,-2.1E-07,0.021226875
,,,-2E-07,0.0210375
,,,-1.9E-07,0.020965625
,,,-1.8E-07,0.02099625
,,,-1.7E-07,0.021023125
,,,-1.6E-07,0.02085875
,,,-1.5E-07,0.020805625
,,,-1.4E-07,0.021093125
,,,-1.3E-07,0.021159375
,,,-1.2E-07,0.02122125
,,,-1.1E-07,0.021184375
,,,-1E-07,0.020816875
,,,-9E-08,0.021185625
,,,-8E-08,0.020875625
,,,-7E-08,0.020989375
,,,-6E-08,0.0208875
,,,-5E-08,0.021179375
,,,-4E-08,0.021264375
,,,-3E-08,0.02142625
,,,-2E-08,0.020615
,,,-1E-08,0.01984875
,,,0,0.020098125
,,,1E-08,0.02163625
,,,2E-08,0.022304375
,,,3E-08,0.022263125
,,,4E-08,0.02085375
,,,5E-08,0.0204225
,,,6E-08,0.019916875
,,,7E-08,0.020699375
,,,8E-08,0.02120625
,,,9E-08,0.02182125
,,,1E-07,0.02165125
,,,1.1E-07,0.021230625
,,,1.2E-07,0.0206425
,,,1.3E-07,0.0205525
,,,1.4E-07,0.020840625
,,,1.5E-07,0.021334375
,,,1.6E-07,0.02111625
,,,1.7E-07,0.02085875
,,,1.8E-07,0.02100125
,,,1.9E-07,0.020995625
,,,2E-07,0.021108125
,,,2.1E-07,0.021169375
,,,2.2E-07,0.020955625
,,,2.3E-07,0.021041875
,,,2.4E-07,0.020838125
,,,2.5E-07,0.020994375
,,,2.6E-07,0.021246875
,,,2.7E-07,0.021171875
,,,2.8E-07,0.0210025
,,,2.9E-07,0.021431875
,,,3E-07,0.021029375
,,,3.1E-07,0.021069375
,,,3.2E-07,0.0210425
,,,3.3E-07,0.02099125
,,,3.4E-07,0.021041875
,,,3.5E-07,0.021138125
,,,3.6E-07,0.020908125
,,,3.7E-07,0.021001875
,,,3.8E-07,0.021034375
,,,3.9E-07,0.02096375
,,,4E-07,0.021091875
,,,4.1E-07,0.0209475
,,,4.2E-07,0.0212275
,,,4.3E-07,0.02112625
,,,4.4E-07,0.02104625
,,,4.5E-07,0.02116
,,,4.6E-07,0.021128125
,,,4.7E-07,0.020779375
,,,4.8E-07,0.020968125
,,,4.9E-07,0.020966875
,,,5E-07,0.021008125
,,,5.1E-07,0.021015625
,,,5.2E-07,0.021161875
,,,5.3E-07,0.0209875
,,,5.4E-07,0.021119375
,,,5.5E-07,0.020973125
,,,5.6E-07,0.021219375
,,,5.7E-07,0.021175
,,,5.8E-07,0.020916875
,,,5.9E-07,0.020903125
,,,6E-07,0.02112
,,,6.1E-07,0.021039375
,,,6.2E-07,0.02080375
,,,6.3E-07,0.02073375
,,,6.4E-07,0.02109875
,,,6.5E-07,0.02116125
,,,6.6E-07,0.021053125
,,,6.7E-07,0.02098375
,,,6.8E-07,0.02105125
,,,6.9E-07,0.020965
,,,7E-07,0.02109875
,,,7.1E-07,0.02098
,,,7.2E-07,0.021260625
,,,7.3E-07,0.0210225
,,,7.4E-07,0.02115125
,,,7.5E-07,0.021053125
,,,7.6E-07,0.02102875
,,,7.7E-07,0.020995625
,,,7.8E-07,0.021050625
,,,7.9E-07,0.02142875
,,,8E-07,0.020943125
,,,8.1E-07,0.02124875
,,,8.2E-07,0.02137
,,,8.3E-07,0.02085
,,,8.4E-07,0.02095875
,,,8.5E-07,0.021249375
,,,8.6E-07,0.02123
,,,8.7E-07,0.021058125
,,,8.8E-07,0.021123125
,,,8.9E-07,0.02096625
,,,9E-07,0.021205
,,,9.1E-07,0.02099
,,,9.2E-07,0.021215625
,,,9.3E-07,0.020924375
,,,9.4E-07,0.021106875
,,,9.5E-07,0.0211375
,,,9.6E-07,0.021060625
,,,9.7E-07,0.020898125
,,,9.8E-07,0.021171875
,,,9.9E-07,0.02107625
,,,1E-06,0.021168125
,,,1.01E-06,0.021243125
,,,1.02E-06,0.021076875
,,,1.03E-06,0.020924375
,,,1.04E-06,0.02100625
,,,1.05E-06,0.021175625
,,,1.06E-06,0.02101625
,,,1.07E-06,0.020995
,,,1.08E-06,0.02123375
,,,1.09E-06,0.0210775
,,,1.1E-06,0.021159375
,,,1.11E-06,0.02101625
,,,1.12E-06,0.0212125
,,,1.13E-06,0.021180625
,,,1.14E-06,0.02127875
,,,1.15E-06,0.021008125
,,,1.16E-06,0.021203125
,,,1.17E-06,0.021139375
,,,1.18E-06,0.02118125
,,,1.19E-06,0.020983125
,,,1.2E-06,0.021091875
,,,1.21E-06,0.02095125
,,,1.22E-06,0.021260625
,,,1.23E-06,0.021128125
,,,1.24E-06,0.0209675
,,,1.25E-06,0.021134375
,,,1.26E-06,0.021063125
,,,1.27E-06,0.020849375
,,,1.28E-06,0.021070625
,,,1.29E-06,0.020945
,,,1.3E-06,0.0209375
,,,1.31E-06,0.0210925
,,,1.32E-06,0.0208525
,,,1.33E-06,0.0212075
,,,1.34E-06,0.020955
,,,1.35E-06,0.02117625
,,,1.36E-06,0.02120125
,,,1.37E-06,0.021110625
,,,1.38E-06,0.021149375
,,,1.39E-06,0.02117
,,,1.4E-06,0.02093625
,,,1.41E-06,0.021066875
,,,1.42E-06,0.021169375
,,,1.43E-06,0.020651875
,,,1.44E-06,0.020740625
,,,1.45E-06,0.020871875
,,,1.46E-06,0.021078125
,,,1.47E-06,0.020825625
,,,1.48E-06,0.021314375
,,,1.49E-06,0.02104
,,,1.5E-06,0.021154375
,,,1.51E-06,0.020885
,,,1.52E-06,0.02112375
,,,1.53E-06,0.021309375
,,,1.54E-06,0.021136875
,,,1.55E-06,0.02103625
,,,1.56E-06,0.02109625
,,,1.57E-06,0.02112125
,,,1.58E-06,0.02129
,,,1.59E-06,0.02104625
,,,1.6E-06,0.02100125
,,,1.61E-06,0.021113125
,,,1.62E-06,0.021034375
,,,1.63E-06,0.02094875
,,,1.64E-06,0.020735
,,,1.65E-06,0.02085
,,,1.66E-06,0.02100875
,,,1.67E-06,0.021033125
,,,1.68E-06,0.020956875
,,,1.69E-06,0.020946875
,,,1.7E-06,0.0210225
,,,1.71E-06,0.021080625
,,,1.72E-06,0.021155625
,,,1.73E-06,0.02105875
,,,1.74E-06,0.021240625
,,,1.75E-06,0.0211075
,,,1.76E-06,0.021150625
,,,1.77E-06,0.020950625
,,,1.78E-06,0.021045
,,,1.79E-06,0.0211375
,,,1.8E-06,0.021006875
,,,1.81E-06,0.021114375
,,,1.82E-06,0.02103
,,,1.83E-06,0.021065
,,,1.84E-06,0.02112875
,,,1.85E-06,0.020933125
,,,1.86E-06,0.021185625
,,,1.87E-06,0.021154375
,,,1.88E-06,0.021008125
,,,1.89E-06,0.021115
,,,1.9E-06,0.0210425
,,,1.91E-06,0.021159375
,,,1.92E-06,0.021146875
,,,1.93E-06,0.021346875
,,,1.94E-06,0.02109
,,,1.95E-06,0.021239375
,,,1.96E-06,0.020880625
,,,1.97E-06,0.020884375
,,,1.98E-06,0.020989375
,,,1.99E-06,0.020970625
,,,2E-06,0.020845625
,,,2.01E-06,0.020926875
,,,2.02E-06,0.02112125
,,,2.03E-06,0.0211125
,,,2.04E-06,0.02114625
,,,2.05E-06,0.02124375
,,,2.06E-06,0.021205
,,,2.07E-06,0.02105625
,,,2.08E-06,0.020794375
,,,2.09E-06,0.021100625
,,,2.1E-06,0.020780625
,,,2.11E-06,0.021308125
,,,2.12E-06,0.021010625
,,,2.13E-06,0.02093375
,,,2.14E-06,0.021106875
,,,2.15E-06,0.02098625
,,,2.16E-06,0.02137125
,,,2.17E-06,0.021118125
,,,2.18E-06,0.021035625
,,,2.19E-06,0.02095875
,,,2.2E-06,0.020753125
,,,2.21E-06,0.0211975
,,,2.22E-06,0.020965625
,,,2.23E-06,0.020955625
,,,2.24E-06,0.02114875
,,,2.25E-06,0.02063375
,,,2.26E-06,0.0210975
,,,2.27E-06,0.021111875
,,,2.28E-06,0.02092875
,,,2.29E-06,0.021080625
,,,2.3E-06,0.0208025
,,,2.31E-06,0.021010625
,,,2.32E-06,0.02082125
,,,2.33E-06,0.0208925
,,,2.34E-06,0.021175
,,,2.35E-06,0.02058
,,,2.36E-06,0.02098
,,,2.37E-06,0.021146875
,,,2.38E-06,0.021103125
,,,2.39E-06,0.021083125
,,,2.4E-06,0.021309375
,,,2.41E-06,0.02089875
,,,2.42E-06,0.021025
,,,2.43E-06,0.02087875
,,,2.44E-06,0.02130375
,,,2.45E-06,0.021009375
,,,2.46E-06,0.021029375
,,,2.47E-06,0.021118125
,,,2.48E-06,0.021146875
,,,2.49E-06,0.02122875
,,,2.5E-06,0.020911875
,,,2.51E-06,0.02128125
,,,2.52E-06,0.021009375
,,,2.53E-06,0.021106875
,,,2.54E-06,0.021470625
,,,2.55E-06,0.021114375
,,,2.56E-06,0.02106
,,,2.57E-06,0.02126375
,,,2.58E-06,0.02115
,,,2.59E-06,0.02118
,,,2.6E-06,0.021278125
,,,2.61E-06,0.021025625
,,,2.62E-06,0.021039375
,,,2.63E-06,0.021055
,,,2.64E-06,0.02121875
,,,2.65E-06,0.020815
,,,2.66E-06,0.020941875
,,,2.67E-06,0.02112625
,,,2.68E-06,0.021035625
,,,2.69E-06,0.02098375
,,,2.7E-06,0.02107625
,,,2.71E-06,0.020944375
,,,2.72E-06,0.021005
,,,2.73E-06,0.021171875
,,,2.74E-06,0.021041875
,,,2.75E-06,0.0210575
,,,2.76E-06,0.021211875
,,,2.77E-06,0.020914375
,,,2.78E-06,0.021245
,,,2.79E-06,0.02104125
,,,2.8E-06,0.021104375
,,,2.81E-06,0.021028125
,,,2.82E-06,0.021115
,,,2.83E-06,0.0211325
,,,2.84E-06,0.021081875
,,,2.85E-06,0.02093
,,,2.86E-06,0.021071875
,,,2.87E-06,0.0213025
,,,2.88E-06,0.0208775
,,,2.89E-06,0.0208075
,,,2.9E-06,0.02112125
,,,2.91E-06,0.021184375
,,,2.92E-06,0.021015
,,,2.93E-06,0.021179375
,,,2.94E-06,0.021034375
,,,2.95E-06,0.021186875
,,,2.96E-06,0.021088125
,,,2.97E-06,0.02105625
,,,2.98E-06,0.02111
,,,2.99E-06,0.020859375
,,,3E-06,0.02097375
,,,3.01E-06,0.021125625
,,,3.02E-06,0.021106875
,,,3.03E-06,0.02111375
,,,3.04E-06,0.021199375
,,,3.05E-06,0.021041875
,,,3.06E-06,0.0209925
,,,3.07E-06,0.02080625
,,,3.08E-06,0.02100375
,,,3.09E-06,0.021343125
,,,3.1E-06,0.021273125
,,,3.11E-06,0.021076875
,,,3.12E-06,0.021145
,,,3.13E-06,0.021170625
,,,3.14E-06,0.02118375
,,,3.15E-06,0.02106625
,,,3.16E-06,0.02085375
,,,3.17E-06,0.020975
,,,3.18E-06,0.0208675
,,,3.19E-06,0.021219375
,,,3.2E-06,0.021028125
,,,3.21E-06,0.0209525
,,,3.22E-06,0.021399375
,,,3.23E-06,0.0211025
,,,3.24E-06,0.0214775
,,,3.25E-06,0.020815625
,,,3.26E-06,0.021168125
,,,3.27E-06,0.021098125
,,,3.28E-06,0.02104125
,,,3.29E-06,0.020928125
,,,3.3E-06,0.021375
,,,3.31E-06,0.020796875
,,,3.32E-06,0.021195
,,,3.33E-06,0.0212075
,,,3.34E-06,0.0212025
,,,3.35E-06,0.0212975
,,,3.36E-06,0.021155625
,,,3.37E-06,0.02102625
,,,3.38E-06,0.020963125
,,,3.39E-06,0.021105
,,,3.4E-06,0.02110625
,,,3.41E-06,0.021105
,,,3.42E-06,0.02098625
,,,3.43E-06,0.020985
,,,3.44E-06,0.021078125
,,,3.45E-06,0.02111125
,,,3.46E-06,0.02094625
,,,3.47E-06,0.02117
,,,3.48E-06,0.02110125
,,,3.49E-06,0.021168125
,,,3.5E-06,0.0212625
,,,3.51E-06,0.02108625
,,,3.52E-06,0.02084625
,,,3.53E-06,0.02103
,,,3.54E-06,0.020959375
,,,3.55E-06,0.020848125
,,,3.56E-06,0.021105
,,,3.57E-06,0.021035
