data/raw/Final_POL_Test_1/SOP028_Ch2.csv

"Record Length",1000,"Points",-5E-06,0.020435625
"Sample Interval",1E-08,s,-4.99E-06,0.0205325
"Trigger Point",500,"Samples",-4.98E-06,0.02022
"Trigger Time",0,s,-4.97E-06,0.020229375
"",,,-4.96E-06,0.0205125
"Horizontal Offset",-5E-06,s,-4.95E-06,0.0203575
,,,-4.94E-06,0.02023625
,,,-4.93E-06,0.020223125
,,,-4.92E-06,0.0204375
,,,-4.91E-06,0.0201
,,,-4.9E-06,0.02027125
,,,-4.89E-06,0.020220625
,,,-4.88E-06,0.0204075
,,,-4.87E-06,0.0207625
,,,-4.86E-06,0.02000125
,,,-4.85E-06,0.020240625
,,,-4.84E-06,0.020545
,,,-4.83E-06,0.02049
,,,-4.82E-06,0.020576875
,,,-4.81E-06,0.02031375
,,,-4.8E-06,0.020249375
,,,-4.79E-06,0.020408125
,,,-4.78E-06,0.02032
,,,-4.77E-06,0.020178125
,,,-4.76E-06,0.02017125
,,,-4.75E-06,0.020276875
,,,-4.74E-06,0.020348125
,,,-4.73E-06,0.0203375
,,,-4.72E-06,0.020535625
,,,-4.71E-06,0.02027875
,,,-4.7E-06,0.0201175
,,,-4.69E-06,0.02034125
,,,-4.68E-06,0.02010375
,,,-4.67E-06,0.020501875
,,,-4.66E-06,0.020325625
,,,-4.65E-06,0.020338125
,,,-4.64E-06,0.020085
,,,-4.63E-06,0.020573125
,,,-4.62E-06,0.020280625
,,,-4.61E-06,0.02031375
,,,-4.6E-06,0.0202775
,,,-4.59E-06,0.02033375
,,,-4.58E-06,0.020184375
,,,-4.57E-06,0.02048875
,,,-4.56E-06,0.020243125
,,,-4.55E-06,0.02051875
,,,-4.54E-06,0.0203825
,,,-4.53E-06,0.020316875
,,,-4.52E-06,0.020248125
,,,-4.51E-06,0.020315
,,,-4.5E-06,0.02040875
,,,-4.49E-06,0.020100625
,,,-4.48E-06,0.02038625
,,,-4.47E-06,0.020245625
,,,-4.46E-06,0.02019375
,,,-4.45E-06,0.020354375
,,,-4.44E-06,0.0204425
,,,-4.43E-06,0.020224375
,,,-4.42E-06,0.02029125
,,,-4.41E-06,0.020270625
,,,-4.4E-06,0.020268125
,,,-4.39E-06,0.020406875
,,,-4.38E-06,0.020420625
,,,-4.37E-06,0.02034625
,,,-4.36E-06,0.0202
,,,-4.35E-06,0.02035125
,,,-4.34E-06,0.020575
,,,-4.33E-06,0.020644375
,,,-4.32E-06,0.020458125
,,,-4.31E-06,0.02046
,,,-4.3E-06,0.020214375
,,,-4.29E-06,0.020115
,,,-4.28E-06,0.020281875
,,,-4.27E-06,0.02024875
,,,-4.26E-06,0.02035125
,,,-4.25E-06,0.02030125
,,,-4.24E-06,0.02040625
,,,-4.23E-06,0.020620625
,,,-4.22E-06,0.020173125
,,,-4.21E-06,0.0206325
,,,-4.2E-06,0.02019125
,,,-4.19E-06,0.020109375
,,,-4.18E-06,0.0202
,,,-4.17E-06,0.02041875
,,,-4.16E-06,0.02058625
,,,-4.15E-06,0.0202375
,,,-4.14E-06,0.0202875
,,,-4.13E-06,0.020460625
,,,-4.12E-06,0.020448125
,,,-4.11E-06,0.020451875
,,,-4.1E-06,0.0201775
,,,-4.09E-06,0.020443125
,,,-4.08E-06,0.020428125
,,,-4.07E-06,0.02042
,,,-4.06E-06,0.02043875
,,,-4.05E-06,0.0202925
,,,-4.04E-06,0.02032625
,,,-4.03E-06,0.02006375
,,,-4.02E-06,0.020194375
,,,-4.01E-06,0.02041875
,,,-4E-06,0.0203925
,,,-3.99E-06,0.02037375
,,,-3.98E-06,0.02017375
,,,-3.97E-06,0.020363125
,,,-3.96E-06,0.02045
,,,-3.95E-06,0.02056125
,,,-3.94E-06,0.02008125
,,,-3.93E-06,0.0202175
,,,-3.92E-06,0.020235625
,,,-3.91E-06,0.020299375
,,,-3.9E-06,0.020465
,,,-3.89E-06,0.020428125
,,,-3.88E-06,0.0203275
,,,-3.87E-06,0.019946875
,,,-3.86E-06,0.020396875
,,,-3.85E-06,0.02003625
,,,-3.84E-06,0.02049
,,,-3.83E-06,0.02044125
,,,-3.82E-06,0.0201675
,,,-3.81E-06,0.020335625
,,,-3.8E-06,0.0204225
,,,-3.79E-06,0.02003625
,,,-3.78E-06,0.02012
,,,-3.77E-06,0.020298125
,,,-3.76E-06,0.020225
,,,-3.75E-06,0.020270625
,,,-3.74E-06,0.020420625
,,,-3.73E-06,0.020059375
,,,-3.72E-06,0.020321875
,,,-3.71E-06,0.020084375
,,,-3.7E-06,0.020021875
,,,-3.69E-06,0.020156875
,,,-3.68E-06,0.020399375
,,,-3.67E-06,0.020435
,,,-3.66E-06,0.0202975
,,,-3.65E-06,0.020533125
,,,-3.64E-06,0.020281875
,,,-3.63E-06,0.020623125
,,,-3.62E-06,0.0203
,,,-3.61E-06,0.020131875
,,,-3.6E-06,0.02042
,,,-3.59E-06,0.02050625
,,,-3.58E-06,0.020181875
,,,-3.57E-06,0.020674375
,,,-3.56E-06,0.02034125
,,,-3.55E-06,0.02040375
,,,-3.54E-06,0.020019375
,,,-3.53E-06,0.02014875
,,,-3.52E-06,0.019998125
,,,-3.51E-06,0.0205225
,,,-3.5E-06,0.02018125
,,,-3.49E-06,0.020151875
,,,-3.48E-06,0.020249375
,,,-3.47E-06,0.0200975
,,,-3.46E-06,0.020335625
,,,-3.45E-06,0.020304375
,,,-3.44E-06,0.020154375
,,,-3.43E-06,0.020090625
,,,-3.42E-06,0.020245
,,,-3.41E-06,0.020445625
,,,-3.4E-06,0.02028
,,,-3.39E-06,0.020145625
,,,-3.38E-06,0.0203525
,,,-3.37E-06,0.0204025
,,,-3.36E-06,0.020225625
,,,-3.35E-06,0.020565
,,,-3.34E-06,0.020328125
,,,-3.33E-06,0.020211875
,,,-3.32E-06,0.020266875
,,,-3.31E-06,0.020305
,,,-3.3E-06,0.02032375
,,,-3.29E-06,0.0203575
,,,-3.28E-06,0.020256875
,,,-3.27E-06,0.020116875
,,,-3.26E-06,0.020330625
,,,-3.25E-06,0.020198125
,,,-3.24E-06,0.020295
,,,-3.23E-06,0.020385
,,,-3.22E-06,0.02033125
,,,-3.21E-06,0.0201975
,,,-3.2E-06,0.02048
,,,-3.19E-06,0.020238125
,,,-3.18E-06,0.02019
,,,-3.17E-06,0.0204025
,,,-3.16E-06,0.02022375
,,,-3.15E-06,0.02032
,,,-3.14E-06,0.020413125
,,,-3.13E-06,0.020343125
,,,-3.12E-06,0.02023125
,,,-3.11E-06,0.020153125
,,,-3.1E-06,0.020355
,,,-3.09E-06,0.020155
,,,-3.08E-06,0.020190625
,,,-3.07E-06,0.020411875
,,,-3.06E-06,0.020175625
,,,-3.05E-06,0.020196875
,,,-3.04E-06,0.020245
,,,-3.03E-06,0.020090625
,,,-3.02E-06,0.02036375
,,,-3.01E-06,0.020456875
,,,-3E-06,0.020231875
,,,-2.99E-06,0.020425
,,,-2.98E-06,0.020356875
,,,-2.97E-06,0.020250625
,,,-2.96E-06,0.02039375
,,,-2.95E-06,0.02045375
,,,-2.94E-06,0.02038
,,,-2.93E-06,0.02025375
,,,-2.92E-06,0.020614375
,,,-2.91E-06,0.020536875
,,,-2.9E-06,0.0202775
,,,-2.89E-06,0.020348125
,,,-2.88E-06,0.02018
,,,-2.87E-06,0.02012
,,,-2.86E-06,0.020485625
,,,-2.85E-06,0.02021
,,,-2.84E-06,0.02037125
,,,-2.83E-06,0.02015125
,,,-2.82E-06,0.020253125
,,,-2.81E-06,0.02016125
,,,-2.8E-06,0.0202625
,,,-2.79E-06,0.020236875
,,,-2.78E-06,0.020435
,,,-2.77E-06,0.020308125
,,,-2.76E-06,0.020318125
,,,-2.75E-06,0.0201925
,,,-2.74E-06,0.020223125
,,,-2.73E-06,0.0203125
,,,-2.72E-06,0.02032375
,,,-2.71E-06,0.0202525
,,,-2.7E-06,0.020416875
,,,-2.69E-06,0.020346875
,,,-2.68E-06,0.020595
,,,-2.67E-06,0.02010125
,,,-2.66E-06,0.020119375
,,,-2.65E-06,0.02031125
,,,-2.64E-06,0.02043375
,,,-2.63E-06,0.0203325
,,,-2.62E-06,0.0202475
,,,-2.61E-06,0.020308125
,,,-2.6E-06,0.020231875
,,,-2.59E-06,0.020219375
,,,-2.58E-06,0.02040875
,,,-2.57E-06,0.0206225
,,,-2.56E-06,0.020460625
,,,-2.55E-06,0.020245
,,,-2.54E-06,0.02032
,,,-2.53E-06,0.02040875
,,,-2.52E-06,0.020700625
,,,-2.51E-06,0.0204075
,,,-2.5E-06,0.02039
,,,-2.49E-06,0.020478125
,,,-2.48E-06,0.0202675
,,,-2.47E-06,0.02032625
,,,-2.46E-06,0.020503125
,,,-2.45E-06,0.0200775
,,,-2.44E-06,0.02032875
,,,-2.43E-06,0.020485625
,,,-2.42E-06,0.020448125
,,,-2.41E-06,0.020435
,,,-2.4E-06,0.020331875
,,,-2.39E-06,0.0203425
,,,-2.38E-06,0.020225625
,,,-2.37E-06,0.020371875
,,,-2.36E-06,0.020300625
,,,-2.35E-06,0.020163125
,,,-2.34E-06,0.020465625
,,,-2.33E-06,0.0203575
,,,-2.32E-06,0.0204025
,,,-2.31E-06,0.020201875
,,,-2.3E-06,0.020368125
,,,-2.29E-06,0.02029625
,,,-2.28E-06,0.020129375
,,,-2.27E-06,0.020425
,,,-2.26E-06,0.02021625
,,,-2.25E-06,0.020378125
,,,-2.24E-06,0.0203975
,,,-2.23E-06,0.02032
,,,-2.22E-06,0.020144375
,,,-2.21E-06,0.020295625
,,,-2.2E-06,0.020153125
,,,-2.19E-06,0.020215625
,,,-2.18E-06,0.0203825
,,,-2.17E-06,0.020140625
,,,-2.16E-06,0.02024875
,,,-2.15E-06,0.02034
,,,-2.14E-06,0.02017
,,,-2.13E-06,0.020405625
,,,-2.12E-06,0.020264375
,,,-2.11E-06,0.020280625
,,,-2.1E-06,0.020428125
,,,-2.09E-06,0.020370625
,,,-2.08E-06,0.020345
,,,-2.07E-06,0.020398125
,,,-2.06E-06,0.020221875
,,,-2.05E-06,0.0202825
,,,-2.04E-06,0.020075
,,,-2.03E-06,0.020295
,,,-2.02E-06,0.020268125
,,,-2.01E-06,0.0202575
,,,-2E-06,0.020129375
,,,-1.99E-06,0.020305
,,,-1.98E-06,0.020285
,,,-1.97E-06,0.020464375
,,,-1.96E-06,0.02022625
,,,-1.95E-06,0.02025875
,,,-1.94E-06,0.02021
,,,-1.93E-06,0.02025625
,,,-1.92E-06,0.020749375
,,,-1.91E-06,0.02053375
,,,-1.9E-06,0.02029
,,,-1.89E-06,0.02045625
,,,-1.88E-06,0.020393125
,,,-1.87E-06,0.020203125
,,,-1.86E-06,0.0205175
,,,-1.85E-06,0.0204375
,,,-1.84E-06,0.020305625
,,,-1.83E-06,0.02047125
,,,-1.82E-06,0.02027375
,,,-1.81E-06,0.020251875
,,,-1.8E-06,0.0202
,,,-1.79E-06,0.02007625
,,,-1.78E-06,0.02026375
,,,-1.77E-06,0.02011375
,,,-1.76E-06,0.020383125
,,,-1.75E-06,0.020263125
,,,-1.74E-06,0.02035
,,,-1.73E-06,0.02037
,,,-1.72E-06,0.020075
,,,-1.71E-06,0.020209375
,,,-1.7E-06,0.020594375
,,,-1.69E-06,0.020211875
,,,-1.68E-06,0.020075625
,,,-1.67E-06,0.02047875
,,,-1.66E-06,0.02031
,,,-1.65E-06,0.02037375
,,,-1.64E-06,0.02030875
,,,-1.63E-06,0.020375625
,,,-1.62E-06,0.0203025
,,,-1.61E-06,0.020333125
,,,-1.6E-06,0.020080625
,,,-1.59E-06,0.020391875
,,,-1.58E-06,0.020489375
,,,-1.57E-06,0.02024875
,,,-1.56E-06,0.0201
,,,-1.55E-06,0.02030625
,,,-1.54E-06,0.020420625
,,,-1.53E-06,0.02012125
,,,-1.52E-06,0.02032
,,,-1.51E-06,0.02033375
,,,-1.5E-06,0.0202325
,,,-1.49E-06,0.020140625
,,,-1.48E-06,0.020551875
,,,-1.47E-06,0.020151875
,,,-1.46E-06,0.02045
,,,-1.45E-06,0.0203425
,,,-1.44E-06,0.0204375
,,,-1.43E-06,0.020325
,,,-1.42E-06,0.020381875
,,,-1.41E-06,0.020318125
,,,-1.4E-06,0.020268125
,,,-1.39E-06,0.020296875
,,,-1.38E-06,0.02003875
,,,-1.37E-06,0.0204675
,,,-1.36E-06,0.020494375
,,,-1.35E-06,0.020488125
,,,-1.34E-06,0.02036125
,,,-1.33E-06,0.020235
,,,-1.32E-06,0.020350625
,,,-1.31E-06,0.020360625
,,,-1.3E-06,0.02033375
,,,-1.29E-06,0.02003625
,,,-1.28E-06,0.020329375
,,,-1.27E-06,0.02044
,,,-1.26E-06,0.0203575
,,,-1.25E-06,0.020350625
,,,-1.24E-06,0.020318125
,,,-1.23E-06,0.0201575
,,,-1.22E-06,0.02028625
,,,-1.21E-06,0.02030625
,,,-1.2E-06,0.02031375
,,,-1.19E-06,0.020340625
,,,-1.18E-06,0.020355625
,,,-1.17E-06,0.020145
,,,-1.16E-06,0.020425
,,,-1.15E-06,0.020280625
,,,-1.14E-06,0.020449375
,,,-1.13E-06,0.020425
,,,-1.12E-06,0.02039875
,,,-1.11E-06,0.020166875
,,,-1.1E-06,0.02032
,,,-1.09E-06,0.0203975
,,,-1.08E-06,0.020275
,,,-1.07E-06,0.02036125
,,,-1.06E-06,0.02039875
,,,-1.05E-06,0.020170625
,,,-1.04E-06,0.020405
,,,-1.03E-06,0.020243125
,,,-1.02E-06,0.0202325
,,,-1.01E-06,0.020476875
,,,-1E-06,0.0203075
,,,-9.9E-07,0.020203125
,,,-9.8E-07,0.0204575
,,,-9.7E-07,0.020703125
,,,-9.6E-07,0.02032125
,,,-9.5E-07,0.020335
,,,-9.4E-07,0.02061375
,,,-9.3E-07,0.020448125
,,,-9.2E-07,0.020199375
,,,-9.1E-07,0.020421875
,,,-9E-07,0.02004125
,,,-8.9E-07,0.01997125
,,,-8.8E-07,0.0203575
,,,-8.7E-07,0.02030125
,,,-8.6E-07,0.020266875
,,,-8.5E-07,0.020454375
,,,-8.4E-07,0.020278125
,,,-8.3E-07,0.02025625
,,,-8.2E-07,0.020466875
,,,-8.1E-07,0.02020875
,,,-8E-07,0.020135625
,,,-7.9E-07,0.020189375
,,,-7.8E-07,0.02013625
,,,-7.7E-07,0.0202425
,,,-7.6E-07,0.02049
,,,-7.5E-07,0.020293125
,,,-7.4E-07,0.0201225
,,,-7.3E-07,0.020301875
,,,-7.2E-07,0.020363125
,,,-7.1E-07,0.0201725
,,,-7E-07,0.0202425
,,,-6.9E-07,0.0205425
,,,-6.8E-07,0.02014375
,,,-6.7E-07,0.0200925
,,,-6.6E-07,0.020299375
,,,-6.5E-07,0.0202575
,,,-6.4E-07,0.02034
,,,-6.3E-07,0.02048
,,,-6.2E-07,0.0199875
,,,-6.1E-07,0.0204025
,,,-6E-07,0.020443125
,,,-5.9E-07,0.020165
,,,-5.8E-07,0.020211875
,,,-5.7E-07,0.02026375
,,,-5.6E-07,0.020305625
,,,-5.5E-07,0.020338125
,,,-5.4E-07,0.020215625
,,,-5.3E-07,0.0204025
,,,-5.2E-07,0.020318125
,,,-5.1E-07,0.02039625
,,,-5E-07,0.0201475
,,,-4.9E-07,0.020213125
,,,-4.8E-07,0.020590625
,,,-4.7E-07,0.020101875
,,,-4.6E-07,0.020225625
,,,-4.5E-07,0.0203575
,,,-4.4E-07,0.020493125
,,,-4.3E-07,0.02041
,,,-4.2E-07,0.02068875
,,,-4.1E-07,0.02044625
,,,-4E-07,0.02029
,,,-3.9E-07,0.02028
,,,-3.8E-07,0.020349375
,,,-3.7E-07,0.0203875
,,,-3.6E-07,0.020603125
,,,-3.5E-07,0.019975
,,,-3.4E-07,0.0202975
,,,-3.3E-07,0.020420625
,,,-3.2E-07,0.020345
,,,-3.1E-07,0.020123125
,,,-3E-07,0.020389375
,,,-2.9E-07,0.02039
,,,-2.8E-07,0.02039125
,,,-2.7E-07,0.0203175
,,,-2.6E-07,0.02026375
,,,-2.5E-07,0.020330625
,,,-2.4E-07,0.0204675
,,,-2.3E-07,0.020260625
,,,-2.2E-07,0.020151875
,,,-2.1E-07,0.020454375
,,,-2E-07,0.02067625
,,,-1.9E-07,0.02043375
,,,-1.8E-07,0.020345
,,,-1.7E-07,0.02028125
,,,-1.6E-07,0.02036375
,,,-1.5E-07,0.020233125
,,,-1.4E-07,0.020370625
,,,-1.3E-07,0.02043375
,,,-1.2E-07,0.020304375
,,,-1.1E-07,0.020279375
,,,-1E-07,0.020173125
,,,-9E-08,0.02038625
,,,-8E-08,0.02031375
,,,-7E-08,0.02019375
,,,-6E-08,0.0202775
,,,-5E-08,0.02026875
,,,-4E-08,0.0212925
,,,-3E-08,0.02213375
,,,-2E-08,0.018875625
,,,-1E-08,0.016693124
,,,0,0.01692875
,,,1E-08,0.023103125
,,,2E-08,0.025430625
,,,3E-08,0.024183125
,,,4E-08,0.01976
,,,5E-08,0.017291875
,,,6E-08,0.016713124
,,,7E-08,0.01888875
,,,8E-08,0.0208925
,,,9E-08,0.022591875
,,,1E-07,0.02263
,,,1.1E-07,0.0209825
,,,1.2E-07,0.019195625
,,,1.3E-07,0.0183425
,,,1.4E-07,0.01927
,,,1.5E-07,0.020501875
,,,1.6E-07,0.0213025
,,,1.7E-07,0.020651875
,,,1.8E-07,0.02055875
,,,1.9E-07,0.02045375
,,,2E-07,0.020276875
,,,2.1E-07,0.01994125
,,,2.2E-07,0.020111875
,,,2.3E-07,0.020156875
,,,2.4E-07,0.02052375
,,,2.5E-07,0.020338125
,,,2.6E-07,0.020501875
,,,2.7E-07,0.020345625
,,,2.8E-07,0.020504375
,,,2.9E-07,0.020574375
,,,3E-07,0.019958125
,,,3.1E-07,0.020268125
,,,3.2E-07,0.0203
,,,3.3E-07,0.020443125
,,,3.4E-07,0.0203075
,,,3.5E-07,0.020348125
,,,3.6E-07,0.02019125
,,,3.7E-07,0.020174375
,,,3.8E-07,0.020505625
,,,3.9E-07,0.020359375
,,,4E-07,0.020360625
,,,4.1E-07,0.0204
,,,4.2E-07,0.02012875
,,,4.3E-07,0.020340625
,,,4.4E-07,0.020175
,,,4.5E-07,0.02036
,,,4.6E-07,0.02038875
,,,4.7E-07,0.0203375
,,,4.8E-07,0.0202925
,,,4.9E-07,0.02063125
,,,5E-07,0.02035375
,,,5.1E-07,0.0204475
,,,5.2E-07,0.02028125
,,,5.3E-07,0.020154375
,,,5.4E-07,0.020585625
,,,5.5E-07,0.020168125
,,,5.6E-07,0.020620625
,,,5.7E-07,0.020351875
,,,5.8E-07,0.0203825
,,,5.9E-07,0.0207075
,,,6E-07,0.020208125
,,,6.1E-07,0.02016125
,,,6.2E-07,0.0205325
,,,6.3E-07,0.020128125
,,,6.4E-07,0.020195
,,,6.5E-07,0.0206125
,,,6.6E-07,0.0203425
,,,6.7E-07,0.0203575
,,,6.8E-07,0.020454375
,,,6.9E-07,0.020146875
,,,7E-07,0.020125
,,,7.1E-07,0.02040625
,,,7.2E-07,0.020208125
,,,7.3E-07,0.020194375
,,,7.4E-07,0.02032625
,,,7.5E-07,0.0201775
,,,7.6E-07,0.02055375
,,,7.7E-07,0.02015
,,,7.8E-07,0.02038125
,,,7.9E-07,0.0201425
,,,8E-07,0.0204125
,,,8.1E-07,0.02016625
,,,8.2E-07,0.0205125
,,,8.3E-07,0.02052625
,,,8.4E-07,0.020486875
,,,8.5E-07,0.020195625
,,,8.6E-07,0.020454375
,,,8.7E-07,0.020310625
,,,8.8E-07,0.02016125
,,,8.9E-07,0.020340625
,,,9E-07,0.020224375
,,,9.1E-07,0.020369375
,,,9.2E-07,0.02013375
,,,9.3E-07,0.0202925
,,,9.4E-07,0.020070625
,,,9.5E-07,0.02054625
,,,9.6E-07,0.020351875
,,,9.7E-07,0.0204875
,,,9.8E-07,0.02022375
,,,9.9E-07,0.020450625
,,,1E-06,0.020249375
,,,1.01E-06,0.020375625
,,,1.02E-06,0.020365
,,,1.03E-06,0.020341875
,,,1.04E-06,0.020196875
,,,1.05E-06,0.020294375
,,,1.06E-06,0.020111875
,,,1.07E-06,0.020399375
,,,1.08E-06,0.020335
,,,1.09E-06,0.020220625
,,,1.1E-06,0.0203525
,,,1.11E-06,0.020618125
,,,1.12E-06,0.020364375
,,,1.13E-06,0.020551875
,,,1.14E-06,0.020454375
,,,1.15E-06,0.0204875
,,,1.16E-06,0.02034125
,,,1.17E-06,0.02041625
,,,1.18E-06,0.02019875
,,,1.19E-06,0.020388125
,,,1.2E-06,0.0203275
,,,1.21E-06,0.0201825
,,,1.22E-06,0.020504375
,,,1.23E-06,0.020611875
,,,1.24E-06,0.020365625
,,,1.25E-06,0.020404375
,,,1.26E-06,0.02044125
,,,1.27E-06,0.02014625
,,,1.28E-06,0.020161875
,,,1.29E-06,0.020373125
,,,1.3E-06,0.020329375
,,,1.31E-06,0.0204175
,,,1.32E-06,0.020376875
,,,1.33E-06,0.020050625
,,,1.34E-06,0.02014
,,,1.35E-06,0.0201325
,,,1.36E-06,0.020430625
,,,1.37E-06,0.020401875
,,,1.38E-06,0.020138125
,,,1.39E-06,0.020449375
,,,1.4E-06,0.020248125
,,,1.41E-06,0.020584375
,,,1.42E-06,0.020238125
,,,1.43E-06,0.02011375
,,,1.44E-06,0.020309375
,,,1.45E-06,0.02019875
,,,1.46E-06,0.0202275
,,,1.47E-06,0.0201
,,,1.48E-06,0.02012875
,,,1.49E-06,0.02049625
,,,1.5E-06,0.020605625
,,,1.51E-06,0.02046375
,,,1.52E-06,0.02016625
,,,1.53E-06,0.02051875
,,,1.54E-06,0.0202975
,,,1.55E-06,0.020388125
,,,1.56E-06,0.020355625
,,,1.57E-06,0.02016
,,,1.58E-06,0.0201825
,,,1.59E-06,0.02024125
,,,1.6E-06,0.020373125
,,,1.61E-06,0.0204375
,,,1.62E-06,0.02047875
,,,1.63E-06,0.020378125
,,,1.64E-06,0.020215625
,,,1.65E-06,0.020453125
,,,1.66E-06,0.020593125
,,,1.67E-06,0.020331875
,,,1.68E-06,0.0201675
,,,1.69E-06,0.02034875
,,,1.7E-06,0.02004125
,,,1.71E-06,0.02038125
,,,1.72E-06,0.020365625
,,,1.73E-06,0.02025
,,,1.74E-06,0.020365
,,,1.75E-06,0.02015875
,,,1.76E-06,0.02004
,,,1.77E-06,0.020340625
,,,1.78E-06,0.02037
,,,1.79E-06,0.020465
,,,1.8E-06,0.02043
,,,1.81E-06,0.020411875
,,,1.82E-06,0.020600625
,,,1.83E-06,0.020393125
,,,1.84E-06,0.020423125
,,,1.85E-06,0.0202375
,,,1.86E-06,0.020168125
,,,1.87E-06,0.020315
,,,1.88E-06,0.0202725
,,,1.89E-06,0.020118125
,,,1.9E-06,0.020024375
,,,1.91E-06,0.02032875
,,,1.92E-06,0.020215
,,,1.93E-06,0.0201575
,,,1.94E-06,0.020205
,,,1.95E-06,0.02046875
,,,1.96E-06,0.02047375
,,,1.97E-06,0.0205075
,,,1.98E-06,0.020455
,,,1.99E-06,0.020208125
,,,2E-06,0.0202375
,,,2.01E-06,0.0203725
,,,2.02E-06,0.020278125
,,,2.03E-06,0.020234375
,,,2.04E-06,0.0205475
,,,2.05E-06,0.0204525
,,,2.06E-06,0.020308125
,,,2.07E-06,0.020391875
,,,2.08E-06,0.02021375
,,,2.09E-06,0.02018
,,,2.1E-06,0.020328125
,,,2.11E-06,0.0206875
,,,2.12E-06,0.02028375
,,,2.13E-06,0.020245625
,,,2.14E-06,0.02034125
,,,2.15E-06,0.02026
,,,2.16E-06,0.020438125
,,,2.17E-06,0.020530625
,,,2.18E-06,0.020381875
,,,2.19E-06,0.0202
,,,2.2E-06,0.020373125
,,,2.21E-06,0.020433125
,,,2.22E-06,0.020389375
,,,2.23E-06,0.020616875
,,,2.24E-06,0.020163125
,,,2.25E-06,0.0202675
,,,2.26E-06,0.020265
,,,2.27E-06,0.020238125
,,,2.28E-06,0.020135
,,,2.29E-06,0.020425
,,,2.3E-06,0.02057
,,,2.31E-06,0.0201175
,,,2.32E-06,0.0206175
,,,2.33E-06,0.020444375
,,,2.34E-06,0.020103125
,,,2.35E-06,0.020135625
,,,2.36E-06,0.020353125
,,,2.37E-06,0.020279375
,,,2.38E-06,0.020485625
,,,2.39E-06,0.020299375
,,,2.4E-06,0.02026875
,,,2.41E-06,0.02022625
,,,2.42E-06,0.020298125
,,,2.43E-06,0.0200675
,,,2.44E-06,0.020593125
,,,2.45E-06,0.020298125
,,,2.46E-06,0.020288125
,,,2.47E-06,0.0203025
,,,2.48E-06,0.020708125
,,,2.49E-06,0.020353125
,,,2.5E-06,0.0202675
,,,2.51E-06,0.020246875
,,,2.52E-06,0.0200725
,,,2.53E-06,0.020171875
,,,2.54E-06,0.02054125
,,,2.55E-06,0.020131875
,,,2.56E-06,0.020376875
,,,2.57E-06,0.020505625
,,,2.58E-06,0.020415625
,,,2.59E-06,0.0201125
,,,2.6E-06,0.020264375
,,,2.61E-06,0.020123125
,,,2.62E-06,0.020236875
,,,2.63E-06,0.02025875
,,,2.64E-06,0.020509375
,,,2.65E-06,0.02034875
,,,2.66E-06,0.020296875
,,,2.67E-06,0.02016
,,,2.68E-06,0.0205525
,,,2.69E-06,0.0203925
,,,2.7E-06,0.020370625
,,,2.71E-06,0.020228125
,,,2.72E-06,0.020284375
,,,2.73E-06,0.02033125
,,,2.74E-06,0.02022125
,,,2.75E-06,0.020550625
,,,2.76E-06,0.02045625
,,,2.77E-06,0.020186875
,,,2.78E-06,0.02023375
,,,2.79E-06,0.0202675
,,,2.8E-06,0.020193125
,,,2.81E-06,0.020425
,,,2.82E-06,0.020364375
,,,2.83E-06,0.02019875
,,,2.84E-06,0.020195625
,,,2.85E-06,0.020198125
,,,2.86E-06,0.020298125
,,,2.87E-06,0.02041
,,,2.88E-06,0.02032125
,,,2.89E-06,0.020344375
,,,2.9E-06,0.020398125
,,,2.91E-06,0.020621875
,,,2.92E-06,0.020159375
,,,2.93E-06,0.020460625
,,,2.94E-06,0.020478125
,,,2.95E-06,0.020244375
,,,2.96E-06,0.020301875
,,,2.97E-06,0.02047875
,,,2.98E-06,0.02024625
,,,2.99E-06,0.020245625
,,,3E-06,0.02023125
,,,3.01E-06,0.02021
,,,3.02E-06,0.020305625
,,,3.03E-06,0.020286875
,,,3.04E-06,0.02035125
,,,3.05E-06,0.02027875
,,,3.06E-06,0.02051875
,,,3.07E-06,0.02025125
,,,3.08E-06,0.02039125
,,,3.09E-06,0.0205175
,,,3.1E-06,0.02051
,,,3.11E-06,0.020156875
,,,3.12E-06,0.02034875
,,,3.13E-06,0.020094375
,,,3.14E-06,0.0203275
,,,3.15E-06,0.0202575
,,,3.16E-06,0.020156875
,,,3.17E-06,0.020190625
,,,3.18E-06,0.020340625
,,,3.19E-06,0.02017
,,,3.2E-06,0.020351875
,,,3.21E-06,0.02039125
,,,3.22E-06,0.02029125
,,,3.23E-06,0.02024625
,,,3.24E-06,0.020523125
,,,3.25E-06,0.020225
,,,3.26E-06,0.02033125
,,,3.27E-06,0.020644375
,,,3.28E-06,0.020365
,,,3.29E-06,0.02027375
,,,3.3E-06,0.02040375
,,,3.31E-06,0.020185
,,,3.32E-06,0.02021125
,,,3.33E-06,0.02032
,,,3.34E-06,0.020045625
,,,3.35E-06,0.02027125
,,,3.36E-06,0.020389375
,,,3.37E-06,0.020189375
,,,3.38E-06,0.020420625
,,,3.39E-06,0.020406875
,,,3.4E-06,0.0205375
,,,3.41E-06,0.02032375
,,,3.42E-06,0.02040125
,,,3.43E-06,0.0202175
,,,3.44E-06,0.0203375
,,,3.45E-06,0.020723125
,,,3.46E-06,0.020501875
,,,3.47E-06,0.0202125
,,,3.48E-06,0.020263125
,,,3.49E-06,0.0203675
,,,3.5E-06,0.02021625
,,,3.51E-06,0.02025375
,,,3.52E-06,0.020310625
,,,3.53E-06,0.020224375
,,,3.54E-06,0.02061
,,,3.55E-06,0.0204025
,,,3.56E-06,0.020333125
,,,3.57E-06,0.020228125
,,,3.58E-06,0.020513125
,,,3.59E-06,0.020350625
,,,3.6E-06,0.02015875
