data/raw/Final_POL_Test_1/SOP062_Ch2.csv

"Record Length",1000,"Points",-5E-06,0.02076375
"Sample Interval",1E-08,s,-4.99E-06,0.020520625
"Trigger Point",500,"Samples",-4.98E-06,0.0204525
"Trigger Time",0,s,-4.97E-06,0.0206025
"",,,-4.96E-06,0.020499375
"Horizontal Offset",-5E-06,s,-4.95E-06,0.020329375
,,,-4.94E-06,0.020696875
,,,-4.93E-06,0.020755625
,,,-4.92E-06,0.020528125
,,,-4.91E-06,0.020154375
,,,-4.9E-06,0.0206225
,,,-4.89E-06,0.020624375
,,,-4.88E-06,0.020680625
,,,-4.87E-06,0.020668125
,,,-4.86E-06,0.02058375
,,,-4.85E-06,0.02032875
,,,-4.84E-06,0.020651875
,,,-4.83E-06,0.020746875
,,,-4.82E-06,0.0204925
,,,-4.81E-06,0.020456875
,,,-4.8E-06,0.02042625
,,,-4.79E-06,0.0204025
,,,-4.78E-06,0.02053375
,,,-4.77E-06,0.020380625
,,,-4.76E-06,0.020204375
,,,-4.75E-06,0.0203275
,,,-4.74E-06,0.02082125
,,,-4.73E-06,0.020640625
,,,-4.72E-06,0.020783125
,,,-4.71E-06,0.0208425
,,,-4.7E-06,0.020525625
,,,-4.69E-06,0.02041875
,,,-4.68E-06,0.02066875
,,,-4.67E-06,0.020406875
,,,-4.66E-06,0.02038875
,,,-4.65E-06,0.020466875
,,,-4.64E-06,0.02067875
,,,-4.63E-06,0.02019
,,,-4.62E-06,0.0203025
,,,-4.61E-06,0.020763125
,,,-4.6E-06,0.020405625
,,,-4.59E-06,0.020389375
,,,-4.58E-06,0.020496875
,,,-4.57E-06,0.02066375
,,,-4.56E-06,0.020656875
,,,-4.55E-06,0.020704375
,,,-4.54E-06,0.020615
,,,-4.53E-06,0.020790625
,,,-4.52E-06,0.020829375
,,,-4.51E-06,0.02045125
,,,-4.5E-06,0.02056125
,,,-4.49E-06,0.020586875
,,,-4.48E-06,0.020479375
,,,-4.47E-06,0.020790625
,,,-4.46E-06,0.020470625
,,,-4.45E-06,0.020706875
,,,-4.44E-06,0.02057125
,,,-4.43E-06,0.020250625
,,,-4.42E-06,0.0203525
,,,-4.41E-06,0.020350625
,,,-4.4E-06,0.02044
,,,-4.39E-06,0.0208575
,,,-4.38E-06,0.02064125
,,,-4.37E-06,0.020415
,,,-4.36E-06,0.020326875
,,,-4.35E-06,0.02065625
,,,-4.34E-06,0.020648125
,,,-4.33E-06,0.020569375
,,,-4.32E-06,0.020464375
,,,-4.31E-06,0.020570625
,,,-4.3E-06,0.020423125
,,,-4.29E-06,0.020619375
,,,-4.28E-06,0.02049625
,,,-4.27E-06,0.0206975
,,,-4.26E-06,0.020655
,,,-4.25E-06,0.02078125
,,,-4.24E-06,0.020034375
,,,-4.23E-06,0.02077125
,,,-4.22E-06,0.020606875
,,,-4.21E-06,0.02048625
,,,-4.2E-06,0.020515625
,,,-4.19E-06,0.02043125
,,,-4.18E-06,0.020715625
,,,-4.17E-06,0.0203875
,,,-4.16E-06,0.020508125
,,,-4.15E-06,0.02068
,,,-4.14E-06,0.020795
,,,-4.13E-06,0.020338125
,,,-4.12E-06,0.020423125
,,,-4.11E-06,0.02055375
,,,-4.1E-06,0.02045125
,,,-4.09E-06,0.02030125
,,,-4.08E-06,0.02055125
,,,-4.07E-06,0.020599375
,,,-4.06E-06,0.020719375
,,,-4.05E-06,0.020403125
,,,-4.04E-06,0.02060875
,,,-4.03E-06,0.020461875
,,,-4.02E-06,0.020335
,,,-4.01E-06,0.0206775
,,,-4E-06,0.02038375
,,,-3.99E-06,0.02061125
,,,-3.98E-06,0.020335
,,,-3.97E-06,0.02057375
,,,-3.96E-06,0.020623125
,,,-3.95E-06,0.02055375
,,,-3.94E-06,0.02031
,,,-3.93E-06,0.020614375
,,,-3.92E-06,0.020403125
,,,-3.91E-06,0.020574375
,,,-3.9E-06,0.020503125
,,,-3.89E-06,0.02038125
,,,-3.88E-06,0.02029625
,,,-3.87E-06,0.0203325
,,,-3.86E-06,0.02047875
,,,-3.85E-06,0.02059375
,,,-3.84E-06,0.020509375
,,,-3.83E-06,0.020485625
,,,-3.82E-06,0.020443125
,,,-3.81E-06,0.020561875
,,,-3.8E-06,0.020463125
,,,-3.79E-06,0.02074875
,,,-3.78E-06,0.02044375
,,,-3.77E-06,0.020575625
,,,-3.76E-06,0.020540625
,,,-3.75E-06,0.02034
,,,-3.74E-06,0.0204025
,,,-3.73E-06,0.020588125
,,,-3.72E-06,0.0205925
,,,-3.71E-06,0.02045625
,,,-3.7E-06,0.020563125
,,,-3.69E-06,0.02030375
,,,-3.68E-06,0.0205775
,,,-3.67E-06,0.020428125
,,,-3.66E-06,0.020625
,,,-3.65E-06,0.02051
,,,-3.64E-06,0.0203825
,,,-3.63E-06,0.0204675
,,,-3.62E-06,0.020574375
,,,-3.61E-06,0.020546875
,,,-3.6E-06,0.02039125
,,,-3.59E-06,0.020596875
,,,-3.58E-06,0.020358125
,,,-3.57E-06,0.02061875
,,,-3.56E-06,0.020426875
,,,-3.55E-06,0.020245
,,,-3.54E-06,0.02043
,,,-3.53E-06,0.020350625
,,,-3.52E-06,0.020359375
,,,-3.51E-06,0.020413125
,,,-3.5E-06,0.020313125
,,,-3.49E-06,0.020416875
,,,-3.48E-06,0.020676875
,,,-3.47E-06,0.020623125
,,,-3.46E-06,0.020506875
,,,-3.45E-06,0.02051125
,,,-3.44E-06,0.02044625
,,,-3.43E-06,0.020425625
,,,-3.42E-06,0.020813125
,,,-3.41E-06,0.02026875
,,,-3.4E-06,0.020535625
,,,-3.39E-06,0.020614375
,,,-3.38E-06,0.020665
,,,-3.37E-06,0.020715
,,,-3.36E-06,0.02063375
,,,-3.35E-06,0.0205225
,,,-3.34E-06,0.020596875
,,,-3.33E-06,0.020654375
,,,-3.32E-06,0.020489375
,,,-3.31E-06,0.020616875
,,,-3.3E-06,0.02052875
,,,-3.29E-06,0.020455625
,,,-3.28E-06,0.020616875
,,,-3.27E-06,0.020648125
,,,-3.26E-06,0.0204275
,,,-3.25E-06,0.02048625
,,,-3.24E-06,0.020624375
,,,-3.23E-06,0.020575
,,,-3.22E-06,0.020398125
,,,-3.21E-06,0.02053
,,,-3.2E-06,0.020498125
,,,-3.19E-06,0.02046375
,,,-3.18E-06,0.02061875
,,,-3.17E-06,0.020443125
,,,-3.16E-06,0.0204125
,,,-3.15E-06,0.020693125
,,,-3.14E-06,0.0206175
,,,-3.13E-06,0.020355625
,,,-3.12E-06,0.02068125
,,,-3.11E-06,0.020429375
,,,-3.1E-06,0.0205975
,,,-3.09E-06,0.020605
,,,-3.08E-06,0.020705625
,,,-3.07E-06,0.020668125
,,,-3.06E-06,0.020605625
,,,-3.05E-06,0.020775
,,,-3.04E-06,0.02063625
,,,-3.03E-06,0.02034625
,,,-3.02E-06,0.02056
,,,-3.01E-06,0.020505625
,,,-3E-06,0.020601875
,,,-2.99E-06,0.020778125
,,,-2.98E-06,0.02062
,,,-2.97E-06,0.020548125
,,,-2.96E-06,0.020856875
,,,-2.95E-06,0.02042875
,,,-2.94E-06,0.02043125
,,,-2.93E-06,0.02034875
,,,-2.92E-06,0.020363125
,,,-2.91E-06,0.020375
,,,-2.9E-06,0.020755
,,,-2.89E-06,0.020580625
,,,-2.88E-06,0.02045375
,,,-2.87E-06,0.020585
,,,-2.86E-06,0.020415
,,,-2.85E-06,0.020464375
,,,-2.84E-06,0.0206475
,,,-2.83E-06,0.02061125
,,,-2.82E-06,0.0203225
,,,-2.81E-06,0.020539375
,,,-2.8E-06,0.020525625
,,,-2.79E-06,0.02052625
,,,-2.78E-06,0.02066625
,,,-2.77E-06,0.020529375
,,,-2.76E-06,0.0202375
,,,-2.75E-06,0.0204675
,,,-2.74E-06,0.02056875
,,,-2.73E-06,0.020348125
,,,-2.72E-06,0.02047625
,,,-2.71E-06,0.020558125
,,,-2.7E-06,0.020633125
,,,-2.69E-06,0.02073
,,,-2.68E-06,0.020610625
,,,-2.67E-06,0.020714375
,,,-2.66E-06,0.020524375
,,,-2.65E-06,0.0204
,,,-2.64E-06,0.02061625
,,,-2.63E-06,0.0206525
,,,-2.62E-06,0.0206125
,,,-2.61E-06,0.020604375
,,,-2.6E-06,0.02055125
,,,-2.59E-06,0.02061125
,,,-2.58E-06,0.020739375
,,,-2.57E-06,0.02044125
,,,-2.56E-06,0.020434375
,,,-2.55E-06,0.02047
,,,-2.54E-06,0.020295
,,,-2.53E-06,0.020468125
,,,-2.52E-06,0.020616875
,,,-2.51E-06,0.020526875
,,,-2.5E-06,0.02049375
,,,-2.49E-06,0.020588125
,,,-2.48E-06,0.02055625
,,,-2.47E-06,0.020565
,,,-2.46E-06,0.02063875
,,,-2.45E-06,0.020499375
,,,-2.44E-06,0.02052625
,,,-2.43E-06,0.0206375
,,,-2.42E-06,0.020400625
,,,-2.41E-06,0.020714375
,,,-2.4E-06,0.020438125
,,,-2.39E-06,0.02044625
,,,-2.38E-06,0.0205925
,,,-2.37E-06,0.0204525
,,,-2.36E-06,0.020590625
,,,-2.35E-06,0.020308125
,,,-2.34E-06,0.02066875
,,,-2.33E-06,0.02044625
,,,-2.32E-06,0.02071
,,,-2.31E-06,0.020454375
,,,-2.3E-06,0.02027375
,,,-2.29E-06,0.02060375
,,,-2.28E-06,0.020831875
,,,-2.27E-06,0.020645625
,,,-2.26E-06,0.020525
,,,-2.25E-06,0.020836875
,,,-2.24E-06,0.020508125
,,,-2.23E-06,0.020400625
,,,-2.22E-06,0.020531875
,,,-2.21E-06,0.02018125
,,,-2.2E-06,0.020449375
,,,-2.19E-06,0.020395625
,,,-2.18E-06,0.02057875
,,,-2.17E-06,0.0204925
,,,-2.16E-06,0.02033625
,,,-2.15E-06,0.020601875
,,,-2.14E-06,0.020675625
,,,-2.13E-06,0.020471875
,,,-2.12E-06,0.02064375
,,,-2.11E-06,0.02059125
,,,-2.1E-06,0.020709375
,,,-2.09E-06,0.0204775
,,,-2.08E-06,0.0207725
,,,-2.07E-06,0.020315
,,,-2.06E-06,0.02074625
,,,-2.05E-06,0.0203225
,,,-2.04E-06,0.020574375
,,,-2.03E-06,0.020528125
,,,-2.02E-06,0.020745
,,,-2.01E-06,0.020518125
,,,-2E-06,0.02084125
,,,-1.99E-06,0.02047875
,,,-1.98E-06,0.020748125
,,,-1.97E-06,0.0206625
,,,-1.96E-06,0.020373125
,,,-1.95E-06,0.02056
,,,-1.94E-06,0.02052
,,,-1.93E-06,0.02059375
,,,-1.92E-06,0.0207225
,,,-1.91E-06,0.020375
,,,-1.9E-06,0.020339375
,,,-1.89E-06,0.02055625
,,,-1.88E-06,0.0205025
,,,-1.87E-06,0.0204175
,,,-1.86E-06,0.02043875
,,,-1.85E-06,0.020676875
,,,-1.84E-06,0.02058625
,,,-1.83E-06,0.0205275
,,,-1.82E-06,0.02043625
,,,-1.81E-06,0.020321875
,,,-1.8E-06,0.02047875
,,,-1.79E-06,0.020485625
,,,-1.78E-06,0.0203525
,,,-1.77E-06,0.02064125
,,,-1.76E-06,0.0204525
,,,-1.75E-06,0.020905
,,,-1.74E-06,0.020923125
,,,-1.73E-06,0.020401875
,,,-1.72E-06,0.0205625
,,,-1.71E-06,0.02055875
,,,-1.7E-06,0.020458125
,,,-1.69E-06,0.02039125
,,,-1.68E-06,0.02054
,,,-1.67E-06,0.0204725
,,,-1.66E-06,0.020405625
,,,-1.65E-06,0.020324375
,,,-1.64E-06,0.02051125
,,,-1.63E-06,0.020501875
,,,-1.62E-06,0.020630625
,,,-1.61E-06,0.020601875
,,,-1.6E-06,0.02041375
,,,-1.59E-06,0.020716875
,,,-1.58E-06,0.020318125
,,,-1.57E-06,0.020356875
,,,-1.56E-06,0.02051875
,,,-1.55E-06,0.020431875
,,,-1.54E-06,0.02054375
,,,-1.53E-06,0.02059375
,,,-1.52E-06,0.02092125
,,,-1.51E-06,0.020861875
,,,-1.5E-06,0.020700625
,,,-1.49E-06,0.020428125
,,,-1.48E-06,0.020614375
,,,-1.47E-06,0.020393125
,,,-1.46E-06,0.02064625
,,,-1.45E-06,0.02057
,,,-1.44E-06,0.020455625
,,,-1.43E-06,0.0207275
,,,-1.42E-06,0.020660625
,,,-1.41E-06,0.020385625
,,,-1.4E-06,0.02055375
,,,-1.39E-06,0.02033375
,,,-1.38E-06,0.02044875
,,,-1.37E-06,0.020401875
,,,-1.36E-06,0.020750625
,,,-1.35E-06,0.0205825
,,,-1.34E-06,0.0207275
,,,-1.33E-06,0.02044125
,,,-1.32E-06,0.0208025
,,,-1.31E-06,0.020701875
,,,-1.3E-06,0.020363125
,,,-1.29E-06,0.02038625
,,,-1.28E-06,0.020359375
,,,-1.27E-06,0.020349375
,,,-1.26E-06,0.02049125
,,,-1.25E-06,0.020556875
,,,-1.24E-06,0.02044375
,,,-1.23E-06,0.020611875
,,,-1.22E-06,0.020523125
,,,-1.21E-06,0.020625
,,,-1.2E-06,0.020363125
,,,-1.19E-06,0.020611875
,,,-1.18E-06,0.020513125
,,,-1.17E-06,0.0206375
,,,-1.16E-06,0.02074
,,,-1.15E-06,0.02063625
,,,-1.14E-06,0.020603125
,,,-1.13E-06,0.020386875
,,,-1.12E-06,0.02053
,,,-1.11E-06,0.020489375
,,,-1.1E-06,0.02063625
,,,-1.09E-06,0.02064875
,,,-1.08E-06,0.020524375
,,,-1.07E-06,0.020588125
,,,-1.06E-06,0.020553125
,,,-1.05E-06,0.020501875
,,,-1.04E-06,0.020694375
,,,-1.03E-06,0.02072875
,,,-1.02E-06,0.020530625
,,,-1.01E-06,0.020455625
,,,-1E-06,0.0207625
,,,-9.9E-07,0.020515625
,,,-9.8E-07,0.020475625
,,,-9.7E-07,0.020435
,,,-9.6E-07,0.020625625
,,,-9.5E-07,0.020558125
,,,-9.4E-07,0.0205625
,,,-9.3E-07,0.0207175
,,,-9.2E-07,0.02066
,,,-9.1E-07,0.0205225
,,,-9E-07,0.020581875
,,,-8.9E-07,0.020425625
,,,-8.8E-07,0.02072875
,,,-8.7E-07,0.020708125
,,,-8.6E-07,0.020439375
,,,-8.5E-07,0.020619375
,,,-8.4E-07,0.020684375
,,,-8.3E-07,0.020546875
,,,-8.2E-07,0.020568125
,,,-8.1E-07,0.020608125
,,,-8E-07,0.020804375
,,,-7.9E-07,0.020530625
,,,-7.8E-07,0.02053125
,,,-7.7E-07,0.020703125
,,,-7.6E-07,0.020668125
,,,-7.5E-07,0.020620625
,,,-7.4E-07,0.020566875
,,,-7.3E-07,0.020471875
,,,-7.2E-07,0.020568125
,,,-7.1E-07,0.020406875
,,,-7E-07,0.02064375
,,,-6.9E-07,0.020674375
,,,-6.8E-07,0.020620625
,,,-6.7E-07,0.020561875
,,,-6.6E-07,0.020485625
,,,-6.5E-07,0.020484375
,,,-6.4E-07,0.02036125
,,,-6.3E-07,0.020278125
,,,-6.2E-07,0.020460625
,,,-6.1E-07,0.02051625
,,,-6E-07,0.02082375
,,,-5.9E-07,0.02043625
,,,-5.8E-07,0.020490625
,,,-5.7E-07,0.02055625
,,,-5.6E-07,0.020278125
,,,-5.5E-07,0.0204025
,,,-5.4E-07,0.020980625
,,,-5.3E-07,0.0207725
,,,-5.2E-07,0.020390625
,,,-5.1E-07,0.02071875
,,,-5E-07,0.020439375
,,,-4.9E-07,0.02063375
,,,-4.8E-07,0.020338125
,,,-4.7E-07,0.020455
,,,-4.6E-07,0.02061625
,,,-4.5E-07,0.020428125
,,,-4.4E-07,0.020389375
,,,-4.3E-07,0.020334375
,,,-4.2E-07,0.0204025
,,,-4.1E-07,0.020549375
,,,-4E-07,0.020638125
,,,-3.9E-07,0.02041625
,,,-3.8E-07,0.020516875
,,,-3.7E-07,0.020645625
,,,-3.6E-07,0.020769375
,,,-3.5E-07,0.020608125
,,,-3.4E-07,0.020508125
,,,-3.3E-07,0.02047
,,,-3.2E-07,0.020444375
,,,-3.1E-07,0.0205625
,,,-3E-07,0.0206125
,,,-2.9E-07,0.020625625
,,,-2.8E-07,0.02044
,,,-2.7E-07,0.02060125
,,,-2.6E-07,0.020690625
,,,-2.5E-07,0.020376875
,,,-2.4E-07,0.02042625
,,,-2.3E-07,0.0206075
,,,-2.2E-07,0.020618125
,,,-2.1E-07,0.020464375
,,,-2E-07,0.020633125
,,,-1.9E-07,0.020276875
,,,-1.8E-07,0.02017
,,,-1.7E-07,0.020364375
,,,-1.6E-07,0.02049125
,,,-1.5E-07,0.020246875
,,,-1.4E-07,0.020684375
,,,-1.3E-07,0.02051375
,,,-1.2E-07,0.0204625
,,,-1.1E-07,0.020731875
,,,-1E-07,0.0205
,,,-9E-08,0.0204975
,,,-8E-08,0.02062125
,,,-7E-08,0.0204575
,,,-6E-08,0.020719375
,,,-5E-08,0.0205625
,,,-4E-08,0.020906875
,,,-3E-08,0.022613125
,,,-2E-08,0.019793125
,,,-1E-08,0.017288125
,,,0,0.016161874
,,,1E-08,0.0223925
,,,2E-08,0.025073125
,,,3E-08,0.02518625
,,,4E-08,0.020565625
,,,5E-08,0.0174175
,,,6E-08,0.016541249
,,,7E-08,0.018835625
,,,8E-08,0.0207825
,,,9E-08,0.02278125
,,,1E-07,0.023225
,,,1.1E-07,0.021690625
,,,1.2E-07,0.019794375
,,,1.3E-07,0.0184275
,,,1.4E-07,0.019430625
,,,1.5E-07,0.0206075
,,,1.6E-07,0.021416875
,,,1.7E-07,0.02084875
,,,1.8E-07,0.020378125
,,,1.9E-07,0.020623125
,,,2E-07,0.02070125
,,,2.1E-07,0.02013125
,,,2.2E-07,0.02025375
,,,2.3E-07,0.020511875
,,,2.4E-07,0.02086375
,,,2.5E-07,0.0207525
,,,2.6E-07,0.0205675
,,,2.7E-07,0.0206825
,,,2.8E-07,0.0207075
,,,2.9E-07,0.020528125
,,,3E-07,0.0204375
,,,3.1E-07,0.020353125
,,,3.2E-07,0.0206225
,,,3.3E-07,0.02054375
,,,3.4E-07,0.020586875
,,,3.5E-07,0.02037625
,,,3.6E-07,0.0205525
,,,3.7E-07,0.020504375
,,,3.8E-07,0.020640625
,,,3.9E-07,0.020411875
,,,4E-07,0.020560625
,,,4.1E-07,0.02056125
,,,4.2E-07,0.02079875
,,,4.3E-07,0.02032875
,,,4.4E-07,0.0205375
,,,4.5E-07,0.0204925
,,,4.6E-07,0.020780625
,,,4.7E-07,0.020481875
,,,4.8E-07,0.020319375
,,,4.9E-07,0.0206075
,,,5E-07,0.020559375
,,,5.1E-07,0.020625625
,,,5.2E-07,0.020571875
,,,5.3E-07,0.02045625
,,,5.4E-07,0.020409375
,,,5.5E-07,0.02070375
,,,5.6E-07,0.020443125
,,,5.7E-07,0.0206575
,,,5.8E-07,0.02078
,,,5.9E-07,0.020480625
,,,6E-07,0.0205825
,,,6.1E-07,0.02057625
,,,6.2E-07,0.02053375
,,,6.3E-07,0.020573125
,,,6.4E-07,0.020840625
,,,6.5E-07,0.020936875
,,,6.6E-07,0.020716875
,,,6.7E-07,0.020816875
,,,6.8E-07,0.020365
,,,6.9E-07,0.0203525
,,,7E-07,0.020523125
,,,7.1E-07,0.0205525
,,,7.2E-07,0.020625625
,,,7.3E-07,0.020870625
,,,7.4E-07,0.020516875
,,,7.5E-07,0.020321875
,,,7.6E-07,0.0204125
,,,7.7E-07,0.020575625
,,,7.8E-07,0.020455
,,,7.9E-07,0.020706875
,,,8E-07,0.0204075
,,,8.1E-07,0.020088125
,,,8.2E-07,0.02042
,,,8.3E-07,0.02071125
,,,8.4E-07,0.020530625
,,,8.5E-07,0.0207025
,,,8.6E-07,0.020554375
,,,8.7E-07,0.02072
,,,8.8E-07,0.020596875
,,,8.9E-07,0.020489375
,,,9E-07,0.02061375
,,,9.1E-07,0.020571875
,,,9.2E-07,0.0207925
,,,9.3E-07,0.020483125
,,,9.4E-07,0.02067875
,,,9.5E-07,0.020420625
,,,9.6E-07,0.02067875
,,,9.7E-07,0.02043625
,,,9.8E-07,0.020445625
,,,9.9E-07,0.02086625
,,,1E-06,0.0206475
,,,1.01E-06,0.020615625
,,,1.02E-06,0.02030375
,,,1.03E-06,0.020470625
,,,1.04E-06,0.020411875
,,,1.05E-06,0.020584375
,,,1.06E-06,0.020545625
,,,1.07E-06,0.020463125
,,,1.08E-06,0.020305625
,,,1.09E-06,0.020525625
,,,1.1E-06,0.020324375
,,,1.11E-06,0.020528125
,,,1.12E-06,0.02057
,,,1.13E-06,0.020388125
,,,1.14E-06,0.020465625
,,,1.15E-06,0.02032
,,,1.16E-06,0.02065125
,,,1.17E-06,0.020265
,,,1.18E-06,0.0210125
,,,1.19E-06,0.020546875
,,,1.2E-06,0.020491875
,,,1.21E-06,0.020568125
,,,1.22E-06,0.02068875
,,,1.23E-06,0.020815625
,,,1.24E-06,0.02046875
,,,1.25E-06,0.02044625
,,,1.26E-06,0.0204
,,,1.27E-06,0.020458125
,,,1.28E-06,0.02067375
,,,1.29E-06,0.0208275
,,,1.3E-06,0.02050125
,,,1.31E-06,0.0207375
,,,1.32E-06,0.02042
,,,1.33E-06,0.020625625
,,,1.34E-06,0.02030625
,,,1.35E-06,0.02060625
,,,1.36E-06,0.02047875
,,,1.37E-06,0.020700625
,,,1.38E-06,0.020390625
,,,1.39E-06,0.020704375
,,,1.4E-06,0.0205875
,,,1.41E-06,0.0204075
,,,1.42E-06,0.02042375
,,,1.43E-06,0.020129375
,,,1.44E-06,0.020440625
,,,1.45E-06,0.020625
,,,1.46E-06,0.020679375
,,,1.47E-06,0.02042875
,,,1.48E-06,0.020695
,,,1.49E-06,0.020580625
,,,1.5E-06,0.0204
,,,1.51E-06,0.020645625
,,,1.52E-06,0.02039625
,,,1.53E-06,0.020395
,,,1.54E-06,0.020446875
,,,1.55E-06,0.02077
,,,1.56E-06,0.020628125
,,,1.57E-06,0.02054125
,,,1.58E-06,0.020646875
,,,1.59E-06,0.020518125
,,,1.6E-06,0.0203675
,,,1.61E-06,0.0204675
,,,1.62E-06,0.020596875
,,,1.63E-06,0.020778125
,,,1.64E-06,0.0205675
,,,1.65E-06,0.020708125
,,,1.66E-06,0.020655625
,,,1.67E-06,0.020655625
,,,1.68E-06,0.02040875
,,,1.69E-06,0.020305
,,,1.7E-06,0.020221875
,,,1.71E-06,0.020588125
,,,1.72E-06,0.020429375
,,,1.73E-06,0.02074625
,,,1.74E-06,0.02051375
,,,1.75E-06,0.02061625
,,,1.76E-06,0.020385625
,,,1.77E-06,0.0206325
,,,1.78E-06,0.02062
,,,1.79E-06,0.02048875
,,,1.8E-06,0.02072
,,,1.81E-06,0.0204975
,,,1.82E-06,0.02044125
,,,1.83E-06,0.02066875
,,,1.84E-06,0.020705625
,,,1.85E-06,0.0205525
,,,1.86E-06,0.02035625
,,,1.87E-06,0.020513125
,,,1.88E-06,0.020375
,,,1.89E-06,0.020720625
,,,1.9E-06,0.020501875
,,,1.91E-06,0.020323125
,,,1.92E-06,0.020538125
,,,1.93E-06,0.0204325
,,,1.94E-06,0.020514375
,,,1.95E-06,0.020605625
,,,1.96E-06,0.020630625
,,,1.97E-06,0.020530625
,,,1.98E-06,0.020685625
,,,1.99E-06,0.020774375
,,,2E-06,0.020618125
,,,2.01E-06,0.0203675
,,,2.02E-06,0.02059
,,,2.03E-06,0.020434375
,,,2.04E-06,0.020484375
,,,2.05E-06,0.020534375
,,,2.06E-06,0.02042875
,,,2.07E-06,0.02076625
,,,2.08E-06,0.02058875
,,,2.09E-06,0.020493125
,,,2.1E-06,0.020325
,,,2.11E-06,0.0205075
,,,2.12E-06,0.020495
,,,2.13E-06,0.020654375
,,,2.14E-06,0.02053125
,,,2.15E-06,0.02052125
,,,2.16E-06,0.02056625
,,,2.17E-06,0.020226875
,,,2.18E-06,0.020745625
,,,2.19E-06,0.020208125
,,,2.2E-06,0.02030125
,,,2.21E-06,0.020750625
,,,2.22E-06,0.0204325
,,,2.23E-06,0.020799375
,,,2.24E-06,0.0205025
,,,2.25E-06,0.020685625
,,,2.26E-06,0.02080125
,,,2.27E-06,0.0205475
,,,2.28E-06,0.0205025
,,,2.29E-06,0.020480625
,,,2.3E-06,0.0207475
,,,2.31E-06,0.020566875
,,,2.32E-06,0.02056125
,,,2.33E-06,0.020461875
,,,2.34E-06,0.020368125
,,,2.35E-06,0.020441875
,,,2.36E-06,0.020371875
,,,2.37E-06,0.020700625
,,,2.38E-06,0.020735
,,,2.39E-06,0.020624375
,,,2.4E-06,0.020669375
,,,2.41E-06,0.0206925
,,,2.42E-06,0.020176875
,,,2.43E-06,0.020586875
,,,2.44E-06,0.02034125
,,,2.45E-06,0.020885625
,,,2.46E-06,0.0205025
,,,2.47E-06,0.02064375
,,,2.48E-06,0.020650625
,,,2.49E-06,0.020755625
,,,2.5E-06,0.02062
,,,2.51E-06,0.02036625
,,,2.52E-06,0.020424375
,,,2.53E-06,0.020499375
,,,2.54E-06,0.020689375
,,,2.55E-06,0.02049
,,,2.56E-06,0.02081625
,,,2.57E-06,0.020566875
,,,2.58E-06,0.020403125
,,,2.59E-06,0.020350625
,,,2.6E-06,0.020386875
,,,2.61E-06,0.02042375
,,,2.62E-06,0.02021
,,,2.63E-06,0.02037
,,,2.64E-06,0.020618125
,,,2.65E-06,0.020484375
,,,2.66E-06,0.02060125
,,,2.67E-06,0.0204825
,,,2.68E-06,0.020351875
,,,2.69E-06,0.02022875
,,,2.7E-06,0.020325625
,,,2.71E-06,0.020465
,,,2.72E-06,0.020241875
,,,2.73E-06,0.020596875
,,,2.74E-06,0.020358125
,,,2.75E-06,0.020539375
,,,2.76E-06,0.0204125
,,,2.77E-06,0.020301875
,,,2.78E-06,0.02056125
,,,2.79E-06,0.02057875
,,,2.8E-06,0.020491875
,,,2.81E-06,0.020733125
,,,2.82E-06,0.020705
,,,2.83E-06,0.020575625
,,,2.84E-06,0.020298125
,,,2.85E-06,0.0202775
,,,2.86E-06,0.020425
,,,2.87E-06,0.020401875
,,,2.88E-06,0.020619375
,,,2.89E-06,0.020308125
,,,2.9E-06,0.020470625
,,,2.91E-06,0.02066
,,,2.92E-06,0.020495625
,,,2.93E-06,0.020575
,,,2.94E-06,0.020635
,,,2.95E-06,0.020463125
,,,2.96E-06,0.0207
,,,2.97E-06,0.020601875
,,,2.98E-06,0.020595
,,,2.99E-06,0.020445625
,,,3E-06,0.020501875
,,,3.01E-06,0.020513125
,,,3.02E-06,0.020360625
,,,3.03E-06,0.02069875
,,,3.04E-06,0.020655
,,,3.05E-06,0.020739375
,,,3.06E-06,0.02074
,,,3.07E-06,0.020568125
,,,3.08E-06,0.02059
,,,3.09E-06,0.020405625
,,,3.1E-06,0.02070375
,,,3.11E-06,0.020309375
,,,3.12E-06,0.020561875
,,,3.13E-06,0.0205325
,,,3.14E-06,0.02050875
,,,3.15E-06,0.02071875
,,,3.16E-06,0.02056125
,,,3.17E-06,0.020494375
,,,3.18E-06,0.020431875
,,,3.19E-06,0.02063875
,,,3.2E-06,0.02058125
,,,3.21E-06,0.020695
,,,3.22E-06,0.020485
,,,3.23E-06,0.020828125
,,,3.24E-06,0.020579375
,,,3.25E-06,0.02056375
,,,3.26E-06,0.02076125
,,,3.27E-06,0.02048875
,,,3.28E-06,0.020585625
,,,3.29E-06,0.02036625
,,,3.3E-06,0.0205175
,,,3.31E-06,0.0205475
,,,3.32E-06,0.020485625
,,,3.33E-06,0.020474375
,,,3.34E-06,0.020356875
,,,3.35E-06,0.020764375
,,,3.36E-06,0.020705625
,,,3.37E-06,0.020564375
,,,3.38E-06,0.020578125
,,,3.39E-06,0.02058375
,,,3.4E-06,0.020445
,,,3.41E-06,0.0205875
,,,3.42E-06,0.0203825
,,,3.43E-06,0.02045
,,,3.44E-06,0.020443125
,,,3.45E-06,0.02057375
,,,3.46E-06,0.020381875
,,,3.47E-06,0.020285625
,,,3.48E-06,0.020590625
,,,3.49E-06,0.020585625
,,,3.5E-06,0.020236875
,,,3.51E-06,0.0200825
,,,3.52E-06,0.02078375
,,,3.53E-06,0.020810625
