data/raw/Final_POL_Test_1/SOP001_Ch4.csv

"Record Length",1000,"Points",-5E-06,0.02003875
"Sample Interval",1E-08,s,-4.99E-06,0.01995125
"Trigger Point",500,"Samples",-4.98E-06,0.01994875
"Trigger Time",0,s,-4.97E-06,0.019849375
"",,,-4.96E-06,0.020200625
"Horizontal Offset",-5E-06,s,-4.95E-06,0.019855625
,,,-4.94E-06,0.0199875
,,,-4.93E-06,0.01995625
,,,-4.92E-06,0.0198075
,,,-4.91E-06,0.02001125
,,,-4.9E-06,0.020205
,,,-4.89E-06,0.020024375
,,,-4.88E-06,0.0200975
,,,-4.87E-06,0.020113125
,,,-4.86E-06,0.020113125
,,,-4.85E-06,0.02006375
,,,-4.84E-06,0.0197625
,,,-4.83E-06,0.020103125
,,,-4.82E-06,0.01989625
,,,-4.81E-06,0.019815625
,,,-4.8E-06,0.0197875
,,,-4.79E-06,0.020069375
,,,-4.78E-06,0.020076875
,,,-4.77E-06,0.0200575
,,,-4.76E-06,0.020000625
,,,-4.75E-06,0.020103125
,,,-4.74E-06,0.0201675
,,,-4.73E-06,0.020021875
,,,-4.72E-06,0.01972375
,,,-4.71E-06,0.019876875
,,,-4.7E-06,0.02010875
,,,-4.69E-06,0.020229375
,,,-4.68E-06,0.020061875
,,,-4.67E-06,0.020199375
,,,-4.66E-06,0.01981
,,,-4.65E-06,0.0200525
,,,-4.64E-06,0.020036875
,,,-4.63E-06,0.01998625
,,,-4.62E-06,0.019838125
,,,-4.61E-06,0.019821875
,,,-4.6E-06,0.019878125
,,,-4.59E-06,0.020171875
,,,-4.58E-06,0.01990875
,,,-4.57E-06,0.01975375
,,,-4.56E-06,0.02015375
,,,-4.55E-06,0.02002875
,,,-4.54E-06,0.019795
,,,-4.53E-06,0.019918125
,,,-4.52E-06,0.020011875
,,,-4.51E-06,0.020059375
,,,-4.5E-06,0.020246875
,,,-4.49E-06,0.019770625
,,,-4.48E-06,0.01995625
,,,-4.47E-06,0.01998875
,,,-4.46E-06,0.02015375
,,,-4.45E-06,0.02021375
,,,-4.44E-06,0.020108125
,,,-4.43E-06,0.019950625
,,,-4.42E-06,0.01977875
,,,-4.41E-06,0.019736875
,,,-4.4E-06,0.019984375
,,,-4.39E-06,0.02014375
,,,-4.38E-06,0.019909375
,,,-4.37E-06,0.019856875
,,,-4.36E-06,0.01970625
,,,-4.35E-06,0.019769375
,,,-4.34E-06,0.0199525
,,,-4.33E-06,0.02007
,,,-4.32E-06,0.020006875
,,,-4.31E-06,0.02011
,,,-4.3E-06,0.02015875
,,,-4.29E-06,0.019941875
,,,-4.28E-06,0.02018125
,,,-4.27E-06,0.01977875
,,,-4.26E-06,0.02007375
,,,-4.25E-06,0.020083125
,,,-4.24E-06,0.02002625
,,,-4.23E-06,0.0201475
,,,-4.22E-06,0.019894375
,,,-4.21E-06,0.020330625
,,,-4.2E-06,0.02014625
,,,-4.19E-06,0.01971625
,,,-4.18E-06,0.019956875
,,,-4.17E-06,0.020035
,,,-4.16E-06,0.019971875
,,,-4.15E-06,0.020080625
,,,-4.14E-06,0.020161875
,,,-4.13E-06,0.02000625
,,,-4.12E-06,0.019843125
,,,-4.11E-06,0.020105625
,,,-4.1E-06,0.020105625
,,,-4.09E-06,0.019883125
,,,-4.08E-06,0.020235625
,,,-4.07E-06,0.01983125
,,,-4.06E-06,0.0201725
,,,-4.05E-06,0.02005125
,,,-4.04E-06,0.019980625
,,,-4.03E-06,0.0198875
,,,-4.02E-06,0.0198775
,,,-4.01E-06,0.02005
,,,-4E-06,0.020059375
,,,-3.99E-06,0.020235625
,,,-3.98E-06,0.020125
,,,-3.97E-06,0.0198175
,,,-3.96E-06,0.020050625
,,,-3.95E-06,0.019923125
,,,-3.94E-06,0.01993125
,,,-3.93E-06,0.019995
,,,-3.92E-06,0.01984
,,,-3.91E-06,0.019965625
,,,-3.9E-06,0.020009375
,,,-3.89E-06,0.019761875
,,,-3.88E-06,0.020193125
,,,-3.87E-06,0.019793125
,,,-3.86E-06,0.0200225
,,,-3.85E-06,0.02002625
,,,-3.84E-06,0.020278125
,,,-3.83E-06,0.019824375
,,,-3.82E-06,0.020023125
,,,-3.81E-06,0.01983625
,,,-3.8E-06,0.019995625
,,,-3.79E-06,0.019893125
,,,-3.78E-06,0.01993875
,,,-3.77E-06,0.020003125
,,,-3.76E-06,0.02000625
,,,-3.75E-06,0.019789375
,,,-3.74E-06,0.02015
,,,-3.73E-06,0.0199375
,,,-3.72E-06,0.01986
,,,-3.71E-06,0.02004375
,,,-3.7E-06,0.0198
,,,-3.69E-06,0.019746875
,,,-3.68E-06,0.0197825
,,,-3.67E-06,0.01998625
,,,-3.66E-06,0.019824375
,,,-3.65E-06,0.0199375
,,,-3.64E-06,0.0202375
,,,-3.63E-06,0.020128125
,,,-3.62E-06,0.01987875
,,,-3.61E-06,0.0201225
,,,-3.6E-06,0.020035
,,,-3.59E-06,0.02009625
,,,-3.58E-06,0.019901875
,,,-3.57E-06,0.02009875
,,,-3.56E-06,0.0201725
,,,-3.55E-06,0.019935625
,,,-3.54E-06,0.01985875
,,,-3.53E-06,0.02013
,,,-3.52E-06,0.020006875
,,,-3.51E-06,0.01985
,,,-3.5E-06,0.0197825
,,,-3.49E-06,0.0199675
,,,-3.48E-06,0.01999625
,,,-3.47E-06,0.019913125
,,,-3.46E-06,0.0199775
,,,-3.45E-06,0.02001875
,,,-3.44E-06,0.019775625
,,,-3.43E-06,0.0199725
,,,-3.42E-06,0.020208125
,,,-3.41E-06,0.01994125
,,,-3.4E-06,0.01999625
,,,-3.39E-06,0.020193125
,,,-3.38E-06,0.020108125
,,,-3.37E-06,0.020211875
,,,-3.36E-06,0.02004375
,,,-3.35E-06,0.019818125
,,,-3.34E-06,0.02011625
,,,-3.33E-06,0.01988125
,,,-3.32E-06,0.01991625
,,,-3.31E-06,0.01984875
,,,-3.3E-06,0.020034375
,,,-3.29E-06,0.0201425
,,,-3.28E-06,0.02001375
,,,-3.27E-06,0.019988125
,,,-3.26E-06,0.019875625
,,,-3.25E-06,0.01988875
,,,-3.24E-06,0.02001375
,,,-3.23E-06,0.02032375
,,,-3.22E-06,0.02002375
,,,-3.21E-06,0.02003625
,,,-3.2E-06,0.0200975
,,,-3.19E-06,0.01987
,,,-3.18E-06,0.019831875
,,,-3.17E-06,0.020055
,,,-3.16E-06,0.0200725
,,,-3.15E-06,0.019931875
,,,-3.14E-06,0.01986375
,,,-3.13E-06,0.02010125
,,,-3.12E-06,0.020011875
,,,-3.11E-06,0.020299375
,,,-3.1E-06,0.0199125
,,,-3.09E-06,0.019990625
,,,-3.08E-06,0.02029125
,,,-3.07E-06,0.02005
,,,-3.06E-06,0.019963125
,,,-3.05E-06,0.02002
,,,-3.04E-06,0.019833125
,,,-3.03E-06,0.020099375
,,,-3.02E-06,0.02003125
,,,-3.01E-06,0.02016
,,,-3E-06,0.0200875
,,,-2.99E-06,0.020021875
,,,-2.98E-06,0.01986125
,,,-2.97E-06,0.0199425
,,,-2.96E-06,0.020123125
,,,-2.95E-06,0.0199675
,,,-2.94E-06,0.0200525
,,,-2.93E-06,0.019900625
,,,-2.92E-06,0.01993
,,,-2.91E-06,0.019928125
,,,-2.9E-06,0.0200325
,,,-2.89E-06,0.019978125
,,,-2.88E-06,0.019929375
,,,-2.87E-06,0.02013
,,,-2.86E-06,0.01984875
,,,-2.85E-06,0.020015
,,,-2.84E-06,0.019896875
,,,-2.83E-06,0.02003875
,,,-2.82E-06,0.0198
,,,-2.81E-06,0.020239375
,,,-2.8E-06,0.020109375
,,,-2.79E-06,0.0199575
,,,-2.78E-06,0.02009
,,,-2.77E-06,0.01993
,,,-2.76E-06,0.020118125
,,,-2.75E-06,0.019994375
,,,-2.74E-06,0.020426875
,,,-2.73E-06,0.0198875
,,,-2.72E-06,0.0197125
,,,-2.71E-06,0.0200675
,,,-2.7E-06,0.0198025
,,,-2.69E-06,0.019856875
,,,-2.68E-06,0.02001375
,,,-2.67E-06,0.02001375
,,,-2.66E-06,0.020078125
,,,-2.65E-06,0.019975625
,,,-2.64E-06,0.02001
,,,-2.63E-06,0.019940625
,,,-2.62E-06,0.0200175
,,,-2.61E-06,0.020180625
,,,-2.6E-06,0.0199125
,,,-2.59E-06,0.020138125
,,,-2.58E-06,0.020155625
,,,-2.57E-06,0.0201375
,,,-2.56E-06,0.020001875
,,,-2.55E-06,0.019845625
,,,-2.54E-06,0.02
,,,-2.53E-06,0.019903125
,,,-2.52E-06,0.01981875
,,,-2.51E-06,0.01985375
,,,-2.5E-06,0.020033125
,,,-2.49E-06,0.01987875
,,,-2.48E-06,0.019949375
,,,-2.47E-06,0.0197375
,,,-2.46E-06,0.019863125
,,,-2.45E-06,0.019980625
,,,-2.44E-06,0.02005375
,,,-2.43E-06,0.02004
,,,-2.42E-06,0.019963125
,,,-2.41E-06,0.0198175
,,,-2.4E-06,0.01986375
,,,-2.39E-06,0.01996375
,,,-2.38E-06,0.019628125
,,,-2.37E-06,0.0197975
,,,-2.36E-06,0.0200375
,,,-2.35E-06,0.020024375
,,,-2.34E-06,0.019785625
,,,-2.33E-06,0.019979375
,,,-2.32E-06,0.02008125
,,,-2.31E-06,0.020031875
,,,-2.3E-06,0.020128125
,,,-2.29E-06,0.01996625
,,,-2.28E-06,0.019988125
,,,-2.27E-06,0.019890625
,,,-2.26E-06,0.02021875
,,,-2.25E-06,0.020115625
,,,-2.24E-06,0.02008875
,,,-2.23E-06,0.01999
,,,-2.22E-06,0.020098125
,,,-2.21E-06,0.01988
,,,-2.2E-06,0.019869375
,,,-2.19E-06,0.01997375
,,,-2.18E-06,0.0200325
,,,-2.17E-06,0.020054375
,,,-2.16E-06,0.020025625
,,,-2.15E-06,0.020105625
,,,-2.14E-06,0.020150625
,,,-2.13E-06,0.019715625
,,,-2.12E-06,0.020105
,,,-2.11E-06,0.02001125
,,,-2.1E-06,0.019699375
,,,-2.09E-06,0.020035
,,,-2.08E-06,0.020183125
,,,-2.07E-06,0.020050625
,,,-2.06E-06,0.020121875
,,,-2.05E-06,0.019778125
,,,-2.04E-06,0.019830625
,,,-2.03E-06,0.0199325
,,,-2.02E-06,0.020021875
,,,-2.01E-06,0.020244375
,,,-2E-06,0.02013375
,,,-1.99E-06,0.020004375
,,,-1.98E-06,0.019916875
,,,-1.97E-06,0.019864375
,,,-1.96E-06,0.0200175
,,,-1.95E-06,0.020073125
,,,-1.94E-06,0.019716875
,,,-1.93E-06,0.0199775
,,,-1.92E-06,0.019761875
,,,-1.91E-06,0.019925625
,,,-1.9E-06,0.01990875
,,,-1.89E-06,0.02016375
,,,-1.88E-06,0.0199975
,,,-1.87E-06,0.0197075
,,,-1.86E-06,0.019944375
,,,-1.85E-06,0.01984
,,,-1.84E-06,0.0200525
,,,-1.83E-06,0.020015625
,,,-1.82E-06,0.019918125
,,,-1.81E-06,0.01984875
,,,-1.8E-06,0.020103125
,,,-1.79E-06,0.020070625
,,,-1.78E-06,0.01998125
,,,-1.77E-06,0.0199825
,,,-1.76E-06,0.019991875
,,,-1.75E-06,0.020080625
,,,-1.74E-06,0.019951875
,,,-1.73E-06,0.020244375
,,,-1.72E-06,0.01991375
,,,-1.71E-06,0.020079375
,,,-1.7E-06,0.019813125
,,,-1.69E-06,0.0200925
,,,-1.68E-06,0.01990125
,,,-1.67E-06,0.020078125
,,,-1.66E-06,0.020210625
,,,-1.65E-06,0.020005
,,,-1.64E-06,0.019929375
,,,-1.63E-06,0.0200825
,,,-1.62E-06,0.01987125
,,,-1.61E-06,0.01979875
,,,-1.6E-06,0.01991
,,,-1.59E-06,0.02002
,,,-1.58E-06,0.020103125
,,,-1.57E-06,0.019929375
,,,-1.56E-06,0.02005625
,,,-1.55E-06,0.019980625
,,,-1.54E-06,0.01974
,,,-1.53E-06,0.02004
,,,-1.52E-06,0.0200275
,,,-1.51E-06,0.0199375
,,,-1.5E-06,0.02013
,,,-1.49E-06,0.01987
,,,-1.48E-06,0.020058125
,,,-1.47E-06,0.019974375
,,,-1.46E-06,0.0201025
,,,-1.45E-06,0.020024375
,,,-1.44E-06,0.0199225
,,,-1.43E-06,0.02010875
,,,-1.42E-06,0.020304375
,,,-1.41E-06,0.02014375
,,,-1.4E-06,0.01999125
,,,-1.39E-06,0.0199775
,,,-1.38E-06,0.019883125
,,,-1.37E-06,0.019805
,,,-1.36E-06,0.0201575
,,,-1.35E-06,0.01991125
,,,-1.34E-06,0.019845
,,,-1.33E-06,0.0197175
,,,-1.32E-06,0.020126875
,,,-1.31E-06,0.019896875
,,,-1.3E-06,0.019928125
,,,-1.29E-06,0.019989375
,,,-1.28E-06,0.019985625
,,,-1.27E-06,0.019900625
,,,-1.26E-06,0.020193125
,,,-1.25E-06,0.019823125
,,,-1.24E-06,0.02012875
,,,-1.23E-06,0.019995625
,,,-1.22E-06,0.019715625
,,,-1.21E-06,0.01992875
,,,-1.2E-06,0.019936875
,,,-1.19E-06,0.020203125
,,,-1.18E-06,0.019754375
,,,-1.17E-06,0.01998
,,,-1.16E-06,0.02004375
,,,-1.15E-06,0.01989125
,,,-1.14E-06,0.0200625
,,,-1.13E-06,0.020236875
,,,-1.12E-06,0.020234375
,,,-1.11E-06,0.02021
,,,-1.1E-06,0.020024375
,,,-1.09E-06,0.020018125
,,,-1.08E-06,0.020064375
,,,-1.07E-06,0.019913125
,,,-1.06E-06,0.020039375
,,,-1.05E-06,0.020193125
,,,-1.04E-06,0.02003375
,,,-1.03E-06,0.020130625
,,,-1.02E-06,0.020050625
,,,-1.01E-06,0.02001875
,,,-1E-06,0.02015
,,,-9.9E-07,0.02016375
,,,-9.8E-07,0.0200325
,,,-9.7E-07,0.019968125
,,,-9.6E-07,0.020165
,,,-9.5E-07,0.020265
,,,-9.4E-07,0.019890625
,,,-9.3E-07,0.020025
,,,-9.2E-07,0.019893125
,,,-9.1E-07,0.020085
,,,-9E-07,0.020030625
,,,-8.9E-07,0.02010375
,,,-8.8E-07,0.02006875
,,,-8.7E-07,0.020074375
,,,-8.6E-07,0.019881875
,,,-8.5E-07,0.020144375
,,,-8.4E-07,0.0198725
,,,-8.3E-07,0.020270625
,,,-8.2E-07,0.02019125
,,,-8.1E-07,0.019935
,,,-8E-07,0.020100625
,,,-7.9E-07,0.019955
,,,-7.8E-07,0.019965625
,,,-7.7E-07,0.019815625
,,,-7.6E-07,0.02006625
,,,-7.5E-07,0.01987125
,,,-7.4E-07,0.0198275
,,,-7.3E-07,0.02006625
,,,-7.2E-07,0.02006375
,,,-7.1E-07,0.019898125
,,,-7E-07,0.020071875
,,,-6.9E-07,0.02010625
,,,-6.8E-07,0.019944375
,,,-6.7E-07,0.0201175
,,,-6.6E-07,0.019881875
,,,-6.5E-07,0.020201875
,,,-6.4E-07,0.019738125
,,,-6.3E-07,0.020188125
,,,-6.2E-07,0.0200125
,,,-6.1E-07,0.020171875
,,,-6E-07,0.019869375
,,,-5.9E-07,0.019879375
,,,-5.8E-07,0.020134375
,,,-5.7E-07,0.019938125
,,,-5.6E-07,0.01983625
,,,-5.5E-07,0.019811875
,,,-5.4E-07,0.019845
,,,-5.3E-07,0.020088125
,,,-5.2E-07,0.020098125
,,,-5.1E-07,0.01986
,,,-5E-07,0.019726875
,,,-4.9E-07,0.020104375
,,,-4.8E-07,0.020063125
,,,-4.7E-07,0.01994125
,,,-4.6E-07,0.0198375
,,,-4.5E-07,0.0197675
,,,-4.4E-07,0.020004375
,,,-4.3E-07,0.02016
,,,-4.2E-07,0.0201525
,,,-4.1E-07,0.02017
,,,-4E-07,0.01982
,,,-3.9E-07,0.01979875
,,,-3.8E-07,0.01986875
,,,-3.7E-07,0.019876875
,,,-3.6E-07,0.0199225
,,,-3.5E-07,0.02012125
,,,-3.4E-07,0.019953125
,,,-3.3E-07,0.020095
,,,-3.2E-07,0.01988125
,,,-3.1E-07,0.01994375
,,,-3E-07,0.020166875
,,,-2.9E-07,0.020121875
,,,-2.8E-07,0.019900625
,,,-2.7E-07,0.02004625
,,,-2.6E-07,0.020000625
,,,-2.5E-07,0.019936875
,,,-2.4E-07,0.02
,,,-2.3E-07,0.01999
,,,-2.2E-07,0.019959375
,,,-2.1E-07,0.019819375
,,,-2E-07,0.01999
,,,-1.9E-07,0.0201725
,,,-1.8E-07,0.019820625
,,,-1.7E-07,0.020103125
,,,-1.6E-07,0.01991125
,,,-1.5E-07,0.019965625
,,,-1.4E-07,0.020053125
,,,-1.3E-07,0.019808125
,,,-1.2E-07,0.019863125
,,,-1.1E-07,0.01998125
,,,-1E-07,0.0202175
,,,-9E-08,0.02027875
,,,-8E-08,0.0195925
,,,-7E-08,0.019553125
,,,-6E-08,0.019850625
,,,-5E-08,0.02026625
,,,-4E-08,0.021083125
,,,-3E-08,0.021546875
,,,-2E-08,0.018826875
,,,-1E-08,0.017918125
,,,0,0.0166225
,,,1E-08,0.021784375
,,,2E-08,0.022788125
,,,3E-08,0.023389375
,,,4E-08,0.019791875
,,,5E-08,0.018515
,,,6E-08,0.0168175
,,,7E-08,0.018831875
,,,8E-08,0.020015
,,,9E-08,0.021665625
,,,1E-07,0.02175625
,,,1.1E-07,0.020604375
,,,1.2E-07,0.01916875
,,,1.3E-07,0.0186125
,,,1.4E-07,0.01942375
,,,1.5E-07,0.019834375
,,,1.6E-07,0.020363125
,,,1.7E-07,0.020595
,,,1.8E-07,0.02038
,,,1.9E-07,0.019900625
,,,2E-07,0.019813125
,,,2.1E-07,0.019606875
,,,2.2E-07,0.01978375
,,,2.3E-07,0.01974125
,,,2.4E-07,0.020118125
,,,2.5E-07,0.02007
,,,2.6E-07,0.02007375
,,,2.7E-07,0.020071875
,,,2.8E-07,0.019880625
,,,2.9E-07,0.01988125
,,,3E-07,0.02014875
,,,3.1E-07,0.019901875
,,,3.2E-07,0.0199875
,,,3.3E-07,0.020098125
,,,3.4E-07,0.019876875
,,,3.5E-07,0.019821875
,,,3.6E-07,0.02010875
,,,3.7E-07,0.01981125
,,,3.8E-07,0.01984625
,,,3.9E-07,0.0197375
,,,4E-07,0.020141875
,,,4.1E-07,0.019666875
,,,4.2E-07,0.0198475
,,,4.3E-07,0.020168125
,,,4.4E-07,0.020125625
,,,4.5E-07,0.019996875
,,,4.6E-07,0.01980625
,,,4.7E-07,0.019775625
,,,4.8E-07,0.01996
,,,4.9E-07,0.0198525
,,,5E-07,0.0202475
,,,5.1E-07,0.019974375
,,,5.2E-07,0.0201125
,,,5.3E-07,0.0200875
,,,5.4E-07,0.019895
,,,5.5E-07,0.0199275
,,,5.6E-07,0.019785
,,,5.7E-07,0.019981875
,,,5.8E-07,0.019988125
,,,5.9E-07,0.020070625
,,,6E-07,0.020068125
,,,6.1E-07,0.0198675
,,,6.2E-07,0.0199425
,,,6.3E-07,0.020173125
,,,6.4E-07,0.020060625
,,,6.5E-07,0.01990375
,,,6.6E-07,0.0200475
,,,6.7E-07,0.01979625
,,,6.8E-07,0.019945625
,,,6.9E-07,0.019800625
,,,7E-07,0.019903125
,,,7.1E-07,0.0200175
,,,7.2E-07,0.0198175
,,,7.3E-07,0.02004625
,,,7.4E-07,0.0199775
,,,7.5E-07,0.020118125
,,,7.6E-07,0.02004375
,,,7.7E-07,0.019969375
,,,7.8E-07,0.019730625
,,,7.9E-07,0.020175625
,,,8E-07,0.0200175
,,,8.1E-07,0.02000875
,,,8.2E-07,0.019775625
,,,8.3E-07,0.0199775
,,,8.4E-07,0.019895
,,,8.5E-07,0.019915
,,,8.6E-07,0.0198975
,,,8.7E-07,0.019989375
,,,8.8E-07,0.0200975
,,,8.9E-07,0.02004
,,,9E-07,0.020231875
,,,9.1E-07,0.020013125
,,,9.2E-07,0.02002625
,,,9.3E-07,0.01975
,,,9.4E-07,0.01999625
,,,9.5E-07,0.01989875
,,,9.6E-07,0.01981875
,,,9.7E-07,0.019810625
,,,9.8E-07,0.019988125
,,,9.9E-07,0.020033125
,,,1E-06,0.020068125
,,,1.01E-06,0.02007
,,,1.02E-06,0.02010875
,,,1.03E-06,0.019855625
,,,1.04E-06,0.02028125
,,,1.05E-06,0.020009375
,,,1.06E-06,0.01989125
,,,1.07E-06,0.0202175
,,,1.08E-06,0.0200675
,,,1.09E-06,0.020015
,,,1.1E-06,0.020004375
,,,1.11E-06,0.0199525
,,,1.12E-06,0.0200975
,,,1.13E-06,0.019901875
,,,1.14E-06,0.020223125
,,,1.15E-06,0.019941875
,,,1.16E-06,0.020055
,,,1.17E-06,0.020181875
,,,1.18E-06,0.0200675
,,,1.19E-06,0.0197525
,,,1.2E-06,0.0198375
,,,1.21E-06,0.01997875
,,,1.22E-06,0.019966875
,,,1.23E-06,0.020086875
,,,1.24E-06,0.01997875
,,,1.25E-06,0.019974375
,,,1.26E-06,0.020071875
,,,1.27E-06,0.0201675
,,,1.28E-06,0.02001625
,,,1.29E-06,0.019925625
,,,1.3E-06,0.019904375
,,,1.31E-06,0.020096875
,,,1.32E-06,0.019714375
,,,1.33E-06,0.019940625
,,,1.34E-06,0.0199825
,,,1.35E-06,0.02004375
,,,1.36E-06,0.0199725
,,,1.37E-06,0.02010375
,,,1.38E-06,0.020225
,,,1.39E-06,0.020123125
,,,1.4E-06,0.01999125
,,,1.41E-06,0.02015625
,,,1.42E-06,0.0200575
,,,1.43E-06,0.019990625
,,,1.44E-06,0.01986
,,,1.45E-06,0.019865625
,,,1.46E-06,0.02002125
,,,1.47E-06,0.01988875
,,,1.48E-06,0.01976875
,,,1.49E-06,0.020105625
,,,1.5E-06,0.019875
,,,1.51E-06,0.0202
,,,1.52E-06,0.02005875
,,,1.53E-06,0.019851875
,,,1.54E-06,0.019753125
,,,1.55E-06,0.02010875
,,,1.56E-06,0.020155
,,,1.57E-06,0.019990625
,,,1.58E-06,0.020194375
,,,1.59E-06,0.019825625
,,,1.6E-06,0.0197675
,,,1.61E-06,0.019974375
,,,1.62E-06,0.0201475
,,,1.63E-06,0.01996125
,,,1.64E-06,0.019958125
,,,1.65E-06,0.01990875
,,,1.66E-06,0.019784375
,,,1.67E-06,0.0199775
,,,1.68E-06,0.020176875
,,,1.69E-06,0.019885625
,,,1.7E-06,0.02003375
,,,1.71E-06,0.020011875
,,,1.72E-06,0.020105625
,,,1.73E-06,0.020015
,,,1.74E-06,0.02004875
,,,1.75E-06,0.019959375
,,,1.76E-06,0.01993875
,,,1.77E-06,0.0200875
,,,1.78E-06,0.019801875
,,,1.79E-06,0.01995375
,,,1.8E-06,0.02003
,,,1.81E-06,0.02007
,,,1.82E-06,0.019859375
,,,1.83E-06,0.01985375
,,,1.84E-06,0.019813125
,,,1.85E-06,0.020099375
,,,1.86E-06,0.019870625
,,,1.87E-06,0.019820625
,,,1.88E-06,0.019999375
,,,1.89E-06,0.01994125
,,,1.9E-06,0.019939375
,,,1.91E-06,0.0199375
,,,1.92E-06,0.019669375
,,,1.93E-06,0.019836875
,,,1.94E-06,0.020188125
,,,1.95E-06,0.0198825
,,,1.96E-06,0.019806875
,,,1.97E-06,0.019959375
,,,1.98E-06,0.020258125
,,,1.99E-06,0.020149375
,,,2E-06,0.02010875
,,,2.01E-06,0.019956875
,,,2.02E-06,0.020021875
,,,2.03E-06,0.019850625
,,,2.04E-06,0.019910625
,,,2.05E-06,0.020356875
,,,2.06E-06,0.020170625
,,,2.07E-06,0.020071875
,,,2.08E-06,0.01995625
,,,2.09E-06,0.02003375
,,,2.1E-06,0.01990875
,,,2.11E-06,0.020021875
,,,2.12E-06,0.020175
,,,2.13E-06,0.019855
,,,2.14E-06,0.02017125
,,,2.15E-06,0.01995875
,,,2.16E-06,0.019899375
,,,2.17E-06,0.020033125
,,,2.18E-06,0.02023875
,,,2.19E-06,0.020049375
,,,2.2E-06,0.01980375
,,,2.21E-06,0.01995625
,,,2.22E-06,0.019840625
,,,2.23E-06,0.020039375
,,,2.24E-06,0.020024375
,,,2.25E-06,0.0198825
,,,2.26E-06,0.019964375
,,,2.27E-06,0.02011625
,,,2.28E-06,0.01999875
,,,2.29E-06,0.020148125
,,,2.3E-06,0.01984625
,,,2.31E-06,0.02001125
,,,2.32E-06,0.02004625
,,,2.33E-06,0.019948125
,,,2.34E-06,0.01982125
,,,2.35E-06,0.019920625
,,,2.36E-06,0.020124375
,,,2.37E-06,0.019990625
,,,2.38E-06,0.019789375
,,,2.39E-06,0.019949375
,,,2.4E-06,0.0201475
,,,2.41E-06,0.020091875
,,,2.42E-06,0.019979375
,,,2.43E-06,0.020061875
,,,2.44E-06,0.020136875
,,,2.45E-06,0.01992625
,,,2.46E-06,0.020204375
,,,2.47E-06,0.020128125
,,,2.48E-06,0.019969375
,,,2.49E-06,0.020043125
,,,2.5E-06,0.01992375
,,,2.51E-06,0.02004875
,,,2.52E-06,0.019938125
,,,2.53E-06,0.020050625
,,,2.54E-06,0.019933125
,,,2.55E-06,0.01992875
,,,2.56E-06,0.02003125
,,,2.57E-06,0.01993
,,,2.58E-06,0.020070625
,,,2.59E-06,0.019801875
,,,2.6E-06,0.0198175
,,,2.61E-06,0.02012625
,,,2.62E-06,0.020310625
,,,2.63E-06,0.019938125
,,,2.64E-06,0.01998
,,,2.65E-06,0.020005
,,,2.66E-06,0.0199725
,,,2.67E-06,0.0198775
,,,2.68E-06,0.019925625
,,,2.69E-06,0.01996
,,,2.7E-06,0.01991375
,,,2.71E-06,0.0200275
,,,2.72E-06,0.0199775
,,,2.73E-06,0.02003375
,,,2.74E-06,0.019914375
,,,2.75E-06,0.02027625
,,,2.76E-06,0.01985875
,,,2.77E-06,0.020028125
,,,2.78E-06,0.020086875
,,,2.79E-06,0.01975375
,,,2.8E-06,0.01997875
,,,2.81E-06,0.019891875
,,,2.82E-06,0.020281875
,,,2.83E-06,0.01993
,,,2.84E-06,0.019943125
,,,2.85E-06,0.020114375
,,,2.86E-06,0.020034375
,,,2.87E-06,0.019989375
,,,2.88E-06,0.0201875
,,,2.89E-06,0.020065625
,,,2.9E-06,0.02019
,,,2.91E-06,0.019879375
,,,2.92E-06,0.019971875
,,,2.93E-06,0.01993375
,,,2.94E-06,0.02002125
,,,2.95E-06,0.0201675
,,,2.96E-06,0.0199675
,,,2.97E-06,0.01984
,,,2.98E-06,0.02008125
,,,2.99E-06,0.020085625
,,,3E-06,0.01963375
,,,3.01E-06,0.020038125
,,,3.02E-06,0.0200475
,,,3.03E-06,0.0201475
,,,3.04E-06,0.02011
,,,3.05E-06,0.019925
,,,3.06E-06,0.0200225
,,,3.07E-06,0.020021875
,,,3.08E-06,0.0199175
,,,3.09E-06,0.02009625
,,,3.1E-06,0.01998125
,,,3.11E-06,0.02001375
,,,3.12E-06,0.020038125
,,,3.13E-06,0.02004875
,,,3.14E-06,0.02001375
,,,3.15E-06,0.02005125
,,,3.16E-06,0.020189375
,,,3.17E-06,0.0200775
,,,3.18E-06,0.020034375
,,,3.19E-06,0.019986875
,,,3.2E-06,0.019946875
,,,3.21E-06,0.020096875
,,,3.22E-06,0.020155625
,,,3.23E-06,0.020159375
,,,3.24E-06,0.020029375
,,,3.25E-06,0.020023125
,,,3.26E-06,0.02003
,,,3.27E-06,0.01993875
,,,3.28E-06,0.01998125
,,,3.29E-06,0.0201525
,,,3.3E-06,0.01988625
,,,3.31E-06,0.02013
,,,3.32E-06,0.02002375
,,,3.33E-06,0.020048125
,,,3.34E-06,0.02002375
,,,3.35E-06,0.01989
,,,3.36E-06,0.019896875
,,,3.37E-06,0.02004625
,,,3.38E-06,0.01980125
,,,3.39E-06,0.01989
,,,3.4E-06,0.020034375
,,,3.41E-06,0.02008375
,,,3.42E-06,0.019990625
,,,3.43E-06,0.02021625
,,,3.44E-06,0.019999375
,,,3.45E-06,0.019939375
,,,3.46E-06,0.020089375
,,,3.47E-06,0.020105
,,,3.48E-06,0.019768125
,,,3.49E-06,0.019796875
,,,3.5E-06,0.0198525
,,,3.51E-06,0.020065
,,,3.52E-06,0.019855625
,,,3.53E-06,0.020033125
,,,3.54E-06,0.01988
,,,3.55E-06,0.019780625
,,,3.56E-06,0.01998875
,,,3.57E-06,0.020046875
