data/raw/Final_POL_Test_1/SOP048_Ch1.csv

"Record Length",1000,"Points",-5E-06,0.006544375
"Sample Interval",1E-08,s,-4.99E-06,0.006484375
"Trigger Point",500,"Samples",-4.98E-06,0.00661625
"Trigger Time",0,s,-4.97E-06,0.0064175
"",,,-4.96E-06,0.006466875
"Horizontal Offset",-5E-06,s,-4.95E-06,0.006536875
,,,-4.94E-06,0.00634875
,,,-4.93E-06,0.0061425
,,,-4.92E-06,0.006593125
,,,-4.91E-06,0.00649375
,,,-4.9E-06,0.006315625
,,,-4.89E-06,0.00633875
,,,-4.88E-06,0.006409375
,,,-4.87E-06,0.0063725
,,,-4.86E-06,0.0064625
,,,-4.85E-06,0.006375
,,,-4.84E-06,0.00628
,,,-4.83E-06,0.006400625
,,,-4.82E-06,0.006594375
,,,-4.81E-06,0.006268125
,,,-4.8E-06,0.006540625
,,,-4.79E-06,0.0066075
,,,-4.78E-06,0.0065875
,,,-4.77E-06,0.0063175
,,,-4.76E-06,0.00635875
,,,-4.75E-06,0.00664125
,,,-4.74E-06,0.00646625
,,,-4.73E-06,0.00658375
,,,-4.72E-06,0.006621875
,,,-4.71E-06,0.0064775
,,,-4.7E-06,0.00646
,,,-4.69E-06,0.006379375
,,,-4.68E-06,0.0061625
,,,-4.67E-06,0.0064275
,,,-4.66E-06,0.006440625
,,,-4.65E-06,0.006425625
,,,-4.64E-06,0.006350625
,,,-4.63E-06,0.006485
,,,-4.62E-06,0.006471875
,,,-4.61E-06,0.006691875
,,,-4.6E-06,0.006546875
,,,-4.59E-06,0.00640375
,,,-4.58E-06,0.00635625
,,,-4.57E-06,0.006515
,,,-4.56E-06,0.006473125
,,,-4.55E-06,0.0067275
,,,-4.54E-06,0.006556875
,,,-4.53E-06,0.006584375
,,,-4.52E-06,0.00629375
,,,-4.51E-06,0.006464375
,,,-4.5E-06,0.006566875
,,,-4.49E-06,0.0066325
,,,-4.48E-06,0.006555625
,,,-4.47E-06,0.0064275
,,,-4.46E-06,0.006431875
,,,-4.45E-06,0.0062225
,,,-4.44E-06,0.006525
,,,-4.43E-06,0.006185625
,,,-4.42E-06,0.006263125
,,,-4.41E-06,0.00668125
,,,-4.4E-06,0.006580625
,,,-4.39E-06,0.006581875
,,,-4.38E-06,0.006506875
,,,-4.37E-06,0.0063875
,,,-4.36E-06,0.0065825
,,,-4.35E-06,0.006623125
,,,-4.34E-06,0.006643125
,,,-4.33E-06,0.00662375
,,,-4.32E-06,0.006389375
,,,-4.31E-06,0.0062825
,,,-4.3E-06,0.00637
,,,-4.29E-06,0.006406875
,,,-4.28E-06,0.0063
,,,-4.27E-06,0.00658625
,,,-4.26E-06,0.00639875
,,,-4.25E-06,0.006394375
,,,-4.24E-06,0.00644
,,,-4.23E-06,0.006364375
,,,-4.22E-06,0.006178125
,,,-4.21E-06,0.00645125
,,,-4.2E-06,0.006555625
,,,-4.19E-06,0.00629
,,,-4.18E-06,0.0065275
,,,-4.17E-06,0.006436875
,,,-4.16E-06,0.0062625
,,,-4.15E-06,0.006775625
,,,-4.14E-06,0.0063775
,,,-4.13E-06,0.00658
,,,-4.12E-06,0.0063925
,,,-4.11E-06,0.00626
,,,-4.1E-06,0.00628125
,,,-4.09E-06,0.00652625
,,,-4.08E-06,0.006588125
,,,-4.07E-06,0.006485625
,,,-4.06E-06,0.00646
,,,-4.05E-06,0.006525625
,,,-4.04E-06,0.0062475
,,,-4.03E-06,0.00644625
,,,-4.02E-06,0.006425
,,,-4.01E-06,0.00661
,,,-4E-06,0.006434375
,,,-3.99E-06,0.00637375
,,,-3.98E-06,0.00641
,,,-3.97E-06,0.00645125
,,,-3.96E-06,0.006736875
,,,-3.95E-06,0.00651375
,,,-3.94E-06,0.00619125
,,,-3.93E-06,0.00639875
,,,-3.92E-06,0.006315
,,,-3.91E-06,0.006483125
,,,-3.9E-06,0.0066375
,,,-3.89E-06,0.006768125
,,,-3.88E-06,0.006406875
,,,-3.87E-06,0.00670125
,,,-3.86E-06,0.006298125
,,,-3.85E-06,0.0063775
,,,-3.84E-06,0.00647875
,,,-3.83E-06,0.00661875
,,,-3.82E-06,0.00634125
,,,-3.81E-06,0.00622375
,,,-3.8E-06,0.006536875
,,,-3.79E-06,0.0061125
,,,-3.78E-06,0.006395
,,,-3.77E-06,0.006426875
,,,-3.76E-06,0.00646875
,,,-3.75E-06,0.00661375
,,,-3.74E-06,0.00660875
,,,-3.73E-06,0.006485
,,,-3.72E-06,0.00625125
,,,-3.71E-06,0.006499375
,,,-3.7E-06,0.006465
,,,-3.69E-06,0.00630875
,,,-3.68E-06,0.006404375
,,,-3.67E-06,0.006251875
,,,-3.66E-06,0.006321875
,,,-3.65E-06,0.0064125
,,,-3.64E-06,0.006485625
,,,-3.63E-06,0.006406875
,,,-3.62E-06,0.006345
,,,-3.61E-06,0.00643
,,,-3.6E-06,0.00652875
,,,-3.59E-06,0.00653375
,,,-3.58E-06,0.006621875
,,,-3.57E-06,0.006428125
,,,-3.56E-06,0.006424375
,,,-3.55E-06,0.006378125
,,,-3.54E-06,0.006345
,,,-3.53E-06,0.006520625
,,,-3.52E-06,0.006435625
,,,-3.51E-06,0.006704375
,,,-3.5E-06,0.006325
,,,-3.49E-06,0.00657875
,,,-3.48E-06,0.0064925
,,,-3.47E-06,0.006555
,,,-3.46E-06,0.006445625
,,,-3.45E-06,0.006643125
,,,-3.44E-06,0.006421875
,,,-3.43E-06,0.006201875
,,,-3.42E-06,0.006445625
,,,-3.41E-06,0.006661875
,,,-3.4E-06,0.006584375
,,,-3.39E-06,0.006411875
,,,-3.38E-06,0.006515625
,,,-3.37E-06,0.0068
,,,-3.36E-06,0.00638125
,,,-3.35E-06,0.0065825
,,,-3.34E-06,0.00643375
,,,-3.33E-06,0.006520625
,,,-3.32E-06,0.006646875
,,,-3.31E-06,0.006475625
,,,-3.3E-06,0.00654375
,,,-3.29E-06,0.00623625
,,,-3.28E-06,0.006346875
,,,-3.27E-06,0.006408125
,,,-3.26E-06,0.006603125
,,,-3.25E-06,0.00634875
,,,-3.24E-06,0.006485
,,,-3.23E-06,0.006456875
,,,-3.22E-06,0.00667875
,,,-3.21E-06,0.0065625
,,,-3.2E-06,0.00643625
,,,-3.19E-06,0.006540625
,,,-3.18E-06,0.006600625
,,,-3.17E-06,0.006286875
,,,-3.16E-06,0.00629625
,,,-3.15E-06,0.0064175
,,,-3.14E-06,0.006446875
,,,-3.13E-06,0.006245
,,,-3.12E-06,0.00647125
,,,-3.11E-06,0.00651125
,,,-3.1E-06,0.00663625
,,,-3.09E-06,0.00642375
,,,-3.08E-06,0.006394375
,,,-3.07E-06,0.00634875
,,,-3.06E-06,0.006493125
,,,-3.05E-06,0.00642125
,,,-3.04E-06,0.00630125
,,,-3.03E-06,0.006105625
,,,-3.02E-06,0.006533125
,,,-3.01E-06,0.0066225
,,,-3E-06,0.006345625
,,,-2.99E-06,0.00644625
,,,-2.98E-06,0.006628125
,,,-2.97E-06,0.006389375
,,,-2.96E-06,0.006345
,,,-2.95E-06,0.006639375
,,,-2.94E-06,0.006271875
,,,-2.93E-06,0.006468125
,,,-2.92E-06,0.006765625
,,,-2.91E-06,0.006626875
,,,-2.9E-06,0.00644375
,,,-2.89E-06,0.006379375
,,,-2.88E-06,0.00645125
,,,-2.87E-06,0.0062575
,,,-2.86E-06,0.006514375
,,,-2.85E-06,0.0065075
,,,-2.84E-06,0.00667
,,,-2.83E-06,0.006565625
,,,-2.82E-06,0.006364375
,,,-2.81E-06,0.006539375
,,,-2.8E-06,0.0066875
,,,-2.79E-06,0.006500625
,,,-2.78E-06,0.006446875
,,,-2.77E-06,0.006508125
,,,-2.76E-06,0.006716875
,,,-2.75E-06,0.0065425
,,,-2.74E-06,0.006495
,,,-2.73E-06,0.006471875
,,,-2.72E-06,0.0063525
,,,-2.71E-06,0.00636625
,,,-2.7E-06,0.006479375
,,,-2.69E-06,0.00641875
,,,-2.68E-06,0.006439375
,,,-2.67E-06,0.00654
,,,-2.66E-06,0.006165
,,,-2.65E-06,0.006530625
,,,-2.64E-06,0.006491875
,,,-2.63E-06,0.00659875
,,,-2.62E-06,0.006488125
,,,-2.61E-06,0.00649
,,,-2.6E-06,0.006471875
,,,-2.59E-06,0.00651625
,,,-2.58E-06,0.006531875
,,,-2.57E-06,0.00651875
,,,-2.56E-06,0.006674375
,,,-2.55E-06,0.0065875
,,,-2.54E-06,0.006264375
,,,-2.53E-06,0.006586875
,,,-2.52E-06,0.006424375
,,,-2.51E-06,0.006558125
,,,-2.5E-06,0.006369375
,,,-2.49E-06,0.0064275
,,,-2.48E-06,0.006648125
,,,-2.47E-06,0.00639875
,,,-2.46E-06,0.006446875
,,,-2.45E-06,0.006265
,,,-2.44E-06,0.00646375
,,,-2.43E-06,0.006305625
,,,-2.42E-06,0.00647125
,,,-2.41E-06,0.00656125
,,,-2.4E-06,0.00647875
,,,-2.39E-06,0.006399375
,,,-2.38E-06,0.006408125
,,,-2.37E-06,0.006353125
,,,-2.36E-06,0.006345
,,,-2.35E-06,0.00644125
,,,-2.34E-06,0.006399375
,,,-2.33E-06,0.006499375
,,,-2.32E-06,0.006576875
,,,-2.31E-06,0.006378125
,,,-2.3E-06,0.00663125
,,,-2.29E-06,0.006529375
,,,-2.28E-06,0.006461875
,,,-2.27E-06,0.006560625
,,,-2.26E-06,0.006505
,,,-2.25E-06,0.006290625
,,,-2.24E-06,0.00637125
,,,-2.23E-06,0.006285
,,,-2.22E-06,0.006505625
,,,-2.21E-06,0.006553125
,,,-2.2E-06,0.006405
,,,-2.19E-06,0.00635875
,,,-2.18E-06,0.006684375
,,,-2.17E-06,0.006465625
,,,-2.16E-06,0.006661875
,,,-2.15E-06,0.00638375
,,,-2.14E-06,0.00649625
,,,-2.13E-06,0.0064575
,,,-2.12E-06,0.006645625
,,,-2.11E-06,0.006395625
,,,-2.1E-06,0.006553125
,,,-2.09E-06,0.00624875
,,,-2.08E-06,0.006525625
,,,-2.07E-06,0.00652125
,,,-2.06E-06,0.0063525
,,,-2.05E-06,0.00647375
,,,-2.04E-06,0.006345625
,,,-2.03E-06,0.006463125
,,,-2.02E-06,0.00645125
,,,-2.01E-06,0.006455625
,,,-2E-06,0.00646125
,,,-1.99E-06,0.006275625
,,,-1.98E-06,0.00654
,,,-1.97E-06,0.00631875
,,,-1.96E-06,0.00638875
,,,-1.95E-06,0.00638375
,,,-1.94E-06,0.00641875
,,,-1.93E-06,0.006624375
,,,-1.92E-06,0.0065075
,,,-1.91E-06,0.006596875
,,,-1.9E-06,0.00629625
,,,-1.89E-06,0.00650625
,,,-1.88E-06,0.00641125
,,,-1.87E-06,0.006450625
,,,-1.86E-06,0.006479375
,,,-1.85E-06,0.006483125
,,,-1.84E-06,0.006535
,,,-1.83E-06,0.00632875
,,,-1.82E-06,0.006420625
,,,-1.81E-06,0.0066475
,,,-1.8E-06,0.0065175
,,,-1.79E-06,0.00657
,,,-1.78E-06,0.006436875
,,,-1.77E-06,0.006473125
,,,-1.76E-06,0.00658375
,,,-1.75E-06,0.006528125
,,,-1.74E-06,0.006569375
,,,-1.73E-06,0.006329375
,,,-1.72E-06,0.006305625
,,,-1.71E-06,0.00644625
,,,-1.7E-06,0.0063325
,,,-1.69E-06,0.006575
,,,-1.68E-06,0.006704375
,,,-1.67E-06,0.0063975
,,,-1.66E-06,0.006678125
,,,-1.65E-06,0.00647
,,,-1.64E-06,0.00654
,,,-1.63E-06,0.0066075
,,,-1.62E-06,0.006441875
,,,-1.61E-06,0.00642625
,,,-1.6E-06,0.006569375
,,,-1.59E-06,0.006471875
,,,-1.58E-06,0.006643125
,,,-1.57E-06,0.006574375
,,,-1.56E-06,0.006505625
,,,-1.55E-06,0.006253125
,,,-1.54E-06,0.006424375
,,,-1.53E-06,0.00641875
,,,-1.52E-06,0.0067025
,,,-1.51E-06,0.00657125
,,,-1.5E-06,0.006584375
,,,-1.49E-06,0.006508125
,,,-1.48E-06,0.0065375
,,,-1.47E-06,0.006659375
,,,-1.46E-06,0.00633375
,,,-1.45E-06,0.0063925
,,,-1.44E-06,0.0064475
,,,-1.43E-06,0.006476875
,,,-1.42E-06,0.00635
,,,-1.41E-06,0.006540625
,,,-1.4E-06,0.00644125
,,,-1.39E-06,0.00631
,,,-1.38E-06,0.006365
,,,-1.37E-06,0.00638
,,,-1.36E-06,0.0066375
,,,-1.35E-06,0.0064075
,,,-1.34E-06,0.00635
,,,-1.33E-06,0.00645875
,,,-1.32E-06,0.00658
,,,-1.31E-06,0.006423125
,,,-1.3E-06,0.006629375
,,,-1.29E-06,0.00649125
,,,-1.28E-06,0.0062
,,,-1.27E-06,0.00641125
,,,-1.26E-06,0.00630125
,,,-1.25E-06,0.00653875
,,,-1.24E-06,0.006633125
,,,-1.23E-06,0.00635375
,,,-1.22E-06,0.0066675
,,,-1.21E-06,0.006564375
,,,-1.2E-06,0.006481875
,,,-1.19E-06,0.00647375
,,,-1.18E-06,0.006469375
,,,-1.17E-06,0.0063975
,,,-1.16E-06,0.006416875
,,,-1.15E-06,0.006649375
,,,-1.14E-06,0.006293125
,,,-1.13E-06,0.00636375
,,,-1.12E-06,0.006594375
,,,-1.11E-06,0.00642375
,,,-1.1E-06,0.00655
,,,-1.09E-06,0.00646625
,,,-1.08E-06,0.0065775
,,,-1.07E-06,0.006380625
,,,-1.06E-06,0.0064275
,,,-1.05E-06,0.00652375
,,,-1.04E-06,0.0062975
,,,-1.03E-06,0.00642375
,,,-1.02E-06,0.006451875
,,,-1.01E-06,0.006491875
,,,-1E-06,0.006378125
,,,-9.9E-07,0.006351875
,,,-9.8E-07,0.00631875
,,,-9.7E-07,0.0064975
,,,-9.6E-07,0.00639625
,,,-9.5E-07,0.00651875
,,,-9.4E-07,0.00659125
,,,-9.3E-07,0.00668875
,,,-9.2E-07,0.00646875
,,,-9.1E-07,0.006360625
,,,-9E-07,0.00633875
,,,-8.9E-07,0.00645125
,,,-8.8E-07,0.00645375
,,,-8.7E-07,0.006343125
,,,-8.6E-07,0.006649375
,,,-8.5E-07,0.006626875
,,,-8.4E-07,0.006516875
,,,-8.3E-07,0.006620625
,,,-8.2E-07,0.006365
,,,-8.1E-07,0.006536875
,,,-8E-07,0.006503125
,,,-7.9E-07,0.006641875
,,,-7.8E-07,0.006543125
,,,-7.7E-07,0.0061125
,,,-7.6E-07,0.006530625
,,,-7.5E-07,0.00641375
,,,-7.4E-07,0.006273125
,,,-7.3E-07,0.0065825
,,,-7.2E-07,0.006388125
,,,-7.1E-07,0.006439375
,,,-7E-07,0.0067325
,,,-6.9E-07,0.006341875
,,,-6.8E-07,0.006541875
,,,-6.7E-07,0.006535
,,,-6.6E-07,0.006396875
,,,-6.5E-07,0.00644625
,,,-6.4E-07,0.006553125
,,,-6.3E-07,0.00641625
,,,-6.2E-07,0.006353125
,,,-6.1E-07,0.006390625
,,,-6E-07,0.006359375
,,,-5.9E-07,0.00658125
,,,-5.8E-07,0.006523125
,,,-5.7E-07,0.006418125
,,,-5.6E-07,0.0063225
,,,-5.5E-07,0.00659625
,,,-5.4E-07,0.006413125
,,,-5.3E-07,0.006460625
,,,-5.2E-07,0.00636375
,,,-5.1E-07,0.00624375
,,,-5E-07,0.00633875
,,,-4.9E-07,0.00655875
,,,-4.8E-07,0.00632625
,,,-4.7E-07,0.0064775
,,,-4.6E-07,0.00641
,,,-4.5E-07,0.006353125
,,,-4.4E-07,0.00636875
,,,-4.3E-07,0.006376875
,,,-4.2E-07,0.006391875
,,,-4.1E-07,0.00657
,,,-4E-07,0.006453125
,,,-3.9E-07,0.006815
,,,-3.8E-07,0.0063525
,,,-3.7E-07,0.00649
,,,-3.6E-07,0.006386875
,,,-3.5E-07,0.006576875
,,,-3.4E-07,0.00642375
,,,-3.3E-07,0.006355625
,,,-3.2E-07,0.006459375
,,,-3.1E-07,0.006383125
,,,-3E-07,0.006469375
,,,-2.9E-07,0.006503125
,,,-2.8E-07,0.006555625
,,,-2.7E-07,0.006514375
,,,-2.6E-07,0.006378125
,,,-2.5E-07,0.00650625
,,,-2.4E-07,0.006409375
,,,-2.3E-07,0.0062725
,,,-2.2E-07,0.006285
,,,-2.1E-07,0.006268125
,,,-2E-07,0.0064525
,,,-1.9E-07,0.0062225
,,,-1.8E-07,0.0066825
,,,-1.7E-07,0.006301875
,,,-1.6E-07,0.00653
,,,-1.5E-07,0.006555
,,,-1.4E-07,0.006478125
,,,-1.3E-07,0.006418125
,,,-1.2E-07,0.006600625
,,,-1.1E-07,0.006645625
,,,-1E-07,0.006569375
,,,-9E-08,0.00616375
,,,-8E-08,0.006244375
,,,-7E-08,0.006318125
,,,-6E-08,0.00664
,,,-5E-08,0.006414375
,,,-4E-08,0.0072075
,,,-3E-08,0.0075825
,,,-2E-08,0.004749375
,,,-1E-08,0.00360625
,,,0,0.0045625
,,,1E-08,0.009061875
,,,2E-08,0.0100475
,,,3E-08,0.008796875
,,,4E-08,0.0053575
,,,5E-08,0.003879375
,,,6E-08,0.003749375
,,,7E-08,0.005654375
,,,8E-08,0.007023125
,,,9E-08,0.008149375
,,,1E-07,0.008146875
,,,1.1E-07,0.006756875
,,,1.2E-07,0.005594375
,,,1.3E-07,0.005495625
,,,1.4E-07,0.005841875
,,,1.5E-07,0.00655875
,,,1.6E-07,0.00675125
,,,1.7E-07,0.00686375
,,,1.8E-07,0.00649125
,,,1.9E-07,0.0067375
,,,2E-07,0.006330625
,,,2.1E-07,0.006209375
,,,2.2E-07,0.006135625
,,,2.3E-07,0.006435625
,,,2.4E-07,0.006466875
,,,2.5E-07,0.006740625
,,,2.6E-07,0.006366875
,,,2.7E-07,0.00651
,,,2.8E-07,0.006703125
,,,2.9E-07,0.006199375
,,,3E-07,0.00641125
,,,3.1E-07,0.006300625
,,,3.2E-07,0.006705625
,,,3.3E-07,0.006585
,,,3.4E-07,0.006783125
,,,3.5E-07,0.00638875
,,,3.6E-07,0.00654625
,,,3.7E-07,0.00657125
,,,3.8E-07,0.0066775
,,,3.9E-07,0.00652625
,,,4E-07,0.006223125
,,,4.1E-07,0.0064975
,,,4.2E-07,0.006298125
,,,4.3E-07,0.006656875
,,,4.4E-07,0.0064975
,,,4.5E-07,0.006396875
,,,4.6E-07,0.00640875
,,,4.7E-07,0.00640125
,,,4.8E-07,0.006244375
,,,4.9E-07,0.0064175
,,,5E-07,0.006514375
,,,5.1E-07,0.006544375
,,,5.2E-07,0.0063875
,,,5.3E-07,0.006468125
,,,5.4E-07,0.006386875
,,,5.5E-07,0.006251875
,,,5.6E-07,0.00651375
,,,5.7E-07,0.00669625
,,,5.8E-07,0.00667875
,,,5.9E-07,0.00636375
,,,6E-07,0.006560625
,,,6.1E-07,0.00635125
,,,6.2E-07,0.006405
,,,6.3E-07,0.006378125
,,,6.4E-07,0.0065225
,,,6.5E-07,0.006379375
,,,6.6E-07,0.006340625
,,,6.7E-07,0.006354375
,,,6.8E-07,0.006365625
,,,6.9E-07,0.006355625
,,,7E-07,0.006438125
,,,7.1E-07,0.006575
,,,7.2E-07,0.00655625
,,,7.3E-07,0.006428125
,,,7.4E-07,0.006525625
,,,7.5E-07,0.006545
,,,7.6E-07,0.0065425
,,,7.7E-07,0.00661
,,,7.8E-07,0.006509375
,,,7.9E-07,0.006371875
,,,8E-07,0.00657125
,,,8.1E-07,0.006531875
,,,8.2E-07,0.006434375
,,,8.3E-07,0.00645
,,,8.4E-07,0.00659875
,,,8.5E-07,0.006241875
,,,8.6E-07,0.006559375
,,,8.7E-07,0.006385
,,,8.8E-07,0.006468125
,,,8.9E-07,0.00663625
,,,9E-07,0.006820625
,,,9.1E-07,0.006749375
,,,9.2E-07,0.00633625
,,,9.3E-07,0.00642625
,,,9.4E-07,0.0063075
,,,9.5E-07,0.006493125
,,,9.6E-07,0.006261875
,,,9.7E-07,0.00656875
,,,9.8E-07,0.006478125
,,,9.9E-07,0.006631875
,,,1E-06,0.006540625
,,,1.01E-06,0.006388125
,,,1.02E-06,0.00643125
,,,1.03E-06,0.00646125
,,,1.04E-06,0.00632875
,,,1.05E-06,0.006351875
,,,1.06E-06,0.006441875
,,,1.07E-06,0.006491875
,,,1.08E-06,0.006415
,,,1.09E-06,0.006278125
,,,1.1E-06,0.006490625
,,,1.11E-06,0.006481875
,,,1.12E-06,0.006470625
,,,1.13E-06,0.00638625
,,,1.14E-06,0.0065575
,,,1.15E-06,0.00630125
,,,1.16E-06,0.0067225
,,,1.17E-06,0.006438125
,,,1.18E-06,0.0063975
,,,1.19E-06,0.006145
,,,1.2E-06,0.00644375
,,,1.21E-06,0.00638875
,,,1.22E-06,0.006478125
,,,1.23E-06,0.006348125
,,,1.24E-06,0.00663875
,,,1.25E-06,0.006504375
,,,1.26E-06,0.006168125
,,,1.27E-06,0.006286875
,,,1.28E-06,0.00659875
,,,1.29E-06,0.006305625
,,,1.3E-06,0.00645125
,,,1.31E-06,0.00631125
,,,1.32E-06,0.006390625
,,,1.33E-06,0.006406875
,,,1.34E-06,0.006235625
,,,1.35E-06,0.0065925
,,,1.36E-06,0.006558125
,,,1.37E-06,0.0063875
,,,1.38E-06,0.0067475
,,,1.39E-06,0.006673125
,,,1.4E-06,0.00647375
,,,1.41E-06,0.00655
,,,1.42E-06,0.00622625
,,,1.43E-06,0.00636125
,,,1.44E-06,0.006455
,,,1.45E-06,0.006496875
,,,1.46E-06,0.006220625
,,,1.47E-06,0.00663
,,,1.48E-06,0.006623125
,,,1.49E-06,0.006608125
,,,1.5E-06,0.006388125
,,,1.51E-06,0.006514375
,,,1.52E-06,0.00629625
,,,1.53E-06,0.006471875
,,,1.54E-06,0.006571875
,,,1.55E-06,0.00627625
,,,1.56E-06,0.00637875
,,,1.57E-06,0.006469375
,,,1.58E-06,0.006446875
,,,1.59E-06,0.006416875
,,,1.6E-06,0.00660875
,,,1.61E-06,0.00646875
,,,1.62E-06,0.00635875
,,,1.63E-06,0.00647125
,,,1.64E-06,0.00634125
,,,1.65E-06,0.0064225
,,,1.66E-06,0.0065125
,,,1.67E-06,0.006648125
,,,1.68E-06,0.006130625
,,,1.69E-06,0.006421875
,,,1.7E-06,0.0063275
,,,1.71E-06,0.00656
,,,1.72E-06,0.006624375
,,,1.73E-06,0.00656875
,,,1.74E-06,0.006621875
,,,1.75E-06,0.0067075
,,,1.76E-06,0.0064275
,,,1.77E-06,0.006483125
,,,1.78E-06,0.00655875
,,,1.79E-06,0.00632
,,,1.8E-06,0.006441875
,,,1.81E-06,0.00632
,,,1.82E-06,0.00652375
,,,1.83E-06,0.00653375
,,,1.84E-06,0.0065675
,,,1.85E-06,0.006435625
,,,1.86E-06,0.00635
,,,1.87E-06,0.00655625
,,,1.88E-06,0.006561875
,,,1.89E-06,0.00666125
,,,1.9E-06,0.00661875
,,,1.91E-06,0.0065875
,,,1.92E-06,0.006351875
,,,1.93E-06,0.006541875
,,,1.94E-06,0.00642125
,,,1.95E-06,0.0064425
,,,1.96E-06,0.0064425
,,,1.97E-06,0.006668125
,,,1.98E-06,0.00633875
,,,1.99E-06,0.00658
,,,2E-06,0.00646375
,,,2.01E-06,0.00628125
,,,2.02E-06,0.006470625
,,,2.03E-06,0.00659875
,,,2.04E-06,0.0064875
,,,2.05E-06,0.006543125
,,,2.06E-06,0.006455
,,,2.07E-06,0.006563125
,,,2.08E-06,0.006564375
,,,2.09E-06,0.0064175
,,,2.1E-06,0.006325
,,,2.11E-06,0.006614375
,,,2.12E-06,0.006573125
,,,2.13E-06,0.00637375
,,,2.14E-06,0.0066725
,,,2.15E-06,0.006494375
,,,2.16E-06,0.00649375
,,,2.17E-06,0.00639
,,,2.18E-06,0.00645625
,,,2.19E-06,0.0064875
,,,2.2E-06,0.006428125
,,,2.21E-06,0.00647
,,,2.22E-06,0.006393125
,,,2.23E-06,0.006768125
,,,2.24E-06,0.006460625
,,,2.25E-06,0.00652125
,,,2.26E-06,0.00640125
,,,2.27E-06,0.006455625
,,,2.28E-06,0.0063
,,,2.29E-06,0.006438125
,,,2.3E-06,0.0065525
,,,2.31E-06,0.00672125
,,,2.32E-06,0.00658125
,,,2.33E-06,0.00662875
,,,2.34E-06,0.00644375
,,,2.35E-06,0.00648
,,,2.36E-06,0.00646375
,,,2.37E-06,0.006315
,,,2.38E-06,0.00638875
,,,2.39E-06,0.006419375
,,,2.4E-06,0.006514375
,,,2.41E-06,0.006551875
,,,2.42E-06,0.00635375
,,,2.43E-06,0.006314375
,,,2.44E-06,0.006500625
,,,2.45E-06,0.0062175
,,,2.46E-06,0.006343125
,,,2.47E-06,0.006496875
,,,2.48E-06,0.00655625
,,,2.49E-06,0.006661875
,,,2.5E-06,0.006340625
,,,2.51E-06,0.006614375
,,,2.52E-06,0.00650625
,,,2.53E-06,0.00617625
,,,2.54E-06,0.006526875
,,,2.55E-06,0.00655875
,,,2.56E-06,0.00651125
,,,2.57E-06,0.006675
,,,2.58E-06,0.006556875
,,,2.59E-06,0.006376875
,,,2.6E-06,0.006454375
,,,2.61E-06,0.00655875
,,,2.62E-06,0.0064875
,,,2.63E-06,0.006609375
,,,2.64E-06,0.006375
,,,2.65E-06,0.006559375
,,,2.66E-06,0.006260625
,,,2.67E-06,0.0063025
,,,2.68E-06,0.0065375
,,,2.69E-06,0.00636625
,,,2.7E-06,0.00621875
,,,2.71E-06,0.00632125
,,,2.72E-06,0.0065725
,,,2.73E-06,0.006564375
,,,2.74E-06,0.006721875
,,,2.75E-06,0.006394375
,,,2.76E-06,0.00636625
,,,2.77E-06,0.006575625
,,,2.78E-06,0.006321875
,,,2.79E-06,0.006174375
,,,2.8E-06,0.006389375
,,,2.81E-06,0.006494375
,,,2.82E-06,0.0065025
,,,2.83E-06,0.006580625
,,,2.84E-06,0.006439375
,,,2.85E-06,0.006460625
,,,2.86E-06,0.006343125
,,,2.87E-06,0.00654
,,,2.88E-06,0.006501875
,,,2.89E-06,0.006544375
,,,2.9E-06,0.006446875
,,,2.91E-06,0.006401875
,,,2.92E-06,0.00652625
,,,2.93E-06,0.006298125
,,,2.94E-06,0.00647625
,,,2.95E-06,0.0066125
,,,2.96E-06,0.006471875
,,,2.97E-06,0.006219375
,,,2.98E-06,0.006355
,,,2.99E-06,0.006529375
,,,3E-06,0.00653875
,,,3.01E-06,0.006293125
,,,3.02E-06,0.00649875
,,,3.03E-06,0.00646625
,,,3.04E-06,0.00659875
,,,3.05E-06,0.006741875
,,,3.06E-06,0.006470625
,,,3.07E-06,0.006418125
,,,3.08E-06,0.006391875
,,,3.09E-06,0.006448125
,,,3.1E-06,0.00657375
,,,3.11E-06,0.00657125
,,,3.12E-06,0.00611
,,,3.13E-06,0.00631
,,,3.14E-06,0.006664375
,,,3.15E-06,0.006375625
,,,3.16E-06,0.00636375
,,,3.17E-06,0.00639125
,,,3.18E-06,0.00657375
,,,3.19E-06,0.00662125
,,,3.2E-06,0.006733125
,,,3.21E-06,0.006505625
,,,3.22E-06,0.006595
,,,3.23E-06,0.006260625
,,,3.24E-06,0.0064675
,,,3.25E-06,0.006568125
,,,3.26E-06,0.006410625
,,,3.27E-06,0.006501875
,,,3.28E-06,0.006493125
,,,3.29E-06,0.006268125
,,,3.3E-06,0.00634375
,,,3.31E-06,0.00649
,,,3.32E-06,0.006345
,,,3.33E-06,0.006560625
,,,3.34E-06,0.00646375
,,,3.35E-06,0.00658125
,,,3.36E-06,0.006313125
,,,3.37E-06,0.00617
,,,3.38E-06,0.0066125
,,,3.39E-06,0.0063775
,,,3.4E-06,0.00673125
,,,3.41E-06,0.00671125
,,,3.42E-06,0.00638625
,,,3.43E-06,0.006495625
,,,3.44E-06,0.006406875
,,,3.45E-06,0.00649625
,,,3.46E-06,0.00637375
,,,3.47E-06,0.00643875
,,,3.48E-06,0.0065375
,,,3.49E-06,0.006188125
,,,3.5E-06,0.006386875
,,,3.51E-06,0.006323125
,,,3.52E-06,0.006528125
,,,3.53E-06,0.006454375
,,,3.54E-06,0.00637
,,,3.55E-06,0.006558125
