data/raw/Final_POL_Test_1/SOP034_Ch2.csv

"Record Length",1000,"Points",-5E-06,0.020325
"Sample Interval",1E-08,s,-4.99E-06,0.02018
"Trigger Point",500,"Samples",-4.98E-06,0.020694375
"Trigger Time",0,s,-4.97E-06,0.020506875
"",,,-4.96E-06,0.020320625
"Horizontal Offset",-5E-06,s,-4.95E-06,0.02049
,,,-4.94E-06,0.020223125
,,,-4.93E-06,0.020216875
,,,-4.92E-06,0.02062125
,,,-4.91E-06,0.020165625
,,,-4.9E-06,0.020165
,,,-4.89E-06,0.020284375
,,,-4.88E-06,0.02047
,,,-4.87E-06,0.020359375
,,,-4.86E-06,0.020315
,,,-4.85E-06,0.02044375
,,,-4.84E-06,0.02051125
,,,-4.83E-06,0.020221875
,,,-4.82E-06,0.020355
,,,-4.81E-06,0.020300625
,,,-4.8E-06,0.020379375
,,,-4.79E-06,0.020231875
,,,-4.78E-06,0.02041875
,,,-4.77E-06,0.020224375
,,,-4.76E-06,0.020468125
,,,-4.75E-06,0.02025
,,,-4.74E-06,0.02046
,,,-4.73E-06,0.02048
,,,-4.72E-06,0.020406875
,,,-4.71E-06,0.020380625
,,,-4.7E-06,0.020435
,,,-4.69E-06,0.02036125
,,,-4.68E-06,0.02023625
,,,-4.67E-06,0.020249375
,,,-4.66E-06,0.020458125
,,,-4.65E-06,0.0203125
,,,-4.64E-06,0.02024625
,,,-4.63E-06,0.020059375
,,,-4.62E-06,0.020225625
,,,-4.61E-06,0.020235625
,,,-4.6E-06,0.02025125
,,,-4.59E-06,0.020335
,,,-4.58E-06,0.020395
,,,-4.57E-06,0.0202225
,,,-4.56E-06,0.020226875
,,,-4.55E-06,0.02027875
,,,-4.54E-06,0.020184375
,,,-4.53E-06,0.020423125
,,,-4.52E-06,0.0202225
,,,-4.51E-06,0.020014375
,,,-4.5E-06,0.02034375
,,,-4.49E-06,0.02037875
,,,-4.48E-06,0.020171875
,,,-4.47E-06,0.020093125
,,,-4.46E-06,0.02032875
,,,-4.45E-06,0.020456875
,,,-4.44E-06,0.02049125
,,,-4.43E-06,0.020391875
,,,-4.42E-06,0.02
,,,-4.41E-06,0.02012625
,,,-4.4E-06,0.02026125
,,,-4.39E-06,0.020134375
,,,-4.38E-06,0.02017125
,,,-4.37E-06,0.020355
,,,-4.36E-06,0.02027125
,,,-4.35E-06,0.02016625
,,,-4.34E-06,0.02039875
,,,-4.33E-06,0.020184375
,,,-4.32E-06,0.02030125
,,,-4.31E-06,0.020436875
,,,-4.3E-06,0.020418125
,,,-4.29E-06,0.020009375
,,,-4.28E-06,0.020214375
,,,-4.27E-06,0.020465625
,,,-4.26E-06,0.02035625
,,,-4.25E-06,0.02027375
,,,-4.24E-06,0.020193125
,,,-4.23E-06,0.020349375
,,,-4.22E-06,0.020361875
,,,-4.21E-06,0.020221875
,,,-4.2E-06,0.02033
,,,-4.19E-06,0.020295625
,,,-4.18E-06,0.02028875
,,,-4.17E-06,0.020535625
,,,-4.16E-06,0.020080625
,,,-4.15E-06,0.020255625
,,,-4.14E-06,0.020524375
,,,-4.13E-06,0.020313125
,,,-4.12E-06,0.02041875
,,,-4.11E-06,0.020340625
,,,-4.1E-06,0.020424375
,,,-4.09E-06,0.020593125
,,,-4.08E-06,0.020314375
,,,-4.07E-06,0.020468125
,,,-4.06E-06,0.020340625
,,,-4.05E-06,0.0203775
,,,-4.04E-06,0.02035625
,,,-4.03E-06,0.020341875
,,,-4.02E-06,0.02024125
,,,-4.01E-06,0.020435625
,,,-4E-06,0.02025
,,,-3.99E-06,0.02031
,,,-3.98E-06,0.020233125
,,,-3.97E-06,0.020313125
,,,-3.96E-06,0.02035375
,,,-3.95E-06,0.020296875
,,,-3.94E-06,0.020314375
,,,-3.93E-06,0.020381875
,,,-3.92E-06,0.020299375
,,,-3.91E-06,0.02025
,,,-3.9E-06,0.0204
,,,-3.89E-06,0.020370625
,,,-3.88E-06,0.0203625
,,,-3.87E-06,0.0200925
,,,-3.86E-06,0.020566875
,,,-3.85E-06,0.020314375
,,,-3.84E-06,0.020256875
,,,-3.83E-06,0.02021
,,,-3.82E-06,0.02024875
,,,-3.81E-06,0.020276875
,,,-3.8E-06,0.02046375
,,,-3.79E-06,0.020270625
,,,-3.78E-06,0.020320625
,,,-3.77E-06,0.020261875
,,,-3.76E-06,0.020191875
,,,-3.75E-06,0.0203625
,,,-3.74E-06,0.020498125
,,,-3.73E-06,0.02050125
,,,-3.72E-06,0.020364375
,,,-3.71E-06,0.020439375
,,,-3.7E-06,0.0204275
,,,-3.69E-06,0.020226875
,,,-3.68E-06,0.02041625
,,,-3.67E-06,0.020321875
,,,-3.66E-06,0.020434375
,,,-3.65E-06,0.0201725
,,,-3.64E-06,0.02020875
,,,-3.63E-06,0.020336875
,,,-3.62E-06,0.020265
,,,-3.61E-06,0.020514375
,,,-3.6E-06,0.020403125
,,,-3.59E-06,0.0202
,,,-3.58E-06,0.020219375
,,,-3.57E-06,0.020331875
,,,-3.56E-06,0.0201625
,,,-3.55E-06,0.020378125
,,,-3.54E-06,0.020425625
,,,-3.53E-06,0.02052125
,,,-3.52E-06,0.020226875
,,,-3.51E-06,0.02021875
,,,-3.5E-06,0.020201875
,,,-3.49E-06,0.020429375
,,,-3.48E-06,0.020274375
,,,-3.47E-06,0.02036125
,,,-3.46E-06,0.0203225
,,,-3.45E-06,0.02010625
,,,-3.44E-06,0.02011125
,,,-3.43E-06,0.020405625
,,,-3.42E-06,0.020390625
,,,-3.41E-06,0.02004875
,,,-3.4E-06,0.02012
,,,-3.39E-06,0.02054625
,,,-3.38E-06,0.02048875
,,,-3.37E-06,0.02038875
,,,-3.36E-06,0.020440625
,,,-3.35E-06,0.0202575
,,,-3.34E-06,0.020303125
,,,-3.33E-06,0.020424375
,,,-3.32E-06,0.020205625
,,,-3.31E-06,0.020314375
,,,-3.3E-06,0.0205325
,,,-3.29E-06,0.020361875
,,,-3.28E-06,0.02028625
,,,-3.27E-06,0.02034875
,,,-3.26E-06,0.0204825
,,,-3.25E-06,0.020234375
,,,-3.24E-06,0.020316875
,,,-3.23E-06,0.020148125
,,,-3.22E-06,0.0204625
,,,-3.21E-06,0.020346875
,,,-3.2E-06,0.02044375
,,,-3.19E-06,0.02048125
,,,-3.18E-06,0.02036875
,,,-3.17E-06,0.020036875
,,,-3.16E-06,0.020598125
,,,-3.15E-06,0.020373125
,,,-3.14E-06,0.02029
,,,-3.13E-06,0.020486875
,,,-3.12E-06,0.020353125
,,,-3.11E-06,0.020365
,,,-3.1E-06,0.0205175
,,,-3.09E-06,0.020400625
,,,-3.08E-06,0.020446875
,,,-3.07E-06,0.020505
,,,-3.06E-06,0.020244375
,,,-3.05E-06,0.020229375
,,,-3.04E-06,0.020411875
,,,-3.03E-06,0.02025625
,,,-3.02E-06,0.02046375
,,,-3.01E-06,0.02021625
,,,-3E-06,0.02029625
,,,-2.99E-06,0.0201175
,,,-2.98E-06,0.020515
,,,-2.97E-06,0.020513125
,,,-2.96E-06,0.020489375
,,,-2.95E-06,0.020263125
,,,-2.94E-06,0.020226875
,,,-2.93E-06,0.0204025
,,,-2.92E-06,0.0204125
,,,-2.91E-06,0.02039875
,,,-2.9E-06,0.0202675
,,,-2.89E-06,0.0204275
,,,-2.88E-06,0.020410625
,,,-2.87E-06,0.020500625
,,,-2.86E-06,0.020549375
,,,-2.85E-06,0.020278125
,,,-2.84E-06,0.020236875
,,,-2.83E-06,0.020225625
,,,-2.82E-06,0.02043125
,,,-2.81E-06,0.02006875
,,,-2.8E-06,0.0203725
,,,-2.79E-06,0.0203975
,,,-2.78E-06,0.02032
,,,-2.77E-06,0.020283125
,,,-2.76E-06,0.0202125
,,,-2.75E-06,0.020390625
,,,-2.74E-06,0.02051
,,,-2.73E-06,0.020325
,,,-2.72E-06,0.020430625
,,,-2.71E-06,0.020153125
,,,-2.7E-06,0.0201675
,,,-2.69E-06,0.020336875
,,,-2.68E-06,0.02036875
,,,-2.67E-06,0.020174375
,,,-2.66E-06,0.0202975
,,,-2.65E-06,0.02036125
,,,-2.64E-06,0.020363125
,,,-2.63E-06,0.020276875
,,,-2.62E-06,0.020309375
,,,-2.61E-06,0.020455
,,,-2.6E-06,0.020169375
,,,-2.59E-06,0.02039
,,,-2.58E-06,0.02031375
,,,-2.57E-06,0.02059125
,,,-2.56E-06,0.0204075
,,,-2.55E-06,0.02051125
,,,-2.54E-06,0.020354375
,,,-2.53E-06,0.0205575
,,,-2.52E-06,0.0202475
,,,-2.51E-06,0.02043125
,,,-2.5E-06,0.020404375
,,,-2.49E-06,0.020244375
,,,-2.48E-06,0.020271875
,,,-2.47E-06,0.020015625
,,,-2.46E-06,0.02042
,,,-2.45E-06,0.02018875
,,,-2.44E-06,0.0203825
,,,-2.43E-06,0.02030125
,,,-2.42E-06,0.02016
,,,-2.41E-06,0.020205
,,,-2.4E-06,0.0203375
,,,-2.39E-06,0.020465625
,,,-2.38E-06,0.020558125
,,,-2.37E-06,0.020029375
,,,-2.36E-06,0.020146875
,,,-2.35E-06,0.020280625
,,,-2.34E-06,0.020341875
,,,-2.33E-06,0.0203125
,,,-2.32E-06,0.0200975
,,,-2.31E-06,0.02041625
,,,-2.3E-06,0.020359375
,,,-2.29E-06,0.020236875
,,,-2.28E-06,0.02038375
,,,-2.27E-06,0.02049125
,,,-2.26E-06,0.02049875
,,,-2.25E-06,0.02058375
,,,-2.24E-06,0.0201775
,,,-2.23E-06,0.020370625
,,,-2.22E-06,0.0203175
,,,-2.21E-06,0.020553125
,,,-2.2E-06,0.020343125
,,,-2.19E-06,0.020198125
,,,-2.18E-06,0.020285625
,,,-2.17E-06,0.02050125
,,,-2.16E-06,0.020434375
,,,-2.15E-06,0.020306875
,,,-2.14E-06,0.020380625
,,,-2.13E-06,0.020304375
,,,-2.12E-06,0.02023
,,,-2.11E-06,0.020228125
,,,-2.1E-06,0.02002875
,,,-2.09E-06,0.02033
,,,-2.08E-06,0.020419375
,,,-2.07E-06,0.02005375
,,,-2.06E-06,0.020015625
,,,-2.05E-06,0.020301875
,,,-2.04E-06,0.02030375
,,,-2.03E-06,0.020359375
,,,-2.02E-06,0.0202725
,,,-2.01E-06,0.020215625
,,,-2E-06,0.0204275
,,,-1.99E-06,0.020314375
,,,-1.98E-06,0.02040125
,,,-1.97E-06,0.02037125
,,,-1.96E-06,0.020349375
,,,-1.95E-06,0.02039
,,,-1.94E-06,0.020575625
,,,-1.93E-06,0.020555625
,,,-1.92E-06,0.02038625
,,,-1.91E-06,0.02009
,,,-1.9E-06,0.020301875
,,,-1.89E-06,0.02038875
,,,-1.88E-06,0.0203625
,,,-1.87E-06,0.020405625
,,,-1.86E-06,0.02002125
,,,-1.85E-06,0.020486875
,,,-1.84E-06,0.02034375
,,,-1.83E-06,0.0202325
,,,-1.82E-06,0.020581875
,,,-1.81E-06,0.020585625
,,,-1.8E-06,0.020365
,,,-1.79E-06,0.0200625
,,,-1.78E-06,0.020525625
,,,-1.77E-06,0.020183125
,,,-1.76E-06,0.020275
,,,-1.75E-06,0.020528125
,,,-1.74E-06,0.020233125
,,,-1.73E-06,0.020408125
,,,-1.72E-06,0.020301875
,,,-1.71E-06,0.020213125
,,,-1.7E-06,0.02047
,,,-1.69E-06,0.020236875
,,,-1.68E-06,0.020353125
,,,-1.67E-06,0.020065625
,,,-1.66E-06,0.02052
,,,-1.65E-06,0.0203075
,,,-1.64E-06,0.02004125
,,,-1.63E-06,0.02044875
,,,-1.62E-06,0.020311875
,,,-1.61E-06,0.02013875
,,,-1.6E-06,0.02021875
,,,-1.59E-06,0.020349375
,,,-1.58E-06,0.02052875
,,,-1.57E-06,0.020241875
,,,-1.56E-06,0.020226875
,,,-1.55E-06,0.02026
,,,-1.54E-06,0.020171875
,,,-1.53E-06,0.02036625
,,,-1.52E-06,0.02029625
,,,-1.51E-06,0.020393125
,,,-1.5E-06,0.0202575
,,,-1.49E-06,0.020373125
,,,-1.48E-06,0.0202575
,,,-1.47E-06,0.0203875
,,,-1.46E-06,0.020471875
,,,-1.45E-06,0.020510625
,,,-1.44E-06,0.02005125
,,,-1.43E-06,0.020220625
,,,-1.42E-06,0.0202575
,,,-1.41E-06,0.020470625
,,,-1.4E-06,0.020485625
,,,-1.39E-06,0.020299375
,,,-1.38E-06,0.02022125
,,,-1.37E-06,0.020410625
,,,-1.36E-06,0.02009125
,,,-1.35E-06,0.020135625
,,,-1.34E-06,0.020071875
,,,-1.33E-06,0.020061875
,,,-1.32E-06,0.020421875
,,,-1.31E-06,0.02025875
,,,-1.3E-06,0.0202225
,,,-1.29E-06,0.020308125
,,,-1.28E-06,0.020349375
,,,-1.27E-06,0.0203
,,,-1.26E-06,0.02035625
,,,-1.25E-06,0.02039375
,,,-1.24E-06,0.020473125
,,,-1.23E-06,0.02057875
,,,-1.22E-06,0.020456875
,,,-1.21E-06,0.020243125
,,,-1.2E-06,0.020410625
,,,-1.19E-06,0.02011375
,,,-1.18E-06,0.020344375
,,,-1.17E-06,0.02030875
,,,-1.16E-06,0.02036875
,,,-1.15E-06,0.020304375
,,,-1.14E-06,0.020185
,,,-1.13E-06,0.020384375
,,,-1.12E-06,0.020216875
,,,-1.11E-06,0.020686875
,,,-1.1E-06,0.020221875
,,,-1.09E-06,0.0204575
,,,-1.08E-06,0.020326875
,,,-1.07E-06,0.02036125
,,,-1.06E-06,0.020144375
,,,-1.05E-06,0.020435625
,,,-1.04E-06,0.020433125
,,,-1.03E-06,0.020304375
,,,-1.02E-06,0.0203725
,,,-1.01E-06,0.02010375
,,,-1E-06,0.02021875
,,,-9.9E-07,0.02036125
,,,-9.8E-07,0.020391875
,,,-9.7E-07,0.02040125
,,,-9.6E-07,0.02050875
,,,-9.5E-07,0.02010875
,,,-9.4E-07,0.020333125
,,,-9.3E-07,0.0206075
,,,-9.2E-07,0.020300625
,,,-9.1E-07,0.020329375
,,,-9E-07,0.02033875
,,,-8.9E-07,0.02030375
,,,-8.8E-07,0.02064
,,,-8.7E-07,0.020341875
,,,-8.6E-07,0.020559375
,,,-8.5E-07,0.02033875
,,,-8.4E-07,0.02049875
,,,-8.3E-07,0.020353125
,,,-8.2E-07,0.020303125
,,,-8.1E-07,0.020413125
,,,-8E-07,0.020345
,,,-7.9E-07,0.020656875
,,,-7.8E-07,0.020244375
,,,-7.7E-07,0.020228125
,,,-7.6E-07,0.020564375
,,,-7.5E-07,0.020304375
,,,-7.4E-07,0.020399375
,,,-7.3E-07,0.020394375
,,,-7.2E-07,0.0202575
,,,-7.1E-07,0.02026375
,,,-7E-07,0.02024125
,,,-6.9E-07,0.020434375
,,,-6.8E-07,0.020273125
,,,-6.7E-07,0.02032125
,,,-6.6E-07,0.02030375
,,,-6.5E-07,0.02030375
,,,-6.4E-07,0.020155
,,,-6.3E-07,0.02033125
,,,-6.2E-07,0.0202175
,,,-6.1E-07,0.0200075
,,,-6E-07,0.020239375
,,,-5.9E-07,0.020333125
,,,-5.8E-07,0.02019625
,,,-5.7E-07,0.020229375
,,,-5.6E-07,0.0202075
,,,-5.5E-07,0.0203625
,,,-5.4E-07,0.020364375
,,,-5.3E-07,0.02045625
,,,-5.2E-07,0.020426875
,,,-5.1E-07,0.020204375
,,,-5E-07,0.02018875
,,,-4.9E-07,0.02035625
,,,-4.8E-07,0.020173125
,,,-4.7E-07,0.020134375
,,,-4.6E-07,0.02005125
,,,-4.5E-07,0.02017875
,,,-4.4E-07,0.020523125
,,,-4.3E-07,0.020293125
,,,-4.2E-07,0.02023125
,,,-4.1E-07,0.020178125
,,,-4E-07,0.020099375
,,,-3.9E-07,0.020165
,,,-3.8E-07,0.02036625
,,,-3.7E-07,0.020496875
,,,-3.6E-07,0.020381875
,,,-3.5E-07,0.020308125
,,,-3.4E-07,0.020320625
,,,-3.3E-07,0.020294375
,,,-3.2E-07,0.02035625
,,,-3.1E-07,0.02024125
,,,-3E-07,0.0201725
,,,-2.9E-07,0.0203025
,,,-2.8E-07,0.02021
,,,-2.7E-07,0.020321875
,,,-2.6E-07,0.020406875
,,,-2.5E-07,0.020143125
,,,-2.4E-07,0.020273125
,,,-2.3E-07,0.0202425
,,,-2.2E-07,0.0200725
,,,-2.1E-07,0.020555
,,,-2E-07,0.02023
,,,-1.9E-07,0.020453125
,,,-1.8E-07,0.02014875
,,,-1.7E-07,0.02008875
,,,-1.6E-07,0.0206225
,,,-1.5E-07,0.020150625
,,,-1.4E-07,0.020385625
,,,-1.3E-07,0.020163125
,,,-1.2E-07,0.020440625
,,,-1.1E-07,0.020430625
,,,-1E-07,0.020511875
,,,-9E-08,0.020251875
,,,-8E-08,0.02027
,,,-7E-08,0.02032375
,,,-6E-08,0.020196875
,,,-5E-08,0.020106875
,,,-4E-08,0.02030375
,,,-3E-08,0.020773125
,,,-2E-08,0.019815625
,,,-1E-08,0.019421875
,,,0,0.01945
,,,1E-08,0.02111375
,,,2E-08,0.02146375
,,,3E-08,0.02111375
,,,4E-08,0.019895
,,,5E-08,0.019400625
,,,6E-08,0.019385625
,,,7E-08,0.02022625
,,,8E-08,0.020873125
,,,9E-08,0.02117
,,,1E-07,0.020880625
,,,1.1E-07,0.02043625
,,,1.2E-07,0.019886875
,,,1.3E-07,0.019783125
,,,1.4E-07,0.020126875
,,,1.5E-07,0.02051
,,,1.6E-07,0.020525
,,,1.7E-07,0.020335
,,,1.8E-07,0.020404375
,,,1.9E-07,0.020421875
,,,2E-07,0.02053125
,,,2.1E-07,0.020249375
,,,2.2E-07,0.020184375
,,,2.3E-07,0.020473125
,,,2.4E-07,0.020444375
,,,2.5E-07,0.020430625
,,,2.6E-07,0.020366875
,,,2.7E-07,0.020315
,,,2.8E-07,0.02041
,,,2.9E-07,0.020153125
,,,3E-07,0.0201725
,,,3.1E-07,0.020289375
,,,3.2E-07,0.020505625
,,,3.3E-07,0.020411875
,,,3.4E-07,0.020540625
,,,3.5E-07,0.020318125
,,,3.6E-07,0.02004875
,,,3.7E-07,0.020155625
,,,3.8E-07,0.0202375
,,,3.9E-07,0.020256875
,,,4E-07,0.0202425
,,,4.1E-07,0.02038375
,,,4.2E-07,0.0202125
,,,4.3E-07,0.020335
,,,4.4E-07,0.020498125
,,,4.5E-07,0.020398125
,,,4.6E-07,0.020515
,,,4.7E-07,0.02019
,,,4.8E-07,0.02045375
,,,4.9E-07,0.02043
,,,5E-07,0.0202725
,,,5.1E-07,0.0203725
,,,5.2E-07,0.02014375
,,,5.3E-07,0.020318125
,,,5.4E-07,0.020161875
,,,5.5E-07,0.02038
,,,5.6E-07,0.020418125
,,,5.7E-07,0.020189375
,,,5.8E-07,0.020371875
,,,5.9E-07,0.020428125
,,,6E-07,0.02037125
,,,6.1E-07,0.02036375
,,,6.2E-07,0.020033125
,,,6.3E-07,0.020358125
,,,6.4E-07,0.02026125
,,,6.5E-07,0.020356875
,,,6.6E-07,0.020311875
,,,6.7E-07,0.020154375
,,,6.8E-07,0.02038875
,,,6.9E-07,0.020329375
,,,7E-07,0.0205925
,,,7.1E-07,0.0202775
,,,7.2E-07,0.020445625
,,,7.3E-07,0.020288125
,,,7.4E-07,0.02012625
,,,7.5E-07,0.0202675
,,,7.6E-07,0.02032125
,,,7.7E-07,0.02030625
,,,7.8E-07,0.020245
,,,7.9E-07,0.020275
,,,8E-07,0.020398125
,,,8.1E-07,0.020395625
,,,8.2E-07,0.02024875
,,,8.3E-07,0.020400625
,,,8.4E-07,0.02038
,,,8.5E-07,0.020295625
,,,8.6E-07,0.020376875
,,,8.7E-07,0.02011
,,,8.8E-07,0.020174375
,,,8.9E-07,0.020131875
,,,9E-07,0.020153125
,,,9.1E-07,0.020379375
,,,9.2E-07,0.020220625
,,,9.3E-07,0.0203025
,,,9.4E-07,0.020115
,,,9.5E-07,0.020476875
,,,9.6E-07,0.02024375
,,,9.7E-07,0.02043625
,,,9.8E-07,0.0201575
,,,9.9E-07,0.020039375
,,,1E-06,0.020411875
,,,1.01E-06,0.019958125
,,,1.02E-06,0.020278125
,,,1.03E-06,0.020319375
,,,1.04E-06,0.020234375
,,,1.05E-06,0.020351875
,,,1.06E-06,0.0204275
,,,1.07E-06,0.02028625
,,,1.08E-06,0.02048375
,,,1.09E-06,0.020336875
,,,1.1E-06,0.020065625
,,,1.11E-06,0.0203
,,,1.12E-06,0.020375
,,,1.13E-06,0.020145
,,,1.14E-06,0.020321875
,,,1.15E-06,0.020168125
,,,1.16E-06,0.02044
,,,1.17E-06,0.0201825
,,,1.18E-06,0.020506875
,,,1.19E-06,0.020266875
,,,1.2E-06,0.0202
,,,1.21E-06,0.020518125
,,,1.22E-06,0.020084375
,,,1.23E-06,0.02016125
,,,1.24E-06,0.0204125
,,,1.25E-06,0.020350625
,,,1.26E-06,0.0205225
,,,1.27E-06,0.02052125
,,,1.28E-06,0.0202925
,,,1.29E-06,0.0202975
,,,1.3E-06,0.020128125
,,,1.31E-06,0.02033
,,,1.32E-06,0.0201875
,,,1.33E-06,0.020200625
,,,1.34E-06,0.0206375
,,,1.35E-06,0.0203
,,,1.36E-06,0.020428125
,,,1.37E-06,0.02037125
,,,1.38E-06,0.02034375
,,,1.39E-06,0.020350625
,,,1.4E-06,0.0204975
,,,1.41E-06,0.020306875
,,,1.42E-06,0.020145
,,,1.43E-06,0.02039375
,,,1.44E-06,0.020128125
,,,1.45E-06,0.020246875
,,,1.46E-06,0.020365
,,,1.47E-06,0.020448125
,,,1.48E-06,0.0204375
,,,1.49E-06,0.020275
,,,1.5E-06,0.020159375
,,,1.51E-06,0.020125
,,,1.52E-06,0.020334375
,,,1.53E-06,0.020305625
,,,1.54E-06,0.020136875
,,,1.55E-06,0.020268125
,,,1.56E-06,0.020460625
,,,1.57E-06,0.0205725
,,,1.58E-06,0.020266875
,,,1.59E-06,0.020231875
,,,1.6E-06,0.020306875
,,,1.61E-06,0.0202075
,,,1.62E-06,0.02020625
,,,1.63E-06,0.020378125
,,,1.64E-06,0.0205
,,,1.65E-06,0.020336875
,,,1.66E-06,0.02045875
,,,1.67E-06,0.0202525
,,,1.68E-06,0.020138125
,,,1.69E-06,0.020391875
,,,1.7E-06,0.02039375
,,,1.71E-06,0.020305
,,,1.72E-06,0.02037125
,,,1.73E-06,0.02042375
,,,1.74E-06,0.02043625
,,,1.75E-06,0.020433125
,,,1.76E-06,0.020164375
,,,1.77E-06,0.020359375
,,,1.78E-06,0.020205625
,,,1.79E-06,0.02050375
,,,1.8E-06,0.020345625
,,,1.81E-06,0.020301875
,,,1.82E-06,0.020065
,,,1.83E-06,0.020075
,,,1.84E-06,0.0203225
,,,1.85E-06,0.020296875
,,,1.86E-06,0.020319375
,,,1.87E-06,0.020025625
,,,1.88E-06,0.0203725
,,,1.89E-06,0.02048
,,,1.9E-06,0.0204175
,,,1.91E-06,0.0201575
,,,1.92E-06,0.020485
,,,1.93E-06,0.0205475
,,,1.94E-06,0.020041875
,,,1.95E-06,0.020113125
,,,1.96E-06,0.020315625
,,,1.97E-06,0.020341875
,,,1.98E-06,0.020419375
,,,1.99E-06,0.020355
,,,2E-06,0.020440625
,,,2.01E-06,0.020415
,,,2.02E-06,0.020320625
,,,2.03E-06,0.02014375
,,,2.04E-06,0.02056125
,,,2.05E-06,0.020284375
,,,2.06E-06,0.020249375
,,,2.07E-06,0.02038875
,,,2.08E-06,0.020460625
,,,2.09E-06,0.020365
,,,2.1E-06,0.02029875
,,,2.11E-06,0.020318125
,,,2.12E-06,0.020511875
,,,2.13E-06,0.02018375
,,,2.14E-06,0.020331875
,,,2.15E-06,0.020388125
,,,2.16E-06,0.020134375
,,,2.17E-06,0.02036125
,,,2.18E-06,0.020475
,,,2.19E-06,0.02010875
,,,2.2E-06,0.01995125
,,,2.21E-06,0.020255
,,,2.22E-06,0.020334375
,,,2.23E-06,0.020295625
,,,2.24E-06,0.02039875
,,,2.25E-06,0.020106875
,,,2.26E-06,0.0202
,,,2.27E-06,0.020185625
,,,2.28E-06,0.02026
,,,2.29E-06,0.020348125
,,,2.3E-06,0.020136875
,,,2.31E-06,0.020398125
,,,2.32E-06,0.020223125
,,,2.33E-06,0.020316875
,,,2.34E-06,0.020384375
,,,2.35E-06,0.020515625
,,,2.36E-06,0.020294375
,,,2.37E-06,0.0203825
,,,2.38E-06,0.020385625
,,,2.39E-06,0.020274375
,,,2.4E-06,0.020351875
,,,2.41E-06,0.02037125
,,,2.42E-06,0.02026875
,,,2.43E-06,0.020271875
,,,2.44E-06,0.02056375
,,,2.45E-06,0.020293125
,,,2.46E-06,0.020175
,,,2.47E-06,0.0205125
,,,2.48E-06,0.020513125
,,,2.49E-06,0.020561875
,,,2.5E-06,0.020293125
,,,2.51E-06,0.020093125
,,,2.52E-06,0.02033875
,,,2.53E-06,0.02020125
,,,2.54E-06,0.020506875
,,,2.55E-06,0.020454375
,,,2.56E-06,0.020215625
,,,2.57E-06,0.02047625
,,,2.58E-06,0.020163125
,,,2.59E-06,0.020335
,,,2.6E-06,0.02013375
,,,2.61E-06,0.020218125
,,,2.62E-06,0.02025625
,,,2.63E-06,0.02021375
,,,2.64E-06,0.020293125
,,,2.65E-06,0.0202425
,,,2.66E-06,0.0204375
,,,2.67E-06,0.02051
,,,2.68E-06,0.020095
,,,2.69E-06,0.0200775
,,,2.7E-06,0.020189375
,,,2.71E-06,0.020429375
,,,2.72E-06,0.02027625
,,,2.73E-06,0.020485625
,,,2.74E-06,0.020306875
,,,2.75E-06,0.02030125
,,,2.76E-06,0.02023
,,,2.77E-06,0.0203425
,,,2.78E-06,0.020210625
,,,2.79E-06,0.020233125
,,,2.8E-06,0.020485625
,,,2.81E-06,0.02022125
,,,2.82E-06,0.020313125
,,,2.83E-06,0.020149375
,,,2.84E-06,0.02037
,,,2.85E-06,0.0201375
,,,2.86E-06,0.02039125
,,,2.87E-06,0.020348125
,,,2.88E-06,0.020245625
,,,2.89E-06,0.020245625
,,,2.9E-06,0.020420625
,,,2.91E-06,0.020291875
,,,2.92E-06,0.020461875
,,,2.93E-06,0.020209375
,,,2.94E-06,0.02007375
,,,2.95E-06,0.020088125
,,,2.96E-06,0.020286875
,,,2.97E-06,0.0200125
,,,2.98E-06,0.01993625
,,,2.99E-06,0.02025125
,,,3E-06,0.02020625
,,,3.01E-06,0.020116875
,,,3.02E-06,0.020326875
,,,3.03E-06,0.020171875
,,,3.04E-06,0.020345625
,,,3.05E-06,0.02013875
,,,3.06E-06,0.02019875
,,,3.07E-06,0.02061
,,,3.08E-06,0.0201875
,,,3.09E-06,0.020421875
,,,3.1E-06,0.020390625
,,,3.11E-06,0.020465625
,,,3.12E-06,0.0203475
,,,3.13E-06,0.020485
,,,3.14E-06,0.0205225
,,,3.15E-06,0.0201525
,,,3.16E-06,0.020133125
,,,3.17E-06,0.02009
,,,3.18E-06,0.02030625
,,,3.19E-06,0.020245
,,,3.2E-06,0.020424375
,,,3.21E-06,0.02022
,,,3.22E-06,0.020369375
,,,3.23E-06,0.02002625
,,,3.24E-06,0.0202975
,,,3.25E-06,0.02029625
,,,3.26E-06,0.020265625
,,,3.27E-06,0.020373125
,,,3.28E-06,0.020229375
,,,3.29E-06,0.02021125
,,,3.3E-06,0.020505
,,,3.31E-06,0.02037625
,,,3.32E-06,0.02024
,,,3.33E-06,0.0201725
,,,3.34E-06,0.0202275
,,,3.35E-06,0.02006875
,,,3.36E-06,0.02026
,,,3.37E-06,0.02034625
,,,3.38E-06,0.02034
,,,3.39E-06,0.020224375
,,,3.4E-06,0.020198125
,,,3.41E-06,0.0203375
,,,3.42E-06,0.020231875
,,,3.43E-06,0.019946875
,,,3.44E-06,0.02025375
,,,3.45E-06,0.020563125
,,,3.46E-06,0.020245625
,,,3.47E-06,0.020375
,,,3.48E-06,0.020129375
,,,3.49E-06,0.02018375
,,,3.5E-06,0.020470625
,,,3.51E-06,0.020349375
,,,3.52E-06,0.020230625
,,,3.53E-06,0.02034875
,,,3.54E-06,0.020253125
,,,3.55E-06,0.02061375
