data/raw/Final_POL_Test_1/SOP012_Ch1.csv

"Record Length",1000,"Points",-5E-06,0.007628125
"Sample Interval",1E-08,s,-4.99E-06,0.007561875
"Trigger Point",500,"Samples",-4.98E-06,0.00789875
"Trigger Time",0,s,-4.97E-06,0.007700625
"",,,-4.96E-06,0.007683125
"Horizontal Offset",-5E-06,s,-4.95E-06,0.00759875
,,,-4.94E-06,0.007624375
,,,-4.93E-06,0.007638125
,,,-4.92E-06,0.0076475
,,,-4.91E-06,0.007800625
,,,-4.9E-06,0.00771375
,,,-4.89E-06,0.007655
,,,-4.88E-06,0.00765875
,,,-4.87E-06,0.007696875
,,,-4.86E-06,0.007485625
,,,-4.85E-06,0.007546875
,,,-4.84E-06,0.007569375
,,,-4.83E-06,0.007705
,,,-4.82E-06,0.007605
,,,-4.81E-06,0.007503125
,,,-4.8E-06,0.007431875
,,,-4.79E-06,0.007638125
,,,-4.78E-06,0.007748125
,,,-4.77E-06,0.007495
,,,-4.76E-06,0.00760375
,,,-4.75E-06,0.00751125
,,,-4.74E-06,0.00748875
,,,-4.73E-06,0.00755875
,,,-4.72E-06,0.0076425
,,,-4.71E-06,0.007324375
,,,-4.7E-06,0.007575625
,,,-4.69E-06,0.00752625
,,,-4.68E-06,0.007389375
,,,-4.67E-06,0.0077525
,,,-4.66E-06,0.007668125
,,,-4.65E-06,0.007831875
,,,-4.64E-06,0.007555625
,,,-4.63E-06,0.007498125
,,,-4.62E-06,0.007651875
,,,-4.61E-06,0.00741125
,,,-4.6E-06,0.007563125
,,,-4.59E-06,0.007655625
,,,-4.58E-06,0.00753125
,,,-4.57E-06,0.007409375
,,,-4.56E-06,0.007456875
,,,-4.55E-06,0.0077025
,,,-4.54E-06,0.007613125
,,,-4.53E-06,0.0072975
,,,-4.52E-06,0.0075775
,,,-4.51E-06,0.00743625
,,,-4.5E-06,0.00760125
,,,-4.49E-06,0.007886875
,,,-4.48E-06,0.0075375
,,,-4.47E-06,0.007304375
,,,-4.46E-06,0.00771125
,,,-4.45E-06,0.007458125
,,,-4.44E-06,0.0075475
,,,-4.43E-06,0.007554375
,,,-4.42E-06,0.007640625
,,,-4.41E-06,0.007803125
,,,-4.4E-06,0.00753125
,,,-4.39E-06,0.0076975
,,,-4.38E-06,0.00753
,,,-4.37E-06,0.007624375
,,,-4.36E-06,0.0075675
,,,-4.35E-06,0.007563125
,,,-4.34E-06,0.007441875
,,,-4.33E-06,0.007870625
,,,-4.32E-06,0.007505
,,,-4.31E-06,0.007601875
,,,-4.3E-06,0.007375
,,,-4.29E-06,0.00758
,,,-4.28E-06,0.007511875
,,,-4.27E-06,0.007620625
,,,-4.26E-06,0.007505625
,,,-4.25E-06,0.00764625
,,,-4.24E-06,0.007755625
,,,-4.23E-06,0.0075725
,,,-4.22E-06,0.007686875
,,,-4.21E-06,0.007675625
,,,-4.2E-06,0.00784625
,,,-4.19E-06,0.00764625
,,,-4.18E-06,0.0075325
,,,-4.17E-06,0.007738125
,,,-4.16E-06,0.00754
,,,-4.15E-06,0.00747625
,,,-4.14E-06,0.007556875
,,,-4.13E-06,0.007556875
,,,-4.12E-06,0.007671875
,,,-4.11E-06,0.007595625
,,,-4.1E-06,0.007636875
,,,-4.09E-06,0.0076075
,,,-4.08E-06,0.007524375
,,,-4.07E-06,0.007651875
,,,-4.06E-06,0.007509375
,,,-4.05E-06,0.007525625
,,,-4.04E-06,0.00744875
,,,-4.03E-06,0.007345625
,,,-4.02E-06,0.0074875
,,,-4.01E-06,0.00768
,,,-4E-06,0.00759125
,,,-3.99E-06,0.0074
,,,-3.98E-06,0.00747625
,,,-3.97E-06,0.007735625
,,,-3.96E-06,0.007464375
,,,-3.95E-06,0.0075575
,,,-3.94E-06,0.0075875
,,,-3.93E-06,0.00748
,,,-3.92E-06,0.00759875
,,,-3.91E-06,0.0073425
,,,-3.9E-06,0.007849375
,,,-3.89E-06,0.0074625
,,,-3.88E-06,0.007741875
,,,-3.87E-06,0.0078825
,,,-3.86E-06,0.00758375
,,,-3.85E-06,0.007668125
,,,-3.84E-06,0.007626875
,,,-3.83E-06,0.0076225
,,,-3.82E-06,0.0076575
,,,-3.81E-06,0.00732625
,,,-3.8E-06,0.007464375
,,,-3.79E-06,0.00749375
,,,-3.78E-06,0.007611875
,,,-3.77E-06,0.00779625
,,,-3.76E-06,0.007395
,,,-3.75E-06,0.007858125
,,,-3.74E-06,0.007776875
,,,-3.73E-06,0.00762875
,,,-3.72E-06,0.007476875
,,,-3.71E-06,0.0074325
,,,-3.7E-06,0.007510625
,,,-3.69E-06,0.007650625
,,,-3.68E-06,0.00752375
,,,-3.67E-06,0.00768375
,,,-3.66E-06,0.0078275
,,,-3.65E-06,0.007739375
,,,-3.64E-06,0.007135
,,,-3.63E-06,0.007660625
,,,-3.62E-06,0.007754375
,,,-3.61E-06,0.007366875
,,,-3.6E-06,0.007629375
,,,-3.59E-06,0.007619375
,,,-3.58E-06,0.00772
,,,-3.57E-06,0.00769125
,,,-3.56E-06,0.007695625
,,,-3.55E-06,0.00751
,,,-3.54E-06,0.00738375
,,,-3.53E-06,0.007465625
,,,-3.52E-06,0.00760625
,,,-3.51E-06,0.007508125
,,,-3.5E-06,0.00737625
,,,-3.49E-06,0.007518125
,,,-3.48E-06,0.007365
,,,-3.47E-06,0.007563125
,,,-3.46E-06,0.00754625
,,,-3.45E-06,0.007695
,,,-3.44E-06,0.007536875
,,,-3.43E-06,0.007591875
,,,-3.42E-06,0.00747
,,,-3.41E-06,0.007550625
,,,-3.4E-06,0.007696875
,,,-3.39E-06,0.00769
,,,-3.38E-06,0.00747125
,,,-3.37E-06,0.007531875
,,,-3.36E-06,0.007540625
,,,-3.35E-06,0.007693125
,,,-3.34E-06,0.007460625
,,,-3.33E-06,0.00754625
,,,-3.32E-06,0.007668125
,,,-3.31E-06,0.007661875
,,,-3.3E-06,0.00746
,,,-3.29E-06,0.007635625
,,,-3.28E-06,0.0075
,,,-3.27E-06,0.007701875
,,,-3.26E-06,0.00743625
,,,-3.25E-06,0.00757125
,,,-3.24E-06,0.007419375
,,,-3.23E-06,0.0077075
,,,-3.22E-06,0.00753375
,,,-3.21E-06,0.007431875
,,,-3.2E-06,0.00767375
,,,-3.19E-06,0.00756625
,,,-3.18E-06,0.007556875
,,,-3.17E-06,0.007651875
,,,-3.16E-06,0.007745625
,,,-3.15E-06,0.007610625
,,,-3.14E-06,0.007485
,,,-3.13E-06,0.00755625
,,,-3.12E-06,0.007620625
,,,-3.11E-06,0.007723125
,,,-3.1E-06,0.00741
,,,-3.09E-06,0.00768125
,,,-3.08E-06,0.007628125
,,,-3.07E-06,0.007726875
,,,-3.06E-06,0.007718125
,,,-3.05E-06,0.00765375
,,,-3.04E-06,0.007448125
,,,-3.03E-06,0.00728125
,,,-3.02E-06,0.0073625
,,,-3.01E-06,0.0074725
,,,-3E-06,0.007465625
,,,-2.99E-06,0.00770625
,,,-2.98E-06,0.00778125
,,,-2.97E-06,0.00747625
,,,-2.96E-06,0.00742375
,,,-2.95E-06,0.007525
,,,-2.94E-06,0.007694375
,,,-2.93E-06,0.007560625
,,,-2.92E-06,0.007436875
,,,-2.91E-06,0.00752
,,,-2.9E-06,0.007751875
,,,-2.89E-06,0.007521875
,,,-2.88E-06,0.007585
,,,-2.87E-06,0.007624375
,,,-2.86E-06,0.007459375
,,,-2.85E-06,0.007719375
,,,-2.84E-06,0.00745875
,,,-2.83E-06,0.00757125
,,,-2.82E-06,0.007725
,,,-2.81E-06,0.00769625
,,,-2.8E-06,0.007601875
,,,-2.79E-06,0.007454375
,,,-2.78E-06,0.00757375
,,,-2.77E-06,0.00756625
,,,-2.76E-06,0.00743625
,,,-2.75E-06,0.007570625
,,,-2.74E-06,0.007603125
,,,-2.73E-06,0.00760625
,,,-2.72E-06,0.007593125
,,,-2.71E-06,0.0074925
,,,-2.7E-06,0.00752
,,,-2.69E-06,0.00755375
,,,-2.68E-06,0.0077425
,,,-2.67E-06,0.007575625
,,,-2.66E-06,0.007535
,,,-2.65E-06,0.007376875
,,,-2.64E-06,0.00743625
,,,-2.63E-06,0.007588125
,,,-2.62E-06,0.00749
,,,-2.61E-06,0.007465
,,,-2.6E-06,0.007556875
,,,-2.59E-06,0.0078
,,,-2.58E-06,0.007521875
,,,-2.57E-06,0.0076025
,,,-2.56E-06,0.007555625
,,,-2.55E-06,0.00759875
,,,-2.54E-06,0.007615625
,,,-2.53E-06,0.00768
,,,-2.52E-06,0.007653125
,,,-2.51E-06,0.007796875
,,,-2.5E-06,0.007741875
,,,-2.49E-06,0.00764
,,,-2.48E-06,0.007433125
,,,-2.47E-06,0.007678125
,,,-2.46E-06,0.00763625
,,,-2.45E-06,0.00766
,,,-2.44E-06,0.007565625
,,,-2.43E-06,0.007408125
,,,-2.42E-06,0.007739375
,,,-2.41E-06,0.007648125
,,,-2.4E-06,0.0077975
,,,-2.39E-06,0.007294375
,,,-2.38E-06,0.00752625
,,,-2.37E-06,0.0076425
,,,-2.36E-06,0.00757
,,,-2.35E-06,0.00765875
,,,-2.34E-06,0.0077725
,,,-2.33E-06,0.007405
,,,-2.32E-06,0.007699375
,,,-2.31E-06,0.00755
,,,-2.3E-06,0.007570625
,,,-2.29E-06,0.007695
,,,-2.28E-06,0.007410625
,,,-2.27E-06,0.007720625
,,,-2.26E-06,0.007410625
,,,-2.25E-06,0.007705
,,,-2.24E-06,0.007638125
,,,-2.23E-06,0.007739375
,,,-2.22E-06,0.00753625
,,,-2.21E-06,0.00746
,,,-2.2E-06,0.0077375
,,,-2.19E-06,0.00770375
,,,-2.18E-06,0.00775375
,,,-2.17E-06,0.00753125
,,,-2.16E-06,0.0075375
,,,-2.15E-06,0.00759
,,,-2.14E-06,0.007491875
,,,-2.13E-06,0.007628125
,,,-2.12E-06,0.007605
,,,-2.11E-06,0.007603125
,,,-2.1E-06,0.00762125
,,,-2.09E-06,0.007556875
,,,-2.08E-06,0.007506875
,,,-2.07E-06,0.007534375
,,,-2.06E-06,0.007586875
,,,-2.05E-06,0.00753125
,,,-2.04E-06,0.00765625
,,,-2.03E-06,0.0075275
,,,-2.02E-06,0.007478125
,,,-2.01E-06,0.0074875
,,,-2E-06,0.0076025
,,,-1.99E-06,0.007420625
,,,-1.98E-06,0.007504375
,,,-1.97E-06,0.0076125
,,,-1.96E-06,0.007479375
,,,-1.95E-06,0.007466875
,,,-1.94E-06,0.00767375
,,,-1.93E-06,0.00746375
,,,-1.92E-06,0.00783
,,,-1.91E-06,0.007865625
,,,-1.9E-06,0.00745625
,,,-1.89E-06,0.007684375
,,,-1.88E-06,0.007455625
,,,-1.87E-06,0.00751375
,,,-1.86E-06,0.00757375
,,,-1.85E-06,0.007551875
,,,-1.84E-06,0.0076325
,,,-1.83E-06,0.007743125
,,,-1.82E-06,0.007640625
,,,-1.81E-06,0.007598125
,,,-1.8E-06,0.007606875
,,,-1.79E-06,0.007415625
,,,-1.78E-06,0.00766125
,,,-1.77E-06,0.007641875
,,,-1.76E-06,0.007541875
,,,-1.75E-06,0.007938125
,,,-1.74E-06,0.00762375
,,,-1.73E-06,0.00751125
,,,-1.72E-06,0.007475625
,,,-1.71E-06,0.00771875
,,,-1.7E-06,0.007768125
,,,-1.69E-06,0.0076125
,,,-1.68E-06,0.007664375
,,,-1.67E-06,0.007765625
,,,-1.66E-06,0.0077
,,,-1.65E-06,0.007525625
,,,-1.64E-06,0.007689375
,,,-1.63E-06,0.007574375
,,,-1.62E-06,0.007523125
,,,-1.61E-06,0.007445625
,,,-1.6E-06,0.007666875
,,,-1.59E-06,0.00775
,,,-1.58E-06,0.007501875
,,,-1.57E-06,0.007863125
,,,-1.56E-06,0.0075475
,,,-1.55E-06,0.00733
,,,-1.54E-06,0.00739875
,,,-1.53E-06,0.00760625
,,,-1.52E-06,0.0076925
,,,-1.51E-06,0.0075725
,,,-1.5E-06,0.0075625
,,,-1.49E-06,0.00764375
,,,-1.48E-06,0.00765375
,,,-1.47E-06,0.007595
,,,-1.46E-06,0.0074025
,,,-1.45E-06,0.007479375
,,,-1.44E-06,0.007579375
,,,-1.43E-06,0.007494375
,,,-1.42E-06,0.007601875
,,,-1.41E-06,0.0075975
,,,-1.4E-06,0.00726375
,,,-1.39E-06,0.00725625
,,,-1.38E-06,0.00763625
,,,-1.37E-06,0.007485
,,,-1.36E-06,0.007674375
,,,-1.35E-06,0.007610625
,,,-1.34E-06,0.007483125
,,,-1.33E-06,0.007535
,,,-1.32E-06,0.007534375
,,,-1.31E-06,0.0076225
,,,-1.3E-06,0.0075725
,,,-1.29E-06,0.0075875
,,,-1.28E-06,0.00757625
,,,-1.27E-06,0.00752875
,,,-1.26E-06,0.0074775
,,,-1.25E-06,0.007501875
,,,-1.24E-06,0.00754125
,,,-1.23E-06,0.007573125
,,,-1.22E-06,0.00769375
,,,-1.21E-06,0.00754
,,,-1.2E-06,0.007475
,,,-1.19E-06,0.007515625
,,,-1.18E-06,0.00759375
,,,-1.17E-06,0.00756125
,,,-1.16E-06,0.007265
,,,-1.15E-06,0.007495625
,,,-1.14E-06,0.00755625
,,,-1.13E-06,0.00765
,,,-1.12E-06,0.007559375
,,,-1.11E-06,0.007496875
,,,-1.1E-06,0.00750625
,,,-1.09E-06,0.00747125
,,,-1.08E-06,0.007635625
,,,-1.07E-06,0.00767875
,,,-1.06E-06,0.00742625
,,,-1.05E-06,0.007594375
,,,-1.04E-06,0.00779
,,,-1.03E-06,0.007581875
,,,-1.02E-06,0.00766
,,,-1.01E-06,0.00760875
,,,-1E-06,0.00770625
,,,-9.9E-07,0.007508125
,,,-9.8E-07,0.007525
,,,-9.7E-07,0.007635
,,,-9.6E-07,0.007508125
,,,-9.5E-07,0.007288125
,,,-9.4E-07,0.00748875
,,,-9.3E-07,0.008029375
,,,-9.2E-07,0.007575625
,,,-9.1E-07,0.00753125
,,,-9E-07,0.00760875
,,,-8.9E-07,0.007355
,,,-8.8E-07,0.00729625
,,,-8.7E-07,0.007651875
,,,-8.6E-07,0.007695
,,,-8.5E-07,0.007554375
,,,-8.4E-07,0.007565
,,,-8.3E-07,0.007595
,,,-8.2E-07,0.007633125
,,,-8.1E-07,0.007670625
,,,-8E-07,0.007703125
,,,-7.9E-07,0.007340625
,,,-7.8E-07,0.00747375
,,,-7.7E-07,0.007546875
,,,-7.6E-07,0.007724375
,,,-7.5E-07,0.0075775
,,,-7.4E-07,0.0075675
,,,-7.3E-07,0.00759375
,,,-7.2E-07,0.00758375
,,,-7.1E-07,0.007644375
,,,-7E-07,0.007689375
,,,-6.9E-07,0.0076225
,,,-6.8E-07,0.00773125
,,,-6.7E-07,0.00767875
,,,-6.6E-07,0.007770625
,,,-6.5E-07,0.007714375
,,,-6.4E-07,0.007416875
,,,-6.3E-07,0.007639375
,,,-6.2E-07,0.007544375
,,,-6.1E-07,0.007696875
,,,-6E-07,0.007835625
,,,-5.9E-07,0.007498125
,,,-5.8E-07,0.00755125
,,,-5.7E-07,0.00739375
,,,-5.6E-07,0.007641875
,,,-5.5E-07,0.007858125
,,,-5.4E-07,0.00764
,,,-5.3E-07,0.007630625
,,,-5.2E-07,0.007704375
,,,-5.1E-07,0.00758625
,,,-5E-07,0.00765375
,,,-4.9E-07,0.007651875
,,,-4.8E-07,0.00757875
,,,-4.7E-07,0.007439375
,,,-4.6E-07,0.00766875
,,,-4.5E-07,0.00757125
,,,-4.4E-07,0.007783125
,,,-4.3E-07,0.0078675
,,,-4.2E-07,0.007718125
,,,-4.1E-07,0.00760875
,,,-4E-07,0.00759375
,,,-3.9E-07,0.00752625
,,,-3.8E-07,0.007360625
,,,-3.7E-07,0.00773
,,,-3.6E-07,0.00752
,,,-3.5E-07,0.007909375
,,,-3.4E-07,0.0074375
,,,-3.3E-07,0.0073925
,,,-3.2E-07,0.007483125
,,,-3.1E-07,0.007451875
,,,-3E-07,0.007764375
,,,-2.9E-07,0.00745
,,,-2.8E-07,0.007503125
,,,-2.7E-07,0.00737875
,,,-2.6E-07,0.00776875
,,,-2.5E-07,0.007665
,,,-2.4E-07,0.007665625
,,,-2.3E-07,0.007505
,,,-2.2E-07,0.007378125
,,,-2.1E-07,0.00748375
,,,-2E-07,0.007645
,,,-1.9E-07,0.0075075
,,,-1.8E-07,0.007680625
,,,-1.7E-07,0.00761125
,,,-1.6E-07,0.007339375
,,,-1.5E-07,0.00771375
,,,-1.4E-07,0.007510625
,,,-1.3E-07,0.00771
,,,-1.2E-07,0.007646875
,,,-1.1E-07,0.007576875
,,,-1E-07,0.00769
,,,-9E-08,0.00764625
,,,-8E-08,0.00767375
,,,-7E-08,0.0075625
,,,-6E-08,0.0075275
,,,-5E-08,0.00771125
,,,-4E-08,0.008709375
,,,-3E-08,0.009288125
,,,-2E-08,0.0060425
,,,-1E-08,0.003819375
,,,0,0.00356625
,,,1E-08,0.009968125
,,,2E-08,0.01257125
,,,3E-08,0.012090625
,,,4E-08,0.007216875
,,,5E-08,0.004661875
,,,6E-08,0.00373125
,,,7E-08,0.005489375
,,,8E-08,0.007941875
,,,9E-08,0.0099
,,,1E-07,0.01026625
,,,1.1E-07,0.008730625
,,,1.2E-07,0.006866875
,,,1.3E-07,0.005745
,,,1.4E-07,0.00648875
,,,1.5E-07,0.007535
,,,1.6E-07,0.00844
,,,1.7E-07,0.00785375
,,,1.8E-07,0.00758375
,,,1.9E-07,0.00783125
,,,2E-07,0.007511875
,,,2.1E-07,0.007561875
,,,2.2E-07,0.007236875
,,,2.3E-07,0.00755125
,,,2.4E-07,0.007509375
,,,2.5E-07,0.007859375
,,,2.6E-07,0.007630625
,,,2.7E-07,0.007489375
,,,2.8E-07,0.00757
,,,2.9E-07,0.00750375
,,,3E-07,0.007475625
,,,3.1E-07,0.007565
,,,3.2E-07,0.007673125
,,,3.3E-07,0.0078125
,,,3.4E-07,0.007495625
,,,3.5E-07,0.007416875
,,,3.6E-07,0.007584375
,,,3.7E-07,0.007510625
,,,3.8E-07,0.007419375
,,,3.9E-07,0.007615
,,,4E-07,0.007763125
,,,4.1E-07,0.00764125
,,,4.2E-07,0.007663125
,,,4.3E-07,0.007710625
,,,4.4E-07,0.0074925
,,,4.5E-07,0.00772375
,,,4.6E-07,0.00747625
,,,4.7E-07,0.0078
,,,4.8E-07,0.00757125
,,,4.9E-07,0.007461875
,,,5E-07,0.007715
,,,5.1E-07,0.00766625
,,,5.2E-07,0.00771125
,,,5.3E-07,0.007481875
,,,5.4E-07,0.0076
,,,5.5E-07,0.007615
,,,5.6E-07,0.007565625
,,,5.7E-07,0.00749625
,,,5.8E-07,0.007719375
,,,5.9E-07,0.007646875
,,,6E-07,0.007824375
,,,6.1E-07,0.00750375
,,,6.2E-07,0.00745625
,,,6.3E-07,0.0075975
,,,6.4E-07,0.00772125
,,,6.5E-07,0.00743125
,,,6.6E-07,0.00788
,,,6.7E-07,0.007631875
,,,6.8E-07,0.00757125
,,,6.9E-07,0.007628125
,,,7E-07,0.007638125
,,,7.1E-07,0.007679375
,,,7.2E-07,0.00775375
,,,7.3E-07,0.007358125
,,,7.4E-07,0.007598125
,,,7.5E-07,0.007693125
,,,7.6E-07,0.007375
,,,7.7E-07,0.00777875
,,,7.8E-07,0.007735
,,,7.9E-07,0.007766875
,,,8E-07,0.00752625
,,,8.1E-07,0.007676875
,,,8.2E-07,0.007551875
,,,8.3E-07,0.00779
,,,8.4E-07,0.0076025
,,,8.5E-07,0.0076675
,,,8.6E-07,0.0078075
,,,8.7E-07,0.007555
,,,8.8E-07,0.0073575
,,,8.9E-07,0.0075625
,,,9E-07,0.007605
,,,9.1E-07,0.00778625
,,,9.2E-07,0.00757875
,,,9.3E-07,0.007565
,,,9.4E-07,0.00761
,,,9.5E-07,0.0076525
,,,9.6E-07,0.00760125
,,,9.7E-07,0.007733125
,,,9.8E-07,0.007634375
,,,9.9E-07,0.00770125
,,,1E-06,0.007538125
,,,1.01E-06,0.007595
,,,1.02E-06,0.007380625
,,,1.03E-06,0.00764125
,,,1.04E-06,0.007755
,,,1.05E-06,0.00755
,,,1.06E-06,0.00765
,,,1.07E-06,0.007893125
,,,1.08E-06,0.007524375
,,,1.09E-06,0.0077075
,,,1.1E-06,0.0076575
,,,1.11E-06,0.0076025
,,,1.12E-06,0.0077625
,,,1.13E-06,0.007655
,,,1.14E-06,0.0075575
,,,1.15E-06,0.007613125
,,,1.16E-06,0.007616875
,,,1.17E-06,0.007891875
,,,1.18E-06,0.00761375
,,,1.19E-06,0.007294375
,,,1.2E-06,0.007669375
,,,1.21E-06,0.007615625
,,,1.22E-06,0.007566875
,,,1.23E-06,0.007620625
,,,1.24E-06,0.0074025
,,,1.25E-06,0.00754125
,,,1.26E-06,0.007609375
,,,1.27E-06,0.007389375
,,,1.28E-06,0.007635
,,,1.29E-06,0.00763
,,,1.3E-06,0.00753375
,,,1.31E-06,0.00763375
,,,1.32E-06,0.007664375
,,,1.33E-06,0.00769
,,,1.34E-06,0.007710625
,,,1.35E-06,0.0077225
,,,1.36E-06,0.007789375
,,,1.37E-06,0.007558125
,,,1.38E-06,0.00779875
,,,1.39E-06,0.0076725
,,,1.4E-06,0.007638125
,,,1.41E-06,0.007771875
,,,1.42E-06,0.007685625
,,,1.43E-06,0.007553125
,,,1.44E-06,0.0073175
,,,1.45E-06,0.00746875
,,,1.46E-06,0.00756625
,,,1.47E-06,0.0073325
,,,1.48E-06,0.007488125
,,,1.49E-06,0.007741875
,,,1.5E-06,0.0077575
,,,1.51E-06,0.0076225
,,,1.52E-06,0.00763625
,,,1.53E-06,0.007775
,,,1.54E-06,0.007505625
,,,1.55E-06,0.00794125
,,,1.56E-06,0.007591875
,,,1.57E-06,0.00766
,,,1.58E-06,0.00763
,,,1.59E-06,0.007420625
,,,1.6E-06,0.007536875
,,,1.61E-06,0.0076225
,,,1.62E-06,0.007553125
,,,1.63E-06,0.007486875
,,,1.64E-06,0.007653125
,,,1.65E-06,0.0075
,,,1.66E-06,0.007724375
,,,1.67E-06,0.00768625
,,,1.68E-06,0.00754
,,,1.69E-06,0.00772125
,,,1.7E-06,0.00753125
,,,1.71E-06,0.007644375
,,,1.72E-06,0.0075875
,,,1.73E-06,0.00759875
,,,1.74E-06,0.007555625
,,,1.75E-06,0.0075775
,,,1.76E-06,0.0074875
,,,1.77E-06,0.007551875
,,,1.78E-06,0.007765625
,,,1.79E-06,0.00754875
,,,1.8E-06,0.007625625
,,,1.81E-06,0.007545625
,,,1.82E-06,0.007543125
,,,1.83E-06,0.007620625
,,,1.84E-06,0.00778375
,,,1.85E-06,0.00742875
,,,1.86E-06,0.00743375
,,,1.87E-06,0.007641875
,,,1.88E-06,0.007758125
,,,1.89E-06,0.007539375
,,,1.9E-06,0.007671875
,,,1.91E-06,0.007533125
,,,1.92E-06,0.007695625
,,,1.93E-06,0.007685
,,,1.94E-06,0.007708125
,,,1.95E-06,0.00754125
,,,1.96E-06,0.00788125
,,,1.97E-06,0.00766125
,,,1.98E-06,0.00757
,,,1.99E-06,0.00747125
,,,2E-06,0.007651875
,,,2.01E-06,0.00747625
,,,2.02E-06,0.00767125
,,,2.03E-06,0.007795
,,,2.04E-06,0.0075
,,,2.05E-06,0.007565
,,,2.06E-06,0.007626875
,,,2.07E-06,0.007721875
,,,2.08E-06,0.007446875
,,,2.09E-06,0.00752125
,,,2.1E-06,0.00754
,,,2.11E-06,0.007574375
,,,2.12E-06,0.00757875
,,,2.13E-06,0.007581875
,,,2.14E-06,0.00735375
,,,2.15E-06,0.0076125
,,,2.16E-06,0.00760375
,,,2.17E-06,0.007716875
,,,2.18E-06,0.007514375
,,,2.19E-06,0.007324375
,,,2.2E-06,0.007569375
,,,2.21E-06,0.007761875
,,,2.22E-06,0.007718125
,,,2.23E-06,0.007570625
,,,2.24E-06,0.007723125
,,,2.25E-06,0.007594375
,,,2.26E-06,0.00733875
,,,2.27E-06,0.00758125
,,,2.28E-06,0.0074825
,,,2.29E-06,0.007473125
,,,2.3E-06,0.007804375
,,,2.31E-06,0.007388125
,,,2.32E-06,0.00762375
,,,2.33E-06,0.007620625
,,,2.34E-06,0.0075175
,,,2.35E-06,0.007453125
,,,2.36E-06,0.007496875
,,,2.37E-06,0.007615
,,,2.38E-06,0.007374375
,,,2.39E-06,0.007626875
,,,2.4E-06,0.00784625
,,,2.41E-06,0.007525625
,,,2.42E-06,0.007529375
,,,2.43E-06,0.007568125
,,,2.44E-06,0.007656875
,,,2.45E-06,0.007424375
,,,2.46E-06,0.007525
,,,2.47E-06,0.007653125
,,,2.48E-06,0.0076925
,,,2.49E-06,0.00757875
,,,2.5E-06,0.007525
,,,2.51E-06,0.007761875
,,,2.52E-06,0.007421875
,,,2.53E-06,0.00740875
,,,2.54E-06,0.00773125
,,,2.55E-06,0.00763625
,,,2.56E-06,0.00774625
,,,2.57E-06,0.007520625
,,,2.58E-06,0.00761125
,,,2.59E-06,0.00751125
,,,2.6E-06,0.007696875
,,,2.61E-06,0.00771
,,,2.62E-06,0.00747
,,,2.63E-06,0.007885
,,,2.64E-06,0.007693125
,,,2.65E-06,0.00758625
,,,2.66E-06,0.0075075
,,,2.67E-06,0.007698125
,,,2.68E-06,0.00753375
,,,2.69E-06,0.007625
,,,2.7E-06,0.00772625
,,,2.71E-06,0.007570625
,,,2.72E-06,0.007590625
,,,2.73E-06,0.007535
,,,2.74E-06,0.007655625
,,,2.75E-06,0.007480625
,,,2.76E-06,0.0075775
,,,2.77E-06,0.00744375
,,,2.78E-06,0.007503125
,,,2.79E-06,0.007671875
,,,2.8E-06,0.007540625
,,,2.81E-06,0.007431875
,,,2.82E-06,0.00766875
,,,2.83E-06,0.007755
,,,2.84E-06,0.0073575
,,,2.85E-06,0.007635
,,,2.86E-06,0.00760125
,,,2.87E-06,0.007538125
,,,2.88E-06,0.00779625
,,,2.89E-06,0.0076225
,,,2.9E-06,0.007484375
,,,2.91E-06,0.007646875
,,,2.92E-06,0.007598125
,,,2.93E-06,0.0074775
,,,2.94E-06,0.00775
,,,2.95E-06,0.00766625
,,,2.96E-06,0.007490625
,,,2.97E-06,0.00739125
,,,2.98E-06,0.007736875
,,,2.99E-06,0.00767125
,,,3E-06,0.00786125
,,,3.01E-06,0.007569375
,,,3.02E-06,0.0075325
,,,3.03E-06,0.007669375
,,,3.04E-06,0.007558125
,,,3.05E-06,0.007620625
,,,3.06E-06,0.007648125
,,,3.07E-06,0.00768375
,,,3.08E-06,0.00755875
,,,3.09E-06,0.007498125
,,,3.1E-06,0.007388125
,,,3.11E-06,0.007773125
,,,3.12E-06,0.007678125
,,,3.13E-06,0.00771625
,,,3.14E-06,0.00758
,,,3.15E-06,0.00762625
,,,3.16E-06,0.007730625
,,,3.17E-06,0.007603125
,,,3.18E-06,0.0073625
,,,3.19E-06,0.007588125
,,,3.2E-06,0.007508125
,,,3.21E-06,0.007575625
,,,3.22E-06,0.007821875
,,,3.23E-06,0.00768625
,,,3.24E-06,0.0077075
,,,3.25E-06,0.0074225
,,,3.26E-06,0.0074175
,,,3.27E-06,0.00738875
,,,3.28E-06,0.007586875
,,,3.29E-06,0.007414375
,,,3.3E-06,0.0075
,,,3.31E-06,0.007420625
,,,3.32E-06,0.00783
,,,3.33E-06,0.007565
,,,3.34E-06,0.007601875
,,,3.35E-06,0.00745875
,,,3.36E-06,0.007495
,,,3.37E-06,0.00758875
,,,3.38E-06,0.00760625
,,,3.39E-06,0.0078825
,,,3.4E-06,0.00762875
,,,3.41E-06,0.00762875
,,,3.42E-06,0.0076175
,,,3.43E-06,0.007825
,,,3.44E-06,0.00760625
,,,3.45E-06,0.0077275
,,,3.46E-06,0.007446875
,,,3.47E-06,0.007585625
,,,3.48E-06,0.007605
,,,3.49E-06,0.0077275
,,,3.5E-06,0.00747625
,,,3.51E-06,0.0075075
,,,3.52E-06,0.0076
,,,3.53E-06,0.00774125
,,,3.54E-06,0.007643125
,,,3.55E-06,0.007631875
,,,3.56E-06,0.007558125
,,,3.57E-06,0.00769875
,,,3.58E-06,0.007634375
