data/raw/Final_POL_Test_1/SOP010_Ch4.csv

"Record Length",1000,"Points",-5E-06,0.015424375
"Sample Interval",1E-08,s,-4.99E-06,0.015551875
"Trigger Point",500,"Samples",-4.98E-06,0.0153475
"Trigger Time",0,s,-4.97E-06,0.01553875
"",,,-4.96E-06,0.015570625
"Horizontal Offset",-5E-06,s,-4.95E-06,0.01549125
,,,-4.94E-06,0.01527125
,,,-4.93E-06,0.015818125
,,,-4.92E-06,0.015765625
,,,-4.91E-06,0.015374375
,,,-4.9E-06,0.01561875
,,,-4.89E-06,0.015755625
,,,-4.88E-06,0.01549125
,,,-4.87E-06,0.015645
,,,-4.86E-06,0.015291875
,,,-4.85E-06,0.01553625
,,,-4.84E-06,0.015355625
,,,-4.83E-06,0.015606875
,,,-4.82E-06,0.015668125
,,,-4.81E-06,0.015585625
,,,-4.8E-06,0.0156325
,,,-4.79E-06,0.015396875
,,,-4.78E-06,0.015519375
,,,-4.77E-06,0.015688125
,,,-4.76E-06,0.015558125
,,,-4.75E-06,0.015734375
,,,-4.74E-06,0.015565625
,,,-4.73E-06,0.015635
,,,-4.72E-06,0.0158075
,,,-4.71E-06,0.01559625
,,,-4.7E-06,0.01534875
,,,-4.69E-06,0.015325625
,,,-4.68E-06,0.01532
,,,-4.67E-06,0.01565
,,,-4.66E-06,0.01544625
,,,-4.65E-06,0.015603125
,,,-4.64E-06,0.01589875
,,,-4.63E-06,0.015475
,,,-4.62E-06,0.015850625
,,,-4.61E-06,0.015449375
,,,-4.6E-06,0.01548
,,,-4.59E-06,0.01543375
,,,-4.58E-06,0.015750625
,,,-4.57E-06,0.01542
,,,-4.56E-06,0.015725
,,,-4.55E-06,0.01569875
,,,-4.54E-06,0.01556125
,,,-4.53E-06,0.015673125
,,,-4.52E-06,0.01571125
,,,-4.51E-06,0.015485
,,,-4.5E-06,0.01545
,,,-4.49E-06,0.015730625
,,,-4.48E-06,0.01574125
,,,-4.47E-06,0.0156375
,,,-4.46E-06,0.0155525
,,,-4.45E-06,0.01536875
,,,-4.44E-06,0.0156325
,,,-4.43E-06,0.015515625
,,,-4.42E-06,0.015585
,,,-4.41E-06,0.015324375
,,,-4.4E-06,0.01556
,,,-4.39E-06,0.0155775
,,,-4.38E-06,0.015520625
,,,-4.37E-06,0.015426875
,,,-4.36E-06,0.01550375
,,,-4.35E-06,0.015761875
,,,-4.34E-06,0.01559875
,,,-4.33E-06,0.015568125
,,,-4.32E-06,0.0154775
,,,-4.31E-06,0.015464375
,,,-4.3E-06,0.015586875
,,,-4.29E-06,0.015738125
,,,-4.28E-06,0.015509375
,,,-4.27E-06,0.01562125
,,,-4.26E-06,0.015443125
,,,-4.25E-06,0.015459375
,,,-4.24E-06,0.015488125
,,,-4.23E-06,0.0158025
,,,-4.22E-06,0.015701875
,,,-4.21E-06,0.015454375
,,,-4.2E-06,0.015564375
,,,-4.19E-06,0.015515
,,,-4.18E-06,0.015351875
,,,-4.17E-06,0.0155075
,,,-4.16E-06,0.015396875
,,,-4.15E-06,0.01548
,,,-4.14E-06,0.01549125
,,,-4.13E-06,0.0157025
,,,-4.12E-06,0.015350625
,,,-4.11E-06,0.015533125
,,,-4.1E-06,0.015498125
,,,-4.09E-06,0.015706875
,,,-4.08E-06,0.01560625
,,,-4.07E-06,0.01555375
,,,-4.06E-06,0.015661875
,,,-4.05E-06,0.015628125
,,,-4.04E-06,0.015481875
,,,-4.03E-06,0.015601875
,,,-4.02E-06,0.015519375
,,,-4.01E-06,0.01547875
,,,-4E-06,0.01586875
,,,-3.99E-06,0.0156325
,,,-3.98E-06,0.015585
,,,-3.97E-06,0.015480625
,,,-3.96E-06,0.015621875
,,,-3.95E-06,0.0156575
,,,-3.94E-06,0.015311875
,,,-3.93E-06,0.01535625
,,,-3.92E-06,0.0156625
,,,-3.91E-06,0.015705625
,,,-3.9E-06,0.01550125
,,,-3.89E-06,0.01562375
,,,-3.88E-06,0.01584875
,,,-3.87E-06,0.01561
,,,-3.86E-06,0.015655
,,,-3.85E-06,0.01559875
,,,-3.84E-06,0.01559625
,,,-3.83E-06,0.015511875
,,,-3.82E-06,0.01547625
,,,-3.81E-06,0.01563875
,,,-3.8E-06,0.015683125
,,,-3.79E-06,0.0156375
,,,-3.78E-06,0.015365625
,,,-3.77E-06,0.0154175
,,,-3.76E-06,0.01576875
,,,-3.75E-06,0.015428125
,,,-3.74E-06,0.015568125
,,,-3.73E-06,0.01561625
,,,-3.72E-06,0.01545875
,,,-3.71E-06,0.015369375
,,,-3.7E-06,0.0153225
,,,-3.69E-06,0.01528
,,,-3.68E-06,0.0153725
,,,-3.67E-06,0.01555875
,,,-3.66E-06,0.015635
,,,-3.65E-06,0.0154075
,,,-3.64E-06,0.01564125
,,,-3.63E-06,0.01573125
,,,-3.62E-06,0.01536
,,,-3.61E-06,0.01567625
,,,-3.6E-06,0.0155975
,,,-3.59E-06,0.01567875
,,,-3.58E-06,0.0155925
,,,-3.57E-06,0.01557
,,,-3.56E-06,0.01548625
,,,-3.55E-06,0.01572125
,,,-3.54E-06,0.015229375
,,,-3.53E-06,0.015616875
,,,-3.52E-06,0.015618125
,,,-3.51E-06,0.01550875
,,,-3.5E-06,0.01547875
,,,-3.49E-06,0.015564375
,,,-3.48E-06,0.015198125
,,,-3.47E-06,0.01565375
,,,-3.46E-06,0.015701875
,,,-3.45E-06,0.01559
,,,-3.44E-06,0.015528125
,,,-3.43E-06,0.015548125
,,,-3.42E-06,0.015373125
,,,-3.41E-06,0.01547875
,,,-3.4E-06,0.015764375
,,,-3.39E-06,0.015613125
,,,-3.38E-06,0.01568375
,,,-3.37E-06,0.015528125
,,,-3.36E-06,0.01575
,,,-3.35E-06,0.015550625
,,,-3.34E-06,0.015581875
,,,-3.33E-06,0.01568
,,,-3.32E-06,0.01549875
,,,-3.31E-06,0.015418125
,,,-3.3E-06,0.0156075
,,,-3.29E-06,0.01543
,,,-3.28E-06,0.01538625
,,,-3.27E-06,0.015371875
,,,-3.26E-06,0.015481875
,,,-3.25E-06,0.0155075
,,,-3.24E-06,0.015423125
,,,-3.23E-06,0.01566625
,,,-3.22E-06,0.01553625
,,,-3.21E-06,0.0156525
,,,-3.2E-06,0.015383125
,,,-3.19E-06,0.01554125
,,,-3.18E-06,0.01559875
,,,-3.17E-06,0.015535625
,,,-3.16E-06,0.015544375
,,,-3.15E-06,0.015251875
,,,-3.14E-06,0.015409375
,,,-3.13E-06,0.01536
,,,-3.12E-06,0.015628125
,,,-3.11E-06,0.01547125
,,,-3.1E-06,0.01555875
,,,-3.09E-06,0.015774375
,,,-3.08E-06,0.01536625
,,,-3.07E-06,0.015601875
,,,-3.06E-06,0.01581875
,,,-3.05E-06,0.0154925
,,,-3.04E-06,0.01561
,,,-3.03E-06,0.015546875
,,,-3.02E-06,0.015623125
,,,-3.01E-06,0.015550625
,,,-3E-06,0.0155325
,,,-2.99E-06,0.015578125
,,,-2.98E-06,0.0157375
,,,-2.97E-06,0.015619375
,,,-2.96E-06,0.015466875
,,,-2.95E-06,0.015519375
,,,-2.94E-06,0.015486875
,,,-2.93E-06,0.015589375
,,,-2.92E-06,0.015576875
,,,-2.91E-06,0.015439375
,,,-2.9E-06,0.015553125
,,,-2.89E-06,0.015525625
,,,-2.88E-06,0.01559875
,,,-2.87E-06,0.015346875
,,,-2.86E-06,0.01544375
,,,-2.85E-06,0.01565375
,,,-2.84E-06,0.015445
,,,-2.83E-06,0.015451875
,,,-2.82E-06,0.01575875
,,,-2.81E-06,0.015495
,,,-2.8E-06,0.015605
,,,-2.79E-06,0.015548125
,,,-2.78E-06,0.01572
,,,-2.77E-06,0.0155475
,,,-2.76E-06,0.01560625
,,,-2.75E-06,0.015769375
,,,-2.74E-06,0.015544375
,,,-2.73E-06,0.015390625
,,,-2.72E-06,0.01541875
,,,-2.71E-06,0.015808125
,,,-2.7E-06,0.015615
,,,-2.69E-06,0.015658125
,,,-2.68E-06,0.0155025
,,,-2.67E-06,0.015668125
,,,-2.66E-06,0.0156375
,,,-2.65E-06,0.0154875
,,,-2.64E-06,0.01541125
,,,-2.63E-06,0.01537
,,,-2.62E-06,0.01557125
,,,-2.61E-06,0.015374375
,,,-2.6E-06,0.01560625
,,,-2.59E-06,0.015340625
,,,-2.58E-06,0.015398125
,,,-2.57E-06,0.015516875
,,,-2.56E-06,0.015431875
,,,-2.55E-06,0.015488125
,,,-2.54E-06,0.0156775
,,,-2.53E-06,0.015444375
,,,-2.52E-06,0.01554125
,,,-2.51E-06,0.015320625
,,,-2.5E-06,0.0153575
,,,-2.49E-06,0.015423125
,,,-2.48E-06,0.015770625
,,,-2.47E-06,0.01554125
,,,-2.46E-06,0.015348125
,,,-2.45E-06,0.015526875
,,,-2.44E-06,0.015411875
,,,-2.43E-06,0.01564
,,,-2.42E-06,0.01563125
,,,-2.41E-06,0.015640625
,,,-2.4E-06,0.0154075
,,,-2.39E-06,0.015729375
,,,-2.38E-06,0.0154725
,,,-2.37E-06,0.015385
,,,-2.36E-06,0.01552875
,,,-2.35E-06,0.0153825
,,,-2.34E-06,0.015256875
,,,-2.33E-06,0.01526125
,,,-2.32E-06,0.015374375
,,,-2.31E-06,0.015535625
,,,-2.3E-06,0.01540375
,,,-2.29E-06,0.01533625
,,,-2.28E-06,0.015649375
,,,-2.27E-06,0.015443125
,,,-2.26E-06,0.01559
,,,-2.25E-06,0.01573875
,,,-2.24E-06,0.01547375
,,,-2.23E-06,0.01568625
,,,-2.22E-06,0.015428125
,,,-2.21E-06,0.015634375
,,,-2.2E-06,0.0155175
,,,-2.19E-06,0.0156
,,,-2.18E-06,0.015814375
,,,-2.17E-06,0.0152525
,,,-2.16E-06,0.015451875
,,,-2.15E-06,0.01572125
,,,-2.14E-06,0.01589
,,,-2.13E-06,0.015499375
,,,-2.12E-06,0.01553
,,,-2.11E-06,0.015373125
,,,-2.1E-06,0.0155
,,,-2.09E-06,0.015581875
,,,-2.08E-06,0.015574375
,,,-2.07E-06,0.01569
,,,-2.06E-06,0.01537125
,,,-2.05E-06,0.01531875
,,,-2.04E-06,0.015445625
,,,-2.03E-06,0.015628125
,,,-2.02E-06,0.0155225
,,,-2.01E-06,0.01554125
,,,-2E-06,0.015750625
,,,-1.99E-06,0.0156675
,,,-1.98E-06,0.015688125
,,,-1.97E-06,0.01554
,,,-1.96E-06,0.015433125
,,,-1.95E-06,0.015479375
,,,-1.94E-06,0.015276875
,,,-1.93E-06,0.01542875
,,,-1.92E-06,0.015564375
,,,-1.91E-06,0.01540125
,,,-1.9E-06,0.015644375
,,,-1.89E-06,0.015359375
,,,-1.88E-06,0.01553375
,,,-1.87E-06,0.015436875
,,,-1.86E-06,0.01541125
,,,-1.85E-06,0.015688125
,,,-1.84E-06,0.015445
,,,-1.83E-06,0.015564375
,,,-1.82E-06,0.015494375
,,,-1.81E-06,0.01548375
,,,-1.8E-06,0.015441875
,,,-1.79E-06,0.015449375
,,,-1.78E-06,0.015423125
,,,-1.77E-06,0.015535
,,,-1.76E-06,0.0152575
,,,-1.75E-06,0.0156925
,,,-1.74E-06,0.015695625
,,,-1.73E-06,0.01561
,,,-1.72E-06,0.01539375
,,,-1.71E-06,0.01552125
,,,-1.7E-06,0.015859375
,,,-1.69E-06,0.015613125
,,,-1.68E-06,0.015511875
,,,-1.67E-06,0.015623125
,,,-1.66E-06,0.01563625
,,,-1.65E-06,0.015606875
,,,-1.64E-06,0.01573875
,,,-1.63E-06,0.015588125
,,,-1.62E-06,0.015515
,,,-1.61E-06,0.01540625
,,,-1.6E-06,0.01528
,,,-1.59E-06,0.015305
,,,-1.58E-06,0.015605625
,,,-1.57E-06,0.01554125
,,,-1.56E-06,0.01544875
,,,-1.55E-06,0.015379375
,,,-1.54E-06,0.015698125
,,,-1.53E-06,0.015595625
,,,-1.52E-06,0.01564
,,,-1.51E-06,0.0154625
,,,-1.5E-06,0.015609375
,,,-1.49E-06,0.015454375
,,,-1.48E-06,0.015751875
,,,-1.47E-06,0.015695625
,,,-1.46E-06,0.01569375
,,,-1.45E-06,0.015576875
,,,-1.44E-06,0.015613125
,,,-1.43E-06,0.0156275
,,,-1.42E-06,0.015599375
,,,-1.41E-06,0.015535
,,,-1.4E-06,0.015591875
,,,-1.39E-06,0.01534625
,,,-1.38E-06,0.015176875
,,,-1.37E-06,0.015433125
,,,-1.36E-06,0.015646875
,,,-1.35E-06,0.01544
,,,-1.34E-06,0.01563875
,,,-1.33E-06,0.01565875
,,,-1.32E-06,0.015490625
,,,-1.31E-06,0.015475
,,,-1.3E-06,0.0155775
,,,-1.29E-06,0.015275625
,,,-1.28E-06,0.015486875
,,,-1.27E-06,0.01578625
,,,-1.26E-06,0.015675625
,,,-1.25E-06,0.01545625
,,,-1.24E-06,0.015461875
,,,-1.23E-06,0.015631875
,,,-1.22E-06,0.015405625
,,,-1.21E-06,0.01571
,,,-1.2E-06,0.01561125
,,,-1.19E-06,0.01572625
,,,-1.18E-06,0.01561375
,,,-1.17E-06,0.015195625
,,,-1.16E-06,0.01535875
,,,-1.15E-06,0.015506875
,,,-1.14E-06,0.015386875
,,,-1.13E-06,0.015416875
,,,-1.12E-06,0.01541125
,,,-1.11E-06,0.0156625
,,,-1.1E-06,0.01560625
,,,-1.09E-06,0.015480625
,,,-1.08E-06,0.01564375
,,,-1.07E-06,0.015809375
,,,-1.06E-06,0.01562875
,,,-1.05E-06,0.01547875
,,,-1.04E-06,0.01568125
,,,-1.03E-06,0.015586875
,,,-1.02E-06,0.015498125
,,,-1.01E-06,0.015549375
,,,-1E-06,0.015415625
,,,-9.9E-07,0.01554375
,,,-9.8E-07,0.015469375
,,,-9.7E-07,0.0154475
,,,-9.6E-07,0.015436875
,,,-9.5E-07,0.0153825
,,,-9.4E-07,0.01545125
,,,-9.3E-07,0.01555
,,,-9.2E-07,0.0156825
,,,-9.1E-07,0.01563625
,,,-9E-07,0.015695
,,,-8.9E-07,0.015695625
,,,-8.8E-07,0.015399375
,,,-8.7E-07,0.015709375
,,,-8.6E-07,0.015719375
,,,-8.5E-07,0.015585
,,,-8.4E-07,0.01546625
,,,-8.3E-07,0.015529375
,,,-8.2E-07,0.015508125
,,,-8.1E-07,0.01548125
,,,-8E-07,0.01551625
,,,-7.9E-07,0.015481875
,,,-7.8E-07,0.01578125
,,,-7.7E-07,0.015411875
,,,-7.6E-07,0.015565625
,,,-7.5E-07,0.01568
,,,-7.4E-07,0.015545
,,,-7.3E-07,0.01530875
,,,-7.2E-07,0.015461875
,,,-7.1E-07,0.015481875
,,,-7E-07,0.015798125
,,,-6.9E-07,0.015531875
,,,-6.8E-07,0.0155375
,,,-6.7E-07,0.0156825
,,,-6.6E-07,0.01528625
,,,-6.5E-07,0.015405625
,,,-6.4E-07,0.0158425
,,,-6.3E-07,0.01555125
,,,-6.2E-07,0.01531875
,,,-6.1E-07,0.0157075
,,,-6E-07,0.015539375
,,,-5.9E-07,0.01569375
,,,-5.8E-07,0.0156425
,,,-5.7E-07,0.0154825
,,,-5.6E-07,0.015439375
,,,-5.5E-07,0.015401875
,,,-5.4E-07,0.015651875
,,,-5.3E-07,0.015753125
,,,-5.2E-07,0.01548875
,,,-5.1E-07,0.015653125
,,,-5E-07,0.01549125
,,,-4.9E-07,0.015495
,,,-4.8E-07,0.01512
,,,-4.7E-07,0.01563
,,,-4.6E-07,0.015425
,,,-4.5E-07,0.015445
,,,-4.4E-07,0.01567
,,,-4.3E-07,0.015653125
,,,-4.2E-07,0.015414375
,,,-4.1E-07,0.015751875
,,,-4E-07,0.015478125
,,,-3.9E-07,0.015498125
,,,-3.8E-07,0.01567625
,,,-3.7E-07,0.015550625
,,,-3.6E-07,0.01552875
,,,-3.5E-07,0.01558125
,,,-3.4E-07,0.015273125
,,,-3.3E-07,0.015295
,,,-3.2E-07,0.015400625
,,,-3.1E-07,0.015578125
,,,-3E-07,0.01553
,,,-2.9E-07,0.015373125
,,,-2.8E-07,0.0153775
,,,-2.7E-07,0.015484375
,,,-2.6E-07,0.01568875
,,,-2.5E-07,0.015511875
,,,-2.4E-07,0.015378125
,,,-2.3E-07,0.015745625
,,,-2.2E-07,0.015575625
,,,-2.1E-07,0.01536125
,,,-2E-07,0.0154425
,,,-1.9E-07,0.015313125
,,,-1.8E-07,0.01563
,,,-1.7E-07,0.0156225
,,,-1.6E-07,0.015594375
,,,-1.5E-07,0.015150625
,,,-1.4E-07,0.015540625
,,,-1.3E-07,0.015344375
,,,-1.2E-07,0.015655625
,,,-1.1E-07,0.0153575
,,,-1E-07,0.015573125
,,,-9E-08,0.015563125
,,,-8E-08,0.015698125
,,,-7E-08,0.015611875
,,,-6E-08,0.01552125
,,,-5E-08,0.01549125
,,,-4E-08,0.016275
,,,-3E-08,0.0174575
,,,-2E-08,0.01431625
,,,-1E-08,0.01250875
,,,0,0.012864375
,,,1E-08,0.01830375
,,,2E-08,0.01915
,,,3E-08,0.018619375
,,,4E-08,0.014715
,,,5E-08,0.013100625
,,,6E-08,0.012640625
,,,7E-08,0.014839375
,,,8E-08,0.01632125
,,,9E-08,0.01747125
,,,1E-07,0.017329375
,,,1.1E-07,0.015946875
,,,1.2E-07,0.01456875
,,,1.3E-07,0.013985625
,,,1.4E-07,0.014895625
,,,1.5E-07,0.016045
,,,1.6E-07,0.0162675
,,,1.7E-07,0.015910625
,,,1.8E-07,0.01553
,,,1.9E-07,0.015725625
,,,2E-07,0.01546
,,,2.1E-07,0.015345
,,,2.2E-07,0.015071875
,,,2.3E-07,0.015678125
,,,2.4E-07,0.015749375
,,,2.5E-07,0.015794375
,,,2.6E-07,0.015449375
,,,2.7E-07,0.015549375
,,,2.8E-07,0.01529875
,,,2.9E-07,0.01548875
,,,3E-07,0.015366875
,,,3.1E-07,0.015558125
,,,3.2E-07,0.01572625
,,,3.3E-07,0.0157575
,,,3.4E-07,0.0155075
,,,3.5E-07,0.015535625
,,,3.6E-07,0.015494375
,,,3.7E-07,0.0152775
,,,3.8E-07,0.01561125
,,,3.9E-07,0.01559
,,,4E-07,0.0157
,,,4.1E-07,0.015569375
,,,4.2E-07,0.01529625
,,,4.3E-07,0.01536375
,,,4.4E-07,0.01539625
,,,4.5E-07,0.01539625
,,,4.6E-07,0.01541375
,,,4.7E-07,0.01534
,,,4.8E-07,0.015666875
,,,4.9E-07,0.01524375
,,,5E-07,0.01564625
,,,5.1E-07,0.01560625
,,,5.2E-07,0.0156
,,,5.3E-07,0.015426875
,,,5.4E-07,0.015629375
,,,5.5E-07,0.01529375
,,,5.6E-07,0.015681875
,,,5.7E-07,0.01543125
,,,5.8E-07,0.015603125
,,,5.9E-07,0.0157375
,,,6E-07,0.0155875
,,,6.1E-07,0.015565625
,,,6.2E-07,0.015511875
,,,6.3E-07,0.015465
,,,6.4E-07,0.015593125
,,,6.5E-07,0.0155875
,,,6.6E-07,0.01546375
,,,6.7E-07,0.01546
,,,6.8E-07,0.015556875
,,,6.9E-07,0.0155075
,,,7E-07,0.0155275
,,,7.1E-07,0.015395625
,,,7.2E-07,0.0157425
,,,7.3E-07,0.015290625
,,,7.4E-07,0.015674375
,,,7.5E-07,0.015505
,,,7.6E-07,0.015474375
,,,7.7E-07,0.015409375
,,,7.8E-07,0.015399375
,,,7.9E-07,0.01565875
,,,8E-07,0.015563125
,,,8.1E-07,0.015756875
,,,8.2E-07,0.01576375
,,,8.3E-07,0.01556125
,,,8.4E-07,0.015655625
,,,8.5E-07,0.015568125
,,,8.6E-07,0.01552125
,,,8.7E-07,0.015625
,,,8.8E-07,0.01535
,,,8.9E-07,0.015433125
,,,9E-07,0.01525625
,,,9.1E-07,0.015585625
,,,9.2E-07,0.0156475
,,,9.3E-07,0.01568125
,,,9.4E-07,0.015583125
,,,9.5E-07,0.015580625
,,,9.6E-07,0.0154275
,,,9.7E-07,0.01573375
,,,9.8E-07,0.01541
,,,9.9E-07,0.01560375
,,,1E-06,0.015671875
,,,1.01E-06,0.0155075
,,,1.02E-06,0.01542
,,,1.03E-06,0.01534125
,,,1.04E-06,0.015566875
,,,1.05E-06,0.015330625
,,,1.06E-06,0.015801875
,,,1.07E-06,0.015774375
,,,1.08E-06,0.015660625
,,,1.09E-06,0.01557375
,,,1.1E-06,0.01539625
,,,1.11E-06,0.015409375
,,,1.12E-06,0.01565125
,,,1.13E-06,0.015476875
,,,1.14E-06,0.015605625
,,,1.15E-06,0.0156225
,,,1.16E-06,0.015814375
,,,1.17E-06,0.015478125
,,,1.18E-06,0.015440625
,,,1.19E-06,0.0155525
,,,1.2E-06,0.0156825
,,,1.21E-06,0.015555625
,,,1.22E-06,0.0154975
,,,1.23E-06,0.01555875
,,,1.24E-06,0.01560375
,,,1.25E-06,0.015355
,,,1.26E-06,0.015408125
,,,1.27E-06,0.015610625
,,,1.28E-06,0.01546375
,,,1.29E-06,0.015675
,,,1.3E-06,0.0155125
,,,1.31E-06,0.01552625
,,,1.32E-06,0.01558
,,,1.33E-06,0.015628125
,,,1.34E-06,0.015581875
,,,1.35E-06,0.015548125
,,,1.36E-06,0.015474375
,,,1.37E-06,0.015518125
,,,1.38E-06,0.0153825
,,,1.39E-06,0.015365
,,,1.4E-06,0.015495625
,,,1.41E-06,0.0157575
,,,1.42E-06,0.015555
,,,1.43E-06,0.015651875
,,,1.44E-06,0.01564625
,,,1.45E-06,0.0157775
,,,1.46E-06,0.01549625
,,,1.47E-06,0.015499375
,,,1.48E-06,0.015669375
,,,1.49E-06,0.01554
,,,1.5E-06,0.015625625
,,,1.51E-06,0.015546875
,,,1.52E-06,0.015360625
,,,1.53E-06,0.0154525
,,,1.54E-06,0.01549125
,,,1.55E-06,0.01560125
,,,1.56E-06,0.015523125
,,,1.57E-06,0.015465625
,,,1.58E-06,0.015403125
,,,1.59E-06,0.015625
,,,1.6E-06,0.015501875
,,,1.61E-06,0.015400625
,,,1.62E-06,0.015600625
,,,1.63E-06,0.0153975
,,,1.64E-06,0.015835
,,,1.65E-06,0.015366875
,,,1.66E-06,0.01568875
,,,1.67E-06,0.01555375
,,,1.68E-06,0.0154225
,,,1.69E-06,0.015551875
,,,1.7E-06,0.015465
,,,1.71E-06,0.015566875
,,,1.72E-06,0.01554875
,,,1.73E-06,0.015451875
,,,1.74E-06,0.01553625
,,,1.75E-06,0.0156275
,,,1.76E-06,0.015343125
,,,1.77E-06,0.0156525
,,,1.78E-06,0.015759375
,,,1.79E-06,0.01540125
,,,1.8E-06,0.0157575
,,,1.81E-06,0.01538
,,,1.82E-06,0.015639375
,,,1.83E-06,0.015326875
,,,1.84E-06,0.01572875
,,,1.85E-06,0.015491875
,,,1.86E-06,0.01548375
,,,1.87E-06,0.015513125
,,,1.88E-06,0.015694375
,,,1.89E-06,0.015420625
,,,1.9E-06,0.015535
,,,1.91E-06,0.0156575
,,,1.92E-06,0.01541625
,,,1.93E-06,0.015565625
,,,1.94E-06,0.0153225
,,,1.95E-06,0.015285625
,,,1.96E-06,0.01552625
,,,1.97E-06,0.015493125
,,,1.98E-06,0.015610625
,,,1.99E-06,0.015434375
,,,2E-06,0.015804375
,,,2.01E-06,0.015725
,,,2.02E-06,0.015523125
,,,2.03E-06,0.0153775
,,,2.04E-06,0.015323125
,,,2.05E-06,0.01550875
,,,2.06E-06,0.01568375
,,,2.07E-06,0.015476875
,,,2.08E-06,0.015641875
,,,2.09E-06,0.01536375
,,,2.1E-06,0.015448125
,,,2.11E-06,0.015544375
,,,2.12E-06,0.015515625
,,,2.13E-06,0.015519375
,,,2.14E-06,0.015276875
,,,2.15E-06,0.0156825
,,,2.16E-06,0.015195
,,,2.17E-06,0.015580625
,,,2.18E-06,0.01560625
,,,2.19E-06,0.015269375
,,,2.2E-06,0.015611875
,,,2.21E-06,0.015485
,,,2.22E-06,0.015535625
,,,2.23E-06,0.015658125
,,,2.24E-06,0.01562375
,,,2.25E-06,0.015580625
,,,2.26E-06,0.015476875
,,,2.27E-06,0.015406875
,,,2.28E-06,0.01568375
,,,2.29E-06,0.015446875
,,,2.3E-06,0.015610625
,,,2.31E-06,0.015346875
,,,2.32E-06,0.015705
,,,2.33E-06,0.015394375
,,,2.34E-06,0.015466875
,,,2.35E-06,0.0153725
,,,2.36E-06,0.015789375
,,,2.37E-06,0.015645625
,,,2.38E-06,0.0158175
,,,2.39E-06,0.015475
,,,2.4E-06,0.01563125
,,,2.41E-06,0.015688125
,,,2.42E-06,0.015435625
,,,2.43E-06,0.015599375
,,,2.44E-06,0.01566875
,,,2.45E-06,0.01573
,,,2.46E-06,0.01551375
,,,2.47E-06,0.015641875
,,,2.48E-06,0.0154
,,,2.49E-06,0.015399375
,,,2.5E-06,0.015546875
,,,2.51E-06,0.015185625
,,,2.52E-06,0.01544625
,,,2.53E-06,0.01580375
,,,2.54E-06,0.0155125
,,,2.55E-06,0.015456875
,,,2.56E-06,0.015510625
,,,2.57E-06,0.01536375
,,,2.58E-06,0.015553125
,,,2.59E-06,0.015454375
,,,2.6E-06,0.01519375
,,,2.61E-06,0.01539125
,,,2.62E-06,0.01535375
,,,2.63E-06,0.015546875
,,,2.64E-06,0.015424375
,,,2.65E-06,0.015855
,,,2.66E-06,0.015559375
,,,2.67E-06,0.0153675
,,,2.68E-06,0.015395625
,,,2.69E-06,0.015503125
,,,2.7E-06,0.015681875
,,,2.71E-06,0.0155725
,,,2.72E-06,0.015526875
,,,2.73E-06,0.015558125
,,,2.74E-06,0.0156275
,,,2.75E-06,0.015655625
,,,2.76E-06,0.01564875
,,,2.77E-06,0.015735
,,,2.78E-06,0.01550625
,,,2.79E-06,0.015375
,,,2.8E-06,0.015488125
,,,2.81E-06,0.015440625
,,,2.82E-06,0.015295
,,,2.83E-06,0.015603125
,,,2.84E-06,0.015629375
,,,2.85E-06,0.0155525
,,,2.86E-06,0.0158125
,,,2.87E-06,0.01562
,,,2.88E-06,0.015596875
,,,2.89E-06,0.015605
,,,2.9E-06,0.015666875
,,,2.91E-06,0.01565875
,,,2.92E-06,0.01567125
,,,2.93E-06,0.01557125
,,,2.94E-06,0.015571875
,,,2.95E-06,0.015495
,,,2.96E-06,0.01559875
,,,2.97E-06,0.015285625
,,,2.98E-06,0.015594375
,,,2.99E-06,0.015484375
,,,3E-06,0.015616875
,,,3.01E-06,0.0153125
,,,3.02E-06,0.01552125
,,,3.03E-06,0.015361875
,,,3.04E-06,0.015379375
,,,3.05E-06,0.01539875
,,,3.06E-06,0.015250625
,,,3.07E-06,0.015505625
,,,3.08E-06,0.015675625
,,,3.09E-06,0.0155925
,,,3.1E-06,0.015398125
,,,3.11E-06,0.01521875
,,,3.12E-06,0.015491875
,,,3.13E-06,0.015459375
,,,3.14E-06,0.015628125
,,,3.15E-06,0.01540625
,,,3.16E-06,0.015619375
,,,3.17E-06,0.015696875
,,,3.18E-06,0.015635
,,,3.19E-06,0.015340625
,,,3.2E-06,0.015508125
,,,3.21E-06,0.01558
,,,3.22E-06,0.01544375
,,,3.23E-06,0.01583125
,,,3.24E-06,0.01569
,,,3.25E-06,0.01549125
,,,3.26E-06,0.015658125
,,,3.27E-06,0.01554375
,,,3.28E-06,0.01566
,,,3.29E-06,0.015671875
,,,3.3E-06,0.015675
,,,3.31E-06,0.015528125
,,,3.32E-06,0.01564375
,,,3.33E-06,0.015475625
,,,3.34E-06,0.01520875
,,,3.35E-06,0.015483125
,,,3.36E-06,0.01545625
,,,3.37E-06,0.0155875
,,,3.38E-06,0.01557875
,,,3.39E-06,0.015450625
,,,3.4E-06,0.01528625
,,,3.41E-06,0.01551625
,,,3.42E-06,0.015751875
,,,3.43E-06,0.0156475
,,,3.44E-06,0.015475625
,,,3.45E-06,0.01535625
,,,3.46E-06,0.015305625
,,,3.47E-06,0.015646875
,,,3.48E-06,0.01549625
,,,3.49E-06,0.0155825
,,,3.5E-06,0.0153575
,,,3.51E-06,0.015363125
,,,3.52E-06,0.01550875
,,,3.53E-06,0.0156875
,,,3.54E-06,0.015425
,,,3.55E-06,0.0155725
,,,3.56E-06,0.015545
