data/raw/Final_POL_Test_1/SOP057_Ch3.csv

"Record Length",1000,"Points",-5E-06,0.018945001
"Sample Interval",1E-08,s,-4.99E-06,0.018637501
"Trigger Point",500,"Samples",-4.98E-06,0.018770626
"Trigger Time",0,s,-4.97E-06,0.019134376
"",,,-4.96E-06,0.018771251
"Horizontal Offset",-5E-06,s,-4.95E-06,0.018732501
,,,-4.94E-06,0.018961876
,,,-4.93E-06,0.019124376
,,,-4.92E-06,0.018836876
,,,-4.91E-06,0.019149376
,,,-4.9E-06,0.018921876
,,,-4.89E-06,0.018771251
,,,-4.88E-06,0.018725626
,,,-4.87E-06,0.019032501
,,,-4.86E-06,0.018714376
,,,-4.85E-06,0.018784376
,,,-4.84E-06,0.018650001
,,,-4.83E-06,0.018918751
,,,-4.82E-06,0.019031251
,,,-4.81E-06,0.018879376
,,,-4.8E-06,0.018956251
,,,-4.79E-06,0.018955001
,,,-4.78E-06,0.018755001
,,,-4.77E-06,0.018861876
,,,-4.76E-06,0.018837501
,,,-4.75E-06,0.018984376
,,,-4.74E-06,0.018741251
,,,-4.73E-06,0.018746876
,,,-4.72E-06,0.018855001
,,,-4.71E-06,0.018609376
,,,-4.7E-06,0.019056876
,,,-4.69E-06,0.018719376
,,,-4.68E-06,0.018815001
,,,-4.67E-06,0.018845001
,,,-4.66E-06,0.018951251
,,,-4.65E-06,0.018840626
,,,-4.64E-06,0.018876876
,,,-4.63E-06,0.018966876
,,,-4.62E-06,0.019020626
,,,-4.61E-06,0.018791876
,,,-4.6E-06,0.018886251
,,,-4.59E-06,0.018906876
,,,-4.58E-06,0.019285626
,,,-4.57E-06,0.018729376
,,,-4.56E-06,0.018808751
,,,-4.55E-06,0.018796251
,,,-4.54E-06,0.018596251
,,,-4.53E-06,0.018817501
,,,-4.52E-06,0.018645626
,,,-4.51E-06,0.018801876
,,,-4.5E-06,0.018664376
,,,-4.49E-06,0.018839376
,,,-4.48E-06,0.018935001
,,,-4.47E-06,0.018953751
,,,-4.46E-06,0.018856876
,,,-4.45E-06,0.018735001
,,,-4.44E-06,0.018585001
,,,-4.43E-06,0.018733126
,,,-4.42E-06,0.018676251
,,,-4.41E-06,0.018917501
,,,-4.4E-06,0.018963751
,,,-4.39E-06,0.019045001
,,,-4.38E-06,0.018911251
,,,-4.37E-06,0.018803751
,,,-4.36E-06,0.018845626
,,,-4.35E-06,0.019160001
,,,-4.34E-06,0.018850626
,,,-4.33E-06,0.018886876
,,,-4.32E-06,0.018870001
,,,-4.31E-06,0.019018126
,,,-4.3E-06,0.018974376
,,,-4.29E-06,0.018833126
,,,-4.28E-06,0.018961251
,,,-4.27E-06,0.018953126
,,,-4.26E-06,0.018655626
,,,-4.25E-06,0.018803751
,,,-4.24E-06,0.018846876
,,,-4.23E-06,0.018720001
,,,-4.22E-06,0.018795626
,,,-4.21E-06,0.018816251
,,,-4.2E-06,0.018855001
,,,-4.19E-06,0.019025626
,,,-4.18E-06,0.018775626
,,,-4.17E-06,0.018555001
,,,-4.16E-06,0.019181251
,,,-4.15E-06,0.018836876
,,,-4.14E-06,0.018889376
,,,-4.13E-06,0.018723126
,,,-4.12E-06,0.019069376
,,,-4.11E-06,0.019225626
,,,-4.1E-06,0.018646876
,,,-4.09E-06,0.018927501
,,,-4.08E-06,0.018741876
,,,-4.07E-06,0.018838126
,,,-4.06E-06,0.018933126
,,,-4.05E-06,0.018732501
,,,-4.04E-06,0.018670001
,,,-4.03E-06,0.018995001
,,,-4.02E-06,0.018717501
,,,-4.01E-06,0.018865001
,,,-4E-06,0.018675626
,,,-3.99E-06,0.019051876
,,,-3.98E-06,0.018715001
,,,-3.97E-06,0.018928126
,,,-3.96E-06,0.018985626
,,,-3.95E-06,0.018743126
,,,-3.94E-06,0.018901876
,,,-3.93E-06,0.018850001
,,,-3.92E-06,0.019028751
,,,-3.91E-06,0.019103126
,,,-3.9E-06,0.018741876
,,,-3.89E-06,0.018902501
,,,-3.88E-06,0.019022501
,,,-3.87E-06,0.018616251
,,,-3.86E-06,0.018729376
,,,-3.85E-06,0.018873126
,,,-3.84E-06,0.018778751
,,,-3.83E-06,0.018880001
,,,-3.82E-06,0.018872501
,,,-3.81E-06,0.018717501
,,,-3.8E-06,0.018686876
,,,-3.79E-06,0.019030626
,,,-3.78E-06,0.019039376
,,,-3.77E-06,0.018858126
,,,-3.76E-06,0.018846876
,,,-3.75E-06,0.018794376
,,,-3.74E-06,0.018841876
,,,-3.73E-06,0.018921251
,,,-3.72E-06,0.019011251
,,,-3.71E-06,0.018862501
,,,-3.7E-06,0.018768126
,,,-3.69E-06,0.018915001
,,,-3.68E-06,0.018992501
,,,-3.67E-06,0.018992501
,,,-3.66E-06,0.018791876
,,,-3.65E-06,0.018681251
,,,-3.64E-06,0.018810626
,,,-3.63E-06,0.019013751
,,,-3.62E-06,0.018931251
,,,-3.61E-06,0.018808126
,,,-3.6E-06,0.019086251
,,,-3.59E-06,0.018911251
,,,-3.58E-06,0.018805626
,,,-3.57E-06,0.018873126
,,,-3.56E-06,0.018998126
,,,-3.55E-06,0.019094376
,,,-3.54E-06,0.018905001
,,,-3.53E-06,0.019061251
,,,-3.52E-06,0.018910626
,,,-3.51E-06,0.018899376
,,,-3.5E-06,0.019001876
,,,-3.49E-06,0.019000001
,,,-3.48E-06,0.018858126
,,,-3.47E-06,0.018823751
,,,-3.46E-06,0.018698126
,,,-3.45E-06,0.018548126
,,,-3.44E-06,0.018929376
,,,-3.43E-06,0.019003751
,,,-3.42E-06,0.018848126
,,,-3.41E-06,0.018791876
,,,-3.4E-06,0.019061876
,,,-3.39E-06,0.018813751
,,,-3.38E-06,0.018932501
,,,-3.37E-06,0.018753751
,,,-3.36E-06,0.018732501
,,,-3.35E-06,0.018838126
,,,-3.34E-06,0.018805626
,,,-3.33E-06,0.018823126
,,,-3.32E-06,0.018881876
,,,-3.31E-06,0.019007501
,,,-3.3E-06,0.019238126
,,,-3.29E-06,0.018741876
,,,-3.28E-06,0.018948751
,,,-3.27E-06,0.018680001
,,,-3.26E-06,0.018511876
,,,-3.25E-06,0.018919376
,,,-3.24E-06,0.018842501
,,,-3.23E-06,0.018702501
,,,-3.22E-06,0.019173126
,,,-3.21E-06,0.018845001
,,,-3.2E-06,0.019036251
,,,-3.19E-06,0.018930001
,,,-3.18E-06,0.018756876
,,,-3.17E-06,0.019031876
,,,-3.16E-06,0.018724376
,,,-3.15E-06,0.018930001
,,,-3.14E-06,0.018780001
,,,-3.13E-06,0.018921876
,,,-3.12E-06,0.018857501
,,,-3.11E-06,0.018799376
,,,-3.1E-06,0.018812501
,,,-3.09E-06,0.018839376
,,,-3.08E-06,0.018736251
,,,-3.07E-06,0.018857501
,,,-3.06E-06,0.018645001
,,,-3.05E-06,0.018769376
,,,-3.04E-06,0.018645001
,,,-3.03E-06,0.018695626
,,,-3.02E-06,0.018906876
,,,-3.01E-06,0.018600001
,,,-3E-06,0.018823751
,,,-2.99E-06,0.019018126
,,,-2.98E-06,0.018741251
,,,-2.97E-06,0.018671251
,,,-2.96E-06,0.018878751
,,,-2.95E-06,0.018895001
,,,-2.94E-06,0.018928126
,,,-2.93E-06,0.018670626
,,,-2.92E-06,0.018913126
,,,-2.91E-06,0.019083126
,,,-2.9E-06,0.018831876
,,,-2.89E-06,0.019008751
,,,-2.88E-06,0.018855626
,,,-2.87E-06,0.018720001
,,,-2.86E-06,0.018761876
,,,-2.85E-06,0.018873751
,,,-2.84E-06,0.018865626
,,,-2.83E-06,0.018979376
,,,-2.82E-06,0.018806251
,,,-2.81E-06,0.018771251
,,,-2.8E-06,0.019003126
,,,-2.79E-06,0.018951251
,,,-2.78E-06,0.018869376
,,,-2.77E-06,0.018796251
,,,-2.76E-06,0.018855001
,,,-2.75E-06,0.019063751
,,,-2.74E-06,0.019005001
,,,-2.73E-06,0.018817501
,,,-2.72E-06,0.018899376
,,,-2.71E-06,0.018742501
,,,-2.7E-06,0.018928126
,,,-2.69E-06,0.018590001
,,,-2.68E-06,0.018981876
,,,-2.67E-06,0.018948751
,,,-2.66E-06,0.018717501
,,,-2.65E-06,0.019002501
,,,-2.64E-06,0.018788751
,,,-2.63E-06,0.018805626
,,,-2.62E-06,0.018818126
,,,-2.61E-06,0.018745626
,,,-2.6E-06,0.018688751
,,,-2.59E-06,0.019005001
,,,-2.58E-06,0.018891251
,,,-2.57E-06,0.018818126
,,,-2.56E-06,0.018649376
,,,-2.55E-06,0.018900626
,,,-2.54E-06,0.019001251
,,,-2.53E-06,0.019007501
,,,-2.52E-06,0.019002501
,,,-2.51E-06,0.018815626
,,,-2.5E-06,0.018922501
,,,-2.49E-06,0.018993751
,,,-2.48E-06,0.018988751
,,,-2.47E-06,0.018855001
,,,-2.46E-06,0.018686876
,,,-2.45E-06,0.018885626
,,,-2.44E-06,0.018759376
,,,-2.43E-06,0.018575626
,,,-2.42E-06,0.018810626
,,,-2.41E-06,0.018891876
,,,-2.4E-06,0.018995001
,,,-2.39E-06,0.018888751
,,,-2.38E-06,0.018584376
,,,-2.37E-06,0.018900001
,,,-2.36E-06,0.018499376
,,,-2.35E-06,0.018878126
,,,-2.34E-06,0.018876251
,,,-2.33E-06,0.018681876
,,,-2.32E-06,0.018765001
,,,-2.31E-06,0.018912501
,,,-2.3E-06,0.018693751
,,,-2.29E-06,0.019116876
,,,-2.28E-06,0.018715001
,,,-2.27E-06,0.019115001
,,,-2.26E-06,0.018988126
,,,-2.25E-06,0.018940626
,,,-2.24E-06,0.018928126
,,,-2.23E-06,0.018960001
,,,-2.22E-06,0.018893126
,,,-2.21E-06,0.018711876
,,,-2.2E-06,0.019021876
,,,-2.19E-06,0.018866251
,,,-2.18E-06,0.018944376
,,,-2.17E-06,0.018911876
,,,-2.16E-06,0.018654376
,,,-2.15E-06,0.018795626
,,,-2.14E-06,0.018998126
,,,-2.13E-06,0.018836876
,,,-2.12E-06,0.018774376
,,,-2.11E-06,0.018716251
,,,-2.1E-06,0.018743126
,,,-2.09E-06,0.018741876
,,,-2.08E-06,0.018941876
,,,-2.07E-06,0.018730001
,,,-2.06E-06,0.018789376
,,,-2.05E-06,0.018938751
,,,-2.04E-06,0.018745001
,,,-2.03E-06,0.018501876
,,,-2.02E-06,0.018691251
,,,-2.01E-06,0.018826876
,,,-2E-06,0.018956251
,,,-1.99E-06,0.018923751
,,,-1.98E-06,0.018964376
,,,-1.97E-06,0.018788126
,,,-1.96E-06,0.019123126
,,,-1.95E-06,0.018843126
,,,-1.94E-06,0.018909376
,,,-1.93E-06,0.018985001
,,,-1.92E-06,0.018935626
,,,-1.91E-06,0.018841251
,,,-1.9E-06,0.019076251
,,,-1.89E-06,0.018699376
,,,-1.88E-06,0.018865626
,,,-1.87E-06,0.018908126
,,,-1.86E-06,0.018915001
,,,-1.85E-06,0.018868751
,,,-1.84E-06,0.018691251
,,,-1.83E-06,0.018525001
,,,-1.82E-06,0.018708126
,,,-1.81E-06,0.018879376
,,,-1.8E-06,0.018746876
,,,-1.79E-06,0.018781251
,,,-1.78E-06,0.018773126
,,,-1.77E-06,0.018980001
,,,-1.76E-06,0.018870001
,,,-1.75E-06,0.018733751
,,,-1.74E-06,0.019003751
,,,-1.73E-06,0.018953751
,,,-1.72E-06,0.018935626
,,,-1.71E-06,0.018773126
,,,-1.7E-06,0.018923751
,,,-1.69E-06,0.018857501
,,,-1.68E-06,0.019021251
,,,-1.67E-06,0.018956876
,,,-1.66E-06,0.018581251
,,,-1.65E-06,0.018776251
,,,-1.64E-06,0.018828126
,,,-1.63E-06,0.018773126
,,,-1.62E-06,0.018839376
,,,-1.61E-06,0.018726251
,,,-1.6E-06,0.018880626
,,,-1.59E-06,0.018705626
,,,-1.58E-06,0.018724376
,,,-1.57E-06,0.018743126
,,,-1.56E-06,0.018836876
,,,-1.55E-06,0.019075626
,,,-1.54E-06,0.018737501
,,,-1.53E-06,0.018680626
,,,-1.52E-06,0.019112501
,,,-1.51E-06,0.018943751
,,,-1.5E-06,0.018746251
,,,-1.49E-06,0.019013126
,,,-1.48E-06,0.019026876
,,,-1.47E-06,0.018790001
,,,-1.46E-06,0.018807501
,,,-1.45E-06,0.018739376
,,,-1.44E-06,0.018893126
,,,-1.43E-06,0.018764376
,,,-1.42E-06,0.018803751
,,,-1.41E-06,0.019022501
,,,-1.4E-06,0.018850001
,,,-1.39E-06,0.018625001
,,,-1.38E-06,0.018855001
,,,-1.37E-06,0.018930001
,,,-1.36E-06,0.018959376
,,,-1.35E-06,0.018886251
,,,-1.34E-06,0.018913751
,,,-1.33E-06,0.018921876
,,,-1.32E-06,0.018801251
,,,-1.31E-06,0.018765626
,,,-1.3E-06,0.018763126
,,,-1.29E-06,0.018951876
,,,-1.28E-06,0.018731876
,,,-1.27E-06,0.018921876
,,,-1.26E-06,0.018974376
,,,-1.25E-06,0.018718751
,,,-1.24E-06,0.019022501
,,,-1.23E-06,0.018734376
,,,-1.22E-06,0.018781251
,,,-1.21E-06,0.018910626
,,,-1.2E-06,0.018817501
,,,-1.19E-06,0.018860626
,,,-1.18E-06,0.018876876
,,,-1.17E-06,0.019021251
,,,-1.16E-06,0.018575626
,,,-1.15E-06,0.018764376
,,,-1.14E-06,0.018885001
,,,-1.13E-06,0.018874376
,,,-1.12E-06,0.018823126
,,,-1.11E-06,0.018928751
,,,-1.1E-06,0.018705001
,,,-1.09E-06,0.018729376
,,,-1.08E-06,0.018861251
,,,-1.07E-06,0.018788751
,,,-1.06E-06,0.018823751
,,,-1.05E-06,0.018916251
,,,-1.04E-06,0.018879376
,,,-1.03E-06,0.018830626
,,,-1.02E-06,0.018806251
,,,-1.01E-06,0.018976876
,,,-1E-06,0.019116876
,,,-9.9E-07,0.018698751
,,,-9.8E-07,0.018646876
,,,-9.7E-07,0.018792501
,,,-9.6E-07,0.018787501
,,,-9.5E-07,0.018779376
,,,-9.4E-07,0.019009376
,,,-9.3E-07,0.018815001
,,,-9.2E-07,0.018972501
,,,-9.1E-07,0.019050626
,,,-9E-07,0.018632501
,,,-8.9E-07,0.018778126
,,,-8.8E-07,0.018788126
,,,-8.7E-07,0.018988751
,,,-8.6E-07,0.018969376
,,,-8.5E-07,0.019084376
,,,-8.4E-07,0.018808126
,,,-8.3E-07,0.018825626
,,,-8.2E-07,0.019000001
,,,-8.1E-07,0.018944376
,,,-8E-07,0.018873751
,,,-7.9E-07,0.018750001
,,,-7.8E-07,0.018966876
,,,-7.7E-07,0.019137501
,,,-7.6E-07,0.018861251
,,,-7.5E-07,0.018771251
,,,-7.4E-07,0.018971876
,,,-7.3E-07,0.018873751
,,,-7.2E-07,0.018923751
,,,-7.1E-07,0.018785001
,,,-7E-07,0.018893751
,,,-6.9E-07,0.018832501
,,,-6.8E-07,0.018708126
,,,-6.7E-07,0.018975626
,,,-6.6E-07,0.018340626
,,,-6.5E-07,0.018718751
,,,-6.4E-07,0.019033751
,,,-6.3E-07,0.018769376
,,,-6.2E-07,0.018815001
,,,-6.1E-07,0.018957501
,,,-6E-07,0.019002501
,,,-5.9E-07,0.018874376
,,,-5.8E-07,0.018868126
,,,-5.7E-07,0.018740626
,,,-5.6E-07,0.018601876
,,,-5.5E-07,0.018681251
,,,-5.4E-07,0.018886251
,,,-5.3E-07,0.018756876
,,,-5.2E-07,0.018716876
,,,-5.1E-07,0.018741251
,,,-5E-07,0.018780626
,,,-4.9E-07,0.018959376
,,,-4.8E-07,0.018665626
,,,-4.7E-07,0.018865001
,,,-4.6E-07,0.018900626
,,,-4.5E-07,0.018878751
,,,-4.4E-07,0.018991251
,,,-4.3E-07,0.018638126
,,,-4.2E-07,0.019069376
,,,-4.1E-07,0.018945001
,,,-4E-07,0.018710626
,,,-3.9E-07,0.018819376
,,,-3.8E-07,0.019023751
,,,-3.7E-07,0.018921876
,,,-3.6E-07,0.018740626
,,,-3.5E-07,0.018911876
,,,-3.4E-07,0.018860626
,,,-3.3E-07,0.019051251
,,,-3.2E-07,0.018725626
,,,-3.1E-07,0.018830001
,,,-3E-07,0.018801876
,,,-2.9E-07,0.019168751
,,,-2.8E-07,0.018832501
,,,-2.7E-07,0.018668751
,,,-2.6E-07,0.018808751
,,,-2.5E-07,0.018615001
,,,-2.4E-07,0.018546876
,,,-2.3E-07,0.019183751
,,,-2.2E-07,0.018785001
,,,-2.1E-07,0.019001251
,,,-2E-07,0.018624376
,,,-1.9E-07,0.018885626
,,,-1.8E-07,0.019128751
,,,-1.7E-07,0.018976251
,,,-1.6E-07,0.018835626
,,,-1.5E-07,0.018981251
,,,-1.4E-07,0.018451876
,,,-1.3E-07,0.019053126
,,,-1.2E-07,0.018738126
,,,-1.1E-07,0.018828126
,,,-1E-07,0.019039376
,,,-9E-08,0.018690001
,,,-8E-08,0.018887501
,,,-7E-08,0.018475001
,,,-6E-08,0.018521876
,,,-5E-08,0.018756251
,,,-4E-08,0.020354376
,,,-3E-08,0.020288751
,,,-2E-08,0.017589376
,,,-1E-08,0.016140001
,,,0,0.016741876
,,,1E-08,0.021251876
,,,2E-08,0.021931251
,,,3E-08,0.021280626
,,,4E-08,0.018010001
,,,5E-08,0.016646876
,,,6E-08,0.016473751
,,,7E-08,0.018003751
,,,8E-08,0.019504376
,,,9E-08,0.020696251
,,,1E-07,0.020372501
,,,1.1E-07,0.019077501
,,,1.2E-07,0.017950626
,,,1.3E-07,0.017390626
,,,1.4E-07,0.018644376
,,,1.5E-07,0.019120001
,,,1.6E-07,0.019163751
,,,1.7E-07,0.019053751
,,,1.8E-07,0.019021876
,,,1.9E-07,0.018811251
,,,2E-07,0.018883126
,,,2.1E-07,0.018666251
,,,2.2E-07,0.018547501
,,,2.3E-07,0.018973751
,,,2.4E-07,0.019008751
,,,2.5E-07,0.019006251
,,,2.6E-07,0.018939376
,,,2.7E-07,0.018590001
,,,2.8E-07,0.018849376
,,,2.9E-07,0.018466876
,,,3E-07,0.019011251
,,,3.1E-07,0.018854376
,,,3.2E-07,0.018748751
,,,3.3E-07,0.018763126
,,,3.4E-07,0.018780626
,,,3.5E-07,0.018880001
,,,3.6E-07,0.018885001
,,,3.7E-07,0.018668126
,,,3.8E-07,0.018804376
,,,3.9E-07,0.018830001
,,,4E-07,0.018721876
,,,4.1E-07,0.018683751
,,,4.2E-07,0.019098751
,,,4.3E-07,0.018754376
,,,4.4E-07,0.018885001
,,,4.5E-07,0.018893126
,,,4.6E-07,0.018837501
,,,4.7E-07,0.018638751
,,,4.8E-07,0.019056876
,,,4.9E-07,0.018656251
,,,5E-07,0.018698751
,,,5.1E-07,0.019064376
,,,5.2E-07,0.018757501
,,,5.3E-07,0.018852501
,,,5.4E-07,0.018880626
,,,5.5E-07,0.018812501
,,,5.6E-07,0.018985001
,,,5.7E-07,0.018830626
,,,5.8E-07,0.019045001
,,,5.9E-07,0.018983126
,,,6E-07,0.019013751
,,,6.1E-07,0.018966251
,,,6.2E-07,0.018871876
,,,6.3E-07,0.019062501
,,,6.4E-07,0.018928126
,,,6.5E-07,0.019033751
,,,6.6E-07,0.018910626
,,,6.7E-07,0.018825626
,,,6.8E-07,0.018650001
,,,6.9E-07,0.018758751
,,,7E-07,0.018783751
,,,7.1E-07,0.018762501
,,,7.2E-07,0.018683126
,,,7.3E-07,0.019036876
,,,7.4E-07,0.018693751
,,,7.5E-07,0.018973126
,,,7.6E-07,0.018777501
,,,7.7E-07,0.018811251
,,,7.8E-07,0.018790626
,,,7.9E-07,0.018722501
,,,8E-07,0.018845626
,,,8.1E-07,0.018825626
,,,8.2E-07,0.019118751
,,,8.3E-07,0.019000001
,,,8.4E-07,0.018766251
,,,8.5E-07,0.018803751
,,,8.6E-07,0.018994376
,,,8.7E-07,0.018946251
,,,8.8E-07,0.018945626
,,,8.9E-07,0.018653751
,,,9E-07,0.018570626
,,,9.1E-07,0.018780001
,,,9.2E-07,0.018790001
,,,9.3E-07,0.018886251
,,,9.4E-07,0.018867501
,,,9.5E-07,0.018988126
,,,9.6E-07,0.018870626
,,,9.7E-07,0.018977501
,,,9.8E-07,0.018960001
,,,9.9E-07,0.019037501
,,,1E-06,0.018940626
,,,1.01E-06,0.018816251
,,,1.02E-06,0.018640626
,,,1.03E-06,0.018886876
,,,1.04E-06,0.018571251
,,,1.05E-06,0.018892501
,,,1.06E-06,0.018918126
,,,1.07E-06,0.018997501
,,,1.08E-06,0.018915001
,,,1.09E-06,0.018861251
,,,1.1E-06,0.018713126
,,,1.11E-06,0.018741251
,,,1.12E-06,0.018905001
,,,1.13E-06,0.019000001
,,,1.14E-06,0.018700001
,,,1.15E-06,0.019041251
,,,1.16E-06,0.018926876
,,,1.17E-06,0.018926876
,,,1.18E-06,0.019112501
,,,1.19E-06,0.018776251
,,,1.2E-06,0.018836251
,,,1.21E-06,0.018841251
,,,1.22E-06,0.018721251
,,,1.23E-06,0.019018126
,,,1.24E-06,0.019183126
,,,1.25E-06,0.018668751
,,,1.26E-06,0.018988126
,,,1.27E-06,0.018793751
,,,1.28E-06,0.019030626
,,,1.29E-06,0.018982501
,,,1.3E-06,0.018912501
,,,1.31E-06,0.018818751
,,,1.32E-06,0.019010001
,,,1.33E-06,0.018719376
,,,1.34E-06,0.018898751
,,,1.35E-06,0.018771876
,,,1.36E-06,0.018926251
,,,1.37E-06,0.018856876
,,,1.38E-06,0.018813126
,,,1.39E-06,0.018874376
,,,1.4E-06,0.018956251
,,,1.41E-06,0.018976251
,,,1.42E-06,0.018934376
,,,1.43E-06,0.018705001
,,,1.44E-06,0.018818751
,,,1.45E-06,0.019054376
,,,1.46E-06,0.018768126
,,,1.47E-06,0.018685001
,,,1.48E-06,0.018796876
,,,1.49E-06,0.019028751
,,,1.5E-06,0.018815626
,,,1.51E-06,0.018798751
,,,1.52E-06,0.018606251
,,,1.53E-06,0.018568751
,,,1.54E-06,0.018960626
,,,1.55E-06,0.018492501
,,,1.56E-06,0.018890626
,,,1.57E-06,0.019237501
,,,1.58E-06,0.018922501
,,,1.59E-06,0.018730001
,,,1.6E-06,0.018788751
,,,1.61E-06,0.018801876
,,,1.62E-06,0.018741251
,,,1.63E-06,0.018824376
,,,1.64E-06,0.018814376
,,,1.65E-06,0.018807501
,,,1.66E-06,0.018777501
,,,1.67E-06,0.018780001
,,,1.68E-06,0.018798751
,,,1.69E-06,0.018945001
,,,1.7E-06,0.018817501
,,,1.71E-06,0.018753126
,,,1.72E-06,0.018957501
,,,1.73E-06,0.018845001
,,,1.74E-06,0.018911876
,,,1.75E-06,0.018950001
,,,1.76E-06,0.018931251
,,,1.77E-06,0.018671251
,,,1.78E-06,0.018918751
,,,1.79E-06,0.018776876
,,,1.8E-06,0.019068126
,,,1.81E-06,0.018878751
,,,1.82E-06,0.018894376
,,,1.83E-06,0.018866251
,,,1.84E-06,0.019005626
,,,1.85E-06,0.019036876
,,,1.86E-06,0.018775001
,,,1.87E-06,0.018994376
,,,1.88E-06,0.018696251
,,,1.89E-06,0.018820626
,,,1.9E-06,0.018776251
,,,1.91E-06,0.018651251
,,,1.92E-06,0.018839376
,,,1.93E-06,0.018896251
,,,1.94E-06,0.018953751
,,,1.95E-06,0.019095001
,,,1.96E-06,0.018892501
,,,1.97E-06,0.018671876
,,,1.98E-06,0.018936251
,,,1.99E-06,0.018803751
,,,2E-06,0.018893751
,,,2.01E-06,0.018915001
,,,2.02E-06,0.018705626
,,,2.03E-06,0.018576251
,,,2.04E-06,0.018691876
,,,2.05E-06,0.018590001
,,,2.06E-06,0.019034376
,,,2.07E-06,0.018925626
,,,2.08E-06,0.019068126
,,,2.09E-06,0.018771251
,,,2.1E-06,0.018801251
,,,2.11E-06,0.018865001
,,,2.12E-06,0.018633126
,,,2.13E-06,0.019145001
,,,2.14E-06,0.018821251
,,,2.15E-06,0.019027501
,,,2.16E-06,0.018802501
,,,2.17E-06,0.018907501
,,,2.18E-06,0.018959376
,,,2.19E-06,0.018695626
,,,2.2E-06,0.018498126
,,,2.21E-06,0.018681876
,,,2.22E-06,0.018763126
,,,2.23E-06,0.018531251
,,,2.24E-06,0.018853751
,,,2.25E-06,0.018715626
,,,2.26E-06,0.019016876
,,,2.27E-06,0.018741251
,,,2.28E-06,0.018940626
,,,2.29E-06,0.018905626
,,,2.3E-06,0.018963126
,,,2.31E-06,0.018866251
,,,2.32E-06,0.018869376
,,,2.33E-06,0.018991876
,,,2.34E-06,0.019060626
,,,2.35E-06,0.018862501
,,,2.36E-06,0.018749376
,,,2.37E-06,0.018912501
,,,2.38E-06,0.019066876
,,,2.39E-06,0.018921251
,,,2.4E-06,0.018754376
,,,2.41E-06,0.018710626
,,,2.42E-06,0.018856876
,,,2.43E-06,0.018778126
,,,2.44E-06,0.018877501
,,,2.45E-06,0.018801251
,,,2.46E-06,0.018680626
,,,2.47E-06,0.018776251
,,,2.48E-06,0.018885001
,,,2.49E-06,0.018794376
,,,2.5E-06,0.018783126
,,,2.51E-06,0.019240626
,,,2.52E-06,0.018823751
,,,2.53E-06,0.019078126
,,,2.54E-06,0.018536251
,,,2.55E-06,0.018951251
,,,2.56E-06,0.018843751
,,,2.57E-06,0.018908126
,,,2.58E-06,0.018725626
,,,2.59E-06,0.018743126
,,,2.6E-06,0.018757501
,,,2.61E-06,0.018715626
,,,2.62E-06,0.018915001
,,,2.63E-06,0.018770626
,,,2.64E-06,0.018861876
,,,2.65E-06,0.019263126
,,,2.66E-06,0.018601251
,,,2.67E-06,0.018730001
,,,2.68E-06,0.018723126
,,,2.69E-06,0.018588126
,,,2.7E-06,0.018699376
,,,2.71E-06,0.018878126
,,,2.72E-06,0.018791876
,,,2.73E-06,0.018803126
,,,2.74E-06,0.018660001
,,,2.75E-06,0.018858126
,,,2.76E-06,0.018961251
,,,2.77E-06,0.018846876
,,,2.78E-06,0.018747501
,,,2.79E-06,0.018826251
,,,2.8E-06,0.018931251
,,,2.81E-06,0.018909376
,,,2.82E-06,0.018735001
,,,2.83E-06,0.018924376
,,,2.84E-06,0.018776876
,,,2.85E-06,0.019050001
,,,2.86E-06,0.018691876
,,,2.87E-06,0.019095001
,,,2.88E-06,0.018918751
,,,2.89E-06,0.018936251
,,,2.9E-06,0.019011876
,,,2.91E-06,0.018573126
,,,2.92E-06,0.018770626
,,,2.93E-06,0.019149376
,,,2.94E-06,0.018633126
,,,2.95E-06,0.018870001
,,,2.96E-06,0.018867501
,,,2.97E-06,0.018980001
,,,2.98E-06,0.019113126
,,,2.99E-06,0.018758751
,,,3E-06,0.018624376
,,,3.01E-06,0.018738751
,,,3.02E-06,0.018743126
,,,3.03E-06,0.018670001
,,,3.04E-06,0.018653751
,,,3.05E-06,0.018925001
,,,3.06E-06,0.018798751
,,,3.07E-06,0.018865626
,,,3.08E-06,0.019036876
,,,3.09E-06,0.018765626
,,,3.1E-06,0.018672501
,,,3.11E-06,0.018699376
,,,3.12E-06,0.018745626
,,,3.13E-06,0.018807501
,,,3.14E-06,0.018764376
,,,3.15E-06,0.019083126
,,,3.16E-06,0.018609376
,,,3.17E-06,0.018796251
,,,3.18E-06,0.018741876
,,,3.19E-06,0.018838126
,,,3.2E-06,0.018725001
,,,3.21E-06,0.018730001
