data/raw/Final_POL_Test_1/SOP079_Ch1.csv

"Record Length",1000,"Points",-5E-06,0.0072925
"Sample Interval",1E-08,s,-4.99E-06,0.007510625
"Trigger Point",500,"Samples",-4.98E-06,0.007418125
"Trigger Time",0,s,-4.97E-06,0.007511875
"",,,-4.96E-06,0.00739625
"Horizontal Offset",-5E-06,s,-4.95E-06,0.0070025
,,,-4.94E-06,0.0073225
,,,-4.93E-06,0.007251875
,,,-4.92E-06,0.00721875
,,,-4.91E-06,0.007301875
,,,-4.9E-06,0.0075725
,,,-4.89E-06,0.007246875
,,,-4.88E-06,0.00743625
,,,-4.87E-06,0.00744375
,,,-4.86E-06,0.007324375
,,,-4.85E-06,0.007431875
,,,-4.84E-06,0.00755375
,,,-4.83E-06,0.00724875
,,,-4.82E-06,0.00719625
,,,-4.81E-06,0.00740625
,,,-4.8E-06,0.00717
,,,-4.79E-06,0.0074675
,,,-4.78E-06,0.007405
,,,-4.77E-06,0.007298125
,,,-4.76E-06,0.007229375
,,,-4.75E-06,0.007645
,,,-4.74E-06,0.00708
,,,-4.73E-06,0.00743375
,,,-4.72E-06,0.00743625
,,,-4.71E-06,0.007375625
,,,-4.7E-06,0.00732125
,,,-4.69E-06,0.00724
,,,-4.68E-06,0.0071025
,,,-4.67E-06,0.00739125
,,,-4.66E-06,0.007361875
,,,-4.65E-06,0.00738625
,,,-4.64E-06,0.007599375
,,,-4.63E-06,0.00728625
,,,-4.62E-06,0.007066875
,,,-4.61E-06,0.007134375
,,,-4.6E-06,0.0075
,,,-4.59E-06,0.007155
,,,-4.58E-06,0.0071875
,,,-4.57E-06,0.00713625
,,,-4.56E-06,0.00742125
,,,-4.55E-06,0.00732375
,,,-4.54E-06,0.00732
,,,-4.53E-06,0.007098125
,,,-4.52E-06,0.007291875
,,,-4.51E-06,0.00717875
,,,-4.5E-06,0.007156875
,,,-4.49E-06,0.007346875
,,,-4.48E-06,0.00729875
,,,-4.47E-06,0.0076175
,,,-4.46E-06,0.007373125
,,,-4.45E-06,0.007359375
,,,-4.44E-06,0.007306875
,,,-4.43E-06,0.007254375
,,,-4.42E-06,0.0075125
,,,-4.41E-06,0.007225
,,,-4.4E-06,0.007375625
,,,-4.39E-06,0.00746
,,,-4.38E-06,0.00744
,,,-4.37E-06,0.00698875
,,,-4.36E-06,0.007211875
,,,-4.35E-06,0.007503125
,,,-4.34E-06,0.0071475
,,,-4.33E-06,0.00752375
,,,-4.32E-06,0.0073625
,,,-4.31E-06,0.007098125
,,,-4.3E-06,0.0072625
,,,-4.29E-06,0.00731
,,,-4.28E-06,0.00758125
,,,-4.27E-06,0.00727
,,,-4.26E-06,0.00725
,,,-4.25E-06,0.007155625
,,,-4.24E-06,0.0073975
,,,-4.23E-06,0.00738875
,,,-4.22E-06,0.007219375
,,,-4.21E-06,0.007241875
,,,-4.2E-06,0.007405625
,,,-4.19E-06,0.007039375
,,,-4.18E-06,0.00731
,,,-4.17E-06,0.007094375
,,,-4.16E-06,0.0074625
,,,-4.15E-06,0.007360625
,,,-4.14E-06,0.007378125
,,,-4.13E-06,0.00743
,,,-4.12E-06,0.007425625
,,,-4.11E-06,0.0073125
,,,-4.1E-06,0.007308125
,,,-4.09E-06,0.007185625
,,,-4.08E-06,0.0072075
,,,-4.07E-06,0.00744625
,,,-4.06E-06,0.00738
,,,-4.05E-06,0.0073225
,,,-4.04E-06,0.007044375
,,,-4.03E-06,0.00736
,,,-4.02E-06,0.00731125
,,,-4.01E-06,0.007046875
,,,-4E-06,0.0073225
,,,-3.99E-06,0.007200625
,,,-3.98E-06,0.007403125
,,,-3.97E-06,0.007555
,,,-3.96E-06,0.00727375
,,,-3.95E-06,0.00742875
,,,-3.94E-06,0.0071625
,,,-3.93E-06,0.007290625
,,,-3.92E-06,0.007400625
,,,-3.91E-06,0.007310625
,,,-3.9E-06,0.007489375
,,,-3.89E-06,0.00743
,,,-3.88E-06,0.007205625
,,,-3.87E-06,0.007176875
,,,-3.86E-06,0.00721875
,,,-3.85E-06,0.00733625
,,,-3.84E-06,0.0072175
,,,-3.83E-06,0.007181875
,,,-3.82E-06,0.007191875
,,,-3.81E-06,0.00750125
,,,-3.8E-06,0.0072825
,,,-3.79E-06,0.007275
,,,-3.78E-06,0.00750875
,,,-3.77E-06,0.007265625
,,,-3.76E-06,0.00722375
,,,-3.75E-06,0.0072775
,,,-3.74E-06,0.007125625
,,,-3.73E-06,0.007194375
,,,-3.72E-06,0.007476875
,,,-3.71E-06,0.00755
,,,-3.7E-06,0.007320625
,,,-3.69E-06,0.007266875
,,,-3.68E-06,0.00747625
,,,-3.67E-06,0.007375
,,,-3.66E-06,0.00714
,,,-3.65E-06,0.007256875
,,,-3.64E-06,0.00718375
,,,-3.63E-06,0.00736875
,,,-3.62E-06,0.00747
,,,-3.61E-06,0.007346875
,,,-3.6E-06,0.007325625
,,,-3.59E-06,0.007206875
,,,-3.58E-06,0.00745125
,,,-3.57E-06,0.007531875
,,,-3.56E-06,0.007295625
,,,-3.55E-06,0.007383125
,,,-3.54E-06,0.007181875
,,,-3.53E-06,0.007304375
,,,-3.52E-06,0.007476875
,,,-3.51E-06,0.007295
,,,-3.5E-06,0.007366875
,,,-3.49E-06,0.00725875
,,,-3.48E-06,0.007211875
,,,-3.47E-06,0.00723125
,,,-3.46E-06,0.007396875
,,,-3.45E-06,0.00751375
,,,-3.44E-06,0.0073875
,,,-3.43E-06,0.007149375
,,,-3.42E-06,0.007118125
,,,-3.41E-06,0.007478125
,,,-3.4E-06,0.0072475
,,,-3.39E-06,0.007356875
,,,-3.38E-06,0.00736125
,,,-3.37E-06,0.00761
,,,-3.36E-06,0.00715625
,,,-3.35E-06,0.00711125
,,,-3.34E-06,0.00744125
,,,-3.33E-06,0.00715375
,,,-3.32E-06,0.007268125
,,,-3.31E-06,0.007115
,,,-3.3E-06,0.0074125
,,,-3.29E-06,0.00749625
,,,-3.28E-06,0.006984375
,,,-3.27E-06,0.0070025
,,,-3.26E-06,0.007159375
,,,-3.25E-06,0.007299375
,,,-3.24E-06,0.00717375
,,,-3.23E-06,0.007315
,,,-3.22E-06,0.007294375
,,,-3.21E-06,0.007338125
,,,-3.2E-06,0.007135
,,,-3.19E-06,0.0073975
,,,-3.18E-06,0.0070425
,,,-3.17E-06,0.0074725
,,,-3.16E-06,0.007364375
,,,-3.15E-06,0.0071625
,,,-3.14E-06,0.0071425
,,,-3.13E-06,0.00723125
,,,-3.12E-06,0.00713125
,,,-3.11E-06,0.007129375
,,,-3.1E-06,0.00733625
,,,-3.09E-06,0.00732375
,,,-3.08E-06,0.00727625
,,,-3.07E-06,0.007350625
,,,-3.06E-06,0.00741375
,,,-3.05E-06,0.007316875
,,,-3.04E-06,0.007459375
,,,-3.03E-06,0.007145
,,,-3.02E-06,0.007575
,,,-3.01E-06,0.007259375
,,,-3E-06,0.007173125
,,,-2.99E-06,0.007371875
,,,-2.98E-06,0.007234375
,,,-2.97E-06,0.007445625
,,,-2.96E-06,0.007281875
,,,-2.95E-06,0.007060625
,,,-2.94E-06,0.00724375
,,,-2.93E-06,0.007285625
,,,-2.92E-06,0.00729875
,,,-2.91E-06,0.007366875
,,,-2.9E-06,0.007485
,,,-2.89E-06,0.00738625
,,,-2.88E-06,0.007140625
,,,-2.87E-06,0.007355
,,,-2.86E-06,0.007295625
,,,-2.85E-06,0.00713375
,,,-2.84E-06,0.00717625
,,,-2.83E-06,0.007286875
,,,-2.82E-06,0.007213125
,,,-2.81E-06,0.0074375
,,,-2.8E-06,0.007298125
,,,-2.79E-06,0.00729125
,,,-2.78E-06,0.0072325
,,,-2.77E-06,0.0072475
,,,-2.76E-06,0.00717
,,,-2.75E-06,0.007208125
,,,-2.74E-06,0.007340625
,,,-2.73E-06,0.007175
,,,-2.72E-06,0.00751625
,,,-2.71E-06,0.007195625
,,,-2.7E-06,0.007380625
,,,-2.69E-06,0.007269375
,,,-2.68E-06,0.007549375
,,,-2.67E-06,0.007379375
,,,-2.66E-06,0.007109375
,,,-2.65E-06,0.007396875
,,,-2.64E-06,0.0071675
,,,-2.63E-06,0.007126875
,,,-2.62E-06,0.00735875
,,,-2.61E-06,0.006981875
,,,-2.6E-06,0.007221875
,,,-2.59E-06,0.007239375
,,,-2.58E-06,0.007488125
,,,-2.57E-06,0.00725875
,,,-2.56E-06,0.007591875
,,,-2.55E-06,0.007053125
,,,-2.54E-06,0.00697125
,,,-2.53E-06,0.007221875
,,,-2.52E-06,0.007103125
,,,-2.51E-06,0.007214375
,,,-2.5E-06,0.00736375
,,,-2.49E-06,0.00729125
,,,-2.48E-06,0.007228125
,,,-2.47E-06,0.007458125
,,,-2.46E-06,0.007194375
,,,-2.45E-06,0.0071775
,,,-2.44E-06,0.00729125
,,,-2.43E-06,0.007365625
,,,-2.42E-06,0.007526875
,,,-2.41E-06,0.007046875
,,,-2.4E-06,0.0073625
,,,-2.39E-06,0.007154375
,,,-2.38E-06,0.007235625
,,,-2.37E-06,0.007410625
,,,-2.36E-06,0.0071275
,,,-2.35E-06,0.00711
,,,-2.34E-06,0.007271875
,,,-2.33E-06,0.007341875
,,,-2.32E-06,0.007201875
,,,-2.31E-06,0.007256875
,,,-2.3E-06,0.007305625
,,,-2.29E-06,0.00727
,,,-2.28E-06,0.0073
,,,-2.27E-06,0.0071925
,,,-2.26E-06,0.007219375
,,,-2.25E-06,0.007065625
,,,-2.24E-06,0.007286875
,,,-2.23E-06,0.007264375
,,,-2.22E-06,0.00717875
,,,-2.21E-06,0.0071525
,,,-2.2E-06,0.007293125
,,,-2.19E-06,0.007258125
,,,-2.18E-06,0.00739
,,,-2.17E-06,0.00746625
,,,-2.16E-06,0.00733875
,,,-2.15E-06,0.0074425
,,,-2.14E-06,0.007581875
,,,-2.13E-06,0.00743375
,,,-2.12E-06,0.00724375
,,,-2.11E-06,0.007228125
,,,-2.1E-06,0.007405625
,,,-2.09E-06,0.007458125
,,,-2.08E-06,0.00752
,,,-2.07E-06,0.007549375
,,,-2.06E-06,0.00724625
,,,-2.05E-06,0.0072625
,,,-2.04E-06,0.00727125
,,,-2.03E-06,0.007578125
,,,-2.02E-06,0.007349375
,,,-2.01E-06,0.00738125
,,,-2E-06,0.00740125
,,,-1.99E-06,0.00738
,,,-1.98E-06,0.00724375
,,,-1.97E-06,0.007234375
,,,-1.96E-06,0.007120625
,,,-1.95E-06,0.007518125
,,,-1.94E-06,0.0072425
,,,-1.93E-06,0.007335625
,,,-1.92E-06,0.007221875
,,,-1.91E-06,0.007405625
,,,-1.9E-06,0.007220625
,,,-1.89E-06,0.007215625
,,,-1.88E-06,0.007225625
,,,-1.87E-06,0.0071075
,,,-1.86E-06,0.00723125
,,,-1.85E-06,0.007485625
,,,-1.84E-06,0.007314375
,,,-1.83E-06,0.00741875
,,,-1.82E-06,0.0074075
,,,-1.81E-06,0.007299375
,,,-1.8E-06,0.007301875
,,,-1.79E-06,0.007111875
,,,-1.78E-06,0.00715625
,,,-1.77E-06,0.007371875
,,,-1.76E-06,0.007356875
,,,-1.75E-06,0.007298125
,,,-1.74E-06,0.00730875
,,,-1.73E-06,0.007535625
,,,-1.72E-06,0.007309375
,,,-1.71E-06,0.007128125
,,,-1.7E-06,0.007425
,,,-1.69E-06,0.007319375
,,,-1.68E-06,0.007303125
,,,-1.67E-06,0.007265
,,,-1.66E-06,0.00756875
,,,-1.65E-06,0.00712375
,,,-1.64E-06,0.00736
,,,-1.63E-06,0.00714625
,,,-1.62E-06,0.0072125
,,,-1.61E-06,0.007395
,,,-1.6E-06,0.00726
,,,-1.59E-06,0.0074425
,,,-1.58E-06,0.007253125
,,,-1.57E-06,0.007315625
,,,-1.56E-06,0.00744625
,,,-1.55E-06,0.0073175
,,,-1.54E-06,0.007451875
,,,-1.53E-06,0.007351875
,,,-1.52E-06,0.007178125
,,,-1.51E-06,0.007516875
,,,-1.5E-06,0.007416875
,,,-1.49E-06,0.0074725
,,,-1.48E-06,0.007319375
,,,-1.47E-06,0.00726
,,,-1.46E-06,0.00721875
,,,-1.45E-06,0.007154375
,,,-1.44E-06,0.00721
,,,-1.43E-06,0.00754
,,,-1.42E-06,0.007305
,,,-1.41E-06,0.0072075
,,,-1.4E-06,0.0074475
,,,-1.39E-06,0.0071275
,,,-1.38E-06,0.0073475
,,,-1.37E-06,0.00730375
,,,-1.36E-06,0.007368125
,,,-1.35E-06,0.007115625
,,,-1.34E-06,0.00720875
,,,-1.33E-06,0.007476875
,,,-1.32E-06,0.00698625
,,,-1.31E-06,0.007169375
,,,-1.3E-06,0.00719125
,,,-1.29E-06,0.007213125
,,,-1.28E-06,0.007195625
,,,-1.27E-06,0.007271875
,,,-1.26E-06,0.00717625
,,,-1.25E-06,0.00737375
,,,-1.24E-06,0.00746125
,,,-1.23E-06,0.0074175
,,,-1.22E-06,0.007385
,,,-1.21E-06,0.00736625
,,,-1.2E-06,0.007325
,,,-1.19E-06,0.00730625
,,,-1.18E-06,0.00723375
,,,-1.17E-06,0.007446875
,,,-1.16E-06,0.007416875
,,,-1.15E-06,0.007144375
,,,-1.14E-06,0.00701125
,,,-1.13E-06,0.00713
,,,-1.12E-06,0.0074525
,,,-1.11E-06,0.007185625
,,,-1.1E-06,0.0072625
,,,-1.09E-06,0.00737125
,,,-1.08E-06,0.007266875
,,,-1.07E-06,0.007475625
,,,-1.06E-06,0.007349375
,,,-1.05E-06,0.0070925
,,,-1.04E-06,0.007503125
,,,-1.03E-06,0.007145625
,,,-1.02E-06,0.00739625
,,,-1.01E-06,0.0071775
,,,-1E-06,0.00725625
,,,-9.9E-07,0.007348125
,,,-9.8E-07,0.00726125
,,,-9.7E-07,0.007294375
,,,-9.6E-07,0.00731375
,,,-9.5E-07,0.007261875
,,,-9.4E-07,0.0073975
,,,-9.3E-07,0.00708625
,,,-9.2E-07,0.0075875
,,,-9.1E-07,0.00746875
,,,-9E-07,0.00744875
,,,-8.9E-07,0.007148125
,,,-8.8E-07,0.00744
,,,-8.7E-07,0.0073225
,,,-8.6E-07,0.007299375
,,,-8.5E-07,0.007280625
,,,-8.4E-07,0.007325625
,,,-8.3E-07,0.007420625
,,,-8.2E-07,0.00728875
,,,-8.1E-07,0.007241875
,,,-8E-07,0.007129375
,,,-7.9E-07,0.007239375
,,,-7.8E-07,0.0071625
,,,-7.7E-07,0.00739625
,,,-7.6E-07,0.007249375
,,,-7.5E-07,0.007419375
,,,-7.4E-07,0.0072
,,,-7.3E-07,0.007265625
,,,-7.2E-07,0.00722625
,,,-7.1E-07,0.007245
,,,-7E-07,0.007140625
,,,-6.9E-07,0.007296875
,,,-6.8E-07,0.007250625
,,,-6.7E-07,0.007220625
,,,-6.6E-07,0.00746875
,,,-6.5E-07,0.007349375
,,,-6.4E-07,0.00720875
,,,-6.3E-07,0.00713625
,,,-6.2E-07,0.00723375
,,,-6.1E-07,0.007178125
,,,-6E-07,0.00742125
,,,-5.9E-07,0.00721375
,,,-5.8E-07,0.00718375
,,,-5.7E-07,0.0070925
,,,-5.6E-07,0.007398125
,,,-5.5E-07,0.0075175
,,,-5.4E-07,0.007131875
,,,-5.3E-07,0.0072975
,,,-5.2E-07,0.0073625
,,,-5.1E-07,0.007625
,,,-5E-07,0.007236875
,,,-4.9E-07,0.00724375
,,,-4.8E-07,0.007505625
,,,-4.7E-07,0.007245
,,,-4.6E-07,0.00766375
,,,-4.5E-07,0.007075625
,,,-4.4E-07,0.007334375
,,,-4.3E-07,0.0071425
,,,-4.2E-07,0.00750125
,,,-4.1E-07,0.00747125
,,,-4E-07,0.007291875
,,,-3.9E-07,0.00741875
,,,-3.8E-07,0.007405
,,,-3.7E-07,0.007354375
,,,-3.6E-07,0.007329375
,,,-3.5E-07,0.0071825
,,,-3.4E-07,0.007175
,,,-3.3E-07,0.00762
,,,-3.2E-07,0.007130625
,,,-3.1E-07,0.00737375
,,,-3E-07,0.00702125
,,,-2.9E-07,0.00725375
,,,-2.8E-07,0.007235
,,,-2.7E-07,0.007395625
,,,-2.6E-07,0.00744125
,,,-2.5E-07,0.00722125
,,,-2.4E-07,0.007196875
,,,-2.3E-07,0.007253125
,,,-2.2E-07,0.007183125
,,,-2.1E-07,0.00755125
,,,-2E-07,0.007445625
,,,-1.9E-07,0.00702125
,,,-1.8E-07,0.0073225
,,,-1.7E-07,0.007505625
,,,-1.6E-07,0.007496875
,,,-1.5E-07,0.007439375
,,,-1.4E-07,0.007305
,,,-1.3E-07,0.007451875
,,,-1.2E-07,0.00719875
,,,-1.1E-07,0.007341875
,,,-1E-07,0.007069375
,,,-9E-08,0.007299375
,,,-8E-08,0.00729
,,,-7E-08,0.0070825
,,,-6E-08,0.007435
,,,-5E-08,0.007414375
,,,-4E-08,0.007879375
,,,-3E-08,0.007995
,,,-2E-08,0.006280625
,,,-1E-08,0.004595625
,,,0,0.005240625
,,,1E-08,0.009371875
,,,2E-08,0.010954375
,,,3E-08,0.010170625
,,,4E-08,0.006914375
,,,5E-08,0.005140625
,,,6E-08,0.00430875
,,,7E-08,0.006169375
,,,8E-08,0.00765125
,,,9E-08,0.0091175
,,,1E-07,0.009239375
,,,1.1E-07,0.0079375
,,,1.2E-07,0.006621875
,,,1.3E-07,0.005885625
,,,1.4E-07,0.006645
,,,1.5E-07,0.00744625
,,,1.6E-07,0.00763875
,,,1.7E-07,0.007714375
,,,1.8E-07,0.007579375
,,,1.9E-07,0.00740375
,,,2E-07,0.007300625
,,,2.1E-07,0.00706875
,,,2.2E-07,0.007189375
,,,2.3E-07,0.007326875
,,,2.4E-07,0.007373125
,,,2.5E-07,0.007528125
,,,2.6E-07,0.007455625
,,,2.7E-07,0.007178125
,,,2.8E-07,0.00725625
,,,2.9E-07,0.007120625
,,,3E-07,0.0072625
,,,3.1E-07,0.007385
,,,3.2E-07,0.007194375
,,,3.3E-07,0.00740625
,,,3.4E-07,0.007591875
,,,3.5E-07,0.00722875
,,,3.6E-07,0.007243125
,,,3.7E-07,0.0072675
,,,3.8E-07,0.007455625
,,,3.9E-07,0.0073375
,,,4E-07,0.007489375
,,,4.1E-07,0.007355
,,,4.2E-07,0.0073525
,,,4.3E-07,0.007320625
,,,4.4E-07,0.00749625
,,,4.5E-07,0.0072475
,,,4.6E-07,0.007340625
,,,4.7E-07,0.0071275
,,,4.8E-07,0.00719375
,,,4.9E-07,0.007200625
,,,5E-07,0.007278125
,,,5.1E-07,0.007355
,,,5.2E-07,0.00722
,,,5.3E-07,0.0072775
,,,5.4E-07,0.007418125
,,,5.5E-07,0.00733375
,,,5.6E-07,0.0073325
,,,5.7E-07,0.007406875
,,,5.8E-07,0.00719125
,,,5.9E-07,0.007443125
,,,6E-07,0.007281875
,,,6.1E-07,0.00728125
,,,6.2E-07,0.0069925
,,,6.3E-07,0.007275
,,,6.4E-07,0.00708875
,,,6.5E-07,0.007266875
,,,6.6E-07,0.007455
,,,6.7E-07,0.007429375
,,,6.8E-07,0.00762375
,,,6.9E-07,0.007215
,,,7E-07,0.0073825
,,,7.1E-07,0.0073475
,,,7.2E-07,0.007276875
,,,7.3E-07,0.007289375
,,,7.4E-07,0.00762
,,,7.5E-07,0.007371875
,,,7.6E-07,0.007059375
,,,7.7E-07,0.00740125
,,,7.8E-07,0.007163125
,,,7.9E-07,0.0074525
,,,8E-07,0.0073275
,,,8.1E-07,0.007334375
,,,8.2E-07,0.007663125
,,,8.3E-07,0.007315625
,,,8.4E-07,0.006986875
,,,8.5E-07,0.007360625
,,,8.6E-07,0.007473125
,,,8.7E-07,0.007301875
,,,8.8E-07,0.0073775
,,,8.9E-07,0.0073625
,,,9E-07,0.00742625
,,,9.1E-07,0.00729625
,,,9.2E-07,0.0073375
,,,9.3E-07,0.007503125
,,,9.4E-07,0.007073125
,,,9.5E-07,0.00745
,,,9.6E-07,0.007361875
,,,9.7E-07,0.007215
,,,9.8E-07,0.007355625
,,,9.9E-07,0.007250625
,,,1E-06,0.007185
,,,1.01E-06,0.007568125
,,,1.02E-06,0.007215625
,,,1.03E-06,0.007248125
,,,1.04E-06,0.0076175
,,,1.05E-06,0.007351875
,,,1.06E-06,0.00714625
,,,1.07E-06,0.0072875
,,,1.08E-06,0.007508125
,,,1.09E-06,0.007504375
,,,1.1E-06,0.007233125
,,,1.11E-06,0.00714625
,,,1.12E-06,0.007365
,,,1.13E-06,0.00722
,,,1.14E-06,0.007371875
,,,1.15E-06,0.007338125
,,,1.16E-06,0.00762625
,,,1.17E-06,0.00711125
,,,1.18E-06,0.007288125
,,,1.19E-06,0.00742
,,,1.2E-06,0.00727375
,,,1.21E-06,0.00731125
,,,1.22E-06,0.007430625
,,,1.23E-06,0.007181875
,,,1.24E-06,0.00722625
,,,1.25E-06,0.007265
,,,1.26E-06,0.007544375
,,,1.27E-06,0.00721875
,,,1.28E-06,0.007270625
,,,1.29E-06,0.007418125
,,,1.3E-06,0.007425625
,,,1.31E-06,0.007459375
,,,1.32E-06,0.007355
,,,1.33E-06,0.007363125
,,,1.34E-06,0.007353125
,,,1.35E-06,0.00741
,,,1.36E-06,0.007174375
,,,1.37E-06,0.007234375
,,,1.38E-06,0.007176875
,,,1.39E-06,0.007296875
,,,1.4E-06,0.00761625
,,,1.41E-06,0.007234375
,,,1.42E-06,0.0075275
,,,1.43E-06,0.00747375
,,,1.44E-06,0.00741875
,,,1.45E-06,0.007209375
,,,1.46E-06,0.007209375
,,,1.47E-06,0.007334375
,,,1.48E-06,0.0072375
,,,1.49E-06,0.007309375
,,,1.5E-06,0.007456875
,,,1.51E-06,0.007478125
,,,1.52E-06,0.007145
,,,1.53E-06,0.007378125
,,,1.54E-06,0.0074875
,,,1.55E-06,0.00704
,,,1.56E-06,0.007539375
,,,1.57E-06,0.007351875
,,,1.58E-06,0.007235
,,,1.59E-06,0.007439375
,,,1.6E-06,0.007148125
,,,1.61E-06,0.00723
,,,1.62E-06,0.007463125
,,,1.63E-06,0.007394375
,,,1.64E-06,0.007446875
,,,1.65E-06,0.007385
,,,1.66E-06,0.007405
,,,1.67E-06,0.00726875
,,,1.68E-06,0.007350625
,,,1.69E-06,0.007331875
,,,1.7E-06,0.00711375
,,,1.71E-06,0.0076425
,,,1.72E-06,0.007449375
,,,1.73E-06,0.007544375
,,,1.74E-06,0.00718625
,,,1.75E-06,0.007619375
,,,1.76E-06,0.006991875
,,,1.77E-06,0.007301875
,,,1.78E-06,0.007460625
,,,1.79E-06,0.007491875
,,,1.8E-06,0.007458125
,,,1.81E-06,0.007216875
,,,1.82E-06,0.007683125
,,,1.83E-06,0.007396875
,,,1.84E-06,0.00745625
,,,1.85E-06,0.00708625
,,,1.86E-06,0.0072825
,,,1.87E-06,0.0073475
,,,1.88E-06,0.007225625
,,,1.89E-06,0.007453125
,,,1.9E-06,0.007321875
,,,1.91E-06,0.007195
,,,1.92E-06,0.0074675
,,,1.93E-06,0.00712125
,,,1.94E-06,0.007224375
,,,1.95E-06,0.00731875
,,,1.96E-06,0.00727625
,,,1.97E-06,0.007061875
,,,1.98E-06,0.00734125
,,,1.99E-06,0.007116875
,,,2E-06,0.007256875
,,,2.01E-06,0.00711625
,,,2.02E-06,0.007118125
,,,2.03E-06,0.006983125
,,,2.04E-06,0.007179375
,,,2.05E-06,0.0074175
,,,2.06E-06,0.007228125
,,,2.07E-06,0.007449375
,,,2.08E-06,0.007358125
,,,2.09E-06,0.0072775
,,,2.1E-06,0.00722875
,,,2.11E-06,0.00725625
,,,2.12E-06,0.00732
,,,2.13E-06,0.00707375
,,,2.14E-06,0.0072975
,,,2.15E-06,0.0073175
,,,2.16E-06,0.007239375
,,,2.17E-06,0.007129375
,,,2.18E-06,0.00722625
,,,2.19E-06,0.006956875
,,,2.2E-06,0.00765375
,,,2.21E-06,0.007274375
,,,2.22E-06,0.007223125
,,,2.23E-06,0.0074525
,,,2.24E-06,0.007354375
,,,2.25E-06,0.007145
,,,2.26E-06,0.00724625
,,,2.27E-06,0.00767875
,,,2.28E-06,0.007264375
,,,2.29E-06,0.007338125
,,,2.3E-06,0.00717125
,,,2.31E-06,0.007264375
,,,2.32E-06,0.007380625
,,,2.33E-06,0.007494375
,,,2.34E-06,0.00731
,,,2.35E-06,0.007374375
,,,2.36E-06,0.007155625
,,,2.37E-06,0.007143125
,,,2.38E-06,0.007114375
,,,2.39E-06,0.007259375
,,,2.4E-06,0.00717
,,,2.41E-06,0.00756375
,,,2.42E-06,0.007438125
,,,2.43E-06,0.00724125
,,,2.44E-06,0.0071325
,,,2.45E-06,0.007216875
,,,2.46E-06,0.00735
,,,2.47E-06,0.007416875
,,,2.48E-06,0.007528125
,,,2.49E-06,0.007289375
,,,2.5E-06,0.007165625
,,,2.51E-06,0.006914375
,,,2.52E-06,0.00715875
,,,2.53E-06,0.007595625
,,,2.54E-06,0.00723625
,,,2.55E-06,0.00706875
,,,2.56E-06,0.007440625
,,,2.57E-06,0.007385
,,,2.58E-06,0.007168125
,,,2.59E-06,0.007061875
,,,2.6E-06,0.007345
,,,2.61E-06,0.0071375
,,,2.62E-06,0.00738125
,,,2.63E-06,0.00713875
,,,2.64E-06,0.007425625
,,,2.65E-06,0.00735125
,,,2.66E-06,0.007175
,,,2.67E-06,0.007353125
,,,2.68E-06,0.007086875
,,,2.69E-06,0.007645
,,,2.7E-06,0.007358125
,,,2.71E-06,0.00727125
,,,2.72E-06,0.00710875
,,,2.73E-06,0.0071175
,,,2.74E-06,0.007315625
,,,2.75E-06,0.0072625
,,,2.76E-06,0.0071025
,,,2.77E-06,0.007335
,,,2.78E-06,0.007314375
,,,2.79E-06,0.007404375
,,,2.8E-06,0.007338125
,,,2.81E-06,0.00732
,,,2.82E-06,0.007328125
,,,2.83E-06,0.007445625
,,,2.84E-06,0.007141875
,,,2.85E-06,0.007333125
,,,2.86E-06,0.007085
,,,2.87E-06,0.0073975
,,,2.88E-06,0.00720875
,,,2.89E-06,0.007660625
,,,2.9E-06,0.0075075
,,,2.91E-06,0.00735625
,,,2.92E-06,0.00745375
,,,2.93E-06,0.0074375
,,,2.94E-06,0.007180625
,,,2.95E-06,0.007401875
,,,2.96E-06,0.00736625
,,,2.97E-06,0.00721125
,,,2.98E-06,0.00724375
,,,2.99E-06,0.007326875
,,,3E-06,0.007350625
,,,3.01E-06,0.00712
,,,3.02E-06,0.00749
,,,3.03E-06,0.00703625
,,,3.04E-06,0.0074425
,,,3.05E-06,0.007240625
,,,3.06E-06,0.007318125
,,,3.07E-06,0.007325
,,,3.08E-06,0.00711625
,,,3.09E-06,0.007360625
,,,3.1E-06,0.007289375
,,,3.11E-06,0.00720375
,,,3.12E-06,0.006975625
,,,3.13E-06,0.007365625
,,,3.14E-06,0.007473125
,,,3.15E-06,0.007246875
,,,3.16E-06,0.007273125
,,,3.17E-06,0.00702875
,,,3.18E-06,0.0075175
,,,3.19E-06,0.00743
,,,3.2E-06,0.007325625
,,,3.21E-06,0.007109375
,,,3.22E-06,0.007180625
,,,3.23E-06,0.007391875
,,,3.24E-06,0.007298125
,,,3.25E-06,0.007555
,,,3.26E-06,0.007126875
,,,3.27E-06,0.00744125
,,,3.28E-06,0.00738125
,,,3.29E-06,0.007095
,,,3.3E-06,0.007273125
,,,3.31E-06,0.007200625
,,,3.32E-06,0.007253125
,,,3.33E-06,0.007296875
,,,3.34E-06,0.007140625
,,,3.35E-06,0.007445625
,,,3.36E-06,0.00718625
,,,3.37E-06,0.0073875
,,,3.38E-06,0.007426875
,,,3.39E-06,0.007203125
,,,3.4E-06,0.007358125
,,,3.41E-06,0.00740125
,,,3.42E-06,0.007080625
,,,3.43E-06,0.007293125
,,,3.44E-06,0.007323125
,,,3.45E-06,0.0075125
,,,3.46E-06,0.007314375
,,,3.47E-06,0.007328125
,,,3.48E-06,0.0074075
,,,3.49E-06,0.0073275
,,,3.5E-06,0.00695
,,,3.51E-06,0.007198125
,,,3.52E-06,0.00732375
,,,3.53E-06,0.0075
,,,3.54E-06,0.007220625
,,,3.55E-06,0.007406875
