data/raw/Final_POL_Test_1/SOP097_Ch1.csv

"Record Length",1000,"Points",-5E-06,0.004395
"Sample Interval",1E-08,s,-4.99E-06,0.004201875
"Trigger Point",500,"Samples",-4.98E-06,0.004351875
"Trigger Time",0,s,-4.97E-06,0.004510625
"",,,-4.96E-06,0.004189375
"Horizontal Offset",-5E-06,s,-4.95E-06,0.00434375
,,,-4.94E-06,0.004366875
,,,-4.93E-06,0.004173125
,,,-4.92E-06,0.00428625
,,,-4.91E-06,0.00433
,,,-4.9E-06,0.004133125
,,,-4.89E-06,0.004443125
,,,-4.88E-06,0.004110625
,,,-4.87E-06,0.00439125
,,,-4.86E-06,0.004196875
,,,-4.85E-06,0.004361875
,,,-4.84E-06,0.004283125
,,,-4.83E-06,0.004410625
,,,-4.82E-06,0.004320625
,,,-4.81E-06,0.00438125
,,,-4.8E-06,0.00405875
,,,-4.79E-06,0.004095625
,,,-4.78E-06,0.004331875
,,,-4.77E-06,0.004303125
,,,-4.76E-06,0.0044825
,,,-4.75E-06,0.004355
,,,-4.74E-06,0.004320625
,,,-4.73E-06,0.004485625
,,,-4.72E-06,0.004520625
,,,-4.71E-06,0.004439375
,,,-4.7E-06,0.004321875
,,,-4.69E-06,0.004111875
,,,-4.68E-06,0.00424625
,,,-4.67E-06,0.00395
,,,-4.66E-06,0.004345625
,,,-4.65E-06,0.004409375
,,,-4.64E-06,0.004218125
,,,-4.63E-06,0.004435
,,,-4.62E-06,0.004111875
,,,-4.61E-06,0.004255
,,,-4.6E-06,0.004449375
,,,-4.59E-06,0.00437125
,,,-4.58E-06,0.00433875
,,,-4.57E-06,0.004331875
,,,-4.56E-06,0.00435
,,,-4.55E-06,0.004268125
,,,-4.54E-06,0.004550625
,,,-4.53E-06,0.00445625
,,,-4.52E-06,0.00437
,,,-4.51E-06,0.00426
,,,-4.5E-06,0.004245
,,,-4.49E-06,0.0043
,,,-4.48E-06,0.004294375
,,,-4.47E-06,0.004159375
,,,-4.46E-06,0.004313125
,,,-4.45E-06,0.00425375
,,,-4.44E-06,0.00416875
,,,-4.43E-06,0.0043225
,,,-4.42E-06,0.004214375
,,,-4.41E-06,0.00421
,,,-4.4E-06,0.004480625
,,,-4.39E-06,0.00432
,,,-4.38E-06,0.00444125
,,,-4.37E-06,0.004314375
,,,-4.36E-06,0.004541875
,,,-4.35E-06,0.004263125
,,,-4.34E-06,0.00423
,,,-4.33E-06,0.00448875
,,,-4.32E-06,0.004404375
,,,-4.31E-06,0.00413375
,,,-4.3E-06,0.004218125
,,,-4.29E-06,0.00453
,,,-4.28E-06,0.004283125
,,,-4.27E-06,0.0043525
,,,-4.26E-06,0.0044475
,,,-4.25E-06,0.004316875
,,,-4.24E-06,0.0045825
,,,-4.23E-06,0.0041075
,,,-4.22E-06,0.00442375
,,,-4.21E-06,0.003988125
,,,-4.2E-06,0.00427875
,,,-4.19E-06,0.00411
,,,-4.18E-06,0.00438875
,,,-4.17E-06,0.00427
,,,-4.16E-06,0.00418375
,,,-4.15E-06,0.00412875
,,,-4.14E-06,0.004341875
,,,-4.13E-06,0.0044475
,,,-4.12E-06,0.00435625
,,,-4.11E-06,0.0043625
,,,-4.1E-06,0.00389
,,,-4.09E-06,0.00445625
,,,-4.08E-06,0.004359375
,,,-4.07E-06,0.004394375
,,,-4.06E-06,0.004426875
,,,-4.05E-06,0.004441875
,,,-4.04E-06,0.004484375
,,,-4.03E-06,0.004310625
,,,-4.02E-06,0.004201875
,,,-4.01E-06,0.004225
,,,-4E-06,0.004208125
,,,-3.99E-06,0.0043075
,,,-3.98E-06,0.0041025
,,,-3.97E-06,0.00423375
,,,-3.96E-06,0.004383125
,,,-3.95E-06,0.00416375
,,,-3.94E-06,0.004330625
,,,-3.93E-06,0.0043
,,,-3.92E-06,0.004251875
,,,-3.91E-06,0.004324375
,,,-3.9E-06,0.00417625
,,,-3.89E-06,0.004479375
,,,-3.88E-06,0.004110625
,,,-3.87E-06,0.004280625
,,,-3.86E-06,0.0043025
,,,-3.85E-06,0.00436
,,,-3.84E-06,0.00423
,,,-3.83E-06,0.004423125
,,,-3.82E-06,0.00423
,,,-3.81E-06,0.004325
,,,-3.8E-06,0.00427375
,,,-3.79E-06,0.004335
,,,-3.78E-06,0.00419875
,,,-3.77E-06,0.00436375
,,,-3.76E-06,0.004408125
,,,-3.75E-06,0.00405875
,,,-3.74E-06,0.004624375
,,,-3.73E-06,0.004173125
,,,-3.72E-06,0.004365
,,,-3.71E-06,0.004359375
,,,-3.7E-06,0.004355
,,,-3.69E-06,0.0043325
,,,-3.68E-06,0.004405625
,,,-3.67E-06,0.004285625
,,,-3.66E-06,0.004616875
,,,-3.65E-06,0.004555
,,,-3.64E-06,0.00421875
,,,-3.63E-06,0.004541875
,,,-3.62E-06,0.004385625
,,,-3.61E-06,0.0042725
,,,-3.6E-06,0.00441
,,,-3.59E-06,0.0046575
,,,-3.58E-06,0.004365625
,,,-3.57E-06,0.004443125
,,,-3.56E-06,0.004355
,,,-3.55E-06,0.0040525
,,,-3.54E-06,0.004238125
,,,-3.53E-06,0.004101875
,,,-3.52E-06,0.004139375
,,,-3.51E-06,0.004555625
,,,-3.5E-06,0.00441125
,,,-3.49E-06,0.004446875
,,,-3.48E-06,0.0045225
,,,-3.47E-06,0.00422
,,,-3.46E-06,0.0044075
,,,-3.45E-06,0.0041375
,,,-3.44E-06,0.0045425
,,,-3.43E-06,0.004484375
,,,-3.42E-06,0.004264375
,,,-3.41E-06,0.004141875
,,,-3.4E-06,0.0045075
,,,-3.39E-06,0.004518125
,,,-3.38E-06,0.004461875
,,,-3.37E-06,0.0044925
,,,-3.36E-06,0.00439625
,,,-3.35E-06,0.004344375
,,,-3.34E-06,0.004185625
,,,-3.33E-06,0.004110625
,,,-3.32E-06,0.004386875
,,,-3.31E-06,0.004211875
,,,-3.3E-06,0.004275625
,,,-3.29E-06,0.0045625
,,,-3.28E-06,0.004394375
,,,-3.27E-06,0.00461375
,,,-3.26E-06,0.0043725
,,,-3.25E-06,0.0042575
,,,-3.24E-06,0.00437
,,,-3.23E-06,0.004368125
,,,-3.22E-06,0.00434875
,,,-3.21E-06,0.00453125
,,,-3.2E-06,0.0045575
,,,-3.19E-06,0.00451
,,,-3.18E-06,0.004083125
,,,-3.17E-06,0.004079375
,,,-3.16E-06,0.0039775
,,,-3.15E-06,0.004469375
,,,-3.14E-06,0.0046125
,,,-3.13E-06,0.0045875
,,,-3.12E-06,0.0043075
,,,-3.11E-06,0.004195625
,,,-3.1E-06,0.004075625
,,,-3.09E-06,0.0041575
,,,-3.08E-06,0.004193125
,,,-3.07E-06,0.004666875
,,,-3.06E-06,0.00427125
,,,-3.05E-06,0.00449625
,,,-3.04E-06,0.00457875
,,,-3.03E-06,0.0042375
,,,-3.02E-06,0.004289375
,,,-3.01E-06,0.00441375
,,,-3E-06,0.004385
,,,-2.99E-06,0.0043325
,,,-2.98E-06,0.0043875
,,,-2.97E-06,0.00421
,,,-2.96E-06,0.004385625
,,,-2.95E-06,0.0044675
,,,-2.94E-06,0.004431875
,,,-2.93E-06,0.004325625
,,,-2.92E-06,0.004519375
,,,-2.91E-06,0.00433125
,,,-2.9E-06,0.00448375
,,,-2.89E-06,0.004600625
,,,-2.88E-06,0.004106875
,,,-2.87E-06,0.00429125
,,,-2.86E-06,0.003980625
,,,-2.85E-06,0.004191875
,,,-2.84E-06,0.0043175
,,,-2.83E-06,0.00449625
,,,-2.82E-06,0.004333125
,,,-2.81E-06,0.004378125
,,,-2.8E-06,0.0045575
,,,-2.79E-06,0.004338125
,,,-2.78E-06,0.004421875
,,,-2.77E-06,0.004266875
,,,-2.76E-06,0.003900625
,,,-2.75E-06,0.004270625
,,,-2.74E-06,0.004416875
,,,-2.73E-06,0.004339375
,,,-2.72E-06,0.00416375
,,,-2.71E-06,0.004365
,,,-2.7E-06,0.0042175
,,,-2.69E-06,0.00446375
,,,-2.68E-06,0.00447
,,,-2.67E-06,0.004564375
,,,-2.66E-06,0.00439375
,,,-2.65E-06,0.00425625
,,,-2.64E-06,0.0043025
,,,-2.63E-06,0.004329375
,,,-2.62E-06,0.004274375
,,,-2.61E-06,0.004448125
,,,-2.6E-06,0.004448125
,,,-2.59E-06,0.00446625
,,,-2.58E-06,0.004293125
,,,-2.57E-06,0.00427
,,,-2.56E-06,0.004115625
,,,-2.55E-06,0.00420875
,,,-2.54E-06,0.004221875
,,,-2.53E-06,0.00449125
,,,-2.52E-06,0.004335
,,,-2.51E-06,0.00433375
,,,-2.5E-06,0.00429625
,,,-2.49E-06,0.004236875
,,,-2.48E-06,0.00459875
,,,-2.47E-06,0.004425
,,,-2.46E-06,0.004500625
,,,-2.45E-06,0.00419875
,,,-2.44E-06,0.00425875
,,,-2.43E-06,0.004359375
,,,-2.42E-06,0.004333125
,,,-2.41E-06,0.0042475
,,,-2.4E-06,0.0043375
,,,-2.39E-06,0.004495
,,,-2.38E-06,0.0043625
,,,-2.37E-06,0.004165625
,,,-2.36E-06,0.004246875
,,,-2.35E-06,0.004310625
,,,-2.34E-06,0.004245625
,,,-2.33E-06,0.004320625
,,,-2.32E-06,0.004203125
,,,-2.31E-06,0.003966875
,,,-2.3E-06,0.004485
,,,-2.29E-06,0.00420125
,,,-2.28E-06,0.004493125
,,,-2.27E-06,0.0043725
,,,-2.26E-06,0.004371875
,,,-2.25E-06,0.004385
,,,-2.24E-06,0.003931875
,,,-2.23E-06,0.004291875
,,,-2.22E-06,0.004270625
,,,-2.21E-06,0.004206875
,,,-2.2E-06,0.004329375
,,,-2.19E-06,0.00425375
,,,-2.18E-06,0.004308125
,,,-2.17E-06,0.004210625
,,,-2.16E-06,0.004366875
,,,-2.15E-06,0.0042075
,,,-2.14E-06,0.00438125
,,,-2.13E-06,0.004174375
,,,-2.12E-06,0.0041525
,,,-2.11E-06,0.004395625
,,,-2.1E-06,0.004006875
,,,-2.09E-06,0.00421625
,,,-2.08E-06,0.004449375
,,,-2.07E-06,0.00445
,,,-2.06E-06,0.00443125
,,,-2.05E-06,0.00443375
,,,-2.04E-06,0.00412
,,,-2.03E-06,0.0043025
,,,-2.02E-06,0.004284375
,,,-2.01E-06,0.004465625
,,,-2E-06,0.004218125
,,,-1.99E-06,0.00438
,,,-1.98E-06,0.004284375
,,,-1.97E-06,0.004188125
,,,-1.96E-06,0.004568125
,,,-1.95E-06,0.004354375
,,,-1.94E-06,0.00442
,,,-1.93E-06,0.004450625
,,,-1.92E-06,0.0042275
,,,-1.91E-06,0.00439375
,,,-1.9E-06,0.004211875
,,,-1.89E-06,0.00434875
,,,-1.88E-06,0.004176875
,,,-1.87E-06,0.00424125
,,,-1.86E-06,0.004320625
,,,-1.85E-06,0.0043625
,,,-1.84E-06,0.004275
,,,-1.83E-06,0.004264375
,,,-1.82E-06,0.00430625
,,,-1.81E-06,0.0045975
,,,-1.8E-06,0.004190625
,,,-1.79E-06,0.004178125
,,,-1.78E-06,0.004199375
,,,-1.77E-06,0.00428875
,,,-1.76E-06,0.00422375
,,,-1.75E-06,0.00440375
,,,-1.74E-06,0.00454625
,,,-1.73E-06,0.00454625
,,,-1.72E-06,0.004318125
,,,-1.71E-06,0.00438875
,,,-1.7E-06,0.00421875
,,,-1.69E-06,0.00426625
,,,-1.68E-06,0.0043525
,,,-1.67E-06,0.004295625
,,,-1.66E-06,0.004169375
,,,-1.65E-06,0.00458125
,,,-1.64E-06,0.00420125
,,,-1.63E-06,0.004256875
,,,-1.62E-06,0.00448
,,,-1.61E-06,0.00437625
,,,-1.6E-06,0.0042175
,,,-1.59E-06,0.004331875
,,,-1.58E-06,0.004404375
,,,-1.57E-06,0.004330625
,,,-1.56E-06,0.00428875
,,,-1.55E-06,0.00440125
,,,-1.54E-06,0.00411625
,,,-1.53E-06,0.0042775
,,,-1.52E-06,0.004148125
,,,-1.51E-06,0.0040125
,,,-1.5E-06,0.00447375
,,,-1.49E-06,0.004359375
,,,-1.48E-06,0.004425625
,,,-1.47E-06,0.004298125
,,,-1.46E-06,0.004150625
,,,-1.45E-06,0.004340625
,,,-1.44E-06,0.004545625
,,,-1.43E-06,0.0044175
,,,-1.42E-06,0.0042525
,,,-1.41E-06,0.004281875
,,,-1.4E-06,0.004483125
,,,-1.39E-06,0.004395
,,,-1.38E-06,0.0042
,,,-1.37E-06,0.004545
,,,-1.36E-06,0.004285625
,,,-1.35E-06,0.0043075
,,,-1.34E-06,0.004428125
,,,-1.33E-06,0.0043425
,,,-1.32E-06,0.004705625
,,,-1.31E-06,0.00407
,,,-1.3E-06,0.0044175
,,,-1.29E-06,0.004510625
,,,-1.28E-06,0.004155625
,,,-1.27E-06,0.004423125
,,,-1.26E-06,0.004019375
,,,-1.25E-06,0.00428625
,,,-1.24E-06,0.0045675
,,,-1.23E-06,0.004430625
,,,-1.22E-06,0.00425375
,,,-1.21E-06,0.00444625
,,,-1.2E-06,0.0044725
,,,-1.19E-06,0.00447625
,,,-1.18E-06,0.00443875
,,,-1.17E-06,0.00418
,,,-1.16E-06,0.0042
,,,-1.15E-06,0.004556875
,,,-1.14E-06,0.004319375
,,,-1.13E-06,0.00414125
,,,-1.12E-06,0.004234375
,,,-1.11E-06,0.004125
,,,-1.1E-06,0.004245
,,,-1.09E-06,0.004296875
,,,-1.08E-06,0.004244375
,,,-1.07E-06,0.004205625
,,,-1.06E-06,0.004280625
,,,-1.05E-06,0.004298125
,,,-1.04E-06,0.004321875
,,,-1.03E-06,0.004198125
,,,-1.02E-06,0.004271875
,,,-1.01E-06,0.0046175
,,,-1E-06,0.004183125
,,,-9.9E-07,0.0043025
,,,-9.8E-07,0.00427875
,,,-9.7E-07,0.004331875
,,,-9.6E-07,0.0045075
,,,-9.5E-07,0.00433125
,,,-9.4E-07,0.00423875
,,,-9.3E-07,0.004099375
,,,-9.2E-07,0.00455125
,,,-9.1E-07,0.004476875
,,,-9E-07,0.00432
,,,-8.9E-07,0.004553125
,,,-8.8E-07,0.00439375
,,,-8.7E-07,0.004174375
,,,-8.6E-07,0.004251875
,,,-8.5E-07,0.004386875
,,,-8.4E-07,0.004404375
,,,-8.3E-07,0.00440375
,,,-8.2E-07,0.004223125
,,,-8.1E-07,0.004251875
,,,-8E-07,0.004560625
,,,-7.9E-07,0.004319375
,,,-7.8E-07,0.004309375
,,,-7.7E-07,0.004439375
,,,-7.6E-07,0.004133125
,,,-7.5E-07,0.004344375
,,,-7.4E-07,0.004318125
,,,-7.3E-07,0.004595
,,,-7.2E-07,0.004255
,,,-7.1E-07,0.004129375
,,,-7E-07,0.004300625
,,,-6.9E-07,0.004410625
,,,-6.8E-07,0.004489375
,,,-6.7E-07,0.004090625
,,,-6.6E-07,0.00439125
,,,-6.5E-07,0.004450625
,,,-6.4E-07,0.004476875
,,,-6.3E-07,0.004195
,,,-6.2E-07,0.00421125
,,,-6.1E-07,0.0044025
,,,-6E-07,0.004446875
,,,-5.9E-07,0.004241875
,,,-5.8E-07,0.004305625
,,,-5.7E-07,0.00451375
,,,-5.6E-07,0.004304375
,,,-5.5E-07,0.004494375
,,,-5.4E-07,0.00443
,,,-5.3E-07,0.00448
,,,-5.2E-07,0.004193125
,,,-5.1E-07,0.004485625
,,,-5E-07,0.00437875
,,,-4.9E-07,0.004151875
,,,-4.8E-07,0.00437125
,,,-4.7E-07,0.00441125
,,,-4.6E-07,0.004346875
,,,-4.5E-07,0.004351875
,,,-4.4E-07,0.004443125
,,,-4.3E-07,0.0041175
,,,-4.2E-07,0.00430875
,,,-4.1E-07,0.004245
,,,-4E-07,0.004423125
,,,-3.9E-07,0.004471875
,,,-3.8E-07,0.0041425
,,,-3.7E-07,0.0043425
,,,-3.6E-07,0.004346875
,,,-3.5E-07,0.00422625
,,,-3.4E-07,0.0045725
,,,-3.3E-07,0.004365
,,,-3.2E-07,0.004258125
,,,-3.1E-07,0.004376875
,,,-3E-07,0.004371875
,,,-2.9E-07,0.004184375
,,,-2.8E-07,0.004130625
,,,-2.7E-07,0.00432875
,,,-2.6E-07,0.0044925
,,,-2.5E-07,0.004263125
,,,-2.4E-07,0.004320625
,,,-2.3E-07,0.004206875
,,,-2.2E-07,0.0040325
,,,-2.1E-07,0.004343125
,,,-2E-07,0.0043275
,,,-1.9E-07,0.00435625
,,,-1.8E-07,0.00415875
,,,-1.7E-07,0.004384375
,,,-1.6E-07,0.00444125
,,,-1.5E-07,0.00422875
,,,-1.4E-07,0.00423375
,,,-1.3E-07,0.004298125
,,,-1.2E-07,0.004148125
,,,-1.1E-07,0.004499375
,,,-1E-07,0.00428875
,,,-9E-08,0.00440625
,,,-8E-08,0.004385
,,,-7E-08,0.003853125
,,,-6E-08,0.004289375
,,,-5E-08,0.004533125
,,,-4E-08,0.00484375
,,,-3E-08,0.004563125
,,,-2E-08,0.00354125
,,,-1E-08,0.00327625
,,,0,0.004384375
,,,1E-08,0.00466875
,,,2E-08,0.00539375
,,,3E-08,0.005100625
,,,4E-08,0.004265
,,,5E-08,0.003860625
,,,6E-08,0.00361625
,,,7E-08,0.00407
,,,8E-08,0.004189375
,,,9E-08,0.004933125
,,,1E-07,0.00467
,,,1.1E-07,0.0046775
,,,1.2E-07,0.004025
,,,1.3E-07,0.00402875
,,,1.4E-07,0.004149375
,,,1.5E-07,0.00425
,,,1.6E-07,0.00445
,,,1.7E-07,0.004030625
,,,1.8E-07,0.004445
,,,1.9E-07,0.004638125
,,,2E-07,0.0044575
,,,2.1E-07,0.004199375
,,,2.2E-07,0.004470625
,,,2.3E-07,0.00419625
,,,2.4E-07,0.004209375
,,,2.5E-07,0.00445875
,,,2.6E-07,0.004425
,,,2.7E-07,0.004455
,,,2.8E-07,0.004199375
,,,2.9E-07,0.004268125
,,,3E-07,0.004218125
,,,3.1E-07,0.004395625
,,,3.2E-07,0.0041925
,,,3.3E-07,0.0043475
,,,3.4E-07,0.004575
,,,3.5E-07,0.004250625
,,,3.6E-07,0.004219375
,,,3.7E-07,0.004358125
,,,3.8E-07,0.00437625
,,,3.9E-07,0.004201875
,,,4E-07,0.004390625
,,,4.1E-07,0.004303125
,,,4.2E-07,0.00440625
,,,4.3E-07,0.0043725
,,,4.4E-07,0.00444375
,,,4.5E-07,0.004324375
,,,4.6E-07,0.00432375
,,,4.7E-07,0.00433625
,,,4.8E-07,0.003881875
,,,4.9E-07,0.004340625
,,,5E-07,0.004288125
,,,5.1E-07,0.004349375
,,,5.2E-07,0.0043825
,,,5.3E-07,0.0042575
,,,5.4E-07,0.004183125
,,,5.5E-07,0.00444625
,,,5.6E-07,0.00435875
,,,5.7E-07,0.004410625
,,,5.8E-07,0.004145
,,,5.9E-07,0.00444625
,,,6E-07,0.004339375
,,,6.1E-07,0.004314375
,,,6.2E-07,0.004310625
,,,6.3E-07,0.00449
,,,6.4E-07,0.004486875
,,,6.5E-07,0.004274375
,,,6.6E-07,0.004358125
,,,6.7E-07,0.004383125
,,,6.8E-07,0.00433125
,,,6.9E-07,0.00437875
,,,7E-07,0.004119375
,,,7.1E-07,0.00426125
,,,7.2E-07,0.00432
,,,7.3E-07,0.00433125
,,,7.4E-07,0.004149375
,,,7.5E-07,0.004181875
,,,7.6E-07,0.004264375
,,,7.7E-07,0.00432625
,,,7.8E-07,0.004195625
,,,7.9E-07,0.00438875
,,,8E-07,0.0042825
,,,8.1E-07,0.004186875
,,,8.2E-07,0.004544375
,,,8.3E-07,0.00426875
,,,8.4E-07,0.004431875
,,,8.5E-07,0.00424625
,,,8.6E-07,0.004495625
,,,8.7E-07,0.004270625
,,,8.8E-07,0.004323125
,,,8.9E-07,0.004164375
,,,9E-07,0.004448125
,,,9.1E-07,0.00430875
,,,9.2E-07,0.00457875
,,,9.3E-07,0.004253125
,,,9.4E-07,0.004484375
,,,9.5E-07,0.0041025
,,,9.6E-07,0.00429
,,,9.7E-07,0.0042225
,,,9.8E-07,0.004240625
,,,9.9E-07,0.00442375
,,,1E-06,0.004538125
,,,1.01E-06,0.004061875
,,,1.02E-06,0.00418875
,,,1.03E-06,0.0045
,,,1.04E-06,0.004331875
,,,1.05E-06,0.00435125
,,,1.06E-06,0.004065
,,,1.07E-06,0.004479375
,,,1.08E-06,0.00434875
,,,1.09E-06,0.004376875
,,,1.1E-06,0.004168125
,,,1.11E-06,0.004394375
,,,1.12E-06,0.004445625
,,,1.13E-06,0.004353125
,,,1.14E-06,0.00416625
,,,1.15E-06,0.004216875
,,,1.16E-06,0.004346875
,,,1.17E-06,0.0042775
,,,1.18E-06,0.004488125
,,,1.19E-06,0.004279375
,,,1.2E-06,0.00439875
,,,1.21E-06,0.004421875
,,,1.22E-06,0.004606875
,,,1.23E-06,0.00403625
,,,1.24E-06,0.004230625
,,,1.25E-06,0.00425375
,,,1.26E-06,0.00438875
,,,1.27E-06,0.00446375
,,,1.28E-06,0.004389375
,,,1.29E-06,0.004595625
,,,1.3E-06,0.00443625
,,,1.31E-06,0.004231875
,,,1.32E-06,0.0045375
,,,1.33E-06,0.00437375
,,,1.34E-06,0.00440375
,,,1.35E-06,0.004275625
,,,1.36E-06,0.00437375
,,,1.37E-06,0.00423125
,,,1.38E-06,0.00425375
,,,1.39E-06,0.004240625
,,,1.4E-06,0.00437125
,,,1.41E-06,0.0042175
,,,1.42E-06,0.00431125
,,,1.43E-06,0.00417625
,,,1.44E-06,0.00424
,,,1.45E-06,0.004379375
,,,1.46E-06,0.004413125
,,,1.47E-06,0.004351875
,,,1.48E-06,0.004528125
,,,1.49E-06,0.004110625
,,,1.5E-06,0.004328125
,,,1.51E-06,0.00435
,,,1.52E-06,0.0044225
,,,1.53E-06,0.004305
,,,1.54E-06,0.004275
,,,1.55E-06,0.004389375
,,,1.56E-06,0.004445625
,,,1.57E-06,0.004320625
,,,1.58E-06,0.00419
,,,1.59E-06,0.004195
,,,1.6E-06,0.004206875
,,,1.61E-06,0.00439125
,,,1.62E-06,0.004373125
,,,1.63E-06,0.004174375
,,,1.64E-06,0.0043825
,,,1.65E-06,0.00433125
,,,1.66E-06,0.004415
,,,1.67E-06,0.00455625
,,,1.68E-06,0.00428875
,,,1.69E-06,0.00443625
,,,1.7E-06,0.004268125
,,,1.71E-06,0.0040425
,,,1.72E-06,0.00432
,,,1.73E-06,0.004251875
,,,1.74E-06,0.0043275
,,,1.75E-06,0.004280625
,,,1.76E-06,0.00429375
,,,1.77E-06,0.0041425
,,,1.78E-06,0.004204375
,,,1.79E-06,0.004438125
,,,1.8E-06,0.0041325
,,,1.81E-06,0.0042875
,,,1.82E-06,0.004469375
,,,1.83E-06,0.00423125
,,,1.84E-06,0.004236875
,,,1.85E-06,0.004385
,,,1.86E-06,0.004324375
,,,1.87E-06,0.004100625
,,,1.88E-06,0.00425625
,,,1.89E-06,0.004454375
,,,1.9E-06,0.004313125
,,,1.91E-06,0.00439
,,,1.92E-06,0.004270625
,,,1.93E-06,0.004201875
,,,1.94E-06,0.004211875
,,,1.95E-06,0.004176875
,,,1.96E-06,0.00417875
,,,1.97E-06,0.004189375
,,,1.98E-06,0.004341875
,,,1.99E-06,0.004131875
,,,2E-06,0.0041225
,,,2.01E-06,0.004311875
,,,2.02E-06,0.00440625
,,,2.03E-06,0.004284375
,,,2.04E-06,0.004335
,,,2.05E-06,0.00428625
,,,2.06E-06,0.0044775
,,,2.07E-06,0.004451875
,,,2.08E-06,0.0041475
,,,2.09E-06,0.004346875
,,,2.1E-06,0.004385625
,,,2.11E-06,0.00448
,,,2.12E-06,0.004298125
,,,2.13E-06,0.00425
,,,2.14E-06,0.0043125
,,,2.15E-06,0.0043625
,,,2.16E-06,0.00428375
,,,2.17E-06,0.00427625
,,,2.18E-06,0.004358125
,,,2.19E-06,0.004376875
,,,2.2E-06,0.004263125
,,,2.21E-06,0.0042925
,,,2.22E-06,0.00450625
,,,2.23E-06,0.004296875
,,,2.24E-06,0.004385
,,,2.25E-06,0.004440625
,,,2.26E-06,0.0044125
,,,2.27E-06,0.00420125
,,,2.28E-06,0.004251875
,,,2.29E-06,0.00430375
,,,2.3E-06,0.004524375
,,,2.31E-06,0.004245625
,,,2.32E-06,0.00414375
,,,2.33E-06,0.0042475
,,,2.34E-06,0.0042175
,,,2.35E-06,0.004385625
,,,2.36E-06,0.004196875
,,,2.37E-06,0.00423875
,,,2.38E-06,0.004160625
,,,2.39E-06,0.00430125
,,,2.4E-06,0.004830625
,,,2.41E-06,0.00416375
,,,2.42E-06,0.004549375
,,,2.43E-06,0.004205625
,,,2.44E-06,0.004181875
,,,2.45E-06,0.00423625
,,,2.46E-06,0.00438625
,,,2.47E-06,0.00418125
,,,2.48E-06,0.00434125
,,,2.49E-06,0.004395
,,,2.5E-06,0.004471875
,,,2.51E-06,0.0043975
,,,2.52E-06,0.00424625
,,,2.53E-06,0.004376875
,,,2.54E-06,0.00426
,,,2.55E-06,0.004295
,,,2.56E-06,0.004420625
,,,2.57E-06,0.00432
,,,2.58E-06,0.004125
,,,2.59E-06,0.004274375
,,,2.6E-06,0.004128125
,,,2.61E-06,0.00442
,,,2.62E-06,0.004503125
,,,2.63E-06,0.004454375
,,,2.64E-06,0.00440875
,,,2.65E-06,0.004258125
,,,2.66E-06,0.0042825
,,,2.67E-06,0.004404375
,,,2.68E-06,0.004231875
,,,2.69E-06,0.0042375
,,,2.7E-06,0.00437375
,,,2.71E-06,0.004179375
,,,2.72E-06,0.0044125
,,,2.73E-06,0.004288125
,,,2.74E-06,0.00423
,,,2.75E-06,0.004338125
,,,2.76E-06,0.004393125
,,,2.77E-06,0.004254375
,,,2.78E-06,0.004491875
,,,2.79E-06,0.0041925
,,,2.8E-06,0.004314375
,,,2.81E-06,0.004299375
,,,2.82E-06,0.004150625
,,,2.83E-06,0.0042
,,,2.84E-06,0.004469375
,,,2.85E-06,0.004323125
,,,2.86E-06,0.004310625
,,,2.87E-06,0.004173125
,,,2.88E-06,0.00424
,,,2.89E-06,0.004320625
,,,2.9E-06,0.0043
,,,2.91E-06,0.004531875
,,,2.92E-06,0.004313125
,,,2.93E-06,0.00433
,,,2.94E-06,0.004711875
,,,2.95E-06,0.00415625
,,,2.96E-06,0.004176875
,,,2.97E-06,0.0042725
,,,2.98E-06,0.004435625
,,,2.99E-06,0.004295
,,,3E-06,0.004211875
,,,3.01E-06,0.004330625
,,,3.02E-06,0.0044825
,,,3.03E-06,0.004251875
,,,3.04E-06,0.00440875
,,,3.05E-06,0.0041375
,,,3.06E-06,0.004266875
,,,3.07E-06,0.004508125
,,,3.08E-06,0.00434375
,,,3.09E-06,0.004293125
,,,3.1E-06,0.00434875
,,,3.11E-06,0.0044625
,,,3.12E-06,0.004535
,,,3.13E-06,0.004336875
,,,3.14E-06,0.0042025
,,,3.15E-06,0.004365625
,,,3.16E-06,0.00443625
,,,3.17E-06,0.00475
,,,3.18E-06,0.004165625
,,,3.19E-06,0.004496875
,,,3.2E-06,0.004288125
,,,3.21E-06,0.0042
,,,3.22E-06,0.00407875
,,,3.23E-06,0.004196875
,,,3.24E-06,0.004175
,,,3.25E-06,0.00434125
,,,3.26E-06,0.00442125
,,,3.27E-06,0.00428625
,,,3.28E-06,0.00421
,,,3.29E-06,0.004241875
,,,3.3E-06,0.00426375
,,,3.31E-06,0.00444
,,,3.32E-06,0.004550625
,,,3.33E-06,0.004358125
,,,3.34E-06,0.00440875
,,,3.35E-06,0.004186875
,,,3.36E-06,0.004331875
,,,3.37E-06,0.004549375
,,,3.38E-06,0.0043675
,,,3.39E-06,0.00415125
,,,3.4E-06,0.004395625
,,,3.41E-06,0.004395625
,,,3.42E-06,0.00434875
,,,3.43E-06,0.00445625
,,,3.44E-06,0.004270625
,,,3.45E-06,0.004595
,,,3.46E-06,0.004535625
,,,3.47E-06,0.004509375
,,,3.48E-06,0.0044425
,,,3.49E-06,0.00444875
,,,3.5E-06,0.004165
,,,3.51E-06,0.004021875
,,,3.52E-06,0.00433125
,,,3.53E-06,0.004675625
,,,3.54E-06,0.004159375
,,,3.55E-06,0.0041575
,,,3.56E-06,0.004394375
