data/raw/Final_POL_Test_1/SOP041_Ch4.csv

"Record Length",1000,"Points",-5E-06,0.019678125
"Sample Interval",1E-08,s,-4.99E-06,0.019729375
"Trigger Point",500,"Samples",-4.98E-06,0.019828125
"Trigger Time",0,s,-4.97E-06,0.01993625
"",,,-4.96E-06,0.019925625
"Horizontal Offset",-5E-06,s,-4.95E-06,0.019576875
,,,-4.94E-06,0.019598125
,,,-4.93E-06,0.019631875
,,,-4.92E-06,0.019203125
,,,-4.91E-06,0.019606875
,,,-4.9E-06,0.019814375
,,,-4.89E-06,0.019819375
,,,-4.88E-06,0.0198
,,,-4.87E-06,0.01969375
,,,-4.86E-06,0.019536875
,,,-4.85E-06,0.019545
,,,-4.84E-06,0.019716875
,,,-4.83E-06,0.019740625
,,,-4.82E-06,0.01941375
,,,-4.81E-06,0.01971125
,,,-4.8E-06,0.01971875
,,,-4.79E-06,0.019633125
,,,-4.78E-06,0.019563125
,,,-4.77E-06,0.019739375
,,,-4.76E-06,0.01953
,,,-4.75E-06,0.019655
,,,-4.74E-06,0.019811875
,,,-4.73E-06,0.01967
,,,-4.72E-06,0.019649375
,,,-4.71E-06,0.019894375
,,,-4.7E-06,0.01940875
,,,-4.69E-06,0.019670625
,,,-4.68E-06,0.01981375
,,,-4.67E-06,0.01982125
,,,-4.66E-06,0.01954625
,,,-4.65E-06,0.01987
,,,-4.64E-06,0.019501875
,,,-4.63E-06,0.01968625
,,,-4.62E-06,0.01986375
,,,-4.61E-06,0.019710625
,,,-4.6E-06,0.019655
,,,-4.59E-06,0.01995
,,,-4.58E-06,0.01961875
,,,-4.57E-06,0.019748125
,,,-4.56E-06,0.019535
,,,-4.55E-06,0.019525
,,,-4.54E-06,0.019645
,,,-4.53E-06,0.01968625
,,,-4.52E-06,0.0194825
,,,-4.51E-06,0.019730625
,,,-4.5E-06,0.01968375
,,,-4.49E-06,0.019600625
,,,-4.48E-06,0.019846875
,,,-4.47E-06,0.019669375
,,,-4.46E-06,0.019715625
,,,-4.45E-06,0.01971125
,,,-4.44E-06,0.019871875
,,,-4.43E-06,0.019851875
,,,-4.42E-06,0.01959625
,,,-4.41E-06,0.019704375
,,,-4.4E-06,0.01941375
,,,-4.39E-06,0.0197
,,,-4.38E-06,0.019706875
,,,-4.37E-06,0.019536875
,,,-4.36E-06,0.019560625
,,,-4.35E-06,0.01972
,,,-4.34E-06,0.0195775
,,,-4.33E-06,0.01966125
,,,-4.32E-06,0.01966375
,,,-4.31E-06,0.019626875
,,,-4.3E-06,0.0195125
,,,-4.29E-06,0.0196225
,,,-4.28E-06,0.01972
,,,-4.27E-06,0.0198025
,,,-4.26E-06,0.01978875
,,,-4.25E-06,0.019541875
,,,-4.24E-06,0.019776875
,,,-4.23E-06,0.019800625
,,,-4.22E-06,0.019640625
,,,-4.21E-06,0.019565
,,,-4.2E-06,0.019698125
,,,-4.19E-06,0.01957875
,,,-4.18E-06,0.019628125
,,,-4.17E-06,0.019879375
,,,-4.16E-06,0.019725
,,,-4.15E-06,0.019831875
,,,-4.14E-06,0.019575625
,,,-4.13E-06,0.019669375
,,,-4.12E-06,0.019705625
,,,-4.11E-06,0.019705
,,,-4.1E-06,0.01973125
,,,-4.09E-06,0.0194925
,,,-4.08E-06,0.0195175
,,,-4.07E-06,0.01970625
,,,-4.06E-06,0.019630625
,,,-4.05E-06,0.019428125
,,,-4.04E-06,0.019681875
,,,-4.03E-06,0.0198925
,,,-4.02E-06,0.019666875
,,,-4.01E-06,0.019658125
,,,-4E-06,0.0195825
,,,-3.99E-06,0.019875
,,,-3.98E-06,0.019713125
,,,-3.97E-06,0.019558125
,,,-3.96E-06,0.01969125
,,,-3.95E-06,0.01976875
,,,-3.94E-06,0.020016875
,,,-3.93E-06,0.0195325
,,,-3.92E-06,0.019595625
,,,-3.91E-06,0.01962375
,,,-3.9E-06,0.01957875
,,,-3.89E-06,0.019733125
,,,-3.88E-06,0.01968
,,,-3.87E-06,0.019758125
,,,-3.86E-06,0.0194125
,,,-3.85E-06,0.019583125
,,,-3.84E-06,0.01973
,,,-3.83E-06,0.0198675
,,,-3.82E-06,0.01968125
,,,-3.81E-06,0.019538125
,,,-3.8E-06,0.019623125
,,,-3.79E-06,0.01975
,,,-3.78E-06,0.019808125
,,,-3.77E-06,0.019901875
,,,-3.76E-06,0.0196375
,,,-3.75E-06,0.0197475
,,,-3.74E-06,0.019781875
,,,-3.73E-06,0.0197775
,,,-3.72E-06,0.019709375
,,,-3.71E-06,0.01969625
,,,-3.7E-06,0.019940625
,,,-3.69E-06,0.019501875
,,,-3.68E-06,0.019779375
,,,-3.67E-06,0.019636875
,,,-3.66E-06,0.0197725
,,,-3.65E-06,0.0199475
,,,-3.64E-06,0.019395625
,,,-3.63E-06,0.01969625
,,,-3.62E-06,0.019606875
,,,-3.61E-06,0.019433125
,,,-3.6E-06,0.019706875
,,,-3.59E-06,0.01959375
,,,-3.58E-06,0.019715
,,,-3.57E-06,0.0196125
,,,-3.56E-06,0.019683125
,,,-3.55E-06,0.0195975
,,,-3.54E-06,0.0196625
,,,-3.53E-06,0.01950875
,,,-3.52E-06,0.01949625
,,,-3.51E-06,0.019734375
,,,-3.5E-06,0.019483125
,,,-3.49E-06,0.019794375
,,,-3.48E-06,0.01976
,,,-3.47E-06,0.019548125
,,,-3.46E-06,0.019693125
,,,-3.45E-06,0.019665
,,,-3.44E-06,0.01968875
,,,-3.43E-06,0.019613125
,,,-3.42E-06,0.0197425
,,,-3.41E-06,0.019663125
,,,-3.4E-06,0.019728125
,,,-3.39E-06,0.01951125
,,,-3.38E-06,0.0197125
,,,-3.37E-06,0.019718125
,,,-3.36E-06,0.01994125
,,,-3.35E-06,0.019610625
,,,-3.34E-06,0.01970375
,,,-3.33E-06,0.019601875
,,,-3.32E-06,0.019755625
,,,-3.31E-06,0.01945375
,,,-3.3E-06,0.019765
,,,-3.29E-06,0.0197775
,,,-3.28E-06,0.019809375
,,,-3.27E-06,0.0197575
,,,-3.26E-06,0.019576875
,,,-3.25E-06,0.01971
,,,-3.24E-06,0.0197425
,,,-3.23E-06,0.019778125
,,,-3.22E-06,0.019698125
,,,-3.21E-06,0.019715625
,,,-3.2E-06,0.0199125
,,,-3.19E-06,0.019723125
,,,-3.18E-06,0.019763125
,,,-3.17E-06,0.01974125
,,,-3.16E-06,0.019789375
,,,-3.15E-06,0.0194575
,,,-3.14E-06,0.01978125
,,,-3.13E-06,0.01946125
,,,-3.12E-06,0.019666875
,,,-3.11E-06,0.019693125
,,,-3.1E-06,0.01962
,,,-3.09E-06,0.019716875
,,,-3.08E-06,0.01976
,,,-3.07E-06,0.01975625
,,,-3.06E-06,0.019820625
,,,-3.05E-06,0.019855
,,,-3.04E-06,0.019739375
,,,-3.03E-06,0.01986625
,,,-3.02E-06,0.0197725
,,,-3.01E-06,0.0195575
,,,-3E-06,0.01967875
,,,-2.99E-06,0.01965875
,,,-2.98E-06,0.0195275
,,,-2.97E-06,0.019840625
,,,-2.96E-06,0.0198975
,,,-2.95E-06,0.019783125
,,,-2.94E-06,0.01992375
,,,-2.93E-06,0.01980625
,,,-2.92E-06,0.0197725
,,,-2.91E-06,0.019648125
,,,-2.9E-06,0.019448125
,,,-2.89E-06,0.019650625
,,,-2.88E-06,0.019529375
,,,-2.87E-06,0.019761875
,,,-2.86E-06,0.019843125
,,,-2.85E-06,0.0195875
,,,-2.84E-06,0.01981
,,,-2.83E-06,0.019734375
,,,-2.82E-06,0.0196525
,,,-2.81E-06,0.019523125
,,,-2.8E-06,0.019818125
,,,-2.79E-06,0.019740625
,,,-2.78E-06,0.019609375
,,,-2.77E-06,0.019826875
,,,-2.76E-06,0.019795625
,,,-2.75E-06,0.019791875
,,,-2.74E-06,0.019755625
,,,-2.73E-06,0.0195
,,,-2.72E-06,0.01991625
,,,-2.71E-06,0.01973625
,,,-2.7E-06,0.019831875
,,,-2.69E-06,0.019735625
,,,-2.68E-06,0.019841875
,,,-2.67E-06,0.019556875
,,,-2.66E-06,0.019741875
,,,-2.65E-06,0.019718125
,,,-2.64E-06,0.01969375
,,,-2.63E-06,0.019685625
,,,-2.62E-06,0.01965
,,,-2.61E-06,0.019770625
,,,-2.6E-06,0.019778125
,,,-2.59E-06,0.01981625
,,,-2.58E-06,0.02000375
,,,-2.57E-06,0.01949
,,,-2.56E-06,0.019640625
,,,-2.55E-06,0.0193775
,,,-2.54E-06,0.01986125
,,,-2.53E-06,0.019686875
,,,-2.52E-06,0.01978375
,,,-2.51E-06,0.01995625
,,,-2.5E-06,0.01960375
,,,-2.49E-06,0.0196825
,,,-2.48E-06,0.01963125
,,,-2.47E-06,0.01969625
,,,-2.46E-06,0.0198475
,,,-2.45E-06,0.0196325
,,,-2.44E-06,0.019716875
,,,-2.43E-06,0.0195775
,,,-2.42E-06,0.01980375
,,,-2.41E-06,0.0195925
,,,-2.4E-06,0.01976125
,,,-2.39E-06,0.019621875
,,,-2.38E-06,0.019660625
,,,-2.37E-06,0.01986625
,,,-2.36E-06,0.019793125
,,,-2.35E-06,0.01971875
,,,-2.34E-06,0.019585
,,,-2.33E-06,0.019585
,,,-2.32E-06,0.019799375
,,,-2.31E-06,0.019624375
,,,-2.3E-06,0.019586875
,,,-2.29E-06,0.019895625
,,,-2.28E-06,0.019431875
,,,-2.27E-06,0.019665625
,,,-2.26E-06,0.0195675
,,,-2.25E-06,0.01951
,,,-2.24E-06,0.019688125
,,,-2.23E-06,0.01957125
,,,-2.22E-06,0.0196325
,,,-2.21E-06,0.0195425
,,,-2.2E-06,0.019853125
,,,-2.19E-06,0.019671875
,,,-2.18E-06,0.019759375
,,,-2.17E-06,0.019755
,,,-2.16E-06,0.019556875
,,,-2.15E-06,0.019678125
,,,-2.14E-06,0.019449375
,,,-2.13E-06,0.019708125
,,,-2.12E-06,0.019663125
,,,-2.11E-06,0.01975125
,,,-2.1E-06,0.020004375
,,,-2.09E-06,0.0196675
,,,-2.08E-06,0.019536875
,,,-2.07E-06,0.019755625
,,,-2.06E-06,0.019525625
,,,-2.05E-06,0.01959125
,,,-2.04E-06,0.0193025
,,,-2.03E-06,0.019798125
,,,-2.02E-06,0.01979125
,,,-2.01E-06,0.01971625
,,,-2E-06,0.01989375
,,,-1.99E-06,0.019654375
,,,-1.98E-06,0.019653125
,,,-1.97E-06,0.019438125
,,,-1.96E-06,0.01967125
,,,-1.95E-06,0.019641875
,,,-1.94E-06,0.019628125
,,,-1.93E-06,0.01974625
,,,-1.92E-06,0.01978625
,,,-1.91E-06,0.019628125
,,,-1.9E-06,0.019645
,,,-1.89E-06,0.019523125
,,,-1.88E-06,0.01965
,,,-1.87E-06,0.01963
,,,-1.86E-06,0.01983
,,,-1.85E-06,0.020016875
,,,-1.84E-06,0.019246875
,,,-1.83E-06,0.019444375
,,,-1.82E-06,0.01962875
,,,-1.81E-06,0.019948125
,,,-1.8E-06,0.01965375
,,,-1.79E-06,0.01965625
,,,-1.78E-06,0.019520625
,,,-1.77E-06,0.01966875
,,,-1.76E-06,0.01953125
,,,-1.75E-06,0.019721875
,,,-1.74E-06,0.01964
,,,-1.73E-06,0.0195425
,,,-1.72E-06,0.019575
,,,-1.71E-06,0.019633125
,,,-1.7E-06,0.01983125
,,,-1.69E-06,0.01972625
,,,-1.68E-06,0.01960375
,,,-1.67E-06,0.01940375
,,,-1.66E-06,0.0196125
,,,-1.65E-06,0.019573125
,,,-1.64E-06,0.01964
,,,-1.63E-06,0.019726875
,,,-1.62E-06,0.019595
,,,-1.61E-06,0.019726875
,,,-1.6E-06,0.019865
,,,-1.59E-06,0.019655625
,,,-1.58E-06,0.01946375
,,,-1.57E-06,0.019441875
,,,-1.56E-06,0.019735
,,,-1.55E-06,0.01951125
,,,-1.54E-06,0.01941625
,,,-1.53E-06,0.019835625
,,,-1.52E-06,0.0198025
,,,-1.51E-06,0.019705
,,,-1.5E-06,0.01965125
,,,-1.49E-06,0.0196675
,,,-1.48E-06,0.01975125
,,,-1.47E-06,0.019770625
,,,-1.46E-06,0.01963625
,,,-1.45E-06,0.019493125
,,,-1.44E-06,0.019549375
,,,-1.43E-06,0.019613125
,,,-1.42E-06,0.01967625
,,,-1.41E-06,0.01968625
,,,-1.4E-06,0.01967
,,,-1.39E-06,0.019388125
,,,-1.38E-06,0.019815
,,,-1.37E-06,0.019655625
,,,-1.36E-06,0.01984375
,,,-1.35E-06,0.01985125
,,,-1.34E-06,0.019554375
,,,-1.33E-06,0.01951125
,,,-1.32E-06,0.01973875
,,,-1.31E-06,0.01949125
,,,-1.3E-06,0.019724375
,,,-1.29E-06,0.01951375
,,,-1.28E-06,0.01968375
,,,-1.27E-06,0.01936
,,,-1.26E-06,0.019624375
,,,-1.25E-06,0.019613125
,,,-1.24E-06,0.019408125
,,,-1.23E-06,0.01974625
,,,-1.22E-06,0.0195275
,,,-1.21E-06,0.01965125
,,,-1.2E-06,0.019615
,,,-1.19E-06,0.019835
,,,-1.18E-06,0.01995625
,,,-1.17E-06,0.01961375
,,,-1.16E-06,0.0198375
,,,-1.15E-06,0.0198
,,,-1.14E-06,0.019835625
,,,-1.13E-06,0.01958375
,,,-1.12E-06,0.019730625
,,,-1.11E-06,0.01980125
,,,-1.1E-06,0.019890625
,,,-1.09E-06,0.01972625
,,,-1.08E-06,0.019765625
,,,-1.07E-06,0.01971
,,,-1.06E-06,0.019731875
,,,-1.05E-06,0.019713125
,,,-1.04E-06,0.019631875
,,,-1.03E-06,0.019633125
,,,-1.02E-06,0.01974625
,,,-1.01E-06,0.01963375
,,,-1E-06,0.01980875
,,,-9.9E-07,0.019621875
,,,-9.8E-07,0.01950375
,,,-9.7E-07,0.019361875
,,,-9.6E-07,0.019486875
,,,-9.5E-07,0.0199475
,,,-9.4E-07,0.01963
,,,-9.3E-07,0.0196275
,,,-9.2E-07,0.01970375
,,,-9.1E-07,0.019476875
,,,-9E-07,0.019616875
,,,-8.9E-07,0.019688125
,,,-8.8E-07,0.019919375
,,,-8.7E-07,0.01972125
,,,-8.6E-07,0.0195125
,,,-8.5E-07,0.019626875
,,,-8.4E-07,0.019515
,,,-8.3E-07,0.01970375
,,,-8.2E-07,0.01973125
,,,-8.1E-07,0.019951875
,,,-8E-07,0.01967375
,,,-7.9E-07,0.01959875
,,,-7.8E-07,0.020023125
,,,-7.7E-07,0.01949375
,,,-7.6E-07,0.0197625
,,,-7.5E-07,0.019371875
,,,-7.4E-07,0.01971375
,,,-7.3E-07,0.01968
,,,-7.2E-07,0.019671875
,,,-7.1E-07,0.01978
,,,-7E-07,0.019698125
,,,-6.9E-07,0.01977125
,,,-6.8E-07,0.01980625
,,,-6.7E-07,0.01971625
,,,-6.6E-07,0.019838125
,,,-6.5E-07,0.01982875
,,,-6.4E-07,0.019464375
,,,-6.3E-07,0.0196675
,,,-6.2E-07,0.0196025
,,,-6.1E-07,0.019674375
,,,-6E-07,0.019753125
,,,-5.9E-07,0.019785
,,,-5.8E-07,0.019574375
,,,-5.7E-07,0.019579375
,,,-5.6E-07,0.019645625
,,,-5.5E-07,0.0195675
,,,-5.4E-07,0.019610625
,,,-5.3E-07,0.019759375
,,,-5.2E-07,0.019573125
,,,-5.1E-07,0.0196
,,,-5E-07,0.019783125
,,,-4.9E-07,0.01970375
,,,-4.8E-07,0.0194875
,,,-4.7E-07,0.01963375
,,,-4.6E-07,0.019818125
,,,-4.5E-07,0.019674375
,,,-4.4E-07,0.019808125
,,,-4.3E-07,0.01984375
,,,-4.2E-07,0.019603125
,,,-4.1E-07,0.01953125
,,,-4E-07,0.019880625
,,,-3.9E-07,0.019845
,,,-3.8E-07,0.01972125
,,,-3.7E-07,0.01970875
,,,-3.6E-07,0.019600625
,,,-3.5E-07,0.019295625
,,,-3.4E-07,0.01936875
,,,-3.3E-07,0.01962375
,,,-3.2E-07,0.01972
,,,-3.1E-07,0.01979
,,,-3E-07,0.01968625
,,,-2.9E-07,0.0196725
,,,-2.8E-07,0.01966125
,,,-2.7E-07,0.019531875
,,,-2.6E-07,0.019640625
,,,-2.5E-07,0.019725625
,,,-2.4E-07,0.019718125
,,,-2.3E-07,0.0194375
,,,-2.2E-07,0.01964
,,,-2.1E-07,0.01974125
,,,-2E-07,0.019848125
,,,-1.9E-07,0.01972
,,,-1.8E-07,0.01947
,,,-1.7E-07,0.0197225
,,,-1.6E-07,0.019743125
,,,-1.5E-07,0.01940625
,,,-1.4E-07,0.01976
,,,-1.3E-07,0.019755
,,,-1.2E-07,0.0197625
,,,-1.1E-07,0.019653125
,,,-1E-07,0.019308125
,,,-9E-08,0.01973625
,,,-8E-08,0.019446875
,,,-7E-08,0.019806875
,,,-6E-08,0.019465
,,,-5E-08,0.01977375
,,,-4E-08,0.01982375
,,,-3E-08,0.01974375
,,,-2E-08,0.019525625
,,,-1E-08,0.019339375
,,,0,0.019441875
,,,1E-08,0.019626875
,,,2E-08,0.020135625
,,,3E-08,0.019751875
,,,4E-08,0.019559375
,,,5E-08,0.019310625
,,,6E-08,0.019473125
,,,7E-08,0.019495625
,,,8E-08,0.01986625
,,,9E-08,0.01977375
,,,1E-07,0.01986875
,,,1.1E-07,0.019750625
,,,1.2E-07,0.019786875
,,,1.3E-07,0.01950125
,,,1.4E-07,0.019638125
,,,1.5E-07,0.019794375
,,,1.6E-07,0.019740625
,,,1.7E-07,0.019629375
,,,1.8E-07,0.019420625
,,,1.9E-07,0.01978375
,,,2E-07,0.01967125
,,,2.1E-07,0.01968375
,,,2.2E-07,0.019561875
,,,2.3E-07,0.019510625
,,,2.4E-07,0.019933125
,,,2.5E-07,0.0196225
,,,2.6E-07,0.0194825
,,,2.7E-07,0.01986125
,,,2.8E-07,0.019489375
,,,2.9E-07,0.019793125
,,,3E-07,0.019770625
,,,3.1E-07,0.0196175
,,,3.2E-07,0.01991625
,,,3.3E-07,0.01969875
,,,3.4E-07,0.019616875
,,,3.5E-07,0.019721875
,,,3.6E-07,0.019799375
,,,3.7E-07,0.01954625
,,,3.8E-07,0.01976625
,,,3.9E-07,0.019645625
,,,4E-07,0.01951375
,,,4.1E-07,0.01989
,,,4.2E-07,0.01966875
,,,4.3E-07,0.019718125
,,,4.4E-07,0.019729375
,,,4.5E-07,0.019523125
,,,4.6E-07,0.019846875
,,,4.7E-07,0.019824375
,,,4.8E-07,0.019555625
,,,4.9E-07,0.01971375
,,,5E-07,0.01970375
,,,5.1E-07,0.019766875
,,,5.2E-07,0.01976625
,,,5.3E-07,0.01964625
,,,5.4E-07,0.0195625
,,,5.5E-07,0.019624375
,,,5.6E-07,0.019818125
,,,5.7E-07,0.0196425
,,,5.8E-07,0.019806875
,,,5.9E-07,0.019688125
,,,6E-07,0.01957625
,,,6.1E-07,0.01984875
,,,6.2E-07,0.01969125
,,,6.3E-07,0.019848125
,,,6.4E-07,0.019654375
,,,6.5E-07,0.019651875
,,,6.6E-07,0.01921
,,,6.7E-07,0.019703125
,,,6.8E-07,0.019865625
,,,6.9E-07,0.0195475
,,,7E-07,0.019469375
,,,7.1E-07,0.01963375
,,,7.2E-07,0.019805625
,,,7.3E-07,0.019578125
,,,7.4E-07,0.019830625
,,,7.5E-07,0.019434375
,,,7.6E-07,0.019713125
,,,7.7E-07,0.01949125
,,,7.8E-07,0.019775
,,,7.9E-07,0.019695625
,,,8E-07,0.019840625
,,,8.1E-07,0.01959375
,,,8.2E-07,0.01951
,,,8.3E-07,0.01969375
,,,8.4E-07,0.01985125
,,,8.5E-07,0.01963
,,,8.6E-07,0.019670625
,,,8.7E-07,0.01978875
,,,8.8E-07,0.019644375
,,,8.9E-07,0.01963
,,,9E-07,0.01956375
,,,9.1E-07,0.019514375
,,,9.2E-07,0.01989125
,,,9.3E-07,0.01953125
,,,9.4E-07,0.019831875
,,,9.5E-07,0.019625625
,,,9.6E-07,0.019419375
,,,9.7E-07,0.01983
,,,9.8E-07,0.0196225
,,,9.9E-07,0.019604375
,,,1E-06,0.01968875
,,,1.01E-06,0.019618125
,,,1.02E-06,0.019669375
,,,1.03E-06,0.019583125
,,,1.04E-06,0.0197575
,,,1.05E-06,0.0195925
,,,1.06E-06,0.019789375
,,,1.07E-06,0.0195375
,,,1.08E-06,0.01979375
,,,1.09E-06,0.01959625
,,,1.1E-06,0.0195175
,,,1.11E-06,0.019609375
,,,1.12E-06,0.0196875
,,,1.13E-06,0.019391875
,,,1.14E-06,0.019731875
,,,1.15E-06,0.019451875
,,,1.16E-06,0.019653125
,,,1.17E-06,0.01995125
,,,1.18E-06,0.01970625
,,,1.19E-06,0.019676875
,,,1.2E-06,0.019903125
,,,1.21E-06,0.019588125
,,,1.22E-06,0.01958375
,,,1.23E-06,0.019741875
,,,1.24E-06,0.01968125
,,,1.25E-06,0.01992625
,,,1.26E-06,0.01961625
,,,1.27E-06,0.019628125
,,,1.28E-06,0.019715
,,,1.29E-06,0.0197575
,,,1.3E-06,0.019505
,,,1.31E-06,0.019785625
,,,1.32E-06,0.01968125
,,,1.33E-06,0.0197725
,,,1.34E-06,0.01960375
,,,1.35E-06,0.019396875
,,,1.36E-06,0.019761875
,,,1.37E-06,0.019618125
,,,1.38E-06,0.01984375
,,,1.39E-06,0.01977875
,,,1.4E-06,0.019651875
,,,1.41E-06,0.01945625
,,,1.42E-06,0.0196175
,,,1.43E-06,0.01966875
,,,1.44E-06,0.019875625
,,,1.45E-06,0.01984
,,,1.46E-06,0.019634375
,,,1.47E-06,0.0197975
,,,1.48E-06,0.0199375
,,,1.49E-06,0.019755
,,,1.5E-06,0.01965875
,,,1.51E-06,0.01951375
,,,1.52E-06,0.01955125
,,,1.53E-06,0.01960625
,,,1.54E-06,0.0193775
,,,1.55E-06,0.019565625
,,,1.56E-06,0.019650625
,,,1.57E-06,0.0196275
,,,1.58E-06,0.019685625
,,,1.59E-06,0.019793125
,,,1.6E-06,0.01950125
,,,1.61E-06,0.019716875
,,,1.62E-06,0.01965
,,,1.63E-06,0.019604375
,,,1.64E-06,0.019808125
,,,1.65E-06,0.0197525
,,,1.66E-06,0.019676875
,,,1.67E-06,0.0198875
,,,1.68E-06,0.019740625
,,,1.69E-06,0.019826875
,,,1.7E-06,0.019654375
,,,1.71E-06,0.01968125
,,,1.72E-06,0.01957875
,,,1.73E-06,0.01993375
,,,1.74E-06,0.019505625
,,,1.75E-06,0.019476875
,,,1.76E-06,0.01971625
,,,1.77E-06,0.019761875
,,,1.78E-06,0.019869375
,,,1.79E-06,0.0197925
,,,1.8E-06,0.019671875
,,,1.81E-06,0.01964125
,,,1.82E-06,0.0196825
,,,1.83E-06,0.01967375
,,,1.84E-06,0.0194675
,,,1.85E-06,0.01949625
,,,1.86E-06,0.019524375
,,,1.87E-06,0.019389375
,,,1.88E-06,0.019593125
,,,1.89E-06,0.019741875
,,,1.9E-06,0.01958125
,,,1.91E-06,0.019656875
,,,1.92E-06,0.019748125
,,,1.93E-06,0.019498125
,,,1.94E-06,0.019864375
,,,1.95E-06,0.019680625
,,,1.96E-06,0.01996875
,,,1.97E-06,0.0195825
,,,1.98E-06,0.01965375
,,,1.99E-06,0.019798125
,,,2E-06,0.0198125
,,,2.01E-06,0.019629375
,,,2.02E-06,0.019574375
,,,2.03E-06,0.0198325
,,,2.04E-06,0.019574375
,,,2.05E-06,0.01964125
,,,2.06E-06,0.0196825
,,,2.07E-06,0.0197425
,,,2.08E-06,0.019615625
,,,2.09E-06,0.01974125
,,,2.1E-06,0.019565625
,,,2.11E-06,0.0197625
,,,2.12E-06,0.019785625
,,,2.13E-06,0.01954125
,,,2.14E-06,0.019803125
,,,2.15E-06,0.019456875
,,,2.16E-06,0.01986875
,,,2.17E-06,0.0196275
,,,2.18E-06,0.019648125
,,,2.19E-06,0.019561875
,,,2.2E-06,0.019728125
,,,2.21E-06,0.01939125
,,,2.22E-06,0.019735
,,,2.23E-06,0.019765
,,,2.24E-06,0.0196275
,,,2.25E-06,0.019643125
,,,2.26E-06,0.01983375
,,,2.27E-06,0.019655
,,,2.28E-06,0.0197975
,,,2.29E-06,0.01970125
,,,2.3E-06,0.01967375
,,,2.31E-06,0.019559375
,,,2.32E-06,0.019635625
,,,2.33E-06,0.019825625
,,,2.34E-06,0.0197525
,,,2.35E-06,0.019903125
,,,2.36E-06,0.01985375
,,,2.37E-06,0.01959125
,,,2.38E-06,0.019675625
,,,2.39E-06,0.01936125
,,,2.4E-06,0.019623125
,,,2.41E-06,0.019598125
,,,2.42E-06,0.0197
,,,2.43E-06,0.01965625
,,,2.44E-06,0.01970125
,,,2.45E-06,0.019735625
,,,2.46E-06,0.019721875
,,,2.47E-06,0.019638125
,,,2.48E-06,0.019678125
,,,2.49E-06,0.019739375
,,,2.5E-06,0.019685
,,,2.51E-06,0.019881875
,,,2.52E-06,0.01967875
,,,2.53E-06,0.01975375
,,,2.54E-06,0.01971375
,,,2.55E-06,0.019790625
,,,2.56E-06,0.01981875
,,,2.57E-06,0.01989125
,,,2.58E-06,0.019696875
,,,2.59E-06,0.01967875
,,,2.6E-06,0.01973625
,,,2.61E-06,0.019754375
,,,2.62E-06,0.01983125
,,,2.63E-06,0.01954625
,,,2.64E-06,0.01979375
,,,2.65E-06,0.01973
,,,2.66E-06,0.019595
,,,2.67E-06,0.019731875
,,,2.68E-06,0.019483125
,,,2.69E-06,0.019741875
,,,2.7E-06,0.0197675
,,,2.71E-06,0.0195975
,,,2.72E-06,0.01973
,,,2.73E-06,0.019694375
,,,2.74E-06,0.01969
,,,2.75E-06,0.019625
,,,2.76E-06,0.01980125
,,,2.77E-06,0.019804375
,,,2.78E-06,0.01961125
,,,2.79E-06,0.019695
,,,2.8E-06,0.01970125
,,,2.81E-06,0.01977125
,,,2.82E-06,0.019965625
,,,2.83E-06,0.01979375
,,,2.84E-06,0.019434375
,,,2.85E-06,0.019775625
,,,2.86E-06,0.0198775
,,,2.87E-06,0.019548125
,,,2.88E-06,0.01955625
,,,2.89E-06,0.01966625
,,,2.9E-06,0.019648125
,,,2.91E-06,0.01974125
,,,2.92E-06,0.01988875
,,,2.93E-06,0.01954625
,,,2.94E-06,0.019715625
,,,2.95E-06,0.019633125
,,,2.96E-06,0.0196425
,,,2.97E-06,0.01961625
,,,2.98E-06,0.0196925
,,,2.99E-06,0.0196175
,,,3E-06,0.01951
,,,3.01E-06,0.0198625
,,,3.02E-06,0.019898125
,,,3.03E-06,0.01981
,,,3.04E-06,0.01991625
,,,3.05E-06,0.019859375
,,,3.06E-06,0.019628125
,,,3.07E-06,0.019765
,,,3.08E-06,0.01965
,,,3.09E-06,0.01950625
,,,3.1E-06,0.019793125
,,,3.11E-06,0.0198225
,,,3.12E-06,0.0198575
,,,3.13E-06,0.0197375
,,,3.14E-06,0.019814375
,,,3.15E-06,0.01980375
,,,3.16E-06,0.0197275
,,,3.17E-06,0.019645625
,,,3.18E-06,0.019665
,,,3.19E-06,0.01993625
,,,3.2E-06,0.0195125
,,,3.21E-06,0.01975125
,,,3.22E-06,0.019730625
,,,3.23E-06,0.019685625
,,,3.24E-06,0.019901875
,,,3.25E-06,0.019741875
,,,3.26E-06,0.01954375
,,,3.27E-06,0.019859375
,,,3.28E-06,0.01974
,,,3.29E-06,0.01973
,,,3.3E-06,0.019495
,,,3.31E-06,0.0197675
,,,3.32E-06,0.019815
,,,3.33E-06,0.01971875
,,,3.34E-06,0.019760625
,,,3.35E-06,0.019693125
,,,3.36E-06,0.019615625
,,,3.37E-06,0.019605
,,,3.38E-06,0.019766875
,,,3.39E-06,0.01962875
,,,3.4E-06,0.019553125
,,,3.41E-06,0.019710625
,,,3.42E-06,0.019878125
,,,3.43E-06,0.019586875
,,,3.44E-06,0.0197325
,,,3.45E-06,0.01961875
,,,3.46E-06,0.019715625
,,,3.47E-06,0.019483125
,,,3.48E-06,0.0196675
,,,3.49E-06,0.0196975
,,,3.5E-06,0.01964
,,,3.51E-06,0.019651875
,,,3.52E-06,0.01958125
,,,3.53E-06,0.01968125
,,,3.54E-06,0.019773125
,,,3.55E-06,0.019786875
,,,3.56E-06,0.019494375
