data/raw/Final_POL_Test_1/SOP077_Ch2.csv

"Record Length",1000,"Points",-5E-06,0.018659375
"Sample Interval",1E-08,s,-4.99E-06,0.01879
"Trigger Point",500,"Samples",-4.98E-06,0.0186075
"Trigger Time",0,s,-4.97E-06,0.01900375
"",,,-4.96E-06,0.0189325
"Horizontal Offset",-5E-06,s,-4.95E-06,0.019113125
,,,-4.94E-06,0.018750625
,,,-4.93E-06,0.0189125
,,,-4.92E-06,0.01878125
,,,-4.91E-06,0.018700625
,,,-4.9E-06,0.019015625
,,,-4.89E-06,0.019073125
,,,-4.88E-06,0.01885125
,,,-4.87E-06,0.01880375
,,,-4.86E-06,0.018790625
,,,-4.85E-06,0.018695625
,,,-4.84E-06,0.018828125
,,,-4.83E-06,0.0188575
,,,-4.82E-06,0.018841875
,,,-4.81E-06,0.018934375
,,,-4.8E-06,0.018705
,,,-4.79E-06,0.018976875
,,,-4.78E-06,0.0187725
,,,-4.77E-06,0.018521875
,,,-4.76E-06,0.01877125
,,,-4.75E-06,0.018839375
,,,-4.74E-06,0.0185075
,,,-4.73E-06,0.018683125
,,,-4.72E-06,0.018998125
,,,-4.71E-06,0.018786875
,,,-4.7E-06,0.01893625
,,,-4.69E-06,0.0187325
,,,-4.68E-06,0.0188425
,,,-4.67E-06,0.0188725
,,,-4.66E-06,0.0189775
,,,-4.65E-06,0.018695625
,,,-4.64E-06,0.01878875
,,,-4.63E-06,0.018701875
,,,-4.62E-06,0.018735
,,,-4.61E-06,0.018745625
,,,-4.6E-06,0.01875
,,,-4.59E-06,0.018730625
,,,-4.58E-06,0.01890375
,,,-4.57E-06,0.01879625
,,,-4.56E-06,0.0189525
,,,-4.55E-06,0.018745
,,,-4.54E-06,0.0187875
,,,-4.53E-06,0.018874375
,,,-4.52E-06,0.018881875
,,,-4.51E-06,0.01868625
,,,-4.5E-06,0.01875625
,,,-4.49E-06,0.01877125
,,,-4.48E-06,0.01869
,,,-4.47E-06,0.018783125
,,,-4.46E-06,0.019036875
,,,-4.45E-06,0.018866875
,,,-4.44E-06,0.018745625
,,,-4.43E-06,0.018881875
,,,-4.42E-06,0.018816875
,,,-4.41E-06,0.01886625
,,,-4.4E-06,0.018846875
,,,-4.39E-06,0.018851875
,,,-4.38E-06,0.018929375
,,,-4.37E-06,0.018585625
,,,-4.36E-06,0.0186575
,,,-4.35E-06,0.018691875
,,,-4.34E-06,0.018745
,,,-4.33E-06,0.018840625
,,,-4.32E-06,0.01888125
,,,-4.31E-06,0.018815
,,,-4.3E-06,0.01883
,,,-4.29E-06,0.018718125
,,,-4.28E-06,0.01896375
,,,-4.27E-06,0.018885625
,,,-4.26E-06,0.01893875
,,,-4.25E-06,0.0187775
,,,-4.24E-06,0.018845
,,,-4.23E-06,0.018775
,,,-4.22E-06,0.018665625
,,,-4.21E-06,0.019044375
,,,-4.2E-06,0.01871625
,,,-4.19E-06,0.01879625
,,,-4.18E-06,0.018805625
,,,-4.17E-06,0.018591875
,,,-4.16E-06,0.018851875
,,,-4.15E-06,0.019094375
,,,-4.14E-06,0.018828125
,,,-4.13E-06,0.01869
,,,-4.12E-06,0.0189775
,,,-4.11E-06,0.018465
,,,-4.1E-06,0.018530625
,,,-4.09E-06,0.018586875
,,,-4.08E-06,0.018803125
,,,-4.07E-06,0.018745
,,,-4.06E-06,0.019181875
,,,-4.05E-06,0.018723125
,,,-4.04E-06,0.018678125
,,,-4.03E-06,0.018749375
,,,-4.02E-06,0.018635625
,,,-4.01E-06,0.01864875
,,,-4E-06,0.018819375
,,,-3.99E-06,0.018800625
,,,-3.98E-06,0.018929375
,,,-3.97E-06,0.01867
,,,-3.96E-06,0.01880625
,,,-3.95E-06,0.01884875
,,,-3.94E-06,0.018665
,,,-3.93E-06,0.01892
,,,-3.92E-06,0.01873
,,,-3.91E-06,0.01882625
,,,-3.9E-06,0.01892
,,,-3.89E-06,0.0188
,,,-3.88E-06,0.01870375
,,,-3.87E-06,0.01861875
,,,-3.86E-06,0.018619375
,,,-3.85E-06,0.01870625
,,,-3.84E-06,0.01857875
,,,-3.83E-06,0.018593125
,,,-3.82E-06,0.018825625
,,,-3.81E-06,0.01894875
,,,-3.8E-06,0.01897625
,,,-3.79E-06,0.0185175
,,,-3.78E-06,0.01896
,,,-3.77E-06,0.018494375
,,,-3.76E-06,0.018729375
,,,-3.75E-06,0.0187125
,,,-3.74E-06,0.01889125
,,,-3.73E-06,0.0187925
,,,-3.72E-06,0.01898125
,,,-3.71E-06,0.018613125
,,,-3.7E-06,0.01897875
,,,-3.69E-06,0.018741875
,,,-3.68E-06,0.018731875
,,,-3.67E-06,0.018979375
,,,-3.66E-06,0.01888375
,,,-3.65E-06,0.018915
,,,-3.64E-06,0.018876875
,,,-3.63E-06,0.018859375
,,,-3.62E-06,0.018648125
,,,-3.61E-06,0.019015625
,,,-3.6E-06,0.018820625
,,,-3.59E-06,0.018928125
,,,-3.58E-06,0.018739375
,,,-3.57E-06,0.01883125
,,,-3.56E-06,0.018666875
,,,-3.55E-06,0.018713125
,,,-3.54E-06,0.01879875
,,,-3.53E-06,0.018708125
,,,-3.52E-06,0.01889375
,,,-3.51E-06,0.01871125
,,,-3.5E-06,0.01857
,,,-3.49E-06,0.01886125
,,,-3.48E-06,0.018683125
,,,-3.47E-06,0.0187475
,,,-3.46E-06,0.01857125
,,,-3.45E-06,0.01887125
,,,-3.44E-06,0.018906875
,,,-3.43E-06,0.01872625
,,,-3.42E-06,0.018735
,,,-3.41E-06,0.018934375
,,,-3.4E-06,0.018919375
,,,-3.39E-06,0.018994375
,,,-3.38E-06,0.0189
,,,-3.37E-06,0.018848125
,,,-3.36E-06,0.0188325
,,,-3.35E-06,0.01893875
,,,-3.34E-06,0.01902375
,,,-3.33E-06,0.018921875
,,,-3.32E-06,0.018855625
,,,-3.31E-06,0.018883125
,,,-3.3E-06,0.01877625
,,,-3.29E-06,0.018663125
,,,-3.28E-06,0.01875
,,,-3.27E-06,0.018639375
,,,-3.26E-06,0.01856375
,,,-3.25E-06,0.018660625
,,,-3.24E-06,0.019013125
,,,-3.23E-06,0.01888625
,,,-3.22E-06,0.01893
,,,-3.21E-06,0.01868375
,,,-3.2E-06,0.018691875
,,,-3.19E-06,0.01891875
,,,-3.18E-06,0.01876625
,,,-3.17E-06,0.018931875
,,,-3.16E-06,0.0187025
,,,-3.15E-06,0.018614375
,,,-3.14E-06,0.01866875
,,,-3.13E-06,0.01900625
,,,-3.12E-06,0.018968125
,,,-3.11E-06,0.018830625
,,,-3.1E-06,0.018689375
,,,-3.09E-06,0.019088125
,,,-3.08E-06,0.01861625
,,,-3.07E-06,0.018906875
,,,-3.06E-06,0.0187375
,,,-3.05E-06,0.0185525
,,,-3.04E-06,0.01880875
,,,-3.03E-06,0.018875
,,,-3.02E-06,0.0185875
,,,-3.01E-06,0.0188825
,,,-3E-06,0.0189925
,,,-2.99E-06,0.018684375
,,,-2.98E-06,0.018670625
,,,-2.97E-06,0.018800625
,,,-2.96E-06,0.01899125
,,,-2.95E-06,0.018716875
,,,-2.94E-06,0.018775
,,,-2.93E-06,0.01898125
,,,-2.92E-06,0.0188675
,,,-2.91E-06,0.018644375
,,,-2.9E-06,0.018613125
,,,-2.89E-06,0.018635
,,,-2.88E-06,0.018450625
,,,-2.87E-06,0.018894375
,,,-2.86E-06,0.01888
,,,-2.85E-06,0.018753125
,,,-2.84E-06,0.01888375
,,,-2.83E-06,0.018730625
,,,-2.82E-06,0.018730625
,,,-2.81E-06,0.018775625
,,,-2.8E-06,0.018884375
,,,-2.79E-06,0.01882
,,,-2.78E-06,0.018629375
,,,-2.77E-06,0.018625
,,,-2.76E-06,0.018745625
,,,-2.75E-06,0.018681875
,,,-2.74E-06,0.018835
,,,-2.73E-06,0.01873625
,,,-2.72E-06,0.0189025
,,,-2.71E-06,0.018701875
,,,-2.7E-06,0.01877125
,,,-2.69E-06,0.018816875
,,,-2.68E-06,0.018741875
,,,-2.67E-06,0.018853125
,,,-2.66E-06,0.018855
,,,-2.65E-06,0.018871875
,,,-2.64E-06,0.019115
,,,-2.63E-06,0.0187175
,,,-2.62E-06,0.018875
,,,-2.61E-06,0.018526875
,,,-2.6E-06,0.01878875
,,,-2.59E-06,0.018713125
,,,-2.58E-06,0.01900375
,,,-2.57E-06,0.01854
,,,-2.56E-06,0.01896875
,,,-2.55E-06,0.01875375
,,,-2.54E-06,0.01853125
,,,-2.53E-06,0.018690625
,,,-2.52E-06,0.0186175
,,,-2.51E-06,0.0189225
,,,-2.5E-06,0.0188
,,,-2.49E-06,0.01887
,,,-2.48E-06,0.01877875
,,,-2.47E-06,0.018793125
,,,-2.46E-06,0.018761875
,,,-2.45E-06,0.018895
,,,-2.44E-06,0.018765
,,,-2.43E-06,0.01878375
,,,-2.42E-06,0.01872375
,,,-2.41E-06,0.018679375
,,,-2.4E-06,0.01888625
,,,-2.39E-06,0.018719375
,,,-2.38E-06,0.0186625
,,,-2.37E-06,0.018445625
,,,-2.36E-06,0.018811875
,,,-2.35E-06,0.01912375
,,,-2.34E-06,0.01868625
,,,-2.33E-06,0.01902625
,,,-2.32E-06,0.018850625
,,,-2.31E-06,0.018824375
,,,-2.3E-06,0.018795
,,,-2.29E-06,0.018795
,,,-2.28E-06,0.018705
,,,-2.27E-06,0.018881875
,,,-2.26E-06,0.018685625
,,,-2.25E-06,0.018881875
,,,-2.24E-06,0.0188125
,,,-2.23E-06,0.0190175
,,,-2.22E-06,0.01882
,,,-2.21E-06,0.0188475
,,,-2.2E-06,0.018769375
,,,-2.19E-06,0.01903375
,,,-2.18E-06,0.01892375
,,,-2.17E-06,0.018984375
,,,-2.16E-06,0.01892375
,,,-2.15E-06,0.0186225
,,,-2.14E-06,0.018884375
,,,-2.13E-06,0.018536875
,,,-2.12E-06,0.018608125
,,,-2.11E-06,0.01883625
,,,-2.1E-06,0.018831875
,,,-2.09E-06,0.01881125
,,,-2.08E-06,0.019073125
,,,-2.07E-06,0.0187425
,,,-2.06E-06,0.018805
,,,-2.05E-06,0.0188225
,,,-2.04E-06,0.01878
,,,-2.03E-06,0.0189425
,,,-2.02E-06,0.018916875
,,,-2.01E-06,0.01892875
,,,-2E-06,0.01878625
,,,-1.99E-06,0.018965
,,,-1.98E-06,0.018736875
,,,-1.97E-06,0.01872375
,,,-1.96E-06,0.018820625
,,,-1.95E-06,0.018720625
,,,-1.94E-06,0.018778125
,,,-1.93E-06,0.01886125
,,,-1.92E-06,0.01874
,,,-1.91E-06,0.01873
,,,-1.9E-06,0.018746875
,,,-1.89E-06,0.01851875
,,,-1.88E-06,0.018694375
,,,-1.87E-06,0.01886375
,,,-1.86E-06,0.01872625
,,,-1.85E-06,0.0187675
,,,-1.84E-06,0.0188775
,,,-1.83E-06,0.0186625
,,,-1.82E-06,0.01895625
,,,-1.81E-06,0.018755
,,,-1.8E-06,0.018828125
,,,-1.79E-06,0.018559375
,,,-1.78E-06,0.01860875
,,,-1.77E-06,0.019053125
,,,-1.76E-06,0.018679375
,,,-1.75E-06,0.0188925
,,,-1.74E-06,0.01874125
,,,-1.73E-06,0.01891625
,,,-1.72E-06,0.01864875
,,,-1.71E-06,0.018626875
,,,-1.7E-06,0.018801875
,,,-1.69E-06,0.018899375
,,,-1.68E-06,0.0186775
,,,-1.67E-06,0.0187
,,,-1.66E-06,0.018591875
,,,-1.65E-06,0.01884375
,,,-1.64E-06,0.018845
,,,-1.63E-06,0.018863125
,,,-1.62E-06,0.018836875
,,,-1.61E-06,0.018579375
,,,-1.6E-06,0.018615625
,,,-1.59E-06,0.019024375
,,,-1.58E-06,0.018650625
,,,-1.57E-06,0.0188525
,,,-1.56E-06,0.01880875
,,,-1.55E-06,0.018505
,,,-1.54E-06,0.01876
,,,-1.53E-06,0.01875125
,,,-1.52E-06,0.0186325
,,,-1.51E-06,0.019005625
,,,-1.5E-06,0.018804375
,,,-1.49E-06,0.01889375
,,,-1.48E-06,0.018668125
,,,-1.47E-06,0.018746875
,,,-1.46E-06,0.01866125
,,,-1.45E-06,0.018724375
,,,-1.44E-06,0.018768125
,,,-1.43E-06,0.0187475
,,,-1.42E-06,0.01872
,,,-1.41E-06,0.018755
,,,-1.4E-06,0.01855
,,,-1.39E-06,0.0184775
,,,-1.38E-06,0.01890375
,,,-1.37E-06,0.018548125
,,,-1.36E-06,0.01885625
,,,-1.35E-06,0.018845625
,,,-1.34E-06,0.018780625
,,,-1.33E-06,0.01867
,,,-1.32E-06,0.01879625
,,,-1.31E-06,0.018541875
,,,-1.3E-06,0.01876875
,,,-1.29E-06,0.01903875
,,,-1.28E-06,0.018625625
,,,-1.27E-06,0.018811875
,,,-1.26E-06,0.019029375
,,,-1.25E-06,0.018999375
,,,-1.24E-06,0.018718125
,,,-1.23E-06,0.01875375
,,,-1.22E-06,0.01886875
,,,-1.21E-06,0.018683125
,,,-1.2E-06,0.01884625
,,,-1.19E-06,0.018835625
,,,-1.18E-06,0.01870625
,,,-1.17E-06,0.0187375
,,,-1.16E-06,0.01873375
,,,-1.15E-06,0.01863375
,,,-1.14E-06,0.018979375
,,,-1.13E-06,0.018860625
,,,-1.12E-06,0.018658125
,,,-1.11E-06,0.018740625
,,,-1.1E-06,0.018469375
,,,-1.09E-06,0.019055
,,,-1.08E-06,0.01856875
,,,-1.07E-06,0.018936875
,,,-1.06E-06,0.019010625
,,,-1.05E-06,0.0189875
,,,-1.04E-06,0.018938125
,,,-1.03E-06,0.018985625
,,,-1.02E-06,0.019061875
,,,-1.01E-06,0.0186975
,,,-1E-06,0.01866875
,,,-9.9E-07,0.01870875
,,,-9.8E-07,0.018684375
,,,-9.7E-07,0.0188275
,,,-9.6E-07,0.018855625
,,,-9.5E-07,0.0188875
,,,-9.4E-07,0.018574375
,,,-9.3E-07,0.01902
,,,-9.2E-07,0.01892125
,,,-9.1E-07,0.018941875
,,,-9E-07,0.0188075
,,,-8.9E-07,0.0187
,,,-8.8E-07,0.019055
,,,-8.7E-07,0.01876375
,,,-8.6E-07,0.018761875
,,,-8.5E-07,0.019120625
,,,-8.4E-07,0.018778125
,,,-8.3E-07,0.01878625
,,,-8.2E-07,0.01858375
,,,-8.1E-07,0.018794375
,,,-8E-07,0.01865375
,,,-7.9E-07,0.018669375
,,,-7.8E-07,0.018560625
,,,-7.7E-07,0.018875625
,,,-7.6E-07,0.0190275
,,,-7.5E-07,0.0189075
,,,-7.4E-07,0.01886
,,,-7.3E-07,0.01874
,,,-7.2E-07,0.01888
,,,-7.1E-07,0.018819375
,,,-7E-07,0.018553125
,,,-6.9E-07,0.018564375
,,,-6.8E-07,0.01878875
,,,-6.7E-07,0.018818125
,,,-6.6E-07,0.01864125
,,,-6.5E-07,0.018681875
,,,-6.4E-07,0.01894375
,,,-6.3E-07,0.018931875
,,,-6.2E-07,0.018841875
,,,-6.1E-07,0.01876875
,,,-6E-07,0.018736875
,,,-5.9E-07,0.018678125
,,,-5.8E-07,0.018885625
,,,-5.7E-07,0.01873875
,,,-5.6E-07,0.018614375
,,,-5.5E-07,0.01867125
,,,-5.4E-07,0.018720625
,,,-5.3E-07,0.01876125
,,,-5.2E-07,0.0188675
,,,-5.1E-07,0.01872625
,,,-5E-07,0.018790625
,,,-4.9E-07,0.018743125
,,,-4.8E-07,0.018898125
,,,-4.7E-07,0.01878875
,,,-4.6E-07,0.01869625
,,,-4.5E-07,0.01861375
,,,-4.4E-07,0.019005
,,,-4.3E-07,0.01871125
,,,-4.2E-07,0.01884625
,,,-4.1E-07,0.018965625
,,,-4E-07,0.018833125
,,,-3.9E-07,0.018971875
,,,-3.8E-07,0.018776875
,,,-3.7E-07,0.0189575
,,,-3.6E-07,0.018871875
,,,-3.5E-07,0.018864375
,,,-3.4E-07,0.01886
,,,-3.3E-07,0.018574375
,,,-3.2E-07,0.018733125
,,,-3.1E-07,0.018778125
,,,-3E-07,0.01888625
,,,-2.9E-07,0.01903875
,,,-2.8E-07,0.01895625
,,,-2.7E-07,0.018898125
,,,-2.6E-07,0.019009375
,,,-2.5E-07,0.0187525
,,,-2.4E-07,0.018778125
,,,-2.3E-07,0.018590625
,,,-2.2E-07,0.01874125
,,,-2.1E-07,0.0188025
,,,-2E-07,0.018861875
,,,-1.9E-07,0.018834375
,,,-1.8E-07,0.0187375
,,,-1.7E-07,0.0184375
,,,-1.6E-07,0.018591875
,,,-1.5E-07,0.018930625
,,,-1.4E-07,0.01893
,,,-1.3E-07,0.0185675
,,,-1.2E-07,0.018724375
,,,-1.1E-07,0.01866375
,,,-1E-07,0.01898
,,,-9E-08,0.018908125
,,,-8E-08,0.01882625
,,,-7E-08,0.0186525
,,,-6E-08,0.018605
,,,-5E-08,0.01872375
,,,-4E-08,0.019544375
,,,-3E-08,0.02034625
,,,-2E-08,0.017605
,,,-1E-08,0.015804999
,,,0,0.015114374
,,,1E-08,0.020558125
,,,2E-08,0.0227775
,,,3E-08,0.022513125
,,,4E-08,0.01828
,,,5E-08,0.016218749
,,,6E-08,0.015572499
,,,7E-08,0.017288125
,,,8E-08,0.01946375
,,,9E-08,0.02075375
,,,1E-07,0.020991875
,,,1.1E-07,0.019246875
,,,1.2E-07,0.01783375
,,,1.3E-07,0.0170775
,,,1.4E-07,0.017845
,,,1.5E-07,0.018885
,,,1.6E-07,0.01921625
,,,1.7E-07,0.01909
,,,1.8E-07,0.019036875
,,,1.9E-07,0.018719375
,,,2E-07,0.01909
,,,2.1E-07,0.018366875
,,,2.2E-07,0.018639375
,,,2.3E-07,0.01881
,,,2.4E-07,0.01886
,,,2.5E-07,0.01891875
,,,2.6E-07,0.01886625
,,,2.7E-07,0.0188425
,,,2.8E-07,0.0187925
,,,2.9E-07,0.01896
,,,3E-07,0.018871875
,,,3.1E-07,0.01860125
,,,3.2E-07,0.019066875
,,,3.3E-07,0.019043125
,,,3.4E-07,0.018619375
,,,3.5E-07,0.018755
,,,3.6E-07,0.01868
,,,3.7E-07,0.01865
,,,3.8E-07,0.01882
,,,3.9E-07,0.01888125
,,,4E-07,0.018729375
,,,4.1E-07,0.0187125
,,,4.2E-07,0.01869625
,,,4.3E-07,0.01874875
,,,4.4E-07,0.018681875
,,,4.5E-07,0.018914375
,,,4.6E-07,0.018923125
,,,4.7E-07,0.01859375
,,,4.8E-07,0.018699375
,,,4.9E-07,0.018515625
,,,5E-07,0.01888625
,,,5.1E-07,0.018894375
,,,5.2E-07,0.0187225
,,,5.3E-07,0.018971875
,,,5.4E-07,0.018644375
,,,5.5E-07,0.01879
,,,5.6E-07,0.0187325
,,,5.7E-07,0.018750625
,,,5.8E-07,0.018810625
,,,5.9E-07,0.01880125
,,,6E-07,0.018595625
,,,6.1E-07,0.018624375
,,,6.2E-07,0.018775625
,,,6.3E-07,0.01853625
,,,6.4E-07,0.018606875
,,,6.5E-07,0.0187325
,,,6.6E-07,0.0187575
,,,6.7E-07,0.018841875
,,,6.8E-07,0.0185925
,,,6.9E-07,0.01867
,,,7E-07,0.018771875
,,,7.1E-07,0.018850625
,,,7.2E-07,0.018795
,,,7.3E-07,0.0188275
,,,7.4E-07,0.0186075
,,,7.5E-07,0.019089375
,,,7.6E-07,0.018774375
,,,7.7E-07,0.018816875
,,,7.8E-07,0.018699375
,,,7.9E-07,0.0189375
,,,8E-07,0.01853375
,,,8.1E-07,0.01889125
,,,8.2E-07,0.018518125
,,,8.3E-07,0.018966875
,,,8.4E-07,0.01878375
,,,8.5E-07,0.0186175
,,,8.6E-07,0.018911875
,,,8.7E-07,0.018606875
,,,8.8E-07,0.018645
,,,8.9E-07,0.018715
,,,9E-07,0.018761875
,,,9.1E-07,0.0188175
,,,9.2E-07,0.0186725
,,,9.3E-07,0.018703125
,,,9.4E-07,0.018860625
,,,9.5E-07,0.0187275
,,,9.6E-07,0.01857875
,,,9.7E-07,0.018690625
,,,9.8E-07,0.018783125
,,,9.9E-07,0.018558125
,,,1E-06,0.018649375
,,,1.01E-06,0.01872875
,,,1.02E-06,0.0187425
,,,1.03E-06,0.018526875
,,,1.04E-06,0.018963125
,,,1.05E-06,0.018816875
,,,1.06E-06,0.01873125
,,,1.07E-06,0.019009375
,,,1.08E-06,0.0186275
,,,1.09E-06,0.019016875
,,,1.1E-06,0.018999375
,,,1.11E-06,0.01871875
,,,1.12E-06,0.018969375
,,,1.13E-06,0.018756875
,,,1.14E-06,0.01859875
,,,1.15E-06,0.01881875
,,,1.16E-06,0.01881625
,,,1.17E-06,0.018765
,,,1.18E-06,0.0189025
,,,1.19E-06,0.018784375
,,,1.2E-06,0.018758125
,,,1.21E-06,0.018774375
,,,1.22E-06,0.019005
,,,1.23E-06,0.01890625
,,,1.24E-06,0.018845
,,,1.25E-06,0.018618125
,,,1.26E-06,0.018810625
,,,1.27E-06,0.01843875
,,,1.28E-06,0.018903125
,,,1.29E-06,0.0189275
,,,1.3E-06,0.018488125
,,,1.31E-06,0.0187275
,,,1.32E-06,0.01883625
,,,1.33E-06,0.018848125
,,,1.34E-06,0.01869375
,,,1.35E-06,0.0185675
,,,1.36E-06,0.018881875
,,,1.37E-06,0.01899625
,,,1.38E-06,0.018666875
,,,1.39E-06,0.01852375
,,,1.4E-06,0.018745625
,,,1.41E-06,0.018675
,,,1.42E-06,0.018665625
,,,1.43E-06,0.01863375
,,,1.44E-06,0.018755
,,,1.45E-06,0.018860625
,,,1.46E-06,0.01859
,,,1.47E-06,0.018805625
,,,1.48E-06,0.0188975
,,,1.49E-06,0.01886875
,,,1.5E-06,0.01866375
,,,1.51E-06,0.01884375
,,,1.52E-06,0.0187225
,,,1.53E-06,0.01883375
,,,1.54E-06,0.01857625
,,,1.55E-06,0.01866375
,,,1.56E-06,0.01872375
,,,1.57E-06,0.018950625
,,,1.58E-06,0.019003125
,,,1.59E-06,0.01882375
,,,1.6E-06,0.01872875
,,,1.61E-06,0.018689375
,,,1.62E-06,0.018665625
,,,1.63E-06,0.0188225
,,,1.64E-06,0.018885625
,,,1.65E-06,0.018704375
,,,1.66E-06,0.018796875
,,,1.67E-06,0.018763125
,,,1.68E-06,0.01879
,,,1.69E-06,0.018705
,,,1.7E-06,0.01868375
,,,1.71E-06,0.01873375
,,,1.72E-06,0.018939375
,,,1.73E-06,0.018770625
,,,1.74E-06,0.0189525
,,,1.75E-06,0.018745625
,,,1.76E-06,0.01854875
,,,1.77E-06,0.01847375
,,,1.78E-06,0.0188325
,,,1.79E-06,0.018831875
,,,1.8E-06,0.01856
,,,1.81E-06,0.018808125
,,,1.82E-06,0.018838125
,,,1.83E-06,0.0187875
,,,1.84E-06,0.01891
,,,1.85E-06,0.018611875
,,,1.86E-06,0.01866
,,,1.87E-06,0.0186975
,,,1.88E-06,0.019025625
,,,1.89E-06,0.01900375
,,,1.9E-06,0.018795
,,,1.91E-06,0.018578125
,,,1.92E-06,0.018814375
,,,1.93E-06,0.018755625
,,,1.94E-06,0.018476875
,,,1.95E-06,0.018855
,,,1.96E-06,0.019006875
,,,1.97E-06,0.0187875
,,,1.98E-06,0.01894375
,,,1.99E-06,0.018875
,,,2E-06,0.018835
,,,2.01E-06,0.0188325
,,,2.02E-06,0.018488125
,,,2.03E-06,0.01907875
,,,2.04E-06,0.018665
,,,2.05E-06,0.018764375
,,,2.06E-06,0.01903625
,,,2.07E-06,0.018785625
,,,2.08E-06,0.01867375
,,,2.09E-06,0.018870625
,,,2.1E-06,0.018545625
,,,2.11E-06,0.0188575
,,,2.12E-06,0.018826875
,,,2.13E-06,0.01873375
,,,2.14E-06,0.018938125
,,,2.15E-06,0.01878625
,,,2.16E-06,0.0188225
,,,2.17E-06,0.019018125
,,,2.18E-06,0.018769375
,,,2.19E-06,0.0187625
,,,2.2E-06,0.018699375
,,,2.21E-06,0.018790625
,,,2.22E-06,0.01887
,,,2.23E-06,0.018848125
,,,2.24E-06,0.018743125
,,,2.25E-06,0.018928125
,,,2.26E-06,0.018595625
,,,2.27E-06,0.01891
,,,2.28E-06,0.018794375
,,,2.29E-06,0.018808125
,,,2.3E-06,0.018805
,,,2.31E-06,0.01875125
,,,2.32E-06,0.01887625
,,,2.33E-06,0.018840625
,,,2.34E-06,0.019148125
,,,2.35E-06,0.018769375
,,,2.36E-06,0.018509375
,,,2.37E-06,0.018534375
,,,2.38E-06,0.018885625
,,,2.39E-06,0.0189325
,,,2.4E-06,0.018780625
,,,2.41E-06,0.018435
,,,2.42E-06,0.01877625
,,,2.43E-06,0.018899375
,,,2.44E-06,0.01888125
,,,2.45E-06,0.018528125
,,,2.46E-06,0.018639375
,,,2.47E-06,0.01864
,,,2.48E-06,0.018790625
,,,2.49E-06,0.01898875
,,,2.5E-06,0.018730625
,,,2.51E-06,0.018745625
,,,2.52E-06,0.018468125
,,,2.53E-06,0.018659375
,,,2.54E-06,0.01896875
,,,2.55E-06,0.01878375
,,,2.56E-06,0.018899375
,,,2.57E-06,0.018791875
,,,2.58E-06,0.01889375
,,,2.59E-06,0.019046875
,,,2.6E-06,0.01868625
,,,2.61E-06,0.018881875
,,,2.62E-06,0.018624375
,,,2.63E-06,0.0189425
,,,2.64E-06,0.01870125
,,,2.65E-06,0.01869375
,,,2.66E-06,0.018818125
,,,2.67E-06,0.018974375
,,,2.68E-06,0.018955
,,,2.69E-06,0.01869125
,,,2.7E-06,0.018831875
,,,2.71E-06,0.01897625
,,,2.72E-06,0.01906875
,,,2.73E-06,0.01850375
,,,2.74E-06,0.019020625
,,,2.75E-06,0.019005625
,,,2.76E-06,0.0189225
,,,2.77E-06,0.01877
,,,2.78E-06,0.01890875
,,,2.79E-06,0.01880875
,,,2.8E-06,0.018805625
,,,2.81E-06,0.018933125
,,,2.82E-06,0.01900625
,,,2.83E-06,0.01881
,,,2.84E-06,0.0187025
,,,2.85E-06,0.018826875
,,,2.86E-06,0.018838125
,,,2.87E-06,0.018606875
,,,2.88E-06,0.01879375
,,,2.89E-06,0.01898625
,,,2.9E-06,0.01874
,,,2.91E-06,0.018768125
,,,2.92E-06,0.018725625
,,,2.93E-06,0.018685
,,,2.94E-06,0.018489375
,,,2.95E-06,0.018685625
,,,2.96E-06,0.018824375
,,,2.97E-06,0.01880125
,,,2.98E-06,0.01853875
,,,2.99E-06,0.018903125
,,,3E-06,0.01898375
,,,3.01E-06,0.018646875
,,,3.02E-06,0.018754375
,,,3.03E-06,0.0184525
,,,3.04E-06,0.018763125
,,,3.05E-06,0.018968125
,,,3.06E-06,0.01888125
,,,3.07E-06,0.018765
,,,3.08E-06,0.0188175
,,,3.09E-06,0.018930625
,,,3.1E-06,0.0187825
,,,3.11E-06,0.01856625
,,,3.12E-06,0.0187675
,,,3.13E-06,0.0188975
,,,3.14E-06,0.01863875
,,,3.15E-06,0.01875625
,,,3.16E-06,0.01899125
,,,3.17E-06,0.018363125
,,,3.18E-06,0.01876125
,,,3.19E-06,0.019018125
,,,3.2E-06,0.018730625
,,,3.21E-06,0.018829375
,,,3.22E-06,0.0189075
,,,3.23E-06,0.019075
,,,3.24E-06,0.018723125
,,,3.25E-06,0.01865
,,,3.26E-06,0.01880625
,,,3.27E-06,0.018545
,,,3.28E-06,0.018823125
,,,3.29E-06,0.019093125
,,,3.3E-06,0.018555625
,,,3.31E-06,0.01858125
,,,3.32E-06,0.018955625
,,,3.33E-06,0.018501875
,,,3.34E-06,0.018715625
,,,3.35E-06,0.0190175
,,,3.36E-06,0.018989375
,,,3.37E-06,0.018848125
,,,3.38E-06,0.018488125
,,,3.39E-06,0.01873875
,,,3.4E-06,0.01853375
,,,3.41E-06,0.01891
,,,3.42E-06,0.018855625
,,,3.43E-06,0.018661875
,,,3.44E-06,0.018680625
,,,3.45E-06,0.018770625
,,,3.46E-06,0.018739375
,,,3.47E-06,0.01896625
,,,3.48E-06,0.01885
,,,3.49E-06,0.0187225
,,,3.5E-06,0.018670625
,,,3.51E-06,0.01866
,,,3.52E-06,0.018811875
,,,3.53E-06,0.01866
,,,3.54E-06,0.019033125
,,,3.55E-06,0.01882125
,,,3.56E-06,0.018648125
,,,3.57E-06,0.018986875
,,,3.58E-06,0.01898125
