data/raw/Final_POL_Test_1/SOP033_Ch3.csv

"Record Length",1000,"Points",-5E-06,0.018723126
"Sample Interval",1E-08,s,-4.99E-06,0.018976876
"Trigger Point",500,"Samples",-4.98E-06,0.019177501
"Trigger Time",0,s,-4.97E-06,0.018838126
"",,,-4.96E-06,0.018788126
"Horizontal Offset",-5E-06,s,-4.95E-06,0.019036876
,,,-4.94E-06,0.018770001
,,,-4.93E-06,0.018613751
,,,-4.92E-06,0.018825001
,,,-4.91E-06,0.018905626
,,,-4.9E-06,0.019116251
,,,-4.89E-06,0.018983751
,,,-4.88E-06,0.018760001
,,,-4.87E-06,0.018896251
,,,-4.86E-06,0.018785626
,,,-4.85E-06,0.019061876
,,,-4.84E-06,0.019021876
,,,-4.83E-06,0.018905001
,,,-4.82E-06,0.018941251
,,,-4.81E-06,0.018970001
,,,-4.8E-06,0.018931876
,,,-4.79E-06,0.018863126
,,,-4.78E-06,0.018894376
,,,-4.77E-06,0.018744376
,,,-4.76E-06,0.018777501
,,,-4.75E-06,0.018812501
,,,-4.74E-06,0.018850626
,,,-4.73E-06,0.018727501
,,,-4.72E-06,0.018825626
,,,-4.71E-06,0.018934376
,,,-4.7E-06,0.019019376
,,,-4.69E-06,0.018668751
,,,-4.68E-06,0.018850626
,,,-4.67E-06,0.018985001
,,,-4.66E-06,0.018921251
,,,-4.65E-06,0.018901251
,,,-4.64E-06,0.018795626
,,,-4.63E-06,0.018733751
,,,-4.62E-06,0.019133126
,,,-4.61E-06,0.018931251
,,,-4.6E-06,0.018726876
,,,-4.59E-06,0.018972501
,,,-4.58E-06,0.018710626
,,,-4.57E-06,0.018974376
,,,-4.56E-06,0.019071251
,,,-4.55E-06,0.018970001
,,,-4.54E-06,0.018705626
,,,-4.53E-06,0.019020626
,,,-4.52E-06,0.019023751
,,,-4.51E-06,0.018865626
,,,-4.5E-06,0.019049376
,,,-4.49E-06,0.018870626
,,,-4.48E-06,0.018931251
,,,-4.47E-06,0.018942501
,,,-4.46E-06,0.019071876
,,,-4.45E-06,0.018939376
,,,-4.44E-06,0.018855001
,,,-4.43E-06,0.019100001
,,,-4.42E-06,0.018845001
,,,-4.41E-06,0.018996251
,,,-4.4E-06,0.018818126
,,,-4.39E-06,0.019223751
,,,-4.38E-06,0.018935626
,,,-4.37E-06,0.018841876
,,,-4.36E-06,0.018700001
,,,-4.35E-06,0.019156251
,,,-4.34E-06,0.018653751
,,,-4.33E-06,0.018853126
,,,-4.32E-06,0.018893126
,,,-4.31E-06,0.018993126
,,,-4.3E-06,0.019035626
,,,-4.29E-06,0.018903126
,,,-4.28E-06,0.018808751
,,,-4.27E-06,0.018702501
,,,-4.26E-06,0.018893126
,,,-4.25E-06,0.018816251
,,,-4.24E-06,0.019031876
,,,-4.23E-06,0.018853126
,,,-4.22E-06,0.018908751
,,,-4.21E-06,0.019101876
,,,-4.2E-06,0.018761876
,,,-4.19E-06,0.019104376
,,,-4.18E-06,0.018690001
,,,-4.17E-06,0.019095626
,,,-4.16E-06,0.018939376
,,,-4.15E-06,0.018750001
,,,-4.14E-06,0.018984376
,,,-4.13E-06,0.018940626
,,,-4.12E-06,0.019168751
,,,-4.11E-06,0.018875001
,,,-4.1E-06,0.019133751
,,,-4.09E-06,0.018710001
,,,-4.08E-06,0.018845001
,,,-4.07E-06,0.018966251
,,,-4.06E-06,0.018790626
,,,-4.05E-06,0.018742501
,,,-4.04E-06,0.018834376
,,,-4.03E-06,0.018761876
,,,-4.02E-06,0.018669376
,,,-4.01E-06,0.018994376
,,,-4E-06,0.018934376
,,,-3.99E-06,0.018969376
,,,-3.98E-06,0.019083751
,,,-3.97E-06,0.018991876
,,,-3.96E-06,0.018960001
,,,-3.95E-06,0.018988126
,,,-3.94E-06,0.018794376
,,,-3.93E-06,0.018954376
,,,-3.92E-06,0.018820626
,,,-3.91E-06,0.018961876
,,,-3.9E-06,0.018840001
,,,-3.89E-06,0.018893751
,,,-3.88E-06,0.018796876
,,,-3.87E-06,0.018837501
,,,-3.86E-06,0.019047501
,,,-3.85E-06,0.018721876
,,,-3.84E-06,0.018948751
,,,-3.83E-06,0.019191251
,,,-3.82E-06,0.018792501
,,,-3.81E-06,0.019155001
,,,-3.8E-06,0.018936876
,,,-3.79E-06,0.018733126
,,,-3.78E-06,0.018985001
,,,-3.77E-06,0.018826876
,,,-3.76E-06,0.019040001
,,,-3.75E-06,0.019047501
,,,-3.74E-06,0.019104376
,,,-3.73E-06,0.019127501
,,,-3.72E-06,0.019050001
,,,-3.71E-06,0.018807501
,,,-3.7E-06,0.019056876
,,,-3.69E-06,0.018761876
,,,-3.68E-06,0.019096251
,,,-3.67E-06,0.019019376
,,,-3.66E-06,0.018777501
,,,-3.65E-06,0.018963126
,,,-3.64E-06,0.018941251
,,,-3.63E-06,0.018925626
,,,-3.62E-06,0.019088751
,,,-3.61E-06,0.018993751
,,,-3.6E-06,0.018839376
,,,-3.59E-06,0.018908751
,,,-3.58E-06,0.019024376
,,,-3.57E-06,0.019093126
,,,-3.56E-06,0.019101876
,,,-3.55E-06,0.018846876
,,,-3.54E-06,0.019108126
,,,-3.53E-06,0.018978126
,,,-3.52E-06,0.018918751
,,,-3.51E-06,0.018871251
,,,-3.5E-06,0.019232501
,,,-3.49E-06,0.019125626
,,,-3.48E-06,0.018808126
,,,-3.47E-06,0.018790001
,,,-3.46E-06,0.018601251
,,,-3.45E-06,0.018675626
,,,-3.44E-06,0.019042501
,,,-3.43E-06,0.018993751
,,,-3.42E-06,0.018836251
,,,-3.41E-06,0.018819376
,,,-3.4E-06,0.018788126
,,,-3.39E-06,0.018900001
,,,-3.38E-06,0.018880626
,,,-3.37E-06,0.018833751
,,,-3.36E-06,0.018939376
,,,-3.35E-06,0.018878126
,,,-3.34E-06,0.019130001
,,,-3.33E-06,0.018953751
,,,-3.32E-06,0.018929376
,,,-3.31E-06,0.019018751
,,,-3.3E-06,0.018795626
,,,-3.29E-06,0.018836876
,,,-3.28E-06,0.019113751
,,,-3.27E-06,0.018843751
,,,-3.26E-06,0.018970001
,,,-3.25E-06,0.018906876
,,,-3.24E-06,0.019105626
,,,-3.23E-06,0.018920626
,,,-3.22E-06,0.018725001
,,,-3.21E-06,0.018836251
,,,-3.2E-06,0.018895626
,,,-3.19E-06,0.018991876
,,,-3.18E-06,0.018941876
,,,-3.17E-06,0.018749376
,,,-3.16E-06,0.018810626
,,,-3.15E-06,0.018903126
,,,-3.14E-06,0.018780001
,,,-3.13E-06,0.019114376
,,,-3.12E-06,0.018938126
,,,-3.11E-06,0.018804376
,,,-3.1E-06,0.018874376
,,,-3.09E-06,0.018928751
,,,-3.08E-06,0.018799376
,,,-3.07E-06,0.019148751
,,,-3.06E-06,0.018860626
,,,-3.05E-06,0.018903126
,,,-3.04E-06,0.018903126
,,,-3.03E-06,0.018896251
,,,-3.02E-06,0.019175001
,,,-3.01E-06,0.018881251
,,,-3E-06,0.018941876
,,,-2.99E-06,0.018739376
,,,-2.98E-06,0.018956876
,,,-2.97E-06,0.019067501
,,,-2.96E-06,0.018660626
,,,-2.95E-06,0.019049376
,,,-2.94E-06,0.018758126
,,,-2.93E-06,0.018926251
,,,-2.92E-06,0.018890001
,,,-2.91E-06,0.018920001
,,,-2.9E-06,0.018932501
,,,-2.89E-06,0.019152501
,,,-2.88E-06,0.018917501
,,,-2.87E-06,0.018866876
,,,-2.86E-06,0.018933126
,,,-2.85E-06,0.018667501
,,,-2.84E-06,0.018896876
,,,-2.83E-06,0.018875626
,,,-2.82E-06,0.018901251
,,,-2.81E-06,0.018923126
,,,-2.8E-06,0.019226251
,,,-2.79E-06,0.018707501
,,,-2.78E-06,0.018727501
,,,-2.77E-06,0.018747501
,,,-2.76E-06,0.018858126
,,,-2.75E-06,0.019070001
,,,-2.74E-06,0.018821876
,,,-2.73E-06,0.019045626
,,,-2.72E-06,0.018680001
,,,-2.71E-06,0.018878126
,,,-2.7E-06,0.018766876
,,,-2.69E-06,0.019033751
,,,-2.68E-06,0.018704376
,,,-2.67E-06,0.019162501
,,,-2.66E-06,0.019047501
,,,-2.65E-06,0.019080001
,,,-2.64E-06,0.019143751
,,,-2.63E-06,0.018957501
,,,-2.62E-06,0.019008126
,,,-2.61E-06,0.018798126
,,,-2.6E-06,0.018691251
,,,-2.59E-06,0.018939376
,,,-2.58E-06,0.019122501
,,,-2.57E-06,0.018823126
,,,-2.56E-06,0.019007501
,,,-2.55E-06,0.019044376
,,,-2.54E-06,0.019050001
,,,-2.53E-06,0.018915001
,,,-2.52E-06,0.018891876
,,,-2.51E-06,0.018738751
,,,-2.5E-06,0.018801251
,,,-2.49E-06,0.019159376
,,,-2.48E-06,0.019059376
,,,-2.47E-06,0.018919376
,,,-2.46E-06,0.019100001
,,,-2.45E-06,0.018737501
,,,-2.44E-06,0.018841251
,,,-2.43E-06,0.018695001
,,,-2.42E-06,0.019141251
,,,-2.41E-06,0.018911876
,,,-2.4E-06,0.019073126
,,,-2.39E-06,0.018814376
,,,-2.38E-06,0.018656876
,,,-2.37E-06,0.019030001
,,,-2.36E-06,0.018903751
,,,-2.35E-06,0.018778126
,,,-2.34E-06,0.018685626
,,,-2.33E-06,0.018962501
,,,-2.32E-06,0.019022501
,,,-2.31E-06,0.019140626
,,,-2.3E-06,0.019044376
,,,-2.29E-06,0.018587501
,,,-2.28E-06,0.018996876
,,,-2.27E-06,0.018736876
,,,-2.26E-06,0.018598126
,,,-2.25E-06,0.018961876
,,,-2.24E-06,0.018818126
,,,-2.23E-06,0.019093126
,,,-2.22E-06,0.018991876
,,,-2.21E-06,0.018728751
,,,-2.2E-06,0.018860626
,,,-2.19E-06,0.019091251
,,,-2.18E-06,0.018937501
,,,-2.17E-06,0.019055626
,,,-2.16E-06,0.018935001
,,,-2.15E-06,0.018914376
,,,-2.14E-06,0.018814376
,,,-2.13E-06,0.018906251
,,,-2.12E-06,0.018823126
,,,-2.11E-06,0.018730001
,,,-2.1E-06,0.018897501
,,,-2.09E-06,0.018970001
,,,-2.08E-06,0.019146876
,,,-2.07E-06,0.018870001
,,,-2.06E-06,0.018747501
,,,-2.05E-06,0.018936876
,,,-2.04E-06,0.019050626
,,,-2.03E-06,0.018920001
,,,-2.02E-06,0.018972501
,,,-2.01E-06,0.018920001
,,,-2E-06,0.018912501
,,,-1.99E-06,0.018966251
,,,-1.98E-06,0.019120001
,,,-1.97E-06,0.018982501
,,,-1.96E-06,0.019068751
,,,-1.95E-06,0.018906876
,,,-1.94E-06,0.018747501
,,,-1.93E-06,0.018925626
,,,-1.92E-06,0.018929376
,,,-1.91E-06,0.019078751
,,,-1.9E-06,0.019090626
,,,-1.89E-06,0.019097501
,,,-1.88E-06,0.018998751
,,,-1.87E-06,0.018991876
,,,-1.86E-06,0.018919376
,,,-1.85E-06,0.018854376
,,,-1.84E-06,0.019225626
,,,-1.83E-06,0.018724376
,,,-1.82E-06,0.018725001
,,,-1.81E-06,0.018978751
,,,-1.8E-06,0.018898126
,,,-1.79E-06,0.018955001
,,,-1.78E-06,0.018655626
,,,-1.77E-06,0.018935626
,,,-1.76E-06,0.018856876
,,,-1.75E-06,0.019031876
,,,-1.74E-06,0.018955626
,,,-1.73E-06,0.019089376
,,,-1.72E-06,0.018810001
,,,-1.71E-06,0.019039376
,,,-1.7E-06,0.019000001
,,,-1.69E-06,0.018910001
,,,-1.68E-06,0.018775626
,,,-1.67E-06,0.018726251
,,,-1.66E-06,0.018908751
,,,-1.65E-06,0.019058126
,,,-1.64E-06,0.018731251
,,,-1.63E-06,0.018878751
,,,-1.62E-06,0.018680626
,,,-1.61E-06,0.018842501
,,,-1.6E-06,0.019208126
,,,-1.59E-06,0.018995001
,,,-1.58E-06,0.018905001
,,,-1.57E-06,0.018973751
,,,-1.56E-06,0.019015626
,,,-1.55E-06,0.019007501
,,,-1.54E-06,0.019060001
,,,-1.53E-06,0.018980626
,,,-1.52E-06,0.018978126
,,,-1.51E-06,0.018931876
,,,-1.5E-06,0.018872501
,,,-1.49E-06,0.018974376
,,,-1.48E-06,0.018820626
,,,-1.47E-06,0.018911251
,,,-1.46E-06,0.018853126
,,,-1.45E-06,0.018718751
,,,-1.44E-06,0.018954376
,,,-1.43E-06,0.019271876
,,,-1.42E-06,0.019010626
,,,-1.41E-06,0.019107501
,,,-1.4E-06,0.018838751
,,,-1.39E-06,0.018818751
,,,-1.38E-06,0.018960626
,,,-1.37E-06,0.018892501
,,,-1.36E-06,0.019046251
,,,-1.35E-06,0.019030001
,,,-1.34E-06,0.018814376
,,,-1.33E-06,0.018920001
,,,-1.32E-06,0.018883751
,,,-1.31E-06,0.018710001
,,,-1.3E-06,0.019138751
,,,-1.29E-06,0.018725001
,,,-1.28E-06,0.018816251
,,,-1.27E-06,0.018804376
,,,-1.26E-06,0.019039376
,,,-1.25E-06,0.018901876
,,,-1.24E-06,0.018801251
,,,-1.23E-06,0.018991876
,,,-1.22E-06,0.018888751
,,,-1.21E-06,0.019018126
,,,-1.2E-06,0.018886876
,,,-1.19E-06,0.018903126
,,,-1.18E-06,0.018903126
,,,-1.17E-06,0.018845626
,,,-1.16E-06,0.019085626
,,,-1.15E-06,0.018801251
,,,-1.14E-06,0.018832501
,,,-1.13E-06,0.018938126
,,,-1.12E-06,0.018891251
,,,-1.11E-06,0.018995626
,,,-1.1E-06,0.018803751
,,,-1.09E-06,0.019056876
,,,-1.08E-06,0.018903751
,,,-1.07E-06,0.018945626
,,,-1.06E-06,0.018895001
,,,-1.05E-06,0.018872501
,,,-1.04E-06,0.018855001
,,,-1.03E-06,0.018873751
,,,-1.02E-06,0.019087501
,,,-1.01E-06,0.018906251
,,,-1E-06,0.018948126
,,,-9.9E-07,0.018865001
,,,-9.8E-07,0.018881876
,,,-9.7E-07,0.018638751
,,,-9.6E-07,0.019008751
,,,-9.5E-07,0.019039376
,,,-9.4E-07,0.018900626
,,,-9.3E-07,0.019054376
,,,-9.2E-07,0.018896251
,,,-9.1E-07,0.018861876
,,,-9E-07,0.019143126
,,,-8.9E-07,0.018836876
,,,-8.8E-07,0.018988126
,,,-8.7E-07,0.018731251
,,,-8.6E-07,0.018804376
,,,-8.5E-07,0.018991876
,,,-8.4E-07,0.018944376
,,,-8.3E-07,0.018988751
,,,-8.2E-07,0.018988751
,,,-8.1E-07,0.018873751
,,,-8E-07,0.019008751
,,,-7.9E-07,0.018714376
,,,-7.8E-07,0.018947501
,,,-7.7E-07,0.018686876
,,,-7.6E-07,0.019010001
,,,-7.5E-07,0.018919376
,,,-7.4E-07,0.018927501
,,,-7.3E-07,0.018699376
,,,-7.2E-07,0.018691251
,,,-7.1E-07,0.018995001
,,,-7E-07,0.018925001
,,,-6.9E-07,0.018870001
,,,-6.8E-07,0.019070626
,,,-6.7E-07,0.018909376
,,,-6.6E-07,0.018871876
,,,-6.5E-07,0.019029376
,,,-6.4E-07,0.018786876
,,,-6.3E-07,0.018986876
,,,-6.2E-07,0.018976876
,,,-6.1E-07,0.018751251
,,,-6E-07,0.019209376
,,,-5.9E-07,0.018844376
,,,-5.8E-07,0.018960001
,,,-5.7E-07,0.018801876
,,,-5.6E-07,0.018881251
,,,-5.5E-07,0.018972501
,,,-5.4E-07,0.019158126
,,,-5.3E-07,0.018993126
,,,-5.2E-07,0.018907501
,,,-5.1E-07,0.018862501
,,,-5E-07,0.018843126
,,,-4.9E-07,0.018871251
,,,-4.8E-07,0.018910626
,,,-4.7E-07,0.018936876
,,,-4.6E-07,0.018909376
,,,-4.5E-07,0.018756251
,,,-4.4E-07,0.019056876
,,,-4.3E-07,0.018887501
,,,-4.2E-07,0.019043751
,,,-4.1E-07,0.018886251
,,,-4E-07,0.019148751
,,,-3.9E-07,0.018784376
,,,-3.8E-07,0.018935001
,,,-3.7E-07,0.018850626
,,,-3.6E-07,0.018995626
,,,-3.5E-07,0.019190626
,,,-3.4E-07,0.019020626
,,,-3.3E-07,0.018933751
,,,-3.2E-07,0.019031251
,,,-3.1E-07,0.018803751
,,,-3E-07,0.018875001
,,,-2.9E-07,0.018995001
,,,-2.8E-07,0.018961876
,,,-2.7E-07,0.019108751
,,,-2.6E-07,0.019051876
,,,-2.5E-07,0.019106251
,,,-2.4E-07,0.018635001
,,,-2.3E-07,0.019015626
,,,-2.2E-07,0.018924376
,,,-2.1E-07,0.018853751
,,,-2E-07,0.019030626
,,,-1.9E-07,0.018926876
,,,-1.8E-07,0.019010626
,,,-1.7E-07,0.018953751
,,,-1.6E-07,0.018832501
,,,-1.5E-07,0.019036876
,,,-1.4E-07,0.018829376
,,,-1.3E-07,0.018880626
,,,-1.2E-07,0.018838751
,,,-1.1E-07,0.019129376
,,,-1E-07,0.018550626
,,,-9E-08,0.019030626
,,,-8E-08,0.018821876
,,,-7E-08,0.018888126
,,,-6E-08,0.018816876
,,,-5E-08,0.019278126
,,,-4E-08,0.019331251
,,,-3E-08,0.018155626
,,,-2E-08,0.018148126
,,,-1E-08,0.018855001
,,,0,0.019466251
,,,1E-08,0.020450001
,,,2E-08,0.019077501
,,,3E-08,0.019107501
,,,4E-08,0.018165001
,,,5E-08,0.018492501
,,,6E-08,0.018655001
,,,7E-08,0.019115001
,,,8E-08,0.019260626
,,,9E-08,0.019320626
,,,1E-07,0.018937501
,,,1.1E-07,0.018443126
,,,1.2E-07,0.018752501
,,,1.3E-07,0.018998126
,,,1.4E-07,0.018771876
,,,1.5E-07,0.019162501
,,,1.6E-07,0.019026876
,,,1.7E-07,0.019016876
,,,1.8E-07,0.019023126
,,,1.9E-07,0.018945001
,,,2E-07,0.018805001
,,,2.1E-07,0.018791251
,,,2.2E-07,0.018910626
,,,2.3E-07,0.019191876
,,,2.4E-07,0.019124376
,,,2.5E-07,0.018867501
,,,2.6E-07,0.018790001
,,,2.7E-07,0.019008126
,,,2.8E-07,0.018863126
,,,2.9E-07,0.018969376
,,,3E-07,0.019066251
,,,3.1E-07,0.019009376
,,,3.2E-07,0.018698126
,,,3.3E-07,0.019129376
,,,3.4E-07,0.019053751
,,,3.5E-07,0.019011251
,,,3.6E-07,0.018709376
,,,3.7E-07,0.018844376
,,,3.8E-07,0.018974376
,,,3.9E-07,0.018956251
,,,4E-07,0.018990001
,,,4.1E-07,0.018648126
,,,4.2E-07,0.018743751
,,,4.3E-07,0.018955626
,,,4.4E-07,0.018813751
,,,4.5E-07,0.018935626
,,,4.6E-07,0.019097501
,,,4.7E-07,0.018882501
,,,4.8E-07,0.018764376
,,,4.9E-07,0.018878126
,,,5E-07,0.018756876
,,,5.1E-07,0.019030001
,,,5.2E-07,0.018945001
,,,5.3E-07,0.018974376
,,,5.4E-07,0.019132501
,,,5.5E-07,0.018958126
,,,5.6E-07,0.018946876
,,,5.7E-07,0.018982501
,,,5.8E-07,0.018938126
,,,5.9E-07,0.019036876
,,,6E-07,0.018945001
,,,6.1E-07,0.018913751
,,,6.2E-07,0.018925001
,,,6.3E-07,0.019058751
,,,6.4E-07,0.018882501
,,,6.5E-07,0.019091251
,,,6.6E-07,0.018955626
,,,6.7E-07,0.019060626
,,,6.8E-07,0.019161876
,,,6.9E-07,0.019053126
,,,7E-07,0.018837501
,,,7.1E-07,0.019038751
,,,7.2E-07,0.019057501
,,,7.3E-07,0.019011251
,,,7.4E-07,0.018975001
,,,7.5E-07,0.019068751
,,,7.6E-07,0.018904376
,,,7.7E-07,0.019148126
,,,7.8E-07,0.018992501
,,,7.9E-07,0.018918126
,,,8E-07,0.018953751
,,,8.1E-07,0.018925626
,,,8.2E-07,0.019095626
,,,8.3E-07,0.019041251
,,,8.4E-07,0.018669376
,,,8.5E-07,0.018893126
,,,8.6E-07,0.018964376
,,,8.7E-07,0.018828126
,,,8.8E-07,0.018906876
,,,8.9E-07,0.018963751
,,,9E-07,0.018963126
,,,9.1E-07,0.018862501
,,,9.2E-07,0.018848751
,,,9.3E-07,0.018994376
,,,9.4E-07,0.018921876
,,,9.5E-07,0.018935626
,,,9.6E-07,0.019036876
,,,9.7E-07,0.018776876
,,,9.8E-07,0.018859376
,,,9.9E-07,0.018878751
,,,1E-06,0.018824376
,,,1.01E-06,0.018856876
,,,1.02E-06,0.018970626
,,,1.03E-06,0.019022501
,,,1.04E-06,0.019090626
,,,1.05E-06,0.019149376
,,,1.06E-06,0.018922501
,,,1.07E-06,0.019081251
,,,1.08E-06,0.018975626
,,,1.09E-06,0.018797501
,,,1.1E-06,0.018590001
,,,1.11E-06,0.018955001
,,,1.12E-06,0.019144376
,,,1.13E-06,0.018835626
,,,1.14E-06,0.019106251
,,,1.15E-06,0.019056251
,,,1.16E-06,0.018956876
,,,1.17E-06,0.018897501
,,,1.18E-06,0.019017501
,,,1.19E-06,0.018806251
,,,1.2E-06,0.018966876
,,,1.21E-06,0.018913126
,,,1.22E-06,0.018826251
,,,1.23E-06,0.019092501
,,,1.24E-06,0.018999376
,,,1.25E-06,0.018832501
,,,1.26E-06,0.018948751
,,,1.27E-06,0.018778751
,,,1.28E-06,0.019009376
,,,1.29E-06,0.018794376
,,,1.3E-06,0.018807501
,,,1.31E-06,0.019075626
,,,1.32E-06,0.018958126
,,,1.33E-06,0.019016876
,,,1.34E-06,0.019175001
,,,1.35E-06,0.019025001
,,,1.36E-06,0.018996251
,,,1.37E-06,0.019006876
,,,1.38E-06,0.019094376
,,,1.39E-06,0.018956251
,,,1.4E-06,0.019058751
,,,1.41E-06,0.019027501
,,,1.42E-06,0.019174376
,,,1.43E-06,0.018786876
,,,1.44E-06,0.019045626
,,,1.45E-06,0.019051251
,,,1.46E-06,0.018563126
,,,1.47E-06,0.018865001
,,,1.48E-06,0.019032501
,,,1.49E-06,0.018986251
,,,1.5E-06,0.018854376
,,,1.51E-06,0.018881251
,,,1.52E-06,0.018943751
,,,1.53E-06,0.019091876
,,,1.54E-06,0.018836251
,,,1.55E-06,0.018817501
,,,1.56E-06,0.018818751
,,,1.57E-06,0.018723126
,,,1.58E-06,0.018809376
,,,1.59E-06,0.018689376
,,,1.6E-06,0.018728126
,,,1.61E-06,0.018836876
,,,1.62E-06,0.019003126
,,,1.63E-06,0.018811876
,,,1.64E-06,0.018896251
,,,1.65E-06,0.019087501
,,,1.66E-06,0.018885001
,,,1.67E-06,0.018826251
,,,1.68E-06,0.018809376
,,,1.69E-06,0.019002501
,,,1.7E-06,0.018914376
,,,1.71E-06,0.019240626
,,,1.72E-06,0.018688126
,,,1.73E-06,0.018856251
,,,1.74E-06,0.018902501
,,,1.75E-06,0.019049376
,,,1.76E-06,0.019086876
,,,1.77E-06,0.018895001
,,,1.78E-06,0.018926251
,,,1.79E-06,0.018884376
,,,1.8E-06,0.018609376
,,,1.81E-06,0.018981876
,,,1.82E-06,0.018871251
,,,1.83E-06,0.019060626
,,,1.84E-06,0.018848126
,,,1.85E-06,0.018978126
,,,1.86E-06,0.019025626
,,,1.87E-06,0.019174376
,,,1.88E-06,0.019010626
,,,1.89E-06,0.018993126
,,,1.9E-06,0.018836251
,,,1.91E-06,0.019085001
,,,1.92E-06,0.018818751
,,,1.93E-06,0.018863126
,,,1.94E-06,0.018956876
,,,1.95E-06,0.018700001
,,,1.96E-06,0.018940626
,,,1.97E-06,0.018912501
,,,1.98E-06,0.018865001
,,,1.99E-06,0.018940626
,,,2E-06,0.018790001
,,,2.01E-06,0.018861251
,,,2.02E-06,0.018965001
,,,2.03E-06,0.018910001
,,,2.04E-06,0.018925001
,,,2.05E-06,0.018881876
,,,2.06E-06,0.018957501
,,,2.07E-06,0.018818751
,,,2.08E-06,0.018906876
,,,2.09E-06,0.018842501
,,,2.1E-06,0.018992501
,,,2.11E-06,0.018956251
,,,2.12E-06,0.018913126
,,,2.13E-06,0.018887501
,,,2.14E-06,0.018996876
,,,2.15E-06,0.019163126
,,,2.16E-06,0.019029376
,,,2.17E-06,0.018806876
,,,2.18E-06,0.018920001
,,,2.19E-06,0.018968126
,,,2.2E-06,0.018930001
,,,2.21E-06,0.018901876
,,,2.22E-06,0.018933751
,,,2.23E-06,0.018910001
,,,2.24E-06,0.019067501
,,,2.25E-06,0.018772501
,,,2.26E-06,0.018780626
,,,2.27E-06,0.018996876
,,,2.28E-06,0.019148751
,,,2.29E-06,0.018933751
,,,2.3E-06,0.018848751
,,,2.31E-06,0.018905001
,,,2.32E-06,0.019123126
,,,2.33E-06,0.018740001
,,,2.34E-06,0.018718126
,,,2.35E-06,0.018618126
,,,2.36E-06,0.019063751
,,,2.37E-06,0.019046251
,,,2.38E-06,0.019201251
,,,2.39E-06,0.019011876
,,,2.4E-06,0.018825626
,,,2.41E-06,0.018971251
,,,2.42E-06,0.018980626
,,,2.43E-06,0.018869376
,,,2.44E-06,0.019081876
,,,2.45E-06,0.019000626
,,,2.46E-06,0.019038126
,,,2.47E-06,0.018865626
,,,2.48E-06,0.018927501
,,,2.49E-06,0.018922501
,,,2.5E-06,0.019035626
,,,2.51E-06,0.018847501
,,,2.52E-06,0.018896876
,,,2.53E-06,0.018872501
,,,2.54E-06,0.018893751
,,,2.55E-06,0.018891251
,,,2.56E-06,0.018967501
,,,2.57E-06,0.018961251
,,,2.58E-06,0.018998751
,,,2.59E-06,0.019023126
,,,2.6E-06,0.019066251
,,,2.61E-06,0.018790001
,,,2.62E-06,0.018926251
,,,2.63E-06,0.019018126
,,,2.64E-06,0.019090001
,,,2.65E-06,0.019103751
,,,2.66E-06,0.018969376
,,,2.67E-06,0.018814376
,,,2.68E-06,0.019082501
,,,2.69E-06,0.018978126
,,,2.7E-06,0.018880001
,,,2.71E-06,0.019003126
,,,2.72E-06,0.018651251
,,,2.73E-06,0.018863751
,,,2.74E-06,0.018898751
,,,2.75E-06,0.019098126
,,,2.76E-06,0.018805001
,,,2.77E-06,0.019126251
,,,2.78E-06,0.018958126
,,,2.79E-06,0.018791876
,,,2.8E-06,0.019050001
,,,2.81E-06,0.019040626
,,,2.82E-06,0.018935626
,,,2.83E-06,0.018925626
,,,2.84E-06,0.018895626
,,,2.85E-06,0.018911876
,,,2.86E-06,0.018927501
,,,2.87E-06,0.018941876
,,,2.88E-06,0.018877501
,,,2.89E-06,0.018765626
,,,2.9E-06,0.018761251
,,,2.91E-06,0.018951251
,,,2.92E-06,0.018878126
,,,2.93E-06,0.019014376
,,,2.94E-06,0.018818751
,,,2.95E-06,0.018793751
,,,2.96E-06,0.018897501
,,,2.97E-06,0.019059376
,,,2.98E-06,0.018786876
,,,2.99E-06,0.018770626
,,,3E-06,0.018771876
,,,3.01E-06,0.018980626
,,,3.02E-06,0.018971876
,,,3.03E-06,0.019166251
,,,3.04E-06,0.018793751
,,,3.05E-06,0.018963751
,,,3.06E-06,0.018978126
,,,3.07E-06,0.018912501
,,,3.08E-06,0.018670626
,,,3.09E-06,0.019012501
,,,3.1E-06,0.019048126
,,,3.11E-06,0.019001876
,,,3.12E-06,0.018885001
,,,3.13E-06,0.018964376
,,,3.14E-06,0.018881251
,,,3.15E-06,0.018974376
,,,3.16E-06,0.018863126
,,,3.17E-06,0.018773126
,,,3.18E-06,0.018930626
,,,3.19E-06,0.019072501
,,,3.2E-06,0.018772501
,,,3.21E-06,0.018812501
