data/raw/Final_POL_Test_1/SOP031_Ch1.csv

"Record Length",1000,"Points",-5E-06,0.005290625
"Sample Interval",1E-08,s,-4.99E-06,0.00509
"Trigger Point",500,"Samples",-4.98E-06,0.00514875
"Trigger Time",0,s,-4.97E-06,0.00520625
"",,,-4.96E-06,0.004976875
"Horizontal Offset",-5E-06,s,-4.95E-06,0.005203125
,,,-4.94E-06,0.00502125
,,,-4.93E-06,0.005180625
,,,-4.92E-06,0.00499125
,,,-4.91E-06,0.005244375
,,,-4.9E-06,0.0051425
,,,-4.89E-06,0.005225
,,,-4.88E-06,0.004981875
,,,-4.87E-06,0.00492875
,,,-4.86E-06,0.005234375
,,,-4.85E-06,0.005044375
,,,-4.84E-06,0.00503
,,,-4.83E-06,0.004983125
,,,-4.82E-06,0.005096875
,,,-4.81E-06,0.004881875
,,,-4.8E-06,0.00495875
,,,-4.79E-06,0.0049875
,,,-4.78E-06,0.00499375
,,,-4.77E-06,0.004590625
,,,-4.76E-06,0.0049075
,,,-4.75E-06,0.004965625
,,,-4.74E-06,0.005194375
,,,-4.73E-06,0.0049075
,,,-4.72E-06,0.004720625
,,,-4.71E-06,0.0051375
,,,-4.7E-06,0.005120625
,,,-4.69E-06,0.005151875
,,,-4.68E-06,0.005013125
,,,-4.67E-06,0.005185
,,,-4.66E-06,0.0051175
,,,-4.65E-06,0.005034375
,,,-4.64E-06,0.005103125
,,,-4.63E-06,0.005179375
,,,-4.62E-06,0.00494
,,,-4.61E-06,0.00512875
,,,-4.6E-06,0.004914375
,,,-4.59E-06,0.005073125
,,,-4.58E-06,0.0050475
,,,-4.57E-06,0.00513375
,,,-4.56E-06,0.004920625
,,,-4.55E-06,0.004994375
,,,-4.54E-06,0.00502125
,,,-4.53E-06,0.005051875
,,,-4.52E-06,0.005318125
,,,-4.51E-06,0.004769375
,,,-4.5E-06,0.004928125
,,,-4.49E-06,0.00519125
,,,-4.48E-06,0.004985625
,,,-4.47E-06,0.004951875
,,,-4.46E-06,0.005065625
,,,-4.45E-06,0.005156875
,,,-4.44E-06,0.005095625
,,,-4.43E-06,0.00505375
,,,-4.42E-06,0.004969375
,,,-4.41E-06,0.005315625
,,,-4.4E-06,0.00516875
,,,-4.39E-06,0.005209375
,,,-4.38E-06,0.0049925
,,,-4.37E-06,0.004970625
,,,-4.36E-06,0.0050175
,,,-4.35E-06,0.005205
,,,-4.34E-06,0.005070625
,,,-4.33E-06,0.0052575
,,,-4.32E-06,0.005053125
,,,-4.31E-06,0.00487625
,,,-4.3E-06,0.005211875
,,,-4.29E-06,0.00519375
,,,-4.28E-06,0.00522
,,,-4.27E-06,0.005101875
,,,-4.26E-06,0.005295625
,,,-4.25E-06,0.0049525
,,,-4.24E-06,0.004895
,,,-4.23E-06,0.005099375
,,,-4.22E-06,0.0048575
,,,-4.21E-06,0.004955625
,,,-4.2E-06,0.005110625
,,,-4.19E-06,0.00497625
,,,-4.18E-06,0.005065625
,,,-4.17E-06,0.00493625
,,,-4.16E-06,0.00507
,,,-4.15E-06,0.00511125
,,,-4.14E-06,0.005226875
,,,-4.13E-06,0.004921875
,,,-4.12E-06,0.004920625
,,,-4.11E-06,0.0051425
,,,-4.1E-06,0.00495375
,,,-4.09E-06,0.00514125
,,,-4.08E-06,0.0048775
,,,-4.07E-06,0.005030625
,,,-4.06E-06,0.005131875
,,,-4.05E-06,0.005044375
,,,-4.04E-06,0.00524125
,,,-4.03E-06,0.005115
,,,-4.02E-06,0.005036875
,,,-4.01E-06,0.005185625
,,,-4E-06,0.00519875
,,,-3.99E-06,0.00501
,,,-3.98E-06,0.005044375
,,,-3.97E-06,0.005190625
,,,-3.96E-06,0.004973125
,,,-3.95E-06,0.00521375
,,,-3.94E-06,0.005154375
,,,-3.93E-06,0.0051075
,,,-3.92E-06,0.00522625
,,,-3.91E-06,0.00514625
,,,-3.9E-06,0.005251875
,,,-3.89E-06,0.005048125
,,,-3.88E-06,0.005125
,,,-3.87E-06,0.005075
,,,-3.86E-06,0.004745
,,,-3.85E-06,0.00487
,,,-3.84E-06,0.0051525
,,,-3.83E-06,0.00505625
,,,-3.82E-06,0.005106875
,,,-3.81E-06,0.00514375
,,,-3.8E-06,0.004951875
,,,-3.79E-06,0.005013125
,,,-3.78E-06,0.00516875
,,,-3.77E-06,0.0053375
,,,-3.76E-06,0.005154375
,,,-3.75E-06,0.005114375
,,,-3.74E-06,0.005080625
,,,-3.73E-06,0.004985625
,,,-3.72E-06,0.005356875
,,,-3.71E-06,0.005074375
,,,-3.7E-06,0.004999375
,,,-3.69E-06,0.0050925
,,,-3.68E-06,0.00509
,,,-3.67E-06,0.005025625
,,,-3.66E-06,0.00503875
,,,-3.65E-06,0.00523375
,,,-3.64E-06,0.005058125
,,,-3.63E-06,0.0049675
,,,-3.62E-06,0.005215625
,,,-3.61E-06,0.005070625
,,,-3.6E-06,0.005148125
,,,-3.59E-06,0.005156875
,,,-3.58E-06,0.005266875
,,,-3.57E-06,0.004885
,,,-3.56E-06,0.005046875
,,,-3.55E-06,0.005204375
,,,-3.54E-06,0.005164375
,,,-3.53E-06,0.004953125
,,,-3.52E-06,0.004908125
,,,-3.51E-06,0.00515
,,,-3.5E-06,0.0047725
,,,-3.49E-06,0.005116875
,,,-3.48E-06,0.004988125
,,,-3.47E-06,0.00520375
,,,-3.46E-06,0.004896875
,,,-3.45E-06,0.004868125
,,,-3.44E-06,0.004996875
,,,-3.43E-06,0.005284375
,,,-3.42E-06,0.00512
,,,-3.41E-06,0.00515875
,,,-3.4E-06,0.005078125
,,,-3.39E-06,0.005048125
,,,-3.38E-06,0.00516375
,,,-3.37E-06,0.0051675
,,,-3.36E-06,0.004775
,,,-3.35E-06,0.005125625
,,,-3.34E-06,0.00521875
,,,-3.33E-06,0.004944375
,,,-3.32E-06,0.0050225
,,,-3.31E-06,0.0048
,,,-3.3E-06,0.005120625
,,,-3.29E-06,0.0048475
,,,-3.28E-06,0.005156875
,,,-3.27E-06,0.0050325
,,,-3.26E-06,0.00496875
,,,-3.25E-06,0.00506125
,,,-3.24E-06,0.00521625
,,,-3.23E-06,0.00500125
,,,-3.22E-06,0.0051725
,,,-3.21E-06,0.00510125
,,,-3.2E-06,0.00477875
,,,-3.19E-06,0.0052875
,,,-3.18E-06,0.005146875
,,,-3.17E-06,0.005180625
,,,-3.16E-06,0.0052325
,,,-3.15E-06,0.005029375
,,,-3.14E-06,0.00482875
,,,-3.13E-06,0.005223125
,,,-3.12E-06,0.004995
,,,-3.11E-06,0.00518
,,,-3.1E-06,0.00514625
,,,-3.09E-06,0.005171875
,,,-3.08E-06,0.004963125
,,,-3.07E-06,0.0049825
,,,-3.06E-06,0.005030625
,,,-3.05E-06,0.005013125
,,,-3.04E-06,0.00524875
,,,-3.03E-06,0.005254375
,,,-3.02E-06,0.00508
,,,-3.01E-06,0.005248125
,,,-3E-06,0.005245625
,,,-2.99E-06,0.00497125
,,,-2.98E-06,0.004958125
,,,-2.97E-06,0.0050525
,,,-2.96E-06,0.005174375
,,,-2.95E-06,0.00503
,,,-2.94E-06,0.004870625
,,,-2.93E-06,0.005128125
,,,-2.92E-06,0.004738125
,,,-2.91E-06,0.004970625
,,,-2.9E-06,0.0048275
,,,-2.89E-06,0.00486375
,,,-2.88E-06,0.005058125
,,,-2.87E-06,0.005138125
,,,-2.86E-06,0.004973125
,,,-2.85E-06,0.00498125
,,,-2.84E-06,0.005051875
,,,-2.83E-06,0.00493625
,,,-2.82E-06,0.004983125
,,,-2.81E-06,0.004993125
,,,-2.8E-06,0.005099375
,,,-2.79E-06,0.005335625
,,,-2.78E-06,0.005098125
,,,-2.77E-06,0.005129375
,,,-2.76E-06,0.005006875
,,,-2.75E-06,0.00508625
,,,-2.74E-06,0.00501625
,,,-2.73E-06,0.005109375
,,,-2.72E-06,0.00513125
,,,-2.71E-06,0.00477875
,,,-2.7E-06,0.00521125
,,,-2.69E-06,0.00500375
,,,-2.68E-06,0.004960625
,,,-2.67E-06,0.005054375
,,,-2.66E-06,0.005113125
,,,-2.65E-06,0.004978125
,,,-2.64E-06,0.004989375
,,,-2.63E-06,0.00499625
,,,-2.62E-06,0.00491375
,,,-2.61E-06,0.004965
,,,-2.6E-06,0.004808125
,,,-2.59E-06,0.0050275
,,,-2.58E-06,0.00526625
,,,-2.57E-06,0.005140625
,,,-2.56E-06,0.004935
,,,-2.55E-06,0.005115
,,,-2.54E-06,0.00515
,,,-2.53E-06,0.005173125
,,,-2.52E-06,0.005133125
,,,-2.51E-06,0.005193125
,,,-2.5E-06,0.005015
,,,-2.49E-06,0.00508375
,,,-2.48E-06,0.005044375
,,,-2.47E-06,0.005139375
,,,-2.46E-06,0.00499625
,,,-2.45E-06,0.005093125
,,,-2.44E-06,0.004990625
,,,-2.43E-06,0.005074375
,,,-2.42E-06,0.005033125
,,,-2.41E-06,0.004895
,,,-2.4E-06,0.00521625
,,,-2.39E-06,0.00508625
,,,-2.38E-06,0.0049975
,,,-2.37E-06,0.00507125
,,,-2.36E-06,0.005086875
,,,-2.35E-06,0.005190625
,,,-2.34E-06,0.004915
,,,-2.33E-06,0.00504875
,,,-2.32E-06,0.005208125
,,,-2.31E-06,0.00503625
,,,-2.3E-06,0.00492375
,,,-2.29E-06,0.005219375
,,,-2.28E-06,0.004925
,,,-2.27E-06,0.0047525
,,,-2.26E-06,0.004908125
,,,-2.25E-06,0.004999375
,,,-2.24E-06,0.004995
,,,-2.23E-06,0.00507125
,,,-2.22E-06,0.005130625
,,,-2.21E-06,0.005205625
,,,-2.2E-06,0.005281875
,,,-2.19E-06,0.004925
,,,-2.18E-06,0.005125625
,,,-2.17E-06,0.0050875
,,,-2.16E-06,0.005041875
,,,-2.15E-06,0.005025625
,,,-2.14E-06,0.005290625
,,,-2.13E-06,0.004974375
,,,-2.12E-06,0.00506875
,,,-2.11E-06,0.005103125
,,,-2.1E-06,0.004880625
,,,-2.09E-06,0.005155
,,,-2.08E-06,0.0047025
,,,-2.07E-06,0.0049025
,,,-2.06E-06,0.00514
,,,-2.05E-06,0.004914375
,,,-2.04E-06,0.005078125
,,,-2.03E-06,0.00519
,,,-2.02E-06,0.005060625
,,,-2.01E-06,0.005118125
,,,-2E-06,0.00490375
,,,-1.99E-06,0.0052225
,,,-1.98E-06,0.004934375
,,,-1.97E-06,0.0052825
,,,-1.96E-06,0.005123125
,,,-1.95E-06,0.00509125
,,,-1.94E-06,0.00493875
,,,-1.93E-06,0.005265625
,,,-1.92E-06,0.00475125
,,,-1.91E-06,0.005193125
,,,-1.9E-06,0.00499
,,,-1.89E-06,0.005103125
,,,-1.88E-06,0.004994375
,,,-1.87E-06,0.004944375
,,,-1.86E-06,0.00524625
,,,-1.85E-06,0.00496625
,,,-1.84E-06,0.0051225
,,,-1.83E-06,0.005036875
,,,-1.82E-06,0.0050525
,,,-1.81E-06,0.005026875
,,,-1.8E-06,0.00511125
,,,-1.79E-06,0.00501875
,,,-1.78E-06,0.005266875
,,,-1.77E-06,0.005114375
,,,-1.76E-06,0.0050825
,,,-1.75E-06,0.005101875
,,,-1.74E-06,0.004784375
,,,-1.73E-06,0.0050025
,,,-1.72E-06,0.00499375
,,,-1.71E-06,0.0052175
,,,-1.7E-06,0.00507875
,,,-1.69E-06,0.00505375
,,,-1.68E-06,0.00495125
,,,-1.67E-06,0.00504125
,,,-1.66E-06,0.00513375
,,,-1.65E-06,0.005001875
,,,-1.64E-06,0.005196875
,,,-1.63E-06,0.00503625
,,,-1.62E-06,0.005025
,,,-1.61E-06,0.00530875
,,,-1.6E-06,0.004855
,,,-1.59E-06,0.004868125
,,,-1.58E-06,0.005241875
,,,-1.57E-06,0.005125625
,,,-1.56E-06,0.005036875
,,,-1.55E-06,0.0050875
,,,-1.54E-06,0.0049775
,,,-1.53E-06,0.00509625
,,,-1.52E-06,0.00523375
,,,-1.51E-06,0.005049375
,,,-1.5E-06,0.004985625
,,,-1.49E-06,0.00513875
,,,-1.48E-06,0.005125
,,,-1.47E-06,0.005161875
,,,-1.46E-06,0.00510375
,,,-1.45E-06,0.005113125
,,,-1.44E-06,0.0051925
,,,-1.43E-06,0.005203125
,,,-1.42E-06,0.005023125
,,,-1.41E-06,0.0051825
,,,-1.4E-06,0.005275
,,,-1.39E-06,0.005083125
,,,-1.38E-06,0.005349375
,,,-1.37E-06,0.005189375
,,,-1.36E-06,0.004953125
,,,-1.35E-06,0.00511
,,,-1.34E-06,0.00519
,,,-1.33E-06,0.005091875
,,,-1.32E-06,0.00503625
,,,-1.31E-06,0.00501625
,,,-1.3E-06,0.005125625
,,,-1.29E-06,0.005055
,,,-1.28E-06,0.00529875
,,,-1.27E-06,0.00515
,,,-1.26E-06,0.005075625
,,,-1.25E-06,0.00492625
,,,-1.24E-06,0.00479125
,,,-1.23E-06,0.00513125
,,,-1.22E-06,0.0051575
,,,-1.21E-06,0.00505375
,,,-1.2E-06,0.005166875
,,,-1.19E-06,0.005195
,,,-1.18E-06,0.004954375
,,,-1.17E-06,0.005205
,,,-1.16E-06,0.00504375
,,,-1.15E-06,0.00511375
,,,-1.14E-06,0.00527375
,,,-1.13E-06,0.00499625
,,,-1.12E-06,0.0049
,,,-1.11E-06,0.0053075
,,,-1.1E-06,0.005086875
,,,-1.09E-06,0.004968125
,,,-1.08E-06,0.005031875
,,,-1.07E-06,0.004973125
,,,-1.06E-06,0.005065
,,,-1.05E-06,0.004931875
,,,-1.04E-06,0.00525625
,,,-1.03E-06,0.00499875
,,,-1.02E-06,0.004974375
,,,-1.01E-06,0.004781875
,,,-1E-06,0.005049375
,,,-9.9E-07,0.005029375
,,,-9.8E-07,0.005180625
,,,-9.7E-07,0.00511875
,,,-9.6E-07,0.00519625
,,,-9.5E-07,0.005125
,,,-9.4E-07,0.00502875
,,,-9.3E-07,0.0051175
,,,-9.2E-07,0.005113125
,,,-9.1E-07,0.00489125
,,,-9E-07,0.004941875
,,,-8.9E-07,0.005236875
,,,-8.8E-07,0.0050275
,,,-8.7E-07,0.00499
,,,-8.6E-07,0.0050075
,,,-8.5E-07,0.00496625
,,,-8.4E-07,0.005155625
,,,-8.3E-07,0.005135625
,,,-8.2E-07,0.00498125
,,,-8.1E-07,0.0050575
,,,-8E-07,0.0051
,,,-7.9E-07,0.005228125
,,,-7.8E-07,0.00520125
,,,-7.7E-07,0.005016875
,,,-7.6E-07,0.00503125
,,,-7.5E-07,0.00539625
,,,-7.4E-07,0.005245
,,,-7.3E-07,0.0049175
,,,-7.2E-07,0.0049775
,,,-7.1E-07,0.005124375
,,,-7E-07,0.005060625
,,,-6.9E-07,0.00502375
,,,-6.8E-07,0.00492375
,,,-6.7E-07,0.00507875
,,,-6.6E-07,0.0050375
,,,-6.5E-07,0.00526125
,,,-6.4E-07,0.00499125
,,,-6.3E-07,0.00494625
,,,-6.2E-07,0.0052325
,,,-6.1E-07,0.0051225
,,,-6E-07,0.00531375
,,,-5.9E-07,0.00487625
,,,-5.8E-07,0.00498
,,,-5.7E-07,0.00503125
,,,-5.6E-07,0.00485125
,,,-5.5E-07,0.005335625
,,,-5.4E-07,0.00496
,,,-5.3E-07,0.005088125
,,,-5.2E-07,0.005098125
,,,-5.1E-07,0.004911875
,,,-5E-07,0.005104375
,,,-4.9E-07,0.00509375
,,,-4.8E-07,0.00517625
,,,-4.7E-07,0.004954375
,,,-4.6E-07,0.0050475
,,,-4.5E-07,0.005155
,,,-4.4E-07,0.005075
,,,-4.3E-07,0.005210625
,,,-4.2E-07,0.005055625
,,,-4.1E-07,0.005080625
,,,-4E-07,0.005009375
,,,-3.9E-07,0.004831875
,,,-3.8E-07,0.005349375
,,,-3.7E-07,0.00506875
,,,-3.6E-07,0.004960625
,,,-3.5E-07,0.004965625
,,,-3.4E-07,0.0049825
,,,-3.3E-07,0.004999375
,,,-3.2E-07,0.005213125
,,,-3.1E-07,0.0051175
,,,-3E-07,0.005270625
,,,-2.9E-07,0.005291875
,,,-2.8E-07,0.00517875
,,,-2.7E-07,0.00515375
,,,-2.6E-07,0.004933125
,,,-2.5E-07,0.00489625
,,,-2.4E-07,0.0050975
,,,-2.3E-07,0.004818125
,,,-2.2E-07,0.005319375
,,,-2.1E-07,0.0049825
,,,-2E-07,0.00510875
,,,-1.9E-07,0.00494875
,,,-1.8E-07,0.004875
,,,-1.7E-07,0.004983125
,,,-1.6E-07,0.005238125
,,,-1.5E-07,0.00506875
,,,-1.4E-07,0.0050675
,,,-1.3E-07,0.004975
,,,-1.2E-07,0.005356875
,,,-1.1E-07,0.005235
,,,-1E-07,0.005080625
,,,-9E-08,0.005359375
,,,-8E-08,0.004813125
,,,-7E-08,0.00435625
,,,-6E-08,0.005785
,,,-5E-08,0.0048675
,,,-4E-08,0.00654125
,,,-3E-08,0.004279375
,,,-2E-08,0.0042375
,,,-1E-08,0.003074375
,,,0,0.00485
,,,1E-08,0.00612875
,,,2E-08,0.006626875
,,,3E-08,0.006338125
,,,4E-08,0.0046475
,,,5E-08,0.0038425
,,,6E-08,0.003804375
,,,7E-08,0.00482625
,,,8E-08,0.005618125
,,,9E-08,0.00620125
,,,1E-07,0.0056425
,,,1.1E-07,0.005075
,,,1.2E-07,0.004580625
,,,1.3E-07,0.00466625
,,,1.4E-07,0.004888125
,,,1.5E-07,0.005114375
,,,1.6E-07,0.0050625
,,,1.7E-07,0.005083125
,,,1.8E-07,0.0052
,,,1.9E-07,0.005098125
,,,2E-07,0.005101875
,,,2.1E-07,0.005026875
,,,2.2E-07,0.005175625
,,,2.3E-07,0.005013125
,,,2.4E-07,0.005081875
,,,2.5E-07,0.004995625
,,,2.6E-07,0.005083125
,,,2.7E-07,0.00534625
,,,2.8E-07,0.00505375
,,,2.9E-07,0.00512875
,,,3E-07,0.00503
,,,3.1E-07,0.00508875
,,,3.2E-07,0.00525125
,,,3.3E-07,0.00516625
,,,3.4E-07,0.004840625
,,,3.5E-07,0.00522625
,,,3.6E-07,0.0051075
,,,3.7E-07,0.00501
,,,3.8E-07,0.005120625
,,,3.9E-07,0.004975
,,,4E-07,0.00482375
,,,4.1E-07,0.005134375
,,,4.2E-07,0.004984375
,,,4.3E-07,0.004970625
,,,4.4E-07,0.005003125
,,,4.5E-07,0.005230625
,,,4.6E-07,0.005198125
,,,4.7E-07,0.005183125
,,,4.8E-07,0.005254375
,,,4.9E-07,0.005256875
,,,5E-07,0.00515125
,,,5.1E-07,0.00509875
,,,5.2E-07,0.004824375
,,,5.3E-07,0.0049575
,,,5.4E-07,0.005221875
,,,5.5E-07,0.00491375
,,,5.6E-07,0.00502875
,,,5.7E-07,0.005114375
,,,5.8E-07,0.005058125
,,,5.9E-07,0.005086875
,,,6E-07,0.004989375
,,,6.1E-07,0.004808125
,,,6.2E-07,0.004919375
,,,6.3E-07,0.00512125
,,,6.4E-07,0.00519875
,,,6.5E-07,0.00505
,,,6.6E-07,0.00520125
,,,6.7E-07,0.005255
,,,6.8E-07,0.00513
,,,6.9E-07,0.005295625
,,,7E-07,0.005256875
,,,7.1E-07,0.004949375
,,,7.2E-07,0.00512375
,,,7.3E-07,0.00500875
,,,7.4E-07,0.005208125
,,,7.5E-07,0.00487375
,,,7.6E-07,0.005171875
,,,7.7E-07,0.005196875
,,,7.8E-07,0.0049875
,,,7.9E-07,0.0052475
,,,8E-07,0.00510625
,,,8.1E-07,0.00500875
,,,8.2E-07,0.004883125
,,,8.3E-07,0.00509
,,,8.4E-07,0.0050275
,,,8.5E-07,0.005139375
,,,8.6E-07,0.004965
,,,8.7E-07,0.00516125
,,,8.8E-07,0.00498625
,,,8.9E-07,0.005175
,,,9E-07,0.0049475
,,,9.1E-07,0.0052075
,,,9.2E-07,0.005110625
,,,9.3E-07,0.00475625
,,,9.4E-07,0.004839375
,,,9.5E-07,0.00488125
,,,9.6E-07,0.005175
,,,9.7E-07,0.00537
,,,9.8E-07,0.00510625
,,,9.9E-07,0.00484625
,,,1E-06,0.00490375
,,,1.01E-06,0.00509875
,,,1.02E-06,0.00512125
,,,1.03E-06,0.005061875
,,,1.04E-06,0.005036875
,,,1.05E-06,0.005120625
,,,1.06E-06,0.0049525
,,,1.07E-06,0.005035625
,,,1.08E-06,0.00503625
,,,1.09E-06,0.005181875
,,,1.1E-06,0.005113125
,,,1.11E-06,0.0049875
,,,1.12E-06,0.00481125
,,,1.13E-06,0.00503375
,,,1.14E-06,0.00518875
,,,1.15E-06,0.004888125
,,,1.16E-06,0.0049925
,,,1.17E-06,0.0051025
,,,1.18E-06,0.005286875
,,,1.19E-06,0.004990625
,,,1.2E-06,0.0052175
,,,1.21E-06,0.00525875
,,,1.22E-06,0.004981875
,,,1.23E-06,0.00521
,,,1.24E-06,0.0050425
,,,1.25E-06,0.005085
,,,1.26E-06,0.005215625
,,,1.27E-06,0.0051375
,,,1.28E-06,0.005051875
,,,1.29E-06,0.00511125
,,,1.3E-06,0.00484
,,,1.31E-06,0.00518125
,,,1.32E-06,0.005026875
,,,1.33E-06,0.00511375
,,,1.34E-06,0.005155625
,,,1.35E-06,0.00517125
,,,1.36E-06,0.0050525
,,,1.37E-06,0.004883125
,,,1.38E-06,0.004909375
,,,1.39E-06,0.0050925
,,,1.4E-06,0.004998125
,,,1.41E-06,0.005174375
,,,1.42E-06,0.005263125
,,,1.43E-06,0.00496625
,,,1.44E-06,0.005083125
,,,1.45E-06,0.00514875
,,,1.46E-06,0.00529375
,,,1.47E-06,0.00493
,,,1.48E-06,0.00524
,,,1.49E-06,0.0048
,,,1.5E-06,0.005165
,,,1.51E-06,0.00506875
,,,1.52E-06,0.0051425
,,,1.53E-06,0.005081875
,,,1.54E-06,0.004809375
,,,1.55E-06,0.005209375
,,,1.56E-06,0.004985
,,,1.57E-06,0.00515
,,,1.58E-06,0.005130625
,,,1.59E-06,0.0051025
,,,1.6E-06,0.0051575
,,,1.61E-06,0.00484
,,,1.62E-06,0.00529125
,,,1.63E-06,0.005255625
,,,1.64E-06,0.005193125
,,,1.65E-06,0.0051775
,,,1.66E-06,0.005245
,,,1.67E-06,0.005143125
,,,1.68E-06,0.005295625
,,,1.69E-06,0.0050525
,,,1.7E-06,0.005265
,,,1.71E-06,0.005080625
,,,1.72E-06,0.0051725
,,,1.73E-06,0.00519625
,,,1.74E-06,0.005005625
,,,1.75E-06,0.0051525
,,,1.76E-06,0.005223125
,,,1.77E-06,0.004936875
,,,1.78E-06,0.005073125
,,,1.79E-06,0.004985625
,,,1.8E-06,0.00514375
,,,1.81E-06,0.004815
,,,1.82E-06,0.00500125
,,,1.83E-06,0.005175
,,,1.84E-06,0.005330625
,,,1.85E-06,0.004983125
,,,1.86E-06,0.005203125
,,,1.87E-06,0.004941875
,,,1.88E-06,0.0052675
,,,1.89E-06,0.005330625
,,,1.9E-06,0.005373125
,,,1.91E-06,0.005125
,,,1.92E-06,0.005229375
,,,1.93E-06,0.00548375
,,,1.94E-06,0.00508
,,,1.95E-06,0.005125625
,,,1.96E-06,0.005178125
,,,1.97E-06,0.004904375
,,,1.98E-06,0.004995625
,,,1.99E-06,0.00503875
,,,2E-06,0.005081875
,,,2.01E-06,0.005290625
,,,2.02E-06,0.0052075
,,,2.03E-06,0.005115625
,,,2.04E-06,0.004845
,,,2.05E-06,0.0050625
,,,2.06E-06,0.005116875
,,,2.07E-06,0.00489125
,,,2.08E-06,0.00511
,,,2.09E-06,0.0051825
,,,2.1E-06,0.005064375
,,,2.11E-06,0.0052775
,,,2.12E-06,0.004714375
,,,2.13E-06,0.00503125
,,,2.14E-06,0.00495375
,,,2.15E-06,0.00498125
,,,2.16E-06,0.005200625
,,,2.17E-06,0.005289375
,,,2.18E-06,0.0050375
,,,2.19E-06,0.005238125
,,,2.2E-06,0.004993125
,,,2.21E-06,0.00492125
,,,2.22E-06,0.005059375
,,,2.23E-06,0.005075
,,,2.24E-06,0.00522125
,,,2.25E-06,0.005213125
,,,2.26E-06,0.004813125
,,,2.27E-06,0.005160625
,,,2.28E-06,0.005123125
,,,2.29E-06,0.00501625
,,,2.3E-06,0.005155625
,,,2.31E-06,0.005026875
,,,2.32E-06,0.005005625
,,,2.33E-06,0.005026875
,,,2.34E-06,0.005145625
,,,2.35E-06,0.0051775
,,,2.36E-06,0.0050125
,,,2.37E-06,0.00489875
,,,2.38E-06,0.005110625
,,,2.39E-06,0.00517
,,,2.4E-06,0.005145
,,,2.41E-06,0.005015625
,,,2.42E-06,0.00527
,,,2.43E-06,0.004959375
,,,2.44E-06,0.0050875
,,,2.45E-06,0.005000625
,,,2.46E-06,0.004949375
,,,2.47E-06,0.0050175
,,,2.48E-06,0.0050775
,,,2.49E-06,0.005010625
,,,2.5E-06,0.00493375
,,,2.51E-06,0.005198125
,,,2.52E-06,0.005144375
,,,2.53E-06,0.004951875
,,,2.54E-06,0.005076875
,,,2.55E-06,0.005065
,,,2.56E-06,0.00503375
,,,2.57E-06,0.004963125
,,,2.58E-06,0.005251875
,,,2.59E-06,0.005045625
,,,2.6E-06,0.004855625
,,,2.61E-06,0.0050725
,,,2.62E-06,0.005154375
,,,2.63E-06,0.005353125
,,,2.64E-06,0.00497875
,,,2.65E-06,0.004968125
,,,2.66E-06,0.00511125
,,,2.67E-06,0.004964375
,,,2.68E-06,0.00513625
,,,2.69E-06,0.00514125
,,,2.7E-06,0.0049325
,,,2.71E-06,0.005154375
,,,2.72E-06,0.004976875
,,,2.73E-06,0.00501375
,,,2.74E-06,0.005126875
,,,2.75E-06,0.0051425
,,,2.76E-06,0.004921875
,,,2.77E-06,0.005033125
,,,2.78E-06,0.005045
,,,2.79E-06,0.005363125
,,,2.8E-06,0.00488875
,,,2.81E-06,0.005059375
,,,2.82E-06,0.00501625
,,,2.83E-06,0.00498125
,,,2.84E-06,0.004875
,,,2.85E-06,0.00507375
,,,2.86E-06,0.005091875
,,,2.87E-06,0.00498
,,,2.88E-06,0.00515625
,,,2.89E-06,0.005188125
,,,2.9E-06,0.0048825
,,,2.91E-06,0.00492375
,,,2.92E-06,0.00535125
,,,2.93E-06,0.004969375
,,,2.94E-06,0.005071875
,,,2.95E-06,0.005276875
,,,2.96E-06,0.005196875
,,,2.97E-06,0.005114375
,,,2.98E-06,0.00505375
,,,2.99E-06,0.0050875
,,,3E-06,0.005145
,,,3.01E-06,0.00508875
,,,3.02E-06,0.0052
,,,3.03E-06,0.00504
,,,3.04E-06,0.004891875
,,,3.05E-06,0.00484875
,,,3.06E-06,0.005124375
,,,3.07E-06,0.005159375
,,,3.08E-06,0.00495
,,,3.09E-06,0.005420625
,,,3.1E-06,0.005026875
,,,3.11E-06,0.005128125
,,,3.12E-06,0.005001875
,,,3.13E-06,0.0050775
,,,3.14E-06,0.005049375
,,,3.15E-06,0.005230625
,,,3.16E-06,0.00510875
,,,3.17E-06,0.00496375
,,,3.18E-06,0.005333125
,,,3.19E-06,0.005155625
,,,3.2E-06,0.004868125
,,,3.21E-06,0.004981875
,,,3.22E-06,0.005243125
,,,3.23E-06,0.005080625
,,,3.24E-06,0.004934375
,,,3.25E-06,0.005133125
,,,3.26E-06,0.004856875
,,,3.27E-06,0.005195625
,,,3.28E-06,0.0051
,,,3.29E-06,0.00504
,,,3.3E-06,0.005184375
,,,3.31E-06,0.005049375
,,,3.32E-06,0.00503375
,,,3.33E-06,0.005129375
,,,3.34E-06,0.00523
,,,3.35E-06,0.004770625
,,,3.36E-06,0.004714375
,,,3.37E-06,0.005188125
,,,3.38E-06,0.00480375
,,,3.39E-06,0.005203125
,,,3.4E-06,0.004693125
,,,3.41E-06,0.00486875
,,,3.42E-06,0.005179375
,,,3.43E-06,0.00490625
,,,3.44E-06,0.00485875
,,,3.45E-06,0.0049
,,,3.46E-06,0.005091875
,,,3.47E-06,0.005035
,,,3.48E-06,0.005166875
,,,3.49E-06,0.00498125
,,,3.5E-06,0.00502875
,,,3.51E-06,0.005046875
,,,3.52E-06,0.00506
,,,3.53E-06,0.004834375
,,,3.54E-06,0.005024375
,,,3.55E-06,0.004945625
,,,3.56E-06,0.004928125
