data/raw/Final_POL_Test_1/SOP089_Ch2.csv

"Record Length",1000,"Points",-5E-06,0.019325
"Sample Interval",1E-08,s,-4.99E-06,0.018868125
"Trigger Point",500,"Samples",-4.98E-06,0.018878125
"Trigger Time",0,s,-4.97E-06,0.0190625
"",,,-4.96E-06,0.019094375
"Horizontal Offset",-5E-06,s,-4.95E-06,0.018958125
,,,-4.94E-06,0.019021875
,,,-4.93E-06,0.0193425
,,,-4.92E-06,0.019125
,,,-4.91E-06,0.0191025
,,,-4.9E-06,0.0190625
,,,-4.89E-06,0.018793125
,,,-4.88E-06,0.018794375
,,,-4.87E-06,0.018973125
,,,-4.86E-06,0.01901875
,,,-4.85E-06,0.018776875
,,,-4.84E-06,0.018928125
,,,-4.83E-06,0.019013125
,,,-4.82E-06,0.01915375
,,,-4.81E-06,0.0193725
,,,-4.8E-06,0.018498125
,,,-4.79E-06,0.0189025
,,,-4.78E-06,0.019094375
,,,-4.77E-06,0.01909875
,,,-4.76E-06,0.01901875
,,,-4.75E-06,0.01907375
,,,-4.74E-06,0.019015
,,,-4.73E-06,0.019240625
,,,-4.72E-06,0.019105
,,,-4.71E-06,0.018961875
,,,-4.7E-06,0.018989375
,,,-4.69E-06,0.01906125
,,,-4.68E-06,0.01888375
,,,-4.67E-06,0.019100625
,,,-4.66E-06,0.019160625
,,,-4.65E-06,0.018809375
,,,-4.64E-06,0.0190125
,,,-4.63E-06,0.019051875
,,,-4.62E-06,0.018829375
,,,-4.61E-06,0.019343125
,,,-4.6E-06,0.019198125
,,,-4.59E-06,0.01922625
,,,-4.58E-06,0.019194375
,,,-4.57E-06,0.01903375
,,,-4.56E-06,0.019058125
,,,-4.55E-06,0.01898625
,,,-4.54E-06,0.019019375
,,,-4.53E-06,0.019185
,,,-4.52E-06,0.0189075
,,,-4.51E-06,0.019144375
,,,-4.5E-06,0.019090625
,,,-4.49E-06,0.01913
,,,-4.48E-06,0.018975625
,,,-4.47E-06,0.019036875
,,,-4.46E-06,0.01889625
,,,-4.45E-06,0.01900875
,,,-4.44E-06,0.019209375
,,,-4.43E-06,0.01912125
,,,-4.42E-06,0.01908625
,,,-4.41E-06,0.018933125
,,,-4.4E-06,0.019125625
,,,-4.39E-06,0.01899125
,,,-4.38E-06,0.018958125
,,,-4.37E-06,0.019135
,,,-4.36E-06,0.01887
,,,-4.35E-06,0.018970625
,,,-4.34E-06,0.01898
,,,-4.33E-06,0.019088125
,,,-4.32E-06,0.0190525
,,,-4.31E-06,0.01900875
,,,-4.3E-06,0.019233125
,,,-4.29E-06,0.019115625
,,,-4.28E-06,0.01904875
,,,-4.27E-06,0.019154375
,,,-4.26E-06,0.018976875
,,,-4.25E-06,0.019089375
,,,-4.24E-06,0.01901625
,,,-4.23E-06,0.01909625
,,,-4.22E-06,0.018916875
,,,-4.21E-06,0.018991875
,,,-4.2E-06,0.019098125
,,,-4.19E-06,0.018941875
,,,-4.18E-06,0.018945625
,,,-4.17E-06,0.0192425
,,,-4.16E-06,0.0189475
,,,-4.15E-06,0.0192375
,,,-4.14E-06,0.018668125
,,,-4.13E-06,0.018991875
,,,-4.12E-06,0.01921125
,,,-4.11E-06,0.019085625
,,,-4.1E-06,0.01905375
,,,-4.09E-06,0.019214375
,,,-4.08E-06,0.018813125
,,,-4.07E-06,0.018995
,,,-4.06E-06,0.019183125
,,,-4.05E-06,0.01924875
,,,-4.04E-06,0.019084375
,,,-4.03E-06,0.0188075
,,,-4.02E-06,0.01903625
,,,-4.01E-06,0.01906
,,,-4E-06,0.01906125
,,,-3.99E-06,0.01898375
,,,-3.98E-06,0.019338125
,,,-3.97E-06,0.019203125
,,,-3.96E-06,0.01904625
,,,-3.95E-06,0.0192175
,,,-3.94E-06,0.01903
,,,-3.93E-06,0.0192025
,,,-3.92E-06,0.019169375
,,,-3.91E-06,0.01903375
,,,-3.9E-06,0.01932125
,,,-3.89E-06,0.01914125
,,,-3.88E-06,0.018975625
,,,-3.87E-06,0.01887875
,,,-3.86E-06,0.01916625
,,,-3.85E-06,0.01909125
,,,-3.84E-06,0.01922375
,,,-3.83E-06,0.01904875
,,,-3.82E-06,0.018915625
,,,-3.81E-06,0.01917375
,,,-3.8E-06,0.019178125
,,,-3.79E-06,0.01912875
,,,-3.78E-06,0.019131875
,,,-3.77E-06,0.019035625
,,,-3.76E-06,0.01899625
,,,-3.75E-06,0.01881
,,,-3.74E-06,0.018935
,,,-3.73E-06,0.018971875
,,,-3.72E-06,0.019131875
,,,-3.71E-06,0.018943125
,,,-3.7E-06,0.01902375
,,,-3.69E-06,0.018926875
,,,-3.68E-06,0.01902
,,,-3.67E-06,0.01906
,,,-3.66E-06,0.018989375
,,,-3.65E-06,0.018978125
,,,-3.64E-06,0.01898625
,,,-3.63E-06,0.019075625
,,,-3.62E-06,0.0191625
,,,-3.61E-06,0.019210625
,,,-3.6E-06,0.018970625
,,,-3.59E-06,0.018935
,,,-3.58E-06,0.019005
,,,-3.57E-06,0.01901625
,,,-3.56E-06,0.018988125
,,,-3.55E-06,0.019001875
,,,-3.54E-06,0.018913125
,,,-3.53E-06,0.01911
,,,-3.52E-06,0.019145625
,,,-3.51E-06,0.01907
,,,-3.5E-06,0.01905625
,,,-3.49E-06,0.01898125
,,,-3.48E-06,0.019021875
,,,-3.47E-06,0.018905
,,,-3.46E-06,0.019093125
,,,-3.45E-06,0.01917625
,,,-3.44E-06,0.0190625
,,,-3.43E-06,0.019293125
,,,-3.42E-06,0.0191575
,,,-3.41E-06,0.018910625
,,,-3.4E-06,0.01906625
,,,-3.39E-06,0.01894875
,,,-3.38E-06,0.018965
,,,-3.37E-06,0.01924
,,,-3.36E-06,0.0190175
,,,-3.35E-06,0.01920375
,,,-3.34E-06,0.01905375
,,,-3.33E-06,0.01902625
,,,-3.32E-06,0.01910125
,,,-3.31E-06,0.019065625
,,,-3.3E-06,0.0189325
,,,-3.29E-06,0.018801875
,,,-3.28E-06,0.018915
,,,-3.27E-06,0.01897875
,,,-3.26E-06,0.0190975
,,,-3.25E-06,0.0189225
,,,-3.24E-06,0.01911875
,,,-3.23E-06,0.01908
,,,-3.22E-06,0.0190275
,,,-3.21E-06,0.01905
,,,-3.2E-06,0.0189775
,,,-3.19E-06,0.018915
,,,-3.18E-06,0.018934375
,,,-3.17E-06,0.018863125
,,,-3.16E-06,0.019128125
,,,-3.15E-06,0.018944375
,,,-3.14E-06,0.01921375
,,,-3.13E-06,0.01899125
,,,-3.12E-06,0.019009375
,,,-3.11E-06,0.01874
,,,-3.1E-06,0.0190825
,,,-3.09E-06,0.01901625
,,,-3.08E-06,0.019001875
,,,-3.07E-06,0.018983125
,,,-3.06E-06,0.019084375
,,,-3.05E-06,0.0191975
,,,-3.04E-06,0.018895
,,,-3.03E-06,0.018920625
,,,-3.02E-06,0.01900125
,,,-3.01E-06,0.019090625
,,,-3E-06,0.0189325
,,,-2.99E-06,0.018965
,,,-2.98E-06,0.019076875
,,,-2.97E-06,0.019296875
,,,-2.96E-06,0.01911125
,,,-2.95E-06,0.0190525
,,,-2.94E-06,0.019110625
,,,-2.93E-06,0.019043125
,,,-2.92E-06,0.01906625
,,,-2.91E-06,0.01922125
,,,-2.9E-06,0.01916375
,,,-2.89E-06,0.01921
,,,-2.88E-06,0.019065
,,,-2.87E-06,0.018979375
,,,-2.86E-06,0.01923875
,,,-2.85E-06,0.01900625
,,,-2.84E-06,0.018925625
,,,-2.83E-06,0.0188625
,,,-2.82E-06,0.019095625
,,,-2.81E-06,0.018881875
,,,-2.8E-06,0.018836875
,,,-2.79E-06,0.01915
,,,-2.78E-06,0.0190375
,,,-2.77E-06,0.0191125
,,,-2.76E-06,0.01905625
,,,-2.75E-06,0.018971875
,,,-2.74E-06,0.0187625
,,,-2.73E-06,0.0193
,,,-2.72E-06,0.01931
,,,-2.71E-06,0.01907375
,,,-2.7E-06,0.019005
,,,-2.69E-06,0.018881875
,,,-2.68E-06,0.019044375
,,,-2.67E-06,0.0189975
,,,-2.66E-06,0.01874125
,,,-2.65E-06,0.0187775
,,,-2.64E-06,0.019108125
,,,-2.63E-06,0.019205625
,,,-2.62E-06,0.018778125
,,,-2.61E-06,0.018981875
,,,-2.6E-06,0.018934375
,,,-2.59E-06,0.018658125
,,,-2.58E-06,0.018961875
,,,-2.57E-06,0.019124375
,,,-2.56E-06,0.01882625
,,,-2.55E-06,0.019041875
,,,-2.54E-06,0.018918125
,,,-2.53E-06,0.01901125
,,,-2.52E-06,0.018994375
,,,-2.51E-06,0.0189175
,,,-2.5E-06,0.019165
,,,-2.49E-06,0.018885
,,,-2.48E-06,0.0189075
,,,-2.47E-06,0.01902375
,,,-2.46E-06,0.019015625
,,,-2.45E-06,0.018925625
,,,-2.44E-06,0.0189875
,,,-2.43E-06,0.01908875
,,,-2.42E-06,0.019150625
,,,-2.41E-06,0.018795
,,,-2.4E-06,0.018868125
,,,-2.39E-06,0.018636875
,,,-2.38E-06,0.018798125
,,,-2.37E-06,0.019083125
,,,-2.36E-06,0.019124375
,,,-2.35E-06,0.019111875
,,,-2.34E-06,0.01904375
,,,-2.33E-06,0.01871875
,,,-2.32E-06,0.018823125
,,,-2.31E-06,0.01893875
,,,-2.3E-06,0.01892
,,,-2.29E-06,0.01883375
,,,-2.28E-06,0.019033125
,,,-2.27E-06,0.019213125
,,,-2.26E-06,0.018826875
,,,-2.25E-06,0.01889
,,,-2.24E-06,0.0190025
,,,-2.23E-06,0.019033125
,,,-2.22E-06,0.019219375
,,,-2.21E-06,0.019095
,,,-2.2E-06,0.01894625
,,,-2.19E-06,0.019116875
,,,-2.18E-06,0.0188975
,,,-2.17E-06,0.01911125
,,,-2.16E-06,0.01897875
,,,-2.15E-06,0.018624375
,,,-2.14E-06,0.018791875
,,,-2.13E-06,0.01907875
,,,-2.12E-06,0.019290625
,,,-2.11E-06,0.01876125
,,,-2.1E-06,0.0190925
,,,-2.09E-06,0.018991875
,,,-2.08E-06,0.018996875
,,,-2.07E-06,0.01884375
,,,-2.06E-06,0.018943125
,,,-2.05E-06,0.0188925
,,,-2.04E-06,0.019128125
,,,-2.03E-06,0.019150625
,,,-2.02E-06,0.019234375
,,,-2.01E-06,0.018980625
,,,-2E-06,0.01911875
,,,-1.99E-06,0.0190925
,,,-1.98E-06,0.019118125
,,,-1.97E-06,0.0190725
,,,-1.96E-06,0.019011875
,,,-1.95E-06,0.01902875
,,,-1.94E-06,0.019313125
,,,-1.93E-06,0.01893625
,,,-1.92E-06,0.01892875
,,,-1.91E-06,0.01901125
,,,-1.9E-06,0.018849375
,,,-1.89E-06,0.018903125
,,,-1.88E-06,0.0192025
,,,-1.87E-06,0.01895
,,,-1.86E-06,0.01886125
,,,-1.85E-06,0.0189275
,,,-1.84E-06,0.018905
,,,-1.83E-06,0.0189225
,,,-1.82E-06,0.01889125
,,,-1.81E-06,0.0190025
,,,-1.8E-06,0.01902
,,,-1.79E-06,0.01906375
,,,-1.78E-06,0.01908125
,,,-1.77E-06,0.018995625
,,,-1.76E-06,0.0194025
,,,-1.75E-06,0.01881625
,,,-1.74E-06,0.01906625
,,,-1.73E-06,0.01901
,,,-1.72E-06,0.01916875
,,,-1.71E-06,0.019118125
,,,-1.7E-06,0.01914125
,,,-1.69E-06,0.018958125
,,,-1.68E-06,0.01898
,,,-1.67E-06,0.01895375
,,,-1.66E-06,0.019215
,,,-1.65E-06,0.0190675
,,,-1.64E-06,0.01912125
,,,-1.63E-06,0.01889
,,,-1.62E-06,0.019229375
,,,-1.61E-06,0.01908
,,,-1.6E-06,0.01908125
,,,-1.59E-06,0.0187525
,,,-1.58E-06,0.018953125
,,,-1.57E-06,0.019130625
,,,-1.56E-06,0.01894
,,,-1.55E-06,0.019125
,,,-1.54E-06,0.018991875
,,,-1.53E-06,0.018923125
,,,-1.52E-06,0.019003125
,,,-1.51E-06,0.019233125
,,,-1.5E-06,0.018880625
,,,-1.49E-06,0.0192
,,,-1.48E-06,0.018873125
,,,-1.47E-06,0.019105625
,,,-1.46E-06,0.01879875
,,,-1.45E-06,0.019123125
,,,-1.44E-06,0.018946875
,,,-1.43E-06,0.0191
,,,-1.42E-06,0.01902375
,,,-1.41E-06,0.01906375
,,,-1.4E-06,0.019028125
,,,-1.39E-06,0.019131875
,,,-1.38E-06,0.018775
,,,-1.37E-06,0.018859375
,,,-1.36E-06,0.018885625
,,,-1.35E-06,0.0191025
,,,-1.34E-06,0.0192675
,,,-1.33E-06,0.0191625
,,,-1.32E-06,0.0191025
,,,-1.31E-06,0.018895
,,,-1.3E-06,0.019058125
,,,-1.29E-06,0.019096875
,,,-1.28E-06,0.019148125
,,,-1.27E-06,0.019171875
,,,-1.26E-06,0.019024375
,,,-1.25E-06,0.019053125
,,,-1.24E-06,0.01908625
,,,-1.23E-06,0.019173125
,,,-1.22E-06,0.019043125
,,,-1.21E-06,0.0189725
,,,-1.2E-06,0.018894375
,,,-1.19E-06,0.019198125
,,,-1.18E-06,0.018945625
,,,-1.17E-06,0.019101875
,,,-1.16E-06,0.01902
,,,-1.15E-06,0.019139375
,,,-1.14E-06,0.01906375
,,,-1.13E-06,0.018918125
,,,-1.12E-06,0.01900125
,,,-1.11E-06,0.01898875
,,,-1.1E-06,0.019161875
,,,-1.09E-06,0.01878
,,,-1.08E-06,0.019283125
,,,-1.07E-06,0.018894375
,,,-1.06E-06,0.01923125
,,,-1.05E-06,0.01909375
,,,-1.04E-06,0.018920625
,,,-1.03E-06,0.0192675
,,,-1.02E-06,0.019079375
,,,-1.01E-06,0.018940625
,,,-1E-06,0.019191875
,,,-9.9E-07,0.018738125
,,,-9.8E-07,0.01888375
,,,-9.7E-07,0.0191
,,,-9.6E-07,0.018914375
,,,-9.5E-07,0.01922
,,,-9.4E-07,0.019088125
,,,-9.3E-07,0.019076875
,,,-9.2E-07,0.019101875
,,,-9.1E-07,0.01901625
,,,-9E-07,0.018900625
,,,-8.9E-07,0.019136875
,,,-8.8E-07,0.01904125
,,,-8.7E-07,0.01897625
,,,-8.6E-07,0.018830625
,,,-8.5E-07,0.019198125
,,,-8.4E-07,0.01903625
,,,-8.3E-07,0.01904125
,,,-8.2E-07,0.019190625
,,,-8.1E-07,0.01922875
,,,-8E-07,0.0188775
,,,-7.9E-07,0.019125
,,,-7.8E-07,0.019054375
,,,-7.7E-07,0.01891125
,,,-7.6E-07,0.018978125
,,,-7.5E-07,0.01900625
,,,-7.4E-07,0.018883125
,,,-7.3E-07,0.019251875
,,,-7.2E-07,0.01909375
,,,-7.1E-07,0.0188975
,,,-7E-07,0.019025625
,,,-6.9E-07,0.019078125
,,,-6.8E-07,0.01884625
,,,-6.7E-07,0.01921875
,,,-6.6E-07,0.01914375
,,,-6.5E-07,0.019026875
,,,-6.4E-07,0.019006875
,,,-6.3E-07,0.01896
,,,-6.2E-07,0.019053125
,,,-6.1E-07,0.01905875
,,,-6E-07,0.01890375
,,,-5.9E-07,0.0189825
,,,-5.8E-07,0.018994375
,,,-5.7E-07,0.019160625
,,,-5.6E-07,0.018885625
,,,-5.5E-07,0.019244375
,,,-5.4E-07,0.01918875
,,,-5.3E-07,0.0191825
,,,-5.2E-07,0.019095625
,,,-5.1E-07,0.01882375
,,,-5E-07,0.019214375
,,,-4.9E-07,0.019029375
,,,-4.8E-07,0.018990625
,,,-4.7E-07,0.019264375
,,,-4.6E-07,0.018823125
,,,-4.5E-07,0.019033125
,,,-4.4E-07,0.01912625
,,,-4.3E-07,0.01902875
,,,-4.2E-07,0.018876875
,,,-4.1E-07,0.0189375
,,,-4E-07,0.019121875
,,,-3.9E-07,0.018896875
,,,-3.8E-07,0.0192375
,,,-3.7E-07,0.01915625
,,,-3.6E-07,0.019193125
,,,-3.5E-07,0.01918125
,,,-3.4E-07,0.019229375
,,,-3.3E-07,0.018784375
,,,-3.2E-07,0.01920125
,,,-3.1E-07,0.01888125
,,,-3E-07,0.01898
,,,-2.9E-07,0.019225
,,,-2.8E-07,0.018723125
,,,-2.7E-07,0.01901625
,,,-2.6E-07,0.0189825
,,,-2.5E-07,0.01884125
,,,-2.4E-07,0.0190725
,,,-2.3E-07,0.019348125
,,,-2.2E-07,0.01902625
,,,-2.1E-07,0.019034375
,,,-2E-07,0.0191775
,,,-1.9E-07,0.019173125
,,,-1.8E-07,0.0189875
,,,-1.7E-07,0.01899
,,,-1.6E-07,0.01897125
,,,-1.5E-07,0.018916875
,,,-1.4E-07,0.018771875
,,,-1.3E-07,0.019094375
,,,-1.2E-07,0.018943125
,,,-1.1E-07,0.0192175
,,,-1E-07,0.0189025
,,,-9E-08,0.018875625
,,,-8E-08,0.01890625
,,,-7E-08,0.018265625
,,,-6E-08,0.01978375
,,,-5E-08,0.02015375
,,,-4E-08,0.020041875
,,,-3E-08,0.01811
,,,-2E-08,0.016870625
,,,-1E-08,0.017404375
,,,0,0.019471875
,,,1E-08,0.020886875
,,,2E-08,0.020774375
,,,3E-08,0.01915875
,,,4E-08,0.017985625
,,,5E-08,0.0174225
,,,6E-08,0.017989375
,,,7E-08,0.019148125
,,,8E-08,0.019764375
,,,9E-08,0.01993125
,,,1E-07,0.01944
,,,1.1E-07,0.0187875
,,,1.2E-07,0.018269375
,,,1.3E-07,0.01891125
,,,1.4E-07,0.0190675
,,,1.5E-07,0.01940625
,,,1.6E-07,0.018979375
,,,1.7E-07,0.019221875
,,,1.8E-07,0.01917
,,,1.9E-07,0.0188325
,,,2E-07,0.018786875
,,,2.1E-07,0.01872875
,,,2.2E-07,0.018858125
,,,2.3E-07,0.01886375
,,,2.4E-07,0.01916125
,,,2.5E-07,0.01925875
,,,2.6E-07,0.01912125
,,,2.7E-07,0.019045
,,,2.8E-07,0.01892625
,,,2.9E-07,0.01897
,,,3E-07,0.01902125
,,,3.1E-07,0.01910875
,,,3.2E-07,0.019195625
,,,3.3E-07,0.01885625
,,,3.4E-07,0.019021875
,,,3.5E-07,0.01918625
,,,3.6E-07,0.019094375
,,,3.7E-07,0.01912
,,,3.8E-07,0.01902625
,,,3.9E-07,0.0188125
,,,4E-07,0.01914
,,,4.1E-07,0.019191875
,,,4.2E-07,0.01914375
,,,4.3E-07,0.01886625
,,,4.4E-07,0.01915625
,,,4.5E-07,0.019154375
,,,4.6E-07,0.019056875
,,,4.7E-07,0.019083125
,,,4.8E-07,0.019005
,,,4.9E-07,0.01908
,,,5E-07,0.019175
,,,5.1E-07,0.0190775
,,,5.2E-07,0.019045
,,,5.3E-07,0.019101875
,,,5.4E-07,0.01901625
,,,5.5E-07,0.01873875
,,,5.6E-07,0.019118125
,,,5.7E-07,0.0189625
,,,5.8E-07,0.0192425
,,,5.9E-07,0.01916
,,,6E-07,0.019068125
,,,6.1E-07,0.01883625
,,,6.2E-07,0.01922375
,,,6.3E-07,0.019074375
,,,6.4E-07,0.019145625
,,,6.5E-07,0.019251875
,,,6.6E-07,0.019159375
,,,6.7E-07,0.018855625
,,,6.8E-07,0.019061875
,,,6.9E-07,0.019158125
,,,7E-07,0.019218125
,,,7.1E-07,0.019036875
,,,7.2E-07,0.018811875
,,,7.3E-07,0.01888625
,,,7.4E-07,0.0189375
,,,7.5E-07,0.018925625
,,,7.6E-07,0.019055625
,,,7.7E-07,0.01903375
,,,7.8E-07,0.018848125
,,,7.9E-07,0.018986875
,,,8E-07,0.01905625
,,,8.1E-07,0.01915375
,,,8.2E-07,0.01919125
,,,8.3E-07,0.0189525
,,,8.4E-07,0.01893125
,,,8.5E-07,0.01912625
,,,8.6E-07,0.01901
,,,8.7E-07,0.0189625
,,,8.8E-07,0.01912375
,,,8.9E-07,0.01892
,,,9E-07,0.0193875
,,,9.1E-07,0.019175625
,,,9.2E-07,0.019066875
,,,9.3E-07,0.01908375
,,,9.4E-07,0.019020625
,,,9.5E-07,0.019050625
,,,9.6E-07,0.019135
,,,9.7E-07,0.01921
,,,9.8E-07,0.019081875
,,,9.9E-07,0.019118125
,,,1E-06,0.018905
,,,1.01E-06,0.01890625
,,,1.02E-06,0.018939375
,,,1.03E-06,0.0189825
,,,1.04E-06,0.019141875
,,,1.05E-06,0.019048125
,,,1.06E-06,0.018875
,,,1.07E-06,0.0189625
,,,1.08E-06,0.019019375
,,,1.09E-06,0.01911
,,,1.1E-06,0.0191375
,,,1.11E-06,0.018865
,,,1.12E-06,0.0190725
,,,1.13E-06,0.018965
,,,1.14E-06,0.01928125
,,,1.15E-06,0.0192725
,,,1.16E-06,0.019031875
,,,1.17E-06,0.018715
,,,1.18E-06,0.019105
,,,1.19E-06,0.019085
,,,1.2E-06,0.019135
,,,1.21E-06,0.0190325
,,,1.22E-06,0.01884875
,,,1.23E-06,0.01891375
,,,1.24E-06,0.018978125
,,,1.25E-06,0.018924375
,,,1.26E-06,0.019225625
,,,1.27E-06,0.01921125
,,,1.28E-06,0.019253125
,,,1.29E-06,0.019219375
,,,1.3E-06,0.01893375
,,,1.31E-06,0.01903875
,,,1.32E-06,0.019118125
,,,1.33E-06,0.01908125
,,,1.34E-06,0.01907375
,,,1.35E-06,0.01916625
,,,1.36E-06,0.01901625
,,,1.37E-06,0.0188825
,,,1.38E-06,0.01896125
,,,1.39E-06,0.019175
,,,1.4E-06,0.019076875
,,,1.41E-06,0.01903375
,,,1.42E-06,0.01890625
,,,1.43E-06,0.018878125
,,,1.44E-06,0.019128125
,,,1.45E-06,0.01913625
,,,1.46E-06,0.018865625
,,,1.47E-06,0.0190175
,,,1.48E-06,0.019025
,,,1.49E-06,0.019078125
,,,1.5E-06,0.019073125
,,,1.51E-06,0.019100625
,,,1.52E-06,0.0189425
,,,1.53E-06,0.019055
,,,1.54E-06,0.018908125
,,,1.55E-06,0.01909125
,,,1.56E-06,0.018960625
,,,1.57E-06,0.01908
,,,1.58E-06,0.0188425
,,,1.59E-06,0.0189675
,,,1.6E-06,0.01910375
,,,1.61E-06,0.01904375
,,,1.62E-06,0.019011875
,,,1.63E-06,0.019223125
,,,1.64E-06,0.01895
,,,1.65E-06,0.01897875
,,,1.66E-06,0.018973125
,,,1.67E-06,0.0189775
,,,1.68E-06,0.019180625
,,,1.69E-06,0.019120625
,,,1.7E-06,0.01879875
,,,1.71E-06,0.019098125
,,,1.72E-06,0.0190575
,,,1.73E-06,0.018811875
,,,1.74E-06,0.019100625
,,,1.75E-06,0.0190225
,,,1.76E-06,0.019121875
,,,1.77E-06,0.019231875
,,,1.78E-06,0.019236875
,,,1.79E-06,0.019220625
,,,1.8E-06,0.0191625
,,,1.81E-06,0.018829375
,,,1.82E-06,0.018976875
,,,1.83E-06,0.019028125
,,,1.84E-06,0.01905625
,,,1.85E-06,0.0192075
,,,1.86E-06,0.01891875
,,,1.87E-06,0.019180625
,,,1.88E-06,0.019001875
,,,1.89E-06,0.0190175
,,,1.9E-06,0.019201875
,,,1.91E-06,0.018856875
,,,1.92E-06,0.01888625
,,,1.93E-06,0.018765
,,,1.94E-06,0.018976875
,,,1.95E-06,0.018988125
,,,1.96E-06,0.01896625
,,,1.97E-06,0.01911125
,,,1.98E-06,0.01897125
,,,1.99E-06,0.01914625
,,,2E-06,0.01909875
,,,2.01E-06,0.019194375
,,,2.02E-06,0.018903125
,,,2.03E-06,0.019123125
,,,2.04E-06,0.019035625
,,,2.05E-06,0.01941
,,,2.06E-06,0.019258125
,,,2.07E-06,0.019110625
,,,2.08E-06,0.019024375
,,,2.09E-06,0.019165625
,,,2.1E-06,0.019055625
,,,2.11E-06,0.019055625
,,,2.12E-06,0.019250625
,,,2.13E-06,0.01898375
,,,2.14E-06,0.019105625
,,,2.15E-06,0.01904625
,,,2.16E-06,0.01919875
,,,2.17E-06,0.019163125
,,,2.18E-06,0.01893375
,,,2.19E-06,0.019011875
,,,2.2E-06,0.01895625
,,,2.21E-06,0.01895625
,,,2.22E-06,0.019121875
,,,2.23E-06,0.01908625
,,,2.24E-06,0.01889375
,,,2.25E-06,0.0189975
,,,2.26E-06,0.018979375
,,,2.27E-06,0.018850625
,,,2.28E-06,0.018859375
,,,2.29E-06,0.01911625
,,,2.3E-06,0.018993125
,,,2.31E-06,0.01901375
,,,2.32E-06,0.018951875
,,,2.33E-06,0.01883
,,,2.34E-06,0.019176875
,,,2.35E-06,0.019196875
,,,2.36E-06,0.01891875
,,,2.37E-06,0.01903625
,,,2.38E-06,0.019010625
,,,2.39E-06,0.019320625
,,,2.4E-06,0.0188825
,,,2.41E-06,0.0188825
,,,2.42E-06,0.019196875
,,,2.43E-06,0.01894375
,,,2.44E-06,0.0188275
,,,2.45E-06,0.019079375
,,,2.46E-06,0.01917625
,,,2.47E-06,0.018931875
,,,2.48E-06,0.018976875
,,,2.49E-06,0.019140625
,,,2.5E-06,0.0191025
,,,2.51E-06,0.019104375
,,,2.52E-06,0.019085
,,,2.53E-06,0.018785
,,,2.54E-06,0.01909
,,,2.55E-06,0.01897375
,,,2.56E-06,0.01894
,,,2.57E-06,0.01899875
,,,2.58E-06,0.01934
,,,2.59E-06,0.019213125
,,,2.6E-06,0.018984375
,,,2.61E-06,0.019011875
,,,2.62E-06,0.019099375
,,,2.63E-06,0.0193
,,,2.64E-06,0.01895625
,,,2.65E-06,0.01896375
,,,2.66E-06,0.019129375
,,,2.67E-06,0.0190775
,,,2.68E-06,0.01895
,,,2.69E-06,0.01887375
,,,2.7E-06,0.01914
,,,2.71E-06,0.01902125
,,,2.72E-06,0.018886875
,,,2.73E-06,0.019125
,,,2.74E-06,0.01887625
,,,2.75E-06,0.019141875
,,,2.76E-06,0.01905
,,,2.77E-06,0.01909875
,,,2.78E-06,0.01896625
,,,2.79E-06,0.019153125
,,,2.8E-06,0.018904375
,,,2.81E-06,0.01898375
,,,2.82E-06,0.019205
,,,2.83E-06,0.019075625
,,,2.84E-06,0.018918125
,,,2.85E-06,0.018999375
,,,2.86E-06,0.018576875
,,,2.87E-06,0.01893625
,,,2.88E-06,0.01891375
,,,2.89E-06,0.019214375
,,,2.9E-06,0.0188775
,,,2.91E-06,0.01928625
,,,2.92E-06,0.019026875
,,,2.93E-06,0.018899375
,,,2.94E-06,0.01899625
,,,2.95E-06,0.0191625
,,,2.96E-06,0.01887375
,,,2.97E-06,0.01914125
,,,2.98E-06,0.01920375
,,,2.99E-06,0.01905
,,,3E-06,0.018825
,,,3.01E-06,0.0192275
,,,3.02E-06,0.019009375
,,,3.03E-06,0.018994375
,,,3.04E-06,0.018934375
,,,3.05E-06,0.01872875
,,,3.06E-06,0.019005625
,,,3.07E-06,0.019135
,,,3.08E-06,0.019146875
,,,3.09E-06,0.01908
,,,3.1E-06,0.019105625
,,,3.11E-06,0.01880125
,,,3.12E-06,0.018909375
,,,3.13E-06,0.018835625
,,,3.14E-06,0.018971875
,,,3.15E-06,0.019
,,,3.16E-06,0.019108125
,,,3.17E-06,0.018979375
,,,3.18E-06,0.0188675
,,,3.19E-06,0.019018125
,,,3.2E-06,0.019260625
,,,3.21E-06,0.01909125
,,,3.22E-06,0.0189025
,,,3.23E-06,0.01917
,,,3.24E-06,0.01916625
,,,3.25E-06,0.018825625
,,,3.26E-06,0.019103125
,,,3.27E-06,0.0189975
,,,3.28E-06,0.018926875
,,,3.29E-06,0.018964375
,,,3.3E-06,0.018929375
,,,3.31E-06,0.018964375
,,,3.32E-06,0.01903125
,,,3.33E-06,0.019284375
,,,3.34E-06,0.0189425
,,,3.35E-06,0.019014375
,,,3.36E-06,0.018913125
,,,3.37E-06,0.0193625
,,,3.38E-06,0.01887875
,,,3.39E-06,0.01902875
,,,3.4E-06,0.0188525
,,,3.41E-06,0.0189075
,,,3.42E-06,0.0192475
,,,3.43E-06,0.019209375
,,,3.44E-06,0.019075625
,,,3.45E-06,0.019184375
,,,3.46E-06,0.01889
,,,3.47E-06,0.019105625
,,,3.48E-06,0.019011875
,,,3.49E-06,0.019125625
,,,3.5E-06,0.018838125
,,,3.51E-06,0.019310625
,,,3.52E-06,0.0190025
,,,3.53E-06,0.018995625
,,,3.54E-06,0.019095625
,,,3.55E-06,0.01946
,,,3.56E-06,0.018999375
,,,3.57E-06,0.019
,,,3.58E-06,0.01934
