data/raw/Final_POL_Test_1/SOP075_Ch2.csv

"Record Length",1000,"Points",-5E-06,0.02311625
"Sample Interval",1E-08,s,-4.99E-06,0.02334375
"Trigger Point",500,"Samples",-4.98E-06,0.023098125
"Trigger Time",0,s,-4.97E-06,0.0232775
"",,,-4.96E-06,0.0232425
"Horizontal Offset",-5E-06,s,-4.95E-06,0.023181875
,,,-4.94E-06,0.023190625
,,,-4.93E-06,0.023135
,,,-4.92E-06,0.023191875
,,,-4.91E-06,0.023415625
,,,-4.9E-06,0.023289375
,,,-4.89E-06,0.023235
,,,-4.88E-06,0.023008125
,,,-4.87E-06,0.02321375
,,,-4.86E-06,0.023035
,,,-4.85E-06,0.0229725
,,,-4.84E-06,0.023025
,,,-4.83E-06,0.02300125
,,,-4.82E-06,0.0230025
,,,-4.81E-06,0.02302375
,,,-4.8E-06,0.023101875
,,,-4.79E-06,0.023061875
,,,-4.78E-06,0.02315875
,,,-4.77E-06,0.02295625
,,,-4.76E-06,0.023004375
,,,-4.75E-06,0.022948125
,,,-4.74E-06,0.0232475
,,,-4.73E-06,0.023036875
,,,-4.72E-06,0.023305625
,,,-4.71E-06,0.023156875
,,,-4.7E-06,0.02344
,,,-4.69E-06,0.023095
,,,-4.68E-06,0.023195625
,,,-4.67E-06,0.023040625
,,,-4.66E-06,0.02315
,,,-4.65E-06,0.023248125
,,,-4.64E-06,0.023000625
,,,-4.63E-06,0.023155625
,,,-4.62E-06,0.023291875
,,,-4.61E-06,0.02325
,,,-4.6E-06,0.02290125
,,,-4.59E-06,0.02314625
,,,-4.58E-06,0.023201875
,,,-4.57E-06,0.02315
,,,-4.56E-06,0.023014375
,,,-4.55E-06,0.02307375
,,,-4.54E-06,0.023005625
,,,-4.53E-06,0.02294125
,,,-4.52E-06,0.023130625
,,,-4.51E-06,0.02336
,,,-4.5E-06,0.02327875
,,,-4.49E-06,0.02321875
,,,-4.48E-06,0.02292125
,,,-4.47E-06,0.02317125
,,,-4.46E-06,0.023325
,,,-4.45E-06,0.02337125
,,,-4.44E-06,0.023054375
,,,-4.43E-06,0.02352
,,,-4.42E-06,0.0230475
,,,-4.41E-06,0.023396875
,,,-4.4E-06,0.023164375
,,,-4.39E-06,0.02320125
,,,-4.38E-06,0.02314375
,,,-4.37E-06,0.023113125
,,,-4.36E-06,0.023378125
,,,-4.35E-06,0.023008125
,,,-4.34E-06,0.023116875
,,,-4.33E-06,0.022926875
,,,-4.32E-06,0.023413125
,,,-4.31E-06,0.023000625
,,,-4.3E-06,0.023205625
,,,-4.29E-06,0.023405
,,,-4.28E-06,0.02326375
,,,-4.27E-06,0.02314375
,,,-4.26E-06,0.0232325
,,,-4.25E-06,0.02300625
,,,-4.24E-06,0.02325875
,,,-4.23E-06,0.023139375
,,,-4.22E-06,0.023025625
,,,-4.21E-06,0.023381875
,,,-4.2E-06,0.022983125
,,,-4.19E-06,0.023371875
,,,-4.18E-06,0.023315
,,,-4.17E-06,0.023009375
,,,-4.16E-06,0.02296125
,,,-4.15E-06,0.02285375
,,,-4.14E-06,0.0229975
,,,-4.13E-06,0.023144375
,,,-4.12E-06,0.023128125
,,,-4.11E-06,0.023078125
,,,-4.1E-06,0.023179375
,,,-4.09E-06,0.02296125
,,,-4.08E-06,0.023050625
,,,-4.07E-06,0.023085
,,,-4.06E-06,0.023
,,,-4.05E-06,0.023343125
,,,-4.04E-06,0.023229375
,,,-4.03E-06,0.023118125
,,,-4.02E-06,0.023169375
,,,-4.01E-06,0.023146875
,,,-4E-06,0.023293125
,,,-3.99E-06,0.02332625
,,,-3.98E-06,0.02313375
,,,-3.97E-06,0.02323375
,,,-3.96E-06,0.02325375
,,,-3.95E-06,0.023263125
,,,-3.94E-06,0.02315625
,,,-3.93E-06,0.02331
,,,-3.92E-06,0.02321
,,,-3.91E-06,0.023136875
,,,-3.9E-06,0.023400625
,,,-3.89E-06,0.023294375
,,,-3.88E-06,0.023094375
,,,-3.87E-06,0.023311875
,,,-3.86E-06,0.022833125
,,,-3.85E-06,0.02319125
,,,-3.84E-06,0.023200625
,,,-3.83E-06,0.02331625
,,,-3.82E-06,0.023289375
,,,-3.81E-06,0.0230125
,,,-3.8E-06,0.023219375
,,,-3.79E-06,0.023210625
,,,-3.78E-06,0.02320875
,,,-3.77E-06,0.023293125
,,,-3.76E-06,0.023131875
,,,-3.75E-06,0.022959375
,,,-3.74E-06,0.02329375
,,,-3.73E-06,0.023409375
,,,-3.72E-06,0.02304
,,,-3.71E-06,0.023103125
,,,-3.7E-06,0.023035625
,,,-3.69E-06,0.02313625
,,,-3.68E-06,0.02303625
,,,-3.67E-06,0.023190625
,,,-3.66E-06,0.02327625
,,,-3.65E-06,0.02315875
,,,-3.64E-06,0.0232
,,,-3.63E-06,0.02318875
,,,-3.62E-06,0.023021875
,,,-3.61E-06,0.023160625
,,,-3.6E-06,0.023224375
,,,-3.59E-06,0.023161875
,,,-3.58E-06,0.0232375
,,,-3.57E-06,0.02304125
,,,-3.56E-06,0.023228125
,,,-3.55E-06,0.023328125
,,,-3.54E-06,0.023079375
,,,-3.53E-06,0.0230975
,,,-3.52E-06,0.02322375
,,,-3.51E-06,0.023236875
,,,-3.5E-06,0.023104375
,,,-3.49E-06,0.022896875
,,,-3.48E-06,0.0230825
,,,-3.47E-06,0.02317375
,,,-3.46E-06,0.023208125
,,,-3.45E-06,0.023100625
,,,-3.44E-06,0.023316875
,,,-3.43E-06,0.022961875
,,,-3.42E-06,0.02294875
,,,-3.41E-06,0.023105
,,,-3.4E-06,0.023149375
,,,-3.39E-06,0.023001875
,,,-3.38E-06,0.023360625
,,,-3.37E-06,0.023079375
,,,-3.36E-06,0.02312875
,,,-3.35E-06,0.023154375
,,,-3.34E-06,0.023155
,,,-3.33E-06,0.0232025
,,,-3.32E-06,0.02319125
,,,-3.31E-06,0.023103125
,,,-3.3E-06,0.023209375
,,,-3.29E-06,0.0230375
,,,-3.28E-06,0.022915
,,,-3.27E-06,0.023308125
,,,-3.26E-06,0.022836875
,,,-3.25E-06,0.022581875
,,,-3.24E-06,0.023110625
,,,-3.23E-06,0.023019375
,,,-3.22E-06,0.02304
,,,-3.21E-06,0.023025625
,,,-3.2E-06,0.02269875
,,,-3.19E-06,0.02312625
,,,-3.18E-06,0.022999375
,,,-3.17E-06,0.023329375
,,,-3.16E-06,0.022875
,,,-3.15E-06,0.023331875
,,,-3.14E-06,0.023370625
,,,-3.13E-06,0.02340375
,,,-3.12E-06,0.023296875
,,,-3.11E-06,0.022993125
,,,-3.1E-06,0.02317375
,,,-3.09E-06,0.023001875
,,,-3.08E-06,0.023128125
,,,-3.07E-06,0.0229075
,,,-3.06E-06,0.023314375
,,,-3.05E-06,0.023163125
,,,-3.04E-06,0.022815
,,,-3.03E-06,0.02319625
,,,-3.02E-06,0.023095
,,,-3.01E-06,0.023075625
,,,-3E-06,0.02312
,,,-2.99E-06,0.0232775
,,,-2.98E-06,0.02321875
,,,-2.97E-06,0.022941875
,,,-2.96E-06,0.023246875
,,,-2.95E-06,0.023145625
,,,-2.94E-06,0.023286875
,,,-2.93E-06,0.02316
,,,-2.92E-06,0.023126875
,,,-2.91E-06,0.0232975
,,,-2.9E-06,0.023304375
,,,-2.89E-06,0.023525
,,,-2.88E-06,0.023278125
,,,-2.87E-06,0.023350625
,,,-2.86E-06,0.0232725
,,,-2.85E-06,0.023280625
,,,-2.84E-06,0.02318125
,,,-2.83E-06,0.023039375
,,,-2.82E-06,0.02334875
,,,-2.81E-06,0.02294
,,,-2.8E-06,0.023288125
,,,-2.79E-06,0.02314125
,,,-2.78E-06,0.02327375
,,,-2.77E-06,0.02306
,,,-2.76E-06,0.023036875
,,,-2.75E-06,0.02332875
,,,-2.74E-06,0.0229625
,,,-2.73E-06,0.023306875
,,,-2.72E-06,0.023156875
,,,-2.71E-06,0.023138125
,,,-2.7E-06,0.0232175
,,,-2.69E-06,0.023331875
,,,-2.68E-06,0.023295
,,,-2.67E-06,0.02312
,,,-2.66E-06,0.0231975
,,,-2.65E-06,0.02318375
,,,-2.64E-06,0.0229625
,,,-2.63E-06,0.023168125
,,,-2.62E-06,0.0231925
,,,-2.61E-06,0.0229975
,,,-2.6E-06,0.023329375
,,,-2.59E-06,0.023195625
,,,-2.58E-06,0.023205
,,,-2.57E-06,0.023108125
,,,-2.56E-06,0.023024375
,,,-2.55E-06,0.023211875
,,,-2.54E-06,0.023174375
,,,-2.53E-06,0.022968125
,,,-2.52E-06,0.023275
,,,-2.51E-06,0.02316625
,,,-2.5E-06,0.0231475
,,,-2.49E-06,0.02323625
,,,-2.48E-06,0.022975
,,,-2.47E-06,0.02313875
,,,-2.46E-06,0.022923125
,,,-2.45E-06,0.02315125
,,,-2.44E-06,0.0232775
,,,-2.43E-06,0.023325625
,,,-2.42E-06,0.022963125
,,,-2.41E-06,0.0231525
,,,-2.4E-06,0.023065625
,,,-2.39E-06,0.022890625
,,,-2.38E-06,0.023250625
,,,-2.37E-06,0.022978125
,,,-2.36E-06,0.02327125
,,,-2.35E-06,0.022955625
,,,-2.34E-06,0.023448125
,,,-2.33E-06,0.023305
,,,-2.32E-06,0.023158125
,,,-2.31E-06,0.02325375
,,,-2.3E-06,0.023255625
,,,-2.29E-06,0.0232075
,,,-2.28E-06,0.023133125
,,,-2.27E-06,0.023099375
,,,-2.26E-06,0.023315625
,,,-2.25E-06,0.02334
,,,-2.24E-06,0.023188125
,,,-2.23E-06,0.023386875
,,,-2.22E-06,0.02314875
,,,-2.21E-06,0.023358125
,,,-2.2E-06,0.023225625
,,,-2.19E-06,0.023221875
,,,-2.18E-06,0.0233825
,,,-2.17E-06,0.02332375
,,,-2.16E-06,0.023278125
,,,-2.15E-06,0.023140625
,,,-2.14E-06,0.02308
,,,-2.13E-06,0.02286875
,,,-2.12E-06,0.02298375
,,,-2.11E-06,0.022871875
,,,-2.1E-06,0.023071875
,,,-2.09E-06,0.02318875
,,,-2.08E-06,0.0232475
,,,-2.07E-06,0.023104375
,,,-2.06E-06,0.02327
,,,-2.05E-06,0.02337625
,,,-2.04E-06,0.023163125
,,,-2.03E-06,0.023138125
,,,-2.02E-06,0.023249375
,,,-2.01E-06,0.02339125
,,,-2E-06,0.02343875
,,,-1.99E-06,0.02309
,,,-1.98E-06,0.023228125
,,,-1.97E-06,0.02328125
,,,-1.96E-06,0.02318
,,,-1.95E-06,0.02291
,,,-1.94E-06,0.023005
,,,-1.93E-06,0.023151875
,,,-1.92E-06,0.02364125
,,,-1.91E-06,0.02324375
,,,-1.9E-06,0.023011875
,,,-1.89E-06,0.02287875
,,,-1.88E-06,0.0230225
,,,-1.87E-06,0.022868125
,,,-1.86E-06,0.023285
,,,-1.85E-06,0.02344125
,,,-1.84E-06,0.02303375
,,,-1.83E-06,0.023445625
,,,-1.82E-06,0.023075
,,,-1.81E-06,0.02294375
,,,-1.8E-06,0.02309
,,,-1.79E-06,0.023256875
,,,-1.78E-06,0.023143125
,,,-1.77E-06,0.02336875
,,,-1.76E-06,0.023008125
,,,-1.75E-06,0.023339375
,,,-1.74E-06,0.023189375
,,,-1.73E-06,0.02300875
,,,-1.72E-06,0.023058125
,,,-1.71E-06,0.022988125
,,,-1.7E-06,0.02287625
,,,-1.69E-06,0.023120625
,,,-1.68E-06,0.022995
,,,-1.67E-06,0.023111875
,,,-1.66E-06,0.02302875
,,,-1.65E-06,0.022931875
,,,-1.64E-06,0.02331625
,,,-1.63E-06,0.02312125
,,,-1.62E-06,0.023076875
,,,-1.61E-06,0.022993125
,,,-1.6E-06,0.023243125
,,,-1.59E-06,0.02323875
,,,-1.58E-06,0.023373125
,,,-1.57E-06,0.023299375
,,,-1.56E-06,0.02319
,,,-1.55E-06,0.02328875
,,,-1.54E-06,0.023318125
,,,-1.53E-06,0.023281875
,,,-1.52E-06,0.023131875
,,,-1.51E-06,0.023050625
,,,-1.5E-06,0.023045
,,,-1.49E-06,0.023020625
,,,-1.48E-06,0.0231525
,,,-1.47E-06,0.0230675
,,,-1.46E-06,0.023026875
,,,-1.45E-06,0.0229725
,,,-1.44E-06,0.0230375
,,,-1.43E-06,0.022945
,,,-1.42E-06,0.0231075
,,,-1.41E-06,0.02319875
,,,-1.4E-06,0.023235625
,,,-1.39E-06,0.0231175
,,,-1.38E-06,0.02304
,,,-1.37E-06,0.023375
,,,-1.36E-06,0.0231575
,,,-1.35E-06,0.0231975
,,,-1.34E-06,0.02326
,,,-1.33E-06,0.023133125
,,,-1.32E-06,0.02315125
,,,-1.31E-06,0.02328
,,,-1.3E-06,0.0231275
,,,-1.29E-06,0.023140625
,,,-1.28E-06,0.023011875
,,,-1.27E-06,0.023140625
,,,-1.26E-06,0.02310875
,,,-1.25E-06,0.023354375
,,,-1.24E-06,0.022859375
,,,-1.23E-06,0.023043125
,,,-1.22E-06,0.023119375
,,,-1.21E-06,0.02325375
,,,-1.2E-06,0.023084375
,,,-1.19E-06,0.023125625
,,,-1.18E-06,0.0232775
,,,-1.17E-06,0.023158125
,,,-1.16E-06,0.0230025
,,,-1.15E-06,0.023019375
,,,-1.14E-06,0.023168125
,,,-1.13E-06,0.0231875
,,,-1.12E-06,0.02328875
,,,-1.11E-06,0.023105
,,,-1.1E-06,0.02332625
,,,-1.09E-06,0.02332
,,,-1.08E-06,0.023221875
,,,-1.07E-06,0.023275
,,,-1.06E-06,0.023114375
,,,-1.05E-06,0.022923125
,,,-1.04E-06,0.02313625
,,,-1.03E-06,0.023340625
,,,-1.02E-06,0.023185
,,,-1.01E-06,0.02315375
,,,-1E-06,0.023166875
,,,-9.9E-07,0.023004375
,,,-9.8E-07,0.02306375
,,,-9.7E-07,0.02312625
,,,-9.6E-07,0.023148125
,,,-9.5E-07,0.023105
,,,-9.4E-07,0.02306125
,,,-9.3E-07,0.0232275
,,,-9.2E-07,0.02349
,,,-9.1E-07,0.02325875
,,,-9E-07,0.0233
,,,-8.9E-07,0.023148125
,,,-8.8E-07,0.023029375
,,,-8.7E-07,0.0232675
,,,-8.6E-07,0.023034375
,,,-8.5E-07,0.023148125
,,,-8.4E-07,0.023396875
,,,-8.3E-07,0.02327625
,,,-8.2E-07,0.0233125
,,,-8.1E-07,0.023048125
,,,-8E-07,0.0230175
,,,-7.9E-07,0.022998125
,,,-7.8E-07,0.023289375
,,,-7.7E-07,0.02316625
,,,-7.6E-07,0.0232575
,,,-7.5E-07,0.023134375
,,,-7.4E-07,0.023291875
,,,-7.3E-07,0.023265
,,,-7.2E-07,0.023123125
,,,-7.1E-07,0.023131875
,,,-7E-07,0.023131875
,,,-6.9E-07,0.022991875
,,,-6.8E-07,0.022915625
,,,-6.7E-07,0.02331875
,,,-6.6E-07,0.02329375
,,,-6.5E-07,0.0232675
,,,-6.4E-07,0.023038125
,,,-6.3E-07,0.02315625
,,,-6.2E-07,0.0230825
,,,-6.1E-07,0.0233325
,,,-6E-07,0.023144375
,,,-5.9E-07,0.023258125
,,,-5.8E-07,0.023006875
,,,-5.7E-07,0.023073125
,,,-5.6E-07,0.023
,,,-5.5E-07,0.02276625
,,,-5.4E-07,0.02326375
,,,-5.3E-07,0.02293125
,,,-5.2E-07,0.023363125
,,,-5.1E-07,0.02317
,,,-5E-07,0.023349375
,,,-4.9E-07,0.0230975
,,,-4.8E-07,0.023069375
,,,-4.7E-07,0.023018125
,,,-4.6E-07,0.02318
,,,-4.5E-07,0.0233075
,,,-4.4E-07,0.023356875
,,,-4.3E-07,0.023345625
,,,-4.2E-07,0.023315
,,,-4.1E-07,0.022959375
,,,-4E-07,0.023198125
,,,-3.9E-07,0.022975
,,,-3.8E-07,0.023016875
,,,-3.7E-07,0.02309
,,,-3.6E-07,0.023225625
,,,-3.5E-07,0.0229175
,,,-3.4E-07,0.02331625
,,,-3.3E-07,0.022726875
,,,-3.2E-07,0.02313875
,,,-3.1E-07,0.02325125
,,,-3E-07,0.023196875
,,,-2.9E-07,0.023333125
,,,-2.8E-07,0.023029375
,,,-2.7E-07,0.02296
,,,-2.6E-07,0.02318875
,,,-2.5E-07,0.023245
,,,-2.4E-07,0.023140625
,,,-2.3E-07,0.0233025
,,,-2.2E-07,0.023284375
,,,-2.1E-07,0.023053125
,,,-2E-07,0.02340875
,,,-1.9E-07,0.0233325
,,,-1.8E-07,0.02339875
,,,-1.7E-07,0.022998125
,,,-1.6E-07,0.0231375
,,,-1.5E-07,0.023366875
,,,-1.4E-07,0.023129375
,,,-1.3E-07,0.02290375
,,,-1.2E-07,0.02313
,,,-1.1E-07,0.02307625
,,,-1E-07,0.023015
,,,-9E-08,0.0234475
,,,-8E-08,0.022716875
,,,-7E-08,0.02271625
,,,-6E-08,0.023100625
,,,-5E-08,0.023149375
,,,-4E-08,0.0232925
,,,-3E-08,0.023853125
,,,-2E-08,0.02243125
,,,-1E-08,0.0222925
,,,0,0.0225325
,,,1E-08,0.024046875
,,,2E-08,0.02427875
,,,3E-08,0.02388625
,,,4E-08,0.022985625
,,,5E-08,0.0226225
,,,6E-08,0.02226875
,,,7E-08,0.02312875
,,,8E-08,0.0234425
,,,9E-08,0.0235875
,,,1E-07,0.023631875
,,,1.1E-07,0.023451875
,,,1.2E-07,0.022843125
,,,1.3E-07,0.022526875
,,,1.4E-07,0.022915
,,,1.5E-07,0.023245625
,,,1.6E-07,0.02323
,,,1.7E-07,0.023199375
,,,1.8E-07,0.0229475
,,,1.9E-07,0.0232075
,,,2E-07,0.023205
,,,2.1E-07,0.0231275
,,,2.2E-07,0.023105
,,,2.3E-07,0.023159375
,,,2.4E-07,0.023375625
,,,2.5E-07,0.02308875
,,,2.6E-07,0.02331125
,,,2.7E-07,0.023231875
,,,2.8E-07,0.0229275
,,,2.9E-07,0.022995
,,,3E-07,0.023066875
,,,3.1E-07,0.023060625
,,,3.2E-07,0.023044375
,,,3.3E-07,0.023098125
,,,3.4E-07,0.023395
,,,3.5E-07,0.0227925
,,,3.6E-07,0.023308125
,,,3.7E-07,0.023445625
,,,3.8E-07,0.02316
,,,3.9E-07,0.023205
,,,4E-07,0.023095
,,,4.1E-07,0.0229075
,,,4.2E-07,0.0231775
,,,4.3E-07,0.023390625
,,,4.4E-07,0.0231775
,,,4.5E-07,0.023144375
,,,4.6E-07,0.023253125
,,,4.7E-07,0.02334125
,,,4.8E-07,0.023204375
,,,4.9E-07,0.023180625
,,,5E-07,0.023376875
,,,5.1E-07,0.023143125
,,,5.2E-07,0.0234225
,,,5.3E-07,0.023365
,,,5.4E-07,0.022923125
,,,5.5E-07,0.022974375
,,,5.6E-07,0.023231875
,,,5.7E-07,0.023161875
,,,5.8E-07,0.02326625
,,,5.9E-07,0.022713125
,,,6E-07,0.023038125
,,,6.1E-07,0.023199375
,,,6.2E-07,0.0230125
,,,6.3E-07,0.023049375
,,,6.4E-07,0.023155
,,,6.5E-07,0.023243125
,,,6.6E-07,0.023175625
,,,6.7E-07,0.0230025
,,,6.8E-07,0.02331625
,,,6.9E-07,0.023381875
,,,7E-07,0.02313125
,,,7.1E-07,0.023210625
,,,7.2E-07,0.023431875
,,,7.3E-07,0.023253125
,,,7.4E-07,0.02318
,,,7.5E-07,0.023120625
,,,7.6E-07,0.02303
,,,7.7E-07,0.023111875
,,,7.8E-07,0.023154375
,,,7.9E-07,0.0230275
,,,8E-07,0.023010625
,,,8.1E-07,0.023099375
,,,8.2E-07,0.023178125
,,,8.3E-07,0.02317375
,,,8.4E-07,0.023353125
,,,8.5E-07,0.023040625
,,,8.6E-07,0.023023125
,,,8.7E-07,0.02323625
,,,8.8E-07,0.023316875
,,,8.9E-07,0.022983125
,,,9E-07,0.023218125
,,,9.1E-07,0.0232975
,,,9.2E-07,0.02314
,,,9.3E-07,0.02335625
,,,9.4E-07,0.02318625
,,,9.5E-07,0.02300875
,,,9.6E-07,0.023185
,,,9.7E-07,0.02344625
,,,9.8E-07,0.023023125
,,,9.9E-07,0.0232425
,,,1E-06,0.023044375
,,,1.01E-06,0.02299875
,,,1.02E-06,0.023036875
,,,1.03E-06,0.02317125
,,,1.04E-06,0.02304375
,,,1.05E-06,0.022825
,,,1.06E-06,0.023069375
,,,1.07E-06,0.0230075
,,,1.08E-06,0.023143125
,,,1.09E-06,0.02302125
,,,1.1E-06,0.02314875
,,,1.11E-06,0.02306375
,,,1.12E-06,0.02286875
,,,1.13E-06,0.02309625
,,,1.14E-06,0.02337
,,,1.15E-06,0.023149375
,,,1.16E-06,0.023208125
,,,1.17E-06,0.02296375
,,,1.18E-06,0.02309375
,,,1.19E-06,0.023098125
,,,1.2E-06,0.023139375
,,,1.21E-06,0.023386875
,,,1.22E-06,0.02311375
,,,1.23E-06,0.02313625
,,,1.24E-06,0.023165
,,,1.25E-06,0.02302875
,,,1.26E-06,0.023305625
,,,1.27E-06,0.0232375
,,,1.28E-06,0.0231725
,,,1.29E-06,0.02301
,,,1.3E-06,0.02332875
,,,1.31E-06,0.02336625
,,,1.32E-06,0.0232025
,,,1.33E-06,0.023173125
,,,1.34E-06,0.02306375
,,,1.35E-06,0.023225
,,,1.36E-06,0.022905
,,,1.37E-06,0.023165
,,,1.38E-06,0.02302375
,,,1.39E-06,0.023199375
,,,1.4E-06,0.023191875
,,,1.41E-06,0.022854375
,,,1.42E-06,0.0229575
,,,1.43E-06,0.023334375
,,,1.44E-06,0.022845
,,,1.45E-06,0.023194375
,,,1.46E-06,0.02335125
,,,1.47E-06,0.022848125
,,,1.48E-06,0.0232475
,,,1.49E-06,0.022975625
,,,1.5E-06,0.02318375
,,,1.51E-06,0.022978125
,,,1.52E-06,0.023325625
,,,1.53E-06,0.023135
,,,1.54E-06,0.023168125
,,,1.55E-06,0.023301875
,,,1.56E-06,0.023118125
,,,1.57E-06,0.023041875
,,,1.58E-06,0.023158125
,,,1.59E-06,0.02297125
,,,1.6E-06,0.0233175
,,,1.61E-06,0.022963125
,,,1.62E-06,0.02299125
,,,1.63E-06,0.0230875
,,,1.64E-06,0.023245625
,,,1.65E-06,0.023255
,,,1.66E-06,0.023105
,,,1.67E-06,0.02300875
,,,1.68E-06,0.023155
,,,1.69E-06,0.02315
,,,1.7E-06,0.023043125
,,,1.71E-06,0.0232625
,,,1.72E-06,0.023110625
,,,1.73E-06,0.02312
,,,1.74E-06,0.022815625
,,,1.75E-06,0.02309625
,,,1.76E-06,0.0230975
,,,1.77E-06,0.02318
,,,1.78E-06,0.023038125
,,,1.79E-06,0.023339375
,,,1.8E-06,0.023251875
,,,1.81E-06,0.0231125
,,,1.82E-06,0.023253125
,,,1.83E-06,0.02339625
,,,1.84E-06,0.02309125
,,,1.85E-06,0.023216875
,,,1.86E-06,0.0231
,,,1.87E-06,0.023064375
,,,1.88E-06,0.0232975
,,,1.89E-06,0.02320625
,,,1.9E-06,0.02320625
,,,1.91E-06,0.023146875
,,,1.92E-06,0.023231875
,,,1.93E-06,0.023063125
,,,1.94E-06,0.023231875
,,,1.95E-06,0.023046875
,,,1.96E-06,0.022993125
,,,1.97E-06,0.022970625
,,,1.98E-06,0.022991875
,,,1.99E-06,0.023421875
,,,2E-06,0.023028125
,,,2.01E-06,0.0229575
,,,2.02E-06,0.02296
,,,2.03E-06,0.0232175
,,,2.04E-06,0.02302125
,,,2.05E-06,0.023278125
,,,2.06E-06,0.02316
,,,2.07E-06,0.02351625
,,,2.08E-06,0.02285125
,,,2.09E-06,0.023179375
,,,2.1E-06,0.023005625
,,,2.11E-06,0.02317875
,,,2.12E-06,0.023123125
,,,2.13E-06,0.023075625
,,,2.14E-06,0.023115
,,,2.15E-06,0.02306
,,,2.16E-06,0.023006875
,,,2.17E-06,0.023235
,,,2.18E-06,0.023065
,,,2.19E-06,0.0228875
,,,2.2E-06,0.022930625
,,,2.21E-06,0.0231925
,,,2.22E-06,0.023196875
,,,2.23E-06,0.023216875
,,,2.24E-06,0.02330625
,,,2.25E-06,0.023171875
,,,2.26E-06,0.02335125
,,,2.27E-06,0.023123125
,,,2.28E-06,0.023165
,,,2.29E-06,0.023079375
,,,2.3E-06,0.023065625
,,,2.31E-06,0.02323875
,,,2.32E-06,0.023251875
,,,2.33E-06,0.02320625
,,,2.34E-06,0.0232375
,,,2.35E-06,0.023165
,,,2.36E-06,0.023283125
,,,2.37E-06,0.022959375
,,,2.38E-06,0.023246875
,,,2.39E-06,0.023005625
,,,2.4E-06,0.023015
,,,2.41E-06,0.023214375
,,,2.42E-06,0.023249375
,,,2.43E-06,0.02330375
,,,2.44E-06,0.0233475
,,,2.45E-06,0.023180625
,,,2.46E-06,0.02338375
,,,2.47E-06,0.023101875
,,,2.48E-06,0.023215625
,,,2.49E-06,0.023034375
,,,2.5E-06,0.02335375
,,,2.51E-06,0.023249375
,,,2.52E-06,0.023164375
,,,2.53E-06,0.0228525
,,,2.54E-06,0.02310125
,,,2.55E-06,0.02339875
,,,2.56E-06,0.023109375
,,,2.57E-06,0.023205625
,,,2.58E-06,0.023110625
,,,2.59E-06,0.023430625
,,,2.6E-06,0.0230525
,,,2.61E-06,0.023071875
,,,2.62E-06,0.023098125
,,,2.63E-06,0.0234075
,,,2.64E-06,0.02322625
,,,2.65E-06,0.0231275
,,,2.66E-06,0.022725625
,,,2.67E-06,0.02315875
,,,2.68E-06,0.02309625
,,,2.69E-06,0.0231725
,,,2.7E-06,0.0231575
,,,2.71E-06,0.023373125
,,,2.72E-06,0.023361875
,,,2.73E-06,0.02321625
,,,2.74E-06,0.02308
,,,2.75E-06,0.023251875
,,,2.76E-06,0.023288125
,,,2.77E-06,0.023148125
,,,2.78E-06,0.02313
,,,2.79E-06,0.02347875
,,,2.8E-06,0.02308125
,,,2.81E-06,0.023164375
,,,2.82E-06,0.0230925
,,,2.83E-06,0.022995625
,,,2.84E-06,0.022875625
,,,2.85E-06,0.02345625
,,,2.86E-06,0.023025625
,,,2.87E-06,0.023088125
,,,2.88E-06,0.023198125
,,,2.89E-06,0.0233875
,,,2.9E-06,0.023275
,,,2.91E-06,0.023053125
,,,2.92E-06,0.023249375
,,,2.93E-06,0.022958125
,,,2.94E-06,0.0233025
,,,2.95E-06,0.02311375
,,,2.96E-06,0.02298
,,,2.97E-06,0.02323875
,,,2.98E-06,0.023231875
,,,2.99E-06,0.02329625
,,,3E-06,0.023314375
,,,3.01E-06,0.02299375
,,,3.02E-06,0.02318625
,,,3.03E-06,0.023248125
,,,3.04E-06,0.0230075
,,,3.05E-06,0.023128125
,,,3.06E-06,0.0231375
,,,3.07E-06,0.023201875
,,,3.08E-06,0.0229125
,,,3.09E-06,0.02320375
,,,3.1E-06,0.023051875
,,,3.11E-06,0.02336125
,,,3.12E-06,0.023120625
,,,3.13E-06,0.023389375
,,,3.14E-06,0.022916875
,,,3.15E-06,0.0231275
,,,3.16E-06,0.023370625
,,,3.17E-06,0.02333
,,,3.18E-06,0.023279375
,,,3.19E-06,0.02331875
,,,3.2E-06,0.02339
,,,3.21E-06,0.023215
,,,3.22E-06,0.02311625
,,,3.23E-06,0.02293125
,,,3.24E-06,0.0231475
,,,3.25E-06,0.023510625
,,,3.26E-06,0.023145
,,,3.27E-06,0.023325625
,,,3.28E-06,0.02321
,,,3.29E-06,0.0232625
,,,3.3E-06,0.0233
,,,3.31E-06,0.023339375
,,,3.32E-06,0.023208125
,,,3.33E-06,0.023294375
,,,3.34E-06,0.023311875
,,,3.35E-06,0.023091875
,,,3.36E-06,0.023118125
,,,3.37E-06,0.023475
,,,3.38E-06,0.023115625
,,,3.39E-06,0.023258125
,,,3.4E-06,0.023425625
,,,3.41E-06,0.022995625
,,,3.42E-06,0.0232275
,,,3.43E-06,0.02337
,,,3.44E-06,0.02308125
,,,3.45E-06,0.02310375
,,,3.46E-06,0.02307375
,,,3.47E-06,0.0231225
,,,3.48E-06,0.022910625
,,,3.49E-06,0.023209375
,,,3.5E-06,0.022878125
,,,3.51E-06,0.0231875
,,,3.52E-06,0.02339375
,,,3.53E-06,0.0230925
,,,3.54E-06,0.023130625
,,,3.55E-06,0.0230225
,,,3.56E-06,0.023131875
,,,3.57E-06,0.023018125
