data/raw/Final_POL_Test_1/SOP072_Ch3.csv

"Record Length",1000,"Points",-5E-06,0.021725626
"Sample Interval",1E-08,s,-4.99E-06,0.021504376
"Trigger Point",500,"Samples",-4.98E-06,0.021608751
"Trigger Time",0,s,-4.97E-06,0.021613126
"",,,-4.96E-06,0.021724376
"Horizontal Offset",-5E-06,s,-4.95E-06,0.021594376
,,,-4.94E-06,0.021588751
,,,-4.93E-06,0.021345001
,,,-4.92E-06,0.021401876
,,,-4.91E-06,0.021480626
,,,-4.9E-06,0.021695626
,,,-4.89E-06,0.021339376
,,,-4.88E-06,0.021840626
,,,-4.87E-06,0.021773126
,,,-4.86E-06,0.021547501
,,,-4.85E-06,0.021610001
,,,-4.84E-06,0.021595001
,,,-4.83E-06,0.021463751
,,,-4.82E-06,0.021675626
,,,-4.81E-06,0.021581876
,,,-4.8E-06,0.021657501
,,,-4.79E-06,0.021680626
,,,-4.78E-06,0.021499376
,,,-4.77E-06,0.021444376
,,,-4.76E-06,0.021546251
,,,-4.75E-06,0.021361876
,,,-4.74E-06,0.021381876
,,,-4.73E-06,0.021700626
,,,-4.72E-06,0.021508126
,,,-4.71E-06,0.021545626
,,,-4.7E-06,0.021610626
,,,-4.69E-06,0.021667501
,,,-4.68E-06,0.021643751
,,,-4.67E-06,0.021456251
,,,-4.66E-06,0.021596251
,,,-4.65E-06,0.021613751
,,,-4.64E-06,0.021613126
,,,-4.63E-06,0.021800626
,,,-4.62E-06,0.021382501
,,,-4.61E-06,0.021810001
,,,-4.6E-06,0.021521876
,,,-4.59E-06,0.021310626
,,,-4.58E-06,0.021419376
,,,-4.57E-06,0.021510626
,,,-4.56E-06,0.021450626
,,,-4.55E-06,0.021610001
,,,-4.54E-06,0.021519376
,,,-4.53E-06,0.021671876
,,,-4.52E-06,0.021675626
,,,-4.51E-06,0.021595001
,,,-4.5E-06,0.021669376
,,,-4.49E-06,0.021561876
,,,-4.48E-06,0.021738751
,,,-4.47E-06,0.021499376
,,,-4.46E-06,0.021398751
,,,-4.45E-06,0.021617501
,,,-4.44E-06,0.021488126
,,,-4.43E-06,0.021486251
,,,-4.42E-06,0.021623751
,,,-4.41E-06,0.021651251
,,,-4.4E-06,0.021640626
,,,-4.39E-06,0.021760626
,,,-4.38E-06,0.021589376
,,,-4.37E-06,0.021380626
,,,-4.36E-06,0.021561876
,,,-4.35E-06,0.021525626
,,,-4.34E-06,0.021636251
,,,-4.33E-06,0.021340001
,,,-4.32E-06,0.021579376
,,,-4.31E-06,0.021645626
,,,-4.3E-06,0.021781251
,,,-4.29E-06,0.021678126
,,,-4.28E-06,0.021580626
,,,-4.27E-06,0.021590001
,,,-4.26E-06,0.021606251
,,,-4.25E-06,0.021376876
,,,-4.24E-06,0.021698126
,,,-4.23E-06,0.021548126
,,,-4.22E-06,0.021635626
,,,-4.21E-06,0.021513751
,,,-4.2E-06,0.021448751
,,,-4.19E-06,0.021581876
,,,-4.18E-06,0.021955001
,,,-4.17E-06,0.021795001
,,,-4.16E-06,0.021492501
,,,-4.15E-06,0.021714376
,,,-4.14E-06,0.021500001
,,,-4.13E-06,0.021658751
,,,-4.12E-06,0.021556251
,,,-4.11E-06,0.021713126
,,,-4.1E-06,0.021712501
,,,-4.09E-06,0.021577501
,,,-4.08E-06,0.021598126
,,,-4.07E-06,0.021639376
,,,-4.06E-06,0.021575626
,,,-4.05E-06,0.021577501
,,,-4.04E-06,0.021656251
,,,-4.03E-06,0.021430626
,,,-4.02E-06,0.021558126
,,,-4.01E-06,0.021573126
,,,-4E-06,0.021555001
,,,-3.99E-06,0.021686251
,,,-3.98E-06,0.021808126
,,,-3.97E-06,0.021475626
,,,-3.96E-06,0.021591251
,,,-3.95E-06,0.021411251
,,,-3.94E-06,0.021511876
,,,-3.93E-06,0.021552501
,,,-3.92E-06,0.021724376
,,,-3.91E-06,0.021411251
,,,-3.9E-06,0.021548751
,,,-3.89E-06,0.021688126
,,,-3.88E-06,0.021533751
,,,-3.87E-06,0.021691876
,,,-3.86E-06,0.021545001
,,,-3.85E-06,0.021564376
,,,-3.84E-06,0.021558751
,,,-3.83E-06,0.021430001
,,,-3.82E-06,0.021628126
,,,-3.81E-06,0.021621251
,,,-3.8E-06,0.021525001
,,,-3.79E-06,0.021754376
,,,-3.78E-06,0.021601251
,,,-3.77E-06,0.021586251
,,,-3.76E-06,0.021154376
,,,-3.75E-06,0.021624376
,,,-3.74E-06,0.021587501
,,,-3.73E-06,0.021655001
,,,-3.72E-06,0.021512501
,,,-3.71E-06,0.021576876
,,,-3.7E-06,0.021526251
,,,-3.69E-06,0.021669376
,,,-3.68E-06,0.021834376
,,,-3.67E-06,0.021618751
,,,-3.66E-06,0.021511251
,,,-3.65E-06,0.021662501
,,,-3.64E-06,0.021400001
,,,-3.63E-06,0.021537501
,,,-3.62E-06,0.021516251
,,,-3.61E-06,0.021454376
,,,-3.6E-06,0.021786251
,,,-3.59E-06,0.021638751
,,,-3.58E-06,0.021596251
,,,-3.57E-06,0.021594376
,,,-3.56E-06,0.021608751
,,,-3.55E-06,0.021706876
,,,-3.54E-06,0.021654376
,,,-3.53E-06,0.021478751
,,,-3.52E-06,0.021376251
,,,-3.51E-06,0.021463751
,,,-3.5E-06,0.021514376
,,,-3.49E-06,0.021466876
,,,-3.48E-06,0.021772501
,,,-3.47E-06,0.021597501
,,,-3.46E-06,0.021606876
,,,-3.45E-06,0.021535626
,,,-3.44E-06,0.021709376
,,,-3.43E-06,0.021715001
,,,-3.42E-06,0.021737501
,,,-3.41E-06,0.021542501
,,,-3.4E-06,0.021473126
,,,-3.39E-06,0.021617501
,,,-3.38E-06,0.021530001
,,,-3.37E-06,0.021715626
,,,-3.36E-06,0.021503751
,,,-3.35E-06,0.021623751
,,,-3.34E-06,0.021446876
,,,-3.33E-06,0.021335626
,,,-3.32E-06,0.021768126
,,,-3.31E-06,0.021460001
,,,-3.3E-06,0.021815001
,,,-3.29E-06,0.021663751
,,,-3.28E-06,0.021552501
,,,-3.27E-06,0.021851251
,,,-3.26E-06,0.021555001
,,,-3.25E-06,0.021313751
,,,-3.24E-06,0.021670001
,,,-3.23E-06,0.021627501
,,,-3.22E-06,0.021489376
,,,-3.21E-06,0.021270626
,,,-3.2E-06,0.021643126
,,,-3.19E-06,0.021635626
,,,-3.18E-06,0.021619376
,,,-3.17E-06,0.021543751
,,,-3.16E-06,0.021661251
,,,-3.15E-06,0.021561876
,,,-3.14E-06,0.021632501
,,,-3.13E-06,0.021541251
,,,-3.12E-06,0.021290001
,,,-3.11E-06,0.021497501
,,,-3.1E-06,0.021327501
,,,-3.09E-06,0.021493126
,,,-3.08E-06,0.021624376
,,,-3.07E-06,0.021368751
,,,-3.06E-06,0.021349376
,,,-3.05E-06,0.021352501
,,,-3.04E-06,0.021535001
,,,-3.03E-06,0.021497501
,,,-3.02E-06,0.021613126
,,,-3.01E-06,0.021650001
,,,-3E-06,0.021415626
,,,-2.99E-06,0.021515001
,,,-2.98E-06,0.021528751
,,,-2.97E-06,0.021672501
,,,-2.96E-06,0.021545626
,,,-2.95E-06,0.021688126
,,,-2.94E-06,0.021468751
,,,-2.93E-06,0.021652501
,,,-2.92E-06,0.021626876
,,,-2.91E-06,0.021612501
,,,-2.9E-06,0.021679376
,,,-2.89E-06,0.021291876
,,,-2.88E-06,0.021416251
,,,-2.87E-06,0.021398751
,,,-2.86E-06,0.021433126
,,,-2.85E-06,0.021565626
,,,-2.84E-06,0.021843126
,,,-2.83E-06,0.021648126
,,,-2.82E-06,0.021620001
,,,-2.81E-06,0.021610001
,,,-2.8E-06,0.021480626
,,,-2.79E-06,0.021673126
,,,-2.78E-06,0.021585001
,,,-2.77E-06,0.021531876
,,,-2.76E-06,0.021323751
,,,-2.75E-06,0.021585626
,,,-2.74E-06,0.021538126
,,,-2.73E-06,0.021556876
,,,-2.72E-06,0.021341876
,,,-2.71E-06,0.021596876
,,,-2.7E-06,0.021499376
,,,-2.69E-06,0.021672501
,,,-2.68E-06,0.021593126
,,,-2.67E-06,0.021571876
,,,-2.66E-06,0.021315001
,,,-2.65E-06,0.021486876
,,,-2.64E-06,0.021491876
,,,-2.63E-06,0.021805001
,,,-2.62E-06,0.021423751
,,,-2.61E-06,0.021509376
,,,-2.6E-06,0.021768751
,,,-2.59E-06,0.021584376
,,,-2.58E-06,0.021685626
,,,-2.57E-06,0.021643126
,,,-2.56E-06,0.021589376
,,,-2.55E-06,0.021580001
,,,-2.54E-06,0.021477501
,,,-2.53E-06,0.021646251
,,,-2.52E-06,0.021607501
,,,-2.51E-06,0.021911251
,,,-2.5E-06,0.021400001
,,,-2.49E-06,0.021702501
,,,-2.48E-06,0.021665626
,,,-2.47E-06,0.021616876
,,,-2.46E-06,0.021573751
,,,-2.45E-06,0.021441876
,,,-2.44E-06,0.021526876
,,,-2.43E-06,0.021557501
,,,-2.42E-06,0.021803126
,,,-2.41E-06,0.021522501
,,,-2.4E-06,0.021510626
,,,-2.39E-06,0.021676876
,,,-2.38E-06,0.021262501
,,,-2.37E-06,0.021435626
,,,-2.36E-06,0.021516876
,,,-2.35E-06,0.021481876
,,,-2.34E-06,0.021594376
,,,-2.33E-06,0.021491876
,,,-2.32E-06,0.021511251
,,,-2.31E-06,0.021739376
,,,-2.3E-06,0.021457501
,,,-2.29E-06,0.021616251
,,,-2.28E-06,0.021643126
,,,-2.27E-06,0.021499376
,,,-2.26E-06,0.021603751
,,,-2.25E-06,0.021565626
,,,-2.24E-06,0.021676251
,,,-2.23E-06,0.021590001
,,,-2.22E-06,0.021576251
,,,-2.21E-06,0.021380626
,,,-2.2E-06,0.021433126
,,,-2.19E-06,0.021745626
,,,-2.18E-06,0.021488751
,,,-2.17E-06,0.021723751
,,,-2.16E-06,0.021674376
,,,-2.15E-06,0.021410626
,,,-2.14E-06,0.021691251
,,,-2.13E-06,0.021611876
,,,-2.12E-06,0.021313751
,,,-2.11E-06,0.021535001
,,,-2.1E-06,0.021627501
,,,-2.09E-06,0.021560001
,,,-2.08E-06,0.021332501
,,,-2.07E-06,0.021600001
,,,-2.06E-06,0.021528126
,,,-2.05E-06,0.021521251
,,,-2.04E-06,0.021641876
,,,-2.03E-06,0.021723751
,,,-2.02E-06,0.021714376
,,,-2.01E-06,0.021551251
,,,-2E-06,0.021755001
,,,-1.99E-06,0.021372501
,,,-1.98E-06,0.021562501
,,,-1.97E-06,0.021603126
,,,-1.96E-06,0.021311251
,,,-1.95E-06,0.021451876
,,,-1.94E-06,0.021638126
,,,-1.93E-06,0.021743126
,,,-1.92E-06,0.021658126
,,,-1.91E-06,0.021700626
,,,-1.9E-06,0.021484376
,,,-1.89E-06,0.021373751
,,,-1.88E-06,0.021731876
,,,-1.87E-06,0.021814376
,,,-1.86E-06,0.021815001
,,,-1.85E-06,0.021633751
,,,-1.84E-06,0.021661876
,,,-1.83E-06,0.021919376
,,,-1.82E-06,0.021711876
,,,-1.81E-06,0.021516876
,,,-1.8E-06,0.021587501
,,,-1.79E-06,0.021310001
,,,-1.78E-06,0.021631876
,,,-1.77E-06,0.021693126
,,,-1.76E-06,0.021501251
,,,-1.75E-06,0.021550626
,,,-1.74E-06,0.021479376
,,,-1.73E-06,0.021276876
,,,-1.72E-06,0.021653126
,,,-1.71E-06,0.021270626
,,,-1.7E-06,0.021742501
,,,-1.69E-06,0.021360001
,,,-1.68E-06,0.021454376
,,,-1.67E-06,0.021730626
,,,-1.66E-06,0.021600001
,,,-1.65E-06,0.021555626
,,,-1.64E-06,0.021440626
,,,-1.63E-06,0.021595626
,,,-1.62E-06,0.021418126
,,,-1.61E-06,0.021735001
,,,-1.6E-06,0.021706251
,,,-1.59E-06,0.021353751
,,,-1.58E-06,0.021744376
,,,-1.57E-06,0.021455001
,,,-1.56E-06,0.021550001
,,,-1.55E-06,0.021711251
,,,-1.54E-06,0.021710001
,,,-1.53E-06,0.021622501
,,,-1.52E-06,0.021497501
,,,-1.51E-06,0.021598126
,,,-1.5E-06,0.021313126
,,,-1.49E-06,0.021543751
,,,-1.48E-06,0.021552501
,,,-1.47E-06,0.021538126
,,,-1.46E-06,0.021489376
,,,-1.45E-06,0.021513126
,,,-1.44E-06,0.021700626
,,,-1.43E-06,0.021873126
,,,-1.42E-06,0.021732501
,,,-1.41E-06,0.021481876
,,,-1.4E-06,0.021621876
,,,-1.39E-06,0.021483751
,,,-1.38E-06,0.021727501
,,,-1.37E-06,0.021540001
,,,-1.36E-06,0.021446251
,,,-1.35E-06,0.021745001
,,,-1.34E-06,0.021383126
,,,-1.33E-06,0.021585001
,,,-1.32E-06,0.021521251
,,,-1.31E-06,0.021615626
,,,-1.3E-06,0.021401876
,,,-1.29E-06,0.021238126
,,,-1.28E-06,0.021543126
,,,-1.27E-06,0.021744376
,,,-1.26E-06,0.021757501
,,,-1.25E-06,0.021488126
,,,-1.24E-06,0.021706251
,,,-1.23E-06,0.021369376
,,,-1.22E-06,0.021670001
,,,-1.21E-06,0.021611251
,,,-1.2E-06,0.021485001
,,,-1.19E-06,0.021770001
,,,-1.18E-06,0.021344376
,,,-1.17E-06,0.021621876
,,,-1.16E-06,0.021811876
,,,-1.15E-06,0.021759376
,,,-1.14E-06,0.021555001
,,,-1.13E-06,0.021597501
,,,-1.12E-06,0.021714376
,,,-1.11E-06,0.021608751
,,,-1.1E-06,0.021985001
,,,-1.09E-06,0.021440626
,,,-1.08E-06,0.021578126
,,,-1.07E-06,0.021707501
,,,-1.06E-06,0.021592501
,,,-1.05E-06,0.021571876
,,,-1.04E-06,0.021603751
,,,-1.03E-06,0.021516251
,,,-1.02E-06,0.021658751
,,,-1.01E-06,0.021713126
,,,-1E-06,0.021591876
,,,-9.9E-07,0.021543751
,,,-9.8E-07,0.021382501
,,,-9.7E-07,0.021663126
,,,-9.6E-07,0.021483126
,,,-9.5E-07,0.021701876
,,,-9.4E-07,0.021424376
,,,-9.3E-07,0.021539376
,,,-9.2E-07,0.021469376
,,,-9.1E-07,0.021550626
,,,-9E-07,0.021604376
,,,-8.9E-07,0.021454376
,,,-8.8E-07,0.021597501
,,,-8.7E-07,0.021580626
,,,-8.6E-07,0.021853751
,,,-8.5E-07,0.021630626
,,,-8.4E-07,0.021588751
,,,-8.3E-07,0.021506251
,,,-8.2E-07,0.021420626
,,,-8.1E-07,0.021534376
,,,-8E-07,0.021464376
,,,-7.9E-07,0.021654376
,,,-7.8E-07,0.021678751
,,,-7.7E-07,0.021482501
,,,-7.6E-07,0.021621876
,,,-7.5E-07,0.021652501
,,,-7.4E-07,0.021613751
,,,-7.3E-07,0.021332501
,,,-7.2E-07,0.021605626
,,,-7.1E-07,0.021494376
,,,-7E-07,0.021711251
,,,-6.9E-07,0.021409376
,,,-6.8E-07,0.021711251
,,,-6.7E-07,0.021735626
,,,-6.6E-07,0.022030626
,,,-6.5E-07,0.021566251
,,,-6.4E-07,0.021615626
,,,-6.3E-07,0.021546876
,,,-6.2E-07,0.021513126
,,,-6.1E-07,0.021240001
,,,-6E-07,0.021430001
,,,-5.9E-07,0.021533751
,,,-5.8E-07,0.021525626
,,,-5.7E-07,0.021560626
,,,-5.6E-07,0.021462501
,,,-5.5E-07,0.021455626
,,,-5.4E-07,0.021440001
,,,-5.3E-07,0.021494376
,,,-5.2E-07,0.021803126
,,,-5.1E-07,0.021779376
,,,-5E-07,0.021878126
,,,-4.9E-07,0.021510626
,,,-4.8E-07,0.021353126
,,,-4.7E-07,0.021731876
,,,-4.6E-07,0.021624376
,,,-4.5E-07,0.021661876
,,,-4.4E-07,0.021188751
,,,-4.3E-07,0.021679376
,,,-4.2E-07,0.021487501
,,,-4.1E-07,0.021488751
,,,-4E-07,0.021737501
,,,-3.9E-07,0.021555626
,,,-3.8E-07,0.021633751
,,,-3.7E-07,0.021641876
,,,-3.6E-07,0.021587501
,,,-3.5E-07,0.021585001
,,,-3.4E-07,0.021728751
,,,-3.3E-07,0.021662501
,,,-3.2E-07,0.021343751
,,,-3.1E-07,0.021971251
,,,-3E-07,0.021715001
,,,-2.9E-07,0.021518751
,,,-2.8E-07,0.021453751
,,,-2.7E-07,0.021559376
,,,-2.6E-07,0.021548751
,,,-2.5E-07,0.021467501
,,,-2.4E-07,0.021505001
,,,-2.3E-07,0.021575626
,,,-2.2E-07,0.021558751
,,,-2.1E-07,0.021508751
,,,-2E-07,0.021726876
,,,-1.9E-07,0.021654376
,,,-1.8E-07,0.021558751
,,,-1.7E-07,0.021539376
,,,-1.6E-07,0.021755001
,,,-1.5E-07,0.021400001
,,,-1.4E-07,0.021590001
,,,-1.3E-07,0.021708751
,,,-1.2E-07,0.021490001
,,,-1.1E-07,0.021552501
,,,-1E-07,0.021560626
,,,-9E-08,0.021515626
,,,-8E-08,0.021526251
,,,-7E-08,0.021553751
,,,-6E-08,0.021453126
,,,-5E-08,0.021691251
,,,-4E-08,0.022280626
,,,-3E-08,0.021820626
,,,-2E-08,0.020854376
,,,-1E-08,0.020207501
,,,0,0.021046251
,,,1E-08,0.022754376
,,,2E-08,0.023257501
,,,3E-08,0.022460001
,,,4E-08,0.021043126
,,,5E-08,0.020655626
,,,6E-08,0.020786876
,,,7E-08,0.021351876
,,,8E-08,0.022304376
,,,9E-08,0.022333126
,,,1E-07,0.021934376
,,,1.1E-07,0.021745626
,,,1.2E-07,0.020783751
,,,1.3E-07,0.021152501
,,,1.4E-07,0.021676251
,,,1.5E-07,0.021574376
,,,1.6E-07,0.021850001
,,,1.7E-07,0.021573751
,,,1.8E-07,0.021653126
,,,1.9E-07,0.021579376
,,,2E-07,0.021217501
,,,2.1E-07,0.021590001
,,,2.2E-07,0.021445001
,,,2.3E-07,0.021633126
,,,2.4E-07,0.021964376
,,,2.5E-07,0.021626251
,,,2.6E-07,0.021521251
,,,2.7E-07,0.021808126
,,,2.8E-07,0.021544376
,,,2.9E-07,0.021412501
,,,3E-07,0.021353751
,,,3.1E-07,0.021506876
,,,3.2E-07,0.021644376
,,,3.3E-07,0.021630626
,,,3.4E-07,0.021735001
,,,3.5E-07,0.021307501
,,,3.6E-07,0.021416876
,,,3.7E-07,0.021613126
,,,3.8E-07,0.021516876
,,,3.9E-07,0.021495626
,,,4E-07,0.021252501
,,,4.1E-07,0.021487501
,,,4.2E-07,0.021557501
,,,4.3E-07,0.021855001
,,,4.4E-07,0.021572501
,,,4.5E-07,0.021583126
,,,4.6E-07,0.021467501
,,,4.7E-07,0.021631876
,,,4.8E-07,0.021569376
,,,4.9E-07,0.021632501
,,,5E-07,0.021450626
,,,5.1E-07,0.021590626
,,,5.2E-07,0.021552501
,,,5.3E-07,0.021750001
,,,5.4E-07,0.021423751
,,,5.5E-07,0.021815626
,,,5.6E-07,0.021578126
,,,5.7E-07,0.021541876
,,,5.8E-07,0.021616251
,,,5.9E-07,0.021616876
,,,6E-07,0.021413126
,,,6.1E-07,0.021518751
,,,6.2E-07,0.021484376
,,,6.3E-07,0.021648751
,,,6.4E-07,0.021596876
,,,6.5E-07,0.021609376
,,,6.6E-07,0.021654376
,,,6.7E-07,0.021575001
,,,6.8E-07,0.021555001
,,,6.9E-07,0.021525001
,,,7E-07,0.021388751
,,,7.1E-07,0.021300626
,,,7.2E-07,0.021961251
,,,7.3E-07,0.021636876
,,,7.4E-07,0.021613751
,,,7.5E-07,0.021496251
,,,7.6E-07,0.021589376
,,,7.7E-07,0.021828126
,,,7.8E-07,0.021696876
,,,7.9E-07,0.021871876
,,,8E-07,0.021386876
,,,8.1E-07,0.021474376
,,,8.2E-07,0.021700001
,,,8.3E-07,0.021782501
,,,8.4E-07,0.021487501
,,,8.5E-07,0.021268751
,,,8.6E-07,0.021523751
,,,8.7E-07,0.021746251
,,,8.8E-07,0.021382501
,,,8.9E-07,0.021390626
,,,9E-07,0.021770626
,,,9.1E-07,0.021470626
,,,9.2E-07,0.021497501
,,,9.3E-07,0.021581251
,,,9.4E-07,0.021611251
,,,9.5E-07,0.021552501
,,,9.6E-07,0.021205001
,,,9.7E-07,0.021615626
,,,9.8E-07,0.021611251
,,,9.9E-07,0.021513751
,,,1E-06,0.021811876
,,,1.01E-06,0.021552501
,,,1.02E-06,0.021543126
,,,1.03E-06,0.021435001
,,,1.04E-06,0.021666876
,,,1.05E-06,0.021475001
,,,1.06E-06,0.021725001
,,,1.07E-06,0.021585626
,,,1.08E-06,0.021525001
,,,1.09E-06,0.021548126
,,,1.1E-06,0.021515001
,,,1.11E-06,0.021273751
,,,1.12E-06,0.021606876
,,,1.13E-06,0.021358751
,,,1.14E-06,0.021366876
,,,1.15E-06,0.021678751
,,,1.16E-06,0.021664376
,,,1.17E-06,0.021420626
,,,1.18E-06,0.021635626
,,,1.19E-06,0.021311876
,,,1.2E-06,0.021465626
,,,1.21E-06,0.021629376
,,,1.22E-06,0.021631876
,,,1.23E-06,0.021853126
,,,1.24E-06,0.021688751
,,,1.25E-06,0.021641251
,,,1.26E-06,0.021661876
,,,1.27E-06,0.021509376
,,,1.28E-06,0.021589376
,,,1.29E-06,0.021636876
,,,1.3E-06,0.021862501
,,,1.31E-06,0.021695626
,,,1.32E-06,0.021697501
,,,1.33E-06,0.021579376
,,,1.34E-06,0.021485001
,,,1.35E-06,0.021327501
,,,1.36E-06,0.021735626
,,,1.37E-06,0.021519376
,,,1.38E-06,0.021261251
,,,1.39E-06,0.021427501
,,,1.4E-06,0.021916251
,,,1.41E-06,0.021637501
,,,1.42E-06,0.021524376
,,,1.43E-06,0.021652501
,,,1.44E-06,0.021313751
,,,1.45E-06,0.021637501
,,,1.46E-06,0.021620001
,,,1.47E-06,0.021538751
,,,1.48E-06,0.021746251
,,,1.49E-06,0.021688126
,,,1.5E-06,0.021547501
,,,1.51E-06,0.021640001
,,,1.52E-06,0.021615626
,,,1.53E-06,0.021516876
,,,1.54E-06,0.021665001
,,,1.55E-06,0.021743126
,,,1.56E-06,0.021581876
,,,1.57E-06,0.021655626
,,,1.58E-06,0.021529376
,,,1.59E-06,0.021749376
,,,1.6E-06,0.021585626
,,,1.61E-06,0.021557501
,,,1.62E-06,0.021559376
,,,1.63E-06,0.021468126
,,,1.64E-06,0.021451876
,,,1.65E-06,0.021763126
,,,1.66E-06,0.021580001
,,,1.67E-06,0.021846251
,,,1.68E-06,0.021699376
,,,1.69E-06,0.021406876
,,,1.7E-06,0.021743126
,,,1.71E-06,0.021715001
,,,1.72E-06,0.021495001
,,,1.73E-06,0.021589376
,,,1.74E-06,0.021460626
,,,1.75E-06,0.021708126
,,,1.76E-06,0.021532501
,,,1.77E-06,0.021818126
,,,1.78E-06,0.021706876
,,,1.79E-06,0.021232501
,,,1.8E-06,0.021750001
,,,1.81E-06,0.021574376
,,,1.82E-06,0.021532501
,,,1.83E-06,0.021415626
,,,1.84E-06,0.021475001
,,,1.85E-06,0.021373126
,,,1.86E-06,0.021356876
,,,1.87E-06,0.021612501
,,,1.88E-06,0.021450001
,,,1.89E-06,0.021647501
,,,1.9E-06,0.021462501
,,,1.91E-06,0.021550001
,,,1.92E-06,0.021688126
,,,1.93E-06,0.021545626
,,,1.94E-06,0.021684376
,,,1.95E-06,0.021567501
,,,1.96E-06,0.021712501
,,,1.97E-06,0.021529376
,,,1.98E-06,0.021506251
,,,1.99E-06,0.021460626
,,,2E-06,0.021649376
,,,2.01E-06,0.021640626
,,,2.02E-06,0.021651251
,,,2.03E-06,0.021406251
,,,2.04E-06,0.021908126
,,,2.05E-06,0.021678751
,,,2.06E-06,0.021801251
,,,2.07E-06,0.021409376
,,,2.08E-06,0.021460626
,,,2.09E-06,0.021274376
,,,2.1E-06,0.021410001
,,,2.11E-06,0.021303751
,,,2.12E-06,0.021028751
,,,2.13E-06,0.021645626
,,,2.14E-06,0.021640001
,,,2.15E-06,0.021546251
,,,2.16E-06,0.021661876
,,,2.17E-06,0.021657501
,,,2.18E-06,0.021583126
,,,2.19E-06,0.021382501
,,,2.2E-06,0.021585001
,,,2.21E-06,0.021479376
,,,2.22E-06,0.021628751
,,,2.23E-06,0.021724376
,,,2.24E-06,0.021498126
,,,2.25E-06,0.021704376
,,,2.26E-06,0.021418126
,,,2.27E-06,0.021386876
,,,2.28E-06,0.021493126
,,,2.29E-06,0.021726876
,,,2.3E-06,0.021370001
,,,2.31E-06,0.021567501
,,,2.32E-06,0.021593126
,,,2.33E-06,0.021536876
,,,2.34E-06,0.021741251
,,,2.35E-06,0.021609376
,,,2.36E-06,0.021550001
,,,2.37E-06,0.021690001
,,,2.38E-06,0.021562501
,,,2.39E-06,0.021503126
,,,2.4E-06,0.021633126
,,,2.41E-06,0.021512501
,,,2.42E-06,0.021572501
,,,2.43E-06,0.021701251
,,,2.44E-06,0.021573126
,,,2.45E-06,0.021525626
,,,2.46E-06,0.021604376
,,,2.47E-06,0.021556876
,,,2.48E-06,0.021640626
,,,2.49E-06,0.021551876
,,,2.5E-06,0.021465626
,,,2.51E-06,0.021608751
,,,2.52E-06,0.021335001
,,,2.53E-06,0.021649376
,,,2.54E-06,0.021661876
,,,2.55E-06,0.021652501
,,,2.56E-06,0.021837501
,,,2.57E-06,0.021563126
,,,2.58E-06,0.021566876
,,,2.59E-06,0.021571251
,,,2.6E-06,0.021819376
,,,2.61E-06,0.021515001
,,,2.62E-06,0.021464376
,,,2.63E-06,0.021613126
,,,2.64E-06,0.021668751
,,,2.65E-06,0.021320626
,,,2.66E-06,0.021301251
,,,2.67E-06,0.021665001
,,,2.68E-06,0.021378126
,,,2.69E-06,0.021675001
,,,2.7E-06,0.021811251
,,,2.71E-06,0.021578126
,,,2.72E-06,0.021631251
,,,2.73E-06,0.021588751
,,,2.74E-06,0.021479376
,,,2.75E-06,0.021540626
,,,2.76E-06,0.021471251
,,,2.77E-06,0.021348751
,,,2.78E-06,0.021575001
,,,2.79E-06,0.021721876
,,,2.8E-06,0.021543751
,,,2.81E-06,0.021787501
,,,2.82E-06,0.021535001
,,,2.83E-06,0.021533751
,,,2.84E-06,0.021600626
,,,2.85E-06,0.021551876
,,,2.86E-06,0.021688126
,,,2.87E-06,0.021443126
,,,2.88E-06,0.021618126
,,,2.89E-06,0.021813751
,,,2.9E-06,0.021579376
,,,2.91E-06,0.021583751
,,,2.92E-06,0.021548126
,,,2.93E-06,0.021450626
,,,2.94E-06,0.021809376
,,,2.95E-06,0.021580001
,,,2.96E-06,0.021661876
,,,2.97E-06,0.021495001
,,,2.98E-06,0.021495626
,,,2.99E-06,0.021594376
,,,3E-06,0.021705626
,,,3.01E-06,0.021882501
,,,3.02E-06,0.021377501
,,,3.03E-06,0.021624376
,,,3.04E-06,0.021654376
,,,3.05E-06,0.021631251
,,,3.06E-06,0.021530001
,,,3.07E-06,0.021673126
,,,3.08E-06,0.021791876
,,,3.09E-06,0.021508751
,,,3.1E-06,0.021831876
,,,3.11E-06,0.021477501
,,,3.12E-06,0.021575626
,,,3.13E-06,0.021804376
,,,3.14E-06,0.021362501
,,,3.15E-06,0.021529376
,,,3.16E-06,0.021603751
,,,3.17E-06,0.021791251
,,,3.18E-06,0.021521251
,,,3.19E-06,0.021704376
,,,3.2E-06,0.021731251
,,,3.21E-06,0.021618126
