data/raw/Final_POL_Test_1/SOP078_Ch3.csv

"Record Length",1000,"Points",-5E-06,0.016630626
"Sample Interval",1E-08,s,-4.99E-06,0.016908751
"Trigger Point",500,"Samples",-4.98E-06,0.016839376
"Trigger Time",0,s,-4.97E-06,0.016783126
"",,,-4.96E-06,0.016757501
"Horizontal Offset",-5E-06,s,-4.95E-06,0.016763126
,,,-4.94E-06,0.016668751
,,,-4.93E-06,0.016695001
,,,-4.92E-06,0.016728126
,,,-4.91E-06,0.016714376
,,,-4.9E-06,0.016726876
,,,-4.89E-06,0.016939376
,,,-4.88E-06,0.017113126
,,,-4.87E-06,0.016993751
,,,-4.86E-06,0.016891876
,,,-4.85E-06,0.017086876
,,,-4.84E-06,0.016827501
,,,-4.83E-06,0.016726251
,,,-4.82E-06,0.017058751
,,,-4.81E-06,0.016718126
,,,-4.8E-06,0.016966251
,,,-4.79E-06,0.016717501
,,,-4.78E-06,0.016710001
,,,-4.77E-06,0.016816876
,,,-4.76E-06,0.016908751
,,,-4.75E-06,0.016892501
,,,-4.74E-06,0.016861876
,,,-4.73E-06,0.017050001
,,,-4.72E-06,0.016794376
,,,-4.71E-06,0.016785626
,,,-4.7E-06,0.016895626
,,,-4.69E-06,0.016891876
,,,-4.68E-06,0.016752501
,,,-4.67E-06,0.016587501
,,,-4.66E-06,0.016830001
,,,-4.65E-06,0.016704376
,,,-4.64E-06,0.017155001
,,,-4.63E-06,0.016750626
,,,-4.62E-06,0.016927501
,,,-4.61E-06,0.016774376
,,,-4.6E-06,0.016845626
,,,-4.59E-06,0.016668126
,,,-4.58E-06,0.016730626
,,,-4.57E-06,0.016952501
,,,-4.56E-06,0.016757501
,,,-4.55E-06,0.016871876
,,,-4.54E-06,0.016911251
,,,-4.53E-06,0.016884376
,,,-4.52E-06,0.016765001
,,,-4.51E-06,0.016940001
,,,-4.5E-06,0.016996251
,,,-4.49E-06,0.016861251
,,,-4.48E-06,0.017017501
,,,-4.47E-06,0.016737501
,,,-4.46E-06,0.016996876
,,,-4.45E-06,0.016810001
,,,-4.44E-06,0.016935001
,,,-4.43E-06,0.016910001
,,,-4.42E-06,0.016840626
,,,-4.41E-06,0.016914376
,,,-4.4E-06,0.016761876
,,,-4.39E-06,0.016913751
,,,-4.38E-06,0.016872501
,,,-4.37E-06,0.016811251
,,,-4.36E-06,0.016666876
,,,-4.35E-06,0.016546876
,,,-4.34E-06,0.016862501
,,,-4.33E-06,0.016885626
,,,-4.32E-06,0.016965001
,,,-4.31E-06,0.016885626
,,,-4.3E-06,0.016813126
,,,-4.29E-06,0.016841876
,,,-4.28E-06,0.016982501
,,,-4.27E-06,0.016546251
,,,-4.26E-06,0.016956251
,,,-4.25E-06,0.017011876
,,,-4.24E-06,0.016680001
,,,-4.23E-06,0.016860001
,,,-4.22E-06,0.017021876
,,,-4.21E-06,0.016796876
,,,-4.2E-06,0.016827501
,,,-4.19E-06,0.016718126
,,,-4.18E-06,0.016560626
,,,-4.17E-06,0.016824376
,,,-4.16E-06,0.016957501
,,,-4.15E-06,0.016764376
,,,-4.14E-06,0.016817501
,,,-4.13E-06,0.016596251
,,,-4.12E-06,0.017071876
,,,-4.11E-06,0.016901876
,,,-4.1E-06,0.016778751
,,,-4.09E-06,0.016586876
,,,-4.08E-06,0.017032501
,,,-4.07E-06,0.016973751
,,,-4.06E-06,0.016713126
,,,-4.05E-06,0.016750626
,,,-4.04E-06,0.016987501
,,,-4.03E-06,0.016962501
,,,-4.02E-06,0.016899376
,,,-4.01E-06,0.016914376
,,,-4E-06,0.016765001
,,,-3.99E-06,0.016818751
,,,-3.98E-06,0.016936251
,,,-3.97E-06,0.016929376
,,,-3.96E-06,0.016672501
,,,-3.95E-06,0.016867501
,,,-3.94E-06,0.016936876
,,,-3.93E-06,0.016685626
,,,-3.92E-06,0.016869376
,,,-3.91E-06,0.016824376
,,,-3.9E-06,0.016865626
,,,-3.89E-06,0.016946251
,,,-3.88E-06,0.016930001
,,,-3.87E-06,0.016580001
,,,-3.86E-06,0.016818751
,,,-3.85E-06,0.016536876
,,,-3.84E-06,0.016795001
,,,-3.83E-06,0.016908126
,,,-3.82E-06,0.017117501
,,,-3.81E-06,0.016782501
,,,-3.8E-06,0.016990001
,,,-3.79E-06,0.016797501
,,,-3.78E-06,0.016743751
,,,-3.77E-06,0.016788751
,,,-3.76E-06,0.016699376
,,,-3.75E-06,0.017037501
,,,-3.74E-06,0.016717501
,,,-3.73E-06,0.016853751
,,,-3.72E-06,0.016951876
,,,-3.71E-06,0.016747501
,,,-3.7E-06,0.016752501
,,,-3.69E-06,0.016684376
,,,-3.68E-06,0.016790626
,,,-3.67E-06,0.016748751
,,,-3.66E-06,0.016870001
,,,-3.65E-06,0.016821876
,,,-3.64E-06,0.016790001
,,,-3.63E-06,0.016825626
,,,-3.62E-06,0.016885001
,,,-3.61E-06,0.016876251
,,,-3.6E-06,0.016688126
,,,-3.59E-06,0.016805001
,,,-3.58E-06,0.016810001
,,,-3.57E-06,0.016885001
,,,-3.56E-06,0.017084376
,,,-3.55E-06,0.016600001
,,,-3.54E-06,0.016871876
,,,-3.53E-06,0.016872501
,,,-3.52E-06,0.016863126
,,,-3.51E-06,0.016974376
,,,-3.5E-06,0.016674376
,,,-3.49E-06,0.016595626
,,,-3.48E-06,0.016415626
,,,-3.47E-06,0.016735001
,,,-3.46E-06,0.016786876
,,,-3.45E-06,0.016598751
,,,-3.44E-06,0.016763126
,,,-3.43E-06,0.016612501
,,,-3.42E-06,0.016661876
,,,-3.41E-06,0.016664376
,,,-3.4E-06,0.016948126
,,,-3.39E-06,0.016678751
,,,-3.38E-06,0.016824376
,,,-3.37E-06,0.016844376
,,,-3.36E-06,0.016888126
,,,-3.35E-06,0.016634376
,,,-3.34E-06,0.016934376
,,,-3.33E-06,0.016784376
,,,-3.32E-06,0.016977501
,,,-3.31E-06,0.016972501
,,,-3.3E-06,0.016665626
,,,-3.29E-06,0.016728126
,,,-3.28E-06,0.017073126
,,,-3.27E-06,0.016961876
,,,-3.26E-06,0.016936876
,,,-3.25E-06,0.016806876
,,,-3.24E-06,0.016771876
,,,-3.23E-06,0.017015626
,,,-3.22E-06,0.016813126
,,,-3.21E-06,0.016586251
,,,-3.2E-06,0.016848751
,,,-3.19E-06,0.016643126
,,,-3.18E-06,0.016837501
,,,-3.17E-06,0.016617501
,,,-3.16E-06,0.016928126
,,,-3.15E-06,0.016636876
,,,-3.14E-06,0.016643126
,,,-3.13E-06,0.016921251
,,,-3.12E-06,0.016759376
,,,-3.11E-06,0.016845001
,,,-3.1E-06,0.016902501
,,,-3.09E-06,0.016737501
,,,-3.08E-06,0.016901876
,,,-3.07E-06,0.016854376
,,,-3.06E-06,0.016856876
,,,-3.05E-06,0.016687501
,,,-3.04E-06,0.016932501
,,,-3.03E-06,0.016800001
,,,-3.02E-06,0.016810001
,,,-3.01E-06,0.016890626
,,,-3E-06,0.016750626
,,,-2.99E-06,0.016958126
,,,-2.98E-06,0.016845001
,,,-2.97E-06,0.016816876
,,,-2.96E-06,0.016540001
,,,-2.95E-06,0.016818751
,,,-2.94E-06,0.017018126
,,,-2.93E-06,0.016851876
,,,-2.92E-06,0.016793126
,,,-2.91E-06,0.016691876
,,,-2.9E-06,0.017108751
,,,-2.89E-06,0.016505626
,,,-2.88E-06,0.016641876
,,,-2.87E-06,0.016746876
,,,-2.86E-06,0.016821876
,,,-2.85E-06,0.016878126
,,,-2.84E-06,0.016912501
,,,-2.83E-06,0.017076251
,,,-2.82E-06,0.017100001
,,,-2.81E-06,0.016661251
,,,-2.8E-06,0.016540001
,,,-2.79E-06,0.016727501
,,,-2.78E-06,0.016706251
,,,-2.77E-06,0.016802501
,,,-2.76E-06,0.016778751
,,,-2.75E-06,0.017001876
,,,-2.74E-06,0.016728126
,,,-2.73E-06,0.016704376
,,,-2.72E-06,0.016918751
,,,-2.71E-06,0.016640626
,,,-2.7E-06,0.016837501
,,,-2.69E-06,0.016795001
,,,-2.68E-06,0.016835626
,,,-2.67E-06,0.016908751
,,,-2.66E-06,0.016691251
,,,-2.65E-06,0.016688751
,,,-2.64E-06,0.016833751
,,,-2.63E-06,0.016654376
,,,-2.62E-06,0.016808126
,,,-2.61E-06,0.016861251
,,,-2.6E-06,0.016753126
,,,-2.59E-06,0.017013126
,,,-2.58E-06,0.016614376
,,,-2.57E-06,0.016926251
,,,-2.56E-06,0.016840626
,,,-2.55E-06,0.016941251
,,,-2.54E-06,0.016787501
,,,-2.53E-06,0.016843751
,,,-2.52E-06,0.017003751
,,,-2.51E-06,0.016908751
,,,-2.5E-06,0.016760001
,,,-2.49E-06,0.016957501
,,,-2.48E-06,0.016928126
,,,-2.47E-06,0.017053751
,,,-2.46E-06,0.016680001
,,,-2.45E-06,0.016735001
,,,-2.44E-06,0.016706876
,,,-2.43E-06,0.016645001
,,,-2.42E-06,0.016855001
,,,-2.41E-06,0.016913751
,,,-2.4E-06,0.017059376
,,,-2.39E-06,0.016866876
,,,-2.38E-06,0.016715626
,,,-2.37E-06,0.016708751
,,,-2.36E-06,0.016638751
,,,-2.35E-06,0.016914376
,,,-2.34E-06,0.016876876
,,,-2.33E-06,0.016725001
,,,-2.32E-06,0.016587501
,,,-2.31E-06,0.016958751
,,,-2.3E-06,0.016693751
,,,-2.29E-06,0.016735001
,,,-2.28E-06,0.016926251
,,,-2.27E-06,0.016671876
,,,-2.26E-06,0.016770001
,,,-2.25E-06,0.016784376
,,,-2.24E-06,0.017046251
,,,-2.23E-06,0.016908751
,,,-2.22E-06,0.016670626
,,,-2.21E-06,0.016760001
,,,-2.2E-06,0.016885001
,,,-2.19E-06,0.016944376
,,,-2.18E-06,0.016988126
,,,-2.17E-06,0.016800001
,,,-2.16E-06,0.016668751
,,,-2.15E-06,0.016861876
,,,-2.14E-06,0.016953126
,,,-2.13E-06,0.016738126
,,,-2.12E-06,0.017056251
,,,-2.11E-06,0.016829376
,,,-2.1E-06,0.016843751
,,,-2.09E-06,0.017026251
,,,-2.08E-06,0.017120001
,,,-2.07E-06,0.016776876
,,,-2.06E-06,0.016864376
,,,-2.05E-06,0.016841251
,,,-2.04E-06,0.017128126
,,,-2.03E-06,0.016738126
,,,-2.02E-06,0.016958126
,,,-2.01E-06,0.016623751
,,,-2E-06,0.016800626
,,,-1.99E-06,0.016716251
,,,-1.98E-06,0.016671876
,,,-1.97E-06,0.016583126
,,,-1.96E-06,0.016901876
,,,-1.95E-06,0.016796251
,,,-1.94E-06,0.016783751
,,,-1.93E-06,0.016940626
,,,-1.92E-06,0.016891876
,,,-1.91E-06,0.016814376
,,,-1.9E-06,0.016923751
,,,-1.89E-06,0.016713751
,,,-1.88E-06,0.016777501
,,,-1.87E-06,0.016955001
,,,-1.86E-06,0.016646876
,,,-1.85E-06,0.016723126
,,,-1.84E-06,0.016881876
,,,-1.83E-06,0.016898126
,,,-1.82E-06,0.016870001
,,,-1.81E-06,0.016851876
,,,-1.8E-06,0.016480001
,,,-1.79E-06,0.016796876
,,,-1.78E-06,0.016822501
,,,-1.77E-06,0.016771251
,,,-1.76E-06,0.016834376
,,,-1.75E-06,0.016823126
,,,-1.74E-06,0.016838126
,,,-1.73E-06,0.017000001
,,,-1.72E-06,0.016518126
,,,-1.71E-06,0.016703126
,,,-1.7E-06,0.016856876
,,,-1.69E-06,0.016853751
,,,-1.68E-06,0.017163751
,,,-1.67E-06,0.017025001
,,,-1.66E-06,0.016776876
,,,-1.65E-06,0.016920626
,,,-1.64E-06,0.016890626
,,,-1.63E-06,0.016614376
,,,-1.62E-06,0.016909376
,,,-1.61E-06,0.016945001
,,,-1.6E-06,0.016770001
,,,-1.59E-06,0.016751876
,,,-1.58E-06,0.016773126
,,,-1.57E-06,0.016782501
,,,-1.56E-06,0.016911876
,,,-1.55E-06,0.016570001
,,,-1.54E-06,0.016873751
,,,-1.53E-06,0.016896251
,,,-1.52E-06,0.016953126
,,,-1.51E-06,0.016685001
,,,-1.5E-06,0.016707501
,,,-1.49E-06,0.016689376
,,,-1.48E-06,0.016706876
,,,-1.47E-06,0.016641876
,,,-1.46E-06,0.016675626
,,,-1.45E-06,0.016708126
,,,-1.44E-06,0.016839376
,,,-1.43E-06,0.016940626
,,,-1.42E-06,0.016959376
,,,-1.41E-06,0.016922501
,,,-1.4E-06,0.016860626
,,,-1.39E-06,0.016943126
,,,-1.38E-06,0.016847501
,,,-1.37E-06,0.016840626
,,,-1.36E-06,0.016850626
,,,-1.35E-06,0.016896876
,,,-1.34E-06,0.016955626
,,,-1.33E-06,0.016800001
,,,-1.32E-06,0.016878126
,,,-1.31E-06,0.016799376
,,,-1.3E-06,0.016564376
,,,-1.29E-06,0.017034376
,,,-1.28E-06,0.016812501
,,,-1.27E-06,0.016960001
,,,-1.26E-06,0.016728751
,,,-1.25E-06,0.016921876
,,,-1.24E-06,0.016665001
,,,-1.23E-06,0.017046876
,,,-1.22E-06,0.016742501
,,,-1.21E-06,0.016725001
,,,-1.2E-06,0.016728126
,,,-1.19E-06,0.016814376
,,,-1.18E-06,0.016854376
,,,-1.17E-06,0.016840001
,,,-1.16E-06,0.016670001
,,,-1.15E-06,0.016757501
,,,-1.14E-06,0.016744376
,,,-1.13E-06,0.016782501
,,,-1.12E-06,0.016780001
,,,-1.11E-06,0.016913751
,,,-1.1E-06,0.016794376
,,,-1.09E-06,0.016899376
,,,-1.08E-06,0.016855001
,,,-1.07E-06,0.016908751
,,,-1.06E-06,0.016488751
,,,-1.05E-06,0.016849376
,,,-1.04E-06,0.017116251
,,,-1.03E-06,0.016730626
,,,-1.02E-06,0.016773751
,,,-1.01E-06,0.016940001
,,,-1E-06,0.016803751
,,,-9.9E-07,0.016955626
,,,-9.8E-07,0.016856876
,,,-9.7E-07,0.016558751
,,,-9.6E-07,0.016800626
,,,-9.5E-07,0.016753751
,,,-9.4E-07,0.016741876
,,,-9.3E-07,0.016958751
,,,-9.2E-07,0.016902501
,,,-9.1E-07,0.016738751
,,,-9E-07,0.016845001
,,,-8.9E-07,0.016956876
,,,-8.8E-07,0.016808751
,,,-8.7E-07,0.016828126
,,,-8.6E-07,0.016741876
,,,-8.5E-07,0.016647501
,,,-8.4E-07,0.016549376
,,,-8.3E-07,0.016749376
,,,-8.2E-07,0.016995001
,,,-8.1E-07,0.016831876
,,,-8E-07,0.016572501
,,,-7.9E-07,0.016603126
,,,-7.8E-07,0.016807501
,,,-7.7E-07,0.016664376
,,,-7.6E-07,0.016878126
,,,-7.5E-07,0.016648751
,,,-7.4E-07,0.016842501
,,,-7.3E-07,0.016647501
,,,-7.2E-07,0.016811251
,,,-7.1E-07,0.017126876
,,,-7E-07,0.016865001
,,,-6.9E-07,0.016774376
,,,-6.8E-07,0.016923126
,,,-6.7E-07,0.017001876
,,,-6.6E-07,0.016953126
,,,-6.5E-07,0.016808751
,,,-6.4E-07,0.016561876
,,,-6.3E-07,0.016454376
,,,-6.2E-07,0.016836251
,,,-6.1E-07,0.016808751
,,,-6E-07,0.016728126
,,,-5.9E-07,0.017066876
,,,-5.8E-07,0.017056251
,,,-5.7E-07,0.016898751
,,,-5.6E-07,0.016748126
,,,-5.5E-07,0.016781251
,,,-5.4E-07,0.016788126
,,,-5.3E-07,0.016786251
,,,-5.2E-07,0.016770626
,,,-5.1E-07,0.016831251
,,,-5E-07,0.016758126
,,,-4.9E-07,0.017037501
,,,-4.8E-07,0.016742501
,,,-4.7E-07,0.016714376
,,,-4.6E-07,0.016730626
,,,-4.5E-07,0.016682501
,,,-4.4E-07,0.016767501
,,,-4.3E-07,0.016871251
,,,-4.2E-07,0.016942501
,,,-4.1E-07,0.016688126
,,,-4E-07,0.016805001
,,,-3.9E-07,0.016649376
,,,-3.8E-07,0.017053126
,,,-3.7E-07,0.016755626
,,,-3.6E-07,0.016851876
,,,-3.5E-07,0.016894376
,,,-3.4E-07,0.016825001
,,,-3.3E-07,0.016643126
,,,-3.2E-07,0.016709376
,,,-3.1E-07,0.016683126
,,,-3E-07,0.016903751
,,,-2.9E-07,0.016630001
,,,-2.8E-07,0.016900626
,,,-2.7E-07,0.016773751
,,,-2.6E-07,0.016825001
,,,-2.5E-07,0.016826251
,,,-2.4E-07,0.016905001
,,,-2.3E-07,0.016800626
,,,-2.2E-07,0.016986251
,,,-2.1E-07,0.016858751
,,,-2E-07,0.016716876
,,,-1.9E-07,0.016844376
,,,-1.8E-07,0.016857501
,,,-1.7E-07,0.016888126
,,,-1.6E-07,0.016741876
,,,-1.5E-07,0.016675626
,,,-1.4E-07,0.017096251
,,,-1.3E-07,0.016607501
,,,-1.2E-07,0.016849376
,,,-1.1E-07,0.016712501
,,,-1E-07,0.016858751
,,,-9E-08,0.016795626
,,,-8E-08,0.016705626
,,,-7E-08,0.016773126
,,,-6E-08,0.016609376
,,,-5E-08,0.016569376
,,,-4E-08,0.017475626
,,,-3E-08,0.018895001
,,,-2E-08,0.015447501
,,,-1E-08,0.013825626
,,,0,0.013301876
,,,1E-08,0.019396251
,,,2E-08,0.020582501
,,,3E-08,0.020342501
,,,4E-08,0.015850626
,,,5E-08,0.014138126
,,,6E-08,0.013908126
,,,7E-08,0.015670001
,,,8E-08,0.017445626
,,,9E-08,0.018920626
,,,1E-07,0.018915626
,,,1.1E-07,0.017364376
,,,1.2E-07,0.015515001
,,,1.3E-07,0.015120626
,,,1.4E-07,0.016333751
,,,1.5E-07,0.017100001
,,,1.6E-07,0.017343751
,,,1.7E-07,0.017254376
,,,1.8E-07,0.016723126
,,,1.9E-07,0.016802501
,,,2E-07,0.016628751
,,,2.1E-07,0.016450001
,,,2.2E-07,0.016611251
,,,2.3E-07,0.016729376
,,,2.4E-07,0.016816876
,,,2.5E-07,0.017005001
,,,2.6E-07,0.016928126
,,,2.7E-07,0.016981876
,,,2.8E-07,0.016712501
,,,2.9E-07,0.016795626
,,,3E-07,0.016598751
,,,3.1E-07,0.016801251
,,,3.2E-07,0.017172501
,,,3.3E-07,0.016938126
,,,3.4E-07,0.016705001
,,,3.5E-07,0.016760626
,,,3.6E-07,0.016606876
,,,3.7E-07,0.016745001
,,,3.8E-07,0.016933751
,,,3.9E-07,0.017173126
,,,4E-07,0.016761876
,,,4.1E-07,0.016670626
,,,4.2E-07,0.016812501
,,,4.3E-07,0.017016876
,,,4.4E-07,0.016645626
,,,4.5E-07,0.016907501
,,,4.6E-07,0.016916251
,,,4.7E-07,0.016538751
,,,4.8E-07,0.016873751
,,,4.9E-07,0.016933126
,,,5E-07,0.017350001
,,,5.1E-07,0.016909376
,,,5.2E-07,0.017113126
,,,5.3E-07,0.016867501
,,,5.4E-07,0.016762501
,,,5.5E-07,0.016659376
,,,5.6E-07,0.016782501
,,,5.7E-07,0.016923751
,,,5.8E-07,0.017133751
,,,5.9E-07,0.016927501
,,,6E-07,0.016842501
,,,6.1E-07,0.016791876
,,,6.2E-07,0.016856876
,,,6.3E-07,0.016774376
,,,6.4E-07,0.016798751
,,,6.5E-07,0.016954376
,,,6.6E-07,0.016912501
,,,6.7E-07,0.016756251
,,,6.8E-07,0.016611876
,,,6.9E-07,0.016640626
,,,7E-07,0.016601251
,,,7.1E-07,0.016638126
,,,7.2E-07,0.016779376
,,,7.3E-07,0.016820626
,,,7.4E-07,0.016746251
,,,7.5E-07,0.017031876
,,,7.6E-07,0.016660626
,,,7.7E-07,0.016756251
,,,7.8E-07,0.016871251
,,,7.9E-07,0.016905001
,,,8E-07,0.016782501
,,,8.1E-07,0.016927501
,,,8.2E-07,0.016745626
,,,8.3E-07,0.016757501
,,,8.4E-07,0.016979376
,,,8.5E-07,0.017081251
,,,8.6E-07,0.016631251
,,,8.7E-07,0.016736876
,,,8.8E-07,0.016975626
,,,8.9E-07,0.016954376
,,,9E-07,0.016592501
,,,9.1E-07,0.016917501
,,,9.2E-07,0.016672501
,,,9.3E-07,0.016731251
,,,9.4E-07,0.016586876
,,,9.5E-07,0.016756876
,,,9.6E-07,0.016926251
,,,9.7E-07,0.016861876
,,,9.8E-07,0.016806251
,,,9.9E-07,0.016833751
,,,1E-06,0.016933126
,,,1.01E-06,0.016787501
,,,1.02E-06,0.016828126
,,,1.03E-06,0.016830626
,,,1.04E-06,0.016807501
,,,1.05E-06,0.016650626
,,,1.06E-06,0.017249376
,,,1.07E-06,0.017093751
,,,1.08E-06,0.016898751
,,,1.09E-06,0.016676251
,,,1.1E-06,0.016767501
,,,1.11E-06,0.016876876
,,,1.12E-06,0.016955001
,,,1.13E-06,0.016690001
,,,1.14E-06,0.016620626
,,,1.15E-06,0.016789376
,,,1.16E-06,0.016700001
,,,1.17E-06,0.017090001
,,,1.18E-06,0.016680001
,,,1.19E-06,0.016685626
,,,1.2E-06,0.016651251
,,,1.21E-06,0.016735001
,,,1.22E-06,0.016570001
,,,1.23E-06,0.016734376
,,,1.24E-06,0.016973126
,,,1.25E-06,0.016779376
,,,1.26E-06,0.016728126
,,,1.27E-06,0.016835001
,,,1.28E-06,0.016916876
,,,1.29E-06,0.016972501
,,,1.3E-06,0.016787501
,,,1.31E-06,0.016853126
,,,1.32E-06,0.016789376
,,,1.33E-06,0.016790626
,,,1.34E-06,0.017039376
,,,1.35E-06,0.016722501
,,,1.36E-06,0.016845001
,,,1.37E-06,0.016881251
,,,1.38E-06,0.016684376
,,,1.39E-06,0.016923751
,,,1.4E-06,0.016901876
,,,1.41E-06,0.017149376
,,,1.42E-06,0.016915001
,,,1.43E-06,0.016892501
,,,1.44E-06,0.016753126
,,,1.45E-06,0.016718126
,,,1.46E-06,0.016880001
,,,1.47E-06,0.016747501
,,,1.48E-06,0.016952501
,,,1.49E-06,0.016933126
,,,1.5E-06,0.017196876
,,,1.51E-06,0.016966876
,,,1.52E-06,0.016894376
,,,1.53E-06,0.017027501
,,,1.54E-06,0.016748751
,,,1.55E-06,0.016658751
,,,1.56E-06,0.016760001
,,,1.57E-06,0.017048751
,,,1.58E-06,0.016849376
,,,1.59E-06,0.016850001
,,,1.6E-06,0.016950626
,,,1.61E-06,0.016903751
,,,1.62E-06,0.016623751
,,,1.63E-06,0.016861251
,,,1.64E-06,0.016648751
,,,1.65E-06,0.016621876
,,,1.66E-06,0.016803126
,,,1.67E-06,0.016930626
,,,1.68E-06,0.016770626
,,,1.69E-06,0.016808751
,,,1.7E-06,0.017038751
,,,1.71E-06,0.017056876
,,,1.72E-06,0.016503126
,,,1.73E-06,0.016745001
,,,1.74E-06,0.016734376
,,,1.75E-06,0.016765001
,,,1.76E-06,0.016902501
,,,1.77E-06,0.016796876
,,,1.78E-06,0.016938751
,,,1.79E-06,0.016985001
,,,1.8E-06,0.016633751
,,,1.81E-06,0.016820626
,,,1.82E-06,0.016912501
,,,1.83E-06,0.017022501
,,,1.84E-06,0.016830001
,,,1.85E-06,0.016720001
,,,1.86E-06,0.016725626
,,,1.87E-06,0.016835001
,,,1.88E-06,0.016891876
,,,1.89E-06,0.016958751
,,,1.9E-06,0.016926876
,,,1.91E-06,0.016905001
,,,1.92E-06,0.016723751
,,,1.93E-06,0.016651251
,,,1.94E-06,0.016765626
,,,1.95E-06,0.016830626
,,,1.96E-06,0.016726251
,,,1.97E-06,0.016590001
,,,1.98E-06,0.016467501
,,,1.99E-06,0.016570001
,,,2E-06,0.016840001
,,,2.01E-06,0.016755001
,,,2.02E-06,0.016938751
,,,2.03E-06,0.016673126
,,,2.04E-06,0.017043751
,,,2.05E-06,0.016782501
,,,2.06E-06,0.016945626
,,,2.07E-06,0.016826251
,,,2.08E-06,0.016571876
,,,2.09E-06,0.016940001
,,,2.1E-06,0.016783126
,,,2.11E-06,0.016761876
,,,2.12E-06,0.016699376
,,,2.13E-06,0.016638751
,,,2.14E-06,0.016516876
,,,2.15E-06,0.016946251
,,,2.16E-06,0.017264376
,,,2.17E-06,0.016850001
,,,2.18E-06,0.016680001
,,,2.19E-06,0.016896251
,,,2.2E-06,0.016641876
,,,2.21E-06,0.016952501
,,,2.22E-06,0.016837501
,,,2.23E-06,0.016731876
,,,2.24E-06,0.016911876
,,,2.25E-06,0.016718751
,,,2.26E-06,0.016471876
,,,2.27E-06,0.016689376
,,,2.28E-06,0.016776251
,,,2.29E-06,0.016827501
,,,2.3E-06,0.016920001
,,,2.31E-06,0.016821876
,,,2.32E-06,0.016947501
,,,2.33E-06,0.016714376
,,,2.34E-06,0.016759376
,,,2.35E-06,0.016878126
,,,2.36E-06,0.016600626
,,,2.37E-06,0.016693126
,,,2.38E-06,0.016930001
,,,2.39E-06,0.016890626
,,,2.4E-06,0.016921251
,,,2.41E-06,0.016816876
,,,2.42E-06,0.016535001
,,,2.43E-06,0.016593751
,,,2.44E-06,0.017190626
,,,2.45E-06,0.016944376
,,,2.46E-06,0.016975626
,,,2.47E-06,0.016776876
,,,2.48E-06,0.016965001
,,,2.49E-06,0.017010001
,,,2.5E-06,0.016630626
,,,2.51E-06,0.016821876
,,,2.52E-06,0.016814376
,,,2.53E-06,0.016904376
,,,2.54E-06,0.016872501
,,,2.55E-06,0.016873751
,,,2.56E-06,0.016977501
,,,2.57E-06,0.017041876
,,,2.58E-06,0.016750001
,,,2.59E-06,0.016684376
,,,2.6E-06,0.016692501
,,,2.61E-06,0.016828751
,,,2.62E-06,0.016871876
,,,2.63E-06,0.016788126
,,,2.64E-06,0.016938126
,,,2.65E-06,0.016841251
,,,2.66E-06,0.016767501
,,,2.67E-06,0.016768126
,,,2.68E-06,0.016800626
,,,2.69E-06,0.016978751
,,,2.7E-06,0.016893126
,,,2.71E-06,0.016846251
,,,2.72E-06,0.016723751
,,,2.73E-06,0.016832501
,,,2.74E-06,0.016791251
,,,2.75E-06,0.016874376
,,,2.76E-06,0.016823126
,,,2.77E-06,0.016598751
,,,2.78E-06,0.016977501
,,,2.79E-06,0.017020626
,,,2.8E-06,0.016722501
,,,2.81E-06,0.016928126
,,,2.82E-06,0.016977501
,,,2.83E-06,0.017124376
,,,2.84E-06,0.016665001
,,,2.85E-06,0.016667501
,,,2.86E-06,0.016960626
,,,2.87E-06,0.016814376
,,,2.88E-06,0.016808751
,,,2.89E-06,0.016843751
,,,2.9E-06,0.016720001
,,,2.91E-06,0.016760001
,,,2.92E-06,0.016674376
,,,2.93E-06,0.016675626
,,,2.94E-06,0.016795001
,,,2.95E-06,0.016773751
,,,2.96E-06,0.016751251
,,,2.97E-06,0.016801876
,,,2.98E-06,0.016790001
,,,2.99E-06,0.016918126
,,,3E-06,0.016689376
,,,3.01E-06,0.016836251
,,,3.02E-06,0.016495626
,,,3.03E-06,0.016630001
,,,3.04E-06,0.016980626
,,,3.05E-06,0.016704376
,,,3.06E-06,0.016992501
,,,3.07E-06,0.016655626
,,,3.08E-06,0.016654376
,,,3.09E-06,0.016968751
,,,3.1E-06,0.016897501
,,,3.11E-06,0.017098126
,,,3.12E-06,0.016853751
,,,3.13E-06,0.016662501
,,,3.14E-06,0.016860626
,,,3.15E-06,0.016952501
,,,3.16E-06,0.016725626
,,,3.17E-06,0.016731251
,,,3.18E-06,0.016846251
,,,3.19E-06,0.016925001
,,,3.2E-06,0.016835626
,,,3.21E-06,0.016910001
