data/raw/Final_POL_Test_1/SOP041_Ch1.csv

"Record Length",1000,"Points",-5E-06,0.007335
"Sample Interval",1E-08,s,-4.99E-06,0.007579375
"Trigger Point",500,"Samples",-4.98E-06,0.007279375
"Trigger Time",0,s,-4.97E-06,0.00757625
"",,,-4.96E-06,0.00735875
"Horizontal Offset",-5E-06,s,-4.95E-06,0.007251875
,,,-4.94E-06,0.007368125
,,,-4.93E-06,0.007318125
,,,-4.92E-06,0.007286875
,,,-4.91E-06,0.007564375
,,,-4.9E-06,0.007410625
,,,-4.89E-06,0.00772
,,,-4.88E-06,0.00761875
,,,-4.87E-06,0.007444375
,,,-4.86E-06,0.007135
,,,-4.85E-06,0.00745375
,,,-4.84E-06,0.0073825
,,,-4.83E-06,0.007415625
,,,-4.82E-06,0.00758875
,,,-4.81E-06,0.00727
,,,-4.8E-06,0.007656875
,,,-4.79E-06,0.007405625
,,,-4.78E-06,0.00745875
,,,-4.77E-06,0.007323125
,,,-4.76E-06,0.007295625
,,,-4.75E-06,0.0073525
,,,-4.74E-06,0.0076475
,,,-4.73E-06,0.007426875
,,,-4.72E-06,0.007478125
,,,-4.71E-06,0.0075025
,,,-4.7E-06,0.007131875
,,,-4.69E-06,0.007268125
,,,-4.68E-06,0.007619375
,,,-4.67E-06,0.007461875
,,,-4.66E-06,0.007615625
,,,-4.65E-06,0.007553125
,,,-4.64E-06,0.00736
,,,-4.63E-06,0.007610625
,,,-4.62E-06,0.00757
,,,-4.61E-06,0.007280625
,,,-4.6E-06,0.007514375
,,,-4.59E-06,0.007361875
,,,-4.58E-06,0.007281875
,,,-4.57E-06,0.007408125
,,,-4.56E-06,0.00744
,,,-4.55E-06,0.007406875
,,,-4.54E-06,0.007575625
,,,-4.53E-06,0.007441875
,,,-4.52E-06,0.007624375
,,,-4.51E-06,0.007485625
,,,-4.5E-06,0.007775
,,,-4.49E-06,0.007619375
,,,-4.48E-06,0.007546875
,,,-4.47E-06,0.007491875
,,,-4.46E-06,0.007429375
,,,-4.45E-06,0.007551875
,,,-4.44E-06,0.007651875
,,,-4.43E-06,0.007378125
,,,-4.42E-06,0.007334375
,,,-4.41E-06,0.00739875
,,,-4.4E-06,0.00754125
,,,-4.39E-06,0.007365
,,,-4.38E-06,0.00727
,,,-4.37E-06,0.00740375
,,,-4.36E-06,0.007358125
,,,-4.35E-06,0.00762
,,,-4.34E-06,0.007391875
,,,-4.33E-06,0.00747375
,,,-4.32E-06,0.00762625
,,,-4.31E-06,0.007448125
,,,-4.3E-06,0.007275
,,,-4.29E-06,0.00736625
,,,-4.28E-06,0.00748
,,,-4.27E-06,0.0075275
,,,-4.26E-06,0.00715625
,,,-4.25E-06,0.00723625
,,,-4.24E-06,0.007506875
,,,-4.23E-06,0.00782375
,,,-4.22E-06,0.007510625
,,,-4.21E-06,0.007580625
,,,-4.2E-06,0.007245625
,,,-4.19E-06,0.007485625
,,,-4.18E-06,0.007461875
,,,-4.17E-06,0.0073775
,,,-4.16E-06,0.007554375
,,,-4.15E-06,0.007233125
,,,-4.14E-06,0.007605
,,,-4.13E-06,0.007569375
,,,-4.12E-06,0.00741
,,,-4.11E-06,0.007600625
,,,-4.1E-06,0.00720875
,,,-4.09E-06,0.007146875
,,,-4.08E-06,0.00725125
,,,-4.07E-06,0.007439375
,,,-4.06E-06,0.007406875
,,,-4.05E-06,0.007225
,,,-4.04E-06,0.00737125
,,,-4.03E-06,0.007349375
,,,-4.02E-06,0.007429375
,,,-4.01E-06,0.0074825
,,,-4E-06,0.0074425
,,,-3.99E-06,0.007215
,,,-3.98E-06,0.007438125
,,,-3.97E-06,0.007306875
,,,-3.96E-06,0.0074125
,,,-3.95E-06,0.007561875
,,,-3.94E-06,0.00742
,,,-3.93E-06,0.007273125
,,,-3.92E-06,0.007366875
,,,-3.91E-06,0.00770875
,,,-3.9E-06,0.00755625
,,,-3.89E-06,0.007354375
,,,-3.88E-06,0.007485625
,,,-3.87E-06,0.007295
,,,-3.86E-06,0.007335
,,,-3.85E-06,0.00745375
,,,-3.84E-06,0.007468125
,,,-3.83E-06,0.007533125
,,,-3.82E-06,0.007466875
,,,-3.81E-06,0.00724875
,,,-3.8E-06,0.0073425
,,,-3.79E-06,0.00723125
,,,-3.78E-06,0.00742625
,,,-3.77E-06,0.007495625
,,,-3.76E-06,0.007314375
,,,-3.75E-06,0.007495
,,,-3.74E-06,0.00748125
,,,-3.73E-06,0.007476875
,,,-3.72E-06,0.007298125
,,,-3.71E-06,0.00739125
,,,-3.7E-06,0.007226875
,,,-3.69E-06,0.007255625
,,,-3.68E-06,0.0076125
,,,-3.67E-06,0.00743875
,,,-3.66E-06,0.007585
,,,-3.65E-06,0.007440625
,,,-3.64E-06,0.00755
,,,-3.63E-06,0.0073325
,,,-3.62E-06,0.00732
,,,-3.61E-06,0.007395
,,,-3.6E-06,0.007490625
,,,-3.59E-06,0.007581875
,,,-3.58E-06,0.007429375
,,,-3.57E-06,0.0074975
,,,-3.56E-06,0.007504375
,,,-3.55E-06,0.00726375
,,,-3.54E-06,0.00755
,,,-3.53E-06,0.007241875
,,,-3.52E-06,0.007225
,,,-3.51E-06,0.007485
,,,-3.5E-06,0.007323125
,,,-3.49E-06,0.007419375
,,,-3.48E-06,0.00766875
,,,-3.47E-06,0.0074675
,,,-3.46E-06,0.00727
,,,-3.45E-06,0.007491875
,,,-3.44E-06,0.007450625
,,,-3.43E-06,0.007410625
,,,-3.42E-06,0.007504375
,,,-3.41E-06,0.007391875
,,,-3.4E-06,0.0076
,,,-3.39E-06,0.007515625
,,,-3.38E-06,0.007315
,,,-3.37E-06,0.007445
,,,-3.36E-06,0.00749375
,,,-3.35E-06,0.007325
,,,-3.34E-06,0.007338125
,,,-3.33E-06,0.007330625
,,,-3.32E-06,0.007688125
,,,-3.31E-06,0.007415625
,,,-3.3E-06,0.007410625
,,,-3.29E-06,0.007366875
,,,-3.28E-06,0.007468125
,,,-3.27E-06,0.00768625
,,,-3.26E-06,0.007341875
,,,-3.25E-06,0.007293125
,,,-3.24E-06,0.007364375
,,,-3.23E-06,0.007495
,,,-3.22E-06,0.007245
,,,-3.21E-06,0.0073825
,,,-3.2E-06,0.007145
,,,-3.19E-06,0.007495625
,,,-3.18E-06,0.007394375
,,,-3.17E-06,0.0076575
,,,-3.16E-06,0.00747
,,,-3.15E-06,0.00749
,,,-3.14E-06,0.007421875
,,,-3.13E-06,0.0075275
,,,-3.12E-06,0.0073075
,,,-3.11E-06,0.00739875
,,,-3.1E-06,0.007320625
,,,-3.09E-06,0.007360625
,,,-3.08E-06,0.00761875
,,,-3.07E-06,0.007363125
,,,-3.06E-06,0.00760625
,,,-3.05E-06,0.007506875
,,,-3.04E-06,0.007399375
,,,-3.03E-06,0.007259375
,,,-3.02E-06,0.00731625
,,,-3.01E-06,0.00766125
,,,-3E-06,0.0072775
,,,-2.99E-06,0.007498125
,,,-2.98E-06,0.007445
,,,-2.97E-06,0.0071225
,,,-2.96E-06,0.00733875
,,,-2.95E-06,0.00737125
,,,-2.94E-06,0.007351875
,,,-2.93E-06,0.007389375
,,,-2.92E-06,0.007308125
,,,-2.91E-06,0.0072925
,,,-2.9E-06,0.007334375
,,,-2.89E-06,0.00730375
,,,-2.88E-06,0.007409375
,,,-2.87E-06,0.007271875
,,,-2.86E-06,0.007545625
,,,-2.85E-06,0.00739875
,,,-2.84E-06,0.0073775
,,,-2.83E-06,0.007645625
,,,-2.82E-06,0.00716
,,,-2.81E-06,0.007568125
,,,-2.8E-06,0.007355625
,,,-2.79E-06,0.007428125
,,,-2.78E-06,0.0072125
,,,-2.77E-06,0.007384375
,,,-2.76E-06,0.007430625
,,,-2.75E-06,0.00758875
,,,-2.74E-06,0.00732375
,,,-2.73E-06,0.00749625
,,,-2.72E-06,0.007555
,,,-2.71E-06,0.006995
,,,-2.7E-06,0.0076075
,,,-2.69E-06,0.00759375
,,,-2.68E-06,0.007479375
,,,-2.67E-06,0.00750125
,,,-2.66E-06,0.0073725
,,,-2.65E-06,0.007394375
,,,-2.64E-06,0.00744
,,,-2.63E-06,0.007506875
,,,-2.62E-06,0.007484375
,,,-2.61E-06,0.00735875
,,,-2.6E-06,0.0075825
,,,-2.59E-06,0.007361875
,,,-2.58E-06,0.007400625
,,,-2.57E-06,0.0073625
,,,-2.56E-06,0.007485
,,,-2.55E-06,0.007256875
,,,-2.54E-06,0.007160625
,,,-2.53E-06,0.00736125
,,,-2.52E-06,0.00756375
,,,-2.51E-06,0.007400625
,,,-2.5E-06,0.007191875
,,,-2.49E-06,0.007334375
,,,-2.48E-06,0.007469375
,,,-2.47E-06,0.00753125
,,,-2.46E-06,0.00734625
,,,-2.45E-06,0.007395
,,,-2.44E-06,0.00733
,,,-2.43E-06,0.0073825
,,,-2.42E-06,0.00769625
,,,-2.41E-06,0.007474375
,,,-2.4E-06,0.007529375
,,,-2.39E-06,0.007376875
,,,-2.38E-06,0.007305
,,,-2.37E-06,0.00744375
,,,-2.36E-06,0.00758375
,,,-2.35E-06,0.00752
,,,-2.34E-06,0.007391875
,,,-2.33E-06,0.00746
,,,-2.32E-06,0.0076725
,,,-2.31E-06,0.0076025
,,,-2.3E-06,0.007310625
,,,-2.29E-06,0.00757625
,,,-2.28E-06,0.00742125
,,,-2.27E-06,0.007664375
,,,-2.26E-06,0.007456875
,,,-2.25E-06,0.007585625
,,,-2.24E-06,0.00754625
,,,-2.23E-06,0.00746125
,,,-2.22E-06,0.007376875
,,,-2.21E-06,0.00748
,,,-2.2E-06,0.007470625
,,,-2.19E-06,0.007463125
,,,-2.18E-06,0.007451875
,,,-2.17E-06,0.0074675
,,,-2.16E-06,0.00765125
,,,-2.15E-06,0.007381875
,,,-2.14E-06,0.0073375
,,,-2.13E-06,0.0073525
,,,-2.12E-06,0.00747875
,,,-2.11E-06,0.00757875
,,,-2.1E-06,0.00725125
,,,-2.09E-06,0.00739375
,,,-2.08E-06,0.0074925
,,,-2.07E-06,0.007466875
,,,-2.06E-06,0.00745125
,,,-2.05E-06,0.007260625
,,,-2.04E-06,0.007305
,,,-2.03E-06,0.007263125
,,,-2.02E-06,0.007531875
,,,-2.01E-06,0.007501875
,,,-2E-06,0.007595625
,,,-1.99E-06,0.00754375
,,,-1.98E-06,0.0072125
,,,-1.97E-06,0.007415625
,,,-1.96E-06,0.007363125
,,,-1.95E-06,0.007389375
,,,-1.94E-06,0.007584375
,,,-1.93E-06,0.00747875
,,,-1.92E-06,0.00741375
,,,-1.91E-06,0.007495
,,,-1.9E-06,0.00734
,,,-1.89E-06,0.007499375
,,,-1.88E-06,0.007550625
,,,-1.87E-06,0.00743375
,,,-1.86E-06,0.007188125
,,,-1.85E-06,0.00774875
,,,-1.84E-06,0.00741875
,,,-1.83E-06,0.007535
,,,-1.82E-06,0.007385
,,,-1.81E-06,0.0074125
,,,-1.8E-06,0.007695625
,,,-1.79E-06,0.0077775
,,,-1.78E-06,0.007138125
,,,-1.77E-06,0.007336875
,,,-1.76E-06,0.00764375
,,,-1.75E-06,0.007664375
,,,-1.74E-06,0.00764625
,,,-1.73E-06,0.007295
,,,-1.72E-06,0.007126875
,,,-1.71E-06,0.007345
,,,-1.7E-06,0.0073775
,,,-1.69E-06,0.007368125
,,,-1.68E-06,0.00733625
,,,-1.67E-06,0.007725
,,,-1.66E-06,0.0075275
,,,-1.65E-06,0.007495625
,,,-1.64E-06,0.007640625
,,,-1.63E-06,0.007635
,,,-1.62E-06,0.00740375
,,,-1.61E-06,0.00754625
,,,-1.6E-06,0.007365
,,,-1.59E-06,0.00760625
,,,-1.58E-06,0.00759375
,,,-1.57E-06,0.007411875
,,,-1.56E-06,0.0075125
,,,-1.55E-06,0.00772375
,,,-1.54E-06,0.00752625
,,,-1.53E-06,0.00748
,,,-1.52E-06,0.007566875
,,,-1.51E-06,0.00735875
,,,-1.5E-06,0.0073175
,,,-1.49E-06,0.00771
,,,-1.48E-06,0.00744
,,,-1.47E-06,0.0072525
,,,-1.46E-06,0.00756875
,,,-1.45E-06,0.007335625
,,,-1.44E-06,0.00735875
,,,-1.43E-06,0.007615625
,,,-1.42E-06,0.0072025
,,,-1.41E-06,0.007316875
,,,-1.4E-06,0.007383125
,,,-1.39E-06,0.007326875
,,,-1.38E-06,0.00742125
,,,-1.37E-06,0.007614375
,,,-1.36E-06,0.00729625
,,,-1.35E-06,0.00750125
,,,-1.34E-06,0.007511875
,,,-1.33E-06,0.007368125
,,,-1.32E-06,0.0071475
,,,-1.31E-06,0.0074175
,,,-1.3E-06,0.007336875
,,,-1.29E-06,0.007254375
,,,-1.28E-06,0.00756125
,,,-1.27E-06,0.007428125
,,,-1.26E-06,0.007561875
,,,-1.25E-06,0.0074
,,,-1.24E-06,0.00779875
,,,-1.23E-06,0.00750875
,,,-1.22E-06,0.00731125
,,,-1.21E-06,0.007545625
,,,-1.2E-06,0.007583125
,,,-1.19E-06,0.007516875
,,,-1.18E-06,0.007540625
,,,-1.17E-06,0.007535
,,,-1.16E-06,0.00737375
,,,-1.15E-06,0.007464375
,,,-1.14E-06,0.0075075
,,,-1.13E-06,0.007613125
,,,-1.12E-06,0.007238125
,,,-1.11E-06,0.007406875
,,,-1.1E-06,0.007256875
,,,-1.09E-06,0.007375
,,,-1.08E-06,0.007188125
,,,-1.07E-06,0.007385
,,,-1.06E-06,0.007384375
,,,-1.05E-06,0.0073575
,,,-1.04E-06,0.00748
,,,-1.03E-06,0.007389375
,,,-1.02E-06,0.007783125
,,,-1.01E-06,0.00756
,,,-1E-06,0.007425
,,,-9.9E-07,0.00757625
,,,-9.8E-07,0.007463125
,,,-9.7E-07,0.007378125
,,,-9.6E-07,0.007641875
,,,-9.5E-07,0.00742125
,,,-9.4E-07,0.00759125
,,,-9.3E-07,0.0071525
,,,-9.2E-07,0.00769375
,,,-9.1E-07,0.00751875
,,,-9E-07,0.007389375
,,,-8.9E-07,0.00747625
,,,-8.8E-07,0.007328125
,,,-8.7E-07,0.0074425
,,,-8.6E-07,0.0074575
,,,-8.5E-07,0.00779125
,,,-8.4E-07,0.00759125
,,,-8.3E-07,0.007175625
,,,-8.2E-07,0.0075525
,,,-8.1E-07,0.00749375
,,,-8E-07,0.00743375
,,,-7.9E-07,0.00732875
,,,-7.8E-07,0.007469375
,,,-7.7E-07,0.007280625
,,,-7.6E-07,0.007536875
,,,-7.5E-07,0.00767
,,,-7.4E-07,0.0074025
,,,-7.3E-07,0.0074525
,,,-7.2E-07,0.007458125
,,,-7.1E-07,0.0075025
,,,-7E-07,0.007388125
,,,-6.9E-07,0.007456875
,,,-6.8E-07,0.0073875
,,,-6.7E-07,0.007551875
,,,-6.6E-07,0.007341875
,,,-6.5E-07,0.007310625
,,,-6.4E-07,0.00730375
,,,-6.3E-07,0.00776
,,,-6.2E-07,0.0073375
,,,-6.1E-07,0.0073375
,,,-6E-07,0.007325
,,,-5.9E-07,0.007555625
,,,-5.8E-07,0.007351875
,,,-5.7E-07,0.007410625
,,,-5.6E-07,0.007290625
,,,-5.5E-07,0.0072775
,,,-5.4E-07,0.007511875
,,,-5.3E-07,0.00749125
,,,-5.2E-07,0.007444375
,,,-5.1E-07,0.007513125
,,,-5E-07,0.00727
,,,-4.9E-07,0.007598125
,,,-4.8E-07,0.00748875
,,,-4.7E-07,0.007525
,,,-4.6E-07,0.0072575
,,,-4.5E-07,0.00729625
,,,-4.4E-07,0.007394375
,,,-4.3E-07,0.007359375
,,,-4.2E-07,0.00715625
,,,-4.1E-07,0.007523125
,,,-4E-07,0.00759
,,,-3.9E-07,0.0074125
,,,-3.8E-07,0.00743375
,,,-3.7E-07,0.00747875
,,,-3.6E-07,0.007445
,,,-3.5E-07,0.007559375
,,,-3.4E-07,0.00745375
,,,-3.3E-07,0.007424375
,,,-3.2E-07,0.007351875
,,,-3.1E-07,0.00713625
,,,-3E-07,0.007436875
,,,-2.9E-07,0.007456875
,,,-2.8E-07,0.00752125
,,,-2.7E-07,0.007479375
,,,-2.6E-07,0.007434375
,,,-2.5E-07,0.007448125
,,,-2.4E-07,0.007145625
,,,-2.3E-07,0.007375
,,,-2.2E-07,0.00753
,,,-2.1E-07,0.0073775
,,,-2E-07,0.0073725
,,,-1.9E-07,0.00734875
,,,-1.8E-07,0.007211875
,,,-1.7E-07,0.007361875
,,,-1.6E-07,0.007646875
,,,-1.5E-07,0.0076025
,,,-1.4E-07,0.007475
,,,-1.3E-07,0.007308125
,,,-1.2E-07,0.007425625
,,,-1.1E-07,0.007295625
,,,-1E-07,0.007624375
,,,-9E-08,0.007560625
,,,-8E-08,0.00734
,,,-7E-08,0.0073025
,,,-6E-08,0.007558125
,,,-5E-08,0.00728
,,,-4E-08,0.00804125
,,,-3E-08,0.008905625
,,,-2E-08,0.00704625
,,,-1E-08,0.004705625
,,,0,0.00337125
,,,1E-08,0.008305625
,,,2E-08,0.01146375
,,,3E-08,0.011915
,,,4E-08,0.008171875
,,,5E-08,0.0048975
,,,6E-08,0.003966875
,,,7E-08,0.005475625
,,,8E-08,0.007659375
,,,9E-08,0.008893125
,,,1E-07,0.00983375
,,,1.1E-07,0.008513125
,,,1.2E-07,0.0070625
,,,1.3E-07,0.005491875
,,,1.4E-07,0.0063875
,,,1.5E-07,0.00740375
,,,1.6E-07,0.007951875
,,,1.7E-07,0.0079375
,,,1.8E-07,0.007791875
,,,1.9E-07,0.00754125
,,,2E-07,0.00752875
,,,2.1E-07,0.00724375
,,,2.2E-07,0.00712625
,,,2.3E-07,0.00748
,,,2.4E-07,0.00728625
,,,2.5E-07,0.00761625
,,,2.6E-07,0.00733375
,,,2.7E-07,0.00753
,,,2.8E-07,0.007240625
,,,2.9E-07,0.00723625
,,,3E-07,0.007308125
,,,3.1E-07,0.007345
,,,3.2E-07,0.007465
,,,3.3E-07,0.0073975
,,,3.4E-07,0.00736125
,,,3.5E-07,0.007541875
,,,3.6E-07,0.007325
,,,3.7E-07,0.00739875
,,,3.8E-07,0.007354375
,,,3.9E-07,0.007411875
,,,4E-07,0.007475625
,,,4.1E-07,0.0073125
,,,4.2E-07,0.0073625
,,,4.3E-07,0.00751375
,,,4.4E-07,0.0071325
,,,4.5E-07,0.007531875
,,,4.6E-07,0.00751375
,,,4.7E-07,0.007303125
,,,4.8E-07,0.007493125
,,,4.9E-07,0.00745
,,,5E-07,0.00734875
,,,5.1E-07,0.007524375
,,,5.2E-07,0.0075375
,,,5.3E-07,0.00750875
,,,5.4E-07,0.0072925
,,,5.5E-07,0.007269375
,,,5.6E-07,0.007829375
,,,5.7E-07,0.00738
,,,5.8E-07,0.007605
,,,5.9E-07,0.007506875
,,,6E-07,0.00731
,,,6.1E-07,0.007334375
,,,6.2E-07,0.0072875
,,,6.3E-07,0.00751625
,,,6.4E-07,0.007514375
,,,6.5E-07,0.007551875
,,,6.6E-07,0.007678125
,,,6.7E-07,0.007490625
,,,6.8E-07,0.00733375
,,,6.9E-07,0.00739625
,,,7E-07,0.007229375
,,,7.1E-07,0.007308125
,,,7.2E-07,0.007489375
,,,7.3E-07,0.007274375
,,,7.4E-07,0.00742375
,,,7.5E-07,0.0075425
,,,7.6E-07,0.00724875
,,,7.7E-07,0.007201875
,,,7.8E-07,0.007715
,,,7.9E-07,0.0072525
,,,8E-07,0.00724
,,,8.1E-07,0.007471875
,,,8.2E-07,0.0074525
,,,8.3E-07,0.007354375
,,,8.4E-07,0.007430625
,,,8.5E-07,0.007573125
,,,8.6E-07,0.00734375
,,,8.7E-07,0.007475625
,,,8.8E-07,0.007750625
,,,8.9E-07,0.007439375
,,,9E-07,0.007639375
,,,9.1E-07,0.007258125
,,,9.2E-07,0.007365
,,,9.3E-07,0.007339375
,,,9.4E-07,0.00756
,,,9.5E-07,0.007525
,,,9.6E-07,0.00719375
,,,9.7E-07,0.007539375
,,,9.8E-07,0.00751125
,,,9.9E-07,0.007301875
,,,1E-06,0.00749
,,,1.01E-06,0.00723125
,,,1.02E-06,0.00773375
,,,1.03E-06,0.0072
,,,1.04E-06,0.0075475
,,,1.05E-06,0.00723
,,,1.06E-06,0.007379375
,,,1.07E-06,0.0074175
,,,1.08E-06,0.007419375
,,,1.09E-06,0.00755125
,,,1.1E-06,0.0074825
,,,1.11E-06,0.00740875
,,,1.12E-06,0.0074625
,,,1.13E-06,0.0074775
,,,1.14E-06,0.00740125
,,,1.15E-06,0.0075775
,,,1.16E-06,0.007586875
,,,1.17E-06,0.00730875
,,,1.18E-06,0.0074225
,,,1.19E-06,0.0074675
,,,1.2E-06,0.007261875
,,,1.21E-06,0.007726875
,,,1.22E-06,0.007316875
,,,1.23E-06,0.007489375
,,,1.24E-06,0.0076825
,,,1.25E-06,0.00746125
,,,1.26E-06,0.0073025
,,,1.27E-06,0.007255
,,,1.28E-06,0.007391875
,,,1.29E-06,0.007255
,,,1.3E-06,0.007275625
,,,1.31E-06,0.00731375
,,,1.32E-06,0.00748
,,,1.33E-06,0.007641875
,,,1.34E-06,0.00757375
,,,1.35E-06,0.007324375
,,,1.36E-06,0.007449375
,,,1.37E-06,0.00744625
,,,1.38E-06,0.007536875
,,,1.39E-06,0.00750125
,,,1.4E-06,0.00727875
,,,1.41E-06,0.007571875
,,,1.42E-06,0.00718375
,,,1.43E-06,0.007471875
,,,1.44E-06,0.007346875
,,,1.45E-06,0.007426875
,,,1.46E-06,0.007235625
,,,1.47E-06,0.007219375
,,,1.48E-06,0.00753625
,,,1.49E-06,0.007561875
,,,1.5E-06,0.00735
,,,1.51E-06,0.007719375
,,,1.52E-06,0.00707625
,,,1.53E-06,0.00737
,,,1.54E-06,0.0074825
,,,1.55E-06,0.00744
,,,1.56E-06,0.00758
,,,1.57E-06,0.007398125
,,,1.58E-06,0.007673125
,,,1.59E-06,0.007464375
,,,1.6E-06,0.0075175
,,,1.61E-06,0.007405625
,,,1.62E-06,0.007573125
,,,1.63E-06,0.007361875
,,,1.64E-06,0.0074925
,,,1.65E-06,0.00757625
,,,1.66E-06,0.0073525
,,,1.67E-06,0.007395
,,,1.68E-06,0.00747375
,,,1.69E-06,0.007146875
,,,1.7E-06,0.007346875
,,,1.71E-06,0.0074725
,,,1.72E-06,0.0077225
,,,1.73E-06,0.007425
,,,1.74E-06,0.007540625
,,,1.75E-06,0.007319375
,,,1.76E-06,0.00729125
,,,1.77E-06,0.007666875
,,,1.78E-06,0.007411875
,,,1.79E-06,0.007371875
,,,1.8E-06,0.007091875
,,,1.81E-06,0.0075175
,,,1.82E-06,0.007434375
,,,1.83E-06,0.0074725
,,,1.84E-06,0.0072575
,,,1.85E-06,0.0073825
,,,1.86E-06,0.00741125
,,,1.87E-06,0.007364375
,,,1.88E-06,0.007421875
,,,1.89E-06,0.007309375
,,,1.9E-06,0.007439375
,,,1.91E-06,0.007443125
,,,1.92E-06,0.007480625
,,,1.93E-06,0.0073925
,,,1.94E-06,0.0072775
,,,1.95E-06,0.007310625
,,,1.96E-06,0.007565
,,,1.97E-06,0.007764375
,,,1.98E-06,0.007294375
,,,1.99E-06,0.007425
,,,2E-06,0.007655625
,,,2.01E-06,0.007441875
,,,2.02E-06,0.007329375
,,,2.03E-06,0.007488125
,,,2.04E-06,0.007380625
,,,2.05E-06,0.0075275
,,,2.06E-06,0.00761875
,,,2.07E-06,0.007326875
,,,2.08E-06,0.007588125
,,,2.09E-06,0.00722125
,,,2.1E-06,0.007355
,,,2.11E-06,0.007435625
,,,2.12E-06,0.00734375
,,,2.13E-06,0.0073875
,,,2.14E-06,0.00739
,,,2.15E-06,0.0075475
,,,2.16E-06,0.007505625
,,,2.17E-06,0.007299375
,,,2.18E-06,0.007363125
,,,2.19E-06,0.00705375
,,,2.2E-06,0.007603125
,,,2.21E-06,0.00738875
,,,2.22E-06,0.007563125
,,,2.23E-06,0.007136875
,,,2.24E-06,0.00744125
,,,2.25E-06,0.00740875
,,,2.26E-06,0.007609375
,,,2.27E-06,0.007418125
,,,2.28E-06,0.00729125
,,,2.29E-06,0.00748625
,,,2.3E-06,0.007328125
,,,2.31E-06,0.007660625
,,,2.32E-06,0.007509375
,,,2.33E-06,0.007325625
,,,2.34E-06,0.00758125
,,,2.35E-06,0.007406875
,,,2.36E-06,0.007203125
,,,2.37E-06,0.0075025
,,,2.38E-06,0.007703125
,,,2.39E-06,0.00749
,,,2.4E-06,0.007445625
,,,2.41E-06,0.007265
,,,2.42E-06,0.007326875
,,,2.43E-06,0.007485
,,,2.44E-06,0.007568125
,,,2.45E-06,0.00746875
,,,2.46E-06,0.007304375
,,,2.47E-06,0.00746
,,,2.48E-06,0.007481875
,,,2.49E-06,0.007619375
,,,2.5E-06,0.007439375
,,,2.51E-06,0.00727375
,,,2.52E-06,0.007444375
,,,2.53E-06,0.007405625
,,,2.54E-06,0.00747
,,,2.55E-06,0.007701875
,,,2.56E-06,0.007615
,,,2.57E-06,0.0075025
,,,2.58E-06,0.007465
,,,2.59E-06,0.00712
,,,2.6E-06,0.007275625
,,,2.61E-06,0.00708625
,,,2.62E-06,0.007510625
,,,2.63E-06,0.007761875
,,,2.64E-06,0.007451875
,,,2.65E-06,0.00764125
,,,2.66E-06,0.007496875
,,,2.67E-06,0.007399375
,,,2.68E-06,0.007578125
,,,2.69E-06,0.007428125
,,,2.7E-06,0.00698375
,,,2.71E-06,0.007648125
,,,2.72E-06,0.00749125
,,,2.73E-06,0.007461875
,,,2.74E-06,0.0073325
,,,2.75E-06,0.00723375
,,,2.76E-06,0.0075125
,,,2.77E-06,0.00722125
,,,2.78E-06,0.007600625
,,,2.79E-06,0.007415625
,,,2.8E-06,0.0074575
,,,2.81E-06,0.007253125
,,,2.82E-06,0.007530625
,,,2.83E-06,0.00754
,,,2.84E-06,0.007439375
,,,2.85E-06,0.0075
,,,2.86E-06,0.007658125
,,,2.87E-06,0.007381875
,,,2.88E-06,0.007285
,,,2.89E-06,0.007450625
,,,2.9E-06,0.007515625
,,,2.91E-06,0.007350625
,,,2.92E-06,0.00756
,,,2.93E-06,0.00752
,,,2.94E-06,0.007643125
,,,2.95E-06,0.007584375
,,,2.96E-06,0.0073125
,,,2.97E-06,0.00722875
,,,2.98E-06,0.007526875
,,,2.99E-06,0.00762375
,,,3E-06,0.0073425
,,,3.01E-06,0.0073325
,,,3.02E-06,0.0071725
,,,3.03E-06,0.007279375
,,,3.04E-06,0.00769625
,,,3.05E-06,0.00742125
,,,3.06E-06,0.007626875
,,,3.07E-06,0.0075325
,,,3.08E-06,0.007475625
,,,3.09E-06,0.007399375
,,,3.1E-06,0.0073925
,,,3.11E-06,0.0072325
,,,3.12E-06,0.007549375
,,,3.13E-06,0.00761125
,,,3.14E-06,0.007563125
,,,3.15E-06,0.007091875
,,,3.16E-06,0.00747375
,,,3.17E-06,0.0073825
,,,3.18E-06,0.007439375
,,,3.19E-06,0.007193125
,,,3.2E-06,0.00740875
,,,3.21E-06,0.007508125
,,,3.22E-06,0.007415
,,,3.23E-06,0.007595625
,,,3.24E-06,0.007585
,,,3.25E-06,0.00744875
,,,3.26E-06,0.0073225
,,,3.27E-06,0.0075125
,,,3.28E-06,0.007458125
,,,3.29E-06,0.0073175
,,,3.3E-06,0.00736625
,,,3.31E-06,0.007328125
,,,3.32E-06,0.007545
,,,3.33E-06,0.007450625
,,,3.34E-06,0.007289375
,,,3.35E-06,0.0074575
,,,3.36E-06,0.00740375
,,,3.37E-06,0.007473125
,,,3.38E-06,0.00761125
,,,3.39E-06,0.007245625
,,,3.4E-06,0.007188125
,,,3.41E-06,0.00732625
,,,3.42E-06,0.00749875
,,,3.43E-06,0.007551875
,,,3.44E-06,0.007376875
,,,3.45E-06,0.00747
,,,3.46E-06,0.007485625
,,,3.47E-06,0.007435
,,,3.48E-06,0.00764
,,,3.49E-06,0.00741625
,,,3.5E-06,0.007328125
,,,3.51E-06,0.00726375
,,,3.52E-06,0.007530625
,,,3.53E-06,0.007485
,,,3.54E-06,0.0076475
,,,3.55E-06,0.00749
,,,3.56E-06,0.007471875
,,,3.57E-06,0.00738375
,,,3.58E-06,0.007393125
,,,3.59E-06,0.007141875
