data/raw/Final_POL_Test_1/SOP079_Ch3.csv

"Record Length",1000,"Points",-5E-06,0.017968126
"Sample Interval",1E-08,s,-4.99E-06,0.018030001
"Trigger Point",500,"Samples",-4.98E-06,0.018306251
"Trigger Time",0,s,-4.97E-06,0.018061251
"",,,-4.96E-06,0.017905626
"Horizontal Offset",-5E-06,s,-4.95E-06,0.018166251
,,,-4.94E-06,0.018068126
,,,-4.93E-06,0.017919376
,,,-4.92E-06,0.018060626
,,,-4.91E-06,0.017969376
,,,-4.9E-06,0.017673126
,,,-4.89E-06,0.018041876
,,,-4.88E-06,0.018091876
,,,-4.87E-06,0.017902501
,,,-4.86E-06,0.017903751
,,,-4.85E-06,0.018037501
,,,-4.84E-06,0.017938126
,,,-4.83E-06,0.018198126
,,,-4.82E-06,0.018208126
,,,-4.81E-06,0.018015001
,,,-4.8E-06,0.017925001
,,,-4.79E-06,0.018321876
,,,-4.78E-06,0.017942501
,,,-4.77E-06,0.018031876
,,,-4.76E-06,0.018121876
,,,-4.75E-06,0.018156251
,,,-4.74E-06,0.017983751
,,,-4.73E-06,0.017896251
,,,-4.72E-06,0.017956251
,,,-4.71E-06,0.018166251
,,,-4.7E-06,0.018314376
,,,-4.69E-06,0.017795626
,,,-4.68E-06,0.018062501
,,,-4.67E-06,0.017961876
,,,-4.66E-06,0.018040001
,,,-4.65E-06,0.018146876
,,,-4.64E-06,0.018089376
,,,-4.63E-06,0.017897501
,,,-4.62E-06,0.017709376
,,,-4.61E-06,0.018050001
,,,-4.6E-06,0.017960001
,,,-4.59E-06,0.018000626
,,,-4.58E-06,0.017978126
,,,-4.57E-06,0.018032501
,,,-4.56E-06,0.017826251
,,,-4.55E-06,0.018090001
,,,-4.54E-06,0.018262501
,,,-4.53E-06,0.018008126
,,,-4.52E-06,0.017951251
,,,-4.51E-06,0.017953126
,,,-4.5E-06,0.017865626
,,,-4.49E-06,0.018118126
,,,-4.48E-06,0.018000001
,,,-4.47E-06,0.017931251
,,,-4.46E-06,0.018246251
,,,-4.45E-06,0.018216251
,,,-4.44E-06,0.018104376
,,,-4.43E-06,0.018171876
,,,-4.42E-06,0.018061876
,,,-4.41E-06,0.017813751
,,,-4.4E-06,0.018014376
,,,-4.39E-06,0.018130001
,,,-4.38E-06,0.017762501
,,,-4.37E-06,0.018071876
,,,-4.36E-06,0.017868751
,,,-4.35E-06,0.017996876
,,,-4.34E-06,0.017862501
,,,-4.33E-06,0.018150626
,,,-4.32E-06,0.017832501
,,,-4.31E-06,0.017796876
,,,-4.3E-06,0.018191251
,,,-4.29E-06,0.017958126
,,,-4.28E-06,0.017828126
,,,-4.27E-06,0.018176876
,,,-4.26E-06,0.018195626
,,,-4.25E-06,0.018093751
,,,-4.24E-06,0.018090001
,,,-4.23E-06,0.017950626
,,,-4.22E-06,0.018140626
,,,-4.21E-06,0.018033751
,,,-4.2E-06,0.017750001
,,,-4.19E-06,0.018155626
,,,-4.18E-06,0.018127501
,,,-4.17E-06,0.018031876
,,,-4.16E-06,0.017995626
,,,-4.15E-06,0.017895001
,,,-4.14E-06,0.018095001
,,,-4.13E-06,0.017703126
,,,-4.12E-06,0.018144376
,,,-4.11E-06,0.017991876
,,,-4.1E-06,0.018088751
,,,-4.09E-06,0.017948751
,,,-4.08E-06,0.018105626
,,,-4.07E-06,0.017837501
,,,-4.06E-06,0.018196876
,,,-4.05E-06,0.017873126
,,,-4.04E-06,0.017906876
,,,-4.03E-06,0.018111251
,,,-4.02E-06,0.017812501
,,,-4.01E-06,0.017931876
,,,-4E-06,0.017925001
,,,-3.99E-06,0.018009376
,,,-3.98E-06,0.017917501
,,,-3.97E-06,0.018011876
,,,-3.96E-06,0.018252501
,,,-3.95E-06,0.018072501
,,,-3.94E-06,0.018146251
,,,-3.93E-06,0.018078751
,,,-3.92E-06,0.017833126
,,,-3.91E-06,0.018199376
,,,-3.9E-06,0.018012501
,,,-3.89E-06,0.018179376
,,,-3.88E-06,0.017922501
,,,-3.87E-06,0.017874376
,,,-3.86E-06,0.017737501
,,,-3.85E-06,0.018083751
,,,-3.84E-06,0.017905626
,,,-3.83E-06,0.018126876
,,,-3.82E-06,0.018196876
,,,-3.81E-06,0.017847501
,,,-3.8E-06,0.017521251
,,,-3.79E-06,0.017863126
,,,-3.78E-06,0.017985001
,,,-3.77E-06,0.017947501
,,,-3.76E-06,0.018081876
,,,-3.75E-06,0.018049376
,,,-3.74E-06,0.018204376
,,,-3.73E-06,0.018208751
,,,-3.72E-06,0.017940001
,,,-3.71E-06,0.017903126
,,,-3.7E-06,0.018200001
,,,-3.69E-06,0.017963126
,,,-3.68E-06,0.018008751
,,,-3.67E-06,0.018083126
,,,-3.66E-06,0.018181251
,,,-3.65E-06,0.018120626
,,,-3.64E-06,0.018081876
,,,-3.63E-06,0.018051251
,,,-3.62E-06,0.017960626
,,,-3.61E-06,0.018052501
,,,-3.6E-06,0.018105001
,,,-3.59E-06,0.018031251
,,,-3.58E-06,0.017884376
,,,-3.57E-06,0.018170001
,,,-3.56E-06,0.018251251
,,,-3.55E-06,0.018145001
,,,-3.54E-06,0.018033126
,,,-3.53E-06,0.018002501
,,,-3.52E-06,0.017844376
,,,-3.51E-06,0.018132501
,,,-3.5E-06,0.017990001
,,,-3.49E-06,0.017892501
,,,-3.48E-06,0.018170626
,,,-3.47E-06,0.017908751
,,,-3.46E-06,0.017989376
,,,-3.45E-06,0.017888751
,,,-3.44E-06,0.017665626
,,,-3.43E-06,0.017964376
,,,-3.42E-06,0.017979376
,,,-3.41E-06,0.017856876
,,,-3.4E-06,0.018231251
,,,-3.39E-06,0.018111251
,,,-3.38E-06,0.017828751
,,,-3.37E-06,0.018072501
,,,-3.36E-06,0.018046876
,,,-3.35E-06,0.018072501
,,,-3.34E-06,0.017855626
,,,-3.33E-06,0.018019376
,,,-3.32E-06,0.018111251
,,,-3.31E-06,0.017978751
,,,-3.3E-06,0.018252501
,,,-3.29E-06,0.017885001
,,,-3.28E-06,0.017811876
,,,-3.27E-06,0.017886251
,,,-3.26E-06,0.018273751
,,,-3.25E-06,0.018139376
,,,-3.24E-06,0.018317501
,,,-3.23E-06,0.017900626
,,,-3.22E-06,0.018053126
,,,-3.21E-06,0.017998751
,,,-3.2E-06,0.018161876
,,,-3.19E-06,0.017753126
,,,-3.18E-06,0.017990626
,,,-3.17E-06,0.017925001
,,,-3.16E-06,0.018164376
,,,-3.15E-06,0.018148751
,,,-3.14E-06,0.017766876
,,,-3.13E-06,0.018015001
,,,-3.12E-06,0.017903126
,,,-3.11E-06,0.018077501
,,,-3.1E-06,0.018081876
,,,-3.09E-06,0.017940001
,,,-3.08E-06,0.018070626
,,,-3.07E-06,0.018203751
,,,-3.06E-06,0.018108126
,,,-3.05E-06,0.018146251
,,,-3.04E-06,0.017895626
,,,-3.03E-06,0.017937501
,,,-3.02E-06,0.018160001
,,,-3.01E-06,0.018017501
,,,-3E-06,0.018114376
,,,-2.99E-06,0.017966876
,,,-2.98E-06,0.017845626
,,,-2.97E-06,0.018416251
,,,-2.96E-06,0.018016876
,,,-2.95E-06,0.018157501
,,,-2.94E-06,0.018069376
,,,-2.93E-06,0.017920001
,,,-2.92E-06,0.018025626
,,,-2.91E-06,0.018104376
,,,-2.9E-06,0.018008751
,,,-2.89E-06,0.018001876
,,,-2.88E-06,0.018081251
,,,-2.87E-06,0.018239376
,,,-2.86E-06,0.018090626
,,,-2.85E-06,0.018078751
,,,-2.84E-06,0.018040001
,,,-2.83E-06,0.018070626
,,,-2.82E-06,0.018065626
,,,-2.81E-06,0.018051876
,,,-2.8E-06,0.017895001
,,,-2.79E-06,0.018054376
,,,-2.78E-06,0.017896251
,,,-2.77E-06,0.017931876
,,,-2.76E-06,0.017961251
,,,-2.75E-06,0.018208126
,,,-2.74E-06,0.018046876
,,,-2.73E-06,0.018277501
,,,-2.72E-06,0.018284376
,,,-2.71E-06,0.017952501
,,,-2.7E-06,0.018191251
,,,-2.69E-06,0.018030626
,,,-2.68E-06,0.018060001
,,,-2.67E-06,0.017735001
,,,-2.66E-06,0.018152501
,,,-2.65E-06,0.018089376
,,,-2.64E-06,0.018177501
,,,-2.63E-06,0.018071251
,,,-2.62E-06,0.018088126
,,,-2.61E-06,0.017960001
,,,-2.6E-06,0.018119376
,,,-2.59E-06,0.018068126
,,,-2.58E-06,0.018085626
,,,-2.57E-06,0.018343126
,,,-2.56E-06,0.018197501
,,,-2.55E-06,0.018020626
,,,-2.54E-06,0.018003126
,,,-2.53E-06,0.017962501
,,,-2.52E-06,0.018046876
,,,-2.51E-06,0.018094376
,,,-2.5E-06,0.018447501
,,,-2.49E-06,0.018081251
,,,-2.48E-06,0.017919376
,,,-2.47E-06,0.018125626
,,,-2.46E-06,0.017966251
,,,-2.45E-06,0.018013751
,,,-2.44E-06,0.018075001
,,,-2.43E-06,0.017908751
,,,-2.42E-06,0.017941876
,,,-2.41E-06,0.018107501
,,,-2.4E-06,0.018103126
,,,-2.39E-06,0.017933751
,,,-2.38E-06,0.017996251
,,,-2.37E-06,0.018144376
,,,-2.36E-06,0.017969376
,,,-2.35E-06,0.018109376
,,,-2.34E-06,0.018187501
,,,-2.33E-06,0.018013126
,,,-2.32E-06,0.018026251
,,,-2.31E-06,0.017972501
,,,-2.3E-06,0.018182501
,,,-2.29E-06,0.017981876
,,,-2.28E-06,0.018069376
,,,-2.27E-06,0.018148126
,,,-2.26E-06,0.017978751
,,,-2.25E-06,0.018177501
,,,-2.24E-06,0.018001251
,,,-2.23E-06,0.017837501
,,,-2.22E-06,0.017858751
,,,-2.21E-06,0.018043126
,,,-2.2E-06,0.018156876
,,,-2.19E-06,0.018221251
,,,-2.18E-06,0.017903126
,,,-2.17E-06,0.018206876
,,,-2.16E-06,0.018141251
,,,-2.15E-06,0.018028751
,,,-2.14E-06,0.017951876
,,,-2.13E-06,0.018136876
,,,-2.12E-06,0.017841251
,,,-2.11E-06,0.017821251
,,,-2.1E-06,0.018176876
,,,-2.09E-06,0.017889376
,,,-2.08E-06,0.018232501
,,,-2.07E-06,0.017953126
,,,-2.06E-06,0.017890001
,,,-2.05E-06,0.017877501
,,,-2.04E-06,0.017900001
,,,-2.03E-06,0.018022501
,,,-2.02E-06,0.018114376
,,,-2.01E-06,0.018042501
,,,-2E-06,0.017985626
,,,-1.99E-06,0.017871251
,,,-1.98E-06,0.017779376
,,,-1.97E-06,0.018040001
,,,-1.96E-06,0.017823126
,,,-1.95E-06,0.018024376
,,,-1.94E-06,0.017848751
,,,-1.93E-06,0.018186251
,,,-1.92E-06,0.017924376
,,,-1.91E-06,0.017859376
,,,-1.9E-06,0.017888751
,,,-1.89E-06,0.017730001
,,,-1.88E-06,0.017716251
,,,-1.87E-06,0.017709376
,,,-1.86E-06,0.018275626
,,,-1.85E-06,0.017980001
,,,-1.84E-06,0.017816876
,,,-1.83E-06,0.017899376
,,,-1.82E-06,0.017890626
,,,-1.81E-06,0.018118126
,,,-1.8E-06,0.018127501
,,,-1.79E-06,0.018010626
,,,-1.78E-06,0.017976876
,,,-1.77E-06,0.018045626
,,,-1.76E-06,0.018133126
,,,-1.75E-06,0.017936876
,,,-1.74E-06,0.018080626
,,,-1.73E-06,0.018296251
,,,-1.72E-06,0.017766876
,,,-1.71E-06,0.017986251
,,,-1.7E-06,0.017839376
,,,-1.69E-06,0.018047501
,,,-1.68E-06,0.018082501
,,,-1.67E-06,0.017977501
,,,-1.66E-06,0.018090626
,,,-1.65E-06,0.018030001
,,,-1.64E-06,0.017991876
,,,-1.63E-06,0.017995001
,,,-1.62E-06,0.017895001
,,,-1.61E-06,0.017813126
,,,-1.6E-06,0.017845626
,,,-1.59E-06,0.018190001
,,,-1.58E-06,0.018049376
,,,-1.57E-06,0.018030001
,,,-1.56E-06,0.018146876
,,,-1.55E-06,0.017741876
,,,-1.54E-06,0.018004376
,,,-1.53E-06,0.017897501
,,,-1.52E-06,0.018106876
,,,-1.51E-06,0.017710626
,,,-1.5E-06,0.018313126
,,,-1.49E-06,0.017848751
,,,-1.48E-06,0.017910626
,,,-1.47E-06,0.018048126
,,,-1.46E-06,0.018136876
,,,-1.45E-06,0.018116251
,,,-1.44E-06,0.017985626
,,,-1.43E-06,0.018105001
,,,-1.42E-06,0.018255001
,,,-1.41E-06,0.017986251
,,,-1.4E-06,0.017982501
,,,-1.39E-06,0.018025626
,,,-1.38E-06,0.018012501
,,,-1.37E-06,0.017892501
,,,-1.36E-06,0.017948751
,,,-1.35E-06,0.018170001
,,,-1.34E-06,0.017746876
,,,-1.33E-06,0.017870626
,,,-1.32E-06,0.018232501
,,,-1.31E-06,0.018105626
,,,-1.3E-06,0.018113126
,,,-1.29E-06,0.017845001
,,,-1.28E-06,0.018176876
,,,-1.27E-06,0.018201251
,,,-1.26E-06,0.018246251
,,,-1.25E-06,0.018226876
,,,-1.24E-06,0.018064376
,,,-1.23E-06,0.018066251
,,,-1.22E-06,0.017778126
,,,-1.21E-06,0.017678126
,,,-1.2E-06,0.018033126
,,,-1.19E-06,0.018106251
,,,-1.18E-06,0.018203751
,,,-1.17E-06,0.018035626
,,,-1.16E-06,0.017850001
,,,-1.15E-06,0.018132501
,,,-1.14E-06,0.017892501
,,,-1.13E-06,0.017980001
,,,-1.12E-06,0.017856251
,,,-1.11E-06,0.017920626
,,,-1.1E-06,0.018134376
,,,-1.09E-06,0.018036251
,,,-1.08E-06,0.017968126
,,,-1.07E-06,0.018083751
,,,-1.06E-06,0.018048751
,,,-1.05E-06,0.018056876
,,,-1.04E-06,0.018018751
,,,-1.03E-06,0.017892501
,,,-1.02E-06,0.017986251
,,,-1.01E-06,0.018128126
,,,-1E-06,0.018045001
,,,-9.9E-07,0.017980626
,,,-9.8E-07,0.017797501
,,,-9.7E-07,0.018135001
,,,-9.6E-07,0.017998751
,,,-9.5E-07,0.017905001
,,,-9.4E-07,0.018200626
,,,-9.3E-07,0.018185626
,,,-9.2E-07,0.018112501
,,,-9.1E-07,0.018030001
,,,-9E-07,0.018048126
,,,-8.9E-07,0.017753751
,,,-8.8E-07,0.018016251
,,,-8.7E-07,0.018081251
,,,-8.6E-07,0.018010001
,,,-8.5E-07,0.017907501
,,,-8.4E-07,0.018164376
,,,-8.3E-07,0.018056251
,,,-8.2E-07,0.017988751
,,,-8.1E-07,0.018057501
,,,-8E-07,0.017838126
,,,-7.9E-07,0.018228126
,,,-7.8E-07,0.018156876
,,,-7.7E-07,0.018388751
,,,-7.6E-07,0.017952501
,,,-7.5E-07,0.018079376
,,,-7.4E-07,0.017950626
,,,-7.3E-07,0.017913126
,,,-7.2E-07,0.017801251
,,,-7.1E-07,0.017890001
,,,-7E-07,0.018361876
,,,-6.9E-07,0.018108751
,,,-6.8E-07,0.017908126
,,,-6.7E-07,0.018015001
,,,-6.6E-07,0.017803126
,,,-6.5E-07,0.017857501
,,,-6.4E-07,0.018012501
,,,-6.3E-07,0.017776251
,,,-6.2E-07,0.017802501
,,,-6.1E-07,0.018311251
,,,-6E-07,0.018065001
,,,-5.9E-07,0.018124376
,,,-5.8E-07,0.018081876
,,,-5.7E-07,0.017926251
,,,-5.6E-07,0.017811876
,,,-5.5E-07,0.017956251
,,,-5.4E-07,0.017825001
,,,-5.3E-07,0.018157501
,,,-5.2E-07,0.018121251
,,,-5.1E-07,0.017961876
,,,-5E-07,0.017913751
,,,-4.9E-07,0.017951251
,,,-4.8E-07,0.017941876
,,,-4.7E-07,0.018265001
,,,-4.6E-07,0.017870626
,,,-4.5E-07,0.018088751
,,,-4.4E-07,0.018281876
,,,-4.3E-07,0.018304376
,,,-4.2E-07,0.018095626
,,,-4.1E-07,0.018135001
,,,-4E-07,0.017993751
,,,-3.9E-07,0.017810626
,,,-3.8E-07,0.017858751
,,,-3.7E-07,0.017948126
,,,-3.6E-07,0.018238751
,,,-3.5E-07,0.018066251
,,,-3.4E-07,0.018194376
,,,-3.3E-07,0.018020626
,,,-3.2E-07,0.018066251
,,,-3.1E-07,0.018142501
,,,-3E-07,0.017926876
,,,-2.9E-07,0.017818126
,,,-2.8E-07,0.018183126
,,,-2.7E-07,0.018201876
,,,-2.6E-07,0.018021876
,,,-2.5E-07,0.018395626
,,,-2.4E-07,0.018013751
,,,-2.3E-07,0.017949376
,,,-2.2E-07,0.018124376
,,,-2.1E-07,0.018296251
,,,-2E-07,0.018270001
,,,-1.9E-07,0.017902501
,,,-1.8E-07,0.018090001
,,,-1.7E-07,0.018108126
,,,-1.6E-07,0.018005626
,,,-1.5E-07,0.017705626
,,,-1.4E-07,0.017831876
,,,-1.3E-07,0.017984376
,,,-1.2E-07,0.018121251
,,,-1.1E-07,0.017861876
,,,-1E-07,0.018000001
,,,-9E-08,0.017994376
,,,-8E-08,0.018098751
,,,-7E-08,0.017971876
,,,-6E-08,0.017929376
,,,-5E-08,0.017828126
,,,-4E-08,0.018653751
,,,-3E-08,0.019988751
,,,-2E-08,0.016920626
,,,-1E-08,0.014836876
,,,0,0.013705626
,,,1E-08,0.019920626
,,,2E-08,0.022290626
,,,3E-08,0.022575626
,,,4E-08,0.018343126
,,,5E-08,0.015646876
,,,6E-08,0.013899376
,,,7E-08,0.016018126
,,,8E-08,0.018208126
,,,9E-08,0.020186251
,,,1E-07,0.020411876
,,,1.1E-07,0.018848751
,,,1.2E-07,0.017325001
,,,1.3E-07,0.016050001
,,,1.4E-07,0.016952501
,,,1.5E-07,0.018042501
,,,1.6E-07,0.018715626
,,,1.7E-07,0.018524376
,,,1.8E-07,0.018333751
,,,1.9E-07,0.018123126
,,,2E-07,0.018022501
,,,2.1E-07,0.017850001
,,,2.2E-07,0.017418751
,,,2.3E-07,0.017831251
,,,2.4E-07,0.018269376
,,,2.5E-07,0.017938126
,,,2.6E-07,0.018026876
,,,2.7E-07,0.018196251
,,,2.8E-07,0.017986876
,,,2.9E-07,0.018183751
,,,3E-07,0.017945001
,,,3.1E-07,0.017946251
,,,3.2E-07,0.018141251
,,,3.3E-07,0.018229376
,,,3.4E-07,0.018021876
,,,3.5E-07,0.018016876
,,,3.6E-07,0.017900626
,,,3.7E-07,0.018113126
,,,3.8E-07,0.017871876
,,,3.9E-07,0.017852501
,,,4E-07,0.018159376
,,,4.1E-07,0.017947501
,,,4.2E-07,0.018155626
,,,4.3E-07,0.017869376
,,,4.4E-07,0.017893751
,,,4.5E-07,0.017825626
,,,4.6E-07,0.017989376
,,,4.7E-07,0.017736876
,,,4.8E-07,0.017961876
,,,4.9E-07,0.018022501
,,,5E-07,0.018023751
,,,5.1E-07,0.018094376
,,,5.2E-07,0.018368126
,,,5.3E-07,0.018040626
,,,5.4E-07,0.017981251
,,,5.5E-07,0.017874376
,,,5.6E-07,0.017796876
,,,5.7E-07,0.018235001
,,,5.8E-07,0.018130626
,,,5.9E-07,0.017961876
,,,6E-07,0.018240001
,,,6.1E-07,0.018223751
,,,6.2E-07,0.017775001
,,,6.3E-07,0.017893126
,,,6.4E-07,0.017943751
,,,6.5E-07,0.018274376
,,,6.6E-07,0.018052501
,,,6.7E-07,0.018152501
,,,6.8E-07,0.018173126
,,,6.9E-07,0.017898126
,,,7E-07,0.018000626
,,,7.1E-07,0.017850001
,,,7.2E-07,0.018276876
,,,7.3E-07,0.018116251
,,,7.4E-07,0.018017501
,,,7.5E-07,0.018068126
,,,7.6E-07,0.017944376
,,,7.7E-07,0.017800626
,,,7.8E-07,0.018121876
,,,7.9E-07,0.017911251
,,,8E-07,0.018011876
,,,8.1E-07,0.018240001
,,,8.2E-07,0.017750001
,,,8.3E-07,0.018161251
,,,8.4E-07,0.017796876
,,,8.5E-07,0.018111251
,,,8.6E-07,0.017995001
,,,8.7E-07,0.017773751
,,,8.8E-07,0.018126876
,,,8.9E-07,0.017900001
,,,9E-07,0.017906876
,,,9.1E-07,0.017983751
,,,9.2E-07,0.018172501
,,,9.3E-07,0.018098751
,,,9.4E-07,0.018137501
,,,9.5E-07,0.017822501
,,,9.6E-07,0.017890626
,,,9.7E-07,0.017985626
,,,9.8E-07,0.018011251
,,,9.9E-07,0.017949376
,,,1E-06,0.017828751
,,,1.01E-06,0.017781251
,,,1.02E-06,0.017981876
,,,1.03E-06,0.018061876
,,,1.04E-06,0.018093751
,,,1.05E-06,0.018026876
,,,1.06E-06,0.018235626
,,,1.07E-06,0.018210001
,,,1.08E-06,0.017946876
,,,1.09E-06,0.017943751
,,,1.1E-06,0.018190626
,,,1.11E-06,0.017765001
,,,1.12E-06,0.017978126
,,,1.13E-06,0.017964376
,,,1.14E-06,0.017851251
,,,1.15E-06,0.018129376
,,,1.16E-06,0.018200626
,,,1.17E-06,0.018150001
,,,1.18E-06,0.018103751
,,,1.19E-06,0.017937501
,,,1.2E-06,0.018083126
,,,1.21E-06,0.017904376
,,,1.22E-06,0.017923751
,,,1.23E-06,0.018061876
,,,1.24E-06,0.018121251
,,,1.25E-06,0.018240626
,,,1.26E-06,0.018030001
,,,1.27E-06,0.018022501
,,,1.28E-06,0.017960626
,,,1.29E-06,0.018053126
,,,1.3E-06,0.017926876
,,,1.31E-06,0.017784376
,,,1.32E-06,0.018156876
,,,1.33E-06,0.018035626
,,,1.34E-06,0.018222501
,,,1.35E-06,0.017652501
,,,1.36E-06,0.018021251
,,,1.37E-06,0.017867501
,,,1.38E-06,0.017953126
,,,1.39E-06,0.017960001
,,,1.4E-06,0.018026876
,,,1.41E-06,0.017978751
,,,1.42E-06,0.017931876
,,,1.43E-06,0.017946876
,,,1.44E-06,0.018105626
,,,1.45E-06,0.018116876
,,,1.46E-06,0.017985626
,,,1.47E-06,0.018069376
,,,1.48E-06,0.017943751
,,,1.49E-06,0.018174376
,,,1.5E-06,0.017867501
,,,1.51E-06,0.017713126
,,,1.52E-06,0.017985001
,,,1.53E-06,0.017798126
,,,1.54E-06,0.017831876
,,,1.55E-06,0.017899376
,,,1.56E-06,0.017998751
,,,1.57E-06,0.018323126
,,,1.58E-06,0.017877501
,,,1.59E-06,0.017996876
,,,1.6E-06,0.017839376
,,,1.61E-06,0.018035001
,,,1.62E-06,0.018068126
,,,1.63E-06,0.017965626
,,,1.64E-06,0.017851251
,,,1.65E-06,0.018126876
,,,1.66E-06,0.018243126
,,,1.67E-06,0.018105626
,,,1.68E-06,0.017996251
,,,1.69E-06,0.017938751
,,,1.7E-06,0.018113126
,,,1.71E-06,0.018056876
,,,1.72E-06,0.018037501
,,,1.73E-06,0.017905626
,,,1.74E-06,0.017755626
,,,1.75E-06,0.018270001
,,,1.76E-06,0.017989376
,,,1.77E-06,0.017851876
,,,1.78E-06,0.017892501
,,,1.79E-06,0.017982501
,,,1.8E-06,0.018093126
,,,1.81E-06,0.017855626
,,,1.82E-06,0.018130001
,,,1.83E-06,0.018117501
,,,1.84E-06,0.018025001
,,,1.85E-06,0.018077501
,,,1.86E-06,0.018250626
,,,1.87E-06,0.018050626
,,,1.88E-06,0.017888126
,,,1.89E-06,0.018168126
,,,1.9E-06,0.017966876
,,,1.91E-06,0.017943751
,,,1.92E-06,0.018288751
,,,1.93E-06,0.017899376
,,,1.94E-06,0.017960626
,,,1.95E-06,0.018150001
,,,1.96E-06,0.017928751
,,,1.97E-06,0.018039376
,,,1.98E-06,0.018028126
,,,1.99E-06,0.018112501
,,,2E-06,0.018038126
,,,2.01E-06,0.018027501
,,,2.02E-06,0.018143751
,,,2.03E-06,0.017898751
,,,2.04E-06,0.018052501
,,,2.05E-06,0.018021251
,,,2.06E-06,0.018021876
,,,2.07E-06,0.018091251
,,,2.08E-06,0.017838751
,,,2.09E-06,0.017850626
,,,2.1E-06,0.018150626
,,,2.11E-06,0.018124376
,,,2.12E-06,0.017825001
,,,2.13E-06,0.017975001
,,,2.14E-06,0.018003126
,,,2.15E-06,0.017934376
,,,2.16E-06,0.018128751
,,,2.17E-06,0.018018126
,,,2.18E-06,0.017952501
,,,2.19E-06,0.017800626
,,,2.2E-06,0.018122501
,,,2.21E-06,0.017956251
,,,2.22E-06,0.017944376
,,,2.23E-06,0.018184376
,,,2.24E-06,0.018020001
,,,2.25E-06,0.018196876
,,,2.26E-06,0.018036876
,,,2.27E-06,0.018060001
,,,2.28E-06,0.018122501
,,,2.29E-06,0.017994376
,,,2.3E-06,0.017948126
,,,2.31E-06,0.018085626
,,,2.32E-06,0.017923126
,,,2.33E-06,0.018006251
,,,2.34E-06,0.018238751
,,,2.35E-06,0.017881251
,,,2.36E-06,0.017907501
,,,2.37E-06,0.018083126
,,,2.38E-06,0.018315001
,,,2.39E-06,0.018073126
,,,2.4E-06,0.018300001
,,,2.41E-06,0.017748126
,,,2.42E-06,0.018009376
,,,2.43E-06,0.017977501
,,,2.44E-06,0.018063751
,,,2.45E-06,0.017938126
,,,2.46E-06,0.017898126
,,,2.47E-06,0.018070001
,,,2.48E-06,0.018188751
,,,2.49E-06,0.018265001
,,,2.5E-06,0.018261876
,,,2.51E-06,0.018047501
,,,2.52E-06,0.017785626
,,,2.53E-06,0.018057501
,,,2.54E-06,0.017805626
,,,2.55E-06,0.018085626
,,,2.56E-06,0.017878751
,,,2.57E-06,0.018111876
,,,2.58E-06,0.017891251
,,,2.59E-06,0.017696876
,,,2.6E-06,0.017783126
,,,2.61E-06,0.017896876
,,,2.62E-06,0.018118126
,,,2.63E-06,0.017971876
,,,2.64E-06,0.018182501
,,,2.65E-06,0.018326251
,,,2.66E-06,0.017970001
,,,2.67E-06,0.017898751
,,,2.68E-06,0.018045626
,,,2.69E-06,0.018095001
,,,2.7E-06,0.018278126
,,,2.71E-06,0.018173126
,,,2.72E-06,0.018153126
,,,2.73E-06,0.018143126
,,,2.74E-06,0.018064376
,,,2.75E-06,0.018125001
,,,2.76E-06,0.017953126
,,,2.77E-06,0.017966251
,,,2.78E-06,0.018018126
,,,2.79E-06,0.017881876
,,,2.8E-06,0.018076876
,,,2.81E-06,0.017860001
,,,2.82E-06,0.018219376
,,,2.83E-06,0.018105626
,,,2.84E-06,0.017871251
,,,2.85E-06,0.017955626
,,,2.86E-06,0.017861251
,,,2.87E-06,0.018185001
,,,2.88E-06,0.018023126
,,,2.89E-06,0.018105626
,,,2.9E-06,0.018013126
,,,2.91E-06,0.017955001
,,,2.92E-06,0.017978126
,,,2.93E-06,0.018124376
,,,2.94E-06,0.018050626
,,,2.95E-06,0.017961876
,,,2.96E-06,0.018070001
,,,2.97E-06,0.017905001
,,,2.98E-06,0.018038126
,,,2.99E-06,0.017997501
,,,3E-06,0.018066876
,,,3.01E-06,0.018126876
,,,3.02E-06,0.018091876
,,,3.03E-06,0.017930001
,,,3.04E-06,0.017945001
,,,3.05E-06,0.018030626
,,,3.06E-06,0.018053126
,,,3.07E-06,0.018308126
,,,3.08E-06,0.018195001
,,,3.09E-06,0.017981251
,,,3.1E-06,0.018008751
,,,3.11E-06,0.018075626
,,,3.12E-06,0.018058126
,,,3.13E-06,0.017982501
,,,3.14E-06,0.018011876
,,,3.15E-06,0.018134376
,,,3.16E-06,0.018085001
,,,3.17E-06,0.018103126
,,,3.18E-06,0.017884376
,,,3.19E-06,0.018235626
,,,3.2E-06,0.018024376
,,,3.21E-06,0.017941251
