data/raw/Final_POL_Test_1/SOP029_Ch3.csv

"Record Length",1000,"Points",-5E-06,0.017125001
"Sample Interval",1E-08,s,-4.99E-06,0.017022501
"Trigger Point",500,"Samples",-4.98E-06,0.017076251
"Trigger Time",0,s,-4.97E-06,0.016965001
"",,,-4.96E-06,0.017045001
"Horizontal Offset",-5E-06,s,-4.95E-06,0.017060001
,,,-4.94E-06,0.016931251
,,,-4.93E-06,0.017229376
,,,-4.92E-06,0.016960626
,,,-4.91E-06,0.017076876
,,,-4.9E-06,0.017223126
,,,-4.89E-06,0.017017501
,,,-4.88E-06,0.017252501
,,,-4.87E-06,0.016890626
,,,-4.86E-06,0.017122501
,,,-4.85E-06,0.016979376
,,,-4.84E-06,0.017281876
,,,-4.83E-06,0.017307501
,,,-4.82E-06,0.016903751
,,,-4.81E-06,0.017460626
,,,-4.8E-06,0.016948126
,,,-4.79E-06,0.017128126
,,,-4.78E-06,0.016954376
,,,-4.77E-06,0.017011251
,,,-4.76E-06,0.017056876
,,,-4.75E-06,0.017106251
,,,-4.74E-06,0.017076251
,,,-4.73E-06,0.017176251
,,,-4.72E-06,0.017029376
,,,-4.71E-06,0.017265001
,,,-4.7E-06,0.017007501
,,,-4.69E-06,0.017005001
,,,-4.68E-06,0.016811876
,,,-4.67E-06,0.017201876
,,,-4.66E-06,0.017086876
,,,-4.65E-06,0.017178751
,,,-4.64E-06,0.017008126
,,,-4.63E-06,0.017045626
,,,-4.62E-06,0.016760001
,,,-4.61E-06,0.017250626
,,,-4.6E-06,0.016960626
,,,-4.59E-06,0.016939376
,,,-4.58E-06,0.017168126
,,,-4.57E-06,0.017177501
,,,-4.56E-06,0.017205001
,,,-4.55E-06,0.017120626
,,,-4.54E-06,0.017030626
,,,-4.53E-06,0.016901876
,,,-4.52E-06,0.016871876
,,,-4.51E-06,0.017056876
,,,-4.5E-06,0.017118751
,,,-4.49E-06,0.017144376
,,,-4.48E-06,0.017079376
,,,-4.47E-06,0.017166251
,,,-4.46E-06,0.016912501
,,,-4.45E-06,0.017191251
,,,-4.44E-06,0.016889376
,,,-4.43E-06,0.017393126
,,,-4.42E-06,0.016787501
,,,-4.41E-06,0.017255001
,,,-4.4E-06,0.017123751
,,,-4.39E-06,0.017088751
,,,-4.38E-06,0.017007501
,,,-4.37E-06,0.016895001
,,,-4.36E-06,0.016920626
,,,-4.35E-06,0.016948126
,,,-4.34E-06,0.017136876
,,,-4.33E-06,0.017102501
,,,-4.32E-06,0.017230626
,,,-4.31E-06,0.017267501
,,,-4.3E-06,0.017037501
,,,-4.29E-06,0.017153126
,,,-4.28E-06,0.017076876
,,,-4.27E-06,0.016973751
,,,-4.26E-06,0.016774376
,,,-4.25E-06,0.016999376
,,,-4.24E-06,0.017089376
,,,-4.23E-06,0.017211251
,,,-4.22E-06,0.016922501
,,,-4.21E-06,0.017068126
,,,-4.2E-06,0.016887501
,,,-4.19E-06,0.016986876
,,,-4.18E-06,0.017093126
,,,-4.17E-06,0.017124376
,,,-4.16E-06,0.017158751
,,,-4.15E-06,0.016926876
,,,-4.14E-06,0.017112501
,,,-4.13E-06,0.017288126
,,,-4.12E-06,0.017026251
,,,-4.11E-06,0.017012501
,,,-4.1E-06,0.016870626
,,,-4.09E-06,0.016966251
,,,-4.08E-06,0.017046251
,,,-4.07E-06,0.017043126
,,,-4.06E-06,0.017097501
,,,-4.05E-06,0.016901251
,,,-4.04E-06,0.016890001
,,,-4.03E-06,0.017093126
,,,-4.02E-06,0.017000626
,,,-4.01E-06,0.016889376
,,,-4E-06,0.017098126
,,,-3.99E-06,0.017248751
,,,-3.98E-06,0.017026251
,,,-3.97E-06,0.017240626
,,,-3.96E-06,0.017016876
,,,-3.95E-06,0.016916876
,,,-3.94E-06,0.016994376
,,,-3.93E-06,0.016889376
,,,-3.92E-06,0.017128126
,,,-3.91E-06,0.017093126
,,,-3.9E-06,0.017190626
,,,-3.89E-06,0.017045626
,,,-3.88E-06,0.017293126
,,,-3.87E-06,0.016803751
,,,-3.86E-06,0.017182501
,,,-3.85E-06,0.017190001
,,,-3.84E-06,0.017022501
,,,-3.83E-06,0.017024376
,,,-3.82E-06,0.016788126
,,,-3.81E-06,0.017008126
,,,-3.8E-06,0.016935001
,,,-3.79E-06,0.016959376
,,,-3.78E-06,0.017200001
,,,-3.77E-06,0.017058126
,,,-3.76E-06,0.016835001
,,,-3.75E-06,0.017053126
,,,-3.74E-06,0.017034376
,,,-3.73E-06,0.017053126
,,,-3.72E-06,0.017170626
,,,-3.71E-06,0.016998126
,,,-3.7E-06,0.016900626
,,,-3.69E-06,0.016992501
,,,-3.68E-06,0.017140001
,,,-3.67E-06,0.017218126
,,,-3.66E-06,0.017055626
,,,-3.65E-06,0.017182501
,,,-3.64E-06,0.017028751
,,,-3.63E-06,0.016977501
,,,-3.62E-06,0.017070001
,,,-3.61E-06,0.017138126
,,,-3.6E-06,0.016772501
,,,-3.59E-06,0.017194376
,,,-3.58E-06,0.017085001
,,,-3.57E-06,0.017263126
,,,-3.56E-06,0.017354376
,,,-3.55E-06,0.017062501
,,,-3.54E-06,0.016836251
,,,-3.53E-06,0.016956251
,,,-3.52E-06,0.016967501
,,,-3.51E-06,0.016950626
,,,-3.5E-06,0.017131876
,,,-3.49E-06,0.017168126
,,,-3.48E-06,0.017016876
,,,-3.47E-06,0.017042501
,,,-3.46E-06,0.016830001
,,,-3.45E-06,0.017084376
,,,-3.44E-06,0.017098126
,,,-3.43E-06,0.017168126
,,,-3.42E-06,0.016962501
,,,-3.41E-06,0.017200001
,,,-3.4E-06,0.017154376
,,,-3.39E-06,0.017083751
,,,-3.38E-06,0.016982501
,,,-3.37E-06,0.016965001
,,,-3.36E-06,0.016879376
,,,-3.35E-06,0.017078126
,,,-3.34E-06,0.017015001
,,,-3.33E-06,0.017015626
,,,-3.32E-06,0.017108751
,,,-3.31E-06,0.017019376
,,,-3.3E-06,0.017018126
,,,-3.29E-06,0.017156876
,,,-3.28E-06,0.017065001
,,,-3.27E-06,0.016985626
,,,-3.26E-06,0.017077501
,,,-3.25E-06,0.017001251
,,,-3.24E-06,0.017203751
,,,-3.23E-06,0.017203126
,,,-3.22E-06,0.016815001
,,,-3.21E-06,0.016988751
,,,-3.2E-06,0.016959376
,,,-3.19E-06,0.016929376
,,,-3.18E-06,0.016779376
,,,-3.17E-06,0.017167501
,,,-3.16E-06,0.017029376
,,,-3.15E-06,0.017180001
,,,-3.14E-06,0.016983751
,,,-3.13E-06,0.017181251
,,,-3.12E-06,0.017082501
,,,-3.11E-06,0.016967501
,,,-3.1E-06,0.017080001
,,,-3.09E-06,0.016923126
,,,-3.08E-06,0.017316876
,,,-3.07E-06,0.016933126
,,,-3.06E-06,0.017219376
,,,-3.05E-06,0.016824376
,,,-3.04E-06,0.017004376
,,,-3.03E-06,0.017031251
,,,-3.02E-06,0.017210626
,,,-3.01E-06,0.017036251
,,,-3E-06,0.017132501
,,,-2.99E-06,0.016942501
,,,-2.98E-06,0.016907501
,,,-2.97E-06,0.017119376
,,,-2.96E-06,0.017141251
,,,-2.95E-06,0.017042501
,,,-2.94E-06,0.017132501
,,,-2.93E-06,0.016863126
,,,-2.92E-06,0.017043126
,,,-2.91E-06,0.016795626
,,,-2.9E-06,0.016992501
,,,-2.89E-06,0.016739376
,,,-2.88E-06,0.016927501
,,,-2.87E-06,0.017153126
,,,-2.86E-06,0.017110001
,,,-2.85E-06,0.017223126
,,,-2.84E-06,0.016906876
,,,-2.83E-06,0.017000001
,,,-2.82E-06,0.016998751
,,,-2.81E-06,0.017025626
,,,-2.8E-06,0.016821251
,,,-2.79E-06,0.016994376
,,,-2.78E-06,0.017118126
,,,-2.77E-06,0.017143751
,,,-2.76E-06,0.016949376
,,,-2.75E-06,0.017220626
,,,-2.74E-06,0.017046876
,,,-2.73E-06,0.016978126
,,,-2.72E-06,0.017062501
,,,-2.71E-06,0.017075626
,,,-2.7E-06,0.017049376
,,,-2.69E-06,0.016915001
,,,-2.68E-06,0.017013751
,,,-2.67E-06,0.017170626
,,,-2.66E-06,0.017293751
,,,-2.65E-06,0.016982501
,,,-2.64E-06,0.016978126
,,,-2.63E-06,0.016885001
,,,-2.62E-06,0.017162501
,,,-2.61E-06,0.016910001
,,,-2.6E-06,0.017230626
,,,-2.59E-06,0.016951251
,,,-2.58E-06,0.017033751
,,,-2.57E-06,0.017096251
,,,-2.56E-06,0.016896251
,,,-2.55E-06,0.016994376
,,,-2.54E-06,0.016836251
,,,-2.53E-06,0.017288751
,,,-2.52E-06,0.016772501
,,,-2.51E-06,0.017135626
,,,-2.5E-06,0.017065626
,,,-2.49E-06,0.017316251
,,,-2.48E-06,0.016774376
,,,-2.47E-06,0.017080001
,,,-2.46E-06,0.017063126
,,,-2.45E-06,0.016907501
,,,-2.44E-06,0.016951876
,,,-2.43E-06,0.016796876
,,,-2.42E-06,0.017016876
,,,-2.41E-06,0.017121876
,,,-2.4E-06,0.017230001
,,,-2.39E-06,0.016747501
,,,-2.38E-06,0.016975001
,,,-2.37E-06,0.017165001
,,,-2.36E-06,0.016998126
,,,-2.35E-06,0.017181251
,,,-2.34E-06,0.017189376
,,,-2.33E-06,0.016964376
,,,-2.32E-06,0.016923751
,,,-2.31E-06,0.016816251
,,,-2.3E-06,0.017001251
,,,-2.29E-06,0.017119376
,,,-2.28E-06,0.016857501
,,,-2.27E-06,0.016962501
,,,-2.26E-06,0.017301876
,,,-2.25E-06,0.016930001
,,,-2.24E-06,0.017065626
,,,-2.23E-06,0.017200626
,,,-2.22E-06,0.016844376
,,,-2.21E-06,0.017041876
,,,-2.2E-06,0.017310626
,,,-2.19E-06,0.017004376
,,,-2.18E-06,0.017273126
,,,-2.17E-06,0.017058751
,,,-2.16E-06,0.016979376
,,,-2.15E-06,0.016940626
,,,-2.14E-06,0.017005001
,,,-2.13E-06,0.016796251
,,,-2.12E-06,0.017032501
,,,-2.11E-06,0.017022501
,,,-2.1E-06,0.016910001
,,,-2.09E-06,0.017221876
,,,-2.08E-06,0.017110001
,,,-2.07E-06,0.016989376
,,,-2.06E-06,0.017277501
,,,-2.05E-06,0.017113751
,,,-2.04E-06,0.017088126
,,,-2.03E-06,0.017092501
,,,-2.02E-06,0.017036876
,,,-2.01E-06,0.017128126
,,,-2E-06,0.016929376
,,,-1.99E-06,0.016970001
,,,-1.98E-06,0.017111251
,,,-1.97E-06,0.017181876
,,,-1.96E-06,0.017288126
,,,-1.95E-06,0.017165001
,,,-1.94E-06,0.017028126
,,,-1.93E-06,0.017217501
,,,-1.92E-06,0.016954376
,,,-1.91E-06,0.016966876
,,,-1.9E-06,0.017126251
,,,-1.89E-06,0.017015001
,,,-1.88E-06,0.017095626
,,,-1.87E-06,0.016825001
,,,-1.86E-06,0.017101876
,,,-1.85E-06,0.017447501
,,,-1.84E-06,0.017149376
,,,-1.83E-06,0.017002501
,,,-1.82E-06,0.017074376
,,,-1.81E-06,0.016988126
,,,-1.8E-06,0.017203751
,,,-1.79E-06,0.017075626
,,,-1.78E-06,0.017020001
,,,-1.77E-06,0.017028751
,,,-1.76E-06,0.016903126
,,,-1.75E-06,0.017210001
,,,-1.74E-06,0.017108126
,,,-1.73E-06,0.017220001
,,,-1.72E-06,0.017039376
,,,-1.71E-06,0.016867501
,,,-1.7E-06,0.017378751
,,,-1.69E-06,0.017057501
,,,-1.68E-06,0.017011876
,,,-1.67E-06,0.017096251
,,,-1.66E-06,0.017036251
,,,-1.65E-06,0.017137501
,,,-1.64E-06,0.016740001
,,,-1.63E-06,0.017138751
,,,-1.62E-06,0.017120001
,,,-1.61E-06,0.017114376
,,,-1.6E-06,0.017186251
,,,-1.59E-06,0.017433751
,,,-1.58E-06,0.017007501
,,,-1.57E-06,0.017028751
,,,-1.56E-06,0.016921251
,,,-1.55E-06,0.017014376
,,,-1.54E-06,0.017055001
,,,-1.53E-06,0.017125001
,,,-1.52E-06,0.016862501
,,,-1.51E-06,0.017381876
,,,-1.5E-06,0.017171876
,,,-1.49E-06,0.017146876
,,,-1.48E-06,0.016932501
,,,-1.47E-06,0.016993126
,,,-1.46E-06,0.017021876
,,,-1.45E-06,0.017195626
,,,-1.44E-06,0.016938126
,,,-1.43E-06,0.017223126
,,,-1.42E-06,0.017256251
,,,-1.41E-06,0.017063751
,,,-1.4E-06,0.016978751
,,,-1.39E-06,0.016935626
,,,-1.38E-06,0.017178751
,,,-1.37E-06,0.016970001
,,,-1.36E-06,0.017058751
,,,-1.35E-06,0.017155626
,,,-1.34E-06,0.017308126
,,,-1.33E-06,0.017138126
,,,-1.32E-06,0.016986251
,,,-1.31E-06,0.017206251
,,,-1.3E-06,0.017080001
,,,-1.29E-06,0.017142501
,,,-1.28E-06,0.016848126
,,,-1.27E-06,0.017128126
,,,-1.26E-06,0.017198751
,,,-1.25E-06,0.017035626
,,,-1.24E-06,0.017210001
,,,-1.23E-06,0.016856251
,,,-1.22E-06,0.017031876
,,,-1.21E-06,0.016967501
,,,-1.2E-06,0.017156876
,,,-1.19E-06,0.016889376
,,,-1.18E-06,0.017023126
,,,-1.17E-06,0.017171876
,,,-1.16E-06,0.017306876
,,,-1.15E-06,0.017277501
,,,-1.14E-06,0.017124376
,,,-1.13E-06,0.016919376
,,,-1.12E-06,0.016871876
,,,-1.11E-06,0.017114376
,,,-1.1E-06,0.016920001
,,,-1.09E-06,0.016953126
,,,-1.08E-06,0.017270626
,,,-1.07E-06,0.016958751
,,,-1.06E-06,0.016879376
,,,-1.05E-06,0.016950001
,,,-1.04E-06,0.016801251
,,,-1.03E-06,0.017234376
,,,-1.02E-06,0.017083126
,,,-1.01E-06,0.017195626
,,,-1E-06,0.017136251
,,,-9.9E-07,0.017036251
,,,-9.8E-07,0.016979376
,,,-9.7E-07,0.017110626
,,,-9.6E-07,0.017194376
,,,-9.5E-07,0.016768751
,,,-9.4E-07,0.016928126
,,,-9.3E-07,0.017406251
,,,-9.2E-07,0.017218126
,,,-9.1E-07,0.017235001
,,,-9E-07,0.016861251
,,,-8.9E-07,0.017272501
,,,-8.8E-07,0.017084376
,,,-8.7E-07,0.016944376
,,,-8.6E-07,0.017243751
,,,-8.5E-07,0.017116251
,,,-8.4E-07,0.016987501
,,,-8.3E-07,0.017051251
,,,-8.2E-07,0.016863126
,,,-8.1E-07,0.016911876
,,,-8E-07,0.016886876
,,,-7.9E-07,0.017206251
,,,-7.8E-07,0.017046251
,,,-7.7E-07,0.017077501
,,,-7.6E-07,0.017116251
,,,-7.5E-07,0.017130626
,,,-7.4E-07,0.016874376
,,,-7.3E-07,0.017039376
,,,-7.2E-07,0.016964376
,,,-7.1E-07,0.017177501
,,,-7E-07,0.017213751
,,,-6.9E-07,0.017221251
,,,-6.8E-07,0.017093126
,,,-6.7E-07,0.017208126
,,,-6.6E-07,0.017051251
,,,-6.5E-07,0.016698751
,,,-6.4E-07,0.017194376
,,,-6.3E-07,0.016916876
,,,-6.2E-07,0.016998126
,,,-6.1E-07,0.016784376
,,,-6E-07,0.017261251
,,,-5.9E-07,0.017211251
,,,-5.8E-07,0.017083751
,,,-5.7E-07,0.016950626
,,,-5.6E-07,0.016998751
,,,-5.5E-07,0.017172501
,,,-5.4E-07,0.017201251
,,,-5.3E-07,0.016991876
,,,-5.2E-07,0.017245001
,,,-5.1E-07,0.017183126
,,,-5E-07,0.017061876
,,,-4.9E-07,0.016931876
,,,-4.8E-07,0.017001251
,,,-4.7E-07,0.016796876
,,,-4.6E-07,0.017170001
,,,-4.5E-07,0.017273751
,,,-4.4E-07,0.016876876
,,,-4.3E-07,0.017015626
,,,-4.2E-07,0.017044376
,,,-4.1E-07,0.017153126
,,,-4E-07,0.017097501
,,,-3.9E-07,0.017110626
,,,-3.8E-07,0.017078751
,,,-3.7E-07,0.017294376
,,,-3.6E-07,0.017022501
,,,-3.5E-07,0.017111876
,,,-3.4E-07,0.017120001
,,,-3.3E-07,0.016935001
,,,-3.2E-07,0.017105626
,,,-3.1E-07,0.016930626
,,,-3E-07,0.016888126
,,,-2.9E-07,0.017108126
,,,-2.8E-07,0.017030626
,,,-2.7E-07,0.017169376
,,,-2.6E-07,0.017220626
,,,-2.5E-07,0.017078126
,,,-2.4E-07,0.016951251
,,,-2.3E-07,0.016865001
,,,-2.2E-07,0.016890001
,,,-2.1E-07,0.017067501
,,,-2E-07,0.016954376
,,,-1.9E-07,0.017068751
,,,-1.8E-07,0.017198751
,,,-1.7E-07,0.016851876
,,,-1.6E-07,0.017023126
,,,-1.5E-07,0.017005001
,,,-1.4E-07,0.016899376
,,,-1.3E-07,0.017127501
,,,-1.2E-07,0.017053751
,,,-1.1E-07,0.016851251
,,,-1E-07,0.017229376
,,,-9E-08,0.017263751
,,,-8E-08,0.017042501
,,,-7E-08,0.016876251
,,,-6E-08,0.016953126
,,,-5E-08,0.016961251
,,,-4E-08,0.018017501
,,,-3E-08,0.019107501
,,,-2E-08,0.014836876
,,,-1E-08,0.013446876
,,,0,0.013528126
,,,1E-08,0.020608126
,,,2E-08,0.021570001
,,,3E-08,0.020778126
,,,4E-08,0.016035001
,,,5E-08,0.014017501
,,,6E-08,0.013370001
,,,7E-08,0.016100626
,,,8E-08,0.018218126
,,,9E-08,0.019317501
,,,1E-07,0.019093751
,,,1.1E-07,0.017343751
,,,1.2E-07,0.015804376
,,,1.3E-07,0.015148751
,,,1.4E-07,0.016518751
,,,1.5E-07,0.017451251
,,,1.6E-07,0.017961876
,,,1.7E-07,0.017630626
,,,1.8E-07,0.017153751
,,,1.9E-07,0.017297501
,,,2E-07,0.016904376
,,,2.1E-07,0.016927501
,,,2.2E-07,0.016742501
,,,2.3E-07,0.017093751
,,,2.4E-07,0.017133751
,,,2.5E-07,0.017005001
,,,2.6E-07,0.017255001
,,,2.7E-07,0.016722501
,,,2.8E-07,0.017078126
,,,2.9E-07,0.017070626
,,,3E-07,0.016972501
,,,3.1E-07,0.016877501
,,,3.2E-07,0.017078751
,,,3.3E-07,0.017063751
,,,3.4E-07,0.016973126
,,,3.5E-07,0.016825626
,,,3.6E-07,0.016995626
,,,3.7E-07,0.017106251
,,,3.8E-07,0.017152501
,,,3.9E-07,0.017282501
,,,4E-07,0.017202501
,,,4.1E-07,0.017373751
,,,4.2E-07,0.016832501
,,,4.3E-07,0.016890001
,,,4.4E-07,0.017213126
,,,4.5E-07,0.017115001
,,,4.6E-07,0.016898751
,,,4.7E-07,0.016846251
,,,4.8E-07,0.017000001
,,,4.9E-07,0.016936251
,,,5E-07,0.017016251
,,,5.1E-07,0.017090001
,,,5.2E-07,0.017095001
,,,5.3E-07,0.017090626
,,,5.4E-07,0.017151876
,,,5.5E-07,0.016863126
,,,5.6E-07,0.017190001
,,,5.7E-07,0.016780626
,,,5.8E-07,0.017111251
,,,5.9E-07,0.016789376
,,,6E-07,0.017162501
,,,6.1E-07,0.016956251
,,,6.2E-07,0.016849376
,,,6.3E-07,0.017030001
,,,6.4E-07,0.017093751
,,,6.5E-07,0.016843751
,,,6.6E-07,0.016961251
,,,6.7E-07,0.016896251
,,,6.8E-07,0.016900626
,,,6.9E-07,0.017037501
,,,7E-07,0.016747501
,,,7.1E-07,0.017067501
,,,7.2E-07,0.017165626
,,,7.3E-07,0.017041876
,,,7.4E-07,0.017073751
,,,7.5E-07,0.017161876
,,,7.6E-07,0.017157501
,,,7.7E-07,0.017125626
,,,7.8E-07,0.017200001
,,,7.9E-07,0.017013751
,,,8E-07,0.017143126
,,,8.1E-07,0.016863751
,,,8.2E-07,0.016992501
,,,8.3E-07,0.017163751
,,,8.4E-07,0.017046876
,,,8.5E-07,0.017111251
,,,8.6E-07,0.016810001
,,,8.7E-07,0.016977501
,,,8.8E-07,0.016789376
,,,8.9E-07,0.017099376
,,,9E-07,0.017003751
,,,9.1E-07,0.016986876
,,,9.2E-07,0.017090626
,,,9.3E-07,0.016952501
,,,9.4E-07,0.017146251
,,,9.5E-07,0.017003751
,,,9.6E-07,0.016963126
,,,9.7E-07,0.017262501
,,,9.8E-07,0.016835001
,,,9.9E-07,0.016933751
,,,1E-06,0.017084376
,,,1.01E-06,0.017040001
,,,1.02E-06,0.016791251
,,,1.03E-06,0.017008751
,,,1.04E-06,0.016970626
,,,1.05E-06,0.016930626
,,,1.06E-06,0.017153126
,,,1.07E-06,0.017253751
,,,1.08E-06,0.017188126
,,,1.09E-06,0.017085626
,,,1.1E-06,0.016950626
,,,1.11E-06,0.017077501
,,,1.12E-06,0.017288751
,,,1.13E-06,0.017030626
,,,1.14E-06,0.017225001
,,,1.15E-06,0.017308751
,,,1.16E-06,0.017182501
,,,1.17E-06,0.017139376
,,,1.18E-06,0.017058126
,,,1.19E-06,0.017212501
,,,1.2E-06,0.016932501
,,,1.21E-06,0.017046251
,,,1.22E-06,0.017100001
,,,1.23E-06,0.016927501
,,,1.24E-06,0.017280626
,,,1.25E-06,0.017176876
,,,1.26E-06,0.016769376
,,,1.27E-06,0.016970001
,,,1.28E-06,0.016829376
,,,1.29E-06,0.017031251
,,,1.3E-06,0.016931876
,,,1.31E-06,0.017083126
,,,1.32E-06,0.016965001
,,,1.33E-06,0.017023751
,,,1.34E-06,0.017176876
,,,1.35E-06,0.016894376
,,,1.36E-06,0.016850001
,,,1.37E-06,0.016835626
,,,1.38E-06,0.017210626
,,,1.39E-06,0.016981251
,,,1.4E-06,0.017090626
,,,1.41E-06,0.016950001
,,,1.42E-06,0.017059376
,,,1.43E-06,0.017286876
,,,1.44E-06,0.017001251
,,,1.45E-06,0.017325626
,,,1.46E-06,0.016843126
,,,1.47E-06,0.017087501
,,,1.48E-06,0.017065001
,,,1.49E-06,0.017268751
,,,1.5E-06,0.017090626
,,,1.51E-06,0.016980626
,,,1.52E-06,0.017115001
,,,1.53E-06,0.016900001
,,,1.54E-06,0.017036251
,,,1.55E-06,0.017096251
,,,1.56E-06,0.017102501
,,,1.57E-06,0.017265001
,,,1.58E-06,0.016928751
,,,1.59E-06,0.016950626
,,,1.6E-06,0.017002501
,,,1.61E-06,0.016960626
,,,1.62E-06,0.017101876
,,,1.63E-06,0.017160001
,,,1.64E-06,0.017105001
,,,1.65E-06,0.017095626
,,,1.66E-06,0.017075001
,,,1.67E-06,0.016835626
,,,1.68E-06,0.017231876
,,,1.69E-06,0.017217501
,,,1.7E-06,0.017353751
,,,1.71E-06,0.016984376
,,,1.72E-06,0.016984376
,,,1.73E-06,0.016842501
,,,1.74E-06,0.016908751
,,,1.75E-06,0.016970626
,,,1.76E-06,0.016840001
,,,1.77E-06,0.016998126
,,,1.78E-06,0.017034376
,,,1.79E-06,0.017116876
,,,1.8E-06,0.017248751
,,,1.81E-06,0.017053126
,,,1.82E-06,0.017354376
,,,1.83E-06,0.017113126
,,,1.84E-06,0.016917501
,,,1.85E-06,0.016967501
,,,1.86E-06,0.017047501
,,,1.87E-06,0.016780001
,,,1.88E-06,0.017258126
,,,1.89E-06,0.016985001
,,,1.9E-06,0.017240626
,,,1.91E-06,0.017106251
,,,1.92E-06,0.016959376
,,,1.93E-06,0.016708751
,,,1.94E-06,0.016903126
,,,1.95E-06,0.017088751
,,,1.96E-06,0.017120626
,,,1.97E-06,0.017073126
,,,1.98E-06,0.017297501
,,,1.99E-06,0.017276251
,,,2E-06,0.017031876
,,,2.01E-06,0.017130626
,,,2.02E-06,0.016917501
,,,2.03E-06,0.017165001
,,,2.04E-06,0.016797501
,,,2.05E-06,0.017073751
,,,2.06E-06,0.017041876
,,,2.07E-06,0.017066876
,,,2.08E-06,0.017068126
,,,2.09E-06,0.016852501
,,,2.1E-06,0.016695626
,,,2.11E-06,0.017072501
,,,2.12E-06,0.017050001
,,,2.13E-06,0.016917501
,,,2.14E-06,0.017140626
,,,2.15E-06,0.017105001
,,,2.16E-06,0.016915001
,,,2.17E-06,0.016980626
,,,2.18E-06,0.017065626
,,,2.19E-06,0.017195001
,,,2.2E-06,0.016997501
,,,2.21E-06,0.017139376
,,,2.22E-06,0.017095626
,,,2.23E-06,0.017146876
,,,2.24E-06,0.017395626
,,,2.25E-06,0.016840001
,,,2.26E-06,0.016945001
,,,2.27E-06,0.016985626
,,,2.28E-06,0.016870001
,,,2.29E-06,0.016887501
,,,2.3E-06,0.016906251
,,,2.31E-06,0.017103751
,,,2.32E-06,0.017191876
,,,2.33E-06,0.016984376
,,,2.34E-06,0.016908751
,,,2.35E-06,0.016750001
,,,2.36E-06,0.017108751
,,,2.37E-06,0.016867501
,,,2.38E-06,0.017051876
,,,2.39E-06,0.017109376
,,,2.4E-06,0.017160001
,,,2.41E-06,0.017071251
,,,2.42E-06,0.017029376
,,,2.43E-06,0.017060001
,,,2.44E-06,0.017072501
,,,2.45E-06,0.016836251
,,,2.46E-06,0.017012501
,,,2.47E-06,0.017270001
,,,2.48E-06,0.017078126
,,,2.49E-06,0.017122501
,,,2.5E-06,0.016886251
,,,2.51E-06,0.017208126
,,,2.52E-06,0.016943126
,,,2.53E-06,0.016771251
,,,2.54E-06,0.016939376
,,,2.55E-06,0.017067501
,,,2.56E-06,0.017416876
,,,2.57E-06,0.017009376
,,,2.58E-06,0.016772501
,,,2.59E-06,0.016963126
,,,2.6E-06,0.016989376
,,,2.61E-06,0.016984376
,,,2.62E-06,0.016973126
,,,2.63E-06,0.017135001
,,,2.64E-06,0.016970626
,,,2.65E-06,0.017151876
,,,2.66E-06,0.017076251
,,,2.67E-06,0.017195626
,,,2.68E-06,0.016911876
,,,2.69E-06,0.016853751
,,,2.7E-06,0.017261251
,,,2.71E-06,0.016888126
,,,2.72E-06,0.017015001
,,,2.73E-06,0.016876876
,,,2.74E-06,0.017203126
,,,2.75E-06,0.016990001
,,,2.76E-06,0.017035001
,,,2.77E-06,0.017196251
,,,2.78E-06,0.016946876
,,,2.79E-06,0.017146251
,,,2.8E-06,0.016925001
,,,2.81E-06,0.017104376
,,,2.82E-06,0.017030001
,,,2.83E-06,0.017194376
,,,2.84E-06,0.016983126
,,,2.85E-06,0.017144376
,,,2.86E-06,0.016826876
,,,2.87E-06,0.017125001
,,,2.88E-06,0.017009376
,,,2.89E-06,0.016968126
,,,2.9E-06,0.016985626
,,,2.91E-06,0.017185626
,,,2.92E-06,0.016820626
,,,2.93E-06,0.017168126
,,,2.94E-06,0.016788126
,,,2.95E-06,0.016976251
,,,2.96E-06,0.017276251
,,,2.97E-06,0.016950626
,,,2.98E-06,0.016813126
,,,2.99E-06,0.016938126
,,,3E-06,0.016958751
,,,3.01E-06,0.017009376
,,,3.02E-06,0.017338126
,,,3.03E-06,0.017115001
,,,3.04E-06,0.016943751
,,,3.05E-06,0.017142501
,,,3.06E-06,0.017095001
,,,3.07E-06,0.017025001
,,,3.08E-06,0.016980001
,,,3.09E-06,0.017178751
,,,3.1E-06,0.016968126
,,,3.11E-06,0.016930626
,,,3.12E-06,0.016965626
,,,3.13E-06,0.016982501
,,,3.14E-06,0.017020626
,,,3.15E-06,0.017043126
,,,3.16E-06,0.016925626
,,,3.17E-06,0.016858751
,,,3.18E-06,0.017202501
,,,3.19E-06,0.017043126
,,,3.2E-06,0.017080001
,,,3.21E-06,0.016958126
