data/raw/Final_POL_Test_1/SOP076_Ch1.csv

"Record Length",1000,"Points",-5E-06,0.007373125
"Sample Interval",1E-08,s,-4.99E-06,0.006999375
"Trigger Point",500,"Samples",-4.98E-06,0.007184375
"Trigger Time",0,s,-4.97E-06,0.0069275
"",,,-4.96E-06,0.007173125
"Horizontal Offset",-5E-06,s,-4.95E-06,0.0070775
,,,-4.94E-06,0.00707375
,,,-4.93E-06,0.00711125
,,,-4.92E-06,0.00717125
,,,-4.91E-06,0.007286875
,,,-4.9E-06,0.0072975
,,,-4.89E-06,0.007141875
,,,-4.88E-06,0.0073425
,,,-4.87E-06,0.007105625
,,,-4.86E-06,0.00701
,,,-4.85E-06,0.006908125
,,,-4.84E-06,0.00717625
,,,-4.83E-06,0.006995625
,,,-4.82E-06,0.007229375
,,,-4.81E-06,0.0070125
,,,-4.8E-06,0.007081875
,,,-4.79E-06,0.00710625
,,,-4.78E-06,0.006926875
,,,-4.77E-06,0.007010625
,,,-4.76E-06,0.006778125
,,,-4.75E-06,0.00711125
,,,-4.74E-06,0.007005
,,,-4.73E-06,0.007276875
,,,-4.72E-06,0.007086875
,,,-4.71E-06,0.00708375
,,,-4.7E-06,0.006970625
,,,-4.69E-06,0.007056875
,,,-4.68E-06,0.007115
,,,-4.67E-06,0.007069375
,,,-4.66E-06,0.00697
,,,-4.65E-06,0.00680125
,,,-4.64E-06,0.007225625
,,,-4.63E-06,0.0070625
,,,-4.62E-06,0.00664875
,,,-4.61E-06,0.007008125
,,,-4.6E-06,0.0069525
,,,-4.59E-06,0.006854375
,,,-4.58E-06,0.007061875
,,,-4.57E-06,0.007048125
,,,-4.56E-06,0.00741
,,,-4.55E-06,0.007051875
,,,-4.54E-06,0.006795
,,,-4.53E-06,0.006883125
,,,-4.52E-06,0.006910625
,,,-4.51E-06,0.0070975
,,,-4.5E-06,0.007190625
,,,-4.49E-06,0.00719875
,,,-4.48E-06,0.007051875
,,,-4.47E-06,0.00713375
,,,-4.46E-06,0.0071825
,,,-4.45E-06,0.006785625
,,,-4.44E-06,0.007136875
,,,-4.43E-06,0.007198125
,,,-4.42E-06,0.006694375
,,,-4.41E-06,0.006961875
,,,-4.4E-06,0.00710375
,,,-4.39E-06,0.006810625
,,,-4.38E-06,0.00704625
,,,-4.37E-06,0.006965
,,,-4.36E-06,0.0070275
,,,-4.35E-06,0.007016875
,,,-4.34E-06,0.007125
,,,-4.33E-06,0.006906875
,,,-4.32E-06,0.00699375
,,,-4.31E-06,0.00703625
,,,-4.3E-06,0.00698
,,,-4.29E-06,0.007018125
,,,-4.28E-06,0.00714375
,,,-4.27E-06,0.00705125
,,,-4.26E-06,0.00712875
,,,-4.25E-06,0.006708125
,,,-4.24E-06,0.006850625
,,,-4.23E-06,0.007119375
,,,-4.22E-06,0.00719625
,,,-4.21E-06,0.007031875
,,,-4.2E-06,0.00701375
,,,-4.19E-06,0.00709125
,,,-4.18E-06,0.006808125
,,,-4.17E-06,0.0070825
,,,-4.16E-06,0.0069025
,,,-4.15E-06,0.007128125
,,,-4.14E-06,0.007134375
,,,-4.13E-06,0.0072125
,,,-4.12E-06,0.00682
,,,-4.11E-06,0.00713375
,,,-4.1E-06,0.007100625
,,,-4.09E-06,0.006984375
,,,-4.08E-06,0.00705375
,,,-4.07E-06,0.00724125
,,,-4.06E-06,0.00729
,,,-4.05E-06,0.007178125
,,,-4.04E-06,0.007245625
,,,-4.03E-06,0.00694375
,,,-4.02E-06,0.006954375
,,,-4.01E-06,0.00709625
,,,-4E-06,0.007174375
,,,-3.99E-06,0.006925625
,,,-3.98E-06,0.0070075
,,,-3.97E-06,0.00711
,,,-3.96E-06,0.007025625
,,,-3.95E-06,0.007029375
,,,-3.94E-06,0.006953125
,,,-3.93E-06,0.006784375
,,,-3.92E-06,0.00689125
,,,-3.91E-06,0.00698625
,,,-3.9E-06,0.007440625
,,,-3.89E-06,0.0071375
,,,-3.88E-06,0.00697
,,,-3.87E-06,0.006921875
,,,-3.86E-06,0.0070325
,,,-3.85E-06,0.006835625
,,,-3.84E-06,0.006933125
,,,-3.83E-06,0.007095
,,,-3.82E-06,0.007034375
,,,-3.81E-06,0.00724
,,,-3.8E-06,0.00704375
,,,-3.79E-06,0.00705125
,,,-3.78E-06,0.007024375
,,,-3.77E-06,0.006909375
,,,-3.76E-06,0.00699
,,,-3.75E-06,0.007164375
,,,-3.74E-06,0.0069925
,,,-3.73E-06,0.006960625
,,,-3.72E-06,0.007269375
,,,-3.71E-06,0.007028125
,,,-3.7E-06,0.006758125
,,,-3.69E-06,0.00712
,,,-3.68E-06,0.00708375
,,,-3.67E-06,0.006989375
,,,-3.66E-06,0.00711875
,,,-3.65E-06,0.006984375
,,,-3.64E-06,0.007021875
,,,-3.63E-06,0.007128125
,,,-3.62E-06,0.0072375
,,,-3.61E-06,0.007280625
,,,-3.6E-06,0.00700625
,,,-3.59E-06,0.007093125
,,,-3.58E-06,0.007326875
,,,-3.57E-06,0.006998125
,,,-3.56E-06,0.0069975
,,,-3.55E-06,0.00725
,,,-3.54E-06,0.006961875
,,,-3.53E-06,0.007014375
,,,-3.52E-06,0.00694125
,,,-3.51E-06,0.007135625
,,,-3.5E-06,0.006906875
,,,-3.49E-06,0.00713375
,,,-3.48E-06,0.00697875
,,,-3.47E-06,0.0071375
,,,-3.46E-06,0.007040625
,,,-3.45E-06,0.006995
,,,-3.44E-06,0.00709875
,,,-3.43E-06,0.00697125
,,,-3.42E-06,0.007096875
,,,-3.41E-06,0.00694125
,,,-3.4E-06,0.00695125
,,,-3.39E-06,0.007118125
,,,-3.38E-06,0.006911875
,,,-3.37E-06,0.00684125
,,,-3.36E-06,0.00707125
,,,-3.35E-06,0.00720625
,,,-3.34E-06,0.007108125
,,,-3.33E-06,0.007255
,,,-3.32E-06,0.00713125
,,,-3.31E-06,0.00717875
,,,-3.3E-06,0.007225625
,,,-3.29E-06,0.007150625
,,,-3.28E-06,0.00681625
,,,-3.27E-06,0.00692625
,,,-3.26E-06,0.00701
,,,-3.25E-06,0.00693875
,,,-3.24E-06,0.006918125
,,,-3.23E-06,0.00700125
,,,-3.22E-06,0.00712375
,,,-3.21E-06,0.006913125
,,,-3.2E-06,0.006894375
,,,-3.19E-06,0.00677375
,,,-3.18E-06,0.007165625
,,,-3.17E-06,0.00717375
,,,-3.16E-06,0.006976875
,,,-3.15E-06,0.007125
,,,-3.14E-06,0.007298125
,,,-3.13E-06,0.007031875
,,,-3.12E-06,0.007064375
,,,-3.11E-06,0.007135625
,,,-3.1E-06,0.0069275
,,,-3.09E-06,0.007246875
,,,-3.08E-06,0.00724
,,,-3.07E-06,0.00712375
,,,-3.06E-06,0.00712
,,,-3.05E-06,0.00678
,,,-3.04E-06,0.00701
,,,-3.03E-06,0.006934375
,,,-3.02E-06,0.007161875
,,,-3.01E-06,0.006991875
,,,-3E-06,0.007283125
,,,-2.99E-06,0.007170625
,,,-2.98E-06,0.00689
,,,-2.97E-06,0.007358125
,,,-2.96E-06,0.006738125
,,,-2.95E-06,0.007098125
,,,-2.94E-06,0.007004375
,,,-2.93E-06,0.007096875
,,,-2.92E-06,0.006966875
,,,-2.91E-06,0.007031875
,,,-2.9E-06,0.007059375
,,,-2.89E-06,0.007216875
,,,-2.88E-06,0.007165
,,,-2.87E-06,0.006928125
,,,-2.86E-06,0.00712875
,,,-2.85E-06,0.00721
,,,-2.84E-06,0.007195
,,,-2.83E-06,0.007115625
,,,-2.82E-06,0.007194375
,,,-2.81E-06,0.00714125
,,,-2.8E-06,0.0071475
,,,-2.79E-06,0.007040625
,,,-2.78E-06,0.00715875
,,,-2.77E-06,0.006935
,,,-2.76E-06,0.006875625
,,,-2.75E-06,0.007145
,,,-2.74E-06,0.00700875
,,,-2.73E-06,0.0071225
,,,-2.72E-06,0.007101875
,,,-2.71E-06,0.00680625
,,,-2.7E-06,0.006995
,,,-2.69E-06,0.007225625
,,,-2.68E-06,0.006955625
,,,-2.67E-06,0.007
,,,-2.66E-06,0.00707625
,,,-2.65E-06,0.007143125
,,,-2.64E-06,0.007004375
,,,-2.63E-06,0.007201875
,,,-2.62E-06,0.00731
,,,-2.61E-06,0.007275
,,,-2.6E-06,0.006784375
,,,-2.59E-06,0.007043125
,,,-2.58E-06,0.007376875
,,,-2.57E-06,0.007045
,,,-2.56E-06,0.007110625
,,,-2.55E-06,0.0069725
,,,-2.54E-06,0.00684875
,,,-2.53E-06,0.00697625
,,,-2.52E-06,0.006965
,,,-2.51E-06,0.007071875
,,,-2.5E-06,0.00705
,,,-2.49E-06,0.00689
,,,-2.48E-06,0.00718125
,,,-2.47E-06,0.006745625
,,,-2.46E-06,0.006991875
,,,-2.45E-06,0.0070375
,,,-2.44E-06,0.00691375
,,,-2.43E-06,0.007024375
,,,-2.42E-06,0.0070425
,,,-2.41E-06,0.007131875
,,,-2.4E-06,0.0068025
,,,-2.39E-06,0.00700875
,,,-2.38E-06,0.006915625
,,,-2.37E-06,0.006965625
,,,-2.36E-06,0.0069175
,,,-2.35E-06,0.007259375
,,,-2.34E-06,0.00702375
,,,-2.33E-06,0.00674875
,,,-2.32E-06,0.00700625
,,,-2.31E-06,0.007098125
,,,-2.3E-06,0.00716375
,,,-2.29E-06,0.007005
,,,-2.28E-06,0.0069925
,,,-2.27E-06,0.007
,,,-2.26E-06,0.0069725
,,,-2.25E-06,0.0069325
,,,-2.24E-06,0.007180625
,,,-2.23E-06,0.006939375
,,,-2.22E-06,0.00712875
,,,-2.21E-06,0.00693125
,,,-2.2E-06,0.00691125
,,,-2.19E-06,0.00700125
,,,-2.18E-06,0.007014375
,,,-2.17E-06,0.006998125
,,,-2.16E-06,0.007075
,,,-2.15E-06,0.00704
,,,-2.14E-06,0.00694
,,,-2.13E-06,0.00731
,,,-2.12E-06,0.006635
,,,-2.11E-06,0.00711625
,,,-2.1E-06,0.0071125
,,,-2.09E-06,0.006915625
,,,-2.08E-06,0.00713375
,,,-2.07E-06,0.007083125
,,,-2.06E-06,0.007005625
,,,-2.05E-06,0.00711625
,,,-2.04E-06,0.00704875
,,,-2.03E-06,0.007235
,,,-2.02E-06,0.00707875
,,,-2.01E-06,0.0072775
,,,-2E-06,0.00713875
,,,-1.99E-06,0.00705125
,,,-1.98E-06,0.00699
,,,-1.97E-06,0.006795
,,,-1.96E-06,0.007145
,,,-1.95E-06,0.006945
,,,-1.94E-06,0.00704875
,,,-1.93E-06,0.007228125
,,,-1.92E-06,0.00716625
,,,-1.91E-06,0.007241875
,,,-1.9E-06,0.006858125
,,,-1.89E-06,0.006915625
,,,-1.88E-06,0.007045
,,,-1.87E-06,0.00727125
,,,-1.86E-06,0.007415625
,,,-1.85E-06,0.007394375
,,,-1.84E-06,0.006999375
,,,-1.83E-06,0.007175625
,,,-1.82E-06,0.006915
,,,-1.81E-06,0.007185
,,,-1.8E-06,0.006715
,,,-1.79E-06,0.00702625
,,,-1.78E-06,0.00722125
,,,-1.77E-06,0.00691
,,,-1.76E-06,0.00715875
,,,-1.75E-06,0.0070175
,,,-1.74E-06,0.006845625
,,,-1.73E-06,0.006975625
,,,-1.72E-06,0.00678875
,,,-1.71E-06,0.006946875
,,,-1.7E-06,0.00707
,,,-1.69E-06,0.007175
,,,-1.68E-06,0.007210625
,,,-1.67E-06,0.007238125
,,,-1.66E-06,0.006926875
,,,-1.65E-06,0.00709125
,,,-1.64E-06,0.00681375
,,,-1.63E-06,0.006865625
,,,-1.62E-06,0.006973125
,,,-1.61E-06,0.007113125
,,,-1.6E-06,0.007105
,,,-1.59E-06,0.007254375
,,,-1.58E-06,0.0069025
,,,-1.57E-06,0.007070625
,,,-1.56E-06,0.007131875
,,,-1.55E-06,0.006875
,,,-1.54E-06,0.00694875
,,,-1.53E-06,0.00696875
,,,-1.52E-06,0.00698125
,,,-1.51E-06,0.00710625
,,,-1.5E-06,0.007005625
,,,-1.49E-06,0.007205
,,,-1.48E-06,0.006945
,,,-1.47E-06,0.007018125
,,,-1.46E-06,0.0068825
,,,-1.45E-06,0.006888125
,,,-1.44E-06,0.006871875
,,,-1.43E-06,0.0071325
,,,-1.42E-06,0.007110625
,,,-1.41E-06,0.007030625
,,,-1.4E-06,0.007095625
,,,-1.39E-06,0.00707
,,,-1.38E-06,0.007064375
,,,-1.37E-06,0.007068125
,,,-1.36E-06,0.007019375
,,,-1.35E-06,0.006969375
,,,-1.34E-06,0.006989375
,,,-1.33E-06,0.006973125
,,,-1.32E-06,0.00721875
,,,-1.31E-06,0.006944375
,,,-1.3E-06,0.0068975
,,,-1.29E-06,0.007021875
,,,-1.28E-06,0.007309375
,,,-1.27E-06,0.007148125
,,,-1.26E-06,0.0071025
,,,-1.25E-06,0.00697125
,,,-1.24E-06,0.006950625
,,,-1.23E-06,0.007170625
,,,-1.22E-06,0.00719625
,,,-1.21E-06,0.007163125
,,,-1.2E-06,0.006841875
,,,-1.19E-06,0.007163125
,,,-1.18E-06,0.007165
,,,-1.17E-06,0.007234375
,,,-1.16E-06,0.007165625
,,,-1.15E-06,0.007024375
,,,-1.14E-06,0.0069575
,,,-1.13E-06,0.006878125
,,,-1.12E-06,0.007071875
,,,-1.11E-06,0.0070375
,,,-1.1E-06,0.006965
,,,-1.09E-06,0.00718
,,,-1.08E-06,0.00699375
,,,-1.07E-06,0.00717
,,,-1.06E-06,0.00710125
,,,-1.05E-06,0.007085
,,,-1.04E-06,0.007146875
,,,-1.03E-06,0.00692125
,,,-1.02E-06,0.007131875
,,,-1.01E-06,0.00711375
,,,-1E-06,0.00695125
,,,-9.9E-07,0.00694125
,,,-9.8E-07,0.007105
,,,-9.7E-07,0.007071875
,,,-9.6E-07,0.007055
,,,-9.5E-07,0.00714125
,,,-9.4E-07,0.00716875
,,,-9.3E-07,0.007174375
,,,-9.2E-07,0.007125625
,,,-9.1E-07,0.007060625
,,,-9E-07,0.006974375
,,,-8.9E-07,0.007185
,,,-8.8E-07,0.006818125
,,,-8.7E-07,0.007021875
,,,-8.6E-07,0.00715
,,,-8.5E-07,0.006885
,,,-8.4E-07,0.00733
,,,-8.3E-07,0.0070825
,,,-8.2E-07,0.006878125
,,,-8.1E-07,0.006856875
,,,-8E-07,0.007095
,,,-7.9E-07,0.006940625
,,,-7.8E-07,0.007186875
,,,-7.7E-07,0.007395625
,,,-7.6E-07,0.007049375
,,,-7.5E-07,0.006915625
,,,-7.4E-07,0.006954375
,,,-7.3E-07,0.0071525
,,,-7.2E-07,0.006789375
,,,-7.1E-07,0.007275625
,,,-7E-07,0.006965625
,,,-6.9E-07,0.007114375
,,,-6.8E-07,0.00695125
,,,-6.7E-07,0.00701125
,,,-6.6E-07,0.0072325
,,,-6.5E-07,0.0072825
,,,-6.4E-07,0.006963125
,,,-6.3E-07,0.006908125
,,,-6.2E-07,0.006794375
,,,-6.1E-07,0.0070675
,,,-6E-07,0.007194375
,,,-5.9E-07,0.0071675
,,,-5.8E-07,0.00730375
,,,-5.7E-07,0.00700625
,,,-5.6E-07,0.00688375
,,,-5.5E-07,0.006668125
,,,-5.4E-07,0.007298125
,,,-5.3E-07,0.007018125
,,,-5.2E-07,0.006959375
,,,-5.1E-07,0.006803125
,,,-5E-07,0.007098125
,,,-4.9E-07,0.00720375
,,,-4.8E-07,0.00726375
,,,-4.7E-07,0.007205
,,,-4.6E-07,0.007140625
,,,-4.5E-07,0.0071425
,,,-4.4E-07,0.00708375
,,,-4.3E-07,0.00710875
,,,-4.2E-07,0.007089375
,,,-4.1E-07,0.007074375
,,,-4E-07,0.00693625
,,,-3.9E-07,0.006800625
,,,-3.8E-07,0.007053125
,,,-3.7E-07,0.0068425
,,,-3.6E-07,0.007245
,,,-3.5E-07,0.00704625
,,,-3.4E-07,0.00683125
,,,-3.3E-07,0.00724125
,,,-3.2E-07,0.00682125
,,,-3.1E-07,0.0070225
,,,-3E-07,0.007035
,,,-2.9E-07,0.007278125
,,,-2.8E-07,0.007239375
,,,-2.7E-07,0.007169375
,,,-2.6E-07,0.007245
,,,-2.5E-07,0.006958125
,,,-2.4E-07,0.006970625
,,,-2.3E-07,0.00686875
,,,-2.2E-07,0.006840625
,,,-2.1E-07,0.00695625
,,,-2E-07,0.007263125
,,,-1.9E-07,0.00712875
,,,-1.8E-07,0.007078125
,,,-1.7E-07,0.006950625
,,,-1.6E-07,0.00723125
,,,-1.5E-07,0.006996875
,,,-1.4E-07,0.00717125
,,,-1.3E-07,0.007099375
,,,-1.2E-07,0.00719875
,,,-1.1E-07,0.007170625
,,,-1E-07,0.00705625
,,,-9E-08,0.00707625
,,,-8E-08,0.0069925
,,,-7E-08,0.006818125
,,,-6E-08,0.007188125
,,,-5E-08,0.00726875
,,,-4E-08,0.008035625
,,,-3E-08,0.008696875
,,,-2E-08,0.00465375
,,,-1E-08,0.00282
,,,0,0.00421375
,,,1E-08,0.010466875
,,,2E-08,0.012440625
,,,3E-08,0.010706875
,,,4E-08,0.005800625
,,,5E-08,0.00333
,,,6E-08,0.003565
,,,7E-08,0.006208125
,,,8E-08,0.008145625
,,,9E-08,0.00918
,,,1E-07,0.009010625
,,,1.1E-07,0.007640625
,,,1.2E-07,0.00564
,,,1.3E-07,0.0050125
,,,1.4E-07,0.00643625
,,,1.5E-07,0.007414375
,,,1.6E-07,0.007699375
,,,1.7E-07,0.007443125
,,,1.8E-07,0.007116875
,,,1.9E-07,0.007215625
,,,2E-07,0.007189375
,,,2.1E-07,0.00677
,,,2.2E-07,0.006980625
,,,2.3E-07,0.006865625
,,,2.4E-07,0.007385625
,,,2.5E-07,0.00714625
,,,2.6E-07,0.007121875
,,,2.7E-07,0.00715625
,,,2.8E-07,0.00697125
,,,2.9E-07,0.00681
,,,3E-07,0.00649625
,,,3.1E-07,0.006886875
,,,3.2E-07,0.0072425
,,,3.3E-07,0.00719625
,,,3.4E-07,0.0071075
,,,3.5E-07,0.0067975
,,,3.6E-07,0.0068275
,,,3.7E-07,0.00696375
,,,3.8E-07,0.00694875
,,,3.9E-07,0.006870625
,,,4E-07,0.00719625
,,,4.1E-07,0.007115
,,,4.2E-07,0.006905
,,,4.3E-07,0.006964375
,,,4.4E-07,0.0068575
,,,4.5E-07,0.007168125
,,,4.6E-07,0.007161875
,,,4.7E-07,0.006786875
,,,4.8E-07,0.00712
,,,4.9E-07,0.00714875
,,,5E-07,0.007255625
,,,5.1E-07,0.0072275
,,,5.2E-07,0.00715375
,,,5.3E-07,0.00698875
,,,5.4E-07,0.006979375
,,,5.5E-07,0.006811875
,,,5.6E-07,0.007080625
,,,5.7E-07,0.007021875
,,,5.8E-07,0.0070475
,,,5.9E-07,0.007088125
,,,6E-07,0.006854375
,,,6.1E-07,0.007198125
,,,6.2E-07,0.007085
,,,6.3E-07,0.006766875
,,,6.4E-07,0.006940625
,,,6.5E-07,0.007100625
,,,6.6E-07,0.00723625
,,,6.7E-07,0.007050625
,,,6.8E-07,0.006996875
,,,6.9E-07,0.00709875
,,,7E-07,0.007064375
,,,7.1E-07,0.00712875
,,,7.2E-07,0.007135
,,,7.3E-07,0.0070775
,,,7.4E-07,0.007025
,,,7.5E-07,0.00703125
,,,7.6E-07,0.007019375
,,,7.7E-07,0.00701
,,,7.8E-07,0.007166875
,,,7.9E-07,0.007195
,,,8E-07,0.006908125
,,,8.1E-07,0.0067125
,,,8.2E-07,0.006868125
,,,8.3E-07,0.00722875
,,,8.4E-07,0.0068725
,,,8.5E-07,0.006790625
,,,8.6E-07,0.00691
,,,8.7E-07,0.007110625
,,,8.8E-07,0.007060625
,,,8.9E-07,0.00696625
,,,9E-07,0.0071175
,,,9.1E-07,0.007311875
,,,9.2E-07,0.007235625
,,,9.3E-07,0.007095625
,,,9.4E-07,0.0069275
,,,9.5E-07,0.0068525
,,,9.6E-07,0.006958125
,,,9.7E-07,0.007161875
,,,9.8E-07,0.006971875
,,,9.9E-07,0.006808125
,,,1E-06,0.0070675
,,,1.01E-06,0.00704
,,,1.02E-06,0.007149375
,,,1.03E-06,0.007100625
,,,1.04E-06,0.007105
,,,1.05E-06,0.00713875
,,,1.06E-06,0.007314375
,,,1.07E-06,0.00705875
,,,1.08E-06,0.007065
,,,1.09E-06,0.0069875
,,,1.1E-06,0.00709375
,,,1.11E-06,0.007115625
,,,1.12E-06,0.007124375
,,,1.13E-06,0.00704375
,,,1.14E-06,0.00711625
,,,1.15E-06,0.00704375
,,,1.16E-06,0.0069525
,,,1.17E-06,0.00715625
,,,1.18E-06,0.00696375
,,,1.19E-06,0.00673
,,,1.2E-06,0.007168125
,,,1.21E-06,0.007133125
,,,1.22E-06,0.007020625
,,,1.23E-06,0.00695875
,,,1.24E-06,0.00707
,,,1.25E-06,0.006893125
,,,1.26E-06,0.00707125
,,,1.27E-06,0.007003125
,,,1.28E-06,0.006849375
,,,1.29E-06,0.006938125
,,,1.3E-06,0.0070525
,,,1.31E-06,0.006895625
,,,1.32E-06,0.006921875
,,,1.33E-06,0.0069025
,,,1.34E-06,0.0069175
,,,1.35E-06,0.0071225
,,,1.36E-06,0.0070825
,,,1.37E-06,0.007185625
,,,1.38E-06,0.006979375
,,,1.39E-06,0.00709875
,,,1.4E-06,0.00727625
,,,1.41E-06,0.00699875
,,,1.42E-06,0.006824375
,,,1.43E-06,0.006914375
,,,1.44E-06,0.00711875
,,,1.45E-06,0.006949375
,,,1.46E-06,0.0071125
,,,1.47E-06,0.007043125
,,,1.48E-06,0.007170625
,,,1.49E-06,0.007136875
,,,1.5E-06,0.00697625
,,,1.51E-06,0.006809375
,,,1.52E-06,0.00679875
,,,1.53E-06,0.00737625
,,,1.54E-06,0.00716125
,,,1.55E-06,0.0070725
,,,1.56E-06,0.007014375
,,,1.57E-06,0.00682
,,,1.58E-06,0.007278125
,,,1.59E-06,0.006828125
,,,1.6E-06,0.006899375
,,,1.61E-06,0.00701875
,,,1.62E-06,0.006985625
,,,1.63E-06,0.0069925
,,,1.64E-06,0.0071
,,,1.65E-06,0.007071875
,,,1.66E-06,0.007215625
,,,1.67E-06,0.007215
,,,1.68E-06,0.006898125
,,,1.69E-06,0.007065
,,,1.7E-06,0.0071525
,,,1.71E-06,0.0069525
,,,1.72E-06,0.007024375
,,,1.73E-06,0.007038125
,,,1.74E-06,0.00701
,,,1.75E-06,0.006985
,,,1.76E-06,0.00716625
,,,1.77E-06,0.00695375
,,,1.78E-06,0.0071075
,,,1.79E-06,0.006956875
,,,1.8E-06,0.007078125
,,,1.81E-06,0.006975625
,,,1.82E-06,0.007185
,,,1.83E-06,0.00729375
,,,1.84E-06,0.007065
,,,1.85E-06,0.007153125
,,,1.86E-06,0.00710125
,,,1.87E-06,0.007061875
,,,1.88E-06,0.007285625
,,,1.89E-06,0.00705375
,,,1.9E-06,0.007125625
,,,1.91E-06,0.0072475
,,,1.92E-06,0.00719125
,,,1.93E-06,0.006858125
,,,1.94E-06,0.00684
,,,1.95E-06,0.007309375
,,,1.96E-06,0.006993125
,,,1.97E-06,0.007063125
,,,1.98E-06,0.00683875
,,,1.99E-06,0.00704625
,,,2E-06,0.00708625
,,,2.01E-06,0.00706875
,,,2.02E-06,0.006924375
,,,2.03E-06,0.00697625
,,,2.04E-06,0.00727375
,,,2.05E-06,0.00717625
,,,2.06E-06,0.00684625
,,,2.07E-06,0.007051875
,,,2.08E-06,0.00705375
,,,2.09E-06,0.00680875
,,,2.1E-06,0.007281875
,,,2.11E-06,0.00701125
,,,2.12E-06,0.00716625
,,,2.13E-06,0.006925625
,,,2.14E-06,0.007080625
,,,2.15E-06,0.00692125
,,,2.16E-06,0.00691875
,,,2.17E-06,0.007015
,,,2.18E-06,0.00721375
,,,2.19E-06,0.00702375
,,,2.2E-06,0.0072525
,,,2.21E-06,0.00727125
,,,2.22E-06,0.006999375
,,,2.23E-06,0.00699
,,,2.24E-06,0.007153125
,,,2.25E-06,0.00697875
,,,2.26E-06,0.007035625
,,,2.27E-06,0.007044375
,,,2.28E-06,0.007035625
,,,2.29E-06,0.007143125
,,,2.3E-06,0.007115
,,,2.31E-06,0.00712125
,,,2.32E-06,0.007160625
,,,2.33E-06,0.007149375
,,,2.34E-06,0.006945
,,,2.35E-06,0.007001875
,,,2.36E-06,0.00685375
,,,2.37E-06,0.00704125
,,,2.38E-06,0.00701625
,,,2.39E-06,0.006885
,,,2.4E-06,0.006916875
,,,2.41E-06,0.007060625
,,,2.42E-06,0.007021875
,,,2.43E-06,0.006915625
,,,2.44E-06,0.007025
,,,2.45E-06,0.00730625
,,,2.46E-06,0.00705375
,,,2.47E-06,0.007024375
,,,2.48E-06,0.007
,,,2.49E-06,0.007230625
,,,2.5E-06,0.0071375
,,,2.51E-06,0.006983125
,,,2.52E-06,0.007181875
,,,2.53E-06,0.006735
,,,2.54E-06,0.007181875
,,,2.55E-06,0.00711375
,,,2.56E-06,0.007081875
,,,2.57E-06,0.00706375
,,,2.58E-06,0.007226875
,,,2.59E-06,0.00683
,,,2.6E-06,0.006869375
,,,2.61E-06,0.007194375
,,,2.62E-06,0.00700375
,,,2.63E-06,0.00709125
,,,2.64E-06,0.007235625
,,,2.65E-06,0.007235
,,,2.66E-06,0.007056875
,,,2.67E-06,0.00720875
,,,2.68E-06,0.00725625
,,,2.69E-06,0.00695125
,,,2.7E-06,0.00710375
,,,2.71E-06,0.006930625
,,,2.72E-06,0.00731
,,,2.73E-06,0.00705875
,,,2.74E-06,0.006939375
,,,2.75E-06,0.0071125
,,,2.76E-06,0.007025625
,,,2.77E-06,0.0070325
,,,2.78E-06,0.00689125
,,,2.79E-06,0.006825625
,,,2.8E-06,0.006915
,,,2.81E-06,0.007259375
,,,2.82E-06,0.00707875
,,,2.83E-06,0.007001875
,,,2.84E-06,0.00703125
,,,2.85E-06,0.006956875
,,,2.86E-06,0.007011875
,,,2.87E-06,0.0070225
,,,2.88E-06,0.007096875
,,,2.89E-06,0.00721625
,,,2.9E-06,0.007023125
,,,2.91E-06,0.007055
,,,2.92E-06,0.007164375
,,,2.93E-06,0.006876875
,,,2.94E-06,0.007143125
,,,2.95E-06,0.006746875
,,,2.96E-06,0.006855
,,,2.97E-06,0.0071075
,,,2.98E-06,0.00718875
,,,2.99E-06,0.0071225
,,,3E-06,0.00697625
,,,3.01E-06,0.007085625
,,,3.02E-06,0.0070625
,,,3.03E-06,0.006985
,,,3.04E-06,0.00703875
,,,3.05E-06,0.007125
,,,3.06E-06,0.007061875
,,,3.07E-06,0.006875
,,,3.08E-06,0.00704625
,,,3.09E-06,0.007225625
,,,3.1E-06,0.00695875
,,,3.11E-06,0.006960625
,,,3.12E-06,0.00722
,,,3.13E-06,0.0069275
,,,3.14E-06,0.0075125
,,,3.15E-06,0.007195
,,,3.16E-06,0.00698
,,,3.17E-06,0.00692875
,,,3.18E-06,0.00689125
,,,3.19E-06,0.006865625
,,,3.2E-06,0.007113125
,,,3.21E-06,0.007185
,,,3.22E-06,0.00701125
,,,3.23E-06,0.0068775
,,,3.24E-06,0.007063125
,,,3.25E-06,0.0072075
,,,3.26E-06,0.007286875
,,,3.27E-06,0.00698125
,,,3.28E-06,0.00698625
,,,3.29E-06,0.00710375
,,,3.3E-06,0.0073225
,,,3.31E-06,0.00732125
,,,3.32E-06,0.0068475
,,,3.33E-06,0.0068125
,,,3.34E-06,0.006974375
,,,3.35E-06,0.00690375
,,,3.36E-06,0.007325
,,,3.37E-06,0.007118125
,,,3.38E-06,0.007491875
,,,3.39E-06,0.00703625
,,,3.4E-06,0.007049375
,,,3.41E-06,0.007229375
,,,3.42E-06,0.00689875
,,,3.43E-06,0.00705625
,,,3.44E-06,0.006980625
,,,3.45E-06,0.00697125
,,,3.46E-06,0.007135625
,,,3.47E-06,0.007175
,,,3.48E-06,0.007075
,,,3.49E-06,0.007123125
,,,3.5E-06,0.007175
,,,3.51E-06,0.007241875
,,,3.52E-06,0.00721625
,,,3.53E-06,0.007048125
,,,3.54E-06,0.00680375
,,,3.55E-06,0.007125625
,,,3.56E-06,0.0068325
,,,3.57E-06,0.007045625
,,,3.58E-06,0.0067475
