data/raw/Final_POL_Test_1/SOP067_Ch4.csv

"Record Length",1000,"Points",-5E-06,0.0198525
"Sample Interval",1E-08,s,-4.99E-06,0.019910625
"Trigger Point",500,"Samples",-4.98E-06,0.0197625
"Trigger Time",0,s,-4.97E-06,0.019645625
"",,,-4.96E-06,0.019628125
"Horizontal Offset",-5E-06,s,-4.95E-06,0.019816875
,,,-4.94E-06,0.019775625
,,,-4.93E-06,0.019679375
,,,-4.92E-06,0.0196125
,,,-4.91E-06,0.019663125
,,,-4.9E-06,0.019874375
,,,-4.89E-06,0.01982
,,,-4.88E-06,0.019459375
,,,-4.87E-06,0.01966
,,,-4.86E-06,0.019779375
,,,-4.85E-06,0.019794375
,,,-4.84E-06,0.019708125
,,,-4.83E-06,0.019775
,,,-4.82E-06,0.019705625
,,,-4.81E-06,0.01958375
,,,-4.8E-06,0.0197925
,,,-4.79E-06,0.01979
,,,-4.78E-06,0.019959375
,,,-4.77E-06,0.01978625
,,,-4.76E-06,0.0197875
,,,-4.75E-06,0.01992625
,,,-4.74E-06,0.019503125
,,,-4.73E-06,0.0197425
,,,-4.72E-06,0.019841875
,,,-4.71E-06,0.019993125
,,,-4.7E-06,0.01965375
,,,-4.69E-06,0.01964375
,,,-4.68E-06,0.019745
,,,-4.67E-06,0.019690625
,,,-4.66E-06,0.01975375
,,,-4.65E-06,0.01966
,,,-4.64E-06,0.0199575
,,,-4.63E-06,0.019789375
,,,-4.62E-06,0.019856875
,,,-4.61E-06,0.0196825
,,,-4.6E-06,0.01992875
,,,-4.59E-06,0.01974375
,,,-4.58E-06,0.019595
,,,-4.57E-06,0.019760625
,,,-4.56E-06,0.01970625
,,,-4.55E-06,0.019758125
,,,-4.54E-06,0.01989375
,,,-4.53E-06,0.01984625
,,,-4.52E-06,0.019645625
,,,-4.51E-06,0.0195275
,,,-4.5E-06,0.019650625
,,,-4.49E-06,0.019573125
,,,-4.48E-06,0.019859375
,,,-4.47E-06,0.0198125
,,,-4.46E-06,0.01985125
,,,-4.45E-06,0.0199475
,,,-4.44E-06,0.019796875
,,,-4.43E-06,0.019870625
,,,-4.42E-06,0.019689375
,,,-4.41E-06,0.019653125
,,,-4.4E-06,0.019868125
,,,-4.39E-06,0.019686875
,,,-4.38E-06,0.019715
,,,-4.37E-06,0.0195425
,,,-4.36E-06,0.0197375
,,,-4.35E-06,0.019795625
,,,-4.34E-06,0.01951625
,,,-4.33E-06,0.019858125
,,,-4.32E-06,0.019671875
,,,-4.31E-06,0.01991125
,,,-4.3E-06,0.019831875
,,,-4.29E-06,0.019619375
,,,-4.28E-06,0.01967
,,,-4.27E-06,0.01978875
,,,-4.26E-06,0.0196825
,,,-4.25E-06,0.01986625
,,,-4.24E-06,0.019488125
,,,-4.23E-06,0.0197225
,,,-4.22E-06,0.020039375
,,,-4.21E-06,0.019766875
,,,-4.2E-06,0.01965375
,,,-4.19E-06,0.019495625
,,,-4.18E-06,0.019620625
,,,-4.17E-06,0.0197075
,,,-4.16E-06,0.019796875
,,,-4.15E-06,0.01963125
,,,-4.14E-06,0.019450625
,,,-4.13E-06,0.0197775
,,,-4.12E-06,0.01972875
,,,-4.11E-06,0.019893125
,,,-4.1E-06,0.019815625
,,,-4.09E-06,0.019666875
,,,-4.08E-06,0.019755
,,,-4.07E-06,0.019868125
,,,-4.06E-06,0.01994875
,,,-4.05E-06,0.0196025
,,,-4.04E-06,0.019616875
,,,-4.03E-06,0.019816875
,,,-4.02E-06,0.019693125
,,,-4.01E-06,0.01980875
,,,-4E-06,0.019770625
,,,-3.99E-06,0.019815
,,,-3.98E-06,0.01972375
,,,-3.97E-06,0.01975875
,,,-3.96E-06,0.019884375
,,,-3.95E-06,0.020164375
,,,-3.94E-06,0.019655
,,,-3.93E-06,0.0198925
,,,-3.92E-06,0.01978625
,,,-3.91E-06,0.019535625
,,,-3.9E-06,0.019945
,,,-3.89E-06,0.019746875
,,,-3.88E-06,0.01982
,,,-3.87E-06,0.0196375
,,,-3.86E-06,0.01973375
,,,-3.85E-06,0.0195775
,,,-3.84E-06,0.019791875
,,,-3.83E-06,0.019808125
,,,-3.82E-06,0.019595625
,,,-3.81E-06,0.019581875
,,,-3.8E-06,0.0194475
,,,-3.79E-06,0.019688125
,,,-3.78E-06,0.019854375
,,,-3.77E-06,0.019581875
,,,-3.76E-06,0.0197075
,,,-3.75E-06,0.019846875
,,,-3.74E-06,0.01973875
,,,-3.73E-06,0.01971875
,,,-3.72E-06,0.019701875
,,,-3.71E-06,0.01969125
,,,-3.7E-06,0.019768125
,,,-3.69E-06,0.019764375
,,,-3.68E-06,0.020011875
,,,-3.67E-06,0.019895
,,,-3.66E-06,0.019630625
,,,-3.65E-06,0.019850625
,,,-3.64E-06,0.019920625
,,,-3.63E-06,0.019581875
,,,-3.62E-06,0.019850625
,,,-3.61E-06,0.019785625
,,,-3.6E-06,0.0195025
,,,-3.59E-06,0.01955625
,,,-3.58E-06,0.01986
,,,-3.57E-06,0.02003375
,,,-3.56E-06,0.01971125
,,,-3.55E-06,0.019623125
,,,-3.54E-06,0.01977125
,,,-3.53E-06,0.019689375
,,,-3.52E-06,0.019683125
,,,-3.51E-06,0.01979375
,,,-3.5E-06,0.020048125
,,,-3.49E-06,0.019678125
,,,-3.48E-06,0.0198275
,,,-3.47E-06,0.01985375
,,,-3.46E-06,0.019918125
,,,-3.45E-06,0.0196725
,,,-3.44E-06,0.019929375
,,,-3.43E-06,0.019811875
,,,-3.42E-06,0.0197525
,,,-3.41E-06,0.01976875
,,,-3.4E-06,0.019655625
,,,-3.39E-06,0.019756875
,,,-3.38E-06,0.019785
,,,-3.37E-06,0.019560625
,,,-3.36E-06,0.019866875
,,,-3.35E-06,0.01965375
,,,-3.34E-06,0.01976625
,,,-3.33E-06,0.0196925
,,,-3.32E-06,0.01990125
,,,-3.31E-06,0.019778125
,,,-3.3E-06,0.019644375
,,,-3.29E-06,0.01960875
,,,-3.28E-06,0.019971875
,,,-3.27E-06,0.0197125
,,,-3.26E-06,0.0195125
,,,-3.25E-06,0.019579375
,,,-3.24E-06,0.01989125
,,,-3.23E-06,0.019750625
,,,-3.22E-06,0.019579375
,,,-3.21E-06,0.01940875
,,,-3.2E-06,0.019675625
,,,-3.19E-06,0.019381875
,,,-3.18E-06,0.01997
,,,-3.17E-06,0.0198475
,,,-3.16E-06,0.01989875
,,,-3.15E-06,0.019695625
,,,-3.14E-06,0.019499375
,,,-3.13E-06,0.019780625
,,,-3.12E-06,0.0199375
,,,-3.11E-06,0.019709375
,,,-3.1E-06,0.019666875
,,,-3.09E-06,0.01954375
,,,-3.08E-06,0.019748125
,,,-3.07E-06,0.01967
,,,-3.06E-06,0.019890625
,,,-3.05E-06,0.01966625
,,,-3.04E-06,0.019524375
,,,-3.03E-06,0.0198325
,,,-3.02E-06,0.019688125
,,,-3.01E-06,0.019511875
,,,-3E-06,0.019699375
,,,-2.99E-06,0.019826875
,,,-2.98E-06,0.019741875
,,,-2.97E-06,0.01974875
,,,-2.96E-06,0.01961625
,,,-2.95E-06,0.019725
,,,-2.94E-06,0.019728125
,,,-2.93E-06,0.019676875
,,,-2.92E-06,0.02003625
,,,-2.91E-06,0.01974
,,,-2.9E-06,0.01984875
,,,-2.89E-06,0.019728125
,,,-2.88E-06,0.01956875
,,,-2.87E-06,0.019645625
,,,-2.86E-06,0.01965375
,,,-2.85E-06,0.019545625
,,,-2.84E-06,0.019738125
,,,-2.83E-06,0.019798125
,,,-2.82E-06,0.019556875
,,,-2.81E-06,0.019708125
,,,-2.8E-06,0.01955625
,,,-2.79E-06,0.0195625
,,,-2.78E-06,0.019858125
,,,-2.77E-06,0.019831875
,,,-2.76E-06,0.01977375
,,,-2.75E-06,0.019658125
,,,-2.74E-06,0.01997125
,,,-2.73E-06,0.019655625
,,,-2.72E-06,0.019693125
,,,-2.71E-06,0.019765625
,,,-2.7E-06,0.019590625
,,,-2.69E-06,0.0196775
,,,-2.68E-06,0.019730625
,,,-2.67E-06,0.0199225
,,,-2.66E-06,0.01963875
,,,-2.65E-06,0.01973625
,,,-2.64E-06,0.020020625
,,,-2.63E-06,0.019694375
,,,-2.62E-06,0.01984625
,,,-2.61E-06,0.019676875
,,,-2.6E-06,0.01989625
,,,-2.59E-06,0.019966875
,,,-2.58E-06,0.019928125
,,,-2.57E-06,0.019588125
,,,-2.56E-06,0.019591875
,,,-2.55E-06,0.01964
,,,-2.54E-06,0.019625
,,,-2.53E-06,0.01992
,,,-2.52E-06,0.01958125
,,,-2.51E-06,0.019599375
,,,-2.5E-06,0.01963625
,,,-2.49E-06,0.019815625
,,,-2.48E-06,0.019736875
,,,-2.47E-06,0.01978375
,,,-2.46E-06,0.019620625
,,,-2.45E-06,0.0193375
,,,-2.44E-06,0.019541875
,,,-2.43E-06,0.0196825
,,,-2.42E-06,0.020011875
,,,-2.41E-06,0.019990625
,,,-2.4E-06,0.019601875
,,,-2.39E-06,0.01962625
,,,-2.38E-06,0.019674375
,,,-2.37E-06,0.0197
,,,-2.36E-06,0.019878125
,,,-2.35E-06,0.019810625
,,,-2.34E-06,0.01978
,,,-2.33E-06,0.01975625
,,,-2.32E-06,0.019576875
,,,-2.31E-06,0.0198825
,,,-2.3E-06,0.019841875
,,,-2.29E-06,0.019745
,,,-2.28E-06,0.019799375
,,,-2.27E-06,0.019625625
,,,-2.26E-06,0.01971375
,,,-2.25E-06,0.019675625
,,,-2.24E-06,0.01963375
,,,-2.23E-06,0.020068125
,,,-2.22E-06,0.019585625
,,,-2.21E-06,0.0197325
,,,-2.2E-06,0.019633125
,,,-2.19E-06,0.01968375
,,,-2.18E-06,0.020005625
,,,-2.17E-06,0.01976
,,,-2.16E-06,0.019875625
,,,-2.15E-06,0.019900625
,,,-2.14E-06,0.019539375
,,,-2.13E-06,0.019686875
,,,-2.12E-06,0.01961375
,,,-2.11E-06,0.01990625
,,,-2.1E-06,0.0196525
,,,-2.09E-06,0.019695
,,,-2.08E-06,0.019664375
,,,-2.07E-06,0.019878125
,,,-2.06E-06,0.020011875
,,,-2.05E-06,0.019854375
,,,-2.04E-06,0.019688125
,,,-2.03E-06,0.01988875
,,,-2.02E-06,0.019795
,,,-2.01E-06,0.019653125
,,,-2E-06,0.019700625
,,,-1.99E-06,0.01974875
,,,-1.98E-06,0.019711875
,,,-1.97E-06,0.0196975
,,,-1.96E-06,0.01967875
,,,-1.95E-06,0.019575
,,,-1.94E-06,0.019760625
,,,-1.93E-06,0.019775625
,,,-1.92E-06,0.01969375
,,,-1.91E-06,0.019755
,,,-1.9E-06,0.019871875
,,,-1.89E-06,0.019811875
,,,-1.88E-06,0.01988125
,,,-1.87E-06,0.019801875
,,,-1.86E-06,0.0198725
,,,-1.85E-06,0.019623125
,,,-1.84E-06,0.019600625
,,,-1.83E-06,0.020015
,,,-1.82E-06,0.019605
,,,-1.81E-06,0.019785
,,,-1.8E-06,0.019856875
,,,-1.79E-06,0.01948625
,,,-1.78E-06,0.01974125
,,,-1.77E-06,0.019974375
,,,-1.76E-06,0.0198825
,,,-1.75E-06,0.0198475
,,,-1.74E-06,0.019950625
,,,-1.73E-06,0.01958875
,,,-1.72E-06,0.0196075
,,,-1.71E-06,0.019785
,,,-1.7E-06,0.019623125
,,,-1.69E-06,0.01982125
,,,-1.68E-06,0.019721875
,,,-1.67E-06,0.019695
,,,-1.66E-06,0.0195175
,,,-1.65E-06,0.019705
,,,-1.64E-06,0.01976375
,,,-1.63E-06,0.020038125
,,,-1.62E-06,0.019681875
,,,-1.61E-06,0.0197025
,,,-1.6E-06,0.019650625
,,,-1.59E-06,0.0196975
,,,-1.58E-06,0.01975625
,,,-1.57E-06,0.01962
,,,-1.56E-06,0.019536875
,,,-1.55E-06,0.0199725
,,,-1.54E-06,0.019669375
,,,-1.53E-06,0.019708125
,,,-1.52E-06,0.019816875
,,,-1.51E-06,0.01965875
,,,-1.5E-06,0.01988375
,,,-1.49E-06,0.019918125
,,,-1.48E-06,0.019885
,,,-1.47E-06,0.019838125
,,,-1.46E-06,0.019580625
,,,-1.45E-06,0.0197425
,,,-1.44E-06,0.019951875
,,,-1.43E-06,0.019961875
,,,-1.42E-06,0.0198775
,,,-1.41E-06,0.019618125
,,,-1.4E-06,0.0198275
,,,-1.39E-06,0.01975375
,,,-1.38E-06,0.019615625
,,,-1.37E-06,0.019731875
,,,-1.36E-06,0.019894375
,,,-1.35E-06,0.01989375
,,,-1.34E-06,0.019743125
,,,-1.33E-06,0.019615625
,,,-1.32E-06,0.019918125
,,,-1.31E-06,0.019668125
,,,-1.3E-06,0.019609375
,,,-1.29E-06,0.019735625
,,,-1.28E-06,0.01978625
,,,-1.27E-06,0.019729375
,,,-1.26E-06,0.019529375
,,,-1.25E-06,0.0200575
,,,-1.24E-06,0.019925625
,,,-1.23E-06,0.019816875
,,,-1.22E-06,0.019705625
,,,-1.21E-06,0.0196825
,,,-1.2E-06,0.019759375
,,,-1.19E-06,0.01971375
,,,-1.18E-06,0.01964375
,,,-1.17E-06,0.01963
,,,-1.16E-06,0.019913125
,,,-1.15E-06,0.019709375
,,,-1.14E-06,0.0196725
,,,-1.13E-06,0.019769375
,,,-1.12E-06,0.0197525
,,,-1.11E-06,0.019759375
,,,-1.1E-06,0.01963375
,,,-1.09E-06,0.019929375
,,,-1.08E-06,0.019981875
,,,-1.07E-06,0.01957375
,,,-1.06E-06,0.0199175
,,,-1.05E-06,0.0197825
,,,-1.04E-06,0.019798125
,,,-1.03E-06,0.019846875
,,,-1.02E-06,0.019605625
,,,-1.01E-06,0.020075
,,,-1E-06,0.020038125
,,,-9.9E-07,0.019745
,,,-9.8E-07,0.01980625
,,,-9.7E-07,0.0197675
,,,-9.6E-07,0.019720625
,,,-9.5E-07,0.01970125
,,,-9.4E-07,0.01979875
,,,-9.3E-07,0.019699375
,,,-9.2E-07,0.019719375
,,,-9.1E-07,0.019865
,,,-9E-07,0.01979625
,,,-8.9E-07,0.01969125
,,,-8.8E-07,0.01965375
,,,-8.7E-07,0.01978125
,,,-8.6E-07,0.01979375
,,,-8.5E-07,0.019631875
,,,-8.4E-07,0.019803125
,,,-8.3E-07,0.0195475
,,,-8.2E-07,0.019671875
,,,-8.1E-07,0.0196775
,,,-8E-07,0.019888125
,,,-7.9E-07,0.0200525
,,,-7.8E-07,0.01976125
,,,-7.7E-07,0.019673125
,,,-7.6E-07,0.01998875
,,,-7.5E-07,0.019641875
,,,-7.4E-07,0.01980375
,,,-7.3E-07,0.019725
,,,-7.2E-07,0.01961625
,,,-7.1E-07,0.019661875
,,,-7E-07,0.01980375
,,,-6.9E-07,0.019629375
,,,-6.8E-07,0.019690625
,,,-6.7E-07,0.01975
,,,-6.6E-07,0.0198
,,,-6.5E-07,0.019655625
,,,-6.4E-07,0.019723125
,,,-6.3E-07,0.01956125
,,,-6.2E-07,0.019585625
,,,-6.1E-07,0.019744375
,,,-6E-07,0.01972875
,,,-5.9E-07,0.019899375
,,,-5.8E-07,0.019996875
,,,-5.7E-07,0.019501875
,,,-5.6E-07,0.01930375
,,,-5.5E-07,0.019673125
,,,-5.4E-07,0.01974125
,,,-5.3E-07,0.0197675
,,,-5.2E-07,0.019735625
,,,-5.1E-07,0.019939375
,,,-5E-07,0.019779375
,,,-4.9E-07,0.019650625
,,,-4.8E-07,0.0196075
,,,-4.7E-07,0.0196175
,,,-4.6E-07,0.019621875
,,,-4.5E-07,0.019894375
,,,-4.4E-07,0.019928125
,,,-4.3E-07,0.019716875
,,,-4.2E-07,0.019635625
,,,-4.1E-07,0.020041875
,,,-4E-07,0.01981375
,,,-3.9E-07,0.019551875
,,,-3.8E-07,0.0194675
,,,-3.7E-07,0.019903125
,,,-3.6E-07,0.01957
,,,-3.5E-07,0.019655
,,,-3.4E-07,0.02004125
,,,-3.3E-07,0.019693125
,,,-3.2E-07,0.0197125
,,,-3.1E-07,0.019834375
,,,-3E-07,0.019944375
,,,-2.9E-07,0.019440625
,,,-2.8E-07,0.0199175
,,,-2.7E-07,0.01966125
,,,-2.6E-07,0.019845625
,,,-2.5E-07,0.01959
,,,-2.4E-07,0.019960625
,,,-2.3E-07,0.01976375
,,,-2.2E-07,0.019726875
,,,-2.1E-07,0.0196525
,,,-2E-07,0.019904375
,,,-1.9E-07,0.019750625
,,,-1.8E-07,0.019873125
,,,-1.7E-07,0.019883125
,,,-1.6E-07,0.019733125
,,,-1.5E-07,0.01958
,,,-1.4E-07,0.019689375
,,,-1.3E-07,0.019676875
,,,-1.2E-07,0.019485625
,,,-1.1E-07,0.019461875
,,,-1E-07,0.0198475
,,,-9E-08,0.019689375
,,,-8E-08,0.01971
,,,-7E-08,0.019800625
,,,-6E-08,0.019700625
,,,-5E-08,0.019673125
,,,-4E-08,0.020509375
,,,-3E-08,0.02163875
,,,-2E-08,0.01859
,,,-1E-08,0.016296875
,,,0,0.01534125
,,,1E-08,0.0218875
,,,2E-08,0.024655
,,,3E-08,0.024411875
,,,4E-08,0.0197725
,,,5E-08,0.017073125
,,,6E-08,0.015964375
,,,7E-08,0.01767125
,,,8E-08,0.020143125
,,,9E-08,0.021886875
,,,1E-07,0.0224425
,,,1.1E-07,0.020925
,,,1.2E-07,0.0188075
,,,1.3E-07,0.01774
,,,1.4E-07,0.018603125
,,,1.5E-07,0.01987625
,,,1.6E-07,0.02039375
,,,1.7E-07,0.020268125
,,,1.8E-07,0.0199825
,,,1.9E-07,0.019850625
,,,2E-07,0.01963375
,,,2.1E-07,0.01941375
,,,2.2E-07,0.0193075
,,,2.3E-07,0.019759375
,,,2.4E-07,0.019875625
,,,2.5E-07,0.01992
,,,2.6E-07,0.019701875
,,,2.7E-07,0.019605
,,,2.8E-07,0.020016875
,,,2.9E-07,0.019966875
,,,3E-07,0.019955625
,,,3.1E-07,0.0195025
,,,3.2E-07,0.019555625
,,,3.3E-07,0.019701875
,,,3.4E-07,0.01996375
,,,3.5E-07,0.019708125
,,,3.6E-07,0.01953375
,,,3.7E-07,0.01965375
,,,3.8E-07,0.019990625
,,,3.9E-07,0.0197125
,,,4E-07,0.019755625
,,,4.1E-07,0.019744375
,,,4.2E-07,0.0195975
,,,4.3E-07,0.0198225
,,,4.4E-07,0.01972125
,,,4.5E-07,0.019958125
,,,4.6E-07,0.019805625
,,,4.7E-07,0.01996375
,,,4.8E-07,0.01983
,,,4.9E-07,0.019944375
,,,5E-07,0.019745625
,,,5.1E-07,0.0198825
,,,5.2E-07,0.019924375
,,,5.3E-07,0.019554375
,,,5.4E-07,0.0198075
,,,5.5E-07,0.019819375
,,,5.6E-07,0.020013125
,,,5.7E-07,0.020041875
,,,5.8E-07,0.0197775
,,,5.9E-07,0.0197075
,,,6E-07,0.01981625
,,,6.1E-07,0.01984125
,,,6.2E-07,0.0197425
,,,6.3E-07,0.019510625
,,,6.4E-07,0.019803125
,,,6.5E-07,0.01977125
,,,6.6E-07,0.019644375
,,,6.7E-07,0.019659375
,,,6.8E-07,0.019568125
,,,6.9E-07,0.0195775
,,,7E-07,0.019610625
,,,7.1E-07,0.0196925
,,,7.2E-07,0.01992125
,,,7.3E-07,0.019885625
,,,7.4E-07,0.019635
,,,7.5E-07,0.019585625
,,,7.6E-07,0.01974875
,,,7.7E-07,0.019893125
,,,7.8E-07,0.019708125
,,,7.9E-07,0.019715625
,,,8E-07,0.0196575
,,,8.1E-07,0.01972875
,,,8.2E-07,0.019913125
,,,8.3E-07,0.019790625
,,,8.4E-07,0.01975375
,,,8.5E-07,0.01963125
,,,8.6E-07,0.01978625
,,,8.7E-07,0.019988125
,,,8.8E-07,0.019789375
,,,8.9E-07,0.019789375
,,,9E-07,0.019649375
,,,9.1E-07,0.01981375
,,,9.2E-07,0.019595
,,,9.3E-07,0.019905625
,,,9.4E-07,0.019713125
,,,9.5E-07,0.019745
,,,9.6E-07,0.0199425
,,,9.7E-07,0.019866875
,,,9.8E-07,0.0198275
,,,9.9E-07,0.019865625
,,,1E-06,0.019984375
,,,1.01E-06,0.01947625
,,,1.02E-06,0.019625
,,,1.03E-06,0.01941625
,,,1.04E-06,0.019635625
,,,1.05E-06,0.019788125
,,,1.06E-06,0.019815625
,,,1.07E-06,0.019625625
,,,1.08E-06,0.01982
,,,1.09E-06,0.01972
,,,1.1E-06,0.01975375
,,,1.11E-06,0.01956
,,,1.12E-06,0.019736875
,,,1.13E-06,0.0197475
,,,1.14E-06,0.019998125
,,,1.15E-06,0.019705625
,,,1.16E-06,0.019845
,,,1.17E-06,0.01997625
,,,1.18E-06,0.0194175
,,,1.19E-06,0.019886875
,,,1.2E-06,0.0198675
,,,1.21E-06,0.01972
,,,1.22E-06,0.0197025
,,,1.23E-06,0.019636875
,,,1.24E-06,0.01999
,,,1.25E-06,0.01962
,,,1.26E-06,0.019683125
,,,1.27E-06,0.01995375
,,,1.28E-06,0.019870625
,,,1.29E-06,0.019724375
,,,1.3E-06,0.01978375
,,,1.31E-06,0.019881875
,,,1.32E-06,0.019764375
,,,1.33E-06,0.01994875
,,,1.34E-06,0.0200825
,,,1.35E-06,0.01985375
,,,1.36E-06,0.01985625
,,,1.37E-06,0.019734375
,,,1.38E-06,0.019496875
,,,1.39E-06,0.019994375
,,,1.4E-06,0.0199325
,,,1.41E-06,0.019726875
,,,1.42E-06,0.019868125
,,,1.43E-06,0.0198225
,,,1.44E-06,0.0195825
,,,1.45E-06,0.019809375
,,,1.46E-06,0.019589375
,,,1.47E-06,0.019723125
,,,1.48E-06,0.019719375
,,,1.49E-06,0.019829375
,,,1.5E-06,0.01987875
,,,1.51E-06,0.01986375
,,,1.52E-06,0.019725
,,,1.53E-06,0.019825625
,,,1.54E-06,0.01981875
,,,1.55E-06,0.01978
,,,1.56E-06,0.019736875
,,,1.57E-06,0.01974875
,,,1.58E-06,0.019703125
,,,1.59E-06,0.019669375
,,,1.6E-06,0.019675
,,,1.61E-06,0.019795625
,,,1.62E-06,0.01984625
,,,1.63E-06,0.019885625
,,,1.64E-06,0.019619375
,,,1.65E-06,0.019756875
,,,1.66E-06,0.01983
,,,1.67E-06,0.01965125
,,,1.68E-06,0.0195975
,,,1.69E-06,0.019795
,,,1.7E-06,0.01988625
,,,1.71E-06,0.01957875
,,,1.72E-06,0.019533125
,,,1.73E-06,0.019678125
,,,1.74E-06,0.019909375
,,,1.75E-06,0.019666875
,,,1.76E-06,0.0196775
,,,1.77E-06,0.019611875
,,,1.78E-06,0.019835
,,,1.79E-06,0.019719375
,,,1.8E-06,0.019910625
,,,1.81E-06,0.01982875
,,,1.82E-06,0.019646875
,,,1.83E-06,0.01952125
,,,1.84E-06,0.019573125
,,,1.85E-06,0.019710625
,,,1.86E-06,0.02
,,,1.87E-06,0.019791875
,,,1.88E-06,0.019903125
,,,1.89E-06,0.019745
,,,1.9E-06,0.019894375
,,,1.91E-06,0.0194775
,,,1.92E-06,0.019853125
,,,1.93E-06,0.01965625
,,,1.94E-06,0.01984
,,,1.95E-06,0.019488125
,,,1.96E-06,0.019693125
,,,1.97E-06,0.019865
,,,1.98E-06,0.019873125
,,,1.99E-06,0.019935
,,,2E-06,0.01961125
,,,2.01E-06,0.0199175
,,,2.02E-06,0.019631875
,,,2.03E-06,0.019758125
,,,2.04E-06,0.0195175
,,,2.05E-06,0.01989
,,,2.06E-06,0.01994375
,,,2.07E-06,0.019620625
,,,2.08E-06,0.019595
,,,2.09E-06,0.0197125
,,,2.1E-06,0.01937125
,,,2.11E-06,0.019796875
,,,2.12E-06,0.0195675
,,,2.13E-06,0.01974125
,,,2.14E-06,0.01967875
,,,2.15E-06,0.02004375
,,,2.16E-06,0.019665
,,,2.17E-06,0.019846875
,,,2.18E-06,0.019615625
,,,2.19E-06,0.019705
,,,2.2E-06,0.0198425
,,,2.21E-06,0.019705625
,,,2.22E-06,0.019655
,,,2.23E-06,0.01998625
,,,2.24E-06,0.0198675
,,,2.25E-06,0.019826875
,,,2.26E-06,0.019654375
,,,2.27E-06,0.019768125
,,,2.28E-06,0.019825
,,,2.29E-06,0.01986625
,,,2.3E-06,0.01996625
,,,2.31E-06,0.01961875
,,,2.32E-06,0.019946875
,,,2.33E-06,0.01973375
,,,2.34E-06,0.019621875
,,,2.35E-06,0.01961625
,,,2.36E-06,0.019886875
,,,2.37E-06,0.019574375
,,,2.38E-06,0.019815625
,,,2.39E-06,0.0199275
,,,2.4E-06,0.019759375
,,,2.41E-06,0.01958375
,,,2.42E-06,0.019645
,,,2.43E-06,0.019624375
,,,2.44E-06,0.019769375
,,,2.45E-06,0.01964
,,,2.46E-06,0.01953625
,,,2.47E-06,0.020063125
,,,2.48E-06,0.019883125
,,,2.49E-06,0.019865625
,,,2.5E-06,0.019774375
,,,2.51E-06,0.019635625
,,,2.52E-06,0.01962875
,,,2.53E-06,0.019813125
,,,2.54E-06,0.019858125
,,,2.55E-06,0.019648125
,,,2.56E-06,0.019905
,,,2.57E-06,0.019885
,,,2.58E-06,0.019595625
,,,2.59E-06,0.01981
,,,2.6E-06,0.0197425
,,,2.61E-06,0.019719375
,,,2.62E-06,0.019678125
,,,2.63E-06,0.020095
,,,2.64E-06,0.019905625
,,,2.65E-06,0.01973625
,,,2.66E-06,0.01978375
,,,2.67E-06,0.01960875
,,,2.68E-06,0.01988
,,,2.69E-06,0.0196975
,,,2.7E-06,0.019740625
,,,2.71E-06,0.01972
,,,2.72E-06,0.019646875
,,,2.73E-06,0.019734375
,,,2.74E-06,0.019741875
,,,2.75E-06,0.019965625
,,,2.76E-06,0.01966375
,,,2.77E-06,0.01972625
,,,2.78E-06,0.019648125
,,,2.79E-06,0.019549375
,,,2.8E-06,0.019861875
,,,2.81E-06,0.019835625
,,,2.82E-06,0.01968875
,,,2.83E-06,0.0198175
,,,2.84E-06,0.019725
,,,2.85E-06,0.019654375
,,,2.86E-06,0.019658125
,,,2.87E-06,0.01991875
,,,2.88E-06,0.019711875
,,,2.89E-06,0.019668125
,,,2.9E-06,0.019594375
,,,2.91E-06,0.019591875
,,,2.92E-06,0.019644375
,,,2.93E-06,0.0199375
,,,2.94E-06,0.0196575
,,,2.95E-06,0.01966875
,,,2.96E-06,0.019793125
,,,2.97E-06,0.019878125
,,,2.98E-06,0.01988125
,,,2.99E-06,0.0197975
,,,3E-06,0.019529375
,,,3.01E-06,0.0195575
,,,3.02E-06,0.019748125
,,,3.03E-06,0.01976
,,,3.04E-06,0.0197625
,,,3.05E-06,0.01984375
,,,3.06E-06,0.019785
,,,3.07E-06,0.01959875
,,,3.08E-06,0.019855
,,,3.09E-06,0.019546875
,,,3.1E-06,0.01964875
,,,3.11E-06,0.019688125
,,,3.12E-06,0.019815
,,,3.13E-06,0.01973
,,,3.14E-06,0.01985625
,,,3.15E-06,0.019825625
,,,3.16E-06,0.01975
,,,3.17E-06,0.019766875
,,,3.18E-06,0.019613125
,,,3.19E-06,0.019763125
,,,3.2E-06,0.019685625
,,,3.21E-06,0.0194875
,,,3.22E-06,0.019795
,,,3.23E-06,0.019635
,,,3.24E-06,0.01998375
,,,3.25E-06,0.01980375
,,,3.26E-06,0.01981625
,,,3.27E-06,0.01965125
,,,3.28E-06,0.01943375
,,,3.29E-06,0.019896875
,,,3.3E-06,0.019711875
,,,3.31E-06,0.019976875
,,,3.32E-06,0.0197575
,,,3.33E-06,0.0196375
,,,3.34E-06,0.019568125
,,,3.35E-06,0.01986875
,,,3.36E-06,0.01980625
,,,3.37E-06,0.019858125
,,,3.38E-06,0.0196625
,,,3.39E-06,0.0198475
,,,3.4E-06,0.019695
,,,3.41E-06,0.01985
,,,3.42E-06,0.019555625
,,,3.43E-06,0.019484375
,,,3.44E-06,0.01983
,,,3.45E-06,0.019806875
,,,3.46E-06,0.0197775
,,,3.47E-06,0.019885625
,,,3.48E-06,0.019598125
,,,3.49E-06,0.019615
,,,3.5E-06,0.01957625
,,,3.51E-06,0.019815625
,,,3.52E-06,0.01999375
,,,3.53E-06,0.019433125
,,,3.54E-06,0.0195725
,,,3.55E-06,0.01972125
