data/raw/Final_POL_Test_1/SOP016_Ch2.csv

"Record Length",1000,"Points",-5E-06,0.022914375
"Sample Interval",1E-08,s,-4.99E-06,0.023005
"Trigger Point",500,"Samples",-4.98E-06,0.022733125
"Trigger Time",0,s,-4.97E-06,0.02279125
"",,,-4.96E-06,0.022585
"Horizontal Offset",-5E-06,s,-4.95E-06,0.022888125
,,,-4.94E-06,0.022775
,,,-4.93E-06,0.02259
,,,-4.92E-06,0.02270375
,,,-4.91E-06,0.022705
,,,-4.9E-06,0.02260375
,,,-4.89E-06,0.022929375
,,,-4.88E-06,0.02255625
,,,-4.87E-06,0.02281
,,,-4.86E-06,0.022865
,,,-4.85E-06,0.02293875
,,,-4.84E-06,0.02271375
,,,-4.83E-06,0.02268125
,,,-4.82E-06,0.022798125
,,,-4.81E-06,0.02312375
,,,-4.8E-06,0.022888125
,,,-4.79E-06,0.022786875
,,,-4.78E-06,0.022623125
,,,-4.77E-06,0.02270125
,,,-4.76E-06,0.022823125
,,,-4.75E-06,0.022908125
,,,-4.74E-06,0.022749375
,,,-4.73E-06,0.02283875
,,,-4.72E-06,0.022689375
,,,-4.71E-06,0.02288
,,,-4.7E-06,0.0223275
,,,-4.69E-06,0.02285125
,,,-4.68E-06,0.02264875
,,,-4.67E-06,0.022530625
,,,-4.66E-06,0.0229025
,,,-4.65E-06,0.0228325
,,,-4.64E-06,0.022956875
,,,-4.63E-06,0.022704375
,,,-4.62E-06,0.02276
,,,-4.61E-06,0.0229
,,,-4.6E-06,0.022995625
,,,-4.59E-06,0.022644375
,,,-4.58E-06,0.02276125
,,,-4.57E-06,0.02256625
,,,-4.56E-06,0.022616875
,,,-4.55E-06,0.022775625
,,,-4.54E-06,0.022826875
,,,-4.53E-06,0.022631875
,,,-4.52E-06,0.022645625
,,,-4.51E-06,0.022863125
,,,-4.5E-06,0.022749375
,,,-4.49E-06,0.022541875
,,,-4.48E-06,0.022791875
,,,-4.47E-06,0.022974375
,,,-4.46E-06,0.022840625
,,,-4.45E-06,0.022599375
,,,-4.44E-06,0.022906875
,,,-4.43E-06,0.022589375
,,,-4.42E-06,0.022800625
,,,-4.41E-06,0.022650625
,,,-4.4E-06,0.022504375
,,,-4.39E-06,0.022769375
,,,-4.38E-06,0.02258375
,,,-4.37E-06,0.022564375
,,,-4.36E-06,0.022765625
,,,-4.35E-06,0.02247375
,,,-4.34E-06,0.0227175
,,,-4.33E-06,0.022510625
,,,-4.32E-06,0.022756875
,,,-4.31E-06,0.022763125
,,,-4.3E-06,0.022740625
,,,-4.29E-06,0.022695625
,,,-4.28E-06,0.022955
,,,-4.27E-06,0.022683125
,,,-4.26E-06,0.022705625
,,,-4.25E-06,0.022840625
,,,-4.24E-06,0.022895
,,,-4.23E-06,0.022823125
,,,-4.22E-06,0.022970625
,,,-4.21E-06,0.022799375
,,,-4.2E-06,0.02282375
,,,-4.19E-06,0.022865
,,,-4.18E-06,0.02274875
,,,-4.17E-06,0.022700625
,,,-4.16E-06,0.022910625
,,,-4.15E-06,0.022724375
,,,-4.14E-06,0.022690625
,,,-4.13E-06,0.0229125
,,,-4.12E-06,0.02277625
,,,-4.11E-06,0.022809375
,,,-4.1E-06,0.0225325
,,,-4.09E-06,0.022695
,,,-4.08E-06,0.022636875
,,,-4.07E-06,0.022805625
,,,-4.06E-06,0.022741875
,,,-4.05E-06,0.02274
,,,-4.04E-06,0.02282
,,,-4.03E-06,0.02281375
,,,-4.02E-06,0.022685625
,,,-4.01E-06,0.0227975
,,,-4E-06,0.022704375
,,,-3.99E-06,0.022859375
,,,-3.98E-06,0.022851875
,,,-3.97E-06,0.02299125
,,,-3.96E-06,0.022970625
,,,-3.95E-06,0.022921875
,,,-3.94E-06,0.02294625
,,,-3.93E-06,0.022755
,,,-3.92E-06,0.022815
,,,-3.91E-06,0.022539375
,,,-3.9E-06,0.02268125
,,,-3.89E-06,0.022685
,,,-3.88E-06,0.022705625
,,,-3.87E-06,0.02267125
,,,-3.86E-06,0.02265125
,,,-3.85E-06,0.0228375
,,,-3.84E-06,0.022625625
,,,-3.83E-06,0.02264
,,,-3.82E-06,0.02277625
,,,-3.81E-06,0.02250875
,,,-3.8E-06,0.022814375
,,,-3.79E-06,0.022660625
,,,-3.78E-06,0.02255875
,,,-3.77E-06,0.022755
,,,-3.76E-06,0.0227475
,,,-3.75E-06,0.022554375
,,,-3.74E-06,0.022750625
,,,-3.73E-06,0.022979375
,,,-3.72E-06,0.02277375
,,,-3.71E-06,0.022691875
,,,-3.7E-06,0.02281625
,,,-3.69E-06,0.0228825
,,,-3.68E-06,0.022725
,,,-3.67E-06,0.0226825
,,,-3.66E-06,0.022825625
,,,-3.65E-06,0.02283875
,,,-3.64E-06,0.02297875
,,,-3.63E-06,0.02291625
,,,-3.62E-06,0.02282
,,,-3.61E-06,0.02284375
,,,-3.6E-06,0.022938125
,,,-3.59E-06,0.022793125
,,,-3.58E-06,0.022875625
,,,-3.57E-06,0.02304625
,,,-3.56E-06,0.022795
,,,-3.55E-06,0.022754375
,,,-3.54E-06,0.0228475
,,,-3.53E-06,0.023015625
,,,-3.52E-06,0.022735625
,,,-3.51E-06,0.022584375
,,,-3.5E-06,0.02275875
,,,-3.49E-06,0.02269
,,,-3.48E-06,0.022923125
,,,-3.47E-06,0.02271625
,,,-3.46E-06,0.02258375
,,,-3.45E-06,0.02281375
,,,-3.44E-06,0.022768125
,,,-3.43E-06,0.02296875
,,,-3.42E-06,0.02275125
,,,-3.41E-06,0.022623125
,,,-3.4E-06,0.022715
,,,-3.39E-06,0.022836875
,,,-3.38E-06,0.0228575
,,,-3.37E-06,0.022619375
,,,-3.36E-06,0.022445
,,,-3.35E-06,0.022465625
,,,-3.34E-06,0.02272125
,,,-3.33E-06,0.022815625
,,,-3.32E-06,0.02265
,,,-3.31E-06,0.022881875
,,,-3.3E-06,0.022828125
,,,-3.29E-06,0.02239375
,,,-3.28E-06,0.022693125
,,,-3.27E-06,0.02262125
,,,-3.26E-06,0.022741875
,,,-3.25E-06,0.022720625
,,,-3.24E-06,0.022838125
,,,-3.23E-06,0.022901875
,,,-3.22E-06,0.022791875
,,,-3.21E-06,0.022573125
,,,-3.2E-06,0.022870625
,,,-3.19E-06,0.022639375
,,,-3.18E-06,0.0226625
,,,-3.17E-06,0.02300625
,,,-3.16E-06,0.02270375
,,,-3.15E-06,0.022713125
,,,-3.14E-06,0.022765625
,,,-3.13E-06,0.022880625
,,,-3.12E-06,0.022834375
,,,-3.11E-06,0.022875
,,,-3.1E-06,0.02268125
,,,-3.09E-06,0.022800625
,,,-3.08E-06,0.022758125
,,,-3.07E-06,0.022804375
,,,-3.06E-06,0.02283
,,,-3.05E-06,0.022586875
,,,-3.04E-06,0.02260875
,,,-3.03E-06,0.02287375
,,,-3.02E-06,0.0228225
,,,-3.01E-06,0.022631875
,,,-3E-06,0.022901875
,,,-2.99E-06,0.02260125
,,,-2.98E-06,0.022518125
,,,-2.97E-06,0.02259625
,,,-2.96E-06,0.02297125
,,,-2.95E-06,0.0226825
,,,-2.94E-06,0.02294625
,,,-2.93E-06,0.022803125
,,,-2.92E-06,0.0228775
,,,-2.91E-06,0.022844375
,,,-2.9E-06,0.02265625
,,,-2.89E-06,0.022709375
,,,-2.88E-06,0.022825625
,,,-2.87E-06,0.02271875
,,,-2.86E-06,0.022374375
,,,-2.85E-06,0.022603125
,,,-2.84E-06,0.02280625
,,,-2.83E-06,0.02274125
,,,-2.82E-06,0.02282875
,,,-2.81E-06,0.02284375
,,,-2.8E-06,0.02271125
,,,-2.79E-06,0.022748125
,,,-2.78E-06,0.022755625
,,,-2.77E-06,0.02263
,,,-2.76E-06,0.0226625
,,,-2.75E-06,0.02280375
,,,-2.74E-06,0.02284875
,,,-2.73E-06,0.02271625
,,,-2.72E-06,0.022666875
,,,-2.71E-06,0.0229525
,,,-2.7E-06,0.022680625
,,,-2.69E-06,0.022611875
,,,-2.68E-06,0.0227575
,,,-2.67E-06,0.022591875
,,,-2.66E-06,0.02267
,,,-2.65E-06,0.0227725
,,,-2.64E-06,0.022765
,,,-2.63E-06,0.022771875
,,,-2.62E-06,0.022731875
,,,-2.61E-06,0.02286625
,,,-2.6E-06,0.022635625
,,,-2.59E-06,0.022794375
,,,-2.58E-06,0.022773125
,,,-2.57E-06,0.022728125
,,,-2.56E-06,0.022813125
,,,-2.55E-06,0.0226475
,,,-2.54E-06,0.02261125
,,,-2.53E-06,0.02274125
,,,-2.52E-06,0.022778125
,,,-2.51E-06,0.0229175
,,,-2.5E-06,0.02263625
,,,-2.49E-06,0.02272625
,,,-2.48E-06,0.022714375
,,,-2.47E-06,0.0228
,,,-2.46E-06,0.022706875
,,,-2.45E-06,0.0224675
,,,-2.44E-06,0.022719375
,,,-2.43E-06,0.022758125
,,,-2.42E-06,0.022471875
,,,-2.41E-06,0.02278625
,,,-2.4E-06,0.0228075
,,,-2.39E-06,0.02303375
,,,-2.38E-06,0.02279
,,,-2.37E-06,0.0228425
,,,-2.36E-06,0.022751875
,,,-2.35E-06,0.022775
,,,-2.34E-06,0.022600625
,,,-2.33E-06,0.022688125
,,,-2.32E-06,0.022821875
,,,-2.31E-06,0.022920625
,,,-2.3E-06,0.0226475
,,,-2.29E-06,0.022780625
,,,-2.28E-06,0.022849375
,,,-2.27E-06,0.022778125
,,,-2.26E-06,0.02275125
,,,-2.25E-06,0.022683125
,,,-2.24E-06,0.02267
,,,-2.23E-06,0.022504375
,,,-2.22E-06,0.022995
,,,-2.21E-06,0.0227775
,,,-2.2E-06,0.022924375
,,,-2.19E-06,0.02277
,,,-2.18E-06,0.0227175
,,,-2.17E-06,0.0226025
,,,-2.16E-06,0.022829375
,,,-2.15E-06,0.0227075
,,,-2.14E-06,0.0228875
,,,-2.13E-06,0.02276
,,,-2.12E-06,0.022550625
,,,-2.11E-06,0.022841875
,,,-2.1E-06,0.022673125
,,,-2.09E-06,0.022529375
,,,-2.08E-06,0.0228675
,,,-2.07E-06,0.022843125
,,,-2.06E-06,0.022761875
,,,-2.05E-06,0.022835625
,,,-2.04E-06,0.02289625
,,,-2.03E-06,0.022789375
,,,-2.02E-06,0.022831875
,,,-2.01E-06,0.0226825
,,,-2E-06,0.02291
,,,-1.99E-06,0.022498125
,,,-1.98E-06,0.022670625
,,,-1.97E-06,0.022705625
,,,-1.96E-06,0.022711875
,,,-1.95E-06,0.022656875
,,,-1.94E-06,0.0227825
,,,-1.93E-06,0.02278875
,,,-1.92E-06,0.022850625
,,,-1.91E-06,0.0227875
,,,-1.9E-06,0.02277625
,,,-1.89E-06,0.02242875
,,,-1.88E-06,0.02282875
,,,-1.87E-06,0.022571875
,,,-1.86E-06,0.02260625
,,,-1.85E-06,0.022958125
,,,-1.84E-06,0.022786875
,,,-1.83E-06,0.022648125
,,,-1.82E-06,0.02302625
,,,-1.81E-06,0.022804375
,,,-1.8E-06,0.02269125
,,,-1.79E-06,0.0225725
,,,-1.78E-06,0.02265875
,,,-1.77E-06,0.022798125
,,,-1.76E-06,0.02273375
,,,-1.75E-06,0.022926875
,,,-1.74E-06,0.022868125
,,,-1.73E-06,0.022819375
,,,-1.72E-06,0.022951875
,,,-1.71E-06,0.02252875
,,,-1.7E-06,0.02277
,,,-1.69E-06,0.022823125
,,,-1.68E-06,0.02296625
,,,-1.67E-06,0.02264125
,,,-1.66E-06,0.0227475
,,,-1.65E-06,0.023089375
,,,-1.64E-06,0.02261375
,,,-1.63E-06,0.022690625
,,,-1.62E-06,0.0226475
,,,-1.61E-06,0.02263
,,,-1.6E-06,0.022618125
,,,-1.59E-06,0.022744375
,,,-1.58E-06,0.022701875
,,,-1.57E-06,0.02289
,,,-1.56E-06,0.022579375
,,,-1.55E-06,0.022715
,,,-1.54E-06,0.0226175
,,,-1.53E-06,0.022876875
,,,-1.52E-06,0.0225725
,,,-1.51E-06,0.02268
,,,-1.5E-06,0.02267875
,,,-1.49E-06,0.022660625
,,,-1.48E-06,0.022813125
,,,-1.47E-06,0.022946875
,,,-1.46E-06,0.02262375
,,,-1.45E-06,0.022855625
,,,-1.44E-06,0.022754375
,,,-1.43E-06,0.022845625
,,,-1.42E-06,0.022831875
,,,-1.41E-06,0.02302
,,,-1.4E-06,0.02279
,,,-1.39E-06,0.0225975
,,,-1.38E-06,0.022663125
,,,-1.37E-06,0.02255875
,,,-1.36E-06,0.02272
,,,-1.35E-06,0.02275
,,,-1.34E-06,0.022849375
,,,-1.33E-06,0.022875
,,,-1.32E-06,0.022850625
,,,-1.31E-06,0.0229225
,,,-1.3E-06,0.022863125
,,,-1.29E-06,0.022870625
,,,-1.28E-06,0.022695625
,,,-1.27E-06,0.02270125
,,,-1.26E-06,0.0229425
,,,-1.25E-06,0.02257375
,,,-1.24E-06,0.022859375
,,,-1.23E-06,0.02261125
,,,-1.22E-06,0.02279625
,,,-1.21E-06,0.02294875
,,,-1.2E-06,0.0227175
,,,-1.19E-06,0.02273
,,,-1.18E-06,0.022911875
,,,-1.17E-06,0.02266875
,,,-1.16E-06,0.022784375
,,,-1.15E-06,0.022558125
,,,-1.14E-06,0.022561875
,,,-1.13E-06,0.022981875
,,,-1.12E-06,0.022926875
,,,-1.11E-06,0.022675
,,,-1.1E-06,0.022666875
,,,-1.09E-06,0.02282375
,,,-1.08E-06,0.022735625
,,,-1.07E-06,0.0228475
,,,-1.06E-06,0.022585625
,,,-1.05E-06,0.022565
,,,-1.04E-06,0.02275875
,,,-1.03E-06,0.022704375
,,,-1.02E-06,0.022660625
,,,-1.01E-06,0.02263375
,,,-1E-06,0.023076875
,,,-9.9E-07,0.023031875
,,,-9.8E-07,0.02268375
,,,-9.7E-07,0.0229625
,,,-9.6E-07,0.022565625
,,,-9.5E-07,0.022736875
,,,-9.4E-07,0.022950625
,,,-9.3E-07,0.022566875
,,,-9.2E-07,0.022854375
,,,-9.1E-07,0.022753125
,,,-9E-07,0.02266125
,,,-8.9E-07,0.0227825
,,,-8.8E-07,0.022583125
,,,-8.7E-07,0.022589375
,,,-8.6E-07,0.022751875
,,,-8.5E-07,0.022685
,,,-8.4E-07,0.02293
,,,-8.3E-07,0.023010625
,,,-8.2E-07,0.02290125
,,,-8.1E-07,0.022680625
,,,-8E-07,0.022955625
,,,-7.9E-07,0.022568125
,,,-7.8E-07,0.0228425
,,,-7.7E-07,0.02287375
,,,-7.6E-07,0.0227275
,,,-7.5E-07,0.02254625
,,,-7.4E-07,0.02277
,,,-7.3E-07,0.0228575
,,,-7.2E-07,0.022654375
,,,-7.1E-07,0.022491875
,,,-7E-07,0.02273375
,,,-6.9E-07,0.0222875
,,,-6.8E-07,0.02263875
,,,-6.7E-07,0.022768125
,,,-6.6E-07,0.02282
,,,-6.5E-07,0.0229025
,,,-6.4E-07,0.022579375
,,,-6.3E-07,0.022963125
,,,-6.2E-07,0.02262625
,,,-6.1E-07,0.022714375
,,,-6E-07,0.022638125
,,,-5.9E-07,0.02258875
,,,-5.8E-07,0.02285625
,,,-5.7E-07,0.022576875
,,,-5.6E-07,0.022715625
,,,-5.5E-07,0.0227425
,,,-5.4E-07,0.022955
,,,-5.3E-07,0.0228975
,,,-5.2E-07,0.022689375
,,,-5.1E-07,0.0226925
,,,-5E-07,0.02284875
,,,-4.9E-07,0.022738125
,,,-4.8E-07,0.022704375
,,,-4.7E-07,0.0229075
,,,-4.6E-07,0.0228425
,,,-4.5E-07,0.02267375
,,,-4.4E-07,0.022446875
,,,-4.3E-07,0.022771875
,,,-4.2E-07,0.02287625
,,,-4.1E-07,0.022696875
,,,-4E-07,0.022724375
,,,-3.9E-07,0.022825625
,,,-3.8E-07,0.022528125
,,,-3.7E-07,0.022411875
,,,-3.6E-07,0.0227475
,,,-3.5E-07,0.022670625
,,,-3.4E-07,0.022944375
,,,-3.3E-07,0.02288125
,,,-3.2E-07,0.02270625
,,,-3.1E-07,0.022639375
,,,-3E-07,0.022800625
,,,-2.9E-07,0.022711875
,,,-2.8E-07,0.02273875
,,,-2.7E-07,0.02260375
,,,-2.6E-07,0.0228875
,,,-2.5E-07,0.02279
,,,-2.4E-07,0.022661875
,,,-2.3E-07,0.02254
,,,-2.2E-07,0.022641875
,,,-2.1E-07,0.0224875
,,,-2E-07,0.0226275
,,,-1.9E-07,0.022821875
,,,-1.8E-07,0.022833125
,,,-1.7E-07,0.022503125
,,,-1.6E-07,0.022708125
,,,-1.5E-07,0.023004375
,,,-1.4E-07,0.022504375
,,,-1.3E-07,0.02249375
,,,-1.2E-07,0.02271125
,,,-1.1E-07,0.02283375
,,,-1E-07,0.02283
,,,-9E-08,0.02290625
,,,-8E-08,0.02277
,,,-7E-08,0.02271
,,,-6E-08,0.02299
,,,-5E-08,0.022844375
,,,-4E-08,0.02322125
,,,-3E-08,0.023515
,,,-2E-08,0.0217425
,,,-1E-08,0.020879375
,,,0,0.02168
,,,1E-08,0.023976875
,,,2E-08,0.025079375
,,,3E-08,0.02426625
,,,4E-08,0.022121875
,,,5E-08,0.021421875
,,,6E-08,0.021031875
,,,7E-08,0.0224575
,,,8E-08,0.023425
,,,9E-08,0.0238375
,,,1E-07,0.0237125
,,,1.1E-07,0.02288
,,,1.2E-07,0.02223875
,,,1.3E-07,0.021963125
,,,1.4E-07,0.022665
,,,1.5E-07,0.0226375
,,,1.6E-07,0.02301875
,,,1.7E-07,0.02273625
,,,1.8E-07,0.022881875
,,,1.9E-07,0.0227625
,,,2E-07,0.022845625
,,,2.1E-07,0.022716875
,,,2.2E-07,0.022365
,,,2.3E-07,0.02257875
,,,2.4E-07,0.022883125
,,,2.5E-07,0.0227475
,,,2.6E-07,0.022828125
,,,2.7E-07,0.02265125
,,,2.8E-07,0.02279
,,,2.9E-07,0.022735
,,,3E-07,0.022665625
,,,3.1E-07,0.0226525
,,,3.2E-07,0.02291625
,,,3.3E-07,0.02273875
,,,3.4E-07,0.02269875
,,,3.5E-07,0.022584375
,,,3.6E-07,0.022835625
,,,3.7E-07,0.022691875
,,,3.8E-07,0.02269875
,,,3.9E-07,0.022873125
,,,4E-07,0.02282375
,,,4.1E-07,0.022669375
,,,4.2E-07,0.022744375
,,,4.3E-07,0.02265875
,,,4.4E-07,0.0228375
,,,4.5E-07,0.022633125
,,,4.6E-07,0.02286375
,,,4.7E-07,0.022776875
,,,4.8E-07,0.022656875
,,,4.9E-07,0.0229075
,,,5E-07,0.022891875
,,,5.1E-07,0.02282375
,,,5.2E-07,0.022828125
,,,5.3E-07,0.02301875
,,,5.4E-07,0.02296125
,,,5.5E-07,0.02290375
,,,5.6E-07,0.022746875
,,,5.7E-07,0.022883125
,,,5.8E-07,0.022784375
,,,5.9E-07,0.022859375
,,,6E-07,0.02290125
,,,6.1E-07,0.022643125
,,,6.2E-07,0.02272625
,,,6.3E-07,0.022850625
,,,6.4E-07,0.022841875
,,,6.5E-07,0.0228325
,,,6.6E-07,0.022833125
,,,6.7E-07,0.022925625
,,,6.8E-07,0.022656875
,,,6.9E-07,0.02289625
,,,7E-07,0.022809375
,,,7.1E-07,0.022836875
,,,7.2E-07,0.02267375
,,,7.3E-07,0.022766875
,,,7.4E-07,0.02273375
,,,7.5E-07,0.022620625
,,,7.6E-07,0.02251
,,,7.7E-07,0.02261875
,,,7.8E-07,0.022528125
,,,7.9E-07,0.02286875
,,,8E-07,0.022699375
,,,8.1E-07,0.02270125
,,,8.2E-07,0.022673125
,,,8.3E-07,0.02289625
,,,8.4E-07,0.02275875
,,,8.5E-07,0.02241125
,,,8.6E-07,0.022853125
,,,8.7E-07,0.022494375
,,,8.8E-07,0.022818125
,,,8.9E-07,0.02293
,,,9E-07,0.02275375
,,,9.1E-07,0.02265125
,,,9.2E-07,0.022681875
,,,9.3E-07,0.02276125
,,,9.4E-07,0.022724375
,,,9.5E-07,0.022613125
,,,9.6E-07,0.022674375
,,,9.7E-07,0.022715625
,,,9.8E-07,0.02292375
,,,9.9E-07,0.022925
,,,1E-06,0.022723125
,,,1.01E-06,0.022688125
,,,1.02E-06,0.02271
,,,1.03E-06,0.022739375
,,,1.04E-06,0.022868125
,,,1.05E-06,0.022641875
,,,1.06E-06,0.022831875
,,,1.07E-06,0.0227475
,,,1.08E-06,0.023016875
,,,1.09E-06,0.022855
,,,1.1E-06,0.02258375
,,,1.11E-06,0.02277875
,,,1.12E-06,0.02268
,,,1.13E-06,0.022905
,,,1.14E-06,0.022895
,,,1.15E-06,0.02264125
,,,1.16E-06,0.022848125
,,,1.17E-06,0.022884375
,,,1.18E-06,0.02295375
,,,1.19E-06,0.0226975
,,,1.2E-06,0.022708125
,,,1.21E-06,0.022685
,,,1.22E-06,0.022700625
,,,1.23E-06,0.022710625
,,,1.24E-06,0.0230225
,,,1.25E-06,0.02292125
,,,1.26E-06,0.02272125
,,,1.27E-06,0.022678125
,,,1.28E-06,0.022775
,,,1.29E-06,0.022675
,,,1.3E-06,0.022871875
,,,1.31E-06,0.0227125
,,,1.32E-06,0.022611875
,,,1.33E-06,0.022841875
,,,1.34E-06,0.022943125
,,,1.35E-06,0.022869375
,,,1.36E-06,0.02270375
,,,1.37E-06,0.0229075
,,,1.38E-06,0.02285625
,,,1.39E-06,0.0228025
,,,1.4E-06,0.022859375
,,,1.41E-06,0.0228025
,,,1.42E-06,0.0226275
,,,1.43E-06,0.02276125
,,,1.44E-06,0.02286875
,,,1.45E-06,0.022903125
,,,1.46E-06,0.022780625
,,,1.47E-06,0.02262375
,,,1.48E-06,0.022758125
,,,1.49E-06,0.022625625
,,,1.5E-06,0.02277
,,,1.51E-06,0.023035
,,,1.52E-06,0.022445625
,,,1.53E-06,0.022704375
,,,1.54E-06,0.02277125
,,,1.55E-06,0.023
,,,1.56E-06,0.022698125
,,,1.57E-06,0.022800625
,,,1.58E-06,0.022879375
,,,1.59E-06,0.0227975
,,,1.6E-06,0.02262625
,,,1.61E-06,0.022725
,,,1.62E-06,0.022715
,,,1.63E-06,0.0228025
,,,1.64E-06,0.02259875
,,,1.65E-06,0.0228
,,,1.66E-06,0.02309375
,,,1.67E-06,0.022910625
,,,1.68E-06,0.0229125
,,,1.69E-06,0.02275
,,,1.7E-06,0.02260375
,,,1.71E-06,0.022818125
,,,1.72E-06,0.02276625
,,,1.73E-06,0.022836875
,,,1.74E-06,0.022729375
,,,1.75E-06,0.023056875
,,,1.76E-06,0.022800625
,,,1.77E-06,0.02245125
,,,1.78E-06,0.0226725
,,,1.79E-06,0.02285375
,,,1.8E-06,0.022649375
,,,1.81E-06,0.022574375
,,,1.82E-06,0.022765625
,,,1.83E-06,0.02276
,,,1.84E-06,0.022776875
,,,1.85E-06,0.022888125
,,,1.86E-06,0.02273375
,,,1.87E-06,0.0225825
,,,1.88E-06,0.02287
,,,1.89E-06,0.022926875
,,,1.9E-06,0.02271875
,,,1.91E-06,0.0226575
,,,1.92E-06,0.02302875
,,,1.93E-06,0.0229225
,,,1.94E-06,0.0229775
,,,1.95E-06,0.022983125
,,,1.96E-06,0.022844375
,,,1.97E-06,0.022751875
,,,1.98E-06,0.0227275
,,,1.99E-06,0.022665625
,,,2E-06,0.02277875
,,,2.01E-06,0.022785
,,,2.02E-06,0.0228
,,,2.03E-06,0.022951875
,,,2.04E-06,0.022866875
,,,2.05E-06,0.022573125
,,,2.06E-06,0.022831875
,,,2.07E-06,0.0227325
,,,2.08E-06,0.0227
,,,2.09E-06,0.02267375
,,,2.1E-06,0.02269375
,,,2.11E-06,0.022893125
,,,2.12E-06,0.022705625
,,,2.13E-06,0.02273375
,,,2.14E-06,0.02283625
,,,2.15E-06,0.022945625
,,,2.16E-06,0.022603125
,,,2.17E-06,0.02256
,,,2.18E-06,0.022718125
,,,2.19E-06,0.022660625
,,,2.2E-06,0.022691875
,,,2.21E-06,0.0225725
,,,2.22E-06,0.022856875
,,,2.23E-06,0.022985
,,,2.24E-06,0.022625
,,,2.25E-06,0.022730625
,,,2.26E-06,0.022620625
,,,2.27E-06,0.02269125
,,,2.28E-06,0.02287875
,,,2.29E-06,0.022786875
,,,2.3E-06,0.022786875
,,,2.31E-06,0.022710625
,,,2.32E-06,0.022888125
,,,2.33E-06,0.0227725
,,,2.34E-06,0.022625
,,,2.35E-06,0.0225375
,,,2.36E-06,0.02267875
,,,2.37E-06,0.02270125
,,,2.38E-06,0.022755
,,,2.39E-06,0.022764375
,,,2.4E-06,0.022805
,,,2.41E-06,0.022800625
,,,2.42E-06,0.022738125
,,,2.43E-06,0.02259375
,,,2.44E-06,0.022759375
,,,2.45E-06,0.02256125
,,,2.46E-06,0.022621875
,,,2.47E-06,0.02276
,,,2.48E-06,0.02284
,,,2.49E-06,0.022619375
,,,2.5E-06,0.022574375
,,,2.51E-06,0.0227725
,,,2.52E-06,0.022786875
,,,2.53E-06,0.02258625
,,,2.54E-06,0.02291875
,,,2.55E-06,0.02242625
,,,2.56E-06,0.02277125
,,,2.57E-06,0.022879375
,,,2.58E-06,0.0228875
,,,2.59E-06,0.022553125
,,,2.6E-06,0.0226925
,,,2.61E-06,0.022981875
,,,2.62E-06,0.0228975
,,,2.63E-06,0.02265625
,,,2.64E-06,0.02281
,,,2.65E-06,0.022865625
,,,2.66E-06,0.022765625
,,,2.67E-06,0.022743125
,,,2.68E-06,0.0227875
,,,2.69E-06,0.022800625
,,,2.7E-06,0.022648125
,,,2.71E-06,0.022660625
,,,2.72E-06,0.022834375
,,,2.73E-06,0.0227
,,,2.74E-06,0.022851875
,,,2.75E-06,0.02277
,,,2.76E-06,0.022768125
,,,2.77E-06,0.022915
,,,2.78E-06,0.0225825
,,,2.79E-06,0.022745625
,,,2.8E-06,0.0228525
,,,2.81E-06,0.0229875
,,,2.82E-06,0.022786875
,,,2.83E-06,0.02284375
,,,2.84E-06,0.022788125
,,,2.85E-06,0.02256
,,,2.86E-06,0.022588125
,,,2.87E-06,0.022631875
,,,2.88E-06,0.022891875
,,,2.89E-06,0.02265
,,,2.9E-06,0.022931875
,,,2.91E-06,0.02288875
,,,2.92E-06,0.022895
,,,2.93E-06,0.022493125
,,,2.94E-06,0.022869375
,,,2.95E-06,0.022670625
,,,2.96E-06,0.02268375
,,,2.97E-06,0.022853125
,,,2.98E-06,0.02264
,,,2.99E-06,0.0226625
,,,3E-06,0.022835
,,,3.01E-06,0.02273875
,,,3.02E-06,0.0229775
,,,3.03E-06,0.022801875
,,,3.04E-06,0.02284125
,,,3.05E-06,0.022995
,,,3.06E-06,0.022589375
,,,3.07E-06,0.022836875
,,,3.08E-06,0.022880625
,,,3.09E-06,0.0223575
,,,3.1E-06,0.02263875
,,,3.11E-06,0.022586875
,,,3.12E-06,0.022701875
,,,3.13E-06,0.022740625
,,,3.14E-06,0.02275625
,,,3.15E-06,0.022769375
,,,3.16E-06,0.02284
,,,3.17E-06,0.022461875
,,,3.18E-06,0.0227075
,,,3.19E-06,0.022821875
,,,3.2E-06,0.02290625
,,,3.21E-06,0.02272125
,,,3.22E-06,0.02263875
,,,3.23E-06,0.022774375
,,,3.24E-06,0.0228175
,,,3.25E-06,0.022523125
,,,3.26E-06,0.022820625
,,,3.27E-06,0.022675
,,,3.28E-06,0.02252625
,,,3.29E-06,0.0227575
,,,3.3E-06,0.022879375
,,,3.31E-06,0.02264375
,,,3.32E-06,0.02273125
,,,3.33E-06,0.022815625
,,,3.34E-06,0.022680625
,,,3.35E-06,0.0229
,,,3.36E-06,0.0226175
,,,3.37E-06,0.022779375
,,,3.38E-06,0.022915
,,,3.39E-06,0.02293
,,,3.4E-06,0.02271375
,,,3.41E-06,0.022620625
,,,3.42E-06,0.022661875
,,,3.43E-06,0.022525625
,,,3.44E-06,0.022771875
,,,3.45E-06,0.022790625
,,,3.46E-06,0.022710625
,,,3.47E-06,0.02271625
,,,3.48E-06,0.02259625
,,,3.49E-06,0.02279
,,,3.5E-06,0.022920625
,,,3.51E-06,0.02268625
,,,3.52E-06,0.02310625
,,,3.53E-06,0.0227675
,,,3.54E-06,0.022759375
,,,3.55E-06,0.022888125
,,,3.56E-06,0.022608125
,,,3.57E-06,0.02274
