data/raw/Final_POL_Test_1/SOP050_Ch1.csv

"Record Length",1000,"Points",-5E-06,0.00658
"Sample Interval",1E-08,s,-4.99E-06,0.006658125
"Trigger Point",500,"Samples",-4.98E-06,0.006611875
"Trigger Time",0,s,-4.97E-06,0.00682125
"",,,-4.96E-06,0.006541875
"Horizontal Offset",-5E-06,s,-4.95E-06,0.00675125
,,,-4.94E-06,0.0068825
,,,-4.93E-06,0.006814375
,,,-4.92E-06,0.006709375
,,,-4.91E-06,0.006588125
,,,-4.9E-06,0.006649375
,,,-4.89E-06,0.006690625
,,,-4.88E-06,0.006913125
,,,-4.87E-06,0.006756875
,,,-4.86E-06,0.006639375
,,,-4.85E-06,0.0067075
,,,-4.84E-06,0.006921875
,,,-4.83E-06,0.0067275
,,,-4.82E-06,0.00685875
,,,-4.81E-06,0.006581875
,,,-4.8E-06,0.006608125
,,,-4.79E-06,0.00656875
,,,-4.78E-06,0.006691875
,,,-4.77E-06,0.006794375
,,,-4.76E-06,0.00651875
,,,-4.75E-06,0.006675625
,,,-4.74E-06,0.006714375
,,,-4.73E-06,0.006825
,,,-4.72E-06,0.006729375
,,,-4.71E-06,0.006621875
,,,-4.7E-06,0.006893125
,,,-4.69E-06,0.006750625
,,,-4.68E-06,0.006645
,,,-4.67E-06,0.00686875
,,,-4.66E-06,0.006870625
,,,-4.65E-06,0.00674875
,,,-4.64E-06,0.006639375
,,,-4.63E-06,0.006433125
,,,-4.62E-06,0.006723125
,,,-4.61E-06,0.00656
,,,-4.6E-06,0.006803125
,,,-4.59E-06,0.006615625
,,,-4.58E-06,0.00669125
,,,-4.57E-06,0.0066825
,,,-4.56E-06,0.006904375
,,,-4.55E-06,0.006666875
,,,-4.54E-06,0.006641875
,,,-4.53E-06,0.0065525
,,,-4.52E-06,0.006499375
,,,-4.51E-06,0.00660375
,,,-4.5E-06,0.006706875
,,,-4.49E-06,0.006736875
,,,-4.48E-06,0.00653
,,,-4.47E-06,0.00675375
,,,-4.46E-06,0.006763125
,,,-4.45E-06,0.00652875
,,,-4.44E-06,0.006769375
,,,-4.43E-06,0.006786875
,,,-4.42E-06,0.00667125
,,,-4.41E-06,0.006670625
,,,-4.4E-06,0.006645
,,,-4.39E-06,0.006680625
,,,-4.38E-06,0.006649375
,,,-4.37E-06,0.0068375
,,,-4.36E-06,0.0065575
,,,-4.35E-06,0.006721875
,,,-4.34E-06,0.006689375
,,,-4.33E-06,0.00664125
,,,-4.32E-06,0.006628125
,,,-4.31E-06,0.006596875
,,,-4.3E-06,0.00653125
,,,-4.29E-06,0.006888125
,,,-4.28E-06,0.00691
,,,-4.27E-06,0.006674375
,,,-4.26E-06,0.00667125
,,,-4.25E-06,0.00661625
,,,-4.24E-06,0.00688
,,,-4.23E-06,0.006825
,,,-4.22E-06,0.0065725
,,,-4.21E-06,0.00684625
,,,-4.2E-06,0.006470625
,,,-4.19E-06,0.0065375
,,,-4.18E-06,0.0068075
,,,-4.17E-06,0.006690625
,,,-4.16E-06,0.0068
,,,-4.15E-06,0.00659625
,,,-4.14E-06,0.0066725
,,,-4.13E-06,0.006725625
,,,-4.12E-06,0.006659375
,,,-4.11E-06,0.00678
,,,-4.1E-06,0.006968125
,,,-4.09E-06,0.00682875
,,,-4.08E-06,0.006939375
,,,-4.07E-06,0.006620625
,,,-4.06E-06,0.0067425
,,,-4.05E-06,0.006715
,,,-4.04E-06,0.006819375
,,,-4.03E-06,0.00678625
,,,-4.02E-06,0.006736875
,,,-4.01E-06,0.006751875
,,,-4E-06,0.006685
,,,-3.99E-06,0.00675125
,,,-3.98E-06,0.006513125
,,,-3.97E-06,0.00679
,,,-3.96E-06,0.00688
,,,-3.95E-06,0.006796875
,,,-3.94E-06,0.00679875
,,,-3.93E-06,0.0066025
,,,-3.92E-06,0.0068475
,,,-3.91E-06,0.00672125
,,,-3.9E-06,0.00680625
,,,-3.89E-06,0.00684375
,,,-3.88E-06,0.006765625
,,,-3.87E-06,0.0066575
,,,-3.86E-06,0.0067975
,,,-3.85E-06,0.00643875
,,,-3.84E-06,0.0064725
,,,-3.83E-06,0.006816875
,,,-3.82E-06,0.006844375
,,,-3.81E-06,0.006870625
,,,-3.8E-06,0.006818125
,,,-3.79E-06,0.006830625
,,,-3.78E-06,0.006665
,,,-3.77E-06,0.006811875
,,,-3.76E-06,0.006750625
,,,-3.75E-06,0.006840625
,,,-3.74E-06,0.006850625
,,,-3.73E-06,0.00675375
,,,-3.72E-06,0.006855625
,,,-3.71E-06,0.00661625
,,,-3.7E-06,0.0066575
,,,-3.69E-06,0.00657
,,,-3.68E-06,0.006653125
,,,-3.67E-06,0.006496875
,,,-3.66E-06,0.006818125
,,,-3.65E-06,0.00677125
,,,-3.64E-06,0.006820625
,,,-3.63E-06,0.006811875
,,,-3.62E-06,0.00668
,,,-3.61E-06,0.00646875
,,,-3.6E-06,0.00668375
,,,-3.59E-06,0.006731875
,,,-3.58E-06,0.006995
,,,-3.57E-06,0.006536875
,,,-3.56E-06,0.0067525
,,,-3.55E-06,0.006778125
,,,-3.54E-06,0.0066525
,,,-3.53E-06,0.006726875
,,,-3.52E-06,0.006786875
,,,-3.51E-06,0.006623125
,,,-3.5E-06,0.006884375
,,,-3.49E-06,0.006766875
,,,-3.48E-06,0.006890625
,,,-3.47E-06,0.0067375
,,,-3.46E-06,0.006799375
,,,-3.45E-06,0.006798125
,,,-3.44E-06,0.0067775
,,,-3.43E-06,0.006891875
,,,-3.42E-06,0.00675125
,,,-3.41E-06,0.006556875
,,,-3.4E-06,0.00677125
,,,-3.39E-06,0.00654375
,,,-3.38E-06,0.00659875
,,,-3.37E-06,0.006966875
,,,-3.36E-06,0.00688625
,,,-3.35E-06,0.0064925
,,,-3.34E-06,0.00684375
,,,-3.33E-06,0.0067475
,,,-3.32E-06,0.006784375
,,,-3.31E-06,0.00682
,,,-3.3E-06,0.006631875
,,,-3.29E-06,0.006920625
,,,-3.28E-06,0.006575
,,,-3.27E-06,0.0069025
,,,-3.26E-06,0.006679375
,,,-3.25E-06,0.00682
,,,-3.24E-06,0.006923125
,,,-3.23E-06,0.006854375
,,,-3.22E-06,0.00661875
,,,-3.21E-06,0.006524375
,,,-3.2E-06,0.006686875
,,,-3.19E-06,0.006735
,,,-3.18E-06,0.00661
,,,-3.17E-06,0.006770625
,,,-3.16E-06,0.006690625
,,,-3.15E-06,0.00664625
,,,-3.14E-06,0.006710625
,,,-3.13E-06,0.006646875
,,,-3.12E-06,0.006766875
,,,-3.11E-06,0.006694375
,,,-3.1E-06,0.00654
,,,-3.09E-06,0.0067625
,,,-3.08E-06,0.006571875
,,,-3.07E-06,0.006771875
,,,-3.06E-06,0.00679625
,,,-3.05E-06,0.00675125
,,,-3.04E-06,0.00664
,,,-3.03E-06,0.006505625
,,,-3.02E-06,0.006531875
,,,-3.01E-06,0.006534375
,,,-3E-06,0.006716875
,,,-2.99E-06,0.006678125
,,,-2.98E-06,0.006800625
,,,-2.97E-06,0.006593125
,,,-2.96E-06,0.006700625
,,,-2.95E-06,0.00668375
,,,-2.94E-06,0.006691875
,,,-2.93E-06,0.00653375
,,,-2.92E-06,0.006676875
,,,-2.91E-06,0.006684375
,,,-2.9E-06,0.006590625
,,,-2.89E-06,0.006565625
,,,-2.88E-06,0.0066725
,,,-2.87E-06,0.006748125
,,,-2.86E-06,0.006721875
,,,-2.85E-06,0.00672375
,,,-2.84E-06,0.006765625
,,,-2.83E-06,0.00679125
,,,-2.82E-06,0.006850625
,,,-2.81E-06,0.006744375
,,,-2.8E-06,0.006378125
,,,-2.79E-06,0.00661875
,,,-2.78E-06,0.006834375
,,,-2.77E-06,0.0065875
,,,-2.76E-06,0.00694375
,,,-2.75E-06,0.006818125
,,,-2.74E-06,0.00688
,,,-2.73E-06,0.006575625
,,,-2.72E-06,0.0068175
,,,-2.71E-06,0.006684375
,,,-2.7E-06,0.00693625
,,,-2.69E-06,0.006655625
,,,-2.68E-06,0.006685
,,,-2.67E-06,0.00653875
,,,-2.66E-06,0.006813125
,,,-2.65E-06,0.006830625
,,,-2.64E-06,0.006775
,,,-2.63E-06,0.006754375
,,,-2.62E-06,0.0065275
,,,-2.61E-06,0.00687125
,,,-2.6E-06,0.00696625
,,,-2.59E-06,0.006563125
,,,-2.58E-06,0.00699625
,,,-2.57E-06,0.0068375
,,,-2.56E-06,0.0066925
,,,-2.55E-06,0.0067925
,,,-2.54E-06,0.006745
,,,-2.53E-06,0.006873125
,,,-2.52E-06,0.006630625
,,,-2.51E-06,0.006601875
,,,-2.5E-06,0.00653375
,,,-2.49E-06,0.006699375
,,,-2.48E-06,0.006786875
,,,-2.47E-06,0.006723125
,,,-2.46E-06,0.0066525
,,,-2.45E-06,0.006945
,,,-2.44E-06,0.00664
,,,-2.43E-06,0.006836875
,,,-2.42E-06,0.006875625
,,,-2.41E-06,0.00690625
,,,-2.4E-06,0.00665625
,,,-2.39E-06,0.006600625
,,,-2.38E-06,0.006815625
,,,-2.37E-06,0.006671875
,,,-2.36E-06,0.006680625
,,,-2.35E-06,0.00658
,,,-2.34E-06,0.006838125
,,,-2.33E-06,0.006696875
,,,-2.32E-06,0.006563125
,,,-2.31E-06,0.006896875
,,,-2.3E-06,0.00659625
,,,-2.29E-06,0.006609375
,,,-2.28E-06,0.006788125
,,,-2.27E-06,0.006719375
,,,-2.26E-06,0.006530625
,,,-2.25E-06,0.00666625
,,,-2.24E-06,0.006621875
,,,-2.23E-06,0.006721875
,,,-2.22E-06,0.006666875
,,,-2.21E-06,0.006635
,,,-2.2E-06,0.006758125
,,,-2.19E-06,0.00674875
,,,-2.18E-06,0.00661625
,,,-2.17E-06,0.006688125
,,,-2.16E-06,0.006775625
,,,-2.15E-06,0.006774375
,,,-2.14E-06,0.006913125
,,,-2.13E-06,0.006656875
,,,-2.12E-06,0.00671625
,,,-2.11E-06,0.006643125
,,,-2.1E-06,0.0068875
,,,-2.09E-06,0.0068
,,,-2.08E-06,0.00667
,,,-2.07E-06,0.006685
,,,-2.06E-06,0.00684875
,,,-2.05E-06,0.006613125
,,,-2.04E-06,0.00692
,,,-2.03E-06,0.006669375
,,,-2.02E-06,0.006945625
,,,-2.01E-06,0.006555
,,,-2E-06,0.00678125
,,,-1.99E-06,0.006605625
,,,-1.98E-06,0.00646
,,,-1.97E-06,0.006388125
,,,-1.96E-06,0.006701875
,,,-1.95E-06,0.00688375
,,,-1.94E-06,0.00675875
,,,-1.93E-06,0.006784375
,,,-1.92E-06,0.006689375
,,,-1.91E-06,0.006594375
,,,-1.9E-06,0.00659875
,,,-1.89E-06,0.006525
,,,-1.88E-06,0.00668
,,,-1.87E-06,0.00683125
,,,-1.86E-06,0.006601875
,,,-1.85E-06,0.00692875
,,,-1.84E-06,0.006595
,,,-1.83E-06,0.006741875
,,,-1.82E-06,0.0066025
,,,-1.81E-06,0.0068075
,,,-1.8E-06,0.006765
,,,-1.79E-06,0.006570625
,,,-1.78E-06,0.006695625
,,,-1.77E-06,0.006925625
,,,-1.76E-06,0.0063675
,,,-1.75E-06,0.006754375
,,,-1.74E-06,0.006728125
,,,-1.73E-06,0.006639375
,,,-1.72E-06,0.006705625
,,,-1.71E-06,0.00676
,,,-1.7E-06,0.006643125
,,,-1.69E-06,0.006700625
,,,-1.68E-06,0.006706875
,,,-1.67E-06,0.006714375
,,,-1.66E-06,0.006465625
,,,-1.65E-06,0.006545
,,,-1.64E-06,0.00678625
,,,-1.63E-06,0.006484375
,,,-1.62E-06,0.0071
,,,-1.61E-06,0.006544375
,,,-1.6E-06,0.006454375
,,,-1.59E-06,0.006765625
,,,-1.58E-06,0.00719
,,,-1.57E-06,0.006710625
,,,-1.56E-06,0.00673625
,,,-1.55E-06,0.006825625
,,,-1.54E-06,0.00690875
,,,-1.53E-06,0.006788125
,,,-1.52E-06,0.00689
,,,-1.51E-06,0.00684375
,,,-1.5E-06,0.00685125
,,,-1.49E-06,0.006723125
,,,-1.48E-06,0.006735625
,,,-1.47E-06,0.006778125
,,,-1.46E-06,0.00697
,,,-1.45E-06,0.00680375
,,,-1.44E-06,0.0067475
,,,-1.43E-06,0.006568125
,,,-1.42E-06,0.0068125
,,,-1.41E-06,0.006870625
,,,-1.4E-06,0.00692375
,,,-1.39E-06,0.0065725
,,,-1.38E-06,0.0066075
,,,-1.37E-06,0.006605
,,,-1.36E-06,0.006785
,,,-1.35E-06,0.00658875
,,,-1.34E-06,0.00655
,,,-1.33E-06,0.00648875
,,,-1.32E-06,0.006705625
,,,-1.31E-06,0.00687125
,,,-1.3E-06,0.006698125
,,,-1.29E-06,0.0066125
,,,-1.28E-06,0.006609375
,,,-1.27E-06,0.006746875
,,,-1.26E-06,0.006596875
,,,-1.25E-06,0.00675375
,,,-1.24E-06,0.00658125
,,,-1.23E-06,0.006838125
,,,-1.22E-06,0.006891875
,,,-1.21E-06,0.006874375
,,,-1.2E-06,0.006884375
,,,-1.19E-06,0.006720625
,,,-1.18E-06,0.006890625
,,,-1.17E-06,0.0068225
,,,-1.16E-06,0.006643125
,,,-1.15E-06,0.006945
,,,-1.14E-06,0.0064575
,,,-1.13E-06,0.0068025
,,,-1.12E-06,0.00662875
,,,-1.11E-06,0.00661
,,,-1.1E-06,0.006685
,,,-1.09E-06,0.006976875
,,,-1.08E-06,0.0068
,,,-1.07E-06,0.00680625
,,,-1.06E-06,0.0068325
,,,-1.05E-06,0.006568125
,,,-1.04E-06,0.0065825
,,,-1.03E-06,0.006551875
,,,-1.02E-06,0.00678625
,,,-1.01E-06,0.00666
,,,-1E-06,0.00670125
,,,-9.9E-07,0.006895625
,,,-9.8E-07,0.00669
,,,-9.7E-07,0.0069725
,,,-9.6E-07,0.006936875
,,,-9.5E-07,0.006629375
,,,-9.4E-07,0.006851875
,,,-9.3E-07,0.0068325
,,,-9.2E-07,0.00653125
,,,-9.1E-07,0.00679875
,,,-9E-07,0.00695
,,,-8.9E-07,0.0067275
,,,-8.8E-07,0.006709375
,,,-8.7E-07,0.006658125
,,,-8.6E-07,0.0069075
,,,-8.5E-07,0.006615
,,,-8.4E-07,0.006896875
,,,-8.3E-07,0.006539375
,,,-8.2E-07,0.006736875
,,,-8.1E-07,0.00671875
,,,-8E-07,0.0066025
,,,-7.9E-07,0.00674625
,,,-7.8E-07,0.006803125
,,,-7.7E-07,0.0070375
,,,-7.6E-07,0.00683625
,,,-7.5E-07,0.0067225
,,,-7.4E-07,0.006826875
,,,-7.3E-07,0.006598125
,,,-7.2E-07,0.00669375
,,,-7.1E-07,0.00665375
,,,-7E-07,0.006663125
,,,-6.9E-07,0.006816875
,,,-6.8E-07,0.006711875
,,,-6.7E-07,0.0069525
,,,-6.6E-07,0.006683125
,,,-6.5E-07,0.006825625
,,,-6.4E-07,0.006718125
,,,-6.3E-07,0.00674875
,,,-6.2E-07,0.006691875
,,,-6.1E-07,0.00679625
,,,-6E-07,0.006690625
,,,-5.9E-07,0.006663125
,,,-5.8E-07,0.006610625
,,,-5.7E-07,0.006493125
,,,-5.6E-07,0.0069575
,,,-5.5E-07,0.0065475
,,,-5.4E-07,0.00666
,,,-5.3E-07,0.00700625
,,,-5.2E-07,0.00665375
,,,-5.1E-07,0.00636
,,,-5E-07,0.006605625
,,,-4.9E-07,0.00658125
,,,-4.8E-07,0.006581875
,,,-4.7E-07,0.006951875
,,,-4.6E-07,0.00661625
,,,-4.5E-07,0.006803125
,,,-4.4E-07,0.0067925
,,,-4.3E-07,0.0068975
,,,-4.2E-07,0.006718125
,,,-4.1E-07,0.00668
,,,-4E-07,0.006565625
,,,-3.9E-07,0.006765
,,,-3.8E-07,0.006489375
,,,-3.7E-07,0.0068875
,,,-3.6E-07,0.00667125
,,,-3.5E-07,0.00657375
,,,-3.4E-07,0.006821875
,,,-3.3E-07,0.006843125
,,,-3.2E-07,0.00665375
,,,-3.1E-07,0.006605
,,,-3E-07,0.00648375
,,,-2.9E-07,0.00653375
,,,-2.8E-07,0.006660625
,,,-2.7E-07,0.006781875
,,,-2.6E-07,0.006804375
,,,-2.5E-07,0.006339375
,,,-2.4E-07,0.00660875
,,,-2.3E-07,0.00658
,,,-2.2E-07,0.006596875
,,,-2.1E-07,0.006940625
,,,-2E-07,0.006691875
,,,-1.9E-07,0.006655625
,,,-1.8E-07,0.0068225
,,,-1.7E-07,0.006609375
,,,-1.6E-07,0.006850625
,,,-1.5E-07,0.00658375
,,,-1.4E-07,0.0068325
,,,-1.3E-07,0.006795
,,,-1.2E-07,0.00680875
,,,-1.1E-07,0.006513125
,,,-1E-07,0.006918125
,,,-9E-08,0.007103125
,,,-8E-08,0.00681625
,,,-7E-08,0.006681875
,,,-6E-08,0.00679
,,,-5E-08,0.007426875
,,,-4E-08,0.007744375
,,,-3E-08,0.007599375
,,,-2E-08,0.00499625
,,,-1E-08,0.00429875
,,,0,0.004271875
,,,1E-08,0.0089
,,,2E-08,0.00948875
,,,3E-08,0.009280625
,,,4E-08,0.006321875
,,,5E-08,0.005040625
,,,6E-08,0.004520625
,,,7E-08,0.00612125
,,,8E-08,0.007683125
,,,9E-08,0.0080575
,,,1E-07,0.008030625
,,,1.1E-07,0.007075
,,,1.2E-07,0.005996875
,,,1.3E-07,0.00571875
,,,1.4E-07,0.00612375
,,,1.5E-07,0.007155625
,,,1.6E-07,0.00703625
,,,1.7E-07,0.0067525
,,,1.8E-07,0.006966875
,,,1.9E-07,0.006778125
,,,2E-07,0.006700625
,,,2.1E-07,0.006529375
,,,2.2E-07,0.006505
,,,2.3E-07,0.006804375
,,,2.4E-07,0.006769375
,,,2.5E-07,0.00689
,,,2.6E-07,0.00662125
,,,2.7E-07,0.006754375
,,,2.8E-07,0.0067825
,,,2.9E-07,0.00674375
,,,3E-07,0.006466875
,,,3.1E-07,0.00666
,,,3.2E-07,0.00674125
,,,3.3E-07,0.006825
,,,3.4E-07,0.006805
,,,3.5E-07,0.00686875
,,,3.6E-07,0.006679375
,,,3.7E-07,0.006816875
,,,3.8E-07,0.00661875
,,,3.9E-07,0.006814375
,,,4E-07,0.0069025
,,,4.1E-07,0.006693125
,,,4.2E-07,0.0066775
,,,4.3E-07,0.00681
,,,4.4E-07,0.0068
,,,4.5E-07,0.006455
,,,4.6E-07,0.0067475
,,,4.7E-07,0.00660875
,,,4.8E-07,0.006645625
,,,4.9E-07,0.006763125
,,,5E-07,0.00686125
,,,5.1E-07,0.006759375
,,,5.2E-07,0.0066875
,,,5.3E-07,0.006879375
,,,5.4E-07,0.006593125
,,,5.5E-07,0.006626875
,,,5.6E-07,0.006865625
,,,5.7E-07,0.0064825
,,,5.8E-07,0.006970625
,,,5.9E-07,0.0068125
,,,6E-07,0.00701125
,,,6.1E-07,0.006899375
,,,6.2E-07,0.00657875
,,,6.3E-07,0.006598125
,,,6.4E-07,0.006654375
,,,6.5E-07,0.006745
,,,6.6E-07,0.0068475
,,,6.7E-07,0.006855
,,,6.8E-07,0.00654875
,,,6.9E-07,0.0065925
,,,7E-07,0.0068275
,,,7.1E-07,0.00668875
,,,7.2E-07,0.006765
,,,7.3E-07,0.006818125
,,,7.4E-07,0.006924375
,,,7.5E-07,0.00688875
,,,7.6E-07,0.006884375
,,,7.7E-07,0.00676625
,,,7.8E-07,0.006555
,,,7.9E-07,0.0068725
,,,8E-07,0.006590625
,,,8.1E-07,0.006988125
,,,8.2E-07,0.00666125
,,,8.3E-07,0.006903125
,,,8.4E-07,0.006741875
,,,8.5E-07,0.006885
,,,8.6E-07,0.006896875
,,,8.7E-07,0.00667875
,,,8.8E-07,0.00671125
,,,8.9E-07,0.006735
,,,9E-07,0.006693125
,,,9.1E-07,0.00695375
,,,9.2E-07,0.0067225
,,,9.3E-07,0.00658125
,,,9.4E-07,0.006665625
,,,9.5E-07,0.00667625
,,,9.6E-07,0.0068
,,,9.7E-07,0.0068775
,,,9.8E-07,0.006595625
,,,9.9E-07,0.006551875
,,,1E-06,0.006588125
,,,1.01E-06,0.0065125
,,,1.02E-06,0.006635625
,,,1.03E-06,0.006604375
,,,1.04E-06,0.006554375
,,,1.05E-06,0.0066475
,,,1.06E-06,0.006913125
,,,1.07E-06,0.006786875
,,,1.08E-06,0.006731875
,,,1.09E-06,0.00688625
,,,1.1E-06,0.006693125
,,,1.11E-06,0.00673625
,,,1.12E-06,0.00667375
,,,1.13E-06,0.00666625
,,,1.14E-06,0.006676875
,,,1.15E-06,0.006855
,,,1.16E-06,0.006756875
,,,1.17E-06,0.0066275
,,,1.18E-06,0.006605
,,,1.19E-06,0.006570625
,,,1.2E-06,0.006626875
,,,1.21E-06,0.006799375
,,,1.22E-06,0.00698
,,,1.23E-06,0.0068125
,,,1.24E-06,0.006761875
,,,1.25E-06,0.00685375
,,,1.26E-06,0.006745
,,,1.27E-06,0.006474375
,,,1.28E-06,0.006679375
,,,1.29E-06,0.006668125
,,,1.3E-06,0.006353125
,,,1.31E-06,0.006698125
,,,1.32E-06,0.006505
,,,1.33E-06,0.00685875
,,,1.34E-06,0.006763125
,,,1.35E-06,0.0066125
,,,1.36E-06,0.0067125
,,,1.37E-06,0.006736875
,,,1.38E-06,0.006646875
,,,1.39E-06,0.00684625
,,,1.4E-06,0.006555
,,,1.41E-06,0.007085625
,,,1.42E-06,0.006679375
,,,1.43E-06,0.006681875
,,,1.44E-06,0.006874375
,,,1.45E-06,0.00672625
,,,1.46E-06,0.006569375
,,,1.47E-06,0.006923125
,,,1.48E-06,0.00682875
,,,1.49E-06,0.0065725
,,,1.5E-06,0.006793125
,,,1.51E-06,0.006701875
,,,1.52E-06,0.0064775
,,,1.53E-06,0.00680625
,,,1.54E-06,0.00656
,,,1.55E-06,0.006805625
,,,1.56E-06,0.0067975
,,,1.57E-06,0.006898125
,,,1.58E-06,0.0068675
,,,1.59E-06,0.006689375
,,,1.6E-06,0.006663125
,,,1.61E-06,0.00671875
,,,1.62E-06,0.006708125
,,,1.63E-06,0.006755
,,,1.64E-06,0.00693375
,,,1.65E-06,0.006469375
,,,1.66E-06,0.006736875
,,,1.67E-06,0.006770625
,,,1.68E-06,0.00663875
,,,1.69E-06,0.006705625
,,,1.7E-06,0.00667
,,,1.71E-06,0.006554375
,,,1.72E-06,0.00669125
,,,1.73E-06,0.006850625
,,,1.74E-06,0.00662625
,,,1.75E-06,0.006596875
,,,1.76E-06,0.006753125
,,,1.77E-06,0.006705
,,,1.78E-06,0.006860625
,,,1.79E-06,0.006744375
,,,1.8E-06,0.006731875
,,,1.81E-06,0.006801875
,,,1.82E-06,0.006675625
,,,1.83E-06,0.006679375
,,,1.84E-06,0.006776875
,,,1.85E-06,0.006534375
,,,1.86E-06,0.00675125
,,,1.87E-06,0.006569375
,,,1.88E-06,0.006933125
,,,1.89E-06,0.00663125
,,,1.9E-06,0.00685875
,,,1.91E-06,0.00673
,,,1.92E-06,0.00661375
,,,1.93E-06,0.0066075
,,,1.94E-06,0.0068175
,,,1.95E-06,0.006645
,,,1.96E-06,0.006650625
,,,1.97E-06,0.00671375
,,,1.98E-06,0.00675625
,,,1.99E-06,0.006669375
,,,2E-06,0.006744375
,,,2.01E-06,0.006819375
,,,2.02E-06,0.006730625
,,,2.03E-06,0.00671125
,,,2.04E-06,0.006823125
,,,2.05E-06,0.00707375
,,,2.06E-06,0.006619375
,,,2.07E-06,0.0065825
,,,2.08E-06,0.00668875
,,,2.09E-06,0.00668125
,,,2.1E-06,0.006536875
,,,2.11E-06,0.00660625
,,,2.12E-06,0.00663
,,,2.13E-06,0.0067575
,,,2.14E-06,0.006628125
,,,2.15E-06,0.00679375
,,,2.16E-06,0.0068025
,,,2.17E-06,0.006714375
,,,2.18E-06,0.0067475
,,,2.19E-06,0.006499375
,,,2.2E-06,0.006666875
,,,2.21E-06,0.00667375
,,,2.22E-06,0.00672875
,,,2.23E-06,0.0068475
,,,2.24E-06,0.0067675
,,,2.25E-06,0.0068825
,,,2.26E-06,0.006690625
,,,2.27E-06,0.006805
,,,2.28E-06,0.006649375
,,,2.29E-06,0.006745625
,,,2.3E-06,0.0068
,,,2.31E-06,0.006806875
,,,2.32E-06,0.006749375
,,,2.33E-06,0.006915
,,,2.34E-06,0.0066825
,,,2.35E-06,0.00680375
,,,2.36E-06,0.00685875
,,,2.37E-06,0.00678625
,,,2.38E-06,0.006795625
,,,2.39E-06,0.0068125
,,,2.4E-06,0.006856875
,,,2.41E-06,0.006638125
,,,2.42E-06,0.0068925
,,,2.43E-06,0.006464375
,,,2.44E-06,0.006713125
,,,2.45E-06,0.006683125
,,,2.46E-06,0.0066825
,,,2.47E-06,0.00668125
,,,2.48E-06,0.006695
,,,2.49E-06,0.00672625
,,,2.5E-06,0.0067225
,,,2.51E-06,0.006660625
,,,2.52E-06,0.00677875
,,,2.53E-06,0.00683625
,,,2.54E-06,0.006675
,,,2.55E-06,0.006995
,,,2.56E-06,0.006653125
,,,2.57E-06,0.006584375
,,,2.58E-06,0.006840625
,,,2.59E-06,0.006600625
,,,2.6E-06,0.006864375
,,,2.61E-06,0.006610625
,,,2.62E-06,0.00644
,,,2.63E-06,0.006753125
,,,2.64E-06,0.00665375
,,,2.65E-06,0.00663125
,,,2.66E-06,0.007023125
,,,2.67E-06,0.006670625
,,,2.68E-06,0.00674875
,,,2.69E-06,0.00682875
,,,2.7E-06,0.006458125
,,,2.71E-06,0.00686875
,,,2.72E-06,0.006905
,,,2.73E-06,0.006975
,,,2.74E-06,0.006624375
,,,2.75E-06,0.006731875
,,,2.76E-06,0.006860625
,,,2.77E-06,0.006803125
,,,2.78E-06,0.006794375
,,,2.79E-06,0.00704625
,,,2.8E-06,0.006648125
,,,2.81E-06,0.006610625
,,,2.82E-06,0.006948125
,,,2.83E-06,0.006705
,,,2.84E-06,0.0064925
,,,2.85E-06,0.006653125
,,,2.86E-06,0.006675
,,,2.87E-06,0.006934375
,,,2.88E-06,0.006665
,,,2.89E-06,0.006794375
,,,2.9E-06,0.006693125
,,,2.91E-06,0.0065825
,,,2.92E-06,0.00635125
,,,2.93E-06,0.0069225
,,,2.94E-06,0.0067425
,,,2.95E-06,0.006701875
,,,2.96E-06,0.006851875
,,,2.97E-06,0.0067875
,,,2.98E-06,0.00667
,,,2.99E-06,0.00661625
,,,3E-06,0.0066175
,,,3.01E-06,0.006734375
,,,3.02E-06,0.00653375
,,,3.03E-06,0.006545
,,,3.04E-06,0.00673125
,,,3.05E-06,0.006756875
,,,3.06E-06,0.0066975
,,,3.07E-06,0.006688125
,,,3.08E-06,0.006644375
,,,3.09E-06,0.006756875
,,,3.1E-06,0.00671375
,,,3.11E-06,0.006840625
,,,3.12E-06,0.006985625
,,,3.13E-06,0.007039375
,,,3.14E-06,0.00689375
,,,3.15E-06,0.00683375
,,,3.16E-06,0.00668375
,,,3.17E-06,0.006514375
,,,3.18E-06,0.006513125
,,,3.19E-06,0.00698125
,,,3.2E-06,0.0067475
,,,3.21E-06,0.00651375
,,,3.22E-06,0.00695875
,,,3.23E-06,0.006758125
,,,3.24E-06,0.00679375
,,,3.25E-06,0.006695625
,,,3.26E-06,0.006781875
,,,3.27E-06,0.006814375
,,,3.28E-06,0.00674875
,,,3.29E-06,0.00656875
,,,3.3E-06,0.006814375
,,,3.31E-06,0.006781875
,,,3.32E-06,0.006813125
,,,3.33E-06,0.006741875
,,,3.34E-06,0.006651875
,,,3.35E-06,0.006454375
,,,3.36E-06,0.0068025
,,,3.37E-06,0.006896875
,,,3.38E-06,0.0065
,,,3.39E-06,0.00663375
,,,3.4E-06,0.00669
,,,3.41E-06,0.006685625
,,,3.42E-06,0.006505625
,,,3.43E-06,0.00686125
,,,3.44E-06,0.006628125
,,,3.45E-06,0.007061875
,,,3.46E-06,0.0064975
,,,3.47E-06,0.00672
,,,3.48E-06,0.006664375
,,,3.49E-06,0.006563125
,,,3.5E-06,0.006894375
,,,3.51E-06,0.00631
,,,3.52E-06,0.00671125
,,,3.53E-06,0.00667125
,,,3.54E-06,0.00700125
,,,3.55E-06,0.006585
,,,3.56E-06,0.00684
