data/raw/Final_POL_Test_1/SOP062_Ch1.csv

"Record Length",1000,"Points",-5E-06,0.007241875
"Sample Interval",1E-08,s,-4.99E-06,0.007386875
"Trigger Point",500,"Samples",-4.98E-06,0.007264375
"Trigger Time",0,s,-4.97E-06,0.007509375
"",,,-4.96E-06,0.007128125
"Horizontal Offset",-5E-06,s,-4.95E-06,0.0072975
,,,-4.94E-06,0.00724875
,,,-4.93E-06,0.007385
,,,-4.92E-06,0.007063125
,,,-4.91E-06,0.007311875
,,,-4.9E-06,0.00719625
,,,-4.89E-06,0.0075175
,,,-4.88E-06,0.007219375
,,,-4.87E-06,0.0075325
,,,-4.86E-06,0.007190625
,,,-4.85E-06,0.00724875
,,,-4.84E-06,0.007263125
,,,-4.83E-06,0.00719375
,,,-4.82E-06,0.007135625
,,,-4.81E-06,0.00734375
,,,-4.8E-06,0.00702875
,,,-4.79E-06,0.0073025
,,,-4.78E-06,0.007029375
,,,-4.77E-06,0.00721125
,,,-4.76E-06,0.00721625
,,,-4.75E-06,0.007005
,,,-4.74E-06,0.0072225
,,,-4.73E-06,0.006905
,,,-4.72E-06,0.00756625
,,,-4.71E-06,0.007065
,,,-4.7E-06,0.0072075
,,,-4.69E-06,0.006926875
,,,-4.68E-06,0.007208125
,,,-4.67E-06,0.00732
,,,-4.66E-06,0.00735875
,,,-4.65E-06,0.00732625
,,,-4.64E-06,0.007308125
,,,-4.63E-06,0.007373125
,,,-4.62E-06,0.00719875
,,,-4.61E-06,0.007229375
,,,-4.6E-06,0.007194375
,,,-4.59E-06,0.007316875
,,,-4.58E-06,0.007135625
,,,-4.57E-06,0.00705
,,,-4.56E-06,0.006904375
,,,-4.55E-06,0.007118125
,,,-4.54E-06,0.007075
,,,-4.53E-06,0.007284375
,,,-4.52E-06,0.006935
,,,-4.51E-06,0.007110625
,,,-4.5E-06,0.007403125
,,,-4.49E-06,0.007374375
,,,-4.48E-06,0.007206875
,,,-4.47E-06,0.00725875
,,,-4.46E-06,0.007114375
,,,-4.45E-06,0.007435
,,,-4.44E-06,0.0072175
,,,-4.43E-06,0.00736625
,,,-4.42E-06,0.007235625
,,,-4.41E-06,0.00713
,,,-4.4E-06,0.0072475
,,,-4.39E-06,0.007455625
,,,-4.38E-06,0.00710875
,,,-4.37E-06,0.007095625
,,,-4.36E-06,0.007155625
,,,-4.35E-06,0.00706625
,,,-4.34E-06,0.007155
,,,-4.33E-06,0.007190625
,,,-4.32E-06,0.007343125
,,,-4.31E-06,0.007000625
,,,-4.3E-06,0.007319375
,,,-4.29E-06,0.007070625
,,,-4.28E-06,0.00712
,,,-4.27E-06,0.006978125
,,,-4.26E-06,0.007184375
,,,-4.25E-06,0.007225
,,,-4.24E-06,0.007141875
,,,-4.23E-06,0.007360625
,,,-4.22E-06,0.00735875
,,,-4.21E-06,0.0071825
,,,-4.2E-06,0.00706
,,,-4.19E-06,0.00688625
,,,-4.18E-06,0.007330625
,,,-4.17E-06,0.007279375
,,,-4.16E-06,0.00718375
,,,-4.15E-06,0.00722875
,,,-4.14E-06,0.007511875
,,,-4.13E-06,0.007449375
,,,-4.12E-06,0.007321875
,,,-4.11E-06,0.007271875
,,,-4.1E-06,0.006985625
,,,-4.09E-06,0.00709875
,,,-4.08E-06,0.007308125
,,,-4.07E-06,0.0070625
,,,-4.06E-06,0.007313125
,,,-4.05E-06,0.007158125
,,,-4.04E-06,0.007105
,,,-4.03E-06,0.00722875
,,,-4.02E-06,0.00714625
,,,-4.01E-06,0.007395625
,,,-4E-06,0.007354375
,,,-3.99E-06,0.007454375
,,,-3.98E-06,0.0071825
,,,-3.97E-06,0.007088125
,,,-3.96E-06,0.007005
,,,-3.95E-06,0.0072225
,,,-3.94E-06,0.006945625
,,,-3.93E-06,0.007105
,,,-3.92E-06,0.007124375
,,,-3.91E-06,0.00707
,,,-3.9E-06,0.00714625
,,,-3.89E-06,0.00713375
,,,-3.88E-06,0.00725625
,,,-3.87E-06,0.007344375
,,,-3.86E-06,0.0072075
,,,-3.85E-06,0.0072475
,,,-3.84E-06,0.007285
,,,-3.83E-06,0.007194375
,,,-3.82E-06,0.007245
,,,-3.81E-06,0.00732125
,,,-3.8E-06,0.00718375
,,,-3.79E-06,0.00712
,,,-3.78E-06,0.00725625
,,,-3.77E-06,0.00729625
,,,-3.76E-06,0.0073425
,,,-3.75E-06,0.00718
,,,-3.74E-06,0.007399375
,,,-3.73E-06,0.007163125
,,,-3.72E-06,0.007153125
,,,-3.71E-06,0.00720875
,,,-3.7E-06,0.007120625
,,,-3.69E-06,0.00708625
,,,-3.68E-06,0.0071675
,,,-3.67E-06,0.007034375
,,,-3.66E-06,0.007194375
,,,-3.65E-06,0.00728
,,,-3.64E-06,0.007196875
,,,-3.63E-06,0.00704
,,,-3.62E-06,0.007283125
,,,-3.61E-06,0.007043125
,,,-3.6E-06,0.00710125
,,,-3.59E-06,0.00736875
,,,-3.58E-06,0.00738
,,,-3.57E-06,0.00715625
,,,-3.56E-06,0.00726
,,,-3.55E-06,0.00743125
,,,-3.54E-06,0.006993125
,,,-3.53E-06,0.007225
,,,-3.52E-06,0.00719375
,,,-3.51E-06,0.00720125
,,,-3.5E-06,0.007239375
,,,-3.49E-06,0.007168125
,,,-3.48E-06,0.0073975
,,,-3.47E-06,0.0069975
,,,-3.46E-06,0.007331875
,,,-3.45E-06,0.0073125
,,,-3.44E-06,0.007205
,,,-3.43E-06,0.00714875
,,,-3.42E-06,0.007348125
,,,-3.41E-06,0.00713625
,,,-3.4E-06,0.007246875
,,,-3.39E-06,0.007325625
,,,-3.38E-06,0.006988125
,,,-3.37E-06,0.007081875
,,,-3.36E-06,0.007279375
,,,-3.35E-06,0.007245625
,,,-3.34E-06,0.007409375
,,,-3.33E-06,0.00722
,,,-3.32E-06,0.00717
,,,-3.31E-06,0.007095
,,,-3.3E-06,0.00735
,,,-3.29E-06,0.007385
,,,-3.28E-06,0.007248125
,,,-3.27E-06,0.00723875
,,,-3.26E-06,0.007126875
,,,-3.25E-06,0.007121875
,,,-3.24E-06,0.007233125
,,,-3.23E-06,0.0070125
,,,-3.22E-06,0.007279375
,,,-3.21E-06,0.0070875
,,,-3.2E-06,0.0070575
,,,-3.19E-06,0.007215
,,,-3.18E-06,0.007418125
,,,-3.17E-06,0.00729625
,,,-3.16E-06,0.007185625
,,,-3.15E-06,0.00751125
,,,-3.14E-06,0.00736875
,,,-3.13E-06,0.007145625
,,,-3.12E-06,0.007140625
,,,-3.11E-06,0.007264375
,,,-3.1E-06,0.00722
,,,-3.09E-06,0.00732
,,,-3.08E-06,0.007075625
,,,-3.07E-06,0.007388125
,,,-3.06E-06,0.00712875
,,,-3.05E-06,0.00721
,,,-3.04E-06,0.007109375
,,,-3.03E-06,0.007381875
,,,-3.02E-06,0.007484375
,,,-3.01E-06,0.007463125
,,,-3E-06,0.0073375
,,,-2.99E-06,0.007411875
,,,-2.98E-06,0.0072875
,,,-2.97E-06,0.007341875
,,,-2.96E-06,0.007394375
,,,-2.95E-06,0.00734125
,,,-2.94E-06,0.00721875
,,,-2.93E-06,0.00700125
,,,-2.92E-06,0.007296875
,,,-2.91E-06,0.007089375
,,,-2.9E-06,0.00743625
,,,-2.89E-06,0.007290625
,,,-2.88E-06,0.007269375
,,,-2.87E-06,0.006955625
,,,-2.86E-06,0.007101875
,,,-2.85E-06,0.007003125
,,,-2.84E-06,0.00736
,,,-2.83E-06,0.007125
,,,-2.82E-06,0.00744125
,,,-2.81E-06,0.0070175
,,,-2.8E-06,0.00741125
,,,-2.79E-06,0.007225
,,,-2.78E-06,0.0072675
,,,-2.77E-06,0.00695625
,,,-2.76E-06,0.00724125
,,,-2.75E-06,0.00715625
,,,-2.74E-06,0.007364375
,,,-2.73E-06,0.0071575
,,,-2.72E-06,0.007224375
,,,-2.71E-06,0.007188125
,,,-2.7E-06,0.007304375
,,,-2.69E-06,0.007105625
,,,-2.68E-06,0.007366875
,,,-2.67E-06,0.007715
,,,-2.66E-06,0.0073525
,,,-2.65E-06,0.0072825
,,,-2.64E-06,0.007295625
,,,-2.63E-06,0.007128125
,,,-2.62E-06,0.00721875
,,,-2.61E-06,0.007319375
,,,-2.6E-06,0.00713375
,,,-2.59E-06,0.007399375
,,,-2.58E-06,0.007260625
,,,-2.57E-06,0.007275
,,,-2.56E-06,0.007268125
,,,-2.55E-06,0.007230625
,,,-2.54E-06,0.007390625
,,,-2.53E-06,0.007274375
,,,-2.52E-06,0.007058125
,,,-2.51E-06,0.007351875
,,,-2.5E-06,0.006974375
,,,-2.49E-06,0.0072375
,,,-2.48E-06,0.00728375
,,,-2.47E-06,0.007443125
,,,-2.46E-06,0.00709125
,,,-2.45E-06,0.007235
,,,-2.44E-06,0.00737875
,,,-2.43E-06,0.007028125
,,,-2.42E-06,0.007328125
,,,-2.41E-06,0.0073725
,,,-2.4E-06,0.00734625
,,,-2.39E-06,0.007303125
,,,-2.38E-06,0.007035625
,,,-2.37E-06,0.00716
,,,-2.36E-06,0.007371875
,,,-2.35E-06,0.007415625
,,,-2.34E-06,0.007353125
,,,-2.33E-06,0.00685125
,,,-2.32E-06,0.007079375
,,,-2.31E-06,0.007120625
,,,-2.3E-06,0.00717875
,,,-2.29E-06,0.0069275
,,,-2.28E-06,0.007220625
,,,-2.27E-06,0.007256875
,,,-2.26E-06,0.007185
,,,-2.25E-06,0.007208125
,,,-2.24E-06,0.007494375
,,,-2.23E-06,0.00722
,,,-2.22E-06,0.0074175
,,,-2.21E-06,0.007219375
,,,-2.2E-06,0.0072975
,,,-2.19E-06,0.007099375
,,,-2.18E-06,0.007014375
,,,-2.17E-06,0.0071875
,,,-2.16E-06,0.007333125
,,,-2.15E-06,0.0073025
,,,-2.14E-06,0.007386875
,,,-2.13E-06,0.007191875
,,,-2.12E-06,0.007588125
,,,-2.11E-06,0.0071425
,,,-2.1E-06,0.00739875
,,,-2.09E-06,0.0071825
,,,-2.08E-06,0.007254375
,,,-2.07E-06,0.007310625
,,,-2.06E-06,0.007373125
,,,-2.05E-06,0.007231875
,,,-2.04E-06,0.006994375
,,,-2.03E-06,0.007401875
,,,-2.02E-06,0.007115625
,,,-2.01E-06,0.0074625
,,,-2E-06,0.00703
,,,-1.99E-06,0.007125
,,,-1.98E-06,0.00725
,,,-1.97E-06,0.00736
,,,-1.96E-06,0.0070925
,,,-1.95E-06,0.007216875
,,,-1.94E-06,0.007091875
,,,-1.93E-06,0.00712375
,,,-1.92E-06,0.00721125
,,,-1.91E-06,0.007284375
,,,-1.9E-06,0.007286875
,,,-1.89E-06,0.007170625
,,,-1.88E-06,0.0069325
,,,-1.87E-06,0.0071025
,,,-1.86E-06,0.0071325
,,,-1.85E-06,0.00728
,,,-1.84E-06,0.007443125
,,,-1.83E-06,0.00724125
,,,-1.82E-06,0.007133125
,,,-1.81E-06,0.00718875
,,,-1.8E-06,0.006894375
,,,-1.79E-06,0.00717
,,,-1.78E-06,0.00730875
,,,-1.77E-06,0.007154375
,,,-1.76E-06,0.00719
,,,-1.75E-06,0.00729125
,,,-1.74E-06,0.007183125
,,,-1.73E-06,0.00732625
,,,-1.72E-06,0.0070475
,,,-1.71E-06,0.0073025
,,,-1.7E-06,0.00739875
,,,-1.69E-06,0.007208125
,,,-1.68E-06,0.007161875
,,,-1.67E-06,0.007153125
,,,-1.66E-06,0.007151875
,,,-1.65E-06,0.00737375
,,,-1.64E-06,0.00735875
,,,-1.63E-06,0.0073125
,,,-1.62E-06,0.00707375
,,,-1.61E-06,0.00707375
,,,-1.6E-06,0.0072525
,,,-1.59E-06,0.00740875
,,,-1.58E-06,0.007234375
,,,-1.57E-06,0.0073325
,,,-1.56E-06,0.007295
,,,-1.55E-06,0.006835
,,,-1.54E-06,0.007305
,,,-1.53E-06,0.00719375
,,,-1.52E-06,0.0071375
,,,-1.51E-06,0.007275625
,,,-1.5E-06,0.0072625
,,,-1.49E-06,0.007228125
,,,-1.48E-06,0.00736625
,,,-1.47E-06,0.00728375
,,,-1.46E-06,0.00698
,,,-1.45E-06,0.007654375
,,,-1.44E-06,0.00721125
,,,-1.43E-06,0.00718625
,,,-1.42E-06,0.00720375
,,,-1.41E-06,0.00733
,,,-1.4E-06,0.007078125
,,,-1.39E-06,0.00732125
,,,-1.38E-06,0.007005625
,,,-1.37E-06,0.007129375
,,,-1.36E-06,0.00713125
,,,-1.35E-06,0.007175
,,,-1.34E-06,0.00716625
,,,-1.33E-06,0.00727125
,,,-1.32E-06,0.007255
,,,-1.31E-06,0.007070625
,,,-1.3E-06,0.007220625
,,,-1.29E-06,0.00725875
,,,-1.28E-06,0.007124375
,,,-1.27E-06,0.007163125
,,,-1.26E-06,0.007419375
,,,-1.25E-06,0.007286875
,,,-1.24E-06,0.0073125
,,,-1.23E-06,0.00712625
,,,-1.22E-06,0.007140625
,,,-1.21E-06,0.007374375
,,,-1.2E-06,0.0071825
,,,-1.19E-06,0.00722
,,,-1.18E-06,0.00725625
,,,-1.17E-06,0.00720625
,,,-1.16E-06,0.007208125
,,,-1.15E-06,0.00732
,,,-1.14E-06,0.007303125
,,,-1.13E-06,0.007324375
,,,-1.12E-06,0.00715
,,,-1.11E-06,0.007253125
,,,-1.1E-06,0.00743
,,,-1.09E-06,0.007509375
,,,-1.08E-06,0.00727875
,,,-1.07E-06,0.007295625
,,,-1.06E-06,0.007465625
,,,-1.05E-06,0.007064375
,,,-1.04E-06,0.007334375
,,,-1.03E-06,0.00742375
,,,-1.02E-06,0.007163125
,,,-1.01E-06,0.007125
,,,-1E-06,0.0073975
,,,-9.9E-07,0.0071325
,,,-9.8E-07,0.00738375
,,,-9.7E-07,0.007140625
,,,-9.6E-07,0.007336875
,,,-9.5E-07,0.00713625
,,,-9.4E-07,0.007425625
,,,-9.3E-07,0.00738625
,,,-9.2E-07,0.007285
,,,-9.1E-07,0.007165625
,,,-9E-07,0.007113125
,,,-8.9E-07,0.00716125
,,,-8.8E-07,0.00740875
,,,-8.7E-07,0.007134375
,,,-8.6E-07,0.007235625
,,,-8.5E-07,0.0072125
,,,-8.4E-07,0.007343125
,,,-8.3E-07,0.007339375
,,,-8.2E-07,0.007360625
,,,-8.1E-07,0.0074225
,,,-8E-07,0.00730375
,,,-7.9E-07,0.007135625
,,,-7.8E-07,0.007023125
,,,-7.7E-07,0.0072925
,,,-7.6E-07,0.007118125
,,,-7.5E-07,0.007428125
,,,-7.4E-07,0.007363125
,,,-7.3E-07,0.007088125
,,,-7.2E-07,0.00705
,,,-7.1E-07,0.00744
,,,-7E-07,0.00729
,,,-6.9E-07,0.007349375
,,,-6.8E-07,0.0071175
,,,-6.7E-07,0.00738375
,,,-6.6E-07,0.00731375
,,,-6.5E-07,0.0072525
,,,-6.4E-07,0.00724625
,,,-6.3E-07,0.007344375
,,,-6.2E-07,0.0070425
,,,-6.1E-07,0.007265625
,,,-6E-07,0.007259375
,,,-5.9E-07,0.0069
,,,-5.8E-07,0.00735125
,,,-5.7E-07,0.00708625
,,,-5.6E-07,0.00724625
,,,-5.5E-07,0.00733125
,,,-5.4E-07,0.007193125
,,,-5.3E-07,0.00720375
,,,-5.2E-07,0.00723375
,,,-5.1E-07,0.0073475
,,,-5E-07,0.00705
,,,-4.9E-07,0.007371875
,,,-4.8E-07,0.007280625
,,,-4.7E-07,0.007340625
,,,-4.6E-07,0.007169375
,,,-4.5E-07,0.00712
,,,-4.4E-07,0.0073525
,,,-4.3E-07,0.007294375
,,,-4.2E-07,0.0071175
,,,-4.1E-07,0.00741
,,,-4E-07,0.007245625
,,,-3.9E-07,0.00722375
,,,-3.8E-07,0.00723875
,,,-3.7E-07,0.0072625
,,,-3.6E-07,0.007296875
,,,-3.5E-07,0.007458125
,,,-3.4E-07,0.007195
,,,-3.3E-07,0.00724125
,,,-3.2E-07,0.00716
,,,-3.1E-07,0.007024375
,,,-3E-07,0.007214375
,,,-2.9E-07,0.007118125
,,,-2.8E-07,0.007198125
,,,-2.7E-07,0.00733875
,,,-2.6E-07,0.007364375
,,,-2.5E-07,0.00734125
,,,-2.4E-07,0.007355
,,,-2.3E-07,0.0072975
,,,-2.2E-07,0.00729875
,,,-2.1E-07,0.007411875
,,,-2E-07,0.0071675
,,,-1.9E-07,0.0071275
,,,-1.8E-07,0.0072675
,,,-1.7E-07,0.00723375
,,,-1.6E-07,0.007240625
,,,-1.5E-07,0.007146875
,,,-1.4E-07,0.007285
,,,-1.3E-07,0.00721375
,,,-1.2E-07,0.00734125
,,,-1.1E-07,0.007145
,,,-1E-07,0.00718625
,,,-9E-08,0.00723125
,,,-8E-08,0.00740125
,,,-7E-08,0.0070325
,,,-6E-08,0.00699375
,,,-5E-08,0.007185
,,,-4E-08,0.00779125
,,,-3E-08,0.0085225
,,,-2E-08,0.00626625
,,,-1E-08,0.004321875
,,,0,0.00341125
,,,1E-08,0.009091875
,,,2E-08,0.011188125
,,,3E-08,0.01177375
,,,4E-08,0.007083125
,,,5E-08,0.00477625
,,,6E-08,0.003609375
,,,7E-08,0.005516875
,,,8E-08,0.00755375
,,,9E-08,0.009231875
,,,1E-07,0.00938625
,,,1.1E-07,0.008263125
,,,1.2E-07,0.006620625
,,,1.3E-07,0.0054375
,,,1.4E-07,0.006321875
,,,1.5E-07,0.006876875
,,,1.6E-07,0.007900625
,,,1.7E-07,0.00764625
,,,1.8E-07,0.00732375
,,,1.9E-07,0.0074625
,,,2E-07,0.0071475
,,,2.1E-07,0.007105625
,,,2.2E-07,0.006773125
,,,2.3E-07,0.007145625
,,,2.4E-07,0.00733875
,,,2.5E-07,0.007284375
,,,2.6E-07,0.007473125
,,,2.7E-07,0.007255
,,,2.8E-07,0.00715
,,,2.9E-07,0.007335
,,,3E-07,0.007176875
,,,3.1E-07,0.00715375
,,,3.2E-07,0.007216875
,,,3.3E-07,0.007499375
,,,3.4E-07,0.00720125
,,,3.5E-07,0.007073125
,,,3.6E-07,0.007160625
,,,3.7E-07,0.006961875
,,,3.8E-07,0.007130625
,,,3.9E-07,0.007259375
,,,4E-07,0.00719875
,,,4.1E-07,0.0072675
,,,4.2E-07,0.007251875
,,,4.3E-07,0.007379375
,,,4.4E-07,0.00710875
,,,4.5E-07,0.006999375
,,,4.6E-07,0.007329375
,,,4.7E-07,0.00736
,,,4.8E-07,0.0071525
,,,4.9E-07,0.0074725
,,,5E-07,0.007130625
,,,5.1E-07,0.007149375
,,,5.2E-07,0.007244375
,,,5.3E-07,0.007136875
,,,5.4E-07,0.00718625
,,,5.5E-07,0.007366875
,,,5.6E-07,0.00734375
,,,5.7E-07,0.00743375
,,,5.8E-07,0.007254375
,,,5.9E-07,0.0072025
,,,6E-07,0.007243125
,,,6.1E-07,0.00695625
,,,6.2E-07,0.007350625
,,,6.3E-07,0.007291875
,,,6.4E-07,0.00723375
,,,6.5E-07,0.00751625
,,,6.6E-07,0.007360625
,,,6.7E-07,0.0072775
,,,6.8E-07,0.00731375
,,,6.9E-07,0.00724
,,,7E-07,0.007158125
,,,7.1E-07,0.007240625
,,,7.2E-07,0.007204375
,,,7.3E-07,0.00721375
,,,7.4E-07,0.00726875
,,,7.5E-07,0.0071625
,,,7.6E-07,0.00723625
,,,7.7E-07,0.007036875
,,,7.8E-07,0.007175
,,,7.9E-07,0.00692625
,,,8E-07,0.00734375
,,,8.1E-07,0.0073125
,,,8.2E-07,0.007100625
,,,8.3E-07,0.007170625
,,,8.4E-07,0.007191875
,,,8.5E-07,0.007346875
,,,8.6E-07,0.007041875
,,,8.7E-07,0.00720125
,,,8.8E-07,0.00735
,,,8.9E-07,0.007316875
,,,9E-07,0.0072125
,,,9.1E-07,0.007259375
,,,9.2E-07,0.00714875
,,,9.3E-07,0.007224375
,,,9.4E-07,0.00739875
,,,9.5E-07,0.00716
,,,9.6E-07,0.007183125
,,,9.7E-07,0.007165625
,,,9.8E-07,0.007076875
,,,9.9E-07,0.0073425
,,,1E-06,0.007286875
,,,1.01E-06,0.007226875
,,,1.02E-06,0.006993125
,,,1.03E-06,0.007036875
,,,1.04E-06,0.00707875
,,,1.05E-06,0.00717625
,,,1.06E-06,0.00717375
,,,1.07E-06,0.007428125
,,,1.08E-06,0.007360625
,,,1.09E-06,0.007153125
,,,1.1E-06,0.007260625
,,,1.11E-06,0.007348125
,,,1.12E-06,0.007161875
,,,1.13E-06,0.007133125
,,,1.14E-06,0.007303125
,,,1.15E-06,0.007321875
,,,1.16E-06,0.007245
,,,1.17E-06,0.00721375
,,,1.18E-06,0.00715125
,,,1.19E-06,0.00714125
,,,1.2E-06,0.007314375
,,,1.21E-06,0.007229375
,,,1.22E-06,0.007164375
,,,1.23E-06,0.0071875
,,,1.24E-06,0.0072575
,,,1.25E-06,0.007281875
,,,1.26E-06,0.00720625
,,,1.27E-06,0.007225625
,,,1.28E-06,0.007034375
,,,1.29E-06,0.00734125
,,,1.3E-06,0.00697625
,,,1.31E-06,0.007330625
,,,1.32E-06,0.007298125
,,,1.33E-06,0.007196875
,,,1.34E-06,0.007208125
,,,1.35E-06,0.007430625
,,,1.36E-06,0.00698375
,,,1.37E-06,0.007398125
,,,1.38E-06,0.007214375
,,,1.39E-06,0.007285
,,,1.4E-06,0.007121875
,,,1.41E-06,0.007255625
,,,1.42E-06,0.007154375
,,,1.43E-06,0.007164375
,,,1.44E-06,0.0071775
,,,1.45E-06,0.00731125
,,,1.46E-06,0.00732625
,,,1.47E-06,0.00736625
,,,1.48E-06,0.00724375
,,,1.49E-06,0.00743375
,,,1.5E-06,0.00723375
,,,1.51E-06,0.007316875
,,,1.52E-06,0.007069375
,,,1.53E-06,0.007218125
,,,1.54E-06,0.007271875
,,,1.55E-06,0.00715875
,,,1.56E-06,0.00705125
,,,1.57E-06,0.007033125
,,,1.58E-06,0.0072125
,,,1.59E-06,0.007223125
,,,1.6E-06,0.00713875
,,,1.61E-06,0.007113125
,,,1.62E-06,0.0073025
,,,1.63E-06,0.007041875
,,,1.64E-06,0.007250625
,,,1.65E-06,0.007200625
,,,1.66E-06,0.007290625
,,,1.67E-06,0.007095625
,,,1.68E-06,0.00709
,,,1.69E-06,0.007293125
,,,1.7E-06,0.007175625
,,,1.71E-06,0.007174375
,,,1.72E-06,0.007265625
,,,1.73E-06,0.0072725
,,,1.74E-06,0.0073575
,,,1.75E-06,0.00741
,,,1.76E-06,0.007141875
,,,1.77E-06,0.00711
,,,1.78E-06,0.00708625
,,,1.79E-06,0.007291875
,,,1.8E-06,0.00706625
,,,1.81E-06,0.00705
,,,1.82E-06,0.007268125
,,,1.83E-06,0.007388125
,,,1.84E-06,0.00727
,,,1.85E-06,0.007061875
,,,1.86E-06,0.0072475
,,,1.87E-06,0.0071475
,,,1.88E-06,0.0070325
,,,1.89E-06,0.0074975
,,,1.9E-06,0.00724875
,,,1.91E-06,0.00731625
,,,1.92E-06,0.007241875
,,,1.93E-06,0.007231875
,,,1.94E-06,0.00737125
,,,1.95E-06,0.00747875
,,,1.96E-06,0.007130625
,,,1.97E-06,0.006970625
,,,1.98E-06,0.00720625
,,,1.99E-06,0.007233125
,,,2E-06,0.0070825
,,,2.01E-06,0.007318125
,,,2.02E-06,0.0071925
,,,2.03E-06,0.007115
,,,2.04E-06,0.007075
,,,2.05E-06,0.007375
,,,2.06E-06,0.007360625
,,,2.07E-06,0.007105
,,,2.08E-06,0.007375625
,,,2.09E-06,0.007294375
,,,2.1E-06,0.007168125
,,,2.11E-06,0.00714
,,,2.12E-06,0.00739875
,,,2.13E-06,0.0071675
,,,2.14E-06,0.00736
,,,2.15E-06,0.007220625
,,,2.16E-06,0.00743125
,,,2.17E-06,0.007588125
,,,2.18E-06,0.0074525
,,,2.19E-06,0.0071875
,,,2.2E-06,0.00727
,,,2.21E-06,0.007375
,,,2.22E-06,0.00729375
,,,2.23E-06,0.00721
,,,2.24E-06,0.00717125
,,,2.25E-06,0.0072375
,,,2.26E-06,0.00694125
,,,2.27E-06,0.006971875
,,,2.28E-06,0.007286875
,,,2.29E-06,0.007293125
,,,2.3E-06,0.0071375
,,,2.31E-06,0.007301875
,,,2.32E-06,0.007171875
,,,2.33E-06,0.007234375
,,,2.34E-06,0.00735125
,,,2.35E-06,0.00716
,,,2.36E-06,0.007070625
,,,2.37E-06,0.00709
,,,2.38E-06,0.007360625
,,,2.39E-06,0.007163125
,,,2.4E-06,0.00715625
,,,2.41E-06,0.007155
,,,2.42E-06,0.007125625
,,,2.43E-06,0.007064375
,,,2.44E-06,0.00724625
,,,2.45E-06,0.007259375
,,,2.46E-06,0.00731
,,,2.47E-06,0.007085625
,,,2.48E-06,0.0074975
,,,2.49E-06,0.0071425
,,,2.5E-06,0.007296875
,,,2.51E-06,0.007180625
,,,2.52E-06,0.007045
,,,2.53E-06,0.007064375
,,,2.54E-06,0.006880625
,,,2.55E-06,0.00724375
,,,2.56E-06,0.00728125
,,,2.57E-06,0.007374375
,,,2.58E-06,0.007200625
,,,2.59E-06,0.0071525
,,,2.6E-06,0.006985
,,,2.61E-06,0.007334375
,,,2.62E-06,0.007288125
,,,2.63E-06,0.007175
,,,2.64E-06,0.00731
,,,2.65E-06,0.00725375
,,,2.66E-06,0.00734875
,,,2.67E-06,0.007084375
,,,2.68E-06,0.0073275
,,,2.69E-06,0.007340625
,,,2.7E-06,0.007151875
,,,2.71E-06,0.00730375
,,,2.72E-06,0.00720625
,,,2.73E-06,0.007235
,,,2.74E-06,0.007395625
,,,2.75E-06,0.007085625
,,,2.76E-06,0.00715125
,,,2.77E-06,0.007189375
,,,2.78E-06,0.00714125
,,,2.79E-06,0.006794375
,,,2.8E-06,0.00710375
,,,2.81E-06,0.007275625
,,,2.82E-06,0.00714
,,,2.83E-06,0.007365
,,,2.84E-06,0.007175625
,,,2.85E-06,0.00724875
,,,2.86E-06,0.007185625
,,,2.87E-06,0.00734125
,,,2.88E-06,0.00722
,,,2.89E-06,0.007190625
,,,2.9E-06,0.007301875
,,,2.91E-06,0.007424375
,,,2.92E-06,0.0070075
,,,2.93E-06,0.00731625
,,,2.94E-06,0.007355
,,,2.95E-06,0.0073775
,,,2.96E-06,0.007255
,,,2.97E-06,0.00732875
,,,2.98E-06,0.0071125
,,,2.99E-06,0.00719
,,,3E-06,0.007211875
,,,3.01E-06,0.00707125
,,,3.02E-06,0.00710875
,,,3.03E-06,0.0071725
,,,3.04E-06,0.007370625
,,,3.05E-06,0.007109375
,,,3.06E-06,0.007643125
,,,3.07E-06,0.0072825
,,,3.08E-06,0.00733125
,,,3.09E-06,0.006945625
,,,3.1E-06,0.0071675
,,,3.11E-06,0.007365
,,,3.12E-06,0.007109375
,,,3.13E-06,0.006944375
,,,3.14E-06,0.007131875
,,,3.15E-06,0.007295625
,,,3.16E-06,0.007165625
,,,3.17E-06,0.007348125
,,,3.18E-06,0.007249375
,,,3.19E-06,0.007076875
,,,3.2E-06,0.0071775
,,,3.21E-06,0.007329375
,,,3.22E-06,0.007228125
,,,3.23E-06,0.0073125
,,,3.24E-06,0.007218125
,,,3.25E-06,0.0075275
,,,3.26E-06,0.00718
,,,3.27E-06,0.00733125
,,,3.28E-06,0.007168125
,,,3.29E-06,0.00731875
,,,3.3E-06,0.00714875
,,,3.31E-06,0.0073725
,,,3.32E-06,0.0073475
,,,3.33E-06,0.00719875
,,,3.34E-06,0.007201875
,,,3.35E-06,0.007190625
,,,3.36E-06,0.007089375
,,,3.37E-06,0.007425
,,,3.38E-06,0.00740625
,,,3.39E-06,0.007380625
,,,3.4E-06,0.0071575
,,,3.41E-06,0.007386875
,,,3.42E-06,0.007360625
,,,3.43E-06,0.007149375
,,,3.44E-06,0.007228125
,,,3.45E-06,0.00711875
,,,3.46E-06,0.007045
,,,3.47E-06,0.00726125
,,,3.48E-06,0.00726
,,,3.49E-06,0.007355625
,,,3.5E-06,0.007158125
,,,3.51E-06,0.007
,,,3.52E-06,0.007030625
,,,3.53E-06,0.007209375
,,,3.54E-06,0.007316875
,,,3.55E-06,0.00751
,,,3.56E-06,0.00747625
,,,3.57E-06,0.0070525
,,,3.58E-06,0.00739125
