data/raw/Final_POL_Test_1/SOP014_Ch3.csv

"Record Length",1000,"Points",-5E-06,0.018119376
"Sample Interval",1E-08,s,-4.99E-06,0.018080001
"Trigger Point",500,"Samples",-4.98E-06,0.018393126
"Trigger Time",0,s,-4.97E-06,0.017963126
"",,,-4.96E-06,0.018087501
"Horizontal Offset",-5E-06,s,-4.95E-06,0.018245626
,,,-4.94E-06,0.018267501
,,,-4.93E-06,0.018108751
,,,-4.92E-06,0.018011251
,,,-4.91E-06,0.017930001
,,,-4.9E-06,0.018011251
,,,-4.89E-06,0.017990001
,,,-4.88E-06,0.018130626
,,,-4.87E-06,0.018196251
,,,-4.86E-06,0.018016876
,,,-4.85E-06,0.018210626
,,,-4.84E-06,0.017972501
,,,-4.83E-06,0.017960001
,,,-4.82E-06,0.018246251
,,,-4.81E-06,0.018140626
,,,-4.8E-06,0.017871876
,,,-4.79E-06,0.018097501
,,,-4.78E-06,0.018102501
,,,-4.77E-06,0.018301876
,,,-4.76E-06,0.018190626
,,,-4.75E-06,0.018021251
,,,-4.74E-06,0.018304376
,,,-4.73E-06,0.017998751
,,,-4.72E-06,0.018066251
,,,-4.71E-06,0.018345001
,,,-4.7E-06,0.018243126
,,,-4.69E-06,0.018083751
,,,-4.68E-06,0.018315626
,,,-4.67E-06,0.018071876
,,,-4.66E-06,0.018065626
,,,-4.65E-06,0.017966876
,,,-4.64E-06,0.018184376
,,,-4.63E-06,0.018157501
,,,-4.62E-06,0.018120001
,,,-4.61E-06,0.018176876
,,,-4.6E-06,0.018040626
,,,-4.59E-06,0.018130001
,,,-4.58E-06,0.018453126
,,,-4.57E-06,0.018006251
,,,-4.56E-06,0.018066876
,,,-4.55E-06,0.017930001
,,,-4.54E-06,0.018125626
,,,-4.53E-06,0.018233126
,,,-4.52E-06,0.017856876
,,,-4.51E-06,0.017934376
,,,-4.5E-06,0.017885626
,,,-4.49E-06,0.017962501
,,,-4.48E-06,0.018230626
,,,-4.47E-06,0.018008126
,,,-4.46E-06,0.018234376
,,,-4.45E-06,0.018053751
,,,-4.44E-06,0.018361876
,,,-4.43E-06,0.017940626
,,,-4.42E-06,0.018135001
,,,-4.41E-06,0.017979376
,,,-4.4E-06,0.017907501
,,,-4.39E-06,0.018125626
,,,-4.38E-06,0.018232501
,,,-4.37E-06,0.018261876
,,,-4.36E-06,0.018182501
,,,-4.35E-06,0.018370626
,,,-4.34E-06,0.018270001
,,,-4.33E-06,0.017915001
,,,-4.32E-06,0.018233126
,,,-4.31E-06,0.018023751
,,,-4.3E-06,0.017940001
,,,-4.29E-06,0.018260001
,,,-4.28E-06,0.018305626
,,,-4.27E-06,0.017851251
,,,-4.26E-06,0.018285626
,,,-4.25E-06,0.018356251
,,,-4.24E-06,0.018161251
,,,-4.23E-06,0.017908126
,,,-4.22E-06,0.017976876
,,,-4.21E-06,0.018165001
,,,-4.2E-06,0.018246251
,,,-4.19E-06,0.018231251
,,,-4.18E-06,0.018258126
,,,-4.17E-06,0.018192501
,,,-4.16E-06,0.018036251
,,,-4.15E-06,0.018121876
,,,-4.14E-06,0.018124376
,,,-4.13E-06,0.018023126
,,,-4.12E-06,0.018163126
,,,-4.11E-06,0.018093751
,,,-4.1E-06,0.017972501
,,,-4.09E-06,0.017996251
,,,-4.08E-06,0.018240001
,,,-4.07E-06,0.018233751
,,,-4.06E-06,0.017916876
,,,-4.05E-06,0.018247501
,,,-4.04E-06,0.018203126
,,,-4.03E-06,0.018118126
,,,-4.02E-06,0.018091251
,,,-4.01E-06,0.018290001
,,,-4E-06,0.018138751
,,,-3.99E-06,0.018120001
,,,-3.98E-06,0.018109376
,,,-3.97E-06,0.017886876
,,,-3.96E-06,0.018023126
,,,-3.95E-06,0.018195626
,,,-3.94E-06,0.018028751
,,,-3.93E-06,0.017954376
,,,-3.92E-06,0.018152501
,,,-3.91E-06,0.018046876
,,,-3.9E-06,0.018176251
,,,-3.89E-06,0.018184376
,,,-3.88E-06,0.018205001
,,,-3.87E-06,0.018298126
,,,-3.86E-06,0.018237501
,,,-3.85E-06,0.018090001
,,,-3.84E-06,0.018173126
,,,-3.83E-06,0.018342501
,,,-3.82E-06,0.018180626
,,,-3.81E-06,0.018021876
,,,-3.8E-06,0.017913126
,,,-3.79E-06,0.017775001
,,,-3.78E-06,0.018066876
,,,-3.77E-06,0.018136876
,,,-3.76E-06,0.017998751
,,,-3.75E-06,0.018366251
,,,-3.74E-06,0.018026876
,,,-3.73E-06,0.017923751
,,,-3.72E-06,0.018145001
,,,-3.71E-06,0.018157501
,,,-3.7E-06,0.018191251
,,,-3.69E-06,0.018208751
,,,-3.68E-06,0.018188126
,,,-3.67E-06,0.018186876
,,,-3.66E-06,0.017935626
,,,-3.65E-06,0.018056251
,,,-3.64E-06,0.018086876
,,,-3.63E-06,0.018000626
,,,-3.62E-06,0.018256876
,,,-3.61E-06,0.018090001
,,,-3.6E-06,0.018175626
,,,-3.59E-06,0.018049376
,,,-3.58E-06,0.018001876
,,,-3.57E-06,0.018062501
,,,-3.56E-06,0.017913751
,,,-3.55E-06,0.018319376
,,,-3.54E-06,0.017922501
,,,-3.53E-06,0.018168126
,,,-3.52E-06,0.018270001
,,,-3.51E-06,0.018044376
,,,-3.5E-06,0.018053751
,,,-3.49E-06,0.018238751
,,,-3.48E-06,0.017928126
,,,-3.47E-06,0.018069376
,,,-3.46E-06,0.018236251
,,,-3.45E-06,0.018183126
,,,-3.44E-06,0.017945626
,,,-3.43E-06,0.017874376
,,,-3.42E-06,0.018299376
,,,-3.41E-06,0.017976876
,,,-3.4E-06,0.017951876
,,,-3.39E-06,0.018205626
,,,-3.38E-06,0.018217501
,,,-3.37E-06,0.018262501
,,,-3.36E-06,0.018113751
,,,-3.35E-06,0.018166251
,,,-3.34E-06,0.018080001
,,,-3.33E-06,0.018156251
,,,-3.32E-06,0.018118126
,,,-3.31E-06,0.017981876
,,,-3.3E-06,0.017923751
,,,-3.29E-06,0.017898751
,,,-3.28E-06,0.018014376
,,,-3.27E-06,0.018108126
,,,-3.26E-06,0.018358126
,,,-3.25E-06,0.018054376
,,,-3.24E-06,0.018350001
,,,-3.23E-06,0.018291876
,,,-3.22E-06,0.017979376
,,,-3.21E-06,0.018090626
,,,-3.2E-06,0.018041251
,,,-3.19E-06,0.018126251
,,,-3.18E-06,0.017993126
,,,-3.17E-06,0.018056251
,,,-3.16E-06,0.017866876
,,,-3.15E-06,0.018230001
,,,-3.14E-06,0.018271876
,,,-3.13E-06,0.017829376
,,,-3.12E-06,0.018063751
,,,-3.11E-06,0.017946876
,,,-3.1E-06,0.018001251
,,,-3.09E-06,0.018071251
,,,-3.08E-06,0.018072501
,,,-3.07E-06,0.018038126
,,,-3.06E-06,0.018168751
,,,-3.05E-06,0.018060626
,,,-3.04E-06,0.018168126
,,,-3.03E-06,0.018420001
,,,-3.02E-06,0.018133751
,,,-3.01E-06,0.018143126
,,,-3E-06,0.018117501
,,,-2.99E-06,0.018221251
,,,-2.98E-06,0.018183126
,,,-2.97E-06,0.018080001
,,,-2.96E-06,0.018121876
,,,-2.95E-06,0.018178126
,,,-2.94E-06,0.018209376
,,,-2.93E-06,0.017933126
,,,-2.92E-06,0.018113126
,,,-2.91E-06,0.017849376
,,,-2.9E-06,0.018080626
,,,-2.89E-06,0.018026251
,,,-2.88E-06,0.017936251
,,,-2.87E-06,0.018185626
,,,-2.86E-06,0.018283751
,,,-2.85E-06,0.018268126
,,,-2.84E-06,0.018185626
,,,-2.83E-06,0.017886876
,,,-2.82E-06,0.018085626
,,,-2.81E-06,0.018046251
,,,-2.8E-06,0.018135626
,,,-2.79E-06,0.017921876
,,,-2.78E-06,0.018219376
,,,-2.77E-06,0.018086251
,,,-2.76E-06,0.018247501
,,,-2.75E-06,0.018203751
,,,-2.74E-06,0.017978751
,,,-2.73E-06,0.018032501
,,,-2.72E-06,0.018054376
,,,-2.71E-06,0.017735626
,,,-2.7E-06,0.017963126
,,,-2.69E-06,0.018211876
,,,-2.68E-06,0.018224376
,,,-2.67E-06,0.018129376
,,,-2.66E-06,0.018371876
,,,-2.65E-06,0.017945001
,,,-2.64E-06,0.017940001
,,,-2.63E-06,0.018194376
,,,-2.62E-06,0.018154376
,,,-2.61E-06,0.018023126
,,,-2.6E-06,0.018125626
,,,-2.59E-06,0.018214376
,,,-2.58E-06,0.017905001
,,,-2.57E-06,0.018030001
,,,-2.56E-06,0.018060626
,,,-2.55E-06,0.018324376
,,,-2.54E-06,0.017933751
,,,-2.53E-06,0.017932501
,,,-2.52E-06,0.017967501
,,,-2.51E-06,0.018020001
,,,-2.5E-06,0.017906251
,,,-2.49E-06,0.018082501
,,,-2.48E-06,0.018022501
,,,-2.47E-06,0.017984376
,,,-2.46E-06,0.017935001
,,,-2.45E-06,0.018117501
,,,-2.44E-06,0.018045001
,,,-2.43E-06,0.017929376
,,,-2.42E-06,0.018346876
,,,-2.41E-06,0.018183126
,,,-2.4E-06,0.018118751
,,,-2.39E-06,0.018215626
,,,-2.38E-06,0.018058126
,,,-2.37E-06,0.018188126
,,,-2.36E-06,0.018003751
,,,-2.35E-06,0.018222501
,,,-2.34E-06,0.018136251
,,,-2.33E-06,0.017966876
,,,-2.32E-06,0.018065626
,,,-2.31E-06,0.017951251
,,,-2.3E-06,0.018261251
,,,-2.29E-06,0.018048126
,,,-2.28E-06,0.018086251
,,,-2.27E-06,0.018373751
,,,-2.26E-06,0.017872501
,,,-2.25E-06,0.018213751
,,,-2.24E-06,0.017938126
,,,-2.23E-06,0.018226251
,,,-2.22E-06,0.018101876
,,,-2.21E-06,0.018318751
,,,-2.2E-06,0.018204376
,,,-2.19E-06,0.017963126
,,,-2.18E-06,0.018031876
,,,-2.17E-06,0.018069376
,,,-2.16E-06,0.018240001
,,,-2.15E-06,0.018093751
,,,-2.14E-06,0.018133126
,,,-2.13E-06,0.018218126
,,,-2.12E-06,0.018306251
,,,-2.11E-06,0.018130001
,,,-2.1E-06,0.017960001
,,,-2.09E-06,0.018008126
,,,-2.08E-06,0.017984376
,,,-2.07E-06,0.018276876
,,,-2.06E-06,0.018331251
,,,-2.05E-06,0.018288126
,,,-2.04E-06,0.018136251
,,,-2.03E-06,0.018029376
,,,-2.02E-06,0.018126876
,,,-2.01E-06,0.018087501
,,,-2E-06,0.018265626
,,,-1.99E-06,0.017975001
,,,-1.98E-06,0.018065626
,,,-1.97E-06,0.018189376
,,,-1.96E-06,0.017933751
,,,-1.95E-06,0.018256251
,,,-1.94E-06,0.018086876
,,,-1.93E-06,0.018254376
,,,-1.92E-06,0.018045626
,,,-1.91E-06,0.018164376
,,,-1.9E-06,0.018259376
,,,-1.89E-06,0.017898751
,,,-1.88E-06,0.018210001
,,,-1.87E-06,0.018425001
,,,-1.86E-06,0.017981876
,,,-1.85E-06,0.018273126
,,,-1.84E-06,0.018092501
,,,-1.83E-06,0.018061876
,,,-1.82E-06,0.018198751
,,,-1.81E-06,0.018326251
,,,-1.8E-06,0.018131876
,,,-1.79E-06,0.018084376
,,,-1.78E-06,0.018185001
,,,-1.77E-06,0.017928751
,,,-1.76E-06,0.017746251
,,,-1.75E-06,0.017966251
,,,-1.74E-06,0.018176251
,,,-1.73E-06,0.018093751
,,,-1.72E-06,0.017946876
,,,-1.71E-06,0.017930626
,,,-1.7E-06,0.018085626
,,,-1.69E-06,0.018027501
,,,-1.68E-06,0.017963126
,,,-1.67E-06,0.018088751
,,,-1.66E-06,0.018183751
,,,-1.65E-06,0.018215001
,,,-1.64E-06,0.018056876
,,,-1.63E-06,0.018151251
,,,-1.62E-06,0.017964376
,,,-1.61E-06,0.018150626
,,,-1.6E-06,0.018201251
,,,-1.59E-06,0.017928751
,,,-1.58E-06,0.017998751
,,,-1.57E-06,0.018243126
,,,-1.56E-06,0.018158126
,,,-1.55E-06,0.018020626
,,,-1.54E-06,0.018203126
,,,-1.53E-06,0.017790001
,,,-1.52E-06,0.018090626
,,,-1.51E-06,0.017898751
,,,-1.5E-06,0.018123751
,,,-1.49E-06,0.018009376
,,,-1.48E-06,0.018226876
,,,-1.47E-06,0.017981251
,,,-1.46E-06,0.018059376
,,,-1.45E-06,0.018163126
,,,-1.44E-06,0.018213751
,,,-1.43E-06,0.017922501
,,,-1.42E-06,0.018048751
,,,-1.41E-06,0.018420001
,,,-1.4E-06,0.017772501
,,,-1.39E-06,0.018211251
,,,-1.38E-06,0.018132501
,,,-1.37E-06,0.018198751
,,,-1.36E-06,0.018120001
,,,-1.35E-06,0.018063126
,,,-1.34E-06,0.017936876
,,,-1.33E-06,0.017989376
,,,-1.32E-06,0.018109376
,,,-1.31E-06,0.018035626
,,,-1.3E-06,0.017972501
,,,-1.29E-06,0.018093126
,,,-1.28E-06,0.018159376
,,,-1.27E-06,0.018143126
,,,-1.26E-06,0.018115001
,,,-1.25E-06,0.018353751
,,,-1.24E-06,0.018093751
,,,-1.23E-06,0.017948126
,,,-1.22E-06,0.018004376
,,,-1.21E-06,0.018168751
,,,-1.2E-06,0.018301876
,,,-1.19E-06,0.018070001
,,,-1.18E-06,0.017865626
,,,-1.17E-06,0.018188751
,,,-1.16E-06,0.017909376
,,,-1.15E-06,0.017981876
,,,-1.14E-06,0.018415626
,,,-1.13E-06,0.017996876
,,,-1.12E-06,0.017936251
,,,-1.11E-06,0.018069376
,,,-1.1E-06,0.018257501
,,,-1.09E-06,0.018068126
,,,-1.08E-06,0.017900626
,,,-1.07E-06,0.018073751
,,,-1.06E-06,0.018075626
,,,-1.05E-06,0.018080626
,,,-1.04E-06,0.018166876
,,,-1.03E-06,0.018241251
,,,-1.02E-06,0.018017501
,,,-1.01E-06,0.018006251
,,,-1E-06,0.018213126
,,,-9.9E-07,0.018156251
,,,-9.8E-07,0.018109376
,,,-9.7E-07,0.018186251
,,,-9.6E-07,0.018338126
,,,-9.5E-07,0.017991876
,,,-9.4E-07,0.017816876
,,,-9.3E-07,0.018236251
,,,-9.2E-07,0.017945001
,,,-9.1E-07,0.018306876
,,,-9E-07,0.018108126
,,,-8.9E-07,0.018246251
,,,-8.8E-07,0.018229376
,,,-8.7E-07,0.018256876
,,,-8.6E-07,0.018095626
,,,-8.5E-07,0.017955626
,,,-8.4E-07,0.017886876
,,,-8.3E-07,0.017887501
,,,-8.2E-07,0.018100626
,,,-8.1E-07,0.017788751
,,,-8E-07,0.018216876
,,,-7.9E-07,0.018125626
,,,-7.8E-07,0.017996876
,,,-7.7E-07,0.018002501
,,,-7.6E-07,0.018075001
,,,-7.5E-07,0.017868751
,,,-7.4E-07,0.018230001
,,,-7.3E-07,0.017946876
,,,-7.2E-07,0.018147501
,,,-7.1E-07,0.017961876
,,,-7E-07,0.018218751
,,,-6.9E-07,0.018455001
,,,-6.8E-07,0.018150001
,,,-6.7E-07,0.018010626
,,,-6.6E-07,0.018144376
,,,-6.5E-07,0.018084376
,,,-6.4E-07,0.018027501
,,,-6.3E-07,0.018013126
,,,-6.2E-07,0.018225001
,,,-6.1E-07,0.018175626
,,,-6E-07,0.018130626
,,,-5.9E-07,0.018163126
,,,-5.8E-07,0.017818126
,,,-5.7E-07,0.017923751
,,,-5.6E-07,0.018357501
,,,-5.5E-07,0.018184376
,,,-5.4E-07,0.018109376
,,,-5.3E-07,0.018290001
,,,-5.2E-07,0.018220001
,,,-5.1E-07,0.018016876
,,,-5E-07,0.017950626
,,,-4.9E-07,0.018203126
,,,-4.8E-07,0.018101876
,,,-4.7E-07,0.018040626
,,,-4.6E-07,0.018137501
,,,-4.5E-07,0.018226876
,,,-4.4E-07,0.017958126
,,,-4.3E-07,0.018100626
,,,-4.2E-07,0.018240001
,,,-4.1E-07,0.018284376
,,,-4E-07,0.018040001
,,,-3.9E-07,0.018171876
,,,-3.8E-07,0.018193751
,,,-3.7E-07,0.018202501
,,,-3.6E-07,0.018221876
,,,-3.5E-07,0.017913751
,,,-3.4E-07,0.018117501
,,,-3.3E-07,0.018060001
,,,-3.2E-07,0.018006876
,,,-3.1E-07,0.018076251
,,,-3E-07,0.018099376
,,,-2.9E-07,0.018164376
,,,-2.8E-07,0.017942501
,,,-2.7E-07,0.018107501
,,,-2.6E-07,0.018275626
,,,-2.5E-07,0.018053751
,,,-2.4E-07,0.018415001
,,,-2.3E-07,0.018165626
,,,-2.2E-07,0.018151251
,,,-2.1E-07,0.018051876
,,,-2E-07,0.017975001
,,,-1.9E-07,0.018198126
,,,-1.8E-07,0.018151251
,,,-1.7E-07,0.018053751
,,,-1.6E-07,0.017897501
,,,-1.5E-07,0.018295001
,,,-1.4E-07,0.018131251
,,,-1.3E-07,0.017981876
,,,-1.2E-07,0.018173126
,,,-1.1E-07,0.018159376
,,,-1E-07,0.018285001
,,,-9E-08,0.018015626
,,,-8E-08,0.018210001
,,,-7E-08,0.017720626
,,,-6E-08,0.018023751
,,,-5E-08,0.018520001
,,,-4E-08,0.018950001
,,,-3E-08,0.018143751
,,,-2E-08,0.017314376
,,,-1E-08,0.017086251
,,,0,0.017961251
,,,1E-08,0.018840626
,,,2E-08,0.019276876
,,,3E-08,0.019051876
,,,4E-08,0.017993751
,,,5E-08,0.017295001
,,,6E-08,0.017159376
,,,7E-08,0.017766876
,,,8E-08,0.018464376
,,,9E-08,0.018727501
,,,1E-07,0.018621876
,,,1.1E-07,0.018151876
,,,1.2E-07,0.017621251
,,,1.3E-07,0.017506876
,,,1.4E-07,0.017682501
,,,1.5E-07,0.018126876
,,,1.6E-07,0.018326251
,,,1.7E-07,0.018151251
,,,1.8E-07,0.018185001
,,,1.9E-07,0.018141876
,,,2E-07,0.018071251
,,,2.1E-07,0.018129376
,,,2.2E-07,0.018233126
,,,2.3E-07,0.018041251
,,,2.4E-07,0.018176876
,,,2.5E-07,0.018147501
,,,2.6E-07,0.018081251
,,,2.7E-07,0.018235626
,,,2.8E-07,0.018025626
,,,2.9E-07,0.017773751
,,,3E-07,0.017838126
,,,3.1E-07,0.018071876
,,,3.2E-07,0.018215001
,,,3.3E-07,0.018334376
,,,3.4E-07,0.018232501
,,,3.5E-07,0.018001251
,,,3.6E-07,0.018090626
,,,3.7E-07,0.017912501
,,,3.8E-07,0.018157501
,,,3.9E-07,0.018324376
,,,4E-07,0.018122501
,,,4.1E-07,0.017948751
,,,4.2E-07,0.018265626
,,,4.3E-07,0.018126251
,,,4.4E-07,0.018025626
,,,4.5E-07,0.018097501
,,,4.6E-07,0.018071876
,,,4.7E-07,0.018250001
,,,4.8E-07,0.017988751
,,,4.9E-07,0.018148751
,,,5E-07,0.018065626
,,,5.1E-07,0.018358126
,,,5.2E-07,0.018053126
,,,5.3E-07,0.018179376
,,,5.4E-07,0.017687501
,,,5.5E-07,0.018205626
,,,5.6E-07,0.018028751
,,,5.7E-07,0.017970001
,,,5.8E-07,0.018093751
,,,5.9E-07,0.018022501
,,,6E-07,0.018018751
,,,6.1E-07,0.018051876
,,,6.2E-07,0.018075001
,,,6.3E-07,0.017967501
,,,6.4E-07,0.018273126
,,,6.5E-07,0.018059376
,,,6.6E-07,0.017918126
,,,6.7E-07,0.018453126
,,,6.8E-07,0.018211251
,,,6.9E-07,0.018348751
,,,7E-07,0.018190001
,,,7.1E-07,0.018323126
,,,7.2E-07,0.018318751
,,,7.3E-07,0.017962501
,,,7.4E-07,0.018325001
,,,7.5E-07,0.018183751
,,,7.6E-07,0.018282501
,,,7.7E-07,0.018170626
,,,7.8E-07,0.018072501
,,,7.9E-07,0.018083751
,,,8E-07,0.018019376
,,,8.1E-07,0.018320626
,,,8.2E-07,0.017976251
,,,8.3E-07,0.018146876
,,,8.4E-07,0.017769376
,,,8.5E-07,0.018229376
,,,8.6E-07,0.018207501
,,,8.7E-07,0.018111876
,,,8.8E-07,0.018200001
,,,8.9E-07,0.017925001
,,,9E-07,0.018166251
,,,9.1E-07,0.018243126
,,,9.2E-07,0.018061876
,,,9.3E-07,0.017775001
,,,9.4E-07,0.017963751
,,,9.5E-07,0.018066251
,,,9.6E-07,0.018076876
,,,9.7E-07,0.018161876
,,,9.8E-07,0.018120001
,,,9.9E-07,0.018171876
,,,1E-06,0.017972501
,,,1.01E-06,0.017733751
,,,1.02E-06,0.018047501
,,,1.03E-06,0.018066251
,,,1.04E-06,0.017935001
,,,1.05E-06,0.018122501
,,,1.06E-06,0.018092501
,,,1.07E-06,0.018258751
,,,1.08E-06,0.018058751
,,,1.09E-06,0.018252501
,,,1.1E-06,0.018241251
,,,1.11E-06,0.018163751
,,,1.12E-06,0.018091251
,,,1.13E-06,0.018064376
,,,1.14E-06,0.018318126
,,,1.15E-06,0.018134376
,,,1.16E-06,0.018022501
,,,1.17E-06,0.018178751
,,,1.18E-06,0.017876251
,,,1.19E-06,0.017993126
,,,1.2E-06,0.018224376
,,,1.21E-06,0.017913126
,,,1.22E-06,0.018115001
,,,1.23E-06,0.017846876
,,,1.24E-06,0.018146251
,,,1.25E-06,0.017907501
,,,1.26E-06,0.018022501
,,,1.27E-06,0.018035626
,,,1.28E-06,0.017964376
,,,1.29E-06,0.018420626
,,,1.3E-06,0.017811251
,,,1.31E-06,0.017805626
,,,1.32E-06,0.018241251
,,,1.33E-06,0.017916251
,,,1.34E-06,0.018113126
,,,1.35E-06,0.018226876
,,,1.36E-06,0.018364376
,,,1.37E-06,0.018121876
,,,1.38E-06,0.018015626
,,,1.39E-06,0.018161251
,,,1.4E-06,0.018041251
,,,1.41E-06,0.018188751
,,,1.42E-06,0.018178751
,,,1.43E-06,0.018119376
,,,1.44E-06,0.018086251
,,,1.45E-06,0.018186251
,,,1.46E-06,0.018076251
,,,1.47E-06,0.018090626
,,,1.48E-06,0.018193751
,,,1.49E-06,0.017939376
,,,1.5E-06,0.018140626
,,,1.51E-06,0.018041876
,,,1.52E-06,0.018059376
,,,1.53E-06,0.018063126
,,,1.54E-06,0.018050626
,,,1.55E-06,0.018257501
,,,1.56E-06,0.017942501
,,,1.57E-06,0.018247501
,,,1.58E-06,0.018056876
,,,1.59E-06,0.018081251
,,,1.6E-06,0.018097501
,,,1.61E-06,0.018209376
,,,1.62E-06,0.018275001
,,,1.63E-06,0.018340001
,,,1.64E-06,0.018146251
,,,1.65E-06,0.018377501
,,,1.66E-06,0.017987501
,,,1.67E-06,0.018168751
,,,1.68E-06,0.018011876
,,,1.69E-06,0.017915001
,,,1.7E-06,0.018288126
,,,1.71E-06,0.018158751
,,,1.72E-06,0.018032501
,,,1.73E-06,0.018095626
,,,1.74E-06,0.018133751
,,,1.75E-06,0.018329376
,,,1.76E-06,0.018138751
,,,1.77E-06,0.018311876
,,,1.78E-06,0.018010001
,,,1.79E-06,0.018057501
,,,1.8E-06,0.018220001
,,,1.81E-06,0.017883126
,,,1.82E-06,0.018035001
,,,1.83E-06,0.018340626
,,,1.84E-06,0.018018751
,,,1.85E-06,0.018076876
,,,1.86E-06,0.017978751
,,,1.87E-06,0.017921876
,,,1.88E-06,0.017986876
,,,1.89E-06,0.018285626
,,,1.9E-06,0.018177501
,,,1.91E-06,0.018203751
,,,1.92E-06,0.017985626
,,,1.93E-06,0.018207501
,,,1.94E-06,0.017987501
,,,1.95E-06,0.018313126
,,,1.96E-06,0.018072501
,,,1.97E-06,0.018088126
,,,1.98E-06,0.018387501
,,,1.99E-06,0.018376251
,,,2E-06,0.018160001
,,,2.01E-06,0.018118751
,,,2.02E-06,0.018198751
,,,2.03E-06,0.018096251
,,,2.04E-06,0.018217501
,,,2.05E-06,0.018006876
,,,2.06E-06,0.018138751
,,,2.07E-06,0.018150626
,,,2.08E-06,0.018070626
,,,2.09E-06,0.018001251
,,,2.1E-06,0.017856251
,,,2.11E-06,0.018166876
,,,2.12E-06,0.017878751
,,,2.13E-06,0.018360626
,,,2.14E-06,0.018056876
,,,2.15E-06,0.018082501
,,,2.16E-06,0.018211876
,,,2.17E-06,0.018078126
,,,2.18E-06,0.018048751
,,,2.19E-06,0.018088751
,,,2.2E-06,0.018233126
,,,2.21E-06,0.018072501
,,,2.22E-06,0.018148751
,,,2.23E-06,0.017931251
,,,2.24E-06,0.018140626
,,,2.25E-06,0.018145001
,,,2.26E-06,0.018157501
,,,2.27E-06,0.018090001
,,,2.28E-06,0.018207501
,,,2.29E-06,0.018363126
,,,2.3E-06,0.018083751
,,,2.31E-06,0.018161251
,,,2.32E-06,0.018230626
,,,2.33E-06,0.018134376
,,,2.34E-06,0.018090626
,,,2.35E-06,0.018186876
,,,2.36E-06,0.018153126
,,,2.37E-06,0.018172501
,,,2.38E-06,0.018090626
,,,2.39E-06,0.018109376
,,,2.4E-06,0.018072501
,,,2.41E-06,0.018421876
,,,2.42E-06,0.018180001
,,,2.43E-06,0.018075001
,,,2.44E-06,0.018011876
,,,2.45E-06,0.017931251
,,,2.46E-06,0.018106876
,,,2.47E-06,0.017932501
,,,2.48E-06,0.017935626
,,,2.49E-06,0.018090001
,,,2.5E-06,0.018105001
,,,2.51E-06,0.018081876
,,,2.52E-06,0.017983126
,,,2.53E-06,0.017960626
,,,2.54E-06,0.017976251
,,,2.55E-06,0.018090626
,,,2.56E-06,0.018065626
,,,2.57E-06,0.018085001
,,,2.58E-06,0.017928126
,,,2.59E-06,0.018097501
,,,2.6E-06,0.018145001
,,,2.61E-06,0.018097501
,,,2.62E-06,0.018308751
,,,2.63E-06,0.018031876
,,,2.64E-06,0.018089376
,,,2.65E-06,0.018115626
,,,2.66E-06,0.017960001
,,,2.67E-06,0.018179376
,,,2.68E-06,0.018016251
,,,2.69E-06,0.018330001
,,,2.7E-06,0.017790001
,,,2.71E-06,0.018139376
,,,2.72E-06,0.018193751
,,,2.73E-06,0.017940626
,,,2.74E-06,0.018100001
,,,2.75E-06,0.018138751
,,,2.76E-06,0.018080626
,,,2.77E-06,0.018028126
,,,2.78E-06,0.018271251
,,,2.79E-06,0.018006251
,,,2.8E-06,0.018105001
,,,2.81E-06,0.018285626
,,,2.82E-06,0.018081251
,,,2.83E-06,0.017888751
,,,2.84E-06,0.018213751
,,,2.85E-06,0.018112501
,,,2.86E-06,0.018129376
,,,2.87E-06,0.018062501
,,,2.88E-06,0.017865001
,,,2.89E-06,0.018007501
,,,2.9E-06,0.018025001
,,,2.91E-06,0.018233126
,,,2.92E-06,0.018189376
,,,2.93E-06,0.018110001
,,,2.94E-06,0.018282501
,,,2.95E-06,0.018240001
,,,2.96E-06,0.017895626
,,,2.97E-06,0.018054376
,,,2.98E-06,0.018103751
,,,2.99E-06,0.018097501
,,,3E-06,0.018168126
,,,3.01E-06,0.018270001
,,,3.02E-06,0.018030001
,,,3.03E-06,0.018045626
,,,3.04E-06,0.018206876
,,,3.05E-06,0.018086876
,,,3.06E-06,0.017980626
,,,3.07E-06,0.018306251
,,,3.08E-06,0.018136251
,,,3.09E-06,0.018043751
,,,3.1E-06,0.018081251
,,,3.11E-06,0.018149376
,,,3.12E-06,0.018091876
,,,3.13E-06,0.018054376
,,,3.14E-06,0.018145626
,,,3.15E-06,0.018148126
,,,3.16E-06,0.017927501
,,,3.17E-06,0.018161251
,,,3.18E-06,0.017846876
,,,3.19E-06,0.018086876
,,,3.2E-06,0.018040626
,,,3.21E-06,0.018120626
