data/raw/Final_POL_Test_1/SOP019_Ch1.csv

"Record Length",1000,"Points",-5E-06,0.00758125
"Sample Interval",1E-08,s,-4.99E-06,0.007420625
"Trigger Point",500,"Samples",-4.98E-06,0.007536875
"Trigger Time",0,s,-4.97E-06,0.007311875
"",,,-4.96E-06,0.00733125
"Horizontal Offset",-5E-06,s,-4.95E-06,0.007639375
,,,-4.94E-06,0.00725375
,,,-4.93E-06,0.0072375
,,,-4.92E-06,0.007569375
,,,-4.91E-06,0.007261875
,,,-4.9E-06,0.007724375
,,,-4.89E-06,0.00725
,,,-4.88E-06,0.0072425
,,,-4.87E-06,0.007323125
,,,-4.86E-06,0.007466875
,,,-4.85E-06,0.00757375
,,,-4.84E-06,0.007611875
,,,-4.83E-06,0.00753625
,,,-4.82E-06,0.007564375
,,,-4.81E-06,0.007420625
,,,-4.8E-06,0.00752375
,,,-4.79E-06,0.007410625
,,,-4.78E-06,0.00751125
,,,-4.77E-06,0.007686875
,,,-4.76E-06,0.00752125
,,,-4.75E-06,0.00752875
,,,-4.74E-06,0.007341875
,,,-4.73E-06,0.00756
,,,-4.72E-06,0.00758125
,,,-4.71E-06,0.007669375
,,,-4.7E-06,0.007236875
,,,-4.69E-06,0.0074775
,,,-4.68E-06,0.007759375
,,,-4.67E-06,0.007465
,,,-4.66E-06,0.0076975
,,,-4.65E-06,0.0075175
,,,-4.64E-06,0.00737
,,,-4.63E-06,0.007541875
,,,-4.62E-06,0.0074025
,,,-4.61E-06,0.007363125
,,,-4.6E-06,0.007295625
,,,-4.59E-06,0.007528125
,,,-4.58E-06,0.007455625
,,,-4.57E-06,0.007409375
,,,-4.56E-06,0.007554375
,,,-4.55E-06,0.00749
,,,-4.54E-06,0.0074325
,,,-4.53E-06,0.007569375
,,,-4.52E-06,0.007430625
,,,-4.51E-06,0.007513125
,,,-4.5E-06,0.007288125
,,,-4.49E-06,0.007556875
,,,-4.48E-06,0.00747375
,,,-4.47E-06,0.00764375
,,,-4.46E-06,0.007535625
,,,-4.45E-06,0.007625
,,,-4.44E-06,0.00743125
,,,-4.43E-06,0.007281875
,,,-4.42E-06,0.007113125
,,,-4.41E-06,0.007601875
,,,-4.4E-06,0.00751
,,,-4.39E-06,0.0074225
,,,-4.38E-06,0.0073775
,,,-4.37E-06,0.00729
,,,-4.36E-06,0.007584375
,,,-4.35E-06,0.00764375
,,,-4.34E-06,0.007739375
,,,-4.33E-06,0.007414375
,,,-4.32E-06,0.00737125
,,,-4.31E-06,0.00757875
,,,-4.3E-06,0.007424375
,,,-4.29E-06,0.007398125
,,,-4.28E-06,0.007706875
,,,-4.27E-06,0.007409375
,,,-4.26E-06,0.007271875
,,,-4.25E-06,0.007243125
,,,-4.24E-06,0.00762
,,,-4.23E-06,0.007515625
,,,-4.22E-06,0.0076725
,,,-4.21E-06,0.007410625
,,,-4.2E-06,0.00742125
,,,-4.19E-06,0.007391875
,,,-4.18E-06,0.007171875
,,,-4.17E-06,0.00763125
,,,-4.16E-06,0.007599375
,,,-4.15E-06,0.00748125
,,,-4.14E-06,0.00737375
,,,-4.13E-06,0.007535
,,,-4.12E-06,0.007424375
,,,-4.11E-06,0.007443125
,,,-4.1E-06,0.007664375
,,,-4.09E-06,0.007715
,,,-4.08E-06,0.00754875
,,,-4.07E-06,0.007306875
,,,-4.06E-06,0.00748
,,,-4.05E-06,0.007513125
,,,-4.04E-06,0.007575
,,,-4.03E-06,0.007611875
,,,-4.02E-06,0.00722875
,,,-4.01E-06,0.00738
,,,-4E-06,0.007243125
,,,-3.99E-06,0.007591875
,,,-3.98E-06,0.007245
,,,-3.97E-06,0.0074725
,,,-3.96E-06,0.007649375
,,,-3.95E-06,0.0074925
,,,-3.94E-06,0.0074125
,,,-3.93E-06,0.007405
,,,-3.92E-06,0.00745
,,,-3.91E-06,0.007360625
,,,-3.9E-06,0.00768125
,,,-3.89E-06,0.0075025
,,,-3.88E-06,0.007405
,,,-3.87E-06,0.007169375
,,,-3.86E-06,0.007278125
,,,-3.85E-06,0.007401875
,,,-3.84E-06,0.007328125
,,,-3.83E-06,0.00747125
,,,-3.82E-06,0.007631875
,,,-3.81E-06,0.00747125
,,,-3.8E-06,0.0074425
,,,-3.79E-06,0.007503125
,,,-3.78E-06,0.007471875
,,,-3.77E-06,0.00732
,,,-3.76E-06,0.007628125
,,,-3.75E-06,0.007310625
,,,-3.74E-06,0.0075975
,,,-3.73E-06,0.007559375
,,,-3.72E-06,0.007558125
,,,-3.71E-06,0.0075225
,,,-3.7E-06,0.007429375
,,,-3.69E-06,0.00733875
,,,-3.68E-06,0.00742875
,,,-3.67E-06,0.007403125
,,,-3.66E-06,0.007463125
,,,-3.65E-06,0.007544375
,,,-3.64E-06,0.00739875
,,,-3.63E-06,0.00754875
,,,-3.62E-06,0.007285
,,,-3.61E-06,0.0072425
,,,-3.6E-06,0.00762625
,,,-3.59E-06,0.007249375
,,,-3.58E-06,0.00745625
,,,-3.57E-06,0.007280625
,,,-3.56E-06,0.007256875
,,,-3.55E-06,0.007540625
,,,-3.54E-06,0.0073625
,,,-3.53E-06,0.007443125
,,,-3.52E-06,0.00756625
,,,-3.51E-06,0.007453125
,,,-3.5E-06,0.007538125
,,,-3.49E-06,0.007683125
,,,-3.48E-06,0.007535
,,,-3.47E-06,0.007456875
,,,-3.46E-06,0.0076825
,,,-3.45E-06,0.007389375
,,,-3.44E-06,0.007515
,,,-3.43E-06,0.007380625
,,,-3.42E-06,0.0075125
,,,-3.41E-06,0.0075
,,,-3.4E-06,0.00756125
,,,-3.39E-06,0.007621875
,,,-3.38E-06,0.007545625
,,,-3.37E-06,0.00737375
,,,-3.36E-06,0.00746625
,,,-3.35E-06,0.007630625
,,,-3.34E-06,0.00766875
,,,-3.33E-06,0.00750875
,,,-3.32E-06,0.00740875
,,,-3.31E-06,0.007476875
,,,-3.3E-06,0.0076825
,,,-3.29E-06,0.00744375
,,,-3.28E-06,0.007449375
,,,-3.27E-06,0.007323125
,,,-3.26E-06,0.007365625
,,,-3.25E-06,0.007505
,,,-3.24E-06,0.00743625
,,,-3.23E-06,0.00749125
,,,-3.22E-06,0.007491875
,,,-3.21E-06,0.007334375
,,,-3.2E-06,0.00763
,,,-3.19E-06,0.007273125
,,,-3.18E-06,0.007355
,,,-3.17E-06,0.00759375
,,,-3.16E-06,0.00761125
,,,-3.15E-06,0.007368125
,,,-3.14E-06,0.0074125
,,,-3.13E-06,0.007595625
,,,-3.12E-06,0.007515625
,,,-3.11E-06,0.00770125
,,,-3.1E-06,0.007328125
,,,-3.09E-06,0.0074975
,,,-3.08E-06,0.00753125
,,,-3.07E-06,0.007840625
,,,-3.06E-06,0.0074325
,,,-3.05E-06,0.00752625
,,,-3.04E-06,0.00757
,,,-3.03E-06,0.007540625
,,,-3.02E-06,0.00733375
,,,-3.01E-06,0.0076175
,,,-3E-06,0.007511875
,,,-2.99E-06,0.00733625
,,,-2.98E-06,0.00746625
,,,-2.97E-06,0.007509375
,,,-2.96E-06,0.007599375
,,,-2.95E-06,0.0073475
,,,-2.94E-06,0.007345
,,,-2.93E-06,0.007354375
,,,-2.92E-06,0.00735125
,,,-2.91E-06,0.00753375
,,,-2.9E-06,0.00744375
,,,-2.89E-06,0.007335
,,,-2.88E-06,0.00744875
,,,-2.87E-06,0.0074475
,,,-2.86E-06,0.007263125
,,,-2.85E-06,0.00736625
,,,-2.84E-06,0.007439375
,,,-2.83E-06,0.007225
,,,-2.82E-06,0.007275625
,,,-2.81E-06,0.007376875
,,,-2.8E-06,0.00749625
,,,-2.79E-06,0.00743625
,,,-2.78E-06,0.007534375
,,,-2.77E-06,0.0076575
,,,-2.76E-06,0.007253125
,,,-2.75E-06,0.00741375
,,,-2.74E-06,0.007431875
,,,-2.73E-06,0.007436875
,,,-2.72E-06,0.007445
,,,-2.71E-06,0.0073675
,,,-2.7E-06,0.00732625
,,,-2.69E-06,0.00738125
,,,-2.68E-06,0.007489375
,,,-2.67E-06,0.007228125
,,,-2.66E-06,0.007535
,,,-2.65E-06,0.007349375
,,,-2.64E-06,0.00751875
,,,-2.63E-06,0.007474375
,,,-2.62E-06,0.007883125
,,,-2.61E-06,0.007329375
,,,-2.6E-06,0.00763875
,,,-2.59E-06,0.0075275
,,,-2.58E-06,0.007518125
,,,-2.57E-06,0.00760125
,,,-2.56E-06,0.00740875
,,,-2.55E-06,0.007386875
,,,-2.54E-06,0.007266875
,,,-2.53E-06,0.0074525
,,,-2.52E-06,0.0074125
,,,-2.51E-06,0.0075925
,,,-2.5E-06,0.00748125
,,,-2.49E-06,0.007804375
,,,-2.48E-06,0.00772875
,,,-2.47E-06,0.007488125
,,,-2.46E-06,0.007465
,,,-2.45E-06,0.007481875
,,,-2.44E-06,0.007468125
,,,-2.43E-06,0.00726125
,,,-2.42E-06,0.007578125
,,,-2.41E-06,0.00759375
,,,-2.4E-06,0.007405625
,,,-2.39E-06,0.007445625
,,,-2.38E-06,0.007580625
,,,-2.37E-06,0.007513125
,,,-2.36E-06,0.00757375
,,,-2.35E-06,0.00774625
,,,-2.34E-06,0.007405
,,,-2.33E-06,0.0076375
,,,-2.32E-06,0.007550625
,,,-2.31E-06,0.007364375
,,,-2.3E-06,0.007364375
,,,-2.29E-06,0.007515625
,,,-2.28E-06,0.007361875
,,,-2.27E-06,0.00728125
,,,-2.26E-06,0.00755375
,,,-2.25E-06,0.00745375
,,,-2.24E-06,0.007833125
,,,-2.23E-06,0.0074325
,,,-2.22E-06,0.007135
,,,-2.21E-06,0.0075775
,,,-2.2E-06,0.0074325
,,,-2.19E-06,0.007195
,,,-2.18E-06,0.007336875
,,,-2.17E-06,0.007639375
,,,-2.16E-06,0.007590625
,,,-2.15E-06,0.0073425
,,,-2.14E-06,0.0073575
,,,-2.13E-06,0.0075175
,,,-2.12E-06,0.00746375
,,,-2.11E-06,0.00727875
,,,-2.1E-06,0.00747
,,,-2.09E-06,0.007625625
,,,-2.08E-06,0.0075925
,,,-2.07E-06,0.007528125
,,,-2.06E-06,0.007330625
,,,-2.05E-06,0.007314375
,,,-2.04E-06,0.00769375
,,,-2.03E-06,0.007474375
,,,-2.02E-06,0.007605
,,,-2.01E-06,0.007508125
,,,-2E-06,0.00728125
,,,-1.99E-06,0.00745875
,,,-1.98E-06,0.007503125
,,,-1.97E-06,0.007309375
,,,-1.96E-06,0.007613125
,,,-1.95E-06,0.007384375
,,,-1.94E-06,0.007226875
,,,-1.93E-06,0.007384375
,,,-1.92E-06,0.00726875
,,,-1.91E-06,0.00746875
,,,-1.9E-06,0.00744875
,,,-1.89E-06,0.00751
,,,-1.88E-06,0.00753
,,,-1.87E-06,0.00755375
,,,-1.86E-06,0.007519375
,,,-1.85E-06,0.0074275
,,,-1.84E-06,0.00757875
,,,-1.83E-06,0.0074425
,,,-1.82E-06,0.007273125
,,,-1.81E-06,0.007601875
,,,-1.8E-06,0.007259375
,,,-1.79E-06,0.007494375
,,,-1.78E-06,0.00729125
,,,-1.77E-06,0.00746125
,,,-1.76E-06,0.007493125
,,,-1.75E-06,0.007481875
,,,-1.74E-06,0.007328125
,,,-1.73E-06,0.00735375
,,,-1.72E-06,0.007395625
,,,-1.71E-06,0.00761625
,,,-1.7E-06,0.007533125
,,,-1.69E-06,0.007493125
,,,-1.68E-06,0.00749375
,,,-1.67E-06,0.007369375
,,,-1.66E-06,0.007375625
,,,-1.65E-06,0.007558125
,,,-1.64E-06,0.007771875
,,,-1.63E-06,0.007485625
,,,-1.62E-06,0.00736
,,,-1.61E-06,0.00744
,,,-1.6E-06,0.00717375
,,,-1.59E-06,0.007603125
,,,-1.58E-06,0.00748
,,,-1.57E-06,0.00734375
,,,-1.56E-06,0.00740125
,,,-1.55E-06,0.00729875
,,,-1.54E-06,0.007325
,,,-1.53E-06,0.00757375
,,,-1.52E-06,0.007471875
,,,-1.51E-06,0.007464375
,,,-1.5E-06,0.007514375
,,,-1.49E-06,0.00731875
,,,-1.48E-06,0.007446875
,,,-1.47E-06,0.007535
,,,-1.46E-06,0.007475
,,,-1.45E-06,0.00716125
,,,-1.44E-06,0.00747625
,,,-1.43E-06,0.007328125
,,,-1.42E-06,0.0072625
,,,-1.41E-06,0.00741125
,,,-1.4E-06,0.00747
,,,-1.39E-06,0.007475625
,,,-1.38E-06,0.00755875
,,,-1.37E-06,0.00753625
,,,-1.36E-06,0.00742375
,,,-1.35E-06,0.007568125
,,,-1.34E-06,0.007418125
,,,-1.33E-06,0.007213125
,,,-1.32E-06,0.00747375
,,,-1.31E-06,0.007495
,,,-1.3E-06,0.007571875
,,,-1.29E-06,0.00744
,,,-1.28E-06,0.00727375
,,,-1.27E-06,0.0073275
,,,-1.26E-06,0.00748
,,,-1.25E-06,0.0075925
,,,-1.24E-06,0.007563125
,,,-1.23E-06,0.0075775
,,,-1.22E-06,0.007421875
,,,-1.21E-06,0.007304375
,,,-1.2E-06,0.007560625
,,,-1.19E-06,0.007471875
,,,-1.18E-06,0.00737875
,,,-1.17E-06,0.007536875
,,,-1.16E-06,0.0072625
,,,-1.15E-06,0.007399375
,,,-1.14E-06,0.007505
,,,-1.13E-06,0.007679375
,,,-1.12E-06,0.00743625
,,,-1.11E-06,0.00748875
,,,-1.1E-06,0.00750625
,,,-1.09E-06,0.00743875
,,,-1.08E-06,0.0073925
,,,-1.07E-06,0.007231875
,,,-1.06E-06,0.00734625
,,,-1.05E-06,0.007285625
,,,-1.04E-06,0.007536875
,,,-1.03E-06,0.007216875
,,,-1.02E-06,0.007341875
,,,-1.01E-06,0.007760625
,,,-1E-06,0.00746
,,,-9.9E-07,0.00753125
,,,-9.8E-07,0.00754375
,,,-9.7E-07,0.007535625
,,,-9.6E-07,0.007395625
,,,-9.5E-07,0.007519375
,,,-9.4E-07,0.007544375
,,,-9.3E-07,0.00745875
,,,-9.2E-07,0.007491875
,,,-9.1E-07,0.007494375
,,,-9E-07,0.00745375
,,,-8.9E-07,0.007351875
,,,-8.8E-07,0.00766625
,,,-8.7E-07,0.007471875
,,,-8.6E-07,0.0074125
,,,-8.5E-07,0.0075825
,,,-8.4E-07,0.00754625
,,,-8.3E-07,0.007443125
,,,-8.2E-07,0.00745125
,,,-8.1E-07,0.0075325
,,,-8E-07,0.007665625
,,,-7.9E-07,0.007486875
,,,-7.8E-07,0.007568125
,,,-7.7E-07,0.00777625
,,,-7.6E-07,0.007349375
,,,-7.5E-07,0.007498125
,,,-7.4E-07,0.007381875
,,,-7.3E-07,0.007145625
,,,-7.2E-07,0.00740875
,,,-7.1E-07,0.007494375
,,,-7E-07,0.007475
,,,-6.9E-07,0.0071475
,,,-6.8E-07,0.007309375
,,,-6.7E-07,0.007533125
,,,-6.6E-07,0.007535625
,,,-6.5E-07,0.00779
,,,-6.4E-07,0.007481875
,,,-6.3E-07,0.007633125
,,,-6.2E-07,0.007253125
,,,-6.1E-07,0.007293125
,,,-6E-07,0.007368125
,,,-5.9E-07,0.00754625
,,,-5.8E-07,0.00764875
,,,-5.7E-07,0.007540625
,,,-5.6E-07,0.007461875
,,,-5.5E-07,0.00756375
,,,-5.4E-07,0.007259375
,,,-5.3E-07,0.007405625
,,,-5.2E-07,0.007546875
,,,-5.1E-07,0.00721
,,,-5E-07,0.007585625
,,,-4.9E-07,0.007289375
,,,-4.8E-07,0.007438125
,,,-4.7E-07,0.007624375
,,,-4.6E-07,0.0075275
,,,-4.5E-07,0.0072775
,,,-4.4E-07,0.007630625
,,,-4.3E-07,0.007549375
,,,-4.2E-07,0.007473125
,,,-4.1E-07,0.007401875
,,,-4E-07,0.007225
,,,-3.9E-07,0.007298125
,,,-3.8E-07,0.00736375
,,,-3.7E-07,0.007616875
,,,-3.6E-07,0.007324375
,,,-3.5E-07,0.007523125
,,,-3.4E-07,0.0074275
,,,-3.3E-07,0.007291875
,,,-3.2E-07,0.007606875
,,,-3.1E-07,0.007419375
,,,-3E-07,0.007404375
,,,-2.9E-07,0.007544375
,,,-2.8E-07,0.00752375
,,,-2.7E-07,0.007453125
,,,-2.6E-07,0.00754125
,,,-2.5E-07,0.007485
,,,-2.4E-07,0.00745875
,,,-2.3E-07,0.007643125
,,,-2.2E-07,0.00751
,,,-2.1E-07,0.0073025
,,,-2E-07,0.007345
,,,-1.9E-07,0.007466875
,,,-1.8E-07,0.0075375
,,,-1.7E-07,0.00726
,,,-1.6E-07,0.00755
,,,-1.5E-07,0.00737
,,,-1.4E-07,0.007236875
,,,-1.3E-07,0.0074725
,,,-1.2E-07,0.007513125
,,,-1.1E-07,0.007460625
,,,-1E-07,0.007529375
,,,-9E-08,0.007365625
,,,-8E-08,0.00736
,,,-7E-08,0.00728625
,,,-6E-08,0.007335
,,,-5E-08,0.007548125
,,,-4E-08,0.00828625
,,,-3E-08,0.008461875
,,,-2E-08,0.006600625
,,,-1E-08,0.0049375
,,,0,0.004788125
,,,1E-08,0.00880125
,,,2E-08,0.011160625
,,,3E-08,0.01094125
,,,4E-08,0.007603125
,,,5E-08,0.004975
,,,6E-08,0.0045475
,,,7E-08,0.005953125
,,,8E-08,0.0081025
,,,9E-08,0.00915125
,,,1E-07,0.0096975
,,,1.1E-07,0.0081475
,,,1.2E-07,0.00688875
,,,1.3E-07,0.005784375
,,,1.4E-07,0.00677625
,,,1.5E-07,0.007805625
,,,1.6E-07,0.00816375
,,,1.7E-07,0.008098125
,,,1.8E-07,0.007686875
,,,1.9E-07,0.007633125
,,,2E-07,0.007285625
,,,2.1E-07,0.007281875
,,,2.2E-07,0.007450625
,,,2.3E-07,0.00750125
,,,2.4E-07,0.0076875
,,,2.5E-07,0.0075525
,,,2.6E-07,0.007493125
,,,2.7E-07,0.007505625
,,,2.8E-07,0.007481875
,,,2.9E-07,0.00743375
,,,3E-07,0.00719
,,,3.1E-07,0.007266875
,,,3.2E-07,0.007516875
,,,3.3E-07,0.00777
,,,3.4E-07,0.00730375
,,,3.5E-07,0.0075675
,,,3.6E-07,0.007486875
,,,3.7E-07,0.0074225
,,,3.8E-07,0.007439375
,,,3.9E-07,0.0074475
,,,4E-07,0.00745375
,,,4.1E-07,0.007651875
,,,4.2E-07,0.00748
,,,4.3E-07,0.007551875
,,,4.4E-07,0.0072275
,,,4.5E-07,0.007215
,,,4.6E-07,0.00736625
,,,4.7E-07,0.00730375
,,,4.8E-07,0.00744375
,,,4.9E-07,0.0074575
,,,5E-07,0.007515625
,,,5.1E-07,0.007590625
,,,5.2E-07,0.00729375
,,,5.3E-07,0.00758
,,,5.4E-07,0.007744375
,,,5.5E-07,0.007335625
,,,5.6E-07,0.00737375
,,,5.7E-07,0.0078025
,,,5.8E-07,0.007353125
,,,5.9E-07,0.007584375
,,,6E-07,0.007456875
,,,6.1E-07,0.007480625
,,,6.2E-07,0.00724375
,,,6.3E-07,0.007391875
,,,6.4E-07,0.00745125
,,,6.5E-07,0.00759875
,,,6.6E-07,0.007448125
,,,6.7E-07,0.00755375
,,,6.8E-07,0.007515
,,,6.9E-07,0.007271875
,,,7E-07,0.007355625
,,,7.1E-07,0.007564375
,,,7.2E-07,0.007340625
,,,7.3E-07,0.007335
,,,7.4E-07,0.007800625
,,,7.5E-07,0.00763625
,,,7.6E-07,0.007285625
,,,7.7E-07,0.007575
,,,7.8E-07,0.0074275
,,,7.9E-07,0.007419375
,,,8E-07,0.007545625
,,,8.1E-07,0.0074825
,,,8.2E-07,0.0073925
,,,8.3E-07,0.00737875
,,,8.4E-07,0.00734
,,,8.5E-07,0.00745625
,,,8.6E-07,0.007619375
,,,8.7E-07,0.0072725
,,,8.8E-07,0.007376875
,,,8.9E-07,0.00733625
,,,9E-07,0.007240625
,,,9.1E-07,0.00742875
,,,9.2E-07,0.007588125
,,,9.3E-07,0.00753125
,,,9.4E-07,0.00756625
,,,9.5E-07,0.007490625
,,,9.6E-07,0.00758
,,,9.7E-07,0.007410625
,,,9.8E-07,0.00745125
,,,9.9E-07,0.007465625
,,,1E-06,0.0075375
,,,1.01E-06,0.007404375
,,,1.02E-06,0.007595
,,,1.03E-06,0.00736625
,,,1.04E-06,0.00748
,,,1.05E-06,0.007615625
,,,1.06E-06,0.0074925
,,,1.07E-06,0.0074825
,,,1.08E-06,0.0075175
,,,1.09E-06,0.0073925
,,,1.1E-06,0.007545
,,,1.11E-06,0.007565625
,,,1.12E-06,0.00731125
,,,1.13E-06,0.007351875
,,,1.14E-06,0.00762375
,,,1.15E-06,0.007139375
,,,1.16E-06,0.007455
,,,1.17E-06,0.00721
,,,1.18E-06,0.00762875
,,,1.19E-06,0.007536875
,,,1.2E-06,0.007295625
,,,1.21E-06,0.007505
,,,1.22E-06,0.00761625
,,,1.23E-06,0.007571875
,,,1.24E-06,0.007361875
,,,1.25E-06,0.007571875
,,,1.26E-06,0.00749375
,,,1.27E-06,0.007426875
,,,1.28E-06,0.0073425
,,,1.29E-06,0.007276875
,,,1.3E-06,0.007165625
,,,1.31E-06,0.0075325
,,,1.32E-06,0.00755125
,,,1.33E-06,0.00735375
,,,1.34E-06,0.0074825
,,,1.35E-06,0.007516875
,,,1.36E-06,0.007134375
,,,1.37E-06,0.00750375
,,,1.38E-06,0.007431875
,,,1.39E-06,0.0076625
,,,1.4E-06,0.007675
,,,1.41E-06,0.007451875
,,,1.42E-06,0.007218125
,,,1.43E-06,0.00739375
,,,1.44E-06,0.0074675
,,,1.45E-06,0.007356875
,,,1.46E-06,0.007564375
,,,1.47E-06,0.007590625
,,,1.48E-06,0.00742875
,,,1.49E-06,0.007703125
,,,1.5E-06,0.007625625
,,,1.51E-06,0.00743
,,,1.52E-06,0.00759125
,,,1.53E-06,0.0071
,,,1.54E-06,0.007195
,,,1.55E-06,0.007503125
,,,1.56E-06,0.00753
,,,1.57E-06,0.007569375
,,,1.58E-06,0.007495
,,,1.59E-06,0.007494375
,,,1.6E-06,0.00723875
,,,1.61E-06,0.007691875
,,,1.62E-06,0.007399375
,,,1.63E-06,0.00771625
,,,1.64E-06,0.00750875
,,,1.65E-06,0.0075
,,,1.66E-06,0.007391875
,,,1.67E-06,0.007605625
,,,1.68E-06,0.007468125
,,,1.69E-06,0.007385
,,,1.7E-06,0.007245625
,,,1.71E-06,0.007286875
,,,1.72E-06,0.007354375
,,,1.73E-06,0.0074925
,,,1.74E-06,0.007465625
,,,1.75E-06,0.00757125
,,,1.76E-06,0.0074925
,,,1.77E-06,0.007258125
,,,1.78E-06,0.007703125
,,,1.79E-06,0.007721875
,,,1.8E-06,0.0074875
,,,1.81E-06,0.00754125
,,,1.82E-06,0.007470625
,,,1.83E-06,0.007439375
,,,1.84E-06,0.00737875
,,,1.85E-06,0.00736125
,,,1.86E-06,0.00751875
,,,1.87E-06,0.00747
,,,1.88E-06,0.0073
,,,1.89E-06,0.0074
,,,1.9E-06,0.007496875
,,,1.91E-06,0.00740625
,,,1.92E-06,0.00719375
,,,1.93E-06,0.00730375
,,,1.94E-06,0.007513125
,,,1.95E-06,0.007413125
,,,1.96E-06,0.007444375
,,,1.97E-06,0.007470625
,,,1.98E-06,0.0075625
,,,1.99E-06,0.007404375
,,,2E-06,0.00765875
,,,2.01E-06,0.0075475
,,,2.02E-06,0.0072575
,,,2.03E-06,0.007233125
,,,2.04E-06,0.007378125
,,,2.05E-06,0.007440625
,,,2.06E-06,0.007711875
,,,2.07E-06,0.007256875
,,,2.08E-06,0.0075425
,,,2.09E-06,0.007281875
,,,2.1E-06,0.0076375
,,,2.11E-06,0.00745625
,,,2.12E-06,0.007264375
,,,2.13E-06,0.007329375
,,,2.14E-06,0.007504375
,,,2.15E-06,0.00740625
,,,2.16E-06,0.007709375
,,,2.17E-06,0.00768125
,,,2.18E-06,0.007444375
,,,2.19E-06,0.00766
,,,2.2E-06,0.00733625
,,,2.21E-06,0.0074625
,,,2.22E-06,0.007585625
,,,2.23E-06,0.007394375
,,,2.24E-06,0.007428125
,,,2.25E-06,0.007783125
,,,2.26E-06,0.007361875
,,,2.27E-06,0.007443125
,,,2.28E-06,0.007444375
,,,2.29E-06,0.0074875
,,,2.3E-06,0.007315
,,,2.31E-06,0.00745125
,,,2.32E-06,0.007509375
,,,2.33E-06,0.007219375
,,,2.34E-06,0.00720625
,,,2.35E-06,0.007575625
,,,2.36E-06,0.007403125
,,,2.37E-06,0.00712625
,,,2.38E-06,0.0074225
,,,2.39E-06,0.007281875
,,,2.4E-06,0.00748125
,,,2.41E-06,0.007375
,,,2.42E-06,0.007573125
,,,2.43E-06,0.00755125
,,,2.44E-06,0.007455
,,,2.45E-06,0.007484375
,,,2.46E-06,0.007504375
,,,2.47E-06,0.007601875
,,,2.48E-06,0.007375625
,,,2.49E-06,0.0075275
,,,2.5E-06,0.0075225
,,,2.51E-06,0.007386875
,,,2.52E-06,0.007366875
,,,2.53E-06,0.00749625
,,,2.54E-06,0.007411875
,,,2.55E-06,0.007385625
,,,2.56E-06,0.007663125
,,,2.57E-06,0.00709625
,,,2.58E-06,0.007379375
,,,2.59E-06,0.007453125
,,,2.6E-06,0.0075675
,,,2.61E-06,0.007771875
,,,2.62E-06,0.007341875
,,,2.63E-06,0.00748
,,,2.64E-06,0.007478125
,,,2.65E-06,0.007610625
,,,2.66E-06,0.00743
,,,2.67E-06,0.007366875
,,,2.68E-06,0.0077325
,,,2.69E-06,0.007401875
,,,2.7E-06,0.007599375
,,,2.71E-06,0.00768375
,,,2.72E-06,0.0077425
,,,2.73E-06,0.007445625
,,,2.74E-06,0.007555625
,,,2.75E-06,0.007536875
,,,2.76E-06,0.0073
,,,2.77E-06,0.0073375
,,,2.78E-06,0.0074775
,,,2.79E-06,0.007511875
,,,2.8E-06,0.00744125
,,,2.81E-06,0.00770375
,,,2.82E-06,0.007474375
,,,2.83E-06,0.007474375
,,,2.84E-06,0.007235625
,,,2.85E-06,0.007363125
,,,2.86E-06,0.007340625
,,,2.87E-06,0.00747
,,,2.88E-06,0.007656875
,,,2.89E-06,0.007445625
,,,2.9E-06,0.007609375
,,,2.91E-06,0.007431875
,,,2.92E-06,0.007293125
,,,2.93E-06,0.007340625
,,,2.94E-06,0.007475
,,,2.95E-06,0.007194375
,,,2.96E-06,0.0073125
,,,2.97E-06,0.00749
,,,2.98E-06,0.007651875
,,,2.99E-06,0.007414375
,,,3E-06,0.007709375
,,,3.01E-06,0.007301875
,,,3.02E-06,0.0075275
,,,3.03E-06,0.00738
,,,3.04E-06,0.007519375
,,,3.05E-06,0.00728125
,,,3.06E-06,0.0074725
,,,3.07E-06,0.007419375
,,,3.08E-06,0.00752125
,,,3.09E-06,0.007273125
,,,3.1E-06,0.007504375
,,,3.11E-06,0.00732125
,,,3.12E-06,0.00734875
,,,3.13E-06,0.007511875
,,,3.14E-06,0.0077575
,,,3.15E-06,0.007566875
,,,3.16E-06,0.007635625
,,,3.17E-06,0.00744
,,,3.18E-06,0.00732125
,,,3.19E-06,0.00747875
,,,3.2E-06,0.007716875
,,,3.21E-06,0.007773125
,,,3.22E-06,0.00753125
,,,3.23E-06,0.00750375
,,,3.24E-06,0.007444375
,,,3.25E-06,0.007455
,,,3.26E-06,0.007348125
,,,3.27E-06,0.00729375
,,,3.28E-06,0.007425
,,,3.29E-06,0.0073275
,,,3.3E-06,0.0073525
,,,3.31E-06,0.0073225
,,,3.32E-06,0.007586875
,,,3.33E-06,0.0074075
,,,3.34E-06,0.00735
,,,3.35E-06,0.007361875
,,,3.36E-06,0.007343125
,,,3.37E-06,0.0075775
,,,3.38E-06,0.007505625
,,,3.39E-06,0.0073525
,,,3.4E-06,0.00739625
,,,3.41E-06,0.007310625
,,,3.42E-06,0.007371875
,,,3.43E-06,0.0072475
,,,3.44E-06,0.007498125
,,,3.45E-06,0.007421875
,,,3.46E-06,0.007301875
,,,3.47E-06,0.00742
,,,3.48E-06,0.007771875
,,,3.49E-06,0.007443125
,,,3.5E-06,0.007548125
,,,3.51E-06,0.007265
,,,3.52E-06,0.007371875
,,,3.53E-06,0.007359375
,,,3.54E-06,0.007588125
,,,3.55E-06,0.007376875
