data/raw/Final_POL_Test_1/SOP063_Ch3.csv

"Record Length",1000,"Points",-5E-06,0.020985001
"Sample Interval",1E-08,s,-4.99E-06,0.020973126
"Trigger Point",500,"Samples",-4.98E-06,0.021110626
"Trigger Time",0,s,-4.97E-06,0.021133126
"",,,-4.96E-06,0.020859376
"Horizontal Offset",-5E-06,s,-4.95E-06,0.021058126
,,,-4.94E-06,0.020855001
,,,-4.93E-06,0.021029376
,,,-4.92E-06,0.020878126
,,,-4.91E-06,0.020925001
,,,-4.9E-06,0.021081251
,,,-4.89E-06,0.021016876
,,,-4.88E-06,0.021115626
,,,-4.87E-06,0.020887501
,,,-4.86E-06,0.020936251
,,,-4.85E-06,0.021018751
,,,-4.84E-06,0.020933126
,,,-4.83E-06,0.021135626
,,,-4.82E-06,0.020995001
,,,-4.81E-06,0.021100626
,,,-4.8E-06,0.021078751
,,,-4.79E-06,0.021073751
,,,-4.78E-06,0.020950001
,,,-4.77E-06,0.021023751
,,,-4.76E-06,0.021241251
,,,-4.75E-06,0.020848126
,,,-4.74E-06,0.021066876
,,,-4.73E-06,0.020941876
,,,-4.72E-06,0.020940001
,,,-4.71E-06,0.020913751
,,,-4.7E-06,0.021078126
,,,-4.69E-06,0.021057501
,,,-4.68E-06,0.020992501
,,,-4.67E-06,0.020842501
,,,-4.66E-06,0.020915001
,,,-4.65E-06,0.021001876
,,,-4.64E-06,0.021021876
,,,-4.63E-06,0.021101876
,,,-4.62E-06,0.020837501
,,,-4.61E-06,0.020914376
,,,-4.6E-06,0.021065626
,,,-4.59E-06,0.020978126
,,,-4.58E-06,0.021097501
,,,-4.57E-06,0.020904376
,,,-4.56E-06,0.021033126
,,,-4.55E-06,0.020719376
,,,-4.54E-06,0.020937501
,,,-4.53E-06,0.021183126
,,,-4.52E-06,0.020907501
,,,-4.51E-06,0.020871876
,,,-4.5E-06,0.020880001
,,,-4.49E-06,0.021381876
,,,-4.48E-06,0.021078126
,,,-4.47E-06,0.020829376
,,,-4.46E-06,0.020970626
,,,-4.45E-06,0.021063126
,,,-4.44E-06,0.021016876
,,,-4.43E-06,0.021105626
,,,-4.42E-06,0.021033751
,,,-4.41E-06,0.020941876
,,,-4.4E-06,0.020825626
,,,-4.39E-06,0.020898126
,,,-4.38E-06,0.021180626
,,,-4.37E-06,0.021163126
,,,-4.36E-06,0.020964376
,,,-4.35E-06,0.020990001
,,,-4.34E-06,0.021050001
,,,-4.33E-06,0.020976876
,,,-4.32E-06,0.021078126
,,,-4.31E-06,0.021242501
,,,-4.3E-06,0.021060001
,,,-4.29E-06,0.021036876
,,,-4.28E-06,0.020986876
,,,-4.27E-06,0.021086876
,,,-4.26E-06,0.021095626
,,,-4.25E-06,0.020969376
,,,-4.24E-06,0.021007501
,,,-4.23E-06,0.020905626
,,,-4.22E-06,0.020640001
,,,-4.21E-06,0.020774376
,,,-4.2E-06,0.021010626
,,,-4.19E-06,0.020874376
,,,-4.18E-06,0.020933751
,,,-4.17E-06,0.021138751
,,,-4.16E-06,0.020937501
,,,-4.15E-06,0.020923751
,,,-4.14E-06,0.021002501
,,,-4.13E-06,0.020898126
,,,-4.12E-06,0.021005001
,,,-4.11E-06,0.021010001
,,,-4.1E-06,0.020868126
,,,-4.09E-06,0.021146876
,,,-4.08E-06,0.020961876
,,,-4.07E-06,0.021186251
,,,-4.06E-06,0.021036876
,,,-4.05E-06,0.021165001
,,,-4.04E-06,0.021013126
,,,-4.03E-06,0.021050626
,,,-4.02E-06,0.020777501
,,,-4.01E-06,0.021103751
,,,-4E-06,0.021016251
,,,-3.99E-06,0.021081876
,,,-3.98E-06,0.021036251
,,,-3.97E-06,0.020850001
,,,-3.96E-06,0.020786876
,,,-3.95E-06,0.020892501
,,,-3.94E-06,0.021008126
,,,-3.93E-06,0.021039376
,,,-3.92E-06,0.021049376
,,,-3.91E-06,0.020927501
,,,-3.9E-06,0.020950626
,,,-3.89E-06,0.021233751
,,,-3.88E-06,0.021025001
,,,-3.87E-06,0.020958751
,,,-3.86E-06,0.021335626
,,,-3.85E-06,0.020890001
,,,-3.84E-06,0.021078126
,,,-3.83E-06,0.020805001
,,,-3.82E-06,0.020901876
,,,-3.81E-06,0.020922501
,,,-3.8E-06,0.020617501
,,,-3.79E-06,0.020764376
,,,-3.78E-06,0.021167501
,,,-3.77E-06,0.021033751
,,,-3.76E-06,0.020785626
,,,-3.75E-06,0.021080626
,,,-3.74E-06,0.020911876
,,,-3.73E-06,0.021066876
,,,-3.72E-06,0.020963126
,,,-3.71E-06,0.020807501
,,,-3.7E-06,0.020980001
,,,-3.69E-06,0.020710626
,,,-3.68E-06,0.020771251
,,,-3.67E-06,0.020740001
,,,-3.66E-06,0.021121876
,,,-3.65E-06,0.021017501
,,,-3.64E-06,0.021348751
,,,-3.63E-06,0.020908751
,,,-3.62E-06,0.020901876
,,,-3.61E-06,0.020881876
,,,-3.6E-06,0.020704376
,,,-3.59E-06,0.020691876
,,,-3.58E-06,0.021016251
,,,-3.57E-06,0.021159376
,,,-3.56E-06,0.021145001
,,,-3.55E-06,0.021001876
,,,-3.54E-06,0.021002501
,,,-3.53E-06,0.020871876
,,,-3.52E-06,0.020880001
,,,-3.51E-06,0.020961876
,,,-3.5E-06,0.020677501
,,,-3.49E-06,0.020963126
,,,-3.48E-06,0.021159376
,,,-3.47E-06,0.021094376
,,,-3.46E-06,0.021000626
,,,-3.45E-06,0.020856251
,,,-3.44E-06,0.021040001
,,,-3.43E-06,0.020973126
,,,-3.42E-06,0.020918126
,,,-3.41E-06,0.021069376
,,,-3.4E-06,0.021133126
,,,-3.39E-06,0.020953751
,,,-3.38E-06,0.021030001
,,,-3.37E-06,0.020865626
,,,-3.36E-06,0.021233126
,,,-3.35E-06,0.020930626
,,,-3.34E-06,0.020933751
,,,-3.33E-06,0.020863751
,,,-3.32E-06,0.020823751
,,,-3.31E-06,0.020830001
,,,-3.3E-06,0.020853751
,,,-3.29E-06,0.020874376
,,,-3.28E-06,0.020946251
,,,-3.27E-06,0.020988751
,,,-3.26E-06,0.020931251
,,,-3.25E-06,0.020868751
,,,-3.24E-06,0.020700001
,,,-3.23E-06,0.020956876
,,,-3.22E-06,0.021070001
,,,-3.21E-06,0.021064376
,,,-3.2E-06,0.020984376
,,,-3.19E-06,0.020841251
,,,-3.18E-06,0.021134376
,,,-3.17E-06,0.020776876
,,,-3.16E-06,0.021145626
,,,-3.15E-06,0.021125626
,,,-3.14E-06,0.021069376
,,,-3.13E-06,0.020965001
,,,-3.12E-06,0.020995001
,,,-3.11E-06,0.021040626
,,,-3.1E-06,0.021188126
,,,-3.09E-06,0.021301876
,,,-3.08E-06,0.020774376
,,,-3.07E-06,0.020889376
,,,-3.06E-06,0.020878126
,,,-3.05E-06,0.020991876
,,,-3.04E-06,0.021071876
,,,-3.03E-06,0.020956251
,,,-3.02E-06,0.020710626
,,,-3.01E-06,0.020890001
,,,-3E-06,0.021028751
,,,-2.99E-06,0.020961876
,,,-2.98E-06,0.021033751
,,,-2.97E-06,0.021065001
,,,-2.96E-06,0.020931251
,,,-2.95E-06,0.020901876
,,,-2.94E-06,0.021130001
,,,-2.93E-06,0.020857501
,,,-2.92E-06,0.020959376
,,,-2.91E-06,0.020889376
,,,-2.9E-06,0.020975001
,,,-2.89E-06,0.021169376
,,,-2.88E-06,0.020960626
,,,-2.87E-06,0.021202501
,,,-2.86E-06,0.021025001
,,,-2.85E-06,0.020982501
,,,-2.84E-06,0.020909376
,,,-2.83E-06,0.020975001
,,,-2.82E-06,0.020985001
,,,-2.81E-06,0.020862501
,,,-2.8E-06,0.021088126
,,,-2.79E-06,0.021127501
,,,-2.78E-06,0.021110626
,,,-2.77E-06,0.020832501
,,,-2.76E-06,0.021043751
,,,-2.75E-06,0.021055001
,,,-2.74E-06,0.021035001
,,,-2.73E-06,0.020960626
,,,-2.72E-06,0.021056251
,,,-2.71E-06,0.020804376
,,,-2.7E-06,0.021180001
,,,-2.69E-06,0.021075626
,,,-2.68E-06,0.021126876
,,,-2.67E-06,0.020750001
,,,-2.66E-06,0.020995001
,,,-2.65E-06,0.020913126
,,,-2.64E-06,0.021058126
,,,-2.63E-06,0.020705001
,,,-2.62E-06,0.020913126
,,,-2.61E-06,0.020953751
,,,-2.6E-06,0.021135001
,,,-2.59E-06,0.020768751
,,,-2.58E-06,0.021098751
,,,-2.57E-06,0.021028751
,,,-2.56E-06,0.021074376
,,,-2.55E-06,0.020947501
,,,-2.54E-06,0.021048126
,,,-2.53E-06,0.020974376
,,,-2.52E-06,0.020981876
,,,-2.51E-06,0.020817501
,,,-2.5E-06,0.020843126
,,,-2.49E-06,0.021000001
,,,-2.48E-06,0.020811876
,,,-2.47E-06,0.020902501
,,,-2.46E-06,0.021115001
,,,-2.45E-06,0.021108751
,,,-2.44E-06,0.020678126
,,,-2.43E-06,0.020812501
,,,-2.42E-06,0.020832501
,,,-2.41E-06,0.020994376
,,,-2.4E-06,0.020965001
,,,-2.39E-06,0.020905626
,,,-2.38E-06,0.020804376
,,,-2.37E-06,0.021091876
,,,-2.36E-06,0.020826876
,,,-2.35E-06,0.020990626
,,,-2.34E-06,0.020797501
,,,-2.33E-06,0.021198751
,,,-2.32E-06,0.020911876
,,,-2.31E-06,0.020881876
,,,-2.3E-06,0.021113126
,,,-2.29E-06,0.020846876
,,,-2.28E-06,0.020955626
,,,-2.27E-06,0.020935626
,,,-2.26E-06,0.021043126
,,,-2.25E-06,0.021015001
,,,-2.24E-06,0.020810626
,,,-2.23E-06,0.020847501
,,,-2.22E-06,0.021118751
,,,-2.21E-06,0.020857501
,,,-2.2E-06,0.020801876
,,,-2.19E-06,0.020895001
,,,-2.18E-06,0.020977501
,,,-2.17E-06,0.021090001
,,,-2.16E-06,0.021263126
,,,-2.15E-06,0.021006251
,,,-2.14E-06,0.020920001
,,,-2.13E-06,0.021183751
,,,-2.12E-06,0.021013751
,,,-2.11E-06,0.020771876
,,,-2.1E-06,0.020803751
,,,-2.09E-06,0.020959376
,,,-2.08E-06,0.021264376
,,,-2.07E-06,0.020919376
,,,-2.06E-06,0.020831251
,,,-2.05E-06,0.020715626
,,,-2.04E-06,0.021178126
,,,-2.03E-06,0.021041876
,,,-2.02E-06,0.020845626
,,,-2.01E-06,0.020875626
,,,-2E-06,0.021039376
,,,-1.99E-06,0.021014376
,,,-1.98E-06,0.021011251
,,,-1.97E-06,0.020904376
,,,-1.96E-06,0.020913751
,,,-1.95E-06,0.020853751
,,,-1.94E-06,0.020986251
,,,-1.93E-06,0.020950626
,,,-1.92E-06,0.020914376
,,,-1.91E-06,0.021052501
,,,-1.9E-06,0.021030001
,,,-1.89E-06,0.020812501
,,,-1.88E-06,0.020773751
,,,-1.87E-06,0.021053751
,,,-1.86E-06,0.021050001
,,,-1.85E-06,0.021023126
,,,-1.84E-06,0.021093751
,,,-1.83E-06,0.021193751
,,,-1.82E-06,0.020900626
,,,-1.81E-06,0.020863126
,,,-1.8E-06,0.020988751
,,,-1.79E-06,0.021143751
,,,-1.78E-06,0.021291876
,,,-1.77E-06,0.021290626
,,,-1.76E-06,0.021186251
,,,-1.75E-06,0.020913126
,,,-1.74E-06,0.020880626
,,,-1.73E-06,0.020974376
,,,-1.72E-06,0.021056251
,,,-1.71E-06,0.021173126
,,,-1.7E-06,0.021111251
,,,-1.69E-06,0.021113126
,,,-1.68E-06,0.020950001
,,,-1.67E-06,0.020895001
,,,-1.66E-06,0.021251876
,,,-1.65E-06,0.020935001
,,,-1.64E-06,0.020906876
,,,-1.63E-06,0.021021251
,,,-1.62E-06,0.020784376
,,,-1.61E-06,0.021065626
,,,-1.6E-06,0.020758126
,,,-1.59E-06,0.021003126
,,,-1.58E-06,0.021146251
,,,-1.57E-06,0.021061251
,,,-1.56E-06,0.021110626
,,,-1.55E-06,0.020904376
,,,-1.54E-06,0.020921876
,,,-1.53E-06,0.021013751
,,,-1.52E-06,0.020739376
,,,-1.51E-06,0.021008126
,,,-1.5E-06,0.020843751
,,,-1.49E-06,0.021094376
,,,-1.48E-06,0.020988126
,,,-1.47E-06,0.020684376
,,,-1.46E-06,0.020975001
,,,-1.45E-06,0.021027501
,,,-1.44E-06,0.021152501
,,,-1.43E-06,0.020918751
,,,-1.42E-06,0.020917501
,,,-1.41E-06,0.020940001
,,,-1.4E-06,0.021052501
,,,-1.39E-06,0.020780626
,,,-1.38E-06,0.020876251
,,,-1.37E-06,0.020911876
,,,-1.36E-06,0.021004376
,,,-1.35E-06,0.021024376
,,,-1.34E-06,0.021080001
,,,-1.33E-06,0.020933126
,,,-1.32E-06,0.021036876
,,,-1.31E-06,0.021046876
,,,-1.3E-06,0.020897501
,,,-1.29E-06,0.020876251
,,,-1.28E-06,0.021035001
,,,-1.27E-06,0.020863751
,,,-1.26E-06,0.021109376
,,,-1.25E-06,0.020897501
,,,-1.24E-06,0.020863751
,,,-1.23E-06,0.021140626
,,,-1.22E-06,0.020941251
,,,-1.21E-06,0.021041251
,,,-1.2E-06,0.020850626
,,,-1.19E-06,0.021071876
,,,-1.18E-06,0.020985001
,,,-1.17E-06,0.021209376
,,,-1.16E-06,0.021110001
,,,-1.15E-06,0.020981251
,,,-1.14E-06,0.020956876
,,,-1.13E-06,0.021047501
,,,-1.12E-06,0.021146876
,,,-1.11E-06,0.021185626
,,,-1.1E-06,0.021073126
,,,-1.09E-06,0.021166876
,,,-1.08E-06,0.020985626
,,,-1.07E-06,0.021156876
,,,-1.06E-06,0.020877501
,,,-1.05E-06,0.021125626
,,,-1.04E-06,0.021005626
,,,-1.03E-06,0.021073126
,,,-1.02E-06,0.020846876
,,,-1.01E-06,0.020749376
,,,-1E-06,0.020988751
,,,-9.9E-07,0.020853751
,,,-9.8E-07,0.020947501
,,,-9.7E-07,0.021063126
,,,-9.6E-07,0.020918751
,,,-9.5E-07,0.020923751
,,,-9.4E-07,0.020671876
,,,-9.3E-07,0.020913751
,,,-9.2E-07,0.020835001
,,,-9.1E-07,0.020956876
,,,-9E-07,0.021085001
,,,-8.9E-07,0.020709376
,,,-8.8E-07,0.020826251
,,,-8.7E-07,0.021049376
,,,-8.6E-07,0.021136251
,,,-8.5E-07,0.020985001
,,,-8.4E-07,0.020873751
,,,-8.3E-07,0.020969376
,,,-8.2E-07,0.020904376
,,,-8.1E-07,0.020873126
,,,-8E-07,0.021188126
,,,-7.9E-07,0.021091876
,,,-7.8E-07,0.021148126
,,,-7.7E-07,0.020763751
,,,-7.6E-07,0.021116251
,,,-7.5E-07,0.020960001
,,,-7.4E-07,0.021023751
,,,-7.3E-07,0.020970626
,,,-7.2E-07,0.021010626
,,,-7.1E-07,0.021230626
,,,-7E-07,0.021056251
,,,-6.9E-07,0.020921251
,,,-6.8E-07,0.020882501
,,,-6.7E-07,0.020889376
,,,-6.6E-07,0.020915626
,,,-6.5E-07,0.021181876
,,,-6.4E-07,0.021157501
,,,-6.3E-07,0.020804376
,,,-6.2E-07,0.020999376
,,,-6.1E-07,0.020958751
,,,-6E-07,0.021151251
,,,-5.9E-07,0.020985626
,,,-5.8E-07,0.021001251
,,,-5.7E-07,0.021273751
,,,-5.6E-07,0.021028751
,,,-5.5E-07,0.021036876
,,,-5.4E-07,0.020826876
,,,-5.3E-07,0.020852501
,,,-5.2E-07,0.020603751
,,,-5.1E-07,0.021050626
,,,-5E-07,0.021024376
,,,-4.9E-07,0.020767501
,,,-4.8E-07,0.020799376
,,,-4.7E-07,0.021058751
,,,-4.6E-07,0.021128751
,,,-4.5E-07,0.021048126
,,,-4.4E-07,0.021143126
,,,-4.3E-07,0.021002501
,,,-4.2E-07,0.021068751
,,,-4.1E-07,0.020896251
,,,-4E-07,0.020871251
,,,-3.9E-07,0.020673751
,,,-3.8E-07,0.021065001
,,,-3.7E-07,0.021025626
,,,-3.6E-07,0.021031876
,,,-3.5E-07,0.020962501
,,,-3.4E-07,0.021050626
,,,-3.3E-07,0.020930001
,,,-3.2E-07,0.020900001
,,,-3.1E-07,0.021026251
,,,-3E-07,0.021075626
,,,-2.9E-07,0.021151251
,,,-2.8E-07,0.021282501
,,,-2.7E-07,0.021035626
,,,-2.6E-07,0.020933126
,,,-2.5E-07,0.021075001
,,,-2.4E-07,0.020965001
,,,-2.3E-07,0.021063126
,,,-2.2E-07,0.020839376
,,,-2.1E-07,0.020900001
,,,-2E-07,0.020932501
,,,-1.9E-07,0.020681251
,,,-1.8E-07,0.021055001
,,,-1.7E-07,0.021005626
,,,-1.6E-07,0.021316251
,,,-1.5E-07,0.021130001
,,,-1.4E-07,0.021088751
,,,-1.3E-07,0.020940626
,,,-1.2E-07,0.021106876
,,,-1.1E-07,0.020821251
,,,-1E-07,0.021114376
,,,-9E-08,0.020968751
,,,-8E-08,0.020961251
,,,-7E-08,0.021006876
,,,-6E-08,0.021132501
,,,-5E-08,0.020878126
,,,-4E-08,0.020933126
,,,-3E-08,0.021399376
,,,-2E-08,0.020934376
,,,-1E-08,0.020418751
,,,0,0.020856876
,,,1E-08,0.021166251
,,,2E-08,0.021330001
,,,3E-08,0.021430001
,,,4E-08,0.020795626
,,,5E-08,0.020679376
,,,6E-08,0.020885001
,,,7E-08,0.020936876
,,,8E-08,0.021136251
,,,9E-08,0.021136876
,,,1E-07,0.021219376
,,,1.1E-07,0.020820626
,,,1.2E-07,0.020711876
,,,1.3E-07,0.021137501
,,,1.4E-07,0.020996251
,,,1.5E-07,0.021319376
,,,1.6E-07,0.020908751
,,,1.7E-07,0.020796251
,,,1.8E-07,0.020916251
,,,1.9E-07,0.021035001
,,,2E-07,0.021068751
,,,2.1E-07,0.021010626
,,,2.2E-07,0.020821876
,,,2.3E-07,0.020826251
,,,2.4E-07,0.021028126
,,,2.5E-07,0.020877501
,,,2.6E-07,0.020920626
,,,2.7E-07,0.020913751
,,,2.8E-07,0.021214376
,,,2.9E-07,0.021140626
,,,3E-07,0.021041251
,,,3.1E-07,0.021053126
,,,3.2E-07,0.021130001
,,,3.3E-07,0.020833751
,,,3.4E-07,0.020873751
,,,3.5E-07,0.020956251
,,,3.6E-07,0.020805001
,,,3.7E-07,0.021040001
,,,3.8E-07,0.020773126
,,,3.9E-07,0.020998126
,,,4E-07,0.021256876
,,,4.1E-07,0.021116876
,,,4.2E-07,0.020921876
,,,4.3E-07,0.020685001
,,,4.4E-07,0.021194376
,,,4.5E-07,0.021118751
,,,4.6E-07,0.020924376
,,,4.7E-07,0.021183751
,,,4.8E-07,0.020900626
,,,4.9E-07,0.021171251
,,,5E-07,0.020969376
,,,5.1E-07,0.020997501
,,,5.2E-07,0.021058126
,,,5.3E-07,0.020905626
,,,5.4E-07,0.020968751
,,,5.5E-07,0.021113751
,,,5.6E-07,0.020848751
,,,5.7E-07,0.021055001
,,,5.8E-07,0.020955001
,,,5.9E-07,0.020863126
,,,6E-07,0.021182501
,,,6.1E-07,0.021175001
,,,6.2E-07,0.021043126
,,,6.3E-07,0.021050001
,,,6.4E-07,0.020926251
,,,6.5E-07,0.021032501
,,,6.6E-07,0.020947501
,,,6.7E-07,0.021154376
,,,6.8E-07,0.021413126
,,,6.9E-07,0.020870001
,,,7E-07,0.020921876
,,,7.1E-07,0.020980001
,,,7.2E-07,0.021203126
,,,7.3E-07,0.021046876
,,,7.4E-07,0.020819376
,,,7.5E-07,0.020963126
,,,7.6E-07,0.020980001
,,,7.7E-07,0.020970001
,,,7.8E-07,0.020949376
,,,7.9E-07,0.021211876
,,,8E-07,0.020881876
,,,8.1E-07,0.021038126
,,,8.2E-07,0.020946876
,,,8.3E-07,0.020977501
,,,8.4E-07,0.021198751
,,,8.5E-07,0.021035001
,,,8.6E-07,0.021096251
,,,8.7E-07,0.021078126
,,,8.8E-07,0.021079376
,,,8.9E-07,0.021063126
,,,9E-07,0.021026876
,,,9.1E-07,0.020969376
,,,9.2E-07,0.021196876
,,,9.3E-07,0.021235626
,,,9.4E-07,0.020945001
,,,9.5E-07,0.021027501
,,,9.6E-07,0.020984376
,,,9.7E-07,0.020939376
,,,9.8E-07,0.020950001
,,,9.9E-07,0.020938126
,,,1E-06,0.021066876
,,,1.01E-06,0.021179376
,,,1.02E-06,0.020813751
,,,1.03E-06,0.020850001
,,,1.04E-06,0.021010001
,,,1.05E-06,0.020826876
,,,1.06E-06,0.021207501
,,,1.07E-06,0.020975626
,,,1.08E-06,0.021136251
,,,1.09E-06,0.020961876
,,,1.1E-06,0.020956876
,,,1.11E-06,0.020825001
,,,1.12E-06,0.020880001
,,,1.13E-06,0.021113126
,,,1.14E-06,0.021128751
,,,1.15E-06,0.020891251
,,,1.16E-06,0.021168751
,,,1.17E-06,0.021065001
,,,1.18E-06,0.020886251
,,,1.19E-06,0.020801876
,,,1.2E-06,0.021053751
,,,1.21E-06,0.020856251
,,,1.22E-06,0.020933751
,,,1.23E-06,0.021003751
,,,1.24E-06,0.021014376
,,,1.25E-06,0.020908126
,,,1.26E-06,0.021253126
,,,1.27E-06,0.020813126
,,,1.28E-06,0.020828751
,,,1.29E-06,0.020914376
,,,1.3E-06,0.021063751
,,,1.31E-06,0.020986251
,,,1.32E-06,0.020862501
,,,1.33E-06,0.021233751
,,,1.34E-06,0.020894376
,,,1.35E-06,0.021077501
,,,1.36E-06,0.021086251
,,,1.37E-06,0.021140626
,,,1.38E-06,0.020958751
,,,1.39E-06,0.021091876
,,,1.4E-06,0.020867501
,,,1.41E-06,0.021130001
,,,1.42E-06,0.021166251
,,,1.43E-06,0.021025626
,,,1.44E-06,0.021132501
,,,1.45E-06,0.020904376
,,,1.46E-06,0.021066251
,,,1.47E-06,0.020930626
,,,1.48E-06,0.020908126
,,,1.49E-06,0.020933126
,,,1.5E-06,0.021007501
,,,1.51E-06,0.020921251
,,,1.52E-06,0.020836876
,,,1.53E-06,0.020811876
,,,1.54E-06,0.020971876
,,,1.55E-06,0.020891876
,,,1.56E-06,0.020968126
,,,1.57E-06,0.021008126
,,,1.58E-06,0.020809376
,,,1.59E-06,0.020917501
,,,1.6E-06,0.020829376
,,,1.61E-06,0.020953126
,,,1.62E-06,0.020807501
,,,1.63E-06,0.020967501
,,,1.64E-06,0.020988751
,,,1.65E-06,0.021041251
,,,1.66E-06,0.021180001
,,,1.67E-06,0.021035626
,,,1.68E-06,0.021060001
,,,1.69E-06,0.020948126
,,,1.7E-06,0.021113751
,,,1.71E-06,0.020996876
,,,1.72E-06,0.020958751
,,,1.73E-06,0.021097501
,,,1.74E-06,0.020981876
,,,1.75E-06,0.020783126
,,,1.76E-06,0.021020001
,,,1.77E-06,0.020851251
,,,1.78E-06,0.020933751
,,,1.79E-06,0.020891876
,,,1.8E-06,0.021055001
,,,1.81E-06,0.021013126
,,,1.82E-06,0.021331876
,,,1.83E-06,0.020843751
,,,1.84E-06,0.021022501
,,,1.85E-06,0.020936876
,,,1.86E-06,0.021016251
,,,1.87E-06,0.020939376
,,,1.88E-06,0.020790626
,,,1.89E-06,0.020866876
,,,1.9E-06,0.021188126
,,,1.91E-06,0.021013751
,,,1.92E-06,0.021213126
,,,1.93E-06,0.020975626
,,,1.94E-06,0.021123126
,,,1.95E-06,0.021313751
,,,1.96E-06,0.020997501
,,,1.97E-06,0.020799376
,,,1.98E-06,0.020845001
,,,1.99E-06,0.020805001
,,,2E-06,0.020872501
,,,2.01E-06,0.020954376
,,,2.02E-06,0.020874376
,,,2.03E-06,0.021001251
,,,2.04E-06,0.021000626
,,,2.05E-06,0.020923751
,,,2.06E-06,0.020846876
,,,2.07E-06,0.021091876
,,,2.08E-06,0.021030001
,,,2.09E-06,0.021160626
,,,2.1E-06,0.020924376
,,,2.11E-06,0.021155626
,,,2.12E-06,0.020766876
,,,2.13E-06,0.021032501
,,,2.14E-06,0.021043126
,,,2.15E-06,0.020849376
,,,2.16E-06,0.021233126
,,,2.17E-06,0.021147501
,,,2.18E-06,0.020866876
,,,2.19E-06,0.021283126
,,,2.2E-06,0.020948751
,,,2.21E-06,0.021088751
,,,2.22E-06,0.021096251
,,,2.23E-06,0.021046251
,,,2.24E-06,0.020885001
,,,2.25E-06,0.021087501
,,,2.26E-06,0.020885626
,,,2.27E-06,0.020907501
,,,2.28E-06,0.020890626
,,,2.29E-06,0.020933751
,,,2.3E-06,0.021131876
,,,2.31E-06,0.021167501
,,,2.32E-06,0.021043751
,,,2.33E-06,0.020866876
,,,2.34E-06,0.021172501
,,,2.35E-06,0.021098751
,,,2.36E-06,0.020980001
,,,2.37E-06,0.021034376
,,,2.38E-06,0.021010001
,,,2.39E-06,0.020883751
,,,2.4E-06,0.020801876
,,,2.41E-06,0.020979376
,,,2.42E-06,0.020763126
,,,2.43E-06,0.020970626
,,,2.44E-06,0.021058751
,,,2.45E-06,0.020795001
,,,2.46E-06,0.020810001
,,,2.47E-06,0.020971251
,,,2.48E-06,0.020921876
,,,2.49E-06,0.020968751
,,,2.5E-06,0.020870626
,,,2.51E-06,0.020950626
,,,2.52E-06,0.021008751
,,,2.53E-06,0.021048126
,,,2.54E-06,0.020824376
,,,2.55E-06,0.020968751
,,,2.56E-06,0.020948751
,,,2.57E-06,0.020683126
,,,2.58E-06,0.020996876
,,,2.59E-06,0.020936876
,,,2.6E-06,0.020801251
,,,2.61E-06,0.020947501
,,,2.62E-06,0.020976251
,,,2.63E-06,0.020846251
,,,2.64E-06,0.021178751
,,,2.65E-06,0.021202501
,,,2.66E-06,0.020984376
,,,2.67E-06,0.020833751
,,,2.68E-06,0.020668751
,,,2.69E-06,0.021130626
,,,2.7E-06,0.020914376
,,,2.71E-06,0.020927501
,,,2.72E-06,0.020936251
,,,2.73E-06,0.020930001
,,,2.74E-06,0.021062501
,,,2.75E-06,0.021121251
,,,2.76E-06,0.020789376
,,,2.77E-06,0.020994376
,,,2.78E-06,0.020645001
,,,2.79E-06,0.020962501
,,,2.8E-06,0.020877501
,,,2.81E-06,0.021028126
,,,2.82E-06,0.021161251
,,,2.83E-06,0.020925626
,,,2.84E-06,0.020882501
,,,2.85E-06,0.021160001
,,,2.86E-06,0.020986876
,,,2.87E-06,0.020913751
,,,2.88E-06,0.020868126
,,,2.89E-06,0.020885001
,,,2.9E-06,0.020875001
,,,2.91E-06,0.020805626
,,,2.92E-06,0.021025001
,,,2.93E-06,0.020741876
,,,2.94E-06,0.020832501
,,,2.95E-06,0.020674376
,,,2.96E-06,0.021250626
,,,2.97E-06,0.020995626
,,,2.98E-06,0.021218751
,,,2.99E-06,0.020845626
,,,3E-06,0.020890626
,,,3.01E-06,0.020826876
,,,3.02E-06,0.020908126
,,,3.03E-06,0.020705626
,,,3.04E-06,0.020861876
,,,3.05E-06,0.020955626
,,,3.06E-06,0.020895001
,,,3.07E-06,0.021053751
,,,3.08E-06,0.021033126
,,,3.09E-06,0.020997501
,,,3.1E-06,0.020850001
,,,3.11E-06,0.020920001
,,,3.12E-06,0.021154376
,,,3.13E-06,0.020980626
,,,3.14E-06,0.021114376
,,,3.15E-06,0.020961251
,,,3.16E-06,0.020830626
,,,3.17E-06,0.021058126
,,,3.18E-06,0.020924376
,,,3.19E-06,0.021038751
,,,3.2E-06,0.021175626
,,,3.21E-06,0.021055626
