data/raw/Final_POL_Test_1/SOP085_Ch1.csv

"Record Length",1000,"Points",-5E-06,0.00499
"Sample Interval",1E-08,s,-4.99E-06,0.00532125
"Trigger Point",500,"Samples",-4.98E-06,0.0049275
"Trigger Time",0,s,-4.97E-06,0.005231875
"",,,-4.96E-06,0.0051325
"Horizontal Offset",-5E-06,s,-4.95E-06,0.005100625
,,,-4.94E-06,0.00513625
,,,-4.93E-06,0.004829375
,,,-4.92E-06,0.004909375
,,,-4.91E-06,0.00515625
,,,-4.9E-06,0.005315625
,,,-4.89E-06,0.005261875
,,,-4.88E-06,0.00515875
,,,-4.87E-06,0.005135625
,,,-4.86E-06,0.0050575
,,,-4.85E-06,0.0050375
,,,-4.84E-06,0.005004375
,,,-4.83E-06,0.0051825
,,,-4.82E-06,0.00513625
,,,-4.81E-06,0.00544375
,,,-4.8E-06,0.005205
,,,-4.79E-06,0.00512375
,,,-4.78E-06,0.005151875
,,,-4.77E-06,0.00499125
,,,-4.76E-06,0.0050625
,,,-4.75E-06,0.00490375
,,,-4.74E-06,0.00508375
,,,-4.73E-06,0.005309375
,,,-4.72E-06,0.00521
,,,-4.71E-06,0.005034375
,,,-4.7E-06,0.005163125
,,,-4.69E-06,0.00502
,,,-4.68E-06,0.005056875
,,,-4.67E-06,0.004958125
,,,-4.66E-06,0.00523875
,,,-4.65E-06,0.004990625
,,,-4.64E-06,0.00527625
,,,-4.63E-06,0.005216875
,,,-4.62E-06,0.00506875
,,,-4.61E-06,0.005320625
,,,-4.6E-06,0.005354375
,,,-4.59E-06,0.005256875
,,,-4.58E-06,0.005330625
,,,-4.57E-06,0.0051175
,,,-4.56E-06,0.00512375
,,,-4.55E-06,0.00517125
,,,-4.54E-06,0.00534125
,,,-4.53E-06,0.005236875
,,,-4.52E-06,0.00517875
,,,-4.51E-06,0.005076875
,,,-4.5E-06,0.00492125
,,,-4.49E-06,0.005070625
,,,-4.48E-06,0.005136875
,,,-4.47E-06,0.005034375
,,,-4.46E-06,0.005105
,,,-4.45E-06,0.005104375
,,,-4.44E-06,0.00512625
,,,-4.43E-06,0.004804375
,,,-4.42E-06,0.004835
,,,-4.41E-06,0.00499125
,,,-4.4E-06,0.005159375
,,,-4.39E-06,0.005139375
,,,-4.38E-06,0.00532
,,,-4.37E-06,0.004886875
,,,-4.36E-06,0.005195625
,,,-4.35E-06,0.004809375
,,,-4.34E-06,0.005201875
,,,-4.33E-06,0.004925625
,,,-4.32E-06,0.004988125
,,,-4.31E-06,0.005193125
,,,-4.3E-06,0.00504875
,,,-4.29E-06,0.005118125
,,,-4.28E-06,0.005150625
,,,-4.27E-06,0.005005625
,,,-4.26E-06,0.00503625
,,,-4.25E-06,0.005008125
,,,-4.24E-06,0.00530625
,,,-4.23E-06,0.005004375
,,,-4.22E-06,0.00510625
,,,-4.21E-06,0.00515625
,,,-4.2E-06,0.005103125
,,,-4.19E-06,0.005030625
,,,-4.18E-06,0.00503625
,,,-4.17E-06,0.0052825
,,,-4.16E-06,0.004930625
,,,-4.15E-06,0.00505625
,,,-4.14E-06,0.005239375
,,,-4.13E-06,0.005275625
,,,-4.12E-06,0.005223125
,,,-4.11E-06,0.005125625
,,,-4.1E-06,0.005059375
,,,-4.09E-06,0.0050475
,,,-4.08E-06,0.0052425
,,,-4.07E-06,0.00522875
,,,-4.06E-06,0.0051775
,,,-4.05E-06,0.005239375
,,,-4.04E-06,0.00508625
,,,-4.03E-06,0.005024375
,,,-4.02E-06,0.00480875
,,,-4.01E-06,0.004969375
,,,-4E-06,0.005015625
,,,-3.99E-06,0.00499625
,,,-3.98E-06,0.005335625
,,,-3.97E-06,0.00516875
,,,-3.96E-06,0.0050575
,,,-3.95E-06,0.005074375
,,,-3.94E-06,0.00507625
,,,-3.93E-06,0.005175625
,,,-3.92E-06,0.004901875
,,,-3.91E-06,0.0052075
,,,-3.9E-06,0.005264375
,,,-3.89E-06,0.00515625
,,,-3.88E-06,0.00533
,,,-3.87E-06,0.0049025
,,,-3.86E-06,0.00515375
,,,-3.85E-06,0.005046875
,,,-3.84E-06,0.005
,,,-3.83E-06,0.005048125
,,,-3.82E-06,0.005143125
,,,-3.81E-06,0.00522125
,,,-3.8E-06,0.00530375
,,,-3.79E-06,0.0050675
,,,-3.78E-06,0.0052275
,,,-3.77E-06,0.005139375
,,,-3.76E-06,0.00514375
,,,-3.75E-06,0.00521625
,,,-3.74E-06,0.00534625
,,,-3.73E-06,0.00501125
,,,-3.72E-06,0.005228125
,,,-3.71E-06,0.0051225
,,,-3.7E-06,0.005041875
,,,-3.69E-06,0.005270625
,,,-3.68E-06,0.005243125
,,,-3.67E-06,0.0053125
,,,-3.66E-06,0.00522875
,,,-3.65E-06,0.005430625
,,,-3.64E-06,0.005169375
,,,-3.63E-06,0.005185
,,,-3.62E-06,0.00531
,,,-3.61E-06,0.00497125
,,,-3.6E-06,0.0051325
,,,-3.59E-06,0.005246875
,,,-3.58E-06,0.005289375
,,,-3.57E-06,0.00566625
,,,-3.56E-06,0.005033125
,,,-3.55E-06,0.005110625
,,,-3.54E-06,0.0049975
,,,-3.53E-06,0.005044375
,,,-3.52E-06,0.00521875
,,,-3.51E-06,0.005360625
,,,-3.5E-06,0.005391875
,,,-3.49E-06,0.0051075
,,,-3.48E-06,0.00536
,,,-3.47E-06,0.005221875
,,,-3.46E-06,0.0052025
,,,-3.45E-06,0.00517125
,,,-3.44E-06,0.005171875
,,,-3.43E-06,0.005041875
,,,-3.42E-06,0.0048275
,,,-3.41E-06,0.005241875
,,,-3.4E-06,0.00523375
,,,-3.39E-06,0.0050475
,,,-3.38E-06,0.005154375
,,,-3.37E-06,0.0050625
,,,-3.36E-06,0.00486625
,,,-3.35E-06,0.0050725
,,,-3.34E-06,0.0051125
,,,-3.33E-06,0.004885
,,,-3.32E-06,0.005184375
,,,-3.31E-06,0.004871875
,,,-3.3E-06,0.004995
,,,-3.29E-06,0.0051625
,,,-3.28E-06,0.00509125
,,,-3.27E-06,0.005089375
,,,-3.26E-06,0.0049175
,,,-3.25E-06,0.0048275
,,,-3.24E-06,0.0050475
,,,-3.23E-06,0.00517125
,,,-3.22E-06,0.0051025
,,,-3.21E-06,0.004883125
,,,-3.2E-06,0.0049975
,,,-3.19E-06,0.00505375
,,,-3.18E-06,0.005065
,,,-3.17E-06,0.005011875
,,,-3.16E-06,0.004851875
,,,-3.15E-06,0.005021875
,,,-3.14E-06,0.005068125
,,,-3.13E-06,0.004994375
,,,-3.12E-06,0.00518875
,,,-3.11E-06,0.00524375
,,,-3.1E-06,0.00524875
,,,-3.09E-06,0.004988125
,,,-3.08E-06,0.005350625
,,,-3.07E-06,0.0050525
,,,-3.06E-06,0.00505125
,,,-3.05E-06,0.0053375
,,,-3.04E-06,0.004936875
,,,-3.03E-06,0.00503
,,,-3.02E-06,0.005255625
,,,-3.01E-06,0.005315
,,,-3E-06,0.005205625
,,,-2.99E-06,0.004979375
,,,-2.98E-06,0.005263125
,,,-2.97E-06,0.005014375
,,,-2.96E-06,0.00521875
,,,-2.95E-06,0.00520125
,,,-2.94E-06,0.005048125
,,,-2.93E-06,0.005234375
,,,-2.92E-06,0.005136875
,,,-2.91E-06,0.0051125
,,,-2.9E-06,0.0052225
,,,-2.89E-06,0.005269375
,,,-2.88E-06,0.004995625
,,,-2.87E-06,0.00498375
,,,-2.86E-06,0.005096875
,,,-2.85E-06,0.004801875
,,,-2.84E-06,0.005131875
,,,-2.83E-06,0.00502
,,,-2.82E-06,0.005236875
,,,-2.81E-06,0.004878125
,,,-2.8E-06,0.00506375
,,,-2.79E-06,0.00514
,,,-2.78E-06,0.005264375
,,,-2.77E-06,0.00527875
,,,-2.76E-06,0.0049975
,,,-2.75E-06,0.005180625
,,,-2.74E-06,0.00524375
,,,-2.73E-06,0.004958125
,,,-2.72E-06,0.00499
,,,-2.71E-06,0.00493875
,,,-2.7E-06,0.005128125
,,,-2.69E-06,0.00512625
,,,-2.68E-06,0.005186875
,,,-2.67E-06,0.005019375
,,,-2.66E-06,0.005148125
,,,-2.65E-06,0.005049375
,,,-2.64E-06,0.00508625
,,,-2.63E-06,0.005035
,,,-2.62E-06,0.005045
,,,-2.61E-06,0.004959375
,,,-2.6E-06,0.005210625
,,,-2.59E-06,0.00518625
,,,-2.58E-06,0.0051775
,,,-2.57E-06,0.005069375
,,,-2.56E-06,0.005119375
,,,-2.55E-06,0.00518
,,,-2.54E-06,0.005089375
,,,-2.53E-06,0.0050675
,,,-2.52E-06,0.004970625
,,,-2.51E-06,0.00534625
,,,-2.5E-06,0.004824375
,,,-2.49E-06,0.004921875
,,,-2.48E-06,0.005039375
,,,-2.47E-06,0.00499375
,,,-2.46E-06,0.0052225
,,,-2.45E-06,0.00495125
,,,-2.44E-06,0.005311875
,,,-2.43E-06,0.0051625
,,,-2.42E-06,0.005140625
,,,-2.41E-06,0.00525875
,,,-2.4E-06,0.0048525
,,,-2.39E-06,0.00496375
,,,-2.38E-06,0.004870625
,,,-2.37E-06,0.0050325
,,,-2.36E-06,0.0049825
,,,-2.35E-06,0.005140625
,,,-2.34E-06,0.0050125
,,,-2.33E-06,0.00498375
,,,-2.32E-06,0.005176875
,,,-2.31E-06,0.005285625
,,,-2.3E-06,0.005203125
,,,-2.29E-06,0.004973125
,,,-2.28E-06,0.0050325
,,,-2.27E-06,0.005111875
,,,-2.26E-06,0.005019375
,,,-2.25E-06,0.00523
,,,-2.24E-06,0.005194375
,,,-2.23E-06,0.00502125
,,,-2.22E-06,0.004986875
,,,-2.21E-06,0.004958125
,,,-2.2E-06,0.004999375
,,,-2.19E-06,0.00514625
,,,-2.18E-06,0.005173125
,,,-2.17E-06,0.00499
,,,-2.16E-06,0.005179375
,,,-2.15E-06,0.00513
,,,-2.14E-06,0.005285625
,,,-2.13E-06,0.005218125
,,,-2.12E-06,0.005094375
,,,-2.11E-06,0.0048925
,,,-2.1E-06,0.004735625
,,,-2.09E-06,0.005205625
,,,-2.08E-06,0.005155625
,,,-2.07E-06,0.00513375
,,,-2.06E-06,0.005195625
,,,-2.05E-06,0.0051975
,,,-2.04E-06,0.005100625
,,,-2.03E-06,0.00503875
,,,-2.02E-06,0.00497625
,,,-2.01E-06,0.004864375
,,,-2E-06,0.00502625
,,,-1.99E-06,0.005110625
,,,-1.98E-06,0.004705
,,,-1.97E-06,0.005474375
,,,-1.96E-06,0.00523625
,,,-1.95E-06,0.005070625
,,,-1.94E-06,0.005019375
,,,-1.93E-06,0.004908125
,,,-1.92E-06,0.00515
,,,-1.91E-06,0.00514375
,,,-1.9E-06,0.00523
,,,-1.89E-06,0.00501125
,,,-1.88E-06,0.004795625
,,,-1.87E-06,0.0049475
,,,-1.86E-06,0.00507875
,,,-1.85E-06,0.005035
,,,-1.84E-06,0.00522625
,,,-1.83E-06,0.005223125
,,,-1.82E-06,0.00495125
,,,-1.81E-06,0.005218125
,,,-1.8E-06,0.00513625
,,,-1.79E-06,0.00523375
,,,-1.78E-06,0.0050625
,,,-1.77E-06,0.00492875
,,,-1.76E-06,0.005135
,,,-1.75E-06,0.005070625
,,,-1.74E-06,0.005025
,,,-1.73E-06,0.005239375
,,,-1.72E-06,0.005111875
,,,-1.71E-06,0.005015625
,,,-1.7E-06,0.0049925
,,,-1.69E-06,0.00526625
,,,-1.68E-06,0.005184375
,,,-1.67E-06,0.005166875
,,,-1.66E-06,0.005033125
,,,-1.65E-06,0.00495625
,,,-1.64E-06,0.00518375
,,,-1.63E-06,0.00506
,,,-1.62E-06,0.00511875
,,,-1.61E-06,0.00525
,,,-1.6E-06,0.00478875
,,,-1.59E-06,0.0051625
,,,-1.58E-06,0.0052325
,,,-1.57E-06,0.005093125
,,,-1.56E-06,0.00522375
,,,-1.55E-06,0.00507125
,,,-1.54E-06,0.00506375
,,,-1.53E-06,0.00507125
,,,-1.52E-06,0.005068125
,,,-1.51E-06,0.005265
,,,-1.5E-06,0.004964375
,,,-1.49E-06,0.005273125
,,,-1.48E-06,0.00506875
,,,-1.47E-06,0.005160625
,,,-1.46E-06,0.005016875
,,,-1.45E-06,0.005004375
,,,-1.44E-06,0.0051875
,,,-1.43E-06,0.005138125
,,,-1.42E-06,0.0052275
,,,-1.41E-06,0.0052775
,,,-1.4E-06,0.005296875
,,,-1.39E-06,0.005094375
,,,-1.38E-06,0.00480375
,,,-1.37E-06,0.005146875
,,,-1.36E-06,0.00533375
,,,-1.35E-06,0.005281875
,,,-1.34E-06,0.00504
,,,-1.33E-06,0.005289375
,,,-1.32E-06,0.005123125
,,,-1.31E-06,0.005361875
,,,-1.3E-06,0.00511625
,,,-1.29E-06,0.004870625
,,,-1.28E-06,0.005155
,,,-1.27E-06,0.00516125
,,,-1.26E-06,0.00516125
,,,-1.25E-06,0.005139375
,,,-1.24E-06,0.005015
,,,-1.23E-06,0.0052175
,,,-1.22E-06,0.004899375
,,,-1.21E-06,0.00486875
,,,-1.2E-06,0.005260625
,,,-1.19E-06,0.005200625
,,,-1.18E-06,0.00504
,,,-1.17E-06,0.0047875
,,,-1.16E-06,0.005346875
,,,-1.15E-06,0.005239375
,,,-1.14E-06,0.005045625
,,,-1.13E-06,0.0050225
,,,-1.12E-06,0.00512625
,,,-1.11E-06,0.0053925
,,,-1.1E-06,0.004866875
,,,-1.09E-06,0.00526
,,,-1.08E-06,0.0051575
,,,-1.07E-06,0.004931875
,,,-1.06E-06,0.00520125
,,,-1.05E-06,0.005113125
,,,-1.04E-06,0.00523875
,,,-1.03E-06,0.00509875
,,,-1.02E-06,0.00509875
,,,-1.01E-06,0.00510125
,,,-1E-06,0.00516375
,,,-9.9E-07,0.004865625
,,,-9.8E-07,0.005165
,,,-9.7E-07,0.004931875
,,,-9.6E-07,0.00499375
,,,-9.5E-07,0.00518625
,,,-9.4E-07,0.005091875
,,,-9.3E-07,0.00507375
,,,-9.2E-07,0.005073125
,,,-9.1E-07,0.00513
,,,-9E-07,0.004986875
,,,-8.9E-07,0.0052625
,,,-8.8E-07,0.005029375
,,,-8.7E-07,0.005304375
,,,-8.6E-07,0.005066875
,,,-8.5E-07,0.00495125
,,,-8.4E-07,0.005178125
,,,-8.3E-07,0.005028125
,,,-8.2E-07,0.0048725
,,,-8.1E-07,0.00509375
,,,-8E-07,0.005358125
,,,-7.9E-07,0.00511125
,,,-7.8E-07,0.00518875
,,,-7.7E-07,0.0052225
,,,-7.6E-07,0.0049175
,,,-7.5E-07,0.00519375
,,,-7.4E-07,0.00507125
,,,-7.3E-07,0.0051
,,,-7.2E-07,0.004955
,,,-7.1E-07,0.00510875
,,,-7E-07,0.004990625
,,,-6.9E-07,0.005011875
,,,-6.8E-07,0.005170625
,,,-6.7E-07,0.005199375
,,,-6.6E-07,0.005165
,,,-6.5E-07,0.00505
,,,-6.4E-07,0.00508125
,,,-6.3E-07,0.004935
,,,-6.2E-07,0.005143125
,,,-6.1E-07,0.004996875
,,,-6E-07,0.005005
,,,-5.9E-07,0.005229375
,,,-5.8E-07,0.00521375
,,,-5.7E-07,0.005241875
,,,-5.6E-07,0.005289375
,,,-5.5E-07,0.004965625
,,,-5.4E-07,0.00518625
,,,-5.3E-07,0.005239375
,,,-5.2E-07,0.005060625
,,,-5.1E-07,0.00510625
,,,-5E-07,0.0050875
,,,-4.9E-07,0.00487375
,,,-4.8E-07,0.005028125
,,,-4.7E-07,0.005005
,,,-4.6E-07,0.00503625
,,,-4.5E-07,0.0050175
,,,-4.4E-07,0.004968125
,,,-4.3E-07,0.005200625
,,,-4.2E-07,0.005045625
,,,-4.1E-07,0.005261875
,,,-4E-07,0.005160625
,,,-3.9E-07,0.005300625
,,,-3.8E-07,0.0050125
,,,-3.7E-07,0.005101875
,,,-3.6E-07,0.004918125
,,,-3.5E-07,0.0050725
,,,-3.4E-07,0.00507
,,,-3.3E-07,0.0050825
,,,-3.2E-07,0.00504375
,,,-3.1E-07,0.00498375
,,,-3E-07,0.004914375
,,,-2.9E-07,0.005285625
,,,-2.8E-07,0.0050425
,,,-2.7E-07,0.005244375
,,,-2.6E-07,0.0053
,,,-2.5E-07,0.00525875
,,,-2.4E-07,0.00530875
,,,-2.3E-07,0.0050425
,,,-2.2E-07,0.005305
,,,-2.1E-07,0.005169375
,,,-2E-07,0.005481875
,,,-1.9E-07,0.004995625
,,,-1.8E-07,0.004876875
,,,-1.7E-07,0.005264375
,,,-1.6E-07,0.005161875
,,,-1.5E-07,0.004996875
,,,-1.4E-07,0.0050575
,,,-1.3E-07,0.0050625
,,,-1.2E-07,0.005206875
,,,-1.1E-07,0.0050325
,,,-1E-07,0.00509625
,,,-9E-08,0.005044375
,,,-8E-08,0.0049075
,,,-7E-08,0.004955
,,,-6E-08,0.005171875
,,,-5E-08,0.005224375
,,,-4E-08,0.0052375
,,,-3E-08,0.00543375
,,,-2E-08,0.005215625
,,,-1E-08,0.003429375
,,,0,0.004291875
,,,1E-08,0.0056675
,,,2E-08,0.00691
,,,3E-08,0.006176875
,,,4E-08,0.00508375
,,,5E-08,0.003966875
,,,6E-08,0.003865
,,,7E-08,0.004881875
,,,8E-08,0.0054225
,,,9E-08,0.006
,,,1E-07,0.005996875
,,,1.1E-07,0.005624375
,,,1.2E-07,0.00492125
,,,1.3E-07,0.004495625
,,,1.4E-07,0.004865
,,,1.5E-07,0.0048975
,,,1.6E-07,0.00531875
,,,1.7E-07,0.005219375
,,,1.8E-07,0.005141875
,,,1.9E-07,0.005256875
,,,2E-07,0.0052825
,,,2.1E-07,0.005045625
,,,2.2E-07,0.005189375
,,,2.3E-07,0.00511875
,,,2.4E-07,0.00510375
,,,2.5E-07,0.005178125
,,,2.6E-07,0.0051125
,,,2.7E-07,0.005164375
,,,2.8E-07,0.00508125
,,,2.9E-07,0.005256875
,,,3E-07,0.004986875
,,,3.1E-07,0.00512125
,,,3.2E-07,0.005093125
,,,3.3E-07,0.005083125
,,,3.4E-07,0.005060625
,,,3.5E-07,0.005004375
,,,3.6E-07,0.00509625
,,,3.7E-07,0.00486
,,,3.8E-07,0.005038125
,,,3.9E-07,0.005126875
,,,4E-07,0.005026875
,,,4.1E-07,0.00516
,,,4.2E-07,0.00501
,,,4.3E-07,0.005198125
,,,4.4E-07,0.005163125
,,,4.5E-07,0.005063125
,,,4.6E-07,0.00515
,,,4.7E-07,0.0050475
,,,4.8E-07,0.0050425
,,,4.9E-07,0.00509625
,,,5E-07,0.00502875
,,,5.1E-07,0.00500125
,,,5.2E-07,0.0052
,,,5.3E-07,0.005149375
,,,5.4E-07,0.005086875
,,,5.5E-07,0.005173125
,,,5.6E-07,0.0052175
,,,5.7E-07,0.005265625
,,,5.8E-07,0.005263125
,,,5.9E-07,0.00493875
,,,6E-07,0.004965625
,,,6.1E-07,0.005061875
,,,6.2E-07,0.00482625
,,,6.3E-07,0.005309375
,,,6.4E-07,0.005235
,,,6.5E-07,0.0052275
,,,6.6E-07,0.005086875
,,,6.7E-07,0.005048125
,,,6.8E-07,0.004789375
,,,6.9E-07,0.00513125
,,,7E-07,0.0050825
,,,7.1E-07,0.005203125
,,,7.2E-07,0.005228125
,,,7.3E-07,0.005029375
,,,7.4E-07,0.0051175
,,,7.5E-07,0.005456875
,,,7.6E-07,0.00518875
,,,7.7E-07,0.004935
,,,7.8E-07,0.005055625
,,,7.9E-07,0.005161875
,,,8E-07,0.00511125
,,,8.1E-07,0.005255625
,,,8.2E-07,0.0050175
,,,8.3E-07,0.0053325
,,,8.4E-07,0.005230625
,,,8.5E-07,0.005105625
,,,8.6E-07,0.00482875
,,,8.7E-07,0.005164375
,,,8.8E-07,0.005135625
,,,8.9E-07,0.005060625
,,,9E-07,0.00501125
,,,9.1E-07,0.005336875
,,,9.2E-07,0.00507
,,,9.3E-07,0.005141875
,,,9.4E-07,0.005044375
,,,9.5E-07,0.005275
,,,9.6E-07,0.005109375
,,,9.7E-07,0.005075
,,,9.8E-07,0.00503
,,,9.9E-07,0.005096875
,,,1E-06,0.005174375
,,,1.01E-06,0.005203125
,,,1.02E-06,0.005145625
,,,1.03E-06,0.005303125
,,,1.04E-06,0.0049725
,,,1.05E-06,0.00506625
,,,1.06E-06,0.00507125
,,,1.07E-06,0.0052575
,,,1.08E-06,0.005085625
,,,1.09E-06,0.005039375
,,,1.1E-06,0.005153125
,,,1.11E-06,0.004970625
,,,1.12E-06,0.005160625
,,,1.13E-06,0.00512375
,,,1.14E-06,0.004899375
,,,1.15E-06,0.004995
,,,1.16E-06,0.005164375
,,,1.17E-06,0.00529625
,,,1.18E-06,0.004833125
,,,1.19E-06,0.00508875
,,,1.2E-06,0.005033125
,,,1.21E-06,0.005034375
,,,1.22E-06,0.005445625
,,,1.23E-06,0.005279375
,,,1.24E-06,0.00524
,,,1.25E-06,0.00516125
,,,1.26E-06,0.005099375
,,,1.27E-06,0.005035
,,,1.28E-06,0.0052775
,,,1.29E-06,0.00517375
,,,1.3E-06,0.005069375
,,,1.31E-06,0.005190625
,,,1.32E-06,0.005268125
,,,1.33E-06,0.005250625
,,,1.34E-06,0.005174375
,,,1.35E-06,0.00519
,,,1.36E-06,0.00507875
,,,1.37E-06,0.0050925
,,,1.38E-06,0.005323125
,,,1.39E-06,0.004984375
,,,1.4E-06,0.004835625
,,,1.41E-06,0.00505875
,,,1.42E-06,0.005169375
,,,1.43E-06,0.00500125
,,,1.44E-06,0.005059375
,,,1.45E-06,0.0049775
,,,1.46E-06,0.005179375
,,,1.47E-06,0.0052025
,,,1.48E-06,0.005291875
,,,1.49E-06,0.005004375
,,,1.5E-06,0.004975
,,,1.51E-06,0.00512625
,,,1.52E-06,0.00494125
,,,1.53E-06,0.005116875
,,,1.54E-06,0.005023125
,,,1.55E-06,0.005245625
,,,1.56E-06,0.0055125
,,,1.57E-06,0.005080625
,,,1.58E-06,0.005090625
,,,1.59E-06,0.005056875
,,,1.6E-06,0.0050775
,,,1.61E-06,0.005016875
,,,1.62E-06,0.0050075
,,,1.63E-06,0.005205625
,,,1.64E-06,0.005160625
,,,1.65E-06,0.00505875
,,,1.66E-06,0.005010625
,,,1.67E-06,0.005063125
,,,1.68E-06,0.00526375
,,,1.69E-06,0.005315625
,,,1.7E-06,0.0052775
,,,1.71E-06,0.00508
,,,1.72E-06,0.004950625
,,,1.73E-06,0.005414375
,,,1.74E-06,0.005079375
,,,1.75E-06,0.005224375
,,,1.76E-06,0.005180625
,,,1.77E-06,0.005065
,,,1.78E-06,0.005046875
,,,1.79E-06,0.00501125
,,,1.8E-06,0.00514
,,,1.81E-06,0.005183125
,,,1.82E-06,0.0050275
,,,1.83E-06,0.005260625
,,,1.84E-06,0.004910625
,,,1.85E-06,0.00484125
,,,1.86E-06,0.00508875
,,,1.87E-06,0.00500875
,,,1.88E-06,0.004985625
,,,1.89E-06,0.005066875
,,,1.9E-06,0.00499875
,,,1.91E-06,0.0053075
,,,1.92E-06,0.0048775
,,,1.93E-06,0.00509375
,,,1.94E-06,0.004986875
,,,1.95E-06,0.005210625
,,,1.96E-06,0.00505875
,,,1.97E-06,0.005221875
,,,1.98E-06,0.0050925
,,,1.99E-06,0.005184375
,,,2E-06,0.005260625
,,,2.01E-06,0.00537125
,,,2.02E-06,0.00527125
,,,2.03E-06,0.0049775
,,,2.04E-06,0.005225
,,,2.05E-06,0.005150625
,,,2.06E-06,0.00519875
,,,2.07E-06,0.00511625
,,,2.08E-06,0.0050825
,,,2.09E-06,0.005039375
,,,2.1E-06,0.004986875
,,,2.11E-06,0.005190625
,,,2.12E-06,0.005224375
,,,2.13E-06,0.0052075
,,,2.14E-06,0.005095625
,,,2.15E-06,0.005233125
,,,2.16E-06,0.00482875
,,,2.17E-06,0.00524125
,,,2.18E-06,0.005183125
,,,2.19E-06,0.00498375
,,,2.2E-06,0.00511375
,,,2.21E-06,0.004895625
,,,2.22E-06,0.00536625
,,,2.23E-06,0.005343125
,,,2.24E-06,0.004905625
,,,2.25E-06,0.004969375
,,,2.26E-06,0.00483625
,,,2.27E-06,0.005283125
,,,2.28E-06,0.0051975
,,,2.29E-06,0.004975625
,,,2.3E-06,0.004810625
,,,2.31E-06,0.005135625
,,,2.32E-06,0.00511125
,,,2.33E-06,0.005268125
,,,2.34E-06,0.00501125
,,,2.35E-06,0.005159375
,,,2.36E-06,0.00514125
,,,2.37E-06,0.00505125
,,,2.38E-06,0.00507375
,,,2.39E-06,0.0053775
,,,2.4E-06,0.0049275
,,,2.41E-06,0.005215
,,,2.42E-06,0.004918125
,,,2.43E-06,0.00507125
,,,2.44E-06,0.004925625
,,,2.45E-06,0.005128125
,,,2.46E-06,0.005079375
,,,2.47E-06,0.00515125
,,,2.48E-06,0.005210625
,,,2.49E-06,0.005290625
,,,2.5E-06,0.005258125
,,,2.51E-06,0.00491875
,,,2.52E-06,0.005213125
,,,2.53E-06,0.005135
,,,2.54E-06,0.005276875
,,,2.55E-06,0.005289375
,,,2.56E-06,0.0050275
,,,2.57E-06,0.005103125
,,,2.58E-06,0.004970625
,,,2.59E-06,0.005125
,,,2.6E-06,0.0049875
,,,2.61E-06,0.005174375
,,,2.62E-06,0.004874375
,,,2.63E-06,0.005120625
,,,2.64E-06,0.004895625
,,,2.65E-06,0.00525
,,,2.66E-06,0.005028125
,,,2.67E-06,0.004830625
,,,2.68E-06,0.005024375
,,,2.69E-06,0.005250625
,,,2.7E-06,0.005171875
,,,2.71E-06,0.005135
,,,2.72E-06,0.005165
,,,2.73E-06,0.0052125
,,,2.74E-06,0.005251875
,,,2.75E-06,0.0050575
,,,2.76E-06,0.00508125
,,,2.77E-06,0.005151875
,,,2.78E-06,0.005166875
,,,2.79E-06,0.00491
,,,2.8E-06,0.0052875
,,,2.81E-06,0.00531125
,,,2.82E-06,0.00508875
,,,2.83E-06,0.00526625
,,,2.84E-06,0.005118125
,,,2.85E-06,0.005068125
,,,2.86E-06,0.004915
,,,2.87E-06,0.005141875
,,,2.88E-06,0.00500875
,,,2.89E-06,0.00502875
,,,2.9E-06,0.005121875
,,,2.91E-06,0.0051075
,,,2.92E-06,0.00536125
,,,2.93E-06,0.005278125
,,,2.94E-06,0.004993125
,,,2.95E-06,0.00499375
,,,2.96E-06,0.00507375
,,,2.97E-06,0.004863125
,,,2.98E-06,0.0052125
,,,2.99E-06,0.004955
,,,3E-06,0.004945
,,,3.01E-06,0.00511375
,,,3.02E-06,0.00531
,,,3.03E-06,0.005084375
,,,3.04E-06,0.005035
,,,3.05E-06,0.0054375
,,,3.06E-06,0.005146875
,,,3.07E-06,0.0050175
,,,3.08E-06,0.005164375
,,,3.09E-06,0.005205
,,,3.1E-06,0.0050725
,,,3.11E-06,0.004931875
,,,3.12E-06,0.005203125
,,,3.13E-06,0.005169375
,,,3.14E-06,0.004978125
,,,3.15E-06,0.005193125
,,,3.16E-06,0.005123125
,,,3.17E-06,0.005079375
,,,3.18E-06,0.005259375
,,,3.19E-06,0.00507625
,,,3.2E-06,0.004991875
,,,3.21E-06,0.00488625
,,,3.22E-06,0.00508125
,,,3.23E-06,0.00516
,,,3.24E-06,0.00512625
,,,3.25E-06,0.004959375
,,,3.26E-06,0.00524625
,,,3.27E-06,0.0052575
,,,3.28E-06,0.005046875
,,,3.29E-06,0.005074375
,,,3.3E-06,0.00499875
,,,3.31E-06,0.00501125
,,,3.32E-06,0.005175
,,,3.33E-06,0.005226875
,,,3.34E-06,0.00504625
,,,3.35E-06,0.005028125
,,,3.36E-06,0.00506
,,,3.37E-06,0.005291875
,,,3.38E-06,0.00516125
,,,3.39E-06,0.00521125
,,,3.4E-06,0.00514375
,,,3.41E-06,0.005275625
,,,3.42E-06,0.0051425
,,,3.43E-06,0.00513125
,,,3.44E-06,0.00525375
,,,3.45E-06,0.00510375
,,,3.46E-06,0.00513375
,,,3.47E-06,0.005291875
,,,3.48E-06,0.00498125
,,,3.49E-06,0.00521375
,,,3.5E-06,0.005253125
,,,3.51E-06,0.0051475
,,,3.52E-06,0.00528625
,,,3.53E-06,0.005014375
,,,3.54E-06,0.005140625
