data/raw/Final_POL_Test_1/SOP054_Ch4.csv

"Record Length",1000,"Points",-5E-06,0.01718625
"Sample Interval",1E-08,s,-4.99E-06,0.016991875
"Trigger Point",500,"Samples",-4.98E-06,0.01685875
"Trigger Time",0,s,-4.97E-06,0.01735375
"",,,-4.96E-06,0.01694
"Horizontal Offset",-5E-06,s,-4.95E-06,0.017273125
,,,-4.94E-06,0.017114375
,,,-4.93E-06,0.016889375
,,,-4.92E-06,0.017124375
,,,-4.91E-06,0.016931875
,,,-4.9E-06,0.017019375
,,,-4.89E-06,0.017054375
,,,-4.88E-06,0.016953125
,,,-4.87E-06,0.01695
,,,-4.86E-06,0.01720875
,,,-4.85E-06,0.016973125
,,,-4.84E-06,0.01690125
,,,-4.83E-06,0.017090625
,,,-4.82E-06,0.01705
,,,-4.81E-06,0.017349375
,,,-4.8E-06,0.016995
,,,-4.79E-06,0.016839375
,,,-4.78E-06,0.01718125
,,,-4.77E-06,0.017036875
,,,-4.76E-06,0.01703375
,,,-4.75E-06,0.017195
,,,-4.74E-06,0.016871875
,,,-4.73E-06,0.017074375
,,,-4.72E-06,0.016990625
,,,-4.71E-06,0.01711
,,,-4.7E-06,0.017124375
,,,-4.69E-06,0.0170825
,,,-4.68E-06,0.01702875
,,,-4.67E-06,0.017015625
,,,-4.66E-06,0.017153125
,,,-4.65E-06,0.017140625
,,,-4.64E-06,0.01692
,,,-4.63E-06,0.0172725
,,,-4.62E-06,0.0169825
,,,-4.61E-06,0.01688625
,,,-4.6E-06,0.017124375
,,,-4.59E-06,0.016721875
,,,-4.58E-06,0.0168725
,,,-4.57E-06,0.01718
,,,-4.56E-06,0.01710125
,,,-4.55E-06,0.01714125
,,,-4.54E-06,0.0170075
,,,-4.53E-06,0.016836875
,,,-4.52E-06,0.0169675
,,,-4.51E-06,0.01703125
,,,-4.5E-06,0.017138125
,,,-4.49E-06,0.017031875
,,,-4.48E-06,0.017000625
,,,-4.47E-06,0.016989375
,,,-4.46E-06,0.01707875
,,,-4.45E-06,0.017020625
,,,-4.44E-06,0.01727125
,,,-4.43E-06,0.016856875
,,,-4.42E-06,0.016935625
,,,-4.41E-06,0.01687375
,,,-4.4E-06,0.017143125
,,,-4.39E-06,0.01686125
,,,-4.38E-06,0.017
,,,-4.37E-06,0.016989375
,,,-4.36E-06,0.0172725
,,,-4.35E-06,0.0167125
,,,-4.34E-06,0.0169825
,,,-4.33E-06,0.0169575
,,,-4.32E-06,0.0169525
,,,-4.31E-06,0.017155625
,,,-4.3E-06,0.017178125
,,,-4.29E-06,0.0171725
,,,-4.28E-06,0.01702625
,,,-4.27E-06,0.016849375
,,,-4.26E-06,0.016883125
,,,-4.25E-06,0.016723125
,,,-4.24E-06,0.0170825
,,,-4.23E-06,0.0171275
,,,-4.22E-06,0.0170775
,,,-4.21E-06,0.01699125
,,,-4.2E-06,0.01705
,,,-4.19E-06,0.017120625
,,,-4.18E-06,0.017306875
,,,-4.17E-06,0.01678125
,,,-4.16E-06,0.017198125
,,,-4.15E-06,0.01681625
,,,-4.14E-06,0.0170725
,,,-4.13E-06,0.016745
,,,-4.12E-06,0.01696875
,,,-4.11E-06,0.016845
,,,-4.1E-06,0.016845625
,,,-4.09E-06,0.017114375
,,,-4.08E-06,0.0170425
,,,-4.07E-06,0.01710125
,,,-4.06E-06,0.01716875
,,,-4.05E-06,0.01693125
,,,-4.04E-06,0.01678375
,,,-4.03E-06,0.01685375
,,,-4.02E-06,0.01694125
,,,-4.01E-06,0.0171825
,,,-4E-06,0.0170625
,,,-3.99E-06,0.016978125
,,,-3.98E-06,0.0170325
,,,-3.97E-06,0.0170775
,,,-3.96E-06,0.017155
,,,-3.95E-06,0.016925
,,,-3.94E-06,0.016978125
,,,-3.93E-06,0.0168875
,,,-3.92E-06,0.0170225
,,,-3.91E-06,0.01707125
,,,-3.9E-06,0.01712125
,,,-3.89E-06,0.016976875
,,,-3.88E-06,0.017100625
,,,-3.87E-06,0.016961875
,,,-3.86E-06,0.01708
,,,-3.85E-06,0.0168925
,,,-3.84E-06,0.017068125
,,,-3.83E-06,0.016965625
,,,-3.82E-06,0.016955625
,,,-3.81E-06,0.017138125
,,,-3.8E-06,0.017268125
,,,-3.79E-06,0.017079375
,,,-3.78E-06,0.017060625
,,,-3.77E-06,0.016978125
,,,-3.76E-06,0.016549375
,,,-3.75E-06,0.017010625
,,,-3.74E-06,0.016898125
,,,-3.73E-06,0.016945625
,,,-3.72E-06,0.01702
,,,-3.71E-06,0.016841875
,,,-3.7E-06,0.01686375
,,,-3.69E-06,0.01690625
,,,-3.68E-06,0.01688625
,,,-3.67E-06,0.01734625
,,,-3.66E-06,0.017143125
,,,-3.65E-06,0.016998125
,,,-3.64E-06,0.0168975
,,,-3.63E-06,0.017174375
,,,-3.62E-06,0.0169
,,,-3.61E-06,0.017055625
,,,-3.6E-06,0.017078125
,,,-3.59E-06,0.0170325
,,,-3.58E-06,0.017035625
,,,-3.57E-06,0.01696
,,,-3.56E-06,0.01700125
,,,-3.55E-06,0.01706875
,,,-3.54E-06,0.016705625
,,,-3.53E-06,0.016886875
,,,-3.52E-06,0.01690625
,,,-3.51E-06,0.01691
,,,-3.5E-06,0.016854375
,,,-3.49E-06,0.017280625
,,,-3.48E-06,0.017216875
,,,-3.47E-06,0.017049375
,,,-3.46E-06,0.016801875
,,,-3.45E-06,0.017051875
,,,-3.44E-06,0.017003125
,,,-3.43E-06,0.0170275
,,,-3.42E-06,0.0170675
,,,-3.41E-06,0.017014375
,,,-3.4E-06,0.017209375
,,,-3.39E-06,0.01678375
,,,-3.38E-06,0.016871875
,,,-3.37E-06,0.016988125
,,,-3.36E-06,0.0170925
,,,-3.35E-06,0.01713875
,,,-3.34E-06,0.017043125
,,,-3.33E-06,0.016985
,,,-3.32E-06,0.017110625
,,,-3.31E-06,0.016874375
,,,-3.3E-06,0.017126875
,,,-3.29E-06,0.01670125
,,,-3.28E-06,0.017075625
,,,-3.27E-06,0.01694
,,,-3.26E-06,0.017175
,,,-3.25E-06,0.017003125
,,,-3.24E-06,0.0169575
,,,-3.23E-06,0.0170825
,,,-3.22E-06,0.016974375
,,,-3.21E-06,0.01681625
,,,-3.2E-06,0.017169375
,,,-3.19E-06,0.017005
,,,-3.18E-06,0.017014375
,,,-3.17E-06,0.016971875
,,,-3.16E-06,0.01701375
,,,-3.15E-06,0.017111875
,,,-3.14E-06,0.01715875
,,,-3.13E-06,0.017015625
,,,-3.12E-06,0.01681375
,,,-3.11E-06,0.0167725
,,,-3.1E-06,0.016975
,,,-3.09E-06,0.0171325
,,,-3.08E-06,0.01722875
,,,-3.07E-06,0.01707375
,,,-3.06E-06,0.01696625
,,,-3.05E-06,0.016943125
,,,-3.04E-06,0.01721875
,,,-3.03E-06,0.0172425
,,,-3.02E-06,0.01723
,,,-3.01E-06,0.017028125
,,,-3E-06,0.017031875
,,,-2.99E-06,0.016734375
,,,-2.98E-06,0.016834375
,,,-2.97E-06,0.0171475
,,,-2.96E-06,0.017155
,,,-2.95E-06,0.017139375
,,,-2.94E-06,0.017019375
,,,-2.93E-06,0.017023125
,,,-2.92E-06,0.016815
,,,-2.91E-06,0.017004375
,,,-2.9E-06,0.017071875
,,,-2.89E-06,0.0168825
,,,-2.88E-06,0.01705875
,,,-2.87E-06,0.017021875
,,,-2.86E-06,0.01718375
,,,-2.85E-06,0.017138125
,,,-2.84E-06,0.01697625
,,,-2.83E-06,0.016900625
,,,-2.82E-06,0.017090625
,,,-2.81E-06,0.017108125
,,,-2.8E-06,0.01708
,,,-2.79E-06,0.01708
,,,-2.78E-06,0.0168575
,,,-2.77E-06,0.016824375
,,,-2.76E-06,0.0171425
,,,-2.75E-06,0.01684125
,,,-2.74E-06,0.017323125
,,,-2.73E-06,0.0170175
,,,-2.72E-06,0.01692875
,,,-2.71E-06,0.016685625
,,,-2.7E-06,0.01713875
,,,-2.69E-06,0.017225
,,,-2.68E-06,0.0168625
,,,-2.67E-06,0.017268125
,,,-2.66E-06,0.0168625
,,,-2.65E-06,0.017073125
,,,-2.64E-06,0.01687875
,,,-2.63E-06,0.017169375
,,,-2.62E-06,0.01701375
,,,-2.61E-06,0.017196875
,,,-2.6E-06,0.017081875
,,,-2.59E-06,0.017013125
,,,-2.58E-06,0.017103125
,,,-2.57E-06,0.017191875
,,,-2.56E-06,0.016954375
,,,-2.55E-06,0.01700875
,,,-2.54E-06,0.016975625
,,,-2.53E-06,0.0168575
,,,-2.52E-06,0.017094375
,,,-2.51E-06,0.01692
,,,-2.5E-06,0.017175
,,,-2.49E-06,0.017205625
,,,-2.48E-06,0.01697375
,,,-2.47E-06,0.017040625
,,,-2.46E-06,0.016651875
,,,-2.45E-06,0.016948125
,,,-2.44E-06,0.01707375
,,,-2.43E-06,0.017101875
,,,-2.42E-06,0.0171525
,,,-2.41E-06,0.017094375
,,,-2.4E-06,0.01704625
,,,-2.39E-06,0.017004375
,,,-2.38E-06,0.017015
,,,-2.37E-06,0.016891875
,,,-2.36E-06,0.016968125
,,,-2.35E-06,0.016794375
,,,-2.34E-06,0.01707
,,,-2.33E-06,0.0171525
,,,-2.32E-06,0.0169675
,,,-2.31E-06,0.01730375
,,,-2.3E-06,0.017005625
,,,-2.29E-06,0.017101875
,,,-2.28E-06,0.01710625
,,,-2.27E-06,0.017021875
,,,-2.26E-06,0.017045625
,,,-2.25E-06,0.01699125
,,,-2.24E-06,0.01709875
,,,-2.23E-06,0.016884375
,,,-2.22E-06,0.017071875
,,,-2.21E-06,0.016918125
,,,-2.2E-06,0.016985625
,,,-2.19E-06,0.017194375
,,,-2.18E-06,0.016955
,,,-2.17E-06,0.0170825
,,,-2.16E-06,0.017078125
,,,-2.15E-06,0.017001875
,,,-2.14E-06,0.0169925
,,,-2.13E-06,0.016865625
,,,-2.12E-06,0.017146875
,,,-2.11E-06,0.016896875
,,,-2.1E-06,0.01703125
,,,-2.09E-06,0.0171475
,,,-2.08E-06,0.01698625
,,,-2.07E-06,0.016949375
,,,-2.06E-06,0.016929375
,,,-2.05E-06,0.016781875
,,,-2.04E-06,0.016803125
,,,-2.03E-06,0.0167875
,,,-2.02E-06,0.016946875
,,,-2.01E-06,0.0172175
,,,-2E-06,0.01691875
,,,-1.99E-06,0.0169525
,,,-1.98E-06,0.016866875
,,,-1.97E-06,0.017015625
,,,-1.96E-06,0.0170475
,,,-1.95E-06,0.016916875
,,,-1.94E-06,0.017005
,,,-1.93E-06,0.0171425
,,,-1.92E-06,0.017140625
,,,-1.91E-06,0.01711875
,,,-1.9E-06,0.01728
,,,-1.89E-06,0.01691125
,,,-1.88E-06,0.017021875
,,,-1.87E-06,0.01701875
,,,-1.86E-06,0.0169475
,,,-1.85E-06,0.01711625
,,,-1.84E-06,0.017144375
,,,-1.83E-06,0.017171875
,,,-1.82E-06,0.01724625
,,,-1.81E-06,0.017243125
,,,-1.8E-06,0.016945625
,,,-1.79E-06,0.016848125
,,,-1.78E-06,0.016944375
,,,-1.77E-06,0.016828125
,,,-1.76E-06,0.0170525
,,,-1.75E-06,0.01719875
,,,-1.74E-06,0.017375625
,,,-1.73E-06,0.016931875
,,,-1.72E-06,0.017079375
,,,-1.71E-06,0.017099375
,,,-1.7E-06,0.0169875
,,,-1.69E-06,0.017019375
,,,-1.68E-06,0.016881875
,,,-1.67E-06,0.017009375
,,,-1.66E-06,0.0170575
,,,-1.65E-06,0.01697625
,,,-1.64E-06,0.01690375
,,,-1.63E-06,0.01701625
,,,-1.62E-06,0.017123125
,,,-1.61E-06,0.016989375
,,,-1.6E-06,0.017195625
,,,-1.59E-06,0.017036875
,,,-1.58E-06,0.01705375
,,,-1.57E-06,0.016830625
,,,-1.56E-06,0.0169325
,,,-1.55E-06,0.0170725
,,,-1.54E-06,0.01700625
,,,-1.53E-06,0.017018125
,,,-1.52E-06,0.0170525
,,,-1.51E-06,0.017060625
,,,-1.5E-06,0.016896875
,,,-1.49E-06,0.017108125
,,,-1.48E-06,0.01708
,,,-1.47E-06,0.016975
,,,-1.46E-06,0.017188125
,,,-1.45E-06,0.01681625
,,,-1.44E-06,0.01714
,,,-1.43E-06,0.0171025
,,,-1.42E-06,0.01711375
,,,-1.41E-06,0.016925
,,,-1.4E-06,0.01697625
,,,-1.39E-06,0.01702375
,,,-1.38E-06,0.016884375
,,,-1.37E-06,0.016811875
,,,-1.36E-06,0.01701
,,,-1.35E-06,0.017063125
,,,-1.34E-06,0.0171725
,,,-1.33E-06,0.017091875
,,,-1.32E-06,0.016818125
,,,-1.31E-06,0.016890625
,,,-1.3E-06,0.01687
,,,-1.29E-06,0.01683875
,,,-1.28E-06,0.016924375
,,,-1.27E-06,0.0170925
,,,-1.26E-06,0.017125
,,,-1.25E-06,0.017319375
,,,-1.24E-06,0.017194375
,,,-1.23E-06,0.01688875
,,,-1.22E-06,0.01695375
,,,-1.21E-06,0.016738125
,,,-1.2E-06,0.016849375
,,,-1.19E-06,0.0170275
,,,-1.18E-06,0.016864375
,,,-1.17E-06,0.017035625
,,,-1.16E-06,0.017006875
,,,-1.15E-06,0.01699375
,,,-1.14E-06,0.016920625
,,,-1.13E-06,0.01691125
,,,-1.12E-06,0.0170075
,,,-1.11E-06,0.01683125
,,,-1.1E-06,0.016939375
,,,-1.09E-06,0.01703375
,,,-1.08E-06,0.017103125
,,,-1.07E-06,0.016945625
,,,-1.06E-06,0.016899375
,,,-1.05E-06,0.017013125
,,,-1.04E-06,0.017006875
,,,-1.03E-06,0.016849375
,,,-1.02E-06,0.017098125
,,,-1.01E-06,0.017139375
,,,-1E-06,0.01693625
,,,-9.9E-07,0.01688375
,,,-9.8E-07,0.017010625
,,,-9.7E-07,0.0171675
,,,-9.6E-07,0.016916875
,,,-9.5E-07,0.016933125
,,,-9.4E-07,0.016955
,,,-9.3E-07,0.017104375
,,,-9.2E-07,0.01704125
,,,-9.1E-07,0.0169725
,,,-9E-07,0.01694125
,,,-8.9E-07,0.01696125
,,,-8.8E-07,0.0169975
,,,-8.7E-07,0.0171625
,,,-8.6E-07,0.017298125
,,,-8.5E-07,0.016911875
,,,-8.4E-07,0.01713625
,,,-8.3E-07,0.01692
,,,-8.2E-07,0.0170325
,,,-8.1E-07,0.0171375
,,,-8E-07,0.01696625
,,,-7.9E-07,0.016866875
,,,-7.8E-07,0.017166875
,,,-7.7E-07,0.017033125
,,,-7.6E-07,0.017044375
,,,-7.5E-07,0.01681125
,,,-7.4E-07,0.0170525
,,,-7.3E-07,0.016973125
,,,-7.2E-07,0.016994375
,,,-7.1E-07,0.017185625
,,,-7E-07,0.01688375
,,,-6.9E-07,0.017093125
,,,-6.8E-07,0.017108125
,,,-6.7E-07,0.017010625
,,,-6.6E-07,0.017081875
,,,-6.5E-07,0.0168075
,,,-6.4E-07,0.017150625
,,,-6.3E-07,0.016979375
,,,-6.2E-07,0.017075
,,,-6.1E-07,0.01682625
,,,-6E-07,0.017164375
,,,-5.9E-07,0.0170075
,,,-5.8E-07,0.01723375
,,,-5.7E-07,0.016966875
,,,-5.6E-07,0.016815
,,,-5.5E-07,0.017025
,,,-5.4E-07,0.017025
,,,-5.3E-07,0.01692375
,,,-5.2E-07,0.017029375
,,,-5.1E-07,0.016886875
,,,-5E-07,0.016918125
,,,-4.9E-07,0.017121875
,,,-4.8E-07,0.016819375
,,,-4.7E-07,0.016885
,,,-4.6E-07,0.01706125
,,,-4.5E-07,0.017055
,,,-4.4E-07,0.0169025
,,,-4.3E-07,0.017199375
,,,-4.2E-07,0.01699625
,,,-4.1E-07,0.016968125
,,,-4E-07,0.01687
,,,-3.9E-07,0.01693875
,,,-3.8E-07,0.017089375
,,,-3.7E-07,0.016939375
,,,-3.6E-07,0.016975
,,,-3.5E-07,0.017031875
,,,-3.4E-07,0.016911875
,,,-3.3E-07,0.017128125
,,,-3.2E-07,0.017105
,,,-3.1E-07,0.01706125
,,,-3E-07,0.01689375
,,,-2.9E-07,0.017101875
,,,-2.8E-07,0.01663375
,,,-2.7E-07,0.0169275
,,,-2.6E-07,0.017025
,,,-2.5E-07,0.016966875
,,,-2.4E-07,0.0167925
,,,-2.3E-07,0.017064375
,,,-2.2E-07,0.01703875
,,,-2.1E-07,0.0170875
,,,-2E-07,0.0172025
,,,-1.9E-07,0.0167875
,,,-1.8E-07,0.0169375
,,,-1.7E-07,0.016900625
,,,-1.6E-07,0.01697625
,,,-1.5E-07,0.01710625
,,,-1.4E-07,0.01697
,,,-1.3E-07,0.0168625
,,,-1.2E-07,0.01693
,,,-1.1E-07,0.0172025
,,,-1E-07,0.0172075
,,,-9E-08,0.01681
,,,-8E-08,0.0171025
,,,-7E-08,0.017193125
,,,-6E-08,0.0169425
,,,-5E-08,0.017026875
,,,-4E-08,0.01759
,,,-3E-08,0.018319375
,,,-2E-08,0.015595625
,,,-1E-08,0.014240625
,,,0,0.014728125
,,,1E-08,0.019223125
,,,2E-08,0.02035375
,,,3E-08,0.019413125
,,,4E-08,0.016208125
,,,5E-08,0.014666875
,,,6E-08,0.0145975
,,,7E-08,0.016134375
,,,8E-08,0.017351875
,,,9E-08,0.018800625
,,,1E-07,0.018401875
,,,1.1E-07,0.017505625
,,,1.2E-07,0.01604375
,,,1.3E-07,0.015786875
,,,1.4E-07,0.016665625
,,,1.5E-07,0.017270625
,,,1.6E-07,0.01724125
,,,1.7E-07,0.017118125
,,,1.8E-07,0.01727375
,,,1.9E-07,0.017285
,,,2E-07,0.017001875
,,,2.1E-07,0.016878125
,,,2.2E-07,0.016768125
,,,2.3E-07,0.016831875
,,,2.4E-07,0.017064375
,,,2.5E-07,0.017114375
,,,2.6E-07,0.01697875
,,,2.7E-07,0.017065
,,,2.8E-07,0.017225625
,,,2.9E-07,0.017030625
,,,3E-07,0.016748125
,,,3.1E-07,0.01683375
,,,3.2E-07,0.01699375
,,,3.3E-07,0.0168975
,,,3.4E-07,0.017006875
,,,3.5E-07,0.0168925
,,,3.6E-07,0.01697125
,,,3.7E-07,0.017045
,,,3.8E-07,0.01688875
,,,3.9E-07,0.017039375
,,,4E-07,0.01709625
,,,4.1E-07,0.017165
,,,4.2E-07,0.016765625
,,,4.3E-07,0.016845625
,,,4.4E-07,0.01713625
,,,4.5E-07,0.017135625
,,,4.6E-07,0.0171375
,,,4.7E-07,0.016965625
,,,4.8E-07,0.01681
,,,4.9E-07,0.016924375
,,,5E-07,0.0170325
,,,5.1E-07,0.01689875
,,,5.2E-07,0.017003125
,,,5.3E-07,0.01690125
,,,5.4E-07,0.01695875
,,,5.5E-07,0.016896875
,,,5.6E-07,0.0169875
,,,5.7E-07,0.017055625
,,,5.8E-07,0.017218125
,,,5.9E-07,0.017014375
,,,6E-07,0.016923125
,,,6.1E-07,0.017150625
,,,6.2E-07,0.017035
,,,6.3E-07,0.01702875
,,,6.4E-07,0.017103125
,,,6.5E-07,0.01694125
,,,6.6E-07,0.0171375
,,,6.7E-07,0.016955
,,,6.8E-07,0.016964375
,,,6.9E-07,0.0168775
,,,7E-07,0.016946875
,,,7.1E-07,0.017185625
,,,7.2E-07,0.017106875
,,,7.3E-07,0.016888125
,,,7.4E-07,0.01708875
,,,7.5E-07,0.01696625
,,,7.6E-07,0.01702
,,,7.7E-07,0.017151875
,,,7.8E-07,0.0170125
,,,7.9E-07,0.0168575
,,,8E-07,0.01695875
,,,8.1E-07,0.01689875
,,,8.2E-07,0.017168125
,,,8.3E-07,0.01714375
,,,8.4E-07,0.01704375
,,,8.5E-07,0.01693
,,,8.6E-07,0.017035625
,,,8.7E-07,0.017150625
,,,8.8E-07,0.017040625
,,,8.9E-07,0.01678
,,,9E-07,0.016968125
,,,9.1E-07,0.017128125
,,,9.2E-07,0.0170875
,,,9.3E-07,0.017045
,,,9.4E-07,0.017059375
,,,9.5E-07,0.016811875
,,,9.6E-07,0.017065
,,,9.7E-07,0.016936875
,,,9.8E-07,0.017081875
,,,9.9E-07,0.01702375
,,,1E-06,0.017261875
,,,1.01E-06,0.01707125
,,,1.02E-06,0.016989375
,,,1.03E-06,0.016869375
,,,1.04E-06,0.016961875
,,,1.05E-06,0.0168575
,,,1.06E-06,0.017139375
,,,1.07E-06,0.01710375
,,,1.08E-06,0.016940625
,,,1.09E-06,0.01725625
,,,1.1E-06,0.017025625
,,,1.11E-06,0.017188125
,,,1.12E-06,0.017114375
,,,1.13E-06,0.016858125
,,,1.14E-06,0.017114375
,,,1.15E-06,0.017095625
,,,1.16E-06,0.017031875
,,,1.17E-06,0.0170525
,,,1.18E-06,0.0169175
,,,1.19E-06,0.01681125
,,,1.2E-06,0.01728875
,,,1.21E-06,0.01685125
,,,1.22E-06,0.016890625
,,,1.23E-06,0.017274375
,,,1.24E-06,0.01727625
,,,1.25E-06,0.01711875
,,,1.26E-06,0.017089375
,,,1.27E-06,0.0168975
,,,1.28E-06,0.01667875
,,,1.29E-06,0.0169475
,,,1.3E-06,0.016836875
,,,1.31E-06,0.017265
,,,1.32E-06,0.017006875
,,,1.33E-06,0.017213125
,,,1.34E-06,0.016854375
,,,1.35E-06,0.017096875
,,,1.36E-06,0.01685625
,,,1.37E-06,0.017020625
,,,1.38E-06,0.01697
,,,1.39E-06,0.016969375
,,,1.4E-06,0.0169225
,,,1.41E-06,0.017043125
,,,1.42E-06,0.0170325
,,,1.43E-06,0.016828125
,,,1.44E-06,0.0172575
,,,1.45E-06,0.01681625
,,,1.46E-06,0.0170625
,,,1.47E-06,0.0170575
,,,1.48E-06,0.017015
,,,1.49E-06,0.017094375
,,,1.5E-06,0.01714375
,,,1.51E-06,0.017015625
,,,1.52E-06,0.016935
,,,1.53E-06,0.017096875
,,,1.54E-06,0.016873125
,,,1.55E-06,0.017205
,,,1.56E-06,0.01673
,,,1.57E-06,0.01702375
,,,1.58E-06,0.017046875
,,,1.59E-06,0.016836875
,,,1.6E-06,0.016959375
,,,1.61E-06,0.017143125
,,,1.62E-06,0.0167875
,,,1.63E-06,0.01709375
,,,1.64E-06,0.01698125
,,,1.65E-06,0.017265625
,,,1.66E-06,0.016934375
,,,1.67E-06,0.01699
,,,1.68E-06,0.01696
,,,1.69E-06,0.016985625
,,,1.7E-06,0.016864375
,,,1.71E-06,0.016838125
,,,1.72E-06,0.017176875
,,,1.73E-06,0.017111875
,,,1.74E-06,0.016993125
,,,1.75E-06,0.01700875
,,,1.76E-06,0.01689875
,,,1.77E-06,0.0168775
,,,1.78E-06,0.01721875
,,,1.79E-06,0.016855
,,,1.8E-06,0.0169425
,,,1.81E-06,0.01687625
,,,1.82E-06,0.01697375
,,,1.83E-06,0.016878125
,,,1.84E-06,0.01704875
,,,1.85E-06,0.016971875
,,,1.86E-06,0.01697125
,,,1.87E-06,0.016905
,,,1.88E-06,0.0169225
,,,1.89E-06,0.01694125
,,,1.9E-06,0.016989375
,,,1.91E-06,0.0167875
,,,1.92E-06,0.017119375
,,,1.93E-06,0.01688
,,,1.94E-06,0.017038125
,,,1.95E-06,0.016875
,,,1.96E-06,0.017184375
,,,1.97E-06,0.017125
,,,1.98E-06,0.016968125
,,,1.99E-06,0.016915625
,,,2E-06,0.016913125
,,,2.01E-06,0.01692625
,,,2.02E-06,0.01701625
,,,2.03E-06,0.016946875
,,,2.04E-06,0.016908125
,,,2.05E-06,0.0169925
,,,2.06E-06,0.0170775
,,,2.07E-06,0.017176875
,,,2.08E-06,0.01701625
,,,2.09E-06,0.0169475
,,,2.1E-06,0.017139375
,,,2.11E-06,0.0168875
,,,2.12E-06,0.016810625
,,,2.13E-06,0.0171125
,,,2.14E-06,0.01714
,,,2.15E-06,0.0171175
,,,2.16E-06,0.017268125
,,,2.17E-06,0.017185
,,,2.18E-06,0.0169825
,,,2.19E-06,0.016695625
,,,2.2E-06,0.01706375
,,,2.21E-06,0.01702375
,,,2.22E-06,0.017046875
,,,2.23E-06,0.016830625
,,,2.24E-06,0.017078125
,,,2.25E-06,0.017000625
,,,2.26E-06,0.01696
,,,2.27E-06,0.017105625
,,,2.28E-06,0.017010625
,,,2.29E-06,0.016936875
,,,2.3E-06,0.016883125
,,,2.31E-06,0.017065625
,,,2.32E-06,0.0171325
,,,2.33E-06,0.01726625
,,,2.34E-06,0.016930625
,,,2.35E-06,0.01710375
,,,2.36E-06,0.017138125
,,,2.37E-06,0.01703
,,,2.38E-06,0.01710625
,,,2.39E-06,0.01691625
,,,2.4E-06,0.0168875
,,,2.41E-06,0.01696875
,,,2.42E-06,0.01704375
,,,2.43E-06,0.01690875
,,,2.44E-06,0.016943125
,,,2.45E-06,0.017014375
,,,2.46E-06,0.017049375
,,,2.47E-06,0.016905
,,,2.48E-06,0.017095
,,,2.49E-06,0.01705
,,,2.5E-06,0.01722
,,,2.51E-06,0.016956875
,,,2.52E-06,0.017128125
,,,2.53E-06,0.0168075
,,,2.54E-06,0.01695125
,,,2.55E-06,0.016850625
,,,2.56E-06,0.01707
,,,2.57E-06,0.01675875
,,,2.58E-06,0.01698
,,,2.59E-06,0.017194375
,,,2.6E-06,0.016944375
,,,2.61E-06,0.017015625
,,,2.62E-06,0.01701625
,,,2.63E-06,0.016925625
,,,2.64E-06,0.0171325
,,,2.65E-06,0.016913125
,,,2.66E-06,0.01703125
,,,2.67E-06,0.016861875
,,,2.68E-06,0.016845625
,,,2.69E-06,0.01691625
,,,2.7E-06,0.017145
,,,2.71E-06,0.017178125
,,,2.72E-06,0.0169875
,,,2.73E-06,0.01698375
,,,2.74E-06,0.017009375
,,,2.75E-06,0.016988125
,,,2.76E-06,0.0171675
,,,2.77E-06,0.016770625
,,,2.78E-06,0.016804375
,,,2.79E-06,0.016941875
,,,2.8E-06,0.016855625
,,,2.81E-06,0.016999375
,,,2.82E-06,0.0172075
,,,2.83E-06,0.0167825
,,,2.84E-06,0.0169875
,,,2.85E-06,0.016834375
,,,2.86E-06,0.017043125
,,,2.87E-06,0.01702875
,,,2.88E-06,0.0167925
,,,2.89E-06,0.01700375
,,,2.9E-06,0.0170525
,,,2.91E-06,0.017175625
,,,2.92E-06,0.01702625
,,,2.93E-06,0.016738125
,,,2.94E-06,0.017186875
,,,2.95E-06,0.01733
,,,2.96E-06,0.0170825
,,,2.97E-06,0.016768125
,,,2.98E-06,0.017108125
,,,2.99E-06,0.01700375
,,,3E-06,0.01698875
,,,3.01E-06,0.016945625
,,,3.02E-06,0.01702875
,,,3.03E-06,0.017155
,,,3.04E-06,0.01695
,,,3.05E-06,0.0170225
,,,3.06E-06,0.0170525
,,,3.07E-06,0.0170075
,,,3.08E-06,0.01696
,,,3.09E-06,0.0170625
,,,3.1E-06,0.0171075
,,,3.11E-06,0.0169475
,,,3.12E-06,0.016893125
,,,3.13E-06,0.017113125
,,,3.14E-06,0.017049375
,,,3.15E-06,0.0171775
,,,3.16E-06,0.017043125
,,,3.17E-06,0.01704
,,,3.18E-06,0.016966875
,,,3.19E-06,0.01713125
,,,3.2E-06,0.016888125
,,,3.21E-06,0.016915625
,,,3.22E-06,0.0170125
,,,3.23E-06,0.0169575
,,,3.24E-06,0.0169475
,,,3.25E-06,0.016955
,,,3.26E-06,0.017071875
,,,3.27E-06,0.016933125
,,,3.28E-06,0.016730625
,,,3.29E-06,0.017016875
,,,3.3E-06,0.0171575
,,,3.31E-06,0.017124375
,,,3.32E-06,0.01693875
,,,3.33E-06,0.016976875
,,,3.34E-06,0.0170725
,,,3.35E-06,0.016901875
,,,3.36E-06,0.016791875
,,,3.37E-06,0.017346875
,,,3.38E-06,0.017111875
,,,3.39E-06,0.017255
,,,3.4E-06,0.01682375
,,,3.41E-06,0.01698125
,,,3.42E-06,0.016878125
,,,3.43E-06,0.01693625
,,,3.44E-06,0.01721875
,,,3.45E-06,0.01700375
,,,3.46E-06,0.01700625
,,,3.47E-06,0.01711875
,,,3.48E-06,0.01713875
,,,3.49E-06,0.0168575
,,,3.5E-06,0.01709375
,,,3.51E-06,0.016959375
,,,3.52E-06,0.01704375
,,,3.53E-06,0.017089375
,,,3.54E-06,0.017126875
,,,3.55E-06,0.017153125
,,,3.56E-06,0.017145
