data/raw/Final_POL_Test_1/SOP006_Ch3.csv

"Record Length",1000,"Points",-5E-06,0.017083751
"Sample Interval",1E-08,s,-4.99E-06,0.016874376
"Trigger Point",500,"Samples",-4.98E-06,0.016992501
"Trigger Time",0,s,-4.97E-06,0.016881876
"",,,-4.96E-06,0.016897501
"Horizontal Offset",-5E-06,s,-4.95E-06,0.016921251
,,,-4.94E-06,0.016557501
,,,-4.93E-06,0.017036251
,,,-4.92E-06,0.016913126
,,,-4.91E-06,0.016825001
,,,-4.9E-06,0.016868751
,,,-4.89E-06,0.017101876
,,,-4.88E-06,0.016991251
,,,-4.87E-06,0.016926251
,,,-4.86E-06,0.016866876
,,,-4.85E-06,0.016888751
,,,-4.84E-06,0.016654376
,,,-4.83E-06,0.016775626
,,,-4.82E-06,0.016893751
,,,-4.81E-06,0.017018126
,,,-4.8E-06,0.016912501
,,,-4.79E-06,0.016942501
,,,-4.78E-06,0.016845626
,,,-4.77E-06,0.016805626
,,,-4.76E-06,0.016765626
,,,-4.75E-06,0.016828126
,,,-4.74E-06,0.016996251
,,,-4.73E-06,0.016868126
,,,-4.72E-06,0.017138751
,,,-4.71E-06,0.016771876
,,,-4.7E-06,0.016966251
,,,-4.69E-06,0.016823126
,,,-4.68E-06,0.016818126
,,,-4.67E-06,0.016802501
,,,-4.66E-06,0.017046876
,,,-4.65E-06,0.016730001
,,,-4.64E-06,0.016945626
,,,-4.63E-06,0.016731251
,,,-4.62E-06,0.016900001
,,,-4.61E-06,0.016748751
,,,-4.6E-06,0.016881876
,,,-4.59E-06,0.016911251
,,,-4.58E-06,0.016918126
,,,-4.57E-06,0.016853751
,,,-4.56E-06,0.016808126
,,,-4.55E-06,0.017055626
,,,-4.54E-06,0.016818126
,,,-4.53E-06,0.016845626
,,,-4.52E-06,0.017024376
,,,-4.51E-06,0.016580626
,,,-4.5E-06,0.016918126
,,,-4.49E-06,0.016676251
,,,-4.48E-06,0.016901876
,,,-4.47E-06,0.016877501
,,,-4.46E-06,0.016850001
,,,-4.45E-06,0.017001251
,,,-4.44E-06,0.016709376
,,,-4.43E-06,0.017046876
,,,-4.42E-06,0.016631251
,,,-4.41E-06,0.016880001
,,,-4.4E-06,0.016801251
,,,-4.39E-06,0.016941251
,,,-4.38E-06,0.016626876
,,,-4.37E-06,0.016986251
,,,-4.36E-06,0.016840001
,,,-4.35E-06,0.016935001
,,,-4.34E-06,0.017147501
,,,-4.33E-06,0.016893751
,,,-4.32E-06,0.016660626
,,,-4.31E-06,0.017041251
,,,-4.3E-06,0.016959376
,,,-4.29E-06,0.016786876
,,,-4.28E-06,0.016652501
,,,-4.27E-06,0.016849376
,,,-4.26E-06,0.016819376
,,,-4.25E-06,0.016701876
,,,-4.24E-06,0.016874376
,,,-4.23E-06,0.016932501
,,,-4.22E-06,0.016778751
,,,-4.21E-06,0.016590626
,,,-4.2E-06,0.017120626
,,,-4.19E-06,0.016715626
,,,-4.18E-06,0.016908751
,,,-4.17E-06,0.016946876
,,,-4.16E-06,0.016833751
,,,-4.15E-06,0.016717501
,,,-4.14E-06,0.016975626
,,,-4.13E-06,0.016894376
,,,-4.12E-06,0.016916251
,,,-4.11E-06,0.016797501
,,,-4.1E-06,0.016905001
,,,-4.09E-06,0.017050001
,,,-4.08E-06,0.016911876
,,,-4.07E-06,0.016988126
,,,-4.06E-06,0.017108751
,,,-4.05E-06,0.017028751
,,,-4.04E-06,0.016888751
,,,-4.03E-06,0.016661251
,,,-4.02E-06,0.016925001
,,,-4.01E-06,0.016847501
,,,-4E-06,0.016941251
,,,-3.99E-06,0.017058751
,,,-3.98E-06,0.017095001
,,,-3.97E-06,0.016968751
,,,-3.96E-06,0.016740001
,,,-3.95E-06,0.016958126
,,,-3.94E-06,0.016760626
,,,-3.93E-06,0.016871251
,,,-3.92E-06,0.016983751
,,,-3.91E-06,0.017026251
,,,-3.9E-06,0.016867501
,,,-3.89E-06,0.016885001
,,,-3.88E-06,0.016563751
,,,-3.87E-06,0.016835626
,,,-3.86E-06,0.016886876
,,,-3.85E-06,0.016689376
,,,-3.84E-06,0.016930001
,,,-3.83E-06,0.016942501
,,,-3.82E-06,0.017035626
,,,-3.81E-06,0.016733751
,,,-3.8E-06,0.016820626
,,,-3.79E-06,0.016790626
,,,-3.78E-06,0.016806876
,,,-3.77E-06,0.016840626
,,,-3.76E-06,0.016953751
,,,-3.75E-06,0.016674376
,,,-3.74E-06,0.016746251
,,,-3.73E-06,0.017073751
,,,-3.72E-06,0.017008126
,,,-3.71E-06,0.016766876
,,,-3.7E-06,0.016697501
,,,-3.69E-06,0.016663751
,,,-3.68E-06,0.016918751
,,,-3.67E-06,0.016855626
,,,-3.66E-06,0.016860626
,,,-3.65E-06,0.017056251
,,,-3.64E-06,0.016872501
,,,-3.63E-06,0.016936251
,,,-3.62E-06,0.016758126
,,,-3.61E-06,0.016754376
,,,-3.6E-06,0.016938126
,,,-3.59E-06,0.016929376
,,,-3.58E-06,0.016835626
,,,-3.57E-06,0.016901251
,,,-3.56E-06,0.017009376
,,,-3.55E-06,0.016771876
,,,-3.54E-06,0.016918126
,,,-3.53E-06,0.016844376
,,,-3.52E-06,0.016584376
,,,-3.51E-06,0.016897501
,,,-3.5E-06,0.016965626
,,,-3.49E-06,0.017073751
,,,-3.48E-06,0.016817501
,,,-3.47E-06,0.016735001
,,,-3.46E-06,0.016803751
,,,-3.45E-06,0.016688751
,,,-3.44E-06,0.016947501
,,,-3.43E-06,0.016711251
,,,-3.42E-06,0.016969376
,,,-3.41E-06,0.016776251
,,,-3.4E-06,0.017003126
,,,-3.39E-06,0.016800001
,,,-3.38E-06,0.016700001
,,,-3.37E-06,0.016900001
,,,-3.36E-06,0.016874376
,,,-3.35E-06,0.016851251
,,,-3.34E-06,0.016700626
,,,-3.33E-06,0.016834376
,,,-3.32E-06,0.016937501
,,,-3.31E-06,0.016812501
,,,-3.3E-06,0.016807501
,,,-3.29E-06,0.016721876
,,,-3.28E-06,0.016820626
,,,-3.27E-06,0.016665001
,,,-3.26E-06,0.016823751
,,,-3.25E-06,0.016515626
,,,-3.24E-06,0.016989376
,,,-3.23E-06,0.016831876
,,,-3.22E-06,0.016705626
,,,-3.21E-06,0.016808751
,,,-3.2E-06,0.017010001
,,,-3.19E-06,0.016925001
,,,-3.18E-06,0.016856876
,,,-3.17E-06,0.016662501
,,,-3.16E-06,0.016826251
,,,-3.15E-06,0.016854376
,,,-3.14E-06,0.017029376
,,,-3.13E-06,0.017148751
,,,-3.12E-06,0.016795001
,,,-3.11E-06,0.016676876
,,,-3.1E-06,0.016742501
,,,-3.09E-06,0.016805001
,,,-3.08E-06,0.016950001
,,,-3.07E-06,0.016910001
,,,-3.06E-06,0.016940001
,,,-3.05E-06,0.016775001
,,,-3.04E-06,0.016783126
,,,-3.03E-06,0.016536876
,,,-3.02E-06,0.016956251
,,,-3.01E-06,0.017086251
,,,-3E-06,0.016785001
,,,-2.99E-06,0.017180626
,,,-2.98E-06,0.016945001
,,,-2.97E-06,0.017023126
,,,-2.96E-06,0.017023751
,,,-2.95E-06,0.016790001
,,,-2.94E-06,0.016714376
,,,-2.93E-06,0.016843751
,,,-2.92E-06,0.016750001
,,,-2.91E-06,0.017026251
,,,-2.9E-06,0.016765626
,,,-2.89E-06,0.016935626
,,,-2.88E-06,0.016642501
,,,-2.87E-06,0.016920626
,,,-2.86E-06,0.016705001
,,,-2.85E-06,0.017158126
,,,-2.84E-06,0.016998751
,,,-2.83E-06,0.017129376
,,,-2.82E-06,0.016806251
,,,-2.81E-06,0.017179376
,,,-2.8E-06,0.016996876
,,,-2.79E-06,0.016911251
,,,-2.78E-06,0.016845001
,,,-2.77E-06,0.017000626
,,,-2.76E-06,0.016839376
,,,-2.75E-06,0.016961251
,,,-2.74E-06,0.016806251
,,,-2.73E-06,0.017095626
,,,-2.72E-06,0.017094376
,,,-2.71E-06,0.016722501
,,,-2.7E-06,0.016850001
,,,-2.69E-06,0.016957501
,,,-2.68E-06,0.016998751
,,,-2.67E-06,0.016905626
,,,-2.66E-06,0.016945626
,,,-2.65E-06,0.016817501
,,,-2.64E-06,0.016716251
,,,-2.63E-06,0.016828751
,,,-2.62E-06,0.016978126
,,,-2.61E-06,0.016733126
,,,-2.6E-06,0.016823751
,,,-2.59E-06,0.017015626
,,,-2.58E-06,0.016896251
,,,-2.57E-06,0.017045001
,,,-2.56E-06,0.016788126
,,,-2.55E-06,0.016680626
,,,-2.54E-06,0.016671876
,,,-2.53E-06,0.016816876
,,,-2.52E-06,0.016823751
,,,-2.51E-06,0.016803126
,,,-2.5E-06,0.016995001
,,,-2.49E-06,0.016878751
,,,-2.48E-06,0.016965626
,,,-2.47E-06,0.016895001
,,,-2.46E-06,0.016901251
,,,-2.45E-06,0.017211876
,,,-2.44E-06,0.016960626
,,,-2.43E-06,0.016883751
,,,-2.42E-06,0.016881251
,,,-2.41E-06,0.016844376
,,,-2.4E-06,0.016811876
,,,-2.39E-06,0.016812501
,,,-2.38E-06,0.016910626
,,,-2.37E-06,0.016913126
,,,-2.36E-06,0.016880001
,,,-2.35E-06,0.016788751
,,,-2.34E-06,0.016873751
,,,-2.33E-06,0.016761876
,,,-2.32E-06,0.016707501
,,,-2.31E-06,0.016833751
,,,-2.3E-06,0.016895626
,,,-2.29E-06,0.016976251
,,,-2.28E-06,0.016761251
,,,-2.27E-06,0.016705626
,,,-2.26E-06,0.016764376
,,,-2.25E-06,0.016888751
,,,-2.24E-06,0.016997501
,,,-2.23E-06,0.016854376
,,,-2.22E-06,0.016847501
,,,-2.21E-06,0.016800001
,,,-2.2E-06,0.016920001
,,,-2.19E-06,0.017013126
,,,-2.18E-06,0.016848126
,,,-2.17E-06,0.016808126
,,,-2.16E-06,0.016851876
,,,-2.15E-06,0.016913126
,,,-2.14E-06,0.016802501
,,,-2.13E-06,0.016913126
,,,-2.12E-06,0.016427501
,,,-2.11E-06,0.016892501
,,,-2.1E-06,0.016761251
,,,-2.09E-06,0.016986876
,,,-2.08E-06,0.017022501
,,,-2.07E-06,0.016747501
,,,-2.06E-06,0.016721876
,,,-2.05E-06,0.016885001
,,,-2.04E-06,0.016622501
,,,-2.03E-06,0.017049376
,,,-2.02E-06,0.017081251
,,,-2.01E-06,0.016829376
,,,-2E-06,0.016951251
,,,-1.99E-06,0.017026251
,,,-1.98E-06,0.016903126
,,,-1.97E-06,0.016687501
,,,-1.96E-06,0.016995001
,,,-1.95E-06,0.016572501
,,,-1.94E-06,0.016615001
,,,-1.93E-06,0.017130001
,,,-1.92E-06,0.017075001
,,,-1.91E-06,0.017018126
,,,-1.9E-06,0.016832501
,,,-1.89E-06,0.016933751
,,,-1.88E-06,0.016858126
,,,-1.87E-06,0.016977501
,,,-1.86E-06,0.017016876
,,,-1.85E-06,0.016858126
,,,-1.84E-06,0.016879376
,,,-1.83E-06,0.017052501
,,,-1.82E-06,0.016703751
,,,-1.81E-06,0.016746876
,,,-1.8E-06,0.016833126
,,,-1.79E-06,0.016556251
,,,-1.78E-06,0.016940001
,,,-1.77E-06,0.017030001
,,,-1.76E-06,0.016791251
,,,-1.75E-06,0.016979376
,,,-1.74E-06,0.016757501
,,,-1.73E-06,0.016893126
,,,-1.72E-06,0.016974376
,,,-1.71E-06,0.016963126
,,,-1.7E-06,0.016527501
,,,-1.69E-06,0.016662501
,,,-1.68E-06,0.016810001
,,,-1.67E-06,0.016991251
,,,-1.66E-06,0.016847501
,,,-1.65E-06,0.016784376
,,,-1.64E-06,0.016995001
,,,-1.63E-06,0.016875626
,,,-1.62E-06,0.016838126
,,,-1.61E-06,0.016785001
,,,-1.6E-06,0.016841876
,,,-1.59E-06,0.016837501
,,,-1.58E-06,0.017045626
,,,-1.57E-06,0.016800001
,,,-1.56E-06,0.016544376
,,,-1.55E-06,0.017023751
,,,-1.54E-06,0.016738126
,,,-1.53E-06,0.016958751
,,,-1.52E-06,0.016941876
,,,-1.51E-06,0.016981876
,,,-1.5E-06,0.016675001
,,,-1.49E-06,0.016921876
,,,-1.48E-06,0.016658126
,,,-1.47E-06,0.017023751
,,,-1.46E-06,0.016856251
,,,-1.45E-06,0.016880626
,,,-1.44E-06,0.016650626
,,,-1.43E-06,0.017026251
,,,-1.42E-06,0.016849376
,,,-1.41E-06,0.016698126
,,,-1.4E-06,0.016721876
,,,-1.39E-06,0.016780001
,,,-1.38E-06,0.016810626
,,,-1.37E-06,0.016811251
,,,-1.36E-06,0.016891876
,,,-1.35E-06,0.016926251
,,,-1.34E-06,0.016983751
,,,-1.33E-06,0.016816251
,,,-1.32E-06,0.016776251
,,,-1.31E-06,0.016807501
,,,-1.3E-06,0.016804376
,,,-1.29E-06,0.016689376
,,,-1.28E-06,0.017033751
,,,-1.27E-06,0.016528751
,,,-1.26E-06,0.016738126
,,,-1.25E-06,0.017095626
,,,-1.24E-06,0.016911251
,,,-1.23E-06,0.016886876
,,,-1.22E-06,0.016811876
,,,-1.21E-06,0.016550001
,,,-1.2E-06,0.016785001
,,,-1.19E-06,0.016863126
,,,-1.18E-06,0.016791251
,,,-1.17E-06,0.016625626
,,,-1.16E-06,0.017036876
,,,-1.15E-06,0.016631251
,,,-1.14E-06,0.016891876
,,,-1.13E-06,0.016607501
,,,-1.12E-06,0.016619376
,,,-1.11E-06,0.016768126
,,,-1.1E-06,0.017190626
,,,-1.09E-06,0.016761251
,,,-1.08E-06,0.017018126
,,,-1.07E-06,0.016916251
,,,-1.06E-06,0.016923126
,,,-1.05E-06,0.016946876
,,,-1.04E-06,0.016970626
,,,-1.03E-06,0.017035001
,,,-1.02E-06,0.016849376
,,,-1.01E-06,0.016872501
,,,-1E-06,0.016940626
,,,-9.9E-07,0.016780626
,,,-9.8E-07,0.016664376
,,,-9.7E-07,0.017096251
,,,-9.6E-07,0.016660626
,,,-9.5E-07,0.016881876
,,,-9.4E-07,0.016668751
,,,-9.3E-07,0.017025001
,,,-9.2E-07,0.017026876
,,,-9.1E-07,0.016703126
,,,-9E-07,0.016749376
,,,-8.9E-07,0.016858126
,,,-8.8E-07,0.016520626
,,,-8.7E-07,0.016761251
,,,-8.6E-07,0.016796876
,,,-8.5E-07,0.017075001
,,,-8.4E-07,0.016853751
,,,-8.3E-07,0.016899376
,,,-8.2E-07,0.016663126
,,,-8.1E-07,0.016706251
,,,-8E-07,0.016756251
,,,-7.9E-07,0.016708751
,,,-7.8E-07,0.016730001
,,,-7.7E-07,0.017025626
,,,-7.6E-07,0.016910001
,,,-7.5E-07,0.016797501
,,,-7.4E-07,0.016928751
,,,-7.3E-07,0.016833751
,,,-7.2E-07,0.016772501
,,,-7.1E-07,0.016635001
,,,-7E-07,0.016607501
,,,-6.9E-07,0.016933126
,,,-6.8E-07,0.016881876
,,,-6.7E-07,0.016990001
,,,-6.6E-07,0.016723126
,,,-6.5E-07,0.016924376
,,,-6.4E-07,0.016905001
,,,-6.3E-07,0.016730001
,,,-6.2E-07,0.016766251
,,,-6.1E-07,0.016840001
,,,-6E-07,0.017078126
,,,-5.9E-07,0.016994376
,,,-5.8E-07,0.016955001
,,,-5.7E-07,0.016733126
,,,-5.6E-07,0.016619376
,,,-5.5E-07,0.016540001
,,,-5.4E-07,0.017106251
,,,-5.3E-07,0.016765626
,,,-5.2E-07,0.017060001
,,,-5.1E-07,0.016883751
,,,-5E-07,0.016683751
,,,-4.9E-07,0.017030001
,,,-4.8E-07,0.016798751
,,,-4.7E-07,0.016648751
,,,-4.6E-07,0.016890001
,,,-4.5E-07,0.017067501
,,,-4.4E-07,0.016993751
,,,-4.3E-07,0.017028751
,,,-4.2E-07,0.016798751
,,,-4.1E-07,0.016685001
,,,-4E-07,0.016870001
,,,-3.9E-07,0.016615626
,,,-3.8E-07,0.016916251
,,,-3.7E-07,0.016828126
,,,-3.6E-07,0.017029376
,,,-3.5E-07,0.016731251
,,,-3.4E-07,0.016941251
,,,-3.3E-07,0.016733751
,,,-3.2E-07,0.016857501
,,,-3.1E-07,0.016628751
,,,-3E-07,0.016656876
,,,-2.9E-07,0.016650626
,,,-2.8E-07,0.017115001
,,,-2.7E-07,0.016806251
,,,-2.6E-07,0.016853751
,,,-2.5E-07,0.016806876
,,,-2.4E-07,0.016858751
,,,-2.3E-07,0.016907501
,,,-2.2E-07,0.016790626
,,,-2.1E-07,0.016925626
,,,-2E-07,0.016853126
,,,-1.9E-07,0.016809376
,,,-1.8E-07,0.016900626
,,,-1.7E-07,0.016973126
,,,-1.6E-07,0.016913126
,,,-1.5E-07,0.016748751
,,,-1.4E-07,0.016853751
,,,-1.3E-07,0.017059376
,,,-1.2E-07,0.016805001
,,,-1.1E-07,0.016807501
,,,-1E-07,0.016946251
,,,-9E-08,0.016771251
,,,-8E-08,0.016954376
,,,-7E-08,0.016963126
,,,-6E-08,0.016756251
,,,-5E-08,0.017175626
,,,-4E-08,0.018016876
,,,-3E-08,0.018224376
,,,-2E-08,0.015038751
,,,-1E-08,0.012883126
,,,0,0.014407501
,,,1E-08,0.019451876
,,,2E-08,0.021412501
,,,3E-08,0.019892501
,,,4E-08,0.015995626
,,,5E-08,0.014006251
,,,6E-08,0.013981876
,,,7E-08,0.015580001
,,,8E-08,0.017961251
,,,9E-08,0.019114376
,,,1E-07,0.019060626
,,,1.1E-07,0.017273126
,,,1.2E-07,0.015831251
,,,1.3E-07,0.015236251
,,,1.4E-07,0.016310001
,,,1.5E-07,0.017115626
,,,1.6E-07,0.017326876
,,,1.7E-07,0.017376876
,,,1.8E-07,0.016954376
,,,1.9E-07,0.017052501
,,,2E-07,0.016963126
,,,2.1E-07,0.016636251
,,,2.2E-07,0.016353126
,,,2.3E-07,0.016807501
,,,2.4E-07,0.016811251
,,,2.5E-07,0.017041251
,,,2.6E-07,0.016908751
,,,2.7E-07,0.017044376
,,,2.8E-07,0.016933126
,,,2.9E-07,0.016950626
,,,3E-07,0.016645001
,,,3.1E-07,0.016768126
,,,3.2E-07,0.017241251
,,,3.3E-07,0.016752501
,,,3.4E-07,0.016970626
,,,3.5E-07,0.016837501
,,,3.6E-07,0.016678126
,,,3.7E-07,0.016904376
,,,3.8E-07,0.016765001
,,,3.9E-07,0.016810001
,,,4E-07,0.017087501
,,,4.1E-07,0.016617501
,,,4.2E-07,0.016657501
,,,4.3E-07,0.016816876
,,,4.4E-07,0.016913751
,,,4.5E-07,0.016717501
,,,4.6E-07,0.016810001
,,,4.7E-07,0.016886876
,,,4.8E-07,0.016780626
,,,4.9E-07,0.016858751
,,,5E-07,0.017029376
,,,5.1E-07,0.016846876
,,,5.2E-07,0.016759376
,,,5.3E-07,0.016795001
,,,5.4E-07,0.016696251
,,,5.5E-07,0.017260626
,,,5.6E-07,0.016768126
,,,5.7E-07,0.016812501
,,,5.8E-07,0.016765001
,,,5.9E-07,0.016845001
,,,6E-07,0.016997501
,,,6.1E-07,0.016716251
,,,6.2E-07,0.016801876
,,,6.3E-07,0.016903751
,,,6.4E-07,0.016709376
,,,6.5E-07,0.017096876
,,,6.6E-07,0.016720001
,,,6.7E-07,0.016974376
,,,6.8E-07,0.016693126
,,,6.9E-07,0.016685001
,,,7E-07,0.016696876
,,,7.1E-07,0.016966251
,,,7.2E-07,0.017029376
,,,7.3E-07,0.016890001
,,,7.4E-07,0.017039376
,,,7.5E-07,0.016812501
,,,7.6E-07,0.016825626
,,,7.7E-07,0.016933751
,,,7.8E-07,0.016813751
,,,7.9E-07,0.016646251
,,,8E-07,0.016847501
,,,8.1E-07,0.016914376
,,,8.2E-07,0.016791876
,,,8.3E-07,0.016751251
,,,8.4E-07,0.017173126
,,,8.5E-07,0.016994376
,,,8.6E-07,0.017051876
,,,8.7E-07,0.017137501
,,,8.8E-07,0.016812501
,,,8.9E-07,0.017034376
,,,9E-07,0.017075626
,,,9.1E-07,0.016813126
,,,9.2E-07,0.016785626
,,,9.3E-07,0.016713751
,,,9.4E-07,0.016679376
,,,9.5E-07,0.016766251
,,,9.6E-07,0.016834376
,,,9.7E-07,0.016782501
,,,9.8E-07,0.016951876
,,,9.9E-07,0.016919376
,,,1E-06,0.016796251
,,,1.01E-06,0.016781251
,,,1.02E-06,0.016869376
,,,1.03E-06,0.016837501
,,,1.04E-06,0.016670001
,,,1.05E-06,0.017114376
,,,1.06E-06,0.016913126
,,,1.07E-06,0.017025001
,,,1.08E-06,0.017175626
,,,1.09E-06,0.016670001
,,,1.1E-06,0.016780626
,,,1.11E-06,0.016859376
,,,1.12E-06,0.016725001
,,,1.13E-06,0.016914376
,,,1.14E-06,0.017017501
,,,1.15E-06,0.016871251
,,,1.16E-06,0.016991251
,,,1.17E-06,0.016928126
,,,1.18E-06,0.016761876
,,,1.19E-06,0.016710626
,,,1.2E-06,0.016780001
,,,1.21E-06,0.016812501
,,,1.22E-06,0.016831876
,,,1.23E-06,0.016920626
,,,1.24E-06,0.016800626
,,,1.25E-06,0.016809376
,,,1.26E-06,0.016735626
,,,1.27E-06,0.016959376
,,,1.28E-06,0.016740001
,,,1.29E-06,0.017065001
,,,1.3E-06,0.016712501
,,,1.31E-06,0.016741876
,,,1.32E-06,0.017016876
,,,1.33E-06,0.016868751
,,,1.34E-06,0.016641876
,,,1.35E-06,0.016764376
,,,1.36E-06,0.016901876
,,,1.37E-06,0.016814376
,,,1.38E-06,0.016780626
,,,1.39E-06,0.016843126
,,,1.4E-06,0.017101876
,,,1.41E-06,0.016908751
,,,1.42E-06,0.016905001
,,,1.43E-06,0.016948126
,,,1.44E-06,0.016786251
,,,1.45E-06,0.016983126
,,,1.46E-06,0.016903126
,,,1.47E-06,0.016920626
,,,1.48E-06,0.016815001
,,,1.49E-06,0.017009376
,,,1.5E-06,0.017180001
,,,1.51E-06,0.016726251
,,,1.52E-06,0.016882501
,,,1.53E-06,0.017109376
,,,1.54E-06,0.016932501
,,,1.55E-06,0.016910626
,,,1.56E-06,0.016697501
,,,1.57E-06,0.016960626
,,,1.58E-06,0.016778751
,,,1.59E-06,0.016593126
,,,1.6E-06,0.016911876
,,,1.61E-06,0.016870001
,,,1.62E-06,0.016732501
,,,1.63E-06,0.016900626
,,,1.64E-06,0.016779376
,,,1.65E-06,0.016856876
,,,1.66E-06,0.016966876
,,,1.67E-06,0.016683751
,,,1.68E-06,0.016778126
,,,1.69E-06,0.016826876
,,,1.7E-06,0.016825001
,,,1.71E-06,0.016784376
,,,1.72E-06,0.017118126
,,,1.73E-06,0.016587501
,,,1.74E-06,0.017035626
,,,1.75E-06,0.016796251
,,,1.76E-06,0.016684376
,,,1.77E-06,0.016686876
,,,1.78E-06,0.017238751
,,,1.79E-06,0.016743751
,,,1.8E-06,0.016852501
,,,1.81E-06,0.016867501
,,,1.82E-06,0.017067501
,,,1.83E-06,0.016535001
,,,1.84E-06,0.016755001
,,,1.85E-06,0.016840001
,,,1.86E-06,0.016861876
,,,1.87E-06,0.016806251
,,,1.88E-06,0.016718751
,,,1.89E-06,0.017037501
,,,1.9E-06,0.016803751
,,,1.91E-06,0.017056251
,,,1.92E-06,0.016948126
,,,1.93E-06,0.016981251
,,,1.94E-06,0.017031251
,,,1.95E-06,0.016910001
,,,1.96E-06,0.016846876
,,,1.97E-06,0.016912501
,,,1.98E-06,0.016794376
,,,1.99E-06,0.016689376
,,,2E-06,0.016765626
,,,2.01E-06,0.016992501
,,,2.02E-06,0.016659376
,,,2.03E-06,0.016852501
,,,2.04E-06,0.017124376
,,,2.05E-06,0.017017501
,,,2.06E-06,0.017136251
,,,2.07E-06,0.016852501
,,,2.08E-06,0.016773751
,,,2.09E-06,0.016777501
,,,2.1E-06,0.016789376
,,,2.11E-06,0.016965001
,,,2.12E-06,0.017014376
,,,2.13E-06,0.016837501
,,,2.14E-06,0.016828126
,,,2.15E-06,0.017102501
,,,2.16E-06,0.017090626
,,,2.17E-06,0.016950626
,,,2.18E-06,0.016829376
,,,2.19E-06,0.016806876
,,,2.2E-06,0.016791251
,,,2.21E-06,0.016752501
,,,2.22E-06,0.016868126
,,,2.23E-06,0.016811251
,,,2.24E-06,0.016908751
,,,2.25E-06,0.016931876
,,,2.26E-06,0.016886251
,,,2.27E-06,0.016911251
,,,2.28E-06,0.017081251
,,,2.29E-06,0.016868126
,,,2.3E-06,0.016843751
,,,2.31E-06,0.016684376
,,,2.32E-06,0.017094376
,,,2.33E-06,0.016745626
,,,2.34E-06,0.016950001
,,,2.35E-06,0.016905001
,,,2.36E-06,0.016843751
,,,2.37E-06,0.016814376
,,,2.38E-06,0.016821876
,,,2.39E-06,0.016702501
,,,2.4E-06,0.016722501
,,,2.41E-06,0.016843126
,,,2.42E-06,0.016760626
,,,2.43E-06,0.016865626
,,,2.44E-06,0.016743126
,,,2.45E-06,0.016800626
,,,2.46E-06,0.016835001
,,,2.47E-06,0.016816876
,,,2.48E-06,0.016970626
,,,2.49E-06,0.016765001
,,,2.5E-06,0.016985001
,,,2.51E-06,0.016596876
,,,2.52E-06,0.017066251
,,,2.53E-06,0.016797501
,,,2.54E-06,0.016980001
,,,2.55E-06,0.016858126
,,,2.56E-06,0.016590001
,,,2.57E-06,0.016965626
,,,2.58E-06,0.016583751
,,,2.59E-06,0.016644376
,,,2.6E-06,0.016840001
,,,2.61E-06,0.016821251
,,,2.62E-06,0.016748751
,,,2.63E-06,0.016732501
,,,2.64E-06,0.016824376
,,,2.65E-06,0.016793751
,,,2.66E-06,0.016751251
,,,2.67E-06,0.016973751
,,,2.68E-06,0.017135001
,,,2.69E-06,0.016894376
,,,2.7E-06,0.016961876
,,,2.71E-06,0.016884376
,,,2.72E-06,0.016935626
,,,2.73E-06,0.016876251
,,,2.74E-06,0.017033126
,,,2.75E-06,0.016890001
,,,2.76E-06,0.016984376
,,,2.77E-06,0.016938126
,,,2.78E-06,0.017141876
,,,2.79E-06,0.016803751
,,,2.8E-06,0.017050001
,,,2.81E-06,0.016953751
,,,2.82E-06,0.016923126
,,,2.83E-06,0.016883751
,,,2.84E-06,0.016825626
,,,2.85E-06,0.016922501
,,,2.86E-06,0.017265626
,,,2.87E-06,0.016871876
,,,2.88E-06,0.016854376
,,,2.89E-06,0.016962501
,,,2.9E-06,0.016903751
,,,2.91E-06,0.016798126
,,,2.92E-06,0.016674376
,,,2.93E-06,0.017063751
,,,2.94E-06,0.016995626
,,,2.95E-06,0.016763126
,,,2.96E-06,0.016916251
,,,2.97E-06,0.016925626
,,,2.98E-06,0.016999376
,,,2.99E-06,0.016980001
,,,3E-06,0.016847501
,,,3.01E-06,0.016676251
,,,3.02E-06,0.016756251
,,,3.03E-06,0.016812501
,,,3.04E-06,0.016998751
,,,3.05E-06,0.017012501
,,,3.06E-06,0.016874376
,,,3.07E-06,0.016693126
,,,3.08E-06,0.017059376
,,,3.09E-06,0.016706251
,,,3.1E-06,0.016941876
,,,3.11E-06,0.016932501
,,,3.12E-06,0.016986876
,,,3.13E-06,0.016735001
,,,3.14E-06,0.017151251
,,,3.15E-06,0.016639376
,,,3.16E-06,0.016771251
,,,3.17E-06,0.016811251
,,,3.18E-06,0.017048126
,,,3.19E-06,0.016844376
,,,3.2E-06,0.016965001
,,,3.21E-06,0.016927501
