data/raw/Final_POL_Test_1/SOP001_Ch2.csv

"Record Length",1000,"Points",-5E-06,0.020603125
"Sample Interval",1E-08,s,-4.99E-06,0.020863125
"Trigger Point",500,"Samples",-4.98E-06,0.020835625
"Trigger Time",0,s,-4.97E-06,0.020745
"",,,-4.96E-06,0.020500625
"Horizontal Offset",-5E-06,s,-4.95E-06,0.020716875
,,,-4.94E-06,0.020761875
,,,-4.93E-06,0.0207025
,,,-4.92E-06,0.020759375
,,,-4.91E-06,0.020560625
,,,-4.9E-06,0.02081375
,,,-4.89E-06,0.02098125
,,,-4.88E-06,0.0207975
,,,-4.87E-06,0.02078
,,,-4.86E-06,0.020716875
,,,-4.85E-06,0.020615
,,,-4.84E-06,0.02076
,,,-4.83E-06,0.020785
,,,-4.82E-06,0.020915
,,,-4.81E-06,0.020659375
,,,-4.8E-06,0.020755625
,,,-4.79E-06,0.020555
,,,-4.78E-06,0.02087625
,,,-4.77E-06,0.02078625
,,,-4.76E-06,0.0207175
,,,-4.75E-06,0.0206925
,,,-4.74E-06,0.02069375
,,,-4.73E-06,0.02081875
,,,-4.72E-06,0.020603125
,,,-4.71E-06,0.0206475
,,,-4.7E-06,0.020560625
,,,-4.69E-06,0.0205975
,,,-4.68E-06,0.020813125
,,,-4.67E-06,0.020631875
,,,-4.66E-06,0.020684375
,,,-4.65E-06,0.021125
,,,-4.64E-06,0.0207875
,,,-4.63E-06,0.020666875
,,,-4.62E-06,0.020815
,,,-4.61E-06,0.0208575
,,,-4.6E-06,0.0206825
,,,-4.59E-06,0.02106125
,,,-4.58E-06,0.020601875
,,,-4.57E-06,0.020748125
,,,-4.56E-06,0.020938125
,,,-4.55E-06,0.02068625
,,,-4.54E-06,0.02072625
,,,-4.53E-06,0.02080375
,,,-4.52E-06,0.02061375
,,,-4.51E-06,0.02090625
,,,-4.5E-06,0.020686875
,,,-4.49E-06,0.02083125
,,,-4.48E-06,0.020838125
,,,-4.47E-06,0.0205575
,,,-4.46E-06,0.02071875
,,,-4.45E-06,0.02051
,,,-4.44E-06,0.020695625
,,,-4.43E-06,0.020935625
,,,-4.42E-06,0.020726875
,,,-4.41E-06,0.020751875
,,,-4.4E-06,0.020779375
,,,-4.39E-06,0.02093
,,,-4.38E-06,0.020871875
,,,-4.37E-06,0.02077
,,,-4.36E-06,0.020578125
,,,-4.35E-06,0.020815625
,,,-4.34E-06,0.02103875
,,,-4.33E-06,0.020658125
,,,-4.32E-06,0.02084875
,,,-4.31E-06,0.02066125
,,,-4.3E-06,0.02069625
,,,-4.29E-06,0.020805625
,,,-4.28E-06,0.020921875
,,,-4.27E-06,0.020881875
,,,-4.26E-06,0.020773125
,,,-4.25E-06,0.02083875
,,,-4.24E-06,0.020724375
,,,-4.23E-06,0.020926875
,,,-4.22E-06,0.02077375
,,,-4.21E-06,0.020735
,,,-4.2E-06,0.0205075
,,,-4.19E-06,0.02099875
,,,-4.18E-06,0.02064625
,,,-4.17E-06,0.021158125
,,,-4.16E-06,0.020595
,,,-4.15E-06,0.020851875
,,,-4.14E-06,0.0205575
,,,-4.13E-06,0.020685
,,,-4.12E-06,0.02074875
,,,-4.11E-06,0.020639375
,,,-4.1E-06,0.02072875
,,,-4.09E-06,0.020503125
,,,-4.08E-06,0.0207375
,,,-4.07E-06,0.02081375
,,,-4.06E-06,0.0208075
,,,-4.05E-06,0.020634375
,,,-4.04E-06,0.020605625
,,,-4.03E-06,0.0207325
,,,-4.02E-06,0.020625625
,,,-4.01E-06,0.02084375
,,,-4E-06,0.0207
,,,-3.99E-06,0.02061875
,,,-3.98E-06,0.021075625
,,,-3.97E-06,0.0208175
,,,-3.96E-06,0.02085
,,,-3.95E-06,0.02066625
,,,-3.94E-06,0.02071125
,,,-3.93E-06,0.020699375
,,,-3.92E-06,0.0207725
,,,-3.91E-06,0.020785
,,,-3.9E-06,0.020788125
,,,-3.89E-06,0.021070625
,,,-3.88E-06,0.020890625
,,,-3.87E-06,0.020758125
,,,-3.86E-06,0.0208275
,,,-3.85E-06,0.02054625
,,,-3.84E-06,0.020735625
,,,-3.83E-06,0.02073625
,,,-3.82E-06,0.020840625
,,,-3.81E-06,0.020876875
,,,-3.8E-06,0.020894375
,,,-3.79E-06,0.020629375
,,,-3.78E-06,0.020683125
,,,-3.77E-06,0.020774375
,,,-3.76E-06,0.020729375
,,,-3.75E-06,0.020619375
,,,-3.74E-06,0.020674375
,,,-3.73E-06,0.0208625
,,,-3.72E-06,0.02082125
,,,-3.71E-06,0.020858125
,,,-3.7E-06,0.020750625
,,,-3.69E-06,0.02091875
,,,-3.68E-06,0.021205625
,,,-3.67E-06,0.020871875
,,,-3.66E-06,0.0206575
,,,-3.65E-06,0.020735625
,,,-3.64E-06,0.020713125
,,,-3.63E-06,0.0207025
,,,-3.62E-06,0.0206075
,,,-3.61E-06,0.020623125
,,,-3.6E-06,0.021000625
,,,-3.59E-06,0.02090625
,,,-3.58E-06,0.0206475
,,,-3.57E-06,0.020794375
,,,-3.56E-06,0.020788125
,,,-3.55E-06,0.02081
,,,-3.54E-06,0.020809375
,,,-3.53E-06,0.020883125
,,,-3.52E-06,0.02054875
,,,-3.51E-06,0.02089
,,,-3.5E-06,0.021043125
,,,-3.49E-06,0.020488125
,,,-3.48E-06,0.02072375
,,,-3.47E-06,0.02054625
,,,-3.46E-06,0.02073125
,,,-3.45E-06,0.02077125
,,,-3.44E-06,0.020784375
,,,-3.43E-06,0.02081625
,,,-3.42E-06,0.020524375
,,,-3.41E-06,0.02097
,,,-3.4E-06,0.020585
,,,-3.39E-06,0.02069125
,,,-3.38E-06,0.020576875
,,,-3.37E-06,0.02085125
,,,-3.36E-06,0.020721875
,,,-3.35E-06,0.021055625
,,,-3.34E-06,0.02097625
,,,-3.33E-06,0.020735625
,,,-3.32E-06,0.020751875
,,,-3.31E-06,0.0209325
,,,-3.3E-06,0.020871875
,,,-3.29E-06,0.02062375
,,,-3.28E-06,0.020921875
,,,-3.27E-06,0.020894375
,,,-3.26E-06,0.020605
,,,-3.25E-06,0.020895625
,,,-3.24E-06,0.0209025
,,,-3.23E-06,0.020814375
,,,-3.22E-06,0.020466875
,,,-3.21E-06,0.02093875
,,,-3.2E-06,0.02055875
,,,-3.19E-06,0.0208525
,,,-3.18E-06,0.021065625
,,,-3.17E-06,0.02065375
,,,-3.16E-06,0.02078375
,,,-3.15E-06,0.0205075
,,,-3.14E-06,0.020624375
,,,-3.13E-06,0.0206475
,,,-3.12E-06,0.020964375
,,,-3.11E-06,0.020795625
,,,-3.1E-06,0.020864375
,,,-3.09E-06,0.0207025
,,,-3.08E-06,0.02077625
,,,-3.07E-06,0.0209275
,,,-3.06E-06,0.02053625
,,,-3.05E-06,0.020691875
,,,-3.04E-06,0.020765
,,,-3.03E-06,0.02088
,,,-3.02E-06,0.0207925
,,,-3.01E-06,0.021036875
,,,-3E-06,0.02078625
,,,-2.99E-06,0.020861875
,,,-2.98E-06,0.02090375
,,,-2.97E-06,0.020895
,,,-2.96E-06,0.020928125
,,,-2.95E-06,0.020753125
,,,-2.94E-06,0.020568125
,,,-2.93E-06,0.0206575
,,,-2.92E-06,0.020694375
,,,-2.91E-06,0.020783125
,,,-2.9E-06,0.021013125
,,,-2.89E-06,0.02060375
,,,-2.88E-06,0.02074
,,,-2.87E-06,0.020443125
,,,-2.86E-06,0.020854375
,,,-2.85E-06,0.020968125
,,,-2.84E-06,0.0207175
,,,-2.83E-06,0.020924375
,,,-2.82E-06,0.020764375
,,,-2.81E-06,0.02075
,,,-2.8E-06,0.020739375
,,,-2.79E-06,0.02080125
,,,-2.78E-06,0.020733125
,,,-2.77E-06,0.020664375
,,,-2.76E-06,0.020695
,,,-2.75E-06,0.02086125
,,,-2.74E-06,0.020746875
,,,-2.73E-06,0.0207425
,,,-2.72E-06,0.020451875
,,,-2.71E-06,0.02066125
,,,-2.7E-06,0.0205375
,,,-2.69E-06,0.020854375
,,,-2.68E-06,0.021140625
,,,-2.67E-06,0.020574375
,,,-2.66E-06,0.02086625
,,,-2.65E-06,0.02076
,,,-2.64E-06,0.02070125
,,,-2.63E-06,0.020679375
,,,-2.62E-06,0.020691875
,,,-2.61E-06,0.02086625
,,,-2.6E-06,0.02058875
,,,-2.59E-06,0.02063
,,,-2.58E-06,0.020736875
,,,-2.57E-06,0.02059875
,,,-2.56E-06,0.020834375
,,,-2.55E-06,0.02092
,,,-2.54E-06,0.020791875
,,,-2.53E-06,0.0207975
,,,-2.52E-06,0.021059375
,,,-2.51E-06,0.02099375
,,,-2.5E-06,0.0206075
,,,-2.49E-06,0.02078
,,,-2.48E-06,0.020461875
,,,-2.47E-06,0.02081625
,,,-2.46E-06,0.02059
,,,-2.45E-06,0.0208525
,,,-2.44E-06,0.020695
,,,-2.43E-06,0.02081
,,,-2.42E-06,0.0204925
,,,-2.41E-06,0.02078875
,,,-2.4E-06,0.020886875
,,,-2.39E-06,0.020653125
,,,-2.38E-06,0.02086
,,,-2.37E-06,0.02056125
,,,-2.36E-06,0.020624375
,,,-2.35E-06,0.020730625
,,,-2.34E-06,0.020735625
,,,-2.33E-06,0.020884375
,,,-2.32E-06,0.020735625
,,,-2.31E-06,0.0208625
,,,-2.3E-06,0.020824375
,,,-2.29E-06,0.02080375
,,,-2.28E-06,0.02062875
,,,-2.27E-06,0.0207425
,,,-2.26E-06,0.020953125
,,,-2.25E-06,0.020765625
,,,-2.24E-06,0.02088875
,,,-2.23E-06,0.02083
,,,-2.22E-06,0.020631875
,,,-2.21E-06,0.02074375
,,,-2.2E-06,0.020780625
,,,-2.19E-06,0.020495
,,,-2.18E-06,0.0208275
,,,-2.17E-06,0.02089375
,,,-2.16E-06,0.020768125
,,,-2.15E-06,0.02082625
,,,-2.14E-06,0.020705625
,,,-2.13E-06,0.021076875
,,,-2.12E-06,0.020693125
,,,-2.11E-06,0.02084875
,,,-2.1E-06,0.02062
,,,-2.09E-06,0.02093375
,,,-2.08E-06,0.02074
,,,-2.07E-06,0.020835625
,,,-2.06E-06,0.02056125
,,,-2.05E-06,0.020666875
,,,-2.04E-06,0.02069125
,,,-2.03E-06,0.020750625
,,,-2.02E-06,0.020903125
,,,-2.01E-06,0.020743125
,,,-2E-06,0.020793125
,,,-1.99E-06,0.0208925
,,,-1.98E-06,0.02069125
,,,-1.97E-06,0.0208025
,,,-1.96E-06,0.020761875
,,,-1.95E-06,0.0206625
,,,-1.94E-06,0.020499375
,,,-1.93E-06,0.02079875
,,,-1.92E-06,0.02061375
,,,-1.91E-06,0.02071125
,,,-1.9E-06,0.02089125
,,,-1.89E-06,0.02039625
,,,-1.88E-06,0.02059625
,,,-1.87E-06,0.0207825
,,,-1.86E-06,0.020703125
,,,-1.85E-06,0.02069
,,,-1.84E-06,0.0211575
,,,-1.83E-06,0.02047875
,,,-1.82E-06,0.021063125
,,,-1.81E-06,0.0208425
,,,-1.8E-06,0.020863125
,,,-1.79E-06,0.0207625
,,,-1.78E-06,0.02067
,,,-1.77E-06,0.02071625
,,,-1.76E-06,0.020735625
,,,-1.75E-06,0.02080375
,,,-1.74E-06,0.02067375
,,,-1.73E-06,0.02051375
,,,-1.72E-06,0.020616875
,,,-1.71E-06,0.02071875
,,,-1.7E-06,0.02034125
,,,-1.69E-06,0.0208
,,,-1.68E-06,0.02056875
,,,-1.67E-06,0.020883125
,,,-1.66E-06,0.02077625
,,,-1.65E-06,0.020813125
,,,-1.64E-06,0.020754375
,,,-1.63E-06,0.020685625
,,,-1.62E-06,0.02066
,,,-1.61E-06,0.02083
,,,-1.6E-06,0.02081125
,,,-1.59E-06,0.02054375
,,,-1.58E-06,0.020841875
,,,-1.57E-06,0.02068875
,,,-1.56E-06,0.020720625
,,,-1.55E-06,0.020546875
,,,-1.54E-06,0.020783125
,,,-1.53E-06,0.02080625
,,,-1.52E-06,0.0208575
,,,-1.51E-06,0.02089375
,,,-1.5E-06,0.02068375
,,,-1.49E-06,0.02059125
,,,-1.48E-06,0.020773125
,,,-1.47E-06,0.020935625
,,,-1.46E-06,0.020805
,,,-1.45E-06,0.020613125
,,,-1.44E-06,0.020741875
,,,-1.43E-06,0.020634375
,,,-1.42E-06,0.0208225
,,,-1.41E-06,0.0207875
,,,-1.4E-06,0.020915625
,,,-1.39E-06,0.020731875
,,,-1.38E-06,0.02072875
,,,-1.37E-06,0.0207025
,,,-1.36E-06,0.020648125
,,,-1.35E-06,0.020921875
,,,-1.34E-06,0.020621875
,,,-1.33E-06,0.020716875
,,,-1.32E-06,0.020714375
,,,-1.31E-06,0.020634375
,,,-1.3E-06,0.02056375
,,,-1.29E-06,0.02065375
,,,-1.28E-06,0.02075625
,,,-1.27E-06,0.020809375
,,,-1.26E-06,0.02079625
,,,-1.25E-06,0.02083125
,,,-1.24E-06,0.02088375
,,,-1.23E-06,0.020511875
,,,-1.22E-06,0.02061375
,,,-1.21E-06,0.02084375
,,,-1.2E-06,0.02077125
,,,-1.19E-06,0.0206975
,,,-1.18E-06,0.0207625
,,,-1.17E-06,0.02088125
,,,-1.16E-06,0.020770625
,,,-1.15E-06,0.02080375
,,,-1.14E-06,0.0207375
,,,-1.13E-06,0.020726875
,,,-1.12E-06,0.02057875
,,,-1.11E-06,0.020815
,,,-1.1E-06,0.02067125
,,,-1.09E-06,0.020946875
,,,-1.08E-06,0.020924375
,,,-1.07E-06,0.02073625
,,,-1.06E-06,0.020590625
,,,-1.05E-06,0.020684375
,,,-1.04E-06,0.020788125
,,,-1.03E-06,0.020699375
,,,-1.02E-06,0.0207725
,,,-1.01E-06,0.020793125
,,,-1E-06,0.0209125
,,,-9.9E-07,0.020660625
,,,-9.8E-07,0.020849375
,,,-9.7E-07,0.020973125
,,,-9.6E-07,0.020720625
,,,-9.5E-07,0.020721875
,,,-9.4E-07,0.02083875
,,,-9.3E-07,0.02073375
,,,-9.2E-07,0.020840625
,,,-9.1E-07,0.02074125
,,,-9E-07,0.02033
,,,-8.9E-07,0.02071875
,,,-8.8E-07,0.02073625
,,,-8.7E-07,0.020815
,,,-8.6E-07,0.0207725
,,,-8.5E-07,0.02099125
,,,-8.4E-07,0.02067125
,,,-8.3E-07,0.020858125
,,,-8.2E-07,0.02103
,,,-8.1E-07,0.020776875
,,,-8E-07,0.020880625
,,,-7.9E-07,0.020599375
,,,-7.8E-07,0.0205725
,,,-7.7E-07,0.020989375
,,,-7.6E-07,0.020559375
,,,-7.5E-07,0.02079125
,,,-7.4E-07,0.0206875
,,,-7.3E-07,0.020559375
,,,-7.2E-07,0.0205575
,,,-7.1E-07,0.020995625
,,,-7E-07,0.02088125
,,,-6.9E-07,0.02092
,,,-6.8E-07,0.020765
,,,-6.7E-07,0.020885625
,,,-6.6E-07,0.02075875
,,,-6.5E-07,0.020935625
,,,-6.4E-07,0.0205825
,,,-6.3E-07,0.020654375
,,,-6.2E-07,0.020644375
,,,-6.1E-07,0.02071625
,,,-6E-07,0.021004375
,,,-5.9E-07,0.02081625
,,,-5.8E-07,0.02059625
,,,-5.7E-07,0.020563125
,,,-5.6E-07,0.02046375
,,,-5.5E-07,0.02063125
,,,-5.4E-07,0.020679375
,,,-5.3E-07,0.02081625
,,,-5.2E-07,0.02078125
,,,-5.1E-07,0.02067625
,,,-5E-07,0.02088375
,,,-4.9E-07,0.0207925
,,,-4.8E-07,0.02068875
,,,-4.7E-07,0.020551875
,,,-4.6E-07,0.02053125
,,,-4.5E-07,0.020686875
,,,-4.4E-07,0.020771875
,,,-4.3E-07,0.02091875
,,,-4.2E-07,0.020818125
,,,-4.1E-07,0.020525625
,,,-4E-07,0.02042125
,,,-3.9E-07,0.020464375
,,,-3.8E-07,0.020798125
,,,-3.7E-07,0.0209275
,,,-3.6E-07,0.0208325
,,,-3.5E-07,0.020695
,,,-3.4E-07,0.02063625
,,,-3.3E-07,0.02092375
,,,-3.2E-07,0.0206575
,,,-3.1E-07,0.0208075
,,,-3E-07,0.021025
,,,-2.9E-07,0.020749375
,,,-2.8E-07,0.02084375
,,,-2.7E-07,0.02070875
,,,-2.6E-07,0.0207225
,,,-2.5E-07,0.02067875
,,,-2.4E-07,0.020639375
,,,-2.3E-07,0.020705
,,,-2.2E-07,0.0209275
,,,-2.1E-07,0.020686875
,,,-2E-07,0.020583125
,,,-1.9E-07,0.0207
,,,-1.8E-07,0.020754375
,,,-1.7E-07,0.020585
,,,-1.6E-07,0.02069
,,,-1.5E-07,0.020855
,,,-1.4E-07,0.020765
,,,-1.3E-07,0.02092125
,,,-1.2E-07,0.020985625
,,,-1.1E-07,0.0207375
,,,-1E-07,0.02094875
,,,-9E-08,0.020741875
,,,-8E-08,0.020830625
,,,-7E-08,0.0207775
,,,-6E-08,0.020888125
,,,-5E-08,0.020736875
,,,-4E-08,0.0216525
,,,-3E-08,0.02237875
,,,-2E-08,0.019021875
,,,-1E-08,0.01711375
,,,0,0.018035625
,,,1E-08,0.023511875
,,,2E-08,0.025845
,,,3E-08,0.024094375
,,,4E-08,0.0195825
,,,5E-08,0.01733875
,,,6E-08,0.017305625
,,,7E-08,0.019625
,,,8E-08,0.021796875
,,,9E-08,0.023170625
,,,1E-07,0.022988125
,,,1.1E-07,0.021159375
,,,1.2E-07,0.0193525
,,,1.3E-07,0.01903125
,,,1.4E-07,0.0201
,,,1.5E-07,0.02125375
,,,1.6E-07,0.021565625
,,,1.7E-07,0.020989375
,,,1.8E-07,0.020816875
,,,1.9E-07,0.020806875
,,,2E-07,0.02052125
,,,2.1E-07,0.020433125
,,,2.2E-07,0.02057625
,,,2.3E-07,0.020733125
,,,2.4E-07,0.02073
,,,2.5E-07,0.020695
,,,2.6E-07,0.020625625
,,,2.7E-07,0.020846875
,,,2.8E-07,0.0208875
,,,2.9E-07,0.0208425
,,,3E-07,0.0206725
,,,3.1E-07,0.020666875
,,,3.2E-07,0.020735
,,,3.3E-07,0.020820625
,,,3.4E-07,0.02052875
,,,3.5E-07,0.02089375
,,,3.6E-07,0.020600625
,,,3.7E-07,0.020839375
,,,3.8E-07,0.0208725
,,,3.9E-07,0.02053875
,,,4E-07,0.02064
,,,4.1E-07,0.020674375
,,,4.2E-07,0.020859375
,,,4.3E-07,0.020885
,,,4.4E-07,0.02103875
,,,4.5E-07,0.020756875
,,,4.6E-07,0.02064375
,,,4.7E-07,0.020860625
,,,4.8E-07,0.020550625
,,,4.9E-07,0.02054375
,,,5E-07,0.020966875
,,,5.1E-07,0.02081875
,,,5.2E-07,0.020735625
,,,5.3E-07,0.0207025
,,,5.4E-07,0.0206975
,,,5.5E-07,0.02103875
,,,5.6E-07,0.02071625
,,,5.7E-07,0.020958125
,,,5.8E-07,0.020678125
,,,5.9E-07,0.020813125
,,,6E-07,0.020869375
,,,6.1E-07,0.02057875
,,,6.2E-07,0.02093125
,,,6.3E-07,0.020838125
,,,6.4E-07,0.020664375
,,,6.5E-07,0.020755
,,,6.6E-07,0.02113375
,,,6.7E-07,0.020693125
,,,6.8E-07,0.020805
,,,6.9E-07,0.020695
,,,7E-07,0.020565625
,,,7.1E-07,0.02047375
,,,7.2E-07,0.02066625
,,,7.3E-07,0.020911875
,,,7.4E-07,0.02073
,,,7.5E-07,0.020885
,,,7.6E-07,0.020905
,,,7.7E-07,0.02044875
,,,7.8E-07,0.02101
,,,7.9E-07,0.020685
,,,8E-07,0.020776875
,,,8.1E-07,0.02047125
,,,8.2E-07,0.020890625
,,,8.3E-07,0.020699375
,,,8.4E-07,0.020643125
,,,8.5E-07,0.02096125
,,,8.6E-07,0.0205075
,,,8.7E-07,0.02058875
,,,8.8E-07,0.020831875
,,,8.9E-07,0.0206025
,,,9E-07,0.02047875
,,,9.1E-07,0.02078625
,,,9.2E-07,0.02090375
,,,9.3E-07,0.02090375
,,,9.4E-07,0.020578125
,,,9.5E-07,0.020558125
,,,9.6E-07,0.0205
,,,9.7E-07,0.020661875
,,,9.8E-07,0.020856875
,,,9.9E-07,0.02077875
,,,1E-06,0.020795
,,,1.01E-06,0.020675625
,,,1.02E-06,0.021085
,,,1.03E-06,0.0209175
,,,1.04E-06,0.020686875
,,,1.05E-06,0.02067125
,,,1.06E-06,0.020706875
,,,1.07E-06,0.02082375
,,,1.08E-06,0.02091
,,,1.09E-06,0.02058375
,,,1.1E-06,0.020734375
,,,1.11E-06,0.02088875
,,,1.12E-06,0.020879375
,,,1.13E-06,0.02059
,,,1.14E-06,0.020851875
,,,1.15E-06,0.020938125
,,,1.16E-06,0.020788125
,,,1.17E-06,0.020823125
,,,1.18E-06,0.020785
,,,1.19E-06,0.020656875
,,,1.2E-06,0.020931875
,,,1.21E-06,0.020671875
,,,1.22E-06,0.02075125
,,,1.23E-06,0.020420625
,,,1.24E-06,0.020809375
,,,1.25E-06,0.020713125
,,,1.26E-06,0.02076875
,,,1.27E-06,0.0206825
,,,1.28E-06,0.02098125
,,,1.29E-06,0.020701875
,,,1.3E-06,0.0209075
,,,1.31E-06,0.020671875
,,,1.32E-06,0.020563125
,,,1.33E-06,0.02082125
,,,1.34E-06,0.020724375
,,,1.35E-06,0.0205725
,,,1.36E-06,0.02062125
,,,1.37E-06,0.020849375
,,,1.38E-06,0.020675625
,,,1.39E-06,0.020825
,,,1.4E-06,0.02078125
,,,1.41E-06,0.020693125
,,,1.42E-06,0.020774375
,,,1.43E-06,0.02069875
,,,1.44E-06,0.020775
,,,1.45E-06,0.0208575
,,,1.46E-06,0.020706875
,,,1.47E-06,0.02077375
,,,1.48E-06,0.0209875
,,,1.49E-06,0.02056375
,,,1.5E-06,0.020811875
,,,1.51E-06,0.020611875
,,,1.52E-06,0.020685625
,,,1.53E-06,0.020615625
,,,1.54E-06,0.02081875
,,,1.55E-06,0.0208275
,,,1.56E-06,0.02033
,,,1.57E-06,0.0208025
,,,1.58E-06,0.020730625
,,,1.59E-06,0.02080375
,,,1.6E-06,0.020844375
,,,1.61E-06,0.020776875
,,,1.62E-06,0.020573125
,,,1.63E-06,0.020623125
,,,1.64E-06,0.020625625
,,,1.65E-06,0.020675625
,,,1.66E-06,0.020760625
,,,1.67E-06,0.020883125
,,,1.68E-06,0.02069375
,,,1.69E-06,0.020555
,,,1.7E-06,0.02085875
,,,1.71E-06,0.02055125
,,,1.72E-06,0.02084875
,,,1.73E-06,0.021051875
,,,1.74E-06,0.020631875
,,,1.75E-06,0.02063125
,,,1.76E-06,0.0210925
,,,1.77E-06,0.020745625
,,,1.78E-06,0.02075375
,,,1.79E-06,0.02071875
,,,1.8E-06,0.020714375
,,,1.81E-06,0.020745625
,,,1.82E-06,0.020751875
,,,1.83E-06,0.02096125
,,,1.84E-06,0.020755
,,,1.85E-06,0.020559375
,,,1.86E-06,0.020676875
,,,1.87E-06,0.02058375
,,,1.88E-06,0.0204525
,,,1.89E-06,0.02067375
,,,1.9E-06,0.020753125
,,,1.91E-06,0.0207025
,,,1.92E-06,0.020668125
,,,1.93E-06,0.02051875
,,,1.94E-06,0.020681875
,,,1.95E-06,0.020625625
,,,1.96E-06,0.020648125
,,,1.97E-06,0.020519375
,,,1.98E-06,0.02092375
,,,1.99E-06,0.02088
,,,2E-06,0.020535
,,,2.01E-06,0.0205925
,,,2.02E-06,0.0206775
,,,2.03E-06,0.020826875
,,,2.04E-06,0.0208075
,,,2.05E-06,0.020718125
,,,2.06E-06,0.020593125
,,,2.07E-06,0.02086
,,,2.08E-06,0.0209575
,,,2.09E-06,0.02066875
,,,2.1E-06,0.020584375
,,,2.11E-06,0.020945
,,,2.12E-06,0.0206
,,,2.13E-06,0.020618125
,,,2.14E-06,0.02080875
,,,2.15E-06,0.020773125
,,,2.16E-06,0.020961875
,,,2.17E-06,0.02069
,,,2.18E-06,0.020543125
,,,2.19E-06,0.020871875
,,,2.2E-06,0.02079375
,,,2.21E-06,0.020601875
,,,2.22E-06,0.02081375
,,,2.23E-06,0.020673125
,,,2.24E-06,0.020438125
,,,2.25E-06,0.020925625
,,,2.26E-06,0.02080875
,,,2.27E-06,0.02070125
,,,2.28E-06,0.020790625
,,,2.29E-06,0.020695
,,,2.3E-06,0.020854375
,,,2.31E-06,0.02063125
,,,2.32E-06,0.020648125
,,,2.33E-06,0.02071125
,,,2.34E-06,0.02063
,,,2.35E-06,0.020485
,,,2.36E-06,0.02063
,,,2.37E-06,0.020731875
,,,2.38E-06,0.0210475
,,,2.39E-06,0.020674375
,,,2.4E-06,0.020788125
,,,2.41E-06,0.02074625
,,,2.42E-06,0.020875625
,,,2.43E-06,0.0209175
,,,2.44E-06,0.0208225
,,,2.45E-06,0.020689375
,,,2.46E-06,0.020655625
,,,2.47E-06,0.020854375
,,,2.48E-06,0.020826875
,,,2.49E-06,0.020928125
,,,2.5E-06,0.02042125
,,,2.51E-06,0.020734375
,,,2.52E-06,0.020638125
,,,2.53E-06,0.02077875
,,,2.54E-06,0.02065625
,,,2.55E-06,0.020875625
,,,2.56E-06,0.0207275
,,,2.57E-06,0.020961875
,,,2.58E-06,0.0206425
,,,2.59E-06,0.020571875
,,,2.6E-06,0.02051875
,,,2.61E-06,0.020886875
,,,2.62E-06,0.02092625
,,,2.63E-06,0.0207875
,,,2.64E-06,0.02088625
,,,2.65E-06,0.020754375
,,,2.66E-06,0.020929375
,,,2.67E-06,0.02066125
,,,2.68E-06,0.020678125
,,,2.69E-06,0.0206725
,,,2.7E-06,0.020775
,,,2.71E-06,0.02081375
,,,2.72E-06,0.0207475
,,,2.73E-06,0.020969375
,,,2.74E-06,0.02053875
,,,2.75E-06,0.0206575
,,,2.76E-06,0.02051
,,,2.77E-06,0.02069375
,,,2.78E-06,0.02075875
,,,2.79E-06,0.02101625
,,,2.8E-06,0.0206925
,,,2.81E-06,0.0207075
,,,2.82E-06,0.020695625
,,,2.83E-06,0.020709375
,,,2.84E-06,0.020708125
,,,2.85E-06,0.020855
,,,2.86E-06,0.020881875
,,,2.87E-06,0.02074125
,,,2.88E-06,0.0206175
,,,2.89E-06,0.020995
,,,2.9E-06,0.020453125
,,,2.91E-06,0.0204575
,,,2.92E-06,0.0209475
,,,2.93E-06,0.020775625
,,,2.94E-06,0.020756875
,,,2.95E-06,0.020575
,,,2.96E-06,0.020725625
,,,2.97E-06,0.02070875
,,,2.98E-06,0.02075
,,,2.99E-06,0.02085375
,,,3E-06,0.0205025
,,,3.01E-06,0.02073875
,,,3.02E-06,0.02084125
,,,3.03E-06,0.020805625
,,,3.04E-06,0.020806875
,,,3.05E-06,0.020803125
,,,3.06E-06,0.020913125
,,,3.07E-06,0.020706875
,,,3.08E-06,0.0209275
,,,3.09E-06,0.020769375
,,,3.1E-06,0.02057125
,,,3.11E-06,0.020836875
,,,3.12E-06,0.020599375
,,,3.13E-06,0.020615
,,,3.14E-06,0.02086625
,,,3.15E-06,0.02071125
,,,3.16E-06,0.020895
,,,3.17E-06,0.0205675
,,,3.18E-06,0.0207075
,,,3.19E-06,0.020831875
,,,3.2E-06,0.0208325
,,,3.21E-06,0.020801875
,,,3.22E-06,0.020885625
,,,3.23E-06,0.020559375
,,,3.24E-06,0.0205825
,,,3.25E-06,0.0205875
,,,3.26E-06,0.02076875
,,,3.27E-06,0.020903125
,,,3.28E-06,0.02069625
,,,3.29E-06,0.020886875
,,,3.3E-06,0.020781875
,,,3.31E-06,0.020826875
,,,3.32E-06,0.020948125
,,,3.33E-06,0.0208675
,,,3.34E-06,0.020264375
,,,3.35E-06,0.020985625
,,,3.36E-06,0.020950625
,,,3.37E-06,0.020650625
,,,3.38E-06,0.020585625
,,,3.39E-06,0.020725
,,,3.4E-06,0.02087625
,,,3.41E-06,0.020954375
,,,3.42E-06,0.020531875
,,,3.43E-06,0.02054375
,,,3.44E-06,0.02067125
,,,3.45E-06,0.020739375
,,,3.46E-06,0.02052875
,,,3.47E-06,0.020796875
,,,3.48E-06,0.02089
,,,3.49E-06,0.020559375
,,,3.5E-06,0.02065375
,,,3.51E-06,0.020706875
,,,3.52E-06,0.02074375
,,,3.53E-06,0.020553125
,,,3.54E-06,0.020796875
,,,3.55E-06,0.02081
,,,3.56E-06,0.0208475
,,,3.57E-06,0.020670625
