data/raw/Final_POL_Test_1/SOP069_Ch2.csv

"Record Length",1000,"Points",-5E-06,0.022540625
"Sample Interval",1E-08,s,-4.99E-06,0.0226875
"Trigger Point",500,"Samples",-4.98E-06,0.02255125
"Trigger Time",0,s,-4.97E-06,0.02246
"",,,-4.96E-06,0.0224425
"Horizontal Offset",-5E-06,s,-4.95E-06,0.02227875
,,,-4.94E-06,0.022365
,,,-4.93E-06,0.022603125
,,,-4.92E-06,0.022404375
,,,-4.91E-06,0.0226825
,,,-4.9E-06,0.0226075
,,,-4.89E-06,0.02258875
,,,-4.88E-06,0.022618125
,,,-4.87E-06,0.02265875
,,,-4.86E-06,0.022474375
,,,-4.85E-06,0.022471875
,,,-4.84E-06,0.02248
,,,-4.83E-06,0.022595
,,,-4.82E-06,0.022679375
,,,-4.81E-06,0.022525
,,,-4.8E-06,0.0224825
,,,-4.79E-06,0.02258625
,,,-4.78E-06,0.022455625
,,,-4.77E-06,0.0228225
,,,-4.76E-06,0.02240625
,,,-4.75E-06,0.02262625
,,,-4.74E-06,0.022425
,,,-4.73E-06,0.022606875
,,,-4.72E-06,0.022661875
,,,-4.71E-06,0.0225025
,,,-4.7E-06,0.0226175
,,,-4.69E-06,0.022415
,,,-4.68E-06,0.022135
,,,-4.67E-06,0.02241
,,,-4.66E-06,0.022535625
,,,-4.65E-06,0.022350625
,,,-4.64E-06,0.0226775
,,,-4.63E-06,0.02263375
,,,-4.62E-06,0.02270875
,,,-4.61E-06,0.02235
,,,-4.6E-06,0.022526875
,,,-4.59E-06,0.02262625
,,,-4.58E-06,0.02238875
,,,-4.57E-06,0.022446875
,,,-4.56E-06,0.022371875
,,,-4.55E-06,0.022709375
,,,-4.54E-06,0.02268625
,,,-4.53E-06,0.0226075
,,,-4.52E-06,0.022471875
,,,-4.51E-06,0.0225
,,,-4.5E-06,0.0227025
,,,-4.49E-06,0.0225525
,,,-4.48E-06,0.022389375
,,,-4.47E-06,0.0225875
,,,-4.46E-06,0.0226975
,,,-4.45E-06,0.02246125
,,,-4.44E-06,0.022695625
,,,-4.43E-06,0.022541875
,,,-4.42E-06,0.02231375
,,,-4.41E-06,0.02259375
,,,-4.4E-06,0.022261875
,,,-4.39E-06,0.022498125
,,,-4.38E-06,0.022565
,,,-4.37E-06,0.02243875
,,,-4.36E-06,0.02266625
,,,-4.35E-06,0.022360625
,,,-4.34E-06,0.022641875
,,,-4.33E-06,0.022485
,,,-4.32E-06,0.022341875
,,,-4.31E-06,0.022434375
,,,-4.3E-06,0.02279625
,,,-4.29E-06,0.022499375
,,,-4.28E-06,0.02241125
,,,-4.27E-06,0.02272375
,,,-4.26E-06,0.0223825
,,,-4.25E-06,0.022598125
,,,-4.24E-06,0.022755
,,,-4.23E-06,0.0226075
,,,-4.22E-06,0.0224025
,,,-4.21E-06,0.022675625
,,,-4.2E-06,0.022365
,,,-4.19E-06,0.022333125
,,,-4.18E-06,0.0225775
,,,-4.17E-06,0.022555625
,,,-4.16E-06,0.02264375
,,,-4.15E-06,0.022415625
,,,-4.14E-06,0.022741875
,,,-4.13E-06,0.02260625
,,,-4.12E-06,0.02253875
,,,-4.11E-06,0.022409375
,,,-4.1E-06,0.0226275
,,,-4.09E-06,0.022539375
,,,-4.08E-06,0.02262625
,,,-4.07E-06,0.02269375
,,,-4.06E-06,0.02265375
,,,-4.05E-06,0.02237375
,,,-4.04E-06,0.02248375
,,,-4.03E-06,0.022475625
,,,-4.02E-06,0.0223225
,,,-4.01E-06,0.022333125
,,,-4E-06,0.02251625
,,,-3.99E-06,0.02256
,,,-3.98E-06,0.02255125
,,,-3.97E-06,0.02262
,,,-3.96E-06,0.022504375
,,,-3.95E-06,0.02246625
,,,-3.94E-06,0.02260125
,,,-3.93E-06,0.022533125
,,,-3.92E-06,0.02259625
,,,-3.91E-06,0.02257375
,,,-3.9E-06,0.022631875
,,,-3.89E-06,0.02254125
,,,-3.88E-06,0.02281625
,,,-3.87E-06,0.02230875
,,,-3.86E-06,0.022625
,,,-3.85E-06,0.022709375
,,,-3.84E-06,0.022436875
,,,-3.83E-06,0.022226875
,,,-3.82E-06,0.022459375
,,,-3.81E-06,0.0225275
,,,-3.8E-06,0.022575
,,,-3.79E-06,0.022485625
,,,-3.78E-06,0.02237375
,,,-3.77E-06,0.02265
,,,-3.76E-06,0.022399375
,,,-3.75E-06,0.02248
,,,-3.74E-06,0.0228475
,,,-3.73E-06,0.02261125
,,,-3.72E-06,0.0226325
,,,-3.71E-06,0.02225
,,,-3.7E-06,0.02284375
,,,-3.69E-06,0.022856875
,,,-3.68E-06,0.0223225
,,,-3.67E-06,0.02267
,,,-3.66E-06,0.0226675
,,,-3.65E-06,0.022443125
,,,-3.64E-06,0.02261625
,,,-3.63E-06,0.0224
,,,-3.62E-06,0.02255875
,,,-3.61E-06,0.022766875
,,,-3.6E-06,0.022663125
,,,-3.59E-06,0.022485625
,,,-3.58E-06,0.022353125
,,,-3.57E-06,0.02292375
,,,-3.56E-06,0.022545
,,,-3.55E-06,0.02235875
,,,-3.54E-06,0.022416875
,,,-3.53E-06,0.02243625
,,,-3.52E-06,0.022608125
,,,-3.51E-06,0.022355625
,,,-3.5E-06,0.022886875
,,,-3.49E-06,0.02252375
,,,-3.48E-06,0.022671875
,,,-3.47E-06,0.0224775
,,,-3.46E-06,0.022408125
,,,-3.45E-06,0.022280625
,,,-3.44E-06,0.02242625
,,,-3.43E-06,0.02252875
,,,-3.42E-06,0.022589375
,,,-3.41E-06,0.02272625
,,,-3.4E-06,0.022525
,,,-3.39E-06,0.0227175
,,,-3.38E-06,0.022614375
,,,-3.37E-06,0.022594375
,,,-3.36E-06,0.02263375
,,,-3.35E-06,0.022505625
,,,-3.34E-06,0.02261
,,,-3.33E-06,0.022513125
,,,-3.32E-06,0.02237625
,,,-3.31E-06,0.022638125
,,,-3.3E-06,0.022985
,,,-3.29E-06,0.022569375
,,,-3.28E-06,0.02257875
,,,-3.27E-06,0.022400625
,,,-3.26E-06,0.022573125
,,,-3.25E-06,0.02274625
,,,-3.24E-06,0.02258375
,,,-3.23E-06,0.022684375
,,,-3.22E-06,0.022349375
,,,-3.21E-06,0.0225425
,,,-3.2E-06,0.02239
,,,-3.19E-06,0.022575
,,,-3.18E-06,0.02252
,,,-3.17E-06,0.022764375
,,,-3.16E-06,0.022750625
,,,-3.15E-06,0.02251875
,,,-3.14E-06,0.02246875
,,,-3.13E-06,0.02282625
,,,-3.12E-06,0.022435625
,,,-3.11E-06,0.022675
,,,-3.1E-06,0.022294375
,,,-3.09E-06,0.0225675
,,,-3.08E-06,0.022669375
,,,-3.07E-06,0.0225125
,,,-3.06E-06,0.022446875
,,,-3.05E-06,0.0227825
,,,-3.04E-06,0.0222925
,,,-3.03E-06,0.022405
,,,-3.02E-06,0.02237875
,,,-3.01E-06,0.022610625
,,,-3E-06,0.022731875
,,,-2.99E-06,0.022651875
,,,-2.98E-06,0.02241
,,,-2.97E-06,0.022581875
,,,-2.96E-06,0.02235125
,,,-2.95E-06,0.022453125
,,,-2.94E-06,0.02248625
,,,-2.93E-06,0.0226125
,,,-2.92E-06,0.0225475
,,,-2.91E-06,0.022559375
,,,-2.9E-06,0.022571875
,,,-2.89E-06,0.022358125
,,,-2.88E-06,0.02267125
,,,-2.87E-06,0.0222125
,,,-2.86E-06,0.02260625
,,,-2.85E-06,0.022485
,,,-2.84E-06,0.022555625
,,,-2.83E-06,0.022581875
,,,-2.82E-06,0.02261125
,,,-2.81E-06,0.022605625
,,,-2.8E-06,0.022561875
,,,-2.79E-06,0.022411875
,,,-2.78E-06,0.022635
,,,-2.77E-06,0.0225475
,,,-2.76E-06,0.022575625
,,,-2.75E-06,0.022651875
,,,-2.74E-06,0.022681875
,,,-2.73E-06,0.02242
,,,-2.72E-06,0.022645
,,,-2.71E-06,0.02248375
,,,-2.7E-06,0.022720625
,,,-2.69E-06,0.022638125
,,,-2.68E-06,0.022709375
,,,-2.67E-06,0.022660625
,,,-2.66E-06,0.02246625
,,,-2.65E-06,0.022694375
,,,-2.64E-06,0.022635
,,,-2.63E-06,0.022614375
,,,-2.62E-06,0.022559375
,,,-2.61E-06,0.022723125
,,,-2.6E-06,0.022290625
,,,-2.59E-06,0.02285
,,,-2.58E-06,0.02249
,,,-2.57E-06,0.022611875
,,,-2.56E-06,0.022599375
,,,-2.55E-06,0.022404375
,,,-2.54E-06,0.02259875
,,,-2.53E-06,0.02249125
,,,-2.52E-06,0.022495
,,,-2.51E-06,0.0226
,,,-2.5E-06,0.0224875
,,,-2.49E-06,0.022798125
,,,-2.48E-06,0.022626875
,,,-2.47E-06,0.022364375
,,,-2.46E-06,0.022363125
,,,-2.45E-06,0.022486875
,,,-2.44E-06,0.02242625
,,,-2.43E-06,0.0226875
,,,-2.42E-06,0.02243375
,,,-2.41E-06,0.022705625
,,,-2.4E-06,0.022409375
,,,-2.39E-06,0.02272375
,,,-2.38E-06,0.022594375
,,,-2.37E-06,0.022676875
,,,-2.36E-06,0.022509375
,,,-2.35E-06,0.022576875
,,,-2.34E-06,0.0226175
,,,-2.33E-06,0.02239375
,,,-2.32E-06,0.022660625
,,,-2.31E-06,0.0224675
,,,-2.3E-06,0.022765
,,,-2.29E-06,0.022613125
,,,-2.28E-06,0.022615625
,,,-2.27E-06,0.0224675
,,,-2.26E-06,0.02244125
,,,-2.25E-06,0.02273375
,,,-2.24E-06,0.022596875
,,,-2.23E-06,0.022465
,,,-2.22E-06,0.022546875
,,,-2.21E-06,0.0226175
,,,-2.2E-06,0.02239875
,,,-2.19E-06,0.02270625
,,,-2.18E-06,0.02268
,,,-2.17E-06,0.022514375
,,,-2.16E-06,0.02249
,,,-2.15E-06,0.022675
,,,-2.14E-06,0.022581875
,,,-2.13E-06,0.0224225
,,,-2.12E-06,0.02247625
,,,-2.11E-06,0.022219375
,,,-2.1E-06,0.02262
,,,-2.09E-06,0.022496875
,,,-2.08E-06,0.02257
,,,-2.07E-06,0.02258
,,,-2.06E-06,0.02242375
,,,-2.05E-06,0.02250375
,,,-2.04E-06,0.022514375
,,,-2.03E-06,0.02251125
,,,-2.02E-06,0.022558125
,,,-2.01E-06,0.022403125
,,,-2E-06,0.02248625
,,,-1.99E-06,0.02263875
,,,-1.98E-06,0.022563125
,,,-1.97E-06,0.0224675
,,,-1.96E-06,0.0224825
,,,-1.95E-06,0.022441875
,,,-1.94E-06,0.022346875
,,,-1.93E-06,0.02272875
,,,-1.92E-06,0.022573125
,,,-1.91E-06,0.022426875
,,,-1.9E-06,0.022575
,,,-1.89E-06,0.022334375
,,,-1.88E-06,0.022390625
,,,-1.87E-06,0.022768125
,,,-1.86E-06,0.0225
,,,-1.85E-06,0.022738125
,,,-1.84E-06,0.0228175
,,,-1.83E-06,0.02236875
,,,-1.82E-06,0.022696875
,,,-1.81E-06,0.02254125
,,,-1.8E-06,0.022775625
,,,-1.79E-06,0.022386875
,,,-1.78E-06,0.022501875
,,,-1.77E-06,0.0226275
,,,-1.76E-06,0.022570625
,,,-1.75E-06,0.0225875
,,,-1.74E-06,0.02272375
,,,-1.73E-06,0.022310625
,,,-1.72E-06,0.022203125
,,,-1.71E-06,0.02238875
,,,-1.7E-06,0.022593125
,,,-1.69E-06,0.022475625
,,,-1.68E-06,0.022479375
,,,-1.67E-06,0.0228375
,,,-1.66E-06,0.022514375
,,,-1.65E-06,0.02294
,,,-1.64E-06,0.0225625
,,,-1.63E-06,0.022410625
,,,-1.62E-06,0.022635625
,,,-1.61E-06,0.02238875
,,,-1.6E-06,0.02238625
,,,-1.59E-06,0.022488125
,,,-1.58E-06,0.02243375
,,,-1.57E-06,0.02277875
,,,-1.56E-06,0.022235
,,,-1.55E-06,0.022631875
,,,-1.54E-06,0.0221375
,,,-1.53E-06,0.022655
,,,-1.52E-06,0.02259125
,,,-1.51E-06,0.022601875
,,,-1.5E-06,0.022615625
,,,-1.49E-06,0.022715625
,,,-1.48E-06,0.022911875
,,,-1.47E-06,0.02243125
,,,-1.46E-06,0.02274375
,,,-1.45E-06,0.022606875
,,,-1.44E-06,0.022514375
,,,-1.43E-06,0.022465
,,,-1.42E-06,0.022705625
,,,-1.41E-06,0.022415625
,,,-1.4E-06,0.02238625
,,,-1.39E-06,0.022775
,,,-1.38E-06,0.022635
,,,-1.37E-06,0.022583125
,,,-1.36E-06,0.02244875
,,,-1.35E-06,0.0224775
,,,-1.34E-06,0.022488125
,,,-1.33E-06,0.022511875
,,,-1.32E-06,0.022635
,,,-1.31E-06,0.022534375
,,,-1.3E-06,0.022326875
,,,-1.29E-06,0.022464375
,,,-1.28E-06,0.022645625
,,,-1.27E-06,0.02240125
,,,-1.26E-06,0.022733125
,,,-1.25E-06,0.022455
,,,-1.24E-06,0.022623125
,,,-1.23E-06,0.022545
,,,-1.22E-06,0.0226025
,,,-1.21E-06,0.022505
,,,-1.2E-06,0.02259375
,,,-1.19E-06,0.022864375
,,,-1.18E-06,0.022500625
,,,-1.17E-06,0.022485625
,,,-1.16E-06,0.02272125
,,,-1.15E-06,0.02235625
,,,-1.14E-06,0.022611875
,,,-1.13E-06,0.022395625
,,,-1.12E-06,0.02254
,,,-1.11E-06,0.022178125
,,,-1.1E-06,0.0224675
,,,-1.09E-06,0.0226075
,,,-1.08E-06,0.022410625
,,,-1.07E-06,0.0224325
,,,-1.06E-06,0.022575625
,,,-1.05E-06,0.022209375
,,,-1.04E-06,0.02252125
,,,-1.03E-06,0.02238375
,,,-1.02E-06,0.02247
,,,-1.01E-06,0.02266375
,,,-1E-06,0.02249625
,,,-9.9E-07,0.022605625
,,,-9.8E-07,0.022575
,,,-9.7E-07,0.022439375
,,,-9.6E-07,0.022635
,,,-9.5E-07,0.022579375
,,,-9.4E-07,0.022633125
,,,-9.3E-07,0.022556875
,,,-9.2E-07,0.022586875
,,,-9.1E-07,0.02254625
,,,-9E-07,0.02257625
,,,-8.9E-07,0.022639375
,,,-8.8E-07,0.02266125
,,,-8.7E-07,0.022465625
,,,-8.6E-07,0.0228175
,,,-8.5E-07,0.0224675
,,,-8.4E-07,0.0222625
,,,-8.3E-07,0.022485
,,,-8.2E-07,0.022656875
,,,-8.1E-07,0.02254875
,,,-8E-07,0.022518125
,,,-7.9E-07,0.02242125
,,,-7.8E-07,0.022705625
,,,-7.7E-07,0.022749375
,,,-7.6E-07,0.02248
,,,-7.5E-07,0.0225275
,,,-7.4E-07,0.02285375
,,,-7.3E-07,0.022509375
,,,-7.2E-07,0.022504375
,,,-7.1E-07,0.022499375
,,,-7E-07,0.02255625
,,,-6.9E-07,0.022341875
,,,-6.8E-07,0.022671875
,,,-6.7E-07,0.0227325
,,,-6.6E-07,0.02271
,,,-6.5E-07,0.022651875
,,,-6.4E-07,0.022315
,,,-6.3E-07,0.0223425
,,,-6.2E-07,0.022610625
,,,-6.1E-07,0.022540625
,,,-6E-07,0.02258125
,,,-5.9E-07,0.022814375
,,,-5.8E-07,0.022495
,,,-5.7E-07,0.02278
,,,-5.6E-07,0.022655625
,,,-5.5E-07,0.022586875
,,,-5.4E-07,0.022639375
,,,-5.3E-07,0.022619375
,,,-5.2E-07,0.022515
,,,-5.1E-07,0.02245375
,,,-5E-07,0.022511875
,,,-4.9E-07,0.022723125
,,,-4.8E-07,0.022555625
,,,-4.7E-07,0.02238
,,,-4.6E-07,0.022539375
,,,-4.5E-07,0.0223125
,,,-4.4E-07,0.022650625
,,,-4.3E-07,0.022716875
,,,-4.2E-07,0.0225475
,,,-4.1E-07,0.02265125
,,,-4E-07,0.022625625
,,,-3.9E-07,0.0225825
,,,-3.8E-07,0.022434375
,,,-3.7E-07,0.02275
,,,-3.6E-07,0.022404375
,,,-3.5E-07,0.02248125
,,,-3.4E-07,0.02252625
,,,-3.3E-07,0.0225425
,,,-3.2E-07,0.0224575
,,,-3.1E-07,0.022726875
,,,-3E-07,0.02245
,,,-2.9E-07,0.02279625
,,,-2.8E-07,0.022523125
,,,-2.7E-07,0.022658125
,,,-2.6E-07,0.022431875
,,,-2.5E-07,0.022500625
,,,-2.4E-07,0.02228
,,,-2.3E-07,0.022294375
,,,-2.2E-07,0.02282625
,,,-2.1E-07,0.02288625
,,,-2E-07,0.022821875
,,,-1.9E-07,0.02252
,,,-1.8E-07,0.022606875
,,,-1.7E-07,0.022505
,,,-1.6E-07,0.02278125
,,,-1.5E-07,0.0224875
,,,-1.4E-07,0.02248875
,,,-1.3E-07,0.02238375
,,,-1.2E-07,0.0224325
,,,-1.1E-07,0.022589375
,,,-1E-07,0.022679375
,,,-9E-08,0.022528125
,,,-8E-08,0.022430625
,,,-7E-08,0.022409375
,,,-6E-08,0.02233375
,,,-5E-08,0.022459375
,,,-4E-08,0.023284375
,,,-3E-08,0.02458
,,,-2E-08,0.02093375
,,,-1E-08,0.01887375
,,,0,0.01847375
,,,1E-08,0.025348125
,,,2E-08,0.02746625
,,,3E-08,0.0268425
,,,4E-08,0.021906875
,,,5E-08,0.019263125
,,,6E-08,0.01885375
,,,7E-08,0.020898125
,,,8E-08,0.02322375
,,,9E-08,0.02506125
,,,1E-07,0.025028125
,,,1.1E-07,0.0236925
,,,1.2E-07,0.02161
,,,1.3E-07,0.020486875
,,,1.4E-07,0.02188375
,,,1.5E-07,0.022949375
,,,1.6E-07,0.022920625
,,,1.7E-07,0.022729375
,,,1.8E-07,0.022808125
,,,1.9E-07,0.022475625
,,,2E-07,0.0223775
,,,2.1E-07,0.022194375
,,,2.2E-07,0.022135625
,,,2.3E-07,0.022598125
,,,2.4E-07,0.022856875
,,,2.5E-07,0.02277625
,,,2.6E-07,0.022734375
,,,2.7E-07,0.022525
,,,2.8E-07,0.0225075
,,,2.9E-07,0.022391875
,,,3E-07,0.022493125
,,,3.1E-07,0.022276875
,,,3.2E-07,0.02235125
,,,3.3E-07,0.022588125
,,,3.4E-07,0.02262375
,,,3.5E-07,0.022394375
,,,3.6E-07,0.02253
,,,3.7E-07,0.02283375
,,,3.8E-07,0.022285625
,,,3.9E-07,0.02266875
,,,4E-07,0.02233
,,,4.1E-07,0.022814375
,,,4.2E-07,0.02242
,,,4.3E-07,0.02258625
,,,4.4E-07,0.022565625
,,,4.5E-07,0.0225325
,,,4.6E-07,0.022693125
,,,4.7E-07,0.02241625
,,,4.8E-07,0.022533125
,,,4.9E-07,0.022479375
,,,5E-07,0.02268
,,,5.1E-07,0.022814375
,,,5.2E-07,0.022858125
,,,5.3E-07,0.022305
,,,5.4E-07,0.02258625
,,,5.5E-07,0.0224875
,,,5.6E-07,0.0227225
,,,5.7E-07,0.022576875
,,,5.8E-07,0.02277875
,,,5.9E-07,0.02258125
,,,6E-07,0.0224
,,,6.1E-07,0.022443125
,,,6.2E-07,0.02256625
,,,6.3E-07,0.0224275
,,,6.4E-07,0.02254125
,,,6.5E-07,0.02296125
,,,6.6E-07,0.022530625
,,,6.7E-07,0.022510625
,,,6.8E-07,0.022649375
,,,6.9E-07,0.02241875
,,,7E-07,0.022604375
,,,7.1E-07,0.0225825
,,,7.2E-07,0.02285125
,,,7.3E-07,0.022611875
,,,7.4E-07,0.02249375
,,,7.5E-07,0.022583125
,,,7.6E-07,0.022619375
,,,7.7E-07,0.02245
,,,7.8E-07,0.022545
,,,7.9E-07,0.02265
,,,8E-07,0.02273375
,,,8.1E-07,0.0224775
,,,8.2E-07,0.022331875
,,,8.3E-07,0.022695625
,,,8.4E-07,0.02252375
,,,8.5E-07,0.022445625
,,,8.6E-07,0.022570625
,,,8.7E-07,0.022746875
,,,8.8E-07,0.022668125
,,,8.9E-07,0.02263625
,,,9E-07,0.02251
,,,9.1E-07,0.022745625
,,,9.2E-07,0.022475625
,,,9.3E-07,0.0224875
,,,9.4E-07,0.02254625
,,,9.5E-07,0.02259125
,,,9.6E-07,0.0225825
,,,9.7E-07,0.02244125
,,,9.8E-07,0.022515
,,,9.9E-07,0.022864375
,,,1E-06,0.022500625
,,,1.01E-06,0.0226275
,,,1.02E-06,0.022689375
,,,1.03E-06,0.022839375
,,,1.04E-06,0.022519375
,,,1.05E-06,0.022246875
,,,1.06E-06,0.022461875
,,,1.07E-06,0.022788125
,,,1.08E-06,0.022535
,,,1.09E-06,0.022541875
,,,1.1E-06,0.022341875
,,,1.11E-06,0.022736875
,,,1.12E-06,0.02253625
,,,1.13E-06,0.02268875
,,,1.14E-06,0.022605625
,,,1.15E-06,0.022496875
,,,1.16E-06,0.022669375
,,,1.17E-06,0.022781875
,,,1.18E-06,0.022413125
,,,1.19E-06,0.0226525
,,,1.2E-06,0.022515
,,,1.21E-06,0.02268875
,,,1.22E-06,0.022623125
,,,1.23E-06,0.02254125
,,,1.24E-06,0.02260625
,,,1.25E-06,0.022369375
,,,1.26E-06,0.022333125
,,,1.27E-06,0.022230625
,,,1.28E-06,0.02289625
,,,1.29E-06,0.022310625
,,,1.3E-06,0.02253875
,,,1.31E-06,0.0228225
,,,1.32E-06,0.0225425
,,,1.33E-06,0.0225975
,,,1.34E-06,0.022471875
,,,1.35E-06,0.02282625
,,,1.36E-06,0.022418125
,,,1.37E-06,0.022653125
,,,1.38E-06,0.022775625
,,,1.39E-06,0.02259625
,,,1.4E-06,0.022561875
,,,1.41E-06,0.0224475
,,,1.42E-06,0.022445
,,,1.43E-06,0.022418125
,,,1.44E-06,0.022434375
,,,1.45E-06,0.02235625
,,,1.46E-06,0.022568125
,,,1.47E-06,0.02250625
,,,1.48E-06,0.022481875
,,,1.49E-06,0.02277625
,,,1.5E-06,0.0222825
,,,1.51E-06,0.0228375
,,,1.52E-06,0.022615625
,,,1.53E-06,0.02232625
,,,1.54E-06,0.02253125
,,,1.55E-06,0.022580625
,,,1.56E-06,0.0225625
,,,1.57E-06,0.022515
,,,1.58E-06,0.02262
,,,1.59E-06,0.022716875
,,,1.6E-06,0.02243625
,,,1.61E-06,0.022585625
,,,1.62E-06,0.0223725
,,,1.63E-06,0.02239375
,,,1.64E-06,0.022709375
,,,1.65E-06,0.02229375
,,,1.66E-06,0.022618125
,,,1.67E-06,0.022466875
,,,1.68E-06,0.022508125
,,,1.69E-06,0.022601875
,,,1.7E-06,0.022356875
,,,1.71E-06,0.022671875
,,,1.72E-06,0.022678125
,,,1.73E-06,0.02263
,,,1.74E-06,0.022543125
,,,1.75E-06,0.0225825
,,,1.76E-06,0.022695625
,,,1.77E-06,0.022115625
,,,1.78E-06,0.022664375
,,,1.79E-06,0.02283375
,,,1.8E-06,0.022585
,,,1.81E-06,0.02250875
,,,1.82E-06,0.022498125
,,,1.83E-06,0.022419375
,,,1.84E-06,0.022695
,,,1.85E-06,0.022356875
,,,1.86E-06,0.0226525
,,,1.87E-06,0.022669375
,,,1.88E-06,0.02251375
,,,1.89E-06,0.022399375
,,,1.9E-06,0.022336875
,,,1.91E-06,0.02272
,,,1.92E-06,0.02236625
,,,1.93E-06,0.022450625
,,,1.94E-06,0.022668125
,,,1.95E-06,0.022701875
,,,1.96E-06,0.022361875
,,,1.97E-06,0.022700625
,,,1.98E-06,0.02258625
,,,1.99E-06,0.022743125
,,,2E-06,0.0224825
,,,2.01E-06,0.02248875
,,,2.02E-06,0.022544375
,,,2.03E-06,0.022718125
,,,2.04E-06,0.02275625
,,,2.05E-06,0.02269
,,,2.06E-06,0.022753125
,,,2.07E-06,0.022428125
,,,2.08E-06,0.02263625
,,,2.09E-06,0.022234375
,,,2.1E-06,0.022736875
,,,2.11E-06,0.022338125
,,,2.12E-06,0.02242875
,,,2.13E-06,0.0224225
,,,2.14E-06,0.022365
,,,2.15E-06,0.022546875
,,,2.16E-06,0.02254875
,,,2.17E-06,0.022300625
,,,2.18E-06,0.022555
,,,2.19E-06,0.02234625
,,,2.2E-06,0.022488125
,,,2.21E-06,0.022626875
,,,2.22E-06,0.022848125
,,,2.23E-06,0.0223275
,,,2.24E-06,0.02282
,,,2.25E-06,0.022834375
,,,2.26E-06,0.0225475
,,,2.27E-06,0.02240875
,,,2.28E-06,0.022638125
,,,2.29E-06,0.022598125
,,,2.3E-06,0.022675625
,,,2.31E-06,0.02278
,,,2.32E-06,0.022703125
,,,2.33E-06,0.022629375
,,,2.34E-06,0.022544375
,,,2.35E-06,0.022465
,,,2.36E-06,0.02251625
,,,2.37E-06,0.022585625
,,,2.38E-06,0.0225725
,,,2.39E-06,0.022326875
,,,2.4E-06,0.02239125
,,,2.41E-06,0.0226175
,,,2.42E-06,0.022563125
,,,2.43E-06,0.022513125
,,,2.44E-06,0.022668125
,,,2.45E-06,0.022628125
,,,2.46E-06,0.02265375
,,,2.47E-06,0.022383125
,,,2.48E-06,0.022383125
,,,2.49E-06,0.02268625
,,,2.5E-06,0.0226725
,,,2.51E-06,0.022476875
,,,2.52E-06,0.0223725
,,,2.53E-06,0.02234625
,,,2.54E-06,0.02239125
,,,2.55E-06,0.02276
,,,2.56E-06,0.02242125
,,,2.57E-06,0.022465625
,,,2.58E-06,0.022530625
,,,2.59E-06,0.02256125
,,,2.6E-06,0.02231125
,,,2.61E-06,0.02273625
,,,2.62E-06,0.02247
,,,2.63E-06,0.022364375
,,,2.64E-06,0.022679375
,,,2.65E-06,0.022660625
,,,2.66E-06,0.02233125
,,,2.67E-06,0.022411875
,,,2.68E-06,0.022375625
,,,2.69E-06,0.022565625
,,,2.7E-06,0.02243
,,,2.71E-06,0.022645625
,,,2.72E-06,0.02242125
,,,2.73E-06,0.022570625
,,,2.74E-06,0.02227
,,,2.75E-06,0.02247875
,,,2.76E-06,0.022225
,,,2.77E-06,0.0226925
,,,2.78E-06,0.02239875
,,,2.79E-06,0.02248625
,,,2.8E-06,0.02261375
,,,2.81E-06,0.022508125
,,,2.82E-06,0.022428125
,,,2.83E-06,0.022638125
,,,2.84E-06,0.02235375
,,,2.85E-06,0.022356875
,,,2.86E-06,0.0226375
,,,2.87E-06,0.02268125
,,,2.88E-06,0.02270875
,,,2.89E-06,0.022526875
,,,2.9E-06,0.022610625
,,,2.91E-06,0.022676875
,,,2.92E-06,0.02261
,,,2.93E-06,0.02270125
,,,2.94E-06,0.022656875
,,,2.95E-06,0.02259375
,,,2.96E-06,0.022504375
,,,2.97E-06,0.02265875
,,,2.98E-06,0.02269875
,,,2.99E-06,0.022626875
,,,3E-06,0.022518125
,,,3.01E-06,0.02252875
,,,3.02E-06,0.022710625
,,,3.03E-06,0.022415625
,,,3.04E-06,0.022683125
,,,3.05E-06,0.022636875
,,,3.06E-06,0.022555
,,,3.07E-06,0.02263
,,,3.08E-06,0.0224925
,,,3.09E-06,0.02261
,,,3.1E-06,0.022645625
,,,3.11E-06,0.0225275
,,,3.12E-06,0.02255875
,,,3.13E-06,0.02264625
,,,3.14E-06,0.022548125
,,,3.15E-06,0.02258125
,,,3.16E-06,0.02262125
,,,3.17E-06,0.022411875
,,,3.18E-06,0.02273125
,,,3.19E-06,0.022594375
,,,3.2E-06,0.022593125
,,,3.21E-06,0.022569375
,,,3.22E-06,0.022644375
,,,3.23E-06,0.022715
,,,3.24E-06,0.022315625
,,,3.25E-06,0.022631875
,,,3.26E-06,0.02246375
,,,3.27E-06,0.02266125
,,,3.28E-06,0.02259
,,,3.29E-06,0.022794375
,,,3.3E-06,0.022315625
,,,3.31E-06,0.02274625
,,,3.32E-06,0.022433125
,,,3.33E-06,0.022630625
,,,3.34E-06,0.022556875
,,,3.35E-06,0.022351875
,,,3.36E-06,0.022524375
,,,3.37E-06,0.02270375
,,,3.38E-06,0.02274375
,,,3.39E-06,0.02255875
,,,3.4E-06,0.022730625
,,,3.41E-06,0.022590625
,,,3.42E-06,0.02243375
,,,3.43E-06,0.02265875
,,,3.44E-06,0.022406875
,,,3.45E-06,0.022599375
,,,3.46E-06,0.022603125
,,,3.47E-06,0.022835625
,,,3.48E-06,0.02268375
,,,3.49E-06,0.02256375
,,,3.5E-06,0.022394375
,,,3.51E-06,0.022688125
,,,3.52E-06,0.022595
,,,3.53E-06,0.022224375
,,,3.54E-06,0.0225475
,,,3.55E-06,0.02269
,,,3.56E-06,0.022588125
,,,3.57E-06,0.02256375
