data/raw/Final_POL_Test_1/SOP027_Ch4.csv

"Record Length",1000,"Points",-5E-06,0.016991875
"Sample Interval",1E-08,s,-4.99E-06,0.017160625
"Trigger Point",500,"Samples",-4.98E-06,0.01695
"Trigger Time",0,s,-4.97E-06,0.0171475
"",,,-4.96E-06,0.017045625
"Horizontal Offset",-5E-06,s,-4.95E-06,0.016733125
,,,-4.94E-06,0.016801875
,,,-4.93E-06,0.0168875
,,,-4.92E-06,0.016985
,,,-4.91E-06,0.017015625
,,,-4.9E-06,0.016941875
,,,-4.89E-06,0.016931875
,,,-4.88E-06,0.0170125
,,,-4.87E-06,0.016690625
,,,-4.86E-06,0.017011875
,,,-4.85E-06,0.016938125
,,,-4.84E-06,0.01671875
,,,-4.83E-06,0.01683375
,,,-4.82E-06,0.016931875
,,,-4.81E-06,0.016961875
,,,-4.8E-06,0.017154375
,,,-4.79E-06,0.01695375
,,,-4.78E-06,0.01701375
,,,-4.77E-06,0.0169475
,,,-4.76E-06,0.016793125
,,,-4.75E-06,0.016943125
,,,-4.74E-06,0.016849375
,,,-4.73E-06,0.01721
,,,-4.72E-06,0.016879375
,,,-4.71E-06,0.016926875
,,,-4.7E-06,0.01683375
,,,-4.69E-06,0.016655625
,,,-4.68E-06,0.016775625
,,,-4.67E-06,0.017003125
,,,-4.66E-06,0.017004375
,,,-4.65E-06,0.016980625
,,,-4.64E-06,0.017104375
,,,-4.63E-06,0.016986875
,,,-4.62E-06,0.01690125
,,,-4.61E-06,0.016725
,,,-4.6E-06,0.016910625
,,,-4.59E-06,0.017069375
,,,-4.58E-06,0.01694875
,,,-4.57E-06,0.016844375
,,,-4.56E-06,0.016889375
,,,-4.55E-06,0.016980625
,,,-4.54E-06,0.016869375
,,,-4.53E-06,0.0169825
,,,-4.52E-06,0.0169025
,,,-4.51E-06,0.01669
,,,-4.5E-06,0.01660125
,,,-4.49E-06,0.016608125
,,,-4.48E-06,0.01707
,,,-4.47E-06,0.016795
,,,-4.46E-06,0.016826875
,,,-4.45E-06,0.016870625
,,,-4.44E-06,0.016785
,,,-4.43E-06,0.016909375
,,,-4.42E-06,0.017140625
,,,-4.41E-06,0.016724375
,,,-4.4E-06,0.016894375
,,,-4.39E-06,0.01688875
,,,-4.38E-06,0.017013125
,,,-4.37E-06,0.0167225
,,,-4.36E-06,0.016835
,,,-4.35E-06,0.016855
,,,-4.34E-06,0.017053125
,,,-4.33E-06,0.016934375
,,,-4.32E-06,0.0168825
,,,-4.31E-06,0.01690625
,,,-4.3E-06,0.016945
,,,-4.29E-06,0.016975625
,,,-4.28E-06,0.016936875
,,,-4.27E-06,0.017064375
,,,-4.26E-06,0.0167925
,,,-4.25E-06,0.01697125
,,,-4.24E-06,0.017056875
,,,-4.23E-06,0.016835625
,,,-4.22E-06,0.016914375
,,,-4.21E-06,0.016899375
,,,-4.2E-06,0.016855
,,,-4.19E-06,0.01667875
,,,-4.18E-06,0.0169075
,,,-4.17E-06,0.016998125
,,,-4.16E-06,0.016971875
,,,-4.15E-06,0.01681
,,,-4.14E-06,0.0168825
,,,-4.13E-06,0.0167925
,,,-4.12E-06,0.016868125
,,,-4.11E-06,0.017055
,,,-4.1E-06,0.01688375
,,,-4.09E-06,0.017113125
,,,-4.08E-06,0.017074375
,,,-4.07E-06,0.016873125
,,,-4.06E-06,0.016968125
,,,-4.05E-06,0.016923125
,,,-4.04E-06,0.016825
,,,-4.03E-06,0.016929375
,,,-4.02E-06,0.016831875
,,,-4.01E-06,0.016873125
,,,-4E-06,0.0170525
,,,-3.99E-06,0.0170475
,,,-3.98E-06,0.017044375
,,,-3.97E-06,0.016681875
,,,-3.96E-06,0.0169675
,,,-3.95E-06,0.0168075
,,,-3.94E-06,0.016915625
,,,-3.93E-06,0.01704125
,,,-3.92E-06,0.017195625
,,,-3.91E-06,0.016575
,,,-3.9E-06,0.016885
,,,-3.89E-06,0.016925
,,,-3.88E-06,0.016869375
,,,-3.87E-06,0.01674625
,,,-3.86E-06,0.01700375
,,,-3.85E-06,0.01686125
,,,-3.84E-06,0.0171925
,,,-3.83E-06,0.0167225
,,,-3.82E-06,0.017220625
,,,-3.81E-06,0.017018125
,,,-3.8E-06,0.016765625
,,,-3.79E-06,0.01676875
,,,-3.78E-06,0.0170925
,,,-3.77E-06,0.0169025
,,,-3.76E-06,0.01699875
,,,-3.75E-06,0.017183125
,,,-3.74E-06,0.017080625
,,,-3.73E-06,0.016740625
,,,-3.72E-06,0.016769375
,,,-3.71E-06,0.01706375
,,,-3.7E-06,0.016823125
,,,-3.69E-06,0.017081875
,,,-3.68E-06,0.01678375
,,,-3.67E-06,0.016820625
,,,-3.66E-06,0.017140625
,,,-3.65E-06,0.016959375
,,,-3.64E-06,0.016935625
,,,-3.63E-06,0.0168475
,,,-3.62E-06,0.016851875
,,,-3.61E-06,0.01694875
,,,-3.6E-06,0.016990625
,,,-3.59E-06,0.01718125
,,,-3.58E-06,0.017015625
,,,-3.57E-06,0.016861875
,,,-3.56E-06,0.016866875
,,,-3.55E-06,0.017019375
,,,-3.54E-06,0.0168925
,,,-3.53E-06,0.017023125
,,,-3.52E-06,0.01667125
,,,-3.51E-06,0.017185625
,,,-3.5E-06,0.01700625
,,,-3.49E-06,0.01695375
,,,-3.48E-06,0.016983125
,,,-3.47E-06,0.016829375
,,,-3.46E-06,0.016843125
,,,-3.45E-06,0.0170225
,,,-3.44E-06,0.017056875
,,,-3.43E-06,0.01687625
,,,-3.42E-06,0.0168075
,,,-3.41E-06,0.016890625
,,,-3.4E-06,0.016819375
,,,-3.39E-06,0.016839375
,,,-3.38E-06,0.017103125
,,,-3.37E-06,0.01700625
,,,-3.36E-06,0.01677125
,,,-3.35E-06,0.0167925
,,,-3.34E-06,0.017085625
,,,-3.33E-06,0.01701
,,,-3.32E-06,0.0171775
,,,-3.31E-06,0.017095625
,,,-3.3E-06,0.016868125
,,,-3.29E-06,0.016953125
,,,-3.28E-06,0.01688375
,,,-3.27E-06,0.016911875
,,,-3.26E-06,0.016756875
,,,-3.25E-06,0.016798125
,,,-3.24E-06,0.01680125
,,,-3.23E-06,0.017098125
,,,-3.22E-06,0.016876875
,,,-3.21E-06,0.0167275
,,,-3.2E-06,0.01679
,,,-3.19E-06,0.016816875
,,,-3.18E-06,0.016818125
,,,-3.17E-06,0.017058125
,,,-3.16E-06,0.0171275
,,,-3.15E-06,0.01706375
,,,-3.14E-06,0.0168725
,,,-3.13E-06,0.01688125
,,,-3.12E-06,0.01686625
,,,-3.11E-06,0.01715875
,,,-3.1E-06,0.01692
,,,-3.09E-06,0.01687625
,,,-3.08E-06,0.0168725
,,,-3.07E-06,0.01698125
,,,-3.06E-06,0.016881875
,,,-3.05E-06,0.017023125
,,,-3.04E-06,0.01699
,,,-3.03E-06,0.0167125
,,,-3.02E-06,0.01714
,,,-3.01E-06,0.01690625
,,,-3E-06,0.016856875
,,,-2.99E-06,0.016765625
,,,-2.98E-06,0.016824375
,,,-2.97E-06,0.01692375
,,,-2.96E-06,0.01677125
,,,-2.95E-06,0.016868125
,,,-2.94E-06,0.016948125
,,,-2.93E-06,0.016548125
,,,-2.92E-06,0.017030625
,,,-2.91E-06,0.016841875
,,,-2.9E-06,0.01704
,,,-2.89E-06,0.0171525
,,,-2.88E-06,0.016905
,,,-2.87E-06,0.016943125
,,,-2.86E-06,0.016889375
,,,-2.85E-06,0.0171375
,,,-2.84E-06,0.01679875
,,,-2.83E-06,0.017266875
,,,-2.82E-06,0.017126875
,,,-2.81E-06,0.0165675
,,,-2.8E-06,0.016780625
,,,-2.79E-06,0.0170575
,,,-2.78E-06,0.01708
,,,-2.77E-06,0.0170275
,,,-2.76E-06,0.017003125
,,,-2.75E-06,0.017065
,,,-2.74E-06,0.01683375
,,,-2.73E-06,0.01708125
,,,-2.72E-06,0.01668375
,,,-2.71E-06,0.017036875
,,,-2.7E-06,0.016936875
,,,-2.69E-06,0.01650625
,,,-2.68E-06,0.016994375
,,,-2.67E-06,0.016913125
,,,-2.66E-06,0.016596875
,,,-2.65E-06,0.016876875
,,,-2.64E-06,0.017181875
,,,-2.63E-06,0.016829375
,,,-2.62E-06,0.01700875
,,,-2.61E-06,0.01718375
,,,-2.6E-06,0.016904375
,,,-2.59E-06,0.016843125
,,,-2.58E-06,0.017078125
,,,-2.57E-06,0.016924375
,,,-2.56E-06,0.017075
,,,-2.55E-06,0.017038125
,,,-2.54E-06,0.016766875
,,,-2.53E-06,0.016910625
,,,-2.52E-06,0.016729375
,,,-2.51E-06,0.016794375
,,,-2.5E-06,0.017059375
,,,-2.49E-06,0.0168375
,,,-2.48E-06,0.016815
,,,-2.47E-06,0.016765
,,,-2.46E-06,0.01696875
,,,-2.45E-06,0.01687125
,,,-2.44E-06,0.016996875
,,,-2.43E-06,0.017058125
,,,-2.42E-06,0.01689
,,,-2.41E-06,0.0169325
,,,-2.4E-06,0.01692875
,,,-2.39E-06,0.01693125
,,,-2.38E-06,0.017174375
,,,-2.37E-06,0.01672375
,,,-2.36E-06,0.01693
,,,-2.35E-06,0.016828125
,,,-2.34E-06,0.0171725
,,,-2.33E-06,0.01685125
,,,-2.32E-06,0.01686
,,,-2.31E-06,0.016833125
,,,-2.3E-06,0.016953125
,,,-2.29E-06,0.017025
,,,-2.28E-06,0.01708625
,,,-2.27E-06,0.01677375
,,,-2.26E-06,0.01706625
,,,-2.25E-06,0.016891875
,,,-2.24E-06,0.016886875
,,,-2.23E-06,0.0171725
,,,-2.22E-06,0.0168325
,,,-2.21E-06,0.01673125
,,,-2.2E-06,0.01695
,,,-2.19E-06,0.01691875
,,,-2.18E-06,0.0171675
,,,-2.17E-06,0.01687125
,,,-2.16E-06,0.01685
,,,-2.15E-06,0.0166625
,,,-2.14E-06,0.016848125
,,,-2.13E-06,0.016953125
,,,-2.12E-06,0.016939375
,,,-2.11E-06,0.017241875
,,,-2.1E-06,0.016918125
,,,-2.09E-06,0.017063125
,,,-2.08E-06,0.017101875
,,,-2.07E-06,0.016800625
,,,-2.06E-06,0.017035
,,,-2.05E-06,0.016811875
,,,-2.04E-06,0.0169825
,,,-2.03E-06,0.01714125
,,,-2.02E-06,0.017084375
,,,-2.01E-06,0.016865625
,,,-2E-06,0.01695875
,,,-1.99E-06,0.016731875
,,,-1.98E-06,0.01675375
,,,-1.97E-06,0.01688625
,,,-1.96E-06,0.017075
,,,-1.95E-06,0.017181875
,,,-1.94E-06,0.016933125
,,,-1.93E-06,0.016819375
,,,-1.92E-06,0.01696375
,,,-1.91E-06,0.017046875
,,,-1.9E-06,0.016805625
,,,-1.89E-06,0.016911875
,,,-1.88E-06,0.01706
,,,-1.87E-06,0.016941875
,,,-1.86E-06,0.01711125
,,,-1.85E-06,0.01691
,,,-1.84E-06,0.0170475
,,,-1.83E-06,0.016815625
,,,-1.82E-06,0.017064375
,,,-1.81E-06,0.016645625
,,,-1.8E-06,0.016698125
,,,-1.79E-06,0.0169275
,,,-1.78E-06,0.0168625
,,,-1.77E-06,0.01701375
,,,-1.76E-06,0.016830625
,,,-1.75E-06,0.01696875
,,,-1.74E-06,0.016770625
,,,-1.73E-06,0.01696125
,,,-1.72E-06,0.016763125
,,,-1.71E-06,0.01677375
,,,-1.7E-06,0.016968125
,,,-1.69E-06,0.01708375
,,,-1.68E-06,0.01712375
,,,-1.67E-06,0.016805625
,,,-1.66E-06,0.016975625
,,,-1.65E-06,0.01678375
,,,-1.64E-06,0.01690375
,,,-1.63E-06,0.016781875
,,,-1.62E-06,0.01695
,,,-1.61E-06,0.016993125
,,,-1.6E-06,0.017055625
,,,-1.59E-06,0.016871875
,,,-1.58E-06,0.01696
,,,-1.57E-06,0.0169225
,,,-1.56E-06,0.01665
,,,-1.55E-06,0.016715625
,,,-1.54E-06,0.016894375
,,,-1.53E-06,0.01688625
,,,-1.52E-06,0.016839375
,,,-1.51E-06,0.01702125
,,,-1.5E-06,0.016928125
,,,-1.49E-06,0.016935
,,,-1.48E-06,0.01699
,,,-1.47E-06,0.0169025
,,,-1.46E-06,0.016835625
,,,-1.45E-06,0.017100625
,,,-1.44E-06,0.01681125
,,,-1.43E-06,0.016879375
,,,-1.42E-06,0.01668875
,,,-1.41E-06,0.016870625
,,,-1.4E-06,0.0167375
,,,-1.39E-06,0.016930625
,,,-1.38E-06,0.016799375
,,,-1.37E-06,0.016955625
,,,-1.36E-06,0.01692875
,,,-1.35E-06,0.01681625
,,,-1.34E-06,0.016878125
,,,-1.33E-06,0.01671625
,,,-1.32E-06,0.01686625
,,,-1.31E-06,0.01686375
,,,-1.3E-06,0.01672625
,,,-1.29E-06,0.0169975
,,,-1.28E-06,0.01695
,,,-1.27E-06,0.01695625
,,,-1.26E-06,0.016844375
,,,-1.25E-06,0.01712
,,,-1.24E-06,0.016846875
,,,-1.23E-06,0.0167975
,,,-1.22E-06,0.01698375
,,,-1.21E-06,0.016934375
,,,-1.2E-06,0.016978125
,,,-1.19E-06,0.016924375
,,,-1.18E-06,0.0170075
,,,-1.17E-06,0.016869375
,,,-1.16E-06,0.01681125
,,,-1.15E-06,0.01652875
,,,-1.14E-06,0.0168475
,,,-1.13E-06,0.01695875
,,,-1.12E-06,0.0167375
,,,-1.11E-06,0.01681125
,,,-1.1E-06,0.016960625
,,,-1.09E-06,0.0168475
,,,-1.08E-06,0.016766875
,,,-1.07E-06,0.01700625
,,,-1.06E-06,0.01689375
,,,-1.05E-06,0.016901875
,,,-1.04E-06,0.016835625
,,,-1.03E-06,0.016950625
,,,-1.02E-06,0.0170775
,,,-1.01E-06,0.017005625
,,,-1E-06,0.016836875
,,,-9.9E-07,0.016895
,,,-9.8E-07,0.0167375
,,,-9.7E-07,0.017041875
,,,-9.6E-07,0.0166225
,,,-9.5E-07,0.0169025
,,,-9.4E-07,0.01697625
,,,-9.3E-07,0.016871875
,,,-9.2E-07,0.017040625
,,,-9.1E-07,0.016875625
,,,-9E-07,0.0169275
,,,-8.9E-07,0.016945
,,,-8.8E-07,0.017013125
,,,-8.7E-07,0.016853125
,,,-8.6E-07,0.0169925
,,,-8.5E-07,0.0169825
,,,-8.4E-07,0.016763125
,,,-8.3E-07,0.016976875
,,,-8.2E-07,0.016855
,,,-8.1E-07,0.016923125
,,,-8E-07,0.0169525
,,,-7.9E-07,0.01687875
,,,-7.8E-07,0.016968125
,,,-7.7E-07,0.0169475
,,,-7.6E-07,0.016919375
,,,-7.5E-07,0.0165975
,,,-7.4E-07,0.016965
,,,-7.3E-07,0.01708375
,,,-7.2E-07,0.016806875
,,,-7.1E-07,0.017071875
,,,-7E-07,0.017225
,,,-6.9E-07,0.017021875
,,,-6.8E-07,0.017124375
,,,-6.7E-07,0.0168925
,,,-6.6E-07,0.0166175
,,,-6.5E-07,0.016865
,,,-6.4E-07,0.017039375
,,,-6.3E-07,0.016986875
,,,-6.2E-07,0.017281875
,,,-6.1E-07,0.01699625
,,,-6E-07,0.01688875
,,,-5.9E-07,0.016966875
,,,-5.8E-07,0.016890625
,,,-5.7E-07,0.017088125
,,,-5.6E-07,0.016936875
,,,-5.5E-07,0.016840625
,,,-5.4E-07,0.016930625
,,,-5.3E-07,0.016859375
,,,-5.2E-07,0.017123125
,,,-5.1E-07,0.01701
,,,-5E-07,0.01697625
,,,-4.9E-07,0.01672125
,,,-4.8E-07,0.0169175
,,,-4.7E-07,0.0166425
,,,-4.6E-07,0.01675125
,,,-4.5E-07,0.016855625
,,,-4.4E-07,0.017125
,,,-4.3E-07,0.016908125
,,,-4.2E-07,0.01711125
,,,-4.1E-07,0.017000625
,,,-4E-07,0.016945
,,,-3.9E-07,0.016891875
,,,-3.8E-07,0.016775625
,,,-3.7E-07,0.016841875
,,,-3.6E-07,0.016901875
,,,-3.5E-07,0.01697625
,,,-3.4E-07,0.01705
,,,-3.3E-07,0.017041875
,,,-3.2E-07,0.016901875
,,,-3.1E-07,0.016956875
,,,-3E-07,0.0168625
,,,-2.9E-07,0.01695375
,,,-2.8E-07,0.016795625
,,,-2.7E-07,0.017023125
,,,-2.6E-07,0.016916875
,,,-2.5E-07,0.016706875
,,,-2.4E-07,0.016515625
,,,-2.3E-07,0.017055
,,,-2.2E-07,0.01692375
,,,-2.1E-07,0.01698625
,,,-2E-07,0.016890625
,,,-1.9E-07,0.01694375
,,,-1.8E-07,0.01698625
,,,-1.7E-07,0.016875625
,,,-1.6E-07,0.01689
,,,-1.5E-07,0.016984375
,,,-1.4E-07,0.016875625
,,,-1.3E-07,0.01690875
,,,-1.2E-07,0.016766875
,,,-1.1E-07,0.01693125
,,,-1E-07,0.017014375
,,,-9E-08,0.01686125
,,,-8E-08,0.0171525
,,,-7E-08,0.01661625
,,,-6E-08,0.0167
,,,-5E-08,0.017680625
,,,-4E-08,0.018275625
,,,-3E-08,0.017246875
,,,-2E-08,0.015238125
,,,-1E-08,0.01500375
,,,0,0.016265625
,,,1E-08,0.0179525
,,,2E-08,0.01851375
,,,3E-08,0.017861875
,,,4E-08,0.016798125
,,,5E-08,0.015986875
,,,6E-08,0.015599375
,,,7E-08,0.01645875
,,,8E-08,0.01731375
,,,9E-08,0.017625
,,,1E-07,0.0176325
,,,1.1E-07,0.01686625
,,,1.2E-07,0.016100625
,,,1.3E-07,0.0163325
,,,1.4E-07,0.01688875
,,,1.5E-07,0.0170775
,,,1.6E-07,0.01698125
,,,1.7E-07,0.0169875
,,,1.8E-07,0.01697875
,,,1.9E-07,0.017079375
,,,2E-07,0.01684375
,,,2.1E-07,0.01679375
,,,2.2E-07,0.01691375
,,,2.3E-07,0.01698625
,,,2.4E-07,0.01683875
,,,2.5E-07,0.01688
,,,2.6E-07,0.016999375
,,,2.7E-07,0.016895
,,,2.8E-07,0.017199375
,,,2.9E-07,0.01698125
,,,3E-07,0.01699
,,,3.1E-07,0.016870625
,,,3.2E-07,0.0169525
,,,3.3E-07,0.01693625
,,,3.4E-07,0.0169725
,,,3.5E-07,0.016924375
,,,3.6E-07,0.0170125
,,,3.7E-07,0.0168975
,,,3.8E-07,0.016911875
,,,3.9E-07,0.016930625
,,,4E-07,0.0169975
,,,4.1E-07,0.016711875
,,,4.2E-07,0.0169525
,,,4.3E-07,0.01698375
,,,4.4E-07,0.0169775
,,,4.5E-07,0.0170775
,,,4.6E-07,0.016988125
,,,4.7E-07,0.0169325
,,,4.8E-07,0.016984375
,,,4.9E-07,0.016811875
,,,5E-07,0.016809375
,,,5.1E-07,0.01684375
,,,5.2E-07,0.016903125
,,,5.3E-07,0.016873125
,,,5.4E-07,0.017088125
,,,5.5E-07,0.01693
,,,5.6E-07,0.01696625
,,,5.7E-07,0.01685375
,,,5.8E-07,0.016899375
,,,5.9E-07,0.016834375
,,,6E-07,0.016780625
,,,6.1E-07,0.016986875
,,,6.2E-07,0.017013125
,,,6.3E-07,0.016774375
,,,6.4E-07,0.01686875
,,,6.5E-07,0.0169775
,,,6.6E-07,0.017046875
,,,6.7E-07,0.016899375
,,,6.8E-07,0.016916875
,,,6.9E-07,0.017035
,,,7E-07,0.016834375
,,,7.1E-07,0.016931875
,,,7.2E-07,0.01684625
,,,7.3E-07,0.016825625
,,,7.4E-07,0.0170475
,,,7.5E-07,0.0170875
,,,7.6E-07,0.0167175
,,,7.7E-07,0.016826875
,,,7.8E-07,0.016780625
,,,7.9E-07,0.017026875
,,,8E-07,0.016923125
,,,8.1E-07,0.016881875
,,,8.2E-07,0.01699375
,,,8.3E-07,0.016821875
,,,8.4E-07,0.016890625
,,,8.5E-07,0.0167425
,,,8.6E-07,0.0169825
,,,8.7E-07,0.017098125
,,,8.8E-07,0.01693375
,,,8.9E-07,0.017046875
,,,9E-07,0.017259375
,,,9.1E-07,0.016885
,,,9.2E-07,0.016734375
,,,9.3E-07,0.01684875
,,,9.4E-07,0.01702375
,,,9.5E-07,0.01711625
,,,9.6E-07,0.0168
,,,9.7E-07,0.016841875
,,,9.8E-07,0.01695625
,,,9.9E-07,0.017129375
,,,1E-06,0.017015625
,,,1.01E-06,0.0168775
,,,1.02E-06,0.0167125
,,,1.03E-06,0.017000625
,,,1.04E-06,0.016978125
,,,1.05E-06,0.01702125
,,,1.06E-06,0.01698
,,,1.07E-06,0.01686125
,,,1.08E-06,0.017119375
,,,1.09E-06,0.016915625
,,,1.1E-06,0.016924375
,,,1.11E-06,0.01687375
,,,1.12E-06,0.016923125
,,,1.13E-06,0.01680625
,,,1.14E-06,0.017171875
,,,1.15E-06,0.017103125
,,,1.16E-06,0.01708
,,,1.17E-06,0.016915
,,,1.18E-06,0.017015
,,,1.19E-06,0.01695
,,,1.2E-06,0.01696375
,,,1.21E-06,0.016875
,,,1.22E-06,0.016815625
,,,1.23E-06,0.017133125
,,,1.24E-06,0.017028125
,,,1.25E-06,0.017055
,,,1.26E-06,0.017045625
,,,1.27E-06,0.01688125
,,,1.28E-06,0.01695625
,,,1.29E-06,0.016904375
,,,1.3E-06,0.016840625
,,,1.31E-06,0.0168375
,,,1.32E-06,0.01691125
,,,1.33E-06,0.016848125
,,,1.34E-06,0.017089375
,,,1.35E-06,0.016939375
,,,1.36E-06,0.016835625
,,,1.37E-06,0.016948125
,,,1.38E-06,0.016736875
,,,1.39E-06,0.016969375
,,,1.4E-06,0.016825
,,,1.41E-06,0.0171275
,,,1.42E-06,0.017065
,,,1.43E-06,0.017130625
,,,1.44E-06,0.01660125
,,,1.45E-06,0.01688
,,,1.46E-06,0.016693125
,,,1.47E-06,0.01689
,,,1.48E-06,0.016875625
,,,1.49E-06,0.01700375
,,,1.5E-06,0.0169425
,,,1.51E-06,0.0168125
,,,1.52E-06,0.01682625
,,,1.53E-06,0.01712125
,,,1.54E-06,0.016924375
,,,1.55E-06,0.017053125
,,,1.56E-06,0.0168475
,,,1.57E-06,0.01692
,,,1.58E-06,0.0168425
,,,1.59E-06,0.01688
,,,1.6E-06,0.01675
,,,1.61E-06,0.017015625
,,,1.62E-06,0.017130625
,,,1.63E-06,0.01698125
,,,1.64E-06,0.0169625
,,,1.65E-06,0.016799375
,,,1.66E-06,0.016879375
,,,1.67E-06,0.016851875
,,,1.68E-06,0.016828125
,,,1.69E-06,0.016938125
,,,1.7E-06,0.01703625
,,,1.71E-06,0.017225
,,,1.72E-06,0.017071875
,,,1.73E-06,0.016785625
,,,1.74E-06,0.016899375
,,,1.75E-06,0.017129375
,,,1.76E-06,0.017125625
,,,1.77E-06,0.016993125
,,,1.78E-06,0.016941875
,,,1.79E-06,0.0168
,,,1.8E-06,0.017025
,,,1.81E-06,0.017079375
,,,1.82E-06,0.016928125
,,,1.83E-06,0.016951875
,,,1.84E-06,0.01695125
,,,1.85E-06,0.01697875
,,,1.86E-06,0.016914375
,,,1.87E-06,0.017044375
,,,1.88E-06,0.0169125
,,,1.89E-06,0.016773125
,,,1.9E-06,0.017080625
,,,1.91E-06,0.01697
,,,1.92E-06,0.0169825
,,,1.93E-06,0.016979375
,,,1.94E-06,0.017015
,,,1.95E-06,0.016963125
,,,1.96E-06,0.01714125
,,,1.97E-06,0.01694875
,,,1.98E-06,0.0170175
,,,1.99E-06,0.016813125
,,,2E-06,0.01699625
,,,2.01E-06,0.01696375
,,,2.02E-06,0.01707375
,,,2.03E-06,0.01680125
,,,2.04E-06,0.0168125
,,,2.05E-06,0.01672875
,,,2.06E-06,0.01708625
,,,2.07E-06,0.01700375
,,,2.08E-06,0.016875
,,,2.09E-06,0.0169025
,,,2.1E-06,0.017058125
,,,2.11E-06,0.017204375
,,,2.12E-06,0.016808125
,,,2.13E-06,0.016948125
,,,2.14E-06,0.0169325
,,,2.15E-06,0.0168675
,,,2.16E-06,0.016923125
,,,2.17E-06,0.01711
,,,2.18E-06,0.017043125
,,,2.19E-06,0.01703
,,,2.2E-06,0.017001875
,,,2.21E-06,0.016738125
,,,2.22E-06,0.016890625
,,,2.23E-06,0.01688
,,,2.24E-06,0.017134375
,,,2.25E-06,0.017025625
,,,2.26E-06,0.0171275
,,,2.27E-06,0.017096875
,,,2.28E-06,0.01695625
,,,2.29E-06,0.017050625
,,,2.3E-06,0.016695625
,,,2.31E-06,0.01704375
,,,2.32E-06,0.0170425
,,,2.33E-06,0.016936875
,,,2.34E-06,0.0169025
,,,2.35E-06,0.0168
,,,2.36E-06,0.01693125
,,,2.37E-06,0.016749375
,,,2.38E-06,0.017121875
,,,2.39E-06,0.01675
,,,2.4E-06,0.017075625
,,,2.41E-06,0.016970625
,,,2.42E-06,0.016858125
,,,2.43E-06,0.01714625
,,,2.44E-06,0.0167925
,,,2.45E-06,0.01695625
,,,2.46E-06,0.016829375
,,,2.47E-06,0.01680875
,,,2.48E-06,0.01698125
,,,2.49E-06,0.017041875
,,,2.5E-06,0.016816875
,,,2.51E-06,0.016795
,,,2.52E-06,0.01683
,,,2.53E-06,0.016818125
,,,2.54E-06,0.01706375
,,,2.55E-06,0.01675375
,,,2.56E-06,0.016936875
,,,2.57E-06,0.0171175
,,,2.58E-06,0.01692625
,,,2.59E-06,0.01689625
,,,2.6E-06,0.01702125
,,,2.61E-06,0.016568125
,,,2.62E-06,0.016919375
,,,2.63E-06,0.01713875
,,,2.64E-06,0.016825
,,,2.65E-06,0.016821875
,,,2.66E-06,0.016631875
,,,2.67E-06,0.01706875
,,,2.68E-06,0.0170525
,,,2.69E-06,0.0168975
,,,2.7E-06,0.016928125
,,,2.71E-06,0.01690125
,,,2.72E-06,0.017090625
,,,2.73E-06,0.016965625
,,,2.74E-06,0.01668125
,,,2.75E-06,0.017005625
,,,2.76E-06,0.01688
,,,2.77E-06,0.0167875
,,,2.78E-06,0.0170525
,,,2.79E-06,0.016950625
,,,2.8E-06,0.016678125
,,,2.81E-06,0.0167125
,,,2.82E-06,0.017019375
,,,2.83E-06,0.0170525
,,,2.84E-06,0.0169225
,,,2.85E-06,0.016813125
,,,2.86E-06,0.0168975
,,,2.87E-06,0.0165675
,,,2.88E-06,0.01703625
,,,2.89E-06,0.01685375
,,,2.9E-06,0.017085
,,,2.91E-06,0.01710125
,,,2.92E-06,0.016763125
,,,2.93E-06,0.01696625
,,,2.94E-06,0.0168975
,,,2.95E-06,0.01685
,,,2.96E-06,0.016805625
,,,2.97E-06,0.016876875
,,,2.98E-06,0.01687375
,,,2.99E-06,0.016715625
,,,3E-06,0.01687875
,,,3.01E-06,0.0170025
,,,3.02E-06,0.0170475
,,,3.03E-06,0.01684875
,,,3.04E-06,0.016785625
,,,3.05E-06,0.01704375
,,,3.06E-06,0.017285625
,,,3.07E-06,0.016934375
,,,3.08E-06,0.0168125
,,,3.09E-06,0.01694
,,,3.1E-06,0.016789375
,,,3.11E-06,0.0171225
,,,3.12E-06,0.016700625
,,,3.13E-06,0.0170925
,,,3.14E-06,0.017028125
,,,3.15E-06,0.016741875
,,,3.16E-06,0.016946875
,,,3.17E-06,0.01700625
,,,3.18E-06,0.016986875
,,,3.19E-06,0.016760625
,,,3.2E-06,0.016855625
,,,3.21E-06,0.017005625
,,,3.22E-06,0.01677
,,,3.23E-06,0.01694
,,,3.24E-06,0.016823125
,,,3.25E-06,0.0169075
,,,3.26E-06,0.016693125
,,,3.27E-06,0.01701625
,,,3.28E-06,0.01724625
,,,3.29E-06,0.016876875
,,,3.3E-06,0.016939375
,,,3.31E-06,0.0169975
,,,3.32E-06,0.016985
,,,3.33E-06,0.01676625
,,,3.34E-06,0.016875625
,,,3.35E-06,0.017034375
,,,3.36E-06,0.016643125
,,,3.37E-06,0.016804375
,,,3.38E-06,0.0170375
,,,3.39E-06,0.016839375
,,,3.4E-06,0.01702375
,,,3.41E-06,0.017109375
,,,3.42E-06,0.01693
,,,3.43E-06,0.016830625
,,,3.44E-06,0.01680875
,,,3.45E-06,0.01678875
,,,3.46E-06,0.017259375
,,,3.47E-06,0.0166725
,,,3.48E-06,0.016698125
,,,3.49E-06,0.01710875
,,,3.5E-06,0.016813125
,,,3.51E-06,0.016895625
,,,3.52E-06,0.016935625
,,,3.53E-06,0.016990625
,,,3.54E-06,0.016994375
,,,3.55E-06,0.016909375
,,,3.56E-06,0.01685125
