data/raw/Final_POL_Test_1/SOP014_Ch1.csv

"Record Length",1000,"Points",-5E-06,0.00475875
"Sample Interval",1E-08,s,-4.99E-06,0.0046525
"Trigger Point",500,"Samples",-4.98E-06,0.005
"Trigger Time",0,s,-4.97E-06,0.00469875
"",,,-4.96E-06,0.004609375
"Horizontal Offset",-5E-06,s,-4.95E-06,0.004530625
,,,-4.94E-06,0.004749375
,,,-4.93E-06,0.005004375
,,,-4.92E-06,0.00463125
,,,-4.91E-06,0.004899375
,,,-4.9E-06,0.004640625
,,,-4.89E-06,0.004691875
,,,-4.88E-06,0.004658125
,,,-4.87E-06,0.004753125
,,,-4.86E-06,0.0046925
,,,-4.85E-06,0.0046675
,,,-4.84E-06,0.004499375
,,,-4.83E-06,0.004636875
,,,-4.82E-06,0.004604375
,,,-4.81E-06,0.00469
,,,-4.8E-06,0.00479625
,,,-4.79E-06,0.0044175
,,,-4.78E-06,0.004601875
,,,-4.77E-06,0.004731875
,,,-4.76E-06,0.004393125
,,,-4.75E-06,0.004655625
,,,-4.74E-06,0.0048575
,,,-4.73E-06,0.00474375
,,,-4.72E-06,0.004539375
,,,-4.71E-06,0.0049775
,,,-4.7E-06,0.00460125
,,,-4.69E-06,0.00473625
,,,-4.68E-06,0.0045925
,,,-4.67E-06,0.00463375
,,,-4.66E-06,0.00462875
,,,-4.65E-06,0.004468125
,,,-4.64E-06,0.00462
,,,-4.63E-06,0.004708125
,,,-4.62E-06,0.0046625
,,,-4.61E-06,0.004669375
,,,-4.6E-06,0.004789375
,,,-4.59E-06,0.004733125
,,,-4.58E-06,0.004760625
,,,-4.57E-06,0.004733125
,,,-4.56E-06,0.00476625
,,,-4.55E-06,0.004821875
,,,-4.54E-06,0.0047675
,,,-4.53E-06,0.00482375
,,,-4.52E-06,0.00452875
,,,-4.51E-06,0.004909375
,,,-4.5E-06,0.00475375
,,,-4.49E-06,0.004540625
,,,-4.48E-06,0.004700625
,,,-4.47E-06,0.00473625
,,,-4.46E-06,0.004691875
,,,-4.45E-06,0.00479625
,,,-4.44E-06,0.00475
,,,-4.43E-06,0.00471
,,,-4.42E-06,0.004645
,,,-4.41E-06,0.004646875
,,,-4.4E-06,0.004665625
,,,-4.39E-06,0.004715625
,,,-4.38E-06,0.00481625
,,,-4.37E-06,0.004675625
,,,-4.36E-06,0.0045475
,,,-4.35E-06,0.004581875
,,,-4.34E-06,0.004904375
,,,-4.33E-06,0.00475625
,,,-4.32E-06,0.00475625
,,,-4.31E-06,0.004429375
,,,-4.3E-06,0.00459125
,,,-4.29E-06,0.004715
,,,-4.28E-06,0.004885625
,,,-4.27E-06,0.0045925
,,,-4.26E-06,0.00472875
,,,-4.25E-06,0.00445375
,,,-4.24E-06,0.004485625
,,,-4.23E-06,0.00464
,,,-4.22E-06,0.004749375
,,,-4.21E-06,0.00471375
,,,-4.2E-06,0.004485
,,,-4.19E-06,0.004905625
,,,-4.18E-06,0.004845
,,,-4.17E-06,0.004834375
,,,-4.16E-06,0.00460625
,,,-4.15E-06,0.0045075
,,,-4.14E-06,0.004838125
,,,-4.13E-06,0.004544375
,,,-4.12E-06,0.004821875
,,,-4.11E-06,0.00482
,,,-4.1E-06,0.004704375
,,,-4.09E-06,0.0048375
,,,-4.08E-06,0.00475625
,,,-4.07E-06,0.004928125
,,,-4.06E-06,0.00491
,,,-4.05E-06,0.00473875
,,,-4.04E-06,0.00476375
,,,-4.03E-06,0.0048125
,,,-4.02E-06,0.004560625
,,,-4.01E-06,0.0045825
,,,-4E-06,0.004561875
,,,-3.99E-06,0.00445625
,,,-3.98E-06,0.00463
,,,-3.97E-06,0.004665
,,,-3.96E-06,0.00457125
,,,-3.95E-06,0.004484375
,,,-3.94E-06,0.00479625
,,,-3.93E-06,0.00463125
,,,-3.92E-06,0.0047125
,,,-3.91E-06,0.004928125
,,,-3.9E-06,0.0049125
,,,-3.89E-06,0.0046725
,,,-3.88E-06,0.0046575
,,,-3.87E-06,0.0047325
,,,-3.86E-06,0.0045725
,,,-3.85E-06,0.00477
,,,-3.84E-06,0.0045925
,,,-3.83E-06,0.00446125
,,,-3.82E-06,0.004871875
,,,-3.81E-06,0.00472875
,,,-3.8E-06,0.00464375
,,,-3.79E-06,0.004758125
,,,-3.78E-06,0.00481875
,,,-3.77E-06,0.0046375
,,,-3.76E-06,0.004671875
,,,-3.75E-06,0.00471875
,,,-3.74E-06,0.00471625
,,,-3.73E-06,0.00464
,,,-3.72E-06,0.004643125
,,,-3.71E-06,0.0049225
,,,-3.7E-06,0.004735
,,,-3.69E-06,0.004699375
,,,-3.68E-06,0.004804375
,,,-3.67E-06,0.004793125
,,,-3.66E-06,0.00465375
,,,-3.65E-06,0.004998125
,,,-3.64E-06,0.004548125
,,,-3.63E-06,0.004641875
,,,-3.62E-06,0.00464875
,,,-3.61E-06,0.00453875
,,,-3.6E-06,0.00478
,,,-3.59E-06,0.004611875
,,,-3.58E-06,0.00470625
,,,-3.57E-06,0.004899375
,,,-3.56E-06,0.00468875
,,,-3.55E-06,0.004813125
,,,-3.54E-06,0.004691875
,,,-3.53E-06,0.0048275
,,,-3.52E-06,0.004448125
,,,-3.51E-06,0.004776875
,,,-3.5E-06,0.004635
,,,-3.49E-06,0.004495
,,,-3.48E-06,0.00494875
,,,-3.47E-06,0.004910625
,,,-3.46E-06,0.004676875
,,,-3.45E-06,0.0046875
,,,-3.44E-06,0.00463375
,,,-3.43E-06,0.004749375
,,,-3.42E-06,0.004791875
,,,-3.41E-06,0.004830625
,,,-3.4E-06,0.0047325
,,,-3.39E-06,0.00477
,,,-3.38E-06,0.0047775
,,,-3.37E-06,0.004644375
,,,-3.36E-06,0.00451875
,,,-3.35E-06,0.004778125
,,,-3.34E-06,0.0049725
,,,-3.33E-06,0.0045875
,,,-3.32E-06,0.00444
,,,-3.31E-06,0.0047925
,,,-3.3E-06,0.004618125
,,,-3.29E-06,0.00469
,,,-3.28E-06,0.0046575
,,,-3.27E-06,0.0045575
,,,-3.26E-06,0.00463
,,,-3.25E-06,0.00484625
,,,-3.24E-06,0.004713125
,,,-3.23E-06,0.00476125
,,,-3.22E-06,0.004651875
,,,-3.21E-06,0.00474625
,,,-3.2E-06,0.0047575
,,,-3.19E-06,0.0046325
,,,-3.18E-06,0.004578125
,,,-3.17E-06,0.004838125
,,,-3.16E-06,0.0048525
,,,-3.15E-06,0.004590625
,,,-3.14E-06,0.004739375
,,,-3.13E-06,0.0047725
,,,-3.12E-06,0.004815625
,,,-3.11E-06,0.00458875
,,,-3.1E-06,0.004451875
,,,-3.09E-06,0.0044725
,,,-3.08E-06,0.004718125
,,,-3.07E-06,0.00461375
,,,-3.06E-06,0.005018125
,,,-3.05E-06,0.004464375
,,,-3.04E-06,0.00473875
,,,-3.03E-06,0.004864375
,,,-3.02E-06,0.00482375
,,,-3.01E-06,0.004629375
,,,-3E-06,0.00491125
,,,-2.99E-06,0.004754375
,,,-2.98E-06,0.0047925
,,,-2.97E-06,0.004853125
,,,-2.96E-06,0.00461
,,,-2.95E-06,0.00470875
,,,-2.94E-06,0.004424375
,,,-2.93E-06,0.00463375
,,,-2.92E-06,0.004453125
,,,-2.91E-06,0.0045425
,,,-2.9E-06,0.004736875
,,,-2.89E-06,0.004720625
,,,-2.88E-06,0.00459
,,,-2.87E-06,0.004864375
,,,-2.86E-06,0.004861875
,,,-2.85E-06,0.004694375
,,,-2.84E-06,0.00465
,,,-2.83E-06,0.004953125
,,,-2.82E-06,0.004738125
,,,-2.81E-06,0.00509875
,,,-2.8E-06,0.00496875
,,,-2.79E-06,0.00448
,,,-2.78E-06,0.004775
,,,-2.77E-06,0.004361875
,,,-2.76E-06,0.005008125
,,,-2.75E-06,0.00490375
,,,-2.74E-06,0.00468625
,,,-2.73E-06,0.004631875
,,,-2.72E-06,0.004525625
,,,-2.71E-06,0.004825625
,,,-2.7E-06,0.004636875
,,,-2.69E-06,0.0044675
,,,-2.68E-06,0.004579375
,,,-2.67E-06,0.00472
,,,-2.66E-06,0.004686875
,,,-2.65E-06,0.0046275
,,,-2.64E-06,0.004665
,,,-2.63E-06,0.004565625
,,,-2.62E-06,0.0046625
,,,-2.61E-06,0.0044475
,,,-2.6E-06,0.00453
,,,-2.59E-06,0.004713125
,,,-2.58E-06,0.004835
,,,-2.57E-06,0.0045725
,,,-2.56E-06,0.0047175
,,,-2.55E-06,0.0050975
,,,-2.54E-06,0.004660625
,,,-2.53E-06,0.00493
,,,-2.52E-06,0.00474
,,,-2.51E-06,0.0047375
,,,-2.5E-06,0.00475875
,,,-2.49E-06,0.004584375
,,,-2.48E-06,0.00498375
,,,-2.47E-06,0.004815625
,,,-2.46E-06,0.00454125
,,,-2.45E-06,0.004480625
,,,-2.44E-06,0.00447625
,,,-2.43E-06,0.004628125
,,,-2.42E-06,0.0048275
,,,-2.41E-06,0.0049
,,,-2.4E-06,0.004600625
,,,-2.39E-06,0.00487
,,,-2.38E-06,0.004885
,,,-2.37E-06,0.00484125
,,,-2.36E-06,0.004899375
,,,-2.35E-06,0.00467875
,,,-2.34E-06,0.00446625
,,,-2.33E-06,0.00461375
,,,-2.32E-06,0.004514375
,,,-2.31E-06,0.004521875
,,,-2.3E-06,0.00475875
,,,-2.29E-06,0.00465
,,,-2.28E-06,0.004796875
,,,-2.27E-06,0.004601875
,,,-2.26E-06,0.004579375
,,,-2.25E-06,0.00478125
,,,-2.24E-06,0.004923125
,,,-2.23E-06,0.004740625
,,,-2.22E-06,0.0050225
,,,-2.21E-06,0.004654375
,,,-2.2E-06,0.004715625
,,,-2.19E-06,0.004798125
,,,-2.18E-06,0.004550625
,,,-2.17E-06,0.004665
,,,-2.16E-06,0.004725625
,,,-2.15E-06,0.00459625
,,,-2.14E-06,0.004695625
,,,-2.13E-06,0.0047
,,,-2.12E-06,0.00472875
,,,-2.11E-06,0.004575625
,,,-2.1E-06,0.004645
,,,-2.09E-06,0.00470875
,,,-2.08E-06,0.004628125
,,,-2.07E-06,0.00456375
,,,-2.06E-06,0.004605
,,,-2.05E-06,0.004409375
,,,-2.04E-06,0.004736875
,,,-2.03E-06,0.004713125
,,,-2.02E-06,0.00473
,,,-2.01E-06,0.0043975
,,,-2E-06,0.00484875
,,,-1.99E-06,0.0049425
,,,-1.98E-06,0.004848125
,,,-1.97E-06,0.0048375
,,,-1.96E-06,0.00451375
,,,-1.95E-06,0.004765
,,,-1.94E-06,0.004490625
,,,-1.93E-06,0.004391875
,,,-1.92E-06,0.00445375
,,,-1.91E-06,0.004789375
,,,-1.9E-06,0.00481625
,,,-1.89E-06,0.0044225
,,,-1.88E-06,0.004654375
,,,-1.87E-06,0.0046325
,,,-1.86E-06,0.004664375
,,,-1.85E-06,0.004601875
,,,-1.84E-06,0.00473125
,,,-1.83E-06,0.00479125
,,,-1.82E-06,0.00450375
,,,-1.81E-06,0.005065
,,,-1.8E-06,0.004589375
,,,-1.79E-06,0.004424375
,,,-1.78E-06,0.004918125
,,,-1.77E-06,0.0049225
,,,-1.76E-06,0.0046275
,,,-1.75E-06,0.0046725
,,,-1.74E-06,0.0048475
,,,-1.73E-06,0.00497625
,,,-1.72E-06,0.004873125
,,,-1.71E-06,0.00460875
,,,-1.7E-06,0.00473
,,,-1.69E-06,0.00487125
,,,-1.68E-06,0.004879375
,,,-1.67E-06,0.00491375
,,,-1.66E-06,0.004818125
,,,-1.65E-06,0.0048225
,,,-1.64E-06,0.004748125
,,,-1.63E-06,0.00458875
,,,-1.62E-06,0.004569375
,,,-1.61E-06,0.0046425
,,,-1.6E-06,0.0047
,,,-1.59E-06,0.0048825
,,,-1.58E-06,0.004624375
,,,-1.57E-06,0.004616875
,,,-1.56E-06,0.004675
,,,-1.55E-06,0.004714375
,,,-1.54E-06,0.004980625
,,,-1.53E-06,0.004719375
,,,-1.52E-06,0.004878125
,,,-1.51E-06,0.00461
,,,-1.5E-06,0.004415
,,,-1.49E-06,0.004580625
,,,-1.48E-06,0.0046775
,,,-1.47E-06,0.00459
,,,-1.46E-06,0.0047
,,,-1.45E-06,0.0048725
,,,-1.44E-06,0.004785625
,,,-1.43E-06,0.004595625
,,,-1.42E-06,0.00497125
,,,-1.41E-06,0.004855625
,,,-1.4E-06,0.004799375
,,,-1.39E-06,0.004519375
,,,-1.38E-06,0.004906875
,,,-1.37E-06,0.00505375
,,,-1.36E-06,0.00472625
,,,-1.35E-06,0.0047
,,,-1.34E-06,0.004593125
,,,-1.33E-06,0.00477
,,,-1.32E-06,0.0047775
,,,-1.31E-06,0.00472375
,,,-1.3E-06,0.0048375
,,,-1.29E-06,0.004915625
,,,-1.28E-06,0.00479125
,,,-1.27E-06,0.004815
,,,-1.26E-06,0.00466
,,,-1.25E-06,0.0047425
,,,-1.24E-06,0.004704375
,,,-1.23E-06,0.00462375
,,,-1.22E-06,0.004580625
,,,-1.21E-06,0.004629375
,,,-1.2E-06,0.004874375
,,,-1.19E-06,0.00490875
,,,-1.18E-06,0.00459875
,,,-1.17E-06,0.00476875
,,,-1.16E-06,0.00446375
,,,-1.15E-06,0.004710625
,,,-1.14E-06,0.00475375
,,,-1.13E-06,0.004565
,,,-1.12E-06,0.0047575
,,,-1.11E-06,0.004713125
,,,-1.1E-06,0.0047425
,,,-1.09E-06,0.004798125
,,,-1.08E-06,0.00486875
,,,-1.07E-06,0.004875625
,,,-1.06E-06,0.004660625
,,,-1.05E-06,0.0048025
,,,-1.04E-06,0.004815
,,,-1.03E-06,0.004825
,,,-1.02E-06,0.00476875
,,,-1.01E-06,0.004791875
,,,-1E-06,0.004568125
,,,-9.9E-07,0.0045075
,,,-9.8E-07,0.004716875
,,,-9.7E-07,0.00469625
,,,-9.6E-07,0.004591875
,,,-9.5E-07,0.004564375
,,,-9.4E-07,0.004663125
,,,-9.3E-07,0.004505
,,,-9.2E-07,0.00475625
,,,-9.1E-07,0.004766875
,,,-9E-07,0.004655
,,,-8.9E-07,0.004546875
,,,-8.8E-07,0.004453125
,,,-8.7E-07,0.004714375
,,,-8.6E-07,0.004718125
,,,-8.5E-07,0.00489875
,,,-8.4E-07,0.004604375
,,,-8.3E-07,0.00472375
,,,-8.2E-07,0.0049125
,,,-8.1E-07,0.004693125
,,,-8E-07,0.004760625
,,,-7.9E-07,0.004886875
,,,-7.8E-07,0.00455625
,,,-7.7E-07,0.0047925
,,,-7.6E-07,0.004775625
,,,-7.5E-07,0.004724375
,,,-7.4E-07,0.00455125
,,,-7.3E-07,0.00462875
,,,-7.2E-07,0.004823125
,,,-7.1E-07,0.0046975
,,,-7E-07,0.004773125
,,,-6.9E-07,0.004728125
,,,-6.8E-07,0.0047875
,,,-6.7E-07,0.0047575
,,,-6.6E-07,0.004656875
,,,-6.5E-07,0.004958125
,,,-6.4E-07,0.004609375
,,,-6.3E-07,0.00468875
,,,-6.2E-07,0.004751875
,,,-6.1E-07,0.004769375
,,,-6E-07,0.004853125
,,,-5.9E-07,0.004728125
,,,-5.8E-07,0.00465875
,,,-5.7E-07,0.00449875
,,,-5.6E-07,0.00449875
,,,-5.5E-07,0.00460875
,,,-5.4E-07,0.004615625
,,,-5.3E-07,0.004341875
,,,-5.2E-07,0.004636875
,,,-5.1E-07,0.00461
,,,-5E-07,0.00474125
,,,-4.9E-07,0.00465375
,,,-4.8E-07,0.0048025
,,,-4.7E-07,0.004623125
,,,-4.6E-07,0.004430625
,,,-4.5E-07,0.004618125
,,,-4.4E-07,0.00468125
,,,-4.3E-07,0.004534375
,,,-4.2E-07,0.004595
,,,-4.1E-07,0.005004375
,,,-4E-07,0.004528125
,,,-3.9E-07,0.00487625
,,,-3.8E-07,0.004838125
,,,-3.7E-07,0.004603125
,,,-3.6E-07,0.004645625
,,,-3.5E-07,0.004584375
,,,-3.4E-07,0.00465
,,,-3.3E-07,0.004761875
,,,-3.2E-07,0.004489375
,,,-3.1E-07,0.004928125
,,,-3E-07,0.00470875
,,,-2.9E-07,0.004670625
,,,-2.8E-07,0.004773125
,,,-2.7E-07,0.00470625
,,,-2.6E-07,0.0047775
,,,-2.5E-07,0.004623125
,,,-2.4E-07,0.0048325
,,,-2.3E-07,0.004825625
,,,-2.2E-07,0.00452875
,,,-2.1E-07,0.004675
,,,-2E-07,0.004485625
,,,-1.9E-07,0.004814375
,,,-1.8E-07,0.00477625
,,,-1.7E-07,0.004625
,,,-1.6E-07,0.004785625
,,,-1.5E-07,0.00467125
,,,-1.4E-07,0.00474
,,,-1.3E-07,0.004905
,,,-1.2E-07,0.004531875
,,,-1.1E-07,0.0048275
,,,-1E-07,0.004585
,,,-9E-08,0.004716875
,,,-8E-08,0.004581875
,,,-7E-08,0.0045575
,,,-6E-08,0.004596875
,,,-5E-08,0.00469625
,,,-4E-08,0.00497625
,,,-3E-08,0.005290625
,,,-2E-08,0.00391125
,,,-1E-08,0.0033775
,,,0,0.0044075
,,,1E-08,0.005563125
,,,2E-08,0.00596
,,,3E-08,0.005804375
,,,4E-08,0.004674375
,,,5E-08,0.0036375
,,,6E-08,0.0035925
,,,7E-08,0.00447
,,,8E-08,0.004776875
,,,9E-08,0.00525625
,,,1E-07,0.005416875
,,,1.1E-07,0.004835
,,,1.2E-07,0.004341875
,,,1.3E-07,0.00438875
,,,1.4E-07,0.004266875
,,,1.5E-07,0.004954375
,,,1.6E-07,0.004916875
,,,1.7E-07,0.00516375
,,,1.8E-07,0.004718125
,,,1.9E-07,0.00484875
,,,2E-07,0.004813125
,,,2.1E-07,0.00459875
,,,2.2E-07,0.004540625
,,,2.3E-07,0.00488875
,,,2.4E-07,0.00489375
,,,2.5E-07,0.00483375
,,,2.6E-07,0.00453125
,,,2.7E-07,0.00481875
,,,2.8E-07,0.004663125
,,,2.9E-07,0.00502
,,,3E-07,0.00461875
,,,3.1E-07,0.004859375
,,,3.2E-07,0.0047225
,,,3.3E-07,0.00493
,,,3.4E-07,0.00472
,,,3.5E-07,0.004810625
,,,3.6E-07,0.004725625
,,,3.7E-07,0.004645
,,,3.8E-07,0.004396875
,,,3.9E-07,0.004720625
,,,4E-07,0.00473
,,,4.1E-07,0.004611875
,,,4.2E-07,0.004645
,,,4.3E-07,0.004778125
,,,4.4E-07,0.00450375
,,,4.5E-07,0.0046775
,,,4.6E-07,0.004696875
,,,4.7E-07,0.004504375
,,,4.8E-07,0.00465625
,,,4.9E-07,0.00472375
,,,5E-07,0.004603125
,,,5.1E-07,0.004575625
,,,5.2E-07,0.004815
,,,5.3E-07,0.00473125
,,,5.4E-07,0.004718125
,,,5.5E-07,0.00469375
,,,5.6E-07,0.00467375
,,,5.7E-07,0.00480625
,,,5.8E-07,0.0046525
,,,5.9E-07,0.00482875
,,,6E-07,0.004815
,,,6.1E-07,0.00492375
,,,6.2E-07,0.004436875
,,,6.3E-07,0.004786875
,,,6.4E-07,0.0046675
,,,6.5E-07,0.004599375
,,,6.6E-07,0.00478625
,,,6.7E-07,0.0046025
,,,6.8E-07,0.00451125
,,,6.9E-07,0.004704375
,,,7E-07,0.004634375
,,,7.1E-07,0.004958125
,,,7.2E-07,0.00465
,,,7.3E-07,0.004775625
,,,7.4E-07,0.00467625
,,,7.5E-07,0.0047575
,,,7.6E-07,0.004794375
,,,7.7E-07,0.00459
,,,7.8E-07,0.004565
,,,7.9E-07,0.004766875
,,,8E-07,0.004583125
,,,8.1E-07,0.004579375
,,,8.2E-07,0.004768125
,,,8.3E-07,0.00457125
,,,8.4E-07,0.0046575
,,,8.5E-07,0.0046225
,,,8.6E-07,0.004723125
,,,8.7E-07,0.004804375
,,,8.8E-07,0.00463375
,,,8.9E-07,0.00471625
,,,9E-07,0.0047425
,,,9.1E-07,0.0048325
,,,9.2E-07,0.004853125
,,,9.3E-07,0.004856875
,,,9.4E-07,0.004914375
,,,9.5E-07,0.00455875
,,,9.6E-07,0.004378125
,,,9.7E-07,0.0046225
,,,9.8E-07,0.004324375
,,,9.9E-07,0.00495
,,,1E-06,0.004723125
,,,1.01E-06,0.004606875
,,,1.02E-06,0.004761875
,,,1.03E-06,0.0045025
,,,1.04E-06,0.0046525
,,,1.05E-06,0.004593125
,,,1.06E-06,0.0047275
,,,1.07E-06,0.004850625
,,,1.08E-06,0.004854375
,,,1.09E-06,0.00479125
,,,1.1E-06,0.00484875
,,,1.11E-06,0.004744375
,,,1.12E-06,0.0046175
,,,1.13E-06,0.00481875
,,,1.14E-06,0.0047175
,,,1.15E-06,0.004868125
,,,1.16E-06,0.00489125
,,,1.17E-06,0.004691875
,,,1.18E-06,0.004889375
,,,1.19E-06,0.004685
,,,1.2E-06,0.00462625
,,,1.21E-06,0.00471875
,,,1.22E-06,0.004690625
,,,1.23E-06,0.004690625
,,,1.24E-06,0.00471875
,,,1.25E-06,0.00482875
,,,1.26E-06,0.004869375
,,,1.27E-06,0.00471625
,,,1.28E-06,0.00462
,,,1.29E-06,0.004655
,,,1.3E-06,0.004425625
,,,1.31E-06,0.004706875
,,,1.32E-06,0.00518125
,,,1.33E-06,0.0047125
,,,1.34E-06,0.004734375
,,,1.35E-06,0.00487
,,,1.36E-06,0.00450625
,,,1.37E-06,0.00469
,,,1.38E-06,0.004676875
,,,1.39E-06,0.00484625
,,,1.4E-06,0.00477625
,,,1.41E-06,0.004928125
,,,1.42E-06,0.004835
,,,1.43E-06,0.0047125
,,,1.44E-06,0.004673125
,,,1.45E-06,0.004695625
,,,1.46E-06,0.004591875
,,,1.47E-06,0.00485
,,,1.48E-06,0.004990625
,,,1.49E-06,0.004658125
,,,1.5E-06,0.004848125
,,,1.51E-06,0.004800625
,,,1.52E-06,0.00468375
,,,1.53E-06,0.004684375
,,,1.54E-06,0.00468625
,,,1.55E-06,0.00485125
,,,1.56E-06,0.00453
,,,1.57E-06,0.00476125
,,,1.58E-06,0.0044925
,,,1.59E-06,0.00485375
,,,1.6E-06,0.004741875
,,,1.61E-06,0.004784375
,,,1.62E-06,0.004738125
,,,1.63E-06,0.00462375
,,,1.64E-06,0.004618125
,,,1.65E-06,0.00444625
,,,1.66E-06,0.004706875
,,,1.67E-06,0.00470875
,,,1.68E-06,0.004540625
,,,1.69E-06,0.004659375
,,,1.7E-06,0.00474
,,,1.71E-06,0.004645625
,,,1.72E-06,0.0046925
,,,1.73E-06,0.00473875
,,,1.74E-06,0.004714375
,,,1.75E-06,0.00452875
,,,1.76E-06,0.00473
,,,1.77E-06,0.004828125
,,,1.78E-06,0.004655
,,,1.79E-06,0.004555
,,,1.8E-06,0.00453375
,,,1.81E-06,0.0044975
,,,1.82E-06,0.00497125
,,,1.83E-06,0.00469125
,,,1.84E-06,0.0046625
,,,1.85E-06,0.004883125
,,,1.86E-06,0.004619375
,,,1.87E-06,0.00474
,,,1.88E-06,0.004805
,,,1.89E-06,0.004545
,,,1.9E-06,0.004878125
,,,1.91E-06,0.004595
,,,1.92E-06,0.004581875
,,,1.93E-06,0.00487375
,,,1.94E-06,0.004668125
,,,1.95E-06,0.004791875
,,,1.96E-06,0.004566875
,,,1.97E-06,0.004686875
,,,1.98E-06,0.0047525
,,,1.99E-06,0.004614375
,,,2E-06,0.00481
,,,2.01E-06,0.004764375
,,,2.02E-06,0.004713125
,,,2.03E-06,0.004808125
,,,2.04E-06,0.004783125
,,,2.05E-06,0.004701875
,,,2.06E-06,0.004685
,,,2.07E-06,0.004554375
,,,2.08E-06,0.004694375
,,,2.09E-06,0.004696875
,,,2.1E-06,0.004483125
,,,2.11E-06,0.004525625
,,,2.12E-06,0.00462125
,,,2.13E-06,0.004698125
,,,2.14E-06,0.0047875
,,,2.15E-06,0.004908125
,,,2.16E-06,0.004719375
,,,2.17E-06,0.00460125
,,,2.18E-06,0.004761875
,,,2.19E-06,0.004846875
,,,2.2E-06,0.004581875
,,,2.21E-06,0.004770625
,,,2.22E-06,0.005035
,,,2.23E-06,0.00459125
,,,2.24E-06,0.00457625
,,,2.25E-06,0.004885625
,,,2.26E-06,0.00465375
,,,2.27E-06,0.0047775
,,,2.28E-06,0.00477125
,,,2.29E-06,0.00486875
,,,2.3E-06,0.004791875
,,,2.31E-06,0.0046675
,,,2.32E-06,0.0047525
,,,2.33E-06,0.004799375
,,,2.34E-06,0.004783125
,,,2.35E-06,0.004584375
,,,2.36E-06,0.0049225
,,,2.37E-06,0.004635
,,,2.38E-06,0.004654375
,,,2.39E-06,0.004520625
,,,2.4E-06,0.004299375
,,,2.41E-06,0.004651875
,,,2.42E-06,0.004905
,,,2.43E-06,0.004603125
,,,2.44E-06,0.00485375
,,,2.45E-06,0.004570625
,,,2.46E-06,0.004555625
,,,2.47E-06,0.004418125
,,,2.48E-06,0.00450125
,,,2.49E-06,0.00463375
,,,2.5E-06,0.0047275
,,,2.51E-06,0.0044525
,,,2.52E-06,0.004754375
,,,2.53E-06,0.00475125
,,,2.54E-06,0.004620625
,,,2.55E-06,0.005001875
,,,2.56E-06,0.00459875
,,,2.57E-06,0.004979375
,,,2.58E-06,0.004786875
,,,2.59E-06,0.004585
,,,2.6E-06,0.004718125
,,,2.61E-06,0.004938125
,,,2.62E-06,0.00458125
,,,2.63E-06,0.004614375
,,,2.64E-06,0.00491375
,,,2.65E-06,0.004690625
,,,2.66E-06,0.00463625
,,,2.67E-06,0.00469125
,,,2.68E-06,0.004765
,,,2.69E-06,0.004641875
,,,2.7E-06,0.00478375
,,,2.71E-06,0.0046225
,,,2.72E-06,0.004475
,,,2.73E-06,0.005006875
,,,2.74E-06,0.00441875
,,,2.75E-06,0.00473125
,,,2.76E-06,0.00465875
,,,2.77E-06,0.00479125
,,,2.78E-06,0.004690625
,,,2.79E-06,0.0048175
,,,2.8E-06,0.00459375
,,,2.81E-06,0.004775625
,,,2.82E-06,0.004803125
,,,2.83E-06,0.00481625
,,,2.84E-06,0.004654375
,,,2.85E-06,0.0049925
,,,2.86E-06,0.0049375
,,,2.87E-06,0.00487
,,,2.88E-06,0.004846875
,,,2.89E-06,0.00489
,,,2.9E-06,0.0049925
,,,2.91E-06,0.00474125
,,,2.92E-06,0.004714375
,,,2.93E-06,0.0048375
,,,2.94E-06,0.004823125
,,,2.95E-06,0.004715
,,,2.96E-06,0.004570625
,,,2.97E-06,0.004731875
,,,2.98E-06,0.00492875
,,,2.99E-06,0.00512875
,,,3E-06,0.004678125
,,,3.01E-06,0.004561875
,,,3.02E-06,0.004791875
,,,3.03E-06,0.00442375
,,,3.04E-06,0.004579375
,,,3.05E-06,0.00498375
,,,3.06E-06,0.00492375
,,,3.07E-06,0.004685
,,,3.08E-06,0.004690625
,,,3.09E-06,0.004896875
,,,3.1E-06,0.004631875
,,,3.11E-06,0.004678125
,,,3.12E-06,0.004820625
,,,3.13E-06,0.00492125
,,,3.14E-06,0.0047775
,,,3.15E-06,0.004741875
,,,3.16E-06,0.00448875
,,,3.17E-06,0.0045175
,,,3.18E-06,0.004759375
,,,3.19E-06,0.004776875
,,,3.2E-06,0.0046525
,,,3.21E-06,0.004761875
,,,3.22E-06,0.00493625
,,,3.23E-06,0.004714375
,,,3.24E-06,0.00461375
,,,3.25E-06,0.00457375
,,,3.26E-06,0.004768125
,,,3.27E-06,0.004590625
,,,3.28E-06,0.004801875
,,,3.29E-06,0.004783125
,,,3.3E-06,0.004795
,,,3.31E-06,0.004629375
,,,3.32E-06,0.004665625
,,,3.33E-06,0.004966875
,,,3.34E-06,0.004501875
,,,3.35E-06,0.004936875
,,,3.36E-06,0.0045175
,,,3.37E-06,0.00505
,,,3.38E-06,0.00494625
,,,3.39E-06,0.004634375
,,,3.4E-06,0.004798125
,,,3.41E-06,0.00502625
,,,3.42E-06,0.00472375
,,,3.43E-06,0.0045325
,,,3.44E-06,0.004439375
,,,3.45E-06,0.004735
,,,3.46E-06,0.004539375
,,,3.47E-06,0.0045475
,,,3.48E-06,0.004769375
,,,3.49E-06,0.00465125
,,,3.5E-06,0.004881875
,,,3.51E-06,0.004605625
,,,3.52E-06,0.004806875
,,,3.53E-06,0.0045475
,,,3.54E-06,0.004671875
,,,3.55E-06,0.00479875
,,,3.56E-06,0.004760625
,,,3.57E-06,0.004799375
,,,3.58E-06,0.0048025
