data/raw/Final_POL_Test_1/SOP042_Ch2.csv

"Record Length",1000,"Points",-5E-06,0.024393125
"Sample Interval",1E-08,s,-4.99E-06,0.024250625
"Trigger Point",500,"Samples",-4.98E-06,0.02439
"Trigger Time",0,s,-4.97E-06,0.02438
"",,,-4.96E-06,0.02428875
"Horizontal Offset",-5E-06,s,-4.95E-06,0.024346875
,,,-4.94E-06,0.024056875
,,,-4.93E-06,0.024238125
,,,-4.92E-06,0.02427625
,,,-4.91E-06,0.02432125
,,,-4.9E-06,0.02449625
,,,-4.89E-06,0.0243
,,,-4.88E-06,0.02458625
,,,-4.87E-06,0.0242925
,,,-4.86E-06,0.024145625
,,,-4.85E-06,0.02425875
,,,-4.84E-06,0.02449875
,,,-4.83E-06,0.024196875
,,,-4.82E-06,0.02405625
,,,-4.81E-06,0.02442625
,,,-4.8E-06,0.02432
,,,-4.79E-06,0.024469375
,,,-4.78E-06,0.0243325
,,,-4.77E-06,0.02440875
,,,-4.76E-06,0.02442875
,,,-4.75E-06,0.02406125
,,,-4.74E-06,0.024174375
,,,-4.73E-06,0.024315625
,,,-4.72E-06,0.024429375
,,,-4.71E-06,0.024175
,,,-4.7E-06,0.024033125
,,,-4.69E-06,0.024115
,,,-4.68E-06,0.024464375
,,,-4.67E-06,0.0243575
,,,-4.66E-06,0.024440625
,,,-4.65E-06,0.02429625
,,,-4.64E-06,0.02413375
,,,-4.63E-06,0.02424
,,,-4.62E-06,0.0243625
,,,-4.61E-06,0.024328125
,,,-4.6E-06,0.02438
,,,-4.59E-06,0.0245375
,,,-4.58E-06,0.02402375
,,,-4.57E-06,0.02422
,,,-4.56E-06,0.0241925
,,,-4.55E-06,0.0242925
,,,-4.54E-06,0.02448375
,,,-4.53E-06,0.024416875
,,,-4.52E-06,0.024055625
,,,-4.51E-06,0.024261875
,,,-4.5E-06,0.02411
,,,-4.49E-06,0.024229375
,,,-4.48E-06,0.02428125
,,,-4.47E-06,0.024128125
,,,-4.46E-06,0.02427375
,,,-4.45E-06,0.02446875
,,,-4.44E-06,0.024065625
,,,-4.43E-06,0.02404375
,,,-4.42E-06,0.02431875
,,,-4.41E-06,0.0242525
,,,-4.4E-06,0.024479375
,,,-4.39E-06,0.02452625
,,,-4.38E-06,0.02444125
,,,-4.37E-06,0.024341875
,,,-4.36E-06,0.024395625
,,,-4.35E-06,0.0242475
,,,-4.34E-06,0.0240225
,,,-4.33E-06,0.02442875
,,,-4.32E-06,0.02452875
,,,-4.31E-06,0.0242425
,,,-4.3E-06,0.024438125
,,,-4.29E-06,0.024349375
,,,-4.28E-06,0.0240875
,,,-4.27E-06,0.02415625
,,,-4.26E-06,0.02454
,,,-4.25E-06,0.024148125
,,,-4.24E-06,0.0242425
,,,-4.23E-06,0.0241125
,,,-4.22E-06,0.024375
,,,-4.21E-06,0.0246325
,,,-4.2E-06,0.023983125
,,,-4.19E-06,0.02402375
,,,-4.18E-06,0.024380625
,,,-4.17E-06,0.02434
,,,-4.16E-06,0.024265625
,,,-4.15E-06,0.023991875
,,,-4.14E-06,0.024324375
,,,-4.13E-06,0.02421375
,,,-4.12E-06,0.024236875
,,,-4.11E-06,0.024473125
,,,-4.1E-06,0.02398
,,,-4.09E-06,0.02410875
,,,-4.08E-06,0.0240375
,,,-4.07E-06,0.024331875
,,,-4.06E-06,0.02433
,,,-4.05E-06,0.02432
,,,-4.04E-06,0.024374375
,,,-4.03E-06,0.024281875
,,,-4.02E-06,0.024295
,,,-4.01E-06,0.0243675
,,,-4E-06,0.0241775
,,,-3.99E-06,0.02434875
,,,-3.98E-06,0.024089375
,,,-3.97E-06,0.024393125
,,,-3.96E-06,0.024120625
,,,-3.95E-06,0.024421875
,,,-3.94E-06,0.0244525
,,,-3.93E-06,0.024295
,,,-3.92E-06,0.02423
,,,-3.91E-06,0.024481875
,,,-3.9E-06,0.024485625
,,,-3.89E-06,0.024080625
,,,-3.88E-06,0.0243625
,,,-3.87E-06,0.0242075
,,,-3.86E-06,0.024405625
,,,-3.85E-06,0.024164375
,,,-3.84E-06,0.0243225
,,,-3.83E-06,0.024455625
,,,-3.82E-06,0.0242175
,,,-3.81E-06,0.024085
,,,-3.8E-06,0.0243125
,,,-3.79E-06,0.024495625
,,,-3.78E-06,0.024204375
,,,-3.77E-06,0.0243575
,,,-3.76E-06,0.02395
,,,-3.75E-06,0.024393125
,,,-3.74E-06,0.0242125
,,,-3.73E-06,0.024166875
,,,-3.72E-06,0.024301875
,,,-3.71E-06,0.02413
,,,-3.7E-06,0.023835
,,,-3.69E-06,0.024279375
,,,-3.68E-06,0.0242175
,,,-3.67E-06,0.02449375
,,,-3.66E-06,0.02422
,,,-3.65E-06,0.024188125
,,,-3.64E-06,0.0243375
,,,-3.63E-06,0.024406875
,,,-3.62E-06,0.02449125
,,,-3.61E-06,0.0241825
,,,-3.6E-06,0.0239625
,,,-3.59E-06,0.0241175
,,,-3.58E-06,0.024274375
,,,-3.57E-06,0.024291875
,,,-3.56E-06,0.024458125
,,,-3.55E-06,0.024356875
,,,-3.54E-06,0.02416
,,,-3.53E-06,0.0244
,,,-3.52E-06,0.02415125
,,,-3.51E-06,0.024234375
,,,-3.5E-06,0.024340625
,,,-3.49E-06,0.02419875
,,,-3.48E-06,0.024164375
,,,-3.47E-06,0.02423
,,,-3.46E-06,0.02414875
,,,-3.45E-06,0.024128125
,,,-3.44E-06,0.024391875
,,,-3.43E-06,0.02417625
,,,-3.42E-06,0.02435625
,,,-3.41E-06,0.0244175
,,,-3.4E-06,0.024446875
,,,-3.39E-06,0.024310625
,,,-3.38E-06,0.0243275
,,,-3.37E-06,0.024345625
,,,-3.36E-06,0.024233125
,,,-3.35E-06,0.024118125
,,,-3.34E-06,0.0241675
,,,-3.33E-06,0.024025
,,,-3.32E-06,0.02449625
,,,-3.31E-06,0.02444125
,,,-3.3E-06,0.0240825
,,,-3.29E-06,0.0242875
,,,-3.28E-06,0.02405
,,,-3.27E-06,0.024139375
,,,-3.26E-06,0.024310625
,,,-3.25E-06,0.024655
,,,-3.24E-06,0.0242125
,,,-3.23E-06,0.0243
,,,-3.22E-06,0.02424375
,,,-3.21E-06,0.02423875
,,,-3.2E-06,0.024469375
,,,-3.19E-06,0.0242125
,,,-3.18E-06,0.02426
,,,-3.17E-06,0.0241925
,,,-3.16E-06,0.024364375
,,,-3.15E-06,0.02424875
,,,-3.14E-06,0.024434375
,,,-3.13E-06,0.024283125
,,,-3.12E-06,0.02403875
,,,-3.11E-06,0.024378125
,,,-3.1E-06,0.02417375
,,,-3.09E-06,0.02431625
,,,-3.08E-06,0.024319375
,,,-3.07E-06,0.024324375
,,,-3.06E-06,0.02438125
,,,-3.05E-06,0.024250625
,,,-3.04E-06,0.024310625
,,,-3.03E-06,0.024325
,,,-3.02E-06,0.02397125
,,,-3.01E-06,0.0242475
,,,-3E-06,0.024171875
,,,-2.99E-06,0.024249375
,,,-2.98E-06,0.024130625
,,,-2.97E-06,0.0244825
,,,-2.96E-06,0.0242375
,,,-2.95E-06,0.024225
,,,-2.94E-06,0.0242275
,,,-2.93E-06,0.0242025
,,,-2.92E-06,0.024188125
,,,-2.91E-06,0.024384375
,,,-2.9E-06,0.0242775
,,,-2.89E-06,0.02418625
,,,-2.88E-06,0.024185
,,,-2.87E-06,0.02429625
,,,-2.86E-06,0.0240425
,,,-2.85E-06,0.0242625
,,,-2.84E-06,0.024255
,,,-2.83E-06,0.0241775
,,,-2.82E-06,0.024303125
,,,-2.81E-06,0.024204375
,,,-2.8E-06,0.02414625
,,,-2.79E-06,0.02411875
,,,-2.78E-06,0.02413625
,,,-2.77E-06,0.02439625
,,,-2.76E-06,0.02424
,,,-2.75E-06,0.024463125
,,,-2.74E-06,0.0243
,,,-2.73E-06,0.024299375
,,,-2.72E-06,0.024476875
,,,-2.71E-06,0.024143125
,,,-2.7E-06,0.02422625
,,,-2.69E-06,0.024305
,,,-2.68E-06,0.0242125
,,,-2.67E-06,0.024231875
,,,-2.66E-06,0.024265625
,,,-2.65E-06,0.0242975
,,,-2.64E-06,0.024309375
,,,-2.63E-06,0.024435625
,,,-2.62E-06,0.02394125
,,,-2.61E-06,0.024318125
,,,-2.6E-06,0.024019375
,,,-2.59E-06,0.02434375
,,,-2.58E-06,0.02421375
,,,-2.57E-06,0.024298125
,,,-2.56E-06,0.024333125
,,,-2.55E-06,0.02425875
,,,-2.54E-06,0.024146875
,,,-2.53E-06,0.024323125
,,,-2.52E-06,0.024616875
,,,-2.51E-06,0.0242275
,,,-2.5E-06,0.024430625
,,,-2.49E-06,0.024234375
,,,-2.48E-06,0.024358125
,,,-2.47E-06,0.024214375
,,,-2.46E-06,0.024510625
,,,-2.45E-06,0.02424125
,,,-2.44E-06,0.02428
,,,-2.43E-06,0.024236875
,,,-2.42E-06,0.02446875
,,,-2.41E-06,0.02429625
,,,-2.4E-06,0.02425625
,,,-2.39E-06,0.024376875
,,,-2.38E-06,0.024034375
,,,-2.37E-06,0.024384375
,,,-2.36E-06,0.024319375
,,,-2.35E-06,0.024309375
,,,-2.34E-06,0.024596875
,,,-2.33E-06,0.0243
,,,-2.32E-06,0.0238875
,,,-2.31E-06,0.0242625
,,,-2.3E-06,0.024260625
,,,-2.29E-06,0.024301875
,,,-2.28E-06,0.024043125
,,,-2.27E-06,0.02424625
,,,-2.26E-06,0.024040625
,,,-2.25E-06,0.024625
,,,-2.24E-06,0.024274375
,,,-2.23E-06,0.024375625
,,,-2.22E-06,0.024198125
,,,-2.21E-06,0.024264375
,,,-2.2E-06,0.024224375
,,,-2.19E-06,0.024325
,,,-2.18E-06,0.024450625
,,,-2.17E-06,0.024255625
,,,-2.16E-06,0.024284375
,,,-2.15E-06,0.024341875
,,,-2.14E-06,0.0244275
,,,-2.13E-06,0.024275
,,,-2.12E-06,0.024433125
,,,-2.11E-06,0.024475
,,,-2.1E-06,0.024234375
,,,-2.09E-06,0.02416875
,,,-2.08E-06,0.0242075
,,,-2.07E-06,0.02447875
,,,-2.06E-06,0.0242275
,,,-2.05E-06,0.02454
,,,-2.04E-06,0.024385
,,,-2.03E-06,0.024299375
,,,-2.02E-06,0.02424375
,,,-2.01E-06,0.024151875
,,,-2E-06,0.02421375
,,,-1.99E-06,0.024369375
,,,-1.98E-06,0.0240625
,,,-1.97E-06,0.024289375
,,,-1.96E-06,0.024215
,,,-1.95E-06,0.02435875
,,,-1.94E-06,0.02406875
,,,-1.93E-06,0.024250625
,,,-1.92E-06,0.024180625
,,,-1.91E-06,0.024223125
,,,-1.9E-06,0.02432
,,,-1.89E-06,0.024095
,,,-1.88E-06,0.024295
,,,-1.87E-06,0.024446875
,,,-1.86E-06,0.02447875
,,,-1.85E-06,0.024714375
,,,-1.84E-06,0.024219375
,,,-1.83E-06,0.024201875
,,,-1.82E-06,0.024380625
,,,-1.81E-06,0.0243625
,,,-1.8E-06,0.0242675
,,,-1.79E-06,0.02428625
,,,-1.78E-06,0.02431875
,,,-1.77E-06,0.024425
,,,-1.76E-06,0.024259375
,,,-1.75E-06,0.024180625
,,,-1.74E-06,0.024295
,,,-1.73E-06,0.024250625
,,,-1.72E-06,0.024275625
,,,-1.71E-06,0.02425125
,,,-1.7E-06,0.024091875
,,,-1.69E-06,0.024388125
,,,-1.68E-06,0.024125625
,,,-1.67E-06,0.02417875
,,,-1.66E-06,0.0243625
,,,-1.65E-06,0.02430875
,,,-1.64E-06,0.0241175
,,,-1.63E-06,0.02428125
,,,-1.62E-06,0.024259375
,,,-1.61E-06,0.02430625
,,,-1.6E-06,0.024264375
,,,-1.59E-06,0.02453
,,,-1.58E-06,0.024099375
,,,-1.57E-06,0.02446875
,,,-1.56E-06,0.0242275
,,,-1.55E-06,0.024283125
,,,-1.54E-06,0.02444
,,,-1.53E-06,0.024333125
,,,-1.52E-06,0.024440625
,,,-1.51E-06,0.024496875
,,,-1.5E-06,0.024251875
,,,-1.49E-06,0.024186875
,,,-1.48E-06,0.02423625
,,,-1.47E-06,0.024309375
,,,-1.46E-06,0.0240475
,,,-1.45E-06,0.024243125
,,,-1.44E-06,0.024548125
,,,-1.43E-06,0.0242625
,,,-1.42E-06,0.02442625
,,,-1.41E-06,0.024225
,,,-1.4E-06,0.02392875
,,,-1.39E-06,0.024314375
,,,-1.38E-06,0.02419125
,,,-1.37E-06,0.024394375
,,,-1.36E-06,0.024396875
,,,-1.35E-06,0.024221875
,,,-1.34E-06,0.024483125
,,,-1.33E-06,0.024106875
,,,-1.32E-06,0.024315
,,,-1.31E-06,0.024305625
,,,-1.3E-06,0.024248125
,,,-1.29E-06,0.02463625
,,,-1.28E-06,0.024120625
,,,-1.27E-06,0.02443
,,,-1.26E-06,0.02420625
,,,-1.25E-06,0.0243375
,,,-1.24E-06,0.02404375
,,,-1.23E-06,0.024239375
,,,-1.22E-06,0.024284375
,,,-1.21E-06,0.0243625
,,,-1.2E-06,0.0242375
,,,-1.19E-06,0.02407125
,,,-1.18E-06,0.024498125
,,,-1.17E-06,0.02438375
,,,-1.16E-06,0.024175
,,,-1.15E-06,0.024304375
,,,-1.14E-06,0.0242725
,,,-1.13E-06,0.02436625
,,,-1.12E-06,0.024169375
,,,-1.11E-06,0.024083125
,,,-1.1E-06,0.024199375
,,,-1.09E-06,0.024461875
,,,-1.08E-06,0.024311875
,,,-1.07E-06,0.024400625
,,,-1.06E-06,0.0241675
,,,-1.05E-06,0.0240875
,,,-1.04E-06,0.024425625
,,,-1.03E-06,0.02459625
,,,-1.02E-06,0.024230625
,,,-1.01E-06,0.024195
,,,-1E-06,0.0240525
,,,-9.9E-07,0.024291875
,,,-9.8E-07,0.024166875
,,,-9.7E-07,0.02432
,,,-9.6E-07,0.02436875
,,,-9.5E-07,0.024486875
,,,-9.4E-07,0.02445375
,,,-9.3E-07,0.024369375
,,,-9.2E-07,0.024303125
,,,-9.1E-07,0.02431125
,,,-9E-07,0.02424375
,,,-8.9E-07,0.024548125
,,,-8.8E-07,0.023955
,,,-8.7E-07,0.024245
,,,-8.6E-07,0.024608125
,,,-8.5E-07,0.0241675
,,,-8.4E-07,0.02422875
,,,-8.3E-07,0.024459375
,,,-8.2E-07,0.024325
,,,-8.1E-07,0.024423125
,,,-8E-07,0.024474375
,,,-7.9E-07,0.024449375
,,,-7.8E-07,0.024265
,,,-7.7E-07,0.02434
,,,-7.6E-07,0.024510625
,,,-7.5E-07,0.024196875
,,,-7.4E-07,0.024209375
,,,-7.3E-07,0.02413
,,,-7.2E-07,0.02406
,,,-7.1E-07,0.0244925
,,,-7E-07,0.0243825
,,,-6.9E-07,0.0245475
,,,-6.8E-07,0.0243325
,,,-6.7E-07,0.02416875
,,,-6.6E-07,0.024215
,,,-6.5E-07,0.024143125
,,,-6.4E-07,0.024158125
,,,-6.3E-07,0.024381875
,,,-6.2E-07,0.02438375
,,,-6.1E-07,0.024300625
,,,-6E-07,0.02433125
,,,-5.9E-07,0.0240275
,,,-5.8E-07,0.024370625
,,,-5.7E-07,0.0243125
,,,-5.6E-07,0.02428625
,,,-5.5E-07,0.024484375
,,,-5.4E-07,0.024083125
,,,-5.3E-07,0.02440875
,,,-5.2E-07,0.02470875
,,,-5.1E-07,0.0243275
,,,-5E-07,0.024485
,,,-4.9E-07,0.024215
,,,-4.8E-07,0.0242325
,,,-4.7E-07,0.0243
,,,-4.6E-07,0.024315
,,,-4.5E-07,0.024445
,,,-4.4E-07,0.024311875
,,,-4.3E-07,0.024365625
,,,-4.2E-07,0.0242725
,,,-4.1E-07,0.024274375
,,,-4E-07,0.024045625
,,,-3.9E-07,0.023935625
,,,-3.8E-07,0.0243425
,,,-3.7E-07,0.024095
,,,-3.6E-07,0.024215
,,,-3.5E-07,0.024389375
,,,-3.4E-07,0.024251875
,,,-3.3E-07,0.024246875
,,,-3.2E-07,0.0242325
,,,-3.1E-07,0.02423875
,,,-3E-07,0.024136875
,,,-2.9E-07,0.024070625
,,,-2.8E-07,0.024286875
,,,-2.7E-07,0.024303125
,,,-2.6E-07,0.02453
,,,-2.5E-07,0.024318125
,,,-2.4E-07,0.024324375
,,,-2.3E-07,0.024271875
,,,-2.2E-07,0.02441
,,,-2.1E-07,0.024109375
,,,-2E-07,0.0244825
,,,-1.9E-07,0.024495625
,,,-1.8E-07,0.02456875
,,,-1.7E-07,0.023955
,,,-1.6E-07,0.02416875
,,,-1.5E-07,0.02422625
,,,-1.4E-07,0.024233125
,,,-1.3E-07,0.0243225
,,,-1.2E-07,0.024135
,,,-1.1E-07,0.024560625
,,,-1E-07,0.024401875
,,,-9E-08,0.0243625
,,,-8E-08,0.02434
,,,-7E-08,0.024066875
,,,-6E-08,0.024281875
,,,-5E-08,0.0241025
,,,-4E-08,0.025005
,,,-3E-08,0.026305
,,,-2E-08,0.022224375
,,,-1E-08,0.0211875
,,,0,0.020774375
,,,1E-08,0.027115625
,,,2E-08,0.028421875
,,,3E-08,0.02779375
,,,4E-08,0.023268125
,,,5E-08,0.02155
,,,6E-08,0.02087625
,,,7E-08,0.023181875
,,,8E-08,0.02525
,,,9E-08,0.026371875
,,,1E-07,0.026455
,,,1.1E-07,0.02494375
,,,1.2E-07,0.02279875
,,,1.3E-07,0.022535
,,,1.4E-07,0.02355
,,,1.5E-07,0.024644375
,,,1.6E-07,0.02488
,,,1.7E-07,0.02476125
,,,1.8E-07,0.024285
,,,1.9E-07,0.0243525
,,,2E-07,0.02428375
,,,2.1E-07,0.024005625
,,,2.2E-07,0.024130625
,,,2.3E-07,0.02419625
,,,2.4E-07,0.024605625
,,,2.5E-07,0.024425
,,,2.6E-07,0.024366875
,,,2.7E-07,0.024241875
,,,2.8E-07,0.024283125
,,,2.9E-07,0.0241725
,,,3E-07,0.0241825
,,,3.1E-07,0.02398625
,,,3.2E-07,0.02434125
,,,3.3E-07,0.024211875
,,,3.4E-07,0.024180625
,,,3.5E-07,0.02399
,,,3.6E-07,0.024225
,,,3.7E-07,0.024148125
,,,3.8E-07,0.02414125
,,,3.9E-07,0.024013125
,,,4E-07,0.02416875
,,,4.1E-07,0.024179375
,,,4.2E-07,0.024245625
,,,4.3E-07,0.024073125
,,,4.4E-07,0.024438125
,,,4.5E-07,0.0242675
,,,4.6E-07,0.02422
,,,4.7E-07,0.02417125
,,,4.8E-07,0.02435
,,,4.9E-07,0.024343125
,,,5E-07,0.02435125
,,,5.1E-07,0.024131875
,,,5.2E-07,0.024334375
,,,5.3E-07,0.0243775
,,,5.4E-07,0.0242775
,,,5.5E-07,0.024153125
,,,5.6E-07,0.0244125
,,,5.7E-07,0.024316875
,,,5.8E-07,0.024445
,,,5.9E-07,0.024165
,,,6E-07,0.0241925
,,,6.1E-07,0.02404625
,,,6.2E-07,0.024275
,,,6.3E-07,0.02428625
,,,6.4E-07,0.02435
,,,6.5E-07,0.024263125
,,,6.6E-07,0.02422875
,,,6.7E-07,0.024378125
,,,6.8E-07,0.024481875
,,,6.9E-07,0.02437875
,,,7E-07,0.0241375
,,,7.1E-07,0.024111875
,,,7.2E-07,0.02434625
,,,7.3E-07,0.024299375
,,,7.4E-07,0.02427875
,,,7.5E-07,0.02431
,,,7.6E-07,0.024389375
,,,7.7E-07,0.0242325
,,,7.8E-07,0.024015625
,,,7.9E-07,0.024321875
,,,8E-07,0.024268125
,,,8.1E-07,0.0242225
,,,8.2E-07,0.024353125
,,,8.3E-07,0.02417625
,,,8.4E-07,0.024236875
,,,8.5E-07,0.02468125
,,,8.6E-07,0.024551875
,,,8.7E-07,0.024283125
,,,8.8E-07,0.02402875
,,,8.9E-07,0.024400625
,,,9E-07,0.024290625
,,,9.1E-07,0.0241075
,,,9.2E-07,0.024115625
,,,9.3E-07,0.02410625
,,,9.4E-07,0.024259375
,,,9.5E-07,0.024120625
,,,9.6E-07,0.024086875
,,,9.7E-07,0.024325
,,,9.8E-07,0.024094375
,,,9.9E-07,0.024341875
,,,1E-06,0.02421125
,,,1.01E-06,0.02421125
,,,1.02E-06,0.024274375
,,,1.03E-06,0.024194375
,,,1.04E-06,0.0243875
,,,1.05E-06,0.02411375
,,,1.06E-06,0.02439125
,,,1.07E-06,0.02424875
,,,1.08E-06,0.024396875
,,,1.09E-06,0.02443875
,,,1.1E-06,0.02398
,,,1.11E-06,0.024496875
,,,1.12E-06,0.0241625
,,,1.13E-06,0.024401875
,,,1.14E-06,0.02413
,,,1.15E-06,0.024086875
,,,1.16E-06,0.024206875
,,,1.17E-06,0.024265625
,,,1.18E-06,0.0243925
,,,1.19E-06,0.024375
,,,1.2E-06,0.0244
,,,1.21E-06,0.024238125
,,,1.22E-06,0.024351875
,,,1.23E-06,0.024279375
,,,1.24E-06,0.024318125
,,,1.25E-06,0.024361875
,,,1.26E-06,0.02433
,,,1.27E-06,0.023926875
,,,1.28E-06,0.02437625
,,,1.29E-06,0.0241725
,,,1.3E-06,0.02427875
,,,1.31E-06,0.024185
,,,1.32E-06,0.0241175
,,,1.33E-06,0.02415875
,,,1.34E-06,0.02419125
,,,1.35E-06,0.024358125
,,,1.36E-06,0.02415625
,,,1.37E-06,0.02424125
,,,1.38E-06,0.02403125
,,,1.39E-06,0.024565625
,,,1.4E-06,0.024573125
,,,1.41E-06,0.0244225
,,,1.42E-06,0.024104375
,,,1.43E-06,0.024185
,,,1.44E-06,0.024273125
,,,1.45E-06,0.024054375
,,,1.46E-06,0.024498125
,,,1.47E-06,0.024395
,,,1.48E-06,0.0237875
,,,1.49E-06,0.0242
,,,1.5E-06,0.023970625
,,,1.51E-06,0.024244375
,,,1.52E-06,0.023986875
,,,1.53E-06,0.02440625
,,,1.54E-06,0.024051875
,,,1.55E-06,0.024240625
,,,1.56E-06,0.024211875
,,,1.57E-06,0.024234375
,,,1.58E-06,0.024208125
,,,1.59E-06,0.02416625
,,,1.6E-06,0.02426875
,,,1.61E-06,0.02436625
,,,1.62E-06,0.024325
,,,1.63E-06,0.0242725
,,,1.64E-06,0.024188125
,,,1.65E-06,0.024200625
,,,1.66E-06,0.02449375
,,,1.67E-06,0.02438375
,,,1.68E-06,0.024241875
,,,1.69E-06,0.02442625
,,,1.7E-06,0.024281875
,,,1.71E-06,0.024299375
,,,1.72E-06,0.024105
,,,1.73E-06,0.02439375
,,,1.74E-06,0.02429125
,,,1.75E-06,0.024245
,,,1.76E-06,0.024285
,,,1.77E-06,0.024226875
,,,1.78E-06,0.024395
,,,1.79E-06,0.024575
,,,1.8E-06,0.024324375
,,,1.81E-06,0.024371875
,,,1.82E-06,0.02433625
,,,1.83E-06,0.02421375
,,,1.84E-06,0.02427875
,,,1.85E-06,0.0240525
,,,1.86E-06,0.0243525
,,,1.87E-06,0.024270625
,,,1.88E-06,0.02428875
,,,1.89E-06,0.024309375
,,,1.9E-06,0.02438125
,,,1.91E-06,0.02420375
,,,1.92E-06,0.024289375
,,,1.93E-06,0.02423375
,,,1.94E-06,0.024190625
,,,1.95E-06,0.024316875
,,,1.96E-06,0.024075625
,,,1.97E-06,0.02427
,,,1.98E-06,0.024345
,,,1.99E-06,0.024174375
,,,2E-06,0.024205625
,,,2.01E-06,0.024163125
,,,2.02E-06,0.024205
,,,2.03E-06,0.024390625
,,,2.04E-06,0.0241375
,,,2.05E-06,0.024128125
,,,2.06E-06,0.024461875
,,,2.07E-06,0.02445625
,,,2.08E-06,0.024274375
,,,2.09E-06,0.0242325
,,,2.1E-06,0.0243725
,,,2.11E-06,0.024338125
,,,2.12E-06,0.024239375
,,,2.13E-06,0.02421625
,,,2.14E-06,0.0241825
,,,2.15E-06,0.02448
,,,2.16E-06,0.024220625
,,,2.17E-06,0.024496875
,,,2.18E-06,0.02415
,,,2.19E-06,0.02436125
,,,2.2E-06,0.024135
,,,2.21E-06,0.024585625
,,,2.22E-06,0.0242075
,,,2.23E-06,0.02441625
,,,2.24E-06,0.024254375
,,,2.25E-06,0.023920625
,,,2.26E-06,0.02431125
,,,2.27E-06,0.024146875
,,,2.28E-06,0.024263125
,,,2.29E-06,0.024140625
,,,2.3E-06,0.024405625
,,,2.31E-06,0.024329375
,,,2.32E-06,0.02433625
,,,2.33E-06,0.024365625
,,,2.34E-06,0.024255625
,,,2.35E-06,0.024046875
,,,2.36E-06,0.02426125
,,,2.37E-06,0.024359375
,,,2.38E-06,0.024233125
,,,2.39E-06,0.02428
,,,2.4E-06,0.024419375
,,,2.41E-06,0.024264375
,,,2.42E-06,0.02411875
,,,2.43E-06,0.024250625
,,,2.44E-06,0.02413875
,,,2.45E-06,0.0244725
,,,2.46E-06,0.024265
,,,2.47E-06,0.024401875
,,,2.48E-06,0.024201875
,,,2.49E-06,0.024333125
,,,2.5E-06,0.024164375
,,,2.51E-06,0.02407875
,,,2.52E-06,0.024020625
,,,2.53E-06,0.02426875
,,,2.54E-06,0.024243125
,,,2.55E-06,0.024421875
,,,2.56E-06,0.024215625
,,,2.57E-06,0.02441625
,,,2.58E-06,0.024405
,,,2.59E-06,0.024283125
,,,2.6E-06,0.02424125
,,,2.61E-06,0.02416875
,,,2.62E-06,0.02435625
,,,2.63E-06,0.02418875
,,,2.64E-06,0.0243425
,,,2.65E-06,0.024656875
,,,2.66E-06,0.024406875
,,,2.67E-06,0.0241625
,,,2.68E-06,0.0240575
,,,2.69E-06,0.0242675
,,,2.7E-06,0.02426125
,,,2.71E-06,0.02428125
,,,2.72E-06,0.024204375
,,,2.73E-06,0.02407625
,,,2.74E-06,0.02428125
,,,2.75E-06,0.024119375
,,,2.76E-06,0.024235
,,,2.77E-06,0.0243375
,,,2.78E-06,0.024330625
,,,2.79E-06,0.02440625
,,,2.8E-06,0.024303125
,,,2.81E-06,0.024365625
,,,2.82E-06,0.02411
,,,2.83E-06,0.02422375
,,,2.84E-06,0.02432625
,,,2.85E-06,0.0242525
,,,2.86E-06,0.02416375
,,,2.87E-06,0.024130625
,,,2.88E-06,0.024486875
,,,2.89E-06,0.0243925
,,,2.9E-06,0.024425
,,,2.91E-06,0.02419125
,,,2.92E-06,0.024416875
,,,2.93E-06,0.024475
,,,2.94E-06,0.02433125
,,,2.95E-06,0.0242725
,,,2.96E-06,0.024215625
,,,2.97E-06,0.024291875
,,,2.98E-06,0.02448625
,,,2.99E-06,0.024363125
,,,3E-06,0.0241725
,,,3.01E-06,0.02429875
,,,3.02E-06,0.02430625
,,,3.03E-06,0.024174375
,,,3.04E-06,0.0243525
,,,3.05E-06,0.024135625
,,,3.06E-06,0.024218125
,,,3.07E-06,0.024254375
,,,3.08E-06,0.024268125
,,,3.09E-06,0.02406
,,,3.1E-06,0.02435125
,,,3.11E-06,0.02417125
,,,3.12E-06,0.024545625
,,,3.13E-06,0.0243275
,,,3.14E-06,0.024315625
,,,3.15E-06,0.024210625
,,,3.16E-06,0.024461875
,,,3.17E-06,0.024105625
,,,3.18E-06,0.0242775
,,,3.19E-06,0.02417625
,,,3.2E-06,0.02424125
,,,3.21E-06,0.0241925
,,,3.22E-06,0.02421
,,,3.23E-06,0.02418125
,,,3.24E-06,0.024226875
,,,3.25E-06,0.024555
,,,3.26E-06,0.024061875
,,,3.27E-06,0.02423
,,,3.28E-06,0.024473125
,,,3.29E-06,0.024093125
,,,3.3E-06,0.024479375
,,,3.31E-06,0.024329375
,,,3.32E-06,0.024243125
,,,3.33E-06,0.024274375
,,,3.34E-06,0.024325
,,,3.35E-06,0.024209375
,,,3.36E-06,0.024395625
,,,3.37E-06,0.024278125
,,,3.38E-06,0.024196875
,,,3.39E-06,0.02414875
,,,3.4E-06,0.024115625
,,,3.41E-06,0.024160625
,,,3.42E-06,0.024319375
,,,3.43E-06,0.02421625
,,,3.44E-06,0.02410625
,,,3.45E-06,0.024151875
,,,3.46E-06,0.024348125
,,,3.47E-06,0.02418
,,,3.48E-06,0.024140625
,,,3.49E-06,0.0242525
,,,3.5E-06,0.024225625
,,,3.51E-06,0.02424
,,,3.52E-06,0.02415
,,,3.53E-06,0.02437
,,,3.54E-06,0.02399625
,,,3.55E-06,0.024410625
,,,3.56E-06,0.024198125
,,,3.57E-06,0.024521875
,,,3.58E-06,0.02415875
,,,3.59E-06,0.024054375
,,,3.6E-06,0.024463125
