data/raw/Final_POL_Test_1/SOP021_Ch4.csv

"Record Length",1000,"Points",-5E-06,0.01585
"Sample Interval",1E-08,s,-4.99E-06,0.0159275
"Trigger Point",500,"Samples",-4.98E-06,0.015941875
"Trigger Time",0,s,-4.97E-06,0.01592625
"",,,-4.96E-06,0.015723125
"Horizontal Offset",-5E-06,s,-4.95E-06,0.015726875
,,,-4.94E-06,0.015920625
,,,-4.93E-06,0.0157925
,,,-4.92E-06,0.01563875
,,,-4.91E-06,0.016020625
,,,-4.9E-06,0.015965
,,,-4.89E-06,0.0159125
,,,-4.88E-06,0.01583875
,,,-4.87E-06,0.015894375
,,,-4.86E-06,0.015805625
,,,-4.85E-06,0.0159
,,,-4.84E-06,0.015831875
,,,-4.83E-06,0.015853125
,,,-4.82E-06,0.015659375
,,,-4.81E-06,0.01590375
,,,-4.8E-06,0.015825625
,,,-4.79E-06,0.015691875
,,,-4.78E-06,0.015745625
,,,-4.77E-06,0.015724375
,,,-4.76E-06,0.015913125
,,,-4.75E-06,0.015444375
,,,-4.74E-06,0.015396875
,,,-4.73E-06,0.015833125
,,,-4.72E-06,0.015636875
,,,-4.71E-06,0.015805625
,,,-4.7E-06,0.01588125
,,,-4.69E-06,0.015855
,,,-4.68E-06,0.0158
,,,-4.67E-06,0.0158125
,,,-4.66E-06,0.015471875
,,,-4.65E-06,0.015741875
,,,-4.64E-06,0.015598125
,,,-4.63E-06,0.01597
,,,-4.62E-06,0.015538125
,,,-4.61E-06,0.015744375
,,,-4.6E-06,0.015741875
,,,-4.59E-06,0.01594375
,,,-4.58E-06,0.01579375
,,,-4.57E-06,0.016029375
,,,-4.56E-06,0.015924375
,,,-4.55E-06,0.015904375
,,,-4.54E-06,0.0158675
,,,-4.53E-06,0.015675
,,,-4.52E-06,0.01593
,,,-4.51E-06,0.015696875
,,,-4.5E-06,0.01579625
,,,-4.49E-06,0.015768125
,,,-4.48E-06,0.015648125
,,,-4.47E-06,0.015861875
,,,-4.46E-06,0.01602125
,,,-4.45E-06,0.01578125
,,,-4.44E-06,0.015718125
,,,-4.43E-06,0.01588125
,,,-4.42E-06,0.01590875
,,,-4.41E-06,0.01562
,,,-4.4E-06,0.016111875
,,,-4.39E-06,0.01573
,,,-4.38E-06,0.01573375
,,,-4.37E-06,0.01572375
,,,-4.36E-06,0.01587875
,,,-4.35E-06,0.01568125
,,,-4.34E-06,0.015945625
,,,-4.33E-06,0.015935
,,,-4.32E-06,0.015853125
,,,-4.31E-06,0.016024375
,,,-4.3E-06,0.01580125
,,,-4.29E-06,0.01579625
,,,-4.28E-06,0.016000625
,,,-4.27E-06,0.01587875
,,,-4.26E-06,0.01577625
,,,-4.25E-06,0.0155525
,,,-4.24E-06,0.015888125
,,,-4.23E-06,0.01585875
,,,-4.22E-06,0.015661875
,,,-4.21E-06,0.015758125
,,,-4.2E-06,0.015648125
,,,-4.19E-06,0.015791875
,,,-4.18E-06,0.015816875
,,,-4.17E-06,0.01583375
,,,-4.16E-06,0.01585
,,,-4.15E-06,0.0158275
,,,-4.14E-06,0.015544375
,,,-4.13E-06,0.01569625
,,,-4.12E-06,0.015965625
,,,-4.11E-06,0.0156825
,,,-4.1E-06,0.01559625
,,,-4.09E-06,0.015888125
,,,-4.08E-06,0.015613125
,,,-4.07E-06,0.0159325
,,,-4.06E-06,0.015865
,,,-4.05E-06,0.01578375
,,,-4.04E-06,0.01575625
,,,-4.03E-06,0.015695625
,,,-4.02E-06,0.01594875
,,,-4.01E-06,0.01601375
,,,-4E-06,0.0155675
,,,-3.99E-06,0.01567625
,,,-3.98E-06,0.015876875
,,,-3.97E-06,0.015768125
,,,-3.96E-06,0.015944375
,,,-3.95E-06,0.01580625
,,,-3.94E-06,0.015805625
,,,-3.93E-06,0.015911875
,,,-3.92E-06,0.01596125
,,,-3.91E-06,0.01597875
,,,-3.9E-06,0.015626875
,,,-3.89E-06,0.015956875
,,,-3.88E-06,0.015611875
,,,-3.87E-06,0.016025625
,,,-3.86E-06,0.01585375
,,,-3.85E-06,0.015838125
,,,-3.84E-06,0.015845625
,,,-3.83E-06,0.015793125
,,,-3.82E-06,0.01583125
,,,-3.81E-06,0.016054375
,,,-3.8E-06,0.015743125
,,,-3.79E-06,0.0158125
,,,-3.78E-06,0.0157825
,,,-3.77E-06,0.015985625
,,,-3.76E-06,0.01601625
,,,-3.75E-06,0.01581125
,,,-3.74E-06,0.01610625
,,,-3.73E-06,0.01588875
,,,-3.72E-06,0.01573625
,,,-3.71E-06,0.015745625
,,,-3.7E-06,0.0155175
,,,-3.69E-06,0.015813125
,,,-3.68E-06,0.015840625
,,,-3.67E-06,0.015686875
,,,-3.66E-06,0.015665
,,,-3.65E-06,0.01584
,,,-3.64E-06,0.015994375
,,,-3.63E-06,0.01593875
,,,-3.62E-06,0.016099375
,,,-3.61E-06,0.0156575
,,,-3.6E-06,0.015905
,,,-3.59E-06,0.0159575
,,,-3.58E-06,0.01581625
,,,-3.57E-06,0.01592625
,,,-3.56E-06,0.015904375
,,,-3.55E-06,0.016088125
,,,-3.54E-06,0.015795625
,,,-3.53E-06,0.015925625
,,,-3.52E-06,0.015746875
,,,-3.51E-06,0.01589
,,,-3.5E-06,0.01568625
,,,-3.49E-06,0.015729375
,,,-3.48E-06,0.01568875
,,,-3.47E-06,0.015715625
,,,-3.46E-06,0.015888125
,,,-3.45E-06,0.016016875
,,,-3.44E-06,0.015545625
,,,-3.43E-06,0.015663125
,,,-3.42E-06,0.015819375
,,,-3.41E-06,0.01589125
,,,-3.4E-06,0.015726875
,,,-3.39E-06,0.015888125
,,,-3.38E-06,0.015725625
,,,-3.37E-06,0.015908125
,,,-3.36E-06,0.015805
,,,-3.35E-06,0.01595875
,,,-3.34E-06,0.015821875
,,,-3.33E-06,0.015643125
,,,-3.32E-06,0.0157275
,,,-3.31E-06,0.015754375
,,,-3.3E-06,0.01576625
,,,-3.29E-06,0.015925
,,,-3.28E-06,0.015914375
,,,-3.27E-06,0.01586875
,,,-3.26E-06,0.01574875
,,,-3.25E-06,0.0160125
,,,-3.24E-06,0.0156025
,,,-3.23E-06,0.01567
,,,-3.22E-06,0.015540625
,,,-3.21E-06,0.01564625
,,,-3.2E-06,0.015783125
,,,-3.19E-06,0.015814375
,,,-3.18E-06,0.015776875
,,,-3.17E-06,0.01567375
,,,-3.16E-06,0.016048125
,,,-3.15E-06,0.015706875
,,,-3.14E-06,0.01581625
,,,-3.13E-06,0.0157025
,,,-3.12E-06,0.016070625
,,,-3.11E-06,0.015854375
,,,-3.1E-06,0.0157025
,,,-3.09E-06,0.0157825
,,,-3.08E-06,0.015901875
,,,-3.07E-06,0.015823125
,,,-3.06E-06,0.015776875
,,,-3.05E-06,0.015659375
,,,-3.04E-06,0.01571375
,,,-3.03E-06,0.015840625
,,,-3.02E-06,0.015666875
,,,-3.01E-06,0.015881875
,,,-3E-06,0.015793125
,,,-2.99E-06,0.015995625
,,,-2.98E-06,0.01584
,,,-2.97E-06,0.015680625
,,,-2.96E-06,0.0159275
,,,-2.95E-06,0.015460625
,,,-2.94E-06,0.01580375
,,,-2.93E-06,0.01576125
,,,-2.92E-06,0.0156175
,,,-2.91E-06,0.015874375
,,,-2.9E-06,0.0160925
,,,-2.89E-06,0.015991875
,,,-2.88E-06,0.015550625
,,,-2.87E-06,0.015676875
,,,-2.86E-06,0.016050625
,,,-2.85E-06,0.01580875
,,,-2.84E-06,0.01577125
,,,-2.83E-06,0.016005625
,,,-2.82E-06,0.01586875
,,,-2.81E-06,0.015779375
,,,-2.8E-06,0.01591875
,,,-2.79E-06,0.015699375
,,,-2.78E-06,0.015645
,,,-2.77E-06,0.01586375
,,,-2.76E-06,0.015845625
,,,-2.75E-06,0.015960625
,,,-2.74E-06,0.015866875
,,,-2.73E-06,0.01565
,,,-2.72E-06,0.0160175
,,,-2.71E-06,0.01560625
,,,-2.7E-06,0.015868125
,,,-2.69E-06,0.01603
,,,-2.68E-06,0.015868125
,,,-2.67E-06,0.015918125
,,,-2.66E-06,0.0159725
,,,-2.65E-06,0.01589375
,,,-2.64E-06,0.015883125
,,,-2.63E-06,0.0158625
,,,-2.62E-06,0.0158825
,,,-2.61E-06,0.01594375
,,,-2.6E-06,0.0158425
,,,-2.59E-06,0.015984375
,,,-2.58E-06,0.015993125
,,,-2.57E-06,0.015958125
,,,-2.56E-06,0.01546125
,,,-2.55E-06,0.015899375
,,,-2.54E-06,0.015770625
,,,-2.53E-06,0.015955625
,,,-2.52E-06,0.015735625
,,,-2.51E-06,0.01570875
,,,-2.5E-06,0.0159125
,,,-2.49E-06,0.01562375
,,,-2.48E-06,0.016136875
,,,-2.47E-06,0.015673125
,,,-2.46E-06,0.01579375
,,,-2.45E-06,0.01545
,,,-2.44E-06,0.015664375
,,,-2.43E-06,0.01568
,,,-2.42E-06,0.0159525
,,,-2.41E-06,0.0157925
,,,-2.4E-06,0.0159225
,,,-2.39E-06,0.015765
,,,-2.38E-06,0.01584375
,,,-2.37E-06,0.015830625
,,,-2.36E-06,0.01583
,,,-2.35E-06,0.015676875
,,,-2.34E-06,0.015798125
,,,-2.33E-06,0.016114375
,,,-2.32E-06,0.015966875
,,,-2.31E-06,0.015701875
,,,-2.3E-06,0.01582875
,,,-2.29E-06,0.0157575
,,,-2.28E-06,0.015774375
,,,-2.27E-06,0.015701875
,,,-2.26E-06,0.015929375
,,,-2.25E-06,0.01570125
,,,-2.24E-06,0.01602125
,,,-2.23E-06,0.01576875
,,,-2.22E-06,0.015738125
,,,-2.21E-06,0.015829375
,,,-2.2E-06,0.015999375
,,,-2.19E-06,0.015789375
,,,-2.18E-06,0.01577625
,,,-2.17E-06,0.015998125
,,,-2.16E-06,0.015825625
,,,-2.15E-06,0.0158425
,,,-2.14E-06,0.015920625
,,,-2.13E-06,0.016015625
,,,-2.12E-06,0.01570875
,,,-2.11E-06,0.015673125
,,,-2.1E-06,0.01595
,,,-2.09E-06,0.015818125
,,,-2.08E-06,0.01582
,,,-2.07E-06,0.015906875
,,,-2.06E-06,0.015775
,,,-2.05E-06,0.015865
,,,-2.04E-06,0.015823125
,,,-2.03E-06,0.015889375
,,,-2.02E-06,0.015793125
,,,-2.01E-06,0.0157925
,,,-2E-06,0.015984375
,,,-1.99E-06,0.015934375
,,,-1.98E-06,0.015771875
,,,-1.97E-06,0.015768125
,,,-1.96E-06,0.0158625
,,,-1.95E-06,0.01570375
,,,-1.94E-06,0.015765
,,,-1.93E-06,0.015855
,,,-1.92E-06,0.015650625
,,,-1.91E-06,0.01601
,,,-1.9E-06,0.01588
,,,-1.89E-06,0.015861875
,,,-1.88E-06,0.015674375
,,,-1.87E-06,0.015794375
,,,-1.86E-06,0.015860625
,,,-1.85E-06,0.0161275
,,,-1.84E-06,0.0159125
,,,-1.83E-06,0.015779375
,,,-1.82E-06,0.015921875
,,,-1.81E-06,0.015849375
,,,-1.8E-06,0.015921875
,,,-1.79E-06,0.01585125
,,,-1.78E-06,0.01598125
,,,-1.77E-06,0.0159025
,,,-1.76E-06,0.01617125
,,,-1.75E-06,0.015538125
,,,-1.74E-06,0.016024375
,,,-1.73E-06,0.015704375
,,,-1.72E-06,0.0157525
,,,-1.71E-06,0.015555
,,,-1.7E-06,0.015681875
,,,-1.69E-06,0.015755625
,,,-1.68E-06,0.016066875
,,,-1.67E-06,0.015795625
,,,-1.66E-06,0.01580125
,,,-1.65E-06,0.015843125
,,,-1.64E-06,0.01570125
,,,-1.63E-06,0.016044375
,,,-1.62E-06,0.01566625
,,,-1.61E-06,0.016035625
,,,-1.6E-06,0.015721875
,,,-1.59E-06,0.015783125
,,,-1.58E-06,0.0157775
,,,-1.57E-06,0.0157325
,,,-1.56E-06,0.01596125
,,,-1.55E-06,0.015711875
,,,-1.54E-06,0.015841875
,,,-1.53E-06,0.0160875
,,,-1.52E-06,0.015625625
,,,-1.51E-06,0.016025
,,,-1.5E-06,0.01593625
,,,-1.49E-06,0.015715
,,,-1.48E-06,0.01583625
,,,-1.47E-06,0.01597875
,,,-1.46E-06,0.01565125
,,,-1.45E-06,0.015783125
,,,-1.44E-06,0.015876875
,,,-1.43E-06,0.015784375
,,,-1.42E-06,0.015766875
,,,-1.41E-06,0.015818125
,,,-1.4E-06,0.0158225
,,,-1.39E-06,0.015674375
,,,-1.38E-06,0.016048125
,,,-1.37E-06,0.015955
,,,-1.36E-06,0.01583875
,,,-1.35E-06,0.01586625
,,,-1.34E-06,0.01616875
,,,-1.33E-06,0.0156775
,,,-1.32E-06,0.0158075
,,,-1.31E-06,0.015916875
,,,-1.3E-06,0.0159225
,,,-1.29E-06,0.01571375
,,,-1.28E-06,0.01566375
,,,-1.27E-06,0.015645625
,,,-1.26E-06,0.0158675
,,,-1.25E-06,0.015705625
,,,-1.24E-06,0.015638125
,,,-1.23E-06,0.01563125
,,,-1.22E-06,0.015858125
,,,-1.21E-06,0.015766875
,,,-1.2E-06,0.01589
,,,-1.19E-06,0.01601125
,,,-1.18E-06,0.015694375
,,,-1.17E-06,0.015986875
,,,-1.16E-06,0.01597
,,,-1.15E-06,0.015848125
,,,-1.14E-06,0.01589375
,,,-1.13E-06,0.01576375
,,,-1.12E-06,0.01585
,,,-1.11E-06,0.0156425
,,,-1.1E-06,0.015968125
,,,-1.09E-06,0.015593125
,,,-1.08E-06,0.015821875
,,,-1.07E-06,0.0157025
,,,-1.06E-06,0.016023125
,,,-1.05E-06,0.015914375
,,,-1.04E-06,0.01600125
,,,-1.03E-06,0.015949375
,,,-1.02E-06,0.01598375
,,,-1.01E-06,0.016049375
,,,-1E-06,0.01584
,,,-9.9E-07,0.01578125
,,,-9.8E-07,0.015575625
,,,-9.7E-07,0.0156775
,,,-9.6E-07,0.0156475
,,,-9.5E-07,0.015883125
,,,-9.4E-07,0.01578625
,,,-9.3E-07,0.0158
,,,-9.2E-07,0.015935
,,,-9.1E-07,0.01589875
,,,-9E-07,0.0157525
,,,-8.9E-07,0.0160525
,,,-8.8E-07,0.015939375
,,,-8.7E-07,0.01593625
,,,-8.6E-07,0.016004375
,,,-8.5E-07,0.015715
,,,-8.4E-07,0.015725625
,,,-8.3E-07,0.01584
,,,-8.2E-07,0.01572375
,,,-8.1E-07,0.01569125
,,,-8E-07,0.015838125
,,,-7.9E-07,0.015875
,,,-7.8E-07,0.015921875
,,,-7.7E-07,0.016
,,,-7.6E-07,0.01578625
,,,-7.5E-07,0.01578625
,,,-7.4E-07,0.015691875
,,,-7.3E-07,0.01559625
,,,-7.2E-07,0.015804375
,,,-7.1E-07,0.01591375
,,,-7E-07,0.015924375
,,,-6.9E-07,0.015958125
,,,-6.8E-07,0.0160075
,,,-6.7E-07,0.015958125
,,,-6.6E-07,0.015968125
,,,-6.5E-07,0.0156525
,,,-6.4E-07,0.01599375
,,,-6.3E-07,0.015861875
,,,-6.2E-07,0.015891875
,,,-6.1E-07,0.015869375
,,,-6E-07,0.01592625
,,,-5.9E-07,0.015608125
,,,-5.8E-07,0.015729375
,,,-5.7E-07,0.015749375
,,,-5.6E-07,0.016050625
,,,-5.5E-07,0.01556875
,,,-5.4E-07,0.015790625
,,,-5.3E-07,0.015965
,,,-5.2E-07,0.015888125
,,,-5.1E-07,0.015748125
,,,-5E-07,0.016063125
,,,-4.9E-07,0.01573
,,,-4.8E-07,0.01568875
,,,-4.7E-07,0.015743125
,,,-4.6E-07,0.015684375
,,,-4.5E-07,0.015959375
,,,-4.4E-07,0.015775
,,,-4.3E-07,0.015864375
,,,-4.2E-07,0.015880625
,,,-4.1E-07,0.01596
,,,-4E-07,0.015823125
,,,-3.9E-07,0.015690625
,,,-3.8E-07,0.01577625
,,,-3.7E-07,0.016016875
,,,-3.6E-07,0.016088125
,,,-3.5E-07,0.01568125
,,,-3.4E-07,0.015816875
,,,-3.3E-07,0.015635
,,,-3.2E-07,0.01557875
,,,-3.1E-07,0.015871875
,,,-3E-07,0.015851875
,,,-2.9E-07,0.0159425
,,,-2.8E-07,0.015793125
,,,-2.7E-07,0.0159075
,,,-2.6E-07,0.015679375
,,,-2.5E-07,0.015615625
,,,-2.4E-07,0.0157825
,,,-2.3E-07,0.0156925
,,,-2.2E-07,0.01589375
,,,-2.1E-07,0.01606875
,,,-2E-07,0.015420625
,,,-1.9E-07,0.01579375
,,,-1.8E-07,0.015716875
,,,-1.7E-07,0.015758125
,,,-1.6E-07,0.01567375
,,,-1.5E-07,0.015779375
,,,-1.4E-07,0.01586
,,,-1.3E-07,0.015658125
,,,-1.2E-07,0.01579375
,,,-1.1E-07,0.015556875
,,,-1E-07,0.015980625
,,,-9E-08,0.015710625
,,,-8E-08,0.01554625
,,,-7E-08,0.0159775
,,,-6E-08,0.015795
,,,-5E-08,0.015835
,,,-4E-08,0.016938125
,,,-3E-08,0.0162825
,,,-2E-08,0.014146875
,,,-1E-08,0.012404375
,,,0,0.015325
,,,1E-08,0.01876875
,,,2E-08,0.01935125
,,,3E-08,0.01713875
,,,4E-08,0.01445
,,,5E-08,0.013118125
,,,6E-08,0.013788125
,,,7E-08,0.015435
,,,8E-08,0.0167225
,,,9E-08,0.01775875
,,,1E-07,0.016881875
,,,1.1E-07,0.015791875
,,,1.2E-07,0.014466875
,,,1.3E-07,0.01478625
,,,1.4E-07,0.015618125
,,,1.5E-07,0.01639
,,,1.6E-07,0.016468125
,,,1.7E-07,0.01603
,,,1.8E-07,0.015840625
,,,1.9E-07,0.0157925
,,,2E-07,0.0157525
,,,2.1E-07,0.015583125
,,,2.2E-07,0.015471875
,,,2.3E-07,0.015799375
,,,2.4E-07,0.015894375
,,,2.5E-07,0.016045625
,,,2.6E-07,0.01612125
,,,2.7E-07,0.01584
,,,2.8E-07,0.016024375
,,,2.9E-07,0.015764375
,,,3E-07,0.015416875
,,,3.1E-07,0.01570625
,,,3.2E-07,0.015715
,,,3.3E-07,0.015745625
,,,3.4E-07,0.01591375
,,,3.5E-07,0.01596
,,,3.6E-07,0.015845
,,,3.7E-07,0.0158275
,,,3.8E-07,0.01568
,,,3.9E-07,0.015828125
,,,4E-07,0.0157875
,,,4.1E-07,0.01570625
,,,4.2E-07,0.01583
,,,4.3E-07,0.015875625
,,,4.4E-07,0.016005
,,,4.5E-07,0.01596125
,,,4.6E-07,0.016179375
,,,4.7E-07,0.0157375
,,,4.8E-07,0.0157725
,,,4.9E-07,0.01558375
,,,5E-07,0.015850625
,,,5.1E-07,0.015876875
,,,5.2E-07,0.01571
,,,5.3E-07,0.0156375
,,,5.4E-07,0.015796875
,,,5.5E-07,0.0157375
,,,5.6E-07,0.015801875
,,,5.7E-07,0.016125625
,,,5.8E-07,0.015888125
,,,5.9E-07,0.015869375
,,,6E-07,0.01586
,,,6.1E-07,0.01576
,,,6.2E-07,0.016065625
,,,6.3E-07,0.01563
,,,6.4E-07,0.01561875
,,,6.5E-07,0.015681875
,,,6.6E-07,0.01580625
,,,6.7E-07,0.015814375
,,,6.8E-07,0.015493125
,,,6.9E-07,0.015835
,,,7E-07,0.01552
,,,7.1E-07,0.01555875
,,,7.2E-07,0.015955
,,,7.3E-07,0.01566125
,,,7.4E-07,0.01567875
,,,7.5E-07,0.01599625
,,,7.6E-07,0.015663125
,,,7.7E-07,0.015693125
,,,7.8E-07,0.015801875
,,,7.9E-07,0.015635625
,,,8E-07,0.01583875
,,,8.1E-07,0.015625625
,,,8.2E-07,0.01599625
,,,8.3E-07,0.015784375
,,,8.4E-07,0.015776875
,,,8.5E-07,0.015856875
,,,8.6E-07,0.015944375
,,,8.7E-07,0.01568375
,,,8.8E-07,0.0161875
,,,8.9E-07,0.015851875
,,,9E-07,0.0160325
,,,9.1E-07,0.015933125
,,,9.2E-07,0.01585
,,,9.3E-07,0.01575
,,,9.4E-07,0.01601875
,,,9.5E-07,0.015628125
,,,9.6E-07,0.0155775
,,,9.7E-07,0.015815
,,,9.8E-07,0.01598625
,,,9.9E-07,0.016036875
,,,1E-06,0.01581125
,,,1.01E-06,0.015760625
,,,1.02E-06,0.015894375
,,,1.03E-06,0.016010625
,,,1.04E-06,0.015848125
,,,1.05E-06,0.01597
,,,1.06E-06,0.015653125
,,,1.07E-06,0.015754375
,,,1.08E-06,0.01586625
,,,1.09E-06,0.01567125
,,,1.1E-06,0.01563125
,,,1.11E-06,0.01591125
,,,1.12E-06,0.01588625
,,,1.13E-06,0.015709375
,,,1.14E-06,0.015804375
,,,1.15E-06,0.01576125
,,,1.16E-06,0.01587
,,,1.17E-06,0.0158075
,,,1.18E-06,0.016044375
,,,1.19E-06,0.015709375
,,,1.2E-06,0.015585625
,,,1.21E-06,0.01554875
,,,1.22E-06,0.015875
,,,1.23E-06,0.01583
,,,1.24E-06,0.01601875
,,,1.25E-06,0.01578875
,,,1.26E-06,0.015785
,,,1.27E-06,0.0158825
,,,1.28E-06,0.015529375
,,,1.29E-06,0.015718125
,,,1.3E-06,0.0156575
,,,1.31E-06,0.0159325
,,,1.32E-06,0.015825625
,,,1.33E-06,0.01576
,,,1.34E-06,0.01578875
,,,1.35E-06,0.015508125
,,,1.36E-06,0.015848125
,,,1.37E-06,0.015718125
,,,1.38E-06,0.01599
,,,1.39E-06,0.015914375
,,,1.4E-06,0.015986875
,,,1.41E-06,0.015986875
,,,1.42E-06,0.015824375
,,,1.43E-06,0.01575125
,,,1.44E-06,0.01567125
,,,1.45E-06,0.0154675
,,,1.46E-06,0.015865
,,,1.47E-06,0.015865
,,,1.48E-06,0.0158325
,,,1.49E-06,0.015883125
,,,1.5E-06,0.0162425
,,,1.51E-06,0.0156625
,,,1.52E-06,0.015831875
,,,1.53E-06,0.015685625
,,,1.54E-06,0.015921875
,,,1.55E-06,0.01576375
,,,1.56E-06,0.01588625
,,,1.57E-06,0.01586625
,,,1.58E-06,0.01583125
,,,1.59E-06,0.01551875
,,,1.6E-06,0.0158475
,,,1.61E-06,0.01564
,,,1.62E-06,0.015839375
,,,1.63E-06,0.015716875
,,,1.64E-06,0.015855625
,,,1.65E-06,0.016015
,,,1.66E-06,0.015810625
,,,1.67E-06,0.01595875
,,,1.68E-06,0.015876875
,,,1.69E-06,0.015839375
,,,1.7E-06,0.0156225
,,,1.71E-06,0.01587875
,,,1.72E-06,0.0159075
,,,1.73E-06,0.01554375
,,,1.74E-06,0.015684375
,,,1.75E-06,0.0156575
,,,1.76E-06,0.015770625
,,,1.77E-06,0.015723125
,,,1.78E-06,0.01585625
,,,1.79E-06,0.01587875
,,,1.8E-06,0.015723125
,,,1.81E-06,0.01569375
,,,1.82E-06,0.01608125
,,,1.83E-06,0.015764375
,,,1.84E-06,0.01576625
,,,1.85E-06,0.015649375
,,,1.86E-06,0.015925625
,,,1.87E-06,0.015805
,,,1.88E-06,0.015950625
,,,1.89E-06,0.015901875
,,,1.9E-06,0.01554
,,,1.91E-06,0.015781875
,,,1.92E-06,0.015753125
,,,1.93E-06,0.015691875
,,,1.94E-06,0.015725625
,,,1.95E-06,0.015803125
,,,1.96E-06,0.015790625
,,,1.97E-06,0.015720625
,,,1.98E-06,0.01593125
,,,1.99E-06,0.01570625
,,,2E-06,0.015790625
,,,2.01E-06,0.015458125
,,,2.02E-06,0.01584625
,,,2.03E-06,0.015921875
,,,2.04E-06,0.015918125
,,,2.05E-06,0.015866875
,,,2.06E-06,0.015858125
,,,2.07E-06,0.015934375
,,,2.08E-06,0.015560625
,,,2.09E-06,0.015826875
,,,2.1E-06,0.015916875
,,,2.11E-06,0.01588375
,,,2.12E-06,0.0157075
,,,2.13E-06,0.015751875
,,,2.14E-06,0.01578
,,,2.15E-06,0.01583375
,,,2.16E-06,0.01566
,,,2.17E-06,0.0156525
,,,2.18E-06,0.015594375
,,,2.19E-06,0.0160175
,,,2.2E-06,0.015514375
,,,2.21E-06,0.0157275
,,,2.22E-06,0.015455
,,,2.23E-06,0.01555875
,,,2.24E-06,0.015701875
,,,2.25E-06,0.015824375
,,,2.26E-06,0.015686875
,,,2.27E-06,0.015780625
,,,2.28E-06,0.0160225
,,,2.29E-06,0.015978125
,,,2.3E-06,0.016004375
,,,2.31E-06,0.0158925
,,,2.32E-06,0.01584375
,,,2.33E-06,0.01580375
,,,2.34E-06,0.01560125
,,,2.35E-06,0.015940625
,,,2.36E-06,0.01598
,,,2.37E-06,0.0161
,,,2.38E-06,0.015895
,,,2.39E-06,0.015875
,,,2.4E-06,0.015738125
,,,2.41E-06,0.015685625
,,,2.42E-06,0.015675
,,,2.43E-06,0.015759375
,,,2.44E-06,0.01613375
,,,2.45E-06,0.015779375
,,,2.46E-06,0.01585375
,,,2.47E-06,0.015765625
,,,2.48E-06,0.015750625
,,,2.49E-06,0.01587375
,,,2.5E-06,0.015966875
,,,2.51E-06,0.01571
,,,2.52E-06,0.015943125
,,,2.53E-06,0.01588125
,,,2.54E-06,0.015624375
,,,2.55E-06,0.015898125
,,,2.56E-06,0.015641875
,,,2.57E-06,0.015686875
,,,2.58E-06,0.01578125
,,,2.59E-06,0.01582375
,,,2.6E-06,0.015673125
,,,2.61E-06,0.015510625
,,,2.62E-06,0.016023125
,,,2.63E-06,0.016106875
,,,2.64E-06,0.016006875
,,,2.65E-06,0.016129375
,,,2.66E-06,0.016053125
,,,2.67E-06,0.015795625
,,,2.68E-06,0.0157175
,,,2.69E-06,0.01606625
,,,2.7E-06,0.015853125
,,,2.71E-06,0.01577
,,,2.72E-06,0.015845
,,,2.73E-06,0.0160175
,,,2.74E-06,0.016106875
,,,2.75E-06,0.015860625
,,,2.76E-06,0.015861875
,,,2.77E-06,0.0158275
,,,2.78E-06,0.01566375
,,,2.79E-06,0.015780625
,,,2.8E-06,0.015833125
,,,2.81E-06,0.015846875
,,,2.82E-06,0.015756875
,,,2.83E-06,0.01604625
,,,2.84E-06,0.015923125
,,,2.85E-06,0.01578625
,,,2.86E-06,0.015841875
,,,2.87E-06,0.01566125
,,,2.88E-06,0.01572625
,,,2.89E-06,0.01593625
,,,2.9E-06,0.01604125
,,,2.91E-06,0.015649375
,,,2.92E-06,0.01578625
,,,2.93E-06,0.015681875
,,,2.94E-06,0.015870625
,,,2.95E-06,0.01579
,,,2.96E-06,0.0158025
,,,2.97E-06,0.01581125
,,,2.98E-06,0.0158375
,,,2.99E-06,0.015929375
,,,3E-06,0.0156625
,,,3.01E-06,0.01549125
,,,3.02E-06,0.015774375
,,,3.03E-06,0.015651875
,,,3.04E-06,0.015935
,,,3.05E-06,0.015683125
,,,3.06E-06,0.01575
,,,3.07E-06,0.015709375
,,,3.08E-06,0.015815625
,,,3.09E-06,0.01588
,,,3.1E-06,0.01566375
,,,3.11E-06,0.01554875
,,,3.12E-06,0.01598375
,,,3.13E-06,0.015836875
,,,3.14E-06,0.0157175
,,,3.15E-06,0.0157425
,,,3.16E-06,0.01585
,,,3.17E-06,0.015900625
,,,3.18E-06,0.01556875
,,,3.19E-06,0.015555
,,,3.2E-06,0.015765
,,,3.21E-06,0.01589
,,,3.22E-06,0.015803125
,,,3.23E-06,0.01561875
,,,3.24E-06,0.015924375
,,,3.25E-06,0.015770625
,,,3.26E-06,0.01578375
,,,3.27E-06,0.015703125
,,,3.28E-06,0.015780625
,,,3.29E-06,0.0158125
,,,3.3E-06,0.016028125
,,,3.31E-06,0.015768125
,,,3.32E-06,0.01596
,,,3.33E-06,0.0154675
,,,3.34E-06,0.015695
,,,3.35E-06,0.015603125
,,,3.36E-06,0.01580875
,,,3.37E-06,0.01587125
,,,3.38E-06,0.0158925
,,,3.39E-06,0.01605125
,,,3.4E-06,0.015785625
,,,3.41E-06,0.0155525
,,,3.42E-06,0.015719375
,,,3.43E-06,0.015726875
,,,3.44E-06,0.015625625
,,,3.45E-06,0.015986875
,,,3.46E-06,0.015813125
,,,3.47E-06,0.015944375
,,,3.48E-06,0.015981875
,,,3.49E-06,0.015830625
,,,3.5E-06,0.016075
,,,3.51E-06,0.01577375
,,,3.52E-06,0.015650625
,,,3.53E-06,0.015705
,,,3.54E-06,0.01562625
,,,3.55E-06,0.015905625
,,,3.56E-06,0.015599375
