data/raw/Final_POL_Test_1/SOP099_Ch2.csv

"Record Length",1000,"Points",-5E-06,0.020440625
"Sample Interval",1E-08,s,-4.99E-06,0.020584375
"Trigger Point",500,"Samples",-4.98E-06,0.0208275
"Trigger Time",0,s,-4.97E-06,0.02065
"",,,-4.96E-06,0.0207
"Horizontal Offset",-5E-06,s,-4.95E-06,0.020625625
,,,-4.94E-06,0.0206725
,,,-4.93E-06,0.020235
,,,-4.92E-06,0.020469375
,,,-4.91E-06,0.020540625
,,,-4.9E-06,0.02065125
,,,-4.89E-06,0.020661875
,,,-4.88E-06,0.0207425
,,,-4.87E-06,0.02053125
,,,-4.86E-06,0.020534375
,,,-4.85E-06,0.020566875
,,,-4.84E-06,0.02058
,,,-4.83E-06,0.0205525
,,,-4.82E-06,0.020594375
,,,-4.81E-06,0.0207325
,,,-4.8E-06,0.020663125
,,,-4.79E-06,0.0206175
,,,-4.78E-06,0.020705
,,,-4.77E-06,0.020555
,,,-4.76E-06,0.0204625
,,,-4.75E-06,0.020605
,,,-4.74E-06,0.0203425
,,,-4.73E-06,0.0206525
,,,-4.72E-06,0.020756875
,,,-4.71E-06,0.020670625
,,,-4.7E-06,0.020634375
,,,-4.69E-06,0.020400625
,,,-4.68E-06,0.020556875
,,,-4.67E-06,0.02094
,,,-4.66E-06,0.0206375
,,,-4.65E-06,0.0206675
,,,-4.64E-06,0.020719375
,,,-4.63E-06,0.020586875
,,,-4.62E-06,0.020719375
,,,-4.61E-06,0.02070125
,,,-4.6E-06,0.020574375
,,,-4.59E-06,0.02077625
,,,-4.58E-06,0.020426875
,,,-4.57E-06,0.0206325
,,,-4.56E-06,0.020775625
,,,-4.55E-06,0.02032
,,,-4.54E-06,0.0206375
,,,-4.53E-06,0.020874375
,,,-4.52E-06,0.02068125
,,,-4.51E-06,0.020758125
,,,-4.5E-06,0.0205
,,,-4.49E-06,0.02067125
,,,-4.48E-06,0.0207975
,,,-4.47E-06,0.0205075
,,,-4.46E-06,0.0204475
,,,-4.45E-06,0.020585625
,,,-4.44E-06,0.02072625
,,,-4.43E-06,0.02089
,,,-4.42E-06,0.02054375
,,,-4.41E-06,0.02058
,,,-4.4E-06,0.020675
,,,-4.39E-06,0.02077125
,,,-4.38E-06,0.020699375
,,,-4.37E-06,0.020206875
,,,-4.36E-06,0.020658125
,,,-4.35E-06,0.020505625
,,,-4.34E-06,0.02077125
,,,-4.33E-06,0.02074875
,,,-4.32E-06,0.02073
,,,-4.31E-06,0.0206575
,,,-4.3E-06,0.02081375
,,,-4.29E-06,0.020680625
,,,-4.28E-06,0.020553125
,,,-4.27E-06,0.020849375
,,,-4.26E-06,0.02059625
,,,-4.25E-06,0.02044375
,,,-4.24E-06,0.02064125
,,,-4.23E-06,0.020295
,,,-4.22E-06,0.020804375
,,,-4.21E-06,0.020431875
,,,-4.2E-06,0.02067375
,,,-4.19E-06,0.02045375
,,,-4.18E-06,0.020406875
,,,-4.17E-06,0.020821875
,,,-4.16E-06,0.02058125
,,,-4.15E-06,0.02055875
,,,-4.14E-06,0.020763125
,,,-4.13E-06,0.02074625
,,,-4.12E-06,0.02046375
,,,-4.11E-06,0.02070875
,,,-4.1E-06,0.020356875
,,,-4.09E-06,0.020890625
,,,-4.08E-06,0.0204775
,,,-4.07E-06,0.020721875
,,,-4.06E-06,0.0205625
,,,-4.05E-06,0.020765
,,,-4.04E-06,0.02048125
,,,-4.03E-06,0.020515
,,,-4.02E-06,0.020590625
,,,-4.01E-06,0.020605
,,,-4E-06,0.020739375
,,,-3.99E-06,0.02072625
,,,-3.98E-06,0.02067125
,,,-3.97E-06,0.020530625
,,,-3.96E-06,0.0205575
,,,-3.95E-06,0.020465
,,,-3.94E-06,0.020616875
,,,-3.93E-06,0.02044625
,,,-3.92E-06,0.0207675
,,,-3.91E-06,0.020508125
,,,-3.9E-06,0.020798125
,,,-3.89E-06,0.02063625
,,,-3.88E-06,0.020636875
,,,-3.87E-06,0.020609375
,,,-3.86E-06,0.02061875
,,,-3.85E-06,0.020506875
,,,-3.84E-06,0.020693125
,,,-3.83E-06,0.020503125
,,,-3.82E-06,0.02068125
,,,-3.81E-06,0.020625625
,,,-3.8E-06,0.020225625
,,,-3.79E-06,0.020470625
,,,-3.78E-06,0.020399375
,,,-3.77E-06,0.020788125
,,,-3.76E-06,0.0205875
,,,-3.75E-06,0.020726875
,,,-3.74E-06,0.0206425
,,,-3.73E-06,0.020623125
,,,-3.72E-06,0.02074
,,,-3.71E-06,0.0206125
,,,-3.7E-06,0.020453125
,,,-3.69E-06,0.02058875
,,,-3.68E-06,0.020695625
,,,-3.67E-06,0.02053125
,,,-3.66E-06,0.02063375
,,,-3.65E-06,0.020755
,,,-3.64E-06,0.020686875
,,,-3.63E-06,0.0206125
,,,-3.62E-06,0.020605625
,,,-3.61E-06,0.020449375
,,,-3.6E-06,0.020725
,,,-3.59E-06,0.02071375
,,,-3.58E-06,0.020568125
,,,-3.57E-06,0.020823125
,,,-3.56E-06,0.02049875
,,,-3.55E-06,0.020601875
,,,-3.54E-06,0.0205375
,,,-3.53E-06,0.020706875
,,,-3.52E-06,0.02062875
,,,-3.51E-06,0.020600625
,,,-3.5E-06,0.020504375
,,,-3.49E-06,0.0208775
,,,-3.48E-06,0.02084125
,,,-3.47E-06,0.02044375
,,,-3.46E-06,0.020824375
,,,-3.45E-06,0.020808125
,,,-3.44E-06,0.0206725
,,,-3.43E-06,0.020783125
,,,-3.42E-06,0.020795
,,,-3.41E-06,0.020766875
,,,-3.4E-06,0.020390625
,,,-3.39E-06,0.02059
,,,-3.38E-06,0.020649375
,,,-3.37E-06,0.020679375
,,,-3.36E-06,0.020706875
,,,-3.35E-06,0.02049
,,,-3.34E-06,0.020703125
,,,-3.33E-06,0.020701875
,,,-3.32E-06,0.0207475
,,,-3.31E-06,0.020544375
,,,-3.3E-06,0.020459375
,,,-3.29E-06,0.02058375
,,,-3.28E-06,0.02057625
,,,-3.27E-06,0.020799375
,,,-3.26E-06,0.020523125
,,,-3.25E-06,0.0206575
,,,-3.24E-06,0.020595
,,,-3.23E-06,0.02040625
,,,-3.22E-06,0.02044625
,,,-3.21E-06,0.02048
,,,-3.2E-06,0.0204775
,,,-3.19E-06,0.020285
,,,-3.18E-06,0.0206875
,,,-3.17E-06,0.020465
,,,-3.16E-06,0.020841875
,,,-3.15E-06,0.0208825
,,,-3.14E-06,0.02092
,,,-3.13E-06,0.020100625
,,,-3.12E-06,0.0208775
,,,-3.11E-06,0.020635625
,,,-3.1E-06,0.02056375
,,,-3.09E-06,0.020593125
,,,-3.08E-06,0.02088625
,,,-3.07E-06,0.020605
,,,-3.06E-06,0.021023125
,,,-3.05E-06,0.020449375
,,,-3.04E-06,0.0204175
,,,-3.03E-06,0.020605
,,,-3.02E-06,0.02059
,,,-3.01E-06,0.02044625
,,,-3E-06,0.02047625
,,,-2.99E-06,0.0204875
,,,-2.98E-06,0.020614375
,,,-2.97E-06,0.020505
,,,-2.96E-06,0.020494375
,,,-2.95E-06,0.020368125
,,,-2.94E-06,0.020489375
,,,-2.93E-06,0.02047
,,,-2.92E-06,0.02062125
,,,-2.91E-06,0.020596875
,,,-2.9E-06,0.0205525
,,,-2.89E-06,0.020688125
,,,-2.88E-06,0.02075
,,,-2.87E-06,0.02045125
,,,-2.86E-06,0.020708125
,,,-2.85E-06,0.02059125
,,,-2.84E-06,0.020753125
,,,-2.83E-06,0.02069375
,,,-2.82E-06,0.020525625
,,,-2.81E-06,0.02044
,,,-2.8E-06,0.02035125
,,,-2.79E-06,0.02065875
,,,-2.78E-06,0.020509375
,,,-2.77E-06,0.020755
,,,-2.76E-06,0.02074625
,,,-2.75E-06,0.020663125
,,,-2.74E-06,0.020815
,,,-2.73E-06,0.020834375
,,,-2.72E-06,0.0205625
,,,-2.71E-06,0.02051375
,,,-2.7E-06,0.02048125
,,,-2.69E-06,0.020350625
,,,-2.68E-06,0.020905625
,,,-2.67E-06,0.020760625
,,,-2.66E-06,0.020430625
,,,-2.65E-06,0.020673125
,,,-2.64E-06,0.020610625
,,,-2.63E-06,0.02025875
,,,-2.62E-06,0.0206375
,,,-2.61E-06,0.020619375
,,,-2.6E-06,0.020515
,,,-2.59E-06,0.020605625
,,,-2.58E-06,0.02072
,,,-2.57E-06,0.0206
,,,-2.56E-06,0.020739375
,,,-2.55E-06,0.020645
,,,-2.54E-06,0.02037
,,,-2.53E-06,0.0208125
,,,-2.52E-06,0.020635625
,,,-2.51E-06,0.020745625
,,,-2.5E-06,0.020671875
,,,-2.49E-06,0.020628125
,,,-2.48E-06,0.0206975
,,,-2.47E-06,0.020708125
,,,-2.46E-06,0.02075625
,,,-2.45E-06,0.02055
,,,-2.44E-06,0.020669375
,,,-2.43E-06,0.02075375
,,,-2.42E-06,0.020430625
,,,-2.41E-06,0.02056625
,,,-2.4E-06,0.02055875
,,,-2.39E-06,0.020889375
,,,-2.38E-06,0.0205325
,,,-2.37E-06,0.020489375
,,,-2.36E-06,0.020578125
,,,-2.35E-06,0.0207325
,,,-2.34E-06,0.02070875
,,,-2.33E-06,0.020415625
,,,-2.32E-06,0.02064625
,,,-2.31E-06,0.020763125
,,,-2.3E-06,0.02061125
,,,-2.29E-06,0.02065125
,,,-2.28E-06,0.020819375
,,,-2.27E-06,0.020678125
,,,-2.26E-06,0.020948125
,,,-2.25E-06,0.02042875
,,,-2.24E-06,0.02065125
,,,-2.23E-06,0.0203875
,,,-2.22E-06,0.020805
,,,-2.21E-06,0.020436875
,,,-2.2E-06,0.020650625
,,,-2.19E-06,0.020608125
,,,-2.18E-06,0.020689375
,,,-2.17E-06,0.02057375
,,,-2.16E-06,0.020665
,,,-2.15E-06,0.020746875
,,,-2.14E-06,0.020365625
,,,-2.13E-06,0.020616875
,,,-2.12E-06,0.0207625
,,,-2.11E-06,0.0203375
,,,-2.1E-06,0.020775
,,,-2.09E-06,0.02080125
,,,-2.08E-06,0.0209475
,,,-2.07E-06,0.020495
,,,-2.06E-06,0.0206425
,,,-2.05E-06,0.02066875
,,,-2.04E-06,0.020623125
,,,-2.03E-06,0.020584375
,,,-2.02E-06,0.02057
,,,-2.01E-06,0.02061375
,,,-2E-06,0.020323125
,,,-1.99E-06,0.02063875
,,,-1.98E-06,0.02088125
,,,-1.97E-06,0.020686875
,,,-1.96E-06,0.02041875
,,,-1.95E-06,0.020388125
,,,-1.94E-06,0.0206475
,,,-1.93E-06,0.020721875
,,,-1.92E-06,0.0206975
,,,-1.91E-06,0.02062875
,,,-1.9E-06,0.02051875
,,,-1.89E-06,0.020405
,,,-1.88E-06,0.02057125
,,,-1.87E-06,0.02040375
,,,-1.86E-06,0.020514375
,,,-1.85E-06,0.020395625
,,,-1.84E-06,0.020430625
,,,-1.83E-06,0.020558125
,,,-1.82E-06,0.02069625
,,,-1.81E-06,0.020800625
,,,-1.8E-06,0.020654375
,,,-1.79E-06,0.020495625
,,,-1.78E-06,0.020485
,,,-1.77E-06,0.020633125
,,,-1.76E-06,0.0206375
,,,-1.75E-06,0.02049375
,,,-1.74E-06,0.020516875
,,,-1.73E-06,0.02047
,,,-1.72E-06,0.02046125
,,,-1.71E-06,0.02060625
,,,-1.7E-06,0.02076
,,,-1.69E-06,0.0205275
,,,-1.68E-06,0.020416875
,,,-1.67E-06,0.0204825
,,,-1.66E-06,0.020695625
,,,-1.65E-06,0.0207075
,,,-1.64E-06,0.02043875
,,,-1.63E-06,0.020760625
,,,-1.62E-06,0.020573125
,,,-1.61E-06,0.020499375
,,,-1.6E-06,0.02051375
,,,-1.59E-06,0.020806875
,,,-1.58E-06,0.02080375
,,,-1.57E-06,0.0206975
,,,-1.56E-06,0.02059125
,,,-1.55E-06,0.020455
,,,-1.54E-06,0.020714375
,,,-1.53E-06,0.02051625
,,,-1.52E-06,0.02079125
,,,-1.51E-06,0.020765
,,,-1.5E-06,0.020736875
,,,-1.49E-06,0.0204875
,,,-1.48E-06,0.02049375
,,,-1.47E-06,0.02074375
,,,-1.46E-06,0.020839375
,,,-1.45E-06,0.02051875
,,,-1.44E-06,0.020581875
,,,-1.43E-06,0.02068375
,,,-1.42E-06,0.02049625
,,,-1.41E-06,0.020865625
,,,-1.4E-06,0.020421875
,,,-1.39E-06,0.02067125
,,,-1.38E-06,0.020430625
,,,-1.37E-06,0.020554375
,,,-1.36E-06,0.0206625
,,,-1.35E-06,0.020710625
,,,-1.34E-06,0.0208025
,,,-1.33E-06,0.020755625
,,,-1.32E-06,0.020416875
,,,-1.31E-06,0.020805
,,,-1.3E-06,0.020648125
,,,-1.29E-06,0.02045125
,,,-1.28E-06,0.020435625
,,,-1.27E-06,0.020416875
,,,-1.26E-06,0.02065
,,,-1.25E-06,0.020639375
,,,-1.24E-06,0.020808125
,,,-1.23E-06,0.02048625
,,,-1.22E-06,0.0206475
,,,-1.21E-06,0.020674375
,,,-1.2E-06,0.020661875
,,,-1.19E-06,0.02049
,,,-1.18E-06,0.0207375
,,,-1.17E-06,0.020835625
,,,-1.16E-06,0.020335
,,,-1.15E-06,0.02063625
,,,-1.14E-06,0.02090375
,,,-1.13E-06,0.020623125
,,,-1.12E-06,0.020735625
,,,-1.11E-06,0.020850625
,,,-1.1E-06,0.020593125
,,,-1.09E-06,0.02040125
,,,-1.08E-06,0.02074375
,,,-1.07E-06,0.020695625
,,,-1.06E-06,0.020901875
,,,-1.05E-06,0.020655
,,,-1.04E-06,0.020785
,,,-1.03E-06,0.020714375
,,,-1.02E-06,0.020818125
,,,-1.01E-06,0.02051125
,,,-1E-06,0.02073125
,,,-9.9E-07,0.020640625
,,,-9.8E-07,0.020714375
,,,-9.7E-07,0.020619375
,,,-9.6E-07,0.020600625
,,,-9.5E-07,0.02061125
,,,-9.4E-07,0.020760625
,,,-9.3E-07,0.02057375
,,,-9.2E-07,0.020649375
,,,-9.1E-07,0.0207325
,,,-9E-07,0.020535625
,,,-8.9E-07,0.020801875
,,,-8.8E-07,0.0203425
,,,-8.7E-07,0.02067375
,,,-8.6E-07,0.02044125
,,,-8.5E-07,0.0205375
,,,-8.4E-07,0.020694375
,,,-8.3E-07,0.02085125
,,,-8.2E-07,0.02049
,,,-8.1E-07,0.02057625
,,,-8E-07,0.020568125
,,,-7.9E-07,0.02055125
,,,-7.8E-07,0.020458125
,,,-7.7E-07,0.02052
,,,-7.6E-07,0.020704375
,,,-7.5E-07,0.020743125
,,,-7.4E-07,0.020131875
,,,-7.3E-07,0.02060125
,,,-7.2E-07,0.02059375
,,,-7.1E-07,0.020555625
,,,-7E-07,0.02045875
,,,-6.9E-07,0.02032875
,,,-6.8E-07,0.020769375
,,,-6.7E-07,0.020815
,,,-6.6E-07,0.020571875
,,,-6.5E-07,0.020520625
,,,-6.4E-07,0.02086375
,,,-6.3E-07,0.020614375
,,,-6.2E-07,0.020594375
,,,-6.1E-07,0.0206
,,,-6E-07,0.020729375
,,,-5.9E-07,0.020533125
,,,-5.8E-07,0.020788125
,,,-5.7E-07,0.020484375
,,,-5.6E-07,0.0202675
,,,-5.5E-07,0.0203675
,,,-5.4E-07,0.020676875
,,,-5.3E-07,0.02046375
,,,-5.2E-07,0.02074375
,,,-5.1E-07,0.020666875
,,,-5E-07,0.02072625
,,,-4.9E-07,0.02061875
,,,-4.8E-07,0.020914375
,,,-4.7E-07,0.020665
,,,-4.6E-07,0.02054875
,,,-4.5E-07,0.0204475
,,,-4.4E-07,0.02067375
,,,-4.3E-07,0.02052625
,,,-4.2E-07,0.020865
,,,-4.1E-07,0.020370625
,,,-4E-07,0.02034
,,,-3.9E-07,0.0207025
,,,-3.8E-07,0.0208575
,,,-3.7E-07,0.02047875
,,,-3.6E-07,0.02039625
,,,-3.5E-07,0.02067125
,,,-3.4E-07,0.020389375
,,,-3.3E-07,0.020788125
,,,-3.2E-07,0.02073
,,,-3.1E-07,0.020775
,,,-3E-07,0.020655
,,,-2.9E-07,0.020671875
,,,-2.8E-07,0.020465625
,,,-2.7E-07,0.020644375
,,,-2.6E-07,0.02039125
,,,-2.5E-07,0.02079625
,,,-2.4E-07,0.020495
,,,-2.3E-07,0.0207875
,,,-2.2E-07,0.020763125
,,,-2.1E-07,0.02058
,,,-2E-07,0.020255625
,,,-1.9E-07,0.020618125
,,,-1.8E-07,0.020535625
,,,-1.7E-07,0.020549375
,,,-1.6E-07,0.020526875
,,,-1.5E-07,0.020640625
,,,-1.4E-07,0.0209425
,,,-1.3E-07,0.02063875
,,,-1.2E-07,0.02073625
,,,-1.1E-07,0.0206075
,,,-1E-07,0.02042
,,,-9E-08,0.020371875
,,,-8E-08,0.020778125
,,,-7E-08,0.020523125
,,,-6E-08,0.020809375
,,,-5E-08,0.02077375
,,,-4E-08,0.02104375
,,,-3E-08,0.020865625
,,,-2E-08,0.01942375
,,,-1E-08,0.0190875
,,,0,0.021350625
,,,1E-08,0.02256875
,,,2E-08,0.02189125
,,,3E-08,0.020360625
,,,4E-08,0.0189825
,,,5E-08,0.02011625
,,,6E-08,0.02084125
,,,7E-08,0.02112375
,,,8E-08,0.020864375
,,,9E-08,0.020970625
,,,1E-07,0.020696875
,,,1.1E-07,0.0202075
,,,1.2E-07,0.020158125
,,,1.3E-07,0.020591875
,,,1.4E-07,0.02106375
,,,1.5E-07,0.020868125
,,,1.6E-07,0.020465625
,,,1.7E-07,0.0204325
,,,1.8E-07,0.02059875
,,,1.9E-07,0.02063375
,,,2E-07,0.02091375
,,,2.1E-07,0.02054875
,,,2.2E-07,0.02067
,,,2.3E-07,0.020871875
,,,2.4E-07,0.0205125
,,,2.5E-07,0.020325
,,,2.6E-07,0.02045375
,,,2.7E-07,0.02088
,,,2.8E-07,0.0207375
,,,2.9E-07,0.02046625
,,,3E-07,0.020685
,,,3.1E-07,0.020609375
,,,3.2E-07,0.02069375
,,,3.3E-07,0.020674375
,,,3.4E-07,0.020421875
,,,3.5E-07,0.020581875
,,,3.6E-07,0.020478125
,,,3.7E-07,0.020573125
,,,3.8E-07,0.020741875
,,,3.9E-07,0.02055125
,,,4E-07,0.02066125
,,,4.1E-07,0.020739375
,,,4.2E-07,0.02061625
,,,4.3E-07,0.02047875
,,,4.4E-07,0.02071
,,,4.5E-07,0.0208825
,,,4.6E-07,0.020765
,,,4.7E-07,0.020653125
,,,4.8E-07,0.02063875
,,,4.9E-07,0.02031625
,,,5E-07,0.020719375
,,,5.1E-07,0.0209
,,,5.2E-07,0.020735
,,,5.3E-07,0.020480625
,,,5.4E-07,0.020755
,,,5.5E-07,0.02047375
,,,5.6E-07,0.02064875
,,,5.7E-07,0.020610625
,,,5.8E-07,0.0206575
,,,5.9E-07,0.020669375
,,,6E-07,0.02051125
,,,6.1E-07,0.02057375
,,,6.2E-07,0.020675625
,,,6.3E-07,0.020514375
,,,6.4E-07,0.020660625
,,,6.5E-07,0.020556875
,,,6.6E-07,0.02082125
,,,6.7E-07,0.0206225
,,,6.8E-07,0.02071875
,,,6.9E-07,0.0208825
,,,7E-07,0.02074875
,,,7.1E-07,0.02070125
,,,7.2E-07,0.020623125
,,,7.3E-07,0.020630625
,,,7.4E-07,0.020756875
,,,7.5E-07,0.020778125
,,,7.6E-07,0.0203225
,,,7.7E-07,0.02066125
,,,7.8E-07,0.020555
,,,7.9E-07,0.0202575
,,,8E-07,0.020633125
,,,8.1E-07,0.020669375
,,,8.2E-07,0.020646875
,,,8.3E-07,0.020614375
,,,8.4E-07,0.020495625
,,,8.5E-07,0.02060125
,,,8.6E-07,0.02052375
,,,8.7E-07,0.02043
,,,8.8E-07,0.02045875
,,,8.9E-07,0.020755625
,,,9E-07,0.020703125
,,,9.1E-07,0.0206275
,,,9.2E-07,0.02054125
,,,9.3E-07,0.0207025
,,,9.4E-07,0.020523125
,,,9.5E-07,0.020449375
,,,9.6E-07,0.020646875
,,,9.7E-07,0.02068625
,,,9.8E-07,0.020875
,,,9.9E-07,0.020618125
,,,1E-06,0.02064125
,,,1.01E-06,0.020529375
,,,1.02E-06,0.020659375
,,,1.03E-06,0.020670625
,,,1.04E-06,0.0205375
,,,1.05E-06,0.020611875
,,,1.06E-06,0.02072
,,,1.07E-06,0.02094625
,,,1.08E-06,0.0205375
,,,1.09E-06,0.02068625
,,,1.1E-06,0.02075875
,,,1.11E-06,0.02058375
,,,1.12E-06,0.020769375
,,,1.13E-06,0.020526875
,,,1.14E-06,0.02060625
,,,1.15E-06,0.02056125
,,,1.16E-06,0.02063125
,,,1.17E-06,0.020505625
,,,1.18E-06,0.020726875
,,,1.19E-06,0.020725
,,,1.2E-06,0.020760625
,,,1.21E-06,0.02067875
,,,1.22E-06,0.020788125
,,,1.23E-06,0.0206975
,,,1.24E-06,0.020706875
,,,1.25E-06,0.02077875
,,,1.26E-06,0.02052125
,,,1.27E-06,0.02032875
,,,1.28E-06,0.0204925
,,,1.29E-06,0.020383125
,,,1.3E-06,0.020765
,,,1.31E-06,0.020585
,,,1.32E-06,0.02068625
,,,1.33E-06,0.0208175
,,,1.34E-06,0.02069375
,,,1.35E-06,0.02077875
,,,1.36E-06,0.020629375
,,,1.37E-06,0.020513125
,,,1.38E-06,0.02075375
,,,1.39E-06,0.0204925
,,,1.4E-06,0.02042375
,,,1.41E-06,0.020694375
,,,1.42E-06,0.020736875
,,,1.43E-06,0.020399375
,,,1.44E-06,0.020404375
,,,1.45E-06,0.02059375
,,,1.46E-06,0.0204375
,,,1.47E-06,0.020616875
,,,1.48E-06,0.02086625
,,,1.49E-06,0.0207175
,,,1.5E-06,0.020683125
,,,1.51E-06,0.02076125
,,,1.52E-06,0.020431875
,,,1.53E-06,0.02064
,,,1.54E-06,0.02066875
,,,1.55E-06,0.02043375
,,,1.56E-06,0.02073625
,,,1.57E-06,0.02071
,,,1.58E-06,0.02095375
,,,1.59E-06,0.020709375
,,,1.6E-06,0.020561875
,,,1.61E-06,0.02056375
,,,1.62E-06,0.020704375
,,,1.63E-06,0.02068875
,,,1.64E-06,0.020955
,,,1.65E-06,0.020430625
,,,1.66E-06,0.02058375
,,,1.67E-06,0.0205225
,,,1.68E-06,0.02059
,,,1.69E-06,0.02054
,,,1.7E-06,0.0207325
,,,1.71E-06,0.0207975
,,,1.72E-06,0.020486875
,,,1.73E-06,0.0205775
,,,1.74E-06,0.02065
,,,1.75E-06,0.02066
,,,1.76E-06,0.020639375
,,,1.77E-06,0.020520625
,,,1.78E-06,0.02071625
,,,1.79E-06,0.02062875
,,,1.8E-06,0.02065
,,,1.81E-06,0.0205675
,,,1.82E-06,0.020643125
,,,1.83E-06,0.020653125
,,,1.84E-06,0.02029625
,,,1.85E-06,0.020559375
,,,1.86E-06,0.020778125
,,,1.87E-06,0.020505
,,,1.88E-06,0.02059875
,,,1.89E-06,0.020724375
,,,1.9E-06,0.02047
,,,1.91E-06,0.0207075
,,,1.92E-06,0.020409375
,,,1.93E-06,0.020809375
,,,1.94E-06,0.020875
,,,1.95E-06,0.0207425
,,,1.96E-06,0.020695625
,,,1.97E-06,0.0204625
,,,1.98E-06,0.020529375
,,,1.99E-06,0.0204675
,,,2E-06,0.0207325
,,,2.01E-06,0.020524375
,,,2.02E-06,0.0206875
,,,2.03E-06,0.02027375
,,,2.04E-06,0.02041375
,,,2.05E-06,0.02055375
,,,2.06E-06,0.020753125
,,,2.07E-06,0.020699375
,,,2.08E-06,0.020450625
,,,2.09E-06,0.020548125
,,,2.1E-06,0.02065375
,,,2.11E-06,0.02065375
,,,2.12E-06,0.02057625
,,,2.13E-06,0.0205825
,,,2.14E-06,0.020666875
,,,2.15E-06,0.02065625
,,,2.16E-06,0.0206525
,,,2.17E-06,0.020539375
,,,2.18E-06,0.020533125
,,,2.19E-06,0.0208475
,,,2.2E-06,0.020669375
,,,2.21E-06,0.020564375
,,,2.22E-06,0.020645625
,,,2.23E-06,0.02054
,,,2.24E-06,0.02057625
,,,2.25E-06,0.020571875
,,,2.26E-06,0.02075375
,,,2.27E-06,0.020769375
,,,2.28E-06,0.020581875
,,,2.29E-06,0.020511875
,,,2.3E-06,0.02084375
,,,2.31E-06,0.020594375
,,,2.32E-06,0.0206325
,,,2.33E-06,0.020775
,,,2.34E-06,0.020950625
,,,2.35E-06,0.02068125
,,,2.36E-06,0.020709375
,,,2.37E-06,0.020590625
,,,2.38E-06,0.020784375
,,,2.39E-06,0.0203675
,,,2.4E-06,0.020459375
,,,2.41E-06,0.020725
,,,2.42E-06,0.02049875
,,,2.43E-06,0.02059875
,,,2.44E-06,0.020788125
,,,2.45E-06,0.0206275
,,,2.46E-06,0.02068625
,,,2.47E-06,0.020813125
,,,2.48E-06,0.0206225
,,,2.49E-06,0.020659375
,,,2.5E-06,0.020425625
,,,2.51E-06,0.02040375
,,,2.52E-06,0.0207375
,,,2.53E-06,0.02010875
,,,2.54E-06,0.02076
,,,2.55E-06,0.020750625
,,,2.56E-06,0.020735625
,,,2.57E-06,0.02065375
,,,2.58E-06,0.020755
,,,2.59E-06,0.02065
,,,2.6E-06,0.020664375
,,,2.61E-06,0.020413125
,,,2.62E-06,0.020624375
,,,2.63E-06,0.02066
,,,2.64E-06,0.02069375
,,,2.65E-06,0.02049125
,,,2.66E-06,0.02063375
,,,2.67E-06,0.020724375
,,,2.68E-06,0.020514375
,,,2.69E-06,0.020729375
,,,2.7E-06,0.020605625
,,,2.71E-06,0.02085
,,,2.72E-06,0.02068875
,,,2.73E-06,0.02059
,,,2.74E-06,0.02045125
,,,2.75E-06,0.0203825
,,,2.76E-06,0.020456875
,,,2.77E-06,0.020515
,,,2.78E-06,0.02033375
,,,2.79E-06,0.020708125
,,,2.8E-06,0.02057125
,,,2.81E-06,0.020500625
,,,2.82E-06,0.020915
,,,2.83E-06,0.020655
,,,2.84E-06,0.020643125
,,,2.85E-06,0.020621875
,,,2.86E-06,0.020744375
,,,2.87E-06,0.02053875
,,,2.88E-06,0.020585
,,,2.89E-06,0.020650625
,,,2.9E-06,0.02062625
,,,2.91E-06,0.020781875
,,,2.92E-06,0.0206675
,,,2.93E-06,0.020619375
,,,2.94E-06,0.020689375
,,,2.95E-06,0.020866875
,,,2.96E-06,0.020316875
,,,2.97E-06,0.020681875
,,,2.98E-06,0.020615
,,,2.99E-06,0.020488125
,,,3E-06,0.020686875
,,,3.01E-06,0.02054875
,,,3.02E-06,0.020443125
,,,3.03E-06,0.020754375
,,,3.04E-06,0.020304375
,,,3.05E-06,0.02046375
,,,3.06E-06,0.020783125
,,,3.07E-06,0.020489375
,,,3.08E-06,0.020551875
,,,3.09E-06,0.020548125
,,,3.1E-06,0.0206975
,,,3.11E-06,0.02073125
,,,3.12E-06,0.020608125
,,,3.13E-06,0.02074625
,,,3.14E-06,0.02058375
,,,3.15E-06,0.02044625
,,,3.16E-06,0.02061
,,,3.17E-06,0.020555
,,,3.18E-06,0.020520625
,,,3.19E-06,0.020845625
,,,3.2E-06,0.020601875
,,,3.21E-06,0.02057
,,,3.22E-06,0.02078
,,,3.23E-06,0.020636875
,,,3.24E-06,0.020705625
,,,3.25E-06,0.020690625
,,,3.26E-06,0.020533125
,,,3.27E-06,0.02061375
,,,3.28E-06,0.020761875
,,,3.29E-06,0.0206725
,,,3.3E-06,0.020609375
,,,3.31E-06,0.02049375
,,,3.32E-06,0.020735625
,,,3.33E-06,0.0207025
,,,3.34E-06,0.020918125
,,,3.35E-06,0.020526875
,,,3.36E-06,0.020805625
,,,3.37E-06,0.020523125
,,,3.38E-06,0.02076375
,,,3.39E-06,0.02052
,,,3.4E-06,0.020724375
,,,3.41E-06,0.020485625
,,,3.42E-06,0.020631875
,,,3.43E-06,0.02045875
,,,3.44E-06,0.020715625
,,,3.45E-06,0.020611875
,,,3.46E-06,0.020774375
,,,3.47E-06,0.020685
,,,3.48E-06,0.020475625
,,,3.49E-06,0.02061
,,,3.5E-06,0.02058
,,,3.51E-06,0.020526875
,,,3.52E-06,0.020463125
,,,3.53E-06,0.020563125
,,,3.54E-06,0.020795625
,,,3.55E-06,0.020715
,,,3.56E-06,0.020559375
,,,3.57E-06,0.020751875
,,,3.58E-06,0.02047875
,,,3.59E-06,0.020626875
