data/raw/Final_POL_Test_1/SOP095_Ch2.csv

"Record Length",1000,"Points",-5E-06,0.019560625
"Sample Interval",1E-08,s,-4.99E-06,0.01949125
"Trigger Point",500,"Samples",-4.98E-06,0.0194225
"Trigger Time",0,s,-4.97E-06,0.019443125
"",,,-4.96E-06,0.0196675
"Horizontal Offset",-5E-06,s,-4.95E-06,0.01963875
,,,-4.94E-06,0.019471875
,,,-4.93E-06,0.019685625
,,,-4.92E-06,0.019628125
,,,-4.91E-06,0.019450625
,,,-4.9E-06,0.01973625
,,,-4.89E-06,0.01971875
,,,-4.88E-06,0.01960875
,,,-4.87E-06,0.019724375
,,,-4.86E-06,0.0196175
,,,-4.85E-06,0.0195225
,,,-4.84E-06,0.019709375
,,,-4.83E-06,0.01963625
,,,-4.82E-06,0.01971125
,,,-4.81E-06,0.01968125
,,,-4.8E-06,0.019660625
,,,-4.79E-06,0.019786875
,,,-4.78E-06,0.01945625
,,,-4.77E-06,0.019465
,,,-4.76E-06,0.0196325
,,,-4.75E-06,0.019745625
,,,-4.74E-06,0.01976625
,,,-4.73E-06,0.01957625
,,,-4.72E-06,0.0194275
,,,-4.71E-06,0.01971125
,,,-4.7E-06,0.019605
,,,-4.69E-06,0.019544375
,,,-4.68E-06,0.0195375
,,,-4.67E-06,0.019548125
,,,-4.66E-06,0.01967875
,,,-4.65E-06,0.019456875
,,,-4.64E-06,0.019511875
,,,-4.63E-06,0.01960625
,,,-4.62E-06,0.019624375
,,,-4.61E-06,0.01948875
,,,-4.6E-06,0.01975625
,,,-4.59E-06,0.019591875
,,,-4.58E-06,0.0198125
,,,-4.57E-06,0.01953375
,,,-4.56E-06,0.019580625
,,,-4.55E-06,0.01997875
,,,-4.54E-06,0.01968125
,,,-4.53E-06,0.01958
,,,-4.52E-06,0.019780625
,,,-4.51E-06,0.01982
,,,-4.5E-06,0.0195275
,,,-4.49E-06,0.019713125
,,,-4.48E-06,0.019415625
,,,-4.47E-06,0.019906875
,,,-4.46E-06,0.019503125
,,,-4.45E-06,0.01972125
,,,-4.44E-06,0.019595
,,,-4.43E-06,0.01959875
,,,-4.42E-06,0.019676875
,,,-4.41E-06,0.019463125
,,,-4.4E-06,0.019884375
,,,-4.39E-06,0.019831875
,,,-4.38E-06,0.019343125
,,,-4.37E-06,0.01959875
,,,-4.36E-06,0.01945125
,,,-4.35E-06,0.019640625
,,,-4.34E-06,0.01981375
,,,-4.33E-06,0.019790625
,,,-4.32E-06,0.019860625
,,,-4.31E-06,0.01953625
,,,-4.3E-06,0.019305
,,,-4.29E-06,0.019674375
,,,-4.28E-06,0.019875
,,,-4.27E-06,0.019505
,,,-4.26E-06,0.019475625
,,,-4.25E-06,0.019604375
,,,-4.24E-06,0.019490625
,,,-4.23E-06,0.019689375
,,,-4.22E-06,0.01967375
,,,-4.21E-06,0.0198025
,,,-4.2E-06,0.0196125
,,,-4.19E-06,0.019598125
,,,-4.18E-06,0.0196075
,,,-4.17E-06,0.01972125
,,,-4.16E-06,0.019555625
,,,-4.15E-06,0.019798125
,,,-4.14E-06,0.019583125
,,,-4.13E-06,0.019633125
,,,-4.12E-06,0.019935625
,,,-4.11E-06,0.01983125
,,,-4.1E-06,0.01960125
,,,-4.09E-06,0.019521875
,,,-4.08E-06,0.019774375
,,,-4.07E-06,0.019765625
,,,-4.06E-06,0.019616875
,,,-4.05E-06,0.019841875
,,,-4.04E-06,0.019975625
,,,-4.03E-06,0.019614375
,,,-4.02E-06,0.019484375
,,,-4.01E-06,0.019715
,,,-4E-06,0.019678125
,,,-3.99E-06,0.019736875
,,,-3.98E-06,0.019685625
,,,-3.97E-06,0.019653125
,,,-3.96E-06,0.019680625
,,,-3.95E-06,0.019721875
,,,-3.94E-06,0.01933
,,,-3.93E-06,0.019659375
,,,-3.92E-06,0.019486875
,,,-3.91E-06,0.01969125
,,,-3.9E-06,0.019695
,,,-3.89E-06,0.0197275
,,,-3.88E-06,0.019586875
,,,-3.87E-06,0.01982875
,,,-3.86E-06,0.019558125
,,,-3.85E-06,0.01939
,,,-3.84E-06,0.01974625
,,,-3.83E-06,0.0198825
,,,-3.82E-06,0.01974875
,,,-3.81E-06,0.0197675
,,,-3.8E-06,0.019763125
,,,-3.79E-06,0.01972125
,,,-3.78E-06,0.01945875
,,,-3.77E-06,0.019564375
,,,-3.76E-06,0.019625625
,,,-3.75E-06,0.019649375
,,,-3.74E-06,0.019736875
,,,-3.73E-06,0.019638125
,,,-3.72E-06,0.01969625
,,,-3.71E-06,0.019573125
,,,-3.7E-06,0.019399375
,,,-3.69E-06,0.01982875
,,,-3.68E-06,0.01936375
,,,-3.67E-06,0.01958
,,,-3.66E-06,0.01978875
,,,-3.65E-06,0.01956
,,,-3.64E-06,0.019573125
,,,-3.63E-06,0.0197475
,,,-3.62E-06,0.019644375
,,,-3.61E-06,0.0197525
,,,-3.6E-06,0.019970625
,,,-3.59E-06,0.019721875
,,,-3.58E-06,0.019719375
,,,-3.57E-06,0.019764375
,,,-3.56E-06,0.019635
,,,-3.55E-06,0.01974875
,,,-3.54E-06,0.019426875
,,,-3.53E-06,0.019655625
,,,-3.52E-06,0.019765
,,,-3.51E-06,0.019675625
,,,-3.5E-06,0.019608125
,,,-3.49E-06,0.019881875
,,,-3.48E-06,0.0197375
,,,-3.47E-06,0.01946625
,,,-3.46E-06,0.019550625
,,,-3.45E-06,0.01954625
,,,-3.44E-06,0.019791875
,,,-3.43E-06,0.019616875
,,,-3.42E-06,0.0198325
,,,-3.41E-06,0.01973625
,,,-3.4E-06,0.0196625
,,,-3.39E-06,0.019740625
,,,-3.38E-06,0.019638125
,,,-3.37E-06,0.019470625
,,,-3.36E-06,0.019515625
,,,-3.35E-06,0.01965125
,,,-3.34E-06,0.019694375
,,,-3.33E-06,0.019605
,,,-3.32E-06,0.01946875
,,,-3.31E-06,0.019725
,,,-3.3E-06,0.019419375
,,,-3.29E-06,0.019453125
,,,-3.28E-06,0.019524375
,,,-3.27E-06,0.019251875
,,,-3.26E-06,0.01971
,,,-3.25E-06,0.019710625
,,,-3.24E-06,0.019635
,,,-3.23E-06,0.01965
,,,-3.22E-06,0.0196375
,,,-3.21E-06,0.019485625
,,,-3.2E-06,0.0195675
,,,-3.19E-06,0.0195475
,,,-3.18E-06,0.019634375
,,,-3.17E-06,0.01972875
,,,-3.16E-06,0.01944875
,,,-3.15E-06,0.019678125
,,,-3.14E-06,0.019465
,,,-3.13E-06,0.019625
,,,-3.12E-06,0.01964125
,,,-3.11E-06,0.019533125
,,,-3.1E-06,0.01956375
,,,-3.09E-06,0.01994
,,,-3.08E-06,0.019606875
,,,-3.07E-06,0.0197775
,,,-3.06E-06,0.019505
,,,-3.05E-06,0.01948875
,,,-3.04E-06,0.019543125
,,,-3.03E-06,0.01957375
,,,-3.02E-06,0.0195475
,,,-3.01E-06,0.01965
,,,-3E-06,0.01950625
,,,-2.99E-06,0.01981
,,,-2.98E-06,0.019888125
,,,-2.97E-06,0.019694375
,,,-2.96E-06,0.019745625
,,,-2.95E-06,0.01959875
,,,-2.94E-06,0.01945875
,,,-2.93E-06,0.0196625
,,,-2.92E-06,0.0197825
,,,-2.91E-06,0.019748125
,,,-2.9E-06,0.019716875
,,,-2.89E-06,0.019835
,,,-2.88E-06,0.0196075
,,,-2.87E-06,0.01974625
,,,-2.86E-06,0.019853125
,,,-2.85E-06,0.019685
,,,-2.84E-06,0.01975375
,,,-2.83E-06,0.019836875
,,,-2.82E-06,0.0195275
,,,-2.81E-06,0.01980125
,,,-2.8E-06,0.01968375
,,,-2.79E-06,0.019638125
,,,-2.78E-06,0.019618125
,,,-2.77E-06,0.0195625
,,,-2.76E-06,0.019615625
,,,-2.75E-06,0.01963875
,,,-2.74E-06,0.019768125
,,,-2.73E-06,0.019700625
,,,-2.72E-06,0.01967
,,,-2.71E-06,0.01945375
,,,-2.7E-06,0.019756875
,,,-2.69E-06,0.019388125
,,,-2.68E-06,0.0195075
,,,-2.67E-06,0.019591875
,,,-2.66E-06,0.019763125
,,,-2.65E-06,0.019680625
,,,-2.64E-06,0.019714375
,,,-2.63E-06,0.019359375
,,,-2.62E-06,0.01952
,,,-2.61E-06,0.01967125
,,,-2.6E-06,0.019638125
,,,-2.59E-06,0.019499375
,,,-2.58E-06,0.01982625
,,,-2.57E-06,0.0199125
,,,-2.56E-06,0.0195125
,,,-2.55E-06,0.019555625
,,,-2.54E-06,0.0192925
,,,-2.53E-06,0.019653125
,,,-2.52E-06,0.019699375
,,,-2.51E-06,0.019775625
,,,-2.5E-06,0.019693125
,,,-2.49E-06,0.019595625
,,,-2.48E-06,0.0194075
,,,-2.47E-06,0.019636875
,,,-2.46E-06,0.0195975
,,,-2.45E-06,0.01965125
,,,-2.44E-06,0.019525625
,,,-2.43E-06,0.019605
,,,-2.42E-06,0.019701875
,,,-2.41E-06,0.019621875
,,,-2.4E-06,0.01976
,,,-2.39E-06,0.01936875
,,,-2.38E-06,0.019644375
,,,-2.37E-06,0.01973375
,,,-2.36E-06,0.0197525
,,,-2.35E-06,0.0197025
,,,-2.34E-06,0.0198375
,,,-2.33E-06,0.01971
,,,-2.32E-06,0.019815
,,,-2.31E-06,0.019624375
,,,-2.3E-06,0.0195075
,,,-2.29E-06,0.01958625
,,,-2.28E-06,0.01960875
,,,-2.27E-06,0.019446875
,,,-2.26E-06,0.019589375
,,,-2.25E-06,0.01972125
,,,-2.24E-06,0.0196
,,,-2.23E-06,0.019674375
,,,-2.22E-06,0.01976125
,,,-2.21E-06,0.01951625
,,,-2.2E-06,0.019524375
,,,-2.19E-06,0.019641875
,,,-2.18E-06,0.019595
,,,-2.17E-06,0.0197175
,,,-2.16E-06,0.019838125
,,,-2.15E-06,0.01965375
,,,-2.14E-06,0.019420625
,,,-2.13E-06,0.019585
,,,-2.12E-06,0.01990875
,,,-2.11E-06,0.019611875
,,,-2.1E-06,0.019439375
,,,-2.09E-06,0.01977875
,,,-2.08E-06,0.019770625
,,,-2.07E-06,0.019935625
,,,-2.06E-06,0.019703125
,,,-2.05E-06,0.019611875
,,,-2.04E-06,0.01976125
,,,-2.03E-06,0.019795
,,,-2.02E-06,0.019464375
,,,-2.01E-06,0.019688125
,,,-2E-06,0.019484375
,,,-1.99E-06,0.019796875
,,,-1.98E-06,0.019629375
,,,-1.97E-06,0.019935
,,,-1.96E-06,0.01953375
,,,-1.95E-06,0.019634375
,,,-1.94E-06,0.019591875
,,,-1.93E-06,0.019606875
,,,-1.92E-06,0.01979375
,,,-1.91E-06,0.01994
,,,-1.9E-06,0.0196425
,,,-1.89E-06,0.01957125
,,,-1.88E-06,0.01965375
,,,-1.87E-06,0.019556875
,,,-1.86E-06,0.01978
,,,-1.85E-06,0.019646875
,,,-1.84E-06,0.01970875
,,,-1.83E-06,0.019620625
,,,-1.82E-06,0.01975625
,,,-1.81E-06,0.019751875
,,,-1.8E-06,0.0196875
,,,-1.79E-06,0.01975875
,,,-1.78E-06,0.019768125
,,,-1.77E-06,0.01937
,,,-1.76E-06,0.0197625
,,,-1.75E-06,0.01974125
,,,-1.74E-06,0.019693125
,,,-1.73E-06,0.01945625
,,,-1.72E-06,0.019385625
,,,-1.71E-06,0.019456875
,,,-1.7E-06,0.019950625
,,,-1.69E-06,0.0197525
,,,-1.68E-06,0.0198375
,,,-1.67E-06,0.019633125
,,,-1.66E-06,0.019588125
,,,-1.65E-06,0.01940375
,,,-1.64E-06,0.019714375
,,,-1.63E-06,0.019719375
,,,-1.62E-06,0.019715
,,,-1.61E-06,0.01956375
,,,-1.6E-06,0.019566875
,,,-1.59E-06,0.0195475
,,,-1.58E-06,0.01992
,,,-1.57E-06,0.01964375
,,,-1.56E-06,0.019446875
,,,-1.55E-06,0.0195425
,,,-1.54E-06,0.019561875
,,,-1.53E-06,0.019554375
,,,-1.52E-06,0.019856875
,,,-1.51E-06,0.019796875
,,,-1.5E-06,0.01984125
,,,-1.49E-06,0.019525
,,,-1.48E-06,0.019703125
,,,-1.47E-06,0.019534375
,,,-1.46E-06,0.019624375
,,,-1.45E-06,0.019228125
,,,-1.44E-06,0.01965
,,,-1.43E-06,0.0196375
,,,-1.42E-06,0.019765
,,,-1.41E-06,0.019801875
,,,-1.4E-06,0.019763125
,,,-1.39E-06,0.01961875
,,,-1.38E-06,0.019666875
,,,-1.37E-06,0.019406875
,,,-1.36E-06,0.019431875
,,,-1.35E-06,0.019723125
,,,-1.34E-06,0.0195675
,,,-1.33E-06,0.019465625
,,,-1.32E-06,0.01974625
,,,-1.31E-06,0.0196525
,,,-1.3E-06,0.019605625
,,,-1.29E-06,0.01948125
,,,-1.28E-06,0.019685
,,,-1.27E-06,0.0195775
,,,-1.26E-06,0.01971625
,,,-1.25E-06,0.0194975
,,,-1.24E-06,0.019668125
,,,-1.23E-06,0.0195775
,,,-1.22E-06,0.019576875
,,,-1.21E-06,0.019690625
,,,-1.2E-06,0.019745
,,,-1.19E-06,0.019560625
,,,-1.18E-06,0.019616875
,,,-1.17E-06,0.019565625
,,,-1.16E-06,0.019696875
,,,-1.15E-06,0.019701875
,,,-1.14E-06,0.019864375
,,,-1.13E-06,0.0195075
,,,-1.12E-06,0.01968125
,,,-1.11E-06,0.01968875
,,,-1.1E-06,0.019965
,,,-1.09E-06,0.019803125
,,,-1.08E-06,0.01978125
,,,-1.07E-06,0.01980625
,,,-1.06E-06,0.019389375
,,,-1.05E-06,0.019536875
,,,-1.04E-06,0.01972
,,,-1.03E-06,0.01944
,,,-1.02E-06,0.019550625
,,,-1.01E-06,0.019709375
,,,-1E-06,0.019488125
,,,-9.9E-07,0.0196525
,,,-9.8E-07,0.01957875
,,,-9.7E-07,0.01951875
,,,-9.6E-07,0.019551875
,,,-9.5E-07,0.0195625
,,,-9.4E-07,0.019614375
,,,-9.3E-07,0.01986625
,,,-9.2E-07,0.019825625
,,,-9.1E-07,0.019766875
,,,-9E-07,0.019554375
,,,-8.9E-07,0.019681875
,,,-8.8E-07,0.0196725
,,,-8.7E-07,0.019536875
,,,-8.6E-07,0.019839375
,,,-8.5E-07,0.0197825
,,,-8.4E-07,0.01952375
,,,-8.3E-07,0.019586875
,,,-8.2E-07,0.019690625
,,,-8.1E-07,0.01946875
,,,-8E-07,0.019686875
,,,-7.9E-07,0.0195725
,,,-7.8E-07,0.019785
,,,-7.7E-07,0.019484375
,,,-7.6E-07,0.019680625
,,,-7.5E-07,0.019555625
,,,-7.4E-07,0.019656875
,,,-7.3E-07,0.019583125
,,,-7.2E-07,0.019655
,,,-7.1E-07,0.019571875
,,,-7E-07,0.019725625
,,,-6.9E-07,0.019488125
,,,-6.8E-07,0.01986875
,,,-6.7E-07,0.01978875
,,,-6.6E-07,0.019655625
,,,-6.5E-07,0.019718125
,,,-6.4E-07,0.019494375
,,,-6.3E-07,0.019755
,,,-6.2E-07,0.019513125
,,,-6.1E-07,0.019713125
,,,-6E-07,0.019795
,,,-5.9E-07,0.01991
,,,-5.8E-07,0.019430625
,,,-5.7E-07,0.019739375
,,,-5.6E-07,0.019798125
,,,-5.5E-07,0.019686875
,,,-5.4E-07,0.019964375
,,,-5.3E-07,0.0198625
,,,-5.2E-07,0.01973375
,,,-5.1E-07,0.019830625
,,,-5E-07,0.0197325
,,,-4.9E-07,0.019485625
,,,-4.8E-07,0.01951875
,,,-4.7E-07,0.019665625
,,,-4.6E-07,0.019420625
,,,-4.5E-07,0.019733125
,,,-4.4E-07,0.0197475
,,,-4.3E-07,0.01966875
,,,-4.2E-07,0.019821875
,,,-4.1E-07,0.019420625
,,,-4E-07,0.019384375
,,,-3.9E-07,0.019863125
,,,-3.8E-07,0.0195375
,,,-3.7E-07,0.019695625
,,,-3.6E-07,0.0197925
,,,-3.5E-07,0.019611875
,,,-3.4E-07,0.01955625
,,,-3.3E-07,0.019868125
,,,-3.2E-07,0.01988625
,,,-3.1E-07,0.019760625
,,,-3E-07,0.019650625
,,,-2.9E-07,0.019685
,,,-2.8E-07,0.0198225
,,,-2.7E-07,0.01985
,,,-2.6E-07,0.019655625
,,,-2.5E-07,0.0196375
,,,-2.4E-07,0.01959125
,,,-2.3E-07,0.01961
,,,-2.2E-07,0.01995375
,,,-2.1E-07,0.019363125
,,,-2E-07,0.0194925
,,,-1.9E-07,0.019615625
,,,-1.8E-07,0.01954625
,,,-1.7E-07,0.019686875
,,,-1.6E-07,0.019555
,,,-1.5E-07,0.019680625
,,,-1.4E-07,0.01982
,,,-1.3E-07,0.019645
,,,-1.2E-07,0.019711875
,,,-1.1E-07,0.019835625
,,,-1E-07,0.019556875
,,,-9E-08,0.01968625
,,,-8E-08,0.0195925
,,,-7E-08,0.019805625
,,,-6E-08,0.01946
,,,-5E-08,0.020095
,,,-4E-08,0.020563125
,,,-3E-08,0.020733125
,,,-2E-08,0.01835625
,,,-1E-08,0.016219999
,,,0,0.016640624
,,,1E-08,0.0215925
,,,2E-08,0.023363125
,,,3E-08,0.023218125
,,,4E-08,0.019355625
,,,5E-08,0.0169
,,,6E-08,0.016434374
,,,7E-08,0.0184525
,,,8E-08,0.02036625
,,,9E-08,0.02166
,,,1E-07,0.021434375
,,,1.1E-07,0.020075625
,,,1.2E-07,0.018696875
,,,1.3E-07,0.018031875
,,,1.4E-07,0.018829375
,,,1.5E-07,0.0198375
,,,1.6E-07,0.02038
,,,1.7E-07,0.019755
,,,1.8E-07,0.01956625
,,,1.9E-07,0.019395625
,,,2E-07,0.019750625
,,,2.1E-07,0.019245
,,,2.2E-07,0.019464375
,,,2.3E-07,0.0193875
,,,2.4E-07,0.0197625
,,,2.5E-07,0.019525625
,,,2.6E-07,0.01959875
,,,2.7E-07,0.019574375
,,,2.8E-07,0.019671875
,,,2.9E-07,0.01976375
,,,3E-07,0.019545625
,,,3.1E-07,0.019569375
,,,3.2E-07,0.019723125
,,,3.3E-07,0.01972125
,,,3.4E-07,0.01973375
,,,3.5E-07,0.01932125
,,,3.6E-07,0.019604375
,,,3.7E-07,0.0195175
,,,3.8E-07,0.019645
,,,3.9E-07,0.01972
,,,4E-07,0.01964125
,,,4.1E-07,0.01991875
,,,4.2E-07,0.0198075
,,,4.3E-07,0.01969
,,,4.4E-07,0.0196375
,,,4.5E-07,0.01937375
,,,4.6E-07,0.019579375
,,,4.7E-07,0.01944625
,,,4.8E-07,0.019845625
,,,4.9E-07,0.019808125
,,,5E-07,0.01950375
,,,5.1E-07,0.019730625
,,,5.2E-07,0.01971
,,,5.3E-07,0.019418125
,,,5.4E-07,0.01940375
,,,5.5E-07,0.01973125
,,,5.6E-07,0.019459375
,,,5.7E-07,0.0196875
,,,5.8E-07,0.019765
,,,5.9E-07,0.019974375
,,,6E-07,0.0197625
,,,6.1E-07,0.019441875
,,,6.2E-07,0.01971375
,,,6.3E-07,0.019408125
,,,6.4E-07,0.01989375
,,,6.5E-07,0.019910625
,,,6.6E-07,0.01995375
,,,6.7E-07,0.019614375
,,,6.8E-07,0.019523125
,,,6.9E-07,0.019613125
,,,7E-07,0.01947
,,,7.1E-07,0.019859375
,,,7.2E-07,0.0195375
,,,7.3E-07,0.019780625
,,,7.4E-07,0.019645625
,,,7.5E-07,0.01946375
,,,7.6E-07,0.019800625
,,,7.7E-07,0.019515
,,,7.8E-07,0.019669375
,,,7.9E-07,0.01956375
,,,8E-07,0.01971625
,,,8.1E-07,0.01949
,,,8.2E-07,0.019536875
,,,8.3E-07,0.01957
,,,8.4E-07,0.0197525
,,,8.5E-07,0.019754375
,,,8.6E-07,0.01974875
,,,8.7E-07,0.01938625
,,,8.8E-07,0.019850625
,,,8.9E-07,0.01966625
,,,9E-07,0.019745625
,,,9.1E-07,0.01954375
,,,9.2E-07,0.01942375
,,,9.3E-07,0.01977
,,,9.4E-07,0.019620625
,,,9.5E-07,0.019518125
,,,9.6E-07,0.0196675
,,,9.7E-07,0.01947875
,,,9.8E-07,0.0197625
,,,9.9E-07,0.019775
,,,1E-06,0.019903125
,,,1.01E-06,0.019565625
,,,1.02E-06,0.01960875
,,,1.03E-06,0.019624375
,,,1.04E-06,0.019485
,,,1.05E-06,0.019765625
,,,1.06E-06,0.02011
,,,1.07E-06,0.019681875
,,,1.08E-06,0.019785625
,,,1.09E-06,0.019578125
,,,1.1E-06,0.01995
,,,1.11E-06,0.019806875
,,,1.12E-06,0.019724375
,,,1.13E-06,0.019920625
,,,1.14E-06,0.01977125
,,,1.15E-06,0.0197675
,,,1.16E-06,0.019649375
,,,1.17E-06,0.01975375
,,,1.18E-06,0.01954125
,,,1.19E-06,0.019549375
,,,1.2E-06,0.019333125
,,,1.21E-06,0.019439375
,,,1.22E-06,0.01971
,,,1.23E-06,0.019615
,,,1.24E-06,0.019633125
,,,1.25E-06,0.019613125
,,,1.26E-06,0.019691875
,,,1.27E-06,0.01947125
,,,1.28E-06,0.0197225
,,,1.29E-06,0.019609375
,,,1.3E-06,0.019750625
,,,1.31E-06,0.019775625
,,,1.32E-06,0.0197875
,,,1.33E-06,0.01974875
,,,1.34E-06,0.01959875
,,,1.35E-06,0.019645625
,,,1.36E-06,0.019371875
,,,1.37E-06,0.019598125
,,,1.38E-06,0.01926625
,,,1.39E-06,0.019421875
,,,1.4E-06,0.01944875
,,,1.41E-06,0.019933125
,,,1.42E-06,0.01968625
,,,1.43E-06,0.019715
,,,1.44E-06,0.019498125
,,,1.45E-06,0.019776875
,,,1.46E-06,0.019838125
,,,1.47E-06,0.01958125
,,,1.48E-06,0.019756875
,,,1.49E-06,0.01969
,,,1.5E-06,0.019703125
,,,1.51E-06,0.019936875
,,,1.52E-06,0.01952
,,,1.53E-06,0.019628125
,,,1.54E-06,0.019630625
,,,1.55E-06,0.019790625
,,,1.56E-06,0.019590625
,,,1.57E-06,0.0198675
,,,1.58E-06,0.019569375
,,,1.59E-06,0.01951125
,,,1.6E-06,0.01941125
,,,1.61E-06,0.019706875
,,,1.62E-06,0.0196575
,,,1.63E-06,0.01971375
,,,1.64E-06,0.019546875
,,,1.65E-06,0.019696875
,,,1.66E-06,0.019836875
,,,1.67E-06,0.01940375
,,,1.68E-06,0.019244375
,,,1.69E-06,0.01949625
,,,1.7E-06,0.01981
,,,1.71E-06,0.0198125
,,,1.72E-06,0.019516875
,,,1.73E-06,0.019619375
,,,1.74E-06,0.01952
,,,1.75E-06,0.019590625
,,,1.76E-06,0.019225625
,,,1.77E-06,0.019645
,,,1.78E-06,0.019565625
,,,1.79E-06,0.0198625
,,,1.8E-06,0.019503125
,,,1.81E-06,0.019586875
,,,1.82E-06,0.019720625
,,,1.83E-06,0.019688125
,,,1.84E-06,0.019846875
,,,1.85E-06,0.019609375
,,,1.86E-06,0.01959625
,,,1.87E-06,0.019566875
,,,1.88E-06,0.019778125
,,,1.89E-06,0.019543125
,,,1.9E-06,0.019808125
,,,1.91E-06,0.019570625
,,,1.92E-06,0.019685
,,,1.93E-06,0.019589375
,,,1.94E-06,0.019876875
,,,1.95E-06,0.0194725
,,,1.96E-06,0.019365625
,,,1.97E-06,0.01968
,,,1.98E-06,0.01969875
,,,1.99E-06,0.019761875
,,,2E-06,0.019736875
,,,2.01E-06,0.01952625
,,,2.02E-06,0.019389375
,,,2.03E-06,0.01972875
,,,2.04E-06,0.0195775
,,,2.05E-06,0.01983375
,,,2.06E-06,0.019683125
,,,2.07E-06,0.019901875
,,,2.08E-06,0.019676875
,,,2.09E-06,0.019543125
,,,2.1E-06,0.01951375
,,,2.11E-06,0.0197225
,,,2.12E-06,0.019681875
,,,2.13E-06,0.019503125
,,,2.14E-06,0.019609375
,,,2.15E-06,0.020139375
,,,2.16E-06,0.019461875
,,,2.17E-06,0.01976
,,,2.18E-06,0.019804375
,,,2.19E-06,0.0196475
,,,2.2E-06,0.0197125
,,,2.21E-06,0.019511875
,,,2.22E-06,0.019573125
,,,2.23E-06,0.019678125
,,,2.24E-06,0.01964625
,,,2.25E-06,0.019673125
,,,2.26E-06,0.01948375
,,,2.27E-06,0.01969
,,,2.28E-06,0.019591875
,,,2.29E-06,0.01965875
,,,2.3E-06,0.0196525
,,,2.31E-06,0.019584375
,,,2.32E-06,0.019965
,,,2.33E-06,0.019736875
,,,2.34E-06,0.019743125
,,,2.35E-06,0.019534375
,,,2.36E-06,0.019588125
,,,2.37E-06,0.019444375
,,,2.38E-06,0.019625625
,,,2.39E-06,0.02000125
,,,2.4E-06,0.0197275
,,,2.41E-06,0.019450625
,,,2.42E-06,0.019420625
,,,2.43E-06,0.01990375
,,,2.44E-06,0.019816875
,,,2.45E-06,0.01959375
,,,2.46E-06,0.019708125
,,,2.47E-06,0.019656875
,,,2.48E-06,0.01965
,,,2.49E-06,0.0197325
,,,2.5E-06,0.01978375
,,,2.51E-06,0.019471875
,,,2.52E-06,0.019514375
,,,2.53E-06,0.019836875
,,,2.54E-06,0.019756875
,,,2.55E-06,0.01953875
,,,2.56E-06,0.019665625
,,,2.57E-06,0.019778125
,,,2.58E-06,0.019406875
,,,2.59E-06,0.01961125
,,,2.6E-06,0.019779375
,,,2.61E-06,0.019866875
,,,2.62E-06,0.01953
,,,2.63E-06,0.019546875
,,,2.64E-06,0.01970625
,,,2.65E-06,0.01986875
,,,2.66E-06,0.019433125
,,,2.67E-06,0.019611875
,,,2.68E-06,0.019558125
,,,2.69E-06,0.019449375
,,,2.7E-06,0.0194925
,,,2.71E-06,0.019794375
,,,2.72E-06,0.0196425
,,,2.73E-06,0.01976
,,,2.74E-06,0.01956375
,,,2.75E-06,0.0194125
,,,2.76E-06,0.019705625
,,,2.77E-06,0.0197625
,,,2.78E-06,0.019781875
,,,2.79E-06,0.01964
,,,2.8E-06,0.01988375
,,,2.81E-06,0.019694375
,,,2.82E-06,0.019805
,,,2.83E-06,0.019726875
,,,2.84E-06,0.01966625
,,,2.85E-06,0.019521875
,,,2.86E-06,0.019785625
,,,2.87E-06,0.019793125
,,,2.88E-06,0.01923375
,,,2.89E-06,0.0197875
,,,2.9E-06,0.01947875
,,,2.91E-06,0.019813125
,,,2.92E-06,0.0197175
,,,2.93E-06,0.019514375
,,,2.94E-06,0.01968875
,,,2.95E-06,0.0194075
,,,2.96E-06,0.0196825
,,,2.97E-06,0.019738125
,,,2.98E-06,0.019588125
,,,2.99E-06,0.01962125
,,,3E-06,0.0195575
,,,3.01E-06,0.01953875
,,,3.02E-06,0.01955375
,,,3.03E-06,0.019581875
,,,3.04E-06,0.01970875
,,,3.05E-06,0.01963625
,,,3.06E-06,0.0197675
,,,3.07E-06,0.019528125
,,,3.08E-06,0.019819375
,,,3.09E-06,0.01962375
,,,3.1E-06,0.019728125
,,,3.11E-06,0.019673125
,,,3.12E-06,0.01960625
,,,3.13E-06,0.0193225
,,,3.14E-06,0.019414375
,,,3.15E-06,0.01954625
,,,3.16E-06,0.01966625
,,,3.17E-06,0.01949625
,,,3.18E-06,0.01965
,,,3.19E-06,0.019739375
,,,3.2E-06,0.01976
,,,3.21E-06,0.019759375
,,,3.22E-06,0.019641875
,,,3.23E-06,0.01933625
,,,3.24E-06,0.01970375
,,,3.25E-06,0.0195775
,,,3.26E-06,0.019664375
,,,3.27E-06,0.0194675
,,,3.28E-06,0.01980375
,,,3.29E-06,0.01971
,,,3.3E-06,0.019813125
,,,3.31E-06,0.01995375
,,,3.32E-06,0.019486875
,,,3.33E-06,0.0197625
,,,3.34E-06,0.01967625
,,,3.35E-06,0.019655
,,,3.36E-06,0.019811875
,,,3.37E-06,0.019495625
,,,3.38E-06,0.019874375
,,,3.39E-06,0.019585625
,,,3.4E-06,0.019595625
,,,3.41E-06,0.01964125
,,,3.42E-06,0.019821875
,,,3.43E-06,0.019655625
,,,3.44E-06,0.019875
,,,3.45E-06,0.01969625
,,,3.46E-06,0.0196075
,,,3.47E-06,0.019574375
,,,3.48E-06,0.01969875
,,,3.49E-06,0.02003125
,,,3.5E-06,0.0196225
,,,3.51E-06,0.019808125
,,,3.52E-06,0.01959875
,,,3.53E-06,0.019666875
,,,3.54E-06,0.0197025
,,,3.55E-06,0.019618125
