data/raw/Final_POL_Test_1/SOP069_Ch1.csv

"Record Length",1000,"Points",-5E-06,0.007889375
"Sample Interval",1E-08,s,-4.99E-06,0.007780625
"Trigger Point",500,"Samples",-4.98E-06,0.00778375
"Trigger Time",0,s,-4.97E-06,0.00823
"",,,-4.96E-06,0.0080975
"Horizontal Offset",-5E-06,s,-4.95E-06,0.007924375
,,,-4.94E-06,0.007978125
,,,-4.93E-06,0.007855625
,,,-4.92E-06,0.0077525
,,,-4.91E-06,0.007918125
,,,-4.9E-06,0.00803375
,,,-4.89E-06,0.007989375
,,,-4.88E-06,0.007886875
,,,-4.87E-06,0.008006875
,,,-4.86E-06,0.007890625
,,,-4.85E-06,0.00796125
,,,-4.84E-06,0.008318125
,,,-4.83E-06,0.007868125
,,,-4.82E-06,0.008151875
,,,-4.81E-06,0.0081925
,,,-4.8E-06,0.0078725
,,,-4.79E-06,0.00795
,,,-4.78E-06,0.00788375
,,,-4.77E-06,0.00765625
,,,-4.76E-06,0.00782375
,,,-4.75E-06,0.008
,,,-4.74E-06,0.008000625
,,,-4.73E-06,0.008036875
,,,-4.72E-06,0.007785
,,,-4.71E-06,0.008095
,,,-4.7E-06,0.00806125
,,,-4.69E-06,0.00808125
,,,-4.68E-06,0.007999375
,,,-4.67E-06,0.008019375
,,,-4.66E-06,0.007999375
,,,-4.65E-06,0.008036875
,,,-4.64E-06,0.008026875
,,,-4.63E-06,0.007969375
,,,-4.62E-06,0.007996875
,,,-4.61E-06,0.007861875
,,,-4.6E-06,0.007960625
,,,-4.59E-06,0.00811375
,,,-4.58E-06,0.00784
,,,-4.57E-06,0.00800375
,,,-4.56E-06,0.00800875
,,,-4.55E-06,0.007983125
,,,-4.54E-06,0.008125625
,,,-4.53E-06,0.00787125
,,,-4.52E-06,0.008015625
,,,-4.51E-06,0.00818
,,,-4.5E-06,0.008005
,,,-4.49E-06,0.00796875
,,,-4.48E-06,0.00803375
,,,-4.47E-06,0.0079475
,,,-4.46E-06,0.00792125
,,,-4.45E-06,0.007779375
,,,-4.44E-06,0.007918125
,,,-4.43E-06,0.008035625
,,,-4.42E-06,0.007989375
,,,-4.41E-06,0.00821
,,,-4.4E-06,0.008090625
,,,-4.39E-06,0.008044375
,,,-4.38E-06,0.008235625
,,,-4.37E-06,0.00799125
,,,-4.36E-06,0.007959375
,,,-4.35E-06,0.008049375
,,,-4.34E-06,0.0079425
,,,-4.33E-06,0.007989375
,,,-4.32E-06,0.00798375
,,,-4.31E-06,0.007950625
,,,-4.3E-06,0.00793125
,,,-4.29E-06,0.00810875
,,,-4.28E-06,0.007909375
,,,-4.27E-06,0.007998125
,,,-4.26E-06,0.00799125
,,,-4.25E-06,0.007853125
,,,-4.24E-06,0.00816875
,,,-4.23E-06,0.00798375
,,,-4.22E-06,0.007914375
,,,-4.21E-06,0.008025
,,,-4.2E-06,0.007836875
,,,-4.19E-06,0.00783375
,,,-4.18E-06,0.007830625
,,,-4.17E-06,0.0077725
,,,-4.16E-06,0.008035625
,,,-4.15E-06,0.007755
,,,-4.14E-06,0.00803125
,,,-4.13E-06,0.00806625
,,,-4.12E-06,0.00775
,,,-4.11E-06,0.008040625
,,,-4.1E-06,0.008124375
,,,-4.09E-06,0.0079925
,,,-4.08E-06,0.0080475
,,,-4.07E-06,0.007986875
,,,-4.06E-06,0.0079825
,,,-4.05E-06,0.007893125
,,,-4.04E-06,0.007788125
,,,-4.03E-06,0.00792
,,,-4.02E-06,0.00789875
,,,-4.01E-06,0.007965
,,,-4E-06,0.007911875
,,,-3.99E-06,0.00814625
,,,-3.98E-06,0.00795625
,,,-3.97E-06,0.008155625
,,,-3.96E-06,0.008075
,,,-3.95E-06,0.00772375
,,,-3.94E-06,0.00794625
,,,-3.93E-06,0.00793
,,,-3.92E-06,0.008151875
,,,-3.91E-06,0.007794375
,,,-3.9E-06,0.00793625
,,,-3.89E-06,0.008041875
,,,-3.88E-06,0.007858125
,,,-3.87E-06,0.008099375
,,,-3.86E-06,0.00817125
,,,-3.85E-06,0.00803625
,,,-3.84E-06,0.008178125
,,,-3.83E-06,0.007964375
,,,-3.82E-06,0.0079025
,,,-3.81E-06,0.0079075
,,,-3.8E-06,0.0080725
,,,-3.79E-06,0.00792625
,,,-3.78E-06,0.00785375
,,,-3.77E-06,0.0078
,,,-3.76E-06,0.0079
,,,-3.75E-06,0.007903125
,,,-3.74E-06,0.007959375
,,,-3.73E-06,0.008135625
,,,-3.72E-06,0.00817625
,,,-3.71E-06,0.007910625
,,,-3.7E-06,0.00788625
,,,-3.69E-06,0.007893125
,,,-3.68E-06,0.00776125
,,,-3.67E-06,0.007975625
,,,-3.66E-06,0.00782125
,,,-3.65E-06,0.008235
,,,-3.64E-06,0.0080975
,,,-3.63E-06,0.007976875
,,,-3.62E-06,0.00785625
,,,-3.61E-06,0.00765875
,,,-3.6E-06,0.007900625
,,,-3.59E-06,0.0078675
,,,-3.58E-06,0.008009375
,,,-3.57E-06,0.0080575
,,,-3.56E-06,0.00807375
,,,-3.55E-06,0.007901875
,,,-3.54E-06,0.00778625
,,,-3.53E-06,0.008196875
,,,-3.52E-06,0.0077625
,,,-3.51E-06,0.00789875
,,,-3.5E-06,0.007721875
,,,-3.49E-06,0.008061875
,,,-3.48E-06,0.00807625
,,,-3.47E-06,0.0080525
,,,-3.46E-06,0.007981875
,,,-3.45E-06,0.0081425
,,,-3.44E-06,0.00785875
,,,-3.43E-06,0.00803875
,,,-3.42E-06,0.0079925
,,,-3.41E-06,0.007935
,,,-3.4E-06,0.00816625
,,,-3.39E-06,0.0079
,,,-3.38E-06,0.00803625
,,,-3.37E-06,0.0079875
,,,-3.36E-06,0.0078225
,,,-3.35E-06,0.00797125
,,,-3.34E-06,0.007889375
,,,-3.33E-06,0.007965
,,,-3.32E-06,0.007785625
,,,-3.31E-06,0.00788375
,,,-3.3E-06,0.008044375
,,,-3.29E-06,0.007990625
,,,-3.28E-06,0.008216875
,,,-3.27E-06,0.00795
,,,-3.26E-06,0.0080575
,,,-3.25E-06,0.00786
,,,-3.24E-06,0.0079625
,,,-3.23E-06,0.00785375
,,,-3.22E-06,0.00793375
,,,-3.21E-06,0.007739375
,,,-3.2E-06,0.007886875
,,,-3.19E-06,0.00810375
,,,-3.18E-06,0.0077925
,,,-3.17E-06,0.008064375
,,,-3.16E-06,0.007996875
,,,-3.15E-06,0.008014375
,,,-3.14E-06,0.007741875
,,,-3.13E-06,0.007986875
,,,-3.12E-06,0.00799125
,,,-3.11E-06,0.008126875
,,,-3.1E-06,0.008094375
,,,-3.09E-06,0.00793125
,,,-3.08E-06,0.008098125
,,,-3.07E-06,0.008104375
,,,-3.06E-06,0.007915625
,,,-3.05E-06,0.008160625
,,,-3.04E-06,0.007870625
,,,-3.03E-06,0.0080125
,,,-3.02E-06,0.00805125
,,,-3.01E-06,0.00805625
,,,-3E-06,0.00815375
,,,-2.99E-06,0.008103125
,,,-2.98E-06,0.007830625
,,,-2.97E-06,0.0081
,,,-2.96E-06,0.007718125
,,,-2.95E-06,0.008026875
,,,-2.94E-06,0.00779625
,,,-2.93E-06,0.008035
,,,-2.92E-06,0.007978125
,,,-2.91E-06,0.008168125
,,,-2.9E-06,0.00793625
,,,-2.89E-06,0.0078475
,,,-2.88E-06,0.008086875
,,,-2.87E-06,0.007855
,,,-2.86E-06,0.007944375
,,,-2.85E-06,0.008000625
,,,-2.84E-06,0.00771125
,,,-2.83E-06,0.007965
,,,-2.82E-06,0.00785375
,,,-2.81E-06,0.00798
,,,-2.8E-06,0.00792875
,,,-2.79E-06,0.007930625
,,,-2.78E-06,0.008063125
,,,-2.77E-06,0.0081525
,,,-2.76E-06,0.007855625
,,,-2.75E-06,0.007849375
,,,-2.74E-06,0.007886875
,,,-2.73E-06,0.0081475
,,,-2.72E-06,0.007635625
,,,-2.71E-06,0.008026875
,,,-2.7E-06,0.007680625
,,,-2.69E-06,0.008105
,,,-2.68E-06,0.0079525
,,,-2.67E-06,0.007861875
,,,-2.66E-06,0.008093125
,,,-2.65E-06,0.007965625
,,,-2.64E-06,0.00788875
,,,-2.63E-06,0.007875625
,,,-2.62E-06,0.007888125
,,,-2.61E-06,0.0077825
,,,-2.6E-06,0.00814375
,,,-2.59E-06,0.00776
,,,-2.58E-06,0.007784375
,,,-2.57E-06,0.008058125
,,,-2.56E-06,0.008158125
,,,-2.55E-06,0.00805125
,,,-2.54E-06,0.008005
,,,-2.53E-06,0.007965625
,,,-2.52E-06,0.00792375
,,,-2.51E-06,0.007833125
,,,-2.5E-06,0.008125625
,,,-2.49E-06,0.00803125
,,,-2.48E-06,0.008173125
,,,-2.47E-06,0.0078225
,,,-2.46E-06,0.00804
,,,-2.45E-06,0.007824375
,,,-2.44E-06,0.00807375
,,,-2.43E-06,0.008116875
,,,-2.42E-06,0.00825625
,,,-2.41E-06,0.00791625
,,,-2.4E-06,0.007968125
,,,-2.39E-06,0.008179375
,,,-2.38E-06,0.007864375
,,,-2.37E-06,0.0079275
,,,-2.36E-06,0.008095
,,,-2.35E-06,0.007815
,,,-2.34E-06,0.0081975
,,,-2.33E-06,0.00784
,,,-2.32E-06,0.00795125
,,,-2.31E-06,0.007971875
,,,-2.3E-06,0.00809125
,,,-2.29E-06,0.00787
,,,-2.28E-06,0.00789125
,,,-2.27E-06,0.00817875
,,,-2.26E-06,0.00789
,,,-2.25E-06,0.00805125
,,,-2.24E-06,0.007900625
,,,-2.23E-06,0.007985625
,,,-2.22E-06,0.00781
,,,-2.21E-06,0.007949375
,,,-2.2E-06,0.007864375
,,,-2.19E-06,0.007841875
,,,-2.18E-06,0.007968125
,,,-2.17E-06,0.00804
,,,-2.16E-06,0.007830625
,,,-2.15E-06,0.0080675
,,,-2.14E-06,0.007876875
,,,-2.13E-06,0.008171875
,,,-2.12E-06,0.00785125
,,,-2.11E-06,0.0080675
,,,-2.1E-06,0.007946875
,,,-2.09E-06,0.007959375
,,,-2.08E-06,0.007930625
,,,-2.07E-06,0.00778
,,,-2.06E-06,0.007934375
,,,-2.05E-06,0.007929375
,,,-2.04E-06,0.0081175
,,,-2.03E-06,0.0078075
,,,-2.02E-06,0.00792125
,,,-2.01E-06,0.0079025
,,,-2E-06,0.007935625
,,,-1.99E-06,0.00817125
,,,-1.98E-06,0.007991875
,,,-1.97E-06,0.008085625
,,,-1.96E-06,0.008084375
,,,-1.95E-06,0.007801875
,,,-1.94E-06,0.008269375
,,,-1.93E-06,0.007935
,,,-1.92E-06,0.0081275
,,,-1.91E-06,0.008226875
,,,-1.9E-06,0.007860625
,,,-1.89E-06,0.007943125
,,,-1.88E-06,0.007951875
,,,-1.87E-06,0.008035
,,,-1.86E-06,0.008050625
,,,-1.85E-06,0.00804
,,,-1.84E-06,0.008076875
,,,-1.83E-06,0.00805875
,,,-1.82E-06,0.00817
,,,-1.81E-06,0.0078575
,,,-1.8E-06,0.008160625
,,,-1.79E-06,0.007878125
,,,-1.78E-06,0.007779375
,,,-1.77E-06,0.00782875
,,,-1.76E-06,0.008056875
,,,-1.75E-06,0.008135
,,,-1.74E-06,0.00792625
,,,-1.73E-06,0.007909375
,,,-1.72E-06,0.007924375
,,,-1.71E-06,0.007866875
,,,-1.7E-06,0.00802125
,,,-1.69E-06,0.00792875
,,,-1.68E-06,0.007909375
,,,-1.67E-06,0.008015
,,,-1.66E-06,0.00790625
,,,-1.65E-06,0.007879375
,,,-1.64E-06,0.00780875
,,,-1.63E-06,0.008145625
,,,-1.62E-06,0.007830625
,,,-1.61E-06,0.007945625
,,,-1.6E-06,0.007888125
,,,-1.59E-06,0.008033125
,,,-1.58E-06,0.00810875
,,,-1.57E-06,0.007995625
,,,-1.56E-06,0.007713125
,,,-1.55E-06,0.008039375
,,,-1.54E-06,0.007998125
,,,-1.53E-06,0.00833125
,,,-1.52E-06,0.00810375
,,,-1.51E-06,0.007945
,,,-1.5E-06,0.00789625
,,,-1.49E-06,0.0079225
,,,-1.48E-06,0.00816125
,,,-1.47E-06,0.007941875
,,,-1.46E-06,0.007888125
,,,-1.45E-06,0.008034375
,,,-1.44E-06,0.00805875
,,,-1.43E-06,0.008201875
,,,-1.42E-06,0.007956875
,,,-1.41E-06,0.00785
,,,-1.4E-06,0.00809
,,,-1.39E-06,0.0079525
,,,-1.38E-06,0.00806375
,,,-1.37E-06,0.00788
,,,-1.36E-06,0.007766875
,,,-1.35E-06,0.00808875
,,,-1.34E-06,0.007845625
,,,-1.33E-06,0.00818375
,,,-1.32E-06,0.008098125
,,,-1.31E-06,0.007808125
,,,-1.3E-06,0.008066875
,,,-1.29E-06,0.008089375
,,,-1.28E-06,0.007885625
,,,-1.27E-06,0.008155625
,,,-1.26E-06,0.00800875
,,,-1.25E-06,0.007813125
,,,-1.24E-06,0.0078675
,,,-1.23E-06,0.0079425
,,,-1.22E-06,0.00807125
,,,-1.21E-06,0.007964375
,,,-1.2E-06,0.008021875
,,,-1.19E-06,0.0079
,,,-1.18E-06,0.007935625
,,,-1.17E-06,0.007884375
,,,-1.16E-06,0.00800625
,,,-1.15E-06,0.00784875
,,,-1.14E-06,0.0079875
,,,-1.13E-06,0.007855625
,,,-1.12E-06,0.00801625
,,,-1.11E-06,0.00806625
,,,-1.1E-06,0.00813125
,,,-1.09E-06,0.008029375
,,,-1.08E-06,0.007750625
,,,-1.07E-06,0.008010625
,,,-1.06E-06,0.007946875
,,,-1.05E-06,0.007864375
,,,-1.04E-06,0.007928125
,,,-1.03E-06,0.00794
,,,-1.02E-06,0.008121875
,,,-1.01E-06,0.007875
,,,-1E-06,0.007931875
,,,-9.9E-07,0.00778625
,,,-9.8E-07,0.0080525
,,,-9.7E-07,0.0079325
,,,-9.6E-07,0.0082475
,,,-9.5E-07,0.00793125
,,,-9.4E-07,0.007964375
,,,-9.3E-07,0.00786
,,,-9.2E-07,0.008173125
,,,-9.1E-07,0.007994375
,,,-9E-07,0.00784625
,,,-8.9E-07,0.008009375
,,,-8.8E-07,0.0077875
,,,-8.7E-07,0.008089375
,,,-8.6E-07,0.00784
,,,-8.5E-07,0.007980625
,,,-8.4E-07,0.007975
,,,-8.3E-07,0.008136875
,,,-8.2E-07,0.0081
,,,-8.1E-07,0.00804125
,,,-8E-07,0.0080075
,,,-7.9E-07,0.008008125
,,,-7.8E-07,0.007946875
,,,-7.7E-07,0.007935
,,,-7.6E-07,0.00806
,,,-7.5E-07,0.00818875
,,,-7.4E-07,0.00791375
,,,-7.3E-07,0.00771625
,,,-7.2E-07,0.00793
,,,-7.1E-07,0.00798375
,,,-7E-07,0.008194375
,,,-6.9E-07,0.0081225
,,,-6.8E-07,0.007631875
,,,-6.7E-07,0.007870625
,,,-6.6E-07,0.008128125
,,,-6.5E-07,0.008016875
,,,-6.4E-07,0.008134375
,,,-6.3E-07,0.007833125
,,,-6.2E-07,0.007889375
,,,-6.1E-07,0.00784875
,,,-6E-07,0.00821625
,,,-5.9E-07,0.007810625
,,,-5.8E-07,0.007926875
,,,-5.7E-07,0.0078525
,,,-5.6E-07,0.00820125
,,,-5.5E-07,0.00794375
,,,-5.4E-07,0.008093125
,,,-5.3E-07,0.0078425
,,,-5.2E-07,0.0078925
,,,-5.1E-07,0.007871875
,,,-5E-07,0.0077425
,,,-4.9E-07,0.008081875
,,,-4.8E-07,0.00806875
,,,-4.7E-07,0.00787875
,,,-4.6E-07,0.007955625
,,,-4.5E-07,0.00797375
,,,-4.4E-07,0.008058125
,,,-4.3E-07,0.008161875
,,,-4.2E-07,0.0083
,,,-4.1E-07,0.007795
,,,-4E-07,0.00783375
,,,-3.9E-07,0.00805625
,,,-3.8E-07,0.00796625
,,,-3.7E-07,0.0077375
,,,-3.6E-07,0.007850625
,,,-3.5E-07,0.008031875
,,,-3.4E-07,0.007995625
,,,-3.3E-07,0.007921875
,,,-3.2E-07,0.007978125
,,,-3.1E-07,0.00793875
,,,-3E-07,0.00778875
,,,-2.9E-07,0.00775625
,,,-2.8E-07,0.007984375
,,,-2.7E-07,0.008310625
,,,-2.6E-07,0.00811
,,,-2.5E-07,0.00811375
,,,-2.4E-07,0.007994375
,,,-2.3E-07,0.00785
,,,-2.2E-07,0.007819375
,,,-2.1E-07,0.008001875
,,,-2E-07,0.007921875
,,,-1.9E-07,0.008100625
,,,-1.8E-07,0.00793625
,,,-1.7E-07,0.00799125
,,,-1.6E-07,0.00777375
,,,-1.5E-07,0.007974375
,,,-1.4E-07,0.007976875
,,,-1.3E-07,0.00769
,,,-1.2E-07,0.00817375
,,,-1.1E-07,0.008020625
,,,-1E-07,0.008089375
,,,-9E-08,0.008125
,,,-8E-08,0.007986875
,,,-7E-08,0.00775125
,,,-6E-08,0.007903125
,,,-5E-08,0.00818125
,,,-4E-08,0.00885875
,,,-3E-08,0.00935
,,,-2E-08,0.00613375
,,,-1E-08,0.0036525
,,,0,0.004954375
,,,1E-08,0.01117875
,,,2E-08,0.013486875
,,,3E-08,0.011700625
,,,4E-08,0.00714625
,,,5E-08,0.00468
,,,6E-08,0.004171875
,,,7E-08,0.006815
,,,8E-08,0.00893125
,,,9E-08,0.010750625
,,,1E-07,0.010180625
,,,1.1E-07,0.00857125
,,,1.2E-07,0.00660625
,,,1.3E-07,0.00612
,,,1.4E-07,0.006928125
,,,1.5E-07,0.00811375
,,,1.6E-07,0.008638125
,,,1.7E-07,0.008349375
,,,1.8E-07,0.008169375
,,,1.9E-07,0.0081275
,,,2E-07,0.00797
,,,2.1E-07,0.00786625
,,,2.2E-07,0.007634375
,,,2.3E-07,0.00790125
,,,2.4E-07,0.00812
,,,2.5E-07,0.008315625
,,,2.6E-07,0.00802375
,,,2.7E-07,0.008071875
,,,2.8E-07,0.00815625
,,,2.9E-07,0.00796
,,,3E-07,0.007743125
,,,3.1E-07,0.00789
,,,3.2E-07,0.00805125
,,,3.3E-07,0.0081775
,,,3.4E-07,0.008058125
,,,3.5E-07,0.008119375
,,,3.6E-07,0.007795625
,,,3.7E-07,0.007845
,,,3.8E-07,0.008055
,,,3.9E-07,0.00829
,,,4E-07,0.007941875
,,,4.1E-07,0.008225
,,,4.2E-07,0.00792
,,,4.3E-07,0.008009375
,,,4.4E-07,0.00814875
,,,4.5E-07,0.008006875
,,,4.6E-07,0.007878125
,,,4.7E-07,0.008193125
,,,4.8E-07,0.007904375
,,,4.9E-07,0.007881875
,,,5E-07,0.0079425
,,,5.1E-07,0.007743125
,,,5.2E-07,0.008029375
,,,5.3E-07,0.008130625
,,,5.4E-07,0.007931875
,,,5.5E-07,0.007908125
,,,5.6E-07,0.008099375
,,,5.7E-07,0.008155
,,,5.8E-07,0.008205
,,,5.9E-07,0.007993125
,,,6E-07,0.00802875
,,,6.1E-07,0.00787125
,,,6.2E-07,0.007993125
,,,6.3E-07,0.008080625
,,,6.4E-07,0.008150625
,,,6.5E-07,0.008206875
,,,6.6E-07,0.00783875
,,,6.7E-07,0.008179375
,,,6.8E-07,0.008229375
,,,6.9E-07,0.00794625
,,,7E-07,0.007839375
,,,7.1E-07,0.00820125
,,,7.2E-07,0.007939375
,,,7.3E-07,0.008215
,,,7.4E-07,0.00793
,,,7.5E-07,0.008001875
,,,7.6E-07,0.00797875
,,,7.7E-07,0.008189375
,,,7.8E-07,0.008131875
,,,7.9E-07,0.00768375
,,,8E-07,0.008089375
,,,8.1E-07,0.00786625
,,,8.2E-07,0.008155
,,,8.3E-07,0.007874375
,,,8.4E-07,0.008209375
,,,8.5E-07,0.0078375
,,,8.6E-07,0.007985625
,,,8.7E-07,0.00815
,,,8.8E-07,0.007868125
,,,8.9E-07,0.0083175
,,,9E-07,0.008224375
,,,9.1E-07,0.007921875
,,,9.2E-07,0.007775625
,,,9.3E-07,0.008224375
,,,9.4E-07,0.00809
,,,9.5E-07,0.008140625
,,,9.6E-07,0.00790625
,,,9.7E-07,0.007905625
,,,9.8E-07,0.0081775
,,,9.9E-07,0.008235
,,,1E-06,0.00771
,,,1.01E-06,0.007973125
,,,1.02E-06,0.00796375
,,,1.03E-06,0.00770625
,,,1.04E-06,0.008161875
,,,1.05E-06,0.007924375
,,,1.06E-06,0.0081025
,,,1.07E-06,0.00805625
,,,1.08E-06,0.007946875
,,,1.09E-06,0.007915625
,,,1.1E-06,0.008155
,,,1.11E-06,0.00801875
,,,1.12E-06,0.00817
,,,1.13E-06,0.00771625
,,,1.14E-06,0.008360625
,,,1.15E-06,0.007860625
,,,1.16E-06,0.008180625
,,,1.17E-06,0.00819375
,,,1.18E-06,0.00792625
,,,1.19E-06,0.007820625
,,,1.2E-06,0.0078825
,,,1.21E-06,0.007855
,,,1.22E-06,0.00805125
,,,1.23E-06,0.007903125
,,,1.24E-06,0.008029375
,,,1.25E-06,0.00814375
,,,1.26E-06,0.007990625
,,,1.27E-06,0.00776375
,,,1.28E-06,0.007811875
,,,1.29E-06,0.007898125
,,,1.3E-06,0.007906875
,,,1.31E-06,0.007721875
,,,1.32E-06,0.008280625
,,,1.33E-06,0.0079975
,,,1.34E-06,0.007830625
,,,1.35E-06,0.00770875
,,,1.36E-06,0.00784375
,,,1.37E-06,0.007969375
,,,1.38E-06,0.008004375
,,,1.39E-06,0.00802375
,,,1.4E-06,0.00824875
,,,1.41E-06,0.007929375
,,,1.42E-06,0.007931875
,,,1.43E-06,0.007883125
,,,1.44E-06,0.007933125
,,,1.45E-06,0.007946875
,,,1.46E-06,0.007903125
,,,1.47E-06,0.00805625
,,,1.48E-06,0.007845625
,,,1.49E-06,0.0080675
,,,1.5E-06,0.008023125
,,,1.51E-06,0.00813125
,,,1.52E-06,0.007821875
,,,1.53E-06,0.00795375
,,,1.54E-06,0.00803125
,,,1.55E-06,0.00812875
,,,1.56E-06,0.008141875
,,,1.57E-06,0.00801375
,,,1.58E-06,0.007778125
,,,1.59E-06,0.00803625
,,,1.6E-06,0.007864375
,,,1.61E-06,0.007835625
,,,1.62E-06,0.00810625
,,,1.63E-06,0.007791875
,,,1.64E-06,0.00818375
,,,1.65E-06,0.00819375
,,,1.66E-06,0.008091875
,,,1.67E-06,0.00805375
,,,1.68E-06,0.00797125
,,,1.69E-06,0.008119375
,,,1.7E-06,0.0081075
,,,1.71E-06,0.008060625
,,,1.72E-06,0.008250625
,,,1.73E-06,0.007885625
,,,1.74E-06,0.0078925
,,,1.75E-06,0.007921875
,,,1.76E-06,0.00793875
,,,1.77E-06,0.00782875
,,,1.78E-06,0.00797625
,,,1.79E-06,0.00800875
,,,1.8E-06,0.007924375
,,,1.81E-06,0.00789375
,,,1.82E-06,0.007916875
,,,1.83E-06,0.00808875
,,,1.84E-06,0.007835625
,,,1.85E-06,0.007996875
,,,1.86E-06,0.008028125
,,,1.87E-06,0.0079475
,,,1.88E-06,0.0081975
,,,1.89E-06,0.007970625
,,,1.9E-06,0.00819
,,,1.91E-06,0.00782375
,,,1.92E-06,0.007799375
,,,1.93E-06,0.007869375
,,,1.94E-06,0.007996875
,,,1.95E-06,0.007864375
,,,1.96E-06,0.0079875
,,,1.97E-06,0.007888125
,,,1.98E-06,0.007880625
,,,1.99E-06,0.00809125
,,,2E-06,0.00817875
,,,2.01E-06,0.007951875
,,,2.02E-06,0.0078225
,,,2.03E-06,0.008220625
,,,2.04E-06,0.007799375
,,,2.05E-06,0.00808
,,,2.06E-06,0.007944375
,,,2.07E-06,0.007944375
,,,2.08E-06,0.00800125
,,,2.09E-06,0.007985
,,,2.1E-06,0.007805
,,,2.11E-06,0.008120625
,,,2.12E-06,0.007994375
,,,2.13E-06,0.007921875
,,,2.14E-06,0.007764375
,,,2.15E-06,0.007870625
,,,2.16E-06,0.007935625
,,,2.17E-06,0.007956875
,,,2.18E-06,0.008095
,,,2.19E-06,0.007824375
,,,2.2E-06,0.007915625
,,,2.21E-06,0.0079625
,,,2.22E-06,0.007963125
,,,2.23E-06,0.007886875
,,,2.24E-06,0.007904375
,,,2.25E-06,0.007793125
,,,2.26E-06,0.00791375
,,,2.27E-06,0.0078725
,,,2.28E-06,0.00804125
,,,2.29E-06,0.00797
,,,2.3E-06,0.007865
,,,2.31E-06,0.0080275
,,,2.32E-06,0.00821375
,,,2.33E-06,0.0081175
,,,2.34E-06,0.008098125
,,,2.35E-06,0.00772375
,,,2.36E-06,0.007828125
,,,2.37E-06,0.00791625
,,,2.38E-06,0.008009375
,,,2.39E-06,0.00812375
,,,2.4E-06,0.00797375
,,,2.41E-06,0.008010625
,,,2.42E-06,0.007961875
,,,2.43E-06,0.008030625
,,,2.44E-06,0.007879375
,,,2.45E-06,0.00799625
,,,2.46E-06,0.007791875
,,,2.47E-06,0.007920625
,,,2.48E-06,0.008053125
,,,2.49E-06,0.008001875
,,,2.5E-06,0.007760625
,,,2.51E-06,0.00785625
,,,2.52E-06,0.008059375
,,,2.53E-06,0.00804875
,,,2.54E-06,0.008083125
,,,2.55E-06,0.00821625
,,,2.56E-06,0.007978125
,,,2.57E-06,0.00800625
,,,2.58E-06,0.00810375
,,,2.59E-06,0.007788125
,,,2.6E-06,0.008000625
,,,2.61E-06,0.008025625
,,,2.62E-06,0.00769375
,,,2.63E-06,0.007988125
,,,2.64E-06,0.007925625
,,,2.65E-06,0.007730625
,,,2.66E-06,0.00806
,,,2.67E-06,0.008028125
,,,2.68E-06,0.007844375
,,,2.69E-06,0.0079725
,,,2.7E-06,0.007743125
,,,2.71E-06,0.007973125
,,,2.72E-06,0.008329375
,,,2.73E-06,0.00822
,,,2.74E-06,0.00789
,,,2.75E-06,0.0080925
,,,2.76E-06,0.0079275
,,,2.77E-06,0.007868125
,,,2.78E-06,0.007969375
,,,2.79E-06,0.0077625
,,,2.8E-06,0.007908125
,,,2.81E-06,0.008144375
,,,2.82E-06,0.0081275
,,,2.83E-06,0.007821875
,,,2.84E-06,0.00780625
,,,2.85E-06,0.00811
,,,2.86E-06,0.00784625
,,,2.87E-06,0.00807375
,,,2.88E-06,0.00802875
,,,2.89E-06,0.008035
,,,2.9E-06,0.00793625
,,,2.91E-06,0.007980625
,,,2.92E-06,0.007795625
,,,2.93E-06,0.00791
,,,2.94E-06,0.008121875
,,,2.95E-06,0.007798125
,,,2.96E-06,0.00785125
,,,2.97E-06,0.008118125
,,,2.98E-06,0.00807
,,,2.99E-06,0.00801
,,,3E-06,0.007785625
,,,3.01E-06,0.0079675
,,,3.02E-06,0.007950625
,,,3.03E-06,0.008084375
,,,3.04E-06,0.007951875
,,,3.05E-06,0.00806625
,,,3.06E-06,0.0083275
,,,3.07E-06,0.00801625
,,,3.08E-06,0.007843125
,,,3.09E-06,0.0080325
,,,3.1E-06,0.00790375
,,,3.11E-06,0.007958125
,,,3.12E-06,0.00801125
,,,3.13E-06,0.00798875
,,,3.14E-06,0.00810125
,,,3.15E-06,0.007810625
,,,3.16E-06,0.007860625
,,,3.17E-06,0.007903125
,,,3.18E-06,0.007886875
,,,3.19E-06,0.007728125
,,,3.2E-06,0.007853125
,,,3.21E-06,0.007816875
,,,3.22E-06,0.008086875
,,,3.23E-06,0.008078125
,,,3.24E-06,0.00792375
,,,3.25E-06,0.0078525
,,,3.26E-06,0.008118125
,,,3.27E-06,0.008145625
,,,3.28E-06,0.00788
,,,3.29E-06,0.0077375
,,,3.3E-06,0.008089375
,,,3.31E-06,0.008015625
,,,3.32E-06,0.0078575
,,,3.33E-06,0.008098125
,,,3.34E-06,0.008008125
,,,3.35E-06,0.008045
,,,3.36E-06,0.008039375
,,,3.37E-06,0.007865
,,,3.38E-06,0.007938125
,,,3.39E-06,0.0080975
,,,3.4E-06,0.007924375
,,,3.41E-06,0.00789125
,,,3.42E-06,0.007989375
,,,3.43E-06,0.00779625
,,,3.44E-06,0.007765625
,,,3.45E-06,0.008231875
,,,3.46E-06,0.007885625
,,,3.47E-06,0.00807
,,,3.48E-06,0.00802375
,,,3.49E-06,0.008120625
,,,3.5E-06,0.007971875
,,,3.51E-06,0.008073125
,,,3.52E-06,0.008168125
,,,3.53E-06,0.00805625
,,,3.54E-06,0.00802625
,,,3.55E-06,0.00794
