data/raw/Final_POL_Test_1/SOP057_Ch2.csv

"Record Length",1000,"Points",-5E-06,0.018045625
"Sample Interval",1E-08,s,-4.99E-06,0.018045
"Trigger Point",500,"Samples",-4.98E-06,0.017898125
"Trigger Time",0,s,-4.97E-06,0.0180175
"",,,-4.96E-06,0.01792375
"Horizontal Offset",-5E-06,s,-4.95E-06,0.01806875
,,,-4.94E-06,0.0179025
,,,-4.93E-06,0.017861875
,,,-4.92E-06,0.017871875
,,,-4.91E-06,0.01774
,,,-4.9E-06,0.01813625
,,,-4.89E-06,0.017965
,,,-4.88E-06,0.018081875
,,,-4.87E-06,0.01794125
,,,-4.86E-06,0.01786625
,,,-4.85E-06,0.018179375
,,,-4.84E-06,0.017781875
,,,-4.83E-06,0.018173125
,,,-4.82E-06,0.01805125
,,,-4.81E-06,0.018040625
,,,-4.8E-06,0.018145625
,,,-4.79E-06,0.017878125
,,,-4.78E-06,0.017849375
,,,-4.77E-06,0.0179275
,,,-4.76E-06,0.018164375
,,,-4.75E-06,0.017856875
,,,-4.74E-06,0.017790625
,,,-4.73E-06,0.018030625
,,,-4.72E-06,0.01813
,,,-4.71E-06,0.017858125
,,,-4.7E-06,0.018349375
,,,-4.69E-06,0.017970625
,,,-4.68E-06,0.0179075
,,,-4.67E-06,0.018198125
,,,-4.66E-06,0.017891875
,,,-4.65E-06,0.017935
,,,-4.64E-06,0.018044375
,,,-4.63E-06,0.017995625
,,,-4.62E-06,0.01812125
,,,-4.61E-06,0.018331875
,,,-4.6E-06,0.01793
,,,-4.59E-06,0.018070625
,,,-4.58E-06,0.017749375
,,,-4.57E-06,0.01811
,,,-4.56E-06,0.018343125
,,,-4.55E-06,0.017743125
,,,-4.54E-06,0.018295625
,,,-4.53E-06,0.017811875
,,,-4.52E-06,0.01808875
,,,-4.51E-06,0.018169375
,,,-4.5E-06,0.018214375
,,,-4.49E-06,0.017900625
,,,-4.48E-06,0.01804125
,,,-4.47E-06,0.017765625
,,,-4.46E-06,0.0180625
,,,-4.45E-06,0.0182225
,,,-4.44E-06,0.018115
,,,-4.43E-06,0.01809125
,,,-4.42E-06,0.018186875
,,,-4.41E-06,0.017926875
,,,-4.4E-06,0.01803375
,,,-4.39E-06,0.01795875
,,,-4.38E-06,0.018028125
,,,-4.37E-06,0.018021875
,,,-4.36E-06,0.0179625
,,,-4.35E-06,0.01793
,,,-4.34E-06,0.017751875
,,,-4.33E-06,0.018150625
,,,-4.32E-06,0.01809625
,,,-4.31E-06,0.017926875
,,,-4.3E-06,0.017941875
,,,-4.29E-06,0.01791125
,,,-4.28E-06,0.01787875
,,,-4.27E-06,0.01776
,,,-4.26E-06,0.017913125
,,,-4.25E-06,0.018091875
,,,-4.24E-06,0.018035625
,,,-4.23E-06,0.0181925
,,,-4.22E-06,0.018028125
,,,-4.21E-06,0.018165625
,,,-4.2E-06,0.017968125
,,,-4.19E-06,0.01806
,,,-4.18E-06,0.018303125
,,,-4.17E-06,0.018019375
,,,-4.16E-06,0.01818875
,,,-4.15E-06,0.01791625
,,,-4.14E-06,0.0182175
,,,-4.13E-06,0.01800375
,,,-4.12E-06,0.01805625
,,,-4.11E-06,0.017954375
,,,-4.1E-06,0.01776625
,,,-4.09E-06,0.01817875
,,,-4.08E-06,0.01826125
,,,-4.07E-06,0.018028125
,,,-4.06E-06,0.01790625
,,,-4.05E-06,0.01774125
,,,-4.04E-06,0.01795875
,,,-4.03E-06,0.01817
,,,-4.02E-06,0.017920625
,,,-4.01E-06,0.017945
,,,-4E-06,0.01818
,,,-3.99E-06,0.017914375
,,,-3.98E-06,0.017960625
,,,-3.97E-06,0.018061875
,,,-3.96E-06,0.0178375
,,,-3.95E-06,0.01779875
,,,-3.94E-06,0.018133125
,,,-3.93E-06,0.018064375
,,,-3.92E-06,0.0178575
,,,-3.91E-06,0.01791625
,,,-3.9E-06,0.0180275
,,,-3.89E-06,0.018009375
,,,-3.88E-06,0.017815
,,,-3.87E-06,0.017911875
,,,-3.86E-06,0.018029375
,,,-3.85E-06,0.018046875
,,,-3.84E-06,0.017925
,,,-3.83E-06,0.017850625
,,,-3.82E-06,0.017971875
,,,-3.81E-06,0.01816625
,,,-3.8E-06,0.018051875
,,,-3.79E-06,0.017953125
,,,-3.78E-06,0.017853125
,,,-3.77E-06,0.017990625
,,,-3.76E-06,0.017969375
,,,-3.75E-06,0.018064375
,,,-3.74E-06,0.01816
,,,-3.73E-06,0.01819875
,,,-3.72E-06,0.0179575
,,,-3.71E-06,0.017873125
,,,-3.7E-06,0.018041875
,,,-3.69E-06,0.018001875
,,,-3.68E-06,0.017999375
,,,-3.67E-06,0.017963125
,,,-3.66E-06,0.018149375
,,,-3.65E-06,0.018170625
,,,-3.64E-06,0.018073125
,,,-3.63E-06,0.017846875
,,,-3.62E-06,0.01783
,,,-3.61E-06,0.01798
,,,-3.6E-06,0.01783375
,,,-3.59E-06,0.01818
,,,-3.58E-06,0.018168125
,,,-3.57E-06,0.018064375
,,,-3.56E-06,0.01798375
,,,-3.55E-06,0.01811625
,,,-3.54E-06,0.0181
,,,-3.53E-06,0.018008125
,,,-3.52E-06,0.01779
,,,-3.51E-06,0.01798875
,,,-3.5E-06,0.017943125
,,,-3.49E-06,0.017851875
,,,-3.48E-06,0.017958125
,,,-3.47E-06,0.01814875
,,,-3.46E-06,0.018118125
,,,-3.45E-06,0.01793
,,,-3.44E-06,0.01799125
,,,-3.43E-06,0.01835
,,,-3.42E-06,0.017869375
,,,-3.41E-06,0.01824875
,,,-3.4E-06,0.0179525
,,,-3.39E-06,0.01780125
,,,-3.38E-06,0.018154375
,,,-3.37E-06,0.017965625
,,,-3.36E-06,0.017940625
,,,-3.35E-06,0.01790125
,,,-3.34E-06,0.018204375
,,,-3.33E-06,0.017735625
,,,-3.32E-06,0.018106875
,,,-3.31E-06,0.017759375
,,,-3.3E-06,0.01804375
,,,-3.29E-06,0.018085625
,,,-3.28E-06,0.01772875
,,,-3.27E-06,0.0181375
,,,-3.26E-06,0.018060625
,,,-3.25E-06,0.0179075
,,,-3.24E-06,0.01806125
,,,-3.23E-06,0.017749375
,,,-3.22E-06,0.01798375
,,,-3.21E-06,0.017988125
,,,-3.2E-06,0.017875
,,,-3.19E-06,0.017905
,,,-3.18E-06,0.01804375
,,,-3.17E-06,0.01810375
,,,-3.16E-06,0.017970625
,,,-3.15E-06,0.0179125
,,,-3.14E-06,0.017991875
,,,-3.13E-06,0.0181475
,,,-3.12E-06,0.01790875
,,,-3.11E-06,0.018003125
,,,-3.1E-06,0.018063125
,,,-3.09E-06,0.01793875
,,,-3.08E-06,0.0181025
,,,-3.07E-06,0.017983125
,,,-3.06E-06,0.017880625
,,,-3.05E-06,0.017974375
,,,-3.04E-06,0.01790875
,,,-3.03E-06,0.018139375
,,,-3.02E-06,0.01808
,,,-3.01E-06,0.017844375
,,,-3E-06,0.017731875
,,,-2.99E-06,0.0180475
,,,-2.98E-06,0.0183575
,,,-2.97E-06,0.01786625
,,,-2.96E-06,0.018006875
,,,-2.95E-06,0.018250625
,,,-2.94E-06,0.01781
,,,-2.93E-06,0.017841875
,,,-2.92E-06,0.017933125
,,,-2.91E-06,0.018030625
,,,-2.9E-06,0.01804875
,,,-2.89E-06,0.018078125
,,,-2.88E-06,0.0179775
,,,-2.87E-06,0.0179425
,,,-2.86E-06,0.018024375
,,,-2.85E-06,0.017825
,,,-2.84E-06,0.01824625
,,,-2.83E-06,0.01813
,,,-2.82E-06,0.017865625
,,,-2.81E-06,0.017835625
,,,-2.8E-06,0.017845625
,,,-2.79E-06,0.0178625
,,,-2.78E-06,0.017931875
,,,-2.77E-06,0.017951875
,,,-2.76E-06,0.018004375
,,,-2.75E-06,0.018158125
,,,-2.74E-06,0.01831125
,,,-2.73E-06,0.01798375
,,,-2.72E-06,0.017791875
,,,-2.71E-06,0.01785125
,,,-2.7E-06,0.017989375
,,,-2.69E-06,0.017758125
,,,-2.68E-06,0.018023125
,,,-2.67E-06,0.018055625
,,,-2.66E-06,0.017951875
,,,-2.65E-06,0.017961875
,,,-2.64E-06,0.01792125
,,,-2.63E-06,0.018025
,,,-2.62E-06,0.018305625
,,,-2.61E-06,0.01802875
,,,-2.6E-06,0.01805
,,,-2.59E-06,0.018085
,,,-2.58E-06,0.017604375
,,,-2.57E-06,0.017951875
,,,-2.56E-06,0.018063125
,,,-2.55E-06,0.018228125
,,,-2.54E-06,0.018073125
,,,-2.53E-06,0.01798375
,,,-2.52E-06,0.01809
,,,-2.51E-06,0.01797375
,,,-2.5E-06,0.018066875
,,,-2.49E-06,0.018
,,,-2.48E-06,0.018000625
,,,-2.47E-06,0.018121875
,,,-2.46E-06,0.017875
,,,-2.45E-06,0.018034375
,,,-2.44E-06,0.017723125
,,,-2.43E-06,0.01808125
,,,-2.42E-06,0.01793375
,,,-2.41E-06,0.017986875
,,,-2.4E-06,0.017828125
,,,-2.39E-06,0.018095625
,,,-2.38E-06,0.017943125
,,,-2.37E-06,0.018055625
,,,-2.36E-06,0.018091875
,,,-2.35E-06,0.01805875
,,,-2.34E-06,0.018069375
,,,-2.33E-06,0.01779
,,,-2.32E-06,0.01789375
,,,-2.31E-06,0.017914375
,,,-2.3E-06,0.017915
,,,-2.29E-06,0.018275
,,,-2.28E-06,0.018050625
,,,-2.27E-06,0.01796125
,,,-2.26E-06,0.018073125
,,,-2.25E-06,0.017915
,,,-2.24E-06,0.018046875
,,,-2.23E-06,0.01774
,,,-2.22E-06,0.018195
,,,-2.21E-06,0.018065625
,,,-2.2E-06,0.017765
,,,-2.19E-06,0.01811125
,,,-2.18E-06,0.018015625
,,,-2.17E-06,0.0182575
,,,-2.16E-06,0.017949375
,,,-2.15E-06,0.017933125
,,,-2.14E-06,0.017878125
,,,-2.13E-06,0.017894375
,,,-2.12E-06,0.01810875
,,,-2.11E-06,0.01810375
,,,-2.1E-06,0.017933125
,,,-2.09E-06,0.018123125
,,,-2.08E-06,0.018033125
,,,-2.07E-06,0.017979375
,,,-2.06E-06,0.017970625
,,,-2.05E-06,0.018048125
,,,-2.04E-06,0.017936875
,,,-2.03E-06,0.017900625
,,,-2.02E-06,0.018016875
,,,-2.01E-06,0.017980625
,,,-2E-06,0.01815875
,,,-1.99E-06,0.017845
,,,-1.98E-06,0.018008125
,,,-1.97E-06,0.018044375
,,,-1.96E-06,0.01770125
,,,-1.95E-06,0.017916875
,,,-1.94E-06,0.0180325
,,,-1.93E-06,0.01786125
,,,-1.92E-06,0.017946875
,,,-1.91E-06,0.018045625
,,,-1.9E-06,0.0179325
,,,-1.89E-06,0.0179225
,,,-1.88E-06,0.018024375
,,,-1.87E-06,0.018179375
,,,-1.86E-06,0.017970625
,,,-1.85E-06,0.018070625
,,,-1.84E-06,0.01789125
,,,-1.83E-06,0.017850625
,,,-1.82E-06,0.018215625
,,,-1.81E-06,0.017959375
,,,-1.8E-06,0.017664375
,,,-1.79E-06,0.018068125
,,,-1.78E-06,0.018021875
,,,-1.77E-06,0.018009375
,,,-1.76E-06,0.018118125
,,,-1.75E-06,0.01819
,,,-1.74E-06,0.0179175
,,,-1.73E-06,0.017965
,,,-1.72E-06,0.017918125
,,,-1.71E-06,0.017895
,,,-1.7E-06,0.01808625
,,,-1.69E-06,0.01795375
,,,-1.68E-06,0.01807
,,,-1.67E-06,0.017921875
,,,-1.66E-06,0.018093125
,,,-1.65E-06,0.017931875
,,,-1.64E-06,0.01813125
,,,-1.63E-06,0.017991875
,,,-1.62E-06,0.017869375
,,,-1.61E-06,0.018094375
,,,-1.6E-06,0.018009375
,,,-1.59E-06,0.01799375
,,,-1.58E-06,0.0179375
,,,-1.57E-06,0.018108125
,,,-1.56E-06,0.017855625
,,,-1.55E-06,0.018161875
,,,-1.54E-06,0.0179575
,,,-1.53E-06,0.01811375
,,,-1.52E-06,0.018111875
,,,-1.51E-06,0.01787375
,,,-1.5E-06,0.01809
,,,-1.49E-06,0.018116875
,,,-1.48E-06,0.018045
,,,-1.47E-06,0.01802375
,,,-1.46E-06,0.0179575
,,,-1.45E-06,0.01792
,,,-1.44E-06,0.017886875
,,,-1.43E-06,0.01812875
,,,-1.42E-06,0.018134375
,,,-1.41E-06,0.01798
,,,-1.4E-06,0.01788875
,,,-1.39E-06,0.01811625
,,,-1.38E-06,0.018015
,,,-1.37E-06,0.017910625
,,,-1.36E-06,0.017990625
,,,-1.35E-06,0.017881875
,,,-1.34E-06,0.018003125
,,,-1.33E-06,0.017948125
,,,-1.32E-06,0.017865
,,,-1.31E-06,0.018021875
,,,-1.3E-06,0.01797375
,,,-1.29E-06,0.017878125
,,,-1.28E-06,0.018063125
,,,-1.27E-06,0.017928125
,,,-1.26E-06,0.017905625
,,,-1.25E-06,0.0177825
,,,-1.24E-06,0.0181725
,,,-1.23E-06,0.017735
,,,-1.22E-06,0.017825
,,,-1.21E-06,0.018168125
,,,-1.2E-06,0.018114375
,,,-1.19E-06,0.01814875
,,,-1.18E-06,0.01822875
,,,-1.17E-06,0.01800875
,,,-1.16E-06,0.01782375
,,,-1.15E-06,0.018015
,,,-1.14E-06,0.0178825
,,,-1.13E-06,0.01798125
,,,-1.12E-06,0.01798875
,,,-1.11E-06,0.017904375
,,,-1.1E-06,0.018021875
,,,-1.09E-06,0.018110625
,,,-1.08E-06,0.017998125
,,,-1.07E-06,0.018239375
,,,-1.06E-06,0.018040625
,,,-1.05E-06,0.017835625
,,,-1.04E-06,0.018104375
,,,-1.03E-06,0.017963125
,,,-1.02E-06,0.0180475
,,,-1.01E-06,0.01796875
,,,-1E-06,0.0178975
,,,-9.9E-07,0.01790125
,,,-9.8E-07,0.017914375
,,,-9.7E-07,0.018231875
,,,-9.6E-07,0.017903125
,,,-9.5E-07,0.018085
,,,-9.4E-07,0.0180025
,,,-9.3E-07,0.0177825
,,,-9.2E-07,0.018129375
,,,-9.1E-07,0.01793625
,,,-9E-07,0.018050625
,,,-8.9E-07,0.01787125
,,,-8.8E-07,0.018029375
,,,-8.7E-07,0.01801875
,,,-8.6E-07,0.018275625
,,,-8.5E-07,0.01804625
,,,-8.4E-07,0.018213125
,,,-8.3E-07,0.017671875
,,,-8.2E-07,0.0181375
,,,-8.1E-07,0.017895
,,,-8E-07,0.0180325
,,,-7.9E-07,0.01790375
,,,-7.8E-07,0.01812125
,,,-7.7E-07,0.0180775
,,,-7.6E-07,0.017925
,,,-7.5E-07,0.017805
,,,-7.4E-07,0.018193125
,,,-7.3E-07,0.017954375
,,,-7.2E-07,0.017961875
,,,-7.1E-07,0.01800125
,,,-7E-07,0.017754375
,,,-6.9E-07,0.0179825
,,,-6.8E-07,0.018065625
,,,-6.7E-07,0.018026875
,,,-6.6E-07,0.018015
,,,-6.5E-07,0.0178425
,,,-6.4E-07,0.0179
,,,-6.3E-07,0.01801625
,,,-6.2E-07,0.01827125
,,,-6.1E-07,0.01793875
,,,-6E-07,0.017889375
,,,-5.9E-07,0.017996875
,,,-5.8E-07,0.018105
,,,-5.7E-07,0.018135
,,,-5.6E-07,0.017939375
,,,-5.5E-07,0.018060625
,,,-5.4E-07,0.0178725
,,,-5.3E-07,0.017965
,,,-5.2E-07,0.01825
,,,-5.1E-07,0.0179475
,,,-5E-07,0.0181925
,,,-4.9E-07,0.01792
,,,-4.8E-07,0.017841875
,,,-4.7E-07,0.017893125
,,,-4.6E-07,0.017975
,,,-4.5E-07,0.01803
,,,-4.4E-07,0.01794625
,,,-4.3E-07,0.017983125
,,,-4.2E-07,0.017703125
,,,-4.1E-07,0.0181375
,,,-4E-07,0.01788625
,,,-3.9E-07,0.017728125
,,,-3.8E-07,0.01795375
,,,-3.7E-07,0.018400625
,,,-3.6E-07,0.01798
,,,-3.5E-07,0.01806875
,,,-3.4E-07,0.017775
,,,-3.3E-07,0.01794375
,,,-3.2E-07,0.01778875
,,,-3.1E-07,0.017866875
,,,-3E-07,0.017776875
,,,-2.9E-07,0.018020625
,,,-2.8E-07,0.017970625
,,,-2.7E-07,0.0180675
,,,-2.6E-07,0.0180325
,,,-2.5E-07,0.01808875
,,,-2.4E-07,0.017839375
,,,-2.3E-07,0.018046875
,,,-2.2E-07,0.017756875
,,,-2.1E-07,0.017935
,,,-2E-07,0.018363125
,,,-1.9E-07,0.0179775
,,,-1.8E-07,0.017970625
,,,-1.7E-07,0.017741875
,,,-1.6E-07,0.0180075
,,,-1.5E-07,0.01822875
,,,-1.4E-07,0.0177625
,,,-1.3E-07,0.01817625
,,,-1.2E-07,0.01800125
,,,-1.1E-07,0.018056875
,,,-1E-07,0.01823375
,,,-9E-08,0.018196875
,,,-8E-08,0.01775125
,,,-7E-08,0.017585
,,,-6E-08,0.01802125
,,,-5E-08,0.01830125
,,,-4E-08,0.019398125
,,,-3E-08,0.01789
,,,-2E-08,0.016654999
,,,-1E-08,0.015602499
,,,0,0.0175125
,,,1E-08,0.01936625
,,,2E-08,0.020490625
,,,3E-08,0.0194925
,,,4E-08,0.017858125
,,,5E-08,0.016393124
,,,6E-08,0.016279374
,,,7E-08,0.0173575
,,,8E-08,0.01859
,,,9E-08,0.019135
,,,1E-07,0.01906
,,,1.1E-07,0.018231875
,,,1.2E-07,0.01706125
,,,1.3E-07,0.017100625
,,,1.4E-07,0.01761875
,,,1.5E-07,0.018219375
,,,1.6E-07,0.01816125
,,,1.7E-07,0.018259375
,,,1.8E-07,0.01801
,,,1.9E-07,0.0181825
,,,2E-07,0.0176175
,,,2.1E-07,0.017765
,,,2.2E-07,0.017755
,,,2.3E-07,0.01786
,,,2.4E-07,0.01806
,,,2.5E-07,0.01822875
,,,2.6E-07,0.018061875
,,,2.7E-07,0.01826625
,,,2.8E-07,0.017928125
,,,2.9E-07,0.01767
,,,3E-07,0.018040625
,,,3.1E-07,0.01806625
,,,3.2E-07,0.017945625
,,,3.3E-07,0.01808
,,,3.4E-07,0.018419375
,,,3.5E-07,0.017971875
,,,3.6E-07,0.01803625
,,,3.7E-07,0.0179725
,,,3.8E-07,0.018030625
,,,3.9E-07,0.01787375
,,,4E-07,0.0180125
,,,4.1E-07,0.018150625
,,,4.2E-07,0.0177625
,,,4.3E-07,0.017613125
,,,4.4E-07,0.0177875
,,,4.5E-07,0.0179025
,,,4.6E-07,0.018154375
,,,4.7E-07,0.01784625
,,,4.8E-07,0.01801875
,,,4.9E-07,0.01802625
,,,5E-07,0.01797875
,,,5.1E-07,0.018095
,,,5.2E-07,0.018245625
,,,5.3E-07,0.01797
,,,5.4E-07,0.01766125
,,,5.5E-07,0.017823125
,,,5.6E-07,0.0179525
,,,5.7E-07,0.017730625
,,,5.8E-07,0.018356875
,,,5.9E-07,0.017819375
,,,6E-07,0.01811375
,,,6.1E-07,0.017866875
,,,6.2E-07,0.01799875
,,,6.3E-07,0.01811125
,,,6.4E-07,0.017995625
,,,6.5E-07,0.018145
,,,6.6E-07,0.018066875
,,,6.7E-07,0.017953125
,,,6.8E-07,0.01801875
,,,6.9E-07,0.017703125
,,,7E-07,0.017965625
,,,7.1E-07,0.017809375
,,,7.2E-07,0.01787875
,,,7.3E-07,0.01799875
,,,7.4E-07,0.018093125
,,,7.5E-07,0.0179725
,,,7.6E-07,0.01790875
,,,7.7E-07,0.018038125
,,,7.8E-07,0.017903125
,,,7.9E-07,0.0180475
,,,8E-07,0.0181325
,,,8.1E-07,0.01787875
,,,8.2E-07,0.017830625
,,,8.3E-07,0.018088125
,,,8.4E-07,0.017860625
,,,8.5E-07,0.01794375
,,,8.6E-07,0.018053125
,,,8.7E-07,0.01777375
,,,8.8E-07,0.01784
,,,8.9E-07,0.018184375
,,,9E-07,0.018041875
,,,9.1E-07,0.01794375
,,,9.2E-07,0.01799375
,,,9.3E-07,0.0179225
,,,9.4E-07,0.01793375
,,,9.5E-07,0.018086875
,,,9.6E-07,0.017876875
,,,9.7E-07,0.017945
,,,9.8E-07,0.0180925
,,,9.9E-07,0.01808625
,,,1E-06,0.017620625
,,,1.01E-06,0.018055625
,,,1.02E-06,0.01779625
,,,1.03E-06,0.01771625
,,,1.04E-06,0.01808875
,,,1.05E-06,0.01781125
,,,1.06E-06,0.018011875
,,,1.07E-06,0.01813375
,,,1.08E-06,0.017896875
,,,1.09E-06,0.01806125
,,,1.1E-06,0.018156875
,,,1.11E-06,0.018055625
,,,1.12E-06,0.018064375
,,,1.13E-06,0.017995625
,,,1.14E-06,0.018196875
,,,1.15E-06,0.018084375
,,,1.16E-06,0.017754375
,,,1.17E-06,0.017796875
,,,1.18E-06,0.01788875
,,,1.19E-06,0.017990625
,,,1.2E-06,0.0180475
,,,1.21E-06,0.017778125
,,,1.22E-06,0.018108125
,,,1.23E-06,0.01785
,,,1.24E-06,0.01806875
,,,1.25E-06,0.0180275
,,,1.26E-06,0.017915625
,,,1.27E-06,0.018045
,,,1.28E-06,0.017821875
,,,1.29E-06,0.017874375
,,,1.3E-06,0.01780875
,,,1.31E-06,0.018195625
,,,1.32E-06,0.017833125
,,,1.33E-06,0.018005
,,,1.34E-06,0.01778
,,,1.35E-06,0.0179175
,,,1.36E-06,0.01782
,,,1.37E-06,0.018155
,,,1.38E-06,0.01800375
,,,1.39E-06,0.01787375
,,,1.4E-06,0.018225625
,,,1.41E-06,0.018199375
,,,1.42E-06,0.018091875
,,,1.43E-06,0.017894375
,,,1.44E-06,0.01821375
,,,1.45E-06,0.018016875
,,,1.46E-06,0.017651875
,,,1.47E-06,0.017981875
,,,1.48E-06,0.017964375
,,,1.49E-06,0.017956875
,,,1.5E-06,0.017943125
,,,1.51E-06,0.017983125
,,,1.52E-06,0.0178975
,,,1.53E-06,0.01796
,,,1.54E-06,0.01804875
,,,1.55E-06,0.018085
,,,1.56E-06,0.018014375
,,,1.57E-06,0.018173125
,,,1.58E-06,0.017708125
,,,1.59E-06,0.018255
,,,1.6E-06,0.018029375
,,,1.61E-06,0.017760625
,,,1.62E-06,0.018313125
,,,1.63E-06,0.01808375
,,,1.64E-06,0.017964375
,,,1.65E-06,0.01807
,,,1.66E-06,0.0179025
,,,1.67E-06,0.01789125
,,,1.68E-06,0.018174375
,,,1.69E-06,0.017911875
,,,1.7E-06,0.01798875
,,,1.71E-06,0.017864375
,,,1.72E-06,0.017890625
,,,1.73E-06,0.0180325
,,,1.74E-06,0.018248125
,,,1.75E-06,0.01786
,,,1.76E-06,0.017920625
,,,1.77E-06,0.017803125
,,,1.78E-06,0.017971875
,,,1.79E-06,0.01792875
,,,1.8E-06,0.0181375
,,,1.81E-06,0.0178675
,,,1.82E-06,0.01803375
,,,1.83E-06,0.018030625
,,,1.84E-06,0.0179125
,,,1.85E-06,0.01816875
,,,1.86E-06,0.01787
,,,1.87E-06,0.01817375
,,,1.88E-06,0.017913125
,,,1.89E-06,0.017725
,,,1.9E-06,0.0179175
,,,1.91E-06,0.0181475
,,,1.92E-06,0.018206875
,,,1.93E-06,0.018093125
,,,1.94E-06,0.0183025
,,,1.95E-06,0.017681875
,,,1.96E-06,0.01821875
,,,1.97E-06,0.01795625
,,,1.98E-06,0.018005
,,,1.99E-06,0.017855
,,,2E-06,0.018150625
,,,2.01E-06,0.01797
,,,2.02E-06,0.018116875
,,,2.03E-06,0.01797125
,,,2.04E-06,0.017651875
,,,2.05E-06,0.018173125
,,,2.06E-06,0.018001875
,,,2.07E-06,0.018013125
,,,2.08E-06,0.018084375
,,,2.09E-06,0.0179275
,,,2.1E-06,0.017926875
,,,2.11E-06,0.017895
,,,2.12E-06,0.018018125
,,,2.13E-06,0.018
,,,2.14E-06,0.0179475
,,,2.15E-06,0.017984375
,,,2.16E-06,0.017760625
,,,2.17E-06,0.017871875
,,,2.18E-06,0.0177325
,,,2.19E-06,0.018089375
,,,2.2E-06,0.01810125
,,,2.21E-06,0.01823875
,,,2.22E-06,0.0184275
,,,2.23E-06,0.018054375
,,,2.24E-06,0.01823
,,,2.25E-06,0.018069375
,,,2.26E-06,0.017796875
,,,2.27E-06,0.017895625
,,,2.28E-06,0.01791
,,,2.29E-06,0.017996875
,,,2.3E-06,0.017614375
,,,2.31E-06,0.017856875
,,,2.32E-06,0.01797125
,,,2.33E-06,0.017913125
,,,2.34E-06,0.01802
,,,2.35E-06,0.018224375
,,,2.36E-06,0.01814375
,,,2.37E-06,0.017829375
,,,2.38E-06,0.0177725
,,,2.39E-06,0.01822
,,,2.4E-06,0.0180075
,,,2.41E-06,0.018101875
,,,2.42E-06,0.0179275
,,,2.43E-06,0.017970625
,,,2.44E-06,0.017929375
,,,2.45E-06,0.018005625
,,,2.46E-06,0.017846875
,,,2.47E-06,0.018239375
,,,2.48E-06,0.018459375
,,,2.49E-06,0.017919375
,,,2.5E-06,0.0179575
,,,2.51E-06,0.018239375
,,,2.52E-06,0.018118125
,,,2.53E-06,0.018044375
,,,2.54E-06,0.017976875
,,,2.55E-06,0.01815375
,,,2.56E-06,0.018068125
,,,2.57E-06,0.017868125
,,,2.58E-06,0.018191875
,,,2.59E-06,0.01804625
,,,2.6E-06,0.018090625
,,,2.61E-06,0.01822375
,,,2.62E-06,0.017935625
,,,2.63E-06,0.018081875
,,,2.64E-06,0.017998125
,,,2.65E-06,0.017875625
,,,2.66E-06,0.018011875
,,,2.67E-06,0.01796875
,,,2.68E-06,0.01830375
,,,2.69E-06,0.017961875
,,,2.7E-06,0.018146875
,,,2.71E-06,0.017906875
,,,2.72E-06,0.0179075
,,,2.73E-06,0.017931875
,,,2.74E-06,0.017966875
,,,2.75E-06,0.018320625
,,,2.76E-06,0.0180225
,,,2.77E-06,0.018099375
,,,2.78E-06,0.01792625
,,,2.79E-06,0.018225625
,,,2.8E-06,0.017998125
,,,2.81E-06,0.017931875
,,,2.82E-06,0.018034375
,,,2.83E-06,0.018019375
,,,2.84E-06,0.017941875
,,,2.85E-06,0.01793375
,,,2.86E-06,0.01805375
,,,2.87E-06,0.018300625
,,,2.88E-06,0.018158125
,,,2.89E-06,0.018135
,,,2.9E-06,0.017955625
,,,2.91E-06,0.018185625
,,,2.92E-06,0.0178275
,,,2.93E-06,0.017775625
,,,2.94E-06,0.017950625
,,,2.95E-06,0.01779875
,,,2.96E-06,0.018149375
,,,2.97E-06,0.01798625
,,,2.98E-06,0.017763125
,,,2.99E-06,0.0177775
,,,3E-06,0.01791125
,,,3.01E-06,0.017844375
,,,3.02E-06,0.017989375
,,,3.03E-06,0.018011875
,,,3.04E-06,0.01819625
,,,3.05E-06,0.017979375
,,,3.06E-06,0.0181425
,,,3.07E-06,0.01804625
,,,3.08E-06,0.01840875
,,,3.09E-06,0.017929375
,,,3.1E-06,0.018235625
,,,3.11E-06,0.018039375
,,,3.12E-06,0.01825875
,,,3.13E-06,0.017886875
,,,3.14E-06,0.018148125
,,,3.15E-06,0.017745625
,,,3.16E-06,0.017933125
,,,3.17E-06,0.017765
,,,3.18E-06,0.01785625
,,,3.19E-06,0.01799875
,,,3.2E-06,0.017838125
,,,3.21E-06,0.018031875
,,,3.22E-06,0.0180725
,,,3.23E-06,0.017911875
,,,3.24E-06,0.017858125
,,,3.25E-06,0.01776
,,,3.26E-06,0.017905625
,,,3.27E-06,0.01771625
,,,3.28E-06,0.018015625
,,,3.29E-06,0.01799375
,,,3.3E-06,0.0179875
,,,3.31E-06,0.0181375
,,,3.32E-06,0.018095625
,,,3.33E-06,0.018044375
,,,3.34E-06,0.01779125
,,,3.35E-06,0.0179275
,,,3.36E-06,0.018055
,,,3.37E-06,0.01814625
,,,3.38E-06,0.01813125
,,,3.39E-06,0.018138125
,,,3.4E-06,0.01796625
,,,3.41E-06,0.01797375
,,,3.42E-06,0.018055625
,,,3.43E-06,0.018008125
,,,3.44E-06,0.018104375
,,,3.45E-06,0.01804375
,,,3.46E-06,0.0179425
,,,3.47E-06,0.018055
,,,3.48E-06,0.01780375
,,,3.49E-06,0.017819375
,,,3.5E-06,0.018081875
,,,3.51E-06,0.01790375
,,,3.52E-06,0.01799625
,,,3.53E-06,0.0179475
,,,3.54E-06,0.018205
,,,3.55E-06,0.018244375
