data/raw/Final_POL_Test_1/SOP052_Ch3.csv

"Record Length",1000,"Points",-5E-06,0.021713126
"Sample Interval",1E-08,s,-4.99E-06,0.022143751
"Trigger Point",500,"Samples",-4.98E-06,0.022000001
"Trigger Time",0,s,-4.97E-06,0.022134376
"",,,-4.96E-06,0.022011251
"Horizontal Offset",-5E-06,s,-4.95E-06,0.022013751
,,,-4.94E-06,0.021904376
,,,-4.93E-06,0.021918126
,,,-4.92E-06,0.022215001
,,,-4.91E-06,0.021981876
,,,-4.9E-06,0.022008126
,,,-4.89E-06,0.021664376
,,,-4.88E-06,0.021920001
,,,-4.87E-06,0.021970626
,,,-4.86E-06,0.021641251
,,,-4.85E-06,0.022076251
,,,-4.84E-06,0.022128751
,,,-4.83E-06,0.021659376
,,,-4.82E-06,0.022190626
,,,-4.81E-06,0.022051876
,,,-4.8E-06,0.022022501
,,,-4.79E-06,0.022005001
,,,-4.78E-06,0.021895626
,,,-4.77E-06,0.021901876
,,,-4.76E-06,0.021988126
,,,-4.75E-06,0.022106251
,,,-4.74E-06,0.021948126
,,,-4.73E-06,0.021969376
,,,-4.72E-06,0.022020001
,,,-4.71E-06,0.021923751
,,,-4.7E-06,0.021868751
,,,-4.69E-06,0.021829376
,,,-4.68E-06,0.022017501
,,,-4.67E-06,0.022067501
,,,-4.66E-06,0.022198126
,,,-4.65E-06,0.022052501
,,,-4.64E-06,0.021861251
,,,-4.63E-06,0.021728126
,,,-4.62E-06,0.021791876
,,,-4.61E-06,0.021820001
,,,-4.6E-06,0.021865626
,,,-4.59E-06,0.021672501
,,,-4.58E-06,0.022328751
,,,-4.57E-06,0.021968126
,,,-4.56E-06,0.021885626
,,,-4.55E-06,0.022090001
,,,-4.54E-06,0.022033751
,,,-4.53E-06,0.022086876
,,,-4.52E-06,0.021848126
,,,-4.51E-06,0.021711251
,,,-4.5E-06,0.022001876
,,,-4.49E-06,0.021923751
,,,-4.48E-06,0.022215626
,,,-4.47E-06,0.021710001
,,,-4.46E-06,0.021780001
,,,-4.45E-06,0.022053751
,,,-4.44E-06,0.021830001
,,,-4.43E-06,0.021800626
,,,-4.42E-06,0.022152501
,,,-4.41E-06,0.022192501
,,,-4.4E-06,0.021772501
,,,-4.39E-06,0.021890626
,,,-4.38E-06,0.021971876
,,,-4.37E-06,0.021958751
,,,-4.36E-06,0.021887501
,,,-4.35E-06,0.021857501
,,,-4.34E-06,0.021983751
,,,-4.33E-06,0.021768751
,,,-4.32E-06,0.022111876
,,,-4.31E-06,0.022008126
,,,-4.3E-06,0.022128126
,,,-4.29E-06,0.021900626
,,,-4.28E-06,0.021992501
,,,-4.27E-06,0.021761876
,,,-4.26E-06,0.022003126
,,,-4.25E-06,0.021901876
,,,-4.24E-06,0.021870626
,,,-4.23E-06,0.021721251
,,,-4.22E-06,0.021848751
,,,-4.21E-06,0.021983751
,,,-4.2E-06,0.021881251
,,,-4.19E-06,0.021866251
,,,-4.18E-06,0.021938126
,,,-4.17E-06,0.021915626
,,,-4.16E-06,0.022170626
,,,-4.15E-06,0.021980626
,,,-4.14E-06,0.022112501
,,,-4.13E-06,0.022081251
,,,-4.12E-06,0.021833751
,,,-4.11E-06,0.021903751
,,,-4.1E-06,0.022074376
,,,-4.09E-06,0.021978751
,,,-4.08E-06,0.021886876
,,,-4.07E-06,0.022045626
,,,-4.06E-06,0.021905626
,,,-4.05E-06,0.021996251
,,,-4.04E-06,0.021978126
,,,-4.03E-06,0.022021251
,,,-4.02E-06,0.021837501
,,,-4.01E-06,0.021697501
,,,-4E-06,0.021817501
,,,-3.99E-06,0.021722501
,,,-3.98E-06,0.022126251
,,,-3.97E-06,0.021661876
,,,-3.96E-06,0.021921876
,,,-3.95E-06,0.022286251
,,,-3.94E-06,0.022020626
,,,-3.93E-06,0.021933751
,,,-3.92E-06,0.021898126
,,,-3.91E-06,0.022161251
,,,-3.9E-06,0.021935001
,,,-3.89E-06,0.021948126
,,,-3.88E-06,0.021894376
,,,-3.87E-06,0.021918126
,,,-3.86E-06,0.022150626
,,,-3.85E-06,0.022123126
,,,-3.84E-06,0.021945626
,,,-3.83E-06,0.022088126
,,,-3.82E-06,0.022130001
,,,-3.81E-06,0.022176876
,,,-3.8E-06,0.022085626
,,,-3.79E-06,0.022030001
,,,-3.78E-06,0.022003751
,,,-3.77E-06,0.022193126
,,,-3.76E-06,0.022183751
,,,-3.75E-06,0.021735626
,,,-3.74E-06,0.022031876
,,,-3.73E-06,0.021787501
,,,-3.72E-06,0.021975001
,,,-3.71E-06,0.021960626
,,,-3.7E-06,0.022058751
,,,-3.69E-06,0.022041251
,,,-3.68E-06,0.022142501
,,,-3.67E-06,0.021834376
,,,-3.66E-06,0.021853126
,,,-3.65E-06,0.022057501
,,,-3.64E-06,0.021868126
,,,-3.63E-06,0.021731876
,,,-3.62E-06,0.021866876
,,,-3.61E-06,0.021877501
,,,-3.6E-06,0.021753126
,,,-3.59E-06,0.021894376
,,,-3.58E-06,0.021884376
,,,-3.57E-06,0.021830001
,,,-3.56E-06,0.021727501
,,,-3.55E-06,0.021935001
,,,-3.54E-06,0.021889376
,,,-3.53E-06,0.022092501
,,,-3.52E-06,0.021868126
,,,-3.51E-06,0.022006876
,,,-3.5E-06,0.021836876
,,,-3.49E-06,0.021934376
,,,-3.48E-06,0.021903751
,,,-3.47E-06,0.021900001
,,,-3.46E-06,0.021916876
,,,-3.45E-06,0.021820001
,,,-3.44E-06,0.021858126
,,,-3.43E-06,0.022140001
,,,-3.42E-06,0.022005626
,,,-3.41E-06,0.021926251
,,,-3.4E-06,0.021875626
,,,-3.39E-06,0.022066876
,,,-3.38E-06,0.021855001
,,,-3.37E-06,0.022017501
,,,-3.36E-06,0.022121876
,,,-3.35E-06,0.022132501
,,,-3.34E-06,0.021938126
,,,-3.33E-06,0.021951251
,,,-3.32E-06,0.021971876
,,,-3.31E-06,0.021903126
,,,-3.3E-06,0.021840001
,,,-3.29E-06,0.021946876
,,,-3.28E-06,0.021790001
,,,-3.27E-06,0.021752501
,,,-3.26E-06,0.022170001
,,,-3.25E-06,0.021811876
,,,-3.24E-06,0.022178126
,,,-3.23E-06,0.021881876
,,,-3.22E-06,0.021790001
,,,-3.21E-06,0.021803126
,,,-3.2E-06,0.021918751
,,,-3.19E-06,0.022140626
,,,-3.18E-06,0.022048751
,,,-3.17E-06,0.021955626
,,,-3.16E-06,0.021838751
,,,-3.15E-06,0.021937501
,,,-3.14E-06,0.022073126
,,,-3.13E-06,0.021806251
,,,-3.12E-06,0.022264376
,,,-3.11E-06,0.021911876
,,,-3.1E-06,0.021874376
,,,-3.09E-06,0.022025626
,,,-3.08E-06,0.021923751
,,,-3.07E-06,0.021853751
,,,-3.06E-06,0.021903751
,,,-3.05E-06,0.021581876
,,,-3.04E-06,0.022005001
,,,-3.03E-06,0.022142501
,,,-3.02E-06,0.021892501
,,,-3.01E-06,0.021873751
,,,-3E-06,0.021892501
,,,-2.99E-06,0.022209376
,,,-2.98E-06,0.022148751
,,,-2.97E-06,0.021744376
,,,-2.96E-06,0.022064376
,,,-2.95E-06,0.022060626
,,,-2.94E-06,0.022023751
,,,-2.93E-06,0.021853751
,,,-2.92E-06,0.022155001
,,,-2.91E-06,0.021860001
,,,-2.9E-06,0.021891251
,,,-2.89E-06,0.021941876
,,,-2.88E-06,0.021927501
,,,-2.87E-06,0.021920001
,,,-2.86E-06,0.021936251
,,,-2.85E-06,0.021953126
,,,-2.84E-06,0.022042501
,,,-2.83E-06,0.022051876
,,,-2.82E-06,0.021566876
,,,-2.81E-06,0.021850626
,,,-2.8E-06,0.021885001
,,,-2.79E-06,0.021960626
,,,-2.78E-06,0.021896876
,,,-2.77E-06,0.021938126
,,,-2.76E-06,0.022006251
,,,-2.75E-06,0.021950626
,,,-2.74E-06,0.021946876
,,,-2.73E-06,0.021765001
,,,-2.72E-06,0.021832501
,,,-2.71E-06,0.021975626
,,,-2.7E-06,0.021876876
,,,-2.69E-06,0.021977501
,,,-2.68E-06,0.022102501
,,,-2.67E-06,0.021865626
,,,-2.66E-06,0.021997501
,,,-2.65E-06,0.022003126
,,,-2.64E-06,0.021942501
,,,-2.63E-06,0.022141876
,,,-2.62E-06,0.021882501
,,,-2.61E-06,0.022021251
,,,-2.6E-06,0.021787501
,,,-2.59E-06,0.021726251
,,,-2.58E-06,0.022025626
,,,-2.57E-06,0.021912501
,,,-2.56E-06,0.021780001
,,,-2.55E-06,0.021796876
,,,-2.54E-06,0.022121251
,,,-2.53E-06,0.021800001
,,,-2.52E-06,0.021745626
,,,-2.51E-06,0.021940626
,,,-2.5E-06,0.021948126
,,,-2.49E-06,0.021886876
,,,-2.48E-06,0.021979376
,,,-2.47E-06,0.021845001
,,,-2.46E-06,0.022011251
,,,-2.45E-06,0.021994376
,,,-2.44E-06,0.022051876
,,,-2.43E-06,0.022167501
,,,-2.42E-06,0.021976876
,,,-2.41E-06,0.021938751
,,,-2.4E-06,0.021724376
,,,-2.39E-06,0.022244376
,,,-2.38E-06,0.022210626
,,,-2.37E-06,0.022163751
,,,-2.36E-06,0.022142501
,,,-2.35E-06,0.022076876
,,,-2.34E-06,0.022040001
,,,-2.33E-06,0.021989376
,,,-2.32E-06,0.022003126
,,,-2.31E-06,0.021660001
,,,-2.3E-06,0.021870001
,,,-2.29E-06,0.021711876
,,,-2.28E-06,0.021753751
,,,-2.27E-06,0.022137501
,,,-2.26E-06,0.021946876
,,,-2.25E-06,0.021806876
,,,-2.24E-06,0.022042501
,,,-2.23E-06,0.021943751
,,,-2.22E-06,0.021868751
,,,-2.21E-06,0.022152501
,,,-2.2E-06,0.021898126
,,,-2.19E-06,0.022061251
,,,-2.18E-06,0.021905001
,,,-2.17E-06,0.022013751
,,,-2.16E-06,0.021900626
,,,-2.15E-06,0.022071876
,,,-2.14E-06,0.021910001
,,,-2.13E-06,0.021863751
,,,-2.12E-06,0.021887501
,,,-2.11E-06,0.021673126
,,,-2.1E-06,0.021925626
,,,-2.09E-06,0.021933126
,,,-2.08E-06,0.022001251
,,,-2.07E-06,0.021936251
,,,-2.06E-06,0.022048751
,,,-2.05E-06,0.022031876
,,,-2.04E-06,0.022163126
,,,-2.03E-06,0.021956876
,,,-2.02E-06,0.021835001
,,,-2.01E-06,0.021985626
,,,-2E-06,0.021992501
,,,-1.99E-06,0.022100001
,,,-1.98E-06,0.022057501
,,,-1.97E-06,0.021883751
,,,-1.96E-06,0.021791251
,,,-1.95E-06,0.022082501
,,,-1.94E-06,0.021867501
,,,-1.93E-06,0.022056876
,,,-1.92E-06,0.022200001
,,,-1.91E-06,0.021930001
,,,-1.9E-06,0.021747501
,,,-1.89E-06,0.022135626
,,,-1.88E-06,0.022082501
,,,-1.87E-06,0.021913126
,,,-1.86E-06,0.021895001
,,,-1.85E-06,0.021875001
,,,-1.84E-06,0.022033126
,,,-1.83E-06,0.022017501
,,,-1.82E-06,0.021894376
,,,-1.81E-06,0.021880626
,,,-1.8E-06,0.021827501
,,,-1.79E-06,0.022030001
,,,-1.78E-06,0.021847501
,,,-1.77E-06,0.021813751
,,,-1.76E-06,0.022000626
,,,-1.75E-06,0.022005001
,,,-1.74E-06,0.022022501
,,,-1.73E-06,0.021985626
,,,-1.72E-06,0.021950001
,,,-1.71E-06,0.022066876
,,,-1.7E-06,0.021969376
,,,-1.69E-06,0.022121876
,,,-1.68E-06,0.022172501
,,,-1.67E-06,0.022075001
,,,-1.66E-06,0.021955001
,,,-1.65E-06,0.021923751
,,,-1.64E-06,0.021853126
,,,-1.63E-06,0.021915626
,,,-1.62E-06,0.022116251
,,,-1.61E-06,0.022407501
,,,-1.6E-06,0.021986876
,,,-1.59E-06,0.021975626
,,,-1.58E-06,0.021925626
,,,-1.57E-06,0.021929376
,,,-1.56E-06,0.022095001
,,,-1.55E-06,0.022190001
,,,-1.54E-06,0.021917501
,,,-1.53E-06,0.021776876
,,,-1.52E-06,0.022246876
,,,-1.51E-06,0.021798126
,,,-1.5E-06,0.021990001
,,,-1.49E-06,0.021897501
,,,-1.48E-06,0.021884376
,,,-1.47E-06,0.021863126
,,,-1.46E-06,0.022145001
,,,-1.45E-06,0.022212501
,,,-1.44E-06,0.022046876
,,,-1.43E-06,0.022033126
,,,-1.42E-06,0.021881251
,,,-1.41E-06,0.022157501
,,,-1.4E-06,0.021900001
,,,-1.39E-06,0.021691251
,,,-1.38E-06,0.022044376
,,,-1.37E-06,0.021854376
,,,-1.36E-06,0.022015626
,,,-1.35E-06,0.021978126
,,,-1.34E-06,0.022107501
,,,-1.33E-06,0.022095626
,,,-1.32E-06,0.021910001
,,,-1.31E-06,0.022182501
,,,-1.3E-06,0.021863126
,,,-1.29E-06,0.021984376
,,,-1.28E-06,0.021911876
,,,-1.27E-06,0.021790001
,,,-1.26E-06,0.021971251
,,,-1.25E-06,0.022051876
,,,-1.24E-06,0.021818751
,,,-1.23E-06,0.022080626
,,,-1.22E-06,0.022022501
,,,-1.21E-06,0.021853126
,,,-1.2E-06,0.022048751
,,,-1.19E-06,0.021867501
,,,-1.18E-06,0.022092501
,,,-1.17E-06,0.022068751
,,,-1.16E-06,0.021958126
,,,-1.15E-06,0.021910001
,,,-1.14E-06,0.021955001
,,,-1.13E-06,0.021898751
,,,-1.12E-06,0.021821876
,,,-1.11E-06,0.021901876
,,,-1.1E-06,0.021926251
,,,-1.09E-06,0.022018126
,,,-1.08E-06,0.021819376
,,,-1.07E-06,0.021770001
,,,-1.06E-06,0.021895001
,,,-1.05E-06,0.022091251
,,,-1.04E-06,0.021955001
,,,-1.03E-06,0.021844376
,,,-1.02E-06,0.021676876
,,,-1.01E-06,0.021997501
,,,-1E-06,0.021900626
,,,-9.9E-07,0.022133751
,,,-9.8E-07,0.021946876
,,,-9.7E-07,0.021875001
,,,-9.6E-07,0.021953126
,,,-9.5E-07,0.021560626
,,,-9.4E-07,0.021905626
,,,-9.3E-07,0.021878751
,,,-9.2E-07,0.022081876
,,,-9.1E-07,0.021900626
,,,-9E-07,0.021821251
,,,-8.9E-07,0.022278126
,,,-8.8E-07,0.022138751
,,,-8.7E-07,0.021754376
,,,-8.6E-07,0.021939376
,,,-8.5E-07,0.021862501
,,,-8.4E-07,0.022005001
,,,-8.3E-07,0.022073126
,,,-8.2E-07,0.021865626
,,,-8.1E-07,0.021911876
,,,-8E-07,0.021944376
,,,-7.9E-07,0.022076251
,,,-7.8E-07,0.022060626
,,,-7.7E-07,0.021897501
,,,-7.6E-07,0.021997501
,,,-7.5E-07,0.021935001
,,,-7.4E-07,0.021965626
,,,-7.3E-07,0.021820001
,,,-7.2E-07,0.022031251
,,,-7.1E-07,0.022196876
,,,-7E-07,0.021978751
,,,-6.9E-07,0.021843126
,,,-6.8E-07,0.022113126
,,,-6.7E-07,0.021976251
,,,-6.6E-07,0.021977501
,,,-6.5E-07,0.021668126
,,,-6.4E-07,0.022058126
,,,-6.3E-07,0.021956876
,,,-6.2E-07,0.021940001
,,,-6.1E-07,0.022000001
,,,-6E-07,0.021846251
,,,-5.9E-07,0.021741876
,,,-5.8E-07,0.021795001
,,,-5.7E-07,0.022048751
,,,-5.6E-07,0.021812501
,,,-5.5E-07,0.021895001
,,,-5.4E-07,0.022204376
,,,-5.3E-07,0.021990001
,,,-5.2E-07,0.021979376
,,,-5.1E-07,0.022018126
,,,-5E-07,0.021678751
,,,-4.9E-07,0.022045626
,,,-4.8E-07,0.021918751
,,,-4.7E-07,0.021981876
,,,-4.6E-07,0.022083751
,,,-4.5E-07,0.021878126
,,,-4.4E-07,0.021957501
,,,-4.3E-07,0.022135001
,,,-4.2E-07,0.021731251
,,,-4.1E-07,0.022053126
,,,-4E-07,0.021825001
,,,-3.9E-07,0.022018751
,,,-3.8E-07,0.022186876
,,,-3.7E-07,0.022011876
,,,-3.6E-07,0.021957501
,,,-3.5E-07,0.022081876
,,,-3.4E-07,0.022056251
,,,-3.3E-07,0.021762501
,,,-3.2E-07,0.021933751
,,,-3.1E-07,0.021923126
,,,-3E-07,0.021874376
,,,-2.9E-07,0.021900626
,,,-2.8E-07,0.022066251
,,,-2.7E-07,0.021838126
,,,-2.6E-07,0.021916251
,,,-2.5E-07,0.021740626
,,,-2.4E-07,0.022032501
,,,-2.3E-07,0.021926876
,,,-2.2E-07,0.021830001
,,,-2.1E-07,0.022245001
,,,-2E-07,0.022124376
,,,-1.9E-07,0.021855001
,,,-1.8E-07,0.021802501
,,,-1.7E-07,0.021888126
,,,-1.6E-07,0.021900001
,,,-1.5E-07,0.021999376
,,,-1.4E-07,0.021989376
,,,-1.3E-07,0.021878126
,,,-1.2E-07,0.021972501
,,,-1.1E-07,0.022028751
,,,-1E-07,0.022205001
,,,-9E-08,0.022143751
,,,-8E-08,0.021791876
,,,-7E-08,0.021733751
,,,-6E-08,0.021708126
,,,-5E-08,0.022835626
,,,-4E-08,0.023479376
,,,-3E-08,0.023067501
,,,-2E-08,0.020475001
,,,-1E-08,0.019570001
,,,0,0.020426876
,,,1E-08,0.022882501
,,,2E-08,0.023923126
,,,3E-08,0.023545001
,,,4E-08,0.021965001
,,,5E-08,0.021185626
,,,6E-08,0.020342501
,,,7E-08,0.021030001
,,,8E-08,0.022023126
,,,9E-08,0.022777501
,,,1E-07,0.022733126
,,,1.1E-07,0.022311876
,,,1.2E-07,0.021362501
,,,1.3E-07,0.021548751
,,,1.4E-07,0.021718126
,,,1.5E-07,0.021940626
,,,1.6E-07,0.022033751
,,,1.7E-07,0.021994376
,,,1.8E-07,0.022167501
,,,1.9E-07,0.022239376
,,,2E-07,0.021696876
,,,2.1E-07,0.021955626
,,,2.2E-07,0.021800626
,,,2.3E-07,0.022078751
,,,2.4E-07,0.022019376
,,,2.5E-07,0.021947501
,,,2.6E-07,0.022083751
,,,2.7E-07,0.022201251
,,,2.8E-07,0.021795001
,,,2.9E-07,0.021947501
,,,3E-07,0.021827501
,,,3.1E-07,0.022078126
,,,3.2E-07,0.022125001
,,,3.3E-07,0.021950626
,,,3.4E-07,0.021884376
,,,3.5E-07,0.021951876
,,,3.6E-07,0.021553751
,,,3.7E-07,0.022205626
,,,3.8E-07,0.022030626
,,,3.9E-07,0.021931251
,,,4E-07,0.022238126
,,,4.1E-07,0.021947501
,,,4.2E-07,0.022011876
,,,4.3E-07,0.022190626
,,,4.4E-07,0.022040626
,,,4.5E-07,0.022115001
,,,4.6E-07,0.022037501
,,,4.7E-07,0.021581876
,,,4.8E-07,0.022020001
,,,4.9E-07,0.022031251
,,,5E-07,0.021876251
,,,5.1E-07,0.022097501
,,,5.2E-07,0.021886876
,,,5.3E-07,0.021660001
,,,5.4E-07,0.021967501
,,,5.5E-07,0.022065626
,,,5.6E-07,0.021726251
,,,5.7E-07,0.021905001
,,,5.8E-07,0.022148126
,,,5.9E-07,0.021950626
,,,6E-07,0.022086876
,,,6.1E-07,0.022040001
,,,6.2E-07,0.021936251
,,,6.3E-07,0.021798126
,,,6.4E-07,0.021971876
,,,6.5E-07,0.021758126
,,,6.6E-07,0.021811876
,,,6.7E-07,0.021941251
,,,6.8E-07,0.021994376
,,,6.9E-07,0.021985001
,,,7E-07,0.022016251
,,,7.1E-07,0.021983751
,,,7.2E-07,0.022039376
,,,7.3E-07,0.021819376
,,,7.4E-07,0.021975001
,,,7.5E-07,0.022009376
,,,7.6E-07,0.021650626
,,,7.7E-07,0.022052501
,,,7.8E-07,0.022013126
,,,7.9E-07,0.022159376
,,,8E-07,0.021891251
,,,8.1E-07,0.021866876
,,,8.2E-07,0.021730626
,,,8.3E-07,0.021880001
,,,8.4E-07,0.022055001
,,,8.5E-07,0.021990626
,,,8.6E-07,0.022027501
,,,8.7E-07,0.022172501
,,,8.8E-07,0.022190001
,,,8.9E-07,0.021783751
,,,9E-07,0.021605001
,,,9.1E-07,0.022027501
,,,9.2E-07,0.021870626
,,,9.3E-07,0.021812501
,,,9.4E-07,0.022181876
,,,9.5E-07,0.022043126
,,,9.6E-07,0.021841876
,,,9.7E-07,0.022042501
,,,9.8E-07,0.021823751
,,,9.9E-07,0.021913751
,,,1E-06,0.022127501
,,,1.01E-06,0.022022501
,,,1.02E-06,0.022090626
,,,1.03E-06,0.022056251
,,,1.04E-06,0.022071876
,,,1.05E-06,0.021920001
,,,1.06E-06,0.021910626
,,,1.07E-06,0.022080626
,,,1.08E-06,0.021878751
,,,1.09E-06,0.022048751
,,,1.1E-06,0.021846251
,,,1.11E-06,0.021785626
,,,1.12E-06,0.021906876
,,,1.13E-06,0.021926876
,,,1.14E-06,0.022230626
,,,1.15E-06,0.021938126
,,,1.16E-06,0.021823751
,,,1.17E-06,0.021761876
,,,1.18E-06,0.022133126
,,,1.19E-06,0.022040626
,,,1.2E-06,0.021816251
,,,1.21E-06,0.021989376
,,,1.22E-06,0.021923126
,,,1.23E-06,0.022016876
,,,1.24E-06,0.022015626
,,,1.25E-06,0.022041876
,,,1.26E-06,0.022003126
,,,1.27E-06,0.022089376
,,,1.28E-06,0.022031876
,,,1.29E-06,0.022101251
,,,1.3E-06,0.022088751
,,,1.31E-06,0.021781251
,,,1.32E-06,0.021846251
,,,1.33E-06,0.022149376
,,,1.34E-06,0.022110626
,,,1.35E-06,0.021866876
,,,1.36E-06,0.021964376
,,,1.37E-06,0.022107501
,,,1.38E-06,0.021953126
,,,1.39E-06,0.021825626
,,,1.4E-06,0.021836876
,,,1.41E-06,0.022060001
,,,1.42E-06,0.022155626
,,,1.43E-06,0.021913751
,,,1.44E-06,0.022000001
,,,1.45E-06,0.021878126
,,,1.46E-06,0.021898751
,,,1.47E-06,0.021913751
,,,1.48E-06,0.021998126
,,,1.49E-06,0.021993126
,,,1.5E-06,0.021881876
,,,1.51E-06,0.022028126
,,,1.52E-06,0.022028126
,,,1.53E-06,0.021858751
,,,1.54E-06,0.022246251
,,,1.55E-06,0.021990001
,,,1.56E-06,0.022118751
,,,1.57E-06,0.021970626
,,,1.58E-06,0.021823126
,,,1.59E-06,0.022023126
,,,1.6E-06,0.021843126
,,,1.61E-06,0.021774376
,,,1.62E-06,0.021813751
,,,1.63E-06,0.021850626
,,,1.64E-06,0.021933126
,,,1.65E-06,0.021875626
,,,1.66E-06,0.022063751
,,,1.67E-06,0.022080001
,,,1.68E-06,0.021958126
,,,1.69E-06,0.021953751
,,,1.7E-06,0.022207501
,,,1.71E-06,0.022024376
,,,1.72E-06,0.022171876
,,,1.73E-06,0.022009376
,,,1.74E-06,0.021943126
,,,1.75E-06,0.022065001
,,,1.76E-06,0.022089376
,,,1.77E-06,0.021906876
,,,1.78E-06,0.021855001
,,,1.79E-06,0.022213751
,,,1.8E-06,0.022020001
,,,1.81E-06,0.022140626
,,,1.82E-06,0.021724376
,,,1.83E-06,0.021939376
,,,1.84E-06,0.021814376
,,,1.85E-06,0.022111251
,,,1.86E-06,0.021789376
,,,1.87E-06,0.022020001
,,,1.88E-06,0.021783126
,,,1.89E-06,0.021842501
,,,1.9E-06,0.022094376
,,,1.91E-06,0.021933126
,,,1.92E-06,0.022021876
,,,1.93E-06,0.021909376
,,,1.94E-06,0.021938751
,,,1.95E-06,0.022061251
,,,1.96E-06,0.022016876
,,,1.97E-06,0.021928126
,,,1.98E-06,0.022016876
,,,1.99E-06,0.022185001
,,,2E-06,0.021932501
,,,2.01E-06,0.021888751
,,,2.02E-06,0.021986251
,,,2.03E-06,0.022039376
,,,2.04E-06,0.021991251
,,,2.05E-06,0.021914376
,,,2.06E-06,0.021991251
,,,2.07E-06,0.022279376
,,,2.08E-06,0.022226876
,,,2.09E-06,0.022081876
,,,2.1E-06,0.021718126
,,,2.11E-06,0.021997501
,,,2.12E-06,0.022043126
,,,2.13E-06,0.022010001
,,,2.14E-06,0.021957501
,,,2.15E-06,0.021850001
,,,2.16E-06,0.021705001
,,,2.17E-06,0.022020626
,,,2.18E-06,0.022088751
,,,2.19E-06,0.021771251
,,,2.2E-06,0.022159376
,,,2.21E-06,0.021840001
,,,2.22E-06,0.021753126
,,,2.23E-06,0.021930001
,,,2.24E-06,0.022140626
,,,2.25E-06,0.021948751
,,,2.26E-06,0.022124376
,,,2.27E-06,0.021780626
,,,2.28E-06,0.021941876
,,,2.29E-06,0.021989376
,,,2.3E-06,0.021951876
,,,2.31E-06,0.021990001
,,,2.32E-06,0.021577501
,,,2.33E-06,0.021930001
,,,2.34E-06,0.021975001
,,,2.35E-06,0.021982501
,,,2.36E-06,0.022024376
,,,2.37E-06,0.021850001
,,,2.38E-06,0.022022501
,,,2.39E-06,0.022037501
,,,2.4E-06,0.022055001
,,,2.41E-06,0.021846876
,,,2.42E-06,0.022050626
,,,2.43E-06,0.021881876
,,,2.44E-06,0.022185626
,,,2.45E-06,0.022056251
,,,2.46E-06,0.021910001
,,,2.47E-06,0.021970001
,,,2.48E-06,0.021834376
,,,2.49E-06,0.022143126
,,,2.5E-06,0.021943751
,,,2.51E-06,0.022320001
,,,2.52E-06,0.022008126
,,,2.53E-06,0.021876251
,,,2.54E-06,0.021932501
,,,2.55E-06,0.021872501
,,,2.56E-06,0.021898126
,,,2.57E-06,0.021977501
,,,2.58E-06,0.021715626
,,,2.59E-06,0.022014376
,,,2.6E-06,0.021976876
,,,2.61E-06,0.021898751
,,,2.62E-06,0.021976876
,,,2.63E-06,0.021958751
,,,2.64E-06,0.022002501
,,,2.65E-06,0.022033126
,,,2.66E-06,0.021915001
,,,2.67E-06,0.022182501
,,,2.68E-06,0.021976251
,,,2.69E-06,0.022042501
,,,2.7E-06,0.021820626
,,,2.71E-06,0.022026251
,,,2.72E-06,0.021907501
,,,2.73E-06,0.022133751
,,,2.74E-06,0.021960001
,,,2.75E-06,0.021897501
,,,2.76E-06,0.022071876
,,,2.77E-06,0.021906251
,,,2.78E-06,0.022048126
,,,2.79E-06,0.022245626
,,,2.8E-06,0.021748126
,,,2.81E-06,0.022021251
,,,2.82E-06,0.021925001
,,,2.83E-06,0.021821251
,,,2.84E-06,0.021930626
,,,2.85E-06,0.021958126
,,,2.86E-06,0.021915001
,,,2.87E-06,0.022018126
,,,2.88E-06,0.022110001
,,,2.89E-06,0.022033751
,,,2.9E-06,0.021625001
,,,2.91E-06,0.022150626
,,,2.92E-06,0.022086876
,,,2.93E-06,0.021981876
,,,2.94E-06,0.021940001
,,,2.95E-06,0.021725001
,,,2.96E-06,0.021947501
,,,2.97E-06,0.022125626
,,,2.98E-06,0.021966251
,,,2.99E-06,0.021684376
,,,3E-06,0.021921251
,,,3.01E-06,0.021921876
,,,3.02E-06,0.021715001
,,,3.03E-06,0.021790001
,,,3.04E-06,0.021851251
,,,3.05E-06,0.021944376
,,,3.06E-06,0.021796251
,,,3.07E-06,0.021980626
,,,3.08E-06,0.021828751
,,,3.09E-06,0.021893126
,,,3.1E-06,0.021812501
,,,3.11E-06,0.021676876
,,,3.12E-06,0.022024376
,,,3.13E-06,0.021971251
,,,3.14E-06,0.021921876
,,,3.15E-06,0.021958126
,,,3.16E-06,0.021936876
,,,3.17E-06,0.022016876
,,,3.18E-06,0.021952501
,,,3.19E-06,0.021963126
,,,3.2E-06,0.021791876
,,,3.21E-06,0.021751251
