data/raw/Final_POL_Test_1/SOP000_Ch3.csv

"Record Length",1000,"Points",-5E-06,0.017891251
"Sample Interval",1E-08,s,-4.99E-06,0.018184376
"Trigger Point",500,"Samples",-4.98E-06,0.017980626
"Trigger Time",0,s,-4.97E-06,0.018092501
"",,,-4.96E-06,0.017944376
"Horizontal Offset",-5E-06,s,-4.95E-06,0.018137501
,,,-4.94E-06,0.018016876
,,,-4.93E-06,0.017952501
,,,-4.92E-06,0.017898751
,,,-4.91E-06,0.018061251
,,,-4.9E-06,0.018121876
,,,-4.89E-06,0.018133126
,,,-4.88E-06,0.018257501
,,,-4.87E-06,0.018100626
,,,-4.86E-06,0.018196251
,,,-4.85E-06,0.017953126
,,,-4.84E-06,0.017929376
,,,-4.83E-06,0.017981876
,,,-4.82E-06,0.018184376
,,,-4.81E-06,0.017963751
,,,-4.8E-06,0.017795626
,,,-4.79E-06,0.018026876
,,,-4.78E-06,0.018139376
,,,-4.77E-06,0.017783751
,,,-4.76E-06,0.018075001
,,,-4.75E-06,0.018253126
,,,-4.74E-06,0.018288751
,,,-4.73E-06,0.018092501
,,,-4.72E-06,0.017885001
,,,-4.71E-06,0.017925626
,,,-4.7E-06,0.018154376
,,,-4.69E-06,0.018167501
,,,-4.68E-06,0.018085001
,,,-4.67E-06,0.017716876
,,,-4.66E-06,0.017882501
,,,-4.65E-06,0.018117501
,,,-4.64E-06,0.018079376
,,,-4.63E-06,0.018088751
,,,-4.62E-06,0.018170626
,,,-4.61E-06,0.018080626
,,,-4.6E-06,0.017908126
,,,-4.59E-06,0.018125626
,,,-4.58E-06,0.018052501
,,,-4.57E-06,0.018005001
,,,-4.56E-06,0.018001251
,,,-4.55E-06,0.018245001
,,,-4.54E-06,0.017932501
,,,-4.53E-06,0.017929376
,,,-4.52E-06,0.018218751
,,,-4.51E-06,0.018128126
,,,-4.5E-06,0.017990001
,,,-4.49E-06,0.018082501
,,,-4.48E-06,0.017987501
,,,-4.47E-06,0.018095001
,,,-4.46E-06,0.017983126
,,,-4.45E-06,0.018163126
,,,-4.44E-06,0.018101251
,,,-4.43E-06,0.018088126
,,,-4.42E-06,0.018032501
,,,-4.41E-06,0.018119376
,,,-4.4E-06,0.017952501
,,,-4.39E-06,0.018140626
,,,-4.38E-06,0.017970626
,,,-4.37E-06,0.018122501
,,,-4.36E-06,0.018087501
,,,-4.35E-06,0.018150001
,,,-4.34E-06,0.018256251
,,,-4.33E-06,0.018264376
,,,-4.32E-06,0.017911876
,,,-4.31E-06,0.018129376
,,,-4.3E-06,0.018087501
,,,-4.29E-06,0.018041876
,,,-4.28E-06,0.017976876
,,,-4.27E-06,0.018029376
,,,-4.26E-06,0.017858751
,,,-4.25E-06,0.017880001
,,,-4.24E-06,0.018063751
,,,-4.23E-06,0.017805001
,,,-4.22E-06,0.017833126
,,,-4.21E-06,0.017992501
,,,-4.2E-06,0.018098126
,,,-4.19E-06,0.018330626
,,,-4.18E-06,0.017993126
,,,-4.17E-06,0.017897501
,,,-4.16E-06,0.018212501
,,,-4.15E-06,0.018141251
,,,-4.14E-06,0.018251876
,,,-4.13E-06,0.018221876
,,,-4.12E-06,0.017930626
,,,-4.11E-06,0.018006251
,,,-4.1E-06,0.018266876
,,,-4.09E-06,0.018389376
,,,-4.08E-06,0.018093126
,,,-4.07E-06,0.018101876
,,,-4.06E-06,0.017951251
,,,-4.05E-06,0.017954376
,,,-4.04E-06,0.017992501
,,,-4.03E-06,0.017998751
,,,-4.02E-06,0.018185001
,,,-4.01E-06,0.018001251
,,,-4E-06,0.018027501
,,,-3.99E-06,0.017906251
,,,-3.98E-06,0.018270626
,,,-3.97E-06,0.018231876
,,,-3.96E-06,0.018094376
,,,-3.95E-06,0.018163126
,,,-3.94E-06,0.018171251
,,,-3.93E-06,0.018010626
,,,-3.92E-06,0.018081876
,,,-3.91E-06,0.017985626
,,,-3.9E-06,0.017974376
,,,-3.89E-06,0.017992501
,,,-3.88E-06,0.018089376
,,,-3.87E-06,0.018250626
,,,-3.86E-06,0.017993126
,,,-3.85E-06,0.018280001
,,,-3.84E-06,0.017990626
,,,-3.83E-06,0.018159376
,,,-3.82E-06,0.018006251
,,,-3.81E-06,0.018174376
,,,-3.8E-06,0.018075626
,,,-3.79E-06,0.018048751
,,,-3.78E-06,0.018024376
,,,-3.77E-06,0.018238126
,,,-3.76E-06,0.017952501
,,,-3.75E-06,0.018401251
,,,-3.74E-06,0.017957501
,,,-3.73E-06,0.018248751
,,,-3.72E-06,0.018168126
,,,-3.71E-06,0.018223751
,,,-3.7E-06,0.018035001
,,,-3.69E-06,0.017995626
,,,-3.68E-06,0.017923126
,,,-3.67E-06,0.018250626
,,,-3.66E-06,0.018125001
,,,-3.65E-06,0.017962501
,,,-3.64E-06,0.018063126
,,,-3.63E-06,0.017911251
,,,-3.62E-06,0.018041876
,,,-3.61E-06,0.018101251
,,,-3.6E-06,0.018273126
,,,-3.59E-06,0.018182501
,,,-3.58E-06,0.018140001
,,,-3.57E-06,0.018034376
,,,-3.56E-06,0.018162501
,,,-3.55E-06,0.018315626
,,,-3.54E-06,0.018146876
,,,-3.53E-06,0.018068751
,,,-3.52E-06,0.018038126
,,,-3.51E-06,0.018236251
,,,-3.5E-06,0.017965626
,,,-3.49E-06,0.017831251
,,,-3.48E-06,0.017976876
,,,-3.47E-06,0.017860626
,,,-3.46E-06,0.018115626
,,,-3.45E-06,0.017958126
,,,-3.44E-06,0.018230001
,,,-3.43E-06,0.018036251
,,,-3.42E-06,0.018217501
,,,-3.41E-06,0.017929376
,,,-3.4E-06,0.017865001
,,,-3.39E-06,0.017915001
,,,-3.38E-06,0.017968751
,,,-3.37E-06,0.017995001
,,,-3.36E-06,0.018161251
,,,-3.35E-06,0.017946251
,,,-3.34E-06,0.017975626
,,,-3.33E-06,0.018115626
,,,-3.32E-06,0.017950626
,,,-3.31E-06,0.017869376
,,,-3.3E-06,0.017943751
,,,-3.29E-06,0.018038126
,,,-3.28E-06,0.018100626
,,,-3.27E-06,0.018145626
,,,-3.26E-06,0.018228751
,,,-3.25E-06,0.018097501
,,,-3.24E-06,0.017909376
,,,-3.23E-06,0.017996251
,,,-3.22E-06,0.017958751
,,,-3.21E-06,0.018165626
,,,-3.2E-06,0.018223126
,,,-3.19E-06,0.018105001
,,,-3.18E-06,0.018175626
,,,-3.17E-06,0.017978126
,,,-3.16E-06,0.017908126
,,,-3.15E-06,0.017913126
,,,-3.14E-06,0.017905001
,,,-3.13E-06,0.018057501
,,,-3.12E-06,0.018222501
,,,-3.11E-06,0.018223751
,,,-3.1E-06,0.018019376
,,,-3.09E-06,0.018195626
,,,-3.08E-06,0.017994376
,,,-3.07E-06,0.017801876
,,,-3.06E-06,0.017976876
,,,-3.05E-06,0.017883751
,,,-3.04E-06,0.018062501
,,,-3.03E-06,0.017811876
,,,-3.02E-06,0.017942501
,,,-3.01E-06,0.018325001
,,,-3E-06,0.018215001
,,,-2.99E-06,0.018122501
,,,-2.98E-06,0.018168751
,,,-2.97E-06,0.017968751
,,,-2.96E-06,0.018118751
,,,-2.95E-06,0.018010626
,,,-2.94E-06,0.018200626
,,,-2.93E-06,0.017887501
,,,-2.92E-06,0.017972501
,,,-2.91E-06,0.018324376
,,,-2.9E-06,0.018190626
,,,-2.89E-06,0.018000001
,,,-2.88E-06,0.018123126
,,,-2.87E-06,0.018012501
,,,-2.86E-06,0.017972501
,,,-2.85E-06,0.018235001
,,,-2.84E-06,0.018103126
,,,-2.83E-06,0.018216251
,,,-2.82E-06,0.018193751
,,,-2.81E-06,0.017956876
,,,-2.8E-06,0.018150626
,,,-2.79E-06,0.017952501
,,,-2.78E-06,0.018108751
,,,-2.77E-06,0.018156251
,,,-2.76E-06,0.018155001
,,,-2.75E-06,0.018214376
,,,-2.74E-06,0.018136251
,,,-2.73E-06,0.017961251
,,,-2.72E-06,0.018025001
,,,-2.71E-06,0.018098751
,,,-2.7E-06,0.018181876
,,,-2.69E-06,0.018097501
,,,-2.68E-06,0.017910626
,,,-2.67E-06,0.018272501
,,,-2.66E-06,0.018155626
,,,-2.65E-06,0.017997501
,,,-2.64E-06,0.018027501
,,,-2.63E-06,0.018126876
,,,-2.62E-06,0.017763126
,,,-2.61E-06,0.018040626
,,,-2.6E-06,0.017896251
,,,-2.59E-06,0.018027501
,,,-2.58E-06,0.017936251
,,,-2.57E-06,0.017911876
,,,-2.56E-06,0.018332501
,,,-2.55E-06,0.018121876
,,,-2.54E-06,0.017891251
,,,-2.53E-06,0.018174376
,,,-2.52E-06,0.017882501
,,,-2.51E-06,0.017966876
,,,-2.5E-06,0.017736876
,,,-2.49E-06,0.018050626
,,,-2.48E-06,0.018213751
,,,-2.47E-06,0.017971876
,,,-2.46E-06,0.018190001
,,,-2.45E-06,0.018061876
,,,-2.44E-06,0.018264376
,,,-2.43E-06,0.017897501
,,,-2.42E-06,0.018000001
,,,-2.41E-06,0.018354376
,,,-2.4E-06,0.017956251
,,,-2.39E-06,0.017958126
,,,-2.38E-06,0.018080001
,,,-2.37E-06,0.017960001
,,,-2.36E-06,0.017911251
,,,-2.35E-06,0.017821876
,,,-2.34E-06,0.018376876
,,,-2.33E-06,0.017976251
,,,-2.32E-06,0.018260001
,,,-2.31E-06,0.018151251
,,,-2.3E-06,0.017917501
,,,-2.29E-06,0.018090001
,,,-2.28E-06,0.018111251
,,,-2.27E-06,0.018081876
,,,-2.26E-06,0.017980001
,,,-2.25E-06,0.017961251
,,,-2.24E-06,0.018144376
,,,-2.23E-06,0.018071876
,,,-2.22E-06,0.018193126
,,,-2.21E-06,0.018293126
,,,-2.2E-06,0.017915626
,,,-2.19E-06,0.018257501
,,,-2.18E-06,0.018131876
,,,-2.17E-06,0.018032501
,,,-2.16E-06,0.017955626
,,,-2.15E-06,0.018134376
,,,-2.14E-06,0.017913126
,,,-2.13E-06,0.017918126
,,,-2.12E-06,0.017859376
,,,-2.11E-06,0.017942501
,,,-2.1E-06,0.017950001
,,,-2.09E-06,0.017868126
,,,-2.08E-06,0.017859376
,,,-2.07E-06,0.018263126
,,,-2.06E-06,0.017837501
,,,-2.05E-06,0.017890001
,,,-2.04E-06,0.018191876
,,,-2.03E-06,0.018066251
,,,-2.02E-06,0.018015626
,,,-2.01E-06,0.017902501
,,,-2E-06,0.017996876
,,,-1.99E-06,0.017929376
,,,-1.98E-06,0.018171876
,,,-1.97E-06,0.017995001
,,,-1.96E-06,0.018105001
,,,-1.95E-06,0.018143751
,,,-1.94E-06,0.018041876
,,,-1.93E-06,0.017986251
,,,-1.92E-06,0.018046876
,,,-1.91E-06,0.018064376
,,,-1.9E-06,0.018089376
,,,-1.89E-06,0.018039376
,,,-1.88E-06,0.017931251
,,,-1.87E-06,0.018176876
,,,-1.86E-06,0.017978126
,,,-1.85E-06,0.017968751
,,,-1.84E-06,0.018033751
,,,-1.83E-06,0.018244376
,,,-1.82E-06,0.018117501
,,,-1.81E-06,0.018386876
,,,-1.8E-06,0.018073751
,,,-1.79E-06,0.018136251
,,,-1.78E-06,0.017878126
,,,-1.77E-06,0.018020626
,,,-1.76E-06,0.017899376
,,,-1.75E-06,0.017825626
,,,-1.74E-06,0.017986876
,,,-1.73E-06,0.017833126
,,,-1.72E-06,0.018170626
,,,-1.71E-06,0.018065626
,,,-1.7E-06,0.018008126
,,,-1.69E-06,0.018323126
,,,-1.68E-06,0.017828126
,,,-1.67E-06,0.018058751
,,,-1.66E-06,0.018233751
,,,-1.65E-06,0.018151876
,,,-1.64E-06,0.017785001
,,,-1.63E-06,0.018231876
,,,-1.62E-06,0.018475001
,,,-1.61E-06,0.018100626
,,,-1.6E-06,0.017935001
,,,-1.59E-06,0.018111251
,,,-1.58E-06,0.018080626
,,,-1.57E-06,0.018240001
,,,-1.56E-06,0.018118751
,,,-1.55E-06,0.017861251
,,,-1.54E-06,0.018165001
,,,-1.53E-06,0.017958751
,,,-1.52E-06,0.017986251
,,,-1.51E-06,0.018205001
,,,-1.5E-06,0.017887501
,,,-1.49E-06,0.018292501
,,,-1.48E-06,0.018179376
,,,-1.47E-06,0.018138126
,,,-1.46E-06,0.018163751
,,,-1.45E-06,0.017843751
,,,-1.44E-06,0.017795626
,,,-1.43E-06,0.018008751
,,,-1.42E-06,0.018106251
,,,-1.41E-06,0.018071876
,,,-1.4E-06,0.018037501
,,,-1.39E-06,0.017877501
,,,-1.38E-06,0.018145001
,,,-1.37E-06,0.018148126
,,,-1.36E-06,0.017831876
,,,-1.35E-06,0.018120001
,,,-1.34E-06,0.018170001
,,,-1.33E-06,0.018130001
,,,-1.32E-06,0.018189376
,,,-1.31E-06,0.018265626
,,,-1.3E-06,0.018101876
,,,-1.29E-06,0.018091251
,,,-1.28E-06,0.017954376
,,,-1.27E-06,0.018036876
,,,-1.26E-06,0.018160626
,,,-1.25E-06,0.018162501
,,,-1.24E-06,0.018091251
,,,-1.23E-06,0.017808751
,,,-1.22E-06,0.017885626
,,,-1.21E-06,0.018250001
,,,-1.2E-06,0.017913751
,,,-1.19E-06,0.018205001
,,,-1.18E-06,0.018396251
,,,-1.17E-06,0.018160001
,,,-1.16E-06,0.018183751
,,,-1.15E-06,0.018170626
,,,-1.14E-06,0.017759376
,,,-1.13E-06,0.017910626
,,,-1.12E-06,0.018241251
,,,-1.11E-06,0.018206876
,,,-1.1E-06,0.017876251
,,,-1.09E-06,0.018076251
,,,-1.08E-06,0.018223126
,,,-1.07E-06,0.018110626
,,,-1.06E-06,0.018066876
,,,-1.05E-06,0.018161251
,,,-1.04E-06,0.017944376
,,,-1.03E-06,0.018065626
,,,-1.02E-06,0.018042501
,,,-1.01E-06,0.018019376
,,,-1E-06,0.018068126
,,,-9.9E-07,0.018280626
,,,-9.8E-07,0.017972501
,,,-9.7E-07,0.018168751
,,,-9.6E-07,0.018276251
,,,-9.5E-07,0.018100001
,,,-9.4E-07,0.018028751
,,,-9.3E-07,0.017813126
,,,-9.2E-07,0.018291251
,,,-9.1E-07,0.017998126
,,,-9E-07,0.018003126
,,,-8.9E-07,0.017971251
,,,-8.8E-07,0.018028751
,,,-8.7E-07,0.018071876
,,,-8.6E-07,0.018297501
,,,-8.5E-07,0.018276251
,,,-8.4E-07,0.018095001
,,,-8.3E-07,0.018116251
,,,-8.2E-07,0.018041876
,,,-8.1E-07,0.017982501
,,,-8E-07,0.018170001
,,,-7.9E-07,0.018074376
,,,-7.8E-07,0.018096876
,,,-7.7E-07,0.018066251
,,,-7.6E-07,0.018123126
,,,-7.5E-07,0.018015626
,,,-7.4E-07,0.017883751
,,,-7.3E-07,0.018058751
,,,-7.2E-07,0.017859376
,,,-7.1E-07,0.017890626
,,,-7E-07,0.017910001
,,,-6.9E-07,0.018127501
,,,-6.8E-07,0.018161876
,,,-6.7E-07,0.018083126
,,,-6.6E-07,0.017956876
,,,-6.5E-07,0.017938126
,,,-6.4E-07,0.017997501
,,,-6.3E-07,0.018336251
,,,-6.2E-07,0.017891251
,,,-6.1E-07,0.017787501
,,,-6E-07,0.017911876
,,,-5.9E-07,0.017848751
,,,-5.8E-07,0.018317501
,,,-5.7E-07,0.018068126
,,,-5.6E-07,0.018093751
,,,-5.5E-07,0.018182501
,,,-5.4E-07,0.017849376
,,,-5.3E-07,0.018140626
,,,-5.2E-07,0.018376876
,,,-5.1E-07,0.018038126
,,,-5E-07,0.017875001
,,,-4.9E-07,0.018276876
,,,-4.8E-07,0.018063751
,,,-4.7E-07,0.017869376
,,,-4.6E-07,0.018056876
,,,-4.5E-07,0.018055626
,,,-4.4E-07,0.018075626
,,,-4.3E-07,0.018230001
,,,-4.2E-07,0.017998126
,,,-4.1E-07,0.018240626
,,,-4E-07,0.018105001
,,,-3.9E-07,0.018155626
,,,-3.8E-07,0.017885001
,,,-3.7E-07,0.018257501
,,,-3.6E-07,0.018188126
,,,-3.5E-07,0.018079376
,,,-3.4E-07,0.018355001
,,,-3.3E-07,0.017930001
,,,-3.2E-07,0.018338751
,,,-3.1E-07,0.017849376
,,,-3E-07,0.018082501
,,,-2.9E-07,0.017846876
,,,-2.8E-07,0.018044376
,,,-2.7E-07,0.018150626
,,,-2.6E-07,0.018229376
,,,-2.5E-07,0.018150626
,,,-2.4E-07,0.017985001
,,,-2.3E-07,0.018008126
,,,-2.2E-07,0.018224376
,,,-2.1E-07,0.018171876
,,,-2E-07,0.018143126
,,,-1.9E-07,0.018107501
,,,-1.8E-07,0.017920626
,,,-1.7E-07,0.018049376
,,,-1.6E-07,0.018315626
,,,-1.5E-07,0.018016251
,,,-1.4E-07,0.017991251
,,,-1.3E-07,0.018017501
,,,-1.2E-07,0.018078126
,,,-1.1E-07,0.017953751
,,,-1E-07,0.017995001
,,,-9E-08,0.017866876
,,,-8E-08,0.017926876
,,,-7E-08,0.017658126
,,,-6E-08,0.018319376
,,,-5E-08,0.018603126
,,,-4E-08,0.018793751
,,,-3E-08,0.017209376
,,,-2E-08,0.017599376
,,,-1E-08,0.016903126
,,,0,0.018651251
,,,1E-08,0.018926251
,,,2E-08,0.018796251
,,,3E-08,0.018073751
,,,4E-08,0.017507501
,,,5E-08,0.017621876
,,,6E-08,0.017345626
,,,7E-08,0.018170626
,,,8E-08,0.018356251
,,,9E-08,0.018676876
,,,1E-07,0.018223751
,,,1.1E-07,0.017941251
,,,1.2E-07,0.018002501
,,,1.3E-07,0.018006251
,,,1.4E-07,0.017990001
,,,1.5E-07,0.018270001
,,,1.6E-07,0.018345001
,,,1.7E-07,0.018038751
,,,1.8E-07,0.018007501
,,,1.9E-07,0.018102501
,,,2E-07,0.017973751
,,,2.1E-07,0.017867501
,,,2.2E-07,0.018265001
,,,2.3E-07,0.018359376
,,,2.4E-07,0.018196876
,,,2.5E-07,0.017979376
,,,2.6E-07,0.018365626
,,,2.7E-07,0.018202501
,,,2.8E-07,0.018166251
,,,2.9E-07,0.018042501
,,,3E-07,0.018004376
,,,3.1E-07,0.017865001
,,,3.2E-07,0.018080001
,,,3.3E-07,0.018273751
,,,3.4E-07,0.018201876
,,,3.5E-07,0.017825001
,,,3.6E-07,0.018205626
,,,3.7E-07,0.018191876
,,,3.8E-07,0.018199376
,,,3.9E-07,0.017965626
,,,4E-07,0.017957501
,,,4.1E-07,0.017967501
,,,4.2E-07,0.017935001
,,,4.3E-07,0.017997501
,,,4.4E-07,0.017903126
,,,4.5E-07,0.018091251
,,,4.6E-07,0.018145626
,,,4.7E-07,0.018284376
,,,4.8E-07,0.018038751
,,,4.9E-07,0.018061251
,,,5E-07,0.018228126
,,,5.1E-07,0.018107501
,,,5.2E-07,0.018196876
,,,5.3E-07,0.017985001
,,,5.4E-07,0.018010001
,,,5.5E-07,0.017961876
,,,5.6E-07,0.017886251
,,,5.7E-07,0.018040001
,,,5.8E-07,0.018092501
,,,5.9E-07,0.018156876
,,,6E-07,0.018033751
,,,6.1E-07,0.017710626
,,,6.2E-07,0.018241251
,,,6.3E-07,0.018132501
,,,6.4E-07,0.018184376
,,,6.5E-07,0.018249376
,,,6.6E-07,0.017856251
,,,6.7E-07,0.017894376
,,,6.8E-07,0.018258126
,,,6.9E-07,0.018193126
,,,7E-07,0.018206251
,,,7.1E-07,0.018176251
,,,7.2E-07,0.018068751
,,,7.3E-07,0.017925001
,,,7.4E-07,0.018138751
,,,7.5E-07,0.018300001
,,,7.6E-07,0.017879376
,,,7.7E-07,0.018116251
,,,7.8E-07,0.018166251
,,,7.9E-07,0.018150001
,,,8E-07,0.017934376
,,,8.1E-07,0.017991251
,,,8.2E-07,0.017963126
,,,8.3E-07,0.018076876
,,,8.4E-07,0.017951876
,,,8.5E-07,0.017883126
,,,8.6E-07,0.018074376
,,,8.7E-07,0.018010626
,,,8.8E-07,0.018163751
,,,8.9E-07,0.018000626
,,,9E-07,0.018278751
,,,9.1E-07,0.018019376
,,,9.2E-07,0.018089376
,,,9.3E-07,0.018164376
,,,9.4E-07,0.018160626
,,,9.5E-07,0.017953126
,,,9.6E-07,0.018118751
,,,9.7E-07,0.018156251
,,,9.8E-07,0.018201251
,,,9.9E-07,0.018272501
,,,1E-06,0.018235001
,,,1.01E-06,0.018103126
,,,1.02E-06,0.018127501
,,,1.03E-06,0.018048751
,,,1.04E-06,0.018071251
,,,1.05E-06,0.018021876
,,,1.06E-06,0.018094376
,,,1.07E-06,0.018286876
,,,1.08E-06,0.018176251
,,,1.09E-06,0.017995001
,,,1.1E-06,0.018182501
,,,1.11E-06,0.017770626
,,,1.12E-06,0.018171876
,,,1.13E-06,0.018020001
,,,1.14E-06,0.018029376
,,,1.15E-06,0.018238751
,,,1.16E-06,0.017985001
,,,1.17E-06,0.017980626
,,,1.18E-06,0.018046876
,,,1.19E-06,0.017931251
,,,1.2E-06,0.018092501
,,,1.21E-06,0.018155626
,,,1.22E-06,0.017839376
,,,1.23E-06,0.018115626
,,,1.24E-06,0.017950001
,,,1.25E-06,0.017920626
,,,1.26E-06,0.017970001
,,,1.27E-06,0.018242501
,,,1.28E-06,0.018117501
,,,1.29E-06,0.018183126
,,,1.3E-06,0.018221876
,,,1.31E-06,0.018065001
,,,1.32E-06,0.017898126
,,,1.33E-06,0.018020626
,,,1.34E-06,0.018005626
,,,1.35E-06,0.018032501
,,,1.36E-06,0.018145626
,,,1.37E-06,0.018252501
,,,1.38E-06,0.018117501
,,,1.39E-06,0.018021876
,,,1.4E-06,0.018134376
,,,1.41E-06,0.017966251
,,,1.42E-06,0.018241251
,,,1.43E-06,0.018011251
,,,1.44E-06,0.017952501
,,,1.45E-06,0.018082501
,,,1.46E-06,0.018065001
,,,1.47E-06,0.017976876
,,,1.48E-06,0.017868126
,,,1.49E-06,0.018165001
,,,1.5E-06,0.018032501
,,,1.51E-06,0.018260001
,,,1.52E-06,0.017963126
,,,1.53E-06,0.018045626
,,,1.54E-06,0.018108751
,,,1.55E-06,0.018032501
,,,1.56E-06,0.018041251
,,,1.57E-06,0.018161251
,,,1.58E-06,0.017997501
,,,1.59E-06,0.018059376
,,,1.6E-06,0.018190001
,,,1.61E-06,0.018068126
,,,1.62E-06,0.018048126
,,,1.63E-06,0.018139376
,,,1.64E-06,0.018075001
,,,1.65E-06,0.018001251
,,,1.66E-06,0.018151876
,,,1.67E-06,0.017961251
,,,1.68E-06,0.017940626
,,,1.69E-06,0.018115001
,,,1.7E-06,0.017936251
,,,1.71E-06,0.017926251
,,,1.72E-06,0.018142501
,,,1.73E-06,0.018002501
,,,1.74E-06,0.018058751
,,,1.75E-06,0.017993751
,,,1.76E-06,0.018080001
,,,1.77E-06,0.017957501
,,,1.78E-06,0.018095001
,,,1.79E-06,0.018034376
,,,1.8E-06,0.017959376
,,,1.81E-06,0.017830626
,,,1.82E-06,0.018060001
,,,1.83E-06,0.018168126
,,,1.84E-06,0.018103126
,,,1.85E-06,0.017815001
,,,1.86E-06,0.017925001
,,,1.87E-06,0.018168126
,,,1.88E-06,0.018018751
,,,1.89E-06,0.018019376
,,,1.9E-06,0.018026876
,,,1.91E-06,0.018075001
,,,1.92E-06,0.017943751
,,,1.93E-06,0.018287501
,,,1.94E-06,0.017788751
,,,1.95E-06,0.018108751
,,,1.96E-06,0.018045001
,,,1.97E-06,0.018006251
,,,1.98E-06,0.018038126
,,,1.99E-06,0.018015626
,,,2E-06,0.018074376
,,,2.01E-06,0.018028126
,,,2.02E-06,0.017885626
,,,2.03E-06,0.018014376
,,,2.04E-06,0.018036876
,,,2.05E-06,0.018125626
,,,2.06E-06,0.018059376
,,,2.07E-06,0.018155626
,,,2.08E-06,0.018054376
,,,2.09E-06,0.018078751
,,,2.1E-06,0.018063751
,,,2.11E-06,0.018176251
,,,2.12E-06,0.018027501
,,,2.13E-06,0.017889376
,,,2.14E-06,0.018052501
,,,2.15E-06,0.017766251
,,,2.16E-06,0.018011876
,,,2.17E-06,0.018236251
,,,2.18E-06,0.018165001
,,,2.19E-06,0.018124376
,,,2.2E-06,0.018110626
,,,2.21E-06,0.017963126
,,,2.22E-06,0.018118126
,,,2.23E-06,0.018238126
,,,2.24E-06,0.018129376
,,,2.25E-06,0.017969376
,,,2.26E-06,0.017879376
,,,2.27E-06,0.017958126
,,,2.28E-06,0.018013126
,,,2.29E-06,0.018148126
,,,2.3E-06,0.018048126
,,,2.31E-06,0.018175626
,,,2.32E-06,0.018033751
,,,2.33E-06,0.018060626
,,,2.34E-06,0.018108751
,,,2.35E-06,0.018202501
,,,2.36E-06,0.018016251
,,,2.37E-06,0.017881251
,,,2.38E-06,0.017986251
,,,2.39E-06,0.018060626
,,,2.4E-06,0.018263126
,,,2.41E-06,0.018005626
,,,2.42E-06,0.018016876
,,,2.43E-06,0.018156876
,,,2.44E-06,0.018065001
,,,2.45E-06,0.017898751
,,,2.46E-06,0.017779376
,,,2.47E-06,0.018030626
,,,2.48E-06,0.017856251
,,,2.49E-06,0.018140001
,,,2.5E-06,0.017966251
,,,2.51E-06,0.018017501
,,,2.52E-06,0.017855001
,,,2.53E-06,0.017965001
,,,2.54E-06,0.018151251
,,,2.55E-06,0.017841876
,,,2.56E-06,0.018003126
,,,2.57E-06,0.018150001
,,,2.58E-06,0.017600626
,,,2.59E-06,0.018192501
,,,2.6E-06,0.017850626
,,,2.61E-06,0.017979376
,,,2.62E-06,0.018056876
,,,2.63E-06,0.017913126
,,,2.64E-06,0.018306876
,,,2.65E-06,0.018236251
,,,2.66E-06,0.018138751
,,,2.67E-06,0.017910001
,,,2.68E-06,0.017913126
,,,2.69E-06,0.017808126
,,,2.7E-06,0.018003751
,,,2.71E-06,0.017929376
,,,2.72E-06,0.018042501
,,,2.73E-06,0.018186251
,,,2.74E-06,0.018073751
,,,2.75E-06,0.017811876
,,,2.76E-06,0.018107501
,,,2.77E-06,0.017966251
,,,2.78E-06,0.017945001
,,,2.79E-06,0.018116876
,,,2.8E-06,0.018151251
,,,2.81E-06,0.018191876
,,,2.82E-06,0.018299376
,,,2.83E-06,0.017841876
,,,2.84E-06,0.018155001
,,,2.85E-06,0.017934376
,,,2.86E-06,0.017971251
,,,2.87E-06,0.017798126
,,,2.88E-06,0.018033126
,,,2.89E-06,0.018061251
,,,2.9E-06,0.018200626
,,,2.91E-06,0.018120001
,,,2.92E-06,0.017996876
,,,2.93E-06,0.018118751
,,,2.94E-06,0.018066251
,,,2.95E-06,0.018047501
,,,2.96E-06,0.018099376
,,,2.97E-06,0.018135001
,,,2.98E-06,0.017953126
,,,2.99E-06,0.017993126
,,,3E-06,0.017976876
,,,3.01E-06,0.018013126
,,,3.02E-06,0.018033126
,,,3.03E-06,0.018108751
,,,3.04E-06,0.017967501
,,,3.05E-06,0.017997501
,,,3.06E-06,0.018156876
,,,3.07E-06,0.018422501
,,,3.08E-06,0.018126251
,,,3.09E-06,0.017962501
,,,3.1E-06,0.018016876
,,,3.11E-06,0.018025001
,,,3.12E-06,0.017651876
,,,3.13E-06,0.018129376
,,,3.14E-06,0.018138751
,,,3.15E-06,0.018104376
,,,3.16E-06,0.017895626
,,,3.17E-06,0.017927501
,,,3.18E-06,0.018175001
,,,3.19E-06,0.018216876
,,,3.2E-06,0.017978126
,,,3.21E-06,0.018052501
