data/raw/Final_POL_Test_1/SOP030_Ch1.csv

"Record Length",1000,"Points",-5E-06,0.006728125
"Sample Interval",1E-08,s,-4.99E-06,0.006456875
"Trigger Point",500,"Samples",-4.98E-06,0.006531875
"Trigger Time",0,s,-4.97E-06,0.0066625
"",,,-4.96E-06,0.00645625
"Horizontal Offset",-5E-06,s,-4.95E-06,0.00654125
,,,-4.94E-06,0.006386875
,,,-4.93E-06,0.00669875
,,,-4.92E-06,0.006561875
,,,-4.91E-06,0.0068325
,,,-4.9E-06,0.00681375
,,,-4.89E-06,0.006626875
,,,-4.88E-06,0.00659125
,,,-4.87E-06,0.006785625
,,,-4.86E-06,0.00667125
,,,-4.85E-06,0.006609375
,,,-4.84E-06,0.006633125
,,,-4.83E-06,0.006580625
,,,-4.82E-06,0.00665625
,,,-4.81E-06,0.006659375
,,,-4.8E-06,0.006660625
,,,-4.79E-06,0.00668
,,,-4.78E-06,0.00668875
,,,-4.77E-06,0.0067025
,,,-4.76E-06,0.00651
,,,-4.75E-06,0.006529375
,,,-4.74E-06,0.006613125
,,,-4.73E-06,0.006864375
,,,-4.72E-06,0.006549375
,,,-4.71E-06,0.0065975
,,,-4.7E-06,0.006390625
,,,-4.69E-06,0.0065175
,,,-4.68E-06,0.00667875
,,,-4.67E-06,0.006464375
,,,-4.66E-06,0.0067575
,,,-4.65E-06,0.006614375
,,,-4.64E-06,0.006835
,,,-4.63E-06,0.006649375
,,,-4.62E-06,0.006689375
,,,-4.61E-06,0.00675625
,,,-4.6E-06,0.0066225
,,,-4.59E-06,0.00668875
,,,-4.58E-06,0.006684375
,,,-4.57E-06,0.006540625
,,,-4.56E-06,0.00688625
,,,-4.55E-06,0.006421875
,,,-4.54E-06,0.006520625
,,,-4.53E-06,0.006641875
,,,-4.52E-06,0.00660375
,,,-4.51E-06,0.006681875
,,,-4.5E-06,0.006648125
,,,-4.49E-06,0.00657
,,,-4.48E-06,0.006646875
,,,-4.47E-06,0.006573125
,,,-4.46E-06,0.006646875
,,,-4.45E-06,0.006365
,,,-4.44E-06,0.00642
,,,-4.43E-06,0.006608125
,,,-4.42E-06,0.006495625
,,,-4.41E-06,0.006548125
,,,-4.4E-06,0.006719375
,,,-4.39E-06,0.006804375
,,,-4.38E-06,0.0066675
,,,-4.37E-06,0.006809375
,,,-4.36E-06,0.006608125
,,,-4.35E-06,0.006529375
,,,-4.34E-06,0.00650375
,,,-4.33E-06,0.006585625
,,,-4.32E-06,0.0065875
,,,-4.31E-06,0.0066225
,,,-4.3E-06,0.006680625
,,,-4.29E-06,0.006600625
,,,-4.28E-06,0.006603125
,,,-4.27E-06,0.00671
,,,-4.26E-06,0.006690625
,,,-4.25E-06,0.00672875
,,,-4.24E-06,0.00665125
,,,-4.23E-06,0.006605625
,,,-4.22E-06,0.006714375
,,,-4.21E-06,0.0067125
,,,-4.2E-06,0.006543125
,,,-4.19E-06,0.006633125
,,,-4.18E-06,0.00653
,,,-4.17E-06,0.00652375
,,,-4.16E-06,0.00656375
,,,-4.15E-06,0.006579375
,,,-4.14E-06,0.0066475
,,,-4.13E-06,0.006636875
,,,-4.12E-06,0.00646625
,,,-4.11E-06,0.0067025
,,,-4.1E-06,0.00658625
,,,-4.09E-06,0.006735625
,,,-4.08E-06,0.00689625
,,,-4.07E-06,0.006748125
,,,-4.06E-06,0.006720625
,,,-4.05E-06,0.0064575
,,,-4.04E-06,0.006625
,,,-4.03E-06,0.006480625
,,,-4.02E-06,0.00666375
,,,-4.01E-06,0.00673375
,,,-4E-06,0.00682125
,,,-3.99E-06,0.00665375
,,,-3.98E-06,0.00669375
,,,-3.97E-06,0.00650375
,,,-3.96E-06,0.00665875
,,,-3.95E-06,0.00644875
,,,-3.94E-06,0.00670125
,,,-3.93E-06,0.006550625
,,,-3.92E-06,0.006850625
,,,-3.91E-06,0.006776875
,,,-3.9E-06,0.006753125
,,,-3.89E-06,0.0065575
,,,-3.88E-06,0.006634375
,,,-3.87E-06,0.006916875
,,,-3.86E-06,0.006589375
,,,-3.85E-06,0.00667
,,,-3.84E-06,0.00667875
,,,-3.83E-06,0.006568125
,,,-3.82E-06,0.006713125
,,,-3.81E-06,0.0065325
,,,-3.8E-06,0.006610625
,,,-3.79E-06,0.006504375
,,,-3.78E-06,0.006275
,,,-3.77E-06,0.006585
,,,-3.76E-06,0.006735
,,,-3.75E-06,0.0065775
,,,-3.74E-06,0.0065475
,,,-3.73E-06,0.006875625
,,,-3.72E-06,0.00630625
,,,-3.71E-06,0.00644125
,,,-3.7E-06,0.00655125
,,,-3.69E-06,0.00671875
,,,-3.68E-06,0.006619375
,,,-3.67E-06,0.0066275
,,,-3.66E-06,0.006521875
,,,-3.65E-06,0.00641375
,,,-3.64E-06,0.00676625
,,,-3.63E-06,0.00652625
,,,-3.62E-06,0.006614375
,,,-3.61E-06,0.006445
,,,-3.6E-06,0.00640875
,,,-3.59E-06,0.006610625
,,,-3.58E-06,0.006755625
,,,-3.57E-06,0.006638125
,,,-3.56E-06,0.0067375
,,,-3.55E-06,0.006828125
,,,-3.54E-06,0.006575
,,,-3.53E-06,0.0065275
,,,-3.52E-06,0.00678375
,,,-3.51E-06,0.0063575
,,,-3.5E-06,0.00642875
,,,-3.49E-06,0.006585625
,,,-3.48E-06,0.0067825
,,,-3.47E-06,0.006565
,,,-3.46E-06,0.006523125
,,,-3.45E-06,0.00668375
,,,-3.44E-06,0.00665125
,,,-3.43E-06,0.006445625
,,,-3.42E-06,0.00667875
,,,-3.41E-06,0.006603125
,,,-3.4E-06,0.00664375
,,,-3.39E-06,0.00669375
,,,-3.38E-06,0.006474375
,,,-3.37E-06,0.0065725
,,,-3.36E-06,0.006645
,,,-3.35E-06,0.00673875
,,,-3.34E-06,0.006695
,,,-3.33E-06,0.006664375
,,,-3.32E-06,0.006555
,,,-3.31E-06,0.006825
,,,-3.3E-06,0.006611875
,,,-3.29E-06,0.006719375
,,,-3.28E-06,0.00672
,,,-3.27E-06,0.006494375
,,,-3.26E-06,0.006515625
,,,-3.25E-06,0.00685875
,,,-3.24E-06,0.006633125
,,,-3.23E-06,0.00663
,,,-3.22E-06,0.006768125
,,,-3.21E-06,0.00662125
,,,-3.2E-06,0.00655
,,,-3.19E-06,0.006475
,,,-3.18E-06,0.006749375
,,,-3.17E-06,0.006710625
,,,-3.16E-06,0.006679375
,,,-3.15E-06,0.00659625
,,,-3.14E-06,0.00658
,,,-3.13E-06,0.00657375
,,,-3.12E-06,0.006591875
,,,-3.11E-06,0.00668
,,,-3.1E-06,0.006518125
,,,-3.09E-06,0.00686625
,,,-3.08E-06,0.006605625
,,,-3.07E-06,0.0068025
,,,-3.06E-06,0.006724375
,,,-3.05E-06,0.00660125
,,,-3.04E-06,0.006519375
,,,-3.03E-06,0.006859375
,,,-3.02E-06,0.00676375
,,,-3.01E-06,0.00668375
,,,-3E-06,0.006505625
,,,-2.99E-06,0.006679375
,,,-2.98E-06,0.006435
,,,-2.97E-06,0.0067325
,,,-2.96E-06,0.006733125
,,,-2.95E-06,0.006464375
,,,-2.94E-06,0.006560625
,,,-2.93E-06,0.00642375
,,,-2.92E-06,0.00648
,,,-2.91E-06,0.006841875
,,,-2.9E-06,0.0067025
,,,-2.89E-06,0.0066825
,,,-2.88E-06,0.006659375
,,,-2.87E-06,0.0067475
,,,-2.86E-06,0.006775
,,,-2.85E-06,0.0067125
,,,-2.84E-06,0.0069275
,,,-2.83E-06,0.006371875
,,,-2.82E-06,0.006861875
,,,-2.81E-06,0.006890625
,,,-2.8E-06,0.0065325
,,,-2.79E-06,0.006463125
,,,-2.78E-06,0.006426875
,,,-2.77E-06,0.0064575
,,,-2.76E-06,0.00671125
,,,-2.75E-06,0.00660125
,,,-2.74E-06,0.00672125
,,,-2.73E-06,0.006854375
,,,-2.72E-06,0.006621875
,,,-2.71E-06,0.0065575
,,,-2.7E-06,0.00648625
,,,-2.69E-06,0.006599375
,,,-2.68E-06,0.00654375
,,,-2.67E-06,0.006594375
,,,-2.66E-06,0.006731875
,,,-2.65E-06,0.006601875
,,,-2.64E-06,0.00678125
,,,-2.63E-06,0.006986875
,,,-2.62E-06,0.006804375
,,,-2.61E-06,0.006614375
,,,-2.6E-06,0.0063825
,,,-2.59E-06,0.0065275
,,,-2.58E-06,0.006688125
,,,-2.57E-06,0.006720625
,,,-2.56E-06,0.006741875
,,,-2.55E-06,0.006426875
,,,-2.54E-06,0.0065825
,,,-2.53E-06,0.006818125
,,,-2.52E-06,0.0063675
,,,-2.51E-06,0.0066775
,,,-2.5E-06,0.006828125
,,,-2.49E-06,0.00666125
,,,-2.48E-06,0.00680875
,,,-2.47E-06,0.006746875
,,,-2.46E-06,0.006445625
,,,-2.45E-06,0.006631875
,,,-2.44E-06,0.006479375
,,,-2.43E-06,0.006658125
,,,-2.42E-06,0.00636375
,,,-2.41E-06,0.00675875
,,,-2.4E-06,0.006668125
,,,-2.39E-06,0.006613125
,,,-2.38E-06,0.006478125
,,,-2.37E-06,0.00670125
,,,-2.36E-06,0.00658625
,,,-2.35E-06,0.00650375
,,,-2.34E-06,0.006699375
,,,-2.33E-06,0.006785625
,,,-2.32E-06,0.0066075
,,,-2.31E-06,0.0064825
,,,-2.3E-06,0.006731875
,,,-2.29E-06,0.006855625
,,,-2.28E-06,0.006664375
,,,-2.27E-06,0.006671875
,,,-2.26E-06,0.006578125
,,,-2.25E-06,0.00667375
,,,-2.24E-06,0.00665625
,,,-2.23E-06,0.006773125
,,,-2.22E-06,0.00685
,,,-2.21E-06,0.006571875
,,,-2.2E-06,0.006659375
,,,-2.19E-06,0.006535
,,,-2.18E-06,0.00639125
,,,-2.17E-06,0.00673375
,,,-2.16E-06,0.006553125
,,,-2.15E-06,0.00656625
,,,-2.14E-06,0.006920625
,,,-2.13E-06,0.0064825
,,,-2.12E-06,0.00676875
,,,-2.11E-06,0.006483125
,,,-2.1E-06,0.00656375
,,,-2.09E-06,0.00661
,,,-2.08E-06,0.0066
,,,-2.07E-06,0.00687375
,,,-2.06E-06,0.006903125
,,,-2.05E-06,0.006601875
,,,-2.04E-06,0.00683
,,,-2.03E-06,0.006645625
,,,-2.02E-06,0.006819375
,,,-2.01E-06,0.00651375
,,,-2E-06,0.00668625
,,,-1.99E-06,0.006563125
,,,-1.98E-06,0.00666375
,,,-1.97E-06,0.00665875
,,,-1.96E-06,0.006609375
,,,-1.95E-06,0.00651375
,,,-1.94E-06,0.00671875
,,,-1.93E-06,0.006468125
,,,-1.92E-06,0.006729375
,,,-1.91E-06,0.006819375
,,,-1.9E-06,0.006750625
,,,-1.89E-06,0.006605
,,,-1.88E-06,0.00683625
,,,-1.87E-06,0.006985625
,,,-1.86E-06,0.0068275
,,,-1.85E-06,0.006448125
,,,-1.84E-06,0.006578125
,,,-1.83E-06,0.00660875
,,,-1.82E-06,0.006846875
,,,-1.81E-06,0.00658
,,,-1.8E-06,0.00656
,,,-1.79E-06,0.00659375
,,,-1.78E-06,0.006465625
,,,-1.77E-06,0.006713125
,,,-1.76E-06,0.00647375
,,,-1.75E-06,0.00657875
,,,-1.74E-06,0.006476875
,,,-1.73E-06,0.00658625
,,,-1.72E-06,0.006586875
,,,-1.71E-06,0.0068225
,,,-1.7E-06,0.00689125
,,,-1.69E-06,0.0064425
,,,-1.68E-06,0.006621875
,,,-1.67E-06,0.006695
,,,-1.66E-06,0.006940625
,,,-1.65E-06,0.0064725
,,,-1.64E-06,0.0065475
,,,-1.63E-06,0.0067725
,,,-1.62E-06,0.006416875
,,,-1.61E-06,0.006385
,,,-1.6E-06,0.00681625
,,,-1.59E-06,0.006545625
,,,-1.58E-06,0.006775
,,,-1.57E-06,0.006551875
,,,-1.56E-06,0.0065225
,,,-1.55E-06,0.00646875
,,,-1.54E-06,0.006568125
,,,-1.53E-06,0.006558125
,,,-1.52E-06,0.00659875
,,,-1.51E-06,0.006600625
,,,-1.5E-06,0.006698125
,,,-1.49E-06,0.00676875
,,,-1.48E-06,0.006848125
,,,-1.47E-06,0.00661
,,,-1.46E-06,0.00667
,,,-1.45E-06,0.006603125
,,,-1.44E-06,0.006729375
,,,-1.43E-06,0.00661
,,,-1.42E-06,0.006554375
,,,-1.41E-06,0.006636875
,,,-1.4E-06,0.006796875
,,,-1.39E-06,0.006429375
,,,-1.38E-06,0.006618125
,,,-1.37E-06,0.006466875
,,,-1.36E-06,0.0066
,,,-1.35E-06,0.00641625
,,,-1.34E-06,0.006939375
,,,-1.33E-06,0.006625625
,,,-1.32E-06,0.00656
,,,-1.31E-06,0.006695625
,,,-1.3E-06,0.006681875
,,,-1.29E-06,0.00675125
,,,-1.28E-06,0.006663125
,,,-1.27E-06,0.006798125
,,,-1.26E-06,0.0068475
,,,-1.25E-06,0.006814375
,,,-1.24E-06,0.006674375
,,,-1.23E-06,0.006715
,,,-1.22E-06,0.00642875
,,,-1.21E-06,0.00669625
,,,-1.2E-06,0.006595625
,,,-1.19E-06,0.006605
,,,-1.18E-06,0.006610625
,,,-1.17E-06,0.006823125
,,,-1.16E-06,0.006884375
,,,-1.15E-06,0.0067575
,,,-1.14E-06,0.00661
,,,-1.13E-06,0.00655
,,,-1.12E-06,0.00666
,,,-1.11E-06,0.00669375
,,,-1.1E-06,0.006605
,,,-1.09E-06,0.006721875
,,,-1.08E-06,0.006760625
,,,-1.07E-06,0.006850625
,,,-1.06E-06,0.00652375
,,,-1.05E-06,0.00655875
,,,-1.04E-06,0.00647
,,,-1.03E-06,0.006558125
,,,-1.02E-06,0.006801875
,,,-1.01E-06,0.0066625
,,,-1E-06,0.006735
,,,-9.9E-07,0.0066325
,,,-9.8E-07,0.006748125
,,,-9.7E-07,0.006808125
,,,-9.6E-07,0.006663125
,,,-9.5E-07,0.00640125
,,,-9.4E-07,0.00677375
,,,-9.3E-07,0.00673875
,,,-9.2E-07,0.006908125
,,,-9.1E-07,0.006805
,,,-9E-07,0.006299375
,,,-8.9E-07,0.00642875
,,,-8.8E-07,0.00666375
,,,-8.7E-07,0.006864375
,,,-8.6E-07,0.00659125
,,,-8.5E-07,0.006746875
,,,-8.4E-07,0.006575625
,,,-8.3E-07,0.00659
,,,-8.2E-07,0.006408125
,,,-8.1E-07,0.006366875
,,,-8E-07,0.0064875
,,,-7.9E-07,0.0066825
,,,-7.8E-07,0.0065975
,,,-7.7E-07,0.006619375
,,,-7.6E-07,0.00678875
,,,-7.5E-07,0.00676
,,,-7.4E-07,0.0065125
,,,-7.3E-07,0.006600625
,,,-7.2E-07,0.0068775
,,,-7.1E-07,0.00640375
,,,-7E-07,0.006765625
,,,-6.9E-07,0.006785
,,,-6.8E-07,0.00678
,,,-6.7E-07,0.00667
,,,-6.6E-07,0.0067775
,,,-6.5E-07,0.006745
,,,-6.4E-07,0.006585625
,,,-6.3E-07,0.00660625
,,,-6.2E-07,0.0066825
,,,-6.1E-07,0.00664875
,,,-6E-07,0.006800625
,,,-5.9E-07,0.006609375
,,,-5.8E-07,0.006690625
,,,-5.7E-07,0.00648875
,,,-5.6E-07,0.00658375
,,,-5.5E-07,0.00657625
,,,-5.4E-07,0.00654125
,,,-5.3E-07,0.006995625
,,,-5.2E-07,0.006621875
,,,-5.1E-07,0.006794375
,,,-5E-07,0.0068375
,,,-4.9E-07,0.006723125
,,,-4.8E-07,0.006568125
,,,-4.7E-07,0.006503125
,,,-4.6E-07,0.00672625
,,,-4.5E-07,0.006801875
,,,-4.4E-07,0.00681
,,,-4.3E-07,0.00654375
,,,-4.2E-07,0.006715
,,,-4.1E-07,0.00661
,,,-4E-07,0.00667
,,,-3.9E-07,0.006735625
,,,-3.8E-07,0.006684375
,,,-3.7E-07,0.0068925
,,,-3.6E-07,0.006755
,,,-3.5E-07,0.00653
,,,-3.4E-07,0.006659375
,,,-3.3E-07,0.006500625
,,,-3.2E-07,0.00682125
,,,-3.1E-07,0.00657875
,,,-3E-07,0.006668125
,,,-2.9E-07,0.00650125
,,,-2.8E-07,0.006665
,,,-2.7E-07,0.006765
,,,-2.6E-07,0.006710625
,,,-2.5E-07,0.006851875
,,,-2.4E-07,0.00667875
,,,-2.3E-07,0.006759375
,,,-2.2E-07,0.00643875
,,,-2.1E-07,0.00668375
,,,-2E-07,0.006866875
,,,-1.9E-07,0.006643125
,,,-1.8E-07,0.006214375
,,,-1.7E-07,0.00644875
,,,-1.6E-07,0.006445625
,,,-1.5E-07,0.006514375
,,,-1.4E-07,0.006621875
,,,-1.3E-07,0.00645875
,,,-1.2E-07,0.00676875
,,,-1.1E-07,0.00691125
,,,-1E-07,0.00659875
,,,-9E-08,0.006508125
,,,-8E-08,0.00667125
,,,-7E-08,0.006383125
,,,-6E-08,0.006536875
,,,-5E-08,0.006818125
,,,-4E-08,0.0077125
,,,-3E-08,0.008180625
,,,-2E-08,0.0049275
,,,-1E-08,0.0036375
,,,0,0.003736875
,,,1E-08,0.009060625
,,,2E-08,0.010091875
,,,3E-08,0.00954625
,,,4E-08,0.005949375
,,,5E-08,0.004248125
,,,6E-08,0.003543125
,,,7E-08,0.00576875
,,,8E-08,0.00743625
,,,9E-08,0.00851
,,,1E-07,0.00830875
,,,1.1E-07,0.00701375
,,,1.2E-07,0.005765
,,,1.3E-07,0.00524
,,,1.4E-07,0.00571625
,,,1.5E-07,0.006929375
,,,1.6E-07,0.007160625
,,,1.7E-07,0.00720125
,,,1.8E-07,0.0065975
,,,1.9E-07,0.00669625
,,,2E-07,0.006400625
,,,2.1E-07,0.006385625
,,,2.2E-07,0.00625625
,,,2.3E-07,0.006625
,,,2.4E-07,0.00702125
,,,2.5E-07,0.0068725
,,,2.6E-07,0.006864375
,,,2.7E-07,0.006754375
,,,2.8E-07,0.006833125
,,,2.9E-07,0.0066225
,,,3E-07,0.00653875
,,,3.1E-07,0.00662
,,,3.2E-07,0.006684375
,,,3.3E-07,0.006850625
,,,3.4E-07,0.0066025
,,,3.5E-07,0.006865625
,,,3.6E-07,0.00638125
,,,3.7E-07,0.0065525
,,,3.8E-07,0.006601875
,,,3.9E-07,0.00662625
,,,4E-07,0.00665875
,,,4.1E-07,0.00678625
,,,4.2E-07,0.006468125
,,,4.3E-07,0.00681625
,,,4.4E-07,0.006713125
,,,4.5E-07,0.006599375
,,,4.6E-07,0.006616875
,,,4.7E-07,0.006646875
,,,4.8E-07,0.00670125
,,,4.9E-07,0.00659875
,,,5E-07,0.006644375
,,,5.1E-07,0.006605
,,,5.2E-07,0.006805625
,,,5.3E-07,0.00664
,,,5.4E-07,0.00654625
,,,5.5E-07,0.00655625
,,,5.6E-07,0.006695
,,,5.7E-07,0.006685625
,,,5.8E-07,0.00662375
,,,5.9E-07,0.006625625
,,,6E-07,0.00656
,,,6.1E-07,0.006569375
,,,6.2E-07,0.00658125
,,,6.3E-07,0.00668625
,,,6.4E-07,0.00671625
,,,6.5E-07,0.006515
,,,6.6E-07,0.006875625
,,,6.7E-07,0.006965
,,,6.8E-07,0.006676875
,,,6.9E-07,0.006415
,,,7E-07,0.006330625
,,,7.1E-07,0.006565
,,,7.2E-07,0.006825625
,,,7.3E-07,0.006825625
,,,7.4E-07,0.0066175
,,,7.5E-07,0.00674375
,,,7.6E-07,0.006590625
,,,7.7E-07,0.006713125
,,,7.8E-07,0.006839375
,,,7.9E-07,0.006745
,,,8E-07,0.006555625
,,,8.1E-07,0.006629375
,,,8.2E-07,0.006486875
,,,8.3E-07,0.006690625
,,,8.4E-07,0.00676
,,,8.5E-07,0.006809375
,,,8.6E-07,0.006430625
,,,8.7E-07,0.0065275
,,,8.8E-07,0.006625625
,,,8.9E-07,0.006694375
,,,9E-07,0.006615625
,,,9.1E-07,0.006586875
,,,9.2E-07,0.0066125
,,,9.3E-07,0.0065225
,,,9.4E-07,0.006803125
,,,9.5E-07,0.00652875
,,,9.6E-07,0.006745625
,,,9.7E-07,0.0066125
,,,9.8E-07,0.00645875
,,,9.9E-07,0.00672625
,,,1E-06,0.006758125
,,,1.01E-06,0.00658
,,,1.02E-06,0.006526875
,,,1.03E-06,0.006380625
,,,1.04E-06,0.00664625
,,,1.05E-06,0.00651875
,,,1.06E-06,0.006910625
,,,1.07E-06,0.006795
,,,1.08E-06,0.006705
,,,1.09E-06,0.006875625
,,,1.1E-06,0.006503125
,,,1.11E-06,0.00647
,,,1.12E-06,0.006613125
,,,1.13E-06,0.006609375
,,,1.14E-06,0.006685625
,,,1.15E-06,0.00660875
,,,1.16E-06,0.006589375
,,,1.17E-06,0.006831875
,,,1.18E-06,0.006461875
,,,1.19E-06,0.006384375
,,,1.2E-06,0.006635
,,,1.21E-06,0.006405
,,,1.22E-06,0.006623125
,,,1.23E-06,0.006726875
,,,1.24E-06,0.006749375
,,,1.25E-06,0.006945
,,,1.26E-06,0.006539375
,,,1.27E-06,0.00671375
,,,1.28E-06,0.00652
,,,1.29E-06,0.00682125
,,,1.3E-06,0.006591875
,,,1.31E-06,0.006616875
,,,1.32E-06,0.00681
,,,1.33E-06,0.006614375
,,,1.34E-06,0.00665625
,,,1.35E-06,0.00659625
,,,1.36E-06,0.006335
,,,1.37E-06,0.006550625
,,,1.38E-06,0.006898125
,,,1.39E-06,0.006934375
,,,1.4E-06,0.006760625
,,,1.41E-06,0.0065975
,,,1.42E-06,0.0064125
,,,1.43E-06,0.006645625
,,,1.44E-06,0.006521875
,,,1.45E-06,0.006565625
,,,1.46E-06,0.00644
,,,1.47E-06,0.006761875
,,,1.48E-06,0.00687
,,,1.49E-06,0.0065325
,,,1.5E-06,0.006770625
,,,1.51E-06,0.00692
,,,1.52E-06,0.0067
,,,1.53E-06,0.006721875
,,,1.54E-06,0.00662375
,,,1.55E-06,0.00659875
,,,1.56E-06,0.0067325
,,,1.57E-06,0.006523125
,,,1.58E-06,0.0063725
,,,1.59E-06,0.00665875
,,,1.6E-06,0.006789375
,,,1.61E-06,0.006649375
,,,1.62E-06,0.00649875
,,,1.63E-06,0.006335
,,,1.64E-06,0.006911875
,,,1.65E-06,0.006546875
,,,1.66E-06,0.006730625
,,,1.67E-06,0.006599375
,,,1.68E-06,0.006518125
,,,1.69E-06,0.00657
,,,1.7E-06,0.006565625
,,,1.71E-06,0.00659875
,,,1.72E-06,0.006831875
,,,1.73E-06,0.006923125
,,,1.74E-06,0.006761875
,,,1.75E-06,0.00670375
,,,1.76E-06,0.0066175
,,,1.77E-06,0.006528125
,,,1.78E-06,0.006485625
,,,1.79E-06,0.00692375
,,,1.8E-06,0.00644125
,,,1.81E-06,0.00691125
,,,1.82E-06,0.006605625
,,,1.83E-06,0.006714375
,,,1.84E-06,0.0066525
,,,1.85E-06,0.006770625
,,,1.86E-06,0.0067025
,,,1.87E-06,0.00655
,,,1.88E-06,0.0067925
,,,1.89E-06,0.00657375
,,,1.9E-06,0.006658125
,,,1.91E-06,0.006581875
,,,1.92E-06,0.006508125
,,,1.93E-06,0.006575625
,,,1.94E-06,0.0065875
,,,1.95E-06,0.006620625
,,,1.96E-06,0.00664
,,,1.97E-06,0.00683875
,,,1.98E-06,0.00661875
,,,1.99E-06,0.00661
,,,2E-06,0.006595625
,,,2.01E-06,0.006744375
,,,2.02E-06,0.006823125
,,,2.03E-06,0.006725
,,,2.04E-06,0.00676625
,,,2.05E-06,0.006695
,,,2.06E-06,0.006633125
,,,2.07E-06,0.006569375
,,,2.08E-06,0.006565625
,,,2.09E-06,0.00652625
,,,2.1E-06,0.00667125
,,,2.11E-06,0.006816875
,,,2.12E-06,0.00643375
,,,2.13E-06,0.006789375
,,,2.14E-06,0.006431875
,,,2.15E-06,0.006646875
,,,2.16E-06,0.006741875
,,,2.17E-06,0.00659125
,,,2.18E-06,0.006694375
,,,2.19E-06,0.0065125
,,,2.2E-06,0.0065125
,,,2.21E-06,0.00666375
,,,2.22E-06,0.006715
,,,2.23E-06,0.00651125
,,,2.24E-06,0.00682375
,,,2.25E-06,0.006711875
,,,2.26E-06,0.006420625
,,,2.27E-06,0.0069
,,,2.28E-06,0.006568125
,,,2.29E-06,0.006519375
,,,2.3E-06,0.00638875
,,,2.31E-06,0.006566875
,,,2.32E-06,0.00681875
,,,2.33E-06,0.006761875
,,,2.34E-06,0.0067625
,,,2.35E-06,0.006365
,,,2.36E-06,0.00671875
,,,2.37E-06,0.00682625
,,,2.38E-06,0.006899375
,,,2.39E-06,0.006801875
,,,2.4E-06,0.00681375
,,,2.41E-06,0.0067725
,,,2.42E-06,0.006381875
,,,2.43E-06,0.006633125
,,,2.44E-06,0.006708125
,,,2.45E-06,0.00675
,,,2.46E-06,0.00673625
,,,2.47E-06,0.00681625
,,,2.48E-06,0.00649125
,,,2.49E-06,0.006664375
,,,2.5E-06,0.006845625
,,,2.51E-06,0.00651375
,,,2.52E-06,0.0067625
,,,2.53E-06,0.006666875
,,,2.54E-06,0.00662625
,,,2.55E-06,0.006716875
,,,2.56E-06,0.00684
,,,2.57E-06,0.007055625
,,,2.58E-06,0.006768125
,,,2.59E-06,0.006634375
,,,2.6E-06,0.0065325
,,,2.61E-06,0.006581875
,,,2.62E-06,0.006811875
,,,2.63E-06,0.00665125
,,,2.64E-06,0.00656875
,,,2.65E-06,0.006305
,,,2.66E-06,0.00650625
,,,2.67E-06,0.0068225
,,,2.68E-06,0.0066325
,,,2.69E-06,0.00675
,,,2.7E-06,0.006531875
,,,2.71E-06,0.006669375
,,,2.72E-06,0.0063325
,,,2.73E-06,0.006750625
,,,2.74E-06,0.006718125
,,,2.75E-06,0.0063525
,,,2.76E-06,0.006663125
,,,2.77E-06,0.006648125
,,,2.78E-06,0.006668125
,,,2.79E-06,0.006664375
,,,2.8E-06,0.006586875
,,,2.81E-06,0.00678375
,,,2.82E-06,0.006575
,,,2.83E-06,0.00666375
,,,2.84E-06,0.006404375
,,,2.85E-06,0.006630625
,,,2.86E-06,0.006728125
,,,2.87E-06,0.006601875
,,,2.88E-06,0.00677125
,,,2.89E-06,0.006746875
,,,2.9E-06,0.0067125
,,,2.91E-06,0.006655625
,,,2.92E-06,0.006656875
,,,2.93E-06,0.006841875
,,,2.94E-06,0.006660625
,,,2.95E-06,0.006558125
,,,2.96E-06,0.0067625
,,,2.97E-06,0.00685375
,,,2.98E-06,0.0067025
,,,2.99E-06,0.00695875
,,,3E-06,0.00680125
,,,3.01E-06,0.006578125
,,,3.02E-06,0.0067975
,,,3.03E-06,0.006631875
,,,3.04E-06,0.00649875
,,,3.05E-06,0.006903125
,,,3.06E-06,0.006901875
,,,3.07E-06,0.006895625
,,,3.08E-06,0.0066575
,,,3.09E-06,0.006664375
,,,3.1E-06,0.006600625
,,,3.11E-06,0.006231875
,,,3.12E-06,0.0066325
,,,3.13E-06,0.00668125
,,,3.14E-06,0.00665
,,,3.15E-06,0.00670625
,,,3.16E-06,0.0067475
,,,3.17E-06,0.0064125
,,,3.18E-06,0.0065625
,,,3.19E-06,0.006440625
,,,3.2E-06,0.006655625
,,,3.21E-06,0.006563125
,,,3.22E-06,0.00685375
,,,3.23E-06,0.0067925
,,,3.24E-06,0.0066225
,,,3.25E-06,0.006621875
,,,3.26E-06,0.006611875
,,,3.27E-06,0.00652375
,,,3.28E-06,0.006621875
,,,3.29E-06,0.006698125
,,,3.3E-06,0.006495
,,,3.31E-06,0.0066425
,,,3.32E-06,0.006691875
,,,3.33E-06,0.006445625
,,,3.34E-06,0.00655
,,,3.35E-06,0.00681625
,,,3.36E-06,0.006706875
,,,3.37E-06,0.006809375
,,,3.38E-06,0.006711875
,,,3.39E-06,0.006670625
,,,3.4E-06,0.00667
,,,3.41E-06,0.006708125
,,,3.42E-06,0.0066525
,,,3.43E-06,0.006655
,,,3.44E-06,0.0067625
,,,3.45E-06,0.00646625
,,,3.46E-06,0.00651875
,,,3.47E-06,0.00667
,,,3.48E-06,0.0067225
,,,3.49E-06,0.006594375
,,,3.5E-06,0.006620625
,,,3.51E-06,0.006760625
,,,3.52E-06,0.006509375
,,,3.53E-06,0.006760625
,,,3.54E-06,0.00659875
,,,3.55E-06,0.006768125
,,,3.56E-06,0.006748125
,,,3.57E-06,0.00659125
