data/raw/Final_POL_Test_1/SOP015_Ch2.csv

"Record Length",1000,"Points",-5E-06,0.02418625
"Sample Interval",1E-08,s,-4.99E-06,0.024051875
"Trigger Point",500,"Samples",-4.98E-06,0.024136875
"Trigger Time",0,s,-4.97E-06,0.023911875
"",,,-4.96E-06,0.02419625
"Horizontal Offset",-5E-06,s,-4.95E-06,0.024055625
,,,-4.94E-06,0.024143125
,,,-4.93E-06,0.023803125
,,,-4.92E-06,0.023928125
,,,-4.91E-06,0.02410875
,,,-4.9E-06,0.024290625
,,,-4.89E-06,0.0237475
,,,-4.88E-06,0.02440125
,,,-4.87E-06,0.02391875
,,,-4.86E-06,0.0238725
,,,-4.85E-06,0.02425125
,,,-4.84E-06,0.024186875
,,,-4.83E-06,0.02407625
,,,-4.82E-06,0.02431125
,,,-4.81E-06,0.0241525
,,,-4.8E-06,0.024110625
,,,-4.79E-06,0.024094375
,,,-4.78E-06,0.024025625
,,,-4.77E-06,0.02391875
,,,-4.76E-06,0.024188125
,,,-4.75E-06,0.023775625
,,,-4.74E-06,0.0238975
,,,-4.73E-06,0.024173125
,,,-4.72E-06,0.02404875
,,,-4.71E-06,0.024351875
,,,-4.7E-06,0.02420625
,,,-4.69E-06,0.0241225
,,,-4.68E-06,0.0241875
,,,-4.67E-06,0.0242525
,,,-4.66E-06,0.024098125
,,,-4.65E-06,0.023809375
,,,-4.64E-06,0.023929375
,,,-4.63E-06,0.023928125
,,,-4.62E-06,0.023804375
,,,-4.61E-06,0.02400375
,,,-4.6E-06,0.024084375
,,,-4.59E-06,0.024085
,,,-4.58E-06,0.02425625
,,,-4.57E-06,0.024031875
,,,-4.56E-06,0.02397125
,,,-4.55E-06,0.02394875
,,,-4.54E-06,0.024020625
,,,-4.53E-06,0.023935625
,,,-4.52E-06,0.024053125
,,,-4.51E-06,0.024070625
,,,-4.5E-06,0.024170625
,,,-4.49E-06,0.0241075
,,,-4.48E-06,0.02383
,,,-4.47E-06,0.023928125
,,,-4.46E-06,0.024073125
,,,-4.45E-06,0.024143125
,,,-4.44E-06,0.023988125
,,,-4.43E-06,0.024198125
,,,-4.42E-06,0.02418125
,,,-4.41E-06,0.023924375
,,,-4.4E-06,0.023851875
,,,-4.39E-06,0.024273125
,,,-4.38E-06,0.0238075
,,,-4.37E-06,0.0242025
,,,-4.36E-06,0.024215
,,,-4.35E-06,0.024094375
,,,-4.34E-06,0.02391
,,,-4.33E-06,0.024085
,,,-4.32E-06,0.023888125
,,,-4.31E-06,0.024033125
,,,-4.3E-06,0.0241175
,,,-4.29E-06,0.024176875
,,,-4.28E-06,0.024175
,,,-4.27E-06,0.023986875
,,,-4.26E-06,0.023828125
,,,-4.25E-06,0.023865
,,,-4.24E-06,0.024055
,,,-4.23E-06,0.02395
,,,-4.22E-06,0.024196875
,,,-4.21E-06,0.0238875
,,,-4.2E-06,0.0240825
,,,-4.19E-06,0.023885625
,,,-4.18E-06,0.023740625
,,,-4.17E-06,0.0241
,,,-4.16E-06,0.024084375
,,,-4.15E-06,0.0241
,,,-4.14E-06,0.024024375
,,,-4.13E-06,0.024221875
,,,-4.12E-06,0.024013125
,,,-4.11E-06,0.0241875
,,,-4.1E-06,0.02414875
,,,-4.09E-06,0.0243025
,,,-4.08E-06,0.0241175
,,,-4.07E-06,0.024325625
,,,-4.06E-06,0.024376875
,,,-4.05E-06,0.024305
,,,-4.04E-06,0.0241425
,,,-4.03E-06,0.024040625
,,,-4.02E-06,0.024125
,,,-4.01E-06,0.02418375
,,,-4E-06,0.023975625
,,,-3.99E-06,0.024123125
,,,-3.98E-06,0.023865625
,,,-3.97E-06,0.024070625
,,,-3.96E-06,0.02400625
,,,-3.95E-06,0.024126875
,,,-3.94E-06,0.023946875
,,,-3.93E-06,0.023691875
,,,-3.92E-06,0.023995
,,,-3.91E-06,0.02384375
,,,-3.9E-06,0.02396125
,,,-3.89E-06,0.024020625
,,,-3.88E-06,0.0238125
,,,-3.87E-06,0.023969375
,,,-3.86E-06,0.02411875
,,,-3.85E-06,0.023871875
,,,-3.84E-06,0.023960625
,,,-3.83E-06,0.0239525
,,,-3.82E-06,0.02407125
,,,-3.81E-06,0.02408125
,,,-3.8E-06,0.023958125
,,,-3.79E-06,0.024164375
,,,-3.78E-06,0.023989375
,,,-3.77E-06,0.023988125
,,,-3.76E-06,0.023910625
,,,-3.75E-06,0.024034375
,,,-3.74E-06,0.02424
,,,-3.73E-06,0.024389375
,,,-3.72E-06,0.024005
,,,-3.71E-06,0.023700625
,,,-3.7E-06,0.023905625
,,,-3.69E-06,0.0240925
,,,-3.68E-06,0.024108125
,,,-3.67E-06,0.02394125
,,,-3.66E-06,0.024183125
,,,-3.65E-06,0.023938125
,,,-3.64E-06,0.0241575
,,,-3.63E-06,0.024193125
,,,-3.62E-06,0.023994375
,,,-3.61E-06,0.024161875
,,,-3.6E-06,0.02422625
,,,-3.59E-06,0.024005
,,,-3.58E-06,0.023898125
,,,-3.57E-06,0.02420625
,,,-3.56E-06,0.02398
,,,-3.55E-06,0.023953125
,,,-3.54E-06,0.024118125
,,,-3.53E-06,0.024033125
,,,-3.52E-06,0.02423375
,,,-3.51E-06,0.02410875
,,,-3.5E-06,0.02391125
,,,-3.49E-06,0.024260625
,,,-3.48E-06,0.023924375
,,,-3.47E-06,0.02404
,,,-3.46E-06,0.023681875
,,,-3.45E-06,0.02415125
,,,-3.44E-06,0.024153125
,,,-3.43E-06,0.023964375
,,,-3.42E-06,0.0238075
,,,-3.41E-06,0.024035
,,,-3.4E-06,0.024160625
,,,-3.39E-06,0.02403375
,,,-3.38E-06,0.02427625
,,,-3.37E-06,0.023965625
,,,-3.36E-06,0.024070625
,,,-3.35E-06,0.02410375
,,,-3.34E-06,0.023839375
,,,-3.33E-06,0.02409875
,,,-3.32E-06,0.024109375
,,,-3.31E-06,0.0240025
,,,-3.3E-06,0.024175
,,,-3.29E-06,0.024096875
,,,-3.28E-06,0.02409
,,,-3.27E-06,0.02397625
,,,-3.26E-06,0.024248125
,,,-3.25E-06,0.02394625
,,,-3.24E-06,0.024344375
,,,-3.23E-06,0.024253125
,,,-3.22E-06,0.024161875
,,,-3.21E-06,0.023945625
,,,-3.2E-06,0.02405125
,,,-3.19E-06,0.024165
,,,-3.18E-06,0.024179375
,,,-3.17E-06,0.024009375
,,,-3.16E-06,0.02406875
,,,-3.15E-06,0.02397875
,,,-3.14E-06,0.02404875
,,,-3.13E-06,0.023965
,,,-3.12E-06,0.024285625
,,,-3.11E-06,0.024009375
,,,-3.1E-06,0.02401
,,,-3.09E-06,0.0242025
,,,-3.08E-06,0.0238875
,,,-3.07E-06,0.024078125
,,,-3.06E-06,0.023821875
,,,-3.05E-06,0.024258125
,,,-3.04E-06,0.02432625
,,,-3.03E-06,0.02400375
,,,-3.02E-06,0.024048125
,,,-3.01E-06,0.02415125
,,,-3E-06,0.0240525
,,,-2.99E-06,0.024221875
,,,-2.98E-06,0.0238925
,,,-2.97E-06,0.024038125
,,,-2.96E-06,0.02398
,,,-2.95E-06,0.02414
,,,-2.94E-06,0.02400625
,,,-2.93E-06,0.024005
,,,-2.92E-06,0.023775625
,,,-2.91E-06,0.02424125
,,,-2.9E-06,0.023940625
,,,-2.89E-06,0.02412875
,,,-2.88E-06,0.02398125
,,,-2.87E-06,0.02407125
,,,-2.86E-06,0.02386125
,,,-2.85E-06,0.02389
,,,-2.84E-06,0.023984375
,,,-2.83E-06,0.0241275
,,,-2.82E-06,0.02404625
,,,-2.81E-06,0.023911875
,,,-2.8E-06,0.02393375
,,,-2.79E-06,0.02422375
,,,-2.78E-06,0.02411125
,,,-2.77E-06,0.023436875
,,,-2.76E-06,0.0239875
,,,-2.75E-06,0.024308125
,,,-2.74E-06,0.02407875
,,,-2.73E-06,0.02393625
,,,-2.72E-06,0.0240925
,,,-2.71E-06,0.023979375
,,,-2.7E-06,0.02405625
,,,-2.69E-06,0.02408
,,,-2.68E-06,0.0240825
,,,-2.67E-06,0.0239975
,,,-2.66E-06,0.024198125
,,,-2.65E-06,0.02422125
,,,-2.64E-06,0.0238575
,,,-2.63E-06,0.023710625
,,,-2.62E-06,0.023995
,,,-2.61E-06,0.024155
,,,-2.6E-06,0.02408875
,,,-2.59E-06,0.024163125
,,,-2.58E-06,0.024135
,,,-2.57E-06,0.024009375
,,,-2.56E-06,0.024123125
,,,-2.55E-06,0.02383375
,,,-2.54E-06,0.024043125
,,,-2.53E-06,0.02412
,,,-2.52E-06,0.024016875
,,,-2.51E-06,0.024105
,,,-2.5E-06,0.02387875
,,,-2.49E-06,0.02415875
,,,-2.48E-06,0.023926875
,,,-2.47E-06,0.0240375
,,,-2.46E-06,0.023820625
,,,-2.45E-06,0.02374
,,,-2.44E-06,0.023989375
,,,-2.43E-06,0.024093125
,,,-2.42E-06,0.024060625
,,,-2.41E-06,0.024273125
,,,-2.4E-06,0.02408125
,,,-2.39E-06,0.023980625
,,,-2.38E-06,0.023848125
,,,-2.37E-06,0.02396
,,,-2.36E-06,0.02394
,,,-2.35E-06,0.0241575
,,,-2.34E-06,0.02444
,,,-2.33E-06,0.0239925
,,,-2.32E-06,0.024251875
,,,-2.31E-06,0.0240575
,,,-2.3E-06,0.02406625
,,,-2.29E-06,0.0239925
,,,-2.28E-06,0.02398625
,,,-2.27E-06,0.023928125
,,,-2.26E-06,0.024141875
,,,-2.25E-06,0.024135625
,,,-2.24E-06,0.024089375
,,,-2.23E-06,0.02400375
,,,-2.22E-06,0.02407125
,,,-2.21E-06,0.02386375
,,,-2.2E-06,0.02398875
,,,-2.19E-06,0.024329375
,,,-2.18E-06,0.024195
,,,-2.17E-06,0.02416875
,,,-2.16E-06,0.024106875
,,,-2.15E-06,0.024066875
,,,-2.14E-06,0.024026875
,,,-2.13E-06,0.024160625
,,,-2.12E-06,0.023951875
,,,-2.11E-06,0.024110625
,,,-2.1E-06,0.024195
,,,-2.09E-06,0.02405
,,,-2.08E-06,0.0242375
,,,-2.07E-06,0.024023125
,,,-2.06E-06,0.024106875
,,,-2.05E-06,0.02402875
,,,-2.04E-06,0.023936875
,,,-2.03E-06,0.0242775
,,,-2.02E-06,0.023985
,,,-2.01E-06,0.02423125
,,,-2E-06,0.02409625
,,,-1.99E-06,0.0240225
,,,-1.98E-06,0.0242825
,,,-1.97E-06,0.024195625
,,,-1.96E-06,0.024409375
,,,-1.95E-06,0.02408375
,,,-1.94E-06,0.024021875
,,,-1.93E-06,0.024095
,,,-1.92E-06,0.024028125
,,,-1.91E-06,0.023929375
,,,-1.9E-06,0.0239725
,,,-1.89E-06,0.024198125
,,,-1.88E-06,0.024075625
,,,-1.87E-06,0.0237625
,,,-1.86E-06,0.024054375
,,,-1.85E-06,0.024233125
,,,-1.84E-06,0.0239525
,,,-1.83E-06,0.024053125
,,,-1.82E-06,0.02424125
,,,-1.81E-06,0.024126875
,,,-1.8E-06,0.024093125
,,,-1.79E-06,0.0241475
,,,-1.78E-06,0.023856875
,,,-1.77E-06,0.024038125
,,,-1.76E-06,0.0239425
,,,-1.75E-06,0.024133125
,,,-1.74E-06,0.023935
,,,-1.73E-06,0.02410125
,,,-1.72E-06,0.02401125
,,,-1.71E-06,0.02394375
,,,-1.7E-06,0.024025
,,,-1.69E-06,0.02412625
,,,-1.68E-06,0.023943125
,,,-1.67E-06,0.02380125
,,,-1.66E-06,0.02434375
,,,-1.65E-06,0.0241425
,,,-1.64E-06,0.023885
,,,-1.63E-06,0.024286875
,,,-1.62E-06,0.0240225
,,,-1.61E-06,0.023830625
,,,-1.6E-06,0.02410125
,,,-1.59E-06,0.02412625
,,,-1.58E-06,0.02413
,,,-1.57E-06,0.024080625
,,,-1.56E-06,0.023840625
,,,-1.55E-06,0.02398875
,,,-1.54E-06,0.023943125
,,,-1.53E-06,0.0241775
,,,-1.52E-06,0.024079375
,,,-1.51E-06,0.024050625
,,,-1.5E-06,0.02410375
,,,-1.49E-06,0.02403875
,,,-1.48E-06,0.024178125
,,,-1.47E-06,0.0244625
,,,-1.46E-06,0.023965
,,,-1.45E-06,0.0238625
,,,-1.44E-06,0.02407625
,,,-1.43E-06,0.0240975
,,,-1.42E-06,0.02401625
,,,-1.41E-06,0.0244675
,,,-1.4E-06,0.024059375
,,,-1.39E-06,0.02399625
,,,-1.38E-06,0.024214375
,,,-1.37E-06,0.024039375
,,,-1.36E-06,0.02390375
,,,-1.35E-06,0.024275
,,,-1.34E-06,0.024125
,,,-1.33E-06,0.023815625
,,,-1.32E-06,0.02394125
,,,-1.31E-06,0.024180625
,,,-1.3E-06,0.0242225
,,,-1.29E-06,0.02395875
,,,-1.28E-06,0.024134375
,,,-1.27E-06,0.024108125
,,,-1.26E-06,0.024009375
,,,-1.25E-06,0.023814375
,,,-1.24E-06,0.02423625
,,,-1.23E-06,0.02407375
,,,-1.22E-06,0.024019375
,,,-1.21E-06,0.024103125
,,,-1.2E-06,0.023970625
,,,-1.19E-06,0.024060625
,,,-1.18E-06,0.024270625
,,,-1.17E-06,0.02418625
,,,-1.16E-06,0.024086875
,,,-1.15E-06,0.024105625
,,,-1.14E-06,0.024004375
,,,-1.13E-06,0.02413875
,,,-1.12E-06,0.0242275
,,,-1.11E-06,0.024099375
,,,-1.1E-06,0.02425375
,,,-1.09E-06,0.024288125
,,,-1.08E-06,0.0238975
,,,-1.07E-06,0.023904375
,,,-1.06E-06,0.02396625
,,,-1.05E-06,0.02386
,,,-1.04E-06,0.023959375
,,,-1.03E-06,0.024099375
,,,-1.02E-06,0.0239725
,,,-1.01E-06,0.024075
,,,-1E-06,0.02399625
,,,-9.9E-07,0.024023125
,,,-9.8E-07,0.024266875
,,,-9.7E-07,0.02412875
,,,-9.6E-07,0.023980625
,,,-9.5E-07,0.02408125
,,,-9.4E-07,0.024464375
,,,-9.3E-07,0.023974375
,,,-9.2E-07,0.024106875
,,,-9.1E-07,0.023959375
,,,-9E-07,0.0239025
,,,-8.9E-07,0.0241625
,,,-8.8E-07,0.02411875
,,,-8.7E-07,0.023945
,,,-8.6E-07,0.0240625
,,,-8.5E-07,0.0239525
,,,-8.4E-07,0.02405625
,,,-8.3E-07,0.023924375
,,,-8.2E-07,0.023950625
,,,-8.1E-07,0.0240375
,,,-8E-07,0.023926875
,,,-7.9E-07,0.024035625
,,,-7.8E-07,0.024026875
,,,-7.7E-07,0.02404375
,,,-7.6E-07,0.024129375
,,,-7.5E-07,0.02422
,,,-7.4E-07,0.024179375
,,,-7.3E-07,0.02415
,,,-7.2E-07,0.023880625
,,,-7.1E-07,0.02413
,,,-7E-07,0.0239775
,,,-6.9E-07,0.024065625
,,,-6.8E-07,0.023929375
,,,-6.7E-07,0.024035
,,,-6.6E-07,0.024111875
,,,-6.5E-07,0.02409625
,,,-6.4E-07,0.024110625
,,,-6.3E-07,0.024014375
,,,-6.2E-07,0.024108125
,,,-6.1E-07,0.024000625
,,,-6E-07,0.024225625
,,,-5.9E-07,0.0242525
,,,-5.8E-07,0.02381625
,,,-5.7E-07,0.024198125
,,,-5.6E-07,0.023903125
,,,-5.5E-07,0.02386625
,,,-5.4E-07,0.023974375
,,,-5.3E-07,0.02421375
,,,-5.2E-07,0.02388625
,,,-5.1E-07,0.0238125
,,,-5E-07,0.024108125
,,,-4.9E-07,0.024238125
,,,-4.8E-07,0.02384625
,,,-4.7E-07,0.024139375
,,,-4.6E-07,0.023965625
,,,-4.5E-07,0.02405625
,,,-4.4E-07,0.02402875
,,,-4.3E-07,0.02413375
,,,-4.2E-07,0.02433375
,,,-4.1E-07,0.02426125
,,,-4E-07,0.023975
,,,-3.9E-07,0.023744375
,,,-3.8E-07,0.023898125
,,,-3.7E-07,0.024035625
,,,-3.6E-07,0.024016875
,,,-3.5E-07,0.024335625
,,,-3.4E-07,0.02409375
,,,-3.3E-07,0.02399125
,,,-3.2E-07,0.024180625
,,,-3.1E-07,0.023898125
,,,-3E-07,0.02410625
,,,-2.9E-07,0.024040625
,,,-2.8E-07,0.024274375
,,,-2.7E-07,0.024165
,,,-2.6E-07,0.024114375
,,,-2.5E-07,0.023934375
,,,-2.4E-07,0.023939375
,,,-2.3E-07,0.023995
,,,-2.2E-07,0.0238525
,,,-2.1E-07,0.02414125
,,,-2E-07,0.02418125
,,,-1.9E-07,0.02417375
,,,-1.8E-07,0.024155
,,,-1.7E-07,0.024195625
,,,-1.6E-07,0.024000625
,,,-1.5E-07,0.0241775
,,,-1.4E-07,0.0241725
,,,-1.3E-07,0.024225
,,,-1.2E-07,0.024048125
,,,-1.1E-07,0.0239275
,,,-1E-07,0.0243625
,,,-9E-08,0.023944375
,,,-8E-08,0.02411625
,,,-7E-08,0.024095
,,,-6E-08,0.023636875
,,,-5E-08,0.02415875
,,,-4E-08,0.024689375
,,,-3E-08,0.0238925
,,,-2E-08,0.022976875
,,,-1E-08,0.022815
,,,0,0.0242225
,,,1E-08,0.025635
,,,2E-08,0.025481875
,,,3E-08,0.02426625
,,,4E-08,0.023225
,,,5E-08,0.022885
,,,6E-08,0.023464375
,,,7E-08,0.024179375
,,,8E-08,0.02459125
,,,9E-08,0.02482125
,,,1E-07,0.024515
,,,1.1E-07,0.024056875
,,,1.2E-07,0.023671875
,,,1.3E-07,0.023709375
,,,1.4E-07,0.024124375
,,,1.5E-07,0.024058125
,,,1.6E-07,0.024365
,,,1.7E-07,0.02398
,,,1.8E-07,0.024226875
,,,1.9E-07,0.0240325
,,,2E-07,0.02405
,,,2.1E-07,0.023836875
,,,2.2E-07,0.02404125
,,,2.3E-07,0.0239525
,,,2.4E-07,0.02413125
,,,2.5E-07,0.024116875
,,,2.6E-07,0.02422125
,,,2.7E-07,0.02416375
,,,2.8E-07,0.02390125
,,,2.9E-07,0.0241175
,,,3E-07,0.02388625
,,,3.1E-07,0.024163125
,,,3.2E-07,0.02415375
,,,3.3E-07,0.023843125
,,,3.4E-07,0.02415125
,,,3.5E-07,0.02403375
,,,3.6E-07,0.02419625
,,,3.7E-07,0.02404
,,,3.8E-07,0.0243575
,,,3.9E-07,0.02394
,,,4E-07,0.024234375
,,,4.1E-07,0.02395375
,,,4.2E-07,0.024028125
,,,4.3E-07,0.023804375
,,,4.4E-07,0.024091875
,,,4.5E-07,0.024180625
,,,4.6E-07,0.0240175
,,,4.7E-07,0.02397375
,,,4.8E-07,0.02409375
,,,4.9E-07,0.023818125
,,,5E-07,0.02419125
,,,5.1E-07,0.023975625
,,,5.2E-07,0.024046875
,,,5.3E-07,0.023921875
,,,5.4E-07,0.023865625
,,,5.5E-07,0.024121875
,,,5.6E-07,0.024201875
,,,5.7E-07,0.024405
,,,5.8E-07,0.02417
,,,5.9E-07,0.024011875
,,,6E-07,0.023969375
,,,6.1E-07,0.024181875
,,,6.2E-07,0.024045
,,,6.3E-07,0.024130625
,,,6.4E-07,0.0239075
,,,6.5E-07,0.024253125
,,,6.6E-07,0.02417625
,,,6.7E-07,0.02377375
,,,6.8E-07,0.024215
,,,6.9E-07,0.02417375
,,,7E-07,0.02406625
,,,7.1E-07,0.024105625
,,,7.2E-07,0.02404
,,,7.3E-07,0.024451875
,,,7.4E-07,0.024186875
,,,7.5E-07,0.023965
,,,7.6E-07,0.0241125
,,,7.7E-07,0.024151875
,,,7.8E-07,0.02406875
,,,7.9E-07,0.024225625
,,,8E-07,0.024055
,,,8.1E-07,0.023844375
,,,8.2E-07,0.02395
,,,8.3E-07,0.0241425
,,,8.4E-07,0.02401625
,,,8.5E-07,0.02389625
,,,8.6E-07,0.0240675
,,,8.7E-07,0.024063125
,,,8.8E-07,0.024224375
,,,8.9E-07,0.024151875
,,,9E-07,0.024175
,,,9.1E-07,0.02401375
,,,9.2E-07,0.024025625
,,,9.3E-07,0.02394125
,,,9.4E-07,0.024013125
,,,9.5E-07,0.02410625
,,,9.6E-07,0.024086875
,,,9.7E-07,0.024023125
,,,9.8E-07,0.024458125
,,,9.9E-07,0.024104375
,,,1E-06,0.024126875
,,,1.01E-06,0.023799375
,,,1.02E-06,0.02379125
,,,1.03E-06,0.023828125
,,,1.04E-06,0.023915
,,,1.05E-06,0.02408125
,,,1.06E-06,0.024205625
,,,1.07E-06,0.024269375
,,,1.08E-06,0.02393625
,,,1.09E-06,0.024050625
,,,1.1E-06,0.02405625
,,,1.11E-06,0.02410875
,,,1.12E-06,0.02400375
,,,1.13E-06,0.023996875
,,,1.14E-06,0.024133125
,,,1.15E-06,0.023833125
,,,1.16E-06,0.024099375
,,,1.17E-06,0.0242575
,,,1.18E-06,0.023973125
,,,1.19E-06,0.0241475
,,,1.2E-06,0.024229375
,,,1.21E-06,0.02416125
,,,1.22E-06,0.02415
,,,1.23E-06,0.0242275
,,,1.24E-06,0.02414375
,,,1.25E-06,0.024213125
,,,1.26E-06,0.0239825
,,,1.27E-06,0.0237175
,,,1.28E-06,0.02394625
,,,1.29E-06,0.024074375
,,,1.3E-06,0.023985625
,,,1.31E-06,0.024333125
,,,1.32E-06,0.02391
,,,1.33E-06,0.02412125
,,,1.34E-06,0.024058125
,,,1.35E-06,0.02416
,,,1.36E-06,0.024114375
,,,1.37E-06,0.02424
,,,1.38E-06,0.02413375
,,,1.39E-06,0.024001875
,,,1.4E-06,0.02412125
,,,1.41E-06,0.023923125
,,,1.42E-06,0.024156875
,,,1.43E-06,0.02390375
,,,1.44E-06,0.024195625
,,,1.45E-06,0.02414375
,,,1.46E-06,0.023828125
,,,1.47E-06,0.024274375
,,,1.48E-06,0.02412625
,,,1.49E-06,0.023915625
,,,1.5E-06,0.02393875
,,,1.51E-06,0.0241975
,,,1.52E-06,0.024015
,,,1.53E-06,0.02406625
,,,1.54E-06,0.02411625
,,,1.55E-06,0.024185625
,,,1.56E-06,0.024196875
,,,1.57E-06,0.02419875
,,,1.58E-06,0.023921875
,,,1.59E-06,0.024028125
,,,1.6E-06,0.02413875
,,,1.61E-06,0.023925625
,,,1.62E-06,0.024355
,,,1.63E-06,0.023984375
,,,1.64E-06,0.024031875
,,,1.65E-06,0.0239775
,,,1.66E-06,0.024133125
,,,1.67E-06,0.024119375
,,,1.68E-06,0.023826875
,,,1.69E-06,0.023855
,,,1.7E-06,0.024051875
,,,1.71E-06,0.02424125
,,,1.72E-06,0.02392375
,,,1.73E-06,0.024085625
,,,1.74E-06,0.024345
,,,1.75E-06,0.023828125
,,,1.76E-06,0.02422625
,,,1.77E-06,0.0240275
,,,1.78E-06,0.024205625
,,,1.79E-06,0.024085
,,,1.8E-06,0.023885625
,,,1.81E-06,0.02388125
,,,1.82E-06,0.02403625
,,,1.83E-06,0.02422625
,,,1.84E-06,0.024156875
,,,1.85E-06,0.024166875
,,,1.86E-06,0.0239825
,,,1.87E-06,0.02406125
,,,1.88E-06,0.02421125
,,,1.89E-06,0.0242075
,,,1.9E-06,0.0240525
,,,1.91E-06,0.023911875
,,,1.92E-06,0.024175
,,,1.93E-06,0.02390375
,,,1.94E-06,0.024155625
,,,1.95E-06,0.0239375
,,,1.96E-06,0.023940625
,,,1.97E-06,0.024115625
,,,1.98E-06,0.0240325
,,,1.99E-06,0.0240725
,,,2E-06,0.02390375
,,,2.01E-06,0.024046875
,,,2.02E-06,0.023909375
,,,2.03E-06,0.023955625
,,,2.04E-06,0.024120625
,,,2.05E-06,0.02408
,,,2.06E-06,0.0239875
,,,2.07E-06,0.02412
,,,2.08E-06,0.024085
,,,2.09E-06,0.024003125
,,,2.1E-06,0.02427625
,,,2.11E-06,0.02423
,,,2.12E-06,0.023966875
,,,2.13E-06,0.024166875
,,,2.14E-06,0.02418
,,,2.15E-06,0.023985625
,,,2.16E-06,0.024301875
,,,2.17E-06,0.02415
,,,2.18E-06,0.023844375
,,,2.19E-06,0.023930625
,,,2.2E-06,0.023969375
,,,2.21E-06,0.024210625
,,,2.22E-06,0.02397875
,,,2.23E-06,0.024284375
,,,2.24E-06,0.0241075
,,,2.25E-06,0.0240775
,,,2.26E-06,0.024080625
,,,2.27E-06,0.0237775
,,,2.28E-06,0.02406625
,,,2.29E-06,0.023944375
,,,2.3E-06,0.02387875
,,,2.31E-06,0.024018125
,,,2.32E-06,0.024285
,,,2.33E-06,0.0241525
,,,2.34E-06,0.02387125
,,,2.35E-06,0.0237825
,,,2.36E-06,0.024428125
,,,2.37E-06,0.024190625
,,,2.38E-06,0.0239375
,,,2.39E-06,0.0243175
,,,2.4E-06,0.023953125
,,,2.41E-06,0.024286875
,,,2.42E-06,0.024178125
,,,2.43E-06,0.0241125
,,,2.44E-06,0.02391625
,,,2.45E-06,0.02396625
,,,2.46E-06,0.024101875
,,,2.47E-06,0.023845
,,,2.48E-06,0.023881875
,,,2.49E-06,0.02409375
,,,2.5E-06,0.024005625
,,,2.51E-06,0.02414
,,,2.52E-06,0.02412125
,,,2.53E-06,0.024249375
,,,2.54E-06,0.024406875
,,,2.55E-06,0.02399625
,,,2.56E-06,0.024080625
,,,2.57E-06,0.023920625
,,,2.58E-06,0.024240625
,,,2.59E-06,0.02406625
,,,2.6E-06,0.023895625
,,,2.61E-06,0.024115
,,,2.62E-06,0.023880625
,,,2.63E-06,0.023906875
,,,2.64E-06,0.0243125
,,,2.65E-06,0.024009375
,,,2.66E-06,0.02422
,,,2.67E-06,0.023865
,,,2.68E-06,0.023984375
,,,2.69E-06,0.0239725
,,,2.7E-06,0.0241375
,,,2.71E-06,0.02432
,,,2.72E-06,0.0241675
,,,2.73E-06,0.0240725
,,,2.74E-06,0.02379
,,,2.75E-06,0.023946875
,,,2.76E-06,0.024151875
,,,2.77E-06,0.0242525
,,,2.78E-06,0.024054375
,,,2.79E-06,0.0241
,,,2.8E-06,0.02430125
,,,2.81E-06,0.02424875
,,,2.82E-06,0.02400125
,,,2.83E-06,0.02392875
,,,2.84E-06,0.02378375
,,,2.85E-06,0.024458125
,,,2.86E-06,0.024016875
,,,2.87E-06,0.0238325
,,,2.88E-06,0.024085
,,,2.89E-06,0.02432375
,,,2.9E-06,0.02408125
,,,2.91E-06,0.024119375
,,,2.92E-06,0.023923125
,,,2.93E-06,0.023921875
,,,2.94E-06,0.02417
,,,2.95E-06,0.02433
,,,2.96E-06,0.024059375
,,,2.97E-06,0.023863125
,,,2.98E-06,0.0241925
,,,2.99E-06,0.02413
,,,3E-06,0.0239175
,,,3.01E-06,0.024295
,,,3.02E-06,0.024185
,,,3.03E-06,0.024274375
,,,3.04E-06,0.02420125
,,,3.05E-06,0.024101875
,,,3.06E-06,0.024435
,,,3.07E-06,0.02403875
,,,3.08E-06,0.023764375
,,,3.09E-06,0.023936875
,,,3.1E-06,0.024110625
,,,3.11E-06,0.0242075
,,,3.12E-06,0.023866875
,,,3.13E-06,0.0238275
,,,3.14E-06,0.024198125
,,,3.15E-06,0.0241925
,,,3.16E-06,0.023980625
,,,3.17E-06,0.02409625
,,,3.18E-06,0.024110625
,,,3.19E-06,0.023938125
,,,3.2E-06,0.02436875
,,,3.21E-06,0.02403375
,,,3.22E-06,0.0237425
,,,3.23E-06,0.0238575
,,,3.24E-06,0.024245
,,,3.25E-06,0.024048125
,,,3.26E-06,0.024185625
,,,3.27E-06,0.02422125
,,,3.28E-06,0.024076875
,,,3.29E-06,0.023986875
,,,3.3E-06,0.02420625
,,,3.31E-06,0.024180625
,,,3.32E-06,0.02388375
,,,3.33E-06,0.024365
,,,3.34E-06,0.0238625
,,,3.35E-06,0.02420375
,,,3.36E-06,0.02400375
,,,3.37E-06,0.024148125
,,,3.38E-06,0.02410125
,,,3.39E-06,0.024304375
,,,3.4E-06,0.024025625
,,,3.41E-06,0.0240225
,,,3.42E-06,0.0239125
,,,3.43E-06,0.02405
,,,3.44E-06,0.02404875
,,,3.45E-06,0.023994375
,,,3.46E-06,0.02425125
,,,3.47E-06,0.024278125
,,,3.48E-06,0.02412875
,,,3.49E-06,0.023776875
,,,3.5E-06,0.024075625
,,,3.51E-06,0.024128125
,,,3.52E-06,0.02395375
,,,3.53E-06,0.023973125
,,,3.54E-06,0.024175
,,,3.55E-06,0.024178125
,,,3.56E-06,0.024141875
,,,3.57E-06,0.02410875
