data/raw/Final_POL_Test_1/SOP039_Ch2.csv

"Record Length",1000,"Points",-5E-06,0.024970625
"Sample Interval",1E-08,s,-4.99E-06,0.024584375
"Trigger Point",500,"Samples",-4.98E-06,0.024889375
"Trigger Time",0,s,-4.97E-06,0.024685625
"",,,-4.96E-06,0.0249775
"Horizontal Offset",-5E-06,s,-4.95E-06,0.02464625
,,,-4.94E-06,0.025014375
,,,-4.93E-06,0.024774375
,,,-4.92E-06,0.024646875
,,,-4.91E-06,0.024945625
,,,-4.9E-06,0.02507125
,,,-4.89E-06,0.0249125
,,,-4.88E-06,0.02488875
,,,-4.87E-06,0.02463125
,,,-4.86E-06,0.024684375
,,,-4.85E-06,0.024800625
,,,-4.84E-06,0.0247825
,,,-4.83E-06,0.025025
,,,-4.82E-06,0.025190625
,,,-4.81E-06,0.025045625
,,,-4.8E-06,0.024718125
,,,-4.79E-06,0.0248725
,,,-4.78E-06,0.02486125
,,,-4.77E-06,0.02464625
,,,-4.76E-06,0.02472625
,,,-4.75E-06,0.024643125
,,,-4.74E-06,0.024898125
,,,-4.73E-06,0.025011875
,,,-4.72E-06,0.024988125
,,,-4.71E-06,0.02498875
,,,-4.7E-06,0.02499125
,,,-4.69E-06,0.02473125
,,,-4.68E-06,0.0243475
,,,-4.67E-06,0.02508125
,,,-4.66E-06,0.024759375
,,,-4.65E-06,0.02492125
,,,-4.64E-06,0.024783125
,,,-4.63E-06,0.024908125
,,,-4.62E-06,0.024761875
,,,-4.61E-06,0.02485
,,,-4.6E-06,0.024835625
,,,-4.59E-06,0.024855625
,,,-4.58E-06,0.024810625
,,,-4.57E-06,0.024694375
,,,-4.56E-06,0.024996875
,,,-4.55E-06,0.0247925
,,,-4.54E-06,0.025041875
,,,-4.53E-06,0.024604375
,,,-4.52E-06,0.024784375
,,,-4.51E-06,0.024659375
,,,-4.5E-06,0.024803125
,,,-4.49E-06,0.024799375
,,,-4.48E-06,0.02493875
,,,-4.47E-06,0.02465625
,,,-4.46E-06,0.024555625
,,,-4.45E-06,0.024766875
,,,-4.44E-06,0.024885625
,,,-4.43E-06,0.0246475
,,,-4.42E-06,0.0248275
,,,-4.41E-06,0.024883125
,,,-4.4E-06,0.02502875
,,,-4.39E-06,0.0247625
,,,-4.38E-06,0.024985625
,,,-4.37E-06,0.02486125
,,,-4.36E-06,0.024415
,,,-4.35E-06,0.02483875
,,,-4.34E-06,0.02478
,,,-4.33E-06,0.024795
,,,-4.32E-06,0.024606875
,,,-4.31E-06,0.024863125
,,,-4.3E-06,0.024841875
,,,-4.29E-06,0.02489
,,,-4.28E-06,0.0245925
,,,-4.27E-06,0.024953125
,,,-4.26E-06,0.024784375
,,,-4.25E-06,0.0245
,,,-4.24E-06,0.02498875
,,,-4.23E-06,0.02478375
,,,-4.22E-06,0.0249275
,,,-4.21E-06,0.024835625
,,,-4.2E-06,0.024625
,,,-4.19E-06,0.02473
,,,-4.18E-06,0.024861875
,,,-4.17E-06,0.0251425
,,,-4.16E-06,0.025116875
,,,-4.15E-06,0.024556875
,,,-4.14E-06,0.024663125
,,,-4.13E-06,0.024765625
,,,-4.12E-06,0.024785
,,,-4.11E-06,0.024611875
,,,-4.1E-06,0.024871875
,,,-4.09E-06,0.02474625
,,,-4.08E-06,0.025005625
,,,-4.07E-06,0.02462
,,,-4.06E-06,0.024760625
,,,-4.05E-06,0.024689375
,,,-4.04E-06,0.02472375
,,,-4.03E-06,0.02500625
,,,-4.02E-06,0.02484375
,,,-4.01E-06,0.02487625
,,,-4E-06,0.02488
,,,-3.99E-06,0.02505625
,,,-3.98E-06,0.024756875
,,,-3.97E-06,0.02487625
,,,-3.96E-06,0.02467875
,,,-3.95E-06,0.024965
,,,-3.94E-06,0.024734375
,,,-3.93E-06,0.024800625
,,,-3.92E-06,0.024915625
,,,-3.91E-06,0.024655625
,,,-3.9E-06,0.02477875
,,,-3.89E-06,0.024888125
,,,-3.88E-06,0.024879375
,,,-3.87E-06,0.0246975
,,,-3.86E-06,0.0249375
,,,-3.85E-06,0.025114375
,,,-3.84E-06,0.024755625
,,,-3.83E-06,0.02507375
,,,-3.82E-06,0.02475
,,,-3.81E-06,0.024995625
,,,-3.8E-06,0.024719375
,,,-3.79E-06,0.024764375
,,,-3.78E-06,0.024870625
,,,-3.77E-06,0.02467875
,,,-3.76E-06,0.024644375
,,,-3.75E-06,0.025001875
,,,-3.74E-06,0.02467375
,,,-3.73E-06,0.02482875
,,,-3.72E-06,0.02465125
,,,-3.71E-06,0.024788125
,,,-3.7E-06,0.024786875
,,,-3.69E-06,0.024784375
,,,-3.68E-06,0.024785625
,,,-3.67E-06,0.0248475
,,,-3.66E-06,0.024605
,,,-3.65E-06,0.02472625
,,,-3.64E-06,0.02460625
,,,-3.63E-06,0.02476
,,,-3.62E-06,0.024765625
,,,-3.61E-06,0.024633125
,,,-3.6E-06,0.024983125
,,,-3.59E-06,0.0246775
,,,-3.58E-06,0.02512
,,,-3.57E-06,0.024746875
,,,-3.56E-06,0.024746875
,,,-3.55E-06,0.024878125
,,,-3.54E-06,0.024848125
,,,-3.53E-06,0.024719375
,,,-3.52E-06,0.024575
,,,-3.51E-06,0.024676875
,,,-3.5E-06,0.02500625
,,,-3.49E-06,0.024684375
,,,-3.48E-06,0.024765
,,,-3.47E-06,0.024813125
,,,-3.46E-06,0.02477625
,,,-3.45E-06,0.024708125
,,,-3.44E-06,0.024731875
,,,-3.43E-06,0.0246875
,,,-3.42E-06,0.024864375
,,,-3.41E-06,0.024895625
,,,-3.4E-06,0.02498125
,,,-3.39E-06,0.024790625
,,,-3.38E-06,0.024863125
,,,-3.37E-06,0.0247725
,,,-3.36E-06,0.024801875
,,,-3.35E-06,0.024718125
,,,-3.34E-06,0.02497
,,,-3.33E-06,0.0245775
,,,-3.32E-06,0.02490125
,,,-3.31E-06,0.02487
,,,-3.3E-06,0.02458625
,,,-3.29E-06,0.0246025
,,,-3.28E-06,0.024868125
,,,-3.27E-06,0.024631875
,,,-3.26E-06,0.024781875
,,,-3.25E-06,0.025045
,,,-3.24E-06,0.024805625
,,,-3.23E-06,0.02471
,,,-3.22E-06,0.02499
,,,-3.21E-06,0.024640625
,,,-3.2E-06,0.024820625
,,,-3.19E-06,0.024806875
,,,-3.18E-06,0.02498125
,,,-3.17E-06,0.024668125
,,,-3.16E-06,0.024736875
,,,-3.15E-06,0.02501
,,,-3.14E-06,0.0249175
,,,-3.13E-06,0.024864375
,,,-3.12E-06,0.0247275
,,,-3.11E-06,0.02483
,,,-3.1E-06,0.024745
,,,-3.09E-06,0.02456625
,,,-3.08E-06,0.025165625
,,,-3.07E-06,0.025094375
,,,-3.06E-06,0.024628125
,,,-3.05E-06,0.024785625
,,,-3.04E-06,0.0247225
,,,-3.03E-06,0.024784375
,,,-3.02E-06,0.024955
,,,-3.01E-06,0.02489875
,,,-3E-06,0.024976875
,,,-2.99E-06,0.02485
,,,-2.98E-06,0.024824375
,,,-2.97E-06,0.0249725
,,,-2.96E-06,0.02499875
,,,-2.95E-06,0.02474625
,,,-2.94E-06,0.024919375
,,,-2.93E-06,0.024960625
,,,-2.92E-06,0.0249225
,,,-2.91E-06,0.024771875
,,,-2.9E-06,0.0249475
,,,-2.89E-06,0.024921875
,,,-2.88E-06,0.0249125
,,,-2.87E-06,0.024608125
,,,-2.86E-06,0.02514375
,,,-2.85E-06,0.02473625
,,,-2.84E-06,0.02485125
,,,-2.83E-06,0.025014375
,,,-2.82E-06,0.0247025
,,,-2.81E-06,0.024936875
,,,-2.8E-06,0.024525625
,,,-2.79E-06,0.0248525
,,,-2.78E-06,0.02473375
,,,-2.77E-06,0.02499625
,,,-2.76E-06,0.024581875
,,,-2.75E-06,0.0249575
,,,-2.74E-06,0.0249575
,,,-2.73E-06,0.025069375
,,,-2.72E-06,0.024666875
,,,-2.71E-06,0.02495875
,,,-2.7E-06,0.02462
,,,-2.69E-06,0.024638125
,,,-2.68E-06,0.024756875
,,,-2.67E-06,0.024909375
,,,-2.66E-06,0.024565625
,,,-2.65E-06,0.024888125
,,,-2.64E-06,0.024813125
,,,-2.63E-06,0.024954375
,,,-2.62E-06,0.0246875
,,,-2.61E-06,0.02462125
,,,-2.6E-06,0.024970625
,,,-2.59E-06,0.0249325
,,,-2.58E-06,0.0249025
,,,-2.57E-06,0.024690625
,,,-2.56E-06,0.024883125
,,,-2.55E-06,0.02485875
,,,-2.54E-06,0.024859375
,,,-2.53E-06,0.024945625
,,,-2.52E-06,0.024519375
,,,-2.51E-06,0.024806875
,,,-2.5E-06,0.0246025
,,,-2.49E-06,0.024638125
,,,-2.48E-06,0.024653125
,,,-2.47E-06,0.0247575
,,,-2.46E-06,0.024796875
,,,-2.45E-06,0.024569375
,,,-2.44E-06,0.024875
,,,-2.43E-06,0.02485625
,,,-2.42E-06,0.025015625
,,,-2.41E-06,0.025034375
,,,-2.4E-06,0.0250275
,,,-2.39E-06,0.0248475
,,,-2.38E-06,0.02472375
,,,-2.37E-06,0.024665625
,,,-2.36E-06,0.024656875
,,,-2.35E-06,0.024854375
,,,-2.34E-06,0.0248775
,,,-2.33E-06,0.024995625
,,,-2.32E-06,0.024818125
,,,-2.31E-06,0.024879375
,,,-2.3E-06,0.024631875
,,,-2.29E-06,0.024864375
,,,-2.28E-06,0.02489125
,,,-2.27E-06,0.0247675
,,,-2.26E-06,0.02492875
,,,-2.25E-06,0.025046875
,,,-2.24E-06,0.024881875
,,,-2.23E-06,0.0251475
,,,-2.22E-06,0.024921875
,,,-2.21E-06,0.024634375
,,,-2.2E-06,0.0246975
,,,-2.19E-06,0.024931875
,,,-2.18E-06,0.0249275
,,,-2.17E-06,0.02467625
,,,-2.16E-06,0.0247925
,,,-2.15E-06,0.0246575
,,,-2.14E-06,0.0248725
,,,-2.13E-06,0.02497125
,,,-2.12E-06,0.02480875
,,,-2.11E-06,0.025125625
,,,-2.1E-06,0.02487625
,,,-2.09E-06,0.024939375
,,,-2.08E-06,0.024755
,,,-2.07E-06,0.024835
,,,-2.06E-06,0.02460125
,,,-2.05E-06,0.024928125
,,,-2.04E-06,0.02473625
,,,-2.03E-06,0.02502375
,,,-2.02E-06,0.024859375
,,,-2.01E-06,0.02460375
,,,-2E-06,0.024920625
,,,-1.99E-06,0.024933125
,,,-1.98E-06,0.02502
,,,-1.97E-06,0.024748125
,,,-1.96E-06,0.02470375
,,,-1.95E-06,0.024855
,,,-1.94E-06,0.0247525
,,,-1.93E-06,0.024721875
,,,-1.92E-06,0.024898125
,,,-1.91E-06,0.024849375
,,,-1.9E-06,0.0246825
,,,-1.89E-06,0.024385625
,,,-1.88E-06,0.0248025
,,,-1.87E-06,0.02467625
,,,-1.86E-06,0.02495625
,,,-1.85E-06,0.025033125
,,,-1.84E-06,0.02485125
,,,-1.83E-06,0.02487375
,,,-1.82E-06,0.024826875
,,,-1.81E-06,0.024549375
,,,-1.8E-06,0.024751875
,,,-1.79E-06,0.024720625
,,,-1.78E-06,0.02492625
,,,-1.77E-06,0.02488375
,,,-1.76E-06,0.0248675
,,,-1.75E-06,0.02496875
,,,-1.74E-06,0.024836875
,,,-1.73E-06,0.02464
,,,-1.72E-06,0.024713125
,,,-1.71E-06,0.02487
,,,-1.7E-06,0.02491625
,,,-1.69E-06,0.02496
,,,-1.68E-06,0.0249025
,,,-1.67E-06,0.024716875
,,,-1.66E-06,0.02501
,,,-1.65E-06,0.024860625
,,,-1.64E-06,0.024990625
,,,-1.63E-06,0.024733125
,,,-1.62E-06,0.02487625
,,,-1.61E-06,0.024719375
,,,-1.6E-06,0.02493375
,,,-1.59E-06,0.0250925
,,,-1.58E-06,0.024915625
,,,-1.57E-06,0.0248
,,,-1.56E-06,0.024598125
,,,-1.55E-06,0.0247575
,,,-1.54E-06,0.024678125
,,,-1.53E-06,0.024879375
,,,-1.52E-06,0.025015
,,,-1.51E-06,0.024795625
,,,-1.5E-06,0.024986875
,,,-1.49E-06,0.0248075
,,,-1.48E-06,0.0246575
,,,-1.47E-06,0.025024375
,,,-1.46E-06,0.0248675
,,,-1.45E-06,0.0245625
,,,-1.44E-06,0.024766875
,,,-1.43E-06,0.024735625
,,,-1.42E-06,0.024754375
,,,-1.41E-06,0.025005625
,,,-1.4E-06,0.024598125
,,,-1.39E-06,0.024866875
,,,-1.38E-06,0.024604375
,,,-1.37E-06,0.024805625
,,,-1.36E-06,0.024971875
,,,-1.35E-06,0.02492125
,,,-1.34E-06,0.024895625
,,,-1.33E-06,0.0249075
,,,-1.32E-06,0.024890625
,,,-1.31E-06,0.024984375
,,,-1.3E-06,0.02492125
,,,-1.29E-06,0.024674375
,,,-1.28E-06,0.024808125
,,,-1.27E-06,0.02498
,,,-1.26E-06,0.025065625
,,,-1.25E-06,0.02486375
,,,-1.24E-06,0.024849375
,,,-1.23E-06,0.024655625
,,,-1.22E-06,0.0248675
,,,-1.21E-06,0.024963125
,,,-1.2E-06,0.02466
,,,-1.19E-06,0.02483
,,,-1.18E-06,0.024845625
,,,-1.17E-06,0.0248175
,,,-1.16E-06,0.02455125
,,,-1.15E-06,0.024865625
,,,-1.14E-06,0.024751875
,,,-1.13E-06,0.02468875
,,,-1.12E-06,0.02481375
,,,-1.11E-06,0.024614375
,,,-1.1E-06,0.02483
,,,-1.09E-06,0.02485
,,,-1.08E-06,0.024696875
,,,-1.07E-06,0.024750625
,,,-1.06E-06,0.024784375
,,,-1.05E-06,0.024781875
,,,-1.04E-06,0.024904375
,,,-1.03E-06,0.02488125
,,,-1.02E-06,0.02502125
,,,-1.01E-06,0.024628125
,,,-1E-06,0.02459375
,,,-9.9E-07,0.024799375
,,,-9.8E-07,0.024913125
,,,-9.7E-07,0.02462875
,,,-9.6E-07,0.02470375
,,,-9.5E-07,0.024935625
,,,-9.4E-07,0.02473625
,,,-9.3E-07,0.02470625
,,,-9.2E-07,0.025048125
,,,-9.1E-07,0.02480625
,,,-9E-07,0.024880625
,,,-8.9E-07,0.024831875
,,,-8.8E-07,0.024679375
,,,-8.7E-07,0.02484
,,,-8.6E-07,0.024705625
,,,-8.5E-07,0.024770625
,,,-8.4E-07,0.0248125
,,,-8.3E-07,0.02471
,,,-8.2E-07,0.024859375
,,,-8.1E-07,0.025121875
,,,-8E-07,0.02499125
,,,-7.9E-07,0.024908125
,,,-7.8E-07,0.02493375
,,,-7.7E-07,0.024736875
,,,-7.6E-07,0.025219375
,,,-7.5E-07,0.024875
,,,-7.4E-07,0.02474625
,,,-7.3E-07,0.02495
,,,-7.2E-07,0.0246475
,,,-7.1E-07,0.024790625
,,,-7E-07,0.025115
,,,-6.9E-07,0.024653125
,,,-6.8E-07,0.02473375
,,,-6.7E-07,0.02468125
,,,-6.6E-07,0.024706875
,,,-6.5E-07,0.025123125
,,,-6.4E-07,0.0247025
,,,-6.3E-07,0.02483375
,,,-6.2E-07,0.02455375
,,,-6.1E-07,0.024685
,,,-6E-07,0.02496375
,,,-5.9E-07,0.02486375
,,,-5.8E-07,0.02491375
,,,-5.7E-07,0.02444875
,,,-5.6E-07,0.024643125
,,,-5.5E-07,0.024831875
,,,-5.4E-07,0.02471
,,,-5.3E-07,0.024801875
,,,-5.2E-07,0.024693125
,,,-5.1E-07,0.0247175
,,,-5E-07,0.0248
,,,-4.9E-07,0.02469625
,,,-4.8E-07,0.024945
,,,-4.7E-07,0.0251825
,,,-4.6E-07,0.024855625
,,,-4.5E-07,0.024663125
,,,-4.4E-07,0.024925625
,,,-4.3E-07,0.024835625
,,,-4.2E-07,0.024946875
,,,-4.1E-07,0.024771875
,,,-4E-07,0.024704375
,,,-3.9E-07,0.02479625
,,,-3.8E-07,0.0248675
,,,-3.7E-07,0.02492875
,,,-3.6E-07,0.02474
,,,-3.5E-07,0.0250675
,,,-3.4E-07,0.0246625
,,,-3.3E-07,0.02459375
,,,-3.2E-07,0.02473
,,,-3.1E-07,0.0249025
,,,-3E-07,0.024691875
,,,-2.9E-07,0.024636875
,,,-2.8E-07,0.02497625
,,,-2.7E-07,0.02482875
,,,-2.6E-07,0.0247375
,,,-2.5E-07,0.024794375
,,,-2.4E-07,0.024530625
,,,-2.3E-07,0.024806875
,,,-2.2E-07,0.024880625
,,,-2.1E-07,0.025066875
,,,-2E-07,0.0248275
,,,-1.9E-07,0.024756875
,,,-1.8E-07,0.024483125
,,,-1.7E-07,0.024939375
,,,-1.6E-07,0.0246275
,,,-1.5E-07,0.024729375
,,,-1.4E-07,0.0248925
,,,-1.3E-07,0.025085
,,,-1.2E-07,0.02459125
,,,-1.1E-07,0.024595
,,,-1E-07,0.024714375
,,,-9E-08,0.02497
,,,-8E-08,0.02473375
,,,-7E-08,0.024668125
,,,-6E-08,0.024848125
,,,-5E-08,0.02508875
,,,-4E-08,0.026954375
,,,-3E-08,0.025285625
,,,-2E-08,0.022025
,,,-1E-08,0.01994375
,,,0,0.0245325
,,,1E-08,0.028975625
,,,2E-08,0.030005625
,,,3E-08,0.02670375
,,,4E-08,0.02287625
,,,5E-08,0.02114625
,,,6E-08,0.02223375
,,,7E-08,0.02451
,,,8E-08,0.02637625
,,,9E-08,0.02737875
,,,1E-07,0.026698125
,,,1.1E-07,0.025005
,,,1.2E-07,0.023404375
,,,1.3E-07,0.023530625
,,,1.4E-07,0.0241475
,,,1.5E-07,0.0255475
,,,1.6E-07,0.0255375
,,,1.7E-07,0.025050625
,,,1.8E-07,0.02483625
,,,1.9E-07,0.025
,,,2E-07,0.024761875
,,,2.1E-07,0.0245
,,,2.2E-07,0.024306875
,,,2.3E-07,0.024904375
,,,2.4E-07,0.024963125
,,,2.5E-07,0.02501875
,,,2.6E-07,0.02457125
,,,2.7E-07,0.02469625
,,,2.8E-07,0.0247675
,,,2.9E-07,0.02486375
,,,3E-07,0.02463375
,,,3.1E-07,0.02494
,,,3.2E-07,0.024960625
,,,3.3E-07,0.025004375
,,,3.4E-07,0.024811875
,,,3.5E-07,0.024535625
,,,3.6E-07,0.02468
,,,3.7E-07,0.0247375
,,,3.8E-07,0.02499
,,,3.9E-07,0.02487625
,,,4E-07,0.024784375
,,,4.1E-07,0.024648125
,,,4.2E-07,0.02454625
,,,4.3E-07,0.0245
,,,4.4E-07,0.02490125
,,,4.5E-07,0.0250375
,,,4.6E-07,0.024881875
,,,4.7E-07,0.024814375
,,,4.8E-07,0.02483625
,,,4.9E-07,0.024553125
,,,5E-07,0.02474375
,,,5.1E-07,0.024839375
,,,5.2E-07,0.02507125
,,,5.3E-07,0.02472625
,,,5.4E-07,0.024864375
,,,5.5E-07,0.02488875
,,,5.6E-07,0.02472625
,,,5.7E-07,0.02484875
,,,5.8E-07,0.024905625
,,,5.9E-07,0.024890625
,,,6E-07,0.0249175
,,,6.1E-07,0.024844375
,,,6.2E-07,0.02481375
,,,6.3E-07,0.02489375
,,,6.4E-07,0.0248725
,,,6.5E-07,0.02473
,,,6.6E-07,0.02474625
,,,6.7E-07,0.024736875
,,,6.8E-07,0.0249375
,,,6.9E-07,0.0246325
,,,7E-07,0.0247325
,,,7.1E-07,0.025006875
,,,7.2E-07,0.0247825
,,,7.3E-07,0.02463
,,,7.4E-07,0.024748125
,,,7.5E-07,0.02481125
,,,7.6E-07,0.024783125
,,,7.7E-07,0.02493
,,,7.8E-07,0.024863125
,,,7.9E-07,0.024981875
,,,8E-07,0.024731875
,,,8.1E-07,0.02482875
,,,8.2E-07,0.025099375
,,,8.3E-07,0.024738125
,,,8.4E-07,0.025004375
,,,8.5E-07,0.024864375
,,,8.6E-07,0.024828125
,,,8.7E-07,0.02491
,,,8.8E-07,0.024925
,,,8.9E-07,0.02469375
,,,9E-07,0.024869375
,,,9.1E-07,0.02494625
,,,9.2E-07,0.024846875
,,,9.3E-07,0.024719375
,,,9.4E-07,0.02467375
,,,9.5E-07,0.024700625
,,,9.6E-07,0.0248325
,,,9.7E-07,0.024634375
,,,9.8E-07,0.0248875
,,,9.9E-07,0.025063125
,,,1E-06,0.02518375
,,,1.01E-06,0.02502625
,,,1.02E-06,0.024726875
,,,1.03E-06,0.024829375
,,,1.04E-06,0.024928125
,,,1.05E-06,0.024903125
,,,1.06E-06,0.024711875
,,,1.07E-06,0.0249325
,,,1.08E-06,0.024688125
,,,1.09E-06,0.02481125
,,,1.1E-06,0.02457
,,,1.11E-06,0.02482125
,,,1.12E-06,0.02475625
,,,1.13E-06,0.024615625
,,,1.14E-06,0.0248175
,,,1.15E-06,0.0251975
,,,1.16E-06,0.024731875
,,,1.17E-06,0.02507625
,,,1.18E-06,0.0246525
,,,1.19E-06,0.024865625
,,,1.2E-06,0.024819375
,,,1.21E-06,0.02492
,,,1.22E-06,0.0246475
,,,1.23E-06,0.024995625
,,,1.24E-06,0.025083125
,,,1.25E-06,0.02473375
,,,1.26E-06,0.0247875
,,,1.27E-06,0.024838125
,,,1.28E-06,0.024694375
,,,1.29E-06,0.024894375
,,,1.3E-06,0.024860625
,,,1.31E-06,0.02491625
,,,1.32E-06,0.024894375
,,,1.33E-06,0.024825625
,,,1.34E-06,0.025009375
,,,1.35E-06,0.024844375
,,,1.36E-06,0.024700625
,,,1.37E-06,0.02471375
,,,1.38E-06,0.02494625
,,,1.39E-06,0.02494125
,,,1.4E-06,0.024896875
,,,1.41E-06,0.0246875
,,,1.42E-06,0.02478
,,,1.43E-06,0.024915
,,,1.44E-06,0.024600625
,,,1.45E-06,0.02474125
,,,1.46E-06,0.024546875
,,,1.47E-06,0.024823125
,,,1.48E-06,0.025058125
,,,1.49E-06,0.02469125
,,,1.5E-06,0.02494375
,,,1.51E-06,0.024811875
,,,1.52E-06,0.024650625
,,,1.53E-06,0.02454875
,,,1.54E-06,0.024901875
,,,1.55E-06,0.024693125
,,,1.56E-06,0.024708125
,,,1.57E-06,0.024746875
,,,1.58E-06,0.02478
,,,1.59E-06,0.024955625
,,,1.6E-06,0.024553125
,,,1.61E-06,0.024870625
,,,1.62E-06,0.024793125
,,,1.63E-06,0.024295625
,,,1.64E-06,0.024828125
,,,1.65E-06,0.02481875
,,,1.66E-06,0.0247325
,,,1.67E-06,0.0248475
,,,1.68E-06,0.0247675
,,,1.69E-06,0.024763125
,,,1.7E-06,0.024504375
,,,1.71E-06,0.024844375
,,,1.72E-06,0.024965
,,,1.73E-06,0.0250425
,,,1.74E-06,0.02468625
,,,1.75E-06,0.024934375
,,,1.76E-06,0.024563125
,,,1.77E-06,0.02491875
,,,1.78E-06,0.024739375
,,,1.79E-06,0.02487625
,,,1.8E-06,0.02466875
,,,1.81E-06,0.024886875
,,,1.82E-06,0.024845625
,,,1.83E-06,0.025055
,,,1.84E-06,0.024548125
,,,1.85E-06,0.024589375
,,,1.86E-06,0.024616875
,,,1.87E-06,0.02476375
,,,1.88E-06,0.024726875
,,,1.89E-06,0.024655
,,,1.9E-06,0.02501
,,,1.91E-06,0.024725
,,,1.92E-06,0.02471
,,,1.93E-06,0.024508125
,,,1.94E-06,0.0246825
,,,1.95E-06,0.024666875
,,,1.96E-06,0.02499
,,,1.97E-06,0.02484
,,,1.98E-06,0.025085625
,,,1.99E-06,0.024735
,,,2E-06,0.025016875
,,,2.01E-06,0.0247375
,,,2.02E-06,0.0247875
,,,2.03E-06,0.02461375
,,,2.04E-06,0.025013125
,,,2.05E-06,0.024864375
,,,2.06E-06,0.02485625
,,,2.07E-06,0.02461375
,,,2.08E-06,0.024863125
,,,2.09E-06,0.024904375
,,,2.1E-06,0.02506375
,,,2.11E-06,0.0248625
,,,2.12E-06,0.024895625
,,,2.13E-06,0.024779375
,,,2.14E-06,0.02478125
,,,2.15E-06,0.02499625
,,,2.16E-06,0.02471875
,,,2.17E-06,0.024626875
,,,2.18E-06,0.0247175
,,,2.19E-06,0.024919375
,,,2.2E-06,0.024855625
,,,2.21E-06,0.024615625
,,,2.22E-06,0.02475875
,,,2.23E-06,0.02503375
,,,2.24E-06,0.024620625
,,,2.25E-06,0.02472
,,,2.26E-06,0.02479
,,,2.27E-06,0.024918125
,,,2.28E-06,0.024875
,,,2.29E-06,0.024816875
,,,2.3E-06,0.0247475
,,,2.31E-06,0.024998125
,,,2.32E-06,0.02483125
,,,2.33E-06,0.0247075
,,,2.34E-06,0.024826875
,,,2.35E-06,0.024966875
,,,2.36E-06,0.02474875
,,,2.37E-06,0.024830625
,,,2.38E-06,0.02496625
,,,2.39E-06,0.024801875
,,,2.4E-06,0.0246875
,,,2.41E-06,0.02475875
,,,2.42E-06,0.02470125
,,,2.43E-06,0.024930625
,,,2.44E-06,0.02475125
,,,2.45E-06,0.02481875
,,,2.46E-06,0.024900625
,,,2.47E-06,0.024709375
,,,2.48E-06,0.025030625
,,,2.49E-06,0.0248025
,,,2.5E-06,0.024880625
,,,2.51E-06,0.0247825
,,,2.52E-06,0.0250375
,,,2.53E-06,0.02490625
,,,2.54E-06,0.024778125
,,,2.55E-06,0.02496875
,,,2.56E-06,0.02486875
,,,2.57E-06,0.024594375
,,,2.58E-06,0.02479875
,,,2.59E-06,0.02501625
,,,2.6E-06,0.0245375
,,,2.61E-06,0.0248125
,,,2.62E-06,0.02481
,,,2.63E-06,0.024849375
,,,2.64E-06,0.025091875
,,,2.65E-06,0.024893125
,,,2.66E-06,0.024578125
,,,2.67E-06,0.0247875
,,,2.68E-06,0.02476625
,,,2.69E-06,0.02484625
,,,2.7E-06,0.024881875
,,,2.71E-06,0.0248375
,,,2.72E-06,0.024640625
,,,2.73E-06,0.024658125
,,,2.74E-06,0.024699375
,,,2.75E-06,0.0246275
,,,2.76E-06,0.0247925
,,,2.77E-06,0.024691875
,,,2.78E-06,0.02463
,,,2.79E-06,0.02508
,,,2.8E-06,0.0250375
,,,2.81E-06,0.02502
,,,2.82E-06,0.02481
,,,2.83E-06,0.024910625
,,,2.84E-06,0.024841875
,,,2.85E-06,0.02469375
,,,2.86E-06,0.025005625
,,,2.87E-06,0.025093125
,,,2.88E-06,0.024681875
,,,2.89E-06,0.024725625
,,,2.9E-06,0.024681875
,,,2.91E-06,0.0249325
,,,2.92E-06,0.02460125
,,,2.93E-06,0.024850625
,,,2.94E-06,0.02466375
,,,2.95E-06,0.024816875
,,,2.96E-06,0.02491375
,,,2.97E-06,0.02477125
,,,2.98E-06,0.0248625
,,,2.99E-06,0.024891875
,,,3E-06,0.02469
,,,3.01E-06,0.0248875
,,,3.02E-06,0.024785625
,,,3.03E-06,0.0249275
,,,3.04E-06,0.02504125
,,,3.05E-06,0.024821875
,,,3.06E-06,0.02461625
,,,3.07E-06,0.02469875
,,,3.08E-06,0.0248125
,,,3.09E-06,0.02491125
,,,3.1E-06,0.02487
,,,3.11E-06,0.0246975
,,,3.12E-06,0.024901875
,,,3.13E-06,0.024896875
,,,3.14E-06,0.025005625
,,,3.15E-06,0.024761875
,,,3.16E-06,0.02472375
,,,3.17E-06,0.02459625
,,,3.18E-06,0.024631875
,,,3.19E-06,0.024630625
,,,3.2E-06,0.024849375
,,,3.21E-06,0.024949375
,,,3.22E-06,0.0246375
,,,3.23E-06,0.0248825
,,,3.24E-06,0.02478
,,,3.25E-06,0.024944375
,,,3.26E-06,0.02487
,,,3.27E-06,0.024659375
,,,3.28E-06,0.02470625
,,,3.29E-06,0.024698125
,,,3.3E-06,0.02461625
,,,3.31E-06,0.02494125
,,,3.32E-06,0.02479
,,,3.33E-06,0.02467625
,,,3.34E-06,0.0247125
,,,3.35E-06,0.024460625
,,,3.36E-06,0.02487125
,,,3.37E-06,0.02463
,,,3.38E-06,0.0248725
,,,3.39E-06,0.024951875
,,,3.4E-06,0.024485
,,,3.41E-06,0.02473625
,,,3.42E-06,0.024655625
,,,3.43E-06,0.024888125
,,,3.44E-06,0.02481875
,,,3.45E-06,0.024839375
,,,3.46E-06,0.02487375
,,,3.47E-06,0.02484875
,,,3.48E-06,0.02490375
,,,3.49E-06,0.02479375
,,,3.5E-06,0.0247125
,,,3.51E-06,0.024871875
,,,3.52E-06,0.02468375
,,,3.53E-06,0.024874375
,,,3.54E-06,0.024695625
,,,3.55E-06,0.024905625
,,,3.56E-06,0.024714375
