data/raw/Final_POL_Test_1/SOP038_Ch4.csv

"Record Length",1000,"Points",-5E-06,0.01929375
"Sample Interval",1E-08,s,-4.99E-06,0.0191
"Trigger Point",500,"Samples",-4.98E-06,0.019555625
"Trigger Time",0,s,-4.97E-06,0.0191225
"",,,-4.96E-06,0.019326875
"Horizontal Offset",-5E-06,s,-4.95E-06,0.01938375
,,,-4.94E-06,0.019415
,,,-4.93E-06,0.01937875
,,,-4.92E-06,0.0194125
,,,-4.91E-06,0.019258125
,,,-4.9E-06,0.019255
,,,-4.89E-06,0.019259375
,,,-4.88E-06,0.01926
,,,-4.87E-06,0.01911375
,,,-4.86E-06,0.019215
,,,-4.85E-06,0.01908875
,,,-4.84E-06,0.019119375
,,,-4.83E-06,0.019175625
,,,-4.82E-06,0.019346875
,,,-4.81E-06,0.019203125
,,,-4.8E-06,0.01921625
,,,-4.79E-06,0.018919375
,,,-4.78E-06,0.01920125
,,,-4.77E-06,0.01926875
,,,-4.76E-06,0.019165
,,,-4.75E-06,0.019075
,,,-4.74E-06,0.019314375
,,,-4.73E-06,0.019134375
,,,-4.72E-06,0.01933375
,,,-4.71E-06,0.01922375
,,,-4.7E-06,0.01909125
,,,-4.69E-06,0.01937
,,,-4.68E-06,0.019031875
,,,-4.67E-06,0.019024375
,,,-4.66E-06,0.019079375
,,,-4.65E-06,0.019359375
,,,-4.64E-06,0.019015625
,,,-4.63E-06,0.019255
,,,-4.62E-06,0.019163125
,,,-4.61E-06,0.019330625
,,,-4.6E-06,0.01921625
,,,-4.59E-06,0.019285625
,,,-4.58E-06,0.0189875
,,,-4.57E-06,0.01921
,,,-4.56E-06,0.01954125
,,,-4.55E-06,0.019273125
,,,-4.54E-06,0.019308125
,,,-4.53E-06,0.01935125
,,,-4.52E-06,0.01924125
,,,-4.51E-06,0.0193525
,,,-4.5E-06,0.0192625
,,,-4.49E-06,0.019265
,,,-4.48E-06,0.019233125
,,,-4.47E-06,0.01953
,,,-4.46E-06,0.01919875
,,,-4.45E-06,0.0192425
,,,-4.44E-06,0.0192525
,,,-4.43E-06,0.019473125
,,,-4.42E-06,0.019203125
,,,-4.41E-06,0.019325625
,,,-4.4E-06,0.0191025
,,,-4.39E-06,0.019103125
,,,-4.38E-06,0.019016875
,,,-4.37E-06,0.01903
,,,-4.36E-06,0.01920375
,,,-4.35E-06,0.019018125
,,,-4.34E-06,0.01898
,,,-4.33E-06,0.01960875
,,,-4.32E-06,0.019295
,,,-4.31E-06,0.019429375
,,,-4.3E-06,0.019179375
,,,-4.29E-06,0.019155625
,,,-4.28E-06,0.01924
,,,-4.27E-06,0.0190525
,,,-4.26E-06,0.0190025
,,,-4.25E-06,0.0192725
,,,-4.24E-06,0.019221875
,,,-4.23E-06,0.01941
,,,-4.22E-06,0.019323125
,,,-4.21E-06,0.01921375
,,,-4.2E-06,0.01936
,,,-4.19E-06,0.0191825
,,,-4.18E-06,0.019075
,,,-4.17E-06,0.019186875
,,,-4.16E-06,0.019379375
,,,-4.15E-06,0.0192475
,,,-4.14E-06,0.01922125
,,,-4.13E-06,0.019240625
,,,-4.12E-06,0.01933875
,,,-4.11E-06,0.0192675
,,,-4.1E-06,0.01935625
,,,-4.09E-06,0.01920875
,,,-4.08E-06,0.019116875
,,,-4.07E-06,0.019114375
,,,-4.06E-06,0.019206875
,,,-4.05E-06,0.019056875
,,,-4.04E-06,0.01933625
,,,-4.03E-06,0.019195625
,,,-4.02E-06,0.019124375
,,,-4.01E-06,0.01918
,,,-4E-06,0.019423125
,,,-3.99E-06,0.01916875
,,,-3.98E-06,0.019205625
,,,-3.97E-06,0.019055
,,,-3.96E-06,0.0192775
,,,-3.95E-06,0.019160625
,,,-3.94E-06,0.01933
,,,-3.93E-06,0.01928375
,,,-3.92E-06,0.0192275
,,,-3.91E-06,0.019085625
,,,-3.9E-06,0.01937375
,,,-3.89E-06,0.019296875
,,,-3.88E-06,0.019300625
,,,-3.87E-06,0.018983125
,,,-3.86E-06,0.01915875
,,,-3.85E-06,0.01917625
,,,-3.84E-06,0.019425
,,,-3.83E-06,0.019196875
,,,-3.82E-06,0.019403125
,,,-3.81E-06,0.0192925
,,,-3.8E-06,0.01932125
,,,-3.79E-06,0.019279375
,,,-3.78E-06,0.01920375
,,,-3.77E-06,0.01932875
,,,-3.76E-06,0.019078125
,,,-3.75E-06,0.019141875
,,,-3.74E-06,0.019380625
,,,-3.73E-06,0.0193275
,,,-3.72E-06,0.018981875
,,,-3.71E-06,0.019153125
,,,-3.7E-06,0.019096875
,,,-3.69E-06,0.019215
,,,-3.68E-06,0.019249375
,,,-3.67E-06,0.01952
,,,-3.66E-06,0.01932625
,,,-3.65E-06,0.01920625
,,,-3.64E-06,0.01913375
,,,-3.63E-06,0.01913125
,,,-3.62E-06,0.01925875
,,,-3.61E-06,0.019333125
,,,-3.6E-06,0.019205
,,,-3.59E-06,0.01939625
,,,-3.58E-06,0.019314375
,,,-3.57E-06,0.0192775
,,,-3.56E-06,0.01919375
,,,-3.55E-06,0.0192275
,,,-3.54E-06,0.0191275
,,,-3.53E-06,0.01890375
,,,-3.52E-06,0.019391875
,,,-3.51E-06,0.019251875
,,,-3.5E-06,0.01917375
,,,-3.49E-06,0.01933875
,,,-3.48E-06,0.019203125
,,,-3.47E-06,0.01896125
,,,-3.46E-06,0.019245625
,,,-3.45E-06,0.01928875
,,,-3.44E-06,0.019315625
,,,-3.43E-06,0.019094375
,,,-3.42E-06,0.019530625
,,,-3.41E-06,0.0193425
,,,-3.4E-06,0.01921375
,,,-3.39E-06,0.019255625
,,,-3.38E-06,0.019145625
,,,-3.37E-06,0.01910375
,,,-3.36E-06,0.0191625
,,,-3.35E-06,0.019319375
,,,-3.34E-06,0.0192275
,,,-3.33E-06,0.0191275
,,,-3.32E-06,0.019144375
,,,-3.31E-06,0.01925625
,,,-3.3E-06,0.019300625
,,,-3.29E-06,0.019099375
,,,-3.28E-06,0.0195075
,,,-3.27E-06,0.019304375
,,,-3.26E-06,0.01932125
,,,-3.25E-06,0.019363125
,,,-3.24E-06,0.01927875
,,,-3.23E-06,0.019368125
,,,-3.22E-06,0.01919375
,,,-3.21E-06,0.019420625
,,,-3.2E-06,0.019194375
,,,-3.19E-06,0.019291875
,,,-3.18E-06,0.01918
,,,-3.17E-06,0.019466875
,,,-3.16E-06,0.019101875
,,,-3.15E-06,0.019220625
,,,-3.14E-06,0.019111875
,,,-3.13E-06,0.019315625
,,,-3.12E-06,0.019234375
,,,-3.11E-06,0.0191425
,,,-3.1E-06,0.019394375
,,,-3.09E-06,0.01923375
,,,-3.08E-06,0.019224375
,,,-3.07E-06,0.01940375
,,,-3.06E-06,0.019221875
,,,-3.05E-06,0.0192575
,,,-3.04E-06,0.019250625
,,,-3.03E-06,0.019243125
,,,-3.02E-06,0.019089375
,,,-3.01E-06,0.01929
,,,-3E-06,0.01946125
,,,-2.99E-06,0.01934875
,,,-2.98E-06,0.01941375
,,,-2.97E-06,0.01928375
,,,-2.96E-06,0.019188125
,,,-2.95E-06,0.019065
,,,-2.94E-06,0.019239375
,,,-2.93E-06,0.019263125
,,,-2.92E-06,0.019006875
,,,-2.91E-06,0.0192
,,,-2.9E-06,0.01937625
,,,-2.89E-06,0.01926625
,,,-2.88E-06,0.019396875
,,,-2.87E-06,0.018998125
,,,-2.86E-06,0.019319375
,,,-2.85E-06,0.019288125
,,,-2.84E-06,0.01932125
,,,-2.83E-06,0.01929125
,,,-2.82E-06,0.019403125
,,,-2.81E-06,0.019069375
,,,-2.8E-06,0.019145625
,,,-2.79E-06,0.018931875
,,,-2.78E-06,0.01933375
,,,-2.77E-06,0.019140625
,,,-2.76E-06,0.01925875
,,,-2.75E-06,0.01883125
,,,-2.74E-06,0.01937125
,,,-2.73E-06,0.019221875
,,,-2.72E-06,0.019341875
,,,-2.71E-06,0.019253125
,,,-2.7E-06,0.01928625
,,,-2.69E-06,0.019276875
,,,-2.68E-06,0.0191975
,,,-2.67E-06,0.019074375
,,,-2.66E-06,0.0193175
,,,-2.65E-06,0.01938375
,,,-2.64E-06,0.019268125
,,,-2.63E-06,0.019263125
,,,-2.62E-06,0.019120625
,,,-2.61E-06,0.01930125
,,,-2.6E-06,0.01921375
,,,-2.59E-06,0.019088125
,,,-2.58E-06,0.0191775
,,,-2.57E-06,0.019358125
,,,-2.56E-06,0.019195625
,,,-2.55E-06,0.019235
,,,-2.54E-06,0.0189725
,,,-2.53E-06,0.019121875
,,,-2.52E-06,0.0192875
,,,-2.51E-06,0.01904375
,,,-2.5E-06,0.019368125
,,,-2.49E-06,0.01911125
,,,-2.48E-06,0.019229375
,,,-2.47E-06,0.019310625
,,,-2.46E-06,0.01931625
,,,-2.45E-06,0.019315625
,,,-2.44E-06,0.01917875
,,,-2.43E-06,0.019200625
,,,-2.42E-06,0.019053125
,,,-2.41E-06,0.019285
,,,-2.4E-06,0.019230625
,,,-2.39E-06,0.019123125
,,,-2.38E-06,0.01909875
,,,-2.37E-06,0.0192925
,,,-2.36E-06,0.019334375
,,,-2.35E-06,0.019030625
,,,-2.34E-06,0.019338125
,,,-2.33E-06,0.019204375
,,,-2.32E-06,0.019193125
,,,-2.31E-06,0.019084375
,,,-2.3E-06,0.0189925
,,,-2.29E-06,0.01921
,,,-2.28E-06,0.0195275
,,,-2.27E-06,0.019091875
,,,-2.26E-06,0.019235
,,,-2.25E-06,0.019255625
,,,-2.24E-06,0.01942125
,,,-2.23E-06,0.019415625
,,,-2.22E-06,0.01905625
,,,-2.21E-06,0.019036875
,,,-2.2E-06,0.019003125
,,,-2.19E-06,0.019090625
,,,-2.18E-06,0.019289375
,,,-2.17E-06,0.01926625
,,,-2.16E-06,0.019255
,,,-2.15E-06,0.01928625
,,,-2.14E-06,0.01898375
,,,-2.13E-06,0.019095625
,,,-2.12E-06,0.019194375
,,,-2.11E-06,0.019366875
,,,-2.1E-06,0.018969375
,,,-2.09E-06,0.019325
,,,-2.08E-06,0.019321875
,,,-2.07E-06,0.0193775
,,,-2.06E-06,0.019415625
,,,-2.05E-06,0.019091875
,,,-2.04E-06,0.0190375
,,,-2.03E-06,0.0192825
,,,-2.02E-06,0.019108125
,,,-2.01E-06,0.01927875
,,,-2E-06,0.0189825
,,,-1.99E-06,0.01925125
,,,-1.98E-06,0.01922
,,,-1.97E-06,0.01908875
,,,-1.96E-06,0.018976875
,,,-1.95E-06,0.019038125
,,,-1.94E-06,0.01932625
,,,-1.93E-06,0.01929875
,,,-1.92E-06,0.0192225
,,,-1.91E-06,0.019155
,,,-1.9E-06,0.01923
,,,-1.89E-06,0.01928375
,,,-1.88E-06,0.01925375
,,,-1.87E-06,0.019341875
,,,-1.86E-06,0.019340625
,,,-1.85E-06,0.0193225
,,,-1.84E-06,0.01939
,,,-1.83E-06,0.019035
,,,-1.82E-06,0.01898375
,,,-1.81E-06,0.019074375
,,,-1.8E-06,0.01916375
,,,-1.79E-06,0.01932875
,,,-1.78E-06,0.01936875
,,,-1.77E-06,0.019418125
,,,-1.76E-06,0.019221875
,,,-1.75E-06,0.019463125
,,,-1.74E-06,0.019299375
,,,-1.73E-06,0.01926875
,,,-1.72E-06,0.019089375
,,,-1.71E-06,0.01903
,,,-1.7E-06,0.01919375
,,,-1.69E-06,0.01910625
,,,-1.68E-06,0.01921375
,,,-1.67E-06,0.019151875
,,,-1.66E-06,0.019393125
,,,-1.65E-06,0.01918875
,,,-1.64E-06,0.018989375
,,,-1.63E-06,0.019456875
,,,-1.62E-06,0.019355
,,,-1.61E-06,0.019208125
,,,-1.6E-06,0.019329375
,,,-1.59E-06,0.01920125
,,,-1.58E-06,0.01958125
,,,-1.57E-06,0.01947875
,,,-1.56E-06,0.0191725
,,,-1.55E-06,0.01917125
,,,-1.54E-06,0.019273125
,,,-1.53E-06,0.019225
,,,-1.52E-06,0.019389375
,,,-1.51E-06,0.01942125
,,,-1.5E-06,0.01961625
,,,-1.49E-06,0.01925625
,,,-1.48E-06,0.019265
,,,-1.47E-06,0.019251875
,,,-1.46E-06,0.019155
,,,-1.45E-06,0.0190075
,,,-1.44E-06,0.019445625
,,,-1.43E-06,0.019193125
,,,-1.42E-06,0.019305625
,,,-1.41E-06,0.019453125
,,,-1.4E-06,0.01911
,,,-1.39E-06,0.019171875
,,,-1.38E-06,0.019029375
,,,-1.37E-06,0.01914
,,,-1.36E-06,0.0191675
,,,-1.35E-06,0.019264375
,,,-1.34E-06,0.01941375
,,,-1.33E-06,0.01937375
,,,-1.32E-06,0.0190725
,,,-1.31E-06,0.01918875
,,,-1.3E-06,0.019470625
,,,-1.29E-06,0.019120625
,,,-1.28E-06,0.019218125
,,,-1.27E-06,0.019193125
,,,-1.26E-06,0.019193125
,,,-1.25E-06,0.01939125
,,,-1.24E-06,0.01925375
,,,-1.23E-06,0.018955
,,,-1.22E-06,0.019111875
,,,-1.21E-06,0.01947625
,,,-1.2E-06,0.019436875
,,,-1.19E-06,0.01928875
,,,-1.18E-06,0.01921
,,,-1.17E-06,0.01916625
,,,-1.16E-06,0.019155
,,,-1.15E-06,0.019171875
,,,-1.14E-06,0.019313125
,,,-1.13E-06,0.019394375
,,,-1.12E-06,0.019251875
,,,-1.11E-06,0.0192975
,,,-1.1E-06,0.0193675
,,,-1.09E-06,0.019240625
,,,-1.08E-06,0.01937625
,,,-1.07E-06,0.0193075
,,,-1.06E-06,0.019386875
,,,-1.05E-06,0.019184375
,,,-1.04E-06,0.019171875
,,,-1.03E-06,0.01912375
,,,-1.02E-06,0.019400625
,,,-1.01E-06,0.019330625
,,,-1E-06,0.019261875
,,,-9.9E-07,0.019205625
,,,-9.8E-07,0.01922875
,,,-9.7E-07,0.01901125
,,,-9.6E-07,0.0191975
,,,-9.5E-07,0.01941375
,,,-9.4E-07,0.019488125
,,,-9.3E-07,0.019176875
,,,-9.2E-07,0.0195675
,,,-9.1E-07,0.01946
,,,-9E-07,0.019436875
,,,-8.9E-07,0.019103125
,,,-8.8E-07,0.019229375
,,,-8.7E-07,0.0191925
,,,-8.6E-07,0.019171875
,,,-8.5E-07,0.01914375
,,,-8.4E-07,0.01905375
,,,-8.3E-07,0.019196875
,,,-8.2E-07,0.01928875
,,,-8.1E-07,0.01933
,,,-8E-07,0.01937625
,,,-7.9E-07,0.01941
,,,-7.8E-07,0.019133125
,,,-7.7E-07,0.019120625
,,,-7.6E-07,0.019423125
,,,-7.5E-07,0.019471875
,,,-7.4E-07,0.019215
,,,-7.3E-07,0.019130625
,,,-7.2E-07,0.019095625
,,,-7.1E-07,0.019049375
,,,-7E-07,0.01912
,,,-6.9E-07,0.01918625
,,,-6.8E-07,0.019161875
,,,-6.7E-07,0.019363125
,,,-6.6E-07,0.018935
,,,-6.5E-07,0.019041875
,,,-6.4E-07,0.019229375
,,,-6.3E-07,0.019080625
,,,-6.2E-07,0.019136875
,,,-6.1E-07,0.019355
,,,-6E-07,0.019326875
,,,-5.9E-07,0.01926
,,,-5.8E-07,0.019256875
,,,-5.7E-07,0.019205
,,,-5.6E-07,0.01932
,,,-5.5E-07,0.01895625
,,,-5.4E-07,0.019189375
,,,-5.3E-07,0.019161875
,,,-5.2E-07,0.0190375
,,,-5.1E-07,0.019390625
,,,-5E-07,0.019153125
,,,-4.9E-07,0.0191725
,,,-4.8E-07,0.019255
,,,-4.7E-07,0.019239375
,,,-4.6E-07,0.019235
,,,-4.5E-07,0.0192475
,,,-4.4E-07,0.01923375
,,,-4.3E-07,0.019254375
,,,-4.2E-07,0.019253125
,,,-4.1E-07,0.019215625
,,,-4E-07,0.01908375
,,,-3.9E-07,0.019199375
,,,-3.8E-07,0.01941
,,,-3.7E-07,0.019043125
,,,-3.6E-07,0.0191525
,,,-3.5E-07,0.0192475
,,,-3.4E-07,0.0193675
,,,-3.3E-07,0.019356875
,,,-3.2E-07,0.019283125
,,,-3.1E-07,0.019118125
,,,-3E-07,0.01929125
,,,-2.9E-07,0.01926375
,,,-2.8E-07,0.019224375
,,,-2.7E-07,0.019305
,,,-2.6E-07,0.019415625
,,,-2.5E-07,0.019528125
,,,-2.4E-07,0.01915375
,,,-2.3E-07,0.019238125
,,,-2.2E-07,0.0192625
,,,-2.1E-07,0.019296875
,,,-2E-07,0.01942625
,,,-1.9E-07,0.019386875
,,,-1.8E-07,0.019155625
,,,-1.7E-07,0.01926125
,,,-1.6E-07,0.0191575
,,,-1.5E-07,0.01890875
,,,-1.4E-07,0.019214375
,,,-1.3E-07,0.01898375
,,,-1.2E-07,0.019201875
,,,-1.1E-07,0.01946125
,,,-1E-07,0.0192975
,,,-9E-08,0.019061875
,,,-8E-08,0.019148125
,,,-7E-08,0.019434375
,,,-6E-08,0.018785625
,,,-5E-08,0.018969375
,,,-4E-08,0.01982375
,,,-3E-08,0.020558125
,,,-2E-08,0.0187225
,,,-1E-08,0.016985625
,,,0,0.0163925
,,,1E-08,0.02019
,,,2E-08,0.022058125
,,,3E-08,0.022251875
,,,4E-08,0.019323125
,,,5E-08,0.0176575
,,,6E-08,0.017011875
,,,7E-08,0.018034375
,,,8E-08,0.01961375
,,,9E-08,0.020784375
,,,1E-07,0.020976875
,,,1.1E-07,0.01987375
,,,1.2E-07,0.01900625
,,,1.3E-07,0.018140625
,,,1.4E-07,0.018718125
,,,1.5E-07,0.019120625
,,,1.6E-07,0.01958375
,,,1.7E-07,0.019628125
,,,1.8E-07,0.019725
,,,1.9E-07,0.0192925
,,,2E-07,0.019235
,,,2.1E-07,0.018815
,,,2.2E-07,0.01915125
,,,2.3E-07,0.019118125
,,,2.4E-07,0.019345
,,,2.5E-07,0.01933125
,,,2.6E-07,0.019339375
,,,2.7E-07,0.018999375
,,,2.8E-07,0.019115
,,,2.9E-07,0.019179375
,,,3E-07,0.01918875
,,,3.1E-07,0.019053125
,,,3.2E-07,0.019275
,,,3.3E-07,0.0193525
,,,3.4E-07,0.019128125
,,,3.5E-07,0.0193175
,,,3.6E-07,0.0193
,,,3.7E-07,0.01924125
,,,3.8E-07,0.019405625
,,,3.9E-07,0.018888125
,,,4E-07,0.019245
,,,4.1E-07,0.019274375
,,,4.2E-07,0.0189525
,,,4.3E-07,0.019206875
,,,4.4E-07,0.019238125
,,,4.5E-07,0.01904625
,,,4.6E-07,0.0190675
,,,4.7E-07,0.0192025
,,,4.8E-07,0.01921125
,,,4.9E-07,0.019043125
,,,5E-07,0.01907125
,,,5.1E-07,0.01932
,,,5.2E-07,0.01911875
,,,5.3E-07,0.01919125
,,,5.4E-07,0.019059375
,,,5.5E-07,0.01924
,,,5.6E-07,0.019375625
,,,5.7E-07,0.0189425
,,,5.8E-07,0.019311875
,,,5.9E-07,0.0193275
,,,6E-07,0.019165625
,,,6.1E-07,0.01913625
,,,6.2E-07,0.019173125
,,,6.3E-07,0.019155625
,,,6.4E-07,0.019200625
,,,6.5E-07,0.019274375
,,,6.6E-07,0.01938875
,,,6.7E-07,0.01938
,,,6.8E-07,0.01926875
,,,6.9E-07,0.019265
,,,7E-07,0.01925125
,,,7.1E-07,0.019295625
,,,7.2E-07,0.019315
,,,7.3E-07,0.0194325
,,,7.4E-07,0.01916375
,,,7.5E-07,0.019148125
,,,7.6E-07,0.019004375
,,,7.7E-07,0.019315625
,,,7.8E-07,0.019226875
,,,7.9E-07,0.019366875
,,,8E-07,0.0193
,,,8.1E-07,0.0193075
,,,8.2E-07,0.019160625
,,,8.3E-07,0.01923875
,,,8.4E-07,0.019073125
,,,8.5E-07,0.019298125
,,,8.6E-07,0.01923125
,,,8.7E-07,0.019344375
,,,8.8E-07,0.019215
,,,8.9E-07,0.01913875
,,,9E-07,0.019195625
,,,9.1E-07,0.0193375
,,,9.2E-07,0.019215625
,,,9.3E-07,0.0193475
,,,9.4E-07,0.019200625
,,,9.5E-07,0.019406875
,,,9.6E-07,0.019113125
,,,9.7E-07,0.019063125
,,,9.8E-07,0.01931625
,,,9.9E-07,0.0192325
,,,1E-06,0.019273125
,,,1.01E-06,0.019179375
,,,1.02E-06,0.0192525
,,,1.03E-06,0.018976875
,,,1.04E-06,0.01921625
,,,1.05E-06,0.019455
,,,1.06E-06,0.01927
,,,1.07E-06,0.01939
,,,1.08E-06,0.019416875
,,,1.09E-06,0.0192025
,,,1.1E-06,0.019348125
,,,1.11E-06,0.01913875
,,,1.12E-06,0.01934625
,,,1.13E-06,0.019210625
,,,1.14E-06,0.01925625
,,,1.15E-06,0.01936875
,,,1.16E-06,0.01943375
,,,1.17E-06,0.019331875
,,,1.18E-06,0.0193425
,,,1.19E-06,0.0192125
,,,1.2E-06,0.01919875
,,,1.21E-06,0.01931125
,,,1.22E-06,0.0192825
,,,1.23E-06,0.01938625
,,,1.24E-06,0.019526875
,,,1.25E-06,0.019199375
,,,1.26E-06,0.019370625
,,,1.27E-06,0.0192425
,,,1.28E-06,0.019116875
,,,1.29E-06,0.019255
,,,1.3E-06,0.019310625
,,,1.31E-06,0.019093125
,,,1.32E-06,0.019128125
,,,1.33E-06,0.0190925
,,,1.34E-06,0.01934
,,,1.35E-06,0.019203125
,,,1.36E-06,0.01914125
,,,1.37E-06,0.019079375
,,,1.38E-06,0.019180625
,,,1.39E-06,0.01939875
,,,1.4E-06,0.018985625
,,,1.41E-06,0.019374375
,,,1.42E-06,0.019288125
,,,1.43E-06,0.019216875
,,,1.44E-06,0.018908125
,,,1.45E-06,0.018908125
,,,1.46E-06,0.019395625
,,,1.47E-06,0.01932
,,,1.48E-06,0.0193275
,,,1.49E-06,0.01942
,,,1.5E-06,0.019160625
,,,1.51E-06,0.019244375
,,,1.52E-06,0.019248125
,,,1.53E-06,0.0193475
,,,1.54E-06,0.01903375
,,,1.55E-06,0.019205
,,,1.56E-06,0.019061875
,,,1.57E-06,0.019334375
,,,1.58E-06,0.01915625
,,,1.59E-06,0.0193475
,,,1.6E-06,0.01908875
,,,1.61E-06,0.01901625
,,,1.62E-06,0.019370625
,,,1.63E-06,0.019189375
,,,1.64E-06,0.0191
,,,1.65E-06,0.01942875
,,,1.66E-06,0.019140625
,,,1.67E-06,0.0190875
,,,1.68E-06,0.0193
,,,1.69E-06,0.019355625
,,,1.7E-06,0.0192775
,,,1.71E-06,0.01908875
,,,1.72E-06,0.019195
,,,1.73E-06,0.01912875
,,,1.74E-06,0.019275
,,,1.75E-06,0.019255625
,,,1.76E-06,0.019259375
,,,1.77E-06,0.019285
,,,1.78E-06,0.019235625
,,,1.79E-06,0.01899625
,,,1.8E-06,0.0194
,,,1.81E-06,0.019195
,,,1.82E-06,0.019331875
,,,1.83E-06,0.019550625
,,,1.84E-06,0.019274375
,,,1.85E-06,0.0194325
,,,1.86E-06,0.01926625
,,,1.87E-06,0.019186875
,,,1.88E-06,0.018970625
,,,1.89E-06,0.019365
,,,1.9E-06,0.019441875
,,,1.91E-06,0.019055625
,,,1.92E-06,0.019224375
,,,1.93E-06,0.01926
,,,1.94E-06,0.019330625
,,,1.95E-06,0.01916875
,,,1.96E-06,0.019323125
,,,1.97E-06,0.0194325
,,,1.98E-06,0.01937375
,,,1.99E-06,0.019313125
,,,2E-06,0.019039375
,,,2.01E-06,0.019094375
,,,2.02E-06,0.019103125
,,,2.03E-06,0.018971875
,,,2.04E-06,0.0190175
,,,2.05E-06,0.019325
,,,2.06E-06,0.019191875
,,,2.07E-06,0.019350625
,,,2.08E-06,0.019226875
,,,2.09E-06,0.019245625
,,,2.1E-06,0.01917125
,,,2.11E-06,0.019148125
,,,2.12E-06,0.019401875
,,,2.13E-06,0.01919
,,,2.14E-06,0.019214375
,,,2.15E-06,0.019236875
,,,2.16E-06,0.01938125
,,,2.17E-06,0.019333125
,,,2.18E-06,0.019161875
,,,2.19E-06,0.019183125
,,,2.2E-06,0.0191725
,,,2.21E-06,0.019185
,,,2.22E-06,0.0192225
,,,2.23E-06,0.019089375
,,,2.24E-06,0.019189375
,,,2.25E-06,0.0192425
,,,2.26E-06,0.019301875
,,,2.27E-06,0.019099375
,,,2.28E-06,0.01958125
,,,2.29E-06,0.019186875
,,,2.3E-06,0.01909375
,,,2.31E-06,0.01919125
,,,2.32E-06,0.01930125
,,,2.33E-06,0.019280625
,,,2.34E-06,0.019195
,,,2.35E-06,0.019235625
,,,2.36E-06,0.019199375
,,,2.37E-06,0.019339375
,,,2.38E-06,0.0191425
,,,2.39E-06,0.01933625
,,,2.4E-06,0.019201875
,,,2.41E-06,0.019223125
,,,2.42E-06,0.018998125
,,,2.43E-06,0.019308125
,,,2.44E-06,0.01929625
,,,2.45E-06,0.01927
,,,2.46E-06,0.0190775
,,,2.47E-06,0.019106875
,,,2.48E-06,0.019108125
,,,2.49E-06,0.019178125
,,,2.5E-06,0.019288125
,,,2.51E-06,0.019094375
,,,2.52E-06,0.019166875
,,,2.53E-06,0.019405
,,,2.54E-06,0.019153125
,,,2.55E-06,0.0191125
,,,2.56E-06,0.018975625
,,,2.57E-06,0.01917375
,,,2.58E-06,0.01918125
,,,2.59E-06,0.019463125
,,,2.6E-06,0.01933
,,,2.61E-06,0.019375
,,,2.62E-06,0.019365
,,,2.63E-06,0.01930875
,,,2.64E-06,0.019299375
,,,2.65E-06,0.01913375
,,,2.66E-06,0.019188125
,,,2.67E-06,0.0194125
,,,2.68E-06,0.01906875
,,,2.69E-06,0.019245
,,,2.7E-06,0.019270625
,,,2.71E-06,0.01943875
,,,2.72E-06,0.019278125
,,,2.73E-06,0.019220625
,,,2.74E-06,0.019108125
,,,2.75E-06,0.019349375
,,,2.76E-06,0.01937
,,,2.77E-06,0.01918
,,,2.78E-06,0.019223125
,,,2.79E-06,0.01937375
,,,2.8E-06,0.019305625
,,,2.81E-06,0.019175
,,,2.82E-06,0.01915125
,,,2.83E-06,0.0192225
,,,2.84E-06,0.019176875
,,,2.85E-06,0.01928375
,,,2.86E-06,0.019236875
,,,2.87E-06,0.019340625
,,,2.88E-06,0.019243125
,,,2.89E-06,0.019365
,,,2.9E-06,0.019223125
,,,2.91E-06,0.019329375
,,,2.92E-06,0.019066875
,,,2.93E-06,0.019238125
,,,2.94E-06,0.019001875
,,,2.95E-06,0.019145625
,,,2.96E-06,0.01928875
,,,2.97E-06,0.019085
,,,2.98E-06,0.01934125
,,,2.99E-06,0.01901875
,,,3E-06,0.019216875
,,,3.01E-06,0.0190775
,,,3.02E-06,0.019205
,,,3.03E-06,0.019169375
,,,3.04E-06,0.01924875
,,,3.05E-06,0.019203125
,,,3.06E-06,0.019455
,,,3.07E-06,0.019256875
,,,3.08E-06,0.01872625
,,,3.09E-06,0.01917875
,,,3.1E-06,0.01947875
,,,3.11E-06,0.01926875
,,,3.12E-06,0.019374375
,,,3.13E-06,0.019309375
,,,3.14E-06,0.01913125
,,,3.15E-06,0.019050625
,,,3.16E-06,0.019245625
,,,3.17E-06,0.0192275
,,,3.18E-06,0.018838125
,,,3.19E-06,0.019276875
,,,3.2E-06,0.0192275
,,,3.21E-06,0.019589375
,,,3.22E-06,0.01928625
,,,3.23E-06,0.019485
,,,3.24E-06,0.019138125
,,,3.25E-06,0.019190625
,,,3.26E-06,0.01924375
,,,3.27E-06,0.019415625
,,,3.28E-06,0.01921125
,,,3.29E-06,0.01932
,,,3.3E-06,0.01894
,,,3.31E-06,0.019246875
,,,3.32E-06,0.019375
,,,3.33E-06,0.019178125
,,,3.34E-06,0.019210625
,,,3.35E-06,0.01919375
,,,3.36E-06,0.019156875
,,,3.37E-06,0.019069375
,,,3.38E-06,0.01924375
,,,3.39E-06,0.019285
,,,3.4E-06,0.019181875
,,,3.41E-06,0.019539375
,,,3.42E-06,0.019140625
,,,3.43E-06,0.019345
,,,3.44E-06,0.01923375
,,,3.45E-06,0.019263125
,,,3.46E-06,0.019500625
,,,3.47E-06,0.0193075
,,,3.48E-06,0.01929375
,,,3.49E-06,0.01929625
,,,3.5E-06,0.01929625
,,,3.51E-06,0.019140625
,,,3.52E-06,0.01939375
,,,3.53E-06,0.019286875
,,,3.54E-06,0.019105
,,,3.55E-06,0.01939
,,,3.56E-06,0.019218125
