data/raw/Final_POL_Test_1/SOP035_Ch2.csv

"Record Length",1000,"Points",-5E-06,0.020441875
"Sample Interval",1E-08,s,-4.99E-06,0.02040875
"Trigger Point",500,"Samples",-4.98E-06,0.02059875
"Trigger Time",0,s,-4.97E-06,0.020556875
"",,,-4.96E-06,0.020456875
"Horizontal Offset",-5E-06,s,-4.95E-06,0.020518125
,,,-4.94E-06,0.020556875
,,,-4.93E-06,0.02045875
,,,-4.92E-06,0.02057125
,,,-4.91E-06,0.020643125
,,,-4.9E-06,0.02043875
,,,-4.89E-06,0.02071125
,,,-4.88E-06,0.020406875
,,,-4.87E-06,0.0207275
,,,-4.86E-06,0.020345625
,,,-4.85E-06,0.0205725
,,,-4.84E-06,0.020430625
,,,-4.83E-06,0.020615625
,,,-4.82E-06,0.02061625
,,,-4.81E-06,0.020645
,,,-4.8E-06,0.0206375
,,,-4.79E-06,0.020434375
,,,-4.78E-06,0.02055625
,,,-4.77E-06,0.020459375
,,,-4.76E-06,0.020683125
,,,-4.75E-06,0.02068625
,,,-4.74E-06,0.02059125
,,,-4.73E-06,0.02056375
,,,-4.72E-06,0.0205725
,,,-4.71E-06,0.0204975
,,,-4.7E-06,0.020515625
,,,-4.69E-06,0.0204425
,,,-4.68E-06,0.020594375
,,,-4.67E-06,0.020613125
,,,-4.66E-06,0.02040375
,,,-4.65E-06,0.0200975
,,,-4.64E-06,0.02044875
,,,-4.63E-06,0.02053125
,,,-4.62E-06,0.02071125
,,,-4.61E-06,0.0203675
,,,-4.6E-06,0.020476875
,,,-4.59E-06,0.0206525
,,,-4.58E-06,0.020489375
,,,-4.57E-06,0.0208125
,,,-4.56E-06,0.020448125
,,,-4.55E-06,0.020566875
,,,-4.54E-06,0.02038375
,,,-4.53E-06,0.020330625
,,,-4.52E-06,0.020534375
,,,-4.51E-06,0.020504375
,,,-4.5E-06,0.02065375
,,,-4.49E-06,0.020504375
,,,-4.48E-06,0.02056375
,,,-4.47E-06,0.02071875
,,,-4.46E-06,0.02056875
,,,-4.45E-06,0.02046
,,,-4.44E-06,0.02045875
,,,-4.43E-06,0.020355
,,,-4.42E-06,0.0206225
,,,-4.41E-06,0.020433125
,,,-4.4E-06,0.020389375
,,,-4.39E-06,0.02077375
,,,-4.38E-06,0.02047875
,,,-4.37E-06,0.02047375
,,,-4.36E-06,0.020311875
,,,-4.35E-06,0.02046875
,,,-4.34E-06,0.020576875
,,,-4.33E-06,0.020613125
,,,-4.32E-06,0.020525625
,,,-4.31E-06,0.020595
,,,-4.3E-06,0.0203425
,,,-4.29E-06,0.02050125
,,,-4.28E-06,0.020598125
,,,-4.27E-06,0.0203875
,,,-4.26E-06,0.0204
,,,-4.25E-06,0.020283125
,,,-4.24E-06,0.0205575
,,,-4.23E-06,0.020501875
,,,-4.22E-06,0.020528125
,,,-4.21E-06,0.020553125
,,,-4.2E-06,0.02031625
,,,-4.19E-06,0.020530625
,,,-4.18E-06,0.020640625
,,,-4.17E-06,0.02053
,,,-4.16E-06,0.020578125
,,,-4.15E-06,0.02056875
,,,-4.14E-06,0.0206375
,,,-4.13E-06,0.02033625
,,,-4.12E-06,0.020331875
,,,-4.11E-06,0.020504375
,,,-4.1E-06,0.0202475
,,,-4.09E-06,0.020650625
,,,-4.08E-06,0.02044875
,,,-4.07E-06,0.02069
,,,-4.06E-06,0.020818125
,,,-4.05E-06,0.020590625
,,,-4.04E-06,0.020470625
,,,-4.03E-06,0.0203175
,,,-4.02E-06,0.02040375
,,,-4.01E-06,0.0204525
,,,-4E-06,0.02060875
,,,-3.99E-06,0.020426875
,,,-3.98E-06,0.020516875
,,,-3.97E-06,0.020544375
,,,-3.96E-06,0.02073125
,,,-3.95E-06,0.020595625
,,,-3.94E-06,0.020525625
,,,-3.93E-06,0.020449375
,,,-3.92E-06,0.020689375
,,,-3.91E-06,0.020590625
,,,-3.9E-06,0.0205175
,,,-3.89E-06,0.0206375
,,,-3.88E-06,0.02035875
,,,-3.87E-06,0.020626875
,,,-3.86E-06,0.02072
,,,-3.85E-06,0.0205375
,,,-3.84E-06,0.0205425
,,,-3.83E-06,0.020764375
,,,-3.82E-06,0.020558125
,,,-3.81E-06,0.020641875
,,,-3.8E-06,0.02041125
,,,-3.79E-06,0.020418125
,,,-3.78E-06,0.020435
,,,-3.77E-06,0.020415625
,,,-3.76E-06,0.020548125
,,,-3.75E-06,0.0202975
,,,-3.74E-06,0.020595
,,,-3.73E-06,0.02055875
,,,-3.72E-06,0.020545625
,,,-3.71E-06,0.0204225
,,,-3.7E-06,0.020425
,,,-3.69E-06,0.0205925
,,,-3.68E-06,0.020286875
,,,-3.67E-06,0.020524375
,,,-3.66E-06,0.020305625
,,,-3.65E-06,0.020779375
,,,-3.64E-06,0.020700625
,,,-3.63E-06,0.02035
,,,-3.62E-06,0.020500625
,,,-3.61E-06,0.020755625
,,,-3.6E-06,0.02053875
,,,-3.59E-06,0.020526875
,,,-3.58E-06,0.020434375
,,,-3.57E-06,0.020488125
,,,-3.56E-06,0.020256875
,,,-3.55E-06,0.020629375
,,,-3.54E-06,0.020579375
,,,-3.53E-06,0.020491875
,,,-3.52E-06,0.02055625
,,,-3.51E-06,0.020656875
,,,-3.5E-06,0.02057
,,,-3.49E-06,0.020701875
,,,-3.48E-06,0.020488125
,,,-3.47E-06,0.02066375
,,,-3.46E-06,0.0205
,,,-3.45E-06,0.020658125
,,,-3.44E-06,0.0204775
,,,-3.43E-06,0.02057875
,,,-3.42E-06,0.02059875
,,,-3.41E-06,0.020526875
,,,-3.4E-06,0.02035625
,,,-3.39E-06,0.02066625
,,,-3.38E-06,0.0207125
,,,-3.37E-06,0.020384375
,,,-3.36E-06,0.02043875
,,,-3.35E-06,0.02037625
,,,-3.34E-06,0.02068375
,,,-3.33E-06,0.02041375
,,,-3.32E-06,0.0204975
,,,-3.31E-06,0.020625
,,,-3.3E-06,0.020385625
,,,-3.29E-06,0.02047
,,,-3.28E-06,0.02046375
,,,-3.27E-06,0.020695
,,,-3.26E-06,0.02070625
,,,-3.25E-06,0.02066625
,,,-3.24E-06,0.02051375
,,,-3.23E-06,0.020754375
,,,-3.22E-06,0.02071125
,,,-3.21E-06,0.020396875
,,,-3.2E-06,0.02053625
,,,-3.19E-06,0.020451875
,,,-3.18E-06,0.020515625
,,,-3.17E-06,0.020665625
,,,-3.16E-06,0.0205475
,,,-3.15E-06,0.020504375
,,,-3.14E-06,0.0206725
,,,-3.13E-06,0.02048375
,,,-3.12E-06,0.0203925
,,,-3.11E-06,0.02058625
,,,-3.1E-06,0.020406875
,,,-3.09E-06,0.020356875
,,,-3.08E-06,0.020475625
,,,-3.07E-06,0.0206575
,,,-3.06E-06,0.020625625
,,,-3.05E-06,0.020655
,,,-3.04E-06,0.020416875
,,,-3.03E-06,0.020648125
,,,-3.02E-06,0.020261875
,,,-3.01E-06,0.02049375
,,,-3E-06,0.020678125
,,,-2.99E-06,0.0204775
,,,-2.98E-06,0.020610625
,,,-2.97E-06,0.020608125
,,,-2.96E-06,0.020780625
,,,-2.95E-06,0.02076125
,,,-2.94E-06,0.020539375
,,,-2.93E-06,0.020710625
,,,-2.92E-06,0.020735625
,,,-2.91E-06,0.0202425
,,,-2.9E-06,0.020658125
,,,-2.89E-06,0.020411875
,,,-2.88E-06,0.0206475
,,,-2.87E-06,0.02053625
,,,-2.86E-06,0.02026875
,,,-2.85E-06,0.020284375
,,,-2.84E-06,0.02061625
,,,-2.83E-06,0.020418125
,,,-2.82E-06,0.020499375
,,,-2.81E-06,0.020565625
,,,-2.8E-06,0.020689375
,,,-2.79E-06,0.020463125
,,,-2.78E-06,0.020515625
,,,-2.77E-06,0.020615
,,,-2.76E-06,0.02051
,,,-2.75E-06,0.0206075
,,,-2.74E-06,0.020775625
,,,-2.73E-06,0.02067875
,,,-2.72E-06,0.020521875
,,,-2.71E-06,0.020580625
,,,-2.7E-06,0.020578125
,,,-2.69E-06,0.020485
,,,-2.68E-06,0.020579375
,,,-2.67E-06,0.020716875
,,,-2.66E-06,0.020795625
,,,-2.65E-06,0.020578125
,,,-2.64E-06,0.020545625
,,,-2.63E-06,0.0202425
,,,-2.62E-06,0.020554375
,,,-2.61E-06,0.020410625
,,,-2.6E-06,0.020441875
,,,-2.59E-06,0.02039625
,,,-2.58E-06,0.020461875
,,,-2.57E-06,0.0206025
,,,-2.56E-06,0.020493125
,,,-2.55E-06,0.020061875
,,,-2.54E-06,0.02048375
,,,-2.53E-06,0.0206
,,,-2.52E-06,0.0204925
,,,-2.51E-06,0.020675625
,,,-2.5E-06,0.020603125
,,,-2.49E-06,0.02049375
,,,-2.48E-06,0.020398125
,,,-2.47E-06,0.02065625
,,,-2.46E-06,0.02056375
,,,-2.45E-06,0.020670625
,,,-2.44E-06,0.020505625
,,,-2.43E-06,0.0204775
,,,-2.42E-06,0.0204525
,,,-2.41E-06,0.020540625
,,,-2.4E-06,0.020464375
,,,-2.39E-06,0.020561875
,,,-2.38E-06,0.020544375
,,,-2.37E-06,0.02036875
,,,-2.36E-06,0.02040375
,,,-2.35E-06,0.020489375
,,,-2.34E-06,0.02045125
,,,-2.33E-06,0.02019
,,,-2.32E-06,0.020416875
,,,-2.31E-06,0.02079625
,,,-2.3E-06,0.020509375
,,,-2.29E-06,0.020483125
,,,-2.28E-06,0.020490625
,,,-2.27E-06,0.020395625
,,,-2.26E-06,0.02042625
,,,-2.25E-06,0.020748125
,,,-2.24E-06,0.020685
,,,-2.23E-06,0.0205525
,,,-2.22E-06,0.02067875
,,,-2.21E-06,0.020231875
,,,-2.2E-06,0.020431875
,,,-2.19E-06,0.020505
,,,-2.18E-06,0.020458125
,,,-2.17E-06,0.020459375
,,,-2.16E-06,0.02069875
,,,-2.15E-06,0.020456875
,,,-2.14E-06,0.020513125
,,,-2.13E-06,0.020491875
,,,-2.12E-06,0.02048
,,,-2.11E-06,0.02044
,,,-2.1E-06,0.02072125
,,,-2.09E-06,0.02072875
,,,-2.08E-06,0.0206425
,,,-2.07E-06,0.02061625
,,,-2.06E-06,0.02057625
,,,-2.05E-06,0.020368125
,,,-2.04E-06,0.020516875
,,,-2.03E-06,0.020599375
,,,-2.02E-06,0.020650625
,,,-2.01E-06,0.020495625
,,,-2E-06,0.020948125
,,,-1.99E-06,0.0204025
,,,-1.98E-06,0.02031125
,,,-1.97E-06,0.020413125
,,,-1.96E-06,0.02048625
,,,-1.95E-06,0.02042875
,,,-1.94E-06,0.020675625
,,,-1.93E-06,0.02064125
,,,-1.92E-06,0.020493125
,,,-1.91E-06,0.020631875
,,,-1.9E-06,0.02032125
,,,-1.89E-06,0.020485
,,,-1.88E-06,0.020470625
,,,-1.87E-06,0.020426875
,,,-1.86E-06,0.020526875
,,,-1.85E-06,0.02079375
,,,-1.84E-06,0.0205775
,,,-1.83E-06,0.020731875
,,,-1.82E-06,0.020761875
,,,-1.81E-06,0.020615
,,,-1.8E-06,0.02032
,,,-1.79E-06,0.02070375
,,,-1.78E-06,0.020200625
,,,-1.77E-06,0.020645
,,,-1.76E-06,0.02054875
,,,-1.75E-06,0.020591875
,,,-1.74E-06,0.020591875
,,,-1.73E-06,0.020735625
,,,-1.72E-06,0.02036875
,,,-1.71E-06,0.020500625
,,,-1.7E-06,0.02053625
,,,-1.69E-06,0.02057
,,,-1.68E-06,0.020635
,,,-1.67E-06,0.020490625
,,,-1.66E-06,0.0204675
,,,-1.65E-06,0.020510625
,,,-1.64E-06,0.020396875
,,,-1.63E-06,0.020598125
,,,-1.62E-06,0.020663125
,,,-1.61E-06,0.020448125
,,,-1.6E-06,0.0204725
,,,-1.59E-06,0.020465625
,,,-1.58E-06,0.020661875
,,,-1.57E-06,0.020523125
,,,-1.56E-06,0.02039
,,,-1.55E-06,0.02042875
,,,-1.54E-06,0.020338125
,,,-1.53E-06,0.020499375
,,,-1.52E-06,0.0205275
,,,-1.51E-06,0.020431875
,,,-1.5E-06,0.02048
,,,-1.49E-06,0.020541875
,,,-1.48E-06,0.020560625
,,,-1.47E-06,0.020630625
,,,-1.46E-06,0.020705
,,,-1.45E-06,0.020420625
,,,-1.44E-06,0.02049
,,,-1.43E-06,0.0205125
,,,-1.42E-06,0.020485
,,,-1.41E-06,0.02046875
,,,-1.4E-06,0.020485
,,,-1.39E-06,0.020591875
,,,-1.38E-06,0.020505
,,,-1.37E-06,0.020734375
,,,-1.36E-06,0.02044625
,,,-1.35E-06,0.020515
,,,-1.34E-06,0.0205925
,,,-1.33E-06,0.020433125
,,,-1.32E-06,0.02066125
,,,-1.31E-06,0.020631875
,,,-1.3E-06,0.02064
,,,-1.29E-06,0.0206925
,,,-1.28E-06,0.02044125
,,,-1.27E-06,0.020655625
,,,-1.26E-06,0.02058875
,,,-1.25E-06,0.020469375
,,,-1.24E-06,0.020485
,,,-1.23E-06,0.020416875
,,,-1.22E-06,0.020581875
,,,-1.21E-06,0.020743125
,,,-1.2E-06,0.020779375
,,,-1.19E-06,0.02051125
,,,-1.18E-06,0.02061
,,,-1.17E-06,0.020350625
,,,-1.16E-06,0.020514375
,,,-1.15E-06,0.020634375
,,,-1.14E-06,0.02054625
,,,-1.13E-06,0.0205025
,,,-1.12E-06,0.020455625
,,,-1.11E-06,0.020545
,,,-1.1E-06,0.020568125
,,,-1.09E-06,0.020614375
,,,-1.08E-06,0.020568125
,,,-1.07E-06,0.020443125
,,,-1.06E-06,0.02028625
,,,-1.05E-06,0.020545625
,,,-1.04E-06,0.020454375
,,,-1.03E-06,0.020664375
,,,-1.02E-06,0.02074
,,,-1.01E-06,0.020600625
,,,-1E-06,0.02069375
,,,-9.9E-07,0.020654375
,,,-9.8E-07,0.020293125
,,,-9.7E-07,0.020569375
,,,-9.6E-07,0.020479375
,,,-9.5E-07,0.020643125
,,,-9.4E-07,0.02068875
,,,-9.3E-07,0.020535
,,,-9.2E-07,0.02065
,,,-9.1E-07,0.0205175
,,,-9E-07,0.02068625
,,,-8.9E-07,0.02066875
,,,-8.8E-07,0.0204525
,,,-8.7E-07,0.02062625
,,,-8.6E-07,0.020599375
,,,-8.5E-07,0.0204375
,,,-8.4E-07,0.02037625
,,,-8.3E-07,0.0205175
,,,-8.2E-07,0.02063625
,,,-8.1E-07,0.020481875
,,,-8E-07,0.020601875
,,,-7.9E-07,0.020396875
,,,-7.8E-07,0.020555625
,,,-7.7E-07,0.020500625
,,,-7.6E-07,0.020815625
,,,-7.5E-07,0.02053
,,,-7.4E-07,0.0204625
,,,-7.3E-07,0.02053125
,,,-7.2E-07,0.020468125
,,,-7.1E-07,0.020509375
,,,-7E-07,0.020618125
,,,-6.9E-07,0.0204175
,,,-6.8E-07,0.020533125
,,,-6.7E-07,0.02053625
,,,-6.6E-07,0.020455
,,,-6.5E-07,0.02078375
,,,-6.4E-07,0.0203725
,,,-6.3E-07,0.02046875
,,,-6.2E-07,0.020580625
,,,-6.1E-07,0.02039375
,,,-6E-07,0.020645625
,,,-5.9E-07,0.02074875
,,,-5.8E-07,0.02056625
,,,-5.7E-07,0.020640625
,,,-5.6E-07,0.020648125
,,,-5.5E-07,0.020426875
,,,-5.4E-07,0.020535
,,,-5.3E-07,0.0205525
,,,-5.2E-07,0.020555625
,,,-5.1E-07,0.0204975
,,,-5E-07,0.02048625
,,,-4.9E-07,0.02056125
,,,-4.8E-07,0.020645625
,,,-4.7E-07,0.020229375
,,,-4.6E-07,0.0205275
,,,-4.5E-07,0.020405
,,,-4.4E-07,0.02059375
,,,-4.3E-07,0.020655625
,,,-4.2E-07,0.020621875
,,,-4.1E-07,0.020568125
,,,-4E-07,0.020386875
,,,-3.9E-07,0.020671875
,,,-3.8E-07,0.02077625
,,,-3.7E-07,0.020583125
,,,-3.6E-07,0.02056875
,,,-3.5E-07,0.02074875
,,,-3.4E-07,0.020668125
,,,-3.3E-07,0.020615
,,,-3.2E-07,0.02051375
,,,-3.1E-07,0.02038625
,,,-3E-07,0.020591875
,,,-2.9E-07,0.020531875
,,,-2.8E-07,0.0204775
,,,-2.7E-07,0.020625625
,,,-2.6E-07,0.020680625
,,,-2.5E-07,0.02042125
,,,-2.4E-07,0.0205625
,,,-2.3E-07,0.02048
,,,-2.2E-07,0.02039875
,,,-2.1E-07,0.020538125
,,,-2E-07,0.020545625
,,,-1.9E-07,0.02047875
,,,-1.8E-07,0.02060375
,,,-1.7E-07,0.02044375
,,,-1.6E-07,0.020648125
,,,-1.5E-07,0.020386875
,,,-1.4E-07,0.02049625
,,,-1.3E-07,0.020575
,,,-1.2E-07,0.02057125
,,,-1.1E-07,0.02064625
,,,-1E-07,0.020774375
,,,-9E-08,0.02048375
,,,-8E-08,0.02054375
,,,-7E-08,0.02039375
,,,-6E-08,0.020805
,,,-5E-08,0.02074625
,,,-4E-08,0.021156875
,,,-3E-08,0.022645625
,,,-2E-08,0.019028125
,,,-1E-08,0.017311875
,,,0,0.016401249
,,,1E-08,0.02297125
,,,2E-08,0.02504375
,,,3E-08,0.024864375
,,,4E-08,0.02022125
,,,5E-08,0.01753625
,,,6E-08,0.016768124
,,,7E-08,0.018856875
,,,8E-08,0.021344375
,,,9E-08,0.02255875
,,,1E-07,0.02303875
,,,1.1E-07,0.02122625
,,,1.2E-07,0.01951375
,,,1.3E-07,0.0187725
,,,1.4E-07,0.0195825
,,,1.5E-07,0.020763125
,,,1.6E-07,0.021371875
,,,1.7E-07,0.021099375
,,,1.8E-07,0.0206125
,,,1.9E-07,0.020684375
,,,2E-07,0.02062125
,,,2.1E-07,0.02037625
,,,2.2E-07,0.02025625
,,,2.3E-07,0.020464375
,,,2.4E-07,0.020534375
,,,2.5E-07,0.020570625
,,,2.6E-07,0.020405625
,,,2.7E-07,0.02069
,,,2.8E-07,0.0205825
,,,2.9E-07,0.020325
,,,3E-07,0.0203125
,,,3.1E-07,0.0201675
,,,3.2E-07,0.020808125
,,,3.3E-07,0.020734375
,,,3.4E-07,0.0205425
,,,3.5E-07,0.02066125
,,,3.6E-07,0.020710625
,,,3.7E-07,0.020396875
,,,3.8E-07,0.020529375
,,,3.9E-07,0.0206125
,,,4E-07,0.020719375
,,,4.1E-07,0.020491875
,,,4.2E-07,0.020753125
,,,4.3E-07,0.020519375
,,,4.4E-07,0.020558125
,,,4.5E-07,0.020525625
,,,4.6E-07,0.0205925
,,,4.7E-07,0.02038875
,,,4.8E-07,0.02044125
,,,4.9E-07,0.020575
,,,5E-07,0.020541875
,,,5.1E-07,0.0205325
,,,5.2E-07,0.020785
,,,5.3E-07,0.020586875
,,,5.4E-07,0.020491875
,,,5.5E-07,0.02056125
,,,5.6E-07,0.02072
,,,5.7E-07,0.020546875
,,,5.8E-07,0.020869375
,,,5.9E-07,0.020604375
,,,6E-07,0.02051
,,,6.1E-07,0.02053
,,,6.2E-07,0.02052625
,,,6.3E-07,0.0203925
,,,6.4E-07,0.0206175
,,,6.5E-07,0.020604375
,,,6.6E-07,0.02068375
,,,6.7E-07,0.020465
,,,6.8E-07,0.0206475
,,,6.9E-07,0.020558125
,,,7E-07,0.020524375
,,,7.1E-07,0.0205525
,,,7.2E-07,0.020764375
,,,7.3E-07,0.02073625
,,,7.4E-07,0.02065125
,,,7.5E-07,0.020564375
,,,7.6E-07,0.020664375
,,,7.7E-07,0.0204
,,,7.8E-07,0.0207225
,,,7.9E-07,0.02040375
,,,8E-07,0.0203325
,,,8.1E-07,0.020553125
,,,8.2E-07,0.020569375
,,,8.3E-07,0.020589375
,,,8.4E-07,0.020708125
,,,8.5E-07,0.020660625
,,,8.6E-07,0.020431875
,,,8.7E-07,0.020530625
,,,8.8E-07,0.020481875
,,,8.9E-07,0.020755
,,,9E-07,0.020511875
,,,9.1E-07,0.02054125
,,,9.2E-07,0.020534375
,,,9.3E-07,0.02061125
,,,9.4E-07,0.020349375
,,,9.5E-07,0.02058625
,,,9.6E-07,0.0206675
,,,9.7E-07,0.02059125
,,,9.8E-07,0.0202775
,,,9.9E-07,0.0205125
,,,1E-06,0.02048625
,,,1.01E-06,0.020501875
,,,1.02E-06,0.02054875
,,,1.03E-06,0.02049625
,,,1.04E-06,0.020539375
,,,1.05E-06,0.020238125
,,,1.06E-06,0.0207125
,,,1.07E-06,0.020459375
,,,1.08E-06,0.020561875
,,,1.09E-06,0.020159375
,,,1.1E-06,0.0205625
,,,1.11E-06,0.020384375
,,,1.12E-06,0.02060625
,,,1.13E-06,0.0204875
,,,1.14E-06,0.020585625
,,,1.15E-06,0.02044875
,,,1.16E-06,0.02054125
,,,1.17E-06,0.02036375
,,,1.18E-06,0.02057375
,,,1.19E-06,0.020323125
,,,1.2E-06,0.0205425
,,,1.21E-06,0.020498125
,,,1.22E-06,0.02076625
,,,1.23E-06,0.0204425
,,,1.24E-06,0.020645
,,,1.25E-06,0.020579375
,,,1.26E-06,0.02054875
,,,1.27E-06,0.02062875
,,,1.28E-06,0.020540625
,,,1.29E-06,0.0207425
,,,1.3E-06,0.0208
,,,1.31E-06,0.020366875
,,,1.32E-06,0.020815625
,,,1.33E-06,0.020591875
,,,1.34E-06,0.0206525
,,,1.35E-06,0.020224375
,,,1.36E-06,0.020669375
,,,1.37E-06,0.020391875
,,,1.38E-06,0.02063375
,,,1.39E-06,0.020695
,,,1.4E-06,0.020631875
,,,1.41E-06,0.020454375
,,,1.42E-06,0.020844375
,,,1.43E-06,0.02065125
,,,1.44E-06,0.020751875
,,,1.45E-06,0.0204125
,,,1.46E-06,0.0205875
,,,1.47E-06,0.020673125
,,,1.48E-06,0.020479375
,,,1.49E-06,0.020770625
,,,1.5E-06,0.02066625
,,,1.51E-06,0.020488125
,,,1.52E-06,0.02054875
,,,1.53E-06,0.020375625
,,,1.54E-06,0.020566875
,,,1.55E-06,0.02069125
,,,1.56E-06,0.02041
,,,1.57E-06,0.020755625
,,,1.58E-06,0.020601875
,,,1.59E-06,0.02038625
,,,1.6E-06,0.02067875
,,,1.61E-06,0.020636875
,,,1.62E-06,0.020339375
,,,1.63E-06,0.020484375
,,,1.64E-06,0.020650625
,,,1.65E-06,0.020518125
,,,1.66E-06,0.0205725
,,,1.67E-06,0.02059625
,,,1.68E-06,0.0205
,,,1.69E-06,0.020565625
,,,1.7E-06,0.020591875
,,,1.71E-06,0.020505
,,,1.72E-06,0.02073875
,,,1.73E-06,0.020464375
,,,1.74E-06,0.02060125
,,,1.75E-06,0.020450625
,,,1.76E-06,0.020285
,,,1.77E-06,0.02053875
,,,1.78E-06,0.020509375
,,,1.79E-06,0.020620625
,,,1.8E-06,0.02053125
,,,1.81E-06,0.0205825
,,,1.82E-06,0.02063375
,,,1.83E-06,0.020554375
,,,1.84E-06,0.0203425
,,,1.85E-06,0.020325625
,,,1.86E-06,0.02048
,,,1.87E-06,0.02059875
,,,1.88E-06,0.02063625
,,,1.89E-06,0.020458125
,,,1.9E-06,0.020638125
,,,1.91E-06,0.02044
,,,1.92E-06,0.02075125
,,,1.93E-06,0.020614375
,,,1.94E-06,0.02064125
,,,1.95E-06,0.020591875
,,,1.96E-06,0.0204725
,,,1.97E-06,0.02066125
,,,1.98E-06,0.020419375
,,,1.99E-06,0.02057
,,,2E-06,0.020589375
,,,2.01E-06,0.02079375
,,,2.02E-06,0.020584375
,,,2.03E-06,0.02064375
,,,2.04E-06,0.020469375
,,,2.05E-06,0.020668125
,,,2.06E-06,0.0207025
,,,2.07E-06,0.020800625
,,,2.08E-06,0.02075
,,,2.09E-06,0.02060625
,,,2.1E-06,0.0205475
,,,2.11E-06,0.02055875
,,,2.12E-06,0.02072125
,,,2.13E-06,0.020461875
,,,2.14E-06,0.020484375
,,,2.15E-06,0.020663125
,,,2.16E-06,0.020596875
,,,2.17E-06,0.020549375
,,,2.18E-06,0.0205625
,,,2.19E-06,0.020578125
,,,2.2E-06,0.020598125
,,,2.21E-06,0.020658125
,,,2.22E-06,0.02069875
,,,2.23E-06,0.0205375
,,,2.24E-06,0.020679375
,,,2.25E-06,0.020415
,,,2.26E-06,0.02039375
,,,2.27E-06,0.020655625
,,,2.28E-06,0.020679375
,,,2.29E-06,0.020601875
,,,2.3E-06,0.020640625
,,,2.31E-06,0.020233125
,,,2.32E-06,0.020453125
,,,2.33E-06,0.020558125
,,,2.34E-06,0.020320625
,,,2.35E-06,0.020585625
,,,2.36E-06,0.020625
,,,2.37E-06,0.0206225
,,,2.38E-06,0.020706875
,,,2.39E-06,0.02036
,,,2.4E-06,0.02062125
,,,2.41E-06,0.020535625
,,,2.42E-06,0.020429375
,,,2.43E-06,0.020195625
,,,2.44E-06,0.020584375
,,,2.45E-06,0.02056125
,,,2.46E-06,0.0206675
,,,2.47E-06,0.020585
,,,2.48E-06,0.020530625
,,,2.49E-06,0.020436875
,,,2.5E-06,0.020571875
,,,2.51E-06,0.02076875
,,,2.52E-06,0.020585
,,,2.53E-06,0.02029
,,,2.54E-06,0.020505
,,,2.55E-06,0.0207225
,,,2.56E-06,0.020645625
,,,2.57E-06,0.020498125
,,,2.58E-06,0.020718125
,,,2.59E-06,0.020384375
,,,2.6E-06,0.020635625
,,,2.61E-06,0.020674375
,,,2.62E-06,0.020456875
,,,2.63E-06,0.0205225
,,,2.64E-06,0.02067875
,,,2.65E-06,0.0205575
,,,2.66E-06,0.02045875
,,,2.67E-06,0.020405
,,,2.68E-06,0.0203225
,,,2.69E-06,0.0204075
,,,2.7E-06,0.020570625
,,,2.71E-06,0.020613125
,,,2.72E-06,0.02040875
,,,2.73E-06,0.020561875
,,,2.74E-06,0.020631875
,,,2.75E-06,0.020441875
,,,2.76E-06,0.020488125
,,,2.77E-06,0.020720625
,,,2.78E-06,0.02073625
,,,2.79E-06,0.020783125
,,,2.8E-06,0.02055125
,,,2.81E-06,0.020521875
,,,2.82E-06,0.02040125
,,,2.83E-06,0.020525625
,,,2.84E-06,0.020298125
,,,2.85E-06,0.020675
,,,2.86E-06,0.02025375
,,,2.87E-06,0.0206125
,,,2.88E-06,0.020638125
,,,2.89E-06,0.020885
,,,2.9E-06,0.02043
,,,2.91E-06,0.0204525
,,,2.92E-06,0.02067
,,,2.93E-06,0.020455
,,,2.94E-06,0.020616875
,,,2.95E-06,0.020579375
,,,2.96E-06,0.0206025
,,,2.97E-06,0.020543125
,,,2.98E-06,0.02076375
,,,2.99E-06,0.020575
,,,3E-06,0.020649375
,,,3.01E-06,0.02057375
,,,3.02E-06,0.02063875
,,,3.03E-06,0.020410625
,,,3.04E-06,0.020605625
,,,3.05E-06,0.02055125
,,,3.06E-06,0.020785
,,,3.07E-06,0.020721875
,,,3.08E-06,0.02033125
,,,3.09E-06,0.020584375
,,,3.1E-06,0.020743125
,,,3.11E-06,0.02071
,,,3.12E-06,0.0206575
,,,3.13E-06,0.020608125
,,,3.14E-06,0.0203625
,,,3.15E-06,0.02045625
,,,3.16E-06,0.0205875
,,,3.17E-06,0.0203075
,,,3.18E-06,0.02055125
,,,3.19E-06,0.020673125
,,,3.2E-06,0.020510625
,,,3.21E-06,0.02038
,,,3.22E-06,0.020704375
,,,3.23E-06,0.02029375
,,,3.24E-06,0.020474375
,,,3.25E-06,0.02064875
,,,3.26E-06,0.0206075
,,,3.27E-06,0.020581875
,,,3.28E-06,0.02040625
,,,3.29E-06,0.0204925
,,,3.3E-06,0.020383125
,,,3.31E-06,0.020719375
,,,3.32E-06,0.020543125
,,,3.33E-06,0.020594375
,,,3.34E-06,0.02042
,,,3.35E-06,0.020515625
,,,3.36E-06,0.02027375
,,,3.37E-06,0.02060875
,,,3.38E-06,0.020556875
,,,3.39E-06,0.02076875
,,,3.4E-06,0.020575
,,,3.41E-06,0.0204725
,,,3.42E-06,0.020638125
,,,3.43E-06,0.02064
,,,3.44E-06,0.020816875
,,,3.45E-06,0.020503125
,,,3.46E-06,0.020483125
,,,3.47E-06,0.02048375
,,,3.48E-06,0.020435
,,,3.49E-06,0.020498125
,,,3.5E-06,0.02052625
,,,3.51E-06,0.0206125
,,,3.52E-06,0.02053375
,,,3.53E-06,0.020493125
,,,3.54E-06,0.020553125
