data/raw/Final_POL_Test_1/SOP081_Ch1.csv

"Record Length",1000,"Points",-5E-06,0.005613125
"Sample Interval",1E-08,s,-4.99E-06,0.005503125
"Trigger Point",500,"Samples",-4.98E-06,0.005646875
"Trigger Time",0,s,-4.97E-06,0.00577125
"",,,-4.96E-06,0.00578625
"Horizontal Offset",-5E-06,s,-4.95E-06,0.00546375
,,,-4.94E-06,0.005370625
,,,-4.93E-06,0.005539375
,,,-4.92E-06,0.005983125
,,,-4.91E-06,0.005624375
,,,-4.9E-06,0.00550125
,,,-4.89E-06,0.005781875
,,,-4.88E-06,0.005626875
,,,-4.87E-06,0.0055625
,,,-4.86E-06,0.0056125
,,,-4.85E-06,0.005649375
,,,-4.84E-06,0.005563125
,,,-4.83E-06,0.005876875
,,,-4.82E-06,0.00562375
,,,-4.81E-06,0.0057975
,,,-4.8E-06,0.00574
,,,-4.79E-06,0.005811875
,,,-4.78E-06,0.005679375
,,,-4.77E-06,0.00556375
,,,-4.76E-06,0.00591625
,,,-4.75E-06,0.00578125
,,,-4.74E-06,0.0055825
,,,-4.73E-06,0.0056675
,,,-4.72E-06,0.005596875
,,,-4.71E-06,0.005535
,,,-4.7E-06,0.00556625
,,,-4.69E-06,0.005713125
,,,-4.68E-06,0.005503125
,,,-4.67E-06,0.005764375
,,,-4.66E-06,0.005523125
,,,-4.65E-06,0.00586
,,,-4.64E-06,0.00563875
,,,-4.63E-06,0.00580625
,,,-4.62E-06,0.00581125
,,,-4.61E-06,0.00573375
,,,-4.6E-06,0.005706875
,,,-4.59E-06,0.005679375
,,,-4.58E-06,0.00565125
,,,-4.57E-06,0.005569375
,,,-4.56E-06,0.005613125
,,,-4.55E-06,0.005614375
,,,-4.54E-06,0.0058225
,,,-4.53E-06,0.005643125
,,,-4.52E-06,0.005615625
,,,-4.51E-06,0.005656875
,,,-4.5E-06,0.005875
,,,-4.49E-06,0.00573125
,,,-4.48E-06,0.005689375
,,,-4.47E-06,0.005816875
,,,-4.46E-06,0.005639375
,,,-4.45E-06,0.005315
,,,-4.44E-06,0.00562375
,,,-4.43E-06,0.00557
,,,-4.42E-06,0.0058575
,,,-4.41E-06,0.0056025
,,,-4.4E-06,0.00581
,,,-4.39E-06,0.005780625
,,,-4.38E-06,0.005594375
,,,-4.37E-06,0.0055225
,,,-4.36E-06,0.005603125
,,,-4.35E-06,0.0056275
,,,-4.34E-06,0.0057375
,,,-4.33E-06,0.00554875
,,,-4.32E-06,0.005890625
,,,-4.31E-06,0.005635
,,,-4.3E-06,0.005545625
,,,-4.29E-06,0.005680625
,,,-4.28E-06,0.005511875
,,,-4.27E-06,0.005526875
,,,-4.26E-06,0.00549375
,,,-4.25E-06,0.0054775
,,,-4.24E-06,0.00560875
,,,-4.23E-06,0.00569
,,,-4.22E-06,0.005768125
,,,-4.21E-06,0.005595625
,,,-4.2E-06,0.005718125
,,,-4.19E-06,0.00570375
,,,-4.18E-06,0.005688125
,,,-4.17E-06,0.005759375
,,,-4.16E-06,0.005696875
,,,-4.15E-06,0.00543
,,,-4.14E-06,0.005654375
,,,-4.13E-06,0.005873125
,,,-4.12E-06,0.005689375
,,,-4.11E-06,0.005865625
,,,-4.1E-06,0.005775
,,,-4.09E-06,0.005675
,,,-4.08E-06,0.00598375
,,,-4.07E-06,0.0056075
,,,-4.06E-06,0.0056575
,,,-4.05E-06,0.00572875
,,,-4.04E-06,0.00539625
,,,-4.03E-06,0.006055625
,,,-4.02E-06,0.00553875
,,,-4.01E-06,0.005639375
,,,-4E-06,0.005964375
,,,-3.99E-06,0.00573625
,,,-3.98E-06,0.005809375
,,,-3.97E-06,0.005659375
,,,-3.96E-06,0.005588125
,,,-3.95E-06,0.005740625
,,,-3.94E-06,0.00588
,,,-3.93E-06,0.005595625
,,,-3.92E-06,0.0055775
,,,-3.91E-06,0.005643125
,,,-3.9E-06,0.005798125
,,,-3.89E-06,0.00584
,,,-3.88E-06,0.005536875
,,,-3.87E-06,0.005725
,,,-3.86E-06,0.005706875
,,,-3.85E-06,0.005625
,,,-3.84E-06,0.0058975
,,,-3.83E-06,0.0057525
,,,-3.82E-06,0.005931875
,,,-3.81E-06,0.00565375
,,,-3.8E-06,0.005456875
,,,-3.79E-06,0.005491875
,,,-3.78E-06,0.005824375
,,,-3.77E-06,0.00606125
,,,-3.76E-06,0.005873125
,,,-3.75E-06,0.00559625
,,,-3.74E-06,0.005849375
,,,-3.73E-06,0.005814375
,,,-3.72E-06,0.005530625
,,,-3.71E-06,0.0056375
,,,-3.7E-06,0.005726875
,,,-3.69E-06,0.005843125
,,,-3.68E-06,0.005509375
,,,-3.67E-06,0.00575375
,,,-3.66E-06,0.005655625
,,,-3.65E-06,0.00572625
,,,-3.64E-06,0.005744375
,,,-3.63E-06,0.00559625
,,,-3.62E-06,0.00566125
,,,-3.61E-06,0.005920625
,,,-3.6E-06,0.00568375
,,,-3.59E-06,0.005641875
,,,-3.58E-06,0.005528125
,,,-3.57E-06,0.005685625
,,,-3.56E-06,0.00554125
,,,-3.55E-06,0.0058475
,,,-3.54E-06,0.00558125
,,,-3.53E-06,0.00563875
,,,-3.52E-06,0.00587125
,,,-3.51E-06,0.00579125
,,,-3.5E-06,0.005611875
,,,-3.49E-06,0.005631875
,,,-3.48E-06,0.00559625
,,,-3.47E-06,0.00554375
,,,-3.46E-06,0.005685625
,,,-3.45E-06,0.005745
,,,-3.44E-06,0.00586125
,,,-3.43E-06,0.005848125
,,,-3.42E-06,0.005784375
,,,-3.41E-06,0.00591375
,,,-3.4E-06,0.005720625
,,,-3.39E-06,0.0056525
,,,-3.38E-06,0.005675
,,,-3.37E-06,0.00584875
,,,-3.36E-06,0.00557875
,,,-3.35E-06,0.005580625
,,,-3.34E-06,0.005721875
,,,-3.33E-06,0.005881875
,,,-3.32E-06,0.0056175
,,,-3.31E-06,0.005660625
,,,-3.3E-06,0.00584125
,,,-3.29E-06,0.005803125
,,,-3.28E-06,0.00575625
,,,-3.27E-06,0.005695625
,,,-3.26E-06,0.005876875
,,,-3.25E-06,0.005651875
,,,-3.24E-06,0.00567625
,,,-3.23E-06,0.00558875
,,,-3.22E-06,0.005885625
,,,-3.21E-06,0.005739375
,,,-3.2E-06,0.00560875
,,,-3.19E-06,0.005684375
,,,-3.18E-06,0.0056175
,,,-3.17E-06,0.0055425
,,,-3.16E-06,0.0055925
,,,-3.15E-06,0.005741875
,,,-3.14E-06,0.005515625
,,,-3.13E-06,0.0056725
,,,-3.12E-06,0.005620625
,,,-3.11E-06,0.00589125
,,,-3.1E-06,0.00561375
,,,-3.09E-06,0.005639375
,,,-3.08E-06,0.005576875
,,,-3.07E-06,0.005830625
,,,-3.06E-06,0.005659375
,,,-3.05E-06,0.0054725
,,,-3.04E-06,0.00551125
,,,-3.03E-06,0.005503125
,,,-3.02E-06,0.005683125
,,,-3.01E-06,0.005580625
,,,-3E-06,0.005400625
,,,-2.99E-06,0.005695
,,,-2.98E-06,0.005633125
,,,-2.97E-06,0.005776875
,,,-2.96E-06,0.005595
,,,-2.95E-06,0.005555
,,,-2.94E-06,0.005793125
,,,-2.93E-06,0.0056275
,,,-2.92E-06,0.005655
,,,-2.91E-06,0.00576125
,,,-2.9E-06,0.005654375
,,,-2.89E-06,0.005814375
,,,-2.88E-06,0.0056625
,,,-2.87E-06,0.005979375
,,,-2.86E-06,0.005866875
,,,-2.85E-06,0.005643125
,,,-2.84E-06,0.005865625
,,,-2.83E-06,0.0055475
,,,-2.82E-06,0.005971875
,,,-2.81E-06,0.00562625
,,,-2.8E-06,0.00557125
,,,-2.79E-06,0.005733125
,,,-2.78E-06,0.005485625
,,,-2.77E-06,0.00570375
,,,-2.76E-06,0.0056775
,,,-2.75E-06,0.005720625
,,,-2.74E-06,0.005945625
,,,-2.73E-06,0.00581125
,,,-2.72E-06,0.00593375
,,,-2.71E-06,0.00574
,,,-2.7E-06,0.005851875
,,,-2.69E-06,0.005625625
,,,-2.68E-06,0.005729375
,,,-2.67E-06,0.005516875
,,,-2.66E-06,0.005808125
,,,-2.65E-06,0.005519375
,,,-2.64E-06,0.005666875
,,,-2.63E-06,0.00552875
,,,-2.62E-06,0.00581625
,,,-2.61E-06,0.00586375
,,,-2.6E-06,0.0057425
,,,-2.59E-06,0.005620625
,,,-2.58E-06,0.00560125
,,,-2.57E-06,0.005696875
,,,-2.56E-06,0.005576875
,,,-2.55E-06,0.005696875
,,,-2.54E-06,0.0055525
,,,-2.53E-06,0.005913125
,,,-2.52E-06,0.005865
,,,-2.51E-06,0.005904375
,,,-2.5E-06,0.005739375
,,,-2.49E-06,0.00598
,,,-2.48E-06,0.005818125
,,,-2.47E-06,0.005501875
,,,-2.46E-06,0.00567125
,,,-2.45E-06,0.005520625
,,,-2.44E-06,0.005750625
,,,-2.43E-06,0.00577875
,,,-2.42E-06,0.005901875
,,,-2.41E-06,0.005736875
,,,-2.4E-06,0.00543625
,,,-2.39E-06,0.005771875
,,,-2.38E-06,0.005944375
,,,-2.37E-06,0.00586375
,,,-2.36E-06,0.00577375
,,,-2.35E-06,0.005919375
,,,-2.34E-06,0.00584625
,,,-2.33E-06,0.00562875
,,,-2.32E-06,0.0057325
,,,-2.31E-06,0.005986875
,,,-2.3E-06,0.005798125
,,,-2.29E-06,0.00575875
,,,-2.28E-06,0.005701875
,,,-2.27E-06,0.00563625
,,,-2.26E-06,0.005923125
,,,-2.25E-06,0.0059125
,,,-2.24E-06,0.00572875
,,,-2.23E-06,0.00589875
,,,-2.22E-06,0.00573125
,,,-2.21E-06,0.00578125
,,,-2.2E-06,0.00575
,,,-2.19E-06,0.006
,,,-2.18E-06,0.005906875
,,,-2.17E-06,0.005803125
,,,-2.16E-06,0.00547625
,,,-2.15E-06,0.005696875
,,,-2.14E-06,0.005465625
,,,-2.13E-06,0.005866875
,,,-2.12E-06,0.005616875
,,,-2.11E-06,0.005918125
,,,-2.1E-06,0.005768125
,,,-2.09E-06,0.005661875
,,,-2.08E-06,0.005783125
,,,-2.07E-06,0.005775
,,,-2.06E-06,0.00547
,,,-2.05E-06,0.00565375
,,,-2.04E-06,0.005533125
,,,-2.03E-06,0.005666875
,,,-2.02E-06,0.00583
,,,-2.01E-06,0.0057775
,,,-2E-06,0.0056375
,,,-1.99E-06,0.00584125
,,,-1.98E-06,0.00579625
,,,-1.97E-06,0.00545625
,,,-1.96E-06,0.00556
,,,-1.95E-06,0.00567625
,,,-1.94E-06,0.005665625
,,,-1.93E-06,0.005741875
,,,-1.92E-06,0.00561125
,,,-1.91E-06,0.00563125
,,,-1.9E-06,0.00558125
,,,-1.89E-06,0.005419375
,,,-1.88E-06,0.0058475
,,,-1.87E-06,0.00567375
,,,-1.86E-06,0.005635625
,,,-1.85E-06,0.00571125
,,,-1.84E-06,0.005833125
,,,-1.83E-06,0.00574375
,,,-1.82E-06,0.005435
,,,-1.81E-06,0.00568125
,,,-1.8E-06,0.005624375
,,,-1.79E-06,0.005494375
,,,-1.78E-06,0.00539375
,,,-1.77E-06,0.00570125
,,,-1.76E-06,0.0055775
,,,-1.75E-06,0.0054625
,,,-1.74E-06,0.005770625
,,,-1.73E-06,0.0055025
,,,-1.72E-06,0.005794375
,,,-1.71E-06,0.00570625
,,,-1.7E-06,0.00573375
,,,-1.69E-06,0.00584625
,,,-1.68E-06,0.00544375
,,,-1.67E-06,0.00549875
,,,-1.66E-06,0.005628125
,,,-1.65E-06,0.005940625
,,,-1.64E-06,0.00543
,,,-1.63E-06,0.00568875
,,,-1.62E-06,0.005904375
,,,-1.61E-06,0.00545
,,,-1.6E-06,0.005498125
,,,-1.59E-06,0.005848125
,,,-1.58E-06,0.00568
,,,-1.57E-06,0.00572125
,,,-1.56E-06,0.005755
,,,-1.55E-06,0.005698125
,,,-1.54E-06,0.005631875
,,,-1.53E-06,0.005439375
,,,-1.52E-06,0.005536875
,,,-1.51E-06,0.005834375
,,,-1.5E-06,0.0057625
,,,-1.49E-06,0.005779375
,,,-1.48E-06,0.00579125
,,,-1.47E-06,0.00547875
,,,-1.46E-06,0.005625
,,,-1.45E-06,0.00566875
,,,-1.44E-06,0.00557625
,,,-1.43E-06,0.0056675
,,,-1.42E-06,0.00564
,,,-1.41E-06,0.00582375
,,,-1.4E-06,0.005619375
,,,-1.39E-06,0.005738125
,,,-1.38E-06,0.00587125
,,,-1.37E-06,0.00593875
,,,-1.36E-06,0.00572875
,,,-1.35E-06,0.005585
,,,-1.34E-06,0.00553
,,,-1.33E-06,0.0056375
,,,-1.32E-06,0.0058025
,,,-1.31E-06,0.005525625
,,,-1.3E-06,0.005666875
,,,-1.29E-06,0.0057075
,,,-1.28E-06,0.005570625
,,,-1.27E-06,0.005631875
,,,-1.26E-06,0.005725
,,,-1.25E-06,0.00584
,,,-1.24E-06,0.0056075
,,,-1.23E-06,0.0054325
,,,-1.22E-06,0.0056425
,,,-1.21E-06,0.005456875
,,,-1.2E-06,0.0059575
,,,-1.19E-06,0.005524375
,,,-1.18E-06,0.005508125
,,,-1.17E-06,0.005695
,,,-1.16E-06,0.005753125
,,,-1.15E-06,0.005785
,,,-1.14E-06,0.0056225
,,,-1.13E-06,0.005703125
,,,-1.12E-06,0.00556875
,,,-1.11E-06,0.00563375
,,,-1.1E-06,0.005746875
,,,-1.09E-06,0.005643125
,,,-1.08E-06,0.005588125
,,,-1.07E-06,0.005725625
,,,-1.06E-06,0.005753125
,,,-1.05E-06,0.0057325
,,,-1.04E-06,0.005675
,,,-1.03E-06,0.005919375
,,,-1.02E-06,0.0056625
,,,-1.01E-06,0.005728125
,,,-1E-06,0.005664375
,,,-9.9E-07,0.00566875
,,,-9.8E-07,0.00570125
,,,-9.7E-07,0.005509375
,,,-9.6E-07,0.005660625
,,,-9.5E-07,0.00588125
,,,-9.4E-07,0.0057475
,,,-9.3E-07,0.005755625
,,,-9.2E-07,0.0054775
,,,-9.1E-07,0.00562125
,,,-9E-07,0.005749375
,,,-8.9E-07,0.005565
,,,-8.8E-07,0.00571875
,,,-8.7E-07,0.005721875
,,,-8.6E-07,0.005653125
,,,-8.5E-07,0.00598375
,,,-8.4E-07,0.005589375
,,,-8.3E-07,0.005626875
,,,-8.2E-07,0.005495
,,,-8.1E-07,0.005643125
,,,-8E-07,0.005709375
,,,-7.9E-07,0.005718125
,,,-7.8E-07,0.005826875
,,,-7.7E-07,0.00576125
,,,-7.6E-07,0.00594875
,,,-7.5E-07,0.00569625
,,,-7.4E-07,0.00577875
,,,-7.3E-07,0.005585
,,,-7.2E-07,0.00572
,,,-7.1E-07,0.005496875
,,,-7E-07,0.005834375
,,,-6.9E-07,0.005745625
,,,-6.8E-07,0.0055875
,,,-6.7E-07,0.006046875
,,,-6.6E-07,0.0056125
,,,-6.5E-07,0.005699375
,,,-6.4E-07,0.005860625
,,,-6.3E-07,0.0058
,,,-6.2E-07,0.00572
,,,-6.1E-07,0.00592
,,,-6E-07,0.00565
,,,-5.9E-07,0.005913125
,,,-5.8E-07,0.00576125
,,,-5.7E-07,0.00567875
,,,-5.6E-07,0.005603125
,,,-5.5E-07,0.005825625
,,,-5.4E-07,0.0055225
,,,-5.3E-07,0.005650625
,,,-5.2E-07,0.005859375
,,,-5.1E-07,0.00581
,,,-5E-07,0.0054175
,,,-4.9E-07,0.0053575
,,,-4.8E-07,0.00557875
,,,-4.7E-07,0.00596625
,,,-4.6E-07,0.005835
,,,-4.5E-07,0.00557
,,,-4.4E-07,0.00568375
,,,-4.3E-07,0.0059225
,,,-4.2E-07,0.0055825
,,,-4.1E-07,0.00575125
,,,-4E-07,0.006051875
,,,-3.9E-07,0.005660625
,,,-3.8E-07,0.00598125
,,,-3.7E-07,0.00572125
,,,-3.6E-07,0.0056875
,,,-3.5E-07,0.005746875
,,,-3.4E-07,0.005953125
,,,-3.3E-07,0.005589375
,,,-3.2E-07,0.005820625
,,,-3.1E-07,0.00574125
,,,-3E-07,0.005859375
,,,-2.9E-07,0.00574125
,,,-2.8E-07,0.005536875
,,,-2.7E-07,0.005756875
,,,-2.6E-07,0.00561125
,,,-2.5E-07,0.005745625
,,,-2.4E-07,0.0054325
,,,-2.3E-07,0.005426875
,,,-2.2E-07,0.00576
,,,-2.1E-07,0.00561625
,,,-2E-07,0.005883125
,,,-1.9E-07,0.005626875
,,,-1.8E-07,0.00570625
,,,-1.7E-07,0.005656875
,,,-1.6E-07,0.00581125
,,,-1.5E-07,0.005746875
,,,-1.4E-07,0.00600625
,,,-1.3E-07,0.0057525
,,,-1.2E-07,0.005751875
,,,-1.1E-07,0.005570625
,,,-1E-07,0.00559625
,,,-9E-08,0.005608125
,,,-8E-08,0.005664375
,,,-7E-08,0.005368125
,,,-6E-08,0.005660625
,,,-5E-08,0.00594
,,,-4E-08,0.007081875
,,,-3E-08,0.00635875
,,,-2E-08,0.00383
,,,-1E-08,0.00325125
,,,0,0.00400875
,,,1E-08,0.007483125
,,,2E-08,0.008075625
,,,3E-08,0.007314375
,,,4E-08,0.005126875
,,,5E-08,0.004368125
,,,6E-08,0.003868125
,,,7E-08,0.005015
,,,8E-08,0.006218125
,,,9E-08,0.00699
,,,1E-07,0.00689
,,,1.1E-07,0.005785
,,,1.2E-07,0.00516
,,,1.3E-07,0.00496
,,,1.4E-07,0.005530625
,,,1.5E-07,0.005871875
,,,1.6E-07,0.0059275
,,,1.7E-07,0.005949375
,,,1.8E-07,0.005923125
,,,1.9E-07,0.005744375
,,,2E-07,0.005938125
,,,2.1E-07,0.005425
,,,2.2E-07,0.005528125
,,,2.3E-07,0.005524375
,,,2.4E-07,0.00585
,,,2.5E-07,0.00564625
,,,2.6E-07,0.005429375
,,,2.7E-07,0.00569125
,,,2.8E-07,0.005586875
,,,2.9E-07,0.00554375
,,,3E-07,0.0055925
,,,3.1E-07,0.005728125
,,,3.2E-07,0.005606875
,,,3.3E-07,0.005861875
,,,3.4E-07,0.00560625
,,,3.5E-07,0.00560375
,,,3.6E-07,0.0057975
,,,3.7E-07,0.005548125
,,,3.8E-07,0.00572
,,,3.9E-07,0.005758125
,,,4E-07,0.00582625
,,,4.1E-07,0.005645
,,,4.2E-07,0.0057725
,,,4.3E-07,0.005699375
,,,4.4E-07,0.00565875
,,,4.5E-07,0.005715625
,,,4.6E-07,0.005641875
,,,4.7E-07,0.0056775
,,,4.8E-07,0.00571125
,,,4.9E-07,0.005604375
,,,5E-07,0.005794375
,,,5.1E-07,0.005499375
,,,5.2E-07,0.00577
,,,5.3E-07,0.00566625
,,,5.4E-07,0.00562
,,,5.5E-07,0.0054425
,,,5.6E-07,0.005621875
,,,5.7E-07,0.005518125
,,,5.8E-07,0.00558375
,,,5.9E-07,0.006123125
,,,6E-07,0.005694375
,,,6.1E-07,0.005645
,,,6.2E-07,0.005756875
,,,6.3E-07,0.0056525
,,,6.4E-07,0.00581625
,,,6.5E-07,0.006025625
,,,6.6E-07,0.005581875
,,,6.7E-07,0.00576625
,,,6.8E-07,0.00572625
,,,6.9E-07,0.005820625
,,,7E-07,0.005815
,,,7.1E-07,0.00574625
,,,7.2E-07,0.0056275
,,,7.3E-07,0.00567125
,,,7.4E-07,0.00554125
,,,7.5E-07,0.005995625
,,,7.6E-07,0.005785625
,,,7.7E-07,0.005754375
,,,7.8E-07,0.0056775
,,,7.9E-07,0.005876875
,,,8E-07,0.005561875
,,,8.1E-07,0.0056325
,,,8.2E-07,0.005635625
,,,8.3E-07,0.0056725
,,,8.4E-07,0.005414375
,,,8.5E-07,0.005875625
,,,8.6E-07,0.00572375
,,,8.7E-07,0.005714375
,,,8.8E-07,0.005445
,,,8.9E-07,0.005890625
,,,9E-07,0.006005
,,,9.1E-07,0.005629375
,,,9.2E-07,0.005699375
,,,9.3E-07,0.00568125
,,,9.4E-07,0.0056075
,,,9.5E-07,0.00555125
,,,9.6E-07,0.005633125
,,,9.7E-07,0.005706875
,,,9.8E-07,0.00531875
,,,9.9E-07,0.00576125
,,,1E-06,0.0057975
,,,1.01E-06,0.005735625
,,,1.02E-06,0.00552875
,,,1.03E-06,0.00575625
,,,1.04E-06,0.005576875
,,,1.05E-06,0.005858125
,,,1.06E-06,0.005635625
,,,1.07E-06,0.00571625
,,,1.08E-06,0.005669375
,,,1.09E-06,0.00563375
,,,1.1E-06,0.005504375
,,,1.11E-06,0.005643125
,,,1.12E-06,0.005866875
,,,1.13E-06,0.005534375
,,,1.14E-06,0.00567625
,,,1.15E-06,0.005605625
,,,1.16E-06,0.005800625
,,,1.17E-06,0.00577
,,,1.18E-06,0.005766875
,,,1.19E-06,0.005569375
,,,1.2E-06,0.005665
,,,1.21E-06,0.00567125
,,,1.22E-06,0.005761875
,,,1.23E-06,0.005728125
,,,1.24E-06,0.005620625
,,,1.25E-06,0.00581125
,,,1.26E-06,0.0057075
,,,1.27E-06,0.005668125
,,,1.28E-06,0.0058025
,,,1.29E-06,0.0060075
,,,1.3E-06,0.0059125
,,,1.31E-06,0.00593125
,,,1.32E-06,0.005848125
,,,1.33E-06,0.0057675
,,,1.34E-06,0.005660625
,,,1.35E-06,0.005785
,,,1.36E-06,0.005655
,,,1.37E-06,0.00572125
,,,1.38E-06,0.00558125
,,,1.39E-06,0.005799375
,,,1.4E-06,0.00574125
,,,1.41E-06,0.00551625
,,,1.42E-06,0.0058425
,,,1.43E-06,0.005703125
,,,1.44E-06,0.005575
,,,1.45E-06,0.005715
,,,1.46E-06,0.00572875
,,,1.47E-06,0.0058775
,,,1.48E-06,0.00581
,,,1.49E-06,0.005711875
,,,1.5E-06,0.0058
,,,1.51E-06,0.005574375
,,,1.52E-06,0.005769375
,,,1.53E-06,0.00563125
,,,1.54E-06,0.00556625
,,,1.55E-06,0.005849375
,,,1.56E-06,0.00555
,,,1.57E-06,0.005779375
,,,1.58E-06,0.005736875
,,,1.59E-06,0.0058575
,,,1.6E-06,0.006023125
,,,1.61E-06,0.00578875
,,,1.62E-06,0.005833125
,,,1.63E-06,0.00565875
,,,1.64E-06,0.00566375
,,,1.65E-06,0.00583125
,,,1.66E-06,0.00566375
,,,1.67E-06,0.005508125
,,,1.68E-06,0.00575375
,,,1.69E-06,0.00563125
,,,1.7E-06,0.0058625
,,,1.71E-06,0.00544
,,,1.72E-06,0.0055275
,,,1.73E-06,0.0057925
,,,1.74E-06,0.005645
,,,1.75E-06,0.0054975
,,,1.76E-06,0.005744375
,,,1.77E-06,0.005725625
,,,1.78E-06,0.00561125
,,,1.79E-06,0.005538125
,,,1.8E-06,0.005818125
,,,1.81E-06,0.005774375
,,,1.82E-06,0.00552375
,,,1.83E-06,0.0058475
,,,1.84E-06,0.005528125
,,,1.85E-06,0.005730625
,,,1.86E-06,0.005913125
,,,1.87E-06,0.00556625
,,,1.88E-06,0.005444375
,,,1.89E-06,0.005569375
,,,1.9E-06,0.005688125
,,,1.91E-06,0.005756875
,,,1.92E-06,0.005786875
,,,1.93E-06,0.00579875
,,,1.94E-06,0.005804375
,,,1.95E-06,0.005445625
,,,1.96E-06,0.005525
,,,1.97E-06,0.005763125
,,,1.98E-06,0.005453125
,,,1.99E-06,0.0057525
,,,2E-06,0.005745625
,,,2.01E-06,0.005518125
,,,2.02E-06,0.00579125
,,,2.03E-06,0.0056925
,,,2.04E-06,0.0055975
,,,2.05E-06,0.00559875
,,,2.06E-06,0.005729375
,,,2.07E-06,0.006036875
,,,2.08E-06,0.005608125
,,,2.09E-06,0.005614375
,,,2.1E-06,0.005608125
,,,2.11E-06,0.00581
,,,2.12E-06,0.005705625
,,,2.13E-06,0.005826875
,,,2.14E-06,0.00553375
,,,2.15E-06,0.00559375
,,,2.16E-06,0.00578
,,,2.17E-06,0.0056875
,,,2.18E-06,0.0058475
,,,2.19E-06,0.00588875
,,,2.2E-06,0.005525
,,,2.21E-06,0.005711875
,,,2.22E-06,0.006104375
,,,2.23E-06,0.0054975
,,,2.24E-06,0.00570625
,,,2.25E-06,0.00574875
,,,2.26E-06,0.005694375
,,,2.27E-06,0.005755625
,,,2.28E-06,0.00550625
,,,2.29E-06,0.00550375
,,,2.3E-06,0.00562
,,,2.31E-06,0.005685
,,,2.32E-06,0.0056375
,,,2.33E-06,0.00558
,,,2.34E-06,0.005744375
,,,2.35E-06,0.005723125
,,,2.36E-06,0.005511875
,,,2.37E-06,0.005521875
,,,2.38E-06,0.00586125
,,,2.39E-06,0.005975
,,,2.4E-06,0.00552625
,,,2.41E-06,0.00563625
,,,2.42E-06,0.00573875
,,,2.43E-06,0.00569375
,,,2.44E-06,0.00569
,,,2.45E-06,0.00574375
,,,2.46E-06,0.00571
,,,2.47E-06,0.00578125
,,,2.48E-06,0.005606875
,,,2.49E-06,0.005901875
,,,2.5E-06,0.005638125
,,,2.51E-06,0.00565375
,,,2.52E-06,0.005719375
,,,2.53E-06,0.005720625
,,,2.54E-06,0.005556875
,,,2.55E-06,0.005464375
,,,2.56E-06,0.00569125
,,,2.57E-06,0.005691875
,,,2.58E-06,0.0058475
,,,2.59E-06,0.0057675
,,,2.6E-06,0.005625
,,,2.61E-06,0.005650625
,,,2.62E-06,0.005894375
,,,2.63E-06,0.00578125
,,,2.64E-06,0.005674375
,,,2.65E-06,0.005626875
,,,2.66E-06,0.00576125
,,,2.67E-06,0.005811875
,,,2.68E-06,0.0058125
,,,2.69E-06,0.0057275
,,,2.7E-06,0.005564375
,,,2.71E-06,0.005629375
,,,2.72E-06,0.005818125
,,,2.73E-06,0.005685625
,,,2.74E-06,0.005571875
,,,2.75E-06,0.00538625
,,,2.76E-06,0.005676875
,,,2.77E-06,0.005600625
,,,2.78E-06,0.0057
,,,2.79E-06,0.005673125
,,,2.8E-06,0.00570125
,,,2.81E-06,0.005749375
,,,2.82E-06,0.005459375
,,,2.83E-06,0.005578125
,,,2.84E-06,0.005788125
,,,2.85E-06,0.00557
,,,2.86E-06,0.00575125
,,,2.87E-06,0.005734375
,,,2.88E-06,0.005554375
,,,2.89E-06,0.00587125
,,,2.9E-06,0.005468125
,,,2.91E-06,0.0057675
,,,2.92E-06,0.0056975
,,,2.93E-06,0.005671875
,,,2.94E-06,0.00583375
,,,2.95E-06,0.00564625
,,,2.96E-06,0.00566375
,,,2.97E-06,0.005421875
,,,2.98E-06,0.005834375
,,,2.99E-06,0.00559875
,,,3E-06,0.0055675
,,,3.01E-06,0.00577
,,,3.02E-06,0.00585625
,,,3.03E-06,0.00532125
,,,3.04E-06,0.005501875
,,,3.05E-06,0.005795
,,,3.06E-06,0.005799375
,,,3.07E-06,0.00570375
,,,3.08E-06,0.00571
,,,3.09E-06,0.00578375
,,,3.1E-06,0.00584125
,,,3.11E-06,0.00573375
,,,3.12E-06,0.0057525
,,,3.13E-06,0.00543875
,,,3.14E-06,0.00545
,,,3.15E-06,0.0056625
,,,3.16E-06,0.005561875
,,,3.17E-06,0.005658125
,,,3.18E-06,0.005931875
,,,3.19E-06,0.0057825
,,,3.2E-06,0.005495
,,,3.21E-06,0.00544875
,,,3.22E-06,0.005658125
,,,3.23E-06,0.005488125
,,,3.24E-06,0.0059425
,,,3.25E-06,0.00565375
,,,3.26E-06,0.005769375
,,,3.27E-06,0.0055925
,,,3.28E-06,0.005806875
,,,3.29E-06,0.005798125
,,,3.3E-06,0.00558
,,,3.31E-06,0.005751875
,,,3.32E-06,0.0057925
,,,3.33E-06,0.00578125
,,,3.34E-06,0.005649375
,,,3.35E-06,0.0056175
,,,3.36E-06,0.005668125
,,,3.37E-06,0.0056975
,,,3.38E-06,0.00572125
,,,3.39E-06,0.00553
,,,3.4E-06,0.005770625
,,,3.41E-06,0.005629375
,,,3.42E-06,0.00575625
,,,3.43E-06,0.005605
,,,3.44E-06,0.0055375
,,,3.45E-06,0.005463125
,,,3.46E-06,0.005488125
,,,3.47E-06,0.00572875
,,,3.48E-06,0.00594125
,,,3.49E-06,0.00579625
,,,3.5E-06,0.00578
,,,3.51E-06,0.0055675
,,,3.52E-06,0.005724375
,,,3.53E-06,0.00579
,,,3.54E-06,0.005578125
,,,3.55E-06,0.00567625
,,,3.56E-06,0.00576875
