data/raw/Final_POL_Test_1/SOP066_Ch3.csv

"Record Length",1000,"Points",-5E-06,0.018402501
"Sample Interval",1E-08,s,-4.99E-06,0.018140001
"Trigger Point",500,"Samples",-4.98E-06,0.018084376
"Trigger Time",0,s,-4.97E-06,0.018098126
"",,,-4.96E-06,0.018186876
"Horizontal Offset",-5E-06,s,-4.95E-06,0.018308126
,,,-4.94E-06,0.018065001
,,,-4.93E-06,0.018466876
,,,-4.92E-06,0.018290626
,,,-4.91E-06,0.018285001
,,,-4.9E-06,0.018303751
,,,-4.89E-06,0.018432501
,,,-4.88E-06,0.018098126
,,,-4.87E-06,0.018218751
,,,-4.86E-06,0.018301876
,,,-4.85E-06,0.018509376
,,,-4.84E-06,0.018492501
,,,-4.83E-06,0.018421251
,,,-4.82E-06,0.018423751
,,,-4.81E-06,0.018300626
,,,-4.8E-06,0.018475626
,,,-4.79E-06,0.018583126
,,,-4.78E-06,0.018511876
,,,-4.77E-06,0.018178751
,,,-4.76E-06,0.018126876
,,,-4.75E-06,0.018295001
,,,-4.74E-06,0.018355626
,,,-4.73E-06,0.018161876
,,,-4.72E-06,0.018365626
,,,-4.71E-06,0.018620626
,,,-4.7E-06,0.018306251
,,,-4.69E-06,0.018443751
,,,-4.68E-06,0.018366876
,,,-4.67E-06,0.018424376
,,,-4.66E-06,0.018404376
,,,-4.65E-06,0.018153751
,,,-4.64E-06,0.018410001
,,,-4.63E-06,0.018448751
,,,-4.62E-06,0.018431876
,,,-4.61E-06,0.018073751
,,,-4.6E-06,0.018264376
,,,-4.59E-06,0.018162501
,,,-4.58E-06,0.018143751
,,,-4.57E-06,0.018378751
,,,-4.56E-06,0.018145001
,,,-4.55E-06,0.018198126
,,,-4.54E-06,0.018567501
,,,-4.53E-06,0.018169376
,,,-4.52E-06,0.018148126
,,,-4.51E-06,0.018067501
,,,-4.5E-06,0.018435001
,,,-4.49E-06,0.018317501
,,,-4.48E-06,0.018321876
,,,-4.47E-06,0.018422501
,,,-4.46E-06,0.018031876
,,,-4.45E-06,0.018146251
,,,-4.44E-06,0.018197501
,,,-4.43E-06,0.018464376
,,,-4.42E-06,0.018458751
,,,-4.41E-06,0.018275626
,,,-4.4E-06,0.018439376
,,,-4.39E-06,0.018394376
,,,-4.38E-06,0.018196876
,,,-4.37E-06,0.018050626
,,,-4.36E-06,0.018268751
,,,-4.35E-06,0.018188126
,,,-4.34E-06,0.018411876
,,,-4.33E-06,0.018354376
,,,-4.32E-06,0.018240001
,,,-4.31E-06,0.018261251
,,,-4.3E-06,0.018203751
,,,-4.29E-06,0.018242501
,,,-4.28E-06,0.018253126
,,,-4.27E-06,0.017960626
,,,-4.26E-06,0.018372501
,,,-4.25E-06,0.018685001
,,,-4.24E-06,0.018135626
,,,-4.23E-06,0.018359376
,,,-4.22E-06,0.018196876
,,,-4.21E-06,0.018221876
,,,-4.2E-06,0.018235626
,,,-4.19E-06,0.018232501
,,,-4.18E-06,0.018318126
,,,-4.17E-06,0.018227501
,,,-4.16E-06,0.018302501
,,,-4.15E-06,0.018595626
,,,-4.14E-06,0.018238126
,,,-4.13E-06,0.018373751
,,,-4.12E-06,0.018186251
,,,-4.11E-06,0.018236251
,,,-4.1E-06,0.018141251
,,,-4.09E-06,0.018282501
,,,-4.08E-06,0.018270626
,,,-4.07E-06,0.018120001
,,,-4.06E-06,0.018241251
,,,-4.05E-06,0.018123126
,,,-4.04E-06,0.018468751
,,,-4.03E-06,0.018325626
,,,-4.02E-06,0.018320626
,,,-4.01E-06,0.018248126
,,,-4E-06,0.018315626
,,,-3.99E-06,0.018212501
,,,-3.98E-06,0.018320001
,,,-3.97E-06,0.018241876
,,,-3.96E-06,0.018275626
,,,-3.95E-06,0.018450001
,,,-3.94E-06,0.018142501
,,,-3.93E-06,0.018570001
,,,-3.92E-06,0.018538126
,,,-3.91E-06,0.018171251
,,,-3.9E-06,0.018175001
,,,-3.89E-06,0.018396876
,,,-3.88E-06,0.018126251
,,,-3.87E-06,0.018174376
,,,-3.86E-06,0.018138751
,,,-3.85E-06,0.018290626
,,,-3.84E-06,0.018482501
,,,-3.83E-06,0.018300001
,,,-3.82E-06,0.018325001
,,,-3.81E-06,0.018229376
,,,-3.8E-06,0.018334376
,,,-3.79E-06,0.018085626
,,,-3.78E-06,0.018435626
,,,-3.77E-06,0.018076251
,,,-3.76E-06,0.018016876
,,,-3.75E-06,0.018219376
,,,-3.74E-06,0.018581876
,,,-3.73E-06,0.018457501
,,,-3.72E-06,0.018248751
,,,-3.71E-06,0.018116251
,,,-3.7E-06,0.018318751
,,,-3.69E-06,0.018248126
,,,-3.68E-06,0.018280001
,,,-3.67E-06,0.018485626
,,,-3.66E-06,0.018327501
,,,-3.65E-06,0.018292501
,,,-3.64E-06,0.018355626
,,,-3.63E-06,0.018311251
,,,-3.62E-06,0.018078751
,,,-3.61E-06,0.018381876
,,,-3.6E-06,0.018353126
,,,-3.59E-06,0.018165001
,,,-3.58E-06,0.018290001
,,,-3.57E-06,0.018316251
,,,-3.56E-06,0.018168126
,,,-3.55E-06,0.018070001
,,,-3.54E-06,0.018112501
,,,-3.53E-06,0.018315001
,,,-3.52E-06,0.018436251
,,,-3.51E-06,0.018409376
,,,-3.5E-06,0.018359376
,,,-3.49E-06,0.018025001
,,,-3.48E-06,0.018238751
,,,-3.47E-06,0.018456251
,,,-3.46E-06,0.018174376
,,,-3.45E-06,0.018396876
,,,-3.44E-06,0.018316251
,,,-3.43E-06,0.018437501
,,,-3.42E-06,0.018211251
,,,-3.41E-06,0.018431251
,,,-3.4E-06,0.017924376
,,,-3.39E-06,0.018190626
,,,-3.38E-06,0.018207501
,,,-3.37E-06,0.018344376
,,,-3.36E-06,0.018152501
,,,-3.35E-06,0.018230001
,,,-3.34E-06,0.018311251
,,,-3.33E-06,0.018310626
,,,-3.32E-06,0.018508126
,,,-3.31E-06,0.018366876
,,,-3.3E-06,0.018389376
,,,-3.29E-06,0.018327501
,,,-3.28E-06,0.018245001
,,,-3.27E-06,0.018488126
,,,-3.26E-06,0.018384376
,,,-3.25E-06,0.018317501
,,,-3.24E-06,0.018579376
,,,-3.23E-06,0.018246876
,,,-3.22E-06,0.018358126
,,,-3.21E-06,0.018128126
,,,-3.2E-06,0.018456251
,,,-3.19E-06,0.018415626
,,,-3.18E-06,0.018230001
,,,-3.17E-06,0.018188751
,,,-3.16E-06,0.018130626
,,,-3.15E-06,0.017985001
,,,-3.14E-06,0.018231251
,,,-3.13E-06,0.018211876
,,,-3.12E-06,0.018541876
,,,-3.11E-06,0.018393126
,,,-3.1E-06,0.018246251
,,,-3.09E-06,0.018285626
,,,-3.08E-06,0.017949376
,,,-3.07E-06,0.018635001
,,,-3.06E-06,0.018177501
,,,-3.05E-06,0.018455001
,,,-3.04E-06,0.017954376
,,,-3.03E-06,0.018431876
,,,-3.02E-06,0.018312501
,,,-3.01E-06,0.018158751
,,,-3E-06,0.018412501
,,,-2.99E-06,0.018156876
,,,-2.98E-06,0.018328126
,,,-2.97E-06,0.018263751
,,,-2.96E-06,0.018344376
,,,-2.95E-06,0.018263751
,,,-2.94E-06,0.018418126
,,,-2.93E-06,0.018345001
,,,-2.92E-06,0.018488751
,,,-2.91E-06,0.018418751
,,,-2.9E-06,0.018250001
,,,-2.89E-06,0.018360626
,,,-2.88E-06,0.018285626
,,,-2.87E-06,0.018415626
,,,-2.86E-06,0.018237501
,,,-2.85E-06,0.018218751
,,,-2.84E-06,0.018228126
,,,-2.83E-06,0.018140001
,,,-2.82E-06,0.018306876
,,,-2.81E-06,0.018268751
,,,-2.8E-06,0.018250626
,,,-2.79E-06,0.018239376
,,,-2.78E-06,0.018355001
,,,-2.77E-06,0.018398126
,,,-2.76E-06,0.018151876
,,,-2.75E-06,0.018407501
,,,-2.74E-06,0.018348751
,,,-2.73E-06,0.018385626
,,,-2.72E-06,0.018416876
,,,-2.71E-06,0.018231251
,,,-2.7E-06,0.018040001
,,,-2.69E-06,0.018291876
,,,-2.68E-06,0.018406251
,,,-2.67E-06,0.018242501
,,,-2.66E-06,0.018467501
,,,-2.65E-06,0.018171251
,,,-2.64E-06,0.018257501
,,,-2.63E-06,0.018407501
,,,-2.62E-06,0.018180001
,,,-2.61E-06,0.018237501
,,,-2.6E-06,0.018558751
,,,-2.59E-06,0.018246876
,,,-2.58E-06,0.018422501
,,,-2.57E-06,0.018265626
,,,-2.56E-06,0.018476251
,,,-2.55E-06,0.018029376
,,,-2.54E-06,0.018524376
,,,-2.53E-06,0.018051251
,,,-2.52E-06,0.018085001
,,,-2.51E-06,0.018263751
,,,-2.5E-06,0.018448126
,,,-2.49E-06,0.018248751
,,,-2.48E-06,0.018171876
,,,-2.47E-06,0.018369376
,,,-2.46E-06,0.018135001
,,,-2.45E-06,0.018085626
,,,-2.44E-06,0.018219376
,,,-2.43E-06,0.018393126
,,,-2.42E-06,0.018281251
,,,-2.41E-06,0.018220626
,,,-2.4E-06,0.018113126
,,,-2.39E-06,0.018155001
,,,-2.38E-06,0.018167501
,,,-2.37E-06,0.018325001
,,,-2.36E-06,0.018261251
,,,-2.35E-06,0.018471876
,,,-2.34E-06,0.018118751
,,,-2.33E-06,0.018250001
,,,-2.32E-06,0.018121251
,,,-2.31E-06,0.018133751
,,,-2.3E-06,0.018155626
,,,-2.29E-06,0.018126876
,,,-2.28E-06,0.018460001
,,,-2.27E-06,0.018278126
,,,-2.26E-06,0.018389376
,,,-2.25E-06,0.018217501
,,,-2.24E-06,0.018393126
,,,-2.23E-06,0.018121876
,,,-2.22E-06,0.018291251
,,,-2.21E-06,0.018219376
,,,-2.2E-06,0.018307501
,,,-2.19E-06,0.018306876
,,,-2.18E-06,0.018322501
,,,-2.17E-06,0.018197501
,,,-2.16E-06,0.018247501
,,,-2.15E-06,0.018223751
,,,-2.14E-06,0.018317501
,,,-2.13E-06,0.018343126
,,,-2.12E-06,0.018190001
,,,-2.11E-06,0.018261876
,,,-2.1E-06,0.018381876
,,,-2.09E-06,0.018351876
,,,-2.08E-06,0.018230626
,,,-2.07E-06,0.018295626
,,,-2.06E-06,0.018166876
,,,-2.05E-06,0.018390001
,,,-2.04E-06,0.018356876
,,,-2.03E-06,0.018285001
,,,-2.02E-06,0.018273751
,,,-2.01E-06,0.018245001
,,,-2E-06,0.018366251
,,,-1.99E-06,0.018523751
,,,-1.98E-06,0.018163126
,,,-1.97E-06,0.018635001
,,,-1.96E-06,0.018397501
,,,-1.95E-06,0.018360001
,,,-1.94E-06,0.018226876
,,,-1.93E-06,0.018216251
,,,-1.92E-06,0.018556251
,,,-1.91E-06,0.018233126
,,,-1.9E-06,0.018250001
,,,-1.89E-06,0.018428751
,,,-1.88E-06,0.018308126
,,,-1.87E-06,0.018295001
,,,-1.86E-06,0.018245001
,,,-1.85E-06,0.018110001
,,,-1.84E-06,0.018057501
,,,-1.83E-06,0.018460001
,,,-1.82E-06,0.018280626
,,,-1.81E-06,0.018541876
,,,-1.8E-06,0.018358126
,,,-1.79E-06,0.018345001
,,,-1.78E-06,0.018256876
,,,-1.77E-06,0.018146251
,,,-1.76E-06,0.018265626
,,,-1.75E-06,0.018103751
,,,-1.74E-06,0.018226876
,,,-1.73E-06,0.018059376
,,,-1.72E-06,0.018227501
,,,-1.71E-06,0.018359376
,,,-1.7E-06,0.018389376
,,,-1.69E-06,0.018365001
,,,-1.68E-06,0.018015626
,,,-1.67E-06,0.018069376
,,,-1.66E-06,0.018350001
,,,-1.65E-06,0.018331876
,,,-1.64E-06,0.018193751
,,,-1.63E-06,0.018208751
,,,-1.62E-06,0.018352501
,,,-1.61E-06,0.018257501
,,,-1.6E-06,0.018458126
,,,-1.59E-06,0.018595001
,,,-1.58E-06,0.018206251
,,,-1.57E-06,0.018433126
,,,-1.56E-06,0.018626251
,,,-1.55E-06,0.018306251
,,,-1.54E-06,0.018450626
,,,-1.53E-06,0.018413126
,,,-1.52E-06,0.018233751
,,,-1.51E-06,0.018205001
,,,-1.5E-06,0.018329376
,,,-1.49E-06,0.018193126
,,,-1.48E-06,0.017865001
,,,-1.47E-06,0.018230626
,,,-1.46E-06,0.018226876
,,,-1.45E-06,0.018390001
,,,-1.44E-06,0.018348751
,,,-1.43E-06,0.018405626
,,,-1.42E-06,0.018408126
,,,-1.41E-06,0.018143126
,,,-1.4E-06,0.018395626
,,,-1.39E-06,0.018367501
,,,-1.38E-06,0.018126251
,,,-1.37E-06,0.018256876
,,,-1.36E-06,0.018283751
,,,-1.35E-06,0.018461876
,,,-1.34E-06,0.018161876
,,,-1.33E-06,0.018178126
,,,-1.32E-06,0.018223126
,,,-1.31E-06,0.018269376
,,,-1.3E-06,0.018433126
,,,-1.29E-06,0.018170626
,,,-1.28E-06,0.018324376
,,,-1.27E-06,0.018464376
,,,-1.26E-06,0.018561251
,,,-1.25E-06,0.018110626
,,,-1.24E-06,0.018187501
,,,-1.23E-06,0.018279376
,,,-1.22E-06,0.018463751
,,,-1.21E-06,0.018214376
,,,-1.2E-06,0.018430001
,,,-1.19E-06,0.018146876
,,,-1.18E-06,0.018113751
,,,-1.17E-06,0.018313126
,,,-1.16E-06,0.018510626
,,,-1.15E-06,0.018195626
,,,-1.14E-06,0.018320001
,,,-1.13E-06,0.018541876
,,,-1.12E-06,0.018452501
,,,-1.11E-06,0.018361251
,,,-1.1E-06,0.018070626
,,,-1.09E-06,0.018360626
,,,-1.08E-06,0.018435001
,,,-1.07E-06,0.018362501
,,,-1.06E-06,0.018175001
,,,-1.05E-06,0.018184376
,,,-1.04E-06,0.018338126
,,,-1.03E-06,0.018141876
,,,-1.02E-06,0.018201876
,,,-1.01E-06,0.018181251
,,,-1E-06,0.018241876
,,,-9.9E-07,0.018095001
,,,-9.8E-07,0.018325001
,,,-9.7E-07,0.018060001
,,,-9.6E-07,0.018412501
,,,-9.5E-07,0.018448751
,,,-9.4E-07,0.018211876
,,,-9.3E-07,0.018251251
,,,-9.2E-07,0.018278751
,,,-9.1E-07,0.018145626
,,,-9E-07,0.018312501
,,,-8.9E-07,0.018085626
,,,-8.8E-07,0.018348751
,,,-8.7E-07,0.018491251
,,,-8.6E-07,0.018243126
,,,-8.5E-07,0.018375001
,,,-8.4E-07,0.018008751
,,,-8.3E-07,0.018403751
,,,-8.2E-07,0.018422501
,,,-8.1E-07,0.018365626
,,,-8E-07,0.018283126
,,,-7.9E-07,0.018411251
,,,-7.8E-07,0.018181876
,,,-7.7E-07,0.018190626
,,,-7.6E-07,0.018217501
,,,-7.5E-07,0.018281251
,,,-7.4E-07,0.018253126
,,,-7.3E-07,0.018393126
,,,-7.2E-07,0.018535001
,,,-7.1E-07,0.018399376
,,,-7E-07,0.018303126
,,,-6.9E-07,0.018160001
,,,-6.8E-07,0.018251251
,,,-6.7E-07,0.018411876
,,,-6.6E-07,0.018303751
,,,-6.5E-07,0.018362501
,,,-6.4E-07,0.018498126
,,,-6.3E-07,0.018160001
,,,-6.2E-07,0.018219376
,,,-6.1E-07,0.018382501
,,,-6E-07,0.018324376
,,,-5.9E-07,0.018296251
,,,-5.8E-07,0.018036251
,,,-5.7E-07,0.018360626
,,,-5.6E-07,0.018462501
,,,-5.5E-07,0.018391876
,,,-5.4E-07,0.018181251
,,,-5.3E-07,0.018066876
,,,-5.2E-07,0.018285001
,,,-5.1E-07,0.018220001
,,,-5E-07,0.018420626
,,,-4.9E-07,0.018333126
,,,-4.8E-07,0.018103751
,,,-4.7E-07,0.018201251
,,,-4.6E-07,0.018360626
,,,-4.5E-07,0.018346876
,,,-4.4E-07,0.018350001
,,,-4.3E-07,0.018283751
,,,-4.2E-07,0.018481876
,,,-4.1E-07,0.018254376
,,,-4E-07,0.018240001
,,,-3.9E-07,0.018225626
,,,-3.8E-07,0.018458751
,,,-3.7E-07,0.018509376
,,,-3.6E-07,0.018450001
,,,-3.5E-07,0.018327501
,,,-3.4E-07,0.018062501
,,,-3.3E-07,0.018328751
,,,-3.2E-07,0.018170001
,,,-3.1E-07,0.018280001
,,,-3E-07,0.018244376
,,,-2.9E-07,0.018303751
,,,-2.8E-07,0.018508751
,,,-2.7E-07,0.018218751
,,,-2.6E-07,0.018345001
,,,-2.5E-07,0.018280001
,,,-2.4E-07,0.018225001
,,,-2.3E-07,0.018262501
,,,-2.2E-07,0.018578126
,,,-2.1E-07,0.018266876
,,,-2E-07,0.018230001
,,,-1.9E-07,0.018100001
,,,-1.8E-07,0.018378751
,,,-1.7E-07,0.018388751
,,,-1.6E-07,0.017973126
,,,-1.5E-07,0.018246251
,,,-1.4E-07,0.018239376
,,,-1.3E-07,0.018090001
,,,-1.2E-07,0.018343751
,,,-1.1E-07,0.018241876
,,,-1E-07,0.018262501
,,,-9E-08,0.018071876
,,,-8E-08,0.018483126
,,,-7E-08,0.018341251
,,,-6E-08,0.018405001
,,,-5E-08,0.018625626
,,,-4E-08,0.018813126
,,,-3E-08,0.018478751
,,,-2E-08,0.018048751
,,,-1E-08,0.017521876
,,,0,0.018037501
,,,1E-08,0.018787501
,,,2E-08,0.019259376
,,,3E-08,0.019043126
,,,4E-08,0.017582501
,,,5E-08,0.017752501
,,,6E-08,0.017421251
,,,7E-08,0.018492501
,,,8E-08,0.018811251
,,,9E-08,0.018882501
,,,1E-07,0.018658751
,,,1.1E-07,0.018340626
,,,1.2E-07,0.017844376
,,,1.3E-07,0.017780626
,,,1.4E-07,0.018345626
,,,1.5E-07,0.018311251
,,,1.6E-07,0.018656876
,,,1.7E-07,0.018230626
,,,1.8E-07,0.018458126
,,,1.9E-07,0.018008751
,,,2E-07,0.018188126
,,,2.1E-07,0.017978126
,,,2.2E-07,0.018173126
,,,2.3E-07,0.018436251
,,,2.4E-07,0.018248126
,,,2.5E-07,0.018181876
,,,2.6E-07,0.018134376
,,,2.7E-07,0.018382501
,,,2.8E-07,0.018114376
,,,2.9E-07,0.018278751
,,,3E-07,0.018274376
,,,3.1E-07,0.018271251
,,,3.2E-07,0.018307501
,,,3.3E-07,0.018276251
,,,3.4E-07,0.018321251
,,,3.5E-07,0.018255001
,,,3.6E-07,0.018248126
,,,3.7E-07,0.018343751
,,,3.8E-07,0.018232501
,,,3.9E-07,0.018298126
,,,4E-07,0.018090626
,,,4.1E-07,0.018181876
,,,4.2E-07,0.018359376
,,,4.3E-07,0.018323126
,,,4.4E-07,0.018425626
,,,4.5E-07,0.018587501
,,,4.6E-07,0.018255001
,,,4.7E-07,0.018243751
,,,4.8E-07,0.018145001
,,,4.9E-07,0.018177501
,,,5E-07,0.018366251
,,,5.1E-07,0.018126876
,,,5.2E-07,0.018218751
,,,5.3E-07,0.018253751
,,,5.4E-07,0.018481251
,,,5.5E-07,0.018368751
,,,5.6E-07,0.018212501
,,,5.7E-07,0.018290001
,,,5.8E-07,0.018455001
,,,5.9E-07,0.018286876
,,,6E-07,0.018255001
,,,6.1E-07,0.018373126
,,,6.2E-07,0.018225001
,,,6.3E-07,0.018284376
,,,6.4E-07,0.018535626
,,,6.5E-07,0.018386876
,,,6.6E-07,0.018242501
,,,6.7E-07,0.018313751
,,,6.8E-07,0.018242501
,,,6.9E-07,0.018167501
,,,7E-07,0.018335626
,,,7.1E-07,0.018351876
,,,7.2E-07,0.018346251
,,,7.3E-07,0.018155001
,,,7.4E-07,0.018168751
,,,7.5E-07,0.018237501
,,,7.6E-07,0.018240626
,,,7.7E-07,0.018361251
,,,7.8E-07,0.018413751
,,,7.9E-07,0.018156251
,,,8E-07,0.018230001
,,,8.1E-07,0.018157501
,,,8.2E-07,0.018437501
,,,8.3E-07,0.018567501
,,,8.4E-07,0.018175001
,,,8.5E-07,0.018234376
,,,8.6E-07,0.018485001
,,,8.7E-07,0.018262501
,,,8.8E-07,0.018341251
,,,8.9E-07,0.018323751
,,,9E-07,0.018247501
,,,9.1E-07,0.018311251
,,,9.2E-07,0.018291251
,,,9.3E-07,0.018254376
,,,9.4E-07,0.018288126
,,,9.5E-07,0.018095001
,,,9.6E-07,0.018045001
,,,9.7E-07,0.018117501
,,,9.8E-07,0.018455626
,,,9.9E-07,0.018420001
,,,1E-06,0.018385001
,,,1.01E-06,0.018190001
,,,1.02E-06,0.018141876
,,,1.03E-06,0.018500001
,,,1.04E-06,0.018427501
,,,1.05E-06,0.018342501
,,,1.06E-06,0.018197501
,,,1.07E-06,0.018182501
,,,1.08E-06,0.018238751
,,,1.09E-06,0.018410001
,,,1.1E-06,0.018398126
,,,1.11E-06,0.018601251
,,,1.12E-06,0.018378751
,,,1.13E-06,0.018410001
,,,1.14E-06,0.018383126
,,,1.15E-06,0.018252501
,,,1.16E-06,0.018633751
,,,1.17E-06,0.018371876
,,,1.18E-06,0.018276251
,,,1.19E-06,0.018137501
,,,1.2E-06,0.018508751
,,,1.21E-06,0.018141251
,,,1.22E-06,0.018237501
,,,1.23E-06,0.018105001
,,,1.24E-06,0.018281876
,,,1.25E-06,0.018205626
,,,1.26E-06,0.018421251
,,,1.27E-06,0.018141251
,,,1.28E-06,0.018435001
,,,1.29E-06,0.018250626
,,,1.3E-06,0.018256876
,,,1.31E-06,0.018469376
,,,1.32E-06,0.018185626
,,,1.33E-06,0.018484376
,,,1.34E-06,0.018130626
,,,1.35E-06,0.017983126
,,,1.36E-06,0.018298126
,,,1.37E-06,0.018403751
,,,1.38E-06,0.018185001
,,,1.39E-06,0.018239376
,,,1.4E-06,0.018306251
,,,1.41E-06,0.018550626
,,,1.42E-06,0.018260626
,,,1.43E-06,0.018213126
,,,1.44E-06,0.018176876
,,,1.45E-06,0.018121876
,,,1.46E-06,0.018356251
,,,1.47E-06,0.018564376
,,,1.48E-06,0.017946251
,,,1.49E-06,0.018313751
,,,1.5E-06,0.018336251
,,,1.51E-06,0.018316876
,,,1.52E-06,0.018014376
,,,1.53E-06,0.018483126
,,,1.54E-06,0.018063751
,,,1.55E-06,0.018175626
,,,1.56E-06,0.018438751
,,,1.57E-06,0.018064376
,,,1.58E-06,0.018250001
,,,1.59E-06,0.018478126
,,,1.6E-06,0.018405626
,,,1.61E-06,0.018250001
,,,1.62E-06,0.018575001
,,,1.63E-06,0.018359376
,,,1.64E-06,0.018555626
,,,1.65E-06,0.018555626
,,,1.66E-06,0.018377501
,,,1.67E-06,0.018316876
,,,1.68E-06,0.018339376
,,,1.69E-06,0.018274376
,,,1.7E-06,0.018493751
,,,1.71E-06,0.018536876
,,,1.72E-06,0.018218751
,,,1.73E-06,0.018377501
,,,1.74E-06,0.018270626
,,,1.75E-06,0.018193751
,,,1.76E-06,0.018317501
,,,1.77E-06,0.018225001
,,,1.78E-06,0.018007501
,,,1.79E-06,0.018441251
,,,1.8E-06,0.018303751
,,,1.81E-06,0.018308751
,,,1.82E-06,0.018703751
,,,1.83E-06,0.018323126
,,,1.84E-06,0.018465001
,,,1.85E-06,0.018345626
,,,1.86E-06,0.018263126
,,,1.87E-06,0.018316876
,,,1.88E-06,0.018563126
,,,1.89E-06,0.018023126
,,,1.9E-06,0.018366876
,,,1.91E-06,0.018285001
,,,1.92E-06,0.018238751
,,,1.93E-06,0.017996251
,,,1.94E-06,0.018407501
,,,1.95E-06,0.018135626
,,,1.96E-06,0.018112501
,,,1.97E-06,0.018138126
,,,1.98E-06,0.018176251
,,,1.99E-06,0.018431251
,,,2E-06,0.018198751
,,,2.01E-06,0.018511876
,,,2.02E-06,0.018405001
,,,2.03E-06,0.018156251
,,,2.04E-06,0.018139376
,,,2.05E-06,0.018494376
,,,2.06E-06,0.018428751
,,,2.07E-06,0.018432501
,,,2.08E-06,0.018343751
,,,2.09E-06,0.018360626
,,,2.1E-06,0.018476251
,,,2.11E-06,0.018460626
,,,2.12E-06,0.018305001
,,,2.13E-06,0.018214376
,,,2.14E-06,0.018323126
,,,2.15E-06,0.018331251
,,,2.16E-06,0.018529376
,,,2.17E-06,0.018422501
,,,2.18E-06,0.018444376
,,,2.19E-06,0.018346251
,,,2.2E-06,0.018275001
,,,2.21E-06,0.018363751
,,,2.22E-06,0.018192501
,,,2.23E-06,0.018415626
,,,2.24E-06,0.018391876
,,,2.25E-06,0.018496876
,,,2.26E-06,0.018321876
,,,2.27E-06,0.018326251
,,,2.28E-06,0.018237501
,,,2.29E-06,0.018306251
,,,2.3E-06,0.018111251
,,,2.31E-06,0.018335626
,,,2.32E-06,0.018224376
,,,2.33E-06,0.018357501
,,,2.34E-06,0.018285626
,,,2.35E-06,0.018386876
,,,2.36E-06,0.018299376
,,,2.37E-06,0.018357501
,,,2.38E-06,0.018278126
,,,2.39E-06,0.018255626
,,,2.4E-06,0.018189376
,,,2.41E-06,0.018433751
,,,2.42E-06,0.018316251
,,,2.43E-06,0.017990626
,,,2.44E-06,0.018221251
,,,2.45E-06,0.018419376
,,,2.46E-06,0.018126876
,,,2.47E-06,0.018273751
,,,2.48E-06,0.018507501
,,,2.49E-06,0.018276876
,,,2.5E-06,0.018335001
,,,2.51E-06,0.018123126
,,,2.52E-06,0.018172501
,,,2.53E-06,0.018158751
,,,2.54E-06,0.018326876
,,,2.55E-06,0.018115626
,,,2.56E-06,0.018341251
,,,2.57E-06,0.018184376
,,,2.58E-06,0.018345001
,,,2.59E-06,0.018465001
,,,2.6E-06,0.018441876
,,,2.61E-06,0.018430001
,,,2.62E-06,0.018398751
,,,2.63E-06,0.018325001
,,,2.64E-06,0.018208126
,,,2.65E-06,0.018458751
,,,2.66E-06,0.018303126
,,,2.67E-06,0.018603751
,,,2.68E-06,0.017923126
,,,2.69E-06,0.018057501
,,,2.7E-06,0.018373126
,,,2.71E-06,0.018210001
,,,2.72E-06,0.018139376
,,,2.73E-06,0.018346251
,,,2.74E-06,0.018442501
,,,2.75E-06,0.018268126
,,,2.76E-06,0.018204376
,,,2.77E-06,0.018195626
,,,2.78E-06,0.018396251
,,,2.79E-06,0.018452501
,,,2.8E-06,0.018203126
,,,2.81E-06,0.018354376
,,,2.82E-06,0.018500626
,,,2.83E-06,0.018146251
,,,2.84E-06,0.018307501
,,,2.85E-06,0.018321876
,,,2.86E-06,0.018279376
,,,2.87E-06,0.018087501
,,,2.88E-06,0.018300001
,,,2.89E-06,0.018345626
,,,2.9E-06,0.018391876
,,,2.91E-06,0.018421876
,,,2.92E-06,0.018156876
,,,2.93E-06,0.018432501
,,,2.94E-06,0.018389376
,,,2.95E-06,0.018205001
,,,2.96E-06,0.018238751
,,,2.97E-06,0.018446251
,,,2.98E-06,0.018428126
,,,2.99E-06,0.018122501
,,,3E-06,0.018375001
,,,3.01E-06,0.018394376
,,,3.02E-06,0.018278751
,,,3.03E-06,0.018136876
,,,3.04E-06,0.018435001
,,,3.05E-06,0.018431251
,,,3.06E-06,0.018303751
,,,3.07E-06,0.018061251
,,,3.08E-06,0.018568751
,,,3.09E-06,0.018066876
,,,3.1E-06,0.018285626
,,,3.11E-06,0.018062501
,,,3.12E-06,0.018508751
,,,3.13E-06,0.018119376
,,,3.14E-06,0.018201876
,,,3.15E-06,0.018159376
,,,3.16E-06,0.018380001
,,,3.17E-06,0.018335626
,,,3.18E-06,0.018366876
,,,3.19E-06,0.018338126
,,,3.2E-06,0.018439376
,,,3.21E-06,0.018576876
