data/raw/Final_POL_Test_1/SOP014_Ch4.csv

"Record Length",1000,"Points",-5E-06,0.0159625
"Sample Interval",1E-08,s,-4.99E-06,0.015966875
"Trigger Point",500,"Samples",-4.98E-06,0.01626875
"Trigger Time",0,s,-4.97E-06,0.0159175
"",,,-4.96E-06,0.0157625
"Horizontal Offset",-5E-06,s,-4.95E-06,0.01586125
,,,-4.94E-06,0.01572125
,,,-4.93E-06,0.015875
,,,-4.92E-06,0.015974375
,,,-4.91E-06,0.0158725
,,,-4.9E-06,0.01580875
,,,-4.89E-06,0.015890625
,,,-4.88E-06,0.015969375
,,,-4.87E-06,0.015615
,,,-4.86E-06,0.016183125
,,,-4.85E-06,0.0159175
,,,-4.84E-06,0.01599875
,,,-4.83E-06,0.0158725
,,,-4.82E-06,0.016155625
,,,-4.81E-06,0.015963125
,,,-4.8E-06,0.01582
,,,-4.79E-06,0.015819375
,,,-4.78E-06,0.01588125
,,,-4.77E-06,0.016088125
,,,-4.76E-06,0.015985
,,,-4.75E-06,0.015834375
,,,-4.74E-06,0.016166875
,,,-4.73E-06,0.01601625
,,,-4.72E-06,0.0160025
,,,-4.71E-06,0.015815
,,,-4.7E-06,0.0158375
,,,-4.69E-06,0.015964375
,,,-4.68E-06,0.015693125
,,,-4.67E-06,0.015886875
,,,-4.66E-06,0.015975
,,,-4.65E-06,0.015863125
,,,-4.64E-06,0.0158525
,,,-4.63E-06,0.015618125
,,,-4.62E-06,0.015640625
,,,-4.61E-06,0.0158875
,,,-4.6E-06,0.01565
,,,-4.59E-06,0.0160425
,,,-4.58E-06,0.015894375
,,,-4.57E-06,0.01583375
,,,-4.56E-06,0.01605
,,,-4.55E-06,0.01604
,,,-4.54E-06,0.01581
,,,-4.53E-06,0.01578875
,,,-4.52E-06,0.0160275
,,,-4.51E-06,0.01602625
,,,-4.5E-06,0.01602625
,,,-4.49E-06,0.0158175
,,,-4.48E-06,0.0159925
,,,-4.47E-06,0.015916875
,,,-4.46E-06,0.01594
,,,-4.45E-06,0.01586
,,,-4.44E-06,0.015905625
,,,-4.43E-06,0.015995
,,,-4.42E-06,0.01608
,,,-4.41E-06,0.015794375
,,,-4.4E-06,0.015915625
,,,-4.39E-06,0.015935625
,,,-4.38E-06,0.015796875
,,,-4.37E-06,0.01588375
,,,-4.36E-06,0.015963125
,,,-4.35E-06,0.016088125
,,,-4.34E-06,0.016043125
,,,-4.33E-06,0.016018125
,,,-4.32E-06,0.01589
,,,-4.31E-06,0.0158925
,,,-4.3E-06,0.01587375
,,,-4.29E-06,0.016008125
,,,-4.28E-06,0.015809375
,,,-4.27E-06,0.015903125
,,,-4.26E-06,0.0157675
,,,-4.25E-06,0.015775625
,,,-4.24E-06,0.0158625
,,,-4.23E-06,0.01602375
,,,-4.22E-06,0.015821875
,,,-4.21E-06,0.01593375
,,,-4.2E-06,0.01558
,,,-4.19E-06,0.01589625
,,,-4.18E-06,0.015886875
,,,-4.17E-06,0.015869375
,,,-4.16E-06,0.01607625
,,,-4.15E-06,0.015945625
,,,-4.14E-06,0.015903125
,,,-4.13E-06,0.0161725
,,,-4.12E-06,0.015873125
,,,-4.11E-06,0.015969375
,,,-4.1E-06,0.015970625
,,,-4.09E-06,0.015859375
,,,-4.08E-06,0.015919375
,,,-4.07E-06,0.015584375
,,,-4.06E-06,0.01585125
,,,-4.05E-06,0.016293125
,,,-4.04E-06,0.016105625
,,,-4.03E-06,0.016028125
,,,-4.02E-06,0.01574
,,,-4.01E-06,0.015805
,,,-4E-06,0.015861875
,,,-3.99E-06,0.016061875
,,,-3.98E-06,0.016275625
,,,-3.97E-06,0.015865625
,,,-3.96E-06,0.015964375
,,,-3.95E-06,0.015913125
,,,-3.94E-06,0.015831875
,,,-3.93E-06,0.016098125
,,,-3.92E-06,0.0160075
,,,-3.91E-06,0.015973125
,,,-3.9E-06,0.016085
,,,-3.89E-06,0.015944375
,,,-3.88E-06,0.015944375
,,,-3.87E-06,0.0159525
,,,-3.86E-06,0.015984375
,,,-3.85E-06,0.015869375
,,,-3.84E-06,0.01598
,,,-3.83E-06,0.015918125
,,,-3.82E-06,0.01598625
,,,-3.81E-06,0.015994375
,,,-3.8E-06,0.016011875
,,,-3.79E-06,0.01559
,,,-3.78E-06,0.0159875
,,,-3.77E-06,0.015900625
,,,-3.76E-06,0.015995
,,,-3.75E-06,0.015915
,,,-3.74E-06,0.016069375
,,,-3.73E-06,0.01605125
,,,-3.72E-06,0.0157675
,,,-3.71E-06,0.0158675
,,,-3.7E-06,0.015766875
,,,-3.69E-06,0.0159175
,,,-3.68E-06,0.015868125
,,,-3.67E-06,0.015890625
,,,-3.66E-06,0.015695
,,,-3.65E-06,0.015843125
,,,-3.64E-06,0.015958125
,,,-3.63E-06,0.015806875
,,,-3.62E-06,0.01579
,,,-3.61E-06,0.015996875
,,,-3.6E-06,0.016068125
,,,-3.59E-06,0.0160125
,,,-3.58E-06,0.016063125
,,,-3.57E-06,0.015924375
,,,-3.56E-06,0.01595
,,,-3.55E-06,0.015879375
,,,-3.54E-06,0.016
,,,-3.53E-06,0.01582375
,,,-3.52E-06,0.0158375
,,,-3.51E-06,0.01614
,,,-3.5E-06,0.016134375
,,,-3.49E-06,0.01567125
,,,-3.48E-06,0.015616875
,,,-3.47E-06,0.015844375
,,,-3.46E-06,0.015845625
,,,-3.45E-06,0.016173125
,,,-3.44E-06,0.016125
,,,-3.43E-06,0.015923125
,,,-3.42E-06,0.01602
,,,-3.41E-06,0.015954375
,,,-3.4E-06,0.016060625
,,,-3.39E-06,0.016075
,,,-3.38E-06,0.015923125
,,,-3.37E-06,0.01608125
,,,-3.36E-06,0.01588375
,,,-3.35E-06,0.01604375
,,,-3.34E-06,0.01590625
,,,-3.33E-06,0.01598375
,,,-3.32E-06,0.01588625
,,,-3.31E-06,0.01582
,,,-3.3E-06,0.015754375
,,,-3.29E-06,0.015746875
,,,-3.28E-06,0.015790625
,,,-3.27E-06,0.01567125
,,,-3.26E-06,0.015774375
,,,-3.25E-06,0.016125625
,,,-3.24E-06,0.01594
,,,-3.23E-06,0.016105
,,,-3.22E-06,0.015819375
,,,-3.21E-06,0.0157525
,,,-3.2E-06,0.01594
,,,-3.19E-06,0.01575125
,,,-3.18E-06,0.01555875
,,,-3.17E-06,0.016030625
,,,-3.16E-06,0.0159525
,,,-3.15E-06,0.016153125
,,,-3.14E-06,0.015811875
,,,-3.13E-06,0.01593625
,,,-3.12E-06,0.015958125
,,,-3.11E-06,0.01577
,,,-3.1E-06,0.0156375
,,,-3.09E-06,0.015904375
,,,-3.08E-06,0.016028125
,,,-3.07E-06,0.016181875
,,,-3.06E-06,0.015940625
,,,-3.05E-06,0.015775
,,,-3.04E-06,0.01586
,,,-3.03E-06,0.015724375
,,,-3.02E-06,0.0161975
,,,-3.01E-06,0.015991875
,,,-3E-06,0.0158675
,,,-2.99E-06,0.0161625
,,,-2.98E-06,0.01605875
,,,-2.97E-06,0.01601625
,,,-2.96E-06,0.01579
,,,-2.95E-06,0.016091875
,,,-2.94E-06,0.0157825
,,,-2.93E-06,0.01587625
,,,-2.92E-06,0.0161325
,,,-2.91E-06,0.0160925
,,,-2.9E-06,0.015818125
,,,-2.89E-06,0.0157525
,,,-2.88E-06,0.0159
,,,-2.87E-06,0.01612
,,,-2.86E-06,0.016141875
,,,-2.85E-06,0.015928125
,,,-2.84E-06,0.015973125
,,,-2.83E-06,0.01618625
,,,-2.82E-06,0.015859375
,,,-2.81E-06,0.01584375
,,,-2.8E-06,0.015598125
,,,-2.79E-06,0.016045
,,,-2.78E-06,0.01610375
,,,-2.77E-06,0.01579875
,,,-2.76E-06,0.015960625
,,,-2.75E-06,0.016263125
,,,-2.74E-06,0.016034375
,,,-2.73E-06,0.01584375
,,,-2.72E-06,0.015898125
,,,-2.71E-06,0.01585625
,,,-2.7E-06,0.015859375
,,,-2.69E-06,0.015906875
,,,-2.68E-06,0.015876875
,,,-2.67E-06,0.016069375
,,,-2.66E-06,0.016113125
,,,-2.65E-06,0.016006875
,,,-2.64E-06,0.0162425
,,,-2.63E-06,0.015953125
,,,-2.62E-06,0.0157025
,,,-2.61E-06,0.0159775
,,,-2.6E-06,0.01612
,,,-2.59E-06,0.0160375
,,,-2.58E-06,0.016045625
,,,-2.57E-06,0.015960625
,,,-2.56E-06,0.01564625
,,,-2.55E-06,0.01599375
,,,-2.54E-06,0.01576125
,,,-2.53E-06,0.015946875
,,,-2.52E-06,0.015931875
,,,-2.51E-06,0.01612625
,,,-2.5E-06,0.01594625
,,,-2.49E-06,0.016079375
,,,-2.48E-06,0.016144375
,,,-2.47E-06,0.015905625
,,,-2.46E-06,0.01565625
,,,-2.45E-06,0.01608
,,,-2.44E-06,0.0158575
,,,-2.43E-06,0.015985
,,,-2.42E-06,0.015976875
,,,-2.41E-06,0.015795625
,,,-2.4E-06,0.016134375
,,,-2.39E-06,0.01606875
,,,-2.38E-06,0.015765
,,,-2.37E-06,0.01574625
,,,-2.36E-06,0.015844375
,,,-2.35E-06,0.015770625
,,,-2.34E-06,0.01600625
,,,-2.33E-06,0.01592
,,,-2.32E-06,0.01595375
,,,-2.31E-06,0.016094375
,,,-2.3E-06,0.016035625
,,,-2.29E-06,0.01601625
,,,-2.28E-06,0.0159125
,,,-2.27E-06,0.01610375
,,,-2.26E-06,0.015859375
,,,-2.25E-06,0.016124375
,,,-2.24E-06,0.01599
,,,-2.23E-06,0.015949375
,,,-2.22E-06,0.01568
,,,-2.21E-06,0.015848125
,,,-2.2E-06,0.015990625
,,,-2.19E-06,0.016084375
,,,-2.18E-06,0.01611875
,,,-2.17E-06,0.015815625
,,,-2.16E-06,0.016038125
,,,-2.15E-06,0.015790625
,,,-2.14E-06,0.016041875
,,,-2.13E-06,0.0158375
,,,-2.12E-06,0.016023125
,,,-2.11E-06,0.015974375
,,,-2.1E-06,0.01611125
,,,-2.09E-06,0.01605875
,,,-2.08E-06,0.015995625
,,,-2.07E-06,0.016035
,,,-2.06E-06,0.015840625
,,,-2.05E-06,0.0158175
,,,-2.04E-06,0.015956875
,,,-2.03E-06,0.016013125
,,,-2.02E-06,0.0161
,,,-2.01E-06,0.015706875
,,,-2E-06,0.015593125
,,,-1.99E-06,0.015819375
,,,-1.98E-06,0.016095
,,,-1.97E-06,0.0161425
,,,-1.96E-06,0.015975625
,,,-1.95E-06,0.016105
,,,-1.94E-06,0.016126875
,,,-1.93E-06,0.01571375
,,,-1.92E-06,0.0160125
,,,-1.91E-06,0.01592125
,,,-1.9E-06,0.015975
,,,-1.89E-06,0.01593125
,,,-1.88E-06,0.0158375
,,,-1.87E-06,0.015779375
,,,-1.86E-06,0.016049375
,,,-1.85E-06,0.016069375
,,,-1.84E-06,0.015933125
,,,-1.83E-06,0.0161025
,,,-1.82E-06,0.0158175
,,,-1.81E-06,0.016186875
,,,-1.8E-06,0.0157975
,,,-1.79E-06,0.01590625
,,,-1.78E-06,0.01575
,,,-1.77E-06,0.015958125
,,,-1.76E-06,0.016065625
,,,-1.75E-06,0.01596625
,,,-1.74E-06,0.0158925
,,,-1.73E-06,0.015958125
,,,-1.72E-06,0.015765
,,,-1.71E-06,0.0162025
,,,-1.7E-06,0.0159625
,,,-1.69E-06,0.015926875
,,,-1.68E-06,0.015788125
,,,-1.67E-06,0.01619125
,,,-1.66E-06,0.015964375
,,,-1.65E-06,0.0158975
,,,-1.64E-06,0.015908125
,,,-1.63E-06,0.016120625
,,,-1.62E-06,0.015921875
,,,-1.61E-06,0.016000625
,,,-1.6E-06,0.015761875
,,,-1.59E-06,0.015969375
,,,-1.58E-06,0.01597625
,,,-1.57E-06,0.01566875
,,,-1.56E-06,0.016000625
,,,-1.55E-06,0.015878125
,,,-1.54E-06,0.01617875
,,,-1.53E-06,0.01588125
,,,-1.52E-06,0.0158125
,,,-1.51E-06,0.015714375
,,,-1.5E-06,0.016155625
,,,-1.49E-06,0.015734375
,,,-1.48E-06,0.0159675
,,,-1.47E-06,0.015764375
,,,-1.46E-06,0.016043125
,,,-1.45E-06,0.015773125
,,,-1.44E-06,0.016304375
,,,-1.43E-06,0.015935625
,,,-1.42E-06,0.016015625
,,,-1.41E-06,0.015961875
,,,-1.4E-06,0.01593875
,,,-1.39E-06,0.0156
,,,-1.38E-06,0.01607125
,,,-1.37E-06,0.016141875
,,,-1.36E-06,0.01598875
,,,-1.35E-06,0.016053125
,,,-1.34E-06,0.016095625
,,,-1.33E-06,0.015939375
,,,-1.32E-06,0.015993125
,,,-1.31E-06,0.015728125
,,,-1.3E-06,0.01575625
,,,-1.29E-06,0.01590875
,,,-1.28E-06,0.015606875
,,,-1.27E-06,0.015693125
,,,-1.26E-06,0.016059375
,,,-1.25E-06,0.0160525
,,,-1.24E-06,0.0160725
,,,-1.23E-06,0.015941875
,,,-1.22E-06,0.015704375
,,,-1.21E-06,0.015956875
,,,-1.2E-06,0.015839375
,,,-1.19E-06,0.016038125
,,,-1.18E-06,0.0162325
,,,-1.17E-06,0.01584625
,,,-1.16E-06,0.016134375
,,,-1.15E-06,0.015868125
,,,-1.14E-06,0.0157825
,,,-1.13E-06,0.016200625
,,,-1.12E-06,0.015999375
,,,-1.11E-06,0.016006875
,,,-1.1E-06,0.01596375
,,,-1.09E-06,0.01608
,,,-1.08E-06,0.015975625
,,,-1.07E-06,0.01581125
,,,-1.06E-06,0.01595125
,,,-1.05E-06,0.015945625
,,,-1.04E-06,0.015731875
,,,-1.03E-06,0.015993125
,,,-1.02E-06,0.015901875
,,,-1.01E-06,0.016026875
,,,-1E-06,0.0158025
,,,-9.9E-07,0.016038125
,,,-9.8E-07,0.016040625
,,,-9.7E-07,0.01578125
,,,-9.6E-07,0.01591
,,,-9.5E-07,0.0158475
,,,-9.4E-07,0.015985
,,,-9.3E-07,0.01584125
,,,-9.2E-07,0.0158725
,,,-9.1E-07,0.016210625
,,,-9E-07,0.01586
,,,-8.9E-07,0.015864375
,,,-8.8E-07,0.016135625
,,,-8.7E-07,0.0162025
,,,-8.6E-07,0.016075625
,,,-8.5E-07,0.016001875
,,,-8.4E-07,0.015835625
,,,-8.3E-07,0.015989375
,,,-8.2E-07,0.015935625
,,,-8.1E-07,0.01575875
,,,-8E-07,0.015928125
,,,-7.9E-07,0.01593875
,,,-7.8E-07,0.016
,,,-7.7E-07,0.0161025
,,,-7.6E-07,0.016045
,,,-7.5E-07,0.015844375
,,,-7.4E-07,0.015956875
,,,-7.3E-07,0.0156625
,,,-7.2E-07,0.015824375
,,,-7.1E-07,0.016085
,,,-7E-07,0.01603
,,,-6.9E-07,0.01594375
,,,-6.8E-07,0.016019375
,,,-6.7E-07,0.015881875
,,,-6.6E-07,0.01610125
,,,-6.5E-07,0.015951875
,,,-6.4E-07,0.0159525
,,,-6.3E-07,0.015905625
,,,-6.2E-07,0.01588375
,,,-6.1E-07,0.01604625
,,,-6E-07,0.015883125
,,,-5.9E-07,0.016161875
,,,-5.8E-07,0.016148125
,,,-5.7E-07,0.015784375
,,,-5.6E-07,0.016001875
,,,-5.5E-07,0.015945625
,,,-5.4E-07,0.015973125
,,,-5.3E-07,0.01605125
,,,-5.2E-07,0.015895625
,,,-5.1E-07,0.015894375
,,,-5E-07,0.016111875
,,,-4.9E-07,0.015634375
,,,-4.8E-07,0.015844375
,,,-4.7E-07,0.016005625
,,,-4.6E-07,0.016063125
,,,-4.5E-07,0.016016875
,,,-4.4E-07,0.01587875
,,,-4.3E-07,0.016018125
,,,-4.2E-07,0.0159875
,,,-4.1E-07,0.01610625
,,,-4E-07,0.015971875
,,,-3.9E-07,0.015915
,,,-3.8E-07,0.015995625
,,,-3.7E-07,0.016135625
,,,-3.6E-07,0.015920625
,,,-3.5E-07,0.0158525
,,,-3.4E-07,0.015909375
,,,-3.3E-07,0.01611875
,,,-3.2E-07,0.016105625
,,,-3.1E-07,0.01599875
,,,-3E-07,0.0159925
,,,-2.9E-07,0.016136875
,,,-2.8E-07,0.016110625
,,,-2.7E-07,0.01594
,,,-2.6E-07,0.015746875
,,,-2.5E-07,0.015863125
,,,-2.4E-07,0.015803125
,,,-2.3E-07,0.01597
,,,-2.2E-07,0.016068125
,,,-2.1E-07,0.0158625
,,,-2E-07,0.0159075
,,,-1.9E-07,0.015851875
,,,-1.8E-07,0.016188125
,,,-1.7E-07,0.015846875
,,,-1.6E-07,0.015969375
,,,-1.5E-07,0.01618625
,,,-1.4E-07,0.015708125
,,,-1.3E-07,0.01590625
,,,-1.2E-07,0.0159475
,,,-1.1E-07,0.01571625
,,,-1E-07,0.015978125
,,,-9E-08,0.0159325
,,,-8E-08,0.0160875
,,,-7E-08,0.015670625
,,,-6E-08,0.01610375
,,,-5E-08,0.016045
,,,-4E-08,0.016893125
,,,-3E-08,0.01733125
,,,-2E-08,0.0146225
,,,-1E-08,0.0127775
,,,0,0.01329625
,,,1E-08,0.018636875
,,,2E-08,0.019516875
,,,3E-08,0.01859625
,,,4E-08,0.01506
,,,5E-08,0.01345
,,,6E-08,0.013254375
,,,7E-08,0.014954375
,,,8E-08,0.016524375
,,,9E-08,0.01789375
,,,1E-07,0.01784
,,,1.1E-07,0.0163725
,,,1.2E-07,0.015015
,,,1.3E-07,0.01446125
,,,1.4E-07,0.015385625
,,,1.5E-07,0.01632625
,,,1.6E-07,0.0166225
,,,1.7E-07,0.016565625
,,,1.8E-07,0.016219375
,,,1.9E-07,0.015880625
,,,2E-07,0.01605625
,,,2.1E-07,0.01578875
,,,2.2E-07,0.01588125
,,,2.3E-07,0.01589625
,,,2.4E-07,0.016063125
,,,2.5E-07,0.01627375
,,,2.6E-07,0.015925625
,,,2.7E-07,0.0160575
,,,2.8E-07,0.015946875
,,,2.9E-07,0.01578625
,,,3E-07,0.015505625
,,,3.1E-07,0.01566375
,,,3.2E-07,0.016115625
,,,3.3E-07,0.0162225
,,,3.4E-07,0.01595
,,,3.5E-07,0.01602375
,,,3.6E-07,0.01592625
,,,3.7E-07,0.015934375
,,,3.8E-07,0.016024375
,,,3.9E-07,0.016025625
,,,4E-07,0.015900625
,,,4.1E-07,0.016193125
,,,4.2E-07,0.015781875
,,,4.3E-07,0.015888125
,,,4.4E-07,0.016080625
,,,4.5E-07,0.015953125
,,,4.6E-07,0.0162225
,,,4.7E-07,0.015904375
,,,4.8E-07,0.015954375
,,,4.9E-07,0.01577625
,,,5E-07,0.016174375
,,,5.1E-07,0.01597375
,,,5.2E-07,0.0158575
,,,5.3E-07,0.01589875
,,,5.4E-07,0.01568
,,,5.5E-07,0.015706875
,,,5.6E-07,0.01596625
,,,5.7E-07,0.01582875
,,,5.8E-07,0.01593125
,,,5.9E-07,0.015846875
,,,6E-07,0.015869375
,,,6.1E-07,0.015634375
,,,6.2E-07,0.015909375
,,,6.3E-07,0.015806875
,,,6.4E-07,0.015925
,,,6.5E-07,0.016114375
,,,6.6E-07,0.0159225
,,,6.7E-07,0.0160675
,,,6.8E-07,0.01576625
,,,6.9E-07,0.01589
,,,7E-07,0.015664375
,,,7.1E-07,0.015796875
,,,7.2E-07,0.015878125
,,,7.3E-07,0.015910625
,,,7.4E-07,0.01599
,,,7.5E-07,0.015945
,,,7.6E-07,0.0155375
,,,7.7E-07,0.015906875
,,,7.8E-07,0.016093125
,,,7.9E-07,0.015766875
,,,8E-07,0.01572625
,,,8.1E-07,0.016178125
,,,8.2E-07,0.015735625
,,,8.3E-07,0.016170625
,,,8.4E-07,0.015830625
,,,8.5E-07,0.016103125
,,,8.6E-07,0.01583875
,,,8.7E-07,0.015903125
,,,8.8E-07,0.0158175
,,,8.9E-07,0.015920625
,,,9E-07,0.01598125
,,,9.1E-07,0.0160025
,,,9.2E-07,0.016055625
,,,9.3E-07,0.016010625
,,,9.4E-07,0.015869375
,,,9.5E-07,0.01615375
,,,9.6E-07,0.016151875
,,,9.7E-07,0.016085625
,,,9.8E-07,0.016075625
,,,9.9E-07,0.016088125
,,,1E-06,0.015971875
,,,1.01E-06,0.015844375
,,,1.02E-06,0.01572625
,,,1.03E-06,0.015690625
,,,1.04E-06,0.016106875
,,,1.05E-06,0.01580875
,,,1.06E-06,0.01590125
,,,1.07E-06,0.016210625
,,,1.08E-06,0.01626625
,,,1.09E-06,0.015754375
,,,1.1E-06,0.015886875
,,,1.11E-06,0.01602625
,,,1.12E-06,0.0159775
,,,1.13E-06,0.0162375
,,,1.14E-06,0.01612125
,,,1.15E-06,0.015925
,,,1.16E-06,0.016018125
,,,1.17E-06,0.015983125
,,,1.18E-06,0.015838125
,,,1.19E-06,0.01610125
,,,1.2E-06,0.015881875
,,,1.21E-06,0.0157925
,,,1.22E-06,0.016121875
,,,1.23E-06,0.01590875
,,,1.24E-06,0.015799375
,,,1.25E-06,0.015814375
,,,1.26E-06,0.01602875
,,,1.27E-06,0.01573
,,,1.28E-06,0.015784375
,,,1.29E-06,0.016036875
,,,1.3E-06,0.01601375
,,,1.31E-06,0.016265625
,,,1.32E-06,0.01615625
,,,1.33E-06,0.016125
,,,1.34E-06,0.01610875
,,,1.35E-06,0.015706875
,,,1.36E-06,0.0162625
,,,1.37E-06,0.015969375
,,,1.38E-06,0.015974375
,,,1.39E-06,0.01606125
,,,1.4E-06,0.01589125
,,,1.41E-06,0.0158375
,,,1.42E-06,0.0157925
,,,1.43E-06,0.015885625
,,,1.44E-06,0.016021875
,,,1.45E-06,0.015790625
,,,1.46E-06,0.01613
,,,1.47E-06,0.0162475
,,,1.48E-06,0.015824375
,,,1.49E-06,0.01586125
,,,1.5E-06,0.0158025
,,,1.51E-06,0.0160525
,,,1.52E-06,0.015950625
,,,1.53E-06,0.01584875
,,,1.54E-06,0.0156675
,,,1.55E-06,0.015715
,,,1.56E-06,0.016016875
,,,1.57E-06,0.016159375
,,,1.58E-06,0.015925
,,,1.59E-06,0.016088125
,,,1.6E-06,0.015885625
,,,1.61E-06,0.0159925
,,,1.62E-06,0.0158
,,,1.63E-06,0.016125625
,,,1.64E-06,0.016069375
,,,1.65E-06,0.015985
,,,1.66E-06,0.015985625
,,,1.67E-06,0.016015
,,,1.68E-06,0.015921875
,,,1.69E-06,0.01611875
,,,1.7E-06,0.015956875
,,,1.71E-06,0.015881875
,,,1.72E-06,0.016128125
,,,1.73E-06,0.015756875
,,,1.74E-06,0.015875625
,,,1.75E-06,0.016166875
,,,1.76E-06,0.015830625
,,,1.77E-06,0.016010625
,,,1.78E-06,0.015855
,,,1.79E-06,0.016095625
,,,1.8E-06,0.01591875
,,,1.81E-06,0.01583375
,,,1.82E-06,0.016
,,,1.83E-06,0.01614875
,,,1.84E-06,0.01573375
,,,1.85E-06,0.015809375
,,,1.86E-06,0.01614375
,,,1.87E-06,0.015838125
,,,1.88E-06,0.01595
,,,1.89E-06,0.015955
,,,1.9E-06,0.016110625
,,,1.91E-06,0.0158
,,,1.92E-06,0.015989375
,,,1.93E-06,0.01604
,,,1.94E-06,0.01585
,,,1.95E-06,0.015965625
,,,1.96E-06,0.01593625
,,,1.97E-06,0.01594
,,,1.98E-06,0.0159525
,,,1.99E-06,0.0158175
,,,2E-06,0.0159325
,,,2.01E-06,0.01601875
,,,2.02E-06,0.015808125
,,,2.03E-06,0.01590875
,,,2.04E-06,0.01574875
,,,2.05E-06,0.0159425
,,,2.06E-06,0.015900625
,,,2.07E-06,0.0159525
,,,2.08E-06,0.015915
,,,2.09E-06,0.0159525
,,,2.1E-06,0.015961875
,,,2.11E-06,0.01635375
,,,2.12E-06,0.0158225
,,,2.13E-06,0.01615
,,,2.14E-06,0.0160875
,,,2.15E-06,0.015986875
,,,2.16E-06,0.015995625
,,,2.17E-06,0.01572875
,,,2.18E-06,0.015784375
,,,2.19E-06,0.01616125
,,,2.2E-06,0.015873125
,,,2.21E-06,0.015914375
,,,2.22E-06,0.01598875
,,,2.23E-06,0.015965
,,,2.24E-06,0.015963125
,,,2.25E-06,0.01573875
,,,2.26E-06,0.01587625
,,,2.27E-06,0.0158725
,,,2.28E-06,0.01605
,,,2.29E-06,0.01583875
,,,2.3E-06,0.01608375
,,,2.31E-06,0.015935
,,,2.32E-06,0.01603875
,,,2.33E-06,0.0159925
,,,2.34E-06,0.015899375
,,,2.35E-06,0.015935
,,,2.36E-06,0.015870625
,,,2.37E-06,0.015974375
,,,2.38E-06,0.015875625
,,,2.39E-06,0.01613375
,,,2.4E-06,0.01602875
,,,2.41E-06,0.01592125
,,,2.42E-06,0.016056875
,,,2.43E-06,0.01569375
,,,2.44E-06,0.01594625
,,,2.45E-06,0.015875
,,,2.46E-06,0.0158825
,,,2.47E-06,0.0159775
,,,2.48E-06,0.0156675
,,,2.49E-06,0.01598125
,,,2.5E-06,0.0161325
,,,2.51E-06,0.016044375
,,,2.52E-06,0.016068125
,,,2.53E-06,0.015975
,,,2.54E-06,0.01609125
,,,2.55E-06,0.01618
,,,2.56E-06,0.0161225
,,,2.57E-06,0.01569125
,,,2.58E-06,0.016029375
,,,2.59E-06,0.015983125
,,,2.6E-06,0.01611625
,,,2.61E-06,0.015906875
,,,2.62E-06,0.01589625
,,,2.63E-06,0.01599
,,,2.64E-06,0.015893125
,,,2.65E-06,0.016210625
,,,2.66E-06,0.016055625
,,,2.67E-06,0.015920625
,,,2.68E-06,0.01596625
,,,2.69E-06,0.01565625
,,,2.7E-06,0.016035625
,,,2.71E-06,0.01602875
,,,2.72E-06,0.01583
,,,2.73E-06,0.015783125
,,,2.74E-06,0.015770625
,,,2.75E-06,0.016015625
,,,2.76E-06,0.01584375
,,,2.77E-06,0.01618375
,,,2.78E-06,0.015878125
,,,2.79E-06,0.016168125
,,,2.8E-06,0.01605
,,,2.81E-06,0.0158225
,,,2.82E-06,0.016045625
,,,2.83E-06,0.016151875
,,,2.84E-06,0.01602
,,,2.85E-06,0.015760625
,,,2.86E-06,0.01593
,,,2.87E-06,0.016298125
,,,2.88E-06,0.016289375
,,,2.89E-06,0.015751875
,,,2.9E-06,0.016004375
,,,2.91E-06,0.015901875
,,,2.92E-06,0.015938125
,,,2.93E-06,0.015801875
,,,2.94E-06,0.016073125
,,,2.95E-06,0.015940625
,,,2.96E-06,0.01595125
,,,2.97E-06,0.015705625
,,,2.98E-06,0.0158925
,,,2.99E-06,0.0159175
,,,3E-06,0.01589
,,,3.01E-06,0.016
,,,3.02E-06,0.01607875
,,,3.03E-06,0.015859375
,,,3.04E-06,0.015974375
,,,3.05E-06,0.015925625
,,,3.06E-06,0.015979375
,,,3.07E-06,0.01588625
,,,3.08E-06,0.015916875
,,,3.09E-06,0.015859375
,,,3.1E-06,0.016154375
,,,3.11E-06,0.015985625
,,,3.12E-06,0.016134375
,,,3.13E-06,0.015819375
,,,3.14E-06,0.015840625
,,,3.15E-06,0.0159875
,,,3.16E-06,0.015814375
,,,3.17E-06,0.01588125
,,,3.18E-06,0.01604375
,,,3.19E-06,0.015991875
,,,3.2E-06,0.01592375
,,,3.21E-06,0.016071875
,,,3.22E-06,0.016015
,,,3.23E-06,0.015821875
,,,3.24E-06,0.01591875
,,,3.25E-06,0.016029375
,,,3.26E-06,0.016069375
,,,3.27E-06,0.016073125
,,,3.28E-06,0.015699375
,,,3.29E-06,0.015856875
,,,3.3E-06,0.016018125
,,,3.31E-06,0.0157775
,,,3.32E-06,0.0161575
,,,3.33E-06,0.015806875
,,,3.34E-06,0.0158025
,,,3.35E-06,0.015798125
,,,3.36E-06,0.01604125
,,,3.37E-06,0.015906875
,,,3.38E-06,0.015950625
,,,3.39E-06,0.01597125
,,,3.4E-06,0.01596125
,,,3.41E-06,0.015805625
,,,3.42E-06,0.016104375
,,,3.43E-06,0.0159075
,,,3.44E-06,0.01596125
,,,3.45E-06,0.016098125
,,,3.46E-06,0.015996875
,,,3.47E-06,0.016109375
,,,3.48E-06,0.0159325
,,,3.49E-06,0.01605375
,,,3.5E-06,0.015893125
,,,3.51E-06,0.01577375
,,,3.52E-06,0.0157825
,,,3.53E-06,0.01582
,,,3.54E-06,0.0158725
,,,3.55E-06,0.01632375
,,,3.56E-06,0.01605375
,,,3.57E-06,0.015805625
