data/raw/Final_POL_Test_1/SOP094_Ch4.csv

"Record Length",1000,"Points",-5E-06,0.020874375
"Sample Interval",1E-08,s,-4.99E-06,0.0211175
"Trigger Point",500,"Samples",-4.98E-06,0.020886875
"Trigger Time",0,s,-4.97E-06,0.020843125
"",,,-4.96E-06,0.02107875
"Horizontal Offset",-5E-06,s,-4.95E-06,0.02098625
,,,-4.94E-06,0.02094625
,,,-4.93E-06,0.02102
,,,-4.92E-06,0.021075625
,,,-4.91E-06,0.02120625
,,,-4.9E-06,0.021019375
,,,-4.89E-06,0.021165625
,,,-4.88E-06,0.020943125
,,,-4.87E-06,0.020876875
,,,-4.86E-06,0.0209025
,,,-4.85E-06,0.020929375
,,,-4.84E-06,0.021045625
,,,-4.83E-06,0.02097125
,,,-4.82E-06,0.021160625
,,,-4.81E-06,0.020915625
,,,-4.8E-06,0.02108375
,,,-4.79E-06,0.02079625
,,,-4.78E-06,0.0210525
,,,-4.77E-06,0.020806875
,,,-4.76E-06,0.0209475
,,,-4.75E-06,0.02126
,,,-4.74E-06,0.02118125
,,,-4.73E-06,0.020834375
,,,-4.72E-06,0.020826875
,,,-4.71E-06,0.021073125
,,,-4.7E-06,0.020973125
,,,-4.69E-06,0.02089625
,,,-4.68E-06,0.020875
,,,-4.67E-06,0.021070625
,,,-4.66E-06,0.021204375
,,,-4.65E-06,0.020895
,,,-4.64E-06,0.020865625
,,,-4.63E-06,0.021224375
,,,-4.62E-06,0.0208625
,,,-4.61E-06,0.02120875
,,,-4.6E-06,0.0210875
,,,-4.59E-06,0.02117
,,,-4.58E-06,0.020939375
,,,-4.57E-06,0.020828125
,,,-4.56E-06,0.021078125
,,,-4.55E-06,0.021141875
,,,-4.54E-06,0.021203125
,,,-4.53E-06,0.020985
,,,-4.52E-06,0.021105
,,,-4.51E-06,0.0208825
,,,-4.5E-06,0.02100375
,,,-4.49E-06,0.02106375
,,,-4.48E-06,0.021201875
,,,-4.47E-06,0.020855625
,,,-4.46E-06,0.021118125
,,,-4.45E-06,0.0210275
,,,-4.44E-06,0.021010625
,,,-4.43E-06,0.020948125
,,,-4.42E-06,0.020908125
,,,-4.41E-06,0.021045625
,,,-4.4E-06,0.021045625
,,,-4.39E-06,0.020934375
,,,-4.38E-06,0.021036875
,,,-4.37E-06,0.0213025
,,,-4.36E-06,0.020778125
,,,-4.35E-06,0.02086875
,,,-4.34E-06,0.020935625
,,,-4.33E-06,0.0209675
,,,-4.32E-06,0.02122125
,,,-4.31E-06,0.021000625
,,,-4.3E-06,0.021055625
,,,-4.29E-06,0.020965625
,,,-4.28E-06,0.02082
,,,-4.27E-06,0.020935
,,,-4.26E-06,0.0211675
,,,-4.25E-06,0.02094125
,,,-4.24E-06,0.021138125
,,,-4.23E-06,0.0210025
,,,-4.22E-06,0.020908125
,,,-4.21E-06,0.02110625
,,,-4.2E-06,0.02111625
,,,-4.19E-06,0.02095375
,,,-4.18E-06,0.021005
,,,-4.17E-06,0.021048125
,,,-4.16E-06,0.021103125
,,,-4.15E-06,0.02099875
,,,-4.14E-06,0.0210825
,,,-4.13E-06,0.02107
,,,-4.12E-06,0.02087625
,,,-4.11E-06,0.021018125
,,,-4.1E-06,0.020883125
,,,-4.09E-06,0.0209475
,,,-4.08E-06,0.02105625
,,,-4.07E-06,0.02094375
,,,-4.06E-06,0.02091875
,,,-4.05E-06,0.020919375
,,,-4.04E-06,0.020931875
,,,-4.03E-06,0.0211425
,,,-4.02E-06,0.02092625
,,,-4.01E-06,0.020841875
,,,-4E-06,0.02076125
,,,-3.99E-06,0.021026875
,,,-3.98E-06,0.0208225
,,,-3.97E-06,0.020828125
,,,-3.96E-06,0.020960625
,,,-3.95E-06,0.020924375
,,,-3.94E-06,0.021091875
,,,-3.93E-06,0.02112375
,,,-3.92E-06,0.02096
,,,-3.91E-06,0.02122
,,,-3.9E-06,0.020774375
,,,-3.89E-06,0.020855625
,,,-3.88E-06,0.020910625
,,,-3.87E-06,0.021064375
,,,-3.86E-06,0.020985625
,,,-3.85E-06,0.020901875
,,,-3.84E-06,0.02104625
,,,-3.83E-06,0.021179375
,,,-3.82E-06,0.020931875
,,,-3.81E-06,0.021131875
,,,-3.8E-06,0.0210075
,,,-3.79E-06,0.020923125
,,,-3.78E-06,0.020954375
,,,-3.77E-06,0.0212
,,,-3.76E-06,0.020908125
,,,-3.75E-06,0.021103125
,,,-3.74E-06,0.02092375
,,,-3.73E-06,0.02113
,,,-3.72E-06,0.021235625
,,,-3.71E-06,0.02101375
,,,-3.7E-06,0.020908125
,,,-3.69E-06,0.02091375
,,,-3.68E-06,0.02092375
,,,-3.67E-06,0.020975625
,,,-3.66E-06,0.0210825
,,,-3.65E-06,0.0211775
,,,-3.64E-06,0.021143125
,,,-3.63E-06,0.021165625
,,,-3.62E-06,0.021228125
,,,-3.61E-06,0.021111875
,,,-3.6E-06,0.020921875
,,,-3.59E-06,0.02090875
,,,-3.58E-06,0.021031875
,,,-3.57E-06,0.020838125
,,,-3.56E-06,0.021133125
,,,-3.55E-06,0.021035625
,,,-3.54E-06,0.02103125
,,,-3.53E-06,0.021029375
,,,-3.52E-06,0.020840625
,,,-3.51E-06,0.02101
,,,-3.5E-06,0.021021875
,,,-3.49E-06,0.02089875
,,,-3.48E-06,0.021064375
,,,-3.47E-06,0.021103125
,,,-3.46E-06,0.020875
,,,-3.45E-06,0.02093875
,,,-3.44E-06,0.021134375
,,,-3.43E-06,0.021013125
,,,-3.42E-06,0.0209625
,,,-3.41E-06,0.020839375
,,,-3.4E-06,0.021125
,,,-3.39E-06,0.020675
,,,-3.38E-06,0.020905
,,,-3.37E-06,0.020971875
,,,-3.36E-06,0.02093
,,,-3.35E-06,0.020988125
,,,-3.34E-06,0.021155625
,,,-3.33E-06,0.0208
,,,-3.32E-06,0.02096625
,,,-3.31E-06,0.02094375
,,,-3.3E-06,0.020971875
,,,-3.29E-06,0.0208825
,,,-3.28E-06,0.02096
,,,-3.27E-06,0.021056875
,,,-3.26E-06,0.020879375
,,,-3.25E-06,0.021105625
,,,-3.24E-06,0.02069625
,,,-3.23E-06,0.0209325
,,,-3.22E-06,0.021095625
,,,-3.21E-06,0.021101875
,,,-3.2E-06,0.021155625
,,,-3.19E-06,0.02102375
,,,-3.18E-06,0.020808125
,,,-3.17E-06,0.0208625
,,,-3.16E-06,0.0209275
,,,-3.15E-06,0.020935
,,,-3.14E-06,0.020795
,,,-3.13E-06,0.0210025
,,,-3.12E-06,0.02107
,,,-3.11E-06,0.02109625
,,,-3.1E-06,0.02088125
,,,-3.09E-06,0.021169375
,,,-3.08E-06,0.021145625
,,,-3.07E-06,0.020938125
,,,-3.06E-06,0.021001875
,,,-3.05E-06,0.02100875
,,,-3.04E-06,0.02082125
,,,-3.03E-06,0.02097
,,,-3.02E-06,0.02097625
,,,-3.01E-06,0.02090125
,,,-3E-06,0.021168125
,,,-2.99E-06,0.020848125
,,,-2.98E-06,0.021166875
,,,-2.97E-06,0.020895625
,,,-2.96E-06,0.02098875
,,,-2.95E-06,0.020855625
,,,-2.94E-06,0.020931875
,,,-2.93E-06,0.02099125
,,,-2.92E-06,0.02096625
,,,-2.91E-06,0.020849375
,,,-2.9E-06,0.02100625
,,,-2.89E-06,0.021076875
,,,-2.88E-06,0.020915625
,,,-2.87E-06,0.0208525
,,,-2.86E-06,0.02094125
,,,-2.85E-06,0.02105125
,,,-2.84E-06,0.020995625
,,,-2.83E-06,0.02092875
,,,-2.82E-06,0.02108
,,,-2.81E-06,0.02107875
,,,-2.8E-06,0.021241875
,,,-2.79E-06,0.0209
,,,-2.78E-06,0.0210425
,,,-2.77E-06,0.02087625
,,,-2.76E-06,0.02072125
,,,-2.75E-06,0.021005
,,,-2.74E-06,0.020940625
,,,-2.73E-06,0.0210675
,,,-2.72E-06,0.0210975
,,,-2.71E-06,0.0210775
,,,-2.7E-06,0.0212025
,,,-2.69E-06,0.0208875
,,,-2.68E-06,0.0211925
,,,-2.67E-06,0.02067
,,,-2.66E-06,0.021045625
,,,-2.65E-06,0.021134375
,,,-2.64E-06,0.0211025
,,,-2.63E-06,0.020938125
,,,-2.62E-06,0.020788125
,,,-2.61E-06,0.020695625
,,,-2.6E-06,0.02077625
,,,-2.59E-06,0.02084625
,,,-2.58E-06,0.0209675
,,,-2.57E-06,0.02102875
,,,-2.56E-06,0.020956875
,,,-2.55E-06,0.020980625
,,,-2.54E-06,0.0210875
,,,-2.53E-06,0.02113125
,,,-2.52E-06,0.02083875
,,,-2.51E-06,0.021156875
,,,-2.5E-06,0.020790625
,,,-2.49E-06,0.02117375
,,,-2.48E-06,0.02100625
,,,-2.47E-06,0.0209975
,,,-2.46E-06,0.021150625
,,,-2.45E-06,0.02111125
,,,-2.44E-06,0.02098
,,,-2.43E-06,0.02106375
,,,-2.42E-06,0.021173125
,,,-2.41E-06,0.021169375
,,,-2.4E-06,0.020659375
,,,-2.39E-06,0.020953125
,,,-2.38E-06,0.0208975
,,,-2.37E-06,0.02111
,,,-2.36E-06,0.020911875
,,,-2.35E-06,0.020945625
,,,-2.34E-06,0.021014375
,,,-2.33E-06,0.0209725
,,,-2.32E-06,0.020889375
,,,-2.31E-06,0.02121125
,,,-2.3E-06,0.020985625
,,,-2.29E-06,0.020728125
,,,-2.28E-06,0.02123625
,,,-2.27E-06,0.0208075
,,,-2.26E-06,0.021115625
,,,-2.25E-06,0.02114875
,,,-2.24E-06,0.020918125
,,,-2.23E-06,0.02131625
,,,-2.22E-06,0.020883125
,,,-2.21E-06,0.020880625
,,,-2.2E-06,0.0210425
,,,-2.19E-06,0.0208925
,,,-2.18E-06,0.021021875
,,,-2.17E-06,0.021080625
,,,-2.16E-06,0.020986875
,,,-2.15E-06,0.02106
,,,-2.14E-06,0.02109
,,,-2.13E-06,0.02080125
,,,-2.12E-06,0.020874375
,,,-2.11E-06,0.021028125
,,,-2.1E-06,0.020905
,,,-2.09E-06,0.0211875
,,,-2.08E-06,0.02095375
,,,-2.07E-06,0.02112875
,,,-2.06E-06,0.0211075
,,,-2.05E-06,0.02089375
,,,-2.04E-06,0.020805
,,,-2.03E-06,0.020873125
,,,-2.02E-06,0.02094125
,,,-2.01E-06,0.02103625
,,,-2E-06,0.02102125
,,,-1.99E-06,0.020975
,,,-1.98E-06,0.0209175
,,,-1.97E-06,0.021030625
,,,-1.96E-06,0.020986875
,,,-1.95E-06,0.02101375
,,,-1.94E-06,0.02073125
,,,-1.93E-06,0.020715625
,,,-1.92E-06,0.020975
,,,-1.91E-06,0.020996875
,,,-1.9E-06,0.021119375
,,,-1.89E-06,0.021148125
,,,-1.88E-06,0.020925625
,,,-1.87E-06,0.02084
,,,-1.86E-06,0.02093875
,,,-1.85E-06,0.021109375
,,,-1.84E-06,0.020941875
,,,-1.83E-06,0.020936875
,,,-1.82E-06,0.020773125
,,,-1.81E-06,0.021078125
,,,-1.8E-06,0.020961875
,,,-1.79E-06,0.0209425
,,,-1.78E-06,0.021041875
,,,-1.77E-06,0.02093375
,,,-1.76E-06,0.021124375
,,,-1.75E-06,0.021071875
,,,-1.74E-06,0.02111125
,,,-1.73E-06,0.020899375
,,,-1.72E-06,0.021099375
,,,-1.71E-06,0.020769375
,,,-1.7E-06,0.02082875
,,,-1.69E-06,0.020975625
,,,-1.68E-06,0.02125
,,,-1.67E-06,0.020825
,,,-1.66E-06,0.020931875
,,,-1.65E-06,0.020875
,,,-1.64E-06,0.020910625
,,,-1.63E-06,0.02095375
,,,-1.62E-06,0.020824375
,,,-1.61E-06,0.020601875
,,,-1.6E-06,0.021014375
,,,-1.59E-06,0.020873125
,,,-1.58E-06,0.0210675
,,,-1.57E-06,0.020978125
,,,-1.56E-06,0.021066875
,,,-1.55E-06,0.02084875
,,,-1.54E-06,0.0209325
,,,-1.53E-06,0.02100375
,,,-1.52E-06,0.020944375
,,,-1.51E-06,0.02100875
,,,-1.5E-06,0.02112875
,,,-1.49E-06,0.02114625
,,,-1.48E-06,0.02086375
,,,-1.47E-06,0.02084625
,,,-1.46E-06,0.02108
,,,-1.45E-06,0.0211725
,,,-1.44E-06,0.020975
,,,-1.43E-06,0.02103
,,,-1.42E-06,0.02101
,,,-1.41E-06,0.0209725
,,,-1.4E-06,0.02115
,,,-1.39E-06,0.0212575
,,,-1.38E-06,0.0207175
,,,-1.37E-06,0.02082375
,,,-1.36E-06,0.02102125
,,,-1.35E-06,0.0211825
,,,-1.34E-06,0.020776875
,,,-1.33E-06,0.020865
,,,-1.32E-06,0.02076125
,,,-1.31E-06,0.021129375
,,,-1.3E-06,0.020873125
,,,-1.29E-06,0.020705
,,,-1.28E-06,0.020696875
,,,-1.27E-06,0.021170625
,,,-1.26E-06,0.020970625
,,,-1.25E-06,0.021026875
,,,-1.24E-06,0.0214325
,,,-1.23E-06,0.02116
,,,-1.22E-06,0.020911875
,,,-1.21E-06,0.021261875
,,,-1.2E-06,0.021098125
,,,-1.19E-06,0.0209
,,,-1.18E-06,0.020868125
,,,-1.17E-06,0.0210775
,,,-1.16E-06,0.021074375
,,,-1.15E-06,0.020998125
,,,-1.14E-06,0.02093625
,,,-1.13E-06,0.02101
,,,-1.12E-06,0.0209325
,,,-1.11E-06,0.02099875
,,,-1.1E-06,0.0211
,,,-1.09E-06,0.02097375
,,,-1.08E-06,0.021044375
,,,-1.07E-06,0.0211175
,,,-1.06E-06,0.021064375
,,,-1.05E-06,0.02101875
,,,-1.04E-06,0.021076875
,,,-1.03E-06,0.021264375
,,,-1.02E-06,0.021113125
,,,-1.01E-06,0.021265
,,,-1E-06,0.021065
,,,-9.9E-07,0.021
,,,-9.8E-07,0.02096
,,,-9.7E-07,0.02128
,,,-9.6E-07,0.0208375
,,,-9.5E-07,0.0211
,,,-9.4E-07,0.020930625
,,,-9.3E-07,0.020985
,,,-9.2E-07,0.0208625
,,,-9.1E-07,0.02108
,,,-9E-07,0.02075625
,,,-8.9E-07,0.020884375
,,,-8.8E-07,0.0210625
,,,-8.7E-07,0.0211175
,,,-8.6E-07,0.02096125
,,,-8.5E-07,0.0210775
,,,-8.4E-07,0.02103125
,,,-8.3E-07,0.02101
,,,-8.2E-07,0.020785625
,,,-8.1E-07,0.021135625
,,,-8E-07,0.021056875
,,,-7.9E-07,0.02099125
,,,-7.8E-07,0.020775625
,,,-7.7E-07,0.02099375
,,,-7.6E-07,0.021128125
,,,-7.5E-07,0.02124875
,,,-7.4E-07,0.0208575
,,,-7.3E-07,0.021115
,,,-7.2E-07,0.020745
,,,-7.1E-07,0.020845625
,,,-7E-07,0.02116
,,,-6.9E-07,0.020990625
,,,-6.8E-07,0.021031875
,,,-6.7E-07,0.021253125
,,,-6.6E-07,0.02067125
,,,-6.5E-07,0.02122125
,,,-6.4E-07,0.020885
,,,-6.3E-07,0.020966875
,,,-6.2E-07,0.02117875
,,,-6.1E-07,0.02111875
,,,-6E-07,0.021120625
,,,-5.9E-07,0.02120625
,,,-5.8E-07,0.021213125
,,,-5.7E-07,0.020850625
,,,-5.6E-07,0.021174375
,,,-5.5E-07,0.021215625
,,,-5.4E-07,0.02097625
,,,-5.3E-07,0.02105375
,,,-5.2E-07,0.0209125
,,,-5.1E-07,0.020991875
,,,-5E-07,0.02103875
,,,-4.9E-07,0.02120375
,,,-4.8E-07,0.02089125
,,,-4.7E-07,0.02104
,,,-4.6E-07,0.0208425
,,,-4.5E-07,0.02100375
,,,-4.4E-07,0.02082625
,,,-4.3E-07,0.021084375
,,,-4.2E-07,0.021173125
,,,-4.1E-07,0.0209575
,,,-4E-07,0.021035
,,,-3.9E-07,0.02106
,,,-3.8E-07,0.02128125
,,,-3.7E-07,0.02098125
,,,-3.6E-07,0.0208975
,,,-3.5E-07,0.02105375
,,,-3.4E-07,0.02125625
,,,-3.3E-07,0.021180625
,,,-3.2E-07,0.020964375
,,,-3.1E-07,0.02111
,,,-3E-07,0.0210025
,,,-2.9E-07,0.021149375
,,,-2.8E-07,0.02081875
,,,-2.7E-07,0.020924375
,,,-2.6E-07,0.02096
,,,-2.5E-07,0.02104
,,,-2.4E-07,0.021005625
,,,-2.3E-07,0.02095875
,,,-2.2E-07,0.021038125
,,,-2.1E-07,0.02089625
,,,-2E-07,0.02104125
,,,-1.9E-07,0.020865
,,,-1.8E-07,0.020993125
,,,-1.7E-07,0.02118625
,,,-1.6E-07,0.021080625
,,,-1.5E-07,0.0211325
,,,-1.4E-07,0.020899375
,,,-1.3E-07,0.0210675
,,,-1.2E-07,0.020923125
,,,-1.1E-07,0.020985625
,,,-1E-07,0.021099375
,,,-9E-08,0.02081
,,,-8E-08,0.021018125
,,,-7E-08,0.020920625
,,,-6E-08,0.0210475
,,,-5E-08,0.02090375
,,,-4E-08,0.0209425
,,,-3E-08,0.021408125
,,,-2E-08,0.020979375
,,,-1E-08,0.02078375
,,,0,0.02047625
,,,1E-08,0.021418125
,,,2E-08,0.02154875
,,,3E-08,0.02133625
,,,4E-08,0.020825
,,,5E-08,0.020755625
,,,6E-08,0.0207225
,,,7E-08,0.020904375
,,,8E-08,0.021349375
,,,9E-08,0.021284375
,,,1E-07,0.021103125
,,,1.1E-07,0.02134625
,,,1.2E-07,0.0207575
,,,1.3E-07,0.020678125
,,,1.4E-07,0.02096375
,,,1.5E-07,0.020900625
,,,1.6E-07,0.0209725
,,,1.7E-07,0.02104625
,,,1.8E-07,0.020933125
,,,1.9E-07,0.021063125
,,,2E-07,0.02089
,,,2.1E-07,0.020998125
,,,2.2E-07,0.020993125
,,,2.3E-07,0.02104625
,,,2.4E-07,0.02098
,,,2.5E-07,0.021055
,,,2.6E-07,0.021025625
,,,2.7E-07,0.020963125
,,,2.8E-07,0.02095125
,,,2.9E-07,0.021210625
,,,3E-07,0.020888125
,,,3.1E-07,0.02091375
,,,3.2E-07,0.02096125
,,,3.3E-07,0.02122375
,,,3.4E-07,0.021080625
,,,3.5E-07,0.02110625
,,,3.6E-07,0.02103375
,,,3.7E-07,0.020785
,,,3.8E-07,0.020806875
,,,3.9E-07,0.02115
,,,4E-07,0.021305625
,,,4.1E-07,0.02080125
,,,4.2E-07,0.021059375
,,,4.3E-07,0.020894375
,,,4.4E-07,0.021106875
,,,4.5E-07,0.020890625
,,,4.6E-07,0.02115
,,,4.7E-07,0.02105625
,,,4.8E-07,0.02129125
,,,4.9E-07,0.021215625
,,,5E-07,0.0209975
,,,5.1E-07,0.02089125
,,,5.2E-07,0.02102375
,,,5.3E-07,0.021053125
,,,5.4E-07,0.020791875
,,,5.5E-07,0.021023125
,,,5.6E-07,0.02101375
,,,5.7E-07,0.02103125
,,,5.8E-07,0.0211975
,,,5.9E-07,0.021016875
,,,6E-07,0.020920625
,,,6.1E-07,0.0210575
,,,6.2E-07,0.021219375
,,,6.3E-07,0.02103
,,,6.4E-07,0.0212125
,,,6.5E-07,0.020945
,,,6.6E-07,0.0210925
,,,6.7E-07,0.020951875
,,,6.8E-07,0.020936875
,,,6.9E-07,0.02104125
,,,7E-07,0.02084625
,,,7.1E-07,0.020761875
,,,7.2E-07,0.02125875
,,,7.3E-07,0.02108125
,,,7.4E-07,0.0210825
,,,7.5E-07,0.021254375
,,,7.6E-07,0.02092375
,,,7.7E-07,0.021151875
,,,7.8E-07,0.021200625
,,,7.9E-07,0.021066875
,,,8E-07,0.02080875
,,,8.1E-07,0.02120625
,,,8.2E-07,0.020931875
,,,8.3E-07,0.02102
,,,8.4E-07,0.021035
,,,8.5E-07,0.020915625
,,,8.6E-07,0.020906875
,,,8.7E-07,0.0207975
,,,8.8E-07,0.02113375
,,,8.9E-07,0.020904375
,,,9E-07,0.020896875
,,,9.1E-07,0.0209575
,,,9.2E-07,0.02088875
,,,9.3E-07,0.020845
,,,9.4E-07,0.02089875
,,,9.5E-07,0.02101375
,,,9.6E-07,0.02125875
,,,9.7E-07,0.02116125
,,,9.8E-07,0.021065
,,,9.9E-07,0.021016875
,,,1E-06,0.020955
,,,1.01E-06,0.020955625
,,,1.02E-06,0.021285625
,,,1.03E-06,0.020816875
,,,1.04E-06,0.020938125
,,,1.05E-06,0.020819375
,,,1.06E-06,0.02082
,,,1.07E-06,0.020976875
,,,1.08E-06,0.0210725
,,,1.09E-06,0.020665
,,,1.1E-06,0.021070625
,,,1.11E-06,0.020763125
,,,1.12E-06,0.02089
,,,1.13E-06,0.020904375
,,,1.14E-06,0.02098
,,,1.15E-06,0.021029375
,,,1.16E-06,0.021011875
,,,1.17E-06,0.021259375
,,,1.18E-06,0.021068125
,,,1.19E-06,0.020968125
,,,1.2E-06,0.020863125
,,,1.21E-06,0.021169375
,,,1.22E-06,0.02071125
,,,1.23E-06,0.02129
,,,1.24E-06,0.020978125
,,,1.25E-06,0.020995
,,,1.26E-06,0.02089125
,,,1.27E-06,0.02112625
,,,1.28E-06,0.021069375
,,,1.29E-06,0.020838125
,,,1.3E-06,0.021185
,,,1.31E-06,0.020901875
,,,1.32E-06,0.0210875
,,,1.33E-06,0.02093875
,,,1.34E-06,0.020944375
,,,1.35E-06,0.021176875
,,,1.36E-06,0.021058125
,,,1.37E-06,0.0209225
,,,1.38E-06,0.021299375
,,,1.39E-06,0.021115625
,,,1.4E-06,0.02111125
,,,1.41E-06,0.02107875
,,,1.42E-06,0.020963125
,,,1.43E-06,0.020783125
,,,1.44E-06,0.020965625
,,,1.45E-06,0.02090625
,,,1.46E-06,0.02086875
,,,1.47E-06,0.020928125
,,,1.48E-06,0.02102625
,,,1.49E-06,0.0210025
,,,1.5E-06,0.02109875
,,,1.51E-06,0.021153125
,,,1.52E-06,0.020989375
,,,1.53E-06,0.021015625
,,,1.54E-06,0.020909375
,,,1.55E-06,0.021106875
,,,1.56E-06,0.021198125
,,,1.57E-06,0.02093
,,,1.58E-06,0.0213475
,,,1.59E-06,0.02089
,,,1.6E-06,0.021098125
,,,1.61E-06,0.020926875
,,,1.62E-06,0.020829375
,,,1.63E-06,0.02102375
,,,1.64E-06,0.0210125
,,,1.65E-06,0.021034375
,,,1.66E-06,0.021038125
,,,1.67E-06,0.02102375
,,,1.68E-06,0.020961875
,,,1.69E-06,0.02089875
,,,1.7E-06,0.021103125
,,,1.71E-06,0.0210025
,,,1.72E-06,0.020840625
,,,1.73E-06,0.0213425
,,,1.74E-06,0.020896875
,,,1.75E-06,0.02100625
,,,1.76E-06,0.021056875
,,,1.77E-06,0.020866875
,,,1.78E-06,0.020815625
,,,1.79E-06,0.0210025
,,,1.8E-06,0.021221875
,,,1.81E-06,0.020845
,,,1.82E-06,0.02087125
,,,1.83E-06,0.020965625
,,,1.84E-06,0.0211125
,,,1.85E-06,0.020871875
,,,1.86E-06,0.02082125
,,,1.87E-06,0.021123125
,,,1.88E-06,0.02108
,,,1.89E-06,0.0213125
,,,1.9E-06,0.020808125
,,,1.91E-06,0.02100375
,,,1.92E-06,0.020995625
,,,1.93E-06,0.0210975
,,,1.94E-06,0.0210025
,,,1.95E-06,0.02104625
,,,1.96E-06,0.021091875
,,,1.97E-06,0.0212025
,,,1.98E-06,0.020809375
,,,1.99E-06,0.021185
,,,2E-06,0.020815
,,,2.01E-06,0.0209675
,,,2.02E-06,0.020813125
,,,2.03E-06,0.021139375
,,,2.04E-06,0.02084625
,,,2.05E-06,0.02108625
,,,2.06E-06,0.02106875
,,,2.07E-06,0.020875
,,,2.08E-06,0.021019375
,,,2.09E-06,0.021146875
,,,2.1E-06,0.02084375
,,,2.11E-06,0.0210425
,,,2.12E-06,0.02127625
,,,2.13E-06,0.021003125
,,,2.14E-06,0.020961875
,,,2.15E-06,0.02111125
,,,2.16E-06,0.021305625
,,,2.17E-06,0.020939375
,,,2.18E-06,0.021000625
,,,2.19E-06,0.02096375
,,,2.2E-06,0.02100875
,,,2.21E-06,0.021045
,,,2.22E-06,0.02129875
,,,2.23E-06,0.021093125
,,,2.24E-06,0.021281875
,,,2.25E-06,0.021096875
,,,2.26E-06,0.021055
,,,2.27E-06,0.020928125
,,,2.28E-06,0.021075
,,,2.29E-06,0.020989375
,,,2.3E-06,0.021175
,,,2.31E-06,0.020858125
,,,2.32E-06,0.02117625
,,,2.33E-06,0.0209325
,,,2.34E-06,0.021053125
,,,2.35E-06,0.021100625
,,,2.36E-06,0.02101125
,,,2.37E-06,0.02100375
,,,2.38E-06,0.021111875
,,,2.39E-06,0.020858125
,,,2.4E-06,0.0212025
,,,2.41E-06,0.021183125
,,,2.42E-06,0.02101875
,,,2.43E-06,0.02130375
,,,2.44E-06,0.021125
,,,2.45E-06,0.02127125
,,,2.46E-06,0.02109
,,,2.47E-06,0.020929375
,,,2.48E-06,0.02112875
,,,2.49E-06,0.021111875
,,,2.5E-06,0.0212625
,,,2.51E-06,0.02123125
,,,2.52E-06,0.020670625
,,,2.53E-06,0.02069125
,,,2.54E-06,0.020945
,,,2.55E-06,0.02118375
,,,2.56E-06,0.021135625
,,,2.57E-06,0.021004375
,,,2.58E-06,0.020784375
,,,2.59E-06,0.02073375
,,,2.6E-06,0.02093125
,,,2.61E-06,0.021055
,,,2.62E-06,0.02088
,,,2.63E-06,0.02116375
,,,2.64E-06,0.020936875
,,,2.65E-06,0.021313125
,,,2.66E-06,0.021178125
,,,2.67E-06,0.021153125
,,,2.68E-06,0.020880625
,,,2.69E-06,0.021080625
,,,2.7E-06,0.02103
,,,2.71E-06,0.02119125
,,,2.72E-06,0.02082875
,,,2.73E-06,0.02103625
,,,2.74E-06,0.02082
,,,2.75E-06,0.020986875
,,,2.76E-06,0.0209675
,,,2.77E-06,0.02081125
,,,2.78E-06,0.021063125
,,,2.79E-06,0.020956875
,,,2.8E-06,0.020974375
,,,2.81E-06,0.02093625
,,,2.82E-06,0.021094375
,,,2.83E-06,0.02106625
,,,2.84E-06,0.021049375
,,,2.85E-06,0.02087375
,,,2.86E-06,0.02081875
,,,2.87E-06,0.020929375
,,,2.88E-06,0.021235625
,,,2.89E-06,0.021299375
,,,2.9E-06,0.020839375
,,,2.91E-06,0.021025625
,,,2.92E-06,0.020965
,,,2.93E-06,0.021208125
,,,2.94E-06,0.021174375
,,,2.95E-06,0.021318125
,,,2.96E-06,0.020995625
,,,2.97E-06,0.02107375
,,,2.98E-06,0.0210725
,,,2.99E-06,0.0209825
,,,3E-06,0.020855
,,,3.01E-06,0.020933125
,,,3.02E-06,0.02117125
,,,3.03E-06,0.021013125
,,,3.04E-06,0.02098
,,,3.05E-06,0.020891875
,,,3.06E-06,0.021060625
,,,3.07E-06,0.02097625
,,,3.08E-06,0.020959375
,,,3.09E-06,0.0210325
,,,3.1E-06,0.02102125
,,,3.11E-06,0.02078125
,,,3.12E-06,0.021120625
,,,3.13E-06,0.02096
,,,3.14E-06,0.021054375
,,,3.15E-06,0.020954375
,,,3.16E-06,0.020828125
,,,3.17E-06,0.02101
,,,3.18E-06,0.0211575
,,,3.19E-06,0.0209
,,,3.2E-06,0.0210125
,,,3.21E-06,0.02107
,,,3.22E-06,0.021099375
,,,3.23E-06,0.021213125
,,,3.24E-06,0.021136875
,,,3.25E-06,0.021044375
,,,3.26E-06,0.02103875
,,,3.27E-06,0.021015625
,,,3.28E-06,0.02094
,,,3.29E-06,0.0208975
,,,3.3E-06,0.02086625
,,,3.31E-06,0.020883125
,,,3.32E-06,0.021033125
,,,3.33E-06,0.02113875
,,,3.34E-06,0.021025625
,,,3.35E-06,0.02090625
,,,3.36E-06,0.02101375
,,,3.37E-06,0.021390625
,,,3.38E-06,0.021140625
,,,3.39E-06,0.021038125
,,,3.4E-06,0.021186875
,,,3.41E-06,0.020988125
,,,3.42E-06,0.02106875
,,,3.43E-06,0.020898125
,,,3.44E-06,0.020816875
,,,3.45E-06,0.021110625
,,,3.46E-06,0.021143125
,,,3.47E-06,0.02107625
,,,3.48E-06,0.02115
,,,3.49E-06,0.020883125
,,,3.5E-06,0.0210825
,,,3.51E-06,0.020950625
,,,3.52E-06,0.020953125
,,,3.53E-06,0.021115
,,,3.54E-06,0.021168125
,,,3.55E-06,0.021126875
,,,3.56E-06,0.021085625
,,,3.57E-06,0.0210325
,,,3.58E-06,0.020860625
