data/raw/Final_POL_Test_1/SOP073_Ch3.csv

"Record Length",1000,"Points",-5E-06,0.021727501
"Sample Interval",1E-08,s,-4.99E-06,0.021641251
"Trigger Point",500,"Samples",-4.98E-06,0.021945001
"Trigger Time",0,s,-4.97E-06,0.021986251
"",,,-4.96E-06,0.021776251
"Horizontal Offset",-5E-06,s,-4.95E-06,0.021828126
,,,-4.94E-06,0.021570001
,,,-4.93E-06,0.021485626
,,,-4.92E-06,0.021982501
,,,-4.91E-06,0.021705626
,,,-4.9E-06,0.021946251
,,,-4.89E-06,0.022078751
,,,-4.88E-06,0.021935001
,,,-4.87E-06,0.021665001
,,,-4.86E-06,0.021868751
,,,-4.85E-06,0.021895626
,,,-4.84E-06,0.021941251
,,,-4.83E-06,0.021775001
,,,-4.82E-06,0.021993751
,,,-4.81E-06,0.021917501
,,,-4.8E-06,0.021745001
,,,-4.79E-06,0.021813751
,,,-4.78E-06,0.022095626
,,,-4.77E-06,0.021794376
,,,-4.76E-06,0.021873751
,,,-4.75E-06,0.021495001
,,,-4.74E-06,0.021945626
,,,-4.73E-06,0.021731876
,,,-4.72E-06,0.021728126
,,,-4.71E-06,0.021830001
,,,-4.7E-06,0.021865001
,,,-4.69E-06,0.021930001
,,,-4.68E-06,0.021770626
,,,-4.67E-06,0.021786876
,,,-4.66E-06,0.021940001
,,,-4.65E-06,0.021682501
,,,-4.64E-06,0.021765626
,,,-4.63E-06,0.022015626
,,,-4.62E-06,0.021837501
,,,-4.61E-06,0.021785001
,,,-4.6E-06,0.021702501
,,,-4.59E-06,0.021875626
,,,-4.58E-06,0.021903126
,,,-4.57E-06,0.021773126
,,,-4.56E-06,0.021875626
,,,-4.55E-06,0.021891876
,,,-4.54E-06,0.021989376
,,,-4.53E-06,0.021803126
,,,-4.52E-06,0.021413126
,,,-4.51E-06,0.021606251
,,,-4.5E-06,0.022050626
,,,-4.49E-06,0.021912501
,,,-4.48E-06,0.021815001
,,,-4.47E-06,0.021550626
,,,-4.46E-06,0.021931251
,,,-4.45E-06,0.021509376
,,,-4.44E-06,0.021605626
,,,-4.43E-06,0.022043751
,,,-4.42E-06,0.021857501
,,,-4.41E-06,0.021831251
,,,-4.4E-06,0.021935626
,,,-4.39E-06,0.021933751
,,,-4.38E-06,0.021765626
,,,-4.37E-06,0.021860001
,,,-4.36E-06,0.021923751
,,,-4.35E-06,0.021625626
,,,-4.34E-06,0.021686876
,,,-4.33E-06,0.021882501
,,,-4.32E-06,0.021913126
,,,-4.31E-06,0.021972501
,,,-4.3E-06,0.021602501
,,,-4.29E-06,0.021912501
,,,-4.28E-06,0.022189376
,,,-4.27E-06,0.021805001
,,,-4.26E-06,0.022001876
,,,-4.25E-06,0.021580001
,,,-4.24E-06,0.021829376
,,,-4.23E-06,0.021752501
,,,-4.22E-06,0.022012501
,,,-4.21E-06,0.021729376
,,,-4.2E-06,0.021895626
,,,-4.19E-06,0.021925626
,,,-4.18E-06,0.021786251
,,,-4.17E-06,0.021811251
,,,-4.16E-06,0.021965626
,,,-4.15E-06,0.021850626
,,,-4.14E-06,0.021610001
,,,-4.13E-06,0.021626251
,,,-4.12E-06,0.021907501
,,,-4.11E-06,0.021690001
,,,-4.1E-06,0.021833126
,,,-4.09E-06,0.021733751
,,,-4.08E-06,0.021800001
,,,-4.07E-06,0.021743751
,,,-4.06E-06,0.021701876
,,,-4.05E-06,0.021847501
,,,-4.04E-06,0.021625001
,,,-4.03E-06,0.021846251
,,,-4.02E-06,0.021630626
,,,-4.01E-06,0.022001251
,,,-4E-06,0.021945001
,,,-3.99E-06,0.021934376
,,,-3.98E-06,0.021602501
,,,-3.97E-06,0.021638126
,,,-3.96E-06,0.022020001
,,,-3.95E-06,0.021635626
,,,-3.94E-06,0.021931251
,,,-3.93E-06,0.021873751
,,,-3.92E-06,0.021891251
,,,-3.91E-06,0.021779376
,,,-3.9E-06,0.021890626
,,,-3.89E-06,0.021748126
,,,-3.88E-06,0.021846876
,,,-3.87E-06,0.021832501
,,,-3.86E-06,0.021966876
,,,-3.85E-06,0.021996251
,,,-3.84E-06,0.021706876
,,,-3.83E-06,0.021888751
,,,-3.82E-06,0.021774376
,,,-3.81E-06,0.021770001
,,,-3.8E-06,0.022036876
,,,-3.79E-06,0.021763751
,,,-3.78E-06,0.021761876
,,,-3.77E-06,0.021621251
,,,-3.76E-06,0.022134376
,,,-3.75E-06,0.021571876
,,,-3.74E-06,0.021830001
,,,-3.73E-06,0.021730001
,,,-3.72E-06,0.021780001
,,,-3.71E-06,0.021995626
,,,-3.7E-06,0.021614376
,,,-3.69E-06,0.021756876
,,,-3.68E-06,0.021917501
,,,-3.67E-06,0.021856251
,,,-3.66E-06,0.021733126
,,,-3.65E-06,0.021956876
,,,-3.64E-06,0.021743126
,,,-3.63E-06,0.021730001
,,,-3.62E-06,0.021808751
,,,-3.61E-06,0.021680626
,,,-3.6E-06,0.021795001
,,,-3.59E-06,0.021865626
,,,-3.58E-06,0.021884376
,,,-3.57E-06,0.021855626
,,,-3.56E-06,0.021962501
,,,-3.55E-06,0.021905626
,,,-3.54E-06,0.021613751
,,,-3.53E-06,0.022015001
,,,-3.52E-06,0.021927501
,,,-3.51E-06,0.021970626
,,,-3.5E-06,0.021881876
,,,-3.49E-06,0.021753751
,,,-3.48E-06,0.021762501
,,,-3.47E-06,0.021807501
,,,-3.46E-06,0.021817501
,,,-3.45E-06,0.021930626
,,,-3.44E-06,0.021890001
,,,-3.43E-06,0.021778126
,,,-3.42E-06,0.021956251
,,,-3.41E-06,0.021875001
,,,-3.4E-06,0.021644376
,,,-3.39E-06,0.021580626
,,,-3.38E-06,0.021933751
,,,-3.37E-06,0.021661251
,,,-3.36E-06,0.021722501
,,,-3.35E-06,0.022102501
,,,-3.34E-06,0.021811251
,,,-3.33E-06,0.021759376
,,,-3.32E-06,0.021791251
,,,-3.31E-06,0.021882501
,,,-3.3E-06,0.021811251
,,,-3.29E-06,0.021732501
,,,-3.28E-06,0.021850626
,,,-3.27E-06,0.021685001
,,,-3.26E-06,0.021938126
,,,-3.25E-06,0.021851876
,,,-3.24E-06,0.021766876
,,,-3.23E-06,0.021917501
,,,-3.22E-06,0.021755626
,,,-3.21E-06,0.021723751
,,,-3.2E-06,0.021748751
,,,-3.19E-06,0.021716251
,,,-3.18E-06,0.022106251
,,,-3.17E-06,0.021765626
,,,-3.16E-06,0.021814376
,,,-3.15E-06,0.021577501
,,,-3.14E-06,0.021810001
,,,-3.13E-06,0.021950626
,,,-3.12E-06,0.021597501
,,,-3.11E-06,0.021666876
,,,-3.1E-06,0.021967501
,,,-3.09E-06,0.021780001
,,,-3.08E-06,0.021740001
,,,-3.07E-06,0.021510001
,,,-3.06E-06,0.021873751
,,,-3.05E-06,0.021689376
,,,-3.04E-06,0.021865626
,,,-3.03E-06,0.021866876
,,,-3.02E-06,0.021966876
,,,-3.01E-06,0.021823126
,,,-3E-06,0.021858126
,,,-2.99E-06,0.021992501
,,,-2.98E-06,0.021836876
,,,-2.97E-06,0.021805626
,,,-2.96E-06,0.021531251
,,,-2.95E-06,0.021560001
,,,-2.94E-06,0.021596251
,,,-2.93E-06,0.021839376
,,,-2.92E-06,0.021992501
,,,-2.91E-06,0.022078751
,,,-2.9E-06,0.021955001
,,,-2.89E-06,0.021884376
,,,-2.88E-06,0.021785626
,,,-2.87E-06,0.021608126
,,,-2.86E-06,0.021673126
,,,-2.85E-06,0.021950626
,,,-2.84E-06,0.021878751
,,,-2.83E-06,0.021698126
,,,-2.82E-06,0.021743751
,,,-2.81E-06,0.021823126
,,,-2.8E-06,0.021700001
,,,-2.79E-06,0.021605001
,,,-2.78E-06,0.021868751
,,,-2.77E-06,0.021967501
,,,-2.76E-06,0.022113126
,,,-2.75E-06,0.022008126
,,,-2.74E-06,0.021909376
,,,-2.73E-06,0.021735001
,,,-2.72E-06,0.021855626
,,,-2.71E-06,0.021962501
,,,-2.7E-06,0.021790001
,,,-2.69E-06,0.021976251
,,,-2.68E-06,0.021910001
,,,-2.67E-06,0.021835626
,,,-2.66E-06,0.022108126
,,,-2.65E-06,0.021700001
,,,-2.64E-06,0.021706251
,,,-2.63E-06,0.021690001
,,,-2.62E-06,0.021764376
,,,-2.61E-06,0.021861876
,,,-2.6E-06,0.021947501
,,,-2.59E-06,0.021928126
,,,-2.58E-06,0.021873751
,,,-2.57E-06,0.021896251
,,,-2.56E-06,0.021932501
,,,-2.55E-06,0.021696251
,,,-2.54E-06,0.021823751
,,,-2.53E-06,0.021977501
,,,-2.52E-06,0.022062501
,,,-2.51E-06,0.021694376
,,,-2.5E-06,0.022036876
,,,-2.49E-06,0.021862501
,,,-2.48E-06,0.021711876
,,,-2.47E-06,0.021782501
,,,-2.46E-06,0.021720001
,,,-2.45E-06,0.022006876
,,,-2.44E-06,0.021995001
,,,-2.43E-06,0.021842501
,,,-2.42E-06,0.021853751
,,,-2.41E-06,0.021900626
,,,-2.4E-06,0.021910626
,,,-2.39E-06,0.021596876
,,,-2.38E-06,0.021533126
,,,-2.37E-06,0.021770626
,,,-2.36E-06,0.021840001
,,,-2.35E-06,0.021825626
,,,-2.34E-06,0.022221876
,,,-2.33E-06,0.021811876
,,,-2.32E-06,0.021485001
,,,-2.31E-06,0.021913751
,,,-2.3E-06,0.021952501
,,,-2.29E-06,0.021822501
,,,-2.28E-06,0.021794376
,,,-2.27E-06,0.021689376
,,,-2.26E-06,0.021653751
,,,-2.25E-06,0.021651251
,,,-2.24E-06,0.022073751
,,,-2.23E-06,0.021680001
,,,-2.22E-06,0.021904376
,,,-2.21E-06,0.021645626
,,,-2.2E-06,0.021940001
,,,-2.19E-06,0.021670626
,,,-2.18E-06,0.021995001
,,,-2.17E-06,0.022007501
,,,-2.16E-06,0.021740626
,,,-2.15E-06,0.022072501
,,,-2.14E-06,0.021831876
,,,-2.13E-06,0.021621251
,,,-2.12E-06,0.021873751
,,,-2.11E-06,0.022009376
,,,-2.1E-06,0.021791251
,,,-2.09E-06,0.021895001
,,,-2.08E-06,0.021920001
,,,-2.07E-06,0.021793126
,,,-2.06E-06,0.021489376
,,,-2.05E-06,0.021833751
,,,-2.04E-06,0.021670626
,,,-2.03E-06,0.021773751
,,,-2.02E-06,0.021831876
,,,-2.01E-06,0.022154376
,,,-2E-06,0.021979376
,,,-1.99E-06,0.021814376
,,,-1.98E-06,0.021816876
,,,-1.97E-06,0.021815626
,,,-1.96E-06,0.021860001
,,,-1.95E-06,0.021727501
,,,-1.94E-06,0.021842501
,,,-1.93E-06,0.021804376
,,,-1.92E-06,0.021858751
,,,-1.91E-06,0.021918751
,,,-1.9E-06,0.021673126
,,,-1.89E-06,0.021990001
,,,-1.88E-06,0.021488751
,,,-1.87E-06,0.021662501
,,,-1.86E-06,0.021840626
,,,-1.85E-06,0.021755001
,,,-1.84E-06,0.021645626
,,,-1.83E-06,0.021730626
,,,-1.82E-06,0.021874376
,,,-1.81E-06,0.021803126
,,,-1.8E-06,0.021870001
,,,-1.79E-06,0.021855001
,,,-1.78E-06,0.021761876
,,,-1.77E-06,0.021845001
,,,-1.76E-06,0.021588751
,,,-1.75E-06,0.021641251
,,,-1.74E-06,0.021803126
,,,-1.73E-06,0.021966251
,,,-1.72E-06,0.021770626
,,,-1.71E-06,0.021901251
,,,-1.7E-06,0.021621251
,,,-1.69E-06,0.021805001
,,,-1.68E-06,0.021928751
,,,-1.67E-06,0.021986251
,,,-1.66E-06,0.021701876
,,,-1.65E-06,0.021544376
,,,-1.64E-06,0.021692501
,,,-1.63E-06,0.021673751
,,,-1.62E-06,0.021680626
,,,-1.61E-06,0.022153751
,,,-1.6E-06,0.021588126
,,,-1.59E-06,0.021568126
,,,-1.58E-06,0.021940626
,,,-1.57E-06,0.021786876
,,,-1.56E-06,0.021758126
,,,-1.55E-06,0.021811251
,,,-1.54E-06,0.021581876
,,,-1.53E-06,0.022172501
,,,-1.52E-06,0.021840001
,,,-1.51E-06,0.021875626
,,,-1.5E-06,0.021554376
,,,-1.49E-06,0.021828126
,,,-1.48E-06,0.022118126
,,,-1.47E-06,0.022029376
,,,-1.46E-06,0.021726876
,,,-1.45E-06,0.021943126
,,,-1.44E-06,0.021932501
,,,-1.43E-06,0.021735001
,,,-1.42E-06,0.021910001
,,,-1.41E-06,0.021677501
,,,-1.4E-06,0.021645626
,,,-1.39E-06,0.021895001
,,,-1.38E-06,0.021651876
,,,-1.37E-06,0.021877501
,,,-1.36E-06,0.021697501
,,,-1.35E-06,0.021820001
,,,-1.34E-06,0.021812501
,,,-1.33E-06,0.021626251
,,,-1.32E-06,0.021679376
,,,-1.31E-06,0.022035001
,,,-1.3E-06,0.021677501
,,,-1.29E-06,0.021755001
,,,-1.28E-06,0.021835001
,,,-1.27E-06,0.021780001
,,,-1.26E-06,0.021875001
,,,-1.25E-06,0.021865001
,,,-1.24E-06,0.021975626
,,,-1.23E-06,0.021994376
,,,-1.22E-06,0.021809376
,,,-1.21E-06,0.021775626
,,,-1.2E-06,0.021701251
,,,-1.19E-06,0.022016251
,,,-1.18E-06,0.021756876
,,,-1.17E-06,0.021923751
,,,-1.16E-06,0.021902501
,,,-1.15E-06,0.021736876
,,,-1.14E-06,0.021939376
,,,-1.13E-06,0.021623126
,,,-1.12E-06,0.021653126
,,,-1.11E-06,0.021844376
,,,-1.1E-06,0.021868126
,,,-1.09E-06,0.021945001
,,,-1.08E-06,0.021770626
,,,-1.07E-06,0.021670001
,,,-1.06E-06,0.021451876
,,,-1.05E-06,0.021703751
,,,-1.04E-06,0.021936251
,,,-1.03E-06,0.021978751
,,,-1.02E-06,0.022054376
,,,-1.01E-06,0.021945626
,,,-1E-06,0.021785001
,,,-9.9E-07,0.021624376
,,,-9.8E-07,0.021872501
,,,-9.7E-07,0.021739376
,,,-9.6E-07,0.021868126
,,,-9.5E-07,0.021556251
,,,-9.4E-07,0.021958126
,,,-9.3E-07,0.021900626
,,,-9.2E-07,0.021880001
,,,-9.1E-07,0.021716876
,,,-9E-07,0.021868126
,,,-8.9E-07,0.021805626
,,,-8.8E-07,0.021814376
,,,-8.7E-07,0.021795626
,,,-8.6E-07,0.022052501
,,,-8.5E-07,0.021780626
,,,-8.4E-07,0.021865001
,,,-8.3E-07,0.021920001
,,,-8.2E-07,0.021718126
,,,-8.1E-07,0.021838126
,,,-8E-07,0.021723751
,,,-7.9E-07,0.021686876
,,,-7.8E-07,0.021811251
,,,-7.7E-07,0.022286876
,,,-7.6E-07,0.021958751
,,,-7.5E-07,0.021736251
,,,-7.4E-07,0.021787501
,,,-7.3E-07,0.021828751
,,,-7.2E-07,0.021731251
,,,-7.1E-07,0.021671876
,,,-7E-07,0.022003126
,,,-6.9E-07,0.021968126
,,,-6.8E-07,0.021577501
,,,-6.7E-07,0.021825001
,,,-6.6E-07,0.021925001
,,,-6.5E-07,0.021602501
,,,-6.4E-07,0.021840001
,,,-6.3E-07,0.021674376
,,,-6.2E-07,0.021838126
,,,-6.1E-07,0.021790626
,,,-6E-07,0.021969376
,,,-5.9E-07,0.021757501
,,,-5.8E-07,0.021860626
,,,-5.7E-07,0.021945001
,,,-5.6E-07,0.021717501
,,,-5.5E-07,0.021529376
,,,-5.4E-07,0.021750001
,,,-5.3E-07,0.021870001
,,,-5.2E-07,0.021675626
,,,-5.1E-07,0.021710001
,,,-5E-07,0.021780001
,,,-4.9E-07,0.021866251
,,,-4.8E-07,0.021824376
,,,-4.7E-07,0.022058126
,,,-4.6E-07,0.021845001
,,,-4.5E-07,0.021924376
,,,-4.4E-07,0.021684376
,,,-4.3E-07,0.022043751
,,,-4.2E-07,0.021754376
,,,-4.1E-07,0.021837501
,,,-4E-07,0.021695626
,,,-3.9E-07,0.021742501
,,,-3.8E-07,0.022021876
,,,-3.7E-07,0.021603126
,,,-3.6E-07,0.021842501
,,,-3.5E-07,0.021840001
,,,-3.4E-07,0.022037501
,,,-3.3E-07,0.021847501
,,,-3.2E-07,0.021641876
,,,-3.1E-07,0.021556876
,,,-3E-07,0.021993751
,,,-2.9E-07,0.021696876
,,,-2.8E-07,0.021683126
,,,-2.7E-07,0.021990001
,,,-2.6E-07,0.021875626
,,,-2.5E-07,0.021696251
,,,-2.4E-07,0.021765626
,,,-2.3E-07,0.021770001
,,,-2.2E-07,0.022060001
,,,-2.1E-07,0.021791876
,,,-2E-07,0.022033751
,,,-1.9E-07,0.021976251
,,,-1.8E-07,0.022015626
,,,-1.7E-07,0.021816876
,,,-1.6E-07,0.021791876
,,,-1.5E-07,0.021852501
,,,-1.4E-07,0.021740001
,,,-1.3E-07,0.021770001
,,,-1.2E-07,0.021971876
,,,-1.1E-07,0.021972501
,,,-1E-07,0.021837501
,,,-9E-08,0.021927501
,,,-8E-08,0.021626251
,,,-7E-08,0.021769376
,,,-6E-08,0.021722501
,,,-5E-08,0.022073126
,,,-4E-08,0.023320626
,,,-3E-08,0.022006251
,,,-2E-08,0.019835626
,,,-1E-08,0.018578126
,,,0,0.020624376
,,,1E-08,0.024871876
,,,2E-08,0.025650626
,,,3E-08,0.024061251
,,,4E-08,0.020868751
,,,5E-08,0.019247501
,,,6E-08,0.019347501
,,,7E-08,0.020871876
,,,8E-08,0.023068126
,,,9E-08,0.023898126
,,,1E-07,0.023514376
,,,1.1E-07,0.021775001
,,,1.2E-07,0.020878126
,,,1.3E-07,0.020646876
,,,1.4E-07,0.021292501
,,,1.5E-07,0.022108126
,,,1.6E-07,0.022247501
,,,1.7E-07,0.021858126
,,,1.8E-07,0.022331876
,,,1.9E-07,0.021861251
,,,2E-07,0.021636876
,,,2.1E-07,0.021386876
,,,2.2E-07,0.021530001
,,,2.3E-07,0.021755626
,,,2.4E-07,0.022080626
,,,2.5E-07,0.021946876
,,,2.6E-07,0.021795626
,,,2.7E-07,0.021831876
,,,2.8E-07,0.021700626
,,,2.9E-07,0.021680001
,,,3E-07,0.021471876
,,,3.1E-07,0.021707501
,,,3.2E-07,0.021904376
,,,3.3E-07,0.021791251
,,,3.4E-07,0.021870001
,,,3.5E-07,0.021722501
,,,3.6E-07,0.021650001
,,,3.7E-07,0.021877501
,,,3.8E-07,0.021937501
,,,3.9E-07,0.021927501
,,,4E-07,0.021716251
,,,4.1E-07,0.021536251
,,,4.2E-07,0.021984376
,,,4.3E-07,0.021940626
,,,4.4E-07,0.021813751
,,,4.5E-07,0.021926876
,,,4.6E-07,0.021585626
,,,4.7E-07,0.021839376
,,,4.8E-07,0.021867501
,,,4.9E-07,0.021659376
,,,5E-07,0.021876251
,,,5.1E-07,0.021804376
,,,5.2E-07,0.021741876
,,,5.3E-07,0.021921251
,,,5.4E-07,0.021569376
,,,5.5E-07,0.021936876
,,,5.6E-07,0.021932501
,,,5.7E-07,0.022104376
,,,5.8E-07,0.021474376
,,,5.9E-07,0.021826876
,,,6E-07,0.021815001
,,,6.1E-07,0.021765626
,,,6.2E-07,0.021858126
,,,6.3E-07,0.022073126
,,,6.4E-07,0.021632501
,,,6.5E-07,0.021838751
,,,6.6E-07,0.021875001
,,,6.7E-07,0.021868751
,,,6.8E-07,0.021866251
,,,6.9E-07,0.021818126
,,,7E-07,0.021750626
,,,7.1E-07,0.021786251
,,,7.2E-07,0.021615001
,,,7.3E-07,0.022055626
,,,7.4E-07,0.021930001
,,,7.5E-07,0.021608126
,,,7.6E-07,0.021991876
,,,7.7E-07,0.021592501
,,,7.8E-07,0.021877501
,,,7.9E-07,0.021803751
,,,8E-07,0.021723751
,,,8.1E-07,0.021687501
,,,8.2E-07,0.021815626
,,,8.3E-07,0.021718126
,,,8.4E-07,0.021575001
,,,8.5E-07,0.021880001
,,,8.6E-07,0.021918751
,,,8.7E-07,0.021763751
,,,8.8E-07,0.021822501
,,,8.9E-07,0.021774376
,,,9E-07,0.021841876
,,,9.1E-07,0.021645626
,,,9.2E-07,0.021724376
,,,9.3E-07,0.021775626
,,,9.4E-07,0.021683751
,,,9.5E-07,0.021753126
,,,9.6E-07,0.022113751
,,,9.7E-07,0.021677501
,,,9.8E-07,0.021734376
,,,9.9E-07,0.021667501
,,,1E-06,0.021850626
,,,1.01E-06,0.021716251
,,,1.02E-06,0.021613751
,,,1.03E-06,0.021797501
,,,1.04E-06,0.021824376
,,,1.05E-06,0.021851876
,,,1.06E-06,0.021841251
,,,1.07E-06,0.021800001
,,,1.08E-06,0.021640626
,,,1.09E-06,0.021941251
,,,1.1E-06,0.021618126
,,,1.11E-06,0.022050626
,,,1.12E-06,0.021664376
,,,1.13E-06,0.022122501
,,,1.14E-06,0.022096251
,,,1.15E-06,0.021792501
,,,1.16E-06,0.022013751
,,,1.17E-06,0.021613126
,,,1.18E-06,0.021596876
,,,1.19E-06,0.021987501
,,,1.2E-06,0.021931876
,,,1.21E-06,0.021681876
,,,1.22E-06,0.021799376
,,,1.23E-06,0.021642501
,,,1.24E-06,0.021657501
,,,1.25E-06,0.021760626
,,,1.26E-06,0.021913126
,,,1.27E-06,0.021705001
,,,1.28E-06,0.021800626
,,,1.29E-06,0.021825626
,,,1.3E-06,0.021771876
,,,1.31E-06,0.021831876
,,,1.32E-06,0.021960001
,,,1.33E-06,0.022014376
,,,1.34E-06,0.022051876
,,,1.35E-06,0.021773751
,,,1.36E-06,0.021776251
,,,1.37E-06,0.021788751
,,,1.38E-06,0.021896876
,,,1.39E-06,0.022220626
,,,1.4E-06,0.021674376
,,,1.41E-06,0.021949376
,,,1.42E-06,0.021890626
,,,1.43E-06,0.022040001
,,,1.44E-06,0.021843751
,,,1.45E-06,0.021975001
,,,1.46E-06,0.021870626
,,,1.47E-06,0.021786876
,,,1.48E-06,0.021920001
,,,1.49E-06,0.021771251
,,,1.5E-06,0.021853751
,,,1.51E-06,0.021911876
,,,1.52E-06,0.021768126
,,,1.53E-06,0.022075001
,,,1.54E-06,0.021617501
,,,1.55E-06,0.022003126
,,,1.56E-06,0.021995001
,,,1.57E-06,0.021706876
,,,1.58E-06,0.022030001
,,,1.59E-06,0.021839376
,,,1.6E-06,0.021698751
,,,1.61E-06,0.021680626
,,,1.62E-06,0.021912501
,,,1.63E-06,0.021966251
,,,1.64E-06,0.021931251
,,,1.65E-06,0.022060001
,,,1.66E-06,0.021970626
,,,1.67E-06,0.021771876
,,,1.68E-06,0.021771876
,,,1.69E-06,0.021585626
,,,1.7E-06,0.021796251
,,,1.71E-06,0.021696251
,,,1.72E-06,0.021885001
,,,1.73E-06,0.021845001
,,,1.74E-06,0.021838751
,,,1.75E-06,0.021918751
,,,1.76E-06,0.021753126
,,,1.77E-06,0.021745001
,,,1.78E-06,0.021691876
,,,1.79E-06,0.021768751
,,,1.8E-06,0.021621876
,,,1.81E-06,0.021880626
,,,1.82E-06,0.021635626
,,,1.83E-06,0.021777501
,,,1.84E-06,0.021904376
,,,1.85E-06,0.021866876
,,,1.86E-06,0.021711876
,,,1.87E-06,0.021992501
,,,1.88E-06,0.021846876
,,,1.89E-06,0.021826251
,,,1.9E-06,0.021925001
,,,1.91E-06,0.021587501
,,,1.92E-06,0.022036876
,,,1.93E-06,0.021788126
,,,1.94E-06,0.021923751
,,,1.95E-06,0.021874376
,,,1.96E-06,0.021727501
,,,1.97E-06,0.021829376
,,,1.98E-06,0.022040001
,,,1.99E-06,0.021838126
,,,2E-06,0.021663751
,,,2.01E-06,0.021971251
,,,2.02E-06,0.021815001
,,,2.03E-06,0.021751251
,,,2.04E-06,0.021643751
,,,2.05E-06,0.022181251
,,,2.06E-06,0.021740626
,,,2.07E-06,0.021836876
,,,2.08E-06,0.021809376
,,,2.09E-06,0.021734376
,,,2.1E-06,0.021745626
,,,2.11E-06,0.021715626
,,,2.12E-06,0.021928126
,,,2.13E-06,0.021866251
,,,2.14E-06,0.021669376
,,,2.15E-06,0.021773751
,,,2.16E-06,0.022145001
,,,2.17E-06,0.022110626
,,,2.18E-06,0.021841251
,,,2.19E-06,0.021761251
,,,2.2E-06,0.021709376
,,,2.21E-06,0.021815626
,,,2.22E-06,0.021802501
,,,2.23E-06,0.021776876
,,,2.24E-06,0.021813126
,,,2.25E-06,0.021868751
,,,2.26E-06,0.021816876
,,,2.27E-06,0.021901251
,,,2.28E-06,0.021891876
,,,2.29E-06,0.021782501
,,,2.3E-06,0.021890626
,,,2.31E-06,0.021938751
,,,2.32E-06,0.021770001
,,,2.33E-06,0.021809376
,,,2.34E-06,0.021701876
,,,2.35E-06,0.021910626
,,,2.36E-06,0.021837501
,,,2.37E-06,0.021807501
,,,2.38E-06,0.021906876
,,,2.39E-06,0.021676251
,,,2.4E-06,0.021856876
,,,2.41E-06,0.021917501
,,,2.42E-06,0.021705001
,,,2.43E-06,0.021808126
,,,2.44E-06,0.021745001
,,,2.45E-06,0.021918751
,,,2.46E-06,0.021798751
,,,2.47E-06,0.021973751
,,,2.48E-06,0.021731251
,,,2.49E-06,0.021740001
,,,2.5E-06,0.021940001
,,,2.51E-06,0.021526251
,,,2.52E-06,0.022024376
,,,2.53E-06,0.021930626
,,,2.54E-06,0.021791876
,,,2.55E-06,0.021906876
,,,2.56E-06,0.021833751
,,,2.57E-06,0.021799376
,,,2.58E-06,0.021607501
,,,2.59E-06,0.021934376
,,,2.6E-06,0.021913751
,,,2.61E-06,0.021935626
,,,2.62E-06,0.021685001
,,,2.63E-06,0.022062501
,,,2.64E-06,0.021530626
,,,2.65E-06,0.021901251
,,,2.66E-06,0.021650626
,,,2.67E-06,0.021901251
,,,2.68E-06,0.021786251
,,,2.69E-06,0.021651251
,,,2.7E-06,0.021646876
,,,2.71E-06,0.021951251
,,,2.72E-06,0.021742501
,,,2.73E-06,0.021719376
,,,2.74E-06,0.022081251
,,,2.75E-06,0.021761251
,,,2.76E-06,0.021767501
,,,2.77E-06,0.021879376
,,,2.78E-06,0.021724376
,,,2.79E-06,0.021696876
,,,2.8E-06,0.021787501
,,,2.81E-06,0.021967501
,,,2.82E-06,0.021780626
,,,2.83E-06,0.021429376
,,,2.84E-06,0.021782501
,,,2.85E-06,0.021658751
,,,2.86E-06,0.021709376
,,,2.87E-06,0.022002501
,,,2.88E-06,0.021949376
,,,2.89E-06,0.021973126
,,,2.9E-06,0.021882501
,,,2.91E-06,0.021690001
,,,2.92E-06,0.021919376
,,,2.93E-06,0.021905626
,,,2.94E-06,0.021982501
,,,2.95E-06,0.021750626
,,,2.96E-06,0.022125001
,,,2.97E-06,0.021844376
,,,2.98E-06,0.021803126
,,,2.99E-06,0.021595626
,,,3E-06,0.021704376
,,,3.01E-06,0.021880001
,,,3.02E-06,0.021532501
,,,3.03E-06,0.021982501
,,,3.04E-06,0.021614376
,,,3.05E-06,0.021765626
,,,3.06E-06,0.021903126
,,,3.07E-06,0.021836251
,,,3.08E-06,0.021840626
,,,3.09E-06,0.021626876
,,,3.1E-06,0.021526251
,,,3.11E-06,0.021895626
,,,3.12E-06,0.021625001
,,,3.13E-06,0.021901876
,,,3.14E-06,0.021833126
,,,3.15E-06,0.021866876
,,,3.16E-06,0.022065001
,,,3.17E-06,0.021695001
,,,3.18E-06,0.021759376
,,,3.19E-06,0.021900001
,,,3.2E-06,0.021815001
,,,3.21E-06,0.022000626
