data/raw/Final_POL_Test_1/SOP090_Ch1.csv

"Record Length",1000,"Points",-5E-06,0.005723125
"Sample Interval",1E-08,s,-4.99E-06,0.005640625
"Trigger Point",500,"Samples",-4.98E-06,0.00598375
"Trigger Time",0,s,-4.97E-06,0.0058225
"",,,-4.96E-06,0.00623375
"Horizontal Offset",-5E-06,s,-4.95E-06,0.00576625
,,,-4.94E-06,0.00592375
,,,-4.93E-06,0.006000625
,,,-4.92E-06,0.005770625
,,,-4.91E-06,0.005803125
,,,-4.9E-06,0.005845625
,,,-4.89E-06,0.005928125
,,,-4.88E-06,0.00608125
,,,-4.87E-06,0.00561
,,,-4.86E-06,0.0058975
,,,-4.85E-06,0.006
,,,-4.84E-06,0.00593125
,,,-4.83E-06,0.006065625
,,,-4.82E-06,0.0062025
,,,-4.81E-06,0.00568375
,,,-4.8E-06,0.00604
,,,-4.79E-06,0.00567
,,,-4.78E-06,0.0058375
,,,-4.77E-06,0.00595875
,,,-4.76E-06,0.005751875
,,,-4.75E-06,0.005705
,,,-4.74E-06,0.00611
,,,-4.73E-06,0.005918125
,,,-4.72E-06,0.00595625
,,,-4.71E-06,0.005823125
,,,-4.7E-06,0.0057075
,,,-4.69E-06,0.005981875
,,,-4.68E-06,0.005821875
,,,-4.67E-06,0.00572125
,,,-4.66E-06,0.005864375
,,,-4.65E-06,0.005905
,,,-4.64E-06,0.0058525
,,,-4.63E-06,0.005648125
,,,-4.62E-06,0.0058575
,,,-4.61E-06,0.005845625
,,,-4.6E-06,0.00578375
,,,-4.59E-06,0.005689375
,,,-4.58E-06,0.00562875
,,,-4.57E-06,0.006011875
,,,-4.56E-06,0.005938125
,,,-4.55E-06,0.00586
,,,-4.54E-06,0.006115
,,,-4.53E-06,0.005764375
,,,-4.52E-06,0.00577125
,,,-4.51E-06,0.0060175
,,,-4.5E-06,0.00577
,,,-4.49E-06,0.005703125
,,,-4.48E-06,0.005906875
,,,-4.47E-06,0.00556125
,,,-4.46E-06,0.005901875
,,,-4.45E-06,0.005991875
,,,-4.44E-06,0.00583
,,,-4.43E-06,0.00607375
,,,-4.42E-06,0.00566
,,,-4.41E-06,0.005638125
,,,-4.4E-06,0.0059675
,,,-4.39E-06,0.006024375
,,,-4.38E-06,0.00587125
,,,-4.37E-06,0.0056675
,,,-4.36E-06,0.005763125
,,,-4.35E-06,0.005996875
,,,-4.34E-06,0.0058825
,,,-4.33E-06,0.00594625
,,,-4.32E-06,0.00586
,,,-4.31E-06,0.0061225
,,,-4.3E-06,0.0056875
,,,-4.29E-06,0.00582125
,,,-4.28E-06,0.00582375
,,,-4.27E-06,0.0057175
,,,-4.26E-06,0.005724375
,,,-4.25E-06,0.0060075
,,,-4.24E-06,0.00603125
,,,-4.23E-06,0.005866875
,,,-4.22E-06,0.00595125
,,,-4.21E-06,0.00557375
,,,-4.2E-06,0.005949375
,,,-4.19E-06,0.005833125
,,,-4.18E-06,0.006
,,,-4.17E-06,0.00565375
,,,-4.16E-06,0.0056725
,,,-4.15E-06,0.0059
,,,-4.14E-06,0.0057725
,,,-4.13E-06,0.006041875
,,,-4.12E-06,0.005895625
,,,-4.11E-06,0.00586
,,,-4.1E-06,0.00586
,,,-4.09E-06,0.005626875
,,,-4.08E-06,0.006178125
,,,-4.07E-06,0.006058125
,,,-4.06E-06,0.00579875
,,,-4.05E-06,0.00593125
,,,-4.04E-06,0.005783125
,,,-4.03E-06,0.005845625
,,,-4.02E-06,0.005685625
,,,-4.01E-06,0.005745
,,,-4E-06,0.00589625
,,,-3.99E-06,0.00570375
,,,-3.98E-06,0.00588125
,,,-3.97E-06,0.005896875
,,,-3.96E-06,0.005918125
,,,-3.95E-06,0.00587125
,,,-3.94E-06,0.005745625
,,,-3.93E-06,0.005698125
,,,-3.92E-06,0.005745625
,,,-3.91E-06,0.0057775
,,,-3.9E-06,0.00605125
,,,-3.89E-06,0.005715625
,,,-3.88E-06,0.0057975
,,,-3.87E-06,0.005829375
,,,-3.86E-06,0.005820625
,,,-3.85E-06,0.005615
,,,-3.84E-06,0.00588625
,,,-3.83E-06,0.005944375
,,,-3.82E-06,0.00598
,,,-3.81E-06,0.00602625
,,,-3.8E-06,0.005894375
,,,-3.79E-06,0.005685625
,,,-3.78E-06,0.006085
,,,-3.77E-06,0.005785625
,,,-3.76E-06,0.00605875
,,,-3.75E-06,0.00594125
,,,-3.74E-06,0.00608125
,,,-3.73E-06,0.005959375
,,,-3.72E-06,0.006123125
,,,-3.71E-06,0.0059475
,,,-3.7E-06,0.0057675
,,,-3.69E-06,0.005994375
,,,-3.68E-06,0.005905625
,,,-3.67E-06,0.006069375
,,,-3.66E-06,0.005799375
,,,-3.65E-06,0.005750625
,,,-3.64E-06,0.0055875
,,,-3.63E-06,0.00579
,,,-3.62E-06,0.0059125
,,,-3.61E-06,0.005741875
,,,-3.6E-06,0.005880625
,,,-3.59E-06,0.006010625
,,,-3.58E-06,0.00591125
,,,-3.57E-06,0.005989375
,,,-3.56E-06,0.00571125
,,,-3.55E-06,0.00597125
,,,-3.54E-06,0.005570625
,,,-3.53E-06,0.006000625
,,,-3.52E-06,0.00576
,,,-3.51E-06,0.0056525
,,,-3.5E-06,0.005838125
,,,-3.49E-06,0.006013125
,,,-3.48E-06,0.0060675
,,,-3.47E-06,0.005721875
,,,-3.46E-06,0.005811875
,,,-3.45E-06,0.005865
,,,-3.44E-06,0.00575875
,,,-3.43E-06,0.0060125
,,,-3.42E-06,0.0057425
,,,-3.41E-06,0.005830625
,,,-3.4E-06,0.005931875
,,,-3.39E-06,0.0059075
,,,-3.38E-06,0.005751875
,,,-3.37E-06,0.006036875
,,,-3.36E-06,0.00597625
,,,-3.35E-06,0.005784375
,,,-3.34E-06,0.005806875
,,,-3.33E-06,0.005863125
,,,-3.32E-06,0.0059
,,,-3.31E-06,0.0057525
,,,-3.3E-06,0.00582
,,,-3.29E-06,0.0058375
,,,-3.28E-06,0.00585375
,,,-3.27E-06,0.00581
,,,-3.26E-06,0.005861875
,,,-3.25E-06,0.005826875
,,,-3.24E-06,0.0059325
,,,-3.23E-06,0.00608125
,,,-3.22E-06,0.00572125
,,,-3.21E-06,0.00564625
,,,-3.2E-06,0.005631875
,,,-3.19E-06,0.00571625
,,,-3.18E-06,0.0059775
,,,-3.17E-06,0.00563
,,,-3.16E-06,0.005704375
,,,-3.15E-06,0.00573125
,,,-3.14E-06,0.005889375
,,,-3.13E-06,0.005779375
,,,-3.12E-06,0.006100625
,,,-3.11E-06,0.005934375
,,,-3.1E-06,0.005989375
,,,-3.09E-06,0.006018125
,,,-3.08E-06,0.0060675
,,,-3.07E-06,0.005916875
,,,-3.06E-06,0.00580875
,,,-3.05E-06,0.005933125
,,,-3.04E-06,0.00568375
,,,-3.03E-06,0.0056875
,,,-3.02E-06,0.00599
,,,-3.01E-06,0.005865
,,,-3E-06,0.005888125
,,,-2.99E-06,0.00595125
,,,-2.98E-06,0.0059575
,,,-2.97E-06,0.005771875
,,,-2.96E-06,0.005705
,,,-2.95E-06,0.005689375
,,,-2.94E-06,0.005790625
,,,-2.93E-06,0.0057325
,,,-2.92E-06,0.006084375
,,,-2.91E-06,0.00615
,,,-2.9E-06,0.005891875
,,,-2.89E-06,0.005811875
,,,-2.88E-06,0.005603125
,,,-2.87E-06,0.005600625
,,,-2.86E-06,0.005890625
,,,-2.85E-06,0.006011875
,,,-2.84E-06,0.00605125
,,,-2.83E-06,0.00614625
,,,-2.82E-06,0.005724375
,,,-2.81E-06,0.005745625
,,,-2.8E-06,0.005779375
,,,-2.79E-06,0.00586125
,,,-2.78E-06,0.005645625
,,,-2.77E-06,0.00574625
,,,-2.76E-06,0.005815625
,,,-2.75E-06,0.0057225
,,,-2.74E-06,0.00590375
,,,-2.73E-06,0.0058875
,,,-2.72E-06,0.005911875
,,,-2.71E-06,0.005673125
,,,-2.7E-06,0.00568375
,,,-2.69E-06,0.00595125
,,,-2.68E-06,0.005921875
,,,-2.67E-06,0.00563
,,,-2.66E-06,0.0057275
,,,-2.65E-06,0.0060075
,,,-2.64E-06,0.005851875
,,,-2.63E-06,0.005755
,,,-2.62E-06,0.0057625
,,,-2.61E-06,0.005711875
,,,-2.6E-06,0.0058875
,,,-2.59E-06,0.006016875
,,,-2.58E-06,0.00617125
,,,-2.57E-06,0.006179375
,,,-2.56E-06,0.00582375
,,,-2.55E-06,0.005673125
,,,-2.54E-06,0.00599125
,,,-2.53E-06,0.005948125
,,,-2.52E-06,0.00581625
,,,-2.51E-06,0.00578125
,,,-2.5E-06,0.0057925
,,,-2.49E-06,0.00587
,,,-2.48E-06,0.00572
,,,-2.47E-06,0.00580625
,,,-2.46E-06,0.005904375
,,,-2.45E-06,0.0056675
,,,-2.44E-06,0.0058
,,,-2.43E-06,0.00604625
,,,-2.42E-06,0.005968125
,,,-2.41E-06,0.005764375
,,,-2.4E-06,0.00585375
,,,-2.39E-06,0.005769375
,,,-2.38E-06,0.005740625
,,,-2.37E-06,0.005600625
,,,-2.36E-06,0.00587125
,,,-2.35E-06,0.006063125
,,,-2.34E-06,0.005895
,,,-2.33E-06,0.0057425
,,,-2.32E-06,0.005613125
,,,-2.31E-06,0.005820625
,,,-2.3E-06,0.005680625
,,,-2.29E-06,0.005718125
,,,-2.28E-06,0.005749375
,,,-2.27E-06,0.006046875
,,,-2.26E-06,0.006025625
,,,-2.25E-06,0.00618
,,,-2.24E-06,0.005726875
,,,-2.23E-06,0.00577
,,,-2.22E-06,0.0057025
,,,-2.21E-06,0.00587625
,,,-2.2E-06,0.00586125
,,,-2.19E-06,0.006135
,,,-2.18E-06,0.0058925
,,,-2.17E-06,0.005619375
,,,-2.16E-06,0.005949375
,,,-2.15E-06,0.00607
,,,-2.14E-06,0.005965
,,,-2.13E-06,0.00568875
,,,-2.12E-06,0.00596
,,,-2.11E-06,0.005581875
,,,-2.1E-06,0.0059625
,,,-2.09E-06,0.00608625
,,,-2.08E-06,0.00596125
,,,-2.07E-06,0.00605
,,,-2.06E-06,0.0056375
,,,-2.05E-06,0.005895
,,,-2.04E-06,0.005838125
,,,-2.03E-06,0.00574375
,,,-2.02E-06,0.006010625
,,,-2.01E-06,0.005863125
,,,-2E-06,0.005931875
,,,-1.99E-06,0.006004375
,,,-1.98E-06,0.00584375
,,,-1.97E-06,0.00583875
,,,-1.96E-06,0.0057075
,,,-1.95E-06,0.005723125
,,,-1.94E-06,0.005851875
,,,-1.93E-06,0.005615
,,,-1.92E-06,0.00591
,,,-1.91E-06,0.005863125
,,,-1.9E-06,0.00594625
,,,-1.89E-06,0.005729375
,,,-1.88E-06,0.006003125
,,,-1.87E-06,0.005728125
,,,-1.86E-06,0.005803125
,,,-1.85E-06,0.00613375
,,,-1.84E-06,0.00571125
,,,-1.83E-06,0.00594
,,,-1.82E-06,0.005968125
,,,-1.81E-06,0.0058275
,,,-1.8E-06,0.005951875
,,,-1.79E-06,0.005799375
,,,-1.78E-06,0.0061125
,,,-1.77E-06,0.00573625
,,,-1.76E-06,0.005968125
,,,-1.75E-06,0.00573
,,,-1.74E-06,0.00602125
,,,-1.73E-06,0.005684375
,,,-1.72E-06,0.00577875
,,,-1.71E-06,0.006035625
,,,-1.7E-06,0.00578125
,,,-1.69E-06,0.005919375
,,,-1.68E-06,0.005825625
,,,-1.67E-06,0.005653125
,,,-1.66E-06,0.005909375
,,,-1.65E-06,0.006030625
,,,-1.64E-06,0.005563125
,,,-1.63E-06,0.00598125
,,,-1.62E-06,0.0057
,,,-1.61E-06,0.005946875
,,,-1.6E-06,0.00584375
,,,-1.59E-06,0.005875
,,,-1.58E-06,0.006024375
,,,-1.57E-06,0.005870625
,,,-1.56E-06,0.0059225
,,,-1.55E-06,0.00592625
,,,-1.54E-06,0.0060675
,,,-1.53E-06,0.0058375
,,,-1.52E-06,0.00598375
,,,-1.51E-06,0.00589
,,,-1.5E-06,0.00586
,,,-1.49E-06,0.00579125
,,,-1.48E-06,0.0062025
,,,-1.47E-06,0.0059975
,,,-1.46E-06,0.005886875
,,,-1.45E-06,0.0059425
,,,-1.44E-06,0.005764375
,,,-1.43E-06,0.005765625
,,,-1.42E-06,0.0057625
,,,-1.41E-06,0.0061425
,,,-1.4E-06,0.005756875
,,,-1.39E-06,0.00586625
,,,-1.38E-06,0.00584125
,,,-1.37E-06,0.0058175
,,,-1.36E-06,0.005960625
,,,-1.35E-06,0.005831875
,,,-1.34E-06,0.005905
,,,-1.33E-06,0.005935625
,,,-1.32E-06,0.0060125
,,,-1.31E-06,0.0060225
,,,-1.3E-06,0.005555
,,,-1.29E-06,0.00560125
,,,-1.28E-06,0.0058575
,,,-1.27E-06,0.0060725
,,,-1.26E-06,0.005825625
,,,-1.25E-06,0.00599125
,,,-1.24E-06,0.005673125
,,,-1.23E-06,0.005543125
,,,-1.22E-06,0.005973125
,,,-1.21E-06,0.006061875
,,,-1.2E-06,0.0058525
,,,-1.19E-06,0.00575625
,,,-1.18E-06,0.005854375
,,,-1.17E-06,0.0058175
,,,-1.16E-06,0.006120625
,,,-1.15E-06,0.005975625
,,,-1.14E-06,0.00554625
,,,-1.13E-06,0.005668125
,,,-1.12E-06,0.0059825
,,,-1.11E-06,0.00588
,,,-1.1E-06,0.005676875
,,,-1.09E-06,0.005989375
,,,-1.08E-06,0.005950625
,,,-1.07E-06,0.005766875
,,,-1.06E-06,0.00581875
,,,-1.05E-06,0.0059075
,,,-1.04E-06,0.00581375
,,,-1.03E-06,0.005615625
,,,-1.02E-06,0.005815
,,,-1.01E-06,0.005905
,,,-1E-06,0.0058475
,,,-9.9E-07,0.00581375
,,,-9.8E-07,0.005813125
,,,-9.7E-07,0.0058925
,,,-9.6E-07,0.006003125
,,,-9.5E-07,0.00604125
,,,-9.4E-07,0.005945625
,,,-9.3E-07,0.005910625
,,,-9.2E-07,0.006108125
,,,-9.1E-07,0.005980625
,,,-9E-07,0.005878125
,,,-8.9E-07,0.005685
,,,-8.8E-07,0.005784375
,,,-8.7E-07,0.005825625
,,,-8.6E-07,0.005701875
,,,-8.5E-07,0.005918125
,,,-8.4E-07,0.005939375
,,,-8.3E-07,0.005996875
,,,-8.2E-07,0.0059625
,,,-8.1E-07,0.005954375
,,,-8E-07,0.005976875
,,,-7.9E-07,0.00597125
,,,-7.8E-07,0.00562625
,,,-7.7E-07,0.005928125
,,,-7.6E-07,0.005925625
,,,-7.5E-07,0.00589875
,,,-7.4E-07,0.00575875
,,,-7.3E-07,0.00574375
,,,-7.2E-07,0.00600875
,,,-7.1E-07,0.00575875
,,,-7E-07,0.005854375
,,,-6.9E-07,0.00584875
,,,-6.8E-07,0.005739375
,,,-6.7E-07,0.00603
,,,-6.6E-07,0.005951875
,,,-6.5E-07,0.005853125
,,,-6.4E-07,0.005813125
,,,-6.3E-07,0.005653125
,,,-6.2E-07,0.00580375
,,,-6.1E-07,0.0056825
,,,-6E-07,0.005819375
,,,-5.9E-07,0.005824375
,,,-5.8E-07,0.0059175
,,,-5.7E-07,0.005861875
,,,-5.6E-07,0.005746875
,,,-5.5E-07,0.006139375
,,,-5.4E-07,0.00607625
,,,-5.3E-07,0.00589875
,,,-5.2E-07,0.00595375
,,,-5.1E-07,0.00579875
,,,-5E-07,0.005825625
,,,-4.9E-07,0.00574625
,,,-4.8E-07,0.005673125
,,,-4.7E-07,0.005926875
,,,-4.6E-07,0.005874375
,,,-4.5E-07,0.005984375
,,,-4.4E-07,0.00575625
,,,-4.3E-07,0.00612375
,,,-4.2E-07,0.005878125
,,,-4.1E-07,0.005755625
,,,-4E-07,0.005680625
,,,-3.9E-07,0.005784375
,,,-3.8E-07,0.005869375
,,,-3.7E-07,0.006030625
,,,-3.6E-07,0.005635
,,,-3.5E-07,0.005741875
,,,-3.4E-07,0.005750625
,,,-3.3E-07,0.005879375
,,,-3.2E-07,0.005658125
,,,-3.1E-07,0.005724375
,,,-3E-07,0.0061475
,,,-2.9E-07,0.005858125
,,,-2.8E-07,0.005936875
,,,-2.7E-07,0.00590875
,,,-2.6E-07,0.00594375
,,,-2.5E-07,0.005844375
,,,-2.4E-07,0.006020625
,,,-2.3E-07,0.005659375
,,,-2.2E-07,0.005651875
,,,-2.1E-07,0.005904375
,,,-2E-07,0.005859375
,,,-1.9E-07,0.005846875
,,,-1.8E-07,0.005838125
,,,-1.7E-07,0.005779375
,,,-1.6E-07,0.005985
,,,-1.5E-07,0.00579
,,,-1.4E-07,0.0058225
,,,-1.3E-07,0.0058975
,,,-1.2E-07,0.00576375
,,,-1.1E-07,0.005974375
,,,-1E-07,0.005699375
,,,-9E-08,0.00581625
,,,-8E-08,0.005801875
,,,-7E-08,0.00584375
,,,-6E-08,0.005854375
,,,-5E-08,0.005980625
,,,-4E-08,0.00691125
,,,-3E-08,0.00612125
,,,-2E-08,0.0036425
,,,-1E-08,0.00228875
,,,0,0.004891875
,,,1E-08,0.008951875
,,,2E-08,0.0094875
,,,3E-08,0.00755
,,,4E-08,0.004504375
,,,5E-08,0.003183125
,,,6E-08,0.003355
,,,7E-08,0.005021875
,,,8E-08,0.007
,,,9E-08,0.008243125
,,,1E-07,0.00723875
,,,1.1E-07,0.0060425
,,,1.2E-07,0.0047575
,,,1.3E-07,0.004723125
,,,1.4E-07,0.005225
,,,1.5E-07,0.006306875
,,,1.6E-07,0.00629875
,,,1.7E-07,0.00593125
,,,1.8E-07,0.00633375
,,,1.9E-07,0.005740625
,,,2E-07,0.00579375
,,,2.1E-07,0.0057375
,,,2.2E-07,0.005778125
,,,2.3E-07,0.00592375
,,,2.4E-07,0.005889375
,,,2.5E-07,0.00608375
,,,2.6E-07,0.005778125
,,,2.7E-07,0.00573
,,,2.8E-07,0.005828125
,,,2.9E-07,0.0057575
,,,3E-07,0.00573125
,,,3.1E-07,0.00589
,,,3.2E-07,0.005830625
,,,3.3E-07,0.005973125
,,,3.4E-07,0.00591625
,,,3.5E-07,0.005793125
,,,3.6E-07,0.005669375
,,,3.7E-07,0.00567125
,,,3.8E-07,0.00591875
,,,3.9E-07,0.005970625
,,,4E-07,0.0060725
,,,4.1E-07,0.005931875
,,,4.2E-07,0.005780625
,,,4.3E-07,0.005784375
,,,4.4E-07,0.0059775
,,,4.5E-07,0.0060175
,,,4.6E-07,0.0060375
,,,4.7E-07,0.005685625
,,,4.8E-07,0.005866875
,,,4.9E-07,0.00575375
,,,5E-07,0.00600375
,,,5.1E-07,0.00606125
,,,5.2E-07,0.00606
,,,5.3E-07,0.005884375
,,,5.4E-07,0.005915625
,,,5.5E-07,0.00570125
,,,5.6E-07,0.005709375
,,,5.7E-07,0.006105625
,,,5.8E-07,0.006014375
,,,5.9E-07,0.0057725
,,,6E-07,0.005746875
,,,6.1E-07,0.0056225
,,,6.2E-07,0.0057025
,,,6.3E-07,0.00571
,,,6.4E-07,0.00592
,,,6.5E-07,0.005935
,,,6.6E-07,0.00593875
,,,6.7E-07,0.00584875
,,,6.8E-07,0.0058575
,,,6.9E-07,0.005445
,,,7E-07,0.00592125
,,,7.1E-07,0.00605375
,,,7.2E-07,0.005813125
,,,7.3E-07,0.005695
,,,7.4E-07,0.00590625
,,,7.5E-07,0.00601875
,,,7.6E-07,0.005778125
,,,7.7E-07,0.005840625
,,,7.8E-07,0.006001875
,,,7.9E-07,0.00589
,,,8E-07,0.00589
,,,8.1E-07,0.006005
,,,8.2E-07,0.006131875
,,,8.3E-07,0.0058125
,,,8.4E-07,0.005915625
,,,8.5E-07,0.005693125
,,,8.6E-07,0.005604375
,,,8.7E-07,0.005585625
,,,8.8E-07,0.005908125
,,,8.9E-07,0.005760625
,,,9E-07,0.0058575
,,,9.1E-07,0.00569125
,,,9.2E-07,0.005896875
,,,9.3E-07,0.00575625
,,,9.4E-07,0.005948125
,,,9.5E-07,0.005945
,,,9.6E-07,0.00594125
,,,9.7E-07,0.005665
,,,9.8E-07,0.005775
,,,9.9E-07,0.0058
,,,1E-06,0.005881875
,,,1.01E-06,0.00595125
,,,1.02E-06,0.005483125
,,,1.03E-06,0.005815625
,,,1.04E-06,0.005859375
,,,1.05E-06,0.005884375
,,,1.06E-06,0.005665
,,,1.07E-06,0.0057
,,,1.08E-06,0.00592625
,,,1.09E-06,0.005429375
,,,1.1E-06,0.00589625
,,,1.11E-06,0.00615625
,,,1.12E-06,0.005800625
,,,1.13E-06,0.00594625
,,,1.14E-06,0.0056025
,,,1.15E-06,0.005919375
,,,1.16E-06,0.006095
,,,1.17E-06,0.0060275
,,,1.18E-06,0.00576625
,,,1.19E-06,0.00586125
,,,1.2E-06,0.005668125
,,,1.21E-06,0.005734375
,,,1.22E-06,0.00573375
,,,1.23E-06,0.005776875
,,,1.24E-06,0.0058875
,,,1.25E-06,0.006056875
,,,1.26E-06,0.0060375
,,,1.27E-06,0.00617125
,,,1.28E-06,0.005980625
,,,1.29E-06,0.00569
,,,1.3E-06,0.00601375
,,,1.31E-06,0.006084375
,,,1.32E-06,0.005879375
,,,1.33E-06,0.005641875
,,,1.34E-06,0.0057025
,,,1.35E-06,0.005826875
,,,1.36E-06,0.005976875
,,,1.37E-06,0.00567375
,,,1.38E-06,0.00564125
,,,1.39E-06,0.005843125
,,,1.4E-06,0.005800625
,,,1.41E-06,0.00584
,,,1.42E-06,0.005796875
,,,1.43E-06,0.00583875
,,,1.44E-06,0.005695
,,,1.45E-06,0.005908125
,,,1.46E-06,0.00588
,,,1.47E-06,0.005628125
,,,1.48E-06,0.006000625
,,,1.49E-06,0.00585875
,,,1.5E-06,0.005865625
,,,1.51E-06,0.006044375
,,,1.52E-06,0.00586875
,,,1.53E-06,0.005825625
,,,1.54E-06,0.005903125
,,,1.55E-06,0.005848125
,,,1.56E-06,0.00613875
,,,1.57E-06,0.0057475
,,,1.58E-06,0.005945
,,,1.59E-06,0.005690625
,,,1.6E-06,0.0057375
,,,1.61E-06,0.005850625
,,,1.62E-06,0.005858125
,,,1.63E-06,0.00574375
,,,1.64E-06,0.005851875
,,,1.65E-06,0.00591625
,,,1.66E-06,0.006075
,,,1.67E-06,0.005811875
,,,1.68E-06,0.00583
,,,1.69E-06,0.00604875
,,,1.7E-06,0.005928125
,,,1.71E-06,0.005756875
,,,1.72E-06,0.0058725
,,,1.73E-06,0.00607
,,,1.74E-06,0.005585
,,,1.75E-06,0.005678125
,,,1.76E-06,0.0059725
,,,1.77E-06,0.005811875
,,,1.78E-06,0.005941875
,,,1.79E-06,0.00574375
,,,1.8E-06,0.005580625
,,,1.81E-06,0.005925625
,,,1.82E-06,0.00581
,,,1.83E-06,0.005795
,,,1.84E-06,0.00597625
,,,1.85E-06,0.00579375
,,,1.86E-06,0.0056325
,,,1.87E-06,0.00602
,,,1.88E-06,0.005969375
,,,1.89E-06,0.00606
,,,1.9E-06,0.005885625
,,,1.91E-06,0.0060125
,,,1.92E-06,0.00552875
,,,1.93E-06,0.005853125
,,,1.94E-06,0.005923125
,,,1.95E-06,0.006010625
,,,1.96E-06,0.006009375
,,,1.97E-06,0.00599375
,,,1.98E-06,0.00607
,,,1.99E-06,0.006005
,,,2E-06,0.00557
,,,2.01E-06,0.00614
,,,2.02E-06,0.00572
,,,2.03E-06,0.0058575
,,,2.04E-06,0.00585125
,,,2.05E-06,0.005851875
,,,2.06E-06,0.005718125
,,,2.07E-06,0.005875625
,,,2.08E-06,0.005659375
,,,2.09E-06,0.00583125
,,,2.1E-06,0.005933125
,,,2.11E-06,0.00575875
,,,2.12E-06,0.00558375
,,,2.13E-06,0.005836875
,,,2.14E-06,0.0057075
,,,2.15E-06,0.00591875
,,,2.16E-06,0.005725625
,,,2.17E-06,0.005831875
,,,2.18E-06,0.0057775
,,,2.19E-06,0.00598875
,,,2.2E-06,0.00582625
,,,2.21E-06,0.0061225
,,,2.22E-06,0.005964375
,,,2.23E-06,0.00592625
,,,2.24E-06,0.005773125
,,,2.25E-06,0.00563375
,,,2.26E-06,0.00585375
,,,2.27E-06,0.005936875
,,,2.28E-06,0.00577125
,,,2.29E-06,0.005985
,,,2.3E-06,0.00580625
,,,2.31E-06,0.0061175
,,,2.32E-06,0.00578875
,,,2.33E-06,0.005775625
,,,2.34E-06,0.006219375
,,,2.35E-06,0.005751875
,,,2.36E-06,0.005823125
,,,2.37E-06,0.005598125
,,,2.38E-06,0.00606875
,,,2.39E-06,0.00585875
,,,2.4E-06,0.00590125
,,,2.41E-06,0.00597375
,,,2.42E-06,0.005781875
,,,2.43E-06,0.00594875
,,,2.44E-06,0.005996875
,,,2.45E-06,0.005994375
,,,2.46E-06,0.00599875
,,,2.47E-06,0.00574625
,,,2.48E-06,0.005718125
,,,2.49E-06,0.0059325
,,,2.5E-06,0.005734375
,,,2.51E-06,0.00596375
,,,2.52E-06,0.00602875
,,,2.53E-06,0.0059475
,,,2.54E-06,0.005873125
,,,2.55E-06,0.00589375
,,,2.56E-06,0.00568125
,,,2.57E-06,0.005685
,,,2.58E-06,0.00588875
,,,2.59E-06,0.00575625
,,,2.6E-06,0.00596625
,,,2.61E-06,0.00587
,,,2.62E-06,0.005870625
,,,2.63E-06,0.005975625
,,,2.64E-06,0.0060425
,,,2.65E-06,0.005800625
,,,2.66E-06,0.0060725
,,,2.67E-06,0.00591375
,,,2.68E-06,0.0056475
,,,2.69E-06,0.00572625
,,,2.7E-06,0.0058075
,,,2.71E-06,0.00582375
,,,2.72E-06,0.005814375
,,,2.73E-06,0.00604
,,,2.74E-06,0.00588125
,,,2.75E-06,0.00583375
,,,2.76E-06,0.0057525
,,,2.77E-06,0.005895625
,,,2.78E-06,0.00584125
,,,2.79E-06,0.005925
,,,2.8E-06,0.005915
,,,2.81E-06,0.00585125
,,,2.82E-06,0.00613625
,,,2.83E-06,0.00579125
,,,2.84E-06,0.005923125
,,,2.85E-06,0.005835625
,,,2.86E-06,0.00596625
,,,2.87E-06,0.006086875
,,,2.88E-06,0.00599125
,,,2.89E-06,0.005743125
,,,2.9E-06,0.005679375
,,,2.91E-06,0.005893125
,,,2.92E-06,0.006000625
,,,2.93E-06,0.00569
,,,2.94E-06,0.005745
,,,2.95E-06,0.00603625
,,,2.96E-06,0.005870625
,,,2.97E-06,0.005979375
,,,2.98E-06,0.006195
,,,2.99E-06,0.005774375
,,,3E-06,0.005734375
,,,3.01E-06,0.005646875
,,,3.02E-06,0.005993125
,,,3.03E-06,0.00558
,,,3.04E-06,0.00589375
,,,3.05E-06,0.005951875
,,,3.06E-06,0.005926875
,,,3.07E-06,0.0057075
,,,3.08E-06,0.006009375
,,,3.09E-06,0.005759375
,,,3.1E-06,0.006065
,,,3.11E-06,0.0059725
,,,3.12E-06,0.005866875
,,,3.13E-06,0.005974375
,,,3.14E-06,0.00584
,,,3.15E-06,0.0059025
,,,3.16E-06,0.005466875
,,,3.17E-06,0.0056775
,,,3.18E-06,0.0058625
,,,3.19E-06,0.0057125
,,,3.2E-06,0.0056925
,,,3.21E-06,0.005820625
,,,3.22E-06,0.005778125
,,,3.23E-06,0.005734375
,,,3.24E-06,0.0058525
,,,3.25E-06,0.005795
,,,3.26E-06,0.00598125
,,,3.27E-06,0.0059225
,,,3.28E-06,0.005835
,,,3.29E-06,0.005770625
,,,3.3E-06,0.00604625
,,,3.31E-06,0.005983125
,,,3.32E-06,0.005944375
,,,3.33E-06,0.0057325
,,,3.34E-06,0.005874375
,,,3.35E-06,0.005856875
,,,3.36E-06,0.005943125
,,,3.37E-06,0.00566875
,,,3.38E-06,0.005951875
,,,3.39E-06,0.00588375
,,,3.4E-06,0.005858125
,,,3.41E-06,0.00570625
,,,3.42E-06,0.00593875
,,,3.43E-06,0.00578125
,,,3.44E-06,0.005805
,,,3.45E-06,0.00569375
,,,3.46E-06,0.005719375
,,,3.47E-06,0.005988125
,,,3.48E-06,0.005800625
,,,3.49E-06,0.005919375
,,,3.5E-06,0.0057425
,,,3.51E-06,0.005743125
,,,3.52E-06,0.005698125
,,,3.53E-06,0.005886875
,,,3.54E-06,0.005751875
,,,3.55E-06,0.005999375
,,,3.56E-06,0.005673125
,,,3.57E-06,0.00581375
,,,3.58E-06,0.0058925
,,,3.59E-06,0.00595
