data/raw/Final_POL_Test_1/SOP094_Ch2.csv

"Record Length",1000,"Points",-5E-06,0.0216075
"Sample Interval",1E-08,s,-4.99E-06,0.021463125
"Trigger Point",500,"Samples",-4.98E-06,0.021546875
"Trigger Time",0,s,-4.97E-06,0.0213675
"",,,-4.96E-06,0.021568125
"Horizontal Offset",-5E-06,s,-4.95E-06,0.021425625
,,,-4.94E-06,0.021296875
,,,-4.93E-06,0.021554375
,,,-4.92E-06,0.021484375
,,,-4.91E-06,0.021656875
,,,-4.9E-06,0.021404375
,,,-4.89E-06,0.021434375
,,,-4.88E-06,0.021556875
,,,-4.87E-06,0.021470625
,,,-4.86E-06,0.02123375
,,,-4.85E-06,0.021321875
,,,-4.84E-06,0.021486875
,,,-4.83E-06,0.021540625
,,,-4.82E-06,0.021711875
,,,-4.81E-06,0.021540625
,,,-4.8E-06,0.021424375
,,,-4.79E-06,0.02156875
,,,-4.78E-06,0.02136
,,,-4.77E-06,0.021490625
,,,-4.76E-06,0.02125375
,,,-4.75E-06,0.02151625
,,,-4.74E-06,0.0214725
,,,-4.73E-06,0.021601875
,,,-4.72E-06,0.021368125
,,,-4.71E-06,0.021414375
,,,-4.7E-06,0.0213575
,,,-4.69E-06,0.021368125
,,,-4.68E-06,0.02124
,,,-4.67E-06,0.0215
,,,-4.66E-06,0.02135875
,,,-4.65E-06,0.0214225
,,,-4.64E-06,0.021234375
,,,-4.63E-06,0.02154875
,,,-4.62E-06,0.021409375
,,,-4.61E-06,0.02128875
,,,-4.6E-06,0.021648125
,,,-4.59E-06,0.021303125
,,,-4.58E-06,0.02134
,,,-4.57E-06,0.021635
,,,-4.56E-06,0.021451875
,,,-4.55E-06,0.021523125
,,,-4.54E-06,0.021334375
,,,-4.53E-06,0.02177125
,,,-4.52E-06,0.021504375
,,,-4.51E-06,0.021496875
,,,-4.5E-06,0.02161625
,,,-4.49E-06,0.021433125
,,,-4.48E-06,0.021433125
,,,-4.47E-06,0.02146125
,,,-4.46E-06,0.02142875
,,,-4.45E-06,0.021440625
,,,-4.44E-06,0.02127
,,,-4.43E-06,0.0214775
,,,-4.42E-06,0.021555625
,,,-4.41E-06,0.021585
,,,-4.4E-06,0.0213675
,,,-4.39E-06,0.02139625
,,,-4.38E-06,0.021363125
,,,-4.37E-06,0.021305
,,,-4.36E-06,0.0215075
,,,-4.35E-06,0.021608125
,,,-4.34E-06,0.02177125
,,,-4.33E-06,0.021245
,,,-4.32E-06,0.02137125
,,,-4.31E-06,0.021266875
,,,-4.3E-06,0.021346875
,,,-4.29E-06,0.02136625
,,,-4.28E-06,0.02103625
,,,-4.27E-06,0.0213275
,,,-4.26E-06,0.02157125
,,,-4.25E-06,0.021389375
,,,-4.24E-06,0.0213425
,,,-4.23E-06,0.02147125
,,,-4.22E-06,0.02135125
,,,-4.21E-06,0.021430625
,,,-4.2E-06,0.021456875
,,,-4.19E-06,0.021485625
,,,-4.18E-06,0.021385
,,,-4.17E-06,0.02143125
,,,-4.16E-06,0.021570625
,,,-4.15E-06,0.021630625
,,,-4.14E-06,0.0213025
,,,-4.13E-06,0.021510625
,,,-4.12E-06,0.021271875
,,,-4.11E-06,0.021435
,,,-4.1E-06,0.021341875
,,,-4.09E-06,0.021261875
,,,-4.08E-06,0.02133375
,,,-4.07E-06,0.021534375
,,,-4.06E-06,0.021455
,,,-4.05E-06,0.021609375
,,,-4.04E-06,0.02131
,,,-4.03E-06,0.021331875
,,,-4.02E-06,0.021070625
,,,-4.01E-06,0.021315
,,,-4E-06,0.02131
,,,-3.99E-06,0.0214025
,,,-3.98E-06,0.021410625
,,,-3.97E-06,0.02140375
,,,-3.96E-06,0.021466875
,,,-3.95E-06,0.02141
,,,-3.94E-06,0.021506875
,,,-3.93E-06,0.02140875
,,,-3.92E-06,0.02129125
,,,-3.91E-06,0.021633125
,,,-3.9E-06,0.021574375
,,,-3.89E-06,0.021355
,,,-3.88E-06,0.021625625
,,,-3.87E-06,0.021491875
,,,-3.86E-06,0.021454375
,,,-3.85E-06,0.021299375
,,,-3.84E-06,0.021609375
,,,-3.83E-06,0.02138
,,,-3.82E-06,0.0214125
,,,-3.81E-06,0.021365
,,,-3.8E-06,0.021390625
,,,-3.79E-06,0.021735
,,,-3.78E-06,0.021451875
,,,-3.77E-06,0.021269375
,,,-3.76E-06,0.021410625
,,,-3.75E-06,0.02165625
,,,-3.74E-06,0.021801875
,,,-3.73E-06,0.0215675
,,,-3.72E-06,0.0212125
,,,-3.71E-06,0.02139
,,,-3.7E-06,0.021275
,,,-3.69E-06,0.021305
,,,-3.68E-06,0.02143875
,,,-3.67E-06,0.021374375
,,,-3.66E-06,0.021529375
,,,-3.65E-06,0.021578125
,,,-3.64E-06,0.02138125
,,,-3.63E-06,0.021645
,,,-3.62E-06,0.021401875
,,,-3.61E-06,0.02118125
,,,-3.6E-06,0.021325625
,,,-3.59E-06,0.021406875
,,,-3.58E-06,0.021674375
,,,-3.57E-06,0.02128875
,,,-3.56E-06,0.02144375
,,,-3.55E-06,0.021533125
,,,-3.54E-06,0.02112125
,,,-3.53E-06,0.021448125
,,,-3.52E-06,0.021545
,,,-3.51E-06,0.0215375
,,,-3.5E-06,0.02146
,,,-3.49E-06,0.0215325
,,,-3.48E-06,0.021270625
,,,-3.47E-06,0.02123375
,,,-3.46E-06,0.0214675
,,,-3.45E-06,0.021504375
,,,-3.44E-06,0.021555
,,,-3.43E-06,0.021510625
,,,-3.42E-06,0.021354375
,,,-3.41E-06,0.021496875
,,,-3.4E-06,0.021516875
,,,-3.39E-06,0.02167
,,,-3.38E-06,0.02135625
,,,-3.37E-06,0.021441875
,,,-3.36E-06,0.021563125
,,,-3.35E-06,0.02135375
,,,-3.34E-06,0.021703125
,,,-3.33E-06,0.0214725
,,,-3.32E-06,0.021565
,,,-3.31E-06,0.021440625
,,,-3.3E-06,0.0213
,,,-3.29E-06,0.021523125
,,,-3.28E-06,0.021179375
,,,-3.27E-06,0.0216
,,,-3.26E-06,0.0211425
,,,-3.25E-06,0.0213375
,,,-3.24E-06,0.02180625
,,,-3.23E-06,0.02149625
,,,-3.22E-06,0.021011875
,,,-3.21E-06,0.02147375
,,,-3.2E-06,0.0214
,,,-3.19E-06,0.0213325
,,,-3.18E-06,0.0212375
,,,-3.17E-06,0.021289375
,,,-3.16E-06,0.021508125
,,,-3.15E-06,0.021211875
,,,-3.14E-06,0.021545625
,,,-3.13E-06,0.021328125
,,,-3.12E-06,0.0213925
,,,-3.11E-06,0.021415625
,,,-3.1E-06,0.0216375
,,,-3.09E-06,0.021294375
,,,-3.08E-06,0.0216
,,,-3.07E-06,0.021785
,,,-3.06E-06,0.021675625
,,,-3.05E-06,0.021553125
,,,-3.04E-06,0.02162125
,,,-3.03E-06,0.021558125
,,,-3.02E-06,0.021714375
,,,-3.01E-06,0.02117125
,,,-3E-06,0.021469375
,,,-2.99E-06,0.021366875
,,,-2.98E-06,0.0215975
,,,-2.97E-06,0.021390625
,,,-2.96E-06,0.02144
,,,-2.95E-06,0.021435
,,,-2.94E-06,0.021394375
,,,-2.93E-06,0.021485625
,,,-2.92E-06,0.021313125
,,,-2.91E-06,0.021463125
,,,-2.9E-06,0.021229375
,,,-2.89E-06,0.02136
,,,-2.88E-06,0.02146375
,,,-2.87E-06,0.02148875
,,,-2.86E-06,0.021580625
,,,-2.85E-06,0.021416875
,,,-2.84E-06,0.021349375
,,,-2.83E-06,0.02156875
,,,-2.82E-06,0.021558125
,,,-2.81E-06,0.02166375
,,,-2.8E-06,0.021708125
,,,-2.79E-06,0.02134375
,,,-2.78E-06,0.021429375
,,,-2.77E-06,0.0213925
,,,-2.76E-06,0.02124125
,,,-2.75E-06,0.0213325
,,,-2.74E-06,0.021438125
,,,-2.73E-06,0.02140375
,,,-2.72E-06,0.02144125
,,,-2.71E-06,0.021000625
,,,-2.7E-06,0.0215175
,,,-2.69E-06,0.021406875
,,,-2.68E-06,0.0216375
,,,-2.67E-06,0.021470625
,,,-2.66E-06,0.0216075
,,,-2.65E-06,0.021505
,,,-2.64E-06,0.021455625
,,,-2.63E-06,0.021408125
,,,-2.62E-06,0.021471875
,,,-2.61E-06,0.021361875
,,,-2.6E-06,0.021353125
,,,-2.59E-06,0.021575
,,,-2.58E-06,0.021545
,,,-2.57E-06,0.02153125
,,,-2.56E-06,0.021465625
,,,-2.55E-06,0.02114125
,,,-2.54E-06,0.021246875
,,,-2.53E-06,0.021219375
,,,-2.52E-06,0.021421875
,,,-2.51E-06,0.02152
,,,-2.5E-06,0.021351875
,,,-2.49E-06,0.021515
,,,-2.48E-06,0.021585
,,,-2.47E-06,0.02143125
,,,-2.46E-06,0.021445
,,,-2.45E-06,0.021470625
,,,-2.44E-06,0.021638125
,,,-2.43E-06,0.0214175
,,,-2.42E-06,0.0213025
,,,-2.41E-06,0.021476875
,,,-2.4E-06,0.0215275
,,,-2.39E-06,0.021568125
,,,-2.38E-06,0.02122375
,,,-2.37E-06,0.0215225
,,,-2.36E-06,0.021504375
,,,-2.35E-06,0.0212525
,,,-2.34E-06,0.02149875
,,,-2.33E-06,0.02128375
,,,-2.32E-06,0.021131875
,,,-2.31E-06,0.021251875
,,,-2.3E-06,0.0214025
,,,-2.29E-06,0.021308125
,,,-2.28E-06,0.021425
,,,-2.27E-06,0.02131125
,,,-2.26E-06,0.02162375
,,,-2.25E-06,0.02126125
,,,-2.24E-06,0.021368125
,,,-2.23E-06,0.02145125
,,,-2.22E-06,0.02122625
,,,-2.21E-06,0.021423125
,,,-2.2E-06,0.0214375
,,,-2.19E-06,0.021279375
,,,-2.18E-06,0.0215925
,,,-2.17E-06,0.0213325
,,,-2.16E-06,0.021505625
,,,-2.15E-06,0.021650625
,,,-2.14E-06,0.02134375
,,,-2.13E-06,0.02148875
,,,-2.12E-06,0.021106875
,,,-2.11E-06,0.021414375
,,,-2.1E-06,0.02151625
,,,-2.09E-06,0.021631875
,,,-2.08E-06,0.021664375
,,,-2.07E-06,0.02147625
,,,-2.06E-06,0.0214975
,,,-2.05E-06,0.02149375
,,,-2.04E-06,0.021580625
,,,-2.03E-06,0.021610625
,,,-2.02E-06,0.021389375
,,,-2.01E-06,0.02138125
,,,-2E-06,0.021171875
,,,-1.99E-06,0.021465
,,,-1.98E-06,0.02156125
,,,-1.97E-06,0.021398125
,,,-1.96E-06,0.021606875
,,,-1.95E-06,0.021476875
,,,-1.94E-06,0.021269375
,,,-1.93E-06,0.021539375
,,,-1.92E-06,0.021480625
,,,-1.91E-06,0.021589375
,,,-1.9E-06,0.021553125
,,,-1.89E-06,0.021508125
,,,-1.88E-06,0.0214225
,,,-1.87E-06,0.021313125
,,,-1.86E-06,0.021103125
,,,-1.85E-06,0.021555625
,,,-1.84E-06,0.021551875
,,,-1.83E-06,0.02152
,,,-1.82E-06,0.02169625
,,,-1.81E-06,0.02164625
,,,-1.8E-06,0.021446875
,,,-1.79E-06,0.021391875
,,,-1.78E-06,0.021300625
,,,-1.77E-06,0.0213325
,,,-1.76E-06,0.021604375
,,,-1.75E-06,0.02155375
,,,-1.74E-06,0.021444375
,,,-1.73E-06,0.02130375
,,,-1.72E-06,0.021305625
,,,-1.71E-06,0.021339375
,,,-1.7E-06,0.021365
,,,-1.69E-06,0.02158
,,,-1.68E-06,0.021110625
,,,-1.67E-06,0.02138
,,,-1.66E-06,0.021404375
,,,-1.65E-06,0.0215575
,,,-1.64E-06,0.021415
,,,-1.63E-06,0.021646875
,,,-1.62E-06,0.021561875
,,,-1.61E-06,0.02123
,,,-1.6E-06,0.02157125
,,,-1.59E-06,0.02133
,,,-1.58E-06,0.021469375
,,,-1.57E-06,0.02122875
,,,-1.56E-06,0.021610625
,,,-1.55E-06,0.0211775
,,,-1.54E-06,0.021513125
,,,-1.53E-06,0.02154625
,,,-1.52E-06,0.0214525
,,,-1.51E-06,0.021814375
,,,-1.5E-06,0.02124375
,,,-1.49E-06,0.02138375
,,,-1.48E-06,0.021530625
,,,-1.47E-06,0.021385
,,,-1.46E-06,0.02143375
,,,-1.45E-06,0.021233125
,,,-1.44E-06,0.021606875
,,,-1.43E-06,0.0214625
,,,-1.42E-06,0.02148875
,,,-1.41E-06,0.021468125
,,,-1.4E-06,0.0212225
,,,-1.39E-06,0.021313125
,,,-1.38E-06,0.021406875
,,,-1.37E-06,0.02132875
,,,-1.36E-06,0.021431875
,,,-1.35E-06,0.021305
,,,-1.34E-06,0.0214425
,,,-1.33E-06,0.02136125
,,,-1.32E-06,0.021436875
,,,-1.31E-06,0.021325
,,,-1.3E-06,0.021586875
,,,-1.29E-06,0.021558125
,,,-1.28E-06,0.02125625
,,,-1.27E-06,0.0214475
,,,-1.26E-06,0.02146625
,,,-1.25E-06,0.021266875
,,,-1.24E-06,0.021388125
,,,-1.23E-06,0.021329375
,,,-1.22E-06,0.0213275
,,,-1.21E-06,0.02148875
,,,-1.2E-06,0.02136
,,,-1.19E-06,0.0215125
,,,-1.18E-06,0.021489375
,,,-1.17E-06,0.021485625
,,,-1.16E-06,0.021185625
,,,-1.15E-06,0.02144375
,,,-1.14E-06,0.02162125
,,,-1.13E-06,0.021543125
,,,-1.12E-06,0.021538125
,,,-1.11E-06,0.021598125
,,,-1.1E-06,0.0214025
,,,-1.09E-06,0.021545625
,,,-1.08E-06,0.021563125
,,,-1.07E-06,0.02131625
,,,-1.06E-06,0.021210625
,,,-1.05E-06,0.021138125
,,,-1.04E-06,0.021528125
,,,-1.03E-06,0.021558125
,,,-1.02E-06,0.021569375
,,,-1.01E-06,0.0215625
,,,-1E-06,0.021641875
,,,-9.9E-07,0.021699375
,,,-9.8E-07,0.02142
,,,-9.7E-07,0.021430625
,,,-9.6E-07,0.021435
,,,-9.5E-07,0.021416875
,,,-9.4E-07,0.0212725
,,,-9.3E-07,0.021158125
,,,-9.2E-07,0.02161625
,,,-9.1E-07,0.021199375
,,,-9E-07,0.021299375
,,,-8.9E-07,0.021341875
,,,-8.8E-07,0.020963125
,,,-8.7E-07,0.02125875
,,,-8.6E-07,0.021491875
,,,-8.5E-07,0.02149
,,,-8.4E-07,0.02140875
,,,-8.3E-07,0.021271875
,,,-8.2E-07,0.021269375
,,,-8.1E-07,0.021363125
,,,-8E-07,0.02124
,,,-7.9E-07,0.02135875
,,,-7.8E-07,0.021320625
,,,-7.7E-07,0.0216875
,,,-7.6E-07,0.0213275
,,,-7.5E-07,0.02149375
,,,-7.4E-07,0.021556875
,,,-7.3E-07,0.021443125
,,,-7.2E-07,0.021318125
,,,-7.1E-07,0.021386875
,,,-7E-07,0.0214525
,,,-6.9E-07,0.021295625
,,,-6.8E-07,0.021243125
,,,-6.7E-07,0.02133125
,,,-6.6E-07,0.021265625
,,,-6.5E-07,0.021475625
,,,-6.4E-07,0.021329375
,,,-6.3E-07,0.0211075
,,,-6.2E-07,0.02149
,,,-6.1E-07,0.021465
,,,-6E-07,0.021500625
,,,-5.9E-07,0.02138125
,,,-5.8E-07,0.0210775
,,,-5.7E-07,0.02104625
,,,-5.6E-07,0.021405625
,,,-5.5E-07,0.02131625
,,,-5.4E-07,0.02141875
,,,-5.3E-07,0.021448125
,,,-5.2E-07,0.02153125
,,,-5.1E-07,0.021325625
,,,-5E-07,0.021265
,,,-4.9E-07,0.02127125
,,,-4.8E-07,0.02124875
,,,-4.7E-07,0.021658125
,,,-4.6E-07,0.02145875
,,,-4.5E-07,0.02147375
,,,-4.4E-07,0.02118125
,,,-4.3E-07,0.02152375
,,,-4.2E-07,0.021451875
,,,-4.1E-07,0.021363125
,,,-4E-07,0.021295625
,,,-3.9E-07,0.0211975
,,,-3.8E-07,0.021490625
,,,-3.7E-07,0.02130625
,,,-3.6E-07,0.0214825
,,,-3.5E-07,0.0213975
,,,-3.4E-07,0.021475625
,,,-3.3E-07,0.021615
,,,-3.2E-07,0.021215
,,,-3.1E-07,0.021450625
,,,-3E-07,0.021308125
,,,-2.9E-07,0.0214725
,,,-2.8E-07,0.02134125
,,,-2.7E-07,0.021458125
,,,-2.6E-07,0.02156125
,,,-2.5E-07,0.0213775
,,,-2.4E-07,0.0214475
,,,-2.3E-07,0.021810625
,,,-2.2E-07,0.021578125
,,,-2.1E-07,0.0215175
,,,-2E-07,0.02153375
,,,-1.9E-07,0.02116625
,,,-1.8E-07,0.021385
,,,-1.7E-07,0.02138625
,,,-1.6E-07,0.02154875
,,,-1.5E-07,0.02109
,,,-1.4E-07,0.021375
,,,-1.3E-07,0.02148375
,,,-1.2E-07,0.021469375
,,,-1.1E-07,0.021486875
,,,-1E-07,0.0215025
,,,-9E-08,0.02144375
,,,-8E-08,0.021463125
,,,-7E-08,0.02097625
,,,-6E-08,0.021295
,,,-5E-08,0.021514375
,,,-4E-08,0.022015625
,,,-3E-08,0.023115625
,,,-2E-08,0.019608125
,,,-1E-08,0.0181
,,,0,0.018729375
,,,1E-08,0.02475875
,,,2E-08,0.025573125
,,,3E-08,0.024605
,,,4E-08,0.020256875
,,,5E-08,0.01839625
,,,6E-08,0.018398125
,,,7E-08,0.02064375
,,,8E-08,0.02234125
,,,9E-08,0.023723125
,,,1E-07,0.02345375
,,,1.1E-07,0.02170125
,,,1.2E-07,0.020415625
,,,1.3E-07,0.01988875
,,,1.4E-07,0.020665625
,,,1.5E-07,0.02198375
,,,1.6E-07,0.02220625
,,,1.7E-07,0.0214575
,,,1.8E-07,0.0215
,,,1.9E-07,0.021405625
,,,2E-07,0.021424375
,,,2.1E-07,0.02097875
,,,2.2E-07,0.020950625
,,,2.3E-07,0.021311875
,,,2.4E-07,0.02136625
,,,2.5E-07,0.02163375
,,,2.6E-07,0.0213825
,,,2.7E-07,0.021386875
,,,2.8E-07,0.02178375
,,,2.9E-07,0.021501875
,,,3E-07,0.02120375
,,,3.1E-07,0.02138375
,,,3.2E-07,0.02175375
,,,3.3E-07,0.021499375
,,,3.4E-07,0.021365625
,,,3.5E-07,0.0213175
,,,3.6E-07,0.0214275
,,,3.7E-07,0.021451875
,,,3.8E-07,0.0214025
,,,3.9E-07,0.021395
,,,4E-07,0.021600625
,,,4.1E-07,0.021351875
,,,4.2E-07,0.021428125
,,,4.3E-07,0.021343125
,,,4.4E-07,0.021221875
,,,4.5E-07,0.021674375
,,,4.6E-07,0.021306875
,,,4.7E-07,0.02151875
,,,4.8E-07,0.0211175
,,,4.9E-07,0.021159375
,,,5E-07,0.02134125
,,,5.1E-07,0.021664375
,,,5.2E-07,0.021450625
,,,5.3E-07,0.02145
,,,5.4E-07,0.021465
,,,5.5E-07,0.021034375
,,,5.6E-07,0.02161375
,,,5.7E-07,0.021761875
,,,5.8E-07,0.0214775
,,,5.9E-07,0.02138625
,,,6E-07,0.021210625
,,,6.1E-07,0.021291875
,,,6.2E-07,0.021628125
,,,6.3E-07,0.021460625
,,,6.4E-07,0.021128125
,,,6.5E-07,0.021501875
,,,6.6E-07,0.021385
,,,6.7E-07,0.021501875
,,,6.8E-07,0.021335
,,,6.9E-07,0.021611875
,,,7E-07,0.0213
,,,7.1E-07,0.02136875
,,,7.2E-07,0.021459375
,,,7.3E-07,0.021575625
,,,7.4E-07,0.02143125
,,,7.5E-07,0.021308125
,,,7.6E-07,0.021379375
,,,7.7E-07,0.021430625
,,,7.8E-07,0.02149625
,,,7.9E-07,0.021346875
,,,8E-07,0.021654375
,,,8.1E-07,0.02153125
,,,8.2E-07,0.021349375
,,,8.3E-07,0.021336875
,,,8.4E-07,0.021318125
,,,8.5E-07,0.021479375
,,,8.6E-07,0.021474375
,,,8.7E-07,0.021426875
,,,8.8E-07,0.021625
,,,8.9E-07,0.0212775
,,,9E-07,0.02132875
,,,9.1E-07,0.021561875
,,,9.2E-07,0.021388125
,,,9.3E-07,0.02134875
,,,9.4E-07,0.021435625
,,,9.5E-07,0.02160375
,,,9.6E-07,0.021404375
,,,9.7E-07,0.02138625
,,,9.8E-07,0.021545
,,,9.9E-07,0.02134875
,,,1E-06,0.02139875
,,,1.01E-06,0.021475
,,,1.02E-06,0.02139375
,,,1.03E-06,0.021350625
,,,1.04E-06,0.021765
,,,1.05E-06,0.02142125
,,,1.06E-06,0.021724375
,,,1.07E-06,0.021555
,,,1.08E-06,0.021435625
,,,1.09E-06,0.0211775
,,,1.1E-06,0.02148875
,,,1.11E-06,0.021348125
,,,1.12E-06,0.02124375
,,,1.13E-06,0.021425625
,,,1.14E-06,0.02154625
,,,1.15E-06,0.021335625
,,,1.16E-06,0.02154125
,,,1.17E-06,0.021399375
,,,1.18E-06,0.0214125
,,,1.19E-06,0.02148
,,,1.2E-06,0.021364375
,,,1.21E-06,0.02116125
,,,1.22E-06,0.021476875
,,,1.23E-06,0.021395
,,,1.24E-06,0.0216
,,,1.25E-06,0.02172375
,,,1.26E-06,0.021596875
,,,1.27E-06,0.021553125
,,,1.28E-06,0.021416875
,,,1.29E-06,0.021374375
,,,1.3E-06,0.021485625
,,,1.31E-06,0.021365625
,,,1.32E-06,0.02129875
,,,1.33E-06,0.021443125
,,,1.34E-06,0.021273125
,,,1.35E-06,0.021200625
,,,1.36E-06,0.021233125
,,,1.37E-06,0.02130625
,,,1.38E-06,0.02127
,,,1.39E-06,0.02176
,,,1.4E-06,0.0214675
,,,1.41E-06,0.0214125
,,,1.42E-06,0.0213875
,,,1.43E-06,0.021644375
,,,1.44E-06,0.021369375
,,,1.45E-06,0.021399375
,,,1.46E-06,0.021315
,,,1.47E-06,0.0213575
,,,1.48E-06,0.021389375
,,,1.49E-06,0.021590625
,,,1.5E-06,0.02162375
,,,1.51E-06,0.021391875
,,,1.52E-06,0.021175
,,,1.53E-06,0.021791875
,,,1.54E-06,0.02133625
,,,1.55E-06,0.021534375
,,,1.56E-06,0.021373125
,,,1.57E-06,0.021384375
,,,1.58E-06,0.021525625
,,,1.59E-06,0.021320625
,,,1.6E-06,0.021558125
,,,1.61E-06,0.0212075
,,,1.62E-06,0.0213625
,,,1.63E-06,0.02129375
,,,1.64E-06,0.0212725
,,,1.65E-06,0.02162625
,,,1.66E-06,0.0216175
,,,1.67E-06,0.021401875
,,,1.68E-06,0.021403125
,,,1.69E-06,0.021356875
,,,1.7E-06,0.02138375
,,,1.71E-06,0.021405
,,,1.72E-06,0.02162625
,,,1.73E-06,0.0214075
,,,1.74E-06,0.02151875
,,,1.75E-06,0.0214075
,,,1.76E-06,0.021216875
,,,1.77E-06,0.02141625
,,,1.78E-06,0.0215875
,,,1.79E-06,0.02133375
,,,1.8E-06,0.02150125
,,,1.81E-06,0.021349375
,,,1.82E-06,0.0215225
,,,1.83E-06,0.02165625
,,,1.84E-06,0.021295
,,,1.85E-06,0.02113625
,,,1.86E-06,0.021405
,,,1.87E-06,0.021391875
,,,1.88E-06,0.021460625
,,,1.89E-06,0.02121875
,,,1.9E-06,0.021534375
,,,1.91E-06,0.0215675
,,,1.92E-06,0.0215725
,,,1.93E-06,0.02141125
,,,1.94E-06,0.021575625
,,,1.95E-06,0.021418125
,,,1.96E-06,0.0212675
,,,1.97E-06,0.021308125
,,,1.98E-06,0.021546875
,,,1.99E-06,0.02155875
,,,2E-06,0.0214475
,,,2.01E-06,0.02143875
,,,2.02E-06,0.021455625
,,,2.03E-06,0.021614375
,,,2.04E-06,0.0213125
,,,2.05E-06,0.021440625
,,,2.06E-06,0.021541875
,,,2.07E-06,0.021273125
,,,2.08E-06,0.0216625
,,,2.09E-06,0.021149375
,,,2.1E-06,0.021405625
,,,2.11E-06,0.021565625
,,,2.12E-06,0.021338125
,,,2.13E-06,0.02143625
,,,2.14E-06,0.021696875
,,,2.15E-06,0.02144875
,,,2.16E-06,0.02138125
,,,2.17E-06,0.021531875
,,,2.18E-06,0.02147875
,,,2.19E-06,0.021245625
,,,2.2E-06,0.021515
,,,2.21E-06,0.0215775
,,,2.22E-06,0.021509375
,,,2.23E-06,0.02131625
,,,2.24E-06,0.021385
,,,2.25E-06,0.021144375
,,,2.26E-06,0.0216175
,,,2.27E-06,0.021451875
,,,2.28E-06,0.021340625
,,,2.29E-06,0.021264375
,,,2.3E-06,0.021459375
,,,2.31E-06,0.021404375
,,,2.32E-06,0.021341875
,,,2.33E-06,0.02136
,,,2.34E-06,0.021471875
,,,2.35E-06,0.021475
,,,2.36E-06,0.021185625
,,,2.37E-06,0.02137125
,,,2.38E-06,0.021595625
,,,2.39E-06,0.021483125
,,,2.4E-06,0.021393125
,,,2.41E-06,0.021540625
,,,2.42E-06,0.02141
,,,2.43E-06,0.021386875
,,,2.44E-06,0.02152625
,,,2.45E-06,0.021545625
,,,2.46E-06,0.021429375
,,,2.47E-06,0.0213475
,,,2.48E-06,0.021280625
,,,2.49E-06,0.021380625
,,,2.5E-06,0.0214925
,,,2.51E-06,0.02133
,,,2.52E-06,0.02147
,,,2.53E-06,0.0213475
,,,2.54E-06,0.021351875
,,,2.55E-06,0.021509375
,,,2.56E-06,0.021626875
,,,2.57E-06,0.021330625
,,,2.58E-06,0.0214825
,,,2.59E-06,0.021354375
,,,2.6E-06,0.021345625
,,,2.61E-06,0.021574375
,,,2.62E-06,0.021254375
,,,2.63E-06,0.021240625
,,,2.64E-06,0.0215075
,,,2.65E-06,0.021600625
,,,2.66E-06,0.02125375
,,,2.67E-06,0.021345625
,,,2.68E-06,0.0212875
,,,2.69E-06,0.0213325
,,,2.7E-06,0.021274375
,,,2.71E-06,0.02140125
,,,2.72E-06,0.021631875
,,,2.73E-06,0.021445625
,,,2.74E-06,0.02129875
,,,2.75E-06,0.02130625
,,,2.76E-06,0.021270625
,,,2.77E-06,0.0216475
,,,2.78E-06,0.021568125
,,,2.79E-06,0.02133625
,,,2.8E-06,0.02145375
,,,2.81E-06,0.0218
,,,2.82E-06,0.0214475
,,,2.83E-06,0.021295625
,,,2.84E-06,0.021444375
,,,2.85E-06,0.021485
,,,2.86E-06,0.021249375
,,,2.87E-06,0.02162
,,,2.88E-06,0.021434375
,,,2.89E-06,0.021425625
,,,2.9E-06,0.021538125
,,,2.91E-06,0.021436875
,,,2.92E-06,0.0213775
,,,2.93E-06,0.021399375
,,,2.94E-06,0.02156
,,,2.95E-06,0.021276875
,,,2.96E-06,0.021365625
,,,2.97E-06,0.02166625
,,,2.98E-06,0.021408125
,,,2.99E-06,0.02133375
,,,3E-06,0.02151125
,,,3.01E-06,0.0213725
,,,3.02E-06,0.02118875
,,,3.03E-06,0.021271875
,,,3.04E-06,0.021421875
,,,3.05E-06,0.021604375
,,,3.06E-06,0.021661875
,,,3.07E-06,0.021676875
,,,3.08E-06,0.0212
,,,3.09E-06,0.021565
,,,3.1E-06,0.021714375
,,,3.11E-06,0.021468125
,,,3.12E-06,0.021270625
,,,3.13E-06,0.02166625
,,,3.14E-06,0.02141125
,,,3.15E-06,0.021445
,,,3.16E-06,0.021406875
,,,3.17E-06,0.02106375
,,,3.18E-06,0.02179125
,,,3.19E-06,0.021350625
,,,3.2E-06,0.021325
,,,3.21E-06,0.021414375
,,,3.22E-06,0.02160375
,,,3.23E-06,0.021358125
,,,3.24E-06,0.02132125
,,,3.25E-06,0.021195625
,,,3.26E-06,0.02132
,,,3.27E-06,0.021679375
,,,3.28E-06,0.021208125
,,,3.29E-06,0.021488125
,,,3.3E-06,0.021599375
,,,3.31E-06,0.021181875
,,,3.32E-06,0.021446875
,,,3.33E-06,0.02161625
,,,3.34E-06,0.021175625
,,,3.35E-06,0.021314375
,,,3.36E-06,0.021175625
,,,3.37E-06,0.02126125
,,,3.38E-06,0.021215625
,,,3.39E-06,0.021331875
,,,3.4E-06,0.02144125
,,,3.41E-06,0.02138875
,,,3.42E-06,0.021353125
,,,3.43E-06,0.0215825
,,,3.44E-06,0.02136625
,,,3.45E-06,0.0214525
,,,3.46E-06,0.02135625
,,,3.47E-06,0.021555
,,,3.48E-06,0.02140375
,,,3.49E-06,0.021463125
,,,3.5E-06,0.021465
,,,3.51E-06,0.0211575
,,,3.52E-06,0.021384375
,,,3.53E-06,0.021401875
,,,3.54E-06,0.021365625
,,,3.55E-06,0.021603125
