data/raw/Final_POL_Test_1/SOP010_Ch1.csv

"Record Length",1000,"Points",-5E-06,0.0061525
"Sample Interval",1E-08,s,-4.99E-06,0.006001875
"Trigger Point",500,"Samples",-4.98E-06,0.00598
"Trigger Time",0,s,-4.97E-06,0.005835
"",,,-4.96E-06,0.0062925
"Horizontal Offset",-5E-06,s,-4.95E-06,0.006215
,,,-4.94E-06,0.00629125
,,,-4.93E-06,0.0061575
,,,-4.92E-06,0.00597125
,,,-4.91E-06,0.005983125
,,,-4.9E-06,0.00622625
,,,-4.89E-06,0.006304375
,,,-4.88E-06,0.006195
,,,-4.87E-06,0.006335625
,,,-4.86E-06,0.006085
,,,-4.85E-06,0.0064275
,,,-4.84E-06,0.006244375
,,,-4.83E-06,0.006075625
,,,-4.82E-06,0.00605
,,,-4.81E-06,0.005893125
,,,-4.8E-06,0.00589125
,,,-4.79E-06,0.00614625
,,,-4.78E-06,0.0061225
,,,-4.77E-06,0.006140625
,,,-4.76E-06,0.006019375
,,,-4.75E-06,0.006163125
,,,-4.74E-06,0.0062725
,,,-4.73E-06,0.005915625
,,,-4.72E-06,0.006130625
,,,-4.71E-06,0.0062825
,,,-4.7E-06,0.00607
,,,-4.69E-06,0.00594125
,,,-4.68E-06,0.006081875
,,,-4.67E-06,0.00592375
,,,-4.66E-06,0.006095
,,,-4.65E-06,0.00604
,,,-4.64E-06,0.006021875
,,,-4.63E-06,0.00622875
,,,-4.62E-06,0.00612
,,,-4.61E-06,0.0060175
,,,-4.6E-06,0.005921875
,,,-4.59E-06,0.005900625
,,,-4.58E-06,0.0059325
,,,-4.57E-06,0.006159375
,,,-4.56E-06,0.0060975
,,,-4.55E-06,0.006286875
,,,-4.54E-06,0.00597375
,,,-4.53E-06,0.006059375
,,,-4.52E-06,0.005801875
,,,-4.51E-06,0.006096875
,,,-4.5E-06,0.006271875
,,,-4.49E-06,0.006245625
,,,-4.48E-06,0.00609625
,,,-4.47E-06,0.006195625
,,,-4.46E-06,0.00590125
,,,-4.45E-06,0.005935
,,,-4.44E-06,0.006136875
,,,-4.43E-06,0.00593375
,,,-4.42E-06,0.006326875
,,,-4.41E-06,0.00587875
,,,-4.4E-06,0.006185
,,,-4.39E-06,0.006148125
,,,-4.38E-06,0.00602875
,,,-4.37E-06,0.0062025
,,,-4.36E-06,0.0060725
,,,-4.35E-06,0.0060725
,,,-4.34E-06,0.006060625
,,,-4.33E-06,0.006028125
,,,-4.32E-06,0.006065
,,,-4.31E-06,0.006004375
,,,-4.3E-06,0.00579
,,,-4.29E-06,0.0057
,,,-4.28E-06,0.006129375
,,,-4.27E-06,0.00593875
,,,-4.26E-06,0.006180625
,,,-4.25E-06,0.006186875
,,,-4.24E-06,0.00572125
,,,-4.23E-06,0.00586
,,,-4.22E-06,0.006210625
,,,-4.21E-06,0.00584375
,,,-4.2E-06,0.006141875
,,,-4.19E-06,0.00583625
,,,-4.18E-06,0.006104375
,,,-4.17E-06,0.0062825
,,,-4.16E-06,0.006215
,,,-4.15E-06,0.006155625
,,,-4.14E-06,0.00617125
,,,-4.13E-06,0.006098125
,,,-4.12E-06,0.006148125
,,,-4.11E-06,0.00597
,,,-4.1E-06,0.00613
,,,-4.09E-06,0.00581
,,,-4.08E-06,0.006055
,,,-4.07E-06,0.006125
,,,-4.06E-06,0.006225
,,,-4.05E-06,0.005928125
,,,-4.04E-06,0.006045
,,,-4.03E-06,0.006170625
,,,-4.02E-06,0.006006875
,,,-4.01E-06,0.006033125
,,,-4E-06,0.005964375
,,,-3.99E-06,0.0061175
,,,-3.98E-06,0.0061025
,,,-3.97E-06,0.00586375
,,,-3.96E-06,0.006085625
,,,-3.95E-06,0.006101875
,,,-3.94E-06,0.00624875
,,,-3.93E-06,0.00606375
,,,-3.92E-06,0.005923125
,,,-3.91E-06,0.006211875
,,,-3.9E-06,0.0058325
,,,-3.89E-06,0.006210625
,,,-3.88E-06,0.006323125
,,,-3.87E-06,0.006084375
,,,-3.86E-06,0.0060375
,,,-3.85E-06,0.0059925
,,,-3.84E-06,0.0061025
,,,-3.83E-06,0.00626
,,,-3.82E-06,0.006080625
,,,-3.81E-06,0.00595125
,,,-3.8E-06,0.00623625
,,,-3.79E-06,0.006215625
,,,-3.78E-06,0.00611625
,,,-3.77E-06,0.006234375
,,,-3.76E-06,0.0060975
,,,-3.75E-06,0.00592875
,,,-3.74E-06,0.006190625
,,,-3.73E-06,0.00616
,,,-3.72E-06,0.006168125
,,,-3.71E-06,0.00601875
,,,-3.7E-06,0.00597875
,,,-3.69E-06,0.00589625
,,,-3.68E-06,0.00605625
,,,-3.67E-06,0.006238125
,,,-3.66E-06,0.00636125
,,,-3.65E-06,0.005976875
,,,-3.64E-06,0.006068125
,,,-3.63E-06,0.006211875
,,,-3.62E-06,0.00608
,,,-3.61E-06,0.00588
,,,-3.6E-06,0.00598
,,,-3.59E-06,0.00601
,,,-3.58E-06,0.00601875
,,,-3.57E-06,0.005854375
,,,-3.56E-06,0.0060575
,,,-3.55E-06,0.00600125
,,,-3.54E-06,0.00611375
,,,-3.53E-06,0.006015625
,,,-3.52E-06,0.006181875
,,,-3.51E-06,0.00611625
,,,-3.5E-06,0.006175
,,,-3.49E-06,0.00587125
,,,-3.48E-06,0.00627625
,,,-3.47E-06,0.005871875
,,,-3.46E-06,0.006015
,,,-3.45E-06,0.005935625
,,,-3.44E-06,0.006281875
,,,-3.43E-06,0.005985
,,,-3.42E-06,0.005966875
,,,-3.41E-06,0.006311875
,,,-3.4E-06,0.00621125
,,,-3.39E-06,0.00631875
,,,-3.38E-06,0.006246875
,,,-3.37E-06,0.006125
,,,-3.36E-06,0.00608625
,,,-3.35E-06,0.00616125
,,,-3.34E-06,0.00614875
,,,-3.33E-06,0.006155625
,,,-3.32E-06,0.006141875
,,,-3.31E-06,0.00616625
,,,-3.3E-06,0.00617375
,,,-3.29E-06,0.00566375
,,,-3.28E-06,0.00588125
,,,-3.27E-06,0.00622125
,,,-3.26E-06,0.006329375
,,,-3.25E-06,0.006266875
,,,-3.24E-06,0.006178125
,,,-3.23E-06,0.006033125
,,,-3.22E-06,0.005948125
,,,-3.21E-06,0.006188125
,,,-3.2E-06,0.005855625
,,,-3.19E-06,0.00618125
,,,-3.18E-06,0.006028125
,,,-3.17E-06,0.006131875
,,,-3.16E-06,0.006041875
,,,-3.15E-06,0.006068125
,,,-3.14E-06,0.00635375
,,,-3.13E-06,0.00617125
,,,-3.12E-06,0.005870625
,,,-3.11E-06,0.00612
,,,-3.1E-06,0.006258125
,,,-3.09E-06,0.006110625
,,,-3.08E-06,0.006009375
,,,-3.07E-06,0.0061525
,,,-3.06E-06,0.005883125
,,,-3.05E-06,0.006239375
,,,-3.04E-06,0.006045625
,,,-3.03E-06,0.0061075
,,,-3.02E-06,0.006509375
,,,-3.01E-06,0.00616
,,,-3E-06,0.00633875
,,,-2.99E-06,0.006109375
,,,-2.98E-06,0.006165
,,,-2.97E-06,0.006056875
,,,-2.96E-06,0.006015
,,,-2.95E-06,0.00609875
,,,-2.94E-06,0.00614125
,,,-2.93E-06,0.00608125
,,,-2.92E-06,0.006059375
,,,-2.91E-06,0.0061825
,,,-2.9E-06,0.006233125
,,,-2.89E-06,0.006075
,,,-2.88E-06,0.00603375
,,,-2.87E-06,0.006040625
,,,-2.86E-06,0.006165625
,,,-2.85E-06,0.006158125
,,,-2.84E-06,0.006061875
,,,-2.83E-06,0.0060625
,,,-2.82E-06,0.00633875
,,,-2.81E-06,0.006215
,,,-2.8E-06,0.00592
,,,-2.79E-06,0.005859375
,,,-2.78E-06,0.006205
,,,-2.77E-06,0.00595
,,,-2.76E-06,0.005873125
,,,-2.75E-06,0.0060975
,,,-2.74E-06,0.00610625
,,,-2.73E-06,0.00606875
,,,-2.72E-06,0.00583
,,,-2.71E-06,0.00595125
,,,-2.7E-06,0.006226875
,,,-2.69E-06,0.00617
,,,-2.68E-06,0.00603
,,,-2.67E-06,0.00609375
,,,-2.66E-06,0.00608625
,,,-2.65E-06,0.006104375
,,,-2.64E-06,0.005994375
,,,-2.63E-06,0.005925
,,,-2.62E-06,0.0058375
,,,-2.61E-06,0.00616125
,,,-2.6E-06,0.006165625
,,,-2.59E-06,0.00637625
,,,-2.58E-06,0.00604125
,,,-2.57E-06,0.0061625
,,,-2.56E-06,0.006069375
,,,-2.55E-06,0.00602375
,,,-2.54E-06,0.005925
,,,-2.53E-06,0.0061475
,,,-2.52E-06,0.00609625
,,,-2.51E-06,0.00592
,,,-2.5E-06,0.006066875
,,,-2.49E-06,0.006243125
,,,-2.48E-06,0.00597
,,,-2.47E-06,0.006201875
,,,-2.46E-06,0.0059575
,,,-2.45E-06,0.006041875
,,,-2.44E-06,0.006080625
,,,-2.43E-06,0.006185
,,,-2.42E-06,0.005889375
,,,-2.41E-06,0.005938125
,,,-2.4E-06,0.006436875
,,,-2.39E-06,0.00613625
,,,-2.38E-06,0.0060675
,,,-2.37E-06,0.00617125
,,,-2.36E-06,0.006169375
,,,-2.35E-06,0.006114375
,,,-2.34E-06,0.006305625
,,,-2.33E-06,0.00610625
,,,-2.32E-06,0.005983125
,,,-2.31E-06,0.0063525
,,,-2.3E-06,0.00568
,,,-2.29E-06,0.006006875
,,,-2.28E-06,0.006080625
,,,-2.27E-06,0.00607125
,,,-2.26E-06,0.006211875
,,,-2.25E-06,0.00608125
,,,-2.24E-06,0.0060875
,,,-2.23E-06,0.0060075
,,,-2.22E-06,0.006055625
,,,-2.21E-06,0.00622625
,,,-2.2E-06,0.006136875
,,,-2.19E-06,0.00628125
,,,-2.18E-06,0.0061575
,,,-2.17E-06,0.0062075
,,,-2.16E-06,0.006260625
,,,-2.15E-06,0.00618875
,,,-2.14E-06,0.006149375
,,,-2.13E-06,0.006034375
,,,-2.12E-06,0.006035625
,,,-2.11E-06,0.0060175
,,,-2.1E-06,0.006076875
,,,-2.09E-06,0.005945
,,,-2.08E-06,0.0059475
,,,-2.07E-06,0.005976875
,,,-2.06E-06,0.005988125
,,,-2.05E-06,0.00603125
,,,-2.04E-06,0.0059625
,,,-2.03E-06,0.006170625
,,,-2.02E-06,0.00624125
,,,-2.01E-06,0.006010625
,,,-2E-06,0.006095625
,,,-1.99E-06,0.006209375
,,,-1.98E-06,0.00602125
,,,-1.97E-06,0.006085625
,,,-1.96E-06,0.006389375
,,,-1.95E-06,0.006120625
,,,-1.94E-06,0.0057875
,,,-1.93E-06,0.006135625
,,,-1.92E-06,0.0061475
,,,-1.91E-06,0.006236875
,,,-1.9E-06,0.00610875
,,,-1.89E-06,0.005969375
,,,-1.88E-06,0.0061825
,,,-1.87E-06,0.006050625
,,,-1.86E-06,0.0059675
,,,-1.85E-06,0.00589
,,,-1.84E-06,0.006134375
,,,-1.83E-06,0.006115625
,,,-1.82E-06,0.00627375
,,,-1.81E-06,0.006015
,,,-1.8E-06,0.006446875
,,,-1.79E-06,0.005875
,,,-1.78E-06,0.00622
,,,-1.77E-06,0.005975
,,,-1.76E-06,0.0060725
,,,-1.75E-06,0.006115
,,,-1.74E-06,0.00618125
,,,-1.73E-06,0.006111875
,,,-1.72E-06,0.006005625
,,,-1.71E-06,0.006091875
,,,-1.7E-06,0.00609875
,,,-1.69E-06,0.006133125
,,,-1.68E-06,0.006083125
,,,-1.67E-06,0.00597125
,,,-1.66E-06,0.006056875
,,,-1.65E-06,0.006023125
,,,-1.64E-06,0.005916875
,,,-1.63E-06,0.00625125
,,,-1.62E-06,0.00621625
,,,-1.61E-06,0.006163125
,,,-1.6E-06,0.00625625
,,,-1.59E-06,0.006241875
,,,-1.58E-06,0.006268125
,,,-1.57E-06,0.00630375
,,,-1.56E-06,0.005808125
,,,-1.55E-06,0.00619625
,,,-1.54E-06,0.006139375
,,,-1.53E-06,0.006030625
,,,-1.52E-06,0.00614125
,,,-1.51E-06,0.006275
,,,-1.5E-06,0.00620375
,,,-1.49E-06,0.00611125
,,,-1.48E-06,0.0061675
,,,-1.47E-06,0.006284375
,,,-1.46E-06,0.005825625
,,,-1.45E-06,0.006363125
,,,-1.44E-06,0.00588
,,,-1.43E-06,0.006179375
,,,-1.42E-06,0.005971875
,,,-1.41E-06,0.00601625
,,,-1.4E-06,0.0063775
,,,-1.39E-06,0.006240625
,,,-1.38E-06,0.00598
,,,-1.37E-06,0.006051875
,,,-1.36E-06,0.006043125
,,,-1.35E-06,0.006066875
,,,-1.34E-06,0.00613
,,,-1.33E-06,0.0059825
,,,-1.32E-06,0.005800625
,,,-1.31E-06,0.00600875
,,,-1.3E-06,0.005880625
,,,-1.29E-06,0.0065
,,,-1.28E-06,0.005975
,,,-1.27E-06,0.005855
,,,-1.26E-06,0.006085625
,,,-1.25E-06,0.0059175
,,,-1.24E-06,0.0060425
,,,-1.23E-06,0.00606
,,,-1.22E-06,0.0061925
,,,-1.21E-06,0.006073125
,,,-1.2E-06,0.005944375
,,,-1.19E-06,0.00612125
,,,-1.18E-06,0.00594375
,,,-1.17E-06,0.00604375
,,,-1.16E-06,0.006114375
,,,-1.15E-06,0.006384375
,,,-1.14E-06,0.006060625
,,,-1.13E-06,0.005900625
,,,-1.12E-06,0.006124375
,,,-1.11E-06,0.00612375
,,,-1.1E-06,0.00622
,,,-1.09E-06,0.00611125
,,,-1.08E-06,0.006125
,,,-1.07E-06,0.005940625
,,,-1.06E-06,0.00575375
,,,-1.05E-06,0.006165
,,,-1.04E-06,0.0061875
,,,-1.03E-06,0.00609375
,,,-1.02E-06,0.006341875
,,,-1.01E-06,0.0059725
,,,-1E-06,0.006156875
,,,-9.9E-07,0.0060175
,,,-9.8E-07,0.006095625
,,,-9.7E-07,0.0058425
,,,-9.6E-07,0.006145625
,,,-9.5E-07,0.00599875
,,,-9.4E-07,0.0060575
,,,-9.3E-07,0.0059825
,,,-9.2E-07,0.00611375
,,,-9.1E-07,0.0060425
,,,-9E-07,0.006185
,,,-8.9E-07,0.00629375
,,,-8.8E-07,0.006125625
,,,-8.7E-07,0.006119375
,,,-8.6E-07,0.00633625
,,,-8.5E-07,0.005880625
,,,-8.4E-07,0.006373125
,,,-8.3E-07,0.006166875
,,,-8.2E-07,0.006039375
,,,-8.1E-07,0.006050625
,,,-8E-07,0.0058925
,,,-7.9E-07,0.00611
,,,-7.8E-07,0.006145625
,,,-7.7E-07,0.0060425
,,,-7.6E-07,0.006475625
,,,-7.5E-07,0.006051875
,,,-7.4E-07,0.006195
,,,-7.3E-07,0.0060025
,,,-7.2E-07,0.00597375
,,,-7.1E-07,0.006
,,,-7E-07,0.00597625
,,,-6.9E-07,0.006401875
,,,-6.8E-07,0.006078125
,,,-6.7E-07,0.00626875
,,,-6.6E-07,0.00633625
,,,-6.5E-07,0.006205
,,,-6.4E-07,0.006191875
,,,-6.3E-07,0.005984375
,,,-6.2E-07,0.006100625
,,,-6.1E-07,0.0062
,,,-6E-07,0.006036875
,,,-5.9E-07,0.00587875
,,,-5.8E-07,0.006075625
,,,-5.7E-07,0.00591875
,,,-5.6E-07,0.006209375
,,,-5.5E-07,0.005976875
,,,-5.4E-07,0.00602875
,,,-5.3E-07,0.00633
,,,-5.2E-07,0.005918125
,,,-5.1E-07,0.00622
,,,-5E-07,0.0062475
,,,-4.9E-07,0.006134375
,,,-4.8E-07,0.006030625
,,,-4.7E-07,0.006109375
,,,-4.6E-07,0.00616
,,,-4.5E-07,0.005985
,,,-4.4E-07,0.0059625
,,,-4.3E-07,0.0060275
,,,-4.2E-07,0.006024375
,,,-4.1E-07,0.005921875
,,,-4E-07,0.0059125
,,,-3.9E-07,0.005986875
,,,-3.8E-07,0.0060175
,,,-3.7E-07,0.006179375
,,,-3.6E-07,0.006024375
,,,-3.5E-07,0.0061475
,,,-3.4E-07,0.0060075
,,,-3.3E-07,0.006099375
,,,-3.2E-07,0.005868125
,,,-3.1E-07,0.006020625
,,,-3E-07,0.0061075
,,,-2.9E-07,0.006055625
,,,-2.8E-07,0.00609375
,,,-2.7E-07,0.0060025
,,,-2.6E-07,0.006386875
,,,-2.5E-07,0.0063975
,,,-2.4E-07,0.005871875
,,,-2.3E-07,0.0058925
,,,-2.2E-07,0.00633125
,,,-2.1E-07,0.00604625
,,,-2E-07,0.006300625
,,,-1.9E-07,0.005941875
,,,-1.8E-07,0.006066875
,,,-1.7E-07,0.006116875
,,,-1.6E-07,0.005993125
,,,-1.5E-07,0.006185
,,,-1.4E-07,0.0061675
,,,-1.3E-07,0.006224375
,,,-1.2E-07,0.00616875
,,,-1.1E-07,0.00613375
,,,-1E-07,0.0059575
,,,-9E-08,0.006234375
,,,-8E-08,0.00607375
,,,-7E-08,0.00577625
,,,-6E-08,0.006144375
,,,-5E-08,0.00719375
,,,-4E-08,0.007485
,,,-3E-08,0.006170625
,,,-2E-08,0.0044975
,,,-1E-08,0.0031525
,,,0,0.005008125
,,,1E-08,0.007643125
,,,2E-08,0.00902875
,,,3E-08,0.007831875
,,,4E-08,0.00557
,,,5E-08,0.00399875
,,,6E-08,0.003840625
,,,7E-08,0.005195
,,,8E-08,0.006411875
,,,9E-08,0.007475
,,,1E-07,0.007303125
,,,1.1E-07,0.0063575
,,,1.2E-07,0.0053775
,,,1.3E-07,0.0052325
,,,1.4E-07,0.00573625
,,,1.5E-07,0.00631875
,,,1.6E-07,0.006528125
,,,1.7E-07,0.00642875
,,,1.8E-07,0.00623375
,,,1.9E-07,0.00619
,,,2E-07,0.006035
,,,2.1E-07,0.00590875
,,,2.2E-07,0.005874375
,,,2.3E-07,0.006085625
,,,2.4E-07,0.00593125
,,,2.5E-07,0.005973125
,,,2.6E-07,0.006158125
,,,2.7E-07,0.00591875
,,,2.8E-07,0.006175625
,,,2.9E-07,0.006019375
,,,3E-07,0.00629625
,,,3.1E-07,0.005915
,,,3.2E-07,0.0056925
,,,3.3E-07,0.00592
,,,3.4E-07,0.00614
,,,3.5E-07,0.006023125
,,,3.6E-07,0.00608
,,,3.7E-07,0.006254375
,,,3.8E-07,0.006010625
,,,3.9E-07,0.00592
,,,4E-07,0.00634125
,,,4.1E-07,0.005983125
,,,4.2E-07,0.006040625
,,,4.3E-07,0.006020625
,,,4.4E-07,0.006255
,,,4.5E-07,0.0062575
,,,4.6E-07,0.006035
,,,4.7E-07,0.00594
,,,4.8E-07,0.006134375
,,,4.9E-07,0.005843125
,,,5E-07,0.005968125
,,,5.1E-07,0.0061025
,,,5.2E-07,0.006093125
,,,5.3E-07,0.006123125
,,,5.4E-07,0.005903125
,,,5.5E-07,0.005968125
,,,5.6E-07,0.0062725
,,,5.7E-07,0.005941875
,,,5.8E-07,0.006273125
,,,5.9E-07,0.006093125
,,,6E-07,0.00610125
,,,6.1E-07,0.006265625
,,,6.2E-07,0.0058075
,,,6.3E-07,0.005988125
,,,6.4E-07,0.006088125
,,,6.5E-07,0.00593875
,,,6.6E-07,0.0061675
,,,6.7E-07,0.00602375
,,,6.8E-07,0.0059525
,,,6.9E-07,0.005985
,,,7E-07,0.00601
,,,7.1E-07,0.005998125
,,,7.2E-07,0.006203125
,,,7.3E-07,0.0062
,,,7.4E-07,0.005884375
,,,7.5E-07,0.0061325
,,,7.6E-07,0.006025
,,,7.7E-07,0.006060625
,,,7.8E-07,0.00614
,,,7.9E-07,0.0062975
,,,8E-07,0.006046875
,,,8.1E-07,0.00598625
,,,8.2E-07,0.006006875
,,,8.3E-07,0.0060175
,,,8.4E-07,0.006346875
,,,8.5E-07,0.00635875
,,,8.6E-07,0.006223125
,,,8.7E-07,0.005970625
,,,8.8E-07,0.006085625
,,,8.9E-07,0.005958125
,,,9E-07,0.006038125
,,,9.1E-07,0.00616875
,,,9.2E-07,0.005983125
,,,9.3E-07,0.00606375
,,,9.4E-07,0.006191875
,,,9.5E-07,0.00618875
,,,9.6E-07,0.005929375
,,,9.7E-07,0.00612
,,,9.8E-07,0.00593875
,,,9.9E-07,0.006155625
,,,1E-06,0.005965
,,,1.01E-06,0.00599125
,,,1.02E-06,0.006145625
,,,1.03E-06,0.00608625
,,,1.04E-06,0.00598
,,,1.05E-06,0.006055
,,,1.06E-06,0.0060375
,,,1.07E-06,0.0058475
,,,1.08E-06,0.005965
,,,1.09E-06,0.005971875
,,,1.1E-06,0.00605375
,,,1.11E-06,0.00609125
,,,1.12E-06,0.0061375
,,,1.13E-06,0.0063675
,,,1.14E-06,0.00593125
,,,1.15E-06,0.006125
,,,1.16E-06,0.00603
,,,1.17E-06,0.005995625
,,,1.18E-06,0.006026875
,,,1.19E-06,0.006033125
,,,1.2E-06,0.00603625
,,,1.21E-06,0.00608125
,,,1.22E-06,0.006088125
,,,1.23E-06,0.00619125
,,,1.24E-06,0.006226875
,,,1.25E-06,0.006029375
,,,1.26E-06,0.00627625
,,,1.27E-06,0.00602625
,,,1.28E-06,0.005990625
,,,1.29E-06,0.005994375
,,,1.3E-06,0.0059975
,,,1.31E-06,0.006005
,,,1.32E-06,0.00601875
,,,1.33E-06,0.005953125
,,,1.34E-06,0.005959375
,,,1.35E-06,0.005885
,,,1.36E-06,0.006006875
,,,1.37E-06,0.006111875
,,,1.38E-06,0.00606625
,,,1.39E-06,0.006045625
,,,1.4E-06,0.006053125
,,,1.41E-06,0.00599875
,,,1.42E-06,0.00611
,,,1.43E-06,0.00598625
,,,1.44E-06,0.006109375
,,,1.45E-06,0.006029375
,,,1.46E-06,0.00628625
,,,1.47E-06,0.006101875
,,,1.48E-06,0.00636125
,,,1.49E-06,0.00582125
,,,1.5E-06,0.006055
,,,1.51E-06,0.006179375
,,,1.52E-06,0.00641
,,,1.53E-06,0.0062975
,,,1.54E-06,0.006333125
,,,1.55E-06,0.00622125
,,,1.56E-06,0.006304375
,,,1.57E-06,0.0061025
,,,1.58E-06,0.0059525
,,,1.59E-06,0.00604625
,,,1.6E-06,0.0059925
,,,1.61E-06,0.00605375
,,,1.62E-06,0.00631375
,,,1.63E-06,0.006165
,,,1.64E-06,0.00611875
,,,1.65E-06,0.0061825
,,,1.66E-06,0.006019375
,,,1.67E-06,0.00629125
,,,1.68E-06,0.00593875
,,,1.69E-06,0.006230625
,,,1.7E-06,0.00600875
,,,1.71E-06,0.00625125
,,,1.72E-06,0.005695625
,,,1.73E-06,0.00626375
,,,1.74E-06,0.00609125
,,,1.75E-06,0.006430625
,,,1.76E-06,0.0057425
,,,1.77E-06,0.00573875
,,,1.78E-06,0.006258125
,,,1.79E-06,0.0060575
,,,1.8E-06,0.00603875
,,,1.81E-06,0.0061375
,,,1.82E-06,0.005981875
,,,1.83E-06,0.006035625
,,,1.84E-06,0.006006875
,,,1.85E-06,0.00629
,,,1.86E-06,0.006176875
,,,1.87E-06,0.005961875
,,,1.88E-06,0.00608875
,,,1.89E-06,0.0059525
,,,1.9E-06,0.00598
,,,1.91E-06,0.0059075
,,,1.92E-06,0.006179375
,,,1.93E-06,0.00629125
,,,1.94E-06,0.005975
,,,1.95E-06,0.00606875
,,,1.96E-06,0.0060475
,,,1.97E-06,0.005884375
,,,1.98E-06,0.006010625
,,,1.99E-06,0.00613125
,,,2E-06,0.006174375
,,,2.01E-06,0.006219375
,,,2.02E-06,0.00618
,,,2.03E-06,0.006153125
,,,2.04E-06,0.006133125
,,,2.05E-06,0.005944375
,,,2.06E-06,0.006214375
,,,2.07E-06,0.006031875
,,,2.08E-06,0.006264375
,,,2.09E-06,0.005768125
,,,2.1E-06,0.00605
,,,2.11E-06,0.00606
,,,2.12E-06,0.00605
,,,2.13E-06,0.00603875
,,,2.14E-06,0.00599
,,,2.15E-06,0.00597875
,,,2.16E-06,0.00618
,,,2.17E-06,0.0063475
,,,2.18E-06,0.0062225
,,,2.19E-06,0.006093125
,,,2.2E-06,0.006075
,,,2.21E-06,0.005975625
,,,2.22E-06,0.0062175
,,,2.23E-06,0.00619125
,,,2.24E-06,0.006150625
,,,2.25E-06,0.005955625
,,,2.26E-06,0.006403125
,,,2.27E-06,0.00574375
,,,2.28E-06,0.006055
,,,2.29E-06,0.00588375
,,,2.3E-06,0.006189375
,,,2.31E-06,0.006205
,,,2.32E-06,0.006115
,,,2.33E-06,0.00609125
,,,2.34E-06,0.00589
,,,2.35E-06,0.00617375
,,,2.36E-06,0.0059575
,,,2.37E-06,0.00602625
,,,2.38E-06,0.00605625
,,,2.39E-06,0.006003125
,,,2.4E-06,0.00618125
,,,2.41E-06,0.00625625
,,,2.42E-06,0.006311875
,,,2.43E-06,0.006185625
,,,2.44E-06,0.006208125
,,,2.45E-06,0.0059875
,,,2.46E-06,0.00621625
,,,2.47E-06,0.00612125
,,,2.48E-06,0.006060625
,,,2.49E-06,0.00602
,,,2.5E-06,0.006151875
,,,2.51E-06,0.006115
,,,2.52E-06,0.005848125
,,,2.53E-06,0.00591
,,,2.54E-06,0.006069375
,,,2.55E-06,0.00613625
,,,2.56E-06,0.006220625
,,,2.57E-06,0.00612125
,,,2.58E-06,0.006088125
,,,2.59E-06,0.00606625
,,,2.6E-06,0.006070625
,,,2.61E-06,0.006105625
,,,2.62E-06,0.0059925
,,,2.63E-06,0.0059975
,,,2.64E-06,0.005925
,,,2.65E-06,0.005899375
,,,2.66E-06,0.00645625
,,,2.67E-06,0.006145625
,,,2.68E-06,0.006458125
,,,2.69E-06,0.00605125
,,,2.7E-06,0.006208125
,,,2.71E-06,0.005926875
,,,2.72E-06,0.00610875
,,,2.73E-06,0.006106875
,,,2.74E-06,0.0062325
,,,2.75E-06,0.005971875
,,,2.76E-06,0.006240625
,,,2.77E-06,0.006046875
,,,2.78E-06,0.00598125
,,,2.79E-06,0.006138125
,,,2.8E-06,0.006051875
,,,2.81E-06,0.0060725
,,,2.82E-06,0.006025
,,,2.83E-06,0.0061625
,,,2.84E-06,0.005731875
,,,2.85E-06,0.0062425
,,,2.86E-06,0.00606375
,,,2.87E-06,0.0062575
,,,2.88E-06,0.006191875
,,,2.89E-06,0.006160625
,,,2.9E-06,0.0060525
,,,2.91E-06,0.006086875
,,,2.92E-06,0.006211875
,,,2.93E-06,0.00599
,,,2.94E-06,0.006449375
,,,2.95E-06,0.006295
,,,2.96E-06,0.00605875
,,,2.97E-06,0.006010625
,,,2.98E-06,0.005941875
,,,2.99E-06,0.006009375
,,,3E-06,0.00620625
,,,3.01E-06,0.00627375
,,,3.02E-06,0.0059975
,,,3.03E-06,0.00605375
,,,3.04E-06,0.00626125
,,,3.05E-06,0.0061525
,,,3.06E-06,0.00635
,,,3.07E-06,0.0060175
,,,3.08E-06,0.00592375
,,,3.09E-06,0.0058675
,,,3.1E-06,0.006024375
,,,3.11E-06,0.005979375
,,,3.12E-06,0.00598375
,,,3.13E-06,0.006151875
,,,3.14E-06,0.00623875
,,,3.15E-06,0.00611625
,,,3.16E-06,0.005924375
,,,3.17E-06,0.00603375
,,,3.18E-06,0.0058675
,,,3.19E-06,0.00603
,,,3.2E-06,0.005868125
,,,3.21E-06,0.005975
,,,3.22E-06,0.00636625
,,,3.23E-06,0.006051875
,,,3.24E-06,0.0059675
,,,3.25E-06,0.00607875
,,,3.26E-06,0.006125
,,,3.27E-06,0.0059775
,,,3.28E-06,0.006278125
,,,3.29E-06,0.006021875
,,,3.3E-06,0.006038125
,,,3.31E-06,0.006096875
,,,3.32E-06,0.00607125
,,,3.33E-06,0.00606375
,,,3.34E-06,0.00600625
,,,3.35E-06,0.006045
,,,3.36E-06,0.006040625
,,,3.37E-06,0.006236875
,,,3.38E-06,0.006264375
,,,3.39E-06,0.00604125
,,,3.4E-06,0.006023125
,,,3.41E-06,0.006046875
,,,3.42E-06,0.00616875
,,,3.43E-06,0.0062975
,,,3.44E-06,0.0061875
,,,3.45E-06,0.006046875
,,,3.46E-06,0.00594375
,,,3.47E-06,0.006069375
,,,3.48E-06,0.006345
,,,3.49E-06,0.0062
,,,3.5E-06,0.006264375
,,,3.51E-06,0.0063525
,,,3.52E-06,0.005664375
,,,3.53E-06,0.00622625
,,,3.54E-06,0.005965
,,,3.55E-06,0.006220625
,,,3.56E-06,0.00606
,,,3.57E-06,0.006146875
,,,3.58E-06,0.00629375
,,,3.59E-06,0.005896875
,,,3.6E-06,0.005743125
,,,3.61E-06,0.006081875
,,,3.62E-06,0.00603125
