data/raw/Final_POL_Test_1/SOP048_Ch4.csv

"Record Length",1000,"Points",-5E-06,0.019535625
"Sample Interval",1E-08,s,-4.99E-06,0.01966625
"Trigger Point",500,"Samples",-4.98E-06,0.019545625
"Trigger Time",0,s,-4.97E-06,0.019629375
"",,,-4.96E-06,0.0194925
"Horizontal Offset",-5E-06,s,-4.95E-06,0.01963375
,,,-4.94E-06,0.01969
,,,-4.93E-06,0.019589375
,,,-4.92E-06,0.019613125
,,,-4.91E-06,0.019620625
,,,-4.9E-06,0.019661875
,,,-4.89E-06,0.0194575
,,,-4.88E-06,0.01952625
,,,-4.87E-06,0.019543125
,,,-4.86E-06,0.019573125
,,,-4.85E-06,0.019814375
,,,-4.84E-06,0.019504375
,,,-4.83E-06,0.01969
,,,-4.82E-06,0.019845625
,,,-4.81E-06,0.0194725
,,,-4.8E-06,0.01946375
,,,-4.79E-06,0.019380625
,,,-4.78E-06,0.019573125
,,,-4.77E-06,0.01962375
,,,-4.76E-06,0.019784375
,,,-4.75E-06,0.01954625
,,,-4.74E-06,0.019673125
,,,-4.73E-06,0.019891875
,,,-4.72E-06,0.0195125
,,,-4.71E-06,0.019908125
,,,-4.7E-06,0.019673125
,,,-4.69E-06,0.019436875
,,,-4.68E-06,0.019665625
,,,-4.67E-06,0.01957375
,,,-4.66E-06,0.019475625
,,,-4.65E-06,0.01961875
,,,-4.64E-06,0.01975375
,,,-4.63E-06,0.01966375
,,,-4.62E-06,0.019628125
,,,-4.61E-06,0.0196675
,,,-4.6E-06,0.019514375
,,,-4.59E-06,0.0196175
,,,-4.58E-06,0.019465625
,,,-4.57E-06,0.01962875
,,,-4.56E-06,0.019558125
,,,-4.55E-06,0.019643125
,,,-4.54E-06,0.019668125
,,,-4.53E-06,0.0195275
,,,-4.52E-06,0.019689375
,,,-4.51E-06,0.01961375
,,,-4.5E-06,0.019584375
,,,-4.49E-06,0.019700625
,,,-4.48E-06,0.019423125
,,,-4.47E-06,0.019780625
,,,-4.46E-06,0.01967625
,,,-4.45E-06,0.019616875
,,,-4.44E-06,0.01946
,,,-4.43E-06,0.01951125
,,,-4.42E-06,0.019385625
,,,-4.41E-06,0.019615
,,,-4.4E-06,0.0197175
,,,-4.39E-06,0.019765625
,,,-4.38E-06,0.01956875
,,,-4.37E-06,0.019479375
,,,-4.36E-06,0.019543125
,,,-4.35E-06,0.019756875
,,,-4.34E-06,0.019641875
,,,-4.33E-06,0.019488125
,,,-4.32E-06,0.019641875
,,,-4.31E-06,0.0197
,,,-4.3E-06,0.01941125
,,,-4.29E-06,0.01959875
,,,-4.28E-06,0.019474375
,,,-4.27E-06,0.0197525
,,,-4.26E-06,0.01961875
,,,-4.25E-06,0.019553125
,,,-4.24E-06,0.019694375
,,,-4.23E-06,0.019596875
,,,-4.22E-06,0.019475
,,,-4.21E-06,0.01971
,,,-4.2E-06,0.01974125
,,,-4.19E-06,0.019424375
,,,-4.18E-06,0.01950625
,,,-4.17E-06,0.019675
,,,-4.16E-06,0.01967125
,,,-4.15E-06,0.019530625
,,,-4.14E-06,0.019305
,,,-4.13E-06,0.0198525
,,,-4.12E-06,0.01953875
,,,-4.11E-06,0.019590625
,,,-4.1E-06,0.01981
,,,-4.09E-06,0.019621875
,,,-4.08E-06,0.019475
,,,-4.07E-06,0.019613125
,,,-4.06E-06,0.01981625
,,,-4.05E-06,0.01947375
,,,-4.04E-06,0.019670625
,,,-4.03E-06,0.01989375
,,,-4.02E-06,0.01957375
,,,-4.01E-06,0.019669375
,,,-4E-06,0.0197325
,,,-3.99E-06,0.019645
,,,-3.98E-06,0.019524375
,,,-3.97E-06,0.019754375
,,,-3.96E-06,0.019615625
,,,-3.95E-06,0.019661875
,,,-3.94E-06,0.019493125
,,,-3.93E-06,0.019629375
,,,-3.92E-06,0.01962125
,,,-3.91E-06,0.019638125
,,,-3.9E-06,0.019559375
,,,-3.89E-06,0.0196475
,,,-3.88E-06,0.019628125
,,,-3.87E-06,0.019749375
,,,-3.86E-06,0.0193675
,,,-3.85E-06,0.019609375
,,,-3.84E-06,0.01955625
,,,-3.83E-06,0.019825625
,,,-3.82E-06,0.01956875
,,,-3.81E-06,0.019513125
,,,-3.8E-06,0.019695
,,,-3.79E-06,0.01947
,,,-3.78E-06,0.01963
,,,-3.77E-06,0.01966125
,,,-3.76E-06,0.019430625
,,,-3.75E-06,0.019675
,,,-3.74E-06,0.019511875
,,,-3.73E-06,0.0195
,,,-3.72E-06,0.01917625
,,,-3.71E-06,0.019658125
,,,-3.7E-06,0.01958875
,,,-3.69E-06,0.019651875
,,,-3.68E-06,0.019465625
,,,-3.67E-06,0.019593125
,,,-3.66E-06,0.0194
,,,-3.65E-06,0.01965625
,,,-3.64E-06,0.0195775
,,,-3.63E-06,0.019446875
,,,-3.62E-06,0.01983
,,,-3.61E-06,0.01968625
,,,-3.6E-06,0.019556875
,,,-3.59E-06,0.0195725
,,,-3.58E-06,0.01973375
,,,-3.57E-06,0.019451875
,,,-3.56E-06,0.019571875
,,,-3.55E-06,0.01973625
,,,-3.54E-06,0.0196525
,,,-3.53E-06,0.019641875
,,,-3.52E-06,0.019675625
,,,-3.51E-06,0.019661875
,,,-3.5E-06,0.0198725
,,,-3.49E-06,0.01949875
,,,-3.48E-06,0.0196225
,,,-3.47E-06,0.019576875
,,,-3.46E-06,0.01958625
,,,-3.45E-06,0.01954625
,,,-3.44E-06,0.01934125
,,,-3.43E-06,0.01938875
,,,-3.42E-06,0.019836875
,,,-3.41E-06,0.019475
,,,-3.4E-06,0.01959375
,,,-3.39E-06,0.019780625
,,,-3.38E-06,0.019383125
,,,-3.37E-06,0.01956375
,,,-3.36E-06,0.019578125
,,,-3.35E-06,0.0193075
,,,-3.34E-06,0.01945625
,,,-3.33E-06,0.0197975
,,,-3.32E-06,0.019699375
,,,-3.31E-06,0.01937125
,,,-3.3E-06,0.019513125
,,,-3.29E-06,0.019763125
,,,-3.28E-06,0.019501875
,,,-3.27E-06,0.01967
,,,-3.26E-06,0.019606875
,,,-3.25E-06,0.0196525
,,,-3.24E-06,0.01945
,,,-3.23E-06,0.01966625
,,,-3.22E-06,0.019509375
,,,-3.21E-06,0.019353125
,,,-3.2E-06,0.01947375
,,,-3.19E-06,0.01959375
,,,-3.18E-06,0.01967625
,,,-3.17E-06,0.01956875
,,,-3.16E-06,0.019460625
,,,-3.15E-06,0.01959375
,,,-3.14E-06,0.0195225
,,,-3.13E-06,0.019709375
,,,-3.12E-06,0.01956625
,,,-3.11E-06,0.019618125
,,,-3.1E-06,0.0193575
,,,-3.09E-06,0.01931125
,,,-3.08E-06,0.019748125
,,,-3.07E-06,0.0197825
,,,-3.06E-06,0.01967
,,,-3.05E-06,0.019765
,,,-3.04E-06,0.019494375
,,,-3.03E-06,0.019485
,,,-3.02E-06,0.0198025
,,,-3.01E-06,0.01936125
,,,-3E-06,0.01973375
,,,-2.99E-06,0.01946125
,,,-2.98E-06,0.019360625
,,,-2.97E-06,0.019605
,,,-2.96E-06,0.01932625
,,,-2.95E-06,0.0196425
,,,-2.94E-06,0.0196825
,,,-2.93E-06,0.01952375
,,,-2.92E-06,0.0194425
,,,-2.91E-06,0.019673125
,,,-2.9E-06,0.0197625
,,,-2.89E-06,0.019380625
,,,-2.88E-06,0.019773125
,,,-2.87E-06,0.019655
,,,-2.86E-06,0.0195
,,,-2.85E-06,0.019580625
,,,-2.84E-06,0.019823125
,,,-2.83E-06,0.019648125
,,,-2.82E-06,0.019538125
,,,-2.81E-06,0.01963
,,,-2.8E-06,0.01952
,,,-2.79E-06,0.0196575
,,,-2.78E-06,0.019455625
,,,-2.77E-06,0.01952625
,,,-2.76E-06,0.01958125
,,,-2.75E-06,0.019453125
,,,-2.74E-06,0.019616875
,,,-2.73E-06,0.01966125
,,,-2.72E-06,0.019334375
,,,-2.71E-06,0.019590625
,,,-2.7E-06,0.019711875
,,,-2.69E-06,0.0195875
,,,-2.68E-06,0.0197275
,,,-2.67E-06,0.01958
,,,-2.66E-06,0.019545625
,,,-2.65E-06,0.01964
,,,-2.64E-06,0.019478125
,,,-2.63E-06,0.01978
,,,-2.62E-06,0.01965125
,,,-2.61E-06,0.0197275
,,,-2.6E-06,0.019531875
,,,-2.59E-06,0.0197775
,,,-2.58E-06,0.019706875
,,,-2.57E-06,0.019693125
,,,-2.56E-06,0.0197275
,,,-2.55E-06,0.0195575
,,,-2.54E-06,0.01962375
,,,-2.53E-06,0.01965375
,,,-2.52E-06,0.019789375
,,,-2.51E-06,0.019563125
,,,-2.5E-06,0.01957375
,,,-2.49E-06,0.0195275
,,,-2.48E-06,0.019700625
,,,-2.47E-06,0.01956625
,,,-2.46E-06,0.019301875
,,,-2.45E-06,0.019815
,,,-2.44E-06,0.019595
,,,-2.43E-06,0.0196675
,,,-2.42E-06,0.019708125
,,,-2.41E-06,0.019685
,,,-2.4E-06,0.01965125
,,,-2.39E-06,0.019474375
,,,-2.38E-06,0.01981125
,,,-2.37E-06,0.019593125
,,,-2.36E-06,0.019559375
,,,-2.35E-06,0.019841875
,,,-2.34E-06,0.01974875
,,,-2.33E-06,0.0197175
,,,-2.32E-06,0.019748125
,,,-2.31E-06,0.019598125
,,,-2.3E-06,0.0195725
,,,-2.29E-06,0.01956625
,,,-2.28E-06,0.019605
,,,-2.27E-06,0.019645625
,,,-2.26E-06,0.019590625
,,,-2.25E-06,0.01977125
,,,-2.24E-06,0.019515625
,,,-2.23E-06,0.0193425
,,,-2.22E-06,0.019539375
,,,-2.21E-06,0.01980125
,,,-2.2E-06,0.0197475
,,,-2.19E-06,0.01951375
,,,-2.18E-06,0.019540625
,,,-2.17E-06,0.0197275
,,,-2.16E-06,0.0193425
,,,-2.15E-06,0.019768125
,,,-2.14E-06,0.01963875
,,,-2.13E-06,0.01943375
,,,-2.12E-06,0.019699375
,,,-2.11E-06,0.019553125
,,,-2.1E-06,0.019744375
,,,-2.09E-06,0.01956125
,,,-2.08E-06,0.019754375
,,,-2.07E-06,0.0196175
,,,-2.06E-06,0.019565
,,,-2.05E-06,0.019456875
,,,-2.04E-06,0.01939
,,,-2.03E-06,0.01968625
,,,-2.02E-06,0.0196225
,,,-2.01E-06,0.019839375
,,,-2E-06,0.019885625
,,,-1.99E-06,0.01975
,,,-1.98E-06,0.01968625
,,,-1.97E-06,0.019658125
,,,-1.96E-06,0.019680625
,,,-1.95E-06,0.019461875
,,,-1.94E-06,0.019581875
,,,-1.93E-06,0.0195875
,,,-1.92E-06,0.01942875
,,,-1.91E-06,0.019570625
,,,-1.9E-06,0.0198625
,,,-1.89E-06,0.01934
,,,-1.88E-06,0.0193475
,,,-1.87E-06,0.019839375
,,,-1.86E-06,0.01981375
,,,-1.85E-06,0.019705625
,,,-1.84E-06,0.01950875
,,,-1.83E-06,0.019345
,,,-1.82E-06,0.019800625
,,,-1.81E-06,0.019729375
,,,-1.8E-06,0.019460625
,,,-1.79E-06,0.0195
,,,-1.78E-06,0.019715625
,,,-1.77E-06,0.0196475
,,,-1.76E-06,0.019550625
,,,-1.75E-06,0.01966
,,,-1.74E-06,0.019549375
,,,-1.73E-06,0.0194875
,,,-1.72E-06,0.019479375
,,,-1.71E-06,0.019816875
,,,-1.7E-06,0.019551875
,,,-1.69E-06,0.0195575
,,,-1.68E-06,0.019556875
,,,-1.67E-06,0.019615625
,,,-1.66E-06,0.0195425
,,,-1.65E-06,0.019715
,,,-1.64E-06,0.01957375
,,,-1.63E-06,0.0196625
,,,-1.62E-06,0.019645625
,,,-1.61E-06,0.0194375
,,,-1.6E-06,0.019603125
,,,-1.59E-06,0.01969625
,,,-1.58E-06,0.019669375
,,,-1.57E-06,0.01929625
,,,-1.56E-06,0.01941125
,,,-1.55E-06,0.019598125
,,,-1.54E-06,0.019591875
,,,-1.53E-06,0.019584375
,,,-1.52E-06,0.01956
,,,-1.51E-06,0.019560625
,,,-1.5E-06,0.019694375
,,,-1.49E-06,0.019581875
,,,-1.48E-06,0.019666875
,,,-1.47E-06,0.019618125
,,,-1.46E-06,0.019575625
,,,-1.45E-06,0.01955
,,,-1.44E-06,0.019421875
,,,-1.43E-06,0.019373125
,,,-1.42E-06,0.019581875
,,,-1.41E-06,0.01943875
,,,-1.4E-06,0.019720625
,,,-1.39E-06,0.019365625
,,,-1.38E-06,0.0194225
,,,-1.37E-06,0.019595
,,,-1.36E-06,0.019649375
,,,-1.35E-06,0.019481875
,,,-1.34E-06,0.0195375
,,,-1.33E-06,0.019755
,,,-1.32E-06,0.019696875
,,,-1.31E-06,0.019738125
,,,-1.3E-06,0.019575625
,,,-1.29E-06,0.01928125
,,,-1.28E-06,0.019518125
,,,-1.27E-06,0.0197525
,,,-1.26E-06,0.019455625
,,,-1.25E-06,0.019425625
,,,-1.24E-06,0.019319375
,,,-1.23E-06,0.019529375
,,,-1.22E-06,0.019758125
,,,-1.21E-06,0.019351875
,,,-1.2E-06,0.019365
,,,-1.19E-06,0.019545625
,,,-1.18E-06,0.019714375
,,,-1.17E-06,0.019741875
,,,-1.16E-06,0.019709375
,,,-1.15E-06,0.019480625
,,,-1.14E-06,0.019553125
,,,-1.13E-06,0.019449375
,,,-1.12E-06,0.019420625
,,,-1.11E-06,0.019583125
,,,-1.1E-06,0.019595625
,,,-1.09E-06,0.01968125
,,,-1.08E-06,0.01965625
,,,-1.07E-06,0.019690625
,,,-1.06E-06,0.0193975
,,,-1.05E-06,0.0197875
,,,-1.04E-06,0.019829375
,,,-1.03E-06,0.019681875
,,,-1.02E-06,0.019378125
,,,-1.01E-06,0.019453125
,,,-1E-06,0.01979125
,,,-9.9E-07,0.01946875
,,,-9.8E-07,0.019705625
,,,-9.7E-07,0.019713125
,,,-9.6E-07,0.019585
,,,-9.5E-07,0.019665
,,,-9.4E-07,0.019525625
,,,-9.3E-07,0.01931125
,,,-9.2E-07,0.019745625
,,,-9.1E-07,0.0198775
,,,-9E-07,0.01969625
,,,-8.9E-07,0.0198275
,,,-8.8E-07,0.019443125
,,,-8.7E-07,0.019904375
,,,-8.6E-07,0.01962625
,,,-8.5E-07,0.019740625
,,,-8.4E-07,0.0195775
,,,-8.3E-07,0.019383125
,,,-8.2E-07,0.0195425
,,,-8.1E-07,0.01957875
,,,-8E-07,0.01969
,,,-7.9E-07,0.019533125
,,,-7.8E-07,0.01966
,,,-7.7E-07,0.01951125
,,,-7.6E-07,0.01976125
,,,-7.5E-07,0.02003875
,,,-7.4E-07,0.019619375
,,,-7.3E-07,0.019705
,,,-7.2E-07,0.019774375
,,,-7.1E-07,0.01952
,,,-7E-07,0.0195375
,,,-6.9E-07,0.019405
,,,-6.8E-07,0.019609375
,,,-6.7E-07,0.019624375
,,,-6.6E-07,0.01959375
,,,-6.5E-07,0.01976375
,,,-6.4E-07,0.0197075
,,,-6.3E-07,0.01971625
,,,-6.2E-07,0.01962625
,,,-6.1E-07,0.01977375
,,,-6E-07,0.0197575
,,,-5.9E-07,0.019781875
,,,-5.8E-07,0.01953875
,,,-5.7E-07,0.019765625
,,,-5.6E-07,0.01961625
,,,-5.5E-07,0.01968125
,,,-5.4E-07,0.019335
,,,-5.3E-07,0.0196875
,,,-5.2E-07,0.019618125
,,,-5.1E-07,0.01967625
,,,-5E-07,0.01969875
,,,-4.9E-07,0.019836875
,,,-4.8E-07,0.019540625
,,,-4.7E-07,0.01966
,,,-4.6E-07,0.0195675
,,,-4.5E-07,0.019470625
,,,-4.4E-07,0.01986375
,,,-4.3E-07,0.01985125
,,,-4.2E-07,0.01967875
,,,-4.1E-07,0.019401875
,,,-4E-07,0.0193925
,,,-3.9E-07,0.01964
,,,-3.8E-07,0.01950875
,,,-3.7E-07,0.019684375
,,,-3.6E-07,0.019621875
,,,-3.5E-07,0.0196225
,,,-3.4E-07,0.01954625
,,,-3.3E-07,0.01979625
,,,-3.2E-07,0.019570625
,,,-3.1E-07,0.019788125
,,,-3E-07,0.019593125
,,,-2.9E-07,0.019590625
,,,-2.8E-07,0.0193725
,,,-2.7E-07,0.019600625
,,,-2.6E-07,0.01944625
,,,-2.5E-07,0.019494375
,,,-2.4E-07,0.0195025
,,,-2.3E-07,0.019555625
,,,-2.2E-07,0.01967625
,,,-2.1E-07,0.0195575
,,,-2E-07,0.01936
,,,-1.9E-07,0.019619375
,,,-1.8E-07,0.019765
,,,-1.7E-07,0.019585
,,,-1.6E-07,0.01959125
,,,-1.5E-07,0.019378125
,,,-1.4E-07,0.0194975
,,,-1.3E-07,0.019771875
,,,-1.2E-07,0.019441875
,,,-1.1E-07,0.01968375
,,,-1E-07,0.01984875
,,,-9E-08,0.01946
,,,-8E-08,0.0196775
,,,-7E-08,0.019301875
,,,-6E-08,0.019674375
,,,-5E-08,0.0195275
,,,-4E-08,0.020545
,,,-3E-08,0.020581875
,,,-2E-08,0.01859375
,,,-1E-08,0.01716
,,,0,0.01771375
,,,1E-08,0.021451875
,,,2E-08,0.0231675
,,,3E-08,0.022101875
,,,4E-08,0.0189725
,,,5E-08,0.01755875
,,,6E-08,0.01759625
,,,7E-08,0.018841875
,,,8E-08,0.020309375
,,,9E-08,0.021138125
,,,1E-07,0.021313125
,,,1.1E-07,0.01977375
,,,1.2E-07,0.018724375
,,,1.3E-07,0.018373125
,,,1.4E-07,0.019004375
,,,1.5E-07,0.019975
,,,1.6E-07,0.020099375
,,,1.7E-07,0.020001875
,,,1.8E-07,0.0195375
,,,1.9E-07,0.0197525
,,,2E-07,0.0196875
,,,2.1E-07,0.019518125
,,,2.2E-07,0.01963375
,,,2.3E-07,0.01959
,,,2.4E-07,0.019664375
,,,2.5E-07,0.019555625
,,,2.6E-07,0.019618125
,,,2.7E-07,0.019720625
,,,2.8E-07,0.01959125
,,,2.9E-07,0.01941375
,,,3E-07,0.019576875
,,,3.1E-07,0.019445625
,,,3.2E-07,0.019569375
,,,3.3E-07,0.019735625
,,,3.4E-07,0.01974125
,,,3.5E-07,0.019571875
,,,3.6E-07,0.0195875
,,,3.7E-07,0.019443125
,,,3.8E-07,0.019361875
,,,3.9E-07,0.019614375
,,,4E-07,0.019608125
,,,4.1E-07,0.019669375
,,,4.2E-07,0.0196375
,,,4.3E-07,0.019531875
,,,4.4E-07,0.01956625
,,,4.5E-07,0.01964625
,,,4.6E-07,0.01973875
,,,4.7E-07,0.01954
,,,4.8E-07,0.01959375
,,,4.9E-07,0.019235625
,,,5E-07,0.019705625
,,,5.1E-07,0.0195825
,,,5.2E-07,0.019624375
,,,5.3E-07,0.0196025
,,,5.4E-07,0.019504375
,,,5.5E-07,0.01956375
,,,5.6E-07,0.019736875
,,,5.7E-07,0.0195175
,,,5.8E-07,0.019729375
,,,5.9E-07,0.019544375
,,,6E-07,0.019379375
,,,6.1E-07,0.01964125
,,,6.2E-07,0.019671875
,,,6.3E-07,0.01951625
,,,6.4E-07,0.019548125
,,,6.5E-07,0.01959375
,,,6.6E-07,0.019736875
,,,6.7E-07,0.019795
,,,6.8E-07,0.0194775
,,,6.9E-07,0.019555
,,,7E-07,0.019675625
,,,7.1E-07,0.01977
,,,7.2E-07,0.01947375
,,,7.3E-07,0.01953875
,,,7.4E-07,0.01951125
,,,7.5E-07,0.01955625
,,,7.6E-07,0.01962125
,,,7.7E-07,0.01941125
,,,7.8E-07,0.019604375
,,,7.9E-07,0.019790625
,,,8E-07,0.0197275
,,,8.1E-07,0.019503125
,,,8.2E-07,0.01962
,,,8.3E-07,0.019688125
,,,8.4E-07,0.01971625
,,,8.5E-07,0.019830625
,,,8.6E-07,0.019829375
,,,8.7E-07,0.019481875
,,,8.8E-07,0.019720625
,,,8.9E-07,0.0197375
,,,9E-07,0.01982625
,,,9.1E-07,0.01934375
,,,9.2E-07,0.019804375
,,,9.3E-07,0.01953375
,,,9.4E-07,0.01953125
,,,9.5E-07,0.019595
,,,9.6E-07,0.0195225
,,,9.7E-07,0.019434375
,,,9.8E-07,0.019550625
,,,9.9E-07,0.019514375
,,,1E-06,0.019723125
,,,1.01E-06,0.019655
,,,1.02E-06,0.01985375
,,,1.03E-06,0.019438125
,,,1.04E-06,0.01945
,,,1.05E-06,0.0197125
,,,1.06E-06,0.019663125
,,,1.07E-06,0.019616875
,,,1.08E-06,0.019598125
,,,1.09E-06,0.019436875
,,,1.1E-06,0.019394375
,,,1.11E-06,0.0194525
,,,1.12E-06,0.01985375
,,,1.13E-06,0.0196275
,,,1.14E-06,0.01964625
,,,1.15E-06,0.01954875
,,,1.16E-06,0.0197125
,,,1.17E-06,0.019685625
,,,1.18E-06,0.019659375
,,,1.19E-06,0.019531875
,,,1.2E-06,0.0193625
,,,1.21E-06,0.01967125
,,,1.22E-06,0.01974125
,,,1.23E-06,0.019485625
,,,1.24E-06,0.019709375
,,,1.25E-06,0.019529375
,,,1.26E-06,0.01984875
,,,1.27E-06,0.0197
,,,1.28E-06,0.01948125
,,,1.29E-06,0.019593125
,,,1.3E-06,0.01968
,,,1.31E-06,0.019703125
,,,1.32E-06,0.019765
,,,1.33E-06,0.01971625
,,,1.34E-06,0.019655
,,,1.35E-06,0.019618125
,,,1.36E-06,0.019585625
,,,1.37E-06,0.019346875
,,,1.38E-06,0.01960875
,,,1.39E-06,0.019535
,,,1.4E-06,0.019746875
,,,1.41E-06,0.019485625
,,,1.42E-06,0.019579375
,,,1.43E-06,0.01955875
,,,1.44E-06,0.019615
,,,1.45E-06,0.019615
,,,1.46E-06,0.019341875
,,,1.47E-06,0.0195325
,,,1.48E-06,0.0197075
,,,1.49E-06,0.01953625
,,,1.5E-06,0.019706875
,,,1.51E-06,0.01959375
,,,1.52E-06,0.01958
,,,1.53E-06,0.019715
,,,1.54E-06,0.019414375
,,,1.55E-06,0.019668125
,,,1.56E-06,0.01964125
,,,1.57E-06,0.0195775
,,,1.58E-06,0.01971125
,,,1.59E-06,0.0197025
,,,1.6E-06,0.019428125
,,,1.61E-06,0.019828125
,,,1.62E-06,0.0197125
,,,1.63E-06,0.019544375
,,,1.64E-06,0.01973625
,,,1.65E-06,0.0195625
,,,1.66E-06,0.019505625
,,,1.67E-06,0.019355625
,,,1.68E-06,0.019636875
,,,1.69E-06,0.01958
,,,1.7E-06,0.019730625
,,,1.71E-06,0.019735
,,,1.72E-06,0.019611875
,,,1.73E-06,0.019528125
,,,1.74E-06,0.01957875
,,,1.75E-06,0.019525
,,,1.76E-06,0.019538125
,,,1.77E-06,0.0194625
,,,1.78E-06,0.0195525
,,,1.79E-06,0.01962125
,,,1.8E-06,0.019585
,,,1.81E-06,0.019573125
,,,1.82E-06,0.019795625
,,,1.83E-06,0.019685625
,,,1.84E-06,0.01952875
,,,1.85E-06,0.01961375
,,,1.86E-06,0.01951875
,,,1.87E-06,0.019505625
,,,1.88E-06,0.019581875
,,,1.89E-06,0.01972375
,,,1.9E-06,0.019258125
,,,1.91E-06,0.019495
,,,1.92E-06,0.019261875
,,,1.93E-06,0.019793125
,,,1.94E-06,0.019661875
,,,1.95E-06,0.019498125
,,,1.96E-06,0.01950625
,,,1.97E-06,0.0194625
,,,1.98E-06,0.01950875
,,,1.99E-06,0.019530625
,,,2E-06,0.019751875
,,,2.01E-06,0.019665
,,,2.02E-06,0.019695625
,,,2.03E-06,0.019353125
,,,2.04E-06,0.01945125
,,,2.05E-06,0.019514375
,,,2.06E-06,0.01966625
,,,2.07E-06,0.019593125
,,,2.08E-06,0.01976
,,,2.09E-06,0.019631875
,,,2.1E-06,0.01958375
,,,2.11E-06,0.01957
,,,2.12E-06,0.01968125
,,,2.13E-06,0.019665
,,,2.14E-06,0.0196375
,,,2.15E-06,0.019614375
,,,2.16E-06,0.019551875
,,,2.17E-06,0.01964
,,,2.18E-06,0.019594375
,,,2.19E-06,0.019455
,,,2.2E-06,0.0194975
,,,2.21E-06,0.01966125
,,,2.22E-06,0.019525
,,,2.23E-06,0.019623125
,,,2.24E-06,0.01956375
,,,2.25E-06,0.019484375
,,,2.26E-06,0.019566875
,,,2.27E-06,0.0193975
,,,2.28E-06,0.019715625
,,,2.29E-06,0.01978
,,,2.3E-06,0.0196375
,,,2.31E-06,0.0196025
,,,2.32E-06,0.019603125
,,,2.33E-06,0.01960625
,,,2.34E-06,0.01948375
,,,2.35E-06,0.01959625
,,,2.36E-06,0.01948875
,,,2.37E-06,0.01951875
,,,2.38E-06,0.019735
,,,2.39E-06,0.019450625
,,,2.4E-06,0.019610625
,,,2.41E-06,0.019731875
,,,2.42E-06,0.01944875
,,,2.43E-06,0.01949
,,,2.44E-06,0.019503125
,,,2.45E-06,0.01947625
,,,2.46E-06,0.01978875
,,,2.47E-06,0.019305
,,,2.48E-06,0.019504375
,,,2.49E-06,0.019788125
,,,2.5E-06,0.01953625
,,,2.51E-06,0.019435625
,,,2.52E-06,0.019620625
,,,2.53E-06,0.01972125
,,,2.54E-06,0.0194075
,,,2.55E-06,0.019615625
,,,2.56E-06,0.019425625
,,,2.57E-06,0.019539375
,,,2.58E-06,0.019499375
,,,2.59E-06,0.01952
,,,2.6E-06,0.019460625
,,,2.61E-06,0.0197175
,,,2.62E-06,0.0196375
,,,2.63E-06,0.019413125
,,,2.64E-06,0.019455625
,,,2.65E-06,0.0196825
,,,2.66E-06,0.019619375
,,,2.67E-06,0.019466875
,,,2.68E-06,0.0196975
,,,2.69E-06,0.019680625
,,,2.7E-06,0.019779375
,,,2.71E-06,0.019528125
,,,2.72E-06,0.019651875
,,,2.73E-06,0.019665
,,,2.74E-06,0.0195575
,,,2.75E-06,0.01983
,,,2.76E-06,0.019866875
,,,2.77E-06,0.01939625
,,,2.78E-06,0.019605
,,,2.79E-06,0.01973875
,,,2.8E-06,0.01994875
,,,2.81E-06,0.019653125
,,,2.82E-06,0.01961375
,,,2.83E-06,0.0197
,,,2.84E-06,0.019419375
,,,2.85E-06,0.01944875
,,,2.86E-06,0.019306875
,,,2.87E-06,0.019541875
,,,2.88E-06,0.01971375
,,,2.89E-06,0.019428125
,,,2.9E-06,0.019415625
,,,2.91E-06,0.01953875
,,,2.92E-06,0.01973
,,,2.93E-06,0.01929
,,,2.94E-06,0.01945625
,,,2.95E-06,0.019456875
,,,2.96E-06,0.01955875
,,,2.97E-06,0.019659375
,,,2.98E-06,0.01969375
,,,2.99E-06,0.01956375
,,,3E-06,0.01950125
,,,3.01E-06,0.0193575
,,,3.02E-06,0.01960125
,,,3.03E-06,0.019604375
,,,3.04E-06,0.019511875
,,,3.05E-06,0.0195075
,,,3.06E-06,0.019754375
,,,3.07E-06,0.01945
,,,3.08E-06,0.019586875
,,,3.09E-06,0.019573125
,,,3.1E-06,0.019674375
,,,3.11E-06,0.01959625
,,,3.12E-06,0.01958
,,,3.13E-06,0.019548125
,,,3.14E-06,0.01967625
,,,3.15E-06,0.019535625
,,,3.16E-06,0.019628125
,,,3.17E-06,0.01968875
,,,3.18E-06,0.01975625
,,,3.19E-06,0.019680625
,,,3.2E-06,0.01941
,,,3.21E-06,0.0195475
,,,3.22E-06,0.019769375
,,,3.23E-06,0.01976375
,,,3.24E-06,0.01934125
,,,3.25E-06,0.019545625
,,,3.26E-06,0.01954375
,,,3.27E-06,0.0196525
,,,3.28E-06,0.0197475
,,,3.29E-06,0.019951875
,,,3.3E-06,0.0195075
,,,3.31E-06,0.019878125
,,,3.32E-06,0.019725625
,,,3.33E-06,0.019673125
,,,3.34E-06,0.019266875
,,,3.35E-06,0.0196525
,,,3.36E-06,0.019746875
,,,3.37E-06,0.019515
,,,3.38E-06,0.01947375
,,,3.39E-06,0.0197575
,,,3.4E-06,0.019711875
,,,3.41E-06,0.019505
,,,3.42E-06,0.019616875
,,,3.43E-06,0.01933125
,,,3.44E-06,0.019914375
,,,3.45E-06,0.019575
,,,3.46E-06,0.01954
,,,3.47E-06,0.0196875
,,,3.48E-06,0.01976625
,,,3.49E-06,0.0196675
,,,3.5E-06,0.019648125
,,,3.51E-06,0.01967125
,,,3.52E-06,0.019671875
,,,3.53E-06,0.019576875
,,,3.54E-06,0.01971875
,,,3.55E-06,0.0197325
,,,3.56E-06,0.01958875
,,,3.57E-06,0.01943875
,,,3.58E-06,0.0198625
