data/raw/Final_POL_Test_1/SOP094_Ch3.csv

"Record Length",1000,"Points",-5E-06,0.016546251
"Sample Interval",1E-08,s,-4.99E-06,0.016168126
"Trigger Point",500,"Samples",-4.98E-06,0.016340626
"Trigger Time",0,s,-4.97E-06,0.016111876
"",,,-4.96E-06,0.016155001
"Horizontal Offset",-5E-06,s,-4.95E-06,0.016319376
,,,-4.94E-06,0.016295626
,,,-4.93E-06,0.016155001
,,,-4.92E-06,0.016080001
,,,-4.91E-06,0.015986251
,,,-4.9E-06,0.016373126
,,,-4.89E-06,0.016130001
,,,-4.88E-06,0.016351876
,,,-4.87E-06,0.016286251
,,,-4.86E-06,0.016364376
,,,-4.85E-06,0.016232501
,,,-4.84E-06,0.016225001
,,,-4.83E-06,0.016456251
,,,-4.82E-06,0.016241251
,,,-4.81E-06,0.016370001
,,,-4.8E-06,0.016339376
,,,-4.79E-06,0.016322501
,,,-4.78E-06,0.016170626
,,,-4.77E-06,0.016114376
,,,-4.76E-06,0.016156251
,,,-4.75E-06,0.016293751
,,,-4.74E-06,0.016520626
,,,-4.73E-06,0.016280626
,,,-4.72E-06,0.016031251
,,,-4.71E-06,0.016323126
,,,-4.7E-06,0.016304376
,,,-4.69E-06,0.016101251
,,,-4.68E-06,0.016246251
,,,-4.67E-06,0.016276251
,,,-4.66E-06,0.015926251
,,,-4.65E-06,0.016375626
,,,-4.64E-06,0.016321876
,,,-4.63E-06,0.016405626
,,,-4.62E-06,0.016156876
,,,-4.61E-06,0.016248126
,,,-4.6E-06,0.016170001
,,,-4.59E-06,0.016221876
,,,-4.58E-06,0.016121251
,,,-4.57E-06,0.016317501
,,,-4.56E-06,0.016353126
,,,-4.55E-06,0.016288126
,,,-4.54E-06,0.016185626
,,,-4.53E-06,0.016353751
,,,-4.52E-06,0.016136251
,,,-4.51E-06,0.016066251
,,,-4.5E-06,0.016295626
,,,-4.49E-06,0.016508126
,,,-4.48E-06,0.016213751
,,,-4.47E-06,0.016041876
,,,-4.46E-06,0.016357501
,,,-4.45E-06,0.016287501
,,,-4.44E-06,0.016141876
,,,-4.43E-06,0.016282501
,,,-4.42E-06,0.016056876
,,,-4.41E-06,0.016146876
,,,-4.4E-06,0.016227501
,,,-4.39E-06,0.016033126
,,,-4.38E-06,0.016315626
,,,-4.37E-06,0.016276251
,,,-4.36E-06,0.016361876
,,,-4.35E-06,0.016138751
,,,-4.34E-06,0.016285626
,,,-4.33E-06,0.016358126
,,,-4.32E-06,0.016399376
,,,-4.31E-06,0.016260626
,,,-4.3E-06,0.016217501
,,,-4.29E-06,0.016400001
,,,-4.28E-06,0.016215626
,,,-4.27E-06,0.016090001
,,,-4.26E-06,0.016471876
,,,-4.25E-06,0.016334376
,,,-4.24E-06,0.016190001
,,,-4.23E-06,0.016228126
,,,-4.22E-06,0.016149376
,,,-4.21E-06,0.016348126
,,,-4.2E-06,0.016208126
,,,-4.19E-06,0.016208126
,,,-4.18E-06,0.016403751
,,,-4.17E-06,0.016092501
,,,-4.16E-06,0.016260626
,,,-4.15E-06,0.016048751
,,,-4.14E-06,0.016250001
,,,-4.13E-06,0.016035626
,,,-4.12E-06,0.016311876
,,,-4.11E-06,0.016417501
,,,-4.1E-06,0.016276876
,,,-4.09E-06,0.016235626
,,,-4.08E-06,0.016088126
,,,-4.07E-06,0.016149376
,,,-4.06E-06,0.016493751
,,,-4.05E-06,0.016341876
,,,-4.04E-06,0.016424376
,,,-4.03E-06,0.015994376
,,,-4.02E-06,0.016200001
,,,-4.01E-06,0.016525626
,,,-4E-06,0.016344376
,,,-3.99E-06,0.016238126
,,,-3.98E-06,0.016171251
,,,-3.97E-06,0.016354376
,,,-3.96E-06,0.016225626
,,,-3.95E-06,0.016218751
,,,-3.94E-06,0.016087501
,,,-3.93E-06,0.016033751
,,,-3.92E-06,0.016126251
,,,-3.91E-06,0.016314376
,,,-3.9E-06,0.016185001
,,,-3.89E-06,0.016384376
,,,-3.88E-06,0.016355626
,,,-3.87E-06,0.016058126
,,,-3.86E-06,0.016212501
,,,-3.85E-06,0.016141876
,,,-3.84E-06,0.016456876
,,,-3.83E-06,0.016290626
,,,-3.82E-06,0.016191876
,,,-3.81E-06,0.016250626
,,,-3.8E-06,0.016147501
,,,-3.79E-06,0.016401876
,,,-3.78E-06,0.016464376
,,,-3.77E-06,0.016625001
,,,-3.76E-06,0.016170626
,,,-3.75E-06,0.016127501
,,,-3.74E-06,0.016313126
,,,-3.73E-06,0.016278126
,,,-3.72E-06,0.016263126
,,,-3.71E-06,0.016289376
,,,-3.7E-06,0.015945626
,,,-3.69E-06,0.016195626
,,,-3.68E-06,0.016380626
,,,-3.67E-06,0.016384376
,,,-3.66E-06,0.016358751
,,,-3.65E-06,0.016290626
,,,-3.64E-06,0.016346876
,,,-3.63E-06,0.016225001
,,,-3.62E-06,0.016554376
,,,-3.61E-06,0.016351876
,,,-3.6E-06,0.016398126
,,,-3.59E-06,0.016261876
,,,-3.58E-06,0.016421251
,,,-3.57E-06,0.016238126
,,,-3.56E-06,0.016263126
,,,-3.55E-06,0.016283126
,,,-3.54E-06,0.016322501
,,,-3.53E-06,0.016229376
,,,-3.52E-06,0.016299376
,,,-3.51E-06,0.016199376
,,,-3.5E-06,0.016160001
,,,-3.49E-06,0.016109376
,,,-3.48E-06,0.016048126
,,,-3.47E-06,0.016283126
,,,-3.46E-06,0.016328126
,,,-3.45E-06,0.016288126
,,,-3.44E-06,0.016314376
,,,-3.43E-06,0.016267501
,,,-3.42E-06,0.016292501
,,,-3.41E-06,0.016388751
,,,-3.4E-06,0.016399376
,,,-3.39E-06,0.016579376
,,,-3.38E-06,0.016130001
,,,-3.37E-06,0.016350001
,,,-3.36E-06,0.016355001
,,,-3.35E-06,0.016266876
,,,-3.34E-06,0.016241876
,,,-3.33E-06,0.016044376
,,,-3.32E-06,0.016528126
,,,-3.31E-06,0.016121251
,,,-3.3E-06,0.016355626
,,,-3.29E-06,0.016304376
,,,-3.28E-06,0.016190626
,,,-3.27E-06,0.016353126
,,,-3.26E-06,0.016225001
,,,-3.25E-06,0.016290626
,,,-3.24E-06,0.016343126
,,,-3.23E-06,0.016300626
,,,-3.22E-06,0.016101876
,,,-3.21E-06,0.016293126
,,,-3.2E-06,0.016055001
,,,-3.19E-06,0.016007501
,,,-3.18E-06,0.016153751
,,,-3.17E-06,0.016293126
,,,-3.16E-06,0.016253751
,,,-3.15E-06,0.016368126
,,,-3.14E-06,0.016076251
,,,-3.13E-06,0.016271876
,,,-3.12E-06,0.016573751
,,,-3.11E-06,0.016323126
,,,-3.1E-06,0.016146876
,,,-3.09E-06,0.016115626
,,,-3.08E-06,0.016440001
,,,-3.07E-06,0.016168751
,,,-3.06E-06,0.016208751
,,,-3.05E-06,0.016282501
,,,-3.04E-06,0.016164376
,,,-3.03E-06,0.016172501
,,,-3.02E-06,0.016177501
,,,-3.01E-06,0.016233751
,,,-3E-06,0.016343751
,,,-2.99E-06,0.016480001
,,,-2.98E-06,0.016206251
,,,-2.97E-06,0.016208126
,,,-2.96E-06,0.016455626
,,,-2.95E-06,0.016151876
,,,-2.94E-06,0.016142501
,,,-2.93E-06,0.016141876
,,,-2.92E-06,0.016440626
,,,-2.91E-06,0.016328751
,,,-2.9E-06,0.015998126
,,,-2.89E-06,0.016288126
,,,-2.88E-06,0.016330001
,,,-2.87E-06,0.016137501
,,,-2.86E-06,0.016221876
,,,-2.85E-06,0.016283751
,,,-2.84E-06,0.016291876
,,,-2.83E-06,0.016335001
,,,-2.82E-06,0.016104376
,,,-2.81E-06,0.016186251
,,,-2.8E-06,0.016136876
,,,-2.79E-06,0.016188126
,,,-2.78E-06,0.016225001
,,,-2.77E-06,0.015956876
,,,-2.76E-06,0.016265001
,,,-2.75E-06,0.016393751
,,,-2.74E-06,0.016173751
,,,-2.73E-06,0.016211251
,,,-2.72E-06,0.016190001
,,,-2.71E-06,0.016453126
,,,-2.7E-06,0.016278751
,,,-2.69E-06,0.016511251
,,,-2.68E-06,0.016312501
,,,-2.67E-06,0.016146251
,,,-2.66E-06,0.016273751
,,,-2.65E-06,0.016201251
,,,-2.64E-06,0.016375001
,,,-2.63E-06,0.016158751
,,,-2.62E-06,0.016122501
,,,-2.61E-06,0.016390001
,,,-2.6E-06,0.016213751
,,,-2.59E-06,0.016458751
,,,-2.58E-06,0.016117501
,,,-2.57E-06,0.016370001
,,,-2.56E-06,0.016495001
,,,-2.55E-06,0.016413126
,,,-2.54E-06,0.016233751
,,,-2.53E-06,0.016212501
,,,-2.52E-06,0.016003126
,,,-2.51E-06,0.016289376
,,,-2.5E-06,0.016360001
,,,-2.49E-06,0.016200626
,,,-2.48E-06,0.016166251
,,,-2.47E-06,0.016200626
,,,-2.46E-06,0.016281251
,,,-2.45E-06,0.016035001
,,,-2.44E-06,0.016371251
,,,-2.43E-06,0.016029376
,,,-2.42E-06,0.016558751
,,,-2.41E-06,0.016246876
,,,-2.4E-06,0.016427501
,,,-2.39E-06,0.016320626
,,,-2.38E-06,0.016349376
,,,-2.37E-06,0.016402501
,,,-2.36E-06,0.016171876
,,,-2.35E-06,0.016367501
,,,-2.34E-06,0.016158751
,,,-2.33E-06,0.016370001
,,,-2.32E-06,0.016393751
,,,-2.31E-06,0.016324376
,,,-2.3E-06,0.015955626
,,,-2.29E-06,0.016175001
,,,-2.28E-06,0.016445626
,,,-2.27E-06,0.016178126
,,,-2.26E-06,0.016313126
,,,-2.25E-06,0.016200626
,,,-2.24E-06,0.016363126
,,,-2.23E-06,0.016456876
,,,-2.22E-06,0.016343751
,,,-2.21E-06,0.016138126
,,,-2.2E-06,0.016384376
,,,-2.19E-06,0.016373751
,,,-2.18E-06,0.016327501
,,,-2.17E-06,0.016182501
,,,-2.16E-06,0.016276876
,,,-2.15E-06,0.016228126
,,,-2.14E-06,0.016117501
,,,-2.13E-06,0.016588751
,,,-2.12E-06,0.016251876
,,,-2.11E-06,0.016197501
,,,-2.1E-06,0.016228751
,,,-2.09E-06,0.016275001
,,,-2.08E-06,0.016431251
,,,-2.07E-06,0.016441251
,,,-2.06E-06,0.016360001
,,,-2.05E-06,0.016557501
,,,-2.04E-06,0.015981251
,,,-2.03E-06,0.016191251
,,,-2.02E-06,0.016442501
,,,-2.01E-06,0.016393751
,,,-2E-06,0.016078126
,,,-1.99E-06,0.016523126
,,,-1.98E-06,0.016399376
,,,-1.97E-06,0.016197501
,,,-1.96E-06,0.016420626
,,,-1.95E-06,0.016506251
,,,-1.94E-06,0.016195626
,,,-1.93E-06,0.016096876
,,,-1.92E-06,0.016488126
,,,-1.91E-06,0.016176876
,,,-1.9E-06,0.016471876
,,,-1.89E-06,0.016138751
,,,-1.88E-06,0.016283751
,,,-1.87E-06,0.016271251
,,,-1.86E-06,0.016055001
,,,-1.85E-06,0.016052501
,,,-1.84E-06,0.016153126
,,,-1.83E-06,0.016320001
,,,-1.82E-06,0.016212501
,,,-1.81E-06,0.016121876
,,,-1.8E-06,0.016145626
,,,-1.79E-06,0.016240626
,,,-1.78E-06,0.016012501
,,,-1.77E-06,0.016163751
,,,-1.76E-06,0.016087501
,,,-1.75E-06,0.016305626
,,,-1.74E-06,0.016487501
,,,-1.73E-06,0.016387501
,,,-1.72E-06,0.016136251
,,,-1.71E-06,0.016295626
,,,-1.7E-06,0.016432501
,,,-1.69E-06,0.016273126
,,,-1.68E-06,0.016280626
,,,-1.67E-06,0.016171876
,,,-1.66E-06,0.016293751
,,,-1.65E-06,0.016066876
,,,-1.64E-06,0.016320626
,,,-1.63E-06,0.016366876
,,,-1.62E-06,0.016028751
,,,-1.61E-06,0.016291876
,,,-1.6E-06,0.016019376
,,,-1.59E-06,0.016247501
,,,-1.58E-06,0.016175626
,,,-1.57E-06,0.016347501
,,,-1.56E-06,0.016270626
,,,-1.55E-06,0.016327501
,,,-1.54E-06,0.016336251
,,,-1.53E-06,0.016125626
,,,-1.52E-06,0.016397501
,,,-1.51E-06,0.016324376
,,,-1.5E-06,0.016261876
,,,-1.49E-06,0.016165001
,,,-1.48E-06,0.016151251
,,,-1.47E-06,0.016140626
,,,-1.46E-06,0.016336251
,,,-1.45E-06,0.016057501
,,,-1.44E-06,0.016296251
,,,-1.43E-06,0.016265626
,,,-1.42E-06,0.016018751
,,,-1.41E-06,0.016248126
,,,-1.4E-06,0.016212501
,,,-1.39E-06,0.016049376
,,,-1.38E-06,0.016455626
,,,-1.37E-06,0.016418751
,,,-1.36E-06,0.015850626
,,,-1.35E-06,0.016191876
,,,-1.34E-06,0.016182501
,,,-1.33E-06,0.016143751
,,,-1.32E-06,0.016236251
,,,-1.31E-06,0.016057501
,,,-1.3E-06,0.016341251
,,,-1.29E-06,0.016238126
,,,-1.28E-06,0.016373126
,,,-1.27E-06,0.016110001
,,,-1.26E-06,0.016027501
,,,-1.25E-06,0.016411251
,,,-1.24E-06,0.016292501
,,,-1.23E-06,0.016164376
,,,-1.22E-06,0.016249376
,,,-1.21E-06,0.016154376
,,,-1.2E-06,0.016409376
,,,-1.19E-06,0.016178751
,,,-1.18E-06,0.016178126
,,,-1.17E-06,0.016434376
,,,-1.16E-06,0.016101251
,,,-1.15E-06,0.016125626
,,,-1.14E-06,0.016020626
,,,-1.13E-06,0.016510001
,,,-1.12E-06,0.016293751
,,,-1.11E-06,0.016240001
,,,-1.1E-06,0.016301251
,,,-1.09E-06,0.016292501
,,,-1.08E-06,0.016276876
,,,-1.07E-06,0.016181876
,,,-1.06E-06,0.016303126
,,,-1.05E-06,0.016123751
,,,-1.04E-06,0.016638751
,,,-1.03E-06,0.016313126
,,,-1.02E-06,0.016395626
,,,-1.01E-06,0.016270001
,,,-1E-06,0.016390626
,,,-9.9E-07,0.016364376
,,,-9.8E-07,0.016199376
,,,-9.7E-07,0.016149376
,,,-9.6E-07,0.016307501
,,,-9.5E-07,0.016198751
,,,-9.4E-07,0.016326251
,,,-9.3E-07,0.016260626
,,,-9.2E-07,0.016376251
,,,-9.1E-07,0.016434376
,,,-9E-07,0.016158751
,,,-8.9E-07,0.016032501
,,,-8.8E-07,0.016288751
,,,-8.7E-07,0.016431876
,,,-8.6E-07,0.016006251
,,,-8.5E-07,0.015939376
,,,-8.4E-07,0.016052501
,,,-8.3E-07,0.016277501
,,,-8.2E-07,0.016131251
,,,-8.1E-07,0.016236251
,,,-8E-07,0.016224376
,,,-7.9E-07,0.016611876
,,,-7.8E-07,0.016098751
,,,-7.7E-07,0.016393126
,,,-7.6E-07,0.016101876
,,,-7.5E-07,0.016383126
,,,-7.4E-07,0.016197501
,,,-7.3E-07,0.016108126
,,,-7.2E-07,0.016185001
,,,-7.1E-07,0.016156876
,,,-7E-07,0.016250626
,,,-6.9E-07,0.016247501
,,,-6.8E-07,0.016356876
,,,-6.7E-07,0.016188126
,,,-6.6E-07,0.016140626
,,,-6.5E-07,0.016277501
,,,-6.4E-07,0.016271876
,,,-6.3E-07,0.016474376
,,,-6.2E-07,0.016133751
,,,-6.1E-07,0.016351876
,,,-6E-07,0.016236251
,,,-5.9E-07,0.016390001
,,,-5.8E-07,0.016318126
,,,-5.7E-07,0.016351251
,,,-5.6E-07,0.016448126
,,,-5.5E-07,0.016213751
,,,-5.4E-07,0.016101876
,,,-5.3E-07,0.016260001
,,,-5.2E-07,0.016168126
,,,-5.1E-07,0.016099376
,,,-5E-07,0.016312501
,,,-4.9E-07,0.016294376
,,,-4.8E-07,0.016083126
,,,-4.7E-07,0.016687501
,,,-4.6E-07,0.016259376
,,,-4.5E-07,0.016215626
,,,-4.4E-07,0.016490001
,,,-4.3E-07,0.016103751
,,,-4.2E-07,0.016323126
,,,-4.1E-07,0.016475626
,,,-4E-07,0.016235626
,,,-3.9E-07,0.016273751
,,,-3.8E-07,0.016243751
,,,-3.7E-07,0.016201876
,,,-3.6E-07,0.016331251
,,,-3.5E-07,0.016216251
,,,-3.4E-07,0.016460001
,,,-3.3E-07,0.016058751
,,,-3.2E-07,0.016217501
,,,-3.1E-07,0.016230626
,,,-3E-07,0.016186251
,,,-2.9E-07,0.016106876
,,,-2.8E-07,0.016273126
,,,-2.7E-07,0.016051876
,,,-2.6E-07,0.016150001
,,,-2.5E-07,0.016295001
,,,-2.4E-07,0.016258751
,,,-2.3E-07,0.016259376
,,,-2.2E-07,0.016148126
,,,-2.1E-07,0.016460626
,,,-2E-07,0.016065001
,,,-1.9E-07,0.016280626
,,,-1.8E-07,0.016079376
,,,-1.7E-07,0.016345001
,,,-1.6E-07,0.016203126
,,,-1.5E-07,0.016263751
,,,-1.4E-07,0.016214376
,,,-1.3E-07,0.016281251
,,,-1.2E-07,0.016390001
,,,-1.1E-07,0.016385626
,,,-1E-07,0.016319376
,,,-9E-08,0.016296251
,,,-8E-08,0.016210001
,,,-7E-08,0.016223751
,,,-6E-08,0.016299376
,,,-5E-08,0.016434376
,,,-4E-08,0.016405626
,,,-3E-08,0.016695626
,,,-2E-08,0.015803126
,,,-1E-08,0.015260001
,,,0,0.014983751
,,,1E-08,0.017191251
,,,2E-08,0.017913751
,,,3E-08,0.017502501
,,,4E-08,0.016020001
,,,5E-08,0.015470001
,,,6E-08,0.014965001
,,,7E-08,0.015547501
,,,8E-08,0.016592501
,,,9E-08,0.016967501
,,,1E-07,0.016937501
,,,1.1E-07,0.016485001
,,,1.2E-07,0.016004376
,,,1.3E-07,0.015931251
,,,1.4E-07,0.015988126
,,,1.5E-07,0.016204376
,,,1.6E-07,0.016737501
,,,1.7E-07,0.016431876
,,,1.8E-07,0.016303751
,,,1.9E-07,0.016325001
,,,2E-07,0.016350001
,,,2.1E-07,0.016325626
,,,2.2E-07,0.016357501
,,,2.3E-07,0.016538126
,,,2.4E-07,0.016496876
,,,2.5E-07,0.016447501
,,,2.6E-07,0.016408751
,,,2.7E-07,0.016367501
,,,2.8E-07,0.016203751
,,,2.9E-07,0.016079376
,,,3E-07,0.016304376
,,,3.1E-07,0.016157501
,,,3.2E-07,0.016333751
,,,3.3E-07,0.016408126
,,,3.4E-07,0.016425001
,,,3.5E-07,0.016370001
,,,3.6E-07,0.016043126
,,,3.7E-07,0.016513126
,,,3.8E-07,0.016380626
,,,3.9E-07,0.016311251
,,,4E-07,0.016206251
,,,4.1E-07,0.016391251
,,,4.2E-07,0.016211251
,,,4.3E-07,0.016302501
,,,4.4E-07,0.016150626
,,,4.5E-07,0.016094376
,,,4.6E-07,0.016272501
,,,4.7E-07,0.016231251
,,,4.8E-07,0.016353751
,,,4.9E-07,0.016364376
,,,5E-07,0.016133751
,,,5.1E-07,0.016272501
,,,5.2E-07,0.016031251
,,,5.3E-07,0.016248126
,,,5.4E-07,0.015988126
,,,5.5E-07,0.016166876
,,,5.6E-07,0.016326876
,,,5.7E-07,0.016315001
,,,5.8E-07,0.016133126
,,,5.9E-07,0.016215626
,,,6E-07,0.016228126
,,,6.1E-07,0.016113751
,,,6.2E-07,0.016276876
,,,6.3E-07,0.016385001
,,,6.4E-07,0.016264376
,,,6.5E-07,0.016143126
,,,6.6E-07,0.016450001
,,,6.7E-07,0.016507501
,,,6.8E-07,0.016040001
,,,6.9E-07,0.016318751
,,,7E-07,0.016150001
,,,7.1E-07,0.016291251
,,,7.2E-07,0.016293751
,,,7.3E-07,0.016538126
,,,7.4E-07,0.016330626
,,,7.5E-07,0.016329376
,,,7.6E-07,0.016499376
,,,7.7E-07,0.016068126
,,,7.8E-07,0.016497501
,,,7.9E-07,0.016433751
,,,8E-07,0.016507501
,,,8.1E-07,0.016180626
,,,8.2E-07,0.016209376
,,,8.3E-07,0.016228126
,,,8.4E-07,0.016385001
,,,8.5E-07,0.016388751
,,,8.6E-07,0.016283751
,,,8.7E-07,0.016183126
,,,8.8E-07,0.016445001
,,,8.9E-07,0.015983751
,,,9E-07,0.016154376
,,,9.1E-07,0.016175626
,,,9.2E-07,0.016278751
,,,9.3E-07,0.016455626
,,,9.4E-07,0.016100001
,,,9.5E-07,0.016398751
,,,9.6E-07,0.016342501
,,,9.7E-07,0.016245626
,,,9.8E-07,0.016331251
,,,9.9E-07,0.016296251
,,,1E-06,0.016294376
,,,1.01E-06,0.016544376
,,,1.02E-06,0.016280626
,,,1.03E-06,0.016122501
,,,1.04E-06,0.016432501
,,,1.05E-06,0.016236251
,,,1.06E-06,0.016503751
,,,1.07E-06,0.016246251
,,,1.08E-06,0.016514376
,,,1.09E-06,0.016197501
,,,1.1E-06,0.016590001
,,,1.11E-06,0.016235626
,,,1.12E-06,0.016273751
,,,1.13E-06,0.016370001
,,,1.14E-06,0.016412501
,,,1.15E-06,0.016203126
,,,1.16E-06,0.016216876
,,,1.17E-06,0.016360626
,,,1.18E-06,0.016290001
,,,1.19E-06,0.016456876
,,,1.2E-06,0.016234376
,,,1.21E-06,0.016273126
,,,1.22E-06,0.016361251
,,,1.23E-06,0.016243751
,,,1.24E-06,0.016393126
,,,1.25E-06,0.016295626
,,,1.26E-06,0.016295626
,,,1.27E-06,0.016106876
,,,1.28E-06,0.016115626
,,,1.29E-06,0.016310001
,,,1.3E-06,0.016348751
,,,1.31E-06,0.016301251
,,,1.32E-06,0.016235626
,,,1.33E-06,0.016247501
,,,1.34E-06,0.016234376
,,,1.35E-06,0.016408126
,,,1.36E-06,0.016131251
,,,1.37E-06,0.016163126
,,,1.38E-06,0.016358126
,,,1.39E-06,0.016396876
,,,1.4E-06,0.016351251
,,,1.41E-06,0.016333751
,,,1.42E-06,0.016274376
,,,1.43E-06,0.016165626
,,,1.44E-06,0.016480001
,,,1.45E-06,0.016261876
,,,1.46E-06,0.016331251
,,,1.47E-06,0.016276876
,,,1.48E-06,0.016471876
,,,1.49E-06,0.016123126
,,,1.5E-06,0.016385001
,,,1.51E-06,0.016151251
,,,1.52E-06,0.016155626
,,,1.53E-06,0.016361876
,,,1.54E-06,0.016086876
,,,1.55E-06,0.016298751
,,,1.56E-06,0.015938751
,,,1.57E-06,0.016315001
,,,1.58E-06,0.016540001
,,,1.59E-06,0.016303751
,,,1.6E-06,0.016177501
,,,1.61E-06,0.016327501
,,,1.62E-06,0.016221876
,,,1.63E-06,0.016508126
,,,1.64E-06,0.016276251
,,,1.65E-06,0.016513751
,,,1.66E-06,0.016285001
,,,1.67E-06,0.015889376
,,,1.68E-06,0.016053126
,,,1.69E-06,0.016118751
,,,1.7E-06,0.015971251
,,,1.71E-06,0.016153751
,,,1.72E-06,0.016386251
,,,1.73E-06,0.016375626
,,,1.74E-06,0.016514376
,,,1.75E-06,0.016126876
,,,1.76E-06,0.016181251
,,,1.77E-06,0.016153751
,,,1.78E-06,0.016292501
,,,1.79E-06,0.016582501
,,,1.8E-06,0.016504376
,,,1.81E-06,0.016398751
,,,1.82E-06,0.016208751
,,,1.83E-06,0.016228751
,,,1.84E-06,0.016204376
,,,1.85E-06,0.016308126
,,,1.86E-06,0.016351876
,,,1.87E-06,0.016077501
,,,1.88E-06,0.016193751
,,,1.89E-06,0.016286251
,,,1.9E-06,0.016704376
,,,1.91E-06,0.016165626
,,,1.92E-06,0.016447501
,,,1.93E-06,0.016137501
,,,1.94E-06,0.016561251
,,,1.95E-06,0.016070001
,,,1.96E-06,0.016257501
,,,1.97E-06,0.016175626
,,,1.98E-06,0.016511876
,,,1.99E-06,0.016225626
,,,2E-06,0.016242501
,,,2.01E-06,0.016367501
,,,2.02E-06,0.016244376
,,,2.03E-06,0.016133126
,,,2.04E-06,0.016191876
,,,2.05E-06,0.016515626
,,,2.06E-06,0.016351251
,,,2.07E-06,0.016153751
,,,2.08E-06,0.016001876
,,,2.09E-06,0.015913126
,,,2.1E-06,0.016457501
,,,2.11E-06,0.016361876
,,,2.12E-06,0.016473126
,,,2.13E-06,0.016149376
,,,2.14E-06,0.016210626
,,,2.15E-06,0.016093751
,,,2.16E-06,0.016193751
,,,2.17E-06,0.016255626
,,,2.18E-06,0.016280001
,,,2.19E-06,0.016274376
,,,2.2E-06,0.016121251
,,,2.21E-06,0.016274376
,,,2.22E-06,0.016444376
,,,2.23E-06,0.016391251
,,,2.24E-06,0.016356251
,,,2.25E-06,0.016284376
,,,2.26E-06,0.016292501
,,,2.27E-06,0.016335001
,,,2.28E-06,0.016344376
,,,2.29E-06,0.016211876
,,,2.3E-06,0.016246876
,,,2.31E-06,0.016366876
,,,2.32E-06,0.016333126
,,,2.33E-06,0.016241876
,,,2.34E-06,0.016045001
,,,2.35E-06,0.016356251
,,,2.36E-06,0.016166876
,,,2.37E-06,0.016218751
,,,2.38E-06,0.016439376
,,,2.39E-06,0.016306251
,,,2.4E-06,0.016169376
,,,2.41E-06,0.016517501
,,,2.42E-06,0.016066876
,,,2.43E-06,0.016508126
,,,2.44E-06,0.016238126
,,,2.45E-06,0.016323126
,,,2.46E-06,0.016430626
,,,2.47E-06,0.016051876
,,,2.48E-06,0.016213751
,,,2.49E-06,0.016516876
,,,2.5E-06,0.016386251
,,,2.51E-06,0.016040626
,,,2.52E-06,0.016348751
,,,2.53E-06,0.016297501
,,,2.54E-06,0.016215001
,,,2.55E-06,0.016026876
,,,2.56E-06,0.016481251
,,,2.57E-06,0.016173751
,,,2.58E-06,0.016288751
,,,2.59E-06,0.016374376
,,,2.6E-06,0.016512501
,,,2.61E-06,0.016207501
,,,2.62E-06,0.016138126
,,,2.63E-06,0.016083751
,,,2.64E-06,0.016088126
,,,2.65E-06,0.016391876
,,,2.66E-06,0.016447501
,,,2.67E-06,0.016375001
,,,2.68E-06,0.016491876
,,,2.69E-06,0.016242501
,,,2.7E-06,0.016242501
,,,2.71E-06,0.016271251
,,,2.72E-06,0.016308751
,,,2.73E-06,0.016442501
,,,2.74E-06,0.016537501
,,,2.75E-06,0.016283126
,,,2.76E-06,0.016358751
,,,2.77E-06,0.016347501
,,,2.78E-06,0.016274376
,,,2.79E-06,0.016391876
,,,2.8E-06,0.016466876
,,,2.81E-06,0.016146876
,,,2.82E-06,0.016375001
,,,2.83E-06,0.016245001
,,,2.84E-06,0.016076876
,,,2.85E-06,0.016296876
,,,2.86E-06,0.015991251
,,,2.87E-06,0.016265001
,,,2.88E-06,0.016315626
,,,2.89E-06,0.016586876
,,,2.9E-06,0.016339376
,,,2.91E-06,0.016173126
,,,2.92E-06,0.016293751
,,,2.93E-06,0.016148751
,,,2.94E-06,0.016270001
,,,2.95E-06,0.016268751
,,,2.96E-06,0.016389376
,,,2.97E-06,0.016136251
,,,2.98E-06,0.016391876
,,,2.99E-06,0.016341251
,,,3E-06,0.016253751
,,,3.01E-06,0.016226251
,,,3.02E-06,0.016285001
,,,3.03E-06,0.016485001
,,,3.04E-06,0.016289376
,,,3.05E-06,0.016656251
,,,3.06E-06,0.016381251
,,,3.07E-06,0.016279376
,,,3.08E-06,0.016320001
,,,3.09E-06,0.016366251
,,,3.1E-06,0.016100001
,,,3.11E-06,0.016331876
,,,3.12E-06,0.016103751
,,,3.13E-06,0.016439376
,,,3.14E-06,0.016231251
,,,3.15E-06,0.016225001
,,,3.16E-06,0.016341876
,,,3.17E-06,0.016018751
,,,3.18E-06,0.016419376
,,,3.19E-06,0.016308126
,,,3.2E-06,0.016217501
,,,3.21E-06,0.016112501
