data/raw/Final_POL_Test_1/SOP018_Ch2.csv

"Record Length",1000,"Points",-5E-06,0.021106875
"Sample Interval",1E-08,s,-4.99E-06,0.020978125
"Trigger Point",500,"Samples",-4.98E-06,0.02077625
"Trigger Time",0,s,-4.97E-06,0.020893125
"",,,-4.96E-06,0.0208975
"Horizontal Offset",-5E-06,s,-4.95E-06,0.020929375
,,,-4.94E-06,0.020945625
,,,-4.93E-06,0.021105
,,,-4.92E-06,0.02089125
,,,-4.91E-06,0.02068625
,,,-4.9E-06,0.02068625
,,,-4.89E-06,0.02056
,,,-4.88E-06,0.020866875
,,,-4.87E-06,0.020780625
,,,-4.86E-06,0.02060875
,,,-4.85E-06,0.021005625
,,,-4.84E-06,0.020805
,,,-4.83E-06,0.020829375
,,,-4.82E-06,0.0206625
,,,-4.81E-06,0.020876875
,,,-4.8E-06,0.020625
,,,-4.79E-06,0.020850625
,,,-4.78E-06,0.020685625
,,,-4.77E-06,0.020815625
,,,-4.76E-06,0.02078625
,,,-4.75E-06,0.020876875
,,,-4.74E-06,0.020794375
,,,-4.73E-06,0.02112375
,,,-4.72E-06,0.02111625
,,,-4.71E-06,0.020995625
,,,-4.7E-06,0.02116875
,,,-4.69E-06,0.020925625
,,,-4.68E-06,0.020705
,,,-4.67E-06,0.021123125
,,,-4.66E-06,0.0210225
,,,-4.65E-06,0.020946875
,,,-4.64E-06,0.02075375
,,,-4.63E-06,0.020818125
,,,-4.62E-06,0.02108
,,,-4.61E-06,0.02085625
,,,-4.6E-06,0.020808125
,,,-4.59E-06,0.020776875
,,,-4.58E-06,0.021136875
,,,-4.57E-06,0.02069
,,,-4.56E-06,0.02069875
,,,-4.55E-06,0.020830625
,,,-4.54E-06,0.02095375
,,,-4.53E-06,0.0207975
,,,-4.52E-06,0.020594375
,,,-4.51E-06,0.020673125
,,,-4.5E-06,0.020695
,,,-4.49E-06,0.020745
,,,-4.48E-06,0.02109875
,,,-4.47E-06,0.0208875
,,,-4.46E-06,0.020866875
,,,-4.45E-06,0.02072
,,,-4.44E-06,0.020773125
,,,-4.43E-06,0.0210125
,,,-4.42E-06,0.020983125
,,,-4.41E-06,0.02096
,,,-4.4E-06,0.020845
,,,-4.39E-06,0.02114
,,,-4.38E-06,0.0209325
,,,-4.37E-06,0.02080875
,,,-4.36E-06,0.021016875
,,,-4.35E-06,0.020896875
,,,-4.34E-06,0.02113125
,,,-4.33E-06,0.02084
,,,-4.32E-06,0.021010625
,,,-4.31E-06,0.020971875
,,,-4.3E-06,0.020745625
,,,-4.29E-06,0.02086
,,,-4.28E-06,0.0209925
,,,-4.27E-06,0.020940625
,,,-4.26E-06,0.02093625
,,,-4.25E-06,0.02089875
,,,-4.24E-06,0.020894375
,,,-4.23E-06,0.020940625
,,,-4.22E-06,0.020909375
,,,-4.21E-06,0.020703125
,,,-4.2E-06,0.020995
,,,-4.19E-06,0.020953125
,,,-4.18E-06,0.02097
,,,-4.17E-06,0.021401875
,,,-4.16E-06,0.02102625
,,,-4.15E-06,0.020989375
,,,-4.14E-06,0.02057875
,,,-4.13E-06,0.02083125
,,,-4.12E-06,0.02070875
,,,-4.11E-06,0.0209375
,,,-4.1E-06,0.020925625
,,,-4.09E-06,0.02082375
,,,-4.08E-06,0.020724375
,,,-4.07E-06,0.020874375
,,,-4.06E-06,0.02095625
,,,-4.05E-06,0.02093375
,,,-4.04E-06,0.020818125
,,,-4.03E-06,0.02083
,,,-4.02E-06,0.02103375
,,,-4.01E-06,0.020855625
,,,-4E-06,0.021
,,,-3.99E-06,0.0208925
,,,-3.98E-06,0.020744375
,,,-3.97E-06,0.021184375
,,,-3.96E-06,0.021213125
,,,-3.95E-06,0.020775625
,,,-3.94E-06,0.02083625
,,,-3.93E-06,0.02073875
,,,-3.92E-06,0.02075375
,,,-3.91E-06,0.020903125
,,,-3.9E-06,0.021201875
,,,-3.89E-06,0.020909375
,,,-3.88E-06,0.021075
,,,-3.87E-06,0.020853125
,,,-3.86E-06,0.020860625
,,,-3.85E-06,0.020798125
,,,-3.84E-06,0.020761875
,,,-3.83E-06,0.02096
,,,-3.82E-06,0.020840625
,,,-3.81E-06,0.02110875
,,,-3.8E-06,0.020889375
,,,-3.79E-06,0.02090125
,,,-3.78E-06,0.0207975
,,,-3.77E-06,0.021014375
,,,-3.76E-06,0.020785
,,,-3.75E-06,0.0209775
,,,-3.74E-06,0.02089125
,,,-3.73E-06,0.02093875
,,,-3.72E-06,0.020964375
,,,-3.71E-06,0.020719375
,,,-3.7E-06,0.02083
,,,-3.69E-06,0.020946875
,,,-3.68E-06,0.020813125
,,,-3.67E-06,0.020898125
,,,-3.66E-06,0.020828125
,,,-3.65E-06,0.02101
,,,-3.64E-06,0.02060625
,,,-3.63E-06,0.020969375
,,,-3.62E-06,0.02074625
,,,-3.61E-06,0.020864375
,,,-3.6E-06,0.020836875
,,,-3.59E-06,0.02097
,,,-3.58E-06,0.0209025
,,,-3.57E-06,0.0206925
,,,-3.56E-06,0.0209625
,,,-3.55E-06,0.020845625
,,,-3.54E-06,0.020830625
,,,-3.53E-06,0.020925625
,,,-3.52E-06,0.02101375
,,,-3.51E-06,0.020995
,,,-3.5E-06,0.020851875
,,,-3.49E-06,0.0209775
,,,-3.48E-06,0.021056875
,,,-3.47E-06,0.021198125
,,,-3.46E-06,0.02092375
,,,-3.45E-06,0.021081875
,,,-3.44E-06,0.020730625
,,,-3.43E-06,0.020825625
,,,-3.42E-06,0.02084375
,,,-3.41E-06,0.021110625
,,,-3.4E-06,0.020695
,,,-3.39E-06,0.021055625
,,,-3.38E-06,0.0210225
,,,-3.37E-06,0.020605625
,,,-3.36E-06,0.020658125
,,,-3.35E-06,0.021038125
,,,-3.34E-06,0.0209475
,,,-3.33E-06,0.02095875
,,,-3.32E-06,0.020879375
,,,-3.31E-06,0.0210225
,,,-3.3E-06,0.020958125
,,,-3.29E-06,0.020950625
,,,-3.28E-06,0.020866875
,,,-3.27E-06,0.02080125
,,,-3.26E-06,0.020875625
,,,-3.25E-06,0.020925
,,,-3.24E-06,0.02101875
,,,-3.23E-06,0.020844375
,,,-3.22E-06,0.02085125
,,,-3.21E-06,0.02074375
,,,-3.2E-06,0.020876875
,,,-3.19E-06,0.020955
,,,-3.18E-06,0.020758125
,,,-3.17E-06,0.020846875
,,,-3.16E-06,0.02093875
,,,-3.15E-06,0.02083125
,,,-3.14E-06,0.020814375
,,,-3.13E-06,0.020925
,,,-3.12E-06,0.021055
,,,-3.11E-06,0.02095375
,,,-3.1E-06,0.020894375
,,,-3.09E-06,0.02091875
,,,-3.08E-06,0.020970625
,,,-3.07E-06,0.020813125
,,,-3.06E-06,0.02086875
,,,-3.05E-06,0.020794375
,,,-3.04E-06,0.02088375
,,,-3.03E-06,0.02086875
,,,-3.02E-06,0.020901875
,,,-3.01E-06,0.020686875
,,,-3E-06,0.02092125
,,,-2.99E-06,0.02089875
,,,-2.98E-06,0.02085
,,,-2.97E-06,0.020923125
,,,-2.96E-06,0.02096625
,,,-2.95E-06,0.0208825
,,,-2.94E-06,0.020684375
,,,-2.93E-06,0.02087125
,,,-2.92E-06,0.020908125
,,,-2.91E-06,0.020898125
,,,-2.9E-06,0.02099125
,,,-2.89E-06,0.020881875
,,,-2.88E-06,0.020628125
,,,-2.87E-06,0.02099625
,,,-2.86E-06,0.0209575
,,,-2.85E-06,0.021009375
,,,-2.84E-06,0.02098125
,,,-2.83E-06,0.020755625
,,,-2.82E-06,0.020863125
,,,-2.81E-06,0.021008125
,,,-2.8E-06,0.02096375
,,,-2.79E-06,0.0208075
,,,-2.78E-06,0.021015
,,,-2.77E-06,0.021126875
,,,-2.76E-06,0.020905625
,,,-2.75E-06,0.02093625
,,,-2.74E-06,0.020689375
,,,-2.73E-06,0.020941875
,,,-2.72E-06,0.020841875
,,,-2.71E-06,0.02093375
,,,-2.7E-06,0.02073875
,,,-2.69E-06,0.0211625
,,,-2.68E-06,0.020705
,,,-2.67E-06,0.020834375
,,,-2.66E-06,0.0209025
,,,-2.65E-06,0.02064125
,,,-2.64E-06,0.02099875
,,,-2.63E-06,0.020903125
,,,-2.62E-06,0.02088125
,,,-2.61E-06,0.02088625
,,,-2.6E-06,0.021096875
,,,-2.59E-06,0.020729375
,,,-2.58E-06,0.02085125
,,,-2.57E-06,0.02094625
,,,-2.56E-06,0.0211025
,,,-2.55E-06,0.020741875
,,,-2.54E-06,0.0210275
,,,-2.53E-06,0.020835625
,,,-2.52E-06,0.020999375
,,,-2.51E-06,0.02067875
,,,-2.5E-06,0.02106875
,,,-2.49E-06,0.020809375
,,,-2.48E-06,0.02096125
,,,-2.47E-06,0.020956875
,,,-2.46E-06,0.020748125
,,,-2.45E-06,0.020736875
,,,-2.44E-06,0.020765625
,,,-2.43E-06,0.020718125
,,,-2.42E-06,0.02072
,,,-2.41E-06,0.02086
,,,-2.4E-06,0.02104125
,,,-2.39E-06,0.020724375
,,,-2.38E-06,0.0209125
,,,-2.37E-06,0.020903125
,,,-2.36E-06,0.020830625
,,,-2.35E-06,0.02094125
,,,-2.34E-06,0.02088625
,,,-2.33E-06,0.020606875
,,,-2.32E-06,0.0206325
,,,-2.31E-06,0.020794375
,,,-2.3E-06,0.02086
,,,-2.29E-06,0.021065625
,,,-2.28E-06,0.02091625
,,,-2.27E-06,0.020960625
,,,-2.26E-06,0.020820625
,,,-2.25E-06,0.02070875
,,,-2.24E-06,0.0209275
,,,-2.23E-06,0.020865
,,,-2.22E-06,0.020831875
,,,-2.21E-06,0.0209675
,,,-2.2E-06,0.020918125
,,,-2.19E-06,0.020940625
,,,-2.18E-06,0.02103375
,,,-2.17E-06,0.020676875
,,,-2.16E-06,0.020754375
,,,-2.15E-06,0.02066875
,,,-2.14E-06,0.021085625
,,,-2.13E-06,0.0211
,,,-2.12E-06,0.02093375
,,,-2.11E-06,0.020898125
,,,-2.1E-06,0.02079625
,,,-2.09E-06,0.02102625
,,,-2.08E-06,0.020814375
,,,-2.07E-06,0.0208975
,,,-2.06E-06,0.0209275
,,,-2.05E-06,0.020896875
,,,-2.04E-06,0.02099875
,,,-2.03E-06,0.020896875
,,,-2.02E-06,0.0209675
,,,-2.01E-06,0.021025625
,,,-2E-06,0.020729375
,,,-1.99E-06,0.020925
,,,-1.98E-06,0.02124625
,,,-1.97E-06,0.0209175
,,,-1.96E-06,0.0207925
,,,-1.95E-06,0.02107
,,,-1.94E-06,0.02081625
,,,-1.93E-06,0.020824375
,,,-1.92E-06,0.020995625
,,,-1.91E-06,0.021140625
,,,-1.9E-06,0.020750625
,,,-1.89E-06,0.02103
,,,-1.88E-06,0.021098125
,,,-1.87E-06,0.020794375
,,,-1.86E-06,0.021074375
,,,-1.85E-06,0.020944375
,,,-1.84E-06,0.02073375
,,,-1.83E-06,0.02091375
,,,-1.82E-06,0.02078125
,,,-1.81E-06,0.020956875
,,,-1.8E-06,0.020856875
,,,-1.79E-06,0.020816875
,,,-1.78E-06,0.020789375
,,,-1.77E-06,0.020706875
,,,-1.76E-06,0.02093375
,,,-1.75E-06,0.02093625
,,,-1.74E-06,0.021139375
,,,-1.73E-06,0.02092625
,,,-1.72E-06,0.020905625
,,,-1.71E-06,0.0210575
,,,-1.7E-06,0.020963125
,,,-1.69E-06,0.020623125
,,,-1.68E-06,0.0209825
,,,-1.67E-06,0.020789375
,,,-1.66E-06,0.020720625
,,,-1.65E-06,0.020856875
,,,-1.64E-06,0.020954375
,,,-1.63E-06,0.0210125
,,,-1.62E-06,0.021165
,,,-1.61E-06,0.020706875
,,,-1.6E-06,0.020909375
,,,-1.59E-06,0.020945625
,,,-1.58E-06,0.021095625
,,,-1.57E-06,0.0206325
,,,-1.56E-06,0.0208675
,,,-1.55E-06,0.021021875
,,,-1.54E-06,0.02105375
,,,-1.53E-06,0.021083125
,,,-1.52E-06,0.020925625
,,,-1.51E-06,0.020795
,,,-1.5E-06,0.0207925
,,,-1.49E-06,0.020949375
,,,-1.48E-06,0.021071875
,,,-1.47E-06,0.02076625
,,,-1.46E-06,0.0207975
,,,-1.45E-06,0.0208925
,,,-1.44E-06,0.02091625
,,,-1.43E-06,0.0210075
,,,-1.42E-06,0.020713125
,,,-1.41E-06,0.020888125
,,,-1.4E-06,0.020894375
,,,-1.39E-06,0.020920625
,,,-1.38E-06,0.0209525
,,,-1.37E-06,0.0209475
,,,-1.36E-06,0.02084375
,,,-1.35E-06,0.02089625
,,,-1.34E-06,0.02086625
,,,-1.33E-06,0.0207675
,,,-1.32E-06,0.02062625
,,,-1.31E-06,0.02092
,,,-1.3E-06,0.02071625
,,,-1.29E-06,0.020975
,,,-1.28E-06,0.02102
,,,-1.27E-06,0.021036875
,,,-1.26E-06,0.0207525
,,,-1.25E-06,0.0208625
,,,-1.24E-06,0.02091
,,,-1.23E-06,0.020953125
,,,-1.22E-06,0.020886875
,,,-1.21E-06,0.0208575
,,,-1.2E-06,0.020974375
,,,-1.19E-06,0.020934375
,,,-1.18E-06,0.0211075
,,,-1.17E-06,0.02086875
,,,-1.16E-06,0.021004375
,,,-1.15E-06,0.02084375
,,,-1.14E-06,0.021094375
,,,-1.13E-06,0.02068125
,,,-1.12E-06,0.021005
,,,-1.11E-06,0.0210425
,,,-1.1E-06,0.0209725
,,,-1.09E-06,0.020955
,,,-1.08E-06,0.020813125
,,,-1.07E-06,0.020965
,,,-1.06E-06,0.020941875
,,,-1.05E-06,0.02060125
,,,-1.04E-06,0.020939375
,,,-1.03E-06,0.020898125
,,,-1.02E-06,0.020896875
,,,-1.01E-06,0.0207
,,,-1E-06,0.02099375
,,,-9.9E-07,0.02100375
,,,-9.8E-07,0.020995
,,,-9.7E-07,0.02076375
,,,-9.6E-07,0.020985
,,,-9.5E-07,0.0208125
,,,-9.4E-07,0.020869375
,,,-9.3E-07,0.020775
,,,-9.2E-07,0.02095375
,,,-9.1E-07,0.02083875
,,,-9E-07,0.020713125
,,,-8.9E-07,0.020888125
,,,-8.8E-07,0.021083125
,,,-8.7E-07,0.02079
,,,-8.6E-07,0.020980625
,,,-8.5E-07,0.02075
,,,-8.4E-07,0.02089125
,,,-8.3E-07,0.020833125
,,,-8.2E-07,0.02093375
,,,-8.1E-07,0.021008125
,,,-8E-07,0.020705625
,,,-7.9E-07,0.0210475
,,,-7.8E-07,0.021065
,,,-7.7E-07,0.020888125
,,,-7.6E-07,0.02085625
,,,-7.5E-07,0.0210125
,,,-7.4E-07,0.0209475
,,,-7.3E-07,0.02069375
,,,-7.2E-07,0.02112625
,,,-7.1E-07,0.020824375
,,,-7E-07,0.020933125
,,,-6.9E-07,0.020865
,,,-6.8E-07,0.0210025
,,,-6.7E-07,0.02096875
,,,-6.6E-07,0.020889375
,,,-6.5E-07,0.02113875
,,,-6.4E-07,0.02076
,,,-6.3E-07,0.020971875
,,,-6.2E-07,0.020915
,,,-6.1E-07,0.020815
,,,-6E-07,0.02095375
,,,-5.9E-07,0.02104875
,,,-5.8E-07,0.020891875
,,,-5.7E-07,0.02099625
,,,-5.6E-07,0.02086875
,,,-5.5E-07,0.020960625
,,,-5.4E-07,0.0209425
,,,-5.3E-07,0.021000625
,,,-5.2E-07,0.02090875
,,,-5.1E-07,0.020948125
,,,-5E-07,0.021065
,,,-4.9E-07,0.02076
,,,-4.8E-07,0.0209025
,,,-4.7E-07,0.020855625
,,,-4.6E-07,0.02080375
,,,-4.5E-07,0.020938125
,,,-4.4E-07,0.021115
,,,-4.3E-07,0.020846875
,,,-4.2E-07,0.02073875
,,,-4.1E-07,0.020875
,,,-4E-07,0.020964375
,,,-3.9E-07,0.02083625
,,,-3.8E-07,0.02069625
,,,-3.7E-07,0.02091125
,,,-3.6E-07,0.02079625
,,,-3.5E-07,0.020823125
,,,-3.4E-07,0.021138125
,,,-3.3E-07,0.02083
,,,-3.2E-07,0.02101375
,,,-3.1E-07,0.02103625
,,,-3E-07,0.0208925
,,,-2.9E-07,0.020796875
,,,-2.8E-07,0.021
,,,-2.7E-07,0.0210875
,,,-2.6E-07,0.020915625
,,,-2.5E-07,0.021020625
,,,-2.4E-07,0.020925625
,,,-2.3E-07,0.02091
,,,-2.2E-07,0.02090875
,,,-2.1E-07,0.020905
,,,-2E-07,0.02088375
,,,-1.9E-07,0.0210875
,,,-1.8E-07,0.020865
,,,-1.7E-07,0.0209125
,,,-1.6E-07,0.021236875
,,,-1.5E-07,0.021129375
,,,-1.4E-07,0.021118125
,,,-1.3E-07,0.02089
,,,-1.2E-07,0.02100125
,,,-1.1E-07,0.020734375
,,,-1E-07,0.020905
,,,-9E-08,0.020845
,,,-8E-08,0.020701875
,,,-7E-08,0.021081875
,,,-6E-08,0.02125
,,,-5E-08,0.02074
,,,-4E-08,0.020906875
,,,-3E-08,0.020645
,,,-2E-08,0.020485
,,,-1E-08,0.0213225
,,,0,0.020590625
,,,1E-08,0.022436875
,,,2E-08,0.020360625
,,,3E-08,0.020626875
,,,4E-08,0.02018625
,,,5E-08,0.02089125
,,,6E-08,0.0208925
,,,7E-08,0.02142875
,,,8E-08,0.020745625
,,,9E-08,0.020748125
,,,1E-07,0.020795625
,,,1.1E-07,0.02054875
,,,1.2E-07,0.0208975
,,,1.3E-07,0.0211
,,,1.4E-07,0.020904375
,,,1.5E-07,0.021170625
,,,1.6E-07,0.02094125
,,,1.7E-07,0.02083375
,,,1.8E-07,0.021024375
,,,1.9E-07,0.020889375
,,,2E-07,0.02092625
,,,2.1E-07,0.021084375
,,,2.2E-07,0.021144375
,,,2.3E-07,0.021088125
,,,2.4E-07,0.020539375
,,,2.5E-07,0.02095375
,,,2.6E-07,0.0209075
,,,2.7E-07,0.021050625
,,,2.8E-07,0.021058125
,,,2.9E-07,0.021049375
,,,3E-07,0.020988125
,,,3.1E-07,0.02131375
,,,3.2E-07,0.02078625
,,,3.3E-07,0.0209025
,,,3.4E-07,0.02089625
,,,3.5E-07,0.0208475
,,,3.6E-07,0.020865
,,,3.7E-07,0.021190625
,,,3.8E-07,0.0209025
,,,3.9E-07,0.02083625
,,,4E-07,0.0205825
,,,4.1E-07,0.02089875
,,,4.2E-07,0.0206975
,,,4.3E-07,0.0207375
,,,4.4E-07,0.020648125
,,,4.5E-07,0.020963125
,,,4.6E-07,0.020935
,,,4.7E-07,0.021088125
,,,4.8E-07,0.0209925
,,,4.9E-07,0.021058125
,,,5E-07,0.02083625
,,,5.1E-07,0.0211875
,,,5.2E-07,0.021196875
,,,5.3E-07,0.020875
,,,5.4E-07,0.02086625
,,,5.5E-07,0.020949375
,,,5.6E-07,0.020875625
,,,5.7E-07,0.020946875
,,,5.8E-07,0.020930625
,,,5.9E-07,0.02107125
,,,6E-07,0.020998125
,,,6.1E-07,0.020834375
,,,6.2E-07,0.020946875
,,,6.3E-07,0.020791875
,,,6.4E-07,0.02101
,,,6.5E-07,0.0209775
,,,6.6E-07,0.020749375
,,,6.7E-07,0.021185625
,,,6.8E-07,0.021064375
,,,6.9E-07,0.02068625
,,,7E-07,0.02102375
,,,7.1E-07,0.020953125
,,,7.2E-07,0.02070875
,,,7.3E-07,0.020873125
,,,7.4E-07,0.020865
,,,7.5E-07,0.02100375
,,,7.6E-07,0.021075625
,,,7.7E-07,0.020890625
,,,7.8E-07,0.02095875
,,,7.9E-07,0.020859375
,,,8E-07,0.02069125
,,,8.1E-07,0.0207325
,,,8.2E-07,0.021109375
,,,8.3E-07,0.02083375
,,,8.4E-07,0.0209325
,,,8.5E-07,0.0209275
,,,8.6E-07,0.02109
,,,8.7E-07,0.021019375
,,,8.8E-07,0.021061875
,,,8.9E-07,0.020928125
,,,9E-07,0.020955625
,,,9.1E-07,0.0209825
,,,9.2E-07,0.020649375
,,,9.3E-07,0.020711875
,,,9.4E-07,0.020868125
,,,9.5E-07,0.02099625
,,,9.6E-07,0.020989375
,,,9.7E-07,0.020779375
,,,9.8E-07,0.0210575
,,,9.9E-07,0.0207125
,,,1E-06,0.02093875
,,,1.01E-06,0.020835
,,,1.02E-06,0.020668125
,,,1.03E-06,0.0209
,,,1.04E-06,0.02092375
,,,1.05E-06,0.02117125
,,,1.06E-06,0.020795625
,,,1.07E-06,0.02106875
,,,1.08E-06,0.02096
,,,1.09E-06,0.020968125
,,,1.1E-06,0.02093125
,,,1.11E-06,0.020934375
,,,1.12E-06,0.02085
,,,1.13E-06,0.021061875
,,,1.14E-06,0.02100125
,,,1.15E-06,0.02102875
,,,1.16E-06,0.020971875
,,,1.17E-06,0.02073625
,,,1.18E-06,0.020725625
,,,1.19E-06,0.02079625
,,,1.2E-06,0.02074
,,,1.21E-06,0.02108875
,,,1.22E-06,0.020974375
,,,1.23E-06,0.020810625
,,,1.24E-06,0.020993125
,,,1.25E-06,0.020798125
,,,1.26E-06,0.020960625
,,,1.27E-06,0.020803125
,,,1.28E-06,0.020973125
,,,1.29E-06,0.02097
,,,1.3E-06,0.02077625
,,,1.31E-06,0.020803125
,,,1.32E-06,0.02080125
,,,1.33E-06,0.02081375
,,,1.34E-06,0.02098375
,,,1.35E-06,0.020990625
,,,1.36E-06,0.020991875
,,,1.37E-06,0.020911875
,,,1.38E-06,0.02064125
,,,1.39E-06,0.021136875
,,,1.4E-06,0.021063125
,,,1.41E-06,0.02079375
,,,1.42E-06,0.020945625
,,,1.43E-06,0.0208025
,,,1.44E-06,0.021129375
,,,1.45E-06,0.021119375
,,,1.46E-06,0.0208975
,,,1.47E-06,0.020960625
,,,1.48E-06,0.020824375
,,,1.49E-06,0.02111625
,,,1.5E-06,0.020903125
,,,1.51E-06,0.020823125
,,,1.52E-06,0.0212125
,,,1.53E-06,0.021084375
,,,1.54E-06,0.020783125
,,,1.55E-06,0.020644375
,,,1.56E-06,0.020729375
,,,1.57E-06,0.020913125
,,,1.58E-06,0.02078875
,,,1.59E-06,0.020891875
,,,1.6E-06,0.020675
,,,1.61E-06,0.021168125
,,,1.62E-06,0.021100625
,,,1.63E-06,0.02079375
,,,1.64E-06,0.021055625
,,,1.65E-06,0.020666875
,,,1.66E-06,0.020926875
,,,1.67E-06,0.020905
,,,1.68E-06,0.020844375
,,,1.69E-06,0.021110625
,,,1.7E-06,0.020765
,,,1.71E-06,0.0208175
,,,1.72E-06,0.020966875
,,,1.73E-06,0.021160625
,,,1.74E-06,0.020906875
,,,1.75E-06,0.020884375
,,,1.76E-06,0.02091
,,,1.77E-06,0.02101
,,,1.78E-06,0.020681875
,,,1.79E-06,0.020850625
,,,1.8E-06,0.0210125
,,,1.81E-06,0.021043125
,,,1.82E-06,0.020921875
,,,1.83E-06,0.0209675
,,,1.84E-06,0.0207325
,,,1.85E-06,0.0208975
,,,1.86E-06,0.020803125
,,,1.87E-06,0.021236875
,,,1.88E-06,0.02107
,,,1.89E-06,0.021155
,,,1.9E-06,0.020786875
,,,1.91E-06,0.0209225
,,,1.92E-06,0.0207575
,,,1.93E-06,0.02088
,,,1.94E-06,0.020704375
,,,1.95E-06,0.02091375
,,,1.96E-06,0.020879375
,,,1.97E-06,0.020889375
,,,1.98E-06,0.02084625
,,,1.99E-06,0.021008125
,,,2E-06,0.02086125
,,,2.01E-06,0.021079375
,,,2.02E-06,0.0210625
,,,2.03E-06,0.020614375
,,,2.04E-06,0.020878125
,,,2.05E-06,0.020901875
,,,2.06E-06,0.020855
,,,2.07E-06,0.020904375
,,,2.08E-06,0.021068125
,,,2.09E-06,0.02058375
,,,2.1E-06,0.0209875
,,,2.11E-06,0.0210825
,,,2.12E-06,0.020711875
,,,2.13E-06,0.020988125
,,,2.14E-06,0.021170625
,,,2.15E-06,0.020885
,,,2.16E-06,0.0208775
,,,2.17E-06,0.021146875
,,,2.18E-06,0.020859375
,,,2.19E-06,0.021043125
,,,2.2E-06,0.020869375
,,,2.21E-06,0.020883125
,,,2.22E-06,0.020793125
,,,2.23E-06,0.020996875
,,,2.24E-06,0.020781875
,,,2.25E-06,0.021084375
,,,2.26E-06,0.021015625
,,,2.27E-06,0.0207225
,,,2.28E-06,0.020966875
,,,2.29E-06,0.020955625
,,,2.3E-06,0.02067625
,,,2.31E-06,0.02066375
,,,2.32E-06,0.020833125
,,,2.33E-06,0.02069875
,,,2.34E-06,0.0208775
,,,2.35E-06,0.0210075
,,,2.36E-06,0.02067
,,,2.37E-06,0.020890625
,,,2.38E-06,0.02129375
,,,2.39E-06,0.021255625
,,,2.4E-06,0.0209
,,,2.41E-06,0.0209325
,,,2.42E-06,0.021016875
,,,2.43E-06,0.020921875
,,,2.44E-06,0.02063125
,,,2.45E-06,0.021025625
,,,2.46E-06,0.020909375
,,,2.47E-06,0.021034375
,,,2.48E-06,0.02085125
,,,2.49E-06,0.021036875
,,,2.5E-06,0.02091375
,,,2.51E-06,0.02085125
,,,2.52E-06,0.020736875
,,,2.53E-06,0.02093625
,,,2.54E-06,0.020968125
,,,2.55E-06,0.020879375
,,,2.56E-06,0.021088125
,,,2.57E-06,0.0210575
,,,2.58E-06,0.0210725
,,,2.59E-06,0.02089625
,,,2.6E-06,0.020855625
,,,2.61E-06,0.020765
,,,2.62E-06,0.020683125
,,,2.63E-06,0.020841875
,,,2.64E-06,0.020835
,,,2.65E-06,0.020884375
,,,2.66E-06,0.020698125
,,,2.67E-06,0.0210675
,,,2.68E-06,0.021085
,,,2.69E-06,0.020729375
,,,2.7E-06,0.02054
,,,2.71E-06,0.020810625
,,,2.72E-06,0.020905625
,,,2.73E-06,0.020725625
,,,2.74E-06,0.020770625
,,,2.75E-06,0.021116875
,,,2.76E-06,0.021008125
,,,2.77E-06,0.02096125
,,,2.78E-06,0.021135
,,,2.79E-06,0.02093125
,,,2.8E-06,0.02097375
,,,2.81E-06,0.020958125
,,,2.82E-06,0.020831875
,,,2.83E-06,0.02088875
,,,2.84E-06,0.020726875
,,,2.85E-06,0.0210425
,,,2.86E-06,0.0208075
,,,2.87E-06,0.02096375
,,,2.88E-06,0.0209825
,,,2.89E-06,0.020829375
,,,2.9E-06,0.02085125
,,,2.91E-06,0.02082875
,,,2.92E-06,0.020898125
,,,2.93E-06,0.021035625
,,,2.94E-06,0.02067125
,,,2.95E-06,0.020784375
,,,2.96E-06,0.0209625
,,,2.97E-06,0.020948125
,,,2.98E-06,0.02068125
,,,2.99E-06,0.0207975
,,,3E-06,0.021035
,,,3.01E-06,0.020976875
,,,3.02E-06,0.02062875
,,,3.03E-06,0.0208875
,,,3.04E-06,0.02096125
,,,3.05E-06,0.021255
,,,3.06E-06,0.021025625
,,,3.07E-06,0.02113
,,,3.08E-06,0.02115
,,,3.09E-06,0.0209125
,,,3.1E-06,0.02080875
,,,3.11E-06,0.0208725
,,,3.12E-06,0.020935625
,,,3.13E-06,0.02101125
,,,3.14E-06,0.020785625
,,,3.15E-06,0.020730625
,,,3.16E-06,0.02087625
,,,3.17E-06,0.020999375
,,,3.18E-06,0.0208225
,,,3.19E-06,0.02086
,,,3.2E-06,0.020868125
,,,3.21E-06,0.021121875
,,,3.22E-06,0.02112
,,,3.23E-06,0.02087125
,,,3.24E-06,0.0209575
,,,3.25E-06,0.02076125
,,,3.26E-06,0.021088125
,,,3.27E-06,0.02096625
,,,3.28E-06,0.020994375
,,,3.29E-06,0.02074875
,,,3.3E-06,0.0211075
,,,3.31E-06,0.020904375
,,,3.32E-06,0.020986875
,,,3.33E-06,0.020858125
,,,3.34E-06,0.020885625
,,,3.35E-06,0.020971875
,,,3.36E-06,0.0207075
,,,3.37E-06,0.0206575
,,,3.38E-06,0.02097875
,,,3.39E-06,0.020926875
,,,3.4E-06,0.0209725
,,,3.41E-06,0.02099625
,,,3.42E-06,0.02088625
,,,3.43E-06,0.020698125
,,,3.44E-06,0.020668125
,,,3.45E-06,0.020795
,,,3.46E-06,0.020748125
,,,3.47E-06,0.02089375
,,,3.48E-06,0.02092375
,,,3.49E-06,0.02068375
,,,3.5E-06,0.020868125
,,,3.51E-06,0.020986875
,,,3.52E-06,0.02072375
,,,3.53E-06,0.020679375
,,,3.54E-06,0.020941875
,,,3.55E-06,0.020914375
,,,3.56E-06,0.021025
,,,3.57E-06,0.020868125
