data/raw/Final_POL_Test_1/SOP085_Ch3.csv

"Record Length",1000,"Points",-5E-06,0.020247501
"Sample Interval",1E-08,s,-4.99E-06,0.020190001
"Trigger Point",500,"Samples",-4.98E-06,0.020575001
"Trigger Time",0,s,-4.97E-06,0.020382501
"",,,-4.96E-06,0.020283126
"Horizontal Offset",-5E-06,s,-4.95E-06,0.020143751
,,,-4.94E-06,0.020184376
,,,-4.93E-06,0.020489376
,,,-4.92E-06,0.020427501
,,,-4.91E-06,0.020208751
,,,-4.9E-06,0.020551876
,,,-4.89E-06,0.020224376
,,,-4.88E-06,0.020640001
,,,-4.87E-06,0.020231876
,,,-4.86E-06,0.020299376
,,,-4.85E-06,0.020241876
,,,-4.84E-06,0.020234376
,,,-4.83E-06,0.020473126
,,,-4.82E-06,0.020319376
,,,-4.81E-06,0.020461876
,,,-4.8E-06,0.020388126
,,,-4.79E-06,0.020391251
,,,-4.78E-06,0.020321876
,,,-4.77E-06,0.020235001
,,,-4.76E-06,0.020343751
,,,-4.75E-06,0.020205001
,,,-4.74E-06,0.020276251
,,,-4.73E-06,0.020320626
,,,-4.72E-06,0.020306876
,,,-4.71E-06,0.020546251
,,,-4.7E-06,0.020291251
,,,-4.69E-06,0.020178751
,,,-4.68E-06,0.020213751
,,,-4.67E-06,0.020502501
,,,-4.66E-06,0.020232501
,,,-4.65E-06,0.020397501
,,,-4.64E-06,0.020361251
,,,-4.63E-06,0.020317501
,,,-4.62E-06,0.020248751
,,,-4.61E-06,0.020596876
,,,-4.6E-06,0.020250626
,,,-4.59E-06,0.020435626
,,,-4.58E-06,0.020358751
,,,-4.57E-06,0.020566251
,,,-4.56E-06,0.020329376
,,,-4.55E-06,0.020533126
,,,-4.54E-06,0.020280626
,,,-4.53E-06,0.020565001
,,,-4.52E-06,0.020523751
,,,-4.51E-06,0.020311876
,,,-4.5E-06,0.020428126
,,,-4.49E-06,0.020595626
,,,-4.48E-06,0.020339376
,,,-4.47E-06,0.020213126
,,,-4.46E-06,0.020316251
,,,-4.45E-06,0.020210001
,,,-4.44E-06,0.020358126
,,,-4.43E-06,0.020241876
,,,-4.42E-06,0.020753751
,,,-4.41E-06,0.020260626
,,,-4.4E-06,0.020361876
,,,-4.39E-06,0.020237501
,,,-4.38E-06,0.020338126
,,,-4.37E-06,0.020568126
,,,-4.36E-06,0.020462501
,,,-4.35E-06,0.020345626
,,,-4.34E-06,0.020310626
,,,-4.33E-06,0.020494376
,,,-4.32E-06,0.020211251
,,,-4.31E-06,0.020315001
,,,-4.3E-06,0.020420626
,,,-4.29E-06,0.020406251
,,,-4.28E-06,0.020221251
,,,-4.27E-06,0.020189376
,,,-4.26E-06,0.020690001
,,,-4.25E-06,0.020336876
,,,-4.24E-06,0.020676251
,,,-4.23E-06,0.020391876
,,,-4.22E-06,0.020365626
,,,-4.21E-06,0.020316251
,,,-4.2E-06,0.020225001
,,,-4.19E-06,0.020430626
,,,-4.18E-06,0.020564376
,,,-4.17E-06,0.020547501
,,,-4.16E-06,0.020225626
,,,-4.15E-06,0.020250001
,,,-4.14E-06,0.020343751
,,,-4.13E-06,0.020280001
,,,-4.12E-06,0.020511876
,,,-4.11E-06,0.020155001
,,,-4.1E-06,0.020590626
,,,-4.09E-06,0.020357501
,,,-4.08E-06,0.020367501
,,,-4.07E-06,0.020458126
,,,-4.06E-06,0.020256876
,,,-4.05E-06,0.020371876
,,,-4.04E-06,0.020425001
,,,-4.03E-06,0.020430001
,,,-4.02E-06,0.020106251
,,,-4.01E-06,0.020438751
,,,-4E-06,0.020713126
,,,-3.99E-06,0.020264376
,,,-3.98E-06,0.020352501
,,,-3.97E-06,0.020513751
,,,-3.96E-06,0.020356251
,,,-3.95E-06,0.020277501
,,,-3.94E-06,0.020675626
,,,-3.93E-06,0.020576876
,,,-3.92E-06,0.020541876
,,,-3.91E-06,0.020413126
,,,-3.9E-06,0.020271876
,,,-3.89E-06,0.020511876
,,,-3.88E-06,0.020160626
,,,-3.87E-06,0.020506251
,,,-3.86E-06,0.020363751
,,,-3.85E-06,0.020403126
,,,-3.84E-06,0.020443126
,,,-3.83E-06,0.020320001
,,,-3.82E-06,0.020150001
,,,-3.81E-06,0.020821251
,,,-3.8E-06,0.020475001
,,,-3.79E-06,0.020395626
,,,-3.78E-06,0.020084376
,,,-3.77E-06,0.020540001
,,,-3.76E-06,0.020576251
,,,-3.75E-06,0.020515001
,,,-3.74E-06,0.020385626
,,,-3.73E-06,0.020304376
,,,-3.72E-06,0.020460001
,,,-3.71E-06,0.020417501
,,,-3.7E-06,0.020320626
,,,-3.69E-06,0.020504376
,,,-3.68E-06,0.020355001
,,,-3.67E-06,0.020617501
,,,-3.66E-06,0.020407501
,,,-3.65E-06,0.020613126
,,,-3.64E-06,0.020509376
,,,-3.63E-06,0.020281251
,,,-3.62E-06,0.020531251
,,,-3.61E-06,0.020505001
,,,-3.6E-06,0.020362501
,,,-3.59E-06,0.020675001
,,,-3.58E-06,0.020508126
,,,-3.57E-06,0.020181251
,,,-3.56E-06,0.020333126
,,,-3.55E-06,0.020402501
,,,-3.54E-06,0.020285626
,,,-3.53E-06,0.020525001
,,,-3.52E-06,0.020356876
,,,-3.51E-06,0.020326251
,,,-3.5E-06,0.020431876
,,,-3.49E-06,0.020376876
,,,-3.48E-06,0.020295626
,,,-3.47E-06,0.020167501
,,,-3.46E-06,0.020595001
,,,-3.45E-06,0.020324376
,,,-3.44E-06,0.020380626
,,,-3.43E-06,0.020445626
,,,-3.42E-06,0.020462501
,,,-3.41E-06,0.020402501
,,,-3.4E-06,0.020206251
,,,-3.39E-06,0.020245626
,,,-3.38E-06,0.020588126
,,,-3.37E-06,0.020214376
,,,-3.36E-06,0.020500626
,,,-3.35E-06,0.020353126
,,,-3.34E-06,0.020308751
,,,-3.33E-06,0.020541251
,,,-3.32E-06,0.020161876
,,,-3.31E-06,0.020402501
,,,-3.3E-06,0.020503751
,,,-3.29E-06,0.020253751
,,,-3.28E-06,0.020436876
,,,-3.27E-06,0.020390626
,,,-3.26E-06,0.020300001
,,,-3.25E-06,0.020417501
,,,-3.24E-06,0.020198126
,,,-3.23E-06,0.020516251
,,,-3.22E-06,0.020423751
,,,-3.21E-06,0.020542501
,,,-3.2E-06,0.020451876
,,,-3.19E-06,0.020198126
,,,-3.18E-06,0.020135626
,,,-3.17E-06,0.020421251
,,,-3.16E-06,0.020420001
,,,-3.15E-06,0.020291876
,,,-3.14E-06,0.020425001
,,,-3.13E-06,0.020254376
,,,-3.12E-06,0.020455001
,,,-3.11E-06,0.020376251
,,,-3.1E-06,0.020516876
,,,-3.09E-06,0.020441251
,,,-3.08E-06,0.020550001
,,,-3.07E-06,0.020284376
,,,-3.06E-06,0.020251876
,,,-3.05E-06,0.020463126
,,,-3.04E-06,0.020293751
,,,-3.03E-06,0.020275001
,,,-3.02E-06,0.020167501
,,,-3.01E-06,0.020304376
,,,-3E-06,0.020285626
,,,-2.99E-06,0.020301876
,,,-2.98E-06,0.020450001
,,,-2.97E-06,0.020306876
,,,-2.96E-06,0.020413751
,,,-2.95E-06,0.020263751
,,,-2.94E-06,0.020318751
,,,-2.93E-06,0.020360626
,,,-2.92E-06,0.020251251
,,,-2.91E-06,0.020381251
,,,-2.9E-06,0.020321876
,,,-2.89E-06,0.020587501
,,,-2.88E-06,0.020281251
,,,-2.87E-06,0.020334376
,,,-2.86E-06,0.020280001
,,,-2.85E-06,0.020344376
,,,-2.84E-06,0.020409376
,,,-2.83E-06,0.020685626
,,,-2.82E-06,0.020300001
,,,-2.81E-06,0.020146251
,,,-2.8E-06,0.020239376
,,,-2.79E-06,0.020300001
,,,-2.78E-06,0.020397501
,,,-2.77E-06,0.020485001
,,,-2.76E-06,0.020349376
,,,-2.75E-06,0.020568126
,,,-2.74E-06,0.020309376
,,,-2.73E-06,0.020210626
,,,-2.72E-06,0.020301251
,,,-2.71E-06,0.020348751
,,,-2.7E-06,0.020309376
,,,-2.69E-06,0.020306251
,,,-2.68E-06,0.020344376
,,,-2.67E-06,0.020652501
,,,-2.66E-06,0.020430626
,,,-2.65E-06,0.020391876
,,,-2.64E-06,0.020338751
,,,-2.63E-06,0.020425001
,,,-2.62E-06,0.020207501
,,,-2.61E-06,0.020187501
,,,-2.6E-06,0.020283751
,,,-2.59E-06,0.020178126
,,,-2.58E-06,0.020340001
,,,-2.57E-06,0.020123751
,,,-2.56E-06,0.020333751
,,,-2.55E-06,0.020507501
,,,-2.54E-06,0.020142501
,,,-2.53E-06,0.020517501
,,,-2.52E-06,0.020283751
,,,-2.51E-06,0.020267501
,,,-2.5E-06,0.020700626
,,,-2.49E-06,0.020465626
,,,-2.48E-06,0.020325626
,,,-2.47E-06,0.020317501
,,,-2.46E-06,0.020305626
,,,-2.45E-06,0.020313751
,,,-2.44E-06,0.020455626
,,,-2.43E-06,0.020469376
,,,-2.42E-06,0.020373126
,,,-2.41E-06,0.020366251
,,,-2.4E-06,0.020423751
,,,-2.39E-06,0.020302501
,,,-2.38E-06,0.020350626
,,,-2.37E-06,0.020400001
,,,-2.36E-06,0.020317501
,,,-2.35E-06,0.020305626
,,,-2.34E-06,0.020625626
,,,-2.33E-06,0.020303751
,,,-2.32E-06,0.020281251
,,,-2.31E-06,0.020365626
,,,-2.3E-06,0.020230626
,,,-2.29E-06,0.020381251
,,,-2.28E-06,0.020188126
,,,-2.27E-06,0.020268126
,,,-2.26E-06,0.020324376
,,,-2.25E-06,0.020463126
,,,-2.24E-06,0.020225001
,,,-2.23E-06,0.020366251
,,,-2.22E-06,0.020563126
,,,-2.21E-06,0.020440001
,,,-2.2E-06,0.020428126
,,,-2.19E-06,0.020395626
,,,-2.18E-06,0.020342501
,,,-2.17E-06,0.020512501
,,,-2.16E-06,0.020146876
,,,-2.15E-06,0.020573126
,,,-2.14E-06,0.020218751
,,,-2.13E-06,0.020306876
,,,-2.12E-06,0.020406251
,,,-2.11E-06,0.020255626
,,,-2.1E-06,0.020158751
,,,-2.09E-06,0.020107501
,,,-2.08E-06,0.020209376
,,,-2.07E-06,0.020439376
,,,-2.06E-06,0.020497501
,,,-2.05E-06,0.020418751
,,,-2.04E-06,0.020333126
,,,-2.03E-06,0.020303751
,,,-2.02E-06,0.020106251
,,,-2.01E-06,0.020423126
,,,-2E-06,0.020353751
,,,-1.99E-06,0.020410626
,,,-1.98E-06,0.020371251
,,,-1.97E-06,0.020450626
,,,-1.96E-06,0.020332501
,,,-1.95E-06,0.020495626
,,,-1.94E-06,0.020506251
,,,-1.93E-06,0.020539376
,,,-1.92E-06,0.020390001
,,,-1.91E-06,0.020375626
,,,-1.9E-06,0.020558751
,,,-1.89E-06,0.020170626
,,,-1.88E-06,0.020360626
,,,-1.87E-06,0.020237501
,,,-1.86E-06,0.020475001
,,,-1.85E-06,0.020297501
,,,-1.84E-06,0.020433751
,,,-1.83E-06,0.020388126
,,,-1.82E-06,0.020515626
,,,-1.81E-06,0.020599376
,,,-1.8E-06,0.020321251
,,,-1.79E-06,0.020365626
,,,-1.78E-06,0.020356876
,,,-1.77E-06,0.020385001
,,,-1.76E-06,0.020437501
,,,-1.75E-06,0.020193751
,,,-1.74E-06,0.020377501
,,,-1.73E-06,0.020493751
,,,-1.72E-06,0.020290001
,,,-1.71E-06,0.020651251
,,,-1.7E-06,0.020311876
,,,-1.69E-06,0.020235626
,,,-1.68E-06,0.020397501
,,,-1.67E-06,0.020423751
,,,-1.66E-06,0.020442501
,,,-1.65E-06,0.020019376
,,,-1.64E-06,0.020260626
,,,-1.63E-06,0.020213751
,,,-1.62E-06,0.020300626
,,,-1.61E-06,0.020371876
,,,-1.6E-06,0.020454376
,,,-1.59E-06,0.020573126
,,,-1.58E-06,0.020439376
,,,-1.57E-06,0.020238751
,,,-1.56E-06,0.020210626
,,,-1.55E-06,0.020393126
,,,-1.54E-06,0.020420001
,,,-1.53E-06,0.020466876
,,,-1.52E-06,0.020528126
,,,-1.51E-06,0.020589376
,,,-1.5E-06,0.020070626
,,,-1.49E-06,0.020161876
,,,-1.48E-06,0.020443126
,,,-1.47E-06,0.020272501
,,,-1.46E-06,0.020385626
,,,-1.45E-06,0.020521876
,,,-1.44E-06,0.020224376
,,,-1.43E-06,0.020446251
,,,-1.42E-06,0.020220626
,,,-1.41E-06,0.020441876
,,,-1.4E-06,0.020204376
,,,-1.39E-06,0.020505001
,,,-1.38E-06,0.020393751
,,,-1.37E-06,0.020516876
,,,-1.36E-06,0.020214376
,,,-1.35E-06,0.020562501
,,,-1.34E-06,0.020393751
,,,-1.33E-06,0.020679376
,,,-1.32E-06,0.020345001
,,,-1.31E-06,0.020337501
,,,-1.3E-06,0.020152501
,,,-1.29E-06,0.020496251
,,,-1.28E-06,0.020341876
,,,-1.27E-06,0.020381876
,,,-1.26E-06,0.020374376
,,,-1.25E-06,0.020313126
,,,-1.24E-06,0.020375001
,,,-1.23E-06,0.020502501
,,,-1.22E-06,0.020214376
,,,-1.21E-06,0.020233751
,,,-1.2E-06,0.020527501
,,,-1.19E-06,0.020515001
,,,-1.18E-06,0.020488126
,,,-1.17E-06,0.020434376
,,,-1.16E-06,0.020233126
,,,-1.15E-06,0.020198751
,,,-1.14E-06,0.020468751
,,,-1.13E-06,0.020440001
,,,-1.12E-06,0.020626876
,,,-1.11E-06,0.020280001
,,,-1.1E-06,0.020205001
,,,-1.09E-06,0.020439376
,,,-1.08E-06,0.020389376
,,,-1.07E-06,0.020245626
,,,-1.06E-06,0.020395001
,,,-1.05E-06,0.020525626
,,,-1.04E-06,0.020305626
,,,-1.03E-06,0.020305001
,,,-1.02E-06,0.020715001
,,,-1.01E-06,0.020283751
,,,-1E-06,0.020543126
,,,-9.9E-07,0.020300626
,,,-9.8E-07,0.020380001
,,,-9.7E-07,0.020256876
,,,-9.6E-07,0.020282501
,,,-9.5E-07,0.020421876
,,,-9.4E-07,0.020514376
,,,-9.3E-07,0.020389376
,,,-9.2E-07,0.020315001
,,,-9.1E-07,0.020247501
,,,-9E-07,0.020291876
,,,-8.9E-07,0.020438126
,,,-8.8E-07,0.020370001
,,,-8.7E-07,0.020362501
,,,-8.6E-07,0.020378751
,,,-8.5E-07,0.020284376
,,,-8.4E-07,0.020310626
,,,-8.3E-07,0.020461876
,,,-8.2E-07,0.020269376
,,,-8.1E-07,0.020505001
,,,-8E-07,0.020250626
,,,-7.9E-07,0.020524376
,,,-7.8E-07,0.020292501
,,,-7.7E-07,0.020422501
,,,-7.6E-07,0.020436876
,,,-7.5E-07,0.020398126
,,,-7.4E-07,0.020327501
,,,-7.3E-07,0.020301251
,,,-7.2E-07,0.020478126
,,,-7.1E-07,0.020680626
,,,-7E-07,0.020118751
,,,-6.9E-07,0.020475001
,,,-6.8E-07,0.020396876
,,,-6.7E-07,0.020331251
,,,-6.6E-07,0.020348751
,,,-6.5E-07,0.020398126
,,,-6.4E-07,0.020234376
,,,-6.3E-07,0.020343751
,,,-6.2E-07,0.020298751
,,,-6.1E-07,0.020413126
,,,-6E-07,0.020278126
,,,-5.9E-07,0.020293126
,,,-5.8E-07,0.020491251
,,,-5.7E-07,0.020373126
,,,-5.6E-07,0.020146876
,,,-5.5E-07,0.020290001
,,,-5.4E-07,0.020313751
,,,-5.3E-07,0.020551251
,,,-5.2E-07,0.020638751
,,,-5.1E-07,0.020438751
,,,-5E-07,0.020313751
,,,-4.9E-07,0.020131876
,,,-4.8E-07,0.020453126
,,,-4.7E-07,0.020179376
,,,-4.6E-07,0.020329376
,,,-4.5E-07,0.020286876
,,,-4.4E-07,0.020105626
,,,-4.3E-07,0.020478751
,,,-4.2E-07,0.020226876
,,,-4.1E-07,0.020127501
,,,-4E-07,0.020208751
,,,-3.9E-07,0.020257501
,,,-3.8E-07,0.020381876
,,,-3.7E-07,0.020611876
,,,-3.6E-07,0.020321876
,,,-3.5E-07,0.020270626
,,,-3.4E-07,0.020345001
,,,-3.3E-07,0.020415001
,,,-3.2E-07,0.020099376
,,,-3.1E-07,0.020253126
,,,-3E-07,0.020553126
,,,-2.9E-07,0.020306251
,,,-2.8E-07,0.020183126
,,,-2.7E-07,0.020328126
,,,-2.6E-07,0.020324376
,,,-2.5E-07,0.020306251
,,,-2.4E-07,0.020571876
,,,-2.3E-07,0.020358126
,,,-2.2E-07,0.020415626
,,,-2.1E-07,0.020448126
,,,-2E-07,0.020445626
,,,-1.9E-07,0.020325001
,,,-1.8E-07,0.020344376
,,,-1.7E-07,0.020333126
,,,-1.6E-07,0.020286251
,,,-1.5E-07,0.020338126
,,,-1.4E-07,0.020253751
,,,-1.3E-07,0.020681876
,,,-1.2E-07,0.020646251
,,,-1.1E-07,0.020313751
,,,-1E-07,0.020323126
,,,-9E-08,0.020307501
,,,-8E-08,0.020476876
,,,-7E-08,0.019977501
,,,-6E-08,0.020060626
,,,-5E-08,0.020841876
,,,-4E-08,0.021695001
,,,-3E-08,0.020441876
,,,-2E-08,0.019574376
,,,-1E-08,0.018518751
,,,0,0.019443751
,,,1E-08,0.021208751
,,,2E-08,0.022248751
,,,3E-08,0.022351876
,,,4E-08,0.019990001
,,,5E-08,0.019406251
,,,6E-08,0.018850001
,,,7E-08,0.020018751
,,,8E-08,0.020519376
,,,9E-08,0.021310001
,,,1E-07,0.021090626
,,,1.1E-07,0.020893751
,,,1.2E-07,0.020063751
,,,1.3E-07,0.020050001
,,,1.4E-07,0.019948126
,,,1.5E-07,0.020283751
,,,1.6E-07,0.020718751
,,,1.7E-07,0.020430626
,,,1.8E-07,0.020521876
,,,1.9E-07,0.020375001
,,,2E-07,0.020390001
,,,2.1E-07,0.020270626
,,,2.2E-07,0.020441251
,,,2.3E-07,0.020053126
,,,2.4E-07,0.020417501
,,,2.5E-07,0.020495626
,,,2.6E-07,0.020504376
,,,2.7E-07,0.020337501
,,,2.8E-07,0.020525001
,,,2.9E-07,0.020252501
,,,3E-07,0.020492501
,,,3.1E-07,0.020432501
,,,3.2E-07,0.020380001
,,,3.3E-07,0.020399376
,,,3.4E-07,0.020285001
,,,3.5E-07,0.020038751
,,,3.6E-07,0.020266876
,,,3.7E-07,0.020458126
,,,3.8E-07,0.020490626
,,,3.9E-07,0.020301876
,,,4E-07,0.020372501
,,,4.1E-07,0.020335001
,,,4.2E-07,0.020301251
,,,4.3E-07,0.020336251
,,,4.4E-07,0.020426251
,,,4.5E-07,0.020421251
,,,4.6E-07,0.020347501
,,,4.7E-07,0.020423751
,,,4.8E-07,0.020296251
,,,4.9E-07,0.020407501
,,,5E-07,0.020254376
,,,5.1E-07,0.020433751
,,,5.2E-07,0.020420626
,,,5.3E-07,0.020555001
,,,5.4E-07,0.020239376
,,,5.5E-07,0.020366876
,,,5.6E-07,0.020408751
,,,5.7E-07,0.020285626
,,,5.8E-07,0.020457501
,,,5.9E-07,0.020369376
,,,6E-07,0.020136251
,,,6.1E-07,0.020436876
,,,6.2E-07,0.020618751
,,,6.3E-07,0.020383126
,,,6.4E-07,0.020461876
,,,6.5E-07,0.020245626
,,,6.6E-07,0.020468126
,,,6.7E-07,0.020510626
,,,6.8E-07,0.020295626
,,,6.9E-07,0.020251251
,,,7E-07,0.020385626
,,,7.1E-07,0.020349376
,,,7.2E-07,0.020442501
,,,7.3E-07,0.020421251
,,,7.4E-07,0.020240626
,,,7.5E-07,0.020571251
,,,7.6E-07,0.020447501
,,,7.7E-07,0.020233751
,,,7.8E-07,0.020280001
,,,7.9E-07,0.020287501
,,,8E-07,0.020308751
,,,8.1E-07,0.020448126
,,,8.2E-07,0.020360001
,,,8.3E-07,0.020461251
,,,8.4E-07,0.020374376
,,,8.5E-07,0.020477501
,,,8.6E-07,0.020613126
,,,8.7E-07,0.020426251
,,,8.8E-07,0.020223751
,,,8.9E-07,0.020395626
,,,9E-07,0.020434376
,,,9.1E-07,0.020355001
,,,9.2E-07,0.020399376
,,,9.3E-07,0.020535001
,,,9.4E-07,0.020181251
,,,9.5E-07,0.020450001
,,,9.6E-07,0.020370001
,,,9.7E-07,0.020603751
,,,9.8E-07,0.020231251
,,,9.9E-07,0.020581876
,,,1E-06,0.020440001
,,,1.01E-06,0.020261876
,,,1.02E-06,0.020652501
,,,1.03E-06,0.020413751
,,,1.04E-06,0.020253751
,,,1.05E-06,0.020217501
,,,1.06E-06,0.020476876
,,,1.07E-06,0.020248751
,,,1.08E-06,0.020449376
,,,1.09E-06,0.020350626
,,,1.1E-06,0.020271876
,,,1.11E-06,0.020130001
,,,1.12E-06,0.020365626
,,,1.13E-06,0.020555001
,,,1.14E-06,0.020220001
,,,1.15E-06,0.020260626
,,,1.16E-06,0.020304376
,,,1.17E-06,0.020596876
,,,1.18E-06,0.020251251
,,,1.19E-06,0.020686251
,,,1.2E-06,0.020304376
,,,1.21E-06,0.020431876
,,,1.22E-06,0.020287501
,,,1.23E-06,0.020308751
,,,1.24E-06,0.020379376
,,,1.25E-06,0.020431876
,,,1.26E-06,0.020314376
,,,1.27E-06,0.020276251
,,,1.28E-06,0.020585626
,,,1.29E-06,0.020314376
,,,1.3E-06,0.020421876
,,,1.31E-06,0.020367501
,,,1.32E-06,0.020372501
,,,1.33E-06,0.020466251
,,,1.34E-06,0.020461251
,,,1.35E-06,0.020255626
,,,1.36E-06,0.020576251
,,,1.37E-06,0.020380626
,,,1.38E-06,0.020608126
,,,1.39E-06,0.020409376
,,,1.4E-06,0.020465626
,,,1.41E-06,0.020519376
,,,1.42E-06,0.020453126
,,,1.43E-06,0.020452501
,,,1.44E-06,0.020344376
,,,1.45E-06,0.020322501
,,,1.46E-06,0.020611876
,,,1.47E-06,0.020186251
,,,1.48E-06,0.020297501
,,,1.49E-06,0.020337501
,,,1.5E-06,0.020374376
,,,1.51E-06,0.020390626
,,,1.52E-06,0.020435626
,,,1.53E-06,0.020495626
,,,1.54E-06,0.020458126
,,,1.55E-06,0.020182501
,,,1.56E-06,0.020455001
,,,1.57E-06,0.020235001
,,,1.58E-06,0.020473751
,,,1.59E-06,0.020193126
,,,1.6E-06,0.020428126
,,,1.61E-06,0.020464376
,,,1.62E-06,0.020406876
,,,1.63E-06,0.020351876
,,,1.64E-06,0.020361251
,,,1.65E-06,0.020525001
,,,1.66E-06,0.020605626
,,,1.67E-06,0.020334376
,,,1.68E-06,0.020429376
,,,1.69E-06,0.020362501
,,,1.7E-06,0.020525626
,,,1.71E-06,0.020571876
,,,1.72E-06,0.020374376
,,,1.73E-06,0.020306876
,,,1.74E-06,0.020551251
,,,1.75E-06,0.020340001
,,,1.76E-06,0.020183126
,,,1.77E-06,0.020345001
,,,1.78E-06,0.020365626
,,,1.79E-06,0.020448751
,,,1.8E-06,0.020491251
,,,1.81E-06,0.020256251
,,,1.82E-06,0.020348751
,,,1.83E-06,0.020539376
,,,1.84E-06,0.020241876
,,,1.85E-06,0.020348126
,,,1.86E-06,0.020378751
,,,1.87E-06,0.020282501
,,,1.88E-06,0.020256876
,,,1.89E-06,0.020306876
,,,1.9E-06,0.020485001
,,,1.91E-06,0.020275001
,,,1.92E-06,0.020415001
,,,1.93E-06,0.020370626
,,,1.94E-06,0.020448126
,,,1.95E-06,0.020250626
,,,1.96E-06,0.020471251
,,,1.97E-06,0.020460001
,,,1.98E-06,0.020398751
,,,1.99E-06,0.020344376
,,,2E-06,0.020351876
,,,2.01E-06,0.020549376
,,,2.02E-06,0.020690001
,,,2.03E-06,0.020390001
,,,2.04E-06,0.020353751
,,,2.05E-06,0.020172501
,,,2.06E-06,0.020349376
,,,2.07E-06,0.020406251
,,,2.08E-06,0.020424376
,,,2.09E-06,0.020258751
,,,2.1E-06,0.020440626
,,,2.11E-06,0.020256251
,,,2.12E-06,0.020528751
,,,2.13E-06,0.020393126
,,,2.14E-06,0.020368751
,,,2.15E-06,0.020398126
,,,2.16E-06,0.020564376
,,,2.17E-06,0.020413126
,,,2.18E-06,0.020370001
,,,2.19E-06,0.020438126
,,,2.2E-06,0.020305626
,,,2.21E-06,0.020251251
,,,2.22E-06,0.020173126
,,,2.23E-06,0.020329376
,,,2.24E-06,0.020329376
,,,2.25E-06,0.020169376
,,,2.26E-06,0.020323751
,,,2.27E-06,0.020274376
,,,2.28E-06,0.020424376
,,,2.29E-06,0.020211876
,,,2.3E-06,0.020277501
,,,2.31E-06,0.020466876
,,,2.32E-06,0.020288126
,,,2.33E-06,0.020487501
,,,2.34E-06,0.020607501
,,,2.35E-06,0.020632501
,,,2.36E-06,0.020452501
,,,2.37E-06,0.020290001
,,,2.38E-06,0.020283126
,,,2.39E-06,0.020271251
,,,2.4E-06,0.020540626
,,,2.41E-06,0.020397501
,,,2.42E-06,0.020485626
,,,2.43E-06,0.020570626
,,,2.44E-06,0.020391876
,,,2.45E-06,0.020471876
,,,2.46E-06,0.020275626
,,,2.47E-06,0.020656251
,,,2.48E-06,0.020396876
,,,2.49E-06,0.020195001
,,,2.5E-06,0.020251251
,,,2.51E-06,0.020440626
,,,2.52E-06,0.020225626
,,,2.53E-06,0.020226876
,,,2.54E-06,0.020387501
,,,2.55E-06,0.020398126
,,,2.56E-06,0.020363751
,,,2.57E-06,0.020378126
,,,2.58E-06,0.020313751
,,,2.59E-06,0.020246876
,,,2.6E-06,0.020549376
,,,2.61E-06,0.020381876
,,,2.62E-06,0.020453751
,,,2.63E-06,0.020236251
,,,2.64E-06,0.020331876
,,,2.65E-06,0.020472501
,,,2.66E-06,0.020165001
,,,2.67E-06,0.020372501
,,,2.68E-06,0.020371876
,,,2.69E-06,0.020395001
,,,2.7E-06,0.020234376
,,,2.71E-06,0.020313751
,,,2.72E-06,0.020508126
,,,2.73E-06,0.020299376
,,,2.74E-06,0.020336876
,,,2.75E-06,0.020378126
,,,2.76E-06,0.020908751
,,,2.77E-06,0.020298126
,,,2.78E-06,0.020450626
,,,2.79E-06,0.020266251
,,,2.8E-06,0.020359376
,,,2.81E-06,0.020208126
,,,2.82E-06,0.020630626
,,,2.83E-06,0.020307501
,,,2.84E-06,0.020421876
,,,2.85E-06,0.020363751
,,,2.86E-06,0.020214376
,,,2.87E-06,0.020048751
,,,2.88E-06,0.020510001
,,,2.89E-06,0.020303126
,,,2.9E-06,0.020541876
,,,2.91E-06,0.020248751
,,,2.92E-06,0.020128751
,,,2.93E-06,0.020459376
,,,2.94E-06,0.020380626
,,,2.95E-06,0.020342501
,,,2.96E-06,0.020098751
,,,2.97E-06,0.020045001
,,,2.98E-06,0.020293751
,,,2.99E-06,0.020162501
,,,3E-06,0.020248126
,,,3.01E-06,0.020304376
,,,3.02E-06,0.020332501
,,,3.03E-06,0.020463126
,,,3.04E-06,0.020451251
,,,3.05E-06,0.020396251
,,,3.06E-06,0.020556251
,,,3.07E-06,0.020455626
,,,3.08E-06,0.020355626
,,,3.09E-06,0.020280626
,,,3.1E-06,0.020358751
,,,3.11E-06,0.020341251
,,,3.12E-06,0.020353126
,,,3.13E-06,0.020314376
,,,3.14E-06,0.020381876
,,,3.15E-06,0.020514376
,,,3.16E-06,0.020313751
,,,3.17E-06,0.020478126
,,,3.18E-06,0.020058126
,,,3.19E-06,0.020178126
,,,3.2E-06,0.020446251
,,,3.21E-06,0.020483126
