data/raw/Final_POL_Test_1/SOP055_Ch2.csv

"Record Length",1000,"Points",-5E-06,0.0235675
"Sample Interval",1E-08,s,-4.99E-06,0.023506875
"Trigger Point",500,"Samples",-4.98E-06,0.023419375
"Trigger Time",0,s,-4.97E-06,0.02334875
"",,,-4.96E-06,0.023310625
"Horizontal Offset",-5E-06,s,-4.95E-06,0.02317375
,,,-4.94E-06,0.023585625
,,,-4.93E-06,0.023449375
,,,-4.92E-06,0.02332375
,,,-4.91E-06,0.023284375
,,,-4.9E-06,0.02368
,,,-4.89E-06,0.023458125
,,,-4.88E-06,0.0232775
,,,-4.87E-06,0.023045
,,,-4.86E-06,0.023559375
,,,-4.85E-06,0.023280625
,,,-4.84E-06,0.0233475
,,,-4.83E-06,0.023245
,,,-4.82E-06,0.023465
,,,-4.81E-06,0.023555625
,,,-4.8E-06,0.0238375
,,,-4.79E-06,0.0233825
,,,-4.78E-06,0.023124375
,,,-4.77E-06,0.02354625
,,,-4.76E-06,0.023368125
,,,-4.75E-06,0.02330875
,,,-4.74E-06,0.023513125
,,,-4.73E-06,0.023470625
,,,-4.72E-06,0.023653125
,,,-4.71E-06,0.023266875
,,,-4.7E-06,0.023145
,,,-4.69E-06,0.023455625
,,,-4.68E-06,0.02367875
,,,-4.67E-06,0.02326375
,,,-4.66E-06,0.023291875
,,,-4.65E-06,0.0235
,,,-4.64E-06,0.0233675
,,,-4.63E-06,0.02369125
,,,-4.62E-06,0.023305625
,,,-4.61E-06,0.02324125
,,,-4.6E-06,0.023226875
,,,-4.59E-06,0.02343125
,,,-4.58E-06,0.023276875
,,,-4.57E-06,0.023188125
,,,-4.56E-06,0.02305875
,,,-4.55E-06,0.023279375
,,,-4.54E-06,0.023459375
,,,-4.53E-06,0.023438125
,,,-4.52E-06,0.023528125
,,,-4.51E-06,0.02346375
,,,-4.5E-06,0.023215
,,,-4.49E-06,0.02340625
,,,-4.48E-06,0.023414375
,,,-4.47E-06,0.02312125
,,,-4.46E-06,0.0234775
,,,-4.45E-06,0.023421875
,,,-4.44E-06,0.02338375
,,,-4.43E-06,0.023483125
,,,-4.42E-06,0.023113125
,,,-4.41E-06,0.023476875
,,,-4.4E-06,0.023498125
,,,-4.39E-06,0.02323375
,,,-4.38E-06,0.02319125
,,,-4.37E-06,0.023319375
,,,-4.36E-06,0.023438125
,,,-4.35E-06,0.02314625
,,,-4.34E-06,0.0235075
,,,-4.33E-06,0.023671875
,,,-4.32E-06,0.02317875
,,,-4.31E-06,0.023405625
,,,-4.3E-06,0.023248125
,,,-4.29E-06,0.023355
,,,-4.28E-06,0.02325375
,,,-4.27E-06,0.02324125
,,,-4.26E-06,0.0233725
,,,-4.25E-06,0.0233825
,,,-4.24E-06,0.02337625
,,,-4.23E-06,0.02327125
,,,-4.22E-06,0.023053125
,,,-4.21E-06,0.023369375
,,,-4.2E-06,0.023283125
,,,-4.19E-06,0.023315625
,,,-4.18E-06,0.02323625
,,,-4.17E-06,0.023469375
,,,-4.16E-06,0.023446875
,,,-4.15E-06,0.0234875
,,,-4.14E-06,0.023606875
,,,-4.13E-06,0.02338625
,,,-4.12E-06,0.023386875
,,,-4.11E-06,0.02352375
,,,-4.1E-06,0.023536875
,,,-4.09E-06,0.0235325
,,,-4.08E-06,0.023135625
,,,-4.07E-06,0.0235725
,,,-4.06E-06,0.0233775
,,,-4.05E-06,0.023434375
,,,-4.04E-06,0.02347625
,,,-4.03E-06,0.023590625
,,,-4.02E-06,0.023355
,,,-4.01E-06,0.023015625
,,,-4E-06,0.02338
,,,-3.99E-06,0.023035
,,,-3.98E-06,0.023430625
,,,-3.97E-06,0.023395
,,,-3.96E-06,0.0234025
,,,-3.95E-06,0.0233925
,,,-3.94E-06,0.023349375
,,,-3.93E-06,0.023415625
,,,-3.92E-06,0.02318625
,,,-3.91E-06,0.02358625
,,,-3.9E-06,0.0232775
,,,-3.89E-06,0.023443125
,,,-3.88E-06,0.02343375
,,,-3.87E-06,0.02320625
,,,-3.86E-06,0.022996875
,,,-3.85E-06,0.02331625
,,,-3.84E-06,0.023243125
,,,-3.83E-06,0.02329
,,,-3.82E-06,0.023260625
,,,-3.81E-06,0.023313125
,,,-3.8E-06,0.023411875
,,,-3.79E-06,0.023660625
,,,-3.78E-06,0.023265625
,,,-3.77E-06,0.023338125
,,,-3.76E-06,0.023435
,,,-3.75E-06,0.02336
,,,-3.74E-06,0.023180625
,,,-3.73E-06,0.023485625
,,,-3.72E-06,0.023531875
,,,-3.71E-06,0.02356375
,,,-3.7E-06,0.023298125
,,,-3.69E-06,0.023330625
,,,-3.68E-06,0.023396875
,,,-3.67E-06,0.023595625
,,,-3.66E-06,0.023500625
,,,-3.65E-06,0.02342875
,,,-3.64E-06,0.02333875
,,,-3.63E-06,0.02316125
,,,-3.62E-06,0.02333125
,,,-3.61E-06,0.023345
,,,-3.6E-06,0.023174375
,,,-3.59E-06,0.023394375
,,,-3.58E-06,0.023345
,,,-3.57E-06,0.023144375
,,,-3.56E-06,0.023500625
,,,-3.55E-06,0.02315
,,,-3.54E-06,0.023311875
,,,-3.53E-06,0.023481875
,,,-3.52E-06,0.023398125
,,,-3.51E-06,0.02341625
,,,-3.5E-06,0.023313125
,,,-3.49E-06,0.022935
,,,-3.48E-06,0.023328125
,,,-3.47E-06,0.023249375
,,,-3.46E-06,0.023445
,,,-3.45E-06,0.023036875
,,,-3.44E-06,0.02321625
,,,-3.43E-06,0.023353125
,,,-3.42E-06,0.023401875
,,,-3.41E-06,0.02357375
,,,-3.4E-06,0.023283125
,,,-3.39E-06,0.023356875
,,,-3.38E-06,0.023425
,,,-3.37E-06,0.023290625
,,,-3.36E-06,0.0231625
,,,-3.35E-06,0.023429375
,,,-3.34E-06,0.0233
,,,-3.33E-06,0.02355875
,,,-3.32E-06,0.02365
,,,-3.31E-06,0.0234575
,,,-3.3E-06,0.023380625
,,,-3.29E-06,0.023265625
,,,-3.28E-06,0.023499375
,,,-3.27E-06,0.02342875
,,,-3.26E-06,0.023334375
,,,-3.25E-06,0.02369125
,,,-3.24E-06,0.023265
,,,-3.23E-06,0.02342
,,,-3.22E-06,0.023308125
,,,-3.21E-06,0.02336
,,,-3.2E-06,0.023216875
,,,-3.19E-06,0.02354875
,,,-3.18E-06,0.023348125
,,,-3.17E-06,0.02340125
,,,-3.16E-06,0.0232325
,,,-3.15E-06,0.023544375
,,,-3.14E-06,0.023289375
,,,-3.13E-06,0.023330625
,,,-3.12E-06,0.023049375
,,,-3.11E-06,0.023433125
,,,-3.1E-06,0.0234325
,,,-3.09E-06,0.023351875
,,,-3.08E-06,0.0237
,,,-3.07E-06,0.0233925
,,,-3.06E-06,0.023324375
,,,-3.05E-06,0.023219375
,,,-3.04E-06,0.023618125
,,,-3.03E-06,0.023251875
,,,-3.02E-06,0.0232875
,,,-3.01E-06,0.023219375
,,,-3E-06,0.02328
,,,-2.99E-06,0.02343625
,,,-2.98E-06,0.02336
,,,-2.97E-06,0.02314625
,,,-2.96E-06,0.023385625
,,,-2.95E-06,0.0233575
,,,-2.94E-06,0.023389375
,,,-2.93E-06,0.023321875
,,,-2.92E-06,0.02307625
,,,-2.91E-06,0.023434375
,,,-2.9E-06,0.023425625
,,,-2.89E-06,0.02328875
,,,-2.88E-06,0.023458125
,,,-2.87E-06,0.023314375
,,,-2.86E-06,0.023548125
,,,-2.85E-06,0.02325875
,,,-2.84E-06,0.02338625
,,,-2.83E-06,0.023273125
,,,-2.82E-06,0.023189375
,,,-2.81E-06,0.02308625
,,,-2.8E-06,0.02335375
,,,-2.79E-06,0.02330875
,,,-2.78E-06,0.023375625
,,,-2.77E-06,0.023316875
,,,-2.76E-06,0.023365
,,,-2.75E-06,0.023508125
,,,-2.74E-06,0.023250625
,,,-2.73E-06,0.02343125
,,,-2.72E-06,0.023418125
,,,-2.71E-06,0.023434375
,,,-2.7E-06,0.02356875
,,,-2.69E-06,0.02349125
,,,-2.68E-06,0.023380625
,,,-2.67E-06,0.02326125
,,,-2.66E-06,0.023394375
,,,-2.65E-06,0.0234025
,,,-2.64E-06,0.023170625
,,,-2.63E-06,0.023271875
,,,-2.62E-06,0.02359
,,,-2.61E-06,0.023345625
,,,-2.6E-06,0.023594375
,,,-2.59E-06,0.02337625
,,,-2.58E-06,0.023185625
,,,-2.57E-06,0.0230925
,,,-2.56E-06,0.023185625
,,,-2.55E-06,0.0233275
,,,-2.54E-06,0.023258125
,,,-2.53E-06,0.023535625
,,,-2.52E-06,0.023515625
,,,-2.51E-06,0.023388125
,,,-2.5E-06,0.023194375
,,,-2.49E-06,0.02330625
,,,-2.48E-06,0.0234425
,,,-2.47E-06,0.02363875
,,,-2.46E-06,0.02341875
,,,-2.45E-06,0.02325125
,,,-2.44E-06,0.02305
,,,-2.43E-06,0.0231775
,,,-2.42E-06,0.023300625
,,,-2.41E-06,0.023271875
,,,-2.4E-06,0.023168125
,,,-2.39E-06,0.02318
,,,-2.38E-06,0.0234825
,,,-2.37E-06,0.0233775
,,,-2.36E-06,0.023189375
,,,-2.35E-06,0.023326875
,,,-2.34E-06,0.023269375
,,,-2.33E-06,0.02335625
,,,-2.32E-06,0.023233125
,,,-2.31E-06,0.0235275
,,,-2.3E-06,0.02334
,,,-2.29E-06,0.0234475
,,,-2.28E-06,0.023306875
,,,-2.27E-06,0.02333625
,,,-2.26E-06,0.023355
,,,-2.25E-06,0.023334375
,,,-2.24E-06,0.02327375
,,,-2.23E-06,0.02343625
,,,-2.22E-06,0.023248125
,,,-2.21E-06,0.0234125
,,,-2.2E-06,0.023301875
,,,-2.19E-06,0.023394375
,,,-2.18E-06,0.02345125
,,,-2.17E-06,0.02326375
,,,-2.16E-06,0.02325125
,,,-2.15E-06,0.023471875
,,,-2.14E-06,0.02352125
,,,-2.13E-06,0.02318375
,,,-2.12E-06,0.023335625
,,,-2.11E-06,0.023700625
,,,-2.1E-06,0.023146875
,,,-2.09E-06,0.023115
,,,-2.08E-06,0.023350625
,,,-2.07E-06,0.023373125
,,,-2.06E-06,0.023431875
,,,-2.05E-06,0.023224375
,,,-2.04E-06,0.023201875
,,,-2.03E-06,0.023156875
,,,-2.02E-06,0.02332375
,,,-2.01E-06,0.0235325
,,,-2E-06,0.023459375
,,,-1.99E-06,0.023400625
,,,-1.98E-06,0.023318125
,,,-1.97E-06,0.023513125
,,,-1.96E-06,0.02304125
,,,-1.95E-06,0.023465
,,,-1.94E-06,0.023379375
,,,-1.93E-06,0.023630625
,,,-1.92E-06,0.023466875
,,,-1.91E-06,0.023445
,,,-1.9E-06,0.023131875
,,,-1.89E-06,0.023316875
,,,-1.88E-06,0.023225
,,,-1.87E-06,0.02327
,,,-1.86E-06,0.02329
,,,-1.85E-06,0.02338
,,,-1.84E-06,0.023664375
,,,-1.83E-06,0.0235975
,,,-1.82E-06,0.023366875
,,,-1.81E-06,0.0232875
,,,-1.8E-06,0.023389375
,,,-1.79E-06,0.023464375
,,,-1.78E-06,0.02341625
,,,-1.77E-06,0.02337375
,,,-1.76E-06,0.02331125
,,,-1.75E-06,0.02337625
,,,-1.74E-06,0.02322125
,,,-1.73E-06,0.023479375
,,,-1.72E-06,0.023391875
,,,-1.71E-06,0.02320125
,,,-1.7E-06,0.023210625
,,,-1.69E-06,0.02321
,,,-1.68E-06,0.023335
,,,-1.67E-06,0.023235
,,,-1.66E-06,0.02327875
,,,-1.65E-06,0.02343625
,,,-1.64E-06,0.023206875
,,,-1.63E-06,0.023295625
,,,-1.62E-06,0.023375
,,,-1.61E-06,0.02323
,,,-1.6E-06,0.023455
,,,-1.59E-06,0.0233675
,,,-1.58E-06,0.023451875
,,,-1.57E-06,0.02319875
,,,-1.56E-06,0.02353
,,,-1.55E-06,0.02340625
,,,-1.54E-06,0.02324625
,,,-1.53E-06,0.02313375
,,,-1.52E-06,0.02351875
,,,-1.51E-06,0.02341375
,,,-1.5E-06,0.02337375
,,,-1.49E-06,0.023113125
,,,-1.48E-06,0.0232
,,,-1.47E-06,0.02340875
,,,-1.46E-06,0.0235625
,,,-1.45E-06,0.0234725
,,,-1.44E-06,0.023375625
,,,-1.43E-06,0.02322625
,,,-1.42E-06,0.02307
,,,-1.41E-06,0.023048125
,,,-1.4E-06,0.023425625
,,,-1.39E-06,0.023249375
,,,-1.38E-06,0.023426875
,,,-1.37E-06,0.023228125
,,,-1.36E-06,0.02318375
,,,-1.35E-06,0.023298125
,,,-1.34E-06,0.02292
,,,-1.33E-06,0.0235425
,,,-1.32E-06,0.0232
,,,-1.31E-06,0.023563125
,,,-1.3E-06,0.023468125
,,,-1.29E-06,0.023260625
,,,-1.28E-06,0.0234075
,,,-1.27E-06,0.023393125
,,,-1.26E-06,0.023470625
,,,-1.25E-06,0.023390625
,,,-1.24E-06,0.02323875
,,,-1.23E-06,0.023409375
,,,-1.22E-06,0.02346375
,,,-1.21E-06,0.023435625
,,,-1.2E-06,0.023175
,,,-1.19E-06,0.02319
,,,-1.18E-06,0.023391875
,,,-1.17E-06,0.023258125
,,,-1.16E-06,0.023245625
,,,-1.15E-06,0.0231275
,,,-1.14E-06,0.022970625
,,,-1.13E-06,0.02324125
,,,-1.12E-06,0.023375
,,,-1.11E-06,0.02333625
,,,-1.1E-06,0.023511875
,,,-1.09E-06,0.02349
,,,-1.08E-06,0.023356875
,,,-1.07E-06,0.0232175
,,,-1.06E-06,0.023493125
,,,-1.05E-06,0.02334375
,,,-1.04E-06,0.023155625
,,,-1.03E-06,0.0233475
,,,-1.02E-06,0.023380625
,,,-1.01E-06,0.023435
,,,-1E-06,0.0234175
,,,-9.9E-07,0.023283125
,,,-9.8E-07,0.0234075
,,,-9.7E-07,0.02337125
,,,-9.6E-07,0.02345625
,,,-9.5E-07,0.02342875
,,,-9.4E-07,0.023433125
,,,-9.3E-07,0.023255
,,,-9.2E-07,0.02324625
,,,-9.1E-07,0.023224375
,,,-9E-07,0.023271875
,,,-8.9E-07,0.0236075
,,,-8.8E-07,0.023251875
,,,-8.7E-07,0.0233275
,,,-8.6E-07,0.0232875
,,,-8.5E-07,0.0231475
,,,-8.4E-07,0.02330375
,,,-8.3E-07,0.023253125
,,,-8.2E-07,0.023425
,,,-8.1E-07,0.023558125
,,,-8E-07,0.023361875
,,,-7.9E-07,0.023495625
,,,-7.8E-07,0.02327625
,,,-7.7E-07,0.023274375
,,,-7.6E-07,0.0233875
,,,-7.5E-07,0.023384375
,,,-7.4E-07,0.02352125
,,,-7.3E-07,0.023536875
,,,-7.2E-07,0.023221875
,,,-7.1E-07,0.023420625
,,,-7E-07,0.023331875
,,,-6.9E-07,0.023518125
,,,-6.8E-07,0.023379375
,,,-6.7E-07,0.023335625
,,,-6.6E-07,0.023394375
,,,-6.5E-07,0.023311875
,,,-6.4E-07,0.0229525
,,,-6.3E-07,0.023596875
,,,-6.2E-07,0.023224375
,,,-6.1E-07,0.023508125
,,,-6E-07,0.023565625
,,,-5.9E-07,0.0234475
,,,-5.8E-07,0.023443125
,,,-5.7E-07,0.0234125
,,,-5.6E-07,0.0232575
,,,-5.5E-07,0.023225
,,,-5.4E-07,0.023271875
,,,-5.3E-07,0.02325125
,,,-5.2E-07,0.0232875
,,,-5.1E-07,0.02326
,,,-5E-07,0.023375625
,,,-4.9E-07,0.02342375
,,,-4.8E-07,0.023609375
,,,-4.7E-07,0.023289375
,,,-4.6E-07,0.02348875
,,,-4.5E-07,0.0231475
,,,-4.4E-07,0.023355
,,,-4.3E-07,0.023488125
,,,-4.2E-07,0.023276875
,,,-4.1E-07,0.023413125
,,,-4E-07,0.023255625
,,,-3.9E-07,0.023295625
,,,-3.8E-07,0.02347375
,,,-3.7E-07,0.023270625
,,,-3.6E-07,0.023398125
,,,-3.5E-07,0.023531875
,,,-3.4E-07,0.0235425
,,,-3.3E-07,0.02341125
,,,-3.2E-07,0.023265625
,,,-3.1E-07,0.023409375
,,,-3E-07,0.023280625
,,,-2.9E-07,0.02306
,,,-2.8E-07,0.023195
,,,-2.7E-07,0.02329125
,,,-2.6E-07,0.02333125
,,,-2.5E-07,0.02341125
,,,-2.4E-07,0.022925
,,,-2.3E-07,0.02337625
,,,-2.2E-07,0.0231675
,,,-2.1E-07,0.023321875
,,,-2E-07,0.023021875
,,,-1.9E-07,0.023490625
,,,-1.8E-07,0.02353125
,,,-1.7E-07,0.023216875
,,,-1.6E-07,0.0232825
,,,-1.5E-07,0.023316875
,,,-1.4E-07,0.023364375
,,,-1.3E-07,0.02323375
,,,-1.2E-07,0.023469375
,,,-1.1E-07,0.023378125
,,,-1E-07,0.023525
,,,-9E-08,0.023304375
,,,-8E-08,0.023421875
,,,-7E-08,0.02351375
,,,-6E-08,0.023309375
,,,-5E-08,0.023346875
,,,-4E-08,0.0233575
,,,-3E-08,0.0233225
,,,-2E-08,0.023195
,,,-1E-08,0.02327875
,,,0,0.023475
,,,1E-08,0.02390625
,,,2E-08,0.023295625
,,,3E-08,0.023210625
,,,4E-08,0.022945625
,,,5E-08,0.023078125
,,,6E-08,0.02312125
,,,7E-08,0.023281875
,,,8E-08,0.02347
,,,9E-08,0.02318
,,,1E-07,0.023249375
,,,1.1E-07,0.02332125
,,,1.2E-07,0.0232525
,,,1.3E-07,0.023251875
,,,1.4E-07,0.023399375
,,,1.5E-07,0.02336625
,,,1.6E-07,0.023076875
,,,1.7E-07,0.023220625
,,,1.8E-07,0.023421875
,,,1.9E-07,0.023235
,,,2E-07,0.02358
,,,2.1E-07,0.02349125
,,,2.2E-07,0.023414375
,,,2.3E-07,0.02321125
,,,2.4E-07,0.02329125
,,,2.5E-07,0.0232475
,,,2.6E-07,0.023436875
,,,2.7E-07,0.023583125
,,,2.8E-07,0.0234125
,,,2.9E-07,0.02344
,,,3E-07,0.02342625
,,,3.1E-07,0.023403125
,,,3.2E-07,0.023318125
,,,3.3E-07,0.02344875
,,,3.4E-07,0.023135625
,,,3.5E-07,0.023431875
,,,3.6E-07,0.02337
,,,3.7E-07,0.02329
,,,3.8E-07,0.02317
,,,3.9E-07,0.023409375
,,,4E-07,0.023295625
,,,4.1E-07,0.023184375
,,,4.2E-07,0.023289375
,,,4.3E-07,0.023114375
,,,4.4E-07,0.02336
,,,4.5E-07,0.023383125
,,,4.6E-07,0.023198125
,,,4.7E-07,0.023364375
,,,4.8E-07,0.02352375
,,,4.9E-07,0.023363125
,,,5E-07,0.023254375
,,,5.1E-07,0.02346125
,,,5.2E-07,0.023205
,,,5.3E-07,0.023093125
,,,5.4E-07,0.02319125
,,,5.5E-07,0.023408125
,,,5.6E-07,0.023395
,,,5.7E-07,0.0233575
,,,5.8E-07,0.02341875
,,,5.9E-07,0.02342125
,,,6E-07,0.023353125
,,,6.1E-07,0.023364375
,,,6.2E-07,0.023451875
,,,6.3E-07,0.023494375
,,,6.4E-07,0.023366875
,,,6.5E-07,0.023204375
,,,6.6E-07,0.023375
,,,6.7E-07,0.023369375
,,,6.8E-07,0.023595625
,,,6.9E-07,0.0234975
,,,7E-07,0.023360625
,,,7.1E-07,0.023285
,,,7.2E-07,0.023441875
,,,7.3E-07,0.02333
,,,7.4E-07,0.023145625
,,,7.5E-07,0.0234675
,,,7.6E-07,0.02309125
,,,7.7E-07,0.023303125
,,,7.8E-07,0.023343125
,,,7.9E-07,0.02339125
,,,8E-07,0.02323
,,,8.1E-07,0.02343625
,,,8.2E-07,0.023244375
,,,8.3E-07,0.0231375
,,,8.4E-07,0.0235125
,,,8.5E-07,0.02315375
,,,8.6E-07,0.02349375
,,,8.7E-07,0.023533125
,,,8.8E-07,0.023261875
,,,8.9E-07,0.02329375
,,,9E-07,0.023464375
,,,9.1E-07,0.0233625
,,,9.2E-07,0.023095625
,,,9.3E-07,0.023350625
,,,9.4E-07,0.023276875
,,,9.5E-07,0.023586875
,,,9.6E-07,0.02343
,,,9.7E-07,0.023383125
,,,9.8E-07,0.023386875
,,,9.9E-07,0.023413125
,,,1E-06,0.0233775
,,,1.01E-06,0.02365125
,,,1.02E-06,0.02316875
,,,1.03E-06,0.023405625
,,,1.04E-06,0.023494375
,,,1.05E-06,0.02341375
,,,1.06E-06,0.0233625
,,,1.07E-06,0.023499375
,,,1.08E-06,0.02320875
,,,1.09E-06,0.02347375
,,,1.1E-06,0.02343125
,,,1.11E-06,0.023355
,,,1.12E-06,0.02351125
,,,1.13E-06,0.02355375
,,,1.14E-06,0.023008125
,,,1.15E-06,0.023590625
,,,1.16E-06,0.02340125
,,,1.17E-06,0.02316625
,,,1.18E-06,0.023358125
,,,1.19E-06,0.0231875
,,,1.2E-06,0.02324625
,,,1.21E-06,0.02351875
,,,1.22E-06,0.023185625
,,,1.23E-06,0.0231625
,,,1.24E-06,0.023421875
,,,1.25E-06,0.02335
,,,1.26E-06,0.02335875
,,,1.27E-06,0.023585
,,,1.28E-06,0.023745625
,,,1.29E-06,0.02339875
,,,1.3E-06,0.02341
,,,1.31E-06,0.02342
,,,1.32E-06,0.0237
,,,1.33E-06,0.0232275
,,,1.34E-06,0.0233625
,,,1.35E-06,0.023178125
,,,1.36E-06,0.02325125
,,,1.37E-06,0.02350875
,,,1.38E-06,0.023564375
,,,1.39E-06,0.023381875
,,,1.4E-06,0.0235475
,,,1.41E-06,0.02340125
,,,1.42E-06,0.02343625
,,,1.43E-06,0.02344125
,,,1.44E-06,0.02323625
,,,1.45E-06,0.023450625
,,,1.46E-06,0.023015
,,,1.47E-06,0.023554375
,,,1.48E-06,0.02352875
,,,1.49E-06,0.02358
,,,1.5E-06,0.023434375
,,,1.51E-06,0.02326375
,,,1.52E-06,0.023478125
,,,1.53E-06,0.023206875
,,,1.54E-06,0.02330875
,,,1.55E-06,0.0232425
,,,1.56E-06,0.023460625
,,,1.57E-06,0.023341875
,,,1.58E-06,0.0232975
,,,1.59E-06,0.0234525
,,,1.6E-06,0.023283125
,,,1.61E-06,0.023550625
,,,1.62E-06,0.02311375
,,,1.63E-06,0.02337
,,,1.64E-06,0.02322875
,,,1.65E-06,0.023495625
,,,1.66E-06,0.023161875
,,,1.67E-06,0.02357375
,,,1.68E-06,0.0234
,,,1.69E-06,0.023270625
,,,1.7E-06,0.023146875
,,,1.71E-06,0.023406875
,,,1.72E-06,0.022985625
,,,1.73E-06,0.02325625
,,,1.74E-06,0.0233425
,,,1.75E-06,0.02338375
,,,1.76E-06,0.02339
,,,1.77E-06,0.02332625
,,,1.78E-06,0.02316375
,,,1.79E-06,0.023206875
,,,1.8E-06,0.0232675
,,,1.81E-06,0.023298125
,,,1.82E-06,0.023525
,,,1.83E-06,0.0231525
,,,1.84E-06,0.0230125
,,,1.85E-06,0.023265
,,,1.86E-06,0.02336
,,,1.87E-06,0.023405
,,,1.88E-06,0.023531875
,,,1.89E-06,0.0237
,,,1.9E-06,0.023175625
,,,1.91E-06,0.0233625
,,,1.92E-06,0.023448125
,,,1.93E-06,0.0233675
,,,1.94E-06,0.02345875
,,,1.95E-06,0.0233225
,,,1.96E-06,0.023230625
,,,1.97E-06,0.023155
,,,1.98E-06,0.02338875
,,,1.99E-06,0.0235475
,,,2E-06,0.023191875
,,,2.01E-06,0.02340125
,,,2.02E-06,0.02345125
,,,2.03E-06,0.0236525
,,,2.04E-06,0.02330375
,,,2.05E-06,0.02322
,,,2.06E-06,0.0233225
,,,2.07E-06,0.02329625
,,,2.08E-06,0.02328
,,,2.09E-06,0.02330375
,,,2.1E-06,0.023350625
,,,2.11E-06,0.02328375
,,,2.12E-06,0.023633125
,,,2.13E-06,0.02347875
,,,2.14E-06,0.023209375
,,,2.15E-06,0.02340875
,,,2.16E-06,0.023349375
,,,2.17E-06,0.0231175
,,,2.18E-06,0.023273125
,,,2.19E-06,0.023394375
,,,2.2E-06,0.023196875
,,,2.21E-06,0.023379375
,,,2.22E-06,0.023211875
,,,2.23E-06,0.023255625
,,,2.24E-06,0.0233325
,,,2.25E-06,0.023506875
,,,2.26E-06,0.023345
,,,2.27E-06,0.023358125
,,,2.28E-06,0.023349375
,,,2.29E-06,0.023409375
,,,2.3E-06,0.02324125
,,,2.31E-06,0.023225
,,,2.32E-06,0.02344875
,,,2.33E-06,0.02329375
,,,2.34E-06,0.023311875
,,,2.35E-06,0.0234525
,,,2.36E-06,0.0235025
,,,2.37E-06,0.023251875
,,,2.38E-06,0.023558125
,,,2.39E-06,0.023421875
,,,2.4E-06,0.023206875
,,,2.41E-06,0.02336125
,,,2.42E-06,0.023291875
,,,2.43E-06,0.023446875
,,,2.44E-06,0.0234575
,,,2.45E-06,0.023385625
,,,2.46E-06,0.02327
,,,2.47E-06,0.02369125
,,,2.48E-06,0.023420625
,,,2.49E-06,0.023116875
,,,2.5E-06,0.0230575
,,,2.51E-06,0.023234375
,,,2.52E-06,0.0235575
,,,2.53E-06,0.02335125
,,,2.54E-06,0.023160625
,,,2.55E-06,0.0232975
,,,2.56E-06,0.02330625
,,,2.57E-06,0.02348375
,,,2.58E-06,0.02329375
,,,2.59E-06,0.02332
,,,2.6E-06,0.02356875
,,,2.61E-06,0.02313
,,,2.62E-06,0.023514375
,,,2.63E-06,0.0234125
,,,2.64E-06,0.023494375
,,,2.65E-06,0.023481875
,,,2.66E-06,0.023049375
,,,2.67E-06,0.023601875
,,,2.68E-06,0.02355875
,,,2.69E-06,0.023339375
,,,2.7E-06,0.02354375
,,,2.71E-06,0.023426875
,,,2.72E-06,0.02347875
,,,2.73E-06,0.02357625
,,,2.74E-06,0.023339375
,,,2.75E-06,0.023215625
,,,2.76E-06,0.023284375
,,,2.77E-06,0.023045625
,,,2.78E-06,0.023269375
,,,2.79E-06,0.023359375
,,,2.8E-06,0.02341875
,,,2.81E-06,0.0235375
,,,2.82E-06,0.02339
,,,2.83E-06,0.0233
,,,2.84E-06,0.023383125
,,,2.85E-06,0.0232825
,,,2.86E-06,0.023465
,,,2.87E-06,0.0235175
,,,2.88E-06,0.023214375
,,,2.89E-06,0.023355
,,,2.9E-06,0.02363875
,,,2.91E-06,0.023223125
,,,2.92E-06,0.023596875
,,,2.93E-06,0.02311875
,,,2.94E-06,0.023053125
,,,2.95E-06,0.0231575
,,,2.96E-06,0.023486875
,,,2.97E-06,0.023335625
,,,2.98E-06,0.0233125
,,,2.99E-06,0.023154375
,,,3E-06,0.0234
,,,3.01E-06,0.02337
,,,3.02E-06,0.023518125
,,,3.03E-06,0.023145
,,,3.04E-06,0.023206875
,,,3.05E-06,0.02343875
,,,3.06E-06,0.02351375
,,,3.07E-06,0.0234075
,,,3.08E-06,0.0233625
,,,3.09E-06,0.0232475
,,,3.1E-06,0.0233375
,,,3.11E-06,0.02335
,,,3.12E-06,0.02339
,,,3.13E-06,0.0233375
,,,3.14E-06,0.02321625
,,,3.15E-06,0.023346875
,,,3.16E-06,0.023349375
,,,3.17E-06,0.023034375
,,,3.18E-06,0.023204375
,,,3.19E-06,0.023628125
,,,3.2E-06,0.0232325
,,,3.21E-06,0.02341875
,,,3.22E-06,0.02340375
,,,3.23E-06,0.02319875
,,,3.24E-06,0.023401875
,,,3.25E-06,0.023380625
,,,3.26E-06,0.02318
,,,3.27E-06,0.023436875
,,,3.28E-06,0.02344125
,,,3.29E-06,0.023490625
,,,3.3E-06,0.023523125
,,,3.31E-06,0.023209375
,,,3.32E-06,0.023466875
,,,3.33E-06,0.023209375
,,,3.34E-06,0.023225
,,,3.35E-06,0.023245625
,,,3.36E-06,0.02346
,,,3.37E-06,0.0232375
,,,3.38E-06,0.023253125
,,,3.39E-06,0.023256875
,,,3.4E-06,0.02346625
,,,3.41E-06,0.023145625
,,,3.42E-06,0.023565
,,,3.43E-06,0.023409375
,,,3.44E-06,0.023500625
,,,3.45E-06,0.023335625
,,,3.46E-06,0.02344125
,,,3.47E-06,0.023345625
,,,3.48E-06,0.02352625
,,,3.49E-06,0.023536875
,,,3.5E-06,0.023385
,,,3.51E-06,0.023335
,,,3.52E-06,0.023481875
,,,3.53E-06,0.023338125
,,,3.54E-06,0.023633125
,,,3.55E-06,0.023151875
,,,3.56E-06,0.02337125
,,,3.57E-06,0.023149375
,,,3.58E-06,0.02317625
