data/raw/Final_POL_Test_1/SOP022_Ch1.csv

"Record Length",1000,"Points",-5E-06,0.0065025
"Sample Interval",1E-08,s,-4.99E-06,0.006391875
"Trigger Point",500,"Samples",-4.98E-06,0.006323125
"Trigger Time",0,s,-4.97E-06,0.00636625
"",,,-4.96E-06,0.006334375
"Horizontal Offset",-5E-06,s,-4.95E-06,0.006588125
,,,-4.94E-06,0.006475
,,,-4.93E-06,0.006321875
,,,-4.92E-06,0.006000625
,,,-4.91E-06,0.006289375
,,,-4.9E-06,0.0064725
,,,-4.89E-06,0.006353125
,,,-4.88E-06,0.0062125
,,,-4.87E-06,0.006415625
,,,-4.86E-06,0.00640625
,,,-4.85E-06,0.00634
,,,-4.84E-06,0.006330625
,,,-4.83E-06,0.006585
,,,-4.82E-06,0.00655125
,,,-4.81E-06,0.006410625
,,,-4.8E-06,0.0065675
,,,-4.79E-06,0.006253125
,,,-4.78E-06,0.006278125
,,,-4.77E-06,0.006368125
,,,-4.76E-06,0.0062425
,,,-4.75E-06,0.006208125
,,,-4.74E-06,0.006393125
,,,-4.73E-06,0.00649625
,,,-4.72E-06,0.00651375
,,,-4.71E-06,0.006241875
,,,-4.7E-06,0.0065275
,,,-4.69E-06,0.006246875
,,,-4.68E-06,0.00658625
,,,-4.67E-06,0.00656375
,,,-4.66E-06,0.006528125
,,,-4.65E-06,0.00630625
,,,-4.64E-06,0.006220625
,,,-4.63E-06,0.006395625
,,,-4.62E-06,0.006324375
,,,-4.61E-06,0.006311875
,,,-4.6E-06,0.006170625
,,,-4.59E-06,0.00631875
,,,-4.58E-06,0.00606
,,,-4.57E-06,0.006090625
,,,-4.56E-06,0.0064725
,,,-4.55E-06,0.00615875
,,,-4.54E-06,0.006285
,,,-4.53E-06,0.0063125
,,,-4.52E-06,0.006165625
,,,-4.51E-06,0.006229375
,,,-4.5E-06,0.006379375
,,,-4.49E-06,0.00627875
,,,-4.48E-06,0.006460625
,,,-4.47E-06,0.0062475
,,,-4.46E-06,0.00643125
,,,-4.45E-06,0.00627
,,,-4.44E-06,0.0063475
,,,-4.43E-06,0.00616
,,,-4.42E-06,0.006281875
,,,-4.41E-06,0.006125625
,,,-4.4E-06,0.006433125
,,,-4.39E-06,0.00645375
,,,-4.38E-06,0.006530625
,,,-4.37E-06,0.006405625
,,,-4.36E-06,0.006449375
,,,-4.35E-06,0.006213125
,,,-4.34E-06,0.006421875
,,,-4.33E-06,0.0063275
,,,-4.32E-06,0.006335625
,,,-4.31E-06,0.006391875
,,,-4.3E-06,0.006476875
,,,-4.29E-06,0.006115
,,,-4.28E-06,0.00623125
,,,-4.27E-06,0.00625
,,,-4.26E-06,0.00634
,,,-4.25E-06,0.006335625
,,,-4.24E-06,0.006345625
,,,-4.23E-06,0.006514375
,,,-4.22E-06,0.0064375
,,,-4.21E-06,0.006639375
,,,-4.2E-06,0.006261875
,,,-4.19E-06,0.006113125
,,,-4.18E-06,0.00629125
,,,-4.17E-06,0.00637625
,,,-4.16E-06,0.00606375
,,,-4.15E-06,0.006339375
,,,-4.14E-06,0.006608125
,,,-4.13E-06,0.00645375
,,,-4.12E-06,0.00623375
,,,-4.11E-06,0.006429375
,,,-4.1E-06,0.00627125
,,,-4.09E-06,0.006338125
,,,-4.08E-06,0.006245
,,,-4.07E-06,0.006285
,,,-4.06E-06,0.00643875
,,,-4.05E-06,0.00613625
,,,-4.04E-06,0.00649625
,,,-4.03E-06,0.00654875
,,,-4.02E-06,0.0061575
,,,-4.01E-06,0.0064225
,,,-4E-06,0.006110625
,,,-3.99E-06,0.00668875
,,,-3.98E-06,0.0062325
,,,-3.97E-06,0.0061525
,,,-3.96E-06,0.00603875
,,,-3.95E-06,0.00623875
,,,-3.94E-06,0.00654625
,,,-3.93E-06,0.00638375
,,,-3.92E-06,0.006575
,,,-3.91E-06,0.006534375
,,,-3.9E-06,0.006345
,,,-3.89E-06,0.006485
,,,-3.88E-06,0.006618125
,,,-3.87E-06,0.0064475
,,,-3.86E-06,0.006226875
,,,-3.85E-06,0.00612375
,,,-3.84E-06,0.00618875
,,,-3.83E-06,0.006416875
,,,-3.82E-06,0.006403125
,,,-3.81E-06,0.006460625
,,,-3.8E-06,0.006525625
,,,-3.79E-06,0.006454375
,,,-3.78E-06,0.006319375
,,,-3.77E-06,0.0062325
,,,-3.76E-06,0.006258125
,,,-3.75E-06,0.006709375
,,,-3.74E-06,0.006383125
,,,-3.73E-06,0.006445625
,,,-3.72E-06,0.00628625
,,,-3.71E-06,0.006386875
,,,-3.7E-06,0.00647125
,,,-3.69E-06,0.00643375
,,,-3.68E-06,0.0064225
,,,-3.67E-06,0.006138125
,,,-3.66E-06,0.00642
,,,-3.65E-06,0.006354375
,,,-3.64E-06,0.00655
,,,-3.63E-06,0.006226875
,,,-3.62E-06,0.00649
,,,-3.61E-06,0.00625375
,,,-3.6E-06,0.006341875
,,,-3.59E-06,0.00629
,,,-3.58E-06,0.006165625
,,,-3.57E-06,0.006218125
,,,-3.56E-06,0.00649375
,,,-3.55E-06,0.006315
,,,-3.54E-06,0.006373125
,,,-3.53E-06,0.00626
,,,-3.52E-06,0.006415
,,,-3.51E-06,0.006423125
,,,-3.5E-06,0.00644125
,,,-3.49E-06,0.006341875
,,,-3.48E-06,0.0063525
,,,-3.47E-06,0.0059775
,,,-3.46E-06,0.00628
,,,-3.45E-06,0.0061425
,,,-3.44E-06,0.006316875
,,,-3.43E-06,0.00610875
,,,-3.42E-06,0.006433125
,,,-3.41E-06,0.00653875
,,,-3.4E-06,0.006455
,,,-3.39E-06,0.006153125
,,,-3.38E-06,0.006298125
,,,-3.37E-06,0.00644125
,,,-3.36E-06,0.006246875
,,,-3.35E-06,0.00639
,,,-3.34E-06,0.006496875
,,,-3.33E-06,0.00645875
,,,-3.32E-06,0.00656875
,,,-3.31E-06,0.00640125
,,,-3.3E-06,0.006164375
,,,-3.29E-06,0.006261875
,,,-3.28E-06,0.00646125
,,,-3.27E-06,0.006376875
,,,-3.26E-06,0.00620375
,,,-3.25E-06,0.006325
,,,-3.24E-06,0.006285625
,,,-3.23E-06,0.00631375
,,,-3.22E-06,0.00625625
,,,-3.21E-06,0.006351875
,,,-3.2E-06,0.00655
,,,-3.19E-06,0.0063825
,,,-3.18E-06,0.006461875
,,,-3.17E-06,0.006398125
,,,-3.16E-06,0.00613125
,,,-3.15E-06,0.006351875
,,,-3.14E-06,0.0066425
,,,-3.13E-06,0.00635375
,,,-3.12E-06,0.006279375
,,,-3.11E-06,0.0062775
,,,-3.1E-06,0.00669375
,,,-3.09E-06,0.006266875
,,,-3.08E-06,0.00635
,,,-3.07E-06,0.00625875
,,,-3.06E-06,0.006225
,,,-3.05E-06,0.006535
,,,-3.04E-06,0.006445625
,,,-3.03E-06,0.006300625
,,,-3.02E-06,0.00645875
,,,-3.01E-06,0.006495
,,,-3E-06,0.00621125
,,,-2.99E-06,0.006651875
,,,-2.98E-06,0.006548125
,,,-2.97E-06,0.00626125
,,,-2.96E-06,0.00638375
,,,-2.95E-06,0.0062425
,,,-2.94E-06,0.00633375
,,,-2.93E-06,0.006288125
,,,-2.92E-06,0.00618125
,,,-2.91E-06,0.0061275
,,,-2.9E-06,0.0063125
,,,-2.89E-06,0.0062425
,,,-2.88E-06,0.006485625
,,,-2.87E-06,0.0065125
,,,-2.86E-06,0.006213125
,,,-2.85E-06,0.0061325
,,,-2.84E-06,0.006371875
,,,-2.83E-06,0.006353125
,,,-2.82E-06,0.006414375
,,,-2.81E-06,0.00634375
,,,-2.8E-06,0.006219375
,,,-2.79E-06,0.006338125
,,,-2.78E-06,0.006231875
,,,-2.77E-06,0.006245
,,,-2.76E-06,0.006366875
,,,-2.75E-06,0.006505625
,,,-2.74E-06,0.0063325
,,,-2.73E-06,0.00623875
,,,-2.72E-06,0.0063
,,,-2.71E-06,0.00625625
,,,-2.7E-06,0.00638375
,,,-2.69E-06,0.006333125
,,,-2.68E-06,0.00634875
,,,-2.67E-06,0.00654625
,,,-2.66E-06,0.00646375
,,,-2.65E-06,0.0065725
,,,-2.64E-06,0.00642875
,,,-2.63E-06,0.006489375
,,,-2.62E-06,0.006154375
,,,-2.61E-06,0.006515625
,,,-2.6E-06,0.006245625
,,,-2.59E-06,0.0063725
,,,-2.58E-06,0.00631
,,,-2.57E-06,0.00644125
,,,-2.56E-06,0.00631125
,,,-2.55E-06,0.006383125
,,,-2.54E-06,0.006480625
,,,-2.53E-06,0.00633375
,,,-2.52E-06,0.006253125
,,,-2.51E-06,0.006514375
,,,-2.5E-06,0.00644375
,,,-2.49E-06,0.00641125
,,,-2.48E-06,0.006025625
,,,-2.47E-06,0.006561875
,,,-2.46E-06,0.006588125
,,,-2.45E-06,0.0065175
,,,-2.44E-06,0.006565625
,,,-2.43E-06,0.00628375
,,,-2.42E-06,0.00652
,,,-2.41E-06,0.006524375
,,,-2.4E-06,0.006621875
,,,-2.39E-06,0.0065275
,,,-2.38E-06,0.006049375
,,,-2.37E-06,0.006430625
,,,-2.36E-06,0.006191875
,,,-2.35E-06,0.00653375
,,,-2.34E-06,0.0064275
,,,-2.33E-06,0.00643875
,,,-2.32E-06,0.00630875
,,,-2.31E-06,0.0062525
,,,-2.3E-06,0.006325625
,,,-2.29E-06,0.0065875
,,,-2.28E-06,0.006445
,,,-2.27E-06,0.006455625
,,,-2.26E-06,0.006405
,,,-2.25E-06,0.00651625
,,,-2.24E-06,0.006675
,,,-2.23E-06,0.00625125
,,,-2.22E-06,0.00648625
,,,-2.21E-06,0.006353125
,,,-2.2E-06,0.006593125
,,,-2.19E-06,0.006434375
,,,-2.18E-06,0.006238125
,,,-2.17E-06,0.00636
,,,-2.16E-06,0.006343125
,,,-2.15E-06,0.006285625
,,,-2.14E-06,0.006056875
,,,-2.13E-06,0.006485
,,,-2.12E-06,0.0062475
,,,-2.11E-06,0.006255
,,,-2.1E-06,0.0064925
,,,-2.09E-06,0.006241875
,,,-2.08E-06,0.006305
,,,-2.07E-06,0.006418125
,,,-2.06E-06,0.006515625
,,,-2.05E-06,0.006271875
,,,-2.04E-06,0.006239375
,,,-2.03E-06,0.006525625
,,,-2.02E-06,0.00628875
,,,-2.01E-06,0.006555
,,,-2E-06,0.006395625
,,,-1.99E-06,0.00641875
,,,-1.98E-06,0.006498125
,,,-1.97E-06,0.006366875
,,,-1.96E-06,0.006220625
,,,-1.95E-06,0.00618125
,,,-1.94E-06,0.00642875
,,,-1.93E-06,0.0063575
,,,-1.92E-06,0.0062675
,,,-1.91E-06,0.006480625
,,,-1.9E-06,0.0065325
,,,-1.89E-06,0.00628625
,,,-1.88E-06,0.006291875
,,,-1.87E-06,0.006190625
,,,-1.86E-06,0.006328125
,,,-1.85E-06,0.00652375
,,,-1.84E-06,0.0065225
,,,-1.83E-06,0.006608125
,,,-1.82E-06,0.006165
,,,-1.81E-06,0.00643
,,,-1.8E-06,0.0062775
,,,-1.79E-06,0.006285
,,,-1.78E-06,0.00608
,,,-1.77E-06,0.006505
,,,-1.76E-06,0.006478125
,,,-1.75E-06,0.0063875
,,,-1.74E-06,0.00635625
,,,-1.73E-06,0.006194375
,,,-1.72E-06,0.0063
,,,-1.71E-06,0.00633625
,,,-1.7E-06,0.006485625
,,,-1.69E-06,0.006490625
,,,-1.68E-06,0.0064125
,,,-1.67E-06,0.0063475
,,,-1.66E-06,0.0064225
,,,-1.65E-06,0.006371875
,,,-1.64E-06,0.006420625
,,,-1.63E-06,0.0064125
,,,-1.62E-06,0.00656125
,,,-1.61E-06,0.00642625
,,,-1.6E-06,0.00639125
,,,-1.59E-06,0.0063875
,,,-1.58E-06,0.00642875
,,,-1.57E-06,0.00646
,,,-1.56E-06,0.006361875
,,,-1.55E-06,0.006311875
,,,-1.54E-06,0.00626625
,,,-1.53E-06,0.006385
,,,-1.52E-06,0.00630625
,,,-1.51E-06,0.006455
,,,-1.5E-06,0.006124375
,,,-1.49E-06,0.006355625
,,,-1.48E-06,0.006329375
,,,-1.47E-06,0.00671625
,,,-1.46E-06,0.006230625
,,,-1.45E-06,0.006209375
,,,-1.44E-06,0.0062325
,,,-1.43E-06,0.006508125
,,,-1.42E-06,0.006375
,,,-1.41E-06,0.006430625
,,,-1.4E-06,0.006264375
,,,-1.39E-06,0.00628875
,,,-1.38E-06,0.00615875
,,,-1.37E-06,0.006483125
,,,-1.36E-06,0.006395625
,,,-1.35E-06,0.00624125
,,,-1.34E-06,0.006258125
,,,-1.33E-06,0.006238125
,,,-1.32E-06,0.006166875
,,,-1.31E-06,0.006066875
,,,-1.3E-06,0.006135625
,,,-1.29E-06,0.00648625
,,,-1.28E-06,0.006260625
,,,-1.27E-06,0.006423125
,,,-1.26E-06,0.006333125
,,,-1.25E-06,0.00636
,,,-1.24E-06,0.00642875
,,,-1.23E-06,0.00634125
,,,-1.22E-06,0.00656375
,,,-1.21E-06,0.006254375
,,,-1.2E-06,0.006415625
,,,-1.19E-06,0.006471875
,,,-1.18E-06,0.00646
,,,-1.17E-06,0.006411875
,,,-1.16E-06,0.006378125
,,,-1.15E-06,0.00615875
,,,-1.14E-06,0.00622625
,,,-1.13E-06,0.006300625
,,,-1.12E-06,0.006345625
,,,-1.11E-06,0.00676375
,,,-1.1E-06,0.00627
,,,-1.09E-06,0.006485625
,,,-1.08E-06,0.006450625
,,,-1.07E-06,0.00627375
,,,-1.06E-06,0.006565625
,,,-1.05E-06,0.00611125
,,,-1.04E-06,0.006178125
,,,-1.03E-06,0.00601375
,,,-1.02E-06,0.006355625
,,,-1.01E-06,0.00623875
,,,-1E-06,0.006463125
,,,-9.9E-07,0.006105
,,,-9.8E-07,0.006258125
,,,-9.7E-07,0.006455
,,,-9.6E-07,0.00642375
,,,-9.5E-07,0.006434375
,,,-9.4E-07,0.00625625
,,,-9.3E-07,0.006483125
,,,-9.2E-07,0.00638
,,,-9.1E-07,0.00617
,,,-9E-07,0.00624875
,,,-8.9E-07,0.006228125
,,,-8.8E-07,0.006396875
,,,-8.7E-07,0.006431875
,,,-8.6E-07,0.006378125
,,,-8.5E-07,0.006254375
,,,-8.4E-07,0.00656875
,,,-8.3E-07,0.006400625
,,,-8.2E-07,0.00618125
,,,-8.1E-07,0.006315
,,,-8E-07,0.00626375
,,,-7.9E-07,0.00607875
,,,-7.8E-07,0.0063925
,,,-7.7E-07,0.0064375
,,,-7.6E-07,0.006114375
,,,-7.5E-07,0.0064325
,,,-7.4E-07,0.00629625
,,,-7.3E-07,0.006411875
,,,-7.2E-07,0.006405625
,,,-7.1E-07,0.006284375
,,,-7E-07,0.006359375
,,,-6.9E-07,0.006191875
,,,-6.8E-07,0.00635
,,,-6.7E-07,0.0065925
,,,-6.6E-07,0.0062775
,,,-6.5E-07,0.0065025
,,,-6.4E-07,0.006360625
,,,-6.3E-07,0.006395625
,,,-6.2E-07,0.0061075
,,,-6.1E-07,0.006475
,,,-6E-07,0.0064625
,,,-5.9E-07,0.0060975
,,,-5.8E-07,0.006405625
,,,-5.7E-07,0.006205625
,,,-5.6E-07,0.006393125
,,,-5.5E-07,0.00633375
,,,-5.4E-07,0.006093125
,,,-5.3E-07,0.006285625
,,,-5.2E-07,0.0061875
,,,-5.1E-07,0.00652875
,,,-5E-07,0.006588125
,,,-4.9E-07,0.006189375
,,,-4.8E-07,0.00622875
,,,-4.7E-07,0.00624375
,,,-4.6E-07,0.00651625
,,,-4.5E-07,0.00633
,,,-4.4E-07,0.00651
,,,-4.3E-07,0.006515
,,,-4.2E-07,0.006700625
,,,-4.1E-07,0.00638125
,,,-4E-07,0.006495
,,,-3.9E-07,0.006340625
,,,-3.8E-07,0.006429375
,,,-3.7E-07,0.006325
,,,-3.6E-07,0.006275625
,,,-3.5E-07,0.006360625
,,,-3.4E-07,0.006346875
,,,-3.3E-07,0.0066775
,,,-3.2E-07,0.006414375
,,,-3.1E-07,0.00639625
,,,-3E-07,0.0063875
,,,-2.9E-07,0.006448125
,,,-2.8E-07,0.006351875
,,,-2.7E-07,0.00650625
,,,-2.6E-07,0.006288125
,,,-2.5E-07,0.00625
,,,-2.4E-07,0.006324375
,,,-2.3E-07,0.00621625
,,,-2.2E-07,0.00650875
,,,-2.1E-07,0.006034375
,,,-2E-07,0.0062175
,,,-1.9E-07,0.00611625
,,,-1.8E-07,0.006575625
,,,-1.7E-07,0.00625
,,,-1.6E-07,0.006223125
,,,-1.5E-07,0.006380625
,,,-1.4E-07,0.006440625
,,,-1.3E-07,0.006134375
,,,-1.2E-07,0.0064425
,,,-1.1E-07,0.006766875
,,,-1E-07,0.0065075
,,,-9E-08,0.00654125
,,,-8E-08,0.0062275
,,,-7E-08,0.006286875
,,,-6E-08,0.006380625
,,,-5E-08,0.006900625
,,,-4E-08,0.007443125
,,,-3E-08,0.006044375
,,,-2E-08,0.0052275
,,,-1E-08,0.00256
,,,0,0.0057425
,,,1E-08,0.007931875
,,,2E-08,0.0100625
,,,3E-08,0.008406875
,,,4E-08,0.005813125
,,,5E-08,0.00372125
,,,6E-08,0.0039975
,,,7E-08,0.00541375
,,,8E-08,0.0070575
,,,9E-08,0.00824125
,,,1E-07,0.007875
,,,1.1E-07,0.00646
,,,1.2E-07,0.005420625
,,,1.3E-07,0.00523125
,,,1.4E-07,0.0057975
,,,1.5E-07,0.0064875
,,,1.6E-07,0.006774375
,,,1.7E-07,0.00673125
,,,1.8E-07,0.006616875
,,,1.9E-07,0.0062025
,,,2E-07,0.00608875
,,,2.1E-07,0.006334375
,,,2.2E-07,0.006085
,,,2.3E-07,0.006246875
,,,2.4E-07,0.00649
,,,2.5E-07,0.0065625
,,,2.6E-07,0.00633625
,,,2.7E-07,0.0061775
,,,2.8E-07,0.00623375
,,,2.9E-07,0.00643
,,,3E-07,0.006293125
,,,3.1E-07,0.006065
,,,3.2E-07,0.00659125
,,,3.3E-07,0.0062475
,,,3.4E-07,0.00643625
,,,3.5E-07,0.006126875
,,,3.6E-07,0.00649
,,,3.7E-07,0.00636375
,,,3.8E-07,0.006196875
,,,3.9E-07,0.00601125
,,,4E-07,0.006310625
,,,4.1E-07,0.00632375
,,,4.2E-07,0.006321875
,,,4.3E-07,0.00644375
,,,4.4E-07,0.0063925
,,,4.5E-07,0.006395625
,,,4.6E-07,0.006210625
,,,4.7E-07,0.00635125
,,,4.8E-07,0.006384375
,,,4.9E-07,0.00647875
,,,5E-07,0.0061725
,,,5.1E-07,0.006865
,,,5.2E-07,0.006261875
,,,5.3E-07,0.006576875
,,,5.4E-07,0.006455
,,,5.5E-07,0.006191875
,,,5.6E-07,0.00635875
,,,5.7E-07,0.00615125
,,,5.8E-07,0.0063625
,,,5.9E-07,0.00625625
,,,6E-07,0.006031875
,,,6.1E-07,0.006285625
,,,6.2E-07,0.00629
,,,6.3E-07,0.006308125
,,,6.4E-07,0.00653625
,,,6.5E-07,0.00629375
,,,6.6E-07,0.00636875
,,,6.7E-07,0.00635875
,,,6.8E-07,0.006254375
,,,6.9E-07,0.006315
,,,7E-07,0.00629375
,,,7.1E-07,0.00637375
,,,7.2E-07,0.006386875
,,,7.3E-07,0.006258125
,,,7.4E-07,0.006390625
,,,7.5E-07,0.006445
,,,7.6E-07,0.006345625
,,,7.7E-07,0.006336875
,,,7.8E-07,0.006615625
,,,7.9E-07,0.006305625
,,,8E-07,0.00614
,,,8.1E-07,0.00626875
,,,8.2E-07,0.006348125
,,,8.3E-07,0.006413125
,,,8.4E-07,0.006574375
,,,8.5E-07,0.0064925
,,,8.6E-07,0.006370625
,,,8.7E-07,0.006218125
,,,8.8E-07,0.00649625
,,,8.9E-07,0.0062975
,,,9E-07,0.006260625
,,,9.1E-07,0.0062975
,,,9.2E-07,0.006348125
,,,9.3E-07,0.006438125
,,,9.4E-07,0.00629875
,,,9.5E-07,0.006355625
,,,9.6E-07,0.006225
,,,9.7E-07,0.006450625
,,,9.8E-07,0.006329375
,,,9.9E-07,0.0065975
,,,1E-06,0.006253125
,,,1.01E-06,0.006229375
,,,1.02E-06,0.006266875
,,,1.03E-06,0.00631375
,,,1.04E-06,0.00626
,,,1.05E-06,0.006379375
,,,1.06E-06,0.006335625
,,,1.07E-06,0.00652125
,,,1.08E-06,0.00653875
,,,1.09E-06,0.006214375
,,,1.1E-06,0.00629
,,,1.11E-06,0.0062225
,,,1.12E-06,0.00633125
,,,1.13E-06,0.00639375
,,,1.14E-06,0.00636875
,,,1.15E-06,0.0065125
,,,1.16E-06,0.0064175
,,,1.17E-06,0.00628
,,,1.18E-06,0.00635125
,,,1.19E-06,0.0065625
,,,1.2E-06,0.0063775
,,,1.21E-06,0.0062075
,,,1.22E-06,0.00651625
,,,1.23E-06,0.006445
,,,1.24E-06,0.006390625
,,,1.25E-06,0.00657875
,,,1.26E-06,0.006296875
,,,1.27E-06,0.006420625
,,,1.28E-06,0.0060875
,,,1.29E-06,0.0065225
,,,1.3E-06,0.00624125
,,,1.31E-06,0.006391875
,,,1.32E-06,0.00657875
,,,1.33E-06,0.00640875
,,,1.34E-06,0.0066125
,,,1.35E-06,0.006295
,,,1.36E-06,0.0062625
,,,1.37E-06,0.00637125
,,,1.38E-06,0.006433125
,,,1.39E-06,0.00635
,,,1.4E-06,0.00639375
,,,1.41E-06,0.006265
,,,1.42E-06,0.0062125
,,,1.43E-06,0.006215
,,,1.44E-06,0.006359375
,,,1.45E-06,0.006346875
,,,1.46E-06,0.0062325
,,,1.47E-06,0.00607375
,,,1.48E-06,0.006270625
,,,1.49E-06,0.006363125
,,,1.5E-06,0.006283125
,,,1.51E-06,0.00657125
,,,1.52E-06,0.00668
,,,1.53E-06,0.00643875
,,,1.54E-06,0.006046875
,,,1.55E-06,0.00638
,,,1.56E-06,0.0065775
,,,1.57E-06,0.00646
,,,1.58E-06,0.00653
,,,1.59E-06,0.00629875
,,,1.6E-06,0.00626125
,,,1.61E-06,0.006116875
,,,1.62E-06,0.006435
,,,1.63E-06,0.006100625
,,,1.64E-06,0.006470625
,,,1.65E-06,0.0064275
,,,1.66E-06,0.006485
,,,1.67E-06,0.006395625
,,,1.68E-06,0.00648
,,,1.69E-06,0.006423125
,,,1.7E-06,0.006340625
,,,1.71E-06,0.0064025
,,,1.72E-06,0.006321875
,,,1.73E-06,0.00633
,,,1.74E-06,0.006468125
,,,1.75E-06,0.00641125
,,,1.76E-06,0.0065
,,,1.77E-06,0.00619125
,,,1.78E-06,0.00636625
,,,1.79E-06,0.006025625
,,,1.8E-06,0.006225625
,,,1.81E-06,0.006475625
,,,1.82E-06,0.006278125
,,,1.83E-06,0.00638625
,,,1.84E-06,0.006205
,,,1.85E-06,0.006335
,,,1.86E-06,0.0064275
,,,1.87E-06,0.00635
,,,1.88E-06,0.006218125
,,,1.89E-06,0.006204375
,,,1.9E-06,0.006223125
,,,1.91E-06,0.0063825
,,,1.92E-06,0.00644625
,,,1.93E-06,0.00627875
,,,1.94E-06,0.006234375
,,,1.95E-06,0.006346875
,,,1.96E-06,0.006350625
,,,1.97E-06,0.006281875
,,,1.98E-06,0.00651125
,,,1.99E-06,0.006563125
,,,2E-06,0.006234375
,,,2.01E-06,0.0063425
,,,2.02E-06,0.00619375
,,,2.03E-06,0.00627625
,,,2.04E-06,0.00656125
,,,2.05E-06,0.00635125
,,,2.06E-06,0.006466875
,,,2.07E-06,0.0062
,,,2.08E-06,0.006643125
,,,2.09E-06,0.006254375
,,,2.1E-06,0.006284375
,,,2.11E-06,0.006064375
,,,2.12E-06,0.00636875
,,,2.13E-06,0.0062225
,,,2.14E-06,0.00612
,,,2.15E-06,0.00620125
,,,2.16E-06,0.00672375
,,,2.17E-06,0.006485
,,,2.18E-06,0.006345625
,,,2.19E-06,0.006428125
,,,2.2E-06,0.006461875
,,,2.21E-06,0.006546875
,,,2.22E-06,0.00644125
,,,2.23E-06,0.006240625
,,,2.24E-06,0.006285
,,,2.25E-06,0.00634875
,,,2.26E-06,0.006298125
,,,2.27E-06,0.006431875
,,,2.28E-06,0.00624875
,,,2.29E-06,0.00644
,,,2.3E-06,0.006165625
,,,2.31E-06,0.00631
,,,2.32E-06,0.0061875
,,,2.33E-06,0.0062275
,,,2.34E-06,0.006318125
,,,2.35E-06,0.006264375
,,,2.36E-06,0.006504375
,,,2.37E-06,0.00650375
,,,2.38E-06,0.00637
,,,2.39E-06,0.006506875
,,,2.4E-06,0.0064675
,,,2.41E-06,0.006654375
,,,2.42E-06,0.0065025
,,,2.43E-06,0.006321875
,,,2.44E-06,0.006125625
,,,2.45E-06,0.0064425
,,,2.46E-06,0.006365
,,,2.47E-06,0.00649
,,,2.48E-06,0.006333125
,,,2.49E-06,0.00626875
,,,2.5E-06,0.00644
,,,2.51E-06,0.00639
,,,2.52E-06,0.0064575
,,,2.53E-06,0.0062375
,,,2.54E-06,0.00638625
,,,2.55E-06,0.006565625
,,,2.56E-06,0.006390625
,,,2.57E-06,0.00652
,,,2.58E-06,0.0064475
,,,2.59E-06,0.00644875
,,,2.6E-06,0.00635875
,,,2.61E-06,0.00646875
,,,2.62E-06,0.0065225
,,,2.63E-06,0.0064525
,,,2.64E-06,0.00649
,,,2.65E-06,0.006300625
,,,2.66E-06,0.00633375
,,,2.67E-06,0.006263125
,,,2.68E-06,0.00649125
,,,2.69E-06,0.006493125
,,,2.7E-06,0.00628625
,,,2.71E-06,0.0062775
,,,2.72E-06,0.006361875
,,,2.73E-06,0.006461875
,,,2.74E-06,0.00657125
,,,2.75E-06,0.006468125
,,,2.76E-06,0.006209375
,,,2.77E-06,0.006575625
,,,2.78E-06,0.006405
,,,2.79E-06,0.0064
,,,2.8E-06,0.00637
,,,2.81E-06,0.00663
,,,2.82E-06,0.006533125
,,,2.83E-06,0.00652625
,,,2.84E-06,0.00639375
,,,2.85E-06,0.00626125
,,,2.86E-06,0.006398125
,,,2.87E-06,0.006175625
,,,2.88E-06,0.006465625
,,,2.89E-06,0.00635
,,,2.9E-06,0.006424375
,,,2.91E-06,0.00644625
,,,2.92E-06,0.006208125
,,,2.93E-06,0.006351875
,,,2.94E-06,0.006538125
,,,2.95E-06,0.00623
,,,2.96E-06,0.006546875
,,,2.97E-06,0.0063325
,,,2.98E-06,0.00629
,,,2.99E-06,0.00644375
,,,3E-06,0.006439375
,,,3.01E-06,0.00642
,,,3.02E-06,0.00629
,,,3.03E-06,0.006566875
,,,3.04E-06,0.0064125
,,,3.05E-06,0.00636125
,,,3.06E-06,0.00643875
,,,3.07E-06,0.006445625
,,,3.08E-06,0.0064775
,,,3.09E-06,0.0062425
,,,3.1E-06,0.006454375
,,,3.11E-06,0.00635375
,,,3.12E-06,0.00628625
,,,3.13E-06,0.006468125
,,,3.14E-06,0.006303125
,,,3.15E-06,0.00643
,,,3.16E-06,0.006246875
,,,3.17E-06,0.0060525
,,,3.18E-06,0.006458125
,,,3.19E-06,0.006470625
,,,3.2E-06,0.006430625
,,,3.21E-06,0.006275625
,,,3.22E-06,0.0064225
,,,3.23E-06,0.006514375
,,,3.24E-06,0.0063575
,,,3.25E-06,0.00642
,,,3.26E-06,0.006321875
,,,3.27E-06,0.0065625
,,,3.28E-06,0.006098125
,,,3.29E-06,0.006630625
,,,3.3E-06,0.006305
,,,3.31E-06,0.006264375
,,,3.32E-06,0.006395625
,,,3.33E-06,0.006464375
,,,3.34E-06,0.006246875
,,,3.35E-06,0.006409375
,,,3.36E-06,0.006411875
,,,3.37E-06,0.006348125
,,,3.38E-06,0.006340625
,,,3.39E-06,0.00643125
,,,3.4E-06,0.006555
,,,3.41E-06,0.00645375
,,,3.42E-06,0.006461875
,,,3.43E-06,0.006305
,,,3.44E-06,0.0063675
,,,3.45E-06,0.00624125
,,,3.46E-06,0.0063625
,,,3.47E-06,0.006545
,,,3.48E-06,0.006509375
,,,3.49E-06,0.0063875
,,,3.5E-06,0.00642875
,,,3.51E-06,0.006474375
,,,3.52E-06,0.006421875
,,,3.53E-06,0.006225625
,,,3.54E-06,0.00612
,,,3.55E-06,0.006418125
,,,3.56E-06,0.006175
,,,3.57E-06,0.0060675
,,,3.58E-06,0.006694375
,,,3.59E-06,0.006375
,,,3.6E-06,0.00627875
,,,3.61E-06,0.006488125
