data/raw/Final_POL_Test_1/SOP037_Ch1.csv

"Record Length",1000,"Points",-5E-06,0.00645625
"Sample Interval",1E-08,s,-4.99E-06,0.006270625
"Trigger Point",500,"Samples",-4.98E-06,0.0062175
"Trigger Time",0,s,-4.97E-06,0.00603625
"",,,-4.96E-06,0.0062375
"Horizontal Offset",-5E-06,s,-4.95E-06,0.00619625
,,,-4.94E-06,0.00622875
,,,-4.93E-06,0.0060775
,,,-4.92E-06,0.006309375
,,,-4.91E-06,0.006153125
,,,-4.9E-06,0.006360625
,,,-4.89E-06,0.00634625
,,,-4.88E-06,0.006321875
,,,-4.87E-06,0.00615375
,,,-4.86E-06,0.006096875
,,,-4.85E-06,0.006305
,,,-4.84E-06,0.006150625
,,,-4.83E-06,0.00612875
,,,-4.82E-06,0.006173125
,,,-4.81E-06,0.00634625
,,,-4.8E-06,0.0064925
,,,-4.79E-06,0.0063275
,,,-4.78E-06,0.006205625
,,,-4.77E-06,0.0063775
,,,-4.76E-06,0.00610875
,,,-4.75E-06,0.006171875
,,,-4.74E-06,0.00624875
,,,-4.73E-06,0.00616625
,,,-4.72E-06,0.006250625
,,,-4.71E-06,0.00620875
,,,-4.7E-06,0.006205625
,,,-4.69E-06,0.006066875
,,,-4.68E-06,0.00626
,,,-4.67E-06,0.006236875
,,,-4.66E-06,0.006335
,,,-4.65E-06,0.006124375
,,,-4.64E-06,0.00620375
,,,-4.63E-06,0.00627
,,,-4.62E-06,0.00637125
,,,-4.61E-06,0.00634875
,,,-4.6E-06,0.00620125
,,,-4.59E-06,0.006295
,,,-4.58E-06,0.006285
,,,-4.57E-06,0.0063075
,,,-4.56E-06,0.00648
,,,-4.55E-06,0.00627375
,,,-4.54E-06,0.0061425
,,,-4.53E-06,0.006105
,,,-4.52E-06,0.006284375
,,,-4.51E-06,0.00635
,,,-4.5E-06,0.00627
,,,-4.49E-06,0.006241875
,,,-4.48E-06,0.0063825
,,,-4.47E-06,0.00644625
,,,-4.46E-06,0.00625875
,,,-4.45E-06,0.006136875
,,,-4.44E-06,0.0060375
,,,-4.43E-06,0.00650375
,,,-4.42E-06,0.0061875
,,,-4.41E-06,0.006283125
,,,-4.4E-06,0.00619125
,,,-4.39E-06,0.006174375
,,,-4.38E-06,0.006336875
,,,-4.37E-06,0.00618625
,,,-4.36E-06,0.00624
,,,-4.35E-06,0.0062125
,,,-4.34E-06,0.0062575
,,,-4.33E-06,0.006046875
,,,-4.32E-06,0.006385625
,,,-4.31E-06,0.0062175
,,,-4.3E-06,0.006158125
,,,-4.29E-06,0.00638
,,,-4.28E-06,0.0064075
,,,-4.27E-06,0.006410625
,,,-4.26E-06,0.006155625
,,,-4.25E-06,0.00638125
,,,-4.24E-06,0.005886875
,,,-4.23E-06,0.006393125
,,,-4.22E-06,0.006310625
,,,-4.21E-06,0.0063275
,,,-4.2E-06,0.00614375
,,,-4.19E-06,0.006165625
,,,-4.18E-06,0.006416875
,,,-4.17E-06,0.006203125
,,,-4.16E-06,0.006221875
,,,-4.15E-06,0.006231875
,,,-4.14E-06,0.006225625
,,,-4.13E-06,0.006306875
,,,-4.12E-06,0.006386875
,,,-4.11E-06,0.006310625
,,,-4.1E-06,0.006249375
,,,-4.09E-06,0.006130625
,,,-4.08E-06,0.006295
,,,-4.07E-06,0.00624875
,,,-4.06E-06,0.006206875
,,,-4.05E-06,0.006165625
,,,-4.04E-06,0.006185
,,,-4.03E-06,0.0062525
,,,-4.02E-06,0.006450625
,,,-4.01E-06,0.006425
,,,-4E-06,0.005871875
,,,-3.99E-06,0.006184375
,,,-3.98E-06,0.006196875
,,,-3.97E-06,0.006324375
,,,-3.96E-06,0.006415625
,,,-3.95E-06,0.006315
,,,-3.94E-06,0.006056875
,,,-3.93E-06,0.0062175
,,,-3.92E-06,0.0063725
,,,-3.91E-06,0.006251875
,,,-3.9E-06,0.006235
,,,-3.89E-06,0.00602
,,,-3.88E-06,0.006275
,,,-3.87E-06,0.00592625
,,,-3.86E-06,0.00630875
,,,-3.85E-06,0.00612125
,,,-3.84E-06,0.006423125
,,,-3.83E-06,0.0063575
,,,-3.82E-06,0.00634375
,,,-3.81E-06,0.006328125
,,,-3.8E-06,0.00627625
,,,-3.79E-06,0.006415625
,,,-3.78E-06,0.00628
,,,-3.77E-06,0.0062675
,,,-3.76E-06,0.006074375
,,,-3.75E-06,0.006480625
,,,-3.74E-06,0.0061425
,,,-3.73E-06,0.00624
,,,-3.72E-06,0.00631375
,,,-3.71E-06,0.006383125
,,,-3.7E-06,0.0060325
,,,-3.69E-06,0.006375625
,,,-3.68E-06,0.00623375
,,,-3.67E-06,0.00616375
,,,-3.66E-06,0.0063
,,,-3.65E-06,0.006218125
,,,-3.64E-06,0.006379375
,,,-3.63E-06,0.00627
,,,-3.62E-06,0.006225
,,,-3.61E-06,0.00611
,,,-3.6E-06,0.00621
,,,-3.59E-06,0.006384375
,,,-3.58E-06,0.006329375
,,,-3.57E-06,0.0063275
,,,-3.56E-06,0.006235625
,,,-3.55E-06,0.006415
,,,-3.54E-06,0.006001875
,,,-3.53E-06,0.006315
,,,-3.52E-06,0.006075625
,,,-3.51E-06,0.00620625
,,,-3.5E-06,0.006355
,,,-3.49E-06,0.00619
,,,-3.48E-06,0.006389375
,,,-3.47E-06,0.00638125
,,,-3.46E-06,0.0063
,,,-3.45E-06,0.00607875
,,,-3.44E-06,0.00614125
,,,-3.43E-06,0.006144375
,,,-3.42E-06,0.00635875
,,,-3.41E-06,0.00659625
,,,-3.4E-06,0.006405625
,,,-3.39E-06,0.0061225
,,,-3.38E-06,0.0063075
,,,-3.37E-06,0.006158125
,,,-3.36E-06,0.00627125
,,,-3.35E-06,0.0063925
,,,-3.34E-06,0.006095625
,,,-3.33E-06,0.00619375
,,,-3.32E-06,0.006283125
,,,-3.31E-06,0.006419375
,,,-3.3E-06,0.00623
,,,-3.29E-06,0.0063925
,,,-3.28E-06,0.006103125
,,,-3.27E-06,0.006050625
,,,-3.26E-06,0.006155
,,,-3.25E-06,0.006324375
,,,-3.24E-06,0.0063175
,,,-3.23E-06,0.006059375
,,,-3.22E-06,0.006291875
,,,-3.21E-06,0.00608875
,,,-3.2E-06,0.0060125
,,,-3.19E-06,0.00643
,,,-3.18E-06,0.00618125
,,,-3.17E-06,0.006540625
,,,-3.16E-06,0.006285625
,,,-3.15E-06,0.006315625
,,,-3.14E-06,0.006201875
,,,-3.13E-06,0.00600375
,,,-3.12E-06,0.006216875
,,,-3.11E-06,0.00637375
,,,-3.1E-06,0.0063
,,,-3.09E-06,0.00642
,,,-3.08E-06,0.00627125
,,,-3.07E-06,0.00625
,,,-3.06E-06,0.00631625
,,,-3.05E-06,0.00617625
,,,-3.04E-06,0.006199375
,,,-3.03E-06,0.006195625
,,,-3.02E-06,0.006429375
,,,-3.01E-06,0.006239375
,,,-3E-06,0.00621125
,,,-2.99E-06,0.006399375
,,,-2.98E-06,0.0062675
,,,-2.97E-06,0.00613375
,,,-2.96E-06,0.006278125
,,,-2.95E-06,0.006280625
,,,-2.94E-06,0.00622
,,,-2.93E-06,0.00611
,,,-2.92E-06,0.00624375
,,,-2.91E-06,0.006094375
,,,-2.9E-06,0.006383125
,,,-2.89E-06,0.00639625
,,,-2.88E-06,0.006280625
,,,-2.87E-06,0.00627375
,,,-2.86E-06,0.0063175
,,,-2.85E-06,0.00609875
,,,-2.84E-06,0.006220625
,,,-2.83E-06,0.00618375
,,,-2.82E-06,0.00649125
,,,-2.81E-06,0.00626
,,,-2.8E-06,0.006176875
,,,-2.79E-06,0.0062425
,,,-2.78E-06,0.006308125
,,,-2.77E-06,0.00601375
,,,-2.76E-06,0.0063925
,,,-2.75E-06,0.006111875
,,,-2.74E-06,0.006145
,,,-2.73E-06,0.006271875
,,,-2.72E-06,0.0063725
,,,-2.71E-06,0.005950625
,,,-2.7E-06,0.006331875
,,,-2.69E-06,0.00644
,,,-2.68E-06,0.006218125
,,,-2.67E-06,0.006379375
,,,-2.66E-06,0.00612375
,,,-2.65E-06,0.006226875
,,,-2.64E-06,0.006374375
,,,-2.63E-06,0.00615625
,,,-2.62E-06,0.006084375
,,,-2.61E-06,0.0061575
,,,-2.6E-06,0.006076875
,,,-2.59E-06,0.005976875
,,,-2.58E-06,0.00620625
,,,-2.57E-06,0.006285
,,,-2.56E-06,0.006381875
,,,-2.55E-06,0.00621
,,,-2.54E-06,0.00631125
,,,-2.53E-06,0.006378125
,,,-2.52E-06,0.00600875
,,,-2.51E-06,0.00634
,,,-2.5E-06,0.0062075
,,,-2.49E-06,0.006094375
,,,-2.48E-06,0.006436875
,,,-2.47E-06,0.006199375
,,,-2.46E-06,0.00625875
,,,-2.45E-06,0.006364375
,,,-2.44E-06,0.006359375
,,,-2.43E-06,0.006344375
,,,-2.42E-06,0.006135625
,,,-2.41E-06,0.006229375
,,,-2.4E-06,0.006146875
,,,-2.39E-06,0.006321875
,,,-2.38E-06,0.006063125
,,,-2.37E-06,0.00642
,,,-2.36E-06,0.0060625
,,,-2.35E-06,0.006284375
,,,-2.34E-06,0.006303125
,,,-2.33E-06,0.006345
,,,-2.32E-06,0.006064375
,,,-2.31E-06,0.00622125
,,,-2.3E-06,0.00618
,,,-2.29E-06,0.00621125
,,,-2.28E-06,0.00622125
,,,-2.27E-06,0.006450625
,,,-2.26E-06,0.0061775
,,,-2.25E-06,0.00648125
,,,-2.24E-06,0.006129375
,,,-2.23E-06,0.0061825
,,,-2.22E-06,0.0061525
,,,-2.21E-06,0.0061475
,,,-2.2E-06,0.0061175
,,,-2.19E-06,0.006389375
,,,-2.18E-06,0.006316875
,,,-2.17E-06,0.006215
,,,-2.16E-06,0.006320625
,,,-2.15E-06,0.006115
,,,-2.14E-06,0.006256875
,,,-2.13E-06,0.006169375
,,,-2.12E-06,0.00621375
,,,-2.11E-06,0.006280625
,,,-2.1E-06,0.00628875
,,,-2.09E-06,0.00626125
,,,-2.08E-06,0.006603125
,,,-2.07E-06,0.00611125
,,,-2.06E-06,0.006429375
,,,-2.05E-06,0.006068125
,,,-2.04E-06,0.00631375
,,,-2.03E-06,0.006425625
,,,-2.02E-06,0.006349375
,,,-2.01E-06,0.006181875
,,,-2E-06,0.00630875
,,,-1.99E-06,0.006466875
,,,-1.98E-06,0.006275
,,,-1.97E-06,0.006365
,,,-1.96E-06,0.0063775
,,,-1.95E-06,0.00612
,,,-1.94E-06,0.006243125
,,,-1.93E-06,0.00633125
,,,-1.92E-06,0.006298125
,,,-1.91E-06,0.00615625
,,,-1.9E-06,0.006284375
,,,-1.89E-06,0.0062025
,,,-1.88E-06,0.006233125
,,,-1.87E-06,0.006171875
,,,-1.86E-06,0.006121875
,,,-1.85E-06,0.006155625
,,,-1.84E-06,0.00609625
,,,-1.83E-06,0.00633625
,,,-1.82E-06,0.00616125
,,,-1.81E-06,0.006143125
,,,-1.8E-06,0.0061625
,,,-1.79E-06,0.00637375
,,,-1.78E-06,0.00643125
,,,-1.77E-06,0.0061575
,,,-1.76E-06,0.006140625
,,,-1.75E-06,0.006195625
,,,-1.74E-06,0.006280625
,,,-1.73E-06,0.0063575
,,,-1.72E-06,0.006175
,,,-1.71E-06,0.00624125
,,,-1.7E-06,0.00627125
,,,-1.69E-06,0.006255
,,,-1.68E-06,0.0062375
,,,-1.67E-06,0.006185
,,,-1.66E-06,0.006083125
,,,-1.65E-06,0.006084375
,,,-1.64E-06,0.0063025
,,,-1.63E-06,0.0063325
,,,-1.62E-06,0.006253125
,,,-1.61E-06,0.00628
,,,-1.6E-06,0.006518125
,,,-1.59E-06,0.006238125
,,,-1.58E-06,0.006230625
,,,-1.57E-06,0.00624125
,,,-1.56E-06,0.0063725
,,,-1.55E-06,0.0061775
,,,-1.54E-06,0.005981875
,,,-1.53E-06,0.006278125
,,,-1.52E-06,0.006135
,,,-1.51E-06,0.0062475
,,,-1.5E-06,0.006376875
,,,-1.49E-06,0.006374375
,,,-1.48E-06,0.00624125
,,,-1.47E-06,0.00621625
,,,-1.46E-06,0.006364375
,,,-1.45E-06,0.006209375
,,,-1.44E-06,0.006269375
,,,-1.43E-06,0.00604875
,,,-1.42E-06,0.0062475
,,,-1.41E-06,0.00618125
,,,-1.4E-06,0.006515
,,,-1.39E-06,0.006385625
,,,-1.38E-06,0.006116875
,,,-1.37E-06,0.006350625
,,,-1.36E-06,0.00620625
,,,-1.35E-06,0.00634625
,,,-1.34E-06,0.0063175
,,,-1.33E-06,0.006301875
,,,-1.32E-06,0.006231875
,,,-1.31E-06,0.005931875
,,,-1.3E-06,0.0062875
,,,-1.29E-06,0.006168125
,,,-1.28E-06,0.006301875
,,,-1.27E-06,0.00628375
,,,-1.26E-06,0.006420625
,,,-1.25E-06,0.006406875
,,,-1.24E-06,0.0060675
,,,-1.23E-06,0.006200625
,,,-1.22E-06,0.00623
,,,-1.21E-06,0.006443125
,,,-1.2E-06,0.00614
,,,-1.19E-06,0.006198125
,,,-1.18E-06,0.00614
,,,-1.17E-06,0.006393125
,,,-1.16E-06,0.006311875
,,,-1.15E-06,0.006198125
,,,-1.14E-06,0.006184375
,,,-1.13E-06,0.006329375
,,,-1.12E-06,0.00626875
,,,-1.11E-06,0.006104375
,,,-1.1E-06,0.006525
,,,-1.09E-06,0.0062575
,,,-1.08E-06,0.00619875
,,,-1.07E-06,0.006438125
,,,-1.06E-06,0.006235
,,,-1.05E-06,0.006244375
,,,-1.04E-06,0.006148125
,,,-1.03E-06,0.00643875
,,,-1.02E-06,0.006441875
,,,-1.01E-06,0.0061825
,,,-1E-06,0.006211875
,,,-9.9E-07,0.00626875
,,,-9.8E-07,0.00622625
,,,-9.7E-07,0.006055
,,,-9.6E-07,0.006333125
,,,-9.5E-07,0.006259375
,,,-9.4E-07,0.00623625
,,,-9.3E-07,0.0063325
,,,-9.2E-07,0.0065975
,,,-9.1E-07,0.006294375
,,,-9E-07,0.00616875
,,,-8.9E-07,0.006391875
,,,-8.8E-07,0.006415
,,,-8.7E-07,0.00625875
,,,-8.6E-07,0.006141875
,,,-8.5E-07,0.0062875
,,,-8.4E-07,0.00624375
,,,-8.3E-07,0.006245625
,,,-8.2E-07,0.006311875
,,,-8.1E-07,0.006213125
,,,-8E-07,0.00634625
,,,-7.9E-07,0.0062275
,,,-7.8E-07,0.006135625
,,,-7.7E-07,0.006186875
,,,-7.6E-07,0.006238125
,,,-7.5E-07,0.006213125
,,,-7.4E-07,0.0062875
,,,-7.3E-07,0.00614625
,,,-7.2E-07,0.0063075
,,,-7.1E-07,0.006265625
,,,-7E-07,0.006225625
,,,-6.9E-07,0.006185
,,,-6.8E-07,0.00621875
,,,-6.7E-07,0.006388125
,,,-6.6E-07,0.00617375
,,,-6.5E-07,0.006348125
,,,-6.4E-07,0.006170625
,,,-6.3E-07,0.00624125
,,,-6.2E-07,0.00625
,,,-6.1E-07,0.006346875
,,,-6E-07,0.006365625
,,,-5.9E-07,0.006525625
,,,-5.8E-07,0.006325625
,,,-5.7E-07,0.00635625
,,,-5.6E-07,0.006076875
,,,-5.5E-07,0.006385625
,,,-5.4E-07,0.00646875
,,,-5.3E-07,0.006130625
,,,-5.2E-07,0.006344375
,,,-5.1E-07,0.005984375
,,,-5E-07,0.00643125
,,,-4.9E-07,0.006299375
,,,-4.8E-07,0.00620375
,,,-4.7E-07,0.006258125
,,,-4.6E-07,0.00626375
,,,-4.5E-07,0.006194375
,,,-4.4E-07,0.00615
,,,-4.3E-07,0.006349375
,,,-4.2E-07,0.0062875
,,,-4.1E-07,0.006345625
,,,-4E-07,0.00628875
,,,-3.9E-07,0.006399375
,,,-3.8E-07,0.00613875
,,,-3.7E-07,0.006325
,,,-3.6E-07,0.006231875
,,,-3.5E-07,0.006229375
,,,-3.4E-07,0.006215
,,,-3.3E-07,0.00622875
,,,-3.2E-07,0.006160625
,,,-3.1E-07,0.006235
,,,-3E-07,0.0063625
,,,-2.9E-07,0.006279375
,,,-2.8E-07,0.006300625
,,,-2.7E-07,0.006429375
,,,-2.6E-07,0.00617875
,,,-2.5E-07,0.0062375
,,,-2.4E-07,0.00623375
,,,-2.3E-07,0.00639625
,,,-2.2E-07,0.006135
,,,-2.1E-07,0.006339375
,,,-2E-07,0.006304375
,,,-1.9E-07,0.006156875
,,,-1.8E-07,0.006289375
,,,-1.7E-07,0.0064375
,,,-1.6E-07,0.006284375
,,,-1.5E-07,0.0061325
,,,-1.4E-07,0.0063875
,,,-1.3E-07,0.006305625
,,,-1.2E-07,0.0061375
,,,-1.1E-07,0.0062475
,,,-1E-07,0.006318125
,,,-9E-08,0.006205
,,,-8E-08,0.006338125
,,,-7E-08,0.006085
,,,-6E-08,0.0062725
,,,-5E-08,0.006515
,,,-4E-08,0.0069275
,,,-3E-08,0.007058125
,,,-2E-08,0.004909375
,,,-1E-08,0.003948125
,,,0,0.00458125
,,,1E-08,0.008643125
,,,2E-08,0.0090125
,,,3E-08,0.00844
,,,4E-08,0.00478625
,,,5E-08,0.004165625
,,,6E-08,0.00421625
,,,7E-08,0.0059375
,,,8E-08,0.00718125
,,,9E-08,0.00768625
,,,1E-07,0.007603125
,,,1.1E-07,0.00625
,,,1.2E-07,0.005496875
,,,1.3E-07,0.005515625
,,,1.4E-07,0.006101875
,,,1.5E-07,0.006399375
,,,1.6E-07,0.0067175
,,,1.7E-07,0.006413125
,,,1.8E-07,0.006454375
,,,1.9E-07,0.00624375
,,,2E-07,0.006160625
,,,2.1E-07,0.00613
,,,2.2E-07,0.00611
,,,2.3E-07,0.006359375
,,,2.4E-07,0.006543125
,,,2.5E-07,0.006438125
,,,2.6E-07,0.006293125
,,,2.7E-07,0.0062025
,,,2.8E-07,0.00629625
,,,2.9E-07,0.006236875
,,,3E-07,0.006194375
,,,3.1E-07,0.00611375
,,,3.2E-07,0.006280625
,,,3.3E-07,0.006458125
,,,3.4E-07,0.00630375
,,,3.5E-07,0.006251875
,,,3.6E-07,0.006275
,,,3.7E-07,0.0061025
,,,3.8E-07,0.006376875
,,,3.9E-07,0.006296875
,,,4E-07,0.00638375
,,,4.1E-07,0.006160625
,,,4.2E-07,0.00606375
,,,4.3E-07,0.00643375
,,,4.4E-07,0.006185625
,,,4.5E-07,0.006178125
,,,4.6E-07,0.006491875
,,,4.7E-07,0.00619875
,,,4.8E-07,0.00633875
,,,4.9E-07,0.00642375
,,,5E-07,0.00647875
,,,5.1E-07,0.0061775
,,,5.2E-07,0.006279375
,,,5.3E-07,0.006085625
,,,5.4E-07,0.00622625
,,,5.5E-07,0.006164375
,,,5.6E-07,0.006285625
,,,5.7E-07,0.006381875
,,,5.8E-07,0.006470625
,,,5.9E-07,0.006223125
,,,6E-07,0.00619125
,,,6.1E-07,0.00602625
,,,6.2E-07,0.00606875
,,,6.3E-07,0.00639125
,,,6.4E-07,0.00634125
,,,6.5E-07,0.00642375
,,,6.6E-07,0.0061625
,,,6.7E-07,0.006448125
,,,6.8E-07,0.006235
,,,6.9E-07,0.006011875
,,,7E-07,0.006381875
,,,7.1E-07,0.0061575
,,,7.2E-07,0.006300625
,,,7.3E-07,0.006263125
,,,7.4E-07,0.00618875
,,,7.5E-07,0.006315
,,,7.6E-07,0.00599625
,,,7.7E-07,0.006345
,,,7.8E-07,0.006325625
,,,7.9E-07,0.00631375
,,,8E-07,0.00627
,,,8.1E-07,0.006265625
,,,8.2E-07,0.006251875
,,,8.3E-07,0.006301875
,,,8.4E-07,0.006175625
,,,8.5E-07,0.006243125
,,,8.6E-07,0.0061875
,,,8.7E-07,0.005893125
,,,8.8E-07,0.00640375
,,,8.9E-07,0.00630125
,,,9E-07,0.006154375
,,,9.1E-07,0.00653
,,,9.2E-07,0.006113125
,,,9.3E-07,0.006229375
,,,9.4E-07,0.00607625
,,,9.5E-07,0.006125625
,,,9.6E-07,0.00609
,,,9.7E-07,0.00627625
,,,9.8E-07,0.006295625
,,,9.9E-07,0.006441875
,,,1E-06,0.006365625
,,,1.01E-06,0.00628
,,,1.02E-06,0.006221875
,,,1.03E-06,0.006179375
,,,1.04E-06,0.006330625
,,,1.05E-06,0.006094375
,,,1.06E-06,0.006335625
,,,1.07E-06,0.006200625
,,,1.08E-06,0.006375625
,,,1.09E-06,0.006188125
,,,1.1E-06,0.006283125
,,,1.11E-06,0.006306875
,,,1.12E-06,0.006366875
,,,1.13E-06,0.006250625
,,,1.14E-06,0.00628875
,,,1.15E-06,0.006173125
,,,1.16E-06,0.006219375
,,,1.17E-06,0.005938125
,,,1.18E-06,0.006338125
,,,1.19E-06,0.006083125
,,,1.2E-06,0.00618625
,,,1.21E-06,0.006160625
,,,1.22E-06,0.0064525
,,,1.23E-06,0.00604375
,,,1.24E-06,0.00652375
,,,1.25E-06,0.006165
,,,1.26E-06,0.00629375
,,,1.27E-06,0.006194375
,,,1.28E-06,0.00611375
,,,1.29E-06,0.0063375
,,,1.3E-06,0.006345
,,,1.31E-06,0.00595125
,,,1.32E-06,0.006181875
,,,1.33E-06,0.006405625
,,,1.34E-06,0.006215
,,,1.35E-06,0.006329375
,,,1.36E-06,0.00631875
,,,1.37E-06,0.0061625
,,,1.38E-06,0.006245625
,,,1.39E-06,0.0064375
,,,1.4E-06,0.006128125
,,,1.41E-06,0.006589375
,,,1.42E-06,0.00627625
,,,1.43E-06,0.00616875
,,,1.44E-06,0.00629125
,,,1.45E-06,0.006185625
,,,1.46E-06,0.006459375
,,,1.47E-06,0.0061275
,,,1.48E-06,0.0061175
,,,1.49E-06,0.00634
,,,1.5E-06,0.0063375
,,,1.51E-06,0.006045
,,,1.52E-06,0.00635125
,,,1.53E-06,0.006323125
,,,1.54E-06,0.006274375
,,,1.55E-06,0.006094375
,,,1.56E-06,0.00599125
,,,1.57E-06,0.00645125
,,,1.58E-06,0.006305625
,,,1.59E-06,0.006153125
,,,1.6E-06,0.006169375
,,,1.61E-06,0.006231875
,,,1.62E-06,0.00629
,,,1.63E-06,0.006105
,,,1.64E-06,0.006138125
,,,1.65E-06,0.00621
,,,1.66E-06,0.00616125
,,,1.67E-06,0.0062275
,,,1.68E-06,0.006264375
,,,1.69E-06,0.006390625
,,,1.7E-06,0.00616125
,,,1.71E-06,0.00623
,,,1.72E-06,0.006229375
,,,1.73E-06,0.006174375
,,,1.74E-06,0.0061725
,,,1.75E-06,0.006129375
,,,1.76E-06,0.00613875
,,,1.77E-06,0.006675625
,,,1.78E-06,0.00624125
,,,1.79E-06,0.0063525
,,,1.8E-06,0.0062775
,,,1.81E-06,0.006261875
,,,1.82E-06,0.006484375
,,,1.83E-06,0.006295625
,,,1.84E-06,0.006251875
,,,1.85E-06,0.006240625
,,,1.86E-06,0.006183125
,,,1.87E-06,0.006249375
,,,1.88E-06,0.006238125
,,,1.89E-06,0.006406875
,,,1.9E-06,0.00635125
,,,1.91E-06,0.006346875
,,,1.92E-06,0.00620625
,,,1.93E-06,0.006074375
,,,1.94E-06,0.006090625
,,,1.95E-06,0.006368125
,,,1.96E-06,0.006083125
,,,1.97E-06,0.006185
,,,1.98E-06,0.006373125
,,,1.99E-06,0.006453125
,,,2E-06,0.006165
,,,2.01E-06,0.0060225
,,,2.02E-06,0.00625125
,,,2.03E-06,0.00627
,,,2.04E-06,0.006254375
,,,2.05E-06,0.00637375
,,,2.06E-06,0.006389375
,,,2.07E-06,0.006326875
,,,2.08E-06,0.006403125
,,,2.09E-06,0.00617
,,,2.1E-06,0.00651
,,,2.11E-06,0.006299375
,,,2.12E-06,0.0062775
,,,2.13E-06,0.006320625
,,,2.14E-06,0.0061675
,,,2.15E-06,0.006281875
,,,2.16E-06,0.006149375
,,,2.17E-06,0.006369375
,,,2.18E-06,0.0063325
,,,2.19E-06,0.006408125
,,,2.2E-06,0.00636375
,,,2.21E-06,0.00600875
,,,2.22E-06,0.006216875
,,,2.23E-06,0.006174375
,,,2.24E-06,0.006225625
,,,2.25E-06,0.006114375
,,,2.26E-06,0.006276875
,,,2.27E-06,0.006086875
,,,2.28E-06,0.006070625
,,,2.29E-06,0.00619375
,,,2.3E-06,0.006138125
,,,2.31E-06,0.006403125
,,,2.32E-06,0.006290625
,,,2.33E-06,0.006288125
,,,2.34E-06,0.0065125
,,,2.35E-06,0.006193125
,,,2.36E-06,0.00618375
,,,2.37E-06,0.006163125
,,,2.38E-06,0.006196875
,,,2.39E-06,0.00622875
,,,2.4E-06,0.006263125
,,,2.41E-06,0.006219375
,,,2.42E-06,0.006100625
,,,2.43E-06,0.006146875
,,,2.44E-06,0.0061775
,,,2.45E-06,0.00628125
,,,2.46E-06,0.00619125
,,,2.47E-06,0.006270625
,,,2.48E-06,0.006245625
,,,2.49E-06,0.006145625
,,,2.5E-06,0.00633
,,,2.51E-06,0.00613125
,,,2.52E-06,0.006293125
,,,2.53E-06,0.00634
,,,2.54E-06,0.00628125
,,,2.55E-06,0.00623875
,,,2.56E-06,0.006494375
,,,2.57E-06,0.006303125
,,,2.58E-06,0.00628375
,,,2.59E-06,0.0061125
,,,2.6E-06,0.006231875
,,,2.61E-06,0.006209375
,,,2.62E-06,0.00614625
,,,2.63E-06,0.006036875
,,,2.64E-06,0.00621625
,,,2.65E-06,0.00639375
,,,2.66E-06,0.006090625
,,,2.67E-06,0.00621625
,,,2.68E-06,0.005996875
,,,2.69E-06,0.006050625
,,,2.7E-06,0.006048125
,,,2.71E-06,0.00629125
,,,2.72E-06,0.006079375
,,,2.73E-06,0.00645125
,,,2.74E-06,0.006246875
,,,2.75E-06,0.006484375
,,,2.76E-06,0.005964375
,,,2.77E-06,0.006285
,,,2.78E-06,0.0062025
,,,2.79E-06,0.006484375
,,,2.8E-06,0.00638875
,,,2.81E-06,0.006611875
,,,2.82E-06,0.0064075
,,,2.83E-06,0.006333125
,,,2.84E-06,0.006180625
,,,2.85E-06,0.00632
,,,2.86E-06,0.006319375
,,,2.87E-06,0.006261875
,,,2.88E-06,0.0064075
,,,2.89E-06,0.006416875
,,,2.9E-06,0.006143125
,,,2.91E-06,0.006055625
,,,2.92E-06,0.00619625
,,,2.93E-06,0.00632
,,,2.94E-06,0.00607125
,,,2.95E-06,0.0062325
,,,2.96E-06,0.00624125
,,,2.97E-06,0.00637125
,,,2.98E-06,0.0063375
,,,2.99E-06,0.006320625
,,,3E-06,0.00626
,,,3.01E-06,0.006301875
,,,3.02E-06,0.006095625
,,,3.03E-06,0.006233125
,,,3.04E-06,0.006174375
,,,3.05E-06,0.00603375
,,,3.06E-06,0.00643
,,,3.07E-06,0.006256875
,,,3.08E-06,0.006134375
,,,3.09E-06,0.00614875
,,,3.1E-06,0.006175625
,,,3.11E-06,0.006183125
,,,3.12E-06,0.00641875
,,,3.13E-06,0.006120625
,,,3.14E-06,0.006354375
,,,3.15E-06,0.006261875
,,,3.16E-06,0.00621875
,,,3.17E-06,0.006450625
,,,3.18E-06,0.00634
,,,3.19E-06,0.006144375
,,,3.2E-06,0.006041875
,,,3.21E-06,0.006030625
,,,3.22E-06,0.006320625
,,,3.23E-06,0.006064375
,,,3.24E-06,0.00605875
,,,3.25E-06,0.0060125
,,,3.26E-06,0.006273125
,,,3.27E-06,0.0061475
,,,3.28E-06,0.00628375
,,,3.29E-06,0.006128125
,,,3.3E-06,0.00616375
,,,3.31E-06,0.006463125
,,,3.32E-06,0.00625125
,,,3.33E-06,0.006189375
,,,3.34E-06,0.006144375
,,,3.35E-06,0.0060225
,,,3.36E-06,0.006006875
,,,3.37E-06,0.0063675
,,,3.38E-06,0.006123125
,,,3.39E-06,0.00638625
,,,3.4E-06,0.006025
,,,3.41E-06,0.006058125
,,,3.42E-06,0.006068125
,,,3.43E-06,0.006141875
,,,3.44E-06,0.006491875
,,,3.45E-06,0.00616875
,,,3.46E-06,0.00622875
,,,3.47E-06,0.006116875
,,,3.48E-06,0.006326875
,,,3.49E-06,0.006075
,,,3.5E-06,0.006131875
,,,3.51E-06,0.006155625
,,,3.52E-06,0.006084375
,,,3.53E-06,0.00631875
,,,3.54E-06,0.006243125
,,,3.55E-06,0.006283125
