data/raw/Final_POL_Test_1/SOP097_Ch2.csv

"Record Length",1000,"Points",-5E-06,0.0220275
"Sample Interval",1E-08,s,-4.99E-06,0.02216875
"Trigger Point",500,"Samples",-4.98E-06,0.022160625
"Trigger Time",0,s,-4.97E-06,0.02192375
"",,,-4.96E-06,0.021900625
"Horizontal Offset",-5E-06,s,-4.95E-06,0.02196
,,,-4.94E-06,0.021968125
,,,-4.93E-06,0.0220975
,,,-4.92E-06,0.02196375
,,,-4.91E-06,0.022063125
,,,-4.9E-06,0.021730625
,,,-4.89E-06,0.022188125
,,,-4.88E-06,0.022260625
,,,-4.87E-06,0.02218625
,,,-4.86E-06,0.02174125
,,,-4.85E-06,0.0217975
,,,-4.84E-06,0.022225
,,,-4.83E-06,0.022184375
,,,-4.82E-06,0.022130625
,,,-4.81E-06,0.021805625
,,,-4.8E-06,0.02217625
,,,-4.79E-06,0.022038125
,,,-4.78E-06,0.022153125
,,,-4.77E-06,0.022068125
,,,-4.76E-06,0.021920625
,,,-4.75E-06,0.022078125
,,,-4.74E-06,0.022024375
,,,-4.73E-06,0.02216125
,,,-4.72E-06,0.022011875
,,,-4.71E-06,0.022010625
,,,-4.7E-06,0.022080625
,,,-4.69E-06,0.0221125
,,,-4.68E-06,0.022050625
,,,-4.67E-06,0.02199125
,,,-4.66E-06,0.0221825
,,,-4.65E-06,0.02197375
,,,-4.64E-06,0.021976875
,,,-4.63E-06,0.02183375
,,,-4.62E-06,0.022058125
,,,-4.61E-06,0.02193625
,,,-4.6E-06,0.0220775
,,,-4.59E-06,0.022224375
,,,-4.58E-06,0.0220125
,,,-4.57E-06,0.02211
,,,-4.56E-06,0.02208875
,,,-4.55E-06,0.02201125
,,,-4.54E-06,0.0220525
,,,-4.53E-06,0.022074375
,,,-4.52E-06,0.0219725
,,,-4.51E-06,0.02185125
,,,-4.5E-06,0.0222375
,,,-4.49E-06,0.022100625
,,,-4.48E-06,0.022015625
,,,-4.47E-06,0.021890625
,,,-4.46E-06,0.022201875
,,,-4.45E-06,0.02203125
,,,-4.44E-06,0.0217775
,,,-4.43E-06,0.02213125
,,,-4.42E-06,0.022190625
,,,-4.41E-06,0.022108125
,,,-4.4E-06,0.0220425
,,,-4.39E-06,0.022146875
,,,-4.38E-06,0.021646875
,,,-4.37E-06,0.021995625
,,,-4.36E-06,0.022138125
,,,-4.35E-06,0.02214125
,,,-4.34E-06,0.022061875
,,,-4.33E-06,0.021963125
,,,-4.32E-06,0.022131875
,,,-4.31E-06,0.02193625
,,,-4.3E-06,0.021983125
,,,-4.29E-06,0.022178125
,,,-4.28E-06,0.022136875
,,,-4.27E-06,0.022144375
,,,-4.26E-06,0.022029375
,,,-4.25E-06,0.021745625
,,,-4.24E-06,0.022245625
,,,-4.23E-06,0.022214375
,,,-4.22E-06,0.022290625
,,,-4.21E-06,0.022200625
,,,-4.2E-06,0.02172
,,,-4.19E-06,0.022173125
,,,-4.18E-06,0.021993125
,,,-4.17E-06,0.0221175
,,,-4.16E-06,0.02197875
,,,-4.15E-06,0.02201
,,,-4.14E-06,0.0219175
,,,-4.13E-06,0.021825625
,,,-4.12E-06,0.022038125
,,,-4.11E-06,0.021833125
,,,-4.1E-06,0.022009375
,,,-4.09E-06,0.022065625
,,,-4.08E-06,0.0221425
,,,-4.07E-06,0.022094375
,,,-4.06E-06,0.0221025
,,,-4.05E-06,0.021955
,,,-4.04E-06,0.022264375
,,,-4.03E-06,0.022124375
,,,-4.02E-06,0.022338125
,,,-4.01E-06,0.02196375
,,,-4E-06,0.022054375
,,,-3.99E-06,0.02200375
,,,-3.98E-06,0.022144375
,,,-3.97E-06,0.02214875
,,,-3.96E-06,0.022131875
,,,-3.95E-06,0.022128125
,,,-3.94E-06,0.0220425
,,,-3.93E-06,0.0223125
,,,-3.92E-06,0.021988125
,,,-3.91E-06,0.022110625
,,,-3.9E-06,0.0218625
,,,-3.89E-06,0.02228375
,,,-3.88E-06,0.0218675
,,,-3.87E-06,0.022066875
,,,-3.86E-06,0.022034375
,,,-3.85E-06,0.02228125
,,,-3.84E-06,0.02207
,,,-3.83E-06,0.022039375
,,,-3.82E-06,0.0219625
,,,-3.81E-06,0.02197875
,,,-3.8E-06,0.0220425
,,,-3.79E-06,0.02227125
,,,-3.78E-06,0.02195125
,,,-3.77E-06,0.022006875
,,,-3.76E-06,0.021965
,,,-3.75E-06,0.02219875
,,,-3.74E-06,0.022101875
,,,-3.73E-06,0.02195875
,,,-3.72E-06,0.021923125
,,,-3.71E-06,0.022190625
,,,-3.7E-06,0.021855
,,,-3.69E-06,0.021985
,,,-3.68E-06,0.02193875
,,,-3.67E-06,0.022218125
,,,-3.66E-06,0.02204375
,,,-3.65E-06,0.0220825
,,,-3.64E-06,0.022209375
,,,-3.63E-06,0.022015625
,,,-3.62E-06,0.02183
,,,-3.61E-06,0.022229375
,,,-3.6E-06,0.02194375
,,,-3.59E-06,0.022138125
,,,-3.58E-06,0.022298125
,,,-3.57E-06,0.021968125
,,,-3.56E-06,0.021991875
,,,-3.55E-06,0.02190375
,,,-3.54E-06,0.022346875
,,,-3.53E-06,0.02195875
,,,-3.52E-06,0.021968125
,,,-3.51E-06,0.021951875
,,,-3.5E-06,0.021996875
,,,-3.49E-06,0.021915625
,,,-3.48E-06,0.02225
,,,-3.47E-06,0.0221475
,,,-3.46E-06,0.02200625
,,,-3.45E-06,0.022125
,,,-3.44E-06,0.02197
,,,-3.43E-06,0.02198875
,,,-3.42E-06,0.022134375
,,,-3.41E-06,0.02166375
,,,-3.4E-06,0.022274375
,,,-3.39E-06,0.02195375
,,,-3.38E-06,0.022126875
,,,-3.37E-06,0.022128125
,,,-3.36E-06,0.0221025
,,,-3.35E-06,0.0220975
,,,-3.34E-06,0.02211
,,,-3.33E-06,0.022203125
,,,-3.32E-06,0.02212875
,,,-3.31E-06,0.02217125
,,,-3.3E-06,0.021876875
,,,-3.29E-06,0.02213125
,,,-3.28E-06,0.022158125
,,,-3.27E-06,0.022095625
,,,-3.26E-06,0.021935625
,,,-3.25E-06,0.021873125
,,,-3.24E-06,0.02223375
,,,-3.23E-06,0.022010625
,,,-3.22E-06,0.022036875
,,,-3.21E-06,0.02237375
,,,-3.2E-06,0.021951875
,,,-3.19E-06,0.022165
,,,-3.18E-06,0.0219375
,,,-3.17E-06,0.022046875
,,,-3.16E-06,0.022104375
,,,-3.15E-06,0.0220125
,,,-3.14E-06,0.02198125
,,,-3.13E-06,0.022016875
,,,-3.12E-06,0.022021875
,,,-3.11E-06,0.02198875
,,,-3.1E-06,0.022045
,,,-3.09E-06,0.0221525
,,,-3.08E-06,0.02199
,,,-3.07E-06,0.022254375
,,,-3.06E-06,0.0218725
,,,-3.05E-06,0.02220125
,,,-3.04E-06,0.0216675
,,,-3.03E-06,0.02173125
,,,-3.02E-06,0.021875625
,,,-3.01E-06,0.022213125
,,,-3E-06,0.022056875
,,,-2.99E-06,0.02216375
,,,-2.98E-06,0.022138125
,,,-2.97E-06,0.022043125
,,,-2.96E-06,0.0220675
,,,-2.95E-06,0.021678125
,,,-2.94E-06,0.02229125
,,,-2.93E-06,0.02224875
,,,-2.92E-06,0.02218
,,,-2.91E-06,0.022304375
,,,-2.9E-06,0.022304375
,,,-2.89E-06,0.02222875
,,,-2.88E-06,0.0222
,,,-2.87E-06,0.0219175
,,,-2.86E-06,0.02204125
,,,-2.85E-06,0.0219875
,,,-2.84E-06,0.022055625
,,,-2.83E-06,0.022
,,,-2.82E-06,0.022058125
,,,-2.81E-06,0.021943125
,,,-2.8E-06,0.022025
,,,-2.79E-06,0.0220625
,,,-2.78E-06,0.022195625
,,,-2.77E-06,0.02225125
,,,-2.76E-06,0.021964375
,,,-2.75E-06,0.02219125
,,,-2.74E-06,0.022095625
,,,-2.73E-06,0.021864375
,,,-2.72E-06,0.02193125
,,,-2.71E-06,0.021911875
,,,-2.7E-06,0.022201875
,,,-2.69E-06,0.022264375
,,,-2.68E-06,0.0221075
,,,-2.67E-06,0.021904375
,,,-2.66E-06,0.0218325
,,,-2.65E-06,0.022
,,,-2.64E-06,0.022183125
,,,-2.63E-06,0.02206375
,,,-2.62E-06,0.022159375
,,,-2.61E-06,0.022079375
,,,-2.6E-06,0.022060625
,,,-2.59E-06,0.021991875
,,,-2.58E-06,0.022008125
,,,-2.57E-06,0.02205375
,,,-2.56E-06,0.022165
,,,-2.55E-06,0.022035
,,,-2.54E-06,0.022235
,,,-2.53E-06,0.022088125
,,,-2.52E-06,0.021930625
,,,-2.51E-06,0.022178125
,,,-2.5E-06,0.022085
,,,-2.49E-06,0.022066875
,,,-2.48E-06,0.022189375
,,,-2.47E-06,0.022359375
,,,-2.46E-06,0.021925
,,,-2.45E-06,0.0219075
,,,-2.44E-06,0.022004375
,,,-2.43E-06,0.02239125
,,,-2.42E-06,0.021915
,,,-2.41E-06,0.0221475
,,,-2.4E-06,0.022095625
,,,-2.39E-06,0.02212
,,,-2.38E-06,0.02201125
,,,-2.37E-06,0.02197875
,,,-2.36E-06,0.02223375
,,,-2.35E-06,0.022044375
,,,-2.34E-06,0.022066875
,,,-2.33E-06,0.022165
,,,-2.32E-06,0.02227125
,,,-2.31E-06,0.0220275
,,,-2.3E-06,0.021893125
,,,-2.29E-06,0.022230625
,,,-2.28E-06,0.02207125
,,,-2.27E-06,0.022181875
,,,-2.26E-06,0.02221
,,,-2.25E-06,0.022183125
,,,-2.24E-06,0.022143125
,,,-2.23E-06,0.021938125
,,,-2.22E-06,0.021955625
,,,-2.21E-06,0.0220075
,,,-2.2E-06,0.021986875
,,,-2.19E-06,0.02226875
,,,-2.18E-06,0.021988125
,,,-2.17E-06,0.022094375
,,,-2.16E-06,0.022076875
,,,-2.15E-06,0.022123125
,,,-2.14E-06,0.021971875
,,,-2.13E-06,0.0220975
,,,-2.12E-06,0.021936875
,,,-2.11E-06,0.022151875
,,,-2.1E-06,0.0223225
,,,-2.09E-06,0.022105
,,,-2.08E-06,0.022114375
,,,-2.07E-06,0.02186875
,,,-2.06E-06,0.021991875
,,,-2.05E-06,0.022088125
,,,-2.04E-06,0.022201875
,,,-2.03E-06,0.02211375
,,,-2.02E-06,0.02220125
,,,-2.01E-06,0.0222225
,,,-2E-06,0.02203
,,,-1.99E-06,0.021985
,,,-1.98E-06,0.022041875
,,,-1.97E-06,0.022041875
,,,-1.96E-06,0.02215
,,,-1.95E-06,0.02201125
,,,-1.94E-06,0.022095
,,,-1.93E-06,0.02218375
,,,-1.92E-06,0.0221725
,,,-1.91E-06,0.02192375
,,,-1.9E-06,0.021944375
,,,-1.89E-06,0.022223125
,,,-1.88E-06,0.022038125
,,,-1.87E-06,0.022110625
,,,-1.86E-06,0.02206875
,,,-1.85E-06,0.022345
,,,-1.84E-06,0.022008125
,,,-1.83E-06,0.022146875
,,,-1.82E-06,0.021988125
,,,-1.81E-06,0.02214125
,,,-1.8E-06,0.02219875
,,,-1.79E-06,0.02205875
,,,-1.78E-06,0.02220875
,,,-1.77E-06,0.022240625
,,,-1.76E-06,0.02205625
,,,-1.75E-06,0.021996875
,,,-1.74E-06,0.022085625
,,,-1.73E-06,0.021891875
,,,-1.72E-06,0.021970625
,,,-1.71E-06,0.021876875
,,,-1.7E-06,0.02215375
,,,-1.69E-06,0.022140625
,,,-1.68E-06,0.021844375
,,,-1.67E-06,0.02193125
,,,-1.66E-06,0.022118125
,,,-1.65E-06,0.022159375
,,,-1.64E-06,0.022065625
,,,-1.63E-06,0.0220075
,,,-1.62E-06,0.022095625
,,,-1.61E-06,0.022053125
,,,-1.6E-06,0.02198375
,,,-1.59E-06,0.02221375
,,,-1.58E-06,0.022056875
,,,-1.57E-06,0.0220225
,,,-1.56E-06,0.022066875
,,,-1.55E-06,0.022216875
,,,-1.54E-06,0.0222125
,,,-1.53E-06,0.022065625
,,,-1.52E-06,0.021835625
,,,-1.51E-06,0.022095625
,,,-1.5E-06,0.022250625
,,,-1.49E-06,0.022040625
,,,-1.48E-06,0.02191125
,,,-1.47E-06,0.0221675
,,,-1.46E-06,0.022196875
,,,-1.45E-06,0.021710625
,,,-1.44E-06,0.02216625
,,,-1.43E-06,0.021864375
,,,-1.42E-06,0.021995625
,,,-1.41E-06,0.02187
,,,-1.4E-06,0.022113125
,,,-1.39E-06,0.022050625
,,,-1.38E-06,0.021979375
,,,-1.37E-06,0.0222275
,,,-1.36E-06,0.022074375
,,,-1.35E-06,0.0221975
,,,-1.34E-06,0.022160625
,,,-1.33E-06,0.022126875
,,,-1.32E-06,0.0221175
,,,-1.31E-06,0.022056875
,,,-1.3E-06,0.022093125
,,,-1.29E-06,0.02203375
,,,-1.28E-06,0.021911875
,,,-1.27E-06,0.022239375
,,,-1.26E-06,0.02215875
,,,-1.25E-06,0.02213625
,,,-1.24E-06,0.02208
,,,-1.23E-06,0.022034375
,,,-1.22E-06,0.02220625
,,,-1.21E-06,0.022203125
,,,-1.2E-06,0.021911875
,,,-1.19E-06,0.022016875
,,,-1.18E-06,0.022075625
,,,-1.17E-06,0.021986875
,,,-1.16E-06,0.021881875
,,,-1.15E-06,0.022046875
,,,-1.14E-06,0.022095
,,,-1.13E-06,0.022323125
,,,-1.12E-06,0.021930625
,,,-1.11E-06,0.02207
,,,-1.1E-06,0.022225625
,,,-1.09E-06,0.022216875
,,,-1.08E-06,0.022089375
,,,-1.07E-06,0.022300625
,,,-1.06E-06,0.0220525
,,,-1.05E-06,0.02224125
,,,-1.04E-06,0.022233125
,,,-1.03E-06,0.022159375
,,,-1.02E-06,0.022199375
,,,-1.01E-06,0.022171875
,,,-1E-06,0.022111875
,,,-9.9E-07,0.022041875
,,,-9.8E-07,0.022318125
,,,-9.7E-07,0.02183125
,,,-9.6E-07,0.0223425
,,,-9.5E-07,0.021974375
,,,-9.4E-07,0.022259375
,,,-9.3E-07,0.02215125
,,,-9.2E-07,0.022075
,,,-9.1E-07,0.02197
,,,-9E-07,0.022121875
,,,-8.9E-07,0.022041875
,,,-8.8E-07,0.021875625
,,,-8.7E-07,0.0221425
,,,-8.6E-07,0.022258125
,,,-8.5E-07,0.022171875
,,,-8.4E-07,0.0222425
,,,-8.3E-07,0.02210125
,,,-8.2E-07,0.022128125
,,,-8.1E-07,0.022105
,,,-8E-07,0.022188125
,,,-7.9E-07,0.02203625
,,,-7.8E-07,0.022215
,,,-7.7E-07,0.02201625
,,,-7.6E-07,0.022301875
,,,-7.5E-07,0.022074375
,,,-7.4E-07,0.02199125
,,,-7.3E-07,0.02229375
,,,-7.2E-07,0.0219075
,,,-7.1E-07,0.021861875
,,,-7E-07,0.022100625
,,,-6.9E-07,0.022118125
,,,-6.8E-07,0.022164375
,,,-6.7E-07,0.022001875
,,,-6.6E-07,0.022015
,,,-6.5E-07,0.022130625
,,,-6.4E-07,0.022014375
,,,-6.3E-07,0.022005625
,,,-6.2E-07,0.021888125
,,,-6.1E-07,0.022216875
,,,-6E-07,0.021965625
,,,-5.9E-07,0.021811875
,,,-5.8E-07,0.022040625
,,,-5.7E-07,0.0220725
,,,-5.6E-07,0.02224125
,,,-5.5E-07,0.022148125
,,,-5.4E-07,0.021983125
,,,-5.3E-07,0.022358125
,,,-5.2E-07,0.022249375
,,,-5.1E-07,0.02211125
,,,-5E-07,0.022043125
,,,-4.9E-07,0.02221375
,,,-4.8E-07,0.02202625
,,,-4.7E-07,0.021793125
,,,-4.6E-07,0.0222475
,,,-4.5E-07,0.02210125
,,,-4.4E-07,0.021979375
,,,-4.3E-07,0.021720625
,,,-4.2E-07,0.021818125
,,,-4.1E-07,0.022130625
,,,-4E-07,0.022000625
,,,-3.9E-07,0.02207125
,,,-3.8E-07,0.021931875
,,,-3.7E-07,0.022023125
,,,-3.6E-07,0.021931875
,,,-3.5E-07,0.0220125
,,,-3.4E-07,0.02186375
,,,-3.3E-07,0.02202125
,,,-3.2E-07,0.022093125
,,,-3.1E-07,0.02196
,,,-3E-07,0.022074375
,,,-2.9E-07,0.021958125
,,,-2.8E-07,0.021996875
,,,-2.7E-07,0.0222975
,,,-2.6E-07,0.022178125
,,,-2.5E-07,0.022071875
,,,-2.4E-07,0.021925625
,,,-2.3E-07,0.022310625
,,,-2.2E-07,0.0220175
,,,-2.1E-07,0.022108125
,,,-2E-07,0.021944375
,,,-1.9E-07,0.022139375
,,,-1.8E-07,0.02205625
,,,-1.7E-07,0.022076875
,,,-1.6E-07,0.022305
,,,-1.5E-07,0.021855625
,,,-1.4E-07,0.0218425
,,,-1.3E-07,0.022079375
,,,-1.2E-07,0.02200125
,,,-1.1E-07,0.022071875
,,,-1E-07,0.022075625
,,,-9E-08,0.022184375
,,,-8E-08,0.022273125
,,,-7E-08,0.0219425
,,,-6E-08,0.02206625
,,,-5E-08,0.022409375
,,,-4E-08,0.023211875
,,,-3E-08,0.021921875
,,,-2E-08,0.02022375
,,,-1E-08,0.019676875
,,,0,0.0214175
,,,1E-08,0.024388125
,,,2E-08,0.025101875
,,,3E-08,0.02335625
,,,4E-08,0.021158125
,,,5E-08,0.019623125
,,,6E-08,0.020161875
,,,7E-08,0.021460625
,,,8E-08,0.02343375
,,,9E-08,0.023545625
,,,1E-07,0.023384375
,,,1.1E-07,0.021995625
,,,1.2E-07,0.021164375
,,,1.3E-07,0.0210925
,,,1.4E-07,0.021695
,,,1.5E-07,0.02220625
,,,1.6E-07,0.02228875
,,,1.7E-07,0.02209125
,,,1.8E-07,0.022188125
,,,1.9E-07,0.022248125
,,,2E-07,0.02202
,,,2.1E-07,0.021860625
,,,2.2E-07,0.021736875
,,,2.3E-07,0.022101875
,,,2.4E-07,0.022135625
,,,2.5E-07,0.0219875
,,,2.6E-07,0.022015
,,,2.7E-07,0.022240625
,,,2.8E-07,0.022108125
,,,2.9E-07,0.0218525
,,,3E-07,0.02194625
,,,3.1E-07,0.02198875
,,,3.2E-07,0.02193
,,,3.3E-07,0.021985
,,,3.4E-07,0.022005
,,,3.5E-07,0.021961875
,,,3.6E-07,0.02226375
,,,3.7E-07,0.022295
,,,3.8E-07,0.022118125
,,,3.9E-07,0.02200375
,,,4E-07,0.022079375
,,,4.1E-07,0.022048125
,,,4.2E-07,0.02212
,,,4.3E-07,0.021955625
,,,4.4E-07,0.022060625
,,,4.5E-07,0.02185375
,,,4.6E-07,0.021898125
,,,4.7E-07,0.022138125
,,,4.8E-07,0.02218125
,,,4.9E-07,0.021895
,,,5E-07,0.02216125
,,,5.1E-07,0.02202875
,,,5.2E-07,0.02223
,,,5.3E-07,0.02206875
,,,5.4E-07,0.022089375
,,,5.5E-07,0.022111875
,,,5.6E-07,0.022155
,,,5.7E-07,0.022144375
,,,5.8E-07,0.022025
,,,5.9E-07,0.02195125
,,,6E-07,0.021976875
,,,6.1E-07,0.022080625
,,,6.2E-07,0.022020625
,,,6.3E-07,0.02209375
,,,6.4E-07,0.021935
,,,6.5E-07,0.0222675
,,,6.6E-07,0.02196125
,,,6.7E-07,0.021959375
,,,6.8E-07,0.02211625
,,,6.9E-07,0.022153125
,,,7E-07,0.022040625
,,,7.1E-07,0.022125625
,,,7.2E-07,0.022099375
,,,7.3E-07,0.022045625
,,,7.4E-07,0.022121875
,,,7.5E-07,0.02194375
,,,7.6E-07,0.02207
,,,7.7E-07,0.0219025
,,,7.8E-07,0.021955
,,,7.9E-07,0.022071875
,,,8E-07,0.0220175
,,,8.1E-07,0.02215375
,,,8.2E-07,0.021966875
,,,8.3E-07,0.021910625
,,,8.4E-07,0.022139375
,,,8.5E-07,0.0222525
,,,8.6E-07,0.0218625
,,,8.7E-07,0.021860625
,,,8.8E-07,0.0220875
,,,8.9E-07,0.02194875
,,,9E-07,0.021975625
,,,9.1E-07,0.022146875
,,,9.2E-07,0.021785
,,,9.3E-07,0.021964375
,,,9.4E-07,0.02246875
,,,9.5E-07,0.021968125
,,,9.6E-07,0.02183375
,,,9.7E-07,0.022246875
,,,9.8E-07,0.0219775
,,,9.9E-07,0.02214375
,,,1E-06,0.02211
,,,1.01E-06,0.0220525
,,,1.02E-06,0.02174
,,,1.03E-06,0.022110625
,,,1.04E-06,0.022185
,,,1.05E-06,0.022135
,,,1.06E-06,0.022156875
,,,1.07E-06,0.02218125
,,,1.08E-06,0.0220225
,,,1.09E-06,0.02218125
,,,1.1E-06,0.021913125
,,,1.11E-06,0.021986875
,,,1.12E-06,0.021975625
,,,1.13E-06,0.02209875
,,,1.14E-06,0.0218725
,,,1.15E-06,0.022131875
,,,1.16E-06,0.0222325
,,,1.17E-06,0.0219275
,,,1.18E-06,0.0218925
,,,1.19E-06,0.022203125
,,,1.2E-06,0.021818125
,,,1.21E-06,0.02203375
,,,1.22E-06,0.021914375
,,,1.23E-06,0.022146875
,,,1.24E-06,0.022140625
,,,1.25E-06,0.021968125
,,,1.26E-06,0.02196625
,,,1.27E-06,0.02193375
,,,1.28E-06,0.0222375
,,,1.29E-06,0.02217375
,,,1.3E-06,0.02212
,,,1.31E-06,0.022119375
,,,1.32E-06,0.0219975
,,,1.33E-06,0.02201
,,,1.34E-06,0.0220825
,,,1.35E-06,0.02218625
,,,1.36E-06,0.022220625
,,,1.37E-06,0.02189625
,,,1.38E-06,0.0218325
,,,1.39E-06,0.0221475
,,,1.4E-06,0.022095625
,,,1.41E-06,0.02229625
,,,1.42E-06,0.022235
,,,1.43E-06,0.021901875
,,,1.44E-06,0.0220625
,,,1.45E-06,0.02191
,,,1.46E-06,0.022191875
,,,1.47E-06,0.02190875
,,,1.48E-06,0.021975
,,,1.49E-06,0.02187375
,,,1.5E-06,0.022230625
,,,1.51E-06,0.02188375
,,,1.52E-06,0.022149375
,,,1.53E-06,0.02199125
,,,1.54E-06,0.02234375
,,,1.55E-06,0.02199
,,,1.56E-06,0.022249375
,,,1.57E-06,0.022229375
,,,1.58E-06,0.022175
,,,1.59E-06,0.022068125
,,,1.6E-06,0.022055
,,,1.61E-06,0.02229875
,,,1.62E-06,0.02221
,,,1.63E-06,0.02210125
,,,1.64E-06,0.022050625
,,,1.65E-06,0.022216875
,,,1.66E-06,0.022075625
,,,1.67E-06,0.021948125
,,,1.68E-06,0.0220125
,,,1.69E-06,0.021968125
,,,1.7E-06,0.022018125
,,,1.71E-06,0.022275
,,,1.72E-06,0.022038125
,,,1.73E-06,0.0219525
,,,1.74E-06,0.022104375
,,,1.75E-06,0.0222025
,,,1.76E-06,0.021991875
,,,1.77E-06,0.021794375
,,,1.78E-06,0.02224125
,,,1.79E-06,0.022024375
,,,1.8E-06,0.0220225
,,,1.81E-06,0.022115
,,,1.82E-06,0.022093125
,,,1.83E-06,0.021914375
,,,1.84E-06,0.02202625
,,,1.85E-06,0.022235625
,,,1.86E-06,0.02193625
,,,1.87E-06,0.021985625
,,,1.88E-06,0.02179625
,,,1.89E-06,0.022264375
,,,1.9E-06,0.022188125
,,,1.91E-06,0.022106875
,,,1.92E-06,0.022143125
,,,1.93E-06,0.022018125
,,,1.94E-06,0.021945
,,,1.95E-06,0.02210375
,,,1.96E-06,0.022125625
,,,1.97E-06,0.022016875
,,,1.98E-06,0.0219875
,,,1.99E-06,0.02213375
,,,2E-06,0.0219825
,,,2.01E-06,0.022175
,,,2.02E-06,0.0221325
,,,2.03E-06,0.02209625
,,,2.04E-06,0.022131875
,,,2.05E-06,0.022031875
,,,2.06E-06,0.021920625
,,,2.07E-06,0.022099375
,,,2.08E-06,0.022138125
,,,2.09E-06,0.0224225
,,,2.1E-06,0.02208375
,,,2.11E-06,0.022115
,,,2.12E-06,0.022204375
,,,2.13E-06,0.022304375
,,,2.14E-06,0.022354375
,,,2.15E-06,0.022501875
,,,2.16E-06,0.0221025
,,,2.17E-06,0.02206375
,,,2.18E-06,0.022124375
,,,2.19E-06,0.021764375
,,,2.2E-06,0.02211125
,,,2.21E-06,0.022135625
,,,2.22E-06,0.02226375
,,,2.23E-06,0.022344375
,,,2.24E-06,0.02219
,,,2.25E-06,0.021915
,,,2.26E-06,0.02195375
,,,2.27E-06,0.02212125
,,,2.28E-06,0.022095
,,,2.29E-06,0.02200875
,,,2.3E-06,0.021908125
,,,2.31E-06,0.0218575
,,,2.32E-06,0.021893125
,,,2.33E-06,0.022230625
,,,2.34E-06,0.022029375
,,,2.35E-06,0.02215
,,,2.36E-06,0.022148125
,,,2.37E-06,0.021948125
,,,2.38E-06,0.0219525
,,,2.39E-06,0.021933125
,,,2.4E-06,0.022048125
,,,2.41E-06,0.0220975
,,,2.42E-06,0.022103125
,,,2.43E-06,0.0218425
,,,2.44E-06,0.022023125
,,,2.45E-06,0.021943125
,,,2.46E-06,0.022255625
,,,2.47E-06,0.022091875
,,,2.48E-06,0.02219875
,,,2.49E-06,0.02208125
,,,2.5E-06,0.022046875
,,,2.51E-06,0.021963125
,,,2.52E-06,0.022168125
,,,2.53E-06,0.02207625
,,,2.54E-06,0.021670625
,,,2.55E-06,0.022048125
,,,2.56E-06,0.022191875
,,,2.57E-06,0.02196
,,,2.58E-06,0.021865
,,,2.59E-06,0.022398125
,,,2.6E-06,0.022128125
,,,2.61E-06,0.022233125
,,,2.62E-06,0.0220925
,,,2.63E-06,0.021933125
,,,2.64E-06,0.022118125
,,,2.65E-06,0.02201875
,,,2.66E-06,0.02190125
,,,2.67E-06,0.02214625
,,,2.68E-06,0.022099375
,,,2.69E-06,0.021863125
,,,2.7E-06,0.02209
,,,2.71E-06,0.021941875
,,,2.72E-06,0.022385
,,,2.73E-06,0.022120625
,,,2.74E-06,0.021979375
,,,2.75E-06,0.02201375
,,,2.76E-06,0.022149375
,,,2.77E-06,0.022155625
,,,2.78E-06,0.0221325
,,,2.79E-06,0.022001875
,,,2.8E-06,0.02223375
,,,2.81E-06,0.0223175
,,,2.82E-06,0.022160625
,,,2.83E-06,0.02195875
,,,2.84E-06,0.02193625
,,,2.85E-06,0.022021875
,,,2.86E-06,0.02207875
,,,2.87E-06,0.021933125
,,,2.88E-06,0.02224375
,,,2.89E-06,0.02204625
,,,2.9E-06,0.021980625
,,,2.91E-06,0.022165
,,,2.92E-06,0.02202125
,,,2.93E-06,0.022139375
,,,2.94E-06,0.022171875
,,,2.95E-06,0.0221175
,,,2.96E-06,0.0221925
,,,2.97E-06,0.0222475
,,,2.98E-06,0.02204125
,,,2.99E-06,0.022295625
,,,3E-06,0.022230625
,,,3.01E-06,0.022011875
,,,3.02E-06,0.02187625
,,,3.03E-06,0.02232
,,,3.04E-06,0.022128125
,,,3.05E-06,0.022035625
,,,3.06E-06,0.0218825
,,,3.07E-06,0.0222625
,,,3.08E-06,0.0221625
,,,3.09E-06,0.022073125
,,,3.1E-06,0.022108125
,,,3.11E-06,0.02220875
,,,3.12E-06,0.0218375
,,,3.13E-06,0.02228125
,,,3.14E-06,0.02212
,,,3.15E-06,0.022176875
,,,3.16E-06,0.022080625
,,,3.17E-06,0.022174375
,,,3.18E-06,0.022036875
,,,3.19E-06,0.022003125
,,,3.2E-06,0.022045625
,,,3.21E-06,0.022013125
,,,3.22E-06,0.02197375
,,,3.23E-06,0.021951875
,,,3.24E-06,0.021934375
,,,3.25E-06,0.022195
,,,3.26E-06,0.021978125
,,,3.27E-06,0.021976875
,,,3.28E-06,0.0221675
,,,3.29E-06,0.02194375
,,,3.3E-06,0.022055625
,,,3.31E-06,0.02200875
,,,3.32E-06,0.02189375
,,,3.33E-06,0.0220875
,,,3.34E-06,0.021941875
,,,3.35E-06,0.021978125
,,,3.36E-06,0.022139375
,,,3.37E-06,0.022236875
,,,3.38E-06,0.022085625
,,,3.39E-06,0.0220125
,,,3.4E-06,0.0220475
,,,3.41E-06,0.0221025
,,,3.42E-06,0.02212125
,,,3.43E-06,0.02198125
,,,3.44E-06,0.02172
,,,3.45E-06,0.02187875
,,,3.46E-06,0.02218
,,,3.47E-06,0.022135625
,,,3.48E-06,0.022116875
,,,3.49E-06,0.02190875
,,,3.5E-06,0.021980625
,,,3.51E-06,0.02186625
,,,3.52E-06,0.022263125
,,,3.53E-06,0.0220875
