data/raw/Final_POL_Test_1/SOP025_Ch1.csv

"Record Length",1000,"Points",-5E-06,0.00466
"Sample Interval",1E-08,s,-4.99E-06,0.004490625
"Trigger Point",500,"Samples",-4.98E-06,0.004641875
"Trigger Time",0,s,-4.97E-06,0.004520625
"",,,-4.96E-06,0.004685
"Horizontal Offset",-5E-06,s,-4.95E-06,0.00458875
,,,-4.94E-06,0.004556875
,,,-4.93E-06,0.0046225
,,,-4.92E-06,0.00447
,,,-4.91E-06,0.0045475
,,,-4.9E-06,0.004503125
,,,-4.89E-06,0.00458
,,,-4.88E-06,0.0044875
,,,-4.87E-06,0.004800625
,,,-4.86E-06,0.00441375
,,,-4.85E-06,0.004814375
,,,-4.84E-06,0.004524375
,,,-4.83E-06,0.00450375
,,,-4.82E-06,0.00454
,,,-4.81E-06,0.004646875
,,,-4.8E-06,0.00473625
,,,-4.79E-06,0.004731875
,,,-4.78E-06,0.004518125
,,,-4.77E-06,0.004496875
,,,-4.76E-06,0.004764375
,,,-4.75E-06,0.004464375
,,,-4.74E-06,0.004408125
,,,-4.73E-06,0.004758125
,,,-4.72E-06,0.004813125
,,,-4.71E-06,0.004503125
,,,-4.7E-06,0.004523125
,,,-4.69E-06,0.00442125
,,,-4.68E-06,0.00456875
,,,-4.67E-06,0.004495625
,,,-4.66E-06,0.0047625
,,,-4.65E-06,0.004494375
,,,-4.64E-06,0.00466625
,,,-4.63E-06,0.004785625
,,,-4.62E-06,0.00439625
,,,-4.61E-06,0.00459375
,,,-4.6E-06,0.00458625
,,,-4.59E-06,0.004500625
,,,-4.58E-06,0.004900625
,,,-4.57E-06,0.00456625
,,,-4.56E-06,0.00458125
,,,-4.55E-06,0.00444875
,,,-4.54E-06,0.004794375
,,,-4.53E-06,0.00442875
,,,-4.52E-06,0.0046825
,,,-4.51E-06,0.0044475
,,,-4.5E-06,0.0044
,,,-4.49E-06,0.004433125
,,,-4.48E-06,0.004504375
,,,-4.47E-06,0.00482
,,,-4.46E-06,0.004648125
,,,-4.45E-06,0.004518125
,,,-4.44E-06,0.004611875
,,,-4.43E-06,0.004673125
,,,-4.42E-06,0.0048425
,,,-4.41E-06,0.004535625
,,,-4.4E-06,0.004570625
,,,-4.39E-06,0.00463625
,,,-4.38E-06,0.00466375
,,,-4.37E-06,0.004539375
,,,-4.36E-06,0.00443625
,,,-4.35E-06,0.0042325
,,,-4.34E-06,0.004640625
,,,-4.33E-06,0.004435
,,,-4.32E-06,0.00453
,,,-4.31E-06,0.004504375
,,,-4.3E-06,0.00467125
,,,-4.29E-06,0.00475875
,,,-4.28E-06,0.004453125
,,,-4.27E-06,0.004700625
,,,-4.26E-06,0.004503125
,,,-4.25E-06,0.004476875
,,,-4.24E-06,0.0044475
,,,-4.23E-06,0.00454125
,,,-4.22E-06,0.004395625
,,,-4.21E-06,0.004619375
,,,-4.2E-06,0.00463625
,,,-4.19E-06,0.00490625
,,,-4.18E-06,0.00444875
,,,-4.17E-06,0.004369375
,,,-4.16E-06,0.004716875
,,,-4.15E-06,0.004665
,,,-4.14E-06,0.00443125
,,,-4.13E-06,0.004701875
,,,-4.12E-06,0.00437875
,,,-4.11E-06,0.004810625
,,,-4.1E-06,0.004561875
,,,-4.09E-06,0.0044975
,,,-4.08E-06,0.004270625
,,,-4.07E-06,0.004735
,,,-4.06E-06,0.00469625
,,,-4.05E-06,0.004406875
,,,-4.04E-06,0.00463875
,,,-4.03E-06,0.004441875
,,,-4.02E-06,0.004514375
,,,-4.01E-06,0.00449375
,,,-4E-06,0.004186875
,,,-3.99E-06,0.00466875
,,,-3.98E-06,0.004828125
,,,-3.97E-06,0.00446125
,,,-3.96E-06,0.004728125
,,,-3.95E-06,0.004581875
,,,-3.94E-06,0.004606875
,,,-3.93E-06,0.0048275
,,,-3.92E-06,0.004469375
,,,-3.91E-06,0.0043425
,,,-3.9E-06,0.004578125
,,,-3.89E-06,0.004485625
,,,-3.88E-06,0.004719375
,,,-3.87E-06,0.004603125
,,,-3.86E-06,0.00474375
,,,-3.85E-06,0.0043925
,,,-3.84E-06,0.0046975
,,,-3.83E-06,0.00458
,,,-3.82E-06,0.004426875
,,,-3.81E-06,0.004495
,,,-3.8E-06,0.004620625
,,,-3.79E-06,0.004448125
,,,-3.78E-06,0.004615625
,,,-3.77E-06,0.00457125
,,,-3.76E-06,0.004294375
,,,-3.75E-06,0.00431375
,,,-3.74E-06,0.004425
,,,-3.73E-06,0.0046675
,,,-3.72E-06,0.004634375
,,,-3.71E-06,0.00449125
,,,-3.7E-06,0.004729375
,,,-3.69E-06,0.00464875
,,,-3.68E-06,0.004603125
,,,-3.67E-06,0.004523125
,,,-3.66E-06,0.004525625
,,,-3.65E-06,0.004603125
,,,-3.64E-06,0.004596875
,,,-3.63E-06,0.00456375
,,,-3.62E-06,0.004445625
,,,-3.61E-06,0.004575625
,,,-3.6E-06,0.00453625
,,,-3.59E-06,0.00458
,,,-3.58E-06,0.004585
,,,-3.57E-06,0.00469
,,,-3.56E-06,0.0045925
,,,-3.55E-06,0.004521875
,,,-3.54E-06,0.004744375
,,,-3.53E-06,0.00467875
,,,-3.52E-06,0.0043575
,,,-3.51E-06,0.0046275
,,,-3.5E-06,0.0044225
,,,-3.49E-06,0.004575625
,,,-3.48E-06,0.004489375
,,,-3.47E-06,0.004825
,,,-3.46E-06,0.00455375
,,,-3.45E-06,0.004828125
,,,-3.44E-06,0.004710625
,,,-3.43E-06,0.0045025
,,,-3.42E-06,0.004539375
,,,-3.41E-06,0.004466875
,,,-3.4E-06,0.004598125
,,,-3.39E-06,0.00466625
,,,-3.38E-06,0.004550625
,,,-3.37E-06,0.004720625
,,,-3.36E-06,0.00468125
,,,-3.35E-06,0.004661875
,,,-3.34E-06,0.00456875
,,,-3.33E-06,0.004565625
,,,-3.32E-06,0.00437875
,,,-3.31E-06,0.004555
,,,-3.3E-06,0.0045875
,,,-3.29E-06,0.00436375
,,,-3.28E-06,0.004355625
,,,-3.27E-06,0.004654375
,,,-3.26E-06,0.0046
,,,-3.25E-06,0.0044375
,,,-3.24E-06,0.00436125
,,,-3.23E-06,0.00435875
,,,-3.22E-06,0.00465125
,,,-3.21E-06,0.004675625
,,,-3.2E-06,0.00465
,,,-3.19E-06,0.00444375
,,,-3.18E-06,0.004380625
,,,-3.17E-06,0.004733125
,,,-3.16E-06,0.004531875
,,,-3.15E-06,0.004661875
,,,-3.14E-06,0.00465375
,,,-3.13E-06,0.004470625
,,,-3.12E-06,0.00470125
,,,-3.11E-06,0.004443125
,,,-3.1E-06,0.00463875
,,,-3.09E-06,0.004510625
,,,-3.08E-06,0.004701875
,,,-3.07E-06,0.004585625
,,,-3.06E-06,0.004718125
,,,-3.05E-06,0.00454625
,,,-3.04E-06,0.004638125
,,,-3.03E-06,0.004604375
,,,-3.02E-06,0.00455625
,,,-3.01E-06,0.004594375
,,,-3E-06,0.004375625
,,,-2.99E-06,0.004433125
,,,-2.98E-06,0.0045675
,,,-2.97E-06,0.004705625
,,,-2.96E-06,0.00475125
,,,-2.95E-06,0.004833125
,,,-2.94E-06,0.004251875
,,,-2.93E-06,0.0046925
,,,-2.92E-06,0.004535
,,,-2.91E-06,0.004288125
,,,-2.9E-06,0.004499375
,,,-2.89E-06,0.00464
,,,-2.88E-06,0.00466875
,,,-2.87E-06,0.004674375
,,,-2.86E-06,0.004379375
,,,-2.85E-06,0.00471
,,,-2.84E-06,0.00450625
,,,-2.83E-06,0.00433
,,,-2.82E-06,0.004608125
,,,-2.81E-06,0.00466625
,,,-2.8E-06,0.00460375
,,,-2.79E-06,0.004699375
,,,-2.78E-06,0.004715
,,,-2.77E-06,0.004883125
,,,-2.76E-06,0.00465
,,,-2.75E-06,0.004730625
,,,-2.74E-06,0.0046125
,,,-2.73E-06,0.0045975
,,,-2.72E-06,0.00468875
,,,-2.71E-06,0.004695625
,,,-2.7E-06,0.004603125
,,,-2.69E-06,0.004376875
,,,-2.68E-06,0.0043575
,,,-2.67E-06,0.0048175
,,,-2.66E-06,0.0045625
,,,-2.65E-06,0.0046575
,,,-2.64E-06,0.004471875
,,,-2.63E-06,0.004548125
,,,-2.62E-06,0.00448125
,,,-2.61E-06,0.004508125
,,,-2.6E-06,0.00456875
,,,-2.59E-06,0.004616875
,,,-2.58E-06,0.004581875
,,,-2.57E-06,0.0045625
,,,-2.56E-06,0.00465375
,,,-2.55E-06,0.004635
,,,-2.54E-06,0.004701875
,,,-2.53E-06,0.004733125
,,,-2.52E-06,0.00453375
,,,-2.51E-06,0.004586875
,,,-2.5E-06,0.004610625
,,,-2.49E-06,0.004474375
,,,-2.48E-06,0.004871875
,,,-2.47E-06,0.004479375
,,,-2.46E-06,0.004456875
,,,-2.45E-06,0.004625
,,,-2.44E-06,0.00454625
,,,-2.43E-06,0.004375625
,,,-2.42E-06,0.004503125
,,,-2.41E-06,0.004414375
,,,-2.4E-06,0.004533125
,,,-2.39E-06,0.0048525
,,,-2.38E-06,0.00450875
,,,-2.37E-06,0.0043925
,,,-2.36E-06,0.004669375
,,,-2.35E-06,0.004506875
,,,-2.34E-06,0.00461625
,,,-2.33E-06,0.00457125
,,,-2.32E-06,0.004685625
,,,-2.31E-06,0.004603125
,,,-2.3E-06,0.0045875
,,,-2.29E-06,0.004891875
,,,-2.28E-06,0.00481125
,,,-2.27E-06,0.004621875
,,,-2.26E-06,0.0045375
,,,-2.25E-06,0.0043075
,,,-2.24E-06,0.00442625
,,,-2.23E-06,0.004638125
,,,-2.22E-06,0.0042925
,,,-2.21E-06,0.004451875
,,,-2.2E-06,0.004718125
,,,-2.19E-06,0.004821875
,,,-2.18E-06,0.004311875
,,,-2.17E-06,0.004703125
,,,-2.16E-06,0.00441625
,,,-2.15E-06,0.00448
,,,-2.14E-06,0.004448125
,,,-2.13E-06,0.004530625
,,,-2.12E-06,0.004604375
,,,-2.11E-06,0.004595
,,,-2.1E-06,0.00435125
,,,-2.09E-06,0.00453875
,,,-2.08E-06,0.00461375
,,,-2.07E-06,0.004854375
,,,-2.06E-06,0.00467625
,,,-2.05E-06,0.004415
,,,-2.04E-06,0.004599375
,,,-2.03E-06,0.004564375
,,,-2.02E-06,0.00441625
,,,-2.01E-06,0.004610625
,,,-2E-06,0.004603125
,,,-1.99E-06,0.004596875
,,,-1.98E-06,0.004525625
,,,-1.97E-06,0.004456875
,,,-1.96E-06,0.004604375
,,,-1.95E-06,0.004745
,,,-1.94E-06,0.00442625
,,,-1.93E-06,0.0045675
,,,-1.92E-06,0.00450125
,,,-1.91E-06,0.0044825
,,,-1.9E-06,0.004714375
,,,-1.89E-06,0.004415625
,,,-1.88E-06,0.00452
,,,-1.87E-06,0.0045
,,,-1.86E-06,0.00439625
,,,-1.85E-06,0.00466125
,,,-1.84E-06,0.004558125
,,,-1.83E-06,0.0047825
,,,-1.82E-06,0.004560625
,,,-1.81E-06,0.00463
,,,-1.8E-06,0.0044425
,,,-1.79E-06,0.00442
,,,-1.78E-06,0.004515625
,,,-1.77E-06,0.004725
,,,-1.76E-06,0.00437
,,,-1.75E-06,0.00478
,,,-1.74E-06,0.004338125
,,,-1.73E-06,0.004450625
,,,-1.72E-06,0.0049275
,,,-1.71E-06,0.004446875
,,,-1.7E-06,0.0044025
,,,-1.69E-06,0.004745625
,,,-1.68E-06,0.004508125
,,,-1.67E-06,0.00464375
,,,-1.66E-06,0.00451375
,,,-1.65E-06,0.0044075
,,,-1.64E-06,0.00473625
,,,-1.63E-06,0.004624375
,,,-1.62E-06,0.00454125
,,,-1.61E-06,0.0044825
,,,-1.6E-06,0.004679375
,,,-1.59E-06,0.00460875
,,,-1.58E-06,0.004579375
,,,-1.57E-06,0.004680625
,,,-1.56E-06,0.004443125
,,,-1.55E-06,0.00440625
,,,-1.54E-06,0.00452875
,,,-1.53E-06,0.00420625
,,,-1.52E-06,0.004678125
,,,-1.51E-06,0.004655
,,,-1.5E-06,0.004439375
,,,-1.49E-06,0.004534375
,,,-1.48E-06,0.004363125
,,,-1.47E-06,0.004551875
,,,-1.46E-06,0.00456
,,,-1.45E-06,0.004365625
,,,-1.44E-06,0.004388125
,,,-1.43E-06,0.004671875
,,,-1.42E-06,0.004578125
,,,-1.41E-06,0.004464375
,,,-1.4E-06,0.004595
,,,-1.39E-06,0.004388125
,,,-1.38E-06,0.004524375
,,,-1.37E-06,0.00480875
,,,-1.36E-06,0.0046425
,,,-1.35E-06,0.004245625
,,,-1.34E-06,0.0044575
,,,-1.33E-06,0.004596875
,,,-1.32E-06,0.00449375
,,,-1.31E-06,0.00474
,,,-1.3E-06,0.0045675
,,,-1.29E-06,0.0043675
,,,-1.28E-06,0.00446875
,,,-1.27E-06,0.004595
,,,-1.26E-06,0.0044675
,,,-1.25E-06,0.004631875
,,,-1.24E-06,0.004510625
,,,-1.23E-06,0.004411875
,,,-1.22E-06,0.004493125
,,,-1.21E-06,0.00452125
,,,-1.2E-06,0.0045925
,,,-1.19E-06,0.0046275
,,,-1.18E-06,0.004575
,,,-1.17E-06,0.004645
,,,-1.16E-06,0.004705
,,,-1.15E-06,0.0047
,,,-1.14E-06,0.004516875
,,,-1.13E-06,0.004598125
,,,-1.12E-06,0.00464
,,,-1.11E-06,0.00446375
,,,-1.1E-06,0.004560625
,,,-1.09E-06,0.004498125
,,,-1.08E-06,0.0045825
,,,-1.07E-06,0.004714375
,,,-1.06E-06,0.004586875
,,,-1.05E-06,0.004438125
,,,-1.04E-06,0.0045675
,,,-1.03E-06,0.00465625
,,,-1.02E-06,0.00454875
,,,-1.01E-06,0.004595625
,,,-1E-06,0.004493125
,,,-9.9E-07,0.004538125
,,,-9.8E-07,0.00458875
,,,-9.7E-07,0.004670625
,,,-9.6E-07,0.004383125
,,,-9.5E-07,0.00445375
,,,-9.4E-07,0.0045775
,,,-9.3E-07,0.004768125
,,,-9.2E-07,0.0042875
,,,-9.1E-07,0.004366875
,,,-9E-07,0.00478625
,,,-8.9E-07,0.004666875
,,,-8.8E-07,0.0044625
,,,-8.7E-07,0.004336875
,,,-8.6E-07,0.004439375
,,,-8.5E-07,0.004363125
,,,-8.4E-07,0.004595
,,,-8.3E-07,0.004475625
,,,-8.2E-07,0.004626875
,,,-8.1E-07,0.004511875
,,,-8E-07,0.004625625
,,,-7.9E-07,0.004535625
,,,-7.8E-07,0.004330625
,,,-7.7E-07,0.004465
,,,-7.6E-07,0.004725
,,,-7.5E-07,0.004909375
,,,-7.4E-07,0.004513125
,,,-7.3E-07,0.0045475
,,,-7.2E-07,0.004325
,,,-7.1E-07,0.00445625
,,,-7E-07,0.004505625
,,,-6.9E-07,0.004425
,,,-6.8E-07,0.0048125
,,,-6.7E-07,0.00448625
,,,-6.6E-07,0.00442625
,,,-6.5E-07,0.004839375
,,,-6.4E-07,0.00467875
,,,-6.3E-07,0.004716875
,,,-6.2E-07,0.004621875
,,,-6.1E-07,0.0043025
,,,-6E-07,0.00466625
,,,-5.9E-07,0.00467625
,,,-5.8E-07,0.004596875
,,,-5.7E-07,0.004455
,,,-5.6E-07,0.004559375
,,,-5.5E-07,0.00462125
,,,-5.4E-07,0.00438875
,,,-5.3E-07,0.00450125
,,,-5.2E-07,0.004494375
,,,-5.1E-07,0.004638125
,,,-5E-07,0.00458875
,,,-4.9E-07,0.00442375
,,,-4.8E-07,0.004480625
,,,-4.7E-07,0.004444375
,,,-4.6E-07,0.004618125
,,,-4.5E-07,0.0046025
,,,-4.4E-07,0.00454875
,,,-4.3E-07,0.00434
,,,-4.2E-07,0.004391875
,,,-4.1E-07,0.00455
,,,-4E-07,0.004544375
,,,-3.9E-07,0.004621875
,,,-3.8E-07,0.004601875
,,,-3.7E-07,0.004229375
,,,-3.6E-07,0.004611875
,,,-3.5E-07,0.0046425
,,,-3.4E-07,0.004614375
,,,-3.3E-07,0.004598125
,,,-3.2E-07,0.004393125
,,,-3.1E-07,0.00438
,,,-3E-07,0.00446
,,,-2.9E-07,0.004680625
,,,-2.8E-07,0.00454125
,,,-2.7E-07,0.0045875
,,,-2.6E-07,0.00453
,,,-2.5E-07,0.004616875
,,,-2.4E-07,0.0045475
,,,-2.3E-07,0.004443125
,,,-2.2E-07,0.004448125
,,,-2.1E-07,0.0045675
,,,-2E-07,0.004754375
,,,-1.9E-07,0.00447875
,,,-1.8E-07,0.004705625
,,,-1.7E-07,0.00470375
,,,-1.6E-07,0.0045325
,,,-1.5E-07,0.004685625
,,,-1.4E-07,0.004466875
,,,-1.3E-07,0.004493125
,,,-1.2E-07,0.004653125
,,,-1.1E-07,0.004618125
,,,-1E-07,0.004451875
,,,-9E-08,0.004360625
,,,-8E-08,0.0044525
,,,-7E-08,0.0046275
,,,-6E-08,0.004250625
,,,-5E-08,0.004518125
,,,-4E-08,0.004854375
,,,-3E-08,0.004848125
,,,-2E-08,0.00417625
,,,-1E-08,0.003501875
,,,0,0.003544375
,,,1E-08,0.005953125
,,,2E-08,0.0054975
,,,3E-08,0.00602875
,,,4E-08,0.004275625
,,,5E-08,0.003734375
,,,6E-08,0.003405
,,,7E-08,0.004244375
,,,8E-08,0.004746875
,,,9E-08,0.005255
,,,1E-07,0.005084375
,,,1.1E-07,0.004734375
,,,1.2E-07,0.004060625
,,,1.3E-07,0.003981875
,,,1.4E-07,0.0042775
,,,1.5E-07,0.00484
,,,1.6E-07,0.00480375
,,,1.7E-07,0.004719375
,,,1.8E-07,0.00457125
,,,1.9E-07,0.0047025
,,,2E-07,0.004721875
,,,2.1E-07,0.004510625
,,,2.2E-07,0.004466875
,,,2.3E-07,0.004585
,,,2.4E-07,0.004405625
,,,2.5E-07,0.004845
,,,2.6E-07,0.00455125
,,,2.7E-07,0.00452125
,,,2.8E-07,0.004596875
,,,2.9E-07,0.004543125
,,,3E-07,0.00426875
,,,3.1E-07,0.00447125
,,,3.2E-07,0.0044675
,,,3.3E-07,0.004630625
,,,3.4E-07,0.00462
,,,3.5E-07,0.004483125
,,,3.6E-07,0.004284375
,,,3.7E-07,0.004220625
,,,3.8E-07,0.00452
,,,3.9E-07,0.00458375
,,,4E-07,0.00461875
,,,4.1E-07,0.004778125
,,,4.2E-07,0.004399375
,,,4.3E-07,0.004333125
,,,4.4E-07,0.00489375
,,,4.5E-07,0.004551875
,,,4.6E-07,0.00459125
,,,4.7E-07,0.00457375
,,,4.8E-07,0.004385625
,,,4.9E-07,0.004501875
,,,5E-07,0.00449625
,,,5.1E-07,0.00456125
,,,5.2E-07,0.00437625
,,,5.3E-07,0.004645625
,,,5.4E-07,0.004353125
,,,5.5E-07,0.004596875
,,,5.6E-07,0.004578125
,,,5.7E-07,0.00456
,,,5.8E-07,0.004776875
,,,5.9E-07,0.004389375
,,,6E-07,0.004661875
,,,6.1E-07,0.004491875
,,,6.2E-07,0.00435125
,,,6.3E-07,0.00441
,,,6.4E-07,0.00459
,,,6.5E-07,0.004745625
,,,6.6E-07,0.00470375
,,,6.7E-07,0.004675
,,,6.8E-07,0.00440375
,,,6.9E-07,0.004280625
,,,7E-07,0.0045725
,,,7.1E-07,0.004589375
,,,7.2E-07,0.00463125
,,,7.3E-07,0.004605
,,,7.4E-07,0.004495625
,,,7.5E-07,0.004634375
,,,7.6E-07,0.004443125
,,,7.7E-07,0.004425
,,,7.8E-07,0.004748125
,,,7.9E-07,0.0044075
,,,8E-07,0.004515
,,,8.1E-07,0.004646875
,,,8.2E-07,0.00469
,,,8.3E-07,0.00447
,,,8.4E-07,0.004654375
,,,8.5E-07,0.00438625
,,,8.6E-07,0.00435125
,,,8.7E-07,0.00444
,,,8.8E-07,0.00463125
,,,8.9E-07,0.00445125
,,,9E-07,0.00448625
,,,9.1E-07,0.004646875
,,,9.2E-07,0.004645
,,,9.3E-07,0.004528125
,,,9.4E-07,0.004189375
,,,9.5E-07,0.004598125
,,,9.6E-07,0.00462375
,,,9.7E-07,0.0046675
,,,9.8E-07,0.00446625
,,,9.9E-07,0.004440625
,,,1E-06,0.004800625
,,,1.01E-06,0.004781875
,,,1.02E-06,0.004300625
,,,1.03E-06,0.004783125
,,,1.04E-06,0.004550625
,,,1.05E-06,0.0045725
,,,1.06E-06,0.004483125
,,,1.07E-06,0.004643125
,,,1.08E-06,0.00489
,,,1.09E-06,0.004635
,,,1.1E-06,0.004538125
,,,1.11E-06,0.004685625
,,,1.12E-06,0.00456625
,,,1.13E-06,0.004474375
,,,1.14E-06,0.0043675
,,,1.15E-06,0.004506875
,,,1.16E-06,0.004346875
,,,1.17E-06,0.0043
,,,1.18E-06,0.004635
,,,1.19E-06,0.004405
,,,1.2E-06,0.0047
,,,1.21E-06,0.004375625
,,,1.22E-06,0.00460125
,,,1.23E-06,0.004695
,,,1.24E-06,0.00442875
,,,1.25E-06,0.004566875
,,,1.26E-06,0.004411875
,,,1.27E-06,0.004655625
,,,1.28E-06,0.004403125
,,,1.29E-06,0.004404375
,,,1.3E-06,0.00457625
,,,1.31E-06,0.00461625
,,,1.32E-06,0.004550625
,,,1.33E-06,0.004471875
,,,1.34E-06,0.0047625
,,,1.35E-06,0.004703125
,,,1.36E-06,0.00483875
,,,1.37E-06,0.004456875
,,,1.38E-06,0.004414375
,,,1.39E-06,0.004645625
,,,1.4E-06,0.004538125
,,,1.41E-06,0.004395625
,,,1.42E-06,0.004539375
,,,1.43E-06,0.004271875
,,,1.44E-06,0.00475375
,,,1.45E-06,0.004500625
,,,1.46E-06,0.0045825
,,,1.47E-06,0.00483375
,,,1.48E-06,0.004630625
,,,1.49E-06,0.004819375
,,,1.5E-06,0.00455125
,,,1.51E-06,0.00457
,,,1.52E-06,0.004643125
,,,1.53E-06,0.00476875
,,,1.54E-06,0.004535625
,,,1.55E-06,0.004565625
,,,1.56E-06,0.004590625
,,,1.57E-06,0.004719375
,,,1.58E-06,0.004431875
,,,1.59E-06,0.004700625
,,,1.6E-06,0.004391875
,,,1.61E-06,0.004455625
,,,1.62E-06,0.0041425
,,,1.63E-06,0.004694375
,,,1.64E-06,0.004745
,,,1.65E-06,0.00454375
,,,1.66E-06,0.00480875
,,,1.67E-06,0.00467125
,,,1.68E-06,0.00459125
,,,1.69E-06,0.00459
,,,1.7E-06,0.004521875
,,,1.71E-06,0.004676875
,,,1.72E-06,0.00456375
,,,1.73E-06,0.004483125
,,,1.74E-06,0.004678125
,,,1.75E-06,0.0044275
,,,1.76E-06,0.004390625
,,,1.77E-06,0.004598125
,,,1.78E-06,0.00452875
,,,1.79E-06,0.0043775
,,,1.8E-06,0.0048225
,,,1.81E-06,0.004591875
,,,1.82E-06,0.004689375
,,,1.83E-06,0.004486875
,,,1.84E-06,0.0045925
,,,1.85E-06,0.004200625
,,,1.86E-06,0.0045625
,,,1.87E-06,0.004661875
,,,1.88E-06,0.004578125
,,,1.89E-06,0.004466875
,,,1.9E-06,0.00442875
,,,1.91E-06,0.004438125
,,,1.92E-06,0.0044825
,,,1.93E-06,0.004644375
,,,1.94E-06,0.00436875
,,,1.95E-06,0.0044675
,,,1.96E-06,0.0046125
,,,1.97E-06,0.004486875
,,,1.98E-06,0.00476125
,,,1.99E-06,0.0043225
,,,2E-06,0.00455125
,,,2.01E-06,0.004545625
,,,2.02E-06,0.00464125
,,,2.03E-06,0.00469
,,,2.04E-06,0.00462375
,,,2.05E-06,0.004538125
,,,2.06E-06,0.00452875
,,,2.07E-06,0.00452875
,,,2.08E-06,0.004428125
,,,2.09E-06,0.00451875
,,,2.1E-06,0.004575
,,,2.11E-06,0.004364375
,,,2.12E-06,0.00471125
,,,2.13E-06,0.004633125
,,,2.14E-06,0.0045
,,,2.15E-06,0.004401875
,,,2.16E-06,0.004510625
,,,2.17E-06,0.0045825
,,,2.18E-06,0.004411875
,,,2.19E-06,0.0042325
,,,2.2E-06,0.0044725
,,,2.21E-06,0.004301875
,,,2.22E-06,0.004555
,,,2.23E-06,0.004611875
,,,2.24E-06,0.00473875
,,,2.25E-06,0.004379375
,,,2.26E-06,0.004316875
,,,2.27E-06,0.00436625
,,,2.28E-06,0.004640625
,,,2.29E-06,0.00454875
,,,2.3E-06,0.00466875
,,,2.31E-06,0.004360625
,,,2.32E-06,0.0045
,,,2.33E-06,0.004443125
,,,2.34E-06,0.004558125
,,,2.35E-06,0.004633125
,,,2.36E-06,0.00469125
,,,2.37E-06,0.0045775
,,,2.38E-06,0.004505625
,,,2.39E-06,0.004313125
,,,2.4E-06,0.004771875
,,,2.41E-06,0.004396875
,,,2.42E-06,0.00463125
,,,2.43E-06,0.004416875
,,,2.44E-06,0.004668125
,,,2.45E-06,0.004573125
,,,2.46E-06,0.0047075
,,,2.47E-06,0.004469375
,,,2.48E-06,0.004555625
,,,2.49E-06,0.00448125
,,,2.5E-06,0.00429625
,,,2.51E-06,0.004616875
,,,2.52E-06,0.004624375
,,,2.53E-06,0.00453625
,,,2.54E-06,0.004465625
,,,2.55E-06,0.00463375
,,,2.56E-06,0.00464125
,,,2.57E-06,0.004566875
,,,2.58E-06,0.004515
,,,2.59E-06,0.004375625
,,,2.6E-06,0.004509375
,,,2.61E-06,0.004595625
,,,2.62E-06,0.004704375
,,,2.63E-06,0.00462625
,,,2.64E-06,0.004509375
,,,2.65E-06,0.00473875
,,,2.66E-06,0.00461875
,,,2.67E-06,0.004701875
,,,2.68E-06,0.00429
,,,2.69E-06,0.004440625
,,,2.7E-06,0.0047325
,,,2.71E-06,0.00456625
,,,2.72E-06,0.004435625
,,,2.73E-06,0.004605
,,,2.74E-06,0.00445
,,,2.75E-06,0.00444375
,,,2.76E-06,0.004446875
,,,2.77E-06,0.00450375
,,,2.78E-06,0.004648125
,,,2.79E-06,0.00461875
,,,2.8E-06,0.0045725
,,,2.81E-06,0.004481875
,,,2.82E-06,0.004553125
,,,2.83E-06,0.004555
,,,2.84E-06,0.004708125
,,,2.85E-06,0.004460625
,,,2.86E-06,0.0044975
,,,2.87E-06,0.004426875
,,,2.88E-06,0.00444625
,,,2.89E-06,0.0046475
,,,2.9E-06,0.004650625
,,,2.91E-06,0.004515
,,,2.92E-06,0.004259375
,,,2.93E-06,0.00479625
,,,2.94E-06,0.004641875
,,,2.95E-06,0.004465625
,,,2.96E-06,0.004689375
,,,2.97E-06,0.00461625
,,,2.98E-06,0.00477375
,,,2.99E-06,0.004399375
,,,3E-06,0.00432125
,,,3.01E-06,0.004375
,,,3.02E-06,0.004686875
,,,3.03E-06,0.004596875
,,,3.04E-06,0.0046125
,,,3.05E-06,0.004653125
,,,3.06E-06,0.004401875
,,,3.07E-06,0.0046725
,,,3.08E-06,0.00447625
,,,3.09E-06,0.004375625
,,,3.1E-06,0.004305
,,,3.11E-06,0.004435625
,,,3.12E-06,0.004636875
,,,3.13E-06,0.00472875
,,,3.14E-06,0.004605
,,,3.15E-06,0.004598125
,,,3.16E-06,0.00463875
,,,3.17E-06,0.004528125
,,,3.18E-06,0.00457625
,,,3.19E-06,0.004753125
,,,3.2E-06,0.004548125
,,,3.21E-06,0.004461875
,,,3.22E-06,0.004645
,,,3.23E-06,0.00456875
,,,3.24E-06,0.00433625
,,,3.25E-06,0.004598125
,,,3.26E-06,0.004664375
,,,3.27E-06,0.004411875
,,,3.28E-06,0.004535
,,,3.29E-06,0.0046025
,,,3.3E-06,0.00453125
,,,3.31E-06,0.004465625
,,,3.32E-06,0.00452
,,,3.33E-06,0.004446875
,,,3.34E-06,0.00448875
,,,3.35E-06,0.004664375
,,,3.36E-06,0.004574375
,,,3.37E-06,0.00475625
,,,3.38E-06,0.004575625
,,,3.39E-06,0.00453875
,,,3.4E-06,0.00459375
,,,3.41E-06,0.0045725
,,,3.42E-06,0.00465625
,,,3.43E-06,0.004469375
,,,3.44E-06,0.004695
,,,3.45E-06,0.0045425
,,,3.46E-06,0.004379375
,,,3.47E-06,0.00440875
,,,3.48E-06,0.004523125
,,,3.49E-06,0.004715
,,,3.5E-06,0.004746875
,,,3.51E-06,0.004575
,,,3.52E-06,0.004693125
,,,3.53E-06,0.004498125
,,,3.54E-06,0.00449375
