data/raw/Final_POL_Test_1/SOP030_Ch2.csv

"Record Length",1000,"Points",-5E-06,0.02015
"Sample Interval",1E-08,s,-4.99E-06,0.02044125
"Trigger Point",500,"Samples",-4.98E-06,0.02002875
"Trigger Time",0,s,-4.97E-06,0.0203
"",,,-4.96E-06,0.020434375
"Horizontal Offset",-5E-06,s,-4.95E-06,0.0202325
,,,-4.94E-06,0.020383125
,,,-4.93E-06,0.019981875
,,,-4.92E-06,0.0202075
,,,-4.91E-06,0.0204025
,,,-4.9E-06,0.020205625
,,,-4.89E-06,0.02022125
,,,-4.88E-06,0.02034625
,,,-4.87E-06,0.0202725
,,,-4.86E-06,0.02008375
,,,-4.85E-06,0.019985625
,,,-4.84E-06,0.0201775
,,,-4.83E-06,0.020299375
,,,-4.82E-06,0.02006125
,,,-4.81E-06,0.02025875
,,,-4.8E-06,0.02005875
,,,-4.79E-06,0.020153125
,,,-4.78E-06,0.020449375
,,,-4.77E-06,0.019984375
,,,-4.76E-06,0.0202525
,,,-4.75E-06,0.01996
,,,-4.74E-06,0.020419375
,,,-4.73E-06,0.02010875
,,,-4.72E-06,0.020240625
,,,-4.71E-06,0.02027
,,,-4.7E-06,0.0202225
,,,-4.69E-06,0.02033625
,,,-4.68E-06,0.020035625
,,,-4.67E-06,0.020300625
,,,-4.66E-06,0.020135
,,,-4.65E-06,0.02028875
,,,-4.64E-06,0.02026125
,,,-4.63E-06,0.020233125
,,,-4.62E-06,0.019854375
,,,-4.61E-06,0.020148125
,,,-4.6E-06,0.020406875
,,,-4.59E-06,0.020061875
,,,-4.58E-06,0.0204225
,,,-4.57E-06,0.02003
,,,-4.56E-06,0.020288125
,,,-4.55E-06,0.020259375
,,,-4.54E-06,0.0201525
,,,-4.53E-06,0.020043125
,,,-4.52E-06,0.02023375
,,,-4.51E-06,0.020114375
,,,-4.5E-06,0.02018625
,,,-4.49E-06,0.02036
,,,-4.48E-06,0.020191875
,,,-4.47E-06,0.02007375
,,,-4.46E-06,0.020531875
,,,-4.45E-06,0.019991875
,,,-4.44E-06,0.020375
,,,-4.43E-06,0.02021625
,,,-4.42E-06,0.02027125
,,,-4.41E-06,0.020298125
,,,-4.4E-06,0.020476875
,,,-4.39E-06,0.02021375
,,,-4.38E-06,0.020160625
,,,-4.37E-06,0.020138125
,,,-4.36E-06,0.020164375
,,,-4.35E-06,0.0203975
,,,-4.34E-06,0.020433125
,,,-4.33E-06,0.020044375
,,,-4.32E-06,0.02025125
,,,-4.31E-06,0.020261875
,,,-4.3E-06,0.020508125
,,,-4.29E-06,0.019961875
,,,-4.28E-06,0.020164375
,,,-4.27E-06,0.02035375
,,,-4.26E-06,0.02012625
,,,-4.25E-06,0.02026125
,,,-4.24E-06,0.02035375
,,,-4.23E-06,0.020125625
,,,-4.22E-06,0.02067875
,,,-4.21E-06,0.02032375
,,,-4.2E-06,0.0202
,,,-4.19E-06,0.02016875
,,,-4.18E-06,0.020153125
,,,-4.17E-06,0.020061875
,,,-4.16E-06,0.02038
,,,-4.15E-06,0.020238125
,,,-4.14E-06,0.0202525
,,,-4.13E-06,0.020525625
,,,-4.12E-06,0.020156875
,,,-4.11E-06,0.02034625
,,,-4.1E-06,0.019898125
,,,-4.09E-06,0.0201
,,,-4.08E-06,0.01996
,,,-4.07E-06,0.02010375
,,,-4.06E-06,0.020510625
,,,-4.05E-06,0.02012125
,,,-4.04E-06,0.02030875
,,,-4.03E-06,0.01984375
,,,-4.02E-06,0.0201275
,,,-4.01E-06,0.02037375
,,,-4E-06,0.02039875
,,,-3.99E-06,0.01997375
,,,-3.98E-06,0.020056875
,,,-3.97E-06,0.020220625
,,,-3.96E-06,0.02004875
,,,-3.95E-06,0.020388125
,,,-3.94E-06,0.01991625
,,,-3.93E-06,0.0200575
,,,-3.92E-06,0.02039875
,,,-3.91E-06,0.0201475
,,,-3.9E-06,0.02010875
,,,-3.89E-06,0.020261875
,,,-3.88E-06,0.0202575
,,,-3.87E-06,0.02038875
,,,-3.86E-06,0.020143125
,,,-3.85E-06,0.02056
,,,-3.84E-06,0.0202025
,,,-3.83E-06,0.02013875
,,,-3.82E-06,0.020115
,,,-3.81E-06,0.020379375
,,,-3.8E-06,0.0202725
,,,-3.79E-06,0.02016125
,,,-3.78E-06,0.0203525
,,,-3.77E-06,0.02033625
,,,-3.76E-06,0.020165
,,,-3.75E-06,0.02027875
,,,-3.74E-06,0.0201675
,,,-3.73E-06,0.020054375
,,,-3.72E-06,0.020338125
,,,-3.71E-06,0.0200975
,,,-3.7E-06,0.02017375
,,,-3.69E-06,0.020188125
,,,-3.68E-06,0.020339375
,,,-3.67E-06,0.020430625
,,,-3.66E-06,0.020241875
,,,-3.65E-06,0.02025125
,,,-3.64E-06,0.01997875
,,,-3.63E-06,0.020428125
,,,-3.62E-06,0.02023
,,,-3.61E-06,0.020120625
,,,-3.6E-06,0.020229375
,,,-3.59E-06,0.020131875
,,,-3.58E-06,0.02041
,,,-3.57E-06,0.0204375
,,,-3.56E-06,0.020235625
,,,-3.55E-06,0.0202575
,,,-3.54E-06,0.019975
,,,-3.53E-06,0.020529375
,,,-3.52E-06,0.020129375
,,,-3.51E-06,0.02023625
,,,-3.5E-06,0.020281875
,,,-3.49E-06,0.0204575
,,,-3.48E-06,0.02039375
,,,-3.47E-06,0.02006875
,,,-3.46E-06,0.02027375
,,,-3.45E-06,0.02011375
,,,-3.44E-06,0.02008375
,,,-3.43E-06,0.02032125
,,,-3.42E-06,0.02035375
,,,-3.41E-06,0.020318125
,,,-3.4E-06,0.02047625
,,,-3.39E-06,0.02031875
,,,-3.38E-06,0.0204525
,,,-3.37E-06,0.020021875
,,,-3.36E-06,0.020355
,,,-3.35E-06,0.020314375
,,,-3.34E-06,0.02035
,,,-3.33E-06,0.02022375
,,,-3.32E-06,0.02044125
,,,-3.31E-06,0.020319375
,,,-3.3E-06,0.0201975
,,,-3.29E-06,0.020334375
,,,-3.28E-06,0.020164375
,,,-3.27E-06,0.020285
,,,-3.26E-06,0.0202375
,,,-3.25E-06,0.020258125
,,,-3.24E-06,0.020323125
,,,-3.23E-06,0.02048625
,,,-3.22E-06,0.020096875
,,,-3.21E-06,0.020210625
,,,-3.2E-06,0.020095
,,,-3.19E-06,0.020389375
,,,-3.18E-06,0.0203575
,,,-3.17E-06,0.0201725
,,,-3.16E-06,0.02003625
,,,-3.15E-06,0.02014875
,,,-3.14E-06,0.02035375
,,,-3.13E-06,0.0199025
,,,-3.12E-06,0.02009375
,,,-3.11E-06,0.02002125
,,,-3.1E-06,0.02015625
,,,-3.09E-06,0.020078125
,,,-3.08E-06,0.02022875
,,,-3.07E-06,0.020266875
,,,-3.06E-06,0.02022125
,,,-3.05E-06,0.01987375
,,,-3.04E-06,0.020086875
,,,-3.03E-06,0.0203925
,,,-3.02E-06,0.019999375
,,,-3.01E-06,0.02054375
,,,-3E-06,0.020268125
,,,-2.99E-06,0.020149375
,,,-2.98E-06,0.02027
,,,-2.97E-06,0.0201
,,,-2.96E-06,0.02023375
,,,-2.95E-06,0.02021125
,,,-2.94E-06,0.020498125
,,,-2.93E-06,0.020165625
,,,-2.92E-06,0.020205
,,,-2.91E-06,0.020523125
,,,-2.9E-06,0.020171875
,,,-2.89E-06,0.02033875
,,,-2.88E-06,0.02005
,,,-2.87E-06,0.020084375
,,,-2.86E-06,0.020364375
,,,-2.85E-06,0.02026
,,,-2.84E-06,0.02029125
,,,-2.83E-06,0.0201925
,,,-2.82E-06,0.020328125
,,,-2.81E-06,0.020311875
,,,-2.8E-06,0.020410625
,,,-2.79E-06,0.02016625
,,,-2.78E-06,0.02036
,,,-2.77E-06,0.020185625
,,,-2.76E-06,0.020075625
,,,-2.75E-06,0.02028625
,,,-2.74E-06,0.020334375
,,,-2.73E-06,0.020033125
,,,-2.72E-06,0.0201875
,,,-2.71E-06,0.0200925
,,,-2.7E-06,0.020354375
,,,-2.69E-06,0.02046
,,,-2.68E-06,0.02036875
,,,-2.67E-06,0.02029375
,,,-2.66E-06,0.0201725
,,,-2.65E-06,0.020005
,,,-2.64E-06,0.020383125
,,,-2.63E-06,0.020244375
,,,-2.62E-06,0.020185
,,,-2.61E-06,0.02015
,,,-2.6E-06,0.020285
,,,-2.59E-06,0.020135
,,,-2.58E-06,0.02031125
,,,-2.57E-06,0.019999375
,,,-2.56E-06,0.02023625
,,,-2.55E-06,0.020148125
,,,-2.54E-06,0.020288125
,,,-2.53E-06,0.0202725
,,,-2.52E-06,0.02028
,,,-2.51E-06,0.0202575
,,,-2.5E-06,0.02017375
,,,-2.49E-06,0.020075
,,,-2.48E-06,0.02015
,,,-2.47E-06,0.0201275
,,,-2.46E-06,0.019996875
,,,-2.45E-06,0.020155625
,,,-2.44E-06,0.0203975
,,,-2.43E-06,0.020171875
,,,-2.42E-06,0.0207125
,,,-2.41E-06,0.020225
,,,-2.4E-06,0.020098125
,,,-2.39E-06,0.020066875
,,,-2.38E-06,0.02001625
,,,-2.37E-06,0.02023375
,,,-2.36E-06,0.020231875
,,,-2.35E-06,0.020143125
,,,-2.34E-06,0.020306875
,,,-2.33E-06,0.0203
,,,-2.32E-06,0.020390625
,,,-2.31E-06,0.020100625
,,,-2.3E-06,0.0204475
,,,-2.29E-06,0.02035
,,,-2.28E-06,0.020121875
,,,-2.27E-06,0.020219375
,,,-2.26E-06,0.0203175
,,,-2.25E-06,0.020300625
,,,-2.24E-06,0.020286875
,,,-2.23E-06,0.02008125
,,,-2.22E-06,0.01998625
,,,-2.21E-06,0.020439375
,,,-2.2E-06,0.020335625
,,,-2.19E-06,0.0203425
,,,-2.18E-06,0.0202875
,,,-2.17E-06,0.0204925
,,,-2.16E-06,0.02049875
,,,-2.15E-06,0.020355625
,,,-2.14E-06,0.020149375
,,,-2.13E-06,0.020058125
,,,-2.12E-06,0.02013125
,,,-2.11E-06,0.020204375
,,,-2.1E-06,0.020318125
,,,-2.09E-06,0.02039875
,,,-2.08E-06,0.020475625
,,,-2.07E-06,0.01987375
,,,-2.06E-06,0.0202525
,,,-2.05E-06,0.02027
,,,-2.04E-06,0.020183125
,,,-2.03E-06,0.02031625
,,,-2.02E-06,0.020355625
,,,-2.01E-06,0.020021875
,,,-2E-06,0.020414375
,,,-1.99E-06,0.02038875
,,,-1.98E-06,0.019855
,,,-1.97E-06,0.0202475
,,,-1.96E-06,0.019929375
,,,-1.95E-06,0.02011375
,,,-1.94E-06,0.020033125
,,,-1.93E-06,0.02014375
,,,-1.92E-06,0.02031
,,,-1.91E-06,0.020264375
,,,-1.9E-06,0.02025
,,,-1.89E-06,0.020025
,,,-1.88E-06,0.0202275
,,,-1.87E-06,0.0204075
,,,-1.86E-06,0.020131875
,,,-1.85E-06,0.0204975
,,,-1.84E-06,0.0203025
,,,-1.83E-06,0.020186875
,,,-1.82E-06,0.0203725
,,,-1.81E-06,0.02019
,,,-1.8E-06,0.02014875
,,,-1.79E-06,0.020159375
,,,-1.78E-06,0.020225625
,,,-1.77E-06,0.020359375
,,,-1.76E-06,0.02027375
,,,-1.75E-06,0.02052625
,,,-1.74E-06,0.02031125
,,,-1.73E-06,0.02007125
,,,-1.72E-06,0.020159375
,,,-1.71E-06,0.019974375
,,,-1.7E-06,0.020100625
,,,-1.69E-06,0.020125
,,,-1.68E-06,0.020185
,,,-1.67E-06,0.0201925
,,,-1.66E-06,0.0201525
,,,-1.65E-06,0.020105
,,,-1.64E-06,0.0203025
,,,-1.63E-06,0.020278125
,,,-1.62E-06,0.020245625
,,,-1.61E-06,0.019831875
,,,-1.6E-06,0.02027125
,,,-1.59E-06,0.020506875
,,,-1.58E-06,0.020325625
,,,-1.57E-06,0.020110625
,,,-1.56E-06,0.020104375
,,,-1.55E-06,0.02021875
,,,-1.54E-06,0.020245625
,,,-1.53E-06,0.020328125
,,,-1.52E-06,0.020465625
,,,-1.51E-06,0.020319375
,,,-1.5E-06,0.020148125
,,,-1.49E-06,0.02026375
,,,-1.48E-06,0.020294375
,,,-1.47E-06,0.019991875
,,,-1.46E-06,0.020301875
,,,-1.45E-06,0.020163125
,,,-1.44E-06,0.02003875
,,,-1.43E-06,0.02030125
,,,-1.42E-06,0.02030375
,,,-1.41E-06,0.02037125
,,,-1.4E-06,0.0201275
,,,-1.39E-06,0.019986875
,,,-1.38E-06,0.019995
,,,-1.37E-06,0.020195625
,,,-1.36E-06,0.02035875
,,,-1.35E-06,0.020245
,,,-1.34E-06,0.020555
,,,-1.33E-06,0.02041375
,,,-1.32E-06,0.02033625
,,,-1.31E-06,0.01990875
,,,-1.3E-06,0.020410625
,,,-1.29E-06,0.02005
,,,-1.28E-06,0.02033
,,,-1.27E-06,0.020265
,,,-1.26E-06,0.020395
,,,-1.25E-06,0.020129375
,,,-1.24E-06,0.020488125
,,,-1.23E-06,0.020145
,,,-1.22E-06,0.019999375
,,,-1.21E-06,0.02021625
,,,-1.2E-06,0.0206075
,,,-1.19E-06,0.020105625
,,,-1.18E-06,0.020263125
,,,-1.17E-06,0.0202575
,,,-1.16E-06,0.0203675
,,,-1.15E-06,0.0203875
,,,-1.14E-06,0.020144375
,,,-1.13E-06,0.020278125
,,,-1.12E-06,0.0200975
,,,-1.11E-06,0.02017125
,,,-1.1E-06,0.020188125
,,,-1.09E-06,0.02044
,,,-1.08E-06,0.02021
,,,-1.07E-06,0.020394375
,,,-1.06E-06,0.02021625
,,,-1.05E-06,0.0201075
,,,-1.04E-06,0.020024375
,,,-1.03E-06,0.019986875
,,,-1.02E-06,0.02020625
,,,-1.01E-06,0.020261875
,,,-1E-06,0.02003375
,,,-9.9E-07,0.01995625
,,,-9.8E-07,0.02026
,,,-9.7E-07,0.02033875
,,,-9.6E-07,0.02008375
,,,-9.5E-07,0.0202475
,,,-9.4E-07,0.019945
,,,-9.3E-07,0.02013625
,,,-9.2E-07,0.02028
,,,-9.1E-07,0.020275
,,,-9E-07,0.0202525
,,,-8.9E-07,0.020329375
,,,-8.8E-07,0.020264375
,,,-8.7E-07,0.020173125
,,,-8.6E-07,0.02055875
,,,-8.5E-07,0.0200575
,,,-8.4E-07,0.020283125
,,,-8.3E-07,0.020169375
,,,-8.2E-07,0.020170625
,,,-8.1E-07,0.020373125
,,,-8E-07,0.020318125
,,,-7.9E-07,0.020293125
,,,-7.8E-07,0.020314375
,,,-7.7E-07,0.0204
,,,-7.6E-07,0.020224375
,,,-7.5E-07,0.020553125
,,,-7.4E-07,0.020311875
,,,-7.3E-07,0.020088125
,,,-7.2E-07,0.01991625
,,,-7.1E-07,0.020283125
,,,-7E-07,0.020321875
,,,-6.9E-07,0.020458125
,,,-6.8E-07,0.0202375
,,,-6.7E-07,0.0201275
,,,-6.6E-07,0.020145
,,,-6.5E-07,0.020239375
,,,-6.4E-07,0.020125625
,,,-6.3E-07,0.0202725
,,,-6.2E-07,0.02017
,,,-6.1E-07,0.0203675
,,,-6E-07,0.02033625
,,,-5.9E-07,0.020078125
,,,-5.8E-07,0.020175625
,,,-5.7E-07,0.020221875
,,,-5.6E-07,0.020446875
,,,-5.5E-07,0.020191875
,,,-5.4E-07,0.020143125
,,,-5.3E-07,0.020183125
,,,-5.2E-07,0.02017875
,,,-5.1E-07,0.02034875
,,,-5E-07,0.019959375
,,,-4.9E-07,0.020151875
,,,-4.8E-07,0.020111875
,,,-4.7E-07,0.0202075
,,,-4.6E-07,0.020098125
,,,-4.5E-07,0.020320625
,,,-4.4E-07,0.02033125
,,,-4.3E-07,0.02039875
,,,-4.2E-07,0.0202825
,,,-4.1E-07,0.02013875
,,,-4E-07,0.020173125
,,,-3.9E-07,0.02028125
,,,-3.8E-07,0.020110625
,,,-3.7E-07,0.020523125
,,,-3.6E-07,0.0203125
,,,-3.5E-07,0.0200625
,,,-3.4E-07,0.020220625
,,,-3.3E-07,0.019929375
,,,-3.2E-07,0.02032
,,,-3.1E-07,0.020344375
,,,-3E-07,0.02027375
,,,-2.9E-07,0.020275625
,,,-2.8E-07,0.020381875
,,,-2.7E-07,0.02032625
,,,-2.6E-07,0.0201625
,,,-2.5E-07,0.0200225
,,,-2.4E-07,0.020045
,,,-2.3E-07,0.020229375
,,,-2.2E-07,0.0203275
,,,-2.1E-07,0.02032625
,,,-2E-07,0.0204025
,,,-1.9E-07,0.02015875
,,,-1.8E-07,0.020079375
,,,-1.7E-07,0.02031625
,,,-1.6E-07,0.020191875
,,,-1.5E-07,0.020205
,,,-1.4E-07,0.020370625
,,,-1.3E-07,0.020074375
,,,-1.2E-07,0.020361875
,,,-1.1E-07,0.020363125
,,,-1E-07,0.020540625
,,,-9E-08,0.02030375
,,,-8E-08,0.02023625
,,,-7E-08,0.019863125
,,,-6E-08,0.0199275
,,,-5E-08,0.020270625
,,,-4E-08,0.021256875
,,,-3E-08,0.021554375
,,,-2E-08,0.018196875
,,,-1E-08,0.016916875
,,,0,0.018091875
,,,1E-08,0.02342375
,,,2E-08,0.024475
,,,3E-08,0.02267375
,,,4E-08,0.01898375
,,,5E-08,0.01742
,,,6E-08,0.017254375
,,,7E-08,0.0194775
,,,8E-08,0.02143875
,,,9E-08,0.02211625
,,,1E-07,0.02189875
,,,1.1E-07,0.02068375
,,,1.2E-07,0.01900125
,,,1.3E-07,0.018873125
,,,1.4E-07,0.01995375
,,,1.5E-07,0.02070375
,,,1.6E-07,0.020799375
,,,1.7E-07,0.020355
,,,1.8E-07,0.020435
,,,1.9E-07,0.020093125
,,,2E-07,0.0200175
,,,2.1E-07,0.020081875
,,,2.2E-07,0.02002625
,,,2.3E-07,0.02038375
,,,2.4E-07,0.020433125
,,,2.5E-07,0.020515625
,,,2.6E-07,0.02037875
,,,2.7E-07,0.020274375
,,,2.8E-07,0.020205625
,,,2.9E-07,0.020205625
,,,3E-07,0.020088125
,,,3.1E-07,0.02032625
,,,3.2E-07,0.0205125
,,,3.3E-07,0.020095
,,,3.4E-07,0.020133125
,,,3.5E-07,0.020365
,,,3.6E-07,0.01986125
,,,3.7E-07,0.02017
,,,3.8E-07,0.020188125
,,,3.9E-07,0.020345625
,,,4E-07,0.02015125
,,,4.1E-07,0.020185
,,,4.2E-07,0.0201075
,,,4.3E-07,0.0203425
,,,4.4E-07,0.0202925
,,,4.5E-07,0.020273125
,,,4.6E-07,0.020185
,,,4.7E-07,0.020300625
,,,4.8E-07,0.020205625
,,,4.9E-07,0.02021
,,,5E-07,0.02032
,,,5.1E-07,0.02011
,,,5.2E-07,0.020419375
,,,5.3E-07,0.020099375
,,,5.4E-07,0.0201075
,,,5.5E-07,0.02051875
,,,5.6E-07,0.02004875
,,,5.7E-07,0.0203025
,,,5.8E-07,0.020250625
,,,5.9E-07,0.020159375
,,,6E-07,0.02015875
,,,6.1E-07,0.020343125
,,,6.2E-07,0.020118125
,,,6.3E-07,0.02002875
,,,6.4E-07,0.020150625
,,,6.5E-07,0.02021
,,,6.6E-07,0.020321875
,,,6.7E-07,0.02017625
,,,6.8E-07,0.020318125
,,,6.9E-07,0.020105
,,,7E-07,0.020115625
,,,7.1E-07,0.02030125
,,,7.2E-07,0.020408125
,,,7.3E-07,0.020184375
,,,7.4E-07,0.020116875
,,,7.5E-07,0.020395625
,,,7.6E-07,0.02007
,,,7.7E-07,0.020293125
,,,7.8E-07,0.02037125
,,,7.9E-07,0.02019
,,,8E-07,0.020300625
,,,8.1E-07,0.020250625
,,,8.2E-07,0.020255
,,,8.3E-07,0.020113125
,,,8.4E-07,0.020189375
,,,8.5E-07,0.020288125
,,,8.6E-07,0.020193125
,,,8.7E-07,0.020138125
,,,8.8E-07,0.0202025
,,,8.9E-07,0.0202625
,,,9E-07,0.020019375
,,,9.1E-07,0.0201875
,,,9.2E-07,0.02049
,,,9.3E-07,0.02021
,,,9.4E-07,0.020040625
,,,9.5E-07,0.02027125
,,,9.6E-07,0.02036875
,,,9.7E-07,0.020105
,,,9.8E-07,0.020304375
,,,9.9E-07,0.0202775
,,,1E-06,0.02012625
,,,1.01E-06,0.02025625
,,,1.02E-06,0.020305625
,,,1.03E-06,0.020146875
,,,1.04E-06,0.020313125
,,,1.05E-06,0.02028875
,,,1.06E-06,0.020283125
,,,1.07E-06,0.020264375
,,,1.08E-06,0.020239375
,,,1.09E-06,0.020104375
,,,1.1E-06,0.02005625
,,,1.11E-06,0.020335625
,,,1.12E-06,0.020465625
,,,1.13E-06,0.020208125
,,,1.14E-06,0.02021375
,,,1.15E-06,0.020221875
,,,1.16E-06,0.020314375
,,,1.17E-06,0.02029125
,,,1.18E-06,0.02031875
,,,1.19E-06,0.020196875
,,,1.2E-06,0.0202025
,,,1.21E-06,0.02007625
,,,1.22E-06,0.02017375
,,,1.23E-06,0.020114375
,,,1.24E-06,0.02030125
,,,1.25E-06,0.02059625
,,,1.26E-06,0.020198125
,,,1.27E-06,0.020488125
,,,1.28E-06,0.02004625
,,,1.29E-06,0.020330625
,,,1.3E-06,0.0204325
,,,1.31E-06,0.020180625
,,,1.32E-06,0.0203225
,,,1.33E-06,0.020116875
,,,1.34E-06,0.020351875
,,,1.35E-06,0.020018125
,,,1.36E-06,0.020081875
,,,1.37E-06,0.020358125
,,,1.38E-06,0.02030625
,,,1.39E-06,0.020165625
,,,1.4E-06,0.0201575
,,,1.41E-06,0.02014625
,,,1.42E-06,0.02030125
,,,1.43E-06,0.020268125
,,,1.44E-06,0.0201625
,,,1.45E-06,0.02019625
,,,1.46E-06,0.020505625
,,,1.47E-06,0.020266875
,,,1.48E-06,0.0201825
,,,1.49E-06,0.020199375
,,,1.5E-06,0.020110625
,,,1.51E-06,0.020140625
,,,1.52E-06,0.02032875
,,,1.53E-06,0.020383125
,,,1.54E-06,0.020345625
,,,1.55E-06,0.020293125
,,,1.56E-06,0.02018375
,,,1.57E-06,0.02024
,,,1.58E-06,0.0202375
,,,1.59E-06,0.0202875
,,,1.6E-06,0.0204575
,,,1.61E-06,0.0201075
,,,1.62E-06,0.020174375
,,,1.63E-06,0.020305
,,,1.64E-06,0.0200025
,,,1.65E-06,0.0204475
,,,1.66E-06,0.020526875
,,,1.67E-06,0.02022375
,,,1.68E-06,0.020244375
,,,1.69E-06,0.020383125
,,,1.7E-06,0.020235
,,,1.71E-06,0.02021625
,,,1.72E-06,0.02038875
,,,1.73E-06,0.02053375
,,,1.74E-06,0.020500625
,,,1.75E-06,0.02027125
,,,1.76E-06,0.020240625
,,,1.77E-06,0.0201475
,,,1.78E-06,0.020159375
,,,1.79E-06,0.020173125
,,,1.8E-06,0.020073125
,,,1.81E-06,0.020041875
,,,1.82E-06,0.02038125
,,,1.83E-06,0.02034375
,,,1.84E-06,0.020266875
,,,1.85E-06,0.02019
,,,1.86E-06,0.020155
,,,1.87E-06,0.020285
,,,1.88E-06,0.02033125
,,,1.89E-06,0.02018125
,,,1.9E-06,0.020245625
,,,1.91E-06,0.020216875
,,,1.92E-06,0.02037
,,,1.93E-06,0.020191875
,,,1.94E-06,0.01987375
,,,1.95E-06,0.020186875
,,,1.96E-06,0.020165
,,,1.97E-06,0.020108125
,,,1.98E-06,0.02020875
,,,1.99E-06,0.020155
,,,2E-06,0.02011625
,,,2.01E-06,0.020196875
,,,2.02E-06,0.0202575
,,,2.03E-06,0.0203725
,,,2.04E-06,0.020176875
,,,2.05E-06,0.02014
,,,2.06E-06,0.020078125
,,,2.07E-06,0.020149375
,,,2.08E-06,0.02028
,,,2.09E-06,0.020508125
,,,2.1E-06,0.020181875
,,,2.11E-06,0.020233125
,,,2.12E-06,0.02024625
,,,2.13E-06,0.020238125
,,,2.14E-06,0.0203575
,,,2.15E-06,0.020571875
,,,2.16E-06,0.020195
,,,2.17E-06,0.020149375
,,,2.18E-06,0.02012375
,,,2.19E-06,0.0203075
,,,2.2E-06,0.020196875
,,,2.21E-06,0.020159375
,,,2.22E-06,0.02007375
,,,2.23E-06,0.020245625
,,,2.24E-06,0.020353125
,,,2.25E-06,0.020355
,,,2.26E-06,0.020214375
,,,2.27E-06,0.020189375
,,,2.28E-06,0.020608125
,,,2.29E-06,0.020404375
,,,2.3E-06,0.02008125
,,,2.31E-06,0.0201
,,,2.32E-06,0.02052125
,,,2.33E-06,0.01999875
,,,2.34E-06,0.0201825
,,,2.35E-06,0.01999
,,,2.36E-06,0.02043125
,,,2.37E-06,0.02050625
,,,2.38E-06,0.020406875
,,,2.39E-06,0.02016625
,,,2.4E-06,0.020466875
,,,2.41E-06,0.020125
,,,2.42E-06,0.0202625
,,,2.43E-06,0.020089375
,,,2.44E-06,0.0202625
,,,2.45E-06,0.0202975
,,,2.46E-06,0.020023125
,,,2.47E-06,0.020236875
,,,2.48E-06,0.02026875
,,,2.49E-06,0.020105625
,,,2.5E-06,0.0202775
,,,2.51E-06,0.020108125
,,,2.52E-06,0.020224375
,,,2.53E-06,0.02021
,,,2.54E-06,0.020655625
,,,2.55E-06,0.02036375
,,,2.56E-06,0.020358125
,,,2.57E-06,0.02035125
,,,2.58E-06,0.020338125
,,,2.59E-06,0.020234375
,,,2.6E-06,0.020205625
,,,2.61E-06,0.020124375
,,,2.62E-06,0.020123125
,,,2.63E-06,0.0201225
,,,2.64E-06,0.0204225
,,,2.65E-06,0.02029
,,,2.66E-06,0.02044125
,,,2.67E-06,0.020065625
,,,2.68E-06,0.02009125
,,,2.69E-06,0.020309375
,,,2.7E-06,0.020263125
,,,2.71E-06,0.020105625
,,,2.72E-06,0.020435625
,,,2.73E-06,0.0199025
,,,2.74E-06,0.02027375
,,,2.75E-06,0.020224375
,,,2.76E-06,0.020110625
,,,2.77E-06,0.02023375
,,,2.78E-06,0.02029
,,,2.79E-06,0.02008
,,,2.8E-06,0.020459375
,,,2.81E-06,0.020195
,,,2.82E-06,0.02039875
,,,2.83E-06,0.020335625
,,,2.84E-06,0.020128125
,,,2.85E-06,0.02019875
,,,2.86E-06,0.020311875
,,,2.87E-06,0.0203375
,,,2.88E-06,0.020094375
,,,2.89E-06,0.02028375
,,,2.9E-06,0.02026375
,,,2.91E-06,0.020278125
,,,2.92E-06,0.02028
,,,2.93E-06,0.02027875
,,,2.94E-06,0.01999125
,,,2.95E-06,0.020141875
,,,2.96E-06,0.02005
,,,2.97E-06,0.020276875
,,,2.98E-06,0.02033875
,,,2.99E-06,0.02037875
,,,3E-06,0.020111875
,,,3.01E-06,0.02019
,,,3.02E-06,0.02014375
,,,3.03E-06,0.020095625
,,,3.04E-06,0.0203425
,,,3.05E-06,0.020313125
,,,3.06E-06,0.02034875
,,,3.07E-06,0.02045875
,,,3.08E-06,0.0203725
,,,3.09E-06,0.019916875
,,,3.1E-06,0.0203475
,,,3.11E-06,0.02034
,,,3.12E-06,0.02010125
,,,3.13E-06,0.019983125
,,,3.14E-06,0.02043375
,,,3.15E-06,0.020424375
,,,3.16E-06,0.020118125
,,,3.17E-06,0.020124375
,,,3.18E-06,0.02030375
,,,3.19E-06,0.020383125
,,,3.2E-06,0.01993375
,,,3.21E-06,0.020343125
,,,3.22E-06,0.020174375
,,,3.23E-06,0.020210625
,,,3.24E-06,0.020140625
,,,3.25E-06,0.02003875
,,,3.26E-06,0.020276875
,,,3.27E-06,0.020338125
,,,3.28E-06,0.020175625
,,,3.29E-06,0.020146875
,,,3.3E-06,0.02028125
,,,3.31E-06,0.02038125
,,,3.32E-06,0.020185
,,,3.33E-06,0.020195625
,,,3.34E-06,0.020445
,,,3.35E-06,0.020330625
,,,3.36E-06,0.020284375
,,,3.37E-06,0.0203875
,,,3.38E-06,0.020345
,,,3.39E-06,0.020215
,,,3.4E-06,0.020193125
,,,3.41E-06,0.020190625
,,,3.42E-06,0.02046125
,,,3.43E-06,0.020245
,,,3.44E-06,0.02011625
,,,3.45E-06,0.0202975
,,,3.46E-06,0.020360625
,,,3.47E-06,0.02037
,,,3.48E-06,0.020080625
,,,3.49E-06,0.02005875
,,,3.5E-06,0.02037875
,,,3.51E-06,0.020101875
,,,3.52E-06,0.020384375
,,,3.53E-06,0.020075
,,,3.54E-06,0.020440625
,,,3.55E-06,0.020130625
,,,3.56E-06,0.02022
,,,3.57E-06,0.020125
,,,3.58E-06,0.0200975
,,,3.59E-06,0.01997875
