data/raw/Final_POL_Test_1/SOP008_Ch4.csv

"Record Length",1000,"Points",-5E-06,0.0190125
"Sample Interval",1E-08,s,-4.99E-06,0.01881375
"Trigger Point",500,"Samples",-4.98E-06,0.019064375
"Trigger Time",0,s,-4.97E-06,0.019051875
"",,,-4.96E-06,0.0190375
"Horizontal Offset",-5E-06,s,-4.95E-06,0.01891875
,,,-4.94E-06,0.018885625
,,,-4.93E-06,0.01905
,,,-4.92E-06,0.018895
,,,-4.91E-06,0.019128125
,,,-4.9E-06,0.019086875
,,,-4.89E-06,0.01923875
,,,-4.88E-06,0.019228125
,,,-4.87E-06,0.019169375
,,,-4.86E-06,0.018734375
,,,-4.85E-06,0.019094375
,,,-4.84E-06,0.01906
,,,-4.83E-06,0.019046875
,,,-4.82E-06,0.01889625
,,,-4.81E-06,0.01896875
,,,-4.8E-06,0.018846875
,,,-4.79E-06,0.018818125
,,,-4.78E-06,0.019039375
,,,-4.77E-06,0.01882
,,,-4.76E-06,0.019125
,,,-4.75E-06,0.018974375
,,,-4.74E-06,0.018900625
,,,-4.73E-06,0.019224375
,,,-4.72E-06,0.018945625
,,,-4.71E-06,0.01894625
,,,-4.7E-06,0.018875
,,,-4.69E-06,0.019069375
,,,-4.68E-06,0.01926
,,,-4.67E-06,0.019026875
,,,-4.66E-06,0.01898375
,,,-4.65E-06,0.018984375
,,,-4.64E-06,0.0192275
,,,-4.63E-06,0.0189325
,,,-4.62E-06,0.018813125
,,,-4.61E-06,0.01881
,,,-4.6E-06,0.0191225
,,,-4.59E-06,0.018935625
,,,-4.58E-06,0.019048125
,,,-4.57E-06,0.01885125
,,,-4.56E-06,0.019113125
,,,-4.55E-06,0.018904375
,,,-4.54E-06,0.018746875
,,,-4.53E-06,0.01885625
,,,-4.52E-06,0.018929375
,,,-4.51E-06,0.018826875
,,,-4.5E-06,0.01884625
,,,-4.49E-06,0.018950625
,,,-4.48E-06,0.018755625
,,,-4.47E-06,0.01891
,,,-4.46E-06,0.01906
,,,-4.45E-06,0.018944375
,,,-4.44E-06,0.0189375
,,,-4.43E-06,0.019164375
,,,-4.42E-06,0.019105625
,,,-4.41E-06,0.018865
,,,-4.4E-06,0.01905125
,,,-4.39E-06,0.01906125
,,,-4.38E-06,0.019038125
,,,-4.37E-06,0.0190925
,,,-4.36E-06,0.01898625
,,,-4.35E-06,0.01872625
,,,-4.34E-06,0.019244375
,,,-4.33E-06,0.019144375
,,,-4.32E-06,0.019135
,,,-4.31E-06,0.01939875
,,,-4.3E-06,0.019075
,,,-4.29E-06,0.019026875
,,,-4.28E-06,0.0189925
,,,-4.27E-06,0.019099375
,,,-4.26E-06,0.018785625
,,,-4.25E-06,0.019361875
,,,-4.24E-06,0.01935125
,,,-4.23E-06,0.019118125
,,,-4.22E-06,0.01893625
,,,-4.21E-06,0.018928125
,,,-4.2E-06,0.019130625
,,,-4.19E-06,0.019020625
,,,-4.18E-06,0.0190725
,,,-4.17E-06,0.01894875
,,,-4.16E-06,0.018976875
,,,-4.15E-06,0.01880625
,,,-4.14E-06,0.01903625
,,,-4.13E-06,0.018995625
,,,-4.12E-06,0.0191425
,,,-4.11E-06,0.018994375
,,,-4.1E-06,0.01897125
,,,-4.09E-06,0.018684375
,,,-4.08E-06,0.01919
,,,-4.07E-06,0.019105
,,,-4.06E-06,0.019104375
,,,-4.05E-06,0.019073125
,,,-4.04E-06,0.01907625
,,,-4.03E-06,0.019143125
,,,-4.02E-06,0.019069375
,,,-4.01E-06,0.018923125
,,,-4E-06,0.019054375
,,,-3.99E-06,0.018831875
,,,-3.98E-06,0.019196875
,,,-3.97E-06,0.019034375
,,,-3.96E-06,0.019160625
,,,-3.95E-06,0.019021875
,,,-3.94E-06,0.019195625
,,,-3.93E-06,0.0192
,,,-3.92E-06,0.01911375
,,,-3.91E-06,0.019251875
,,,-3.9E-06,0.019185625
,,,-3.89E-06,0.01913875
,,,-3.88E-06,0.0189475
,,,-3.87E-06,0.0189725
,,,-3.86E-06,0.01906375
,,,-3.85E-06,0.018849375
,,,-3.84E-06,0.019219375
,,,-3.83E-06,0.01915625
,,,-3.82E-06,0.018901875
,,,-3.81E-06,0.01898
,,,-3.8E-06,0.019094375
,,,-3.79E-06,0.019150625
,,,-3.78E-06,0.01874875
,,,-3.77E-06,0.0189575
,,,-3.76E-06,0.019031875
,,,-3.75E-06,0.01903875
,,,-3.74E-06,0.01912125
,,,-3.73E-06,0.019090625
,,,-3.72E-06,0.018733125
,,,-3.71E-06,0.019148125
,,,-3.7E-06,0.01900625
,,,-3.69E-06,0.018938125
,,,-3.68E-06,0.018655625
,,,-3.67E-06,0.019166875
,,,-3.66E-06,0.019063125
,,,-3.65E-06,0.0189
,,,-3.64E-06,0.018924375
,,,-3.63E-06,0.018986875
,,,-3.62E-06,0.0190325
,,,-3.61E-06,0.01903625
,,,-3.6E-06,0.018695
,,,-3.59E-06,0.01904375
,,,-3.58E-06,0.018999375
,,,-3.57E-06,0.01919
,,,-3.56E-06,0.019195625
,,,-3.55E-06,0.018938125
,,,-3.54E-06,0.018900625
,,,-3.53E-06,0.019133125
,,,-3.52E-06,0.01913125
,,,-3.51E-06,0.01892875
,,,-3.5E-06,0.019098125
,,,-3.49E-06,0.019115
,,,-3.48E-06,0.019205
,,,-3.47E-06,0.01906875
,,,-3.46E-06,0.019275
,,,-3.45E-06,0.0188075
,,,-3.44E-06,0.018825
,,,-3.43E-06,0.019049375
,,,-3.42E-06,0.01903
,,,-3.41E-06,0.01911
,,,-3.4E-06,0.0190825
,,,-3.39E-06,0.01905125
,,,-3.38E-06,0.01935625
,,,-3.37E-06,0.018986875
,,,-3.36E-06,0.01905
,,,-3.35E-06,0.01899875
,,,-3.34E-06,0.019095
,,,-3.33E-06,0.01903125
,,,-3.32E-06,0.018918125
,,,-3.31E-06,0.019146875
,,,-3.3E-06,0.019054375
,,,-3.29E-06,0.019113125
,,,-3.28E-06,0.018964375
,,,-3.27E-06,0.0190725
,,,-3.26E-06,0.01883625
,,,-3.25E-06,0.018888125
,,,-3.24E-06,0.019055
,,,-3.23E-06,0.019065625
,,,-3.22E-06,0.0189925
,,,-3.21E-06,0.01902375
,,,-3.2E-06,0.01875125
,,,-3.19E-06,0.019030625
,,,-3.18E-06,0.018901875
,,,-3.17E-06,0.01900875
,,,-3.16E-06,0.01899875
,,,-3.15E-06,0.018886875
,,,-3.14E-06,0.0194025
,,,-3.13E-06,0.0191075
,,,-3.12E-06,0.019169375
,,,-3.11E-06,0.018995
,,,-3.1E-06,0.0190075
,,,-3.09E-06,0.0190525
,,,-3.08E-06,0.018985
,,,-3.07E-06,0.019215
,,,-3.06E-06,0.0191425
,,,-3.05E-06,0.0190775
,,,-3.04E-06,0.019235
,,,-3.03E-06,0.018986875
,,,-3.02E-06,0.01895875
,,,-3.01E-06,0.01912375
,,,-3E-06,0.0191025
,,,-2.99E-06,0.019044375
,,,-2.98E-06,0.019126875
,,,-2.97E-06,0.0189675
,,,-2.96E-06,0.019093125
,,,-2.95E-06,0.0188725
,,,-2.94E-06,0.0189
,,,-2.93E-06,0.019346875
,,,-2.92E-06,0.019054375
,,,-2.91E-06,0.0189325
,,,-2.9E-06,0.01891375
,,,-2.89E-06,0.01917875
,,,-2.88E-06,0.018896875
,,,-2.87E-06,0.01883375
,,,-2.86E-06,0.01897
,,,-2.85E-06,0.01902875
,,,-2.84E-06,0.01906875
,,,-2.83E-06,0.01896
,,,-2.82E-06,0.019085
,,,-2.81E-06,0.01920875
,,,-2.8E-06,0.019075625
,,,-2.79E-06,0.019030625
,,,-2.78E-06,0.018985625
,,,-2.77E-06,0.019020625
,,,-2.76E-06,0.018886875
,,,-2.75E-06,0.01893125
,,,-2.74E-06,0.01906375
,,,-2.73E-06,0.01903125
,,,-2.72E-06,0.018961875
,,,-2.71E-06,0.019023125
,,,-2.7E-06,0.018839375
,,,-2.69E-06,0.01901625
,,,-2.68E-06,0.01889875
,,,-2.67E-06,0.0191325
,,,-2.66E-06,0.01900125
,,,-2.65E-06,0.019063125
,,,-2.64E-06,0.0189925
,,,-2.63E-06,0.019064375
,,,-2.62E-06,0.01900125
,,,-2.61E-06,0.01905875
,,,-2.6E-06,0.019140625
,,,-2.59E-06,0.0193275
,,,-2.58E-06,0.01924125
,,,-2.57E-06,0.019180625
,,,-2.56E-06,0.019138125
,,,-2.55E-06,0.01943375
,,,-2.54E-06,0.019013125
,,,-2.53E-06,0.019176875
,,,-2.52E-06,0.018863125
,,,-2.51E-06,0.019085625
,,,-2.5E-06,0.018844375
,,,-2.49E-06,0.01908875
,,,-2.48E-06,0.0191075
,,,-2.47E-06,0.019075625
,,,-2.46E-06,0.01915
,,,-2.45E-06,0.019179375
,,,-2.44E-06,0.018954375
,,,-2.43E-06,0.019005625
,,,-2.42E-06,0.018933125
,,,-2.41E-06,0.018906875
,,,-2.4E-06,0.019085625
,,,-2.39E-06,0.018951875
,,,-2.38E-06,0.01907125
,,,-2.37E-06,0.01894875
,,,-2.36E-06,0.0190125
,,,-2.35E-06,0.018849375
,,,-2.34E-06,0.018894375
,,,-2.33E-06,0.01925125
,,,-2.32E-06,0.019074375
,,,-2.31E-06,0.01904125
,,,-2.3E-06,0.01881125
,,,-2.29E-06,0.019050625
,,,-2.28E-06,0.018768125
,,,-2.27E-06,0.019278125
,,,-2.26E-06,0.019145
,,,-2.25E-06,0.019095
,,,-2.24E-06,0.019033125
,,,-2.23E-06,0.019030625
,,,-2.22E-06,0.01904875
,,,-2.21E-06,0.01886875
,,,-2.2E-06,0.019158125
,,,-2.19E-06,0.018931875
,,,-2.18E-06,0.019193125
,,,-2.17E-06,0.018995625
,,,-2.16E-06,0.019185625
,,,-2.15E-06,0.019138125
,,,-2.14E-06,0.01919625
,,,-2.13E-06,0.019249375
,,,-2.12E-06,0.019085625
,,,-2.11E-06,0.019220625
,,,-2.1E-06,0.0192425
,,,-2.09E-06,0.019070625
,,,-2.08E-06,0.019084375
,,,-2.07E-06,0.01883125
,,,-2.06E-06,0.0189925
,,,-2.05E-06,0.018935
,,,-2.04E-06,0.019089375
,,,-2.03E-06,0.0190075
,,,-2.02E-06,0.018951875
,,,-2.01E-06,0.019180625
,,,-2E-06,0.018918125
,,,-1.99E-06,0.019065
,,,-1.98E-06,0.0189975
,,,-1.97E-06,0.01883875
,,,-1.96E-06,0.018968125
,,,-1.95E-06,0.01887
,,,-1.94E-06,0.018748125
,,,-1.93E-06,0.018730625
,,,-1.92E-06,0.01943125
,,,-1.91E-06,0.01905375
,,,-1.9E-06,0.0189125
,,,-1.89E-06,0.019088125
,,,-1.88E-06,0.018823125
,,,-1.87E-06,0.01906
,,,-1.86E-06,0.01906625
,,,-1.85E-06,0.019196875
,,,-1.84E-06,0.018969375
,,,-1.83E-06,0.0189225
,,,-1.82E-06,0.019095
,,,-1.81E-06,0.018888125
,,,-1.8E-06,0.01891125
,,,-1.79E-06,0.019106875
,,,-1.78E-06,0.019068125
,,,-1.77E-06,0.01897875
,,,-1.76E-06,0.019208125
,,,-1.75E-06,0.019058125
,,,-1.74E-06,0.019173125
,,,-1.73E-06,0.018904375
,,,-1.72E-06,0.01891
,,,-1.71E-06,0.018910625
,,,-1.7E-06,0.01890875
,,,-1.69E-06,0.01908625
,,,-1.68E-06,0.018811875
,,,-1.67E-06,0.0188275
,,,-1.66E-06,0.01902
,,,-1.65E-06,0.01877
,,,-1.64E-06,0.019
,,,-1.63E-06,0.01918375
,,,-1.62E-06,0.01893375
,,,-1.61E-06,0.018958125
,,,-1.6E-06,0.01908375
,,,-1.59E-06,0.019109375
,,,-1.58E-06,0.019275
,,,-1.57E-06,0.018905625
,,,-1.56E-06,0.01884625
,,,-1.55E-06,0.018844375
,,,-1.54E-06,0.01910875
,,,-1.53E-06,0.01897
,,,-1.52E-06,0.0191025
,,,-1.51E-06,0.0191
,,,-1.5E-06,0.01929625
,,,-1.49E-06,0.019151875
,,,-1.48E-06,0.0191375
,,,-1.47E-06,0.01891125
,,,-1.46E-06,0.018933125
,,,-1.45E-06,0.019014375
,,,-1.44E-06,0.01900375
,,,-1.43E-06,0.01919375
,,,-1.42E-06,0.0188975
,,,-1.41E-06,0.019179375
,,,-1.4E-06,0.019125
,,,-1.39E-06,0.019270625
,,,-1.38E-06,0.01903375
,,,-1.37E-06,0.0191825
,,,-1.36E-06,0.018940625
,,,-1.35E-06,0.01905625
,,,-1.34E-06,0.019096875
,,,-1.33E-06,0.01910375
,,,-1.32E-06,0.019146875
,,,-1.31E-06,0.018784375
,,,-1.3E-06,0.0190325
,,,-1.29E-06,0.018900625
,,,-1.28E-06,0.0188675
,,,-1.27E-06,0.01893375
,,,-1.26E-06,0.01914875
,,,-1.25E-06,0.018955
,,,-1.24E-06,0.0191575
,,,-1.23E-06,0.019110625
,,,-1.22E-06,0.01890875
,,,-1.21E-06,0.01896875
,,,-1.2E-06,0.019221875
,,,-1.19E-06,0.019193125
,,,-1.18E-06,0.01897125
,,,-1.17E-06,0.018993125
,,,-1.16E-06,0.01902875
,,,-1.15E-06,0.019014375
,,,-1.14E-06,0.018995625
,,,-1.13E-06,0.0189775
,,,-1.12E-06,0.0188125
,,,-1.11E-06,0.019095
,,,-1.1E-06,0.01901625
,,,-1.09E-06,0.019139375
,,,-1.08E-06,0.01911625
,,,-1.07E-06,0.01904
,,,-1.06E-06,0.018858125
,,,-1.05E-06,0.018811875
,,,-1.04E-06,0.0189625
,,,-1.03E-06,0.01898875
,,,-1.02E-06,0.019183125
,,,-1.01E-06,0.01903875
,,,-1E-06,0.0190575
,,,-9.9E-07,0.01920625
,,,-9.8E-07,0.01914
,,,-9.7E-07,0.01907
,,,-9.6E-07,0.01913375
,,,-9.5E-07,0.01906625
,,,-9.4E-07,0.019080625
,,,-9.3E-07,0.018844375
,,,-9.2E-07,0.01911
,,,-9.1E-07,0.01913625
,,,-9E-07,0.018891875
,,,-8.9E-07,0.0192275
,,,-8.8E-07,0.018815
,,,-8.7E-07,0.019179375
,,,-8.6E-07,0.01911
,,,-8.5E-07,0.018840625
,,,-8.4E-07,0.019138125
,,,-8.3E-07,0.019125
,,,-8.2E-07,0.01920375
,,,-8.1E-07,0.01904
,,,-8E-07,0.01896625
,,,-7.9E-07,0.01922375
,,,-7.8E-07,0.019174375
,,,-7.7E-07,0.019066875
,,,-7.6E-07,0.01909
,,,-7.5E-07,0.018998125
,,,-7.4E-07,0.019205
,,,-7.3E-07,0.01895125
,,,-7.2E-07,0.01909
,,,-7.1E-07,0.018779375
,,,-7E-07,0.01904375
,,,-6.9E-07,0.01904125
,,,-6.8E-07,0.018959375
,,,-6.7E-07,0.01902125
,,,-6.6E-07,0.018854375
,,,-6.5E-07,0.019021875
,,,-6.4E-07,0.019038125
,,,-6.3E-07,0.019069375
,,,-6.2E-07,0.01900375
,,,-6.1E-07,0.018989375
,,,-6E-07,0.018986875
,,,-5.9E-07,0.019058125
,,,-5.8E-07,0.01936875
,,,-5.7E-07,0.018838125
,,,-5.6E-07,0.018885
,,,-5.5E-07,0.01898625
,,,-5.4E-07,0.019196875
,,,-5.3E-07,0.0190875
,,,-5.2E-07,0.0191975
,,,-5.1E-07,0.019176875
,,,-5E-07,0.019133125
,,,-4.9E-07,0.01923375
,,,-4.8E-07,0.019030625
,,,-4.7E-07,0.019030625
,,,-4.6E-07,0.01898375
,,,-4.5E-07,0.019254375
,,,-4.4E-07,0.01919875
,,,-4.3E-07,0.018814375
,,,-4.2E-07,0.0192825
,,,-4.1E-07,0.01898625
,,,-4E-07,0.019064375
,,,-3.9E-07,0.01892875
,,,-3.8E-07,0.019114375
,,,-3.7E-07,0.01909875
,,,-3.6E-07,0.018978125
,,,-3.5E-07,0.01914375
,,,-3.4E-07,0.019008125
,,,-3.3E-07,0.019111875
,,,-3.2E-07,0.01912
,,,-3.1E-07,0.01902375
,,,-3E-07,0.0189525
,,,-2.9E-07,0.0191675
,,,-2.8E-07,0.01907
,,,-2.7E-07,0.01894375
,,,-2.6E-07,0.01903875
,,,-2.5E-07,0.019083125
,,,-2.4E-07,0.018938125
,,,-2.3E-07,0.018831875
,,,-2.2E-07,0.01903
,,,-2.1E-07,0.018733125
,,,-2E-07,0.019000625
,,,-1.9E-07,0.01896625
,,,-1.8E-07,0.019058125
,,,-1.7E-07,0.01902
,,,-1.6E-07,0.01899875
,,,-1.5E-07,0.01883
,,,-1.4E-07,0.0190325
,,,-1.3E-07,0.01886125
,,,-1.2E-07,0.01915875
,,,-1.1E-07,0.01903125
,,,-1E-07,0.019338125
,,,-9E-08,0.01904
,,,-8E-08,0.018901875
,,,-7E-08,0.019021875
,,,-6E-08,0.01915875
,,,-5E-08,0.01885625
,,,-4E-08,0.01885375
,,,-3E-08,0.019164375
,,,-2E-08,0.019040625
,,,-1E-08,0.019685625
,,,0,0.019036875
,,,1E-08,0.018948125
,,,2E-08,0.018665625
,,,3E-08,0.018803125
,,,4E-08,0.018938125
,,,5E-08,0.019644375
,,,6E-08,0.019299375
,,,7E-08,0.019230625
,,,8E-08,0.018845
,,,9E-08,0.01881125
,,,1E-07,0.018805
,,,1.1E-07,0.01892625
,,,1.2E-07,0.019021875
,,,1.3E-07,0.01898125
,,,1.4E-07,0.01902625
,,,1.5E-07,0.01872375
,,,1.6E-07,0.018693125
,,,1.7E-07,0.0191025
,,,1.8E-07,0.019340625
,,,1.9E-07,0.019205625
,,,2E-07,0.019323125
,,,2.1E-07,0.019161875
,,,2.2E-07,0.018753125
,,,2.3E-07,0.018776875
,,,2.4E-07,0.018946875
,,,2.5E-07,0.019045
,,,2.6E-07,0.01917625
,,,2.7E-07,0.018921875
,,,2.8E-07,0.019225625
,,,2.9E-07,0.0189725
,,,3E-07,0.0190675
,,,3.1E-07,0.018931875
,,,3.2E-07,0.0190325
,,,3.3E-07,0.019343125
,,,3.4E-07,0.019149375
,,,3.5E-07,0.0191025
,,,3.6E-07,0.01892125
,,,3.7E-07,0.01880625
,,,3.8E-07,0.019115
,,,3.9E-07,0.01896
,,,4E-07,0.019213125
,,,4.1E-07,0.019094375
,,,4.2E-07,0.01911875
,,,4.3E-07,0.01904125
,,,4.4E-07,0.018939375
,,,4.5E-07,0.019035625
,,,4.6E-07,0.019065625
,,,4.7E-07,0.019038125
,,,4.8E-07,0.0189925
,,,4.9E-07,0.0189925
,,,5E-07,0.01902875
,,,5.1E-07,0.01909125
,,,5.2E-07,0.01881625
,,,5.3E-07,0.01888
,,,5.4E-07,0.01909125
,,,5.5E-07,0.0189425
,,,5.6E-07,0.019125
,,,5.7E-07,0.0190725
,,,5.8E-07,0.019150625
,,,5.9E-07,0.01910375
,,,6E-07,0.019075625
,,,6.1E-07,0.01890125
,,,6.2E-07,0.01885125
,,,6.3E-07,0.01873625
,,,6.4E-07,0.018898125
,,,6.5E-07,0.019131875
,,,6.6E-07,0.018901875
,,,6.7E-07,0.01895375
,,,6.8E-07,0.019171875
,,,6.9E-07,0.0189075
,,,7E-07,0.018943125
,,,7.1E-07,0.01899125
,,,7.2E-07,0.01894875
,,,7.3E-07,0.01936
,,,7.4E-07,0.018995
,,,7.5E-07,0.01883875
,,,7.6E-07,0.018995625
,,,7.7E-07,0.019183125
,,,7.8E-07,0.01889375
,,,7.9E-07,0.01917125
,,,8E-07,0.019055625
,,,8.1E-07,0.0189275
,,,8.2E-07,0.019123125
,,,8.3E-07,0.019021875
,,,8.4E-07,0.019055
,,,8.5E-07,0.019275
,,,8.6E-07,0.01896375
,,,8.7E-07,0.019005625
,,,8.8E-07,0.0189325
,,,8.9E-07,0.019209375
,,,9E-07,0.019198125
,,,9.1E-07,0.019191875
,,,9.2E-07,0.019083125
,,,9.3E-07,0.0189625
,,,9.4E-07,0.01893125
,,,9.5E-07,0.018933125
,,,9.6E-07,0.019031875
,,,9.7E-07,0.018763125
,,,9.8E-07,0.01935
,,,9.9E-07,0.019203125
,,,1E-06,0.01875875
,,,1.01E-06,0.0189775
,,,1.02E-06,0.019338125
,,,1.03E-06,0.01906875
,,,1.04E-06,0.01904625
,,,1.05E-06,0.019
,,,1.06E-06,0.01903875
,,,1.07E-06,0.019030625
,,,1.08E-06,0.018801875
,,,1.09E-06,0.01887
,,,1.1E-06,0.019084375
,,,1.11E-06,0.01928
,,,1.12E-06,0.019079375
,,,1.13E-06,0.018965625
,,,1.14E-06,0.01902375
,,,1.15E-06,0.019035
,,,1.16E-06,0.01884125
,,,1.17E-06,0.018949375
,,,1.18E-06,0.01908125
,,,1.19E-06,0.018865
,,,1.2E-06,0.018886875
,,,1.21E-06,0.019035
,,,1.22E-06,0.019
,,,1.23E-06,0.019204375
,,,1.24E-06,0.018788125
,,,1.25E-06,0.0188325
,,,1.26E-06,0.01892875
,,,1.27E-06,0.019019375
,,,1.28E-06,0.019165625
,,,1.29E-06,0.019238125
,,,1.3E-06,0.018916875
,,,1.31E-06,0.019043125
,,,1.32E-06,0.01924
,,,1.33E-06,0.01900875
,,,1.34E-06,0.018971875
,,,1.35E-06,0.018989375
,,,1.36E-06,0.018905625
,,,1.37E-06,0.01931125
,,,1.38E-06,0.019005
,,,1.39E-06,0.0192775
,,,1.4E-06,0.0190125
,,,1.41E-06,0.0189675
,,,1.42E-06,0.019009375
,,,1.43E-06,0.01922
,,,1.44E-06,0.0189075
,,,1.45E-06,0.01898
,,,1.46E-06,0.019118125
,,,1.47E-06,0.019343125
,,,1.48E-06,0.018874375
,,,1.49E-06,0.019004375
,,,1.5E-06,0.01912625
,,,1.51E-06,0.019249375
,,,1.52E-06,0.019078125
,,,1.53E-06,0.018875625
,,,1.54E-06,0.019220625
,,,1.55E-06,0.019205625
,,,1.56E-06,0.019118125
,,,1.57E-06,0.019071875
,,,1.58E-06,0.018905
,,,1.59E-06,0.018968125
,,,1.6E-06,0.019108125
,,,1.61E-06,0.019209375
,,,1.62E-06,0.019079375
,,,1.63E-06,0.018981875
,,,1.64E-06,0.01913125
,,,1.65E-06,0.019016875
,,,1.66E-06,0.01913625
,,,1.67E-06,0.019093125
,,,1.68E-06,0.01911625
,,,1.69E-06,0.018799375
,,,1.7E-06,0.0189325
,,,1.71E-06,0.019074375
,,,1.72E-06,0.019073125
,,,1.73E-06,0.019146875
,,,1.74E-06,0.018709375
,,,1.75E-06,0.01921875
,,,1.76E-06,0.018954375
,,,1.77E-06,0.018954375
,,,1.78E-06,0.019131875
,,,1.79E-06,0.019015625
,,,1.8E-06,0.01935375
,,,1.81E-06,0.0191525
,,,1.82E-06,0.018805
,,,1.83E-06,0.019144375
,,,1.84E-06,0.019084375
,,,1.85E-06,0.0189375
,,,1.86E-06,0.01898
,,,1.87E-06,0.019001875
,,,1.88E-06,0.019075
,,,1.89E-06,0.01923375
,,,1.9E-06,0.019094375
,,,1.91E-06,0.018955
,,,1.92E-06,0.0189225
,,,1.93E-06,0.019051875
,,,1.94E-06,0.0190125
,,,1.95E-06,0.01877
,,,1.96E-06,0.01889875
,,,1.97E-06,0.01903
,,,1.98E-06,0.018861875
,,,1.99E-06,0.019294375
,,,2E-06,0.018935
,,,2.01E-06,0.019105
,,,2.02E-06,0.01901
,,,2.03E-06,0.018845625
,,,2.04E-06,0.01899625
,,,2.05E-06,0.01893375
,,,2.06E-06,0.019184375
,,,2.07E-06,0.019384375
,,,2.08E-06,0.01867375
,,,2.09E-06,0.019119375
,,,2.1E-06,0.01912375
,,,2.11E-06,0.0188825
,,,2.12E-06,0.018863125
,,,2.13E-06,0.018860625
,,,2.14E-06,0.01902875
,,,2.15E-06,0.018990625
,,,2.16E-06,0.0189825
,,,2.17E-06,0.018981875
,,,2.18E-06,0.01920875
,,,2.19E-06,0.019096875
,,,2.2E-06,0.0190575
,,,2.21E-06,0.01892
,,,2.22E-06,0.019180625
,,,2.23E-06,0.01890875
,,,2.24E-06,0.0187825
,,,2.25E-06,0.018791875
,,,2.26E-06,0.019129375
,,,2.27E-06,0.0188875
,,,2.28E-06,0.018983125
,,,2.29E-06,0.01894125
,,,2.3E-06,0.018983125
,,,2.31E-06,0.019215
,,,2.32E-06,0.0189525
,,,2.33E-06,0.01897
,,,2.34E-06,0.0190425
,,,2.35E-06,0.019085
,,,2.36E-06,0.019154375
,,,2.37E-06,0.01928125
,,,2.38E-06,0.01891375
,,,2.39E-06,0.0189425
,,,2.4E-06,0.019284375
,,,2.41E-06,0.019170625
,,,2.42E-06,0.018886875
,,,2.43E-06,0.018925625
,,,2.44E-06,0.019011875
,,,2.45E-06,0.01881625
,,,2.46E-06,0.0190775
,,,2.47E-06,0.0191625
,,,2.48E-06,0.01887375
,,,2.49E-06,0.01909
,,,2.5E-06,0.018966875
,,,2.51E-06,0.018918125
,,,2.52E-06,0.018870625
,,,2.53E-06,0.0190475
,,,2.54E-06,0.01911125
,,,2.55E-06,0.019228125
,,,2.56E-06,0.01894875
,,,2.57E-06,0.019095625
,,,2.58E-06,0.019165625
,,,2.59E-06,0.0191
,,,2.6E-06,0.019276875
,,,2.61E-06,0.0188225
,,,2.62E-06,0.0189425
,,,2.63E-06,0.018824375
,,,2.64E-06,0.019081875
,,,2.65E-06,0.019251875
,,,2.66E-06,0.018964375
,,,2.67E-06,0.018979375
,,,2.68E-06,0.018911875
,,,2.69E-06,0.018983125
,,,2.7E-06,0.018865
,,,2.71E-06,0.0191475
,,,2.72E-06,0.0192125
,,,2.73E-06,0.01913
,,,2.74E-06,0.0189525
,,,2.75E-06,0.01896125
,,,2.76E-06,0.018940625
,,,2.77E-06,0.0190225
,,,2.78E-06,0.018871875
,,,2.79E-06,0.01889875
,,,2.8E-06,0.019269375
,,,2.81E-06,0.019024375
,,,2.82E-06,0.018919375
,,,2.83E-06,0.019228125
,,,2.84E-06,0.01930375
,,,2.85E-06,0.01899375
,,,2.86E-06,0.01935625
,,,2.87E-06,0.01909625
,,,2.88E-06,0.018968125
,,,2.89E-06,0.0188575
,,,2.9E-06,0.018985625
,,,2.91E-06,0.019260625
,,,2.92E-06,0.018765
,,,2.93E-06,0.0189425
,,,2.94E-06,0.018829375
,,,2.95E-06,0.0190125
,,,2.96E-06,0.0192875
,,,2.97E-06,0.0192275
,,,2.98E-06,0.019166875
,,,2.99E-06,0.018998125
,,,3E-06,0.0190175
,,,3.01E-06,0.019025
,,,3.02E-06,0.0190775
,,,3.03E-06,0.019026875
,,,3.04E-06,0.01922
,,,3.05E-06,0.018985625
,,,3.06E-06,0.019065
,,,3.07E-06,0.019084375
,,,3.08E-06,0.0191325
,,,3.09E-06,0.019083125
,,,3.1E-06,0.01907875
,,,3.11E-06,0.018998125
,,,3.12E-06,0.018819375
,,,3.13E-06,0.018948125
,,,3.14E-06,0.01885625
,,,3.15E-06,0.01892125
,,,3.16E-06,0.0188125
,,,3.17E-06,0.019105
,,,3.18E-06,0.018694375
,,,3.19E-06,0.019079375
,,,3.2E-06,0.019263125
,,,3.21E-06,0.0192475
,,,3.22E-06,0.0189025
,,,3.23E-06,0.018950625
,,,3.24E-06,0.019041875
,,,3.25E-06,0.019149375
,,,3.26E-06,0.018999375
,,,3.27E-06,0.019325625
,,,3.28E-06,0.019126875
,,,3.29E-06,0.01892
,,,3.3E-06,0.019193125
,,,3.31E-06,0.019059375
,,,3.32E-06,0.0191025
,,,3.33E-06,0.0192275
,,,3.34E-06,0.01904125
,,,3.35E-06,0.018914375
,,,3.36E-06,0.0190925
,,,3.37E-06,0.019064375
,,,3.38E-06,0.019085
,,,3.39E-06,0.0190025
,,,3.4E-06,0.0191625
,,,3.41E-06,0.019181875
,,,3.42E-06,0.0188975
,,,3.43E-06,0.018830625
,,,3.44E-06,0.018925625
,,,3.45E-06,0.019080625
,,,3.46E-06,0.0189725
,,,3.47E-06,0.019095625
,,,3.48E-06,0.0189825
,,,3.49E-06,0.019089375
,,,3.5E-06,0.0188375
,,,3.51E-06,0.01918625
,,,3.52E-06,0.018923125
,,,3.53E-06,0.019153125
,,,3.54E-06,0.019095625
,,,3.55E-06,0.018678125
,,,3.56E-06,0.01912625
,,,3.57E-06,0.0189675
,,,3.58E-06,0.018931875
