data/raw/Final_POL_Test_1/SOP032_Ch4.csv

"Record Length",1000,"Points",-5E-06,0.018970625
"Sample Interval",1E-08,s,-4.99E-06,0.018678125
"Trigger Point",500,"Samples",-4.98E-06,0.0191275
"Trigger Time",0,s,-4.97E-06,0.018990625
"",,,-4.96E-06,0.018889375
"Horizontal Offset",-5E-06,s,-4.95E-06,0.01892625
,,,-4.94E-06,0.018976875
,,,-4.93E-06,0.01885625
,,,-4.92E-06,0.01899375
,,,-4.91E-06,0.018985
,,,-4.9E-06,0.01892
,,,-4.89E-06,0.01873625
,,,-4.88E-06,0.018869375
,,,-4.87E-06,0.018860625
,,,-4.86E-06,0.0189525
,,,-4.85E-06,0.0190475
,,,-4.84E-06,0.018943125
,,,-4.83E-06,0.019098125
,,,-4.82E-06,0.018860625
,,,-4.81E-06,0.01900875
,,,-4.8E-06,0.01887125
,,,-4.79E-06,0.018936875
,,,-4.78E-06,0.018946875
,,,-4.77E-06,0.019020625
,,,-4.76E-06,0.018795625
,,,-4.75E-06,0.018921875
,,,-4.74E-06,0.018904375
,,,-4.73E-06,0.019001875
,,,-4.72E-06,0.01895375
,,,-4.71E-06,0.01898625
,,,-4.7E-06,0.018998125
,,,-4.69E-06,0.01897875
,,,-4.68E-06,0.018975
,,,-4.67E-06,0.018961875
,,,-4.66E-06,0.019285625
,,,-4.65E-06,0.018769375
,,,-4.64E-06,0.018813125
,,,-4.63E-06,0.0187875
,,,-4.62E-06,0.019055
,,,-4.61E-06,0.018839375
,,,-4.6E-06,0.0190675
,,,-4.59E-06,0.01886875
,,,-4.58E-06,0.01903625
,,,-4.57E-06,0.0190825
,,,-4.56E-06,0.0187725
,,,-4.55E-06,0.01885875
,,,-4.54E-06,0.01896375
,,,-4.53E-06,0.01874625
,,,-4.52E-06,0.01885375
,,,-4.51E-06,0.018905
,,,-4.5E-06,0.018715
,,,-4.49E-06,0.019048125
,,,-4.48E-06,0.018969375
,,,-4.47E-06,0.018795625
,,,-4.46E-06,0.018945
,,,-4.45E-06,0.018871875
,,,-4.44E-06,0.018928125
,,,-4.43E-06,0.019185625
,,,-4.42E-06,0.018873125
,,,-4.41E-06,0.018920625
,,,-4.4E-06,0.018915625
,,,-4.39E-06,0.018938125
,,,-4.38E-06,0.018945
,,,-4.37E-06,0.01903625
,,,-4.36E-06,0.0192825
,,,-4.35E-06,0.01873
,,,-4.34E-06,0.018975625
,,,-4.33E-06,0.018936875
,,,-4.32E-06,0.01885625
,,,-4.31E-06,0.01914625
,,,-4.3E-06,0.019130625
,,,-4.29E-06,0.018924375
,,,-4.28E-06,0.018965
,,,-4.27E-06,0.0189525
,,,-4.26E-06,0.01893875
,,,-4.25E-06,0.018879375
,,,-4.24E-06,0.018931875
,,,-4.23E-06,0.019120625
,,,-4.22E-06,0.019065
,,,-4.21E-06,0.018925
,,,-4.2E-06,0.018746875
,,,-4.19E-06,0.01894125
,,,-4.18E-06,0.018996875
,,,-4.17E-06,0.01882875
,,,-4.16E-06,0.018651875
,,,-4.15E-06,0.018805
,,,-4.14E-06,0.01890375
,,,-4.13E-06,0.018901875
,,,-4.12E-06,0.0188325
,,,-4.11E-06,0.018835625
,,,-4.1E-06,0.018760625
,,,-4.09E-06,0.018964375
,,,-4.08E-06,0.019048125
,,,-4.07E-06,0.01899
,,,-4.06E-06,0.0189075
,,,-4.05E-06,0.01913625
,,,-4.04E-06,0.01883625
,,,-4.03E-06,0.019023125
,,,-4.02E-06,0.01895375
,,,-4.01E-06,0.019048125
,,,-4E-06,0.01869125
,,,-3.99E-06,0.018845
,,,-3.98E-06,0.018815
,,,-3.97E-06,0.018855
,,,-3.96E-06,0.018963125
,,,-3.95E-06,0.01881875
,,,-3.94E-06,0.018779375
,,,-3.93E-06,0.018730625
,,,-3.92E-06,0.0188
,,,-3.91E-06,0.0189775
,,,-3.9E-06,0.018870625
,,,-3.89E-06,0.0189375
,,,-3.88E-06,0.01882
,,,-3.87E-06,0.018958125
,,,-3.86E-06,0.018795
,,,-3.85E-06,0.01895
,,,-3.84E-06,0.01899625
,,,-3.83E-06,0.0190325
,,,-3.82E-06,0.01899625
,,,-3.81E-06,0.01878
,,,-3.8E-06,0.019056875
,,,-3.79E-06,0.0187225
,,,-3.78E-06,0.019053125
,,,-3.77E-06,0.018945
,,,-3.76E-06,0.01909625
,,,-3.75E-06,0.018838125
,,,-3.74E-06,0.018924375
,,,-3.73E-06,0.019008125
,,,-3.72E-06,0.018925
,,,-3.71E-06,0.01893375
,,,-3.7E-06,0.0189375
,,,-3.69E-06,0.018938125
,,,-3.68E-06,0.01881375
,,,-3.67E-06,0.01896375
,,,-3.66E-06,0.0189175
,,,-3.65E-06,0.018965
,,,-3.64E-06,0.019014375
,,,-3.63E-06,0.018913125
,,,-3.62E-06,0.018903125
,,,-3.61E-06,0.0188875
,,,-3.6E-06,0.018875
,,,-3.59E-06,0.0187875
,,,-3.58E-06,0.018926875
,,,-3.57E-06,0.019269375
,,,-3.56E-06,0.0188025
,,,-3.55E-06,0.019040625
,,,-3.54E-06,0.01865875
,,,-3.53E-06,0.01901375
,,,-3.52E-06,0.019035625
,,,-3.51E-06,0.0190125
,,,-3.5E-06,0.019224375
,,,-3.49E-06,0.019058125
,,,-3.48E-06,0.01893875
,,,-3.47E-06,0.019025
,,,-3.46E-06,0.01897125
,,,-3.45E-06,0.018976875
,,,-3.44E-06,0.018835
,,,-3.43E-06,0.018865
,,,-3.42E-06,0.018850625
,,,-3.41E-06,0.018898125
,,,-3.4E-06,0.019208125
,,,-3.39E-06,0.018815625
,,,-3.38E-06,0.0190675
,,,-3.37E-06,0.0188275
,,,-3.36E-06,0.0187575
,,,-3.35E-06,0.018835625
,,,-3.34E-06,0.01916875
,,,-3.33E-06,0.018879375
,,,-3.32E-06,0.0189325
,,,-3.31E-06,0.018841875
,,,-3.3E-06,0.019089375
,,,-3.29E-06,0.01884125
,,,-3.28E-06,0.01906125
,,,-3.27E-06,0.01879375
,,,-3.26E-06,0.018878125
,,,-3.25E-06,0.018858125
,,,-3.24E-06,0.018838125
,,,-3.23E-06,0.019043125
,,,-3.22E-06,0.018728125
,,,-3.21E-06,0.01881125
,,,-3.2E-06,0.018909375
,,,-3.19E-06,0.01887125
,,,-3.18E-06,0.0191075
,,,-3.17E-06,0.019083125
,,,-3.16E-06,0.01886875
,,,-3.15E-06,0.019038125
,,,-3.14E-06,0.01896125
,,,-3.13E-06,0.018830625
,,,-3.12E-06,0.018964375
,,,-3.11E-06,0.018980625
,,,-3.1E-06,0.018885625
,,,-3.09E-06,0.0188575
,,,-3.08E-06,0.018811875
,,,-3.07E-06,0.01896125
,,,-3.06E-06,0.018835
,,,-3.05E-06,0.01885625
,,,-3.04E-06,0.018933125
,,,-3.03E-06,0.0186825
,,,-3.02E-06,0.018938125
,,,-3.01E-06,0.0189775
,,,-3E-06,0.01894375
,,,-2.99E-06,0.018689375
,,,-2.98E-06,0.018866875
,,,-2.97E-06,0.018815
,,,-2.96E-06,0.0191075
,,,-2.95E-06,0.018865
,,,-2.94E-06,0.018753125
,,,-2.93E-06,0.018825
,,,-2.92E-06,0.019070625
,,,-2.91E-06,0.019021875
,,,-2.9E-06,0.0189775
,,,-2.89E-06,0.018924375
,,,-2.88E-06,0.018759375
,,,-2.87E-06,0.0190625
,,,-2.86E-06,0.0191175
,,,-2.85E-06,0.018930625
,,,-2.84E-06,0.01899375
,,,-2.83E-06,0.0189625
,,,-2.82E-06,0.018799375
,,,-2.81E-06,0.01874875
,,,-2.8E-06,0.018968125
,,,-2.79E-06,0.018995625
,,,-2.78E-06,0.0190025
,,,-2.77E-06,0.018841875
,,,-2.76E-06,0.018830625
,,,-2.75E-06,0.01903125
,,,-2.74E-06,0.0188625
,,,-2.73E-06,0.01886625
,,,-2.72E-06,0.01880625
,,,-2.71E-06,0.01906125
,,,-2.7E-06,0.0191525
,,,-2.69E-06,0.0188575
,,,-2.68E-06,0.01882125
,,,-2.67E-06,0.019056875
,,,-2.66E-06,0.018915625
,,,-2.65E-06,0.01890625
,,,-2.64E-06,0.018799375
,,,-2.63E-06,0.018799375
,,,-2.62E-06,0.018860625
,,,-2.61E-06,0.019001875
,,,-2.6E-06,0.01902125
,,,-2.59E-06,0.018895
,,,-2.58E-06,0.019134375
,,,-2.57E-06,0.01910625
,,,-2.56E-06,0.018699375
,,,-2.55E-06,0.0190025
,,,-2.54E-06,0.018908125
,,,-2.53E-06,0.019034375
,,,-2.52E-06,0.018765625
,,,-2.51E-06,0.01888125
,,,-2.5E-06,0.0189475
,,,-2.49E-06,0.01879375
,,,-2.48E-06,0.01877625
,,,-2.47E-06,0.01897125
,,,-2.46E-06,0.018848125
,,,-2.45E-06,0.018781875
,,,-2.44E-06,0.018905
,,,-2.43E-06,0.0187725
,,,-2.42E-06,0.018900625
,,,-2.41E-06,0.019035
,,,-2.4E-06,0.0189225
,,,-2.39E-06,0.018919375
,,,-2.38E-06,0.018898125
,,,-2.37E-06,0.018756875
,,,-2.36E-06,0.018793125
,,,-2.35E-06,0.01905
,,,-2.34E-06,0.01906875
,,,-2.33E-06,0.019036875
,,,-2.32E-06,0.01909625
,,,-2.31E-06,0.019140625
,,,-2.3E-06,0.019083125
,,,-2.29E-06,0.018938125
,,,-2.28E-06,0.019035
,,,-2.27E-06,0.018860625
,,,-2.26E-06,0.01873
,,,-2.25E-06,0.01899
,,,-2.24E-06,0.018841875
,,,-2.23E-06,0.019075625
,,,-2.22E-06,0.018795
,,,-2.21E-06,0.0187575
,,,-2.2E-06,0.0189375
,,,-2.19E-06,0.01907
,,,-2.18E-06,0.01881625
,,,-2.17E-06,0.01896875
,,,-2.16E-06,0.0189075
,,,-2.15E-06,0.018845
,,,-2.14E-06,0.0190275
,,,-2.13E-06,0.0187775
,,,-2.12E-06,0.0189375
,,,-2.11E-06,0.018899375
,,,-2.1E-06,0.019013125
,,,-2.09E-06,0.018945
,,,-2.08E-06,0.019054375
,,,-2.07E-06,0.0189425
,,,-2.06E-06,0.0188
,,,-2.05E-06,0.0188575
,,,-2.04E-06,0.01880625
,,,-2.03E-06,0.018821875
,,,-2.02E-06,0.018895625
,,,-2.01E-06,0.01881125
,,,-2E-06,0.0188875
,,,-1.99E-06,0.019063125
,,,-1.98E-06,0.019020625
,,,-1.97E-06,0.018753125
,,,-1.96E-06,0.01888625
,,,-1.95E-06,0.018863125
,,,-1.94E-06,0.018823125
,,,-1.93E-06,0.019059375
,,,-1.92E-06,0.019068125
,,,-1.91E-06,0.01910875
,,,-1.9E-06,0.0188525
,,,-1.89E-06,0.018736875
,,,-1.88E-06,0.019009375
,,,-1.87E-06,0.018894375
,,,-1.86E-06,0.018744375
,,,-1.85E-06,0.01902875
,,,-1.84E-06,0.019036875
,,,-1.83E-06,0.018964375
,,,-1.82E-06,0.019090625
,,,-1.81E-06,0.018851875
,,,-1.8E-06,0.01881625
,,,-1.79E-06,0.018993125
,,,-1.78E-06,0.01904375
,,,-1.77E-06,0.01908
,,,-1.76E-06,0.018929375
,,,-1.75E-06,0.018720625
,,,-1.74E-06,0.01899
,,,-1.73E-06,0.018848125
,,,-1.72E-06,0.018880625
,,,-1.71E-06,0.01884125
,,,-1.7E-06,0.019011875
,,,-1.69E-06,0.019059375
,,,-1.68E-06,0.01902375
,,,-1.67E-06,0.01895875
,,,-1.66E-06,0.01900375
,,,-1.65E-06,0.018744375
,,,-1.64E-06,0.01896625
,,,-1.63E-06,0.01883
,,,-1.62E-06,0.018854375
,,,-1.61E-06,0.018835625
,,,-1.6E-06,0.018939375
,,,-1.59E-06,0.018831875
,,,-1.58E-06,0.018766875
,,,-1.57E-06,0.018974375
,,,-1.56E-06,0.018725625
,,,-1.55E-06,0.01886625
,,,-1.54E-06,0.019090625
,,,-1.53E-06,0.01906
,,,-1.52E-06,0.018790625
,,,-1.51E-06,0.018939375
,,,-1.5E-06,0.01874
,,,-1.49E-06,0.018733125
,,,-1.48E-06,0.0189825
,,,-1.47E-06,0.018656875
,,,-1.46E-06,0.018703125
,,,-1.45E-06,0.0188425
,,,-1.44E-06,0.018896875
,,,-1.43E-06,0.0190125
,,,-1.42E-06,0.018788125
,,,-1.41E-06,0.018834375
,,,-1.4E-06,0.018981875
,,,-1.39E-06,0.01885375
,,,-1.38E-06,0.019088125
,,,-1.37E-06,0.018935
,,,-1.36E-06,0.018916875
,,,-1.35E-06,0.0188025
,,,-1.34E-06,0.0190525
,,,-1.33E-06,0.0188575
,,,-1.32E-06,0.019040625
,,,-1.31E-06,0.0187725
,,,-1.3E-06,0.01891125
,,,-1.29E-06,0.018975625
,,,-1.28E-06,0.019184375
,,,-1.27E-06,0.01902625
,,,-1.26E-06,0.019114375
,,,-1.25E-06,0.01901875
,,,-1.24E-06,0.018885
,,,-1.23E-06,0.018975
,,,-1.22E-06,0.01875875
,,,-1.21E-06,0.01897625
,,,-1.2E-06,0.01904875
,,,-1.19E-06,0.018895
,,,-1.18E-06,0.0190275
,,,-1.17E-06,0.01906375
,,,-1.16E-06,0.01865125
,,,-1.15E-06,0.0189675
,,,-1.14E-06,0.019033125
,,,-1.13E-06,0.018808125
,,,-1.12E-06,0.01888375
,,,-1.11E-06,0.01878375
,,,-1.1E-06,0.01905
,,,-1.09E-06,0.01888625
,,,-1.08E-06,0.018808125
,,,-1.07E-06,0.019008125
,,,-1.06E-06,0.018851875
,,,-1.05E-06,0.01900625
,,,-1.04E-06,0.018931875
,,,-1.03E-06,0.01903125
,,,-1.02E-06,0.01895125
,,,-1.01E-06,0.01881625
,,,-1E-06,0.0188675
,,,-9.9E-07,0.018866875
,,,-9.8E-07,0.018821875
,,,-9.7E-07,0.018993125
,,,-9.6E-07,0.01877125
,,,-9.5E-07,0.0189175
,,,-9.4E-07,0.0188825
,,,-9.3E-07,0.019155625
,,,-9.2E-07,0.018991875
,,,-9.1E-07,0.018875625
,,,-9E-07,0.01900375
,,,-8.9E-07,0.018631875
,,,-8.8E-07,0.0188525
,,,-8.7E-07,0.01881125
,,,-8.6E-07,0.01889375
,,,-8.5E-07,0.019033125
,,,-8.4E-07,0.019065625
,,,-8.3E-07,0.0190925
,,,-8.2E-07,0.0189175
,,,-8.1E-07,0.01894375
,,,-8E-07,0.018808125
,,,-7.9E-07,0.0189325
,,,-7.8E-07,0.01891
,,,-7.7E-07,0.01898875
,,,-7.6E-07,0.018881875
,,,-7.5E-07,0.018975625
,,,-7.4E-07,0.01893
,,,-7.3E-07,0.018896875
,,,-7.2E-07,0.018944375
,,,-7.1E-07,0.018980625
,,,-7E-07,0.01883125
,,,-6.9E-07,0.018821875
,,,-6.8E-07,0.01893625
,,,-6.7E-07,0.01889625
,,,-6.6E-07,0.018895625
,,,-6.5E-07,0.018970625
,,,-6.4E-07,0.01886625
,,,-6.3E-07,0.018949375
,,,-6.2E-07,0.018903125
,,,-6.1E-07,0.018825
,,,-6E-07,0.018915
,,,-5.9E-07,0.01893875
,,,-5.8E-07,0.0190525
,,,-5.7E-07,0.019024375
,,,-5.6E-07,0.018724375
,,,-5.5E-07,0.01891
,,,-5.4E-07,0.01896875
,,,-5.3E-07,0.01871375
,,,-5.2E-07,0.018985625
,,,-5.1E-07,0.019139375
,,,-5E-07,0.018765
,,,-4.9E-07,0.01902125
,,,-4.8E-07,0.01889125
,,,-4.7E-07,0.0189225
,,,-4.6E-07,0.018831875
,,,-4.5E-07,0.01898875
,,,-4.4E-07,0.01889375
,,,-4.3E-07,0.019148125
,,,-4.2E-07,0.018883125
,,,-4.1E-07,0.01893125
,,,-4E-07,0.01899875
,,,-3.9E-07,0.019058125
,,,-3.8E-07,0.018946875
,,,-3.7E-07,0.019021875
,,,-3.6E-07,0.019140625
,,,-3.5E-07,0.018985625
,,,-3.4E-07,0.019055625
,,,-3.3E-07,0.01883375
,,,-3.2E-07,0.018585
,,,-3.1E-07,0.018955
,,,-3E-07,0.019026875
,,,-2.9E-07,0.019113125
,,,-2.8E-07,0.018800625
,,,-2.7E-07,0.01910375
,,,-2.6E-07,0.01891
,,,-2.5E-07,0.018861875
,,,-2.4E-07,0.018911875
,,,-2.3E-07,0.018611875
,,,-2.2E-07,0.018655
,,,-2.1E-07,0.0188075
,,,-2E-07,0.01912375
,,,-1.9E-07,0.01882875
,,,-1.8E-07,0.018939375
,,,-1.7E-07,0.01880375
,,,-1.6E-07,0.018961875
,,,-1.5E-07,0.019001875
,,,-1.4E-07,0.018913125
,,,-1.3E-07,0.01890125
,,,-1.2E-07,0.01913375
,,,-1.1E-07,0.0189175
,,,-1E-07,0.018994375
,,,-9E-08,0.018908125
,,,-8E-08,0.018875
,,,-7E-08,0.0186725
,,,-6E-08,0.0188525
,,,-5E-08,0.0189325
,,,-4E-08,0.020195625
,,,-3E-08,0.01978
,,,-2E-08,0.01729125
,,,-1E-08,0.016163125
,,,0,0.0176075
,,,1E-08,0.021790625
,,,2E-08,0.022474375
,,,3E-08,0.0211175
,,,4E-08,0.017989375
,,,5E-08,0.016551875
,,,6E-08,0.016805625
,,,7E-08,0.01800125
,,,8E-08,0.019735
,,,9E-08,0.020923125
,,,1E-07,0.02068
,,,1.1E-07,0.018945625
,,,1.2E-07,0.01809625
,,,1.3E-07,0.017455625
,,,1.4E-07,0.01846625
,,,1.5E-07,0.019414375
,,,1.6E-07,0.01965375
,,,1.7E-07,0.019235625
,,,1.8E-07,0.01905625
,,,1.9E-07,0.018793125
,,,2E-07,0.0192625
,,,2.1E-07,0.01898
,,,2.2E-07,0.01893375
,,,2.3E-07,0.01891625
,,,2.4E-07,0.018975625
,,,2.5E-07,0.019015
,,,2.6E-07,0.018865
,,,2.7E-07,0.019000625
,,,2.8E-07,0.018775625
,,,2.9E-07,0.01918125
,,,3E-07,0.018780625
,,,3.1E-07,0.018901875
,,,3.2E-07,0.01914125
,,,3.3E-07,0.0190025
,,,3.4E-07,0.019189375
,,,3.5E-07,0.018913125
,,,3.6E-07,0.01914625
,,,3.7E-07,0.0188575
,,,3.8E-07,0.01897
,,,3.9E-07,0.018780625
,,,4E-07,0.019001875
,,,4.1E-07,0.018934375
,,,4.2E-07,0.018878125
,,,4.3E-07,0.01897
,,,4.4E-07,0.0187525
,,,4.5E-07,0.018831875
,,,4.6E-07,0.018921875
,,,4.7E-07,0.01913125
,,,4.8E-07,0.018790625
,,,4.9E-07,0.01888375
,,,5E-07,0.019044375
,,,5.1E-07,0.019041875
,,,5.2E-07,0.018811875
,,,5.3E-07,0.018866875
,,,5.4E-07,0.018800625
,,,5.5E-07,0.018788125
,,,5.6E-07,0.018866875
,,,5.7E-07,0.018945625
,,,5.8E-07,0.019185625
,,,5.9E-07,0.01893875
,,,6E-07,0.018911875
,,,6.1E-07,0.018994375
,,,6.2E-07,0.01877375
,,,6.3E-07,0.019
,,,6.4E-07,0.01897
,,,6.5E-07,0.01886875
,,,6.6E-07,0.019005
,,,6.7E-07,0.018883125
,,,6.8E-07,0.018993125
,,,6.9E-07,0.0186525
,,,7E-07,0.018849375
,,,7.1E-07,0.018908125
,,,7.2E-07,0.01901
,,,7.3E-07,0.0190125
,,,7.4E-07,0.01908625
,,,7.5E-07,0.018699375
,,,7.6E-07,0.01875
,,,7.7E-07,0.018651875
,,,7.8E-07,0.018896875
,,,7.9E-07,0.018855
,,,8E-07,0.01893375
,,,8.1E-07,0.01901
,,,8.2E-07,0.01905875
,,,8.3E-07,0.018775625
,,,8.4E-07,0.018941875
,,,8.5E-07,0.01882625
,,,8.6E-07,0.019014375
,,,8.7E-07,0.01877875
,,,8.8E-07,0.01863875
,,,8.9E-07,0.0190525
,,,9E-07,0.018719375
,,,9.1E-07,0.018785
,,,9.2E-07,0.0189275
,,,9.3E-07,0.01882875
,,,9.4E-07,0.019086875
,,,9.5E-07,0.018581875
,,,9.6E-07,0.01886125
,,,9.7E-07,0.018894375
,,,9.8E-07,0.018928125
,,,9.9E-07,0.019033125
,,,1E-06,0.019173125
,,,1.01E-06,0.018863125
,,,1.02E-06,0.018815625
,,,1.03E-06,0.018810625
,,,1.04E-06,0.01892
,,,1.05E-06,0.018975
,,,1.06E-06,0.0189825
,,,1.07E-06,0.019
,,,1.08E-06,0.018895
,,,1.09E-06,0.018830625
,,,1.1E-06,0.018928125
,,,1.11E-06,0.01878625
,,,1.12E-06,0.01904375
,,,1.13E-06,0.019154375
,,,1.14E-06,0.01896625
,,,1.15E-06,0.019023125
,,,1.16E-06,0.018859375
,,,1.17E-06,0.019035625
,,,1.18E-06,0.018820625
,,,1.19E-06,0.019064375
,,,1.2E-06,0.018869375
,,,1.21E-06,0.0188075
,,,1.22E-06,0.018935625
,,,1.23E-06,0.01879
,,,1.24E-06,0.0187575
,,,1.25E-06,0.018953125
,,,1.26E-06,0.0188275
,,,1.27E-06,0.019060625
,,,1.28E-06,0.018986875
,,,1.29E-06,0.019058125
,,,1.3E-06,0.018985625
,,,1.31E-06,0.019150625
,,,1.32E-06,0.018888125
,,,1.33E-06,0.01892625
,,,1.34E-06,0.019008125
,,,1.35E-06,0.018803125
,,,1.36E-06,0.01876375
,,,1.37E-06,0.01893375
,,,1.38E-06,0.018900625
,,,1.39E-06,0.01894375
,,,1.4E-06,0.01897375
,,,1.41E-06,0.018973125
,,,1.42E-06,0.01895875
,,,1.43E-06,0.019009375
,,,1.44E-06,0.01875625
,,,1.45E-06,0.018776875
,,,1.46E-06,0.0190875
,,,1.47E-06,0.01894
,,,1.48E-06,0.019015
,,,1.49E-06,0.018903125
,,,1.5E-06,0.01871875
,,,1.51E-06,0.01887625
,,,1.52E-06,0.018999375
,,,1.53E-06,0.01877
,,,1.54E-06,0.0188425
,,,1.55E-06,0.01892875
,,,1.56E-06,0.01872
,,,1.57E-06,0.019035
,,,1.58E-06,0.018810625
,,,1.59E-06,0.019266875
,,,1.6E-06,0.01910375
,,,1.61E-06,0.0188175
,,,1.62E-06,0.018761875
,,,1.63E-06,0.0187475
,,,1.64E-06,0.01886125
,,,1.65E-06,0.01880375
,,,1.66E-06,0.01897875
,,,1.67E-06,0.0188525
,,,1.68E-06,0.018781875
,,,1.69E-06,0.018838125
,,,1.7E-06,0.018841875
,,,1.71E-06,0.0189625
,,,1.72E-06,0.018945
,,,1.73E-06,0.0188625
,,,1.74E-06,0.018838125
,,,1.75E-06,0.018751875
,,,1.76E-06,0.018931875
,,,1.77E-06,0.0188475
,,,1.78E-06,0.018920625
,,,1.79E-06,0.018986875
,,,1.8E-06,0.018905
,,,1.81E-06,0.019013125
,,,1.82E-06,0.018818125
,,,1.83E-06,0.018885625
,,,1.84E-06,0.018921875
,,,1.85E-06,0.01912
,,,1.86E-06,0.018855625
,,,1.87E-06,0.018949375
,,,1.88E-06,0.019025
,,,1.89E-06,0.01885625
,,,1.9E-06,0.01893125
,,,1.91E-06,0.018840625
,,,1.92E-06,0.018949375
,,,1.93E-06,0.018906875
,,,1.94E-06,0.01927
,,,1.95E-06,0.01894875
,,,1.96E-06,0.018636875
,,,1.97E-06,0.018860625
,,,1.98E-06,0.018829375
,,,1.99E-06,0.018848125
,,,2E-06,0.018865625
,,,2.01E-06,0.018889375
,,,2.02E-06,0.018821875
,,,2.03E-06,0.018985625
,,,2.04E-06,0.019045625
,,,2.05E-06,0.018876875
,,,2.06E-06,0.019135
,,,2.07E-06,0.01902
,,,2.08E-06,0.01886
,,,2.09E-06,0.018444375
,,,2.1E-06,0.01913875
,,,2.11E-06,0.01898625
,,,2.12E-06,0.019185
,,,2.13E-06,0.019146875
,,,2.14E-06,0.018963125
,,,2.15E-06,0.018989375
,,,2.16E-06,0.018765
,,,2.17E-06,0.019016875
,,,2.18E-06,0.01884625
,,,2.19E-06,0.019123125
,,,2.2E-06,0.018824375
,,,2.21E-06,0.01887375
,,,2.22E-06,0.01909375
,,,2.23E-06,0.01906625
,,,2.24E-06,0.01888375
,,,2.25E-06,0.018740625
,,,2.26E-06,0.0189675
,,,2.27E-06,0.019020625
,,,2.28E-06,0.0191125
,,,2.29E-06,0.01902875
,,,2.3E-06,0.01899375
,,,2.31E-06,0.018964375
,,,2.32E-06,0.01896125
,,,2.33E-06,0.01884375
,,,2.34E-06,0.0188225
,,,2.35E-06,0.0190525
,,,2.36E-06,0.019071875
,,,2.37E-06,0.018850625
,,,2.38E-06,0.018868125
,,,2.39E-06,0.018836875
,,,2.4E-06,0.01917875
,,,2.41E-06,0.01911125
,,,2.42E-06,0.01881875
,,,2.43E-06,0.018798125
,,,2.44E-06,0.018913125
,,,2.45E-06,0.01886125
,,,2.46E-06,0.019165625
,,,2.47E-06,0.019093125
,,,2.48E-06,0.019043125
,,,2.49E-06,0.01910125
,,,2.5E-06,0.01875
,,,2.51E-06,0.01884125
,,,2.52E-06,0.018879375
,,,2.53E-06,0.018739375
,,,2.54E-06,0.019045
,,,2.55E-06,0.0191175
,,,2.56E-06,0.0188375
,,,2.57E-06,0.018958125
,,,2.58E-06,0.019065625
,,,2.59E-06,0.018899375
,,,2.6E-06,0.019106875
,,,2.61E-06,0.019008125
,,,2.62E-06,0.01885125
,,,2.63E-06,0.018935
,,,2.64E-06,0.018629375
,,,2.65E-06,0.018863125
,,,2.66E-06,0.018903125
,,,2.67E-06,0.01885875
,,,2.68E-06,0.01893875
,,,2.69E-06,0.01894625
,,,2.7E-06,0.01882
,,,2.71E-06,0.018964375
,,,2.72E-06,0.019008125
,,,2.73E-06,0.01883875
,,,2.74E-06,0.019153125
,,,2.75E-06,0.018890625
,,,2.76E-06,0.01874375
,,,2.77E-06,0.019209375
,,,2.78E-06,0.018836875
,,,2.79E-06,0.018974375
,,,2.8E-06,0.01910875
,,,2.81E-06,0.018911875
,,,2.82E-06,0.018915
,,,2.83E-06,0.018879375
,,,2.84E-06,0.01889625
,,,2.85E-06,0.01883875
,,,2.86E-06,0.018878125
,,,2.87E-06,0.01895125
,,,2.88E-06,0.019036875
,,,2.89E-06,0.018896875
,,,2.9E-06,0.01887375
,,,2.91E-06,0.018905625
,,,2.92E-06,0.018995
,,,2.93E-06,0.0189425
,,,2.94E-06,0.018890625
,,,2.95E-06,0.018578125
,,,2.96E-06,0.019040625
,,,2.97E-06,0.01883875
,,,2.98E-06,0.018896875
,,,2.99E-06,0.018901875
,,,3E-06,0.01881875
,,,3.01E-06,0.018908125
,,,3.02E-06,0.0187
,,,3.03E-06,0.0188325
,,,3.04E-06,0.01882
,,,3.05E-06,0.018975
,,,3.06E-06,0.0189225
,,,3.07E-06,0.018821875
,,,3.08E-06,0.019
,,,3.09E-06,0.019000625
,,,3.1E-06,0.01876125
,,,3.11E-06,0.018895625
,,,3.12E-06,0.018750625
,,,3.13E-06,0.019091875
,,,3.14E-06,0.01888125
,,,3.15E-06,0.018999375
,,,3.16E-06,0.01892375
,,,3.17E-06,0.01889
,,,3.18E-06,0.018801875
,,,3.19E-06,0.018936875
,,,3.2E-06,0.01889875
,,,3.21E-06,0.019063125
,,,3.22E-06,0.018945
,,,3.23E-06,0.0189575
,,,3.24E-06,0.0189725
,,,3.25E-06,0.018960625
,,,3.26E-06,0.01892625
,,,3.27E-06,0.01902875
,,,3.28E-06,0.018980625
,,,3.29E-06,0.01894
,,,3.3E-06,0.019079375
,,,3.31E-06,0.018918125
,,,3.32E-06,0.0188175
,,,3.33E-06,0.01887375
,,,3.34E-06,0.018711875
,,,3.35E-06,0.01888375
,,,3.36E-06,0.019096875
,,,3.37E-06,0.01893375
,,,3.38E-06,0.018979375
,,,3.39E-06,0.019051875
,,,3.4E-06,0.018954375
,,,3.41E-06,0.019174375
,,,3.42E-06,0.019011875
,,,3.43E-06,0.018873125
,,,3.44E-06,0.018785
,,,3.45E-06,0.019055
,,,3.46E-06,0.01889375
,,,3.47E-06,0.01898625
,,,3.48E-06,0.0188675
,,,3.49E-06,0.019020625
,,,3.5E-06,0.019018125
,,,3.51E-06,0.018925
,,,3.52E-06,0.018883125
,,,3.53E-06,0.01901
,,,3.54E-06,0.019353125
,,,3.55E-06,0.018738125
,,,3.56E-06,0.01894625
