data/raw/Final_POL_Test_1/SOP000_Ch2.csv

"Record Length",1000,"Points",-5E-06,0.020815625
"Sample Interval",1E-08,s,-4.99E-06,0.020934375
"Trigger Point",500,"Samples",-4.98E-06,0.02078
"Trigger Time",0,s,-4.97E-06,0.02083125
"",,,-4.96E-06,0.020668125
"Horizontal Offset",-5E-06,s,-4.95E-06,0.0207
,,,-4.94E-06,0.02083125
,,,-4.93E-06,0.020696875
,,,-4.92E-06,0.020524375
,,,-4.91E-06,0.02079875
,,,-4.9E-06,0.020819375
,,,-4.89E-06,0.02081625
,,,-4.88E-06,0.020803125
,,,-4.87E-06,0.02052625
,,,-4.86E-06,0.020854375
,,,-4.85E-06,0.020503125
,,,-4.84E-06,0.020864375
,,,-4.83E-06,0.020530625
,,,-4.82E-06,0.020585625
,,,-4.81E-06,0.02074375
,,,-4.8E-06,0.02063125
,,,-4.79E-06,0.020800625
,,,-4.78E-06,0.02107875
,,,-4.77E-06,0.020883125
,,,-4.76E-06,0.0207675
,,,-4.75E-06,0.02071
,,,-4.74E-06,0.020745
,,,-4.73E-06,0.020680625
,,,-4.72E-06,0.020835
,,,-4.71E-06,0.020814375
,,,-4.7E-06,0.02074625
,,,-4.69E-06,0.020734375
,,,-4.68E-06,0.0208725
,,,-4.67E-06,0.020866875
,,,-4.66E-06,0.020820625
,,,-4.65E-06,0.02083625
,,,-4.64E-06,0.0207575
,,,-4.63E-06,0.02080125
,,,-4.62E-06,0.02074625
,,,-4.61E-06,0.020791875
,,,-4.6E-06,0.020833125
,,,-4.59E-06,0.02071375
,,,-4.58E-06,0.02071
,,,-4.57E-06,0.020751875
,,,-4.56E-06,0.020635625
,,,-4.55E-06,0.020574375
,,,-4.54E-06,0.020765
,,,-4.53E-06,0.02076125
,,,-4.52E-06,0.020533125
,,,-4.51E-06,0.02067125
,,,-4.5E-06,0.02066
,,,-4.49E-06,0.02088375
,,,-4.48E-06,0.0206325
,,,-4.47E-06,0.020765
,,,-4.46E-06,0.020706875
,,,-4.45E-06,0.020671875
,,,-4.44E-06,0.02068
,,,-4.43E-06,0.02061875
,,,-4.42E-06,0.02072375
,,,-4.41E-06,0.02062625
,,,-4.4E-06,0.020553125
,,,-4.39E-06,0.020865625
,,,-4.38E-06,0.020929375
,,,-4.37E-06,0.02067875
,,,-4.36E-06,0.0208325
,,,-4.35E-06,0.0209575
,,,-4.34E-06,0.020531875
,,,-4.33E-06,0.02060125
,,,-4.32E-06,0.02048375
,,,-4.31E-06,0.0207825
,,,-4.3E-06,0.02081875
,,,-4.29E-06,0.0206475
,,,-4.28E-06,0.020478125
,,,-4.27E-06,0.02101
,,,-4.26E-06,0.020868125
,,,-4.25E-06,0.0209025
,,,-4.24E-06,0.02101
,,,-4.23E-06,0.020929375
,,,-4.22E-06,0.0205825
,,,-4.21E-06,0.02080375
,,,-4.2E-06,0.0206775
,,,-4.19E-06,0.020620625
,,,-4.18E-06,0.020738125
,,,-4.17E-06,0.020791875
,,,-4.16E-06,0.020624375
,,,-4.15E-06,0.020915625
,,,-4.14E-06,0.020936875
,,,-4.13E-06,0.0205975
,,,-4.12E-06,0.020948125
,,,-4.11E-06,0.0206475
,,,-4.1E-06,0.020753125
,,,-4.09E-06,0.020556875
,,,-4.08E-06,0.020608125
,,,-4.07E-06,0.02090875
,,,-4.06E-06,0.02066375
,,,-4.05E-06,0.020771875
,,,-4.04E-06,0.0208725
,,,-4.03E-06,0.020674375
,,,-4.02E-06,0.02067875
,,,-4.01E-06,0.020763125
,,,-4E-06,0.020758125
,,,-3.99E-06,0.02063125
,,,-3.98E-06,0.0209275
,,,-3.97E-06,0.02104
,,,-3.96E-06,0.0205675
,,,-3.95E-06,0.020804375
,,,-3.94E-06,0.0206
,,,-3.93E-06,0.02054625
,,,-3.92E-06,0.02056125
,,,-3.91E-06,0.02080875
,,,-3.9E-06,0.02060625
,,,-3.89E-06,0.02069625
,,,-3.88E-06,0.020750625
,,,-3.87E-06,0.020676875
,,,-3.86E-06,0.020646875
,,,-3.85E-06,0.0207025
,,,-3.84E-06,0.02085375
,,,-3.83E-06,0.020796875
,,,-3.82E-06,0.02098125
,,,-3.81E-06,0.020671875
,,,-3.8E-06,0.020769375
,,,-3.79E-06,0.020794375
,,,-3.78E-06,0.020604375
,,,-3.77E-06,0.02082125
,,,-3.76E-06,0.020845625
,,,-3.75E-06,0.0206825
,,,-3.74E-06,0.020915
,,,-3.73E-06,0.02094875
,,,-3.72E-06,0.020696875
,,,-3.71E-06,0.020659375
,,,-3.7E-06,0.020529375
,,,-3.69E-06,0.02075125
,,,-3.68E-06,0.020488125
,,,-3.67E-06,0.020551875
,,,-3.66E-06,0.020803125
,,,-3.65E-06,0.020599375
,,,-3.64E-06,0.0207875
,,,-3.63E-06,0.020731875
,,,-3.62E-06,0.020723125
,,,-3.61E-06,0.02079875
,,,-3.6E-06,0.02076625
,,,-3.59E-06,0.020765
,,,-3.58E-06,0.0207825
,,,-3.57E-06,0.020479375
,,,-3.56E-06,0.02069125
,,,-3.55E-06,0.020778125
,,,-3.54E-06,0.020466875
,,,-3.53E-06,0.0206325
,,,-3.52E-06,0.020864375
,,,-3.51E-06,0.020568125
,,,-3.5E-06,0.020788125
,,,-3.49E-06,0.021011875
,,,-3.48E-06,0.020875
,,,-3.47E-06,0.020628125
,,,-3.46E-06,0.020666875
,,,-3.45E-06,0.0206675
,,,-3.44E-06,0.020700625
,,,-3.43E-06,0.020615625
,,,-3.42E-06,0.020645
,,,-3.41E-06,0.020729375
,,,-3.4E-06,0.021031875
,,,-3.39E-06,0.0206825
,,,-3.38E-06,0.02068625
,,,-3.37E-06,0.020445
,,,-3.36E-06,0.02075875
,,,-3.35E-06,0.020731875
,,,-3.34E-06,0.020880625
,,,-3.33E-06,0.020713125
,,,-3.32E-06,0.020628125
,,,-3.31E-06,0.02077
,,,-3.3E-06,0.0208425
,,,-3.29E-06,0.02086375
,,,-3.28E-06,0.02070875
,,,-3.27E-06,0.0209075
,,,-3.26E-06,0.020608125
,,,-3.25E-06,0.020808125
,,,-3.24E-06,0.02065
,,,-3.23E-06,0.0209125
,,,-3.22E-06,0.0206425
,,,-3.21E-06,0.02084875
,,,-3.2E-06,0.0207825
,,,-3.19E-06,0.020941875
,,,-3.18E-06,0.020625625
,,,-3.17E-06,0.020916875
,,,-3.16E-06,0.02090875
,,,-3.15E-06,0.020705
,,,-3.14E-06,0.02085
,,,-3.13E-06,0.0207525
,,,-3.12E-06,0.020520625
,,,-3.11E-06,0.020554375
,,,-3.1E-06,0.02080375
,,,-3.09E-06,0.02092375
,,,-3.08E-06,0.0208075
,,,-3.07E-06,0.02086625
,,,-3.06E-06,0.02071875
,,,-3.05E-06,0.020635625
,,,-3.04E-06,0.020984375
,,,-3.03E-06,0.020719375
,,,-3.02E-06,0.020674375
,,,-3.01E-06,0.021015625
,,,-3E-06,0.0205675
,,,-2.99E-06,0.0205625
,,,-2.98E-06,0.02088375
,,,-2.97E-06,0.020830625
,,,-2.96E-06,0.020995
,,,-2.95E-06,0.020675
,,,-2.94E-06,0.02081625
,,,-2.93E-06,0.02064375
,,,-2.92E-06,0.020921875
,,,-2.91E-06,0.020910625
,,,-2.9E-06,0.020726875
,,,-2.89E-06,0.020846875
,,,-2.88E-06,0.020721875
,,,-2.87E-06,0.02048125
,,,-2.86E-06,0.0208075
,,,-2.85E-06,0.0209775
,,,-2.84E-06,0.02071375
,,,-2.83E-06,0.020809375
,,,-2.82E-06,0.02086375
,,,-2.81E-06,0.020720625
,,,-2.8E-06,0.020821875
,,,-2.79E-06,0.020741875
,,,-2.78E-06,0.0209525
,,,-2.77E-06,0.02067625
,,,-2.76E-06,0.020595
,,,-2.75E-06,0.020848125
,,,-2.74E-06,0.02072375
,,,-2.73E-06,0.021069375
,,,-2.72E-06,0.02058
,,,-2.71E-06,0.02087375
,,,-2.7E-06,0.020678125
,,,-2.69E-06,0.020685
,,,-2.68E-06,0.020981875
,,,-2.67E-06,0.020509375
,,,-2.66E-06,0.020683125
,,,-2.65E-06,0.02073125
,,,-2.64E-06,0.020625625
,,,-2.63E-06,0.02088
,,,-2.62E-06,0.02091375
,,,-2.61E-06,0.02073
,,,-2.6E-06,0.02055125
,,,-2.59E-06,0.020874375
,,,-2.58E-06,0.020699375
,,,-2.57E-06,0.0206675
,,,-2.56E-06,0.02073125
,,,-2.55E-06,0.02036
,,,-2.54E-06,0.020675625
,,,-2.53E-06,0.02074
,,,-2.52E-06,0.020494375
,,,-2.51E-06,0.02079
,,,-2.5E-06,0.0205875
,,,-2.49E-06,0.0208375
,,,-2.48E-06,0.02054625
,,,-2.47E-06,0.0207025
,,,-2.46E-06,0.0208425
,,,-2.45E-06,0.020769375
,,,-2.44E-06,0.02072375
,,,-2.43E-06,0.02060625
,,,-2.42E-06,0.0208675
,,,-2.41E-06,0.02054
,,,-2.4E-06,0.020633125
,,,-2.39E-06,0.0207875
,,,-2.38E-06,0.020669375
,,,-2.37E-06,0.0207975
,,,-2.36E-06,0.020880625
,,,-2.35E-06,0.0207275
,,,-2.34E-06,0.020473125
,,,-2.33E-06,0.02095125
,,,-2.32E-06,0.0206025
,,,-2.31E-06,0.0207
,,,-2.3E-06,0.02089875
,,,-2.29E-06,0.02099625
,,,-2.28E-06,0.020643125
,,,-2.27E-06,0.02053
,,,-2.26E-06,0.02064875
,,,-2.25E-06,0.020784375
,,,-2.24E-06,0.020886875
,,,-2.23E-06,0.020943125
,,,-2.22E-06,0.020391875
,,,-2.21E-06,0.02068125
,,,-2.2E-06,0.02073375
,,,-2.19E-06,0.02069
,,,-2.18E-06,0.0208025
,,,-2.17E-06,0.02068875
,,,-2.16E-06,0.020683125
,,,-2.15E-06,0.02083625
,,,-2.14E-06,0.020606875
,,,-2.13E-06,0.02060375
,,,-2.12E-06,0.0205575
,,,-2.11E-06,0.0205725
,,,-2.1E-06,0.020596875
,,,-2.09E-06,0.020810625
,,,-2.08E-06,0.020751875
,,,-2.07E-06,0.020705
,,,-2.06E-06,0.02048625
,,,-2.05E-06,0.02068375
,,,-2.04E-06,0.02046625
,,,-2.03E-06,0.02062875
,,,-2.02E-06,0.02063875
,,,-2.01E-06,0.020559375
,,,-2E-06,0.020668125
,,,-1.99E-06,0.020859375
,,,-1.98E-06,0.020493125
,,,-1.97E-06,0.0205775
,,,-1.96E-06,0.02064375
,,,-1.95E-06,0.020258125
,,,-1.94E-06,0.02076375
,,,-1.93E-06,0.020716875
,,,-1.92E-06,0.02062
,,,-1.91E-06,0.02068125
,,,-1.9E-06,0.0205175
,,,-1.89E-06,0.020556875
,,,-1.88E-06,0.02082
,,,-1.87E-06,0.0209025
,,,-1.86E-06,0.02073375
,,,-1.85E-06,0.0206225
,,,-1.84E-06,0.02075
,,,-1.83E-06,0.02080625
,,,-1.82E-06,0.020775625
,,,-1.81E-06,0.020878125
,,,-1.8E-06,0.020583125
,,,-1.79E-06,0.02060625
,,,-1.78E-06,0.020494375
,,,-1.77E-06,0.02081
,,,-1.76E-06,0.020645625
,,,-1.75E-06,0.02056125
,,,-1.74E-06,0.02081
,,,-1.73E-06,0.0206875
,,,-1.72E-06,0.02071625
,,,-1.71E-06,0.0207475
,,,-1.7E-06,0.0207475
,,,-1.69E-06,0.020579375
,,,-1.68E-06,0.02075375
,,,-1.67E-06,0.020743125
,,,-1.66E-06,0.02064625
,,,-1.65E-06,0.02054125
,,,-1.64E-06,0.02086
,,,-1.63E-06,0.02071375
,,,-1.62E-06,0.02049
,,,-1.61E-06,0.020899375
,,,-1.6E-06,0.020946875
,,,-1.59E-06,0.020729375
,,,-1.58E-06,0.0206575
,,,-1.57E-06,0.020711875
,,,-1.56E-06,0.020593125
,,,-1.55E-06,0.020563125
,,,-1.54E-06,0.020554375
,,,-1.53E-06,0.02062125
,,,-1.52E-06,0.02083875
,,,-1.51E-06,0.020728125
,,,-1.5E-06,0.02065
,,,-1.49E-06,0.020715625
,,,-1.48E-06,0.020551875
,,,-1.47E-06,0.020645625
,,,-1.46E-06,0.020854375
,,,-1.45E-06,0.02089
,,,-1.44E-06,0.020879375
,,,-1.43E-06,0.020819375
,,,-1.42E-06,0.020718125
,,,-1.41E-06,0.020690625
,,,-1.4E-06,0.021086875
,,,-1.39E-06,0.02089625
,,,-1.38E-06,0.02086
,,,-1.37E-06,0.020786875
,,,-1.36E-06,0.020610625
,,,-1.35E-06,0.0204675
,,,-1.34E-06,0.0207175
,,,-1.33E-06,0.0208375
,,,-1.32E-06,0.0206375
,,,-1.31E-06,0.021019375
,,,-1.3E-06,0.020694375
,,,-1.29E-06,0.02082375
,,,-1.28E-06,0.020738125
,,,-1.27E-06,0.020809375
,,,-1.26E-06,0.020765
,,,-1.25E-06,0.020809375
,,,-1.24E-06,0.02078875
,,,-1.23E-06,0.0205825
,,,-1.22E-06,0.02085
,,,-1.21E-06,0.0209225
,,,-1.2E-06,0.020835
,,,-1.19E-06,0.020775625
,,,-1.18E-06,0.02062
,,,-1.17E-06,0.020904375
,,,-1.16E-06,0.020325625
,,,-1.15E-06,0.02075
,,,-1.14E-06,0.02084375
,,,-1.13E-06,0.020755
,,,-1.12E-06,0.020788125
,,,-1.11E-06,0.020481875
,,,-1.1E-06,0.02055875
,,,-1.09E-06,0.02072625
,,,-1.08E-06,0.020734375
,,,-1.07E-06,0.020664375
,,,-1.06E-06,0.0204375
,,,-1.05E-06,0.020676875
,,,-1.04E-06,0.0207675
,,,-1.03E-06,0.020643125
,,,-1.02E-06,0.020775
,,,-1.01E-06,0.0208625
,,,-1E-06,0.020864375
,,,-9.9E-07,0.020581875
,,,-9.8E-07,0.0208225
,,,-9.7E-07,0.02064
,,,-9.6E-07,0.020699375
,,,-9.5E-07,0.021048125
,,,-9.4E-07,0.0207625
,,,-9.3E-07,0.020915
,,,-9.2E-07,0.020554375
,,,-9.1E-07,0.02105
,,,-9E-07,0.020840625
,,,-8.9E-07,0.020489375
,,,-8.8E-07,0.02051
,,,-8.7E-07,0.020563125
,,,-8.6E-07,0.02083125
,,,-8.5E-07,0.020848125
,,,-8.4E-07,0.0208825
,,,-8.3E-07,0.0207775
,,,-8.2E-07,0.020745625
,,,-8.1E-07,0.0206825
,,,-8E-07,0.020429375
,,,-7.9E-07,0.020753125
,,,-7.8E-07,0.020675
,,,-7.7E-07,0.02061
,,,-7.6E-07,0.02072625
,,,-7.5E-07,0.02086125
,,,-7.4E-07,0.020715
,,,-7.3E-07,0.0206675
,,,-7.2E-07,0.020650625
,,,-7.1E-07,0.020826875
,,,-7E-07,0.020765625
,,,-6.9E-07,0.020758125
,,,-6.8E-07,0.02085375
,,,-6.7E-07,0.0207975
,,,-6.6E-07,0.02078125
,,,-6.5E-07,0.0208725
,,,-6.4E-07,0.020665625
,,,-6.3E-07,0.02072875
,,,-6.2E-07,0.02076625
,,,-6.1E-07,0.020715625
,,,-6E-07,0.020661875
,,,-5.9E-07,0.020764375
,,,-5.8E-07,0.020740625
,,,-5.7E-07,0.020840625
,,,-5.6E-07,0.02068
,,,-5.5E-07,0.020845
,,,-5.4E-07,0.02065625
,,,-5.3E-07,0.02077
,,,-5.2E-07,0.020869375
,,,-5.1E-07,0.020505625
,,,-5E-07,0.0206525
,,,-4.9E-07,0.0207725
,,,-4.8E-07,0.020725625
,,,-4.7E-07,0.020551875
,,,-4.6E-07,0.02068125
,,,-4.5E-07,0.02061625
,,,-4.4E-07,0.020515
,,,-4.3E-07,0.020684375
,,,-4.2E-07,0.02086375
,,,-4.1E-07,0.020755625
,,,-4E-07,0.02084875
,,,-3.9E-07,0.020545
,,,-3.8E-07,0.020740625
,,,-3.7E-07,0.020860625
,,,-3.6E-07,0.02076
,,,-3.5E-07,0.020688125
,,,-3.4E-07,0.02062125
,,,-3.3E-07,0.021
,,,-3.2E-07,0.02093625
,,,-3.1E-07,0.0208825
,,,-3E-07,0.02061375
,,,-2.9E-07,0.020680625
,,,-2.8E-07,0.020765625
,,,-2.7E-07,0.0208625
,,,-2.6E-07,0.02081875
,,,-2.5E-07,0.02072875
,,,-2.4E-07,0.020810625
,,,-2.3E-07,0.0207175
,,,-2.2E-07,0.020873125
,,,-2.1E-07,0.02070125
,,,-2E-07,0.020561875
,,,-1.9E-07,0.020784375
,,,-1.8E-07,0.020803125
,,,-1.7E-07,0.020991875
,,,-1.6E-07,0.02070375
,,,-1.5E-07,0.02059875
,,,-1.4E-07,0.020523125
,,,-1.3E-07,0.020631875
,,,-1.2E-07,0.02086125
,,,-1.1E-07,0.020650625
,,,-1E-07,0.020550625
,,,-9E-08,0.02071
,,,-8E-08,0.020923125
,,,-7E-08,0.02068375
,,,-6E-08,0.020648125
,,,-5E-08,0.02080375
,,,-4E-08,0.021065
,,,-3E-08,0.0206925
,,,-2E-08,0.020335625
,,,-1E-08,0.02074875
,,,0,0.02060375
,,,1E-08,0.0211825
,,,2E-08,0.02090625
,,,3E-08,0.020571875
,,,4E-08,0.020271875
,,,5E-08,0.020605
,,,6E-08,0.020719375
,,,7E-08,0.02101375
,,,8E-08,0.021025625
,,,9E-08,0.020791875
,,,1E-07,0.02108
,,,1.1E-07,0.020798125
,,,1.2E-07,0.0204025
,,,1.3E-07,0.02076875
,,,1.4E-07,0.02071375
,,,1.5E-07,0.02077375
,,,1.6E-07,0.020926875
,,,1.7E-07,0.020609375
,,,1.8E-07,0.020625
,,,1.9E-07,0.02069
,,,2E-07,0.020648125
,,,2.1E-07,0.020414375
,,,2.2E-07,0.0206025
,,,2.3E-07,0.020826875
,,,2.4E-07,0.02088125
,,,2.5E-07,0.020843125
,,,2.6E-07,0.02072625
,,,2.7E-07,0.020900625
,,,2.8E-07,0.020863125
,,,2.9E-07,0.020498125
,,,3E-07,0.02067375
,,,3.1E-07,0.020669375
,,,3.2E-07,0.020775625
,,,3.3E-07,0.020774375
,,,3.4E-07,0.020916875
,,,3.5E-07,0.020670625
,,,3.6E-07,0.0205775
,,,3.7E-07,0.020771875
,,,3.8E-07,0.0207375
,,,3.9E-07,0.02063
,,,4E-07,0.0207675
,,,4.1E-07,0.02073125
,,,4.2E-07,0.02095125
,,,4.3E-07,0.020601875
,,,4.4E-07,0.02079875
,,,4.5E-07,0.02097625
,,,4.6E-07,0.020560625
,,,4.7E-07,0.020890625
,,,4.8E-07,0.020570625
,,,4.9E-07,0.020550625
,,,5E-07,0.0206075
,,,5.1E-07,0.020691875
,,,5.2E-07,0.020625625
,,,5.3E-07,0.020699375
,,,5.4E-07,0.02060625
,,,5.5E-07,0.020645625
,,,5.6E-07,0.020544375
,,,5.7E-07,0.020645
,,,5.8E-07,0.020720625
,,,5.9E-07,0.0205625
,,,6E-07,0.02057375
,,,6.1E-07,0.020729375
,,,6.2E-07,0.020790625
,,,6.3E-07,0.020778125
,,,6.4E-07,0.020565625
,,,6.5E-07,0.02086125
,,,6.6E-07,0.02080875
,,,6.7E-07,0.0208075
,,,6.8E-07,0.020970625
,,,6.9E-07,0.020686875
,,,7E-07,0.020481875
,,,7.1E-07,0.021078125
,,,7.2E-07,0.02085
,,,7.3E-07,0.0207025
,,,7.4E-07,0.02075
,,,7.5E-07,0.020730625
,,,7.6E-07,0.020689375
,,,7.7E-07,0.020715
,,,7.8E-07,0.02092875
,,,7.9E-07,0.020801875
,,,8E-07,0.02058625
,,,8.1E-07,0.020601875
,,,8.2E-07,0.02079125
,,,8.3E-07,0.020655
,,,8.4E-07,0.0207
,,,8.5E-07,0.0206325
,,,8.6E-07,0.02080125
,,,8.7E-07,0.02062875
,,,8.8E-07,0.020618125
,,,8.9E-07,0.02057625
,,,9E-07,0.02080625
,,,9.1E-07,0.020625
,,,9.2E-07,0.020724375
,,,9.3E-07,0.020548125
,,,9.4E-07,0.020836875
,,,9.5E-07,0.02078375
,,,9.6E-07,0.0210025
,,,9.7E-07,0.02081125
,,,9.8E-07,0.02087375
,,,9.9E-07,0.020719375
,,,1E-06,0.02099375
,,,1.01E-06,0.020698125
,,,1.02E-06,0.02079375
,,,1.03E-06,0.02053125
,,,1.04E-06,0.02049875
,,,1.05E-06,0.020915625
,,,1.06E-06,0.020630625
,,,1.07E-06,0.02079125
,,,1.08E-06,0.020474375
,,,1.09E-06,0.02095
,,,1.1E-06,0.020793125
,,,1.11E-06,0.02069125
,,,1.12E-06,0.020875625
,,,1.13E-06,0.02065
,,,1.14E-06,0.02075625
,,,1.15E-06,0.020600625
,,,1.16E-06,0.0205225
,,,1.17E-06,0.02073
,,,1.18E-06,0.020836875
,,,1.19E-06,0.020563125
,,,1.2E-06,0.02051125
,,,1.21E-06,0.02053125
,,,1.22E-06,0.02073
,,,1.23E-06,0.021020625
,,,1.24E-06,0.020796875
,,,1.25E-06,0.020995
,,,1.26E-06,0.020865625
,,,1.27E-06,0.02098625
,,,1.28E-06,0.020689375
,,,1.29E-06,0.020684375
,,,1.3E-06,0.020809375
,,,1.31E-06,0.020990625
,,,1.32E-06,0.02067625
,,,1.33E-06,0.02078875
,,,1.34E-06,0.02075
,,,1.35E-06,0.02074875
,,,1.36E-06,0.02067625
,,,1.37E-06,0.02090375
,,,1.38E-06,0.020680625
,,,1.39E-06,0.020854375
,,,1.4E-06,0.020594375
,,,1.41E-06,0.02076625
,,,1.42E-06,0.02062625
,,,1.43E-06,0.02039375
,,,1.44E-06,0.020636875
,,,1.45E-06,0.020809375
,,,1.46E-06,0.02065875
,,,1.47E-06,0.02079125
,,,1.48E-06,0.02070625
,,,1.49E-06,0.020821875
,,,1.5E-06,0.02111875
,,,1.51E-06,0.0205325
,,,1.52E-06,0.020718125
,,,1.53E-06,0.02073
,,,1.54E-06,0.020626875
,,,1.55E-06,0.02047625
,,,1.56E-06,0.020740625
,,,1.57E-06,0.020803125
,,,1.58E-06,0.0208
,,,1.59E-06,0.02065125
,,,1.6E-06,0.0207125
,,,1.61E-06,0.020740625
,,,1.62E-06,0.020666875
,,,1.63E-06,0.020784375
,,,1.64E-06,0.020853125
,,,1.65E-06,0.020833125
,,,1.66E-06,0.020619375
,,,1.67E-06,0.020781875
,,,1.68E-06,0.020840625
,,,1.69E-06,0.020806875
,,,1.7E-06,0.02065125
,,,1.71E-06,0.021021875
,,,1.72E-06,0.020905625
,,,1.73E-06,0.020691875
,,,1.74E-06,0.02082875
,,,1.75E-06,0.020739375
,,,1.76E-06,0.020668125
,,,1.77E-06,0.020970625
,,,1.78E-06,0.02079
,,,1.79E-06,0.020780625
,,,1.8E-06,0.02060625
,,,1.81E-06,0.0208075
,,,1.82E-06,0.020785625
,,,1.83E-06,0.02095625
,,,1.84E-06,0.0207875
,,,1.85E-06,0.020808125
,,,1.86E-06,0.02079875
,,,1.87E-06,0.021
,,,1.88E-06,0.020705
,,,1.89E-06,0.0206475
,,,1.9E-06,0.02056375
,,,1.91E-06,0.020825
,,,1.92E-06,0.0205025
,,,1.93E-06,0.020620625
,,,1.94E-06,0.020666875
,,,1.95E-06,0.020538125
,,,1.96E-06,0.02090125
,,,1.97E-06,0.020691875
,,,1.98E-06,0.02077375
,,,1.99E-06,0.020816875
,,,2E-06,0.020581875
,,,2.01E-06,0.020619375
,,,2.02E-06,0.02089
,,,2.03E-06,0.020709375
,,,2.04E-06,0.020665
,,,2.05E-06,0.020830625
,,,2.06E-06,0.020756875
,,,2.07E-06,0.0203475
,,,2.08E-06,0.02082125
,,,2.09E-06,0.02072625
,,,2.1E-06,0.020778125
,,,2.11E-06,0.020710625
,,,2.12E-06,0.020723125
,,,2.13E-06,0.020764375
,,,2.14E-06,0.0208125
,,,2.15E-06,0.020744375
,,,2.16E-06,0.02070375
,,,2.17E-06,0.02081
,,,2.18E-06,0.021086875
,,,2.19E-06,0.0206575
,,,2.2E-06,0.0207025
,,,2.21E-06,0.02065
,,,2.22E-06,0.020795625
,,,2.23E-06,0.020690625
,,,2.24E-06,0.020551875
,,,2.25E-06,0.0208375
,,,2.26E-06,0.020841875
,,,2.27E-06,0.020719375
,,,2.28E-06,0.0207125
,,,2.29E-06,0.020674375
,,,2.3E-06,0.020876875
,,,2.31E-06,0.020718125
,,,2.32E-06,0.02059625
,,,2.33E-06,0.0206375
,,,2.34E-06,0.020676875
,,,2.35E-06,0.02050375
,,,2.36E-06,0.02061375
,,,2.37E-06,0.020625625
,,,2.38E-06,0.020885625
,,,2.39E-06,0.02094
,,,2.4E-06,0.020698125
,,,2.41E-06,0.020634375
,,,2.42E-06,0.020678125
,,,2.43E-06,0.02072875
,,,2.44E-06,0.02052125
,,,2.45E-06,0.02066625
,,,2.46E-06,0.02085625
,,,2.47E-06,0.02072125
,,,2.48E-06,0.02053875
,,,2.49E-06,0.021001875
,,,2.5E-06,0.02093875
,,,2.51E-06,0.0207975
,,,2.52E-06,0.0206175
,,,2.53E-06,0.02077875
,,,2.54E-06,0.02074
,,,2.55E-06,0.02099875
,,,2.56E-06,0.0207775
,,,2.57E-06,0.020331875
,,,2.58E-06,0.020765625
,,,2.59E-06,0.020606875
,,,2.6E-06,0.020841875
,,,2.61E-06,0.020553125
,,,2.62E-06,0.02064375
,,,2.63E-06,0.02084375
,,,2.64E-06,0.020641875
,,,2.65E-06,0.02075875
,,,2.66E-06,0.02091875
,,,2.67E-06,0.020835
,,,2.68E-06,0.020773125
,,,2.69E-06,0.020688125
,,,2.7E-06,0.020923125
,,,2.71E-06,0.020894375
,,,2.72E-06,0.02091
,,,2.73E-06,0.020646875
,,,2.74E-06,0.02071625
,,,2.75E-06,0.020684375
,,,2.76E-06,0.020593125
,,,2.77E-06,0.0206525
,,,2.78E-06,0.02072125
,,,2.79E-06,0.02044875
,,,2.8E-06,0.02062375
,,,2.81E-06,0.020574375
,,,2.82E-06,0.020801875
,,,2.83E-06,0.020648125
,,,2.84E-06,0.020685
,,,2.85E-06,0.02083625
,,,2.86E-06,0.0206825
,,,2.87E-06,0.020876875
,,,2.88E-06,0.020825
,,,2.89E-06,0.02064625
,,,2.9E-06,0.020540625
,,,2.91E-06,0.0207925
,,,2.92E-06,0.02055125
,,,2.93E-06,0.020554375
,,,2.94E-06,0.020816875
,,,2.95E-06,0.020430625
,,,2.96E-06,0.0210225
,,,2.97E-06,0.020720625
,,,2.98E-06,0.020756875
,,,2.99E-06,0.020743125
,,,3E-06,0.02067375
,,,3.01E-06,0.020761875
,,,3.02E-06,0.020821875
,,,3.03E-06,0.020501875
,,,3.04E-06,0.02099625
,,,3.05E-06,0.020905
,,,3.06E-06,0.020751875
,,,3.07E-06,0.020701875
,,,3.08E-06,0.020699375
,,,3.09E-06,0.02043125
,,,3.1E-06,0.0205275
,,,3.11E-06,0.020665625
,,,3.12E-06,0.02075
,,,3.13E-06,0.020814375
,,,3.14E-06,0.02069
,,,3.15E-06,0.020663125
,,,3.16E-06,0.020679375
,,,3.17E-06,0.0206925
,,,3.18E-06,0.020630625
,,,3.19E-06,0.0208225
,,,3.2E-06,0.02075375
,,,3.21E-06,0.02058625
,,,3.22E-06,0.02096625
,,,3.23E-06,0.020770625
,,,3.24E-06,0.020563125
,,,3.25E-06,0.020528125
,,,3.26E-06,0.02092
,,,3.27E-06,0.020700625
,,,3.28E-06,0.020604375
,,,3.29E-06,0.020815
,,,3.3E-06,0.02076
,,,3.31E-06,0.02053875
,,,3.32E-06,0.0206025
,,,3.33E-06,0.02081125
,,,3.34E-06,0.02053
,,,3.35E-06,0.02069125
,,,3.36E-06,0.020743125
,,,3.37E-06,0.020785625
,,,3.38E-06,0.0206525
,,,3.39E-06,0.02062625
,,,3.4E-06,0.020388125
,,,3.41E-06,0.02070375
,,,3.42E-06,0.0207375
,,,3.43E-06,0.020906875
,,,3.44E-06,0.020525
,,,3.45E-06,0.020594375
,,,3.46E-06,0.02070625
,,,3.47E-06,0.020605
,,,3.48E-06,0.02087875
,,,3.49E-06,0.02075875
,,,3.5E-06,0.020653125
,,,3.51E-06,0.020774375
,,,3.52E-06,0.020896875
,,,3.53E-06,0.02051125
,,,3.54E-06,0.020796875
,,,3.55E-06,0.02044625
,,,3.56E-06,0.020904375
,,,3.57E-06,0.020781875
,,,3.58E-06,0.020805
