data/raw/Final_POL_Test_1/SOP023_Ch4.csv

"Record Length",1000,"Points",-5E-06,0.018228125
"Sample Interval",1E-08,s,-4.99E-06,0.01793
"Trigger Point",500,"Samples",-4.98E-06,0.01801625
"Trigger Time",0,s,-4.97E-06,0.01796625
"",,,-4.96E-06,0.0180575
"Horizontal Offset",-5E-06,s,-4.95E-06,0.0183075
,,,-4.94E-06,0.018345
,,,-4.93E-06,0.018033125
,,,-4.92E-06,0.018021875
,,,-4.91E-06,0.018073125
,,,-4.9E-06,0.018060625
,,,-4.89E-06,0.018105625
,,,-4.88E-06,0.017983125
,,,-4.87E-06,0.018115625
,,,-4.86E-06,0.017896875
,,,-4.85E-06,0.017960625
,,,-4.84E-06,0.017891875
,,,-4.83E-06,0.01799125
,,,-4.82E-06,0.017866875
,,,-4.81E-06,0.018061875
,,,-4.8E-06,0.018085
,,,-4.79E-06,0.01806625
,,,-4.78E-06,0.01808125
,,,-4.77E-06,0.017850625
,,,-4.76E-06,0.018225625
,,,-4.75E-06,0.017941875
,,,-4.74E-06,0.018115625
,,,-4.73E-06,0.01799
,,,-4.72E-06,0.01806125
,,,-4.71E-06,0.018280625
,,,-4.7E-06,0.01796375
,,,-4.69E-06,0.01828125
,,,-4.68E-06,0.017965625
,,,-4.67E-06,0.017816875
,,,-4.66E-06,0.017845
,,,-4.65E-06,0.017964375
,,,-4.64E-06,0.018125625
,,,-4.63E-06,0.017899375
,,,-4.62E-06,0.017944375
,,,-4.61E-06,0.018009375
,,,-4.6E-06,0.0179775
,,,-4.59E-06,0.01808625
,,,-4.58E-06,0.01817
,,,-4.57E-06,0.01793375
,,,-4.56E-06,0.01807375
,,,-4.55E-06,0.0182625
,,,-4.54E-06,0.0180475
,,,-4.53E-06,0.018004375
,,,-4.52E-06,0.017905
,,,-4.51E-06,0.01807
,,,-4.5E-06,0.0181925
,,,-4.49E-06,0.01802375
,,,-4.48E-06,0.01793375
,,,-4.47E-06,0.017853125
,,,-4.46E-06,0.0181225
,,,-4.45E-06,0.017896875
,,,-4.44E-06,0.0180725
,,,-4.43E-06,0.01809125
,,,-4.42E-06,0.01817
,,,-4.41E-06,0.018083125
,,,-4.4E-06,0.0181125
,,,-4.39E-06,0.01798
,,,-4.38E-06,0.018135625
,,,-4.37E-06,0.01825625
,,,-4.36E-06,0.017978125
,,,-4.35E-06,0.018135625
,,,-4.34E-06,0.018059375
,,,-4.33E-06,0.018086875
,,,-4.32E-06,0.018145
,,,-4.31E-06,0.018205
,,,-4.3E-06,0.018256875
,,,-4.29E-06,0.01789625
,,,-4.28E-06,0.018001875
,,,-4.27E-06,0.018165625
,,,-4.26E-06,0.01819875
,,,-4.25E-06,0.0179975
,,,-4.24E-06,0.017996875
,,,-4.23E-06,0.01814
,,,-4.22E-06,0.017634375
,,,-4.21E-06,0.018213125
,,,-4.2E-06,0.018315625
,,,-4.19E-06,0.01818875
,,,-4.18E-06,0.01801875
,,,-4.17E-06,0.018189375
,,,-4.16E-06,0.018090625
,,,-4.15E-06,0.018039375
,,,-4.14E-06,0.017984375
,,,-4.13E-06,0.018015625
,,,-4.12E-06,0.018008125
,,,-4.11E-06,0.01801
,,,-4.1E-06,0.01809875
,,,-4.09E-06,0.018013125
,,,-4.08E-06,0.018106875
,,,-4.07E-06,0.018123125
,,,-4.06E-06,0.017994375
,,,-4.05E-06,0.018180625
,,,-4.04E-06,0.017864375
,,,-4.03E-06,0.018108125
,,,-4.02E-06,0.018121875
,,,-4.01E-06,0.0181225
,,,-4E-06,0.018076875
,,,-3.99E-06,0.0182225
,,,-3.98E-06,0.01825
,,,-3.97E-06,0.0179875
,,,-3.96E-06,0.018069375
,,,-3.95E-06,0.01796625
,,,-3.94E-06,0.0180825
,,,-3.93E-06,0.01806625
,,,-3.92E-06,0.01801875
,,,-3.91E-06,0.01818375
,,,-3.9E-06,0.01822
,,,-3.89E-06,0.018
,,,-3.88E-06,0.0179875
,,,-3.87E-06,0.017971875
,,,-3.86E-06,0.01796875
,,,-3.85E-06,0.01817375
,,,-3.84E-06,0.0180925
,,,-3.83E-06,0.01807125
,,,-3.82E-06,0.0178075
,,,-3.81E-06,0.01823875
,,,-3.8E-06,0.017945
,,,-3.79E-06,0.018155
,,,-3.78E-06,0.018070625
,,,-3.77E-06,0.018163125
,,,-3.76E-06,0.018148125
,,,-3.75E-06,0.0180475
,,,-3.74E-06,0.0180475
,,,-3.73E-06,0.018081875
,,,-3.72E-06,0.018075625
,,,-3.71E-06,0.018115
,,,-3.7E-06,0.017961875
,,,-3.69E-06,0.0180825
,,,-3.68E-06,0.017703125
,,,-3.67E-06,0.01823375
,,,-3.66E-06,0.018098125
,,,-3.65E-06,0.0179425
,,,-3.64E-06,0.01816
,,,-3.63E-06,0.0180425
,,,-3.62E-06,0.017939375
,,,-3.61E-06,0.018034375
,,,-3.6E-06,0.017929375
,,,-3.59E-06,0.01810125
,,,-3.58E-06,0.0182
,,,-3.57E-06,0.01813375
,,,-3.56E-06,0.017855
,,,-3.55E-06,0.017965
,,,-3.54E-06,0.018071875
,,,-3.53E-06,0.018018125
,,,-3.52E-06,0.018276875
,,,-3.51E-06,0.01807125
,,,-3.5E-06,0.018071875
,,,-3.49E-06,0.018155625
,,,-3.48E-06,0.01814
,,,-3.47E-06,0.018108125
,,,-3.46E-06,0.017994375
,,,-3.45E-06,0.017913125
,,,-3.44E-06,0.018008125
,,,-3.43E-06,0.018113125
,,,-3.42E-06,0.018095625
,,,-3.41E-06,0.0180675
,,,-3.4E-06,0.018124375
,,,-3.39E-06,0.01793
,,,-3.38E-06,0.01802125
,,,-3.37E-06,0.017960625
,,,-3.36E-06,0.018150625
,,,-3.35E-06,0.0179675
,,,-3.34E-06,0.018145
,,,-3.33E-06,0.0180725
,,,-3.32E-06,0.0177075
,,,-3.31E-06,0.01800625
,,,-3.3E-06,0.01820875
,,,-3.29E-06,0.018061875
,,,-3.28E-06,0.018091875
,,,-3.27E-06,0.018165625
,,,-3.26E-06,0.0180825
,,,-3.25E-06,0.018244375
,,,-3.24E-06,0.01818375
,,,-3.23E-06,0.01810125
,,,-3.22E-06,0.018123125
,,,-3.21E-06,0.017969375
,,,-3.2E-06,0.0181175
,,,-3.19E-06,0.0180975
,,,-3.18E-06,0.018204375
,,,-3.17E-06,0.0180325
,,,-3.16E-06,0.018005
,,,-3.15E-06,0.018333125
,,,-3.14E-06,0.01814625
,,,-3.13E-06,0.017933125
,,,-3.12E-06,0.01776
,,,-3.11E-06,0.018145
,,,-3.1E-06,0.017825625
,,,-3.09E-06,0.01785
,,,-3.08E-06,0.018033125
,,,-3.07E-06,0.018120625
,,,-3.06E-06,0.01814125
,,,-3.05E-06,0.0181175
,,,-3.04E-06,0.01802375
,,,-3.03E-06,0.01806
,,,-3.02E-06,0.01791875
,,,-3.01E-06,0.0180325
,,,-3E-06,0.017869375
,,,-2.99E-06,0.01803375
,,,-2.98E-06,0.018093125
,,,-2.97E-06,0.017861875
,,,-2.96E-06,0.018084375
,,,-2.95E-06,0.018085
,,,-2.94E-06,0.018041875
,,,-2.93E-06,0.017833125
,,,-2.92E-06,0.017920625
,,,-2.91E-06,0.01818625
,,,-2.9E-06,0.01800625
,,,-2.89E-06,0.018085
,,,-2.88E-06,0.01785375
,,,-2.87E-06,0.018035
,,,-2.86E-06,0.017813125
,,,-2.85E-06,0.018045
,,,-2.84E-06,0.018
,,,-2.83E-06,0.0180625
,,,-2.82E-06,0.018015625
,,,-2.81E-06,0.017859375
,,,-2.8E-06,0.018078125
,,,-2.79E-06,0.018221875
,,,-2.78E-06,0.018099375
,,,-2.77E-06,0.01809625
,,,-2.76E-06,0.018078125
,,,-2.75E-06,0.017994375
,,,-2.74E-06,0.01822
,,,-2.73E-06,0.018075625
,,,-2.72E-06,0.01809125
,,,-2.71E-06,0.018091875
,,,-2.7E-06,0.01816
,,,-2.69E-06,0.01803875
,,,-2.68E-06,0.01801875
,,,-2.67E-06,0.018136875
,,,-2.66E-06,0.018015
,,,-2.65E-06,0.01808
,,,-2.64E-06,0.01779625
,,,-2.63E-06,0.017865625
,,,-2.62E-06,0.018083125
,,,-2.61E-06,0.017951875
,,,-2.6E-06,0.01803375
,,,-2.59E-06,0.018156875
,,,-2.58E-06,0.018141875
,,,-2.57E-06,0.01808625
,,,-2.56E-06,0.017966875
,,,-2.55E-06,0.017974375
,,,-2.54E-06,0.017926875
,,,-2.53E-06,0.018029375
,,,-2.52E-06,0.018164375
,,,-2.51E-06,0.01822
,,,-2.5E-06,0.018061875
,,,-2.49E-06,0.018123125
,,,-2.48E-06,0.01799125
,,,-2.47E-06,0.017914375
,,,-2.46E-06,0.018156875
,,,-2.45E-06,0.017955625
,,,-2.44E-06,0.018105
,,,-2.43E-06,0.018174375
,,,-2.42E-06,0.018075625
,,,-2.41E-06,0.01812875
,,,-2.4E-06,0.018084375
,,,-2.39E-06,0.01793375
,,,-2.38E-06,0.017773125
,,,-2.37E-06,0.01806375
,,,-2.36E-06,0.018034375
,,,-2.35E-06,0.018236875
,,,-2.34E-06,0.018076875
,,,-2.33E-06,0.018114375
,,,-2.32E-06,0.01778875
,,,-2.31E-06,0.01812875
,,,-2.3E-06,0.01792125
,,,-2.29E-06,0.01801625
,,,-2.28E-06,0.01793625
,,,-2.27E-06,0.0180225
,,,-2.26E-06,0.01795875
,,,-2.25E-06,0.018015625
,,,-2.24E-06,0.01824125
,,,-2.23E-06,0.018305625
,,,-2.22E-06,0.0178975
,,,-2.21E-06,0.018015
,,,-2.2E-06,0.0179775
,,,-2.19E-06,0.018069375
,,,-2.18E-06,0.0181125
,,,-2.17E-06,0.0181
,,,-2.16E-06,0.018178125
,,,-2.15E-06,0.01793
,,,-2.14E-06,0.01815875
,,,-2.13E-06,0.01775125
,,,-2.12E-06,0.0180075
,,,-2.11E-06,0.018081875
,,,-2.1E-06,0.01798
,,,-2.09E-06,0.018175625
,,,-2.08E-06,0.01806375
,,,-2.07E-06,0.018131875
,,,-2.06E-06,0.018193125
,,,-2.05E-06,0.017953125
,,,-2.04E-06,0.01802875
,,,-2.03E-06,0.01802125
,,,-2.02E-06,0.018038125
,,,-2.01E-06,0.01807875
,,,-2E-06,0.018108125
,,,-1.99E-06,0.018039375
,,,-1.98E-06,0.01818125
,,,-1.97E-06,0.018001875
,,,-1.96E-06,0.01793625
,,,-1.95E-06,0.017888125
,,,-1.94E-06,0.018059375
,,,-1.93E-06,0.017909375
,,,-1.92E-06,0.01808375
,,,-1.91E-06,0.01816
,,,-1.9E-06,0.0180875
,,,-1.89E-06,0.017853125
,,,-1.88E-06,0.0178475
,,,-1.87E-06,0.018325
,,,-1.86E-06,0.0179525
,,,-1.85E-06,0.0179975
,,,-1.84E-06,0.017853125
,,,-1.83E-06,0.01782375
,,,-1.82E-06,0.018266875
,,,-1.81E-06,0.018068125
,,,-1.8E-06,0.018109375
,,,-1.79E-06,0.018086875
,,,-1.78E-06,0.0181525
,,,-1.77E-06,0.018150625
,,,-1.76E-06,0.0179325
,,,-1.75E-06,0.0180825
,,,-1.74E-06,0.0178875
,,,-1.73E-06,0.018228125
,,,-1.72E-06,0.017974375
,,,-1.71E-06,0.0181775
,,,-1.7E-06,0.018149375
,,,-1.69E-06,0.01787875
,,,-1.68E-06,0.01809
,,,-1.67E-06,0.018176875
,,,-1.66E-06,0.018140625
,,,-1.65E-06,0.018053125
,,,-1.64E-06,0.017996875
,,,-1.63E-06,0.017986875
,,,-1.62E-06,0.018151875
,,,-1.61E-06,0.01788125
,,,-1.6E-06,0.0180425
,,,-1.59E-06,0.01830625
,,,-1.58E-06,0.018024375
,,,-1.57E-06,0.018004375
,,,-1.56E-06,0.018064375
,,,-1.55E-06,0.01785125
,,,-1.54E-06,0.018023125
,,,-1.53E-06,0.01813125
,,,-1.52E-06,0.017910625
,,,-1.51E-06,0.018053125
,,,-1.5E-06,0.018121875
,,,-1.49E-06,0.01801625
,,,-1.48E-06,0.01833125
,,,-1.47E-06,0.017944375
,,,-1.46E-06,0.0179975
,,,-1.45E-06,0.0181875
,,,-1.44E-06,0.018181875
,,,-1.43E-06,0.017981875
,,,-1.42E-06,0.0181125
,,,-1.41E-06,0.018134375
,,,-1.4E-06,0.018185625
,,,-1.39E-06,0.0181225
,,,-1.38E-06,0.0179275
,,,-1.37E-06,0.018155625
,,,-1.36E-06,0.018198125
,,,-1.35E-06,0.017975625
,,,-1.34E-06,0.017968125
,,,-1.33E-06,0.018179375
,,,-1.32E-06,0.017943125
,,,-1.31E-06,0.018139375
,,,-1.3E-06,0.01800625
,,,-1.29E-06,0.01818125
,,,-1.28E-06,0.0179825
,,,-1.27E-06,0.018009375
,,,-1.26E-06,0.0182375
,,,-1.25E-06,0.017980625
,,,-1.24E-06,0.017944375
,,,-1.23E-06,0.018181875
,,,-1.22E-06,0.01791875
,,,-1.21E-06,0.018108125
,,,-1.2E-06,0.017995
,,,-1.19E-06,0.018039375
,,,-1.18E-06,0.0180575
,,,-1.17E-06,0.01808375
,,,-1.16E-06,0.017838125
,,,-1.15E-06,0.01813875
,,,-1.14E-06,0.017945625
,,,-1.13E-06,0.017998125
,,,-1.12E-06,0.018076875
,,,-1.11E-06,0.018120625
,,,-1.1E-06,0.018086875
,,,-1.09E-06,0.01819125
,,,-1.08E-06,0.01809375
,,,-1.07E-06,0.018155625
,,,-1.06E-06,0.018075625
,,,-1.05E-06,0.01775625
,,,-1.04E-06,0.01790125
,,,-1.03E-06,0.018018125
,,,-1.02E-06,0.01803875
,,,-1.01E-06,0.018048125
,,,-1E-06,0.0180375
,,,-9.9E-07,0.0180575
,,,-9.8E-07,0.017831875
,,,-9.7E-07,0.01809375
,,,-9.6E-07,0.0180975
,,,-9.5E-07,0.017991875
,,,-9.4E-07,0.018150625
,,,-9.3E-07,0.01810875
,,,-9.2E-07,0.018059375
,,,-9.1E-07,0.01803
,,,-9E-07,0.01800625
,,,-8.9E-07,0.017970625
,,,-8.8E-07,0.0179325
,,,-8.7E-07,0.018104375
,,,-8.6E-07,0.018063125
,,,-8.5E-07,0.01812625
,,,-8.4E-07,0.017905625
,,,-8.3E-07,0.018058125
,,,-8.2E-07,0.018231875
,,,-8.1E-07,0.017991875
,,,-8E-07,0.01786
,,,-7.9E-07,0.017975625
,,,-7.8E-07,0.01800875
,,,-7.7E-07,0.018235
,,,-7.6E-07,0.0179325
,,,-7.5E-07,0.0182325
,,,-7.4E-07,0.017935
,,,-7.3E-07,0.0180025
,,,-7.2E-07,0.018009375
,,,-7.1E-07,0.018036875
,,,-7E-07,0.017830625
,,,-6.9E-07,0.0179225
,,,-6.8E-07,0.017906875
,,,-6.7E-07,0.018090625
,,,-6.6E-07,0.017745
,,,-6.5E-07,0.018283125
,,,-6.4E-07,0.018144375
,,,-6.3E-07,0.01793125
,,,-6.2E-07,0.0180775
,,,-6.1E-07,0.01802875
,,,-6E-07,0.018144375
,,,-5.9E-07,0.017941875
,,,-5.8E-07,0.018264375
,,,-5.7E-07,0.018005625
,,,-5.6E-07,0.0180525
,,,-5.5E-07,0.0180825
,,,-5.4E-07,0.0180825
,,,-5.3E-07,0.01824625
,,,-5.2E-07,0.018030625
,,,-5.1E-07,0.0181125
,,,-5E-07,0.0180025
,,,-4.9E-07,0.018070625
,,,-4.8E-07,0.018049375
,,,-4.7E-07,0.0182525
,,,-4.6E-07,0.0179375
,,,-4.5E-07,0.01791125
,,,-4.4E-07,0.018046875
,,,-4.3E-07,0.01810625
,,,-4.2E-07,0.01774375
,,,-4.1E-07,0.01802625
,,,-4E-07,0.018040625
,,,-3.9E-07,0.01814125
,,,-3.8E-07,0.01819125
,,,-3.7E-07,0.0181225
,,,-3.6E-07,0.018034375
,,,-3.5E-07,0.018005625
,,,-3.4E-07,0.018245625
,,,-3.3E-07,0.01789125
,,,-3.2E-07,0.01817375
,,,-3.1E-07,0.018010625
,,,-3E-07,0.017975625
,,,-2.9E-07,0.017878125
,,,-2.8E-07,0.017975
,,,-2.7E-07,0.018066875
,,,-2.6E-07,0.017979375
,,,-2.5E-07,0.017965
,,,-2.4E-07,0.018034375
,,,-2.3E-07,0.017959375
,,,-2.2E-07,0.01783375
,,,-2.1E-07,0.017971875
,,,-2E-07,0.0182375
,,,-1.9E-07,0.018109375
,,,-1.8E-07,0.018235
,,,-1.7E-07,0.018015
,,,-1.6E-07,0.01808875
,,,-1.5E-07,0.01802625
,,,-1.4E-07,0.01810625
,,,-1.3E-07,0.017855
,,,-1.2E-07,0.017989375
,,,-1.1E-07,0.017898125
,,,-1E-07,0.018076875
,,,-9E-08,0.018195
,,,-8E-08,0.018040625
,,,-7E-08,0.01804375
,,,-6E-08,0.01803375
,,,-5E-08,0.017968125
,,,-4E-08,0.01868625
,,,-3E-08,0.018828125
,,,-2E-08,0.01698875
,,,-1E-08,0.01563
,,,0,0.016206875
,,,1E-08,0.020169375
,,,2E-08,0.021301875
,,,3E-08,0.020255625
,,,4E-08,0.01733375
,,,5E-08,0.01578375
,,,6E-08,0.015861875
,,,7E-08,0.017189375
,,,8E-08,0.01847125
,,,9E-08,0.019528125
,,,1E-07,0.019246875
,,,1.1E-07,0.01806
,,,1.2E-07,0.017183125
,,,1.3E-07,0.01676
,,,1.4E-07,0.01755625
,,,1.5E-07,0.0182
,,,1.6E-07,0.018568125
,,,1.7E-07,0.018221875
,,,1.8E-07,0.018164375
,,,1.9E-07,0.0180625
,,,2E-07,0.017965625
,,,2.1E-07,0.017960625
,,,2.2E-07,0.01775875
,,,2.3E-07,0.0180775
,,,2.4E-07,0.017915
,,,2.5E-07,0.017941875
,,,2.6E-07,0.01813
,,,2.7E-07,0.018206875
,,,2.8E-07,0.0181275
,,,2.9E-07,0.01801375
,,,3E-07,0.017938125
,,,3.1E-07,0.01786875
,,,3.2E-07,0.017983125
,,,3.3E-07,0.01805375
,,,3.4E-07,0.018235625
,,,3.5E-07,0.017981875
,,,3.6E-07,0.01786625
,,,3.7E-07,0.0179775
,,,3.8E-07,0.018005
,,,3.9E-07,0.017890625
,,,4E-07,0.018031875
,,,4.1E-07,0.018160625
,,,4.2E-07,0.017950625
,,,4.3E-07,0.017881875
,,,4.4E-07,0.017983125
,,,4.5E-07,0.017984375
,,,4.6E-07,0.0182625
,,,4.7E-07,0.01811
,,,4.8E-07,0.018066875
,,,4.9E-07,0.018243125
,,,5E-07,0.018151875
,,,5.1E-07,0.018290625
,,,5.2E-07,0.017906875
,,,5.3E-07,0.0181625
,,,5.4E-07,0.0179375
,,,5.5E-07,0.018054375
,,,5.6E-07,0.017855
,,,5.7E-07,0.0178575
,,,5.8E-07,0.01812625
,,,5.9E-07,0.01793
,,,6E-07,0.018076875
,,,6.1E-07,0.018009375
,,,6.2E-07,0.0180575
,,,6.3E-07,0.018185
,,,6.4E-07,0.018101875
,,,6.5E-07,0.018063125
,,,6.6E-07,0.017936875
,,,6.7E-07,0.01813625
,,,6.8E-07,0.018125
,,,6.9E-07,0.01796
,,,7E-07,0.017993125
,,,7.1E-07,0.018100625
,,,7.2E-07,0.0180875
,,,7.3E-07,0.0181725
,,,7.4E-07,0.01799875
,,,7.5E-07,0.017953125
,,,7.6E-07,0.017999375
,,,7.7E-07,0.0180625
,,,7.8E-07,0.018105625
,,,7.9E-07,0.017899375
,,,8E-07,0.01827
,,,8.1E-07,0.018033125
,,,8.2E-07,0.01791
,,,8.3E-07,0.018245625
,,,8.4E-07,0.01795625
,,,8.5E-07,0.01788
,,,8.6E-07,0.0180725
,,,8.7E-07,0.018069375
,,,8.8E-07,0.018089375
,,,8.9E-07,0.018065625
,,,9E-07,0.017755625
,,,9.1E-07,0.018199375
,,,9.2E-07,0.0180275
,,,9.3E-07,0.017975
,,,9.4E-07,0.018051875
,,,9.5E-07,0.018051875
,,,9.6E-07,0.018278125
,,,9.7E-07,0.01811875
,,,9.8E-07,0.01813375
,,,9.9E-07,0.017850625
,,,1E-06,0.01809625
,,,1.01E-06,0.018120625
,,,1.02E-06,0.018065625
,,,1.03E-06,0.017979375
,,,1.04E-06,0.018200625
,,,1.05E-06,0.017935625
,,,1.06E-06,0.018175625
,,,1.07E-06,0.018089375
,,,1.08E-06,0.0178225
,,,1.09E-06,0.018183125
,,,1.1E-06,0.018029375
,,,1.11E-06,0.01807375
,,,1.12E-06,0.01785375
,,,1.13E-06,0.018018125
,,,1.14E-06,0.018113125
,,,1.15E-06,0.017990625
,,,1.16E-06,0.018053125
,,,1.17E-06,0.017965
,,,1.18E-06,0.01775625
,,,1.19E-06,0.017985
,,,1.2E-06,0.017969375
,,,1.21E-06,0.01812
,,,1.22E-06,0.018328125
,,,1.23E-06,0.01792625
,,,1.24E-06,0.017941875
,,,1.25E-06,0.018155
,,,1.26E-06,0.01802125
,,,1.27E-06,0.018185
,,,1.28E-06,0.01783125
,,,1.29E-06,0.017975
,,,1.3E-06,0.018015625
,,,1.31E-06,0.01795625
,,,1.32E-06,0.018075
,,,1.33E-06,0.0181175
,,,1.34E-06,0.018055
,,,1.35E-06,0.017950625
,,,1.36E-06,0.01825
,,,1.37E-06,0.018075625
,,,1.38E-06,0.017893125
,,,1.39E-06,0.01828375
,,,1.4E-06,0.017793125
,,,1.41E-06,0.018438125
,,,1.42E-06,0.017891875
,,,1.43E-06,0.01797
,,,1.44E-06,0.018003125
,,,1.45E-06,0.01805125
,,,1.46E-06,0.01808125
,,,1.47E-06,0.018065625
,,,1.48E-06,0.01808625
,,,1.49E-06,0.01819875
,,,1.5E-06,0.018088125
,,,1.51E-06,0.018195625
,,,1.52E-06,0.0180925
,,,1.53E-06,0.0179275
,,,1.54E-06,0.017928125
,,,1.55E-06,0.0181175
,,,1.56E-06,0.01807625
,,,1.57E-06,0.018218125
,,,1.58E-06,0.0177775
,,,1.59E-06,0.0176125
,,,1.6E-06,0.018084375
,,,1.61E-06,0.0181175
,,,1.62E-06,0.01805125
,,,1.63E-06,0.01817375
,,,1.64E-06,0.01802875
,,,1.65E-06,0.01800875
,,,1.66E-06,0.018146875
,,,1.67E-06,0.018235
,,,1.68E-06,0.018040625
,,,1.69E-06,0.01809625
,,,1.7E-06,0.017995625
,,,1.71E-06,0.0181375
,,,1.72E-06,0.0179925
,,,1.73E-06,0.01795875
,,,1.74E-06,0.018089375
,,,1.75E-06,0.018265625
,,,1.76E-06,0.0180225
,,,1.77E-06,0.017973125
,,,1.78E-06,0.01788875
,,,1.79E-06,0.01807875
,,,1.8E-06,0.017954375
,,,1.81E-06,0.017901875
,,,1.82E-06,0.01811625
,,,1.83E-06,0.0179825
,,,1.84E-06,0.018036875
,,,1.85E-06,0.018005
,,,1.86E-06,0.018265
,,,1.87E-06,0.018098125
,,,1.88E-06,0.018051875
,,,1.89E-06,0.01817125
,,,1.9E-06,0.017944375
,,,1.91E-06,0.018031875
,,,1.92E-06,0.017849375
,,,1.93E-06,0.018233125
,,,1.94E-06,0.0180425
,,,1.95E-06,0.0179175
,,,1.96E-06,0.017859375
,,,1.97E-06,0.01806
,,,1.98E-06,0.018161875
,,,1.99E-06,0.018063125
,,,2E-06,0.018031875
,,,2.01E-06,0.01797875
,,,2.02E-06,0.01794125
,,,2.03E-06,0.0181525
,,,2.04E-06,0.018005
,,,2.05E-06,0.017931875
,,,2.06E-06,0.01817875
,,,2.07E-06,0.0179225
,,,2.08E-06,0.018105625
,,,2.09E-06,0.017983125
,,,2.1E-06,0.018030625
,,,2.11E-06,0.01809375
,,,2.12E-06,0.018108125
,,,2.13E-06,0.0184275
,,,2.14E-06,0.018015625
,,,2.15E-06,0.01808625
,,,2.16E-06,0.01799125
,,,2.17E-06,0.01793125
,,,2.18E-06,0.017854375
,,,2.19E-06,0.018265625
,,,2.2E-06,0.018075
,,,2.21E-06,0.01802
,,,2.22E-06,0.018261875
,,,2.23E-06,0.01802
,,,2.24E-06,0.0178275
,,,2.25E-06,0.0180725
,,,2.26E-06,0.017881875
,,,2.27E-06,0.01793375
,,,2.28E-06,0.018161875
,,,2.29E-06,0.01813
,,,2.3E-06,0.0181075
,,,2.31E-06,0.018175625
,,,2.32E-06,0.01829875
,,,2.33E-06,0.01784375
,,,2.34E-06,0.01805625
,,,2.35E-06,0.01802375
,,,2.36E-06,0.018055625
,,,2.37E-06,0.018301875
,,,2.38E-06,0.017880625
,,,2.39E-06,0.018115
,,,2.4E-06,0.01801625
,,,2.41E-06,0.01796875
,,,2.42E-06,0.01793
,,,2.43E-06,0.018008125
,,,2.44E-06,0.017803125
,,,2.45E-06,0.018055625
,,,2.46E-06,0.018020625
,,,2.47E-06,0.0179475
,,,2.48E-06,0.01811375
,,,2.49E-06,0.017871875
,,,2.5E-06,0.017950625
,,,2.51E-06,0.017983125
,,,2.52E-06,0.018050625
,,,2.53E-06,0.018053125
,,,2.54E-06,0.017991875
,,,2.55E-06,0.017989375
,,,2.56E-06,0.01797875
,,,2.57E-06,0.01825125
,,,2.58E-06,0.01791125
,,,2.59E-06,0.01783125
,,,2.6E-06,0.018154375
,,,2.61E-06,0.018125
,,,2.62E-06,0.018065
,,,2.63E-06,0.018133125
,,,2.64E-06,0.0180175
,,,2.65E-06,0.018314375
,,,2.66E-06,0.018035
,,,2.67E-06,0.018086875
,,,2.68E-06,0.01807
,,,2.69E-06,0.0180575
,,,2.7E-06,0.017948125
,,,2.71E-06,0.0181925
,,,2.72E-06,0.01812
,,,2.73E-06,0.01804125
,,,2.74E-06,0.018078125
,,,2.75E-06,0.018079375
,,,2.76E-06,0.018168125
,,,2.77E-06,0.017894375
,,,2.78E-06,0.0178975
,,,2.79E-06,0.017973125
,,,2.8E-06,0.0180825
,,,2.81E-06,0.0182075
,,,2.82E-06,0.01827625
,,,2.83E-06,0.018115625
,,,2.84E-06,0.01799125
,,,2.85E-06,0.017775
,,,2.86E-06,0.017968125
,,,2.87E-06,0.017924375
,,,2.88E-06,0.017878125
,,,2.89E-06,0.01813
,,,2.9E-06,0.0178625
,,,2.91E-06,0.017944375
,,,2.92E-06,0.017995625
,,,2.93E-06,0.0180825
,,,2.94E-06,0.018135
,,,2.95E-06,0.01827125
,,,2.96E-06,0.01806
,,,2.97E-06,0.018071875
,,,2.98E-06,0.018115625
,,,2.99E-06,0.018100625
,,,3E-06,0.018030625
,,,3.01E-06,0.018015625
,,,3.02E-06,0.018020625
,,,3.03E-06,0.0180825
,,,3.04E-06,0.018179375
,,,3.05E-06,0.018206875
,,,3.06E-06,0.01799
,,,3.07E-06,0.01804125
,,,3.08E-06,0.018183125
,,,3.09E-06,0.01820125
,,,3.1E-06,0.017875
,,,3.11E-06,0.018195625
,,,3.12E-06,0.017898125
,,,3.13E-06,0.01815625
,,,3.14E-06,0.0182275
,,,3.15E-06,0.01815875
,,,3.16E-06,0.018154375
,,,3.17E-06,0.01803875
,,,3.18E-06,0.017921875
,,,3.19E-06,0.018079375
,,,3.2E-06,0.0181425
,,,3.21E-06,0.018204375
,,,3.22E-06,0.01785125
,,,3.23E-06,0.018205625
,,,3.24E-06,0.0179275
,,,3.25E-06,0.018001875
,,,3.26E-06,0.018261875
,,,3.27E-06,0.017958125
,,,3.28E-06,0.018089375
,,,3.29E-06,0.018008125
,,,3.3E-06,0.01788875
,,,3.31E-06,0.018239375
,,,3.32E-06,0.017944375
,,,3.33E-06,0.01809625
,,,3.34E-06,0.018008125
,,,3.35E-06,0.01799
,,,3.36E-06,0.01799625
,,,3.37E-06,0.018045625
,,,3.38E-06,0.018085625
,,,3.39E-06,0.01796875
,,,3.4E-06,0.017805625
,,,3.41E-06,0.017873125
,,,3.42E-06,0.017940625
,,,3.43E-06,0.01812625
,,,3.44E-06,0.018206875
,,,3.45E-06,0.017959375
,,,3.46E-06,0.0180725
,,,3.47E-06,0.018074375
,,,3.48E-06,0.0180175
,,,3.49E-06,0.01804625
,,,3.5E-06,0.017935
,,,3.51E-06,0.018020625
,,,3.52E-06,0.01814375
,,,3.53E-06,0.018005625
,,,3.54E-06,0.018075
,,,3.55E-06,0.018139375
,,,3.56E-06,0.018070625
