data/raw/Final_POL_Test_1/SOP056_Ch4.csv

"Record Length",1000,"Points",-5E-06,0.015971875
"Sample Interval",1E-08,s,-4.99E-06,0.015596875
"Trigger Point",500,"Samples",-4.98E-06,0.01576
"Trigger Time",0,s,-4.97E-06,0.0157425
"",,,-4.96E-06,0.01579875
"Horizontal Offset",-5E-06,s,-4.95E-06,0.0160875
,,,-4.94E-06,0.0157
,,,-4.93E-06,0.0160925
,,,-4.92E-06,0.0155775
,,,-4.91E-06,0.015776875
,,,-4.9E-06,0.0158425
,,,-4.89E-06,0.01597375
,,,-4.88E-06,0.01576
,,,-4.87E-06,0.015978125
,,,-4.86E-06,0.0157825
,,,-4.85E-06,0.01586375
,,,-4.84E-06,0.01558625
,,,-4.83E-06,0.015910625
,,,-4.82E-06,0.015980625
,,,-4.81E-06,0.015829375
,,,-4.8E-06,0.015944375
,,,-4.79E-06,0.01598875
,,,-4.78E-06,0.01585
,,,-4.77E-06,0.01606375
,,,-4.76E-06,0.015809375
,,,-4.75E-06,0.015813125
,,,-4.74E-06,0.015621875
,,,-4.73E-06,0.01605125
,,,-4.72E-06,0.016019375
,,,-4.71E-06,0.01591125
,,,-4.7E-06,0.015893125
,,,-4.69E-06,0.01596375
,,,-4.68E-06,0.015764375
,,,-4.67E-06,0.01597625
,,,-4.66E-06,0.015904375
,,,-4.65E-06,0.015864375
,,,-4.64E-06,0.015898125
,,,-4.63E-06,0.015795
,,,-4.62E-06,0.015934375
,,,-4.61E-06,0.01576875
,,,-4.6E-06,0.01575
,,,-4.59E-06,0.01581625
,,,-4.58E-06,0.01581875
,,,-4.57E-06,0.0158275
,,,-4.56E-06,0.015719375
,,,-4.55E-06,0.015966875
,,,-4.54E-06,0.01571125
,,,-4.53E-06,0.01574875
,,,-4.52E-06,0.015735
,,,-4.51E-06,0.01584625
,,,-4.5E-06,0.015645625
,,,-4.49E-06,0.015863125
,,,-4.48E-06,0.015890625
,,,-4.47E-06,0.015843125
,,,-4.46E-06,0.01579875
,,,-4.45E-06,0.015753125
,,,-4.44E-06,0.015940625
,,,-4.43E-06,0.01569
,,,-4.42E-06,0.015966875
,,,-4.41E-06,0.015846875
,,,-4.4E-06,0.015803125
,,,-4.39E-06,0.01590625
,,,-4.38E-06,0.01573625
,,,-4.37E-06,0.015444375
,,,-4.36E-06,0.0157825
,,,-4.35E-06,0.016039375
,,,-4.34E-06,0.015945625
,,,-4.33E-06,0.01580875
,,,-4.32E-06,0.01549375
,,,-4.31E-06,0.016035625
,,,-4.3E-06,0.015835
,,,-4.29E-06,0.015986875
,,,-4.28E-06,0.01582125
,,,-4.27E-06,0.01578625
,,,-4.26E-06,0.01570125
,,,-4.25E-06,0.015940625
,,,-4.24E-06,0.0158925
,,,-4.23E-06,0.015805
,,,-4.22E-06,0.01573
,,,-4.21E-06,0.01590125
,,,-4.2E-06,0.015570625
,,,-4.19E-06,0.0156825
,,,-4.18E-06,0.015795
,,,-4.17E-06,0.0157675
,,,-4.16E-06,0.015821875
,,,-4.15E-06,0.01579125
,,,-4.14E-06,0.01589625
,,,-4.13E-06,0.01572
,,,-4.12E-06,0.015828125
,,,-4.11E-06,0.01580625
,,,-4.1E-06,0.015870625
,,,-4.09E-06,0.01591125
,,,-4.08E-06,0.015946875
,,,-4.07E-06,0.015641875
,,,-4.06E-06,0.016005
,,,-4.05E-06,0.015839375
,,,-4.04E-06,0.015869375
,,,-4.03E-06,0.015705
,,,-4.02E-06,0.016075625
,,,-4.01E-06,0.015656875
,,,-4E-06,0.016071875
,,,-3.99E-06,0.01594125
,,,-3.98E-06,0.015831875
,,,-3.97E-06,0.01593875
,,,-3.96E-06,0.01574
,,,-3.95E-06,0.015873125
,,,-3.94E-06,0.01580875
,,,-3.93E-06,0.01569875
,,,-3.92E-06,0.015885
,,,-3.91E-06,0.015665625
,,,-3.9E-06,0.015768125
,,,-3.89E-06,0.01561375
,,,-3.88E-06,0.01591625
,,,-3.87E-06,0.015815625
,,,-3.86E-06,0.01549125
,,,-3.85E-06,0.01597
,,,-3.84E-06,0.015910625
,,,-3.83E-06,0.01599
,,,-3.82E-06,0.01580375
,,,-3.81E-06,0.016081875
,,,-3.8E-06,0.0158625
,,,-3.79E-06,0.015765
,,,-3.78E-06,0.015785625
,,,-3.77E-06,0.0156375
,,,-3.76E-06,0.015654375
,,,-3.75E-06,0.015681875
,,,-3.74E-06,0.01602625
,,,-3.73E-06,0.01583
,,,-3.72E-06,0.015875625
,,,-3.71E-06,0.015905
,,,-3.7E-06,0.015704375
,,,-3.69E-06,0.01573625
,,,-3.68E-06,0.015753125
,,,-3.67E-06,0.015969375
,,,-3.66E-06,0.01576125
,,,-3.65E-06,0.01586375
,,,-3.64E-06,0.01571125
,,,-3.63E-06,0.01575375
,,,-3.62E-06,0.015754375
,,,-3.61E-06,0.01584375
,,,-3.6E-06,0.015944375
,,,-3.59E-06,0.015985
,,,-3.58E-06,0.0157875
,,,-3.57E-06,0.015940625
,,,-3.56E-06,0.015769375
,,,-3.55E-06,0.01608625
,,,-3.54E-06,0.01580875
,,,-3.53E-06,0.01574
,,,-3.52E-06,0.01538125
,,,-3.51E-06,0.01572875
,,,-3.5E-06,0.0159925
,,,-3.49E-06,0.015645
,,,-3.48E-06,0.0160175
,,,-3.47E-06,0.0160025
,,,-3.46E-06,0.015445
,,,-3.45E-06,0.01590875
,,,-3.44E-06,0.015870625
,,,-3.43E-06,0.015745
,,,-3.42E-06,0.0158075
,,,-3.41E-06,0.015668125
,,,-3.4E-06,0.015983125
,,,-3.39E-06,0.015608125
,,,-3.38E-06,0.01575625
,,,-3.37E-06,0.015826875
,,,-3.36E-06,0.015850625
,,,-3.35E-06,0.015905625
,,,-3.34E-06,0.01567625
,,,-3.33E-06,0.0158725
,,,-3.32E-06,0.015964375
,,,-3.31E-06,0.01600125
,,,-3.3E-06,0.016013125
,,,-3.29E-06,0.01559625
,,,-3.28E-06,0.0159725
,,,-3.27E-06,0.01596375
,,,-3.26E-06,0.01601
,,,-3.25E-06,0.015904375
,,,-3.24E-06,0.015889375
,,,-3.23E-06,0.015786875
,,,-3.22E-06,0.015948125
,,,-3.21E-06,0.015863125
,,,-3.2E-06,0.01562875
,,,-3.19E-06,0.01574
,,,-3.18E-06,0.0158425
,,,-3.17E-06,0.015983125
,,,-3.16E-06,0.015910625
,,,-3.15E-06,0.015644375
,,,-3.14E-06,0.0158625
,,,-3.13E-06,0.015800625
,,,-3.12E-06,0.015678125
,,,-3.11E-06,0.015945625
,,,-3.1E-06,0.01567625
,,,-3.09E-06,0.015780625
,,,-3.08E-06,0.01584375
,,,-3.07E-06,0.01596875
,,,-3.06E-06,0.015890625
,,,-3.05E-06,0.015778125
,,,-3.04E-06,0.015798125
,,,-3.03E-06,0.015566875
,,,-3.02E-06,0.015776875
,,,-3.01E-06,0.015941875
,,,-3E-06,0.015705625
,,,-2.99E-06,0.015695625
,,,-2.98E-06,0.01562375
,,,-2.97E-06,0.01590875
,,,-2.96E-06,0.015526875
,,,-2.95E-06,0.015791875
,,,-2.94E-06,0.015684375
,,,-2.93E-06,0.015595625
,,,-2.92E-06,0.015998125
,,,-2.91E-06,0.015641875
,,,-2.9E-06,0.016045
,,,-2.89E-06,0.015945625
,,,-2.88E-06,0.0159425
,,,-2.87E-06,0.015801875
,,,-2.86E-06,0.015799375
,,,-2.85E-06,0.01577125
,,,-2.84E-06,0.0159675
,,,-2.83E-06,0.015898125
,,,-2.82E-06,0.0158925
,,,-2.81E-06,0.015904375
,,,-2.8E-06,0.015850625
,,,-2.79E-06,0.015820625
,,,-2.78E-06,0.01602375
,,,-2.77E-06,0.015866875
,,,-2.76E-06,0.015784375
,,,-2.75E-06,0.01584875
,,,-2.74E-06,0.01609
,,,-2.73E-06,0.015734375
,,,-2.72E-06,0.015825
,,,-2.71E-06,0.015711875
,,,-2.7E-06,0.015986875
,,,-2.69E-06,0.015958125
,,,-2.68E-06,0.015975625
,,,-2.67E-06,0.01598125
,,,-2.66E-06,0.0159275
,,,-2.65E-06,0.0159475
,,,-2.64E-06,0.01569875
,,,-2.63E-06,0.01571125
,,,-2.62E-06,0.015780625
,,,-2.61E-06,0.01579
,,,-2.6E-06,0.015833125
,,,-2.59E-06,0.015894375
,,,-2.58E-06,0.01592875
,,,-2.57E-06,0.01581375
,,,-2.56E-06,0.015975625
,,,-2.55E-06,0.015891875
,,,-2.54E-06,0.015893125
,,,-2.53E-06,0.01569875
,,,-2.52E-06,0.0158275
,,,-2.51E-06,0.015949375
,,,-2.5E-06,0.015718125
,,,-2.49E-06,0.015771875
,,,-2.48E-06,0.015870625
,,,-2.47E-06,0.015780625
,,,-2.46E-06,0.015853125
,,,-2.45E-06,0.01619125
,,,-2.44E-06,0.015863125
,,,-2.43E-06,0.01588
,,,-2.42E-06,0.01582875
,,,-2.41E-06,0.015816875
,,,-2.4E-06,0.015565
,,,-2.39E-06,0.01575875
,,,-2.38E-06,0.01539875
,,,-2.37E-06,0.015791875
,,,-2.36E-06,0.01578
,,,-2.35E-06,0.01571
,,,-2.34E-06,0.01592625
,,,-2.33E-06,0.015788125
,,,-2.32E-06,0.0159875
,,,-2.31E-06,0.0157375
,,,-2.3E-06,0.015710625
,,,-2.29E-06,0.015585
,,,-2.28E-06,0.01575625
,,,-2.27E-06,0.01576875
,,,-2.26E-06,0.015901875
,,,-2.25E-06,0.01592875
,,,-2.24E-06,0.015985625
,,,-2.23E-06,0.015809375
,,,-2.22E-06,0.015773125
,,,-2.21E-06,0.01570375
,,,-2.2E-06,0.015408125
,,,-2.19E-06,0.01596
,,,-2.18E-06,0.015759375
,,,-2.17E-06,0.015824375
,,,-2.16E-06,0.0158125
,,,-2.15E-06,0.015909375
,,,-2.14E-06,0.015678125
,,,-2.13E-06,0.015780625
,,,-2.12E-06,0.015595625
,,,-2.11E-06,0.015639375
,,,-2.1E-06,0.016048125
,,,-2.09E-06,0.0158475
,,,-2.08E-06,0.016021875
,,,-2.07E-06,0.016016875
,,,-2.06E-06,0.015833125
,,,-2.05E-06,0.01588625
,,,-2.04E-06,0.015651875
,,,-2.03E-06,0.015723125
,,,-2.02E-06,0.0158
,,,-2.01E-06,0.015911875
,,,-2E-06,0.015864375
,,,-1.99E-06,0.015830625
,,,-1.98E-06,0.01614375
,,,-1.97E-06,0.015919375
,,,-1.96E-06,0.015774375
,,,-1.95E-06,0.015806875
,,,-1.94E-06,0.015978125
,,,-1.93E-06,0.0159
,,,-1.92E-06,0.0158325
,,,-1.91E-06,0.015855
,,,-1.9E-06,0.0157475
,,,-1.89E-06,0.015868125
,,,-1.88E-06,0.01572625
,,,-1.87E-06,0.01562125
,,,-1.86E-06,0.015755
,,,-1.85E-06,0.015678125
,,,-1.84E-06,0.015773125
,,,-1.83E-06,0.01592125
,,,-1.82E-06,0.015913125
,,,-1.81E-06,0.015850625
,,,-1.8E-06,0.01587
,,,-1.79E-06,0.0159075
,,,-1.78E-06,0.01587
,,,-1.77E-06,0.016055625
,,,-1.76E-06,0.01603
,,,-1.75E-06,0.015873125
,,,-1.74E-06,0.015641875
,,,-1.73E-06,0.015954375
,,,-1.72E-06,0.015675
,,,-1.71E-06,0.01577625
,,,-1.7E-06,0.015846875
,,,-1.69E-06,0.01577
,,,-1.68E-06,0.0158225
,,,-1.67E-06,0.01593625
,,,-1.66E-06,0.015580625
,,,-1.65E-06,0.01591
,,,-1.64E-06,0.015721875
,,,-1.63E-06,0.01562
,,,-1.62E-06,0.015735
,,,-1.61E-06,0.0156275
,,,-1.6E-06,0.0156625
,,,-1.59E-06,0.015710625
,,,-1.58E-06,0.015951875
,,,-1.57E-06,0.015934375
,,,-1.56E-06,0.015618125
,,,-1.55E-06,0.01558625
,,,-1.54E-06,0.01553
,,,-1.53E-06,0.015794375
,,,-1.52E-06,0.016014375
,,,-1.51E-06,0.01588875
,,,-1.5E-06,0.016080625
,,,-1.49E-06,0.01580875
,,,-1.48E-06,0.015818125
,,,-1.47E-06,0.015689375
,,,-1.46E-06,0.015930625
,,,-1.45E-06,0.015710625
,,,-1.44E-06,0.015608125
,,,-1.43E-06,0.015834375
,,,-1.42E-06,0.01587625
,,,-1.41E-06,0.016070625
,,,-1.4E-06,0.01596875
,,,-1.39E-06,0.015650625
,,,-1.38E-06,0.015699375
,,,-1.37E-06,0.01573375
,,,-1.36E-06,0.0159375
,,,-1.35E-06,0.0157575
,,,-1.34E-06,0.0157075
,,,-1.33E-06,0.01561
,,,-1.32E-06,0.015784375
,,,-1.31E-06,0.01598
,,,-1.3E-06,0.0157925
,,,-1.29E-06,0.015820625
,,,-1.28E-06,0.0158875
,,,-1.27E-06,0.01550375
,,,-1.26E-06,0.01601375
,,,-1.25E-06,0.016010625
,,,-1.24E-06,0.015805625
,,,-1.23E-06,0.015786875
,,,-1.22E-06,0.01565125
,,,-1.21E-06,0.015610625
,,,-1.2E-06,0.015754375
,,,-1.19E-06,0.015885
,,,-1.18E-06,0.015899375
,,,-1.17E-06,0.015809375
,,,-1.16E-06,0.01598875
,,,-1.15E-06,0.015669375
,,,-1.14E-06,0.0156625
,,,-1.13E-06,0.015734375
,,,-1.12E-06,0.015908125
,,,-1.11E-06,0.015576875
,,,-1.1E-06,0.015824375
,,,-1.09E-06,0.015795625
,,,-1.08E-06,0.015846875
,,,-1.07E-06,0.01554875
,,,-1.06E-06,0.01594375
,,,-1.05E-06,0.015796875
,,,-1.04E-06,0.0157125
,,,-1.03E-06,0.01567875
,,,-1.02E-06,0.015580625
,,,-1.01E-06,0.015680625
,,,-1E-06,0.015665
,,,-9.9E-07,0.01597625
,,,-9.8E-07,0.015845625
,,,-9.7E-07,0.015900625
,,,-9.6E-07,0.015741875
,,,-9.5E-07,0.01573125
,,,-9.4E-07,0.015983125
,,,-9.3E-07,0.016019375
,,,-9.2E-07,0.016016875
,,,-9.1E-07,0.015576875
,,,-9E-07,0.015856875
,,,-8.9E-07,0.015850625
,,,-8.8E-07,0.015871875
,,,-8.7E-07,0.015580625
,,,-8.6E-07,0.015905625
,,,-8.5E-07,0.01568875
,,,-8.4E-07,0.015840625
,,,-8.3E-07,0.01578125
,,,-8.2E-07,0.0159025
,,,-8.1E-07,0.0158375
,,,-8E-07,0.015584375
,,,-7.9E-07,0.01553125
,,,-7.8E-07,0.015985
,,,-7.7E-07,0.015831875
,,,-7.6E-07,0.01619875
,,,-7.5E-07,0.015821875
,,,-7.4E-07,0.015748125
,,,-7.3E-07,0.015816875
,,,-7.2E-07,0.015690625
,,,-7.1E-07,0.015734375
,,,-7E-07,0.015881875
,,,-6.9E-07,0.015740625
,,,-6.8E-07,0.015908125
,,,-6.7E-07,0.01588125
,,,-6.6E-07,0.015748125
,,,-6.5E-07,0.01592375
,,,-6.4E-07,0.01573125
,,,-6.3E-07,0.01598
,,,-6.2E-07,0.015749375
,,,-6.1E-07,0.015861875
,,,-6E-07,0.015970625
,,,-5.9E-07,0.015855625
,,,-5.8E-07,0.01581
,,,-5.7E-07,0.015515
,,,-5.6E-07,0.01580375
,,,-5.5E-07,0.015721875
,,,-5.4E-07,0.015726875
,,,-5.3E-07,0.015863125
,,,-5.2E-07,0.01592625
,,,-5.1E-07,0.016239375
,,,-5E-07,0.0158425
,,,-4.9E-07,0.01584
,,,-4.8E-07,0.015810625
,,,-4.7E-07,0.016035
,,,-4.6E-07,0.016113125
,,,-4.5E-07,0.015599375
,,,-4.4E-07,0.015755625
,,,-4.3E-07,0.01606
,,,-4.2E-07,0.015641875
,,,-4.1E-07,0.015865
,,,-4E-07,0.0158025
,,,-3.9E-07,0.015698125
,,,-3.8E-07,0.01556625
,,,-3.7E-07,0.015865
,,,-3.6E-07,0.01572
,,,-3.5E-07,0.015790625
,,,-3.4E-07,0.01589
,,,-3.3E-07,0.015849375
,,,-3.2E-07,0.015935
,,,-3.1E-07,0.01587
,,,-3E-07,0.01585875
,,,-2.9E-07,0.01587
,,,-2.8E-07,0.01568125
,,,-2.7E-07,0.015830625
,,,-2.6E-07,0.015758125
,,,-2.5E-07,0.015768125
,,,-2.4E-07,0.016095
,,,-2.3E-07,0.01585
,,,-2.2E-07,0.016139375
,,,-2.1E-07,0.015694375
,,,-2E-07,0.01585875
,,,-1.9E-07,0.015874375
,,,-1.8E-07,0.015718125
,,,-1.7E-07,0.015709375
,,,-1.6E-07,0.01575125
,,,-1.5E-07,0.01584375
,,,-1.4E-07,0.015609375
,,,-1.3E-07,0.01596
,,,-1.2E-07,0.015640625
,,,-1.1E-07,0.01587375
,,,-1E-07,0.015845625
,,,-9E-08,0.016115
,,,-8E-08,0.015408125
,,,-7E-08,0.015253125
,,,-6E-08,0.01559125
,,,-5E-08,0.016110625
,,,-4E-08,0.016705
,,,-3E-08,0.01769
,,,-2E-08,0.01427375
,,,-1E-08,0.012740625
,,,0,0.012120625
,,,1E-08,0.01834375
,,,2E-08,0.01946
,,,3E-08,0.019395625
,,,4E-08,0.01551
,,,5E-08,0.013329375
,,,6E-08,0.01263625
,,,7E-08,0.0147125
,,,8E-08,0.0165175
,,,9E-08,0.0177825
,,,1E-07,0.017540625
,,,1.1E-07,0.016195
,,,1.2E-07,0.014925625
,,,1.3E-07,0.014353125
,,,1.4E-07,0.015246875
,,,1.5E-07,0.0160675
,,,1.6E-07,0.01646875
,,,1.7E-07,0.016165
,,,1.8E-07,0.015835
,,,1.9E-07,0.015915625
,,,2E-07,0.015706875
,,,2.1E-07,0.0154975
,,,2.2E-07,0.015306875
,,,2.3E-07,0.015938125
,,,2.4E-07,0.01617125
,,,2.5E-07,0.016231875
,,,2.6E-07,0.015853125
,,,2.7E-07,0.015965625
,,,2.8E-07,0.015864375
,,,2.9E-07,0.0160925
,,,3E-07,0.01564
,,,3.1E-07,0.015789375
,,,3.2E-07,0.01598125
,,,3.3E-07,0.01609
,,,3.4E-07,0.015809375
,,,3.5E-07,0.01588625
,,,3.6E-07,0.0156875
,,,3.7E-07,0.015799375
,,,3.8E-07,0.015658125
,,,3.9E-07,0.01570875
,,,4E-07,0.015829375
,,,4.1E-07,0.0159925
,,,4.2E-07,0.01575375
,,,4.3E-07,0.015763125
,,,4.4E-07,0.015570625
,,,4.5E-07,0.015875625
,,,4.6E-07,0.015710625
,,,4.7E-07,0.01561375
,,,4.8E-07,0.01579375
,,,4.9E-07,0.01573
,,,5E-07,0.01579125
,,,5.1E-07,0.01576375
,,,5.2E-07,0.015973125
,,,5.3E-07,0.01576
,,,5.4E-07,0.01586
,,,5.5E-07,0.01589
,,,5.6E-07,0.01588125
,,,5.7E-07,0.0157875
,,,5.8E-07,0.015791875
,,,5.9E-07,0.015995625
,,,6E-07,0.015860625
,,,6.1E-07,0.015644375
,,,6.2E-07,0.0157475
,,,6.3E-07,0.01573875
,,,6.4E-07,0.015789375
,,,6.5E-07,0.016085
,,,6.6E-07,0.015775
,,,6.7E-07,0.016041875
,,,6.8E-07,0.015871875
,,,6.9E-07,0.01571375
,,,7E-07,0.015853125
,,,7.1E-07,0.01597375
,,,7.2E-07,0.016120625
,,,7.3E-07,0.015973125
,,,7.4E-07,0.01569875
,,,7.5E-07,0.016165625
,,,7.6E-07,0.015588125
,,,7.7E-07,0.015455625
,,,7.8E-07,0.015929375
,,,7.9E-07,0.0157825
,,,8E-07,0.015923125
,,,8.1E-07,0.015734375
,,,8.2E-07,0.015819375
,,,8.3E-07,0.0156875
,,,8.4E-07,0.0158475
,,,8.5E-07,0.01596
,,,8.6E-07,0.015745
,,,8.7E-07,0.015871875
,,,8.8E-07,0.01594625
,,,8.9E-07,0.015881875
,,,9E-07,0.01573625
,,,9.1E-07,0.01588
,,,9.2E-07,0.0158525
,,,9.3E-07,0.015893125
,,,9.4E-07,0.015760625
,,,9.5E-07,0.0157025
,,,9.6E-07,0.01585625
,,,9.7E-07,0.015650625
,,,9.8E-07,0.01606875
,,,9.9E-07,0.015936875
,,,1E-06,0.01574875
,,,1.01E-06,0.0157525
,,,1.02E-06,0.01601625
,,,1.03E-06,0.01591375
,,,1.04E-06,0.015615625
,,,1.05E-06,0.015675625
,,,1.06E-06,0.015826875
,,,1.07E-06,0.015829375
,,,1.08E-06,0.0157025
,,,1.09E-06,0.015819375
,,,1.1E-06,0.01579375
,,,1.11E-06,0.015765
,,,1.12E-06,0.0158
,,,1.13E-06,0.0157525
,,,1.14E-06,0.015971875
,,,1.15E-06,0.01583125
,,,1.16E-06,0.0156725
,,,1.17E-06,0.0156625
,,,1.18E-06,0.015616875
,,,1.19E-06,0.01567375
,,,1.2E-06,0.016033125
,,,1.21E-06,0.016000625
,,,1.22E-06,0.015911875
,,,1.23E-06,0.01582375
,,,1.24E-06,0.015638125
,,,1.25E-06,0.015848125
,,,1.26E-06,0.01576
,,,1.27E-06,0.015698125
,,,1.28E-06,0.01566875
,,,1.29E-06,0.01568875
,,,1.3E-06,0.015526875
,,,1.31E-06,0.01587625
,,,1.32E-06,0.015725
,,,1.33E-06,0.015818125
,,,1.34E-06,0.015955
,,,1.35E-06,0.01574
,,,1.36E-06,0.01567125
,,,1.37E-06,0.015676875
,,,1.38E-06,0.0156475
,,,1.39E-06,0.01594375
,,,1.4E-06,0.01583875
,,,1.41E-06,0.0156625
,,,1.42E-06,0.01592
,,,1.43E-06,0.01586375
,,,1.44E-06,0.015496875
,,,1.45E-06,0.015735
,,,1.46E-06,0.01585875
,,,1.47E-06,0.01577
,,,1.48E-06,0.01560125
,,,1.49E-06,0.016076875
,,,1.5E-06,0.015718125
,,,1.51E-06,0.01568875
,,,1.52E-06,0.01584375
,,,1.53E-06,0.015878125
,,,1.54E-06,0.0157075
,,,1.55E-06,0.015873125
,,,1.56E-06,0.015844375
,,,1.57E-06,0.01559
,,,1.58E-06,0.01581375
,,,1.59E-06,0.01556125
,,,1.6E-06,0.0157325
,,,1.61E-06,0.015925625
,,,1.62E-06,0.015631875
,,,1.63E-06,0.0160425
,,,1.64E-06,0.0156525
,,,1.65E-06,0.015915
,,,1.66E-06,0.015708125
,,,1.67E-06,0.015925
,,,1.68E-06,0.016
,,,1.69E-06,0.01596875
,,,1.7E-06,0.015594375
,,,1.71E-06,0.01582
,,,1.72E-06,0.01608
,,,1.73E-06,0.015835625
,,,1.74E-06,0.016005
,,,1.75E-06,0.015843125
,,,1.76E-06,0.01580875
,,,1.77E-06,0.015983125
,,,1.78E-06,0.015775625
,,,1.79E-06,0.01595375
,,,1.8E-06,0.015840625
,,,1.81E-06,0.0160575
,,,1.82E-06,0.015703125
,,,1.83E-06,0.0157675
,,,1.84E-06,0.0155125
,,,1.85E-06,0.015713125
,,,1.86E-06,0.015799375
,,,1.87E-06,0.01594
,,,1.88E-06,0.01571625
,,,1.89E-06,0.0157775
,,,1.9E-06,0.015624375
,,,1.91E-06,0.015879375
,,,1.92E-06,0.015845625
,,,1.93E-06,0.015646875
,,,1.94E-06,0.015830625
,,,1.95E-06,0.015831875
,,,1.96E-06,0.01579875
,,,1.97E-06,0.01587375
,,,1.98E-06,0.015896875
,,,1.99E-06,0.016304375
,,,2E-06,0.015650625
,,,2.01E-06,0.01585375
,,,2.02E-06,0.01566375
,,,2.03E-06,0.0159575
,,,2.04E-06,0.015878125
,,,2.05E-06,0.0158025
,,,2.06E-06,0.015901875
,,,2.07E-06,0.01597375
,,,2.08E-06,0.015543125
,,,2.09E-06,0.015750625
,,,2.1E-06,0.0160025
,,,2.11E-06,0.015758125
,,,2.12E-06,0.015874375
,,,2.13E-06,0.016025625
,,,2.14E-06,0.015728125
,,,2.15E-06,0.015844375
,,,2.16E-06,0.015839375
,,,2.17E-06,0.01606375
,,,2.18E-06,0.0157325
,,,2.19E-06,0.01593625
,,,2.2E-06,0.015838125
,,,2.21E-06,0.01595
,,,2.22E-06,0.015899375
,,,2.23E-06,0.01565125
,,,2.24E-06,0.015918125
,,,2.25E-06,0.015686875
,,,2.26E-06,0.015815
,,,2.27E-06,0.01561125
,,,2.28E-06,0.015910625
,,,2.29E-06,0.0159225
,,,2.3E-06,0.015831875
,,,2.31E-06,0.015585625
,,,2.32E-06,0.015695
,,,2.33E-06,0.0159275
,,,2.34E-06,0.015755
,,,2.35E-06,0.016100625
,,,2.36E-06,0.016005
,,,2.37E-06,0.01590125
,,,2.38E-06,0.0157875
,,,2.39E-06,0.015675625
,,,2.4E-06,0.015779375
,,,2.41E-06,0.015683125
,,,2.42E-06,0.0157775
,,,2.43E-06,0.015644375
,,,2.44E-06,0.0159075
,,,2.45E-06,0.01590375
,,,2.46E-06,0.016055
,,,2.47E-06,0.01575375
,,,2.48E-06,0.01596375
,,,2.49E-06,0.015818125
,,,2.5E-06,0.0156975
,,,2.51E-06,0.0156875
,,,2.52E-06,0.015799375
,,,2.53E-06,0.01578125
,,,2.54E-06,0.01582
,,,2.55E-06,0.0160175
,,,2.56E-06,0.015741875
,,,2.57E-06,0.015873125
,,,2.58E-06,0.015521875
,,,2.59E-06,0.016154375
,,,2.6E-06,0.015904375
,,,2.61E-06,0.015605
,,,2.62E-06,0.015674375
,,,2.63E-06,0.01577875
,,,2.64E-06,0.01590875
,,,2.65E-06,0.01589875
,,,2.66E-06,0.01599875
,,,2.67E-06,0.01572875
,,,2.68E-06,0.015864375
,,,2.69E-06,0.015988125
,,,2.7E-06,0.015795625
,,,2.71E-06,0.01584375
,,,2.72E-06,0.015760625
,,,2.73E-06,0.015813125
,,,2.74E-06,0.015720625
,,,2.75E-06,0.015993125
,,,2.76E-06,0.015953125
,,,2.77E-06,0.01558375
,,,2.78E-06,0.015779375
,,,2.79E-06,0.015758125
,,,2.8E-06,0.016013125
,,,2.81E-06,0.015943125
,,,2.82E-06,0.01592375
,,,2.83E-06,0.01582875
,,,2.84E-06,0.015900625
,,,2.85E-06,0.0158975
,,,2.86E-06,0.015713125
,,,2.87E-06,0.01586625
,,,2.88E-06,0.01584375
,,,2.89E-06,0.015720625
,,,2.9E-06,0.015804375
,,,2.91E-06,0.015895625
,,,2.92E-06,0.01575875
,,,2.93E-06,0.015736875
,,,2.94E-06,0.015804375
,,,2.95E-06,0.0155875
,,,2.96E-06,0.0157575
,,,2.97E-06,0.015605
,,,2.98E-06,0.015429375
,,,2.99E-06,0.015693125
,,,3E-06,0.0159225
,,,3.01E-06,0.01596625
,,,3.02E-06,0.015929375
,,,3.03E-06,0.01586
,,,3.04E-06,0.0157825
,,,3.05E-06,0.015906875
,,,3.06E-06,0.015755625
,,,3.07E-06,0.01587375
,,,3.08E-06,0.015595625
,,,3.09E-06,0.015880625
,,,3.1E-06,0.01583625
,,,3.11E-06,0.015678125
,,,3.12E-06,0.015785625
,,,3.13E-06,0.015745625
,,,3.14E-06,0.015779375
,,,3.15E-06,0.015644375
,,,3.16E-06,0.015914375
,,,3.17E-06,0.0156225
,,,3.18E-06,0.015539375
,,,3.19E-06,0.015903125
,,,3.2E-06,0.0159175
,,,3.21E-06,0.016
,,,3.22E-06,0.015888125
,,,3.23E-06,0.01549625
,,,3.24E-06,0.015730625
,,,3.25E-06,0.015875625
,,,3.26E-06,0.015819375
,,,3.27E-06,0.01582125
,,,3.28E-06,0.0157875
,,,3.29E-06,0.015690625
,,,3.3E-06,0.015905
,,,3.31E-06,0.015811875
,,,3.32E-06,0.01595625
,,,3.33E-06,0.015855625
,,,3.34E-06,0.01596875
,,,3.35E-06,0.01570375
,,,3.36E-06,0.015844375
,,,3.37E-06,0.01593625
,,,3.38E-06,0.015969375
,,,3.39E-06,0.015995
,,,3.4E-06,0.015709375
,,,3.41E-06,0.015828125
,,,3.42E-06,0.015869375
,,,3.43E-06,0.015828125
,,,3.44E-06,0.015655
,,,3.45E-06,0.015806875
,,,3.46E-06,0.01599375
,,,3.47E-06,0.015875625
,,,3.48E-06,0.0159075
,,,3.49E-06,0.015800625
,,,3.5E-06,0.015990625
,,,3.51E-06,0.015759375
,,,3.52E-06,0.01580625
,,,3.53E-06,0.015921875
,,,3.54E-06,0.015865
,,,3.55E-06,0.015791875
,,,3.56E-06,0.015916875
