data/raw/Final_POL_Test_1/SOP067_Ch3.csv

"Record Length",1000,"Points",-5E-06,0.021566876
"Sample Interval",1E-08,s,-4.99E-06,0.021752501
"Trigger Point",500,"Samples",-4.98E-06,0.021519376
"Trigger Time",0,s,-4.97E-06,0.021633126
"",,,-4.96E-06,0.021377501
"Horizontal Offset",-5E-06,s,-4.95E-06,0.021310001
,,,-4.94E-06,0.021507501
,,,-4.93E-06,0.021750626
,,,-4.92E-06,0.021653126
,,,-4.91E-06,0.021521251
,,,-4.9E-06,0.021667501
,,,-4.89E-06,0.021699376
,,,-4.88E-06,0.021793126
,,,-4.87E-06,0.021513126
,,,-4.86E-06,0.021423751
,,,-4.85E-06,0.021321876
,,,-4.84E-06,0.021644376
,,,-4.83E-06,0.021516876
,,,-4.82E-06,0.021485001
,,,-4.81E-06,0.021700626
,,,-4.8E-06,0.021473751
,,,-4.79E-06,0.021401251
,,,-4.78E-06,0.021605001
,,,-4.77E-06,0.021452501
,,,-4.76E-06,0.021720001
,,,-4.75E-06,0.021478126
,,,-4.74E-06,0.021569376
,,,-4.73E-06,0.021641251
,,,-4.72E-06,0.021376251
,,,-4.71E-06,0.021465626
,,,-4.7E-06,0.021266251
,,,-4.69E-06,0.021496251
,,,-4.68E-06,0.021426876
,,,-4.67E-06,0.021639376
,,,-4.66E-06,0.021550626
,,,-4.65E-06,0.021353751
,,,-4.64E-06,0.021551876
,,,-4.63E-06,0.021400001
,,,-4.62E-06,0.021496876
,,,-4.61E-06,0.021495626
,,,-4.6E-06,0.021683751
,,,-4.59E-06,0.021402501
,,,-4.58E-06,0.021561251
,,,-4.57E-06,0.021632501
,,,-4.56E-06,0.021465001
,,,-4.55E-06,0.021663126
,,,-4.54E-06,0.021451876
,,,-4.53E-06,0.021295001
,,,-4.52E-06,0.021733751
,,,-4.51E-06,0.021590626
,,,-4.5E-06,0.021655626
,,,-4.49E-06,0.021446251
,,,-4.48E-06,0.021730001
,,,-4.47E-06,0.021292501
,,,-4.46E-06,0.021744376
,,,-4.45E-06,0.021506876
,,,-4.44E-06,0.021519376
,,,-4.43E-06,0.021402501
,,,-4.42E-06,0.021484376
,,,-4.41E-06,0.021525001
,,,-4.4E-06,0.021469376
,,,-4.39E-06,0.021628126
,,,-4.38E-06,0.021553126
,,,-4.37E-06,0.021516876
,,,-4.36E-06,0.021535626
,,,-4.35E-06,0.021493751
,,,-4.34E-06,0.021847501
,,,-4.33E-06,0.021661251
,,,-4.32E-06,0.021622501
,,,-4.31E-06,0.021643751
,,,-4.3E-06,0.021632501
,,,-4.29E-06,0.021814376
,,,-4.28E-06,0.021303126
,,,-4.27E-06,0.021678126
,,,-4.26E-06,0.021430001
,,,-4.25E-06,0.021720001
,,,-4.24E-06,0.021801251
,,,-4.23E-06,0.021626876
,,,-4.22E-06,0.021383751
,,,-4.21E-06,0.021686876
,,,-4.2E-06,0.021624376
,,,-4.19E-06,0.021554376
,,,-4.18E-06,0.021654376
,,,-4.17E-06,0.021703751
,,,-4.16E-06,0.021414376
,,,-4.15E-06,0.021545626
,,,-4.14E-06,0.021615626
,,,-4.13E-06,0.021685626
,,,-4.12E-06,0.021736876
,,,-4.11E-06,0.021605001
,,,-4.1E-06,0.021643751
,,,-4.09E-06,0.021412501
,,,-4.08E-06,0.021700001
,,,-4.07E-06,0.021569376
,,,-4.06E-06,0.021653751
,,,-4.05E-06,0.021539376
,,,-4.04E-06,0.021731251
,,,-4.03E-06,0.021536876
,,,-4.02E-06,0.021623751
,,,-4.01E-06,0.021698751
,,,-4E-06,0.021569376
,,,-3.99E-06,0.021273126
,,,-3.98E-06,0.021346876
,,,-3.97E-06,0.021452501
,,,-3.96E-06,0.021313126
,,,-3.95E-06,0.021574376
,,,-3.94E-06,0.021554376
,,,-3.93E-06,0.021508751
,,,-3.92E-06,0.021475001
,,,-3.91E-06,0.021679376
,,,-3.9E-06,0.021655001
,,,-3.89E-06,0.021560001
,,,-3.88E-06,0.021424376
,,,-3.87E-06,0.021474376
,,,-3.86E-06,0.021589376
,,,-3.85E-06,0.021321876
,,,-3.84E-06,0.021701251
,,,-3.83E-06,0.021666876
,,,-3.82E-06,0.021616251
,,,-3.81E-06,0.021435626
,,,-3.8E-06,0.021386251
,,,-3.79E-06,0.021345626
,,,-3.78E-06,0.021473126
,,,-3.77E-06,0.021671876
,,,-3.76E-06,0.021773126
,,,-3.75E-06,0.021508751
,,,-3.74E-06,0.021560001
,,,-3.73E-06,0.021568751
,,,-3.72E-06,0.021590626
,,,-3.71E-06,0.021460626
,,,-3.7E-06,0.021567501
,,,-3.69E-06,0.021434376
,,,-3.68E-06,0.021430001
,,,-3.67E-06,0.021800001
,,,-3.66E-06,0.021365626
,,,-3.65E-06,0.021498126
,,,-3.64E-06,0.021486876
,,,-3.63E-06,0.021521876
,,,-3.62E-06,0.021711251
,,,-3.61E-06,0.021366251
,,,-3.6E-06,0.021481251
,,,-3.59E-06,0.021362501
,,,-3.58E-06,0.021420001
,,,-3.57E-06,0.021650626
,,,-3.56E-06,0.021756876
,,,-3.55E-06,0.021351251
,,,-3.54E-06,0.021516251
,,,-3.53E-06,0.021634376
,,,-3.52E-06,0.021404376
,,,-3.51E-06,0.021351876
,,,-3.5E-06,0.021465001
,,,-3.49E-06,0.021385001
,,,-3.48E-06,0.021596876
,,,-3.47E-06,0.021462501
,,,-3.46E-06,0.021461251
,,,-3.45E-06,0.021458751
,,,-3.44E-06,0.021819376
,,,-3.43E-06,0.021433751
,,,-3.42E-06,0.021706876
,,,-3.41E-06,0.021613126
,,,-3.4E-06,0.021840001
,,,-3.39E-06,0.021613126
,,,-3.38E-06,0.021647501
,,,-3.37E-06,0.021591251
,,,-3.36E-06,0.021411251
,,,-3.35E-06,0.021297501
,,,-3.34E-06,0.021451876
,,,-3.33E-06,0.021666251
,,,-3.32E-06,0.021460626
,,,-3.31E-06,0.021423751
,,,-3.3E-06,0.021765001
,,,-3.29E-06,0.021520626
,,,-3.28E-06,0.021398126
,,,-3.27E-06,0.021675626
,,,-3.26E-06,0.021669376
,,,-3.25E-06,0.021651876
,,,-3.24E-06,0.021863126
,,,-3.23E-06,0.021677501
,,,-3.22E-06,0.021617501
,,,-3.21E-06,0.021477501
,,,-3.2E-06,0.021306251
,,,-3.19E-06,0.021668126
,,,-3.18E-06,0.021667501
,,,-3.17E-06,0.021580001
,,,-3.16E-06,0.021585001
,,,-3.15E-06,0.021561876
,,,-3.14E-06,0.021361876
,,,-3.13E-06,0.021446251
,,,-3.12E-06,0.021583126
,,,-3.11E-06,0.021546876
,,,-3.1E-06,0.021473751
,,,-3.09E-06,0.021400001
,,,-3.08E-06,0.021514376
,,,-3.07E-06,0.021854376
,,,-3.06E-06,0.021463126
,,,-3.05E-06,0.021570001
,,,-3.04E-06,0.021405626
,,,-3.03E-06,0.021240001
,,,-3.02E-06,0.021690001
,,,-3.01E-06,0.021396251
,,,-3E-06,0.021713126
,,,-2.99E-06,0.021428751
,,,-2.98E-06,0.021509376
,,,-2.97E-06,0.021782501
,,,-2.96E-06,0.021705001
,,,-2.95E-06,0.021603751
,,,-2.94E-06,0.021601251
,,,-2.93E-06,0.021350626
,,,-2.92E-06,0.021680001
,,,-2.91E-06,0.021728126
,,,-2.9E-06,0.021760626
,,,-2.89E-06,0.021808751
,,,-2.88E-06,0.021361251
,,,-2.87E-06,0.021648751
,,,-2.86E-06,0.021534376
,,,-2.85E-06,0.021734376
,,,-2.84E-06,0.021583751
,,,-2.83E-06,0.021530626
,,,-2.82E-06,0.021468751
,,,-2.81E-06,0.021746251
,,,-2.8E-06,0.021687501
,,,-2.79E-06,0.021642501
,,,-2.78E-06,0.021446251
,,,-2.77E-06,0.021381876
,,,-2.76E-06,0.021716876
,,,-2.75E-06,0.021712501
,,,-2.74E-06,0.021599376
,,,-2.73E-06,0.021631251
,,,-2.72E-06,0.021397501
,,,-2.71E-06,0.021339376
,,,-2.7E-06,0.021461876
,,,-2.69E-06,0.021767501
,,,-2.68E-06,0.021735001
,,,-2.67E-06,0.021565626
,,,-2.66E-06,0.021505001
,,,-2.65E-06,0.021630626
,,,-2.64E-06,0.021581876
,,,-2.63E-06,0.021441876
,,,-2.62E-06,0.021212501
,,,-2.61E-06,0.021573751
,,,-2.6E-06,0.021562501
,,,-2.59E-06,0.021639376
,,,-2.58E-06,0.021500001
,,,-2.57E-06,0.021708751
,,,-2.56E-06,0.021574376
,,,-2.55E-06,0.021315001
,,,-2.54E-06,0.021478126
,,,-2.53E-06,0.021435001
,,,-2.52E-06,0.021843751
,,,-2.51E-06,0.021620626
,,,-2.5E-06,0.021711876
,,,-2.49E-06,0.021528751
,,,-2.48E-06,0.021550001
,,,-2.47E-06,0.021628751
,,,-2.46E-06,0.021605001
,,,-2.45E-06,0.021590626
,,,-2.44E-06,0.021321251
,,,-2.43E-06,0.021721876
,,,-2.42E-06,0.021540626
,,,-2.41E-06,0.021628126
,,,-2.4E-06,0.021414376
,,,-2.39E-06,0.021787501
,,,-2.38E-06,0.021601876
,,,-2.37E-06,0.021641876
,,,-2.36E-06,0.021466251
,,,-2.35E-06,0.021583126
,,,-2.34E-06,0.021398751
,,,-2.33E-06,0.021490626
,,,-2.32E-06,0.021677501
,,,-2.31E-06,0.021748751
,,,-2.3E-06,0.021500001
,,,-2.29E-06,0.021461876
,,,-2.28E-06,0.021451876
,,,-2.27E-06,0.021738126
,,,-2.26E-06,0.021435001
,,,-2.25E-06,0.021801251
,,,-2.24E-06,0.021393751
,,,-2.23E-06,0.021680001
,,,-2.22E-06,0.021625001
,,,-2.21E-06,0.021480001
,,,-2.2E-06,0.021490001
,,,-2.19E-06,0.021473126
,,,-2.18E-06,0.021542501
,,,-2.17E-06,0.021559376
,,,-2.16E-06,0.021562501
,,,-2.15E-06,0.021695001
,,,-2.14E-06,0.021541876
,,,-2.13E-06,0.021653126
,,,-2.12E-06,0.021538126
,,,-2.11E-06,0.021280001
,,,-2.1E-06,0.021531876
,,,-2.09E-06,0.021751876
,,,-2.08E-06,0.021797501
,,,-2.07E-06,0.021776876
,,,-2.06E-06,0.021370626
,,,-2.05E-06,0.021374376
,,,-2.04E-06,0.021401876
,,,-2.03E-06,0.021650626
,,,-2.02E-06,0.021543751
,,,-2.01E-06,0.021407501
,,,-2E-06,0.021412501
,,,-1.99E-06,0.021763126
,,,-1.98E-06,0.021398126
,,,-1.97E-06,0.021535001
,,,-1.96E-06,0.021468751
,,,-1.95E-06,0.021612501
,,,-1.94E-06,0.021604376
,,,-1.93E-06,0.021860626
,,,-1.92E-06,0.021713751
,,,-1.91E-06,0.021492501
,,,-1.9E-06,0.021532501
,,,-1.89E-06,0.021626251
,,,-1.88E-06,0.021686251
,,,-1.87E-06,0.021496251
,,,-1.86E-06,0.021617501
,,,-1.85E-06,0.021768751
,,,-1.84E-06,0.021305001
,,,-1.83E-06,0.021512501
,,,-1.82E-06,0.021748126
,,,-1.81E-06,0.021531251
,,,-1.8E-06,0.021543751
,,,-1.79E-06,0.021513126
,,,-1.78E-06,0.021584376
,,,-1.77E-06,0.021510001
,,,-1.76E-06,0.021310001
,,,-1.75E-06,0.021605626
,,,-1.74E-06,0.021627501
,,,-1.73E-06,0.021606876
,,,-1.72E-06,0.021323751
,,,-1.71E-06,0.021536876
,,,-1.7E-06,0.021532501
,,,-1.69E-06,0.021559376
,,,-1.68E-06,0.021488126
,,,-1.67E-06,0.021358126
,,,-1.66E-06,0.021574376
,,,-1.65E-06,0.021667501
,,,-1.64E-06,0.021359376
,,,-1.63E-06,0.021488751
,,,-1.62E-06,0.021416876
,,,-1.61E-06,0.021458126
,,,-1.6E-06,0.021480001
,,,-1.59E-06,0.021611251
,,,-1.58E-06,0.021373126
,,,-1.57E-06,0.021508126
,,,-1.56E-06,0.021478751
,,,-1.55E-06,0.021508751
,,,-1.54E-06,0.021336251
,,,-1.53E-06,0.021621876
,,,-1.52E-06,0.021582501
,,,-1.51E-06,0.021563751
,,,-1.5E-06,0.021381876
,,,-1.49E-06,0.021436251
,,,-1.48E-06,0.021677501
,,,-1.47E-06,0.021658751
,,,-1.46E-06,0.021641876
,,,-1.45E-06,0.021603126
,,,-1.44E-06,0.021633751
,,,-1.43E-06,0.021750626
,,,-1.42E-06,0.021726876
,,,-1.41E-06,0.021403751
,,,-1.4E-06,0.021457501
,,,-1.39E-06,0.021665001
,,,-1.38E-06,0.021562501
,,,-1.37E-06,0.021619376
,,,-1.36E-06,0.021420626
,,,-1.35E-06,0.021789376
,,,-1.34E-06,0.021480001
,,,-1.33E-06,0.021532501
,,,-1.32E-06,0.021553126
,,,-1.31E-06,0.021390001
,,,-1.3E-06,0.021406251
,,,-1.29E-06,0.021580626
,,,-1.28E-06,0.021409376
,,,-1.27E-06,0.021495626
,,,-1.26E-06,0.021645626
,,,-1.25E-06,0.021598126
,,,-1.24E-06,0.021746876
,,,-1.23E-06,0.021328751
,,,-1.22E-06,0.021518126
,,,-1.21E-06,0.021658126
,,,-1.2E-06,0.021796251
,,,-1.19E-06,0.021662501
,,,-1.18E-06,0.021787501
,,,-1.17E-06,0.021189376
,,,-1.16E-06,0.021510626
,,,-1.15E-06,0.021617501
,,,-1.14E-06,0.021586251
,,,-1.13E-06,0.021603751
,,,-1.12E-06,0.021405626
,,,-1.11E-06,0.021593126
,,,-1.1E-06,0.021478126
,,,-1.09E-06,0.021713751
,,,-1.08E-06,0.021680001
,,,-1.07E-06,0.021467501
,,,-1.06E-06,0.021694376
,,,-1.05E-06,0.021212501
,,,-1.04E-06,0.021535626
,,,-1.03E-06,0.021481876
,,,-1.02E-06,0.021640001
,,,-1.01E-06,0.021625001
,,,-1E-06,0.021615626
,,,-9.9E-07,0.021615626
,,,-9.8E-07,0.021528751
,,,-9.7E-07,0.021685626
,,,-9.6E-07,0.021496251
,,,-9.5E-07,0.021491876
,,,-9.4E-07,0.021654376
,,,-9.3E-07,0.021630626
,,,-9.2E-07,0.021427501
,,,-9.1E-07,0.021855626
,,,-9E-07,0.021542501
,,,-8.9E-07,0.021443751
,,,-8.8E-07,0.021442501
,,,-8.7E-07,0.021363126
,,,-8.6E-07,0.021506251
,,,-8.5E-07,0.021658751
,,,-8.4E-07,0.021587501
,,,-8.3E-07,0.021735626
,,,-8.2E-07,0.021635626
,,,-8.1E-07,0.021568126
,,,-8E-07,0.021553751
,,,-7.9E-07,0.021383751
,,,-7.8E-07,0.021710626
,,,-7.7E-07,0.021594376
,,,-7.6E-07,0.021720001
,,,-7.5E-07,0.021714376
,,,-7.4E-07,0.021510626
,,,-7.3E-07,0.021341876
,,,-7.2E-07,0.021483751
,,,-7.1E-07,0.021601251
,,,-7E-07,0.021534376
,,,-6.9E-07,0.021450001
,,,-6.8E-07,0.021615001
,,,-6.7E-07,0.021666251
,,,-6.6E-07,0.021543751
,,,-6.5E-07,0.021490001
,,,-6.4E-07,0.021402501
,,,-6.3E-07,0.021543751
,,,-6.2E-07,0.021618751
,,,-6.1E-07,0.021619376
,,,-6E-07,0.021866251
,,,-5.9E-07,0.021445001
,,,-5.8E-07,0.021390626
,,,-5.7E-07,0.021313126
,,,-5.6E-07,0.021582501
,,,-5.5E-07,0.021590001
,,,-5.4E-07,0.021636251
,,,-5.3E-07,0.021481251
,,,-5.2E-07,0.021613751
,,,-5.1E-07,0.021599376
,,,-5E-07,0.021711876
,,,-4.9E-07,0.021591876
,,,-4.8E-07,0.021551251
,,,-4.7E-07,0.021440626
,,,-4.6E-07,0.021671876
,,,-4.5E-07,0.021826876
,,,-4.4E-07,0.021706876
,,,-4.3E-07,0.021976251
,,,-4.2E-07,0.021516251
,,,-4.1E-07,0.021659376
,,,-4E-07,0.021472501
,,,-3.9E-07,0.021473126
,,,-3.8E-07,0.021678751
,,,-3.7E-07,0.021603751
,,,-3.6E-07,0.021640001
,,,-3.5E-07,0.021567501
,,,-3.4E-07,0.021443751
,,,-3.3E-07,0.021518126
,,,-3.2E-07,0.021568126
,,,-3.1E-07,0.021445001
,,,-3E-07,0.021535001
,,,-2.9E-07,0.021752501
,,,-2.8E-07,0.021507501
,,,-2.7E-07,0.021691876
,,,-2.6E-07,0.021670001
,,,-2.5E-07,0.021511251
,,,-2.4E-07,0.021474376
,,,-2.3E-07,0.021643126
,,,-2.2E-07,0.021660001
,,,-2.1E-07,0.021831251
,,,-2E-07,0.021667501
,,,-1.9E-07,0.021420626
,,,-1.8E-07,0.021460626
,,,-1.7E-07,0.021642501
,,,-1.6E-07,0.021539376
,,,-1.5E-07,0.021410626
,,,-1.4E-07,0.021731251
,,,-1.3E-07,0.021403126
,,,-1.2E-07,0.021688126
,,,-1.1E-07,0.021601251
,,,-1E-07,0.021901251
,,,-9E-08,0.021660626
,,,-8E-08,0.021806876
,,,-7E-08,0.021367501
,,,-6E-08,0.021339376
,,,-5E-08,0.021474376
,,,-4E-08,0.022675626
,,,-3E-08,0.023123126
,,,-2E-08,0.019445626
,,,-1E-08,0.017884376
,,,0,0.018731876
,,,1E-08,0.024998751
,,,2E-08,0.026299376
,,,3E-08,0.024684376
,,,4E-08,0.020418126
,,,5E-08,0.018341251
,,,6E-08,0.018305626
,,,7E-08,0.020836251
,,,8E-08,0.022662501
,,,9E-08,0.024310626
,,,1E-07,0.023635001
,,,1.1E-07,0.022181876
,,,1.2E-07,0.019914376
,,,1.3E-07,0.019726251
,,,1.4E-07,0.020903126
,,,1.5E-07,0.021772501
,,,1.6E-07,0.022332501
,,,1.7E-07,0.022044376
,,,1.8E-07,0.021565626
,,,1.9E-07,0.021574376
,,,2E-07,0.021392501
,,,2.1E-07,0.021387501
,,,2.2E-07,0.021327501
,,,2.3E-07,0.021674376
,,,2.4E-07,0.021820626
,,,2.5E-07,0.021575626
,,,2.6E-07,0.021612501
,,,2.7E-07,0.021715626
,,,2.8E-07,0.021531876
,,,2.9E-07,0.021405626
,,,3E-07,0.021281251
,,,3.1E-07,0.021389376
,,,3.2E-07,0.021550001
,,,3.3E-07,0.021628126
,,,3.4E-07,0.021743126
,,,3.5E-07,0.021790001
,,,3.6E-07,0.021475001
,,,3.7E-07,0.021673126
,,,3.8E-07,0.021635001
,,,3.9E-07,0.021670001
,,,4E-07,0.021850626
,,,4.1E-07,0.021514376
,,,4.2E-07,0.021621251
,,,4.3E-07,0.021611876
,,,4.4E-07,0.021671876
,,,4.5E-07,0.021594376
,,,4.6E-07,0.021557501
,,,4.7E-07,0.021555626
,,,4.8E-07,0.021736251
,,,4.9E-07,0.021436251
,,,5E-07,0.021659376
,,,5.1E-07,0.021901251
,,,5.2E-07,0.021630001
,,,5.3E-07,0.021538126
,,,5.4E-07,0.021495001
,,,5.5E-07,0.021453126
,,,5.6E-07,0.021853751
,,,5.7E-07,0.021468126
,,,5.8E-07,0.021705626
,,,5.9E-07,0.021646251
,,,6E-07,0.021577501
,,,6.1E-07,0.021373126
,,,6.2E-07,0.021313126
,,,6.3E-07,0.021551876
,,,6.4E-07,0.021388126
,,,6.5E-07,0.021393126
,,,6.6E-07,0.021898751
,,,6.7E-07,0.021493126
,,,6.8E-07,0.021481876
,,,6.9E-07,0.021610001
,,,7E-07,0.021572501
,,,7.1E-07,0.021762501
,,,7.2E-07,0.021751251
,,,7.3E-07,0.021660626
,,,7.4E-07,0.021710001
,,,7.5E-07,0.021441876
,,,7.6E-07,0.021416876
,,,7.7E-07,0.021476876
,,,7.8E-07,0.021638126
,,,7.9E-07,0.021481251
,,,8E-07,0.021560626
,,,8.1E-07,0.021632501
,,,8.2E-07,0.021535626
,,,8.3E-07,0.021760001
,,,8.4E-07,0.021516876
,,,8.5E-07,0.021381876
,,,8.6E-07,0.021627501
,,,8.7E-07,0.021629376
,,,8.8E-07,0.021684376
,,,8.9E-07,0.021810626
,,,9E-07,0.021660001
,,,9.1E-07,0.021746251
,,,9.2E-07,0.021573751
,,,9.3E-07,0.021552501
,,,9.4E-07,0.021690001
,,,9.5E-07,0.021581251
,,,9.6E-07,0.021354376
,,,9.7E-07,0.021312501
,,,9.8E-07,0.021680001
,,,9.9E-07,0.021442501
,,,1E-06,0.021457501
,,,1.01E-06,0.021423751
,,,1.02E-06,0.021466251
,,,1.03E-06,0.021611251
,,,1.04E-06,0.021679376
,,,1.05E-06,0.021798751
,,,1.06E-06,0.021679376
,,,1.07E-06,0.021618751
,,,1.08E-06,0.021626251
,,,1.09E-06,0.021616251
,,,1.1E-06,0.021560626
,,,1.11E-06,0.021389376
,,,1.12E-06,0.021628751
,,,1.13E-06,0.021473751
,,,1.14E-06,0.021743751
,,,1.15E-06,0.021593751
,,,1.16E-06,0.021584376
,,,1.17E-06,0.021523751
,,,1.18E-06,0.021511876
,,,1.19E-06,0.021370626
,,,1.2E-06,0.021302501
,,,1.21E-06,0.021481876
,,,1.22E-06,0.021338126
,,,1.23E-06,0.021722501
,,,1.24E-06,0.021675001
,,,1.25E-06,0.021615001
,,,1.26E-06,0.021901876
,,,1.27E-06,0.021717501
,,,1.28E-06,0.021760001
,,,1.29E-06,0.021503126
,,,1.3E-06,0.021528126
,,,1.31E-06,0.021519376
,,,1.32E-06,0.021663751
,,,1.33E-06,0.021287501
,,,1.34E-06,0.021707501
,,,1.35E-06,0.021424376
,,,1.36E-06,0.021180626
,,,1.37E-06,0.021576876
,,,1.38E-06,0.021318751
,,,1.39E-06,0.021648751
,,,1.4E-06,0.021633751
,,,1.41E-06,0.021816251
,,,1.42E-06,0.021535626
,,,1.43E-06,0.021627501
,,,1.44E-06,0.021565001
,,,1.45E-06,0.021460626
,,,1.46E-06,0.021387501
,,,1.47E-06,0.021611251
,,,1.48E-06,0.021300626
,,,1.49E-06,0.021565001
,,,1.5E-06,0.021545001
,,,1.51E-06,0.021488751
,,,1.52E-06,0.021413751
,,,1.53E-06,0.021490001
,,,1.54E-06,0.021605626
,,,1.55E-06,0.021693126
,,,1.56E-06,0.021461251
,,,1.57E-06,0.021663126
,,,1.58E-06,0.021352501
,,,1.59E-06,0.021651876
,,,1.6E-06,0.021508126
,,,1.61E-06,0.021690001
,,,1.62E-06,0.021603126
,,,1.63E-06,0.021660001
,,,1.64E-06,0.021770001
,,,1.65E-06,0.021519376
,,,1.66E-06,0.021813126
,,,1.67E-06,0.021563751
,,,1.68E-06,0.021599376
,,,1.69E-06,0.021410626
,,,1.7E-06,0.021637501
,,,1.71E-06,0.021431876
,,,1.72E-06,0.021648751
,,,1.73E-06,0.021526251
,,,1.74E-06,0.021500626
,,,1.75E-06,0.021546251
,,,1.76E-06,0.021620001
,,,1.77E-06,0.021643126
,,,1.78E-06,0.021607501
,,,1.79E-06,0.021366251
,,,1.8E-06,0.021461251
,,,1.81E-06,0.021732501
,,,1.82E-06,0.021585001
,,,1.83E-06,0.021548126
,,,1.84E-06,0.021420626
,,,1.85E-06,0.021377501
,,,1.86E-06,0.021593751
,,,1.87E-06,0.021608751
,,,1.88E-06,0.021614376
,,,1.89E-06,0.021840001
,,,1.9E-06,0.021714376
,,,1.91E-06,0.021655001
,,,1.92E-06,0.021550626
,,,1.93E-06,0.021482501
,,,1.94E-06,0.021615001
,,,1.95E-06,0.021432501
,,,1.96E-06,0.021581251
,,,1.97E-06,0.021652501
,,,1.98E-06,0.021610626
,,,1.99E-06,0.021545626
,,,2E-06,0.021700001
,,,2.01E-06,0.021570001
,,,2.02E-06,0.021676251
,,,2.03E-06,0.021598126
,,,2.04E-06,0.021735001
,,,2.05E-06,0.021800626
,,,2.06E-06,0.021718126
,,,2.07E-06,0.021507501
,,,2.08E-06,0.021524376
,,,2.09E-06,0.021738126
,,,2.1E-06,0.021576876
,,,2.11E-06,0.021345626
,,,2.12E-06,0.021705001
,,,2.13E-06,0.021568751
,,,2.14E-06,0.021548126
,,,2.15E-06,0.021709376
,,,2.16E-06,0.021516251
,,,2.17E-06,0.021581876
,,,2.18E-06,0.021261251
,,,2.19E-06,0.021435626
,,,2.2E-06,0.021466251
,,,2.21E-06,0.021780001
,,,2.22E-06,0.021407501
,,,2.23E-06,0.021680626
,,,2.24E-06,0.021268751
,,,2.25E-06,0.021606876
,,,2.26E-06,0.021411876
,,,2.27E-06,0.021582501
,,,2.28E-06,0.021519376
,,,2.29E-06,0.021454376
,,,2.3E-06,0.021263751
,,,2.31E-06,0.021688751
,,,2.32E-06,0.021711876
,,,2.33E-06,0.021530001
,,,2.34E-06,0.021398126
,,,2.35E-06,0.021306876
,,,2.36E-06,0.021323751
,,,2.37E-06,0.021401251
,,,2.38E-06,0.021682501
,,,2.39E-06,0.021569376
,,,2.4E-06,0.021717501
,,,2.41E-06,0.021338751
,,,2.42E-06,0.021460001
,,,2.43E-06,0.021501876
,,,2.44E-06,0.021603126
,,,2.45E-06,0.021482501
,,,2.46E-06,0.021666876
,,,2.47E-06,0.021694376
,,,2.48E-06,0.021456251
,,,2.49E-06,0.021303126
,,,2.5E-06,0.021541251
,,,2.51E-06,0.021475626
,,,2.52E-06,0.021503126
,,,2.53E-06,0.021314376
,,,2.54E-06,0.021597501
,,,2.55E-06,0.021937501
,,,2.56E-06,0.021493126
,,,2.57E-06,0.021529376
,,,2.58E-06,0.021602501
,,,2.59E-06,0.021471251
,,,2.6E-06,0.021353751
,,,2.61E-06,0.021411876
,,,2.62E-06,0.021611251
,,,2.63E-06,0.021447501
,,,2.64E-06,0.021667501
,,,2.65E-06,0.021819376
,,,2.66E-06,0.021566876
,,,2.67E-06,0.021315001
,,,2.68E-06,0.021774376
,,,2.69E-06,0.021476876
,,,2.7E-06,0.021408126
,,,2.71E-06,0.021546876
,,,2.72E-06,0.021522501
,,,2.73E-06,0.021523126
,,,2.74E-06,0.021610001
,,,2.75E-06,0.021630001
,,,2.76E-06,0.021584376
,,,2.77E-06,0.021838126
,,,2.78E-06,0.021310001
,,,2.79E-06,0.021575626
,,,2.8E-06,0.021613751
,,,2.81E-06,0.021528751
,,,2.82E-06,0.021541876
,,,2.83E-06,0.021386251
,,,2.84E-06,0.021370626
,,,2.85E-06,0.021396251
,,,2.86E-06,0.021530626
,,,2.87E-06,0.021651876
,,,2.88E-06,0.021424376
,,,2.89E-06,0.021618126
,,,2.9E-06,0.021624376
,,,2.91E-06,0.021615626
,,,2.92E-06,0.021531876
,,,2.93E-06,0.021680001
,,,2.94E-06,0.021720626
,,,2.95E-06,0.021568126
,,,2.96E-06,0.021436876
,,,2.97E-06,0.021523126
,,,2.98E-06,0.021527501
,,,2.99E-06,0.021676251
,,,3E-06,0.021643751
,,,3.01E-06,0.021328751
,,,3.02E-06,0.021660001
,,,3.03E-06,0.021635626
,,,3.04E-06,0.021753126
,,,3.05E-06,0.021683126
,,,3.06E-06,0.021493751
,,,3.07E-06,0.021353751
,,,3.08E-06,0.021455001
,,,3.09E-06,0.021685001
,,,3.1E-06,0.021466876
,,,3.11E-06,0.021558126
,,,3.12E-06,0.021655001
,,,3.13E-06,0.021438751
,,,3.14E-06,0.021545001
,,,3.15E-06,0.021548126
,,,3.16E-06,0.021500626
,,,3.17E-06,0.021500626
,,,3.18E-06,0.021411251
,,,3.19E-06,0.021432501
,,,3.2E-06,0.021426876
,,,3.21E-06,0.021756876
