data/raw/Final_POL_Test_1/SOP043_Ch2.csv

"Record Length",1000,"Points",-5E-06,0.01787625
"Sample Interval",1E-08,s,-4.99E-06,0.018046875
"Trigger Point",500,"Samples",-4.98E-06,0.017954375
"Trigger Time",0,s,-4.97E-06,0.01786625
"",,,-4.96E-06,0.01774625
"Horizontal Offset",-5E-06,s,-4.95E-06,0.018005
,,,-4.94E-06,0.017944375
,,,-4.93E-06,0.017958125
,,,-4.92E-06,0.0178975
,,,-4.91E-06,0.0182025
,,,-4.9E-06,0.01765
,,,-4.89E-06,0.017971875
,,,-4.88E-06,0.0177825
,,,-4.87E-06,0.0178
,,,-4.86E-06,0.017728125
,,,-4.85E-06,0.017739375
,,,-4.84E-06,0.017808125
,,,-4.83E-06,0.0179825
,,,-4.82E-06,0.01786
,,,-4.81E-06,0.01797375
,,,-4.8E-06,0.017919375
,,,-4.79E-06,0.01778375
,,,-4.78E-06,0.018191875
,,,-4.77E-06,0.018049375
,,,-4.76E-06,0.01781
,,,-4.75E-06,0.017816875
,,,-4.74E-06,0.018050625
,,,-4.73E-06,0.01818875
,,,-4.72E-06,0.0178325
,,,-4.71E-06,0.018020625
,,,-4.7E-06,0.0176625
,,,-4.69E-06,0.017835625
,,,-4.68E-06,0.017785
,,,-4.67E-06,0.0177725
,,,-4.66E-06,0.018125
,,,-4.65E-06,0.01801625
,,,-4.64E-06,0.017735
,,,-4.63E-06,0.01798875
,,,-4.62E-06,0.01771
,,,-4.61E-06,0.0180675
,,,-4.6E-06,0.017859375
,,,-4.59E-06,0.0177625
,,,-4.58E-06,0.0179325
,,,-4.57E-06,0.017804375
,,,-4.56E-06,0.018318125
,,,-4.55E-06,0.017576875
,,,-4.54E-06,0.0179475
,,,-4.53E-06,0.01795125
,,,-4.52E-06,0.017668125
,,,-4.51E-06,0.01757375
,,,-4.5E-06,0.01793625
,,,-4.49E-06,0.018123125
,,,-4.48E-06,0.017879375
,,,-4.47E-06,0.017885
,,,-4.46E-06,0.01761875
,,,-4.45E-06,0.0178075
,,,-4.44E-06,0.01797625
,,,-4.43E-06,0.017988125
,,,-4.42E-06,0.017834375
,,,-4.41E-06,0.01807625
,,,-4.4E-06,0.018055
,,,-4.39E-06,0.01808
,,,-4.38E-06,0.01789375
,,,-4.37E-06,0.017845625
,,,-4.36E-06,0.017659375
,,,-4.35E-06,0.017489375
,,,-4.34E-06,0.01771125
,,,-4.33E-06,0.01786375
,,,-4.32E-06,0.01779875
,,,-4.31E-06,0.0178775
,,,-4.3E-06,0.017815
,,,-4.29E-06,0.017715
,,,-4.28E-06,0.017658125
,,,-4.27E-06,0.018059375
,,,-4.26E-06,0.017915625
,,,-4.25E-06,0.01809
,,,-4.24E-06,0.0178225
,,,-4.23E-06,0.017874375
,,,-4.22E-06,0.017850625
,,,-4.21E-06,0.01797
,,,-4.2E-06,0.017934375
,,,-4.19E-06,0.0178825
,,,-4.18E-06,0.01754875
,,,-4.17E-06,0.01794625
,,,-4.16E-06,0.01799125
,,,-4.15E-06,0.0179125
,,,-4.14E-06,0.01778625
,,,-4.13E-06,0.01790125
,,,-4.12E-06,0.017706875
,,,-4.11E-06,0.0177625
,,,-4.1E-06,0.017845
,,,-4.09E-06,0.0177925
,,,-4.08E-06,0.0182275
,,,-4.07E-06,0.017950625
,,,-4.06E-06,0.018104375
,,,-4.05E-06,0.017875
,,,-4.04E-06,0.0178725
,,,-4.03E-06,0.018015625
,,,-4.02E-06,0.017766875
,,,-4.01E-06,0.0177575
,,,-4E-06,0.01775875
,,,-3.99E-06,0.017745625
,,,-3.98E-06,0.01792875
,,,-3.97E-06,0.017993125
,,,-3.96E-06,0.017761875
,,,-3.95E-06,0.0177925
,,,-3.94E-06,0.0179425
,,,-3.93E-06,0.018165
,,,-3.92E-06,0.017905625
,,,-3.91E-06,0.017848125
,,,-3.9E-06,0.018120625
,,,-3.89E-06,0.0180125
,,,-3.88E-06,0.017935
,,,-3.87E-06,0.01802875
,,,-3.86E-06,0.01802625
,,,-3.85E-06,0.01786375
,,,-3.84E-06,0.017728125
,,,-3.83E-06,0.01800625
,,,-3.82E-06,0.017943125
,,,-3.81E-06,0.017855
,,,-3.8E-06,0.01752625
,,,-3.79E-06,0.01797
,,,-3.78E-06,0.01795375
,,,-3.77E-06,0.017788125
,,,-3.76E-06,0.017900625
,,,-3.75E-06,0.017916875
,,,-3.74E-06,0.01796875
,,,-3.73E-06,0.018130625
,,,-3.72E-06,0.0176275
,,,-3.71E-06,0.01781
,,,-3.7E-06,0.017875625
,,,-3.69E-06,0.018130625
,,,-3.68E-06,0.017998125
,,,-3.67E-06,0.01809125
,,,-3.66E-06,0.018021875
,,,-3.65E-06,0.0179575
,,,-3.64E-06,0.018063125
,,,-3.63E-06,0.0178825
,,,-3.62E-06,0.01783375
,,,-3.61E-06,0.0179375
,,,-3.6E-06,0.01794
,,,-3.59E-06,0.017894375
,,,-3.58E-06,0.017831875
,,,-3.57E-06,0.01804625
,,,-3.56E-06,0.017905625
,,,-3.55E-06,0.017830625
,,,-3.54E-06,0.017555
,,,-3.53E-06,0.017806875
,,,-3.52E-06,0.01776375
,,,-3.51E-06,0.017950625
,,,-3.5E-06,0.01773375
,,,-3.49E-06,0.01797125
,,,-3.48E-06,0.017833125
,,,-3.47E-06,0.01820625
,,,-3.46E-06,0.017913125
,,,-3.45E-06,0.01777625
,,,-3.44E-06,0.0179775
,,,-3.43E-06,0.018084375
,,,-3.42E-06,0.01779
,,,-3.41E-06,0.017838125
,,,-3.4E-06,0.017984375
,,,-3.39E-06,0.018285
,,,-3.38E-06,0.017856875
,,,-3.37E-06,0.01801625
,,,-3.36E-06,0.0178175
,,,-3.35E-06,0.01785625
,,,-3.34E-06,0.01787
,,,-3.33E-06,0.01797875
,,,-3.32E-06,0.018099375
,,,-3.31E-06,0.017994375
,,,-3.3E-06,0.0177075
,,,-3.29E-06,0.0178925
,,,-3.28E-06,0.01794625
,,,-3.27E-06,0.017854375
,,,-3.26E-06,0.0177575
,,,-3.25E-06,0.018083125
,,,-3.24E-06,0.017805625
,,,-3.23E-06,0.0180525
,,,-3.22E-06,0.017934375
,,,-3.21E-06,0.01765
,,,-3.2E-06,0.01814875
,,,-3.19E-06,0.01758125
,,,-3.18E-06,0.0178825
,,,-3.17E-06,0.018193125
,,,-3.16E-06,0.018021875
,,,-3.15E-06,0.018115625
,,,-3.14E-06,0.01778
,,,-3.13E-06,0.018068125
,,,-3.12E-06,0.01799125
,,,-3.11E-06,0.017711875
,,,-3.1E-06,0.01771125
,,,-3.09E-06,0.017955
,,,-3.08E-06,0.01789
,,,-3.07E-06,0.01774375
,,,-3.06E-06,0.017964375
,,,-3.05E-06,0.0177425
,,,-3.04E-06,0.0177425
,,,-3.03E-06,0.018083125
,,,-3.02E-06,0.017841875
,,,-3.01E-06,0.017953125
,,,-3E-06,0.017990625
,,,-2.99E-06,0.018139375
,,,-2.98E-06,0.01769375
,,,-2.97E-06,0.017848125
,,,-2.96E-06,0.01790125
,,,-2.95E-06,0.01777375
,,,-2.94E-06,0.0178475
,,,-2.93E-06,0.01800375
,,,-2.92E-06,0.018021875
,,,-2.91E-06,0.017739375
,,,-2.9E-06,0.01764
,,,-2.89E-06,0.01808125
,,,-2.88E-06,0.017765
,,,-2.87E-06,0.01761875
,,,-2.86E-06,0.017838125
,,,-2.85E-06,0.018071875
,,,-2.84E-06,0.0178275
,,,-2.83E-06,0.017938125
,,,-2.82E-06,0.0178475
,,,-2.81E-06,0.0180875
,,,-2.8E-06,0.017796875
,,,-2.79E-06,0.017999375
,,,-2.78E-06,0.017995625
,,,-2.77E-06,0.017810625
,,,-2.76E-06,0.01775
,,,-2.75E-06,0.018446875
,,,-2.74E-06,0.017805625
,,,-2.73E-06,0.01790375
,,,-2.72E-06,0.017888125
,,,-2.71E-06,0.0179575
,,,-2.7E-06,0.017794375
,,,-2.69E-06,0.017568125
,,,-2.68E-06,0.017990625
,,,-2.67E-06,0.017905
,,,-2.66E-06,0.01768375
,,,-2.65E-06,0.01765875
,,,-2.64E-06,0.017918125
,,,-2.63E-06,0.01782875
,,,-2.62E-06,0.0178525
,,,-2.61E-06,0.017968125
,,,-2.6E-06,0.017780625
,,,-2.59E-06,0.0178375
,,,-2.58E-06,0.017785
,,,-2.57E-06,0.017914375
,,,-2.56E-06,0.018070625
,,,-2.55E-06,0.017810625
,,,-2.54E-06,0.017775625
,,,-2.53E-06,0.017853125
,,,-2.52E-06,0.017816875
,,,-2.51E-06,0.0178575
,,,-2.5E-06,0.017936875
,,,-2.49E-06,0.018035
,,,-2.48E-06,0.01775
,,,-2.47E-06,0.01790375
,,,-2.46E-06,0.017965625
,,,-2.45E-06,0.0181875
,,,-2.44E-06,0.0178575
,,,-2.43E-06,0.017908125
,,,-2.42E-06,0.01807125
,,,-2.41E-06,0.01801875
,,,-2.4E-06,0.017976875
,,,-2.39E-06,0.01793625
,,,-2.38E-06,0.017839375
,,,-2.37E-06,0.017784375
,,,-2.36E-06,0.01794
,,,-2.35E-06,0.017884375
,,,-2.34E-06,0.01806625
,,,-2.33E-06,0.018003125
,,,-2.32E-06,0.017763125
,,,-2.31E-06,0.0179375
,,,-2.3E-06,0.017848125
,,,-2.29E-06,0.017749375
,,,-2.28E-06,0.01794625
,,,-2.27E-06,0.0178425
,,,-2.26E-06,0.01809
,,,-2.25E-06,0.01778125
,,,-2.24E-06,0.017968125
,,,-2.23E-06,0.01805125
,,,-2.22E-06,0.01781
,,,-2.21E-06,0.0179375
,,,-2.2E-06,0.01787125
,,,-2.19E-06,0.017964375
,,,-2.18E-06,0.017886875
,,,-2.17E-06,0.017791875
,,,-2.16E-06,0.0175575
,,,-2.15E-06,0.017864375
,,,-2.14E-06,0.017891875
,,,-2.13E-06,0.017895625
,,,-2.12E-06,0.017966875
,,,-2.11E-06,0.017845
,,,-2.1E-06,0.017880625
,,,-2.09E-06,0.017928125
,,,-2.08E-06,0.018035625
,,,-2.07E-06,0.017879375
,,,-2.06E-06,0.017776875
,,,-2.05E-06,0.017881875
,,,-2.04E-06,0.017895625
,,,-2.03E-06,0.01772875
,,,-2.02E-06,0.01785
,,,-2.01E-06,0.017923125
,,,-2E-06,0.017760625
,,,-1.99E-06,0.017848125
,,,-1.98E-06,0.0180025
,,,-1.97E-06,0.018055625
,,,-1.96E-06,0.018050625
,,,-1.95E-06,0.018106875
,,,-1.94E-06,0.017873125
,,,-1.93E-06,0.017989375
,,,-1.92E-06,0.018025
,,,-1.91E-06,0.01777375
,,,-1.9E-06,0.017805625
,,,-1.89E-06,0.017943125
,,,-1.88E-06,0.01772375
,,,-1.87E-06,0.017986875
,,,-1.86E-06,0.017968125
,,,-1.85E-06,0.017689375
,,,-1.84E-06,0.01802875
,,,-1.83E-06,0.0179475
,,,-1.82E-06,0.017883125
,,,-1.81E-06,0.017806875
,,,-1.8E-06,0.01800875
,,,-1.79E-06,0.01788625
,,,-1.78E-06,0.01805125
,,,-1.77E-06,0.017961875
,,,-1.76E-06,0.0178625
,,,-1.75E-06,0.01802
,,,-1.74E-06,0.0178
,,,-1.73E-06,0.018245
,,,-1.72E-06,0.01798875
,,,-1.71E-06,0.017986875
,,,-1.7E-06,0.01804
,,,-1.69E-06,0.018195625
,,,-1.68E-06,0.018031875
,,,-1.67E-06,0.017891875
,,,-1.66E-06,0.017814375
,,,-1.65E-06,0.0178675
,,,-1.64E-06,0.017780625
,,,-1.63E-06,0.017900625
,,,-1.62E-06,0.017905
,,,-1.61E-06,0.017940625
,,,-1.6E-06,0.0178075
,,,-1.59E-06,0.01789
,,,-1.58E-06,0.01791
,,,-1.57E-06,0.01783625
,,,-1.56E-06,0.01776625
,,,-1.55E-06,0.0179
,,,-1.54E-06,0.017795625
,,,-1.53E-06,0.017869375
,,,-1.52E-06,0.0178375
,,,-1.51E-06,0.01801625
,,,-1.5E-06,0.01794875
,,,-1.49E-06,0.017773125
,,,-1.48E-06,0.01759
,,,-1.47E-06,0.017915625
,,,-1.46E-06,0.017735
,,,-1.45E-06,0.017941875
,,,-1.44E-06,0.01771625
,,,-1.43E-06,0.01788
,,,-1.42E-06,0.0180575
,,,-1.41E-06,0.017800625
,,,-1.4E-06,0.017825625
,,,-1.39E-06,0.0177025
,,,-1.38E-06,0.017874375
,,,-1.37E-06,0.018106875
,,,-1.36E-06,0.017758125
,,,-1.35E-06,0.01795375
,,,-1.34E-06,0.0181875
,,,-1.33E-06,0.01775625
,,,-1.32E-06,0.01780125
,,,-1.31E-06,0.017834375
,,,-1.3E-06,0.01810625
,,,-1.29E-06,0.01794625
,,,-1.28E-06,0.018135625
,,,-1.27E-06,0.017875
,,,-1.26E-06,0.018113125
,,,-1.25E-06,0.018073125
,,,-1.24E-06,0.017713125
,,,-1.23E-06,0.01763875
,,,-1.22E-06,0.018030625
,,,-1.21E-06,0.017871875
,,,-1.2E-06,0.017865
,,,-1.19E-06,0.017876875
,,,-1.18E-06,0.01781375
,,,-1.17E-06,0.018015
,,,-1.16E-06,0.017676875
,,,-1.15E-06,0.017985625
,,,-1.14E-06,0.017644375
,,,-1.13E-06,0.01765
,,,-1.12E-06,0.01792
,,,-1.11E-06,0.017704375
,,,-1.1E-06,0.01798375
,,,-1.09E-06,0.018229375
,,,-1.08E-06,0.017696875
,,,-1.07E-06,0.0179975
,,,-1.06E-06,0.01769625
,,,-1.05E-06,0.01796625
,,,-1.04E-06,0.0179475
,,,-1.03E-06,0.018039375
,,,-1.02E-06,0.017784375
,,,-1.01E-06,0.017764375
,,,-1E-06,0.017878125
,,,-9.9E-07,0.01778625
,,,-9.8E-07,0.017915
,,,-9.7E-07,0.017990625
,,,-9.6E-07,0.017896875
,,,-9.5E-07,0.017798125
,,,-9.4E-07,0.01782375
,,,-9.3E-07,0.018144375
,,,-9.2E-07,0.017993125
,,,-9.1E-07,0.017853125
,,,-9E-07,0.01799875
,,,-8.9E-07,0.0180075
,,,-8.8E-07,0.01770875
,,,-8.7E-07,0.018113125
,,,-8.6E-07,0.017991875
,,,-8.5E-07,0.018133125
,,,-8.4E-07,0.01781
,,,-8.3E-07,0.0177975
,,,-8.2E-07,0.018025
,,,-8.1E-07,0.0180075
,,,-8E-07,0.018108125
,,,-7.9E-07,0.017953125
,,,-7.8E-07,0.017915625
,,,-7.7E-07,0.017943125
,,,-7.6E-07,0.018043125
,,,-7.5E-07,0.01780375
,,,-7.4E-07,0.01802375
,,,-7.3E-07,0.01771625
,,,-7.2E-07,0.017810625
,,,-7.1E-07,0.0179025
,,,-7E-07,0.018216875
,,,-6.9E-07,0.018166875
,,,-6.8E-07,0.017613125
,,,-6.7E-07,0.018065
,,,-6.6E-07,0.017743125
,,,-6.5E-07,0.01791875
,,,-6.4E-07,0.01801375
,,,-6.3E-07,0.01775375
,,,-6.2E-07,0.017904375
,,,-6.1E-07,0.017861875
,,,-6E-07,0.0180975
,,,-5.9E-07,0.018245625
,,,-5.8E-07,0.018141875
,,,-5.7E-07,0.01759875
,,,-5.6E-07,0.018181875
,,,-5.5E-07,0.0179425
,,,-5.4E-07,0.01761
,,,-5.3E-07,0.017938125
,,,-5.2E-07,0.0179475
,,,-5.1E-07,0.01805625
,,,-5E-07,0.017695
,,,-4.9E-07,0.01787875
,,,-4.8E-07,0.017805
,,,-4.7E-07,0.01819875
,,,-4.6E-07,0.01792625
,,,-4.5E-07,0.017736875
,,,-4.4E-07,0.017935625
,,,-4.3E-07,0.018020625
,,,-4.2E-07,0.017809375
,,,-4.1E-07,0.018081875
,,,-4E-07,0.017864375
,,,-3.9E-07,0.017816875
,,,-3.8E-07,0.01802375
,,,-3.7E-07,0.018020625
,,,-3.6E-07,0.01804875
,,,-3.5E-07,0.0178875
,,,-3.4E-07,0.01798
,,,-3.3E-07,0.01785875
,,,-3.2E-07,0.01803
,,,-3.1E-07,0.017715
,,,-3E-07,0.017755625
,,,-2.9E-07,0.0179275
,,,-2.8E-07,0.017935625
,,,-2.7E-07,0.0178625
,,,-2.6E-07,0.01807625
,,,-2.5E-07,0.017884375
,,,-2.4E-07,0.017760625
,,,-2.3E-07,0.017794375
,,,-2.2E-07,0.017950625
,,,-2.1E-07,0.017783125
,,,-2E-07,0.01799
,,,-1.9E-07,0.017915
,,,-1.8E-07,0.01821
,,,-1.7E-07,0.018045
,,,-1.6E-07,0.017773125
,,,-1.5E-07,0.01767375
,,,-1.4E-07,0.017935
,,,-1.3E-07,0.01794625
,,,-1.2E-07,0.018001875
,,,-1.1E-07,0.01798875
,,,-1E-07,0.01806
,,,-9E-08,0.0179425
,,,-8E-08,0.0178375
,,,-7E-08,0.017920625
,,,-6E-08,0.01796125
,,,-5E-08,0.0178325
,,,-4E-08,0.01863875
,,,-3E-08,0.01974125
,,,-2E-08,0.015881874
,,,-1E-08,0.013674374
,,,0,0.014578749
,,,1E-08,0.021281875
,,,2E-08,0.02296375
,,,3E-08,0.021671875
,,,4E-08,0.01691625
,,,5E-08,0.014558124
,,,6E-08,0.014148124
,,,7E-08,0.016945
,,,8E-08,0.019055625
,,,9E-08,0.020186875
,,,1E-07,0.020149375
,,,1.1E-07,0.018470625
,,,1.2E-07,0.0168075
,,,1.3E-07,0.016269999
,,,1.4E-07,0.017048125
,,,1.5E-07,0.01833375
,,,1.6E-07,0.018660625
,,,1.7E-07,0.01841625
,,,1.8E-07,0.01798125
,,,1.9E-07,0.017841875
,,,2E-07,0.017994375
,,,2.1E-07,0.01758625
,,,2.2E-07,0.017693125
,,,2.3E-07,0.0178
,,,2.4E-07,0.01813375
,,,2.5E-07,0.01836375
,,,2.6E-07,0.017705625
,,,2.7E-07,0.01812625
,,,2.8E-07,0.017936875
,,,2.9E-07,0.0178125
,,,3E-07,0.017918125
,,,3.1E-07,0.017913125
,,,3.2E-07,0.0178675
,,,3.3E-07,0.017916875
,,,3.4E-07,0.0178475
,,,3.5E-07,0.017723125
,,,3.6E-07,0.01785375
,,,3.7E-07,0.01807625
,,,3.8E-07,0.01805
,,,3.9E-07,0.01791625
,,,4E-07,0.017925625
,,,4.1E-07,0.018049375
,,,4.2E-07,0.0178275
,,,4.3E-07,0.017901875
,,,4.4E-07,0.017926875
,,,4.5E-07,0.0178075
,,,4.6E-07,0.01769375
,,,4.7E-07,0.017971875
,,,4.8E-07,0.01787
,,,4.9E-07,0.01800375
,,,5E-07,0.018035625
,,,5.1E-07,0.0180125
,,,5.2E-07,0.01793
,,,5.3E-07,0.0179125
,,,5.4E-07,0.017706875
,,,5.5E-07,0.01763375
,,,5.6E-07,0.017899375
,,,5.7E-07,0.01770625
,,,5.8E-07,0.01781625
,,,5.9E-07,0.017948125
,,,6E-07,0.017881875
,,,6.1E-07,0.0178975
,,,6.2E-07,0.01793875
,,,6.3E-07,0.0181225
,,,6.4E-07,0.017861875
,,,6.5E-07,0.018085
,,,6.6E-07,0.0180025
,,,6.7E-07,0.018064375
,,,6.8E-07,0.0178475
,,,6.9E-07,0.017920625
,,,7E-07,0.01795
,,,7.1E-07,0.0182725
,,,7.2E-07,0.01794625
,,,7.3E-07,0.01796625
,,,7.4E-07,0.018031875
,,,7.5E-07,0.017713125
,,,7.6E-07,0.0181175
,,,7.7E-07,0.01796125
,,,7.8E-07,0.018098125
,,,7.9E-07,0.018275
,,,8E-07,0.0180975
,,,8.1E-07,0.018053125
,,,8.2E-07,0.017953125
,,,8.3E-07,0.0180275
,,,8.4E-07,0.0180675
,,,8.5E-07,0.0178375
,,,8.6E-07,0.01781
,,,8.7E-07,0.01783
,,,8.8E-07,0.01777875
,,,8.9E-07,0.01798375
,,,9E-07,0.0178375
,,,9.1E-07,0.0175725
,,,9.2E-07,0.01818
,,,9.3E-07,0.017950625
,,,9.4E-07,0.018161875
,,,9.5E-07,0.017666875
,,,9.6E-07,0.017848125
,,,9.7E-07,0.0178975
,,,9.8E-07,0.01803875
,,,9.9E-07,0.01802375
,,,1E-06,0.017940625
,,,1.01E-06,0.0178975
,,,1.02E-06,0.0176725
,,,1.03E-06,0.0177475
,,,1.04E-06,0.0178475
,,,1.05E-06,0.01768375
,,,1.06E-06,0.018168125
,,,1.07E-06,0.017714375
,,,1.08E-06,0.018018125
,,,1.09E-06,0.01789125
,,,1.1E-06,0.0178675
,,,1.11E-06,0.01790625
,,,1.12E-06,0.017935
,,,1.13E-06,0.017858125
,,,1.14E-06,0.017860625
,,,1.15E-06,0.0178575
,,,1.16E-06,0.017869375
,,,1.17E-06,0.01824
,,,1.18E-06,0.017764375
,,,1.19E-06,0.018068125
,,,1.2E-06,0.01797375
,,,1.21E-06,0.018004375
,,,1.22E-06,0.018149375
,,,1.23E-06,0.017969375
,,,1.24E-06,0.017908125
,,,1.25E-06,0.018108125
,,,1.26E-06,0.01796
,,,1.27E-06,0.017895
,,,1.28E-06,0.01776875
,,,1.29E-06,0.01787375
,,,1.3E-06,0.017865625
,,,1.31E-06,0.017729375
,,,1.32E-06,0.017880625
,,,1.33E-06,0.01787
,,,1.34E-06,0.018184375
,,,1.35E-06,0.017629375
,,,1.36E-06,0.01770625
,,,1.37E-06,0.017743125
,,,1.38E-06,0.017915
,,,1.39E-06,0.01818875
,,,1.4E-06,0.017894375
,,,1.41E-06,0.01794125
,,,1.42E-06,0.017899375
,,,1.43E-06,0.0179
,,,1.44E-06,0.01792
,,,1.45E-06,0.0178625
,,,1.46E-06,0.018069375
,,,1.47E-06,0.01816375
,,,1.48E-06,0.017899375
,,,1.49E-06,0.018086875
,,,1.5E-06,0.017884375
,,,1.51E-06,0.01781375
,,,1.52E-06,0.01790625
,,,1.53E-06,0.01780875
,,,1.54E-06,0.018185625
,,,1.55E-06,0.0181475
,,,1.56E-06,0.017828125
,,,1.57E-06,0.017944375
,,,1.58E-06,0.017571875
,,,1.59E-06,0.0176875
,,,1.6E-06,0.0180075
,,,1.61E-06,0.01799875
,,,1.62E-06,0.0179775
,,,1.63E-06,0.018035
,,,1.64E-06,0.01765625
,,,1.65E-06,0.017935625
,,,1.66E-06,0.018160625
,,,1.67E-06,0.017940625
,,,1.68E-06,0.018000625
,,,1.69E-06,0.017938125
,,,1.7E-06,0.01796875
,,,1.71E-06,0.01803375
,,,1.72E-06,0.018086875
,,,1.73E-06,0.017981875
,,,1.74E-06,0.01790125
,,,1.75E-06,0.017773125
,,,1.76E-06,0.01762875
,,,1.77E-06,0.017898125
,,,1.78E-06,0.01804875
,,,1.79E-06,0.017793125
,,,1.8E-06,0.01792375
,,,1.81E-06,0.018258125
,,,1.82E-06,0.018194375
,,,1.83E-06,0.018
,,,1.84E-06,0.017916875
,,,1.85E-06,0.017710625
,,,1.86E-06,0.0179475
,,,1.87E-06,0.017926875
,,,1.88E-06,0.018085625
,,,1.89E-06,0.017670625
,,,1.9E-06,0.018089375
,,,1.91E-06,0.0178275
,,,1.92E-06,0.01788125
,,,1.93E-06,0.01788625
,,,1.94E-06,0.01797
,,,1.95E-06,0.0178675
,,,1.96E-06,0.018186875
,,,1.97E-06,0.0180175
,,,1.98E-06,0.018015625
,,,1.99E-06,0.017954375
,,,2E-06,0.0179
,,,2.01E-06,0.017975
,,,2.02E-06,0.017750625
,,,2.03E-06,0.01776125
,,,2.04E-06,0.01769625
,,,2.05E-06,0.01802
,,,2.06E-06,0.0178875
,,,2.07E-06,0.017945
,,,2.08E-06,0.01783375
,,,2.09E-06,0.017863125
,,,2.1E-06,0.01798125
,,,2.11E-06,0.01766125
,,,2.12E-06,0.01777125
,,,2.13E-06,0.0179025
,,,2.14E-06,0.01804375
,,,2.15E-06,0.017908125
,,,2.16E-06,0.017985
,,,2.17E-06,0.0177525
,,,2.18E-06,0.017748125
,,,2.19E-06,0.0180425
,,,2.2E-06,0.018074375
,,,2.21E-06,0.01807375
,,,2.22E-06,0.01807
,,,2.23E-06,0.017984375
,,,2.24E-06,0.017985
,,,2.25E-06,0.0180725
,,,2.26E-06,0.01800625
,,,2.27E-06,0.017988125
,,,2.28E-06,0.017798125
,,,2.29E-06,0.0178975
,,,2.3E-06,0.017913125
,,,2.31E-06,0.018085
,,,2.32E-06,0.01786
,,,2.33E-06,0.017868125
,,,2.34E-06,0.0180925
,,,2.35E-06,0.01806625
,,,2.36E-06,0.0179925
,,,2.37E-06,0.018214375
,,,2.38E-06,0.018108125
,,,2.39E-06,0.018278125
,,,2.4E-06,0.017985625
,,,2.41E-06,0.017955
,,,2.42E-06,0.0179
,,,2.43E-06,0.01789125
,,,2.44E-06,0.0179575
,,,2.45E-06,0.017898125
,,,2.46E-06,0.017951875
,,,2.47E-06,0.018025625
,,,2.48E-06,0.017969375
,,,2.49E-06,0.017994375
,,,2.5E-06,0.017838125
,,,2.51E-06,0.01784
,,,2.52E-06,0.017746875
,,,2.53E-06,0.01768625
,,,2.54E-06,0.017918125
,,,2.55E-06,0.01805375
,,,2.56E-06,0.01793875
,,,2.57E-06,0.018090625
,,,2.58E-06,0.017826875
,,,2.59E-06,0.017983125
,,,2.6E-06,0.018026875
,,,2.61E-06,0.017996875
,,,2.62E-06,0.017765625
,,,2.63E-06,0.01792875
,,,2.64E-06,0.0181025
,,,2.65E-06,0.017881875
,,,2.66E-06,0.01786125
,,,2.67E-06,0.01769625
,,,2.68E-06,0.017995
,,,2.69E-06,0.01811125
,,,2.7E-06,0.017831875
,,,2.71E-06,0.017825625
,,,2.72E-06,0.018035
,,,2.73E-06,0.018038125
,,,2.74E-06,0.017663125
,,,2.75E-06,0.018114375
,,,2.76E-06,0.0177525
,,,2.77E-06,0.018093125
,,,2.78E-06,0.017845
,,,2.79E-06,0.017621875
,,,2.8E-06,0.0180775
,,,2.81E-06,0.017900625
,,,2.82E-06,0.01795
,,,2.83E-06,0.017863125
,,,2.84E-06,0.017835625
,,,2.85E-06,0.017993125
,,,2.86E-06,0.017811875
,,,2.87E-06,0.017938125
,,,2.88E-06,0.018
,,,2.89E-06,0.017915
,,,2.9E-06,0.017975625
,,,2.91E-06,0.017781875
,,,2.92E-06,0.0175925
,,,2.93E-06,0.017808125
,,,2.94E-06,0.0179525
,,,2.95E-06,0.017971875
,,,2.96E-06,0.017885
,,,2.97E-06,0.017820625
,,,2.98E-06,0.017885
,,,2.99E-06,0.017995
,,,3E-06,0.017759375
,,,3.01E-06,0.01812875
,,,3.02E-06,0.017835
,,,3.03E-06,0.017810625
,,,3.04E-06,0.01796
,,,3.05E-06,0.01811875
,,,3.06E-06,0.01807625
,,,3.07E-06,0.01797125
,,,3.08E-06,0.017779375
,,,3.09E-06,0.018023125
,,,3.1E-06,0.017734375
,,,3.11E-06,0.017733125
,,,3.12E-06,0.018133125
,,,3.13E-06,0.017856875
,,,3.14E-06,0.017971875
,,,3.15E-06,0.01812375
,,,3.16E-06,0.0176825
,,,3.17E-06,0.017978125
,,,3.18E-06,0.017965
,,,3.19E-06,0.01789125
,,,3.2E-06,0.01792125
,,,3.21E-06,0.0181125
,,,3.22E-06,0.01790375
,,,3.23E-06,0.01795625
,,,3.24E-06,0.01785875
,,,3.25E-06,0.018099375
,,,3.26E-06,0.017790625
,,,3.27E-06,0.017918125
,,,3.28E-06,0.018045
,,,3.29E-06,0.018038125
,,,3.3E-06,0.01814625
,,,3.31E-06,0.018070625
,,,3.32E-06,0.017843125
,,,3.33E-06,0.017905
,,,3.34E-06,0.017603125
,,,3.35E-06,0.018159375
,,,3.36E-06,0.0180475
,,,3.37E-06,0.017999375
,,,3.38E-06,0.017930625
,,,3.39E-06,0.0179575
,,,3.4E-06,0.017936875
,,,3.41E-06,0.017753125
,,,3.42E-06,0.01766
,,,3.43E-06,0.017849375
,,,3.44E-06,0.017816875
,,,3.45E-06,0.017843125
,,,3.46E-06,0.017946875
,,,3.47E-06,0.017960625
,,,3.48E-06,0.018083125
,,,3.49E-06,0.01798625
,,,3.5E-06,0.01786375
,,,3.51E-06,0.01767625
,,,3.52E-06,0.017914375
,,,3.53E-06,0.018151875
,,,3.54E-06,0.01811875
,,,3.55E-06,0.01794625
,,,3.56E-06,0.017903125
,,,3.57E-06,0.018025625
,,,3.58E-06,0.017686875
,,,3.59E-06,0.017650625
