data/raw/Final_POL_Test_1/SOP002_Ch1.csv

"Record Length",1000,"Points",-5E-06,0.005686875
"Sample Interval",1E-08,s,-4.99E-06,0.00573
"Trigger Point",500,"Samples",-4.98E-06,0.005433125
"Trigger Time",0,s,-4.97E-06,0.005688125
"",,,-4.96E-06,0.005698125
"Horizontal Offset",-5E-06,s,-4.95E-06,0.005604375
,,,-4.94E-06,0.00551875
,,,-4.93E-06,0.005624375
,,,-4.92E-06,0.005564375
,,,-4.91E-06,0.005591875
,,,-4.9E-06,0.0053625
,,,-4.89E-06,0.005583125
,,,-4.88E-06,0.005655
,,,-4.87E-06,0.00549
,,,-4.86E-06,0.005528125
,,,-4.85E-06,0.00531625
,,,-4.84E-06,0.00557875
,,,-4.83E-06,0.00573875
,,,-4.82E-06,0.005618125
,,,-4.81E-06,0.005528125
,,,-4.8E-06,0.00563375
,,,-4.79E-06,0.0056
,,,-4.78E-06,0.005445625
,,,-4.77E-06,0.00554375
,,,-4.76E-06,0.00543375
,,,-4.75E-06,0.005554375
,,,-4.74E-06,0.005873125
,,,-4.73E-06,0.005481875
,,,-4.72E-06,0.005360625
,,,-4.71E-06,0.005625625
,,,-4.7E-06,0.00572625
,,,-4.69E-06,0.005354375
,,,-4.68E-06,0.005603125
,,,-4.67E-06,0.005766875
,,,-4.66E-06,0.005625
,,,-4.65E-06,0.005614375
,,,-4.64E-06,0.00554125
,,,-4.63E-06,0.005514375
,,,-4.62E-06,0.00561
,,,-4.61E-06,0.00548875
,,,-4.6E-06,0.005585625
,,,-4.59E-06,0.005715625
,,,-4.58E-06,0.005713125
,,,-4.57E-06,0.00563
,,,-4.56E-06,0.0055425
,,,-4.55E-06,0.00555125
,,,-4.54E-06,0.005524375
,,,-4.53E-06,0.005478125
,,,-4.52E-06,0.005494375
,,,-4.51E-06,0.0052
,,,-4.5E-06,0.0056875
,,,-4.49E-06,0.00556875
,,,-4.48E-06,0.00559
,,,-4.47E-06,0.00564
,,,-4.46E-06,0.005420625
,,,-4.45E-06,0.00545875
,,,-4.44E-06,0.00557625
,,,-4.43E-06,0.0055275
,,,-4.42E-06,0.00544125
,,,-4.41E-06,0.005380625
,,,-4.4E-06,0.00583125
,,,-4.39E-06,0.005551875
,,,-4.38E-06,0.005529375
,,,-4.37E-06,0.00562375
,,,-4.36E-06,0.00563375
,,,-4.35E-06,0.0058275
,,,-4.34E-06,0.00564875
,,,-4.33E-06,0.005809375
,,,-4.32E-06,0.0056325
,,,-4.31E-06,0.00584
,,,-4.3E-06,0.005565625
,,,-4.29E-06,0.005548125
,,,-4.28E-06,0.0055975
,,,-4.27E-06,0.005645625
,,,-4.26E-06,0.005620625
,,,-4.25E-06,0.00555875
,,,-4.24E-06,0.005645625
,,,-4.23E-06,0.005471875
,,,-4.22E-06,0.00558625
,,,-4.21E-06,0.00547125
,,,-4.2E-06,0.005545625
,,,-4.19E-06,0.005899375
,,,-4.18E-06,0.00540625
,,,-4.17E-06,0.005636875
,,,-4.16E-06,0.00561
,,,-4.15E-06,0.005560625
,,,-4.14E-06,0.005731875
,,,-4.13E-06,0.00538875
,,,-4.12E-06,0.005446875
,,,-4.11E-06,0.00539375
,,,-4.1E-06,0.005839375
,,,-4.09E-06,0.005405625
,,,-4.08E-06,0.005624375
,,,-4.07E-06,0.00551
,,,-4.06E-06,0.0057525
,,,-4.05E-06,0.00540875
,,,-4.04E-06,0.005535
,,,-4.03E-06,0.005498125
,,,-4.02E-06,0.00538625
,,,-4.01E-06,0.00551375
,,,-4E-06,0.00562125
,,,-3.99E-06,0.005646875
,,,-3.98E-06,0.005538125
,,,-3.97E-06,0.005639375
,,,-3.96E-06,0.005369375
,,,-3.95E-06,0.005449375
,,,-3.94E-06,0.0055925
,,,-3.93E-06,0.005538125
,,,-3.92E-06,0.0052975
,,,-3.91E-06,0.005705
,,,-3.9E-06,0.005795625
,,,-3.89E-06,0.005603125
,,,-3.88E-06,0.0055075
,,,-3.87E-06,0.00557125
,,,-3.86E-06,0.005506875
,,,-3.85E-06,0.00553
,,,-3.84E-06,0.005635625
,,,-3.83E-06,0.005576875
,,,-3.82E-06,0.005371875
,,,-3.81E-06,0.005875
,,,-3.8E-06,0.0053575
,,,-3.79E-06,0.005619375
,,,-3.78E-06,0.0054125
,,,-3.77E-06,0.0053825
,,,-3.76E-06,0.005578125
,,,-3.75E-06,0.005301875
,,,-3.74E-06,0.00572875
,,,-3.73E-06,0.0057125
,,,-3.72E-06,0.005778125
,,,-3.71E-06,0.005475
,,,-3.7E-06,0.00574
,,,-3.69E-06,0.005533125
,,,-3.68E-06,0.0053425
,,,-3.67E-06,0.0055475
,,,-3.66E-06,0.00567125
,,,-3.65E-06,0.005574375
,,,-3.64E-06,0.005579375
,,,-3.63E-06,0.00554125
,,,-3.62E-06,0.005436875
,,,-3.61E-06,0.0056725
,,,-3.6E-06,0.00557
,,,-3.59E-06,0.005734375
,,,-3.58E-06,0.00547375
,,,-3.57E-06,0.00547125
,,,-3.56E-06,0.005514375
,,,-3.55E-06,0.005765625
,,,-3.54E-06,0.0051525
,,,-3.53E-06,0.00573
,,,-3.52E-06,0.00541125
,,,-3.51E-06,0.005504375
,,,-3.5E-06,0.005578125
,,,-3.49E-06,0.005664375
,,,-3.48E-06,0.005640625
,,,-3.47E-06,0.005486875
,,,-3.46E-06,0.005714375
,,,-3.45E-06,0.005500625
,,,-3.44E-06,0.0056525
,,,-3.43E-06,0.005484375
,,,-3.42E-06,0.005424375
,,,-3.41E-06,0.005419375
,,,-3.4E-06,0.00564875
,,,-3.39E-06,0.0056775
,,,-3.38E-06,0.005525
,,,-3.37E-06,0.005643125
,,,-3.36E-06,0.00546625
,,,-3.35E-06,0.005524375
,,,-3.34E-06,0.0054975
,,,-3.33E-06,0.005945625
,,,-3.32E-06,0.005624375
,,,-3.31E-06,0.00548875
,,,-3.3E-06,0.00559375
,,,-3.29E-06,0.00527625
,,,-3.28E-06,0.005849375
,,,-3.27E-06,0.00547875
,,,-3.26E-06,0.00561125
,,,-3.25E-06,0.00574625
,,,-3.24E-06,0.00550375
,,,-3.23E-06,0.00586375
,,,-3.22E-06,0.005569375
,,,-3.21E-06,0.00544125
,,,-3.2E-06,0.005543125
,,,-3.19E-06,0.005720625
,,,-3.18E-06,0.005638125
,,,-3.17E-06,0.0057325
,,,-3.16E-06,0.005531875
,,,-3.15E-06,0.00569375
,,,-3.14E-06,0.005669375
,,,-3.13E-06,0.005713125
,,,-3.12E-06,0.00552625
,,,-3.11E-06,0.005674375
,,,-3.1E-06,0.005355625
,,,-3.09E-06,0.005614375
,,,-3.08E-06,0.00554375
,,,-3.07E-06,0.0056675
,,,-3.06E-06,0.00546
,,,-3.05E-06,0.00553875
,,,-3.04E-06,0.005680625
,,,-3.03E-06,0.005555625
,,,-3.02E-06,0.005735625
,,,-3.01E-06,0.00550625
,,,-3E-06,0.005515625
,,,-2.99E-06,0.005758125
,,,-2.98E-06,0.00553125
,,,-2.97E-06,0.005539375
,,,-2.96E-06,0.00554875
,,,-2.95E-06,0.005641875
,,,-2.94E-06,0.005346875
,,,-2.93E-06,0.005603125
,,,-2.92E-06,0.00553
,,,-2.91E-06,0.005761875
,,,-2.9E-06,0.005733125
,,,-2.89E-06,0.005639375
,,,-2.88E-06,0.0056025
,,,-2.87E-06,0.00576375
,,,-2.86E-06,0.005638125
,,,-2.85E-06,0.00565625
,,,-2.84E-06,0.00543375
,,,-2.83E-06,0.00570625
,,,-2.82E-06,0.005681875
,,,-2.81E-06,0.005425
,,,-2.8E-06,0.005800625
,,,-2.79E-06,0.005605
,,,-2.78E-06,0.005551875
,,,-2.77E-06,0.005545
,,,-2.76E-06,0.005631875
,,,-2.75E-06,0.0056375
,,,-2.74E-06,0.005604375
,,,-2.73E-06,0.005605
,,,-2.72E-06,0.00564125
,,,-2.71E-06,0.005495
,,,-2.7E-06,0.005466875
,,,-2.69E-06,0.005560625
,,,-2.68E-06,0.005505
,,,-2.67E-06,0.005508125
,,,-2.66E-06,0.005705
,,,-2.65E-06,0.0056275
,,,-2.64E-06,0.005521875
,,,-2.63E-06,0.005755
,,,-2.62E-06,0.005745625
,,,-2.61E-06,0.0055875
,,,-2.6E-06,0.0057525
,,,-2.59E-06,0.0055325
,,,-2.58E-06,0.005709375
,,,-2.57E-06,0.00553
,,,-2.56E-06,0.005500625
,,,-2.55E-06,0.005410625
,,,-2.54E-06,0.005288125
,,,-2.53E-06,0.005803125
,,,-2.52E-06,0.005659375
,,,-2.51E-06,0.005558125
,,,-2.5E-06,0.00559625
,,,-2.49E-06,0.005745
,,,-2.48E-06,0.0056525
,,,-2.47E-06,0.005820625
,,,-2.46E-06,0.005304375
,,,-2.45E-06,0.005685
,,,-2.44E-06,0.005580625
,,,-2.43E-06,0.005703125
,,,-2.42E-06,0.005705
,,,-2.41E-06,0.00561
,,,-2.4E-06,0.0056075
,,,-2.39E-06,0.00567375
,,,-2.38E-06,0.005643125
,,,-2.37E-06,0.005585625
,,,-2.36E-06,0.005611875
,,,-2.35E-06,0.00551375
,,,-2.34E-06,0.005608125
,,,-2.33E-06,0.005715
,,,-2.32E-06,0.005651875
,,,-2.31E-06,0.00542625
,,,-2.3E-06,0.005271875
,,,-2.29E-06,0.00555
,,,-2.28E-06,0.005506875
,,,-2.27E-06,0.00588125
,,,-2.26E-06,0.0053475
,,,-2.25E-06,0.005526875
,,,-2.24E-06,0.00564625
,,,-2.23E-06,0.00536875
,,,-2.22E-06,0.005589375
,,,-2.21E-06,0.00553
,,,-2.2E-06,0.005256875
,,,-2.19E-06,0.005471875
,,,-2.18E-06,0.00550875
,,,-2.17E-06,0.005735625
,,,-2.16E-06,0.005605625
,,,-2.15E-06,0.005473125
,,,-2.14E-06,0.005616875
,,,-2.13E-06,0.0058225
,,,-2.12E-06,0.005421875
,,,-2.11E-06,0.005673125
,,,-2.1E-06,0.0056675
,,,-2.09E-06,0.00567
,,,-2.08E-06,0.005726875
,,,-2.07E-06,0.005554375
,,,-2.06E-06,0.00577125
,,,-2.05E-06,0.0055475
,,,-2.04E-06,0.005586875
,,,-2.03E-06,0.005803125
,,,-2.02E-06,0.005781875
,,,-2.01E-06,0.0054075
,,,-2E-06,0.005609375
,,,-1.99E-06,0.00577
,,,-1.98E-06,0.005631875
,,,-1.97E-06,0.00564125
,,,-1.96E-06,0.00558625
,,,-1.95E-06,0.00536375
,,,-1.94E-06,0.00554125
,,,-1.93E-06,0.005566875
,,,-1.92E-06,0.005633125
,,,-1.91E-06,0.005605625
,,,-1.9E-06,0.005643125
,,,-1.89E-06,0.00560625
,,,-1.88E-06,0.005289375
,,,-1.87E-06,0.005601875
,,,-1.86E-06,0.00568375
,,,-1.85E-06,0.005760625
,,,-1.84E-06,0.00561375
,,,-1.83E-06,0.0052975
,,,-1.82E-06,0.00552875
,,,-1.81E-06,0.0054125
,,,-1.8E-06,0.005540625
,,,-1.79E-06,0.00567
,,,-1.78E-06,0.005539375
,,,-1.77E-06,0.00570125
,,,-1.76E-06,0.005586875
,,,-1.75E-06,0.005548125
,,,-1.74E-06,0.00543875
,,,-1.73E-06,0.00548875
,,,-1.72E-06,0.0055725
,,,-1.71E-06,0.005438125
,,,-1.7E-06,0.00550125
,,,-1.69E-06,0.005568125
,,,-1.68E-06,0.005429375
,,,-1.67E-06,0.005616875
,,,-1.66E-06,0.005796875
,,,-1.65E-06,0.005746875
,,,-1.64E-06,0.005724375
,,,-1.63E-06,0.005543125
,,,-1.62E-06,0.005458125
,,,-1.61E-06,0.0056175
,,,-1.6E-06,0.00554375
,,,-1.59E-06,0.005526875
,,,-1.58E-06,0.005484375
,,,-1.57E-06,0.00551125
,,,-1.56E-06,0.005473125
,,,-1.55E-06,0.00547
,,,-1.54E-06,0.005495
,,,-1.53E-06,0.005469375
,,,-1.52E-06,0.005561875
,,,-1.51E-06,0.005515625
,,,-1.5E-06,0.005909375
,,,-1.49E-06,0.0058425
,,,-1.48E-06,0.005619375
,,,-1.47E-06,0.0056275
,,,-1.46E-06,0.00564
,,,-1.45E-06,0.005343125
,,,-1.44E-06,0.005548125
,,,-1.43E-06,0.005540625
,,,-1.42E-06,0.0054175
,,,-1.41E-06,0.005298125
,,,-1.4E-06,0.005445625
,,,-1.39E-06,0.005515625
,,,-1.38E-06,0.005699375
,,,-1.37E-06,0.0053375
,,,-1.36E-06,0.005524375
,,,-1.35E-06,0.00558
,,,-1.34E-06,0.00554
,,,-1.33E-06,0.005613125
,,,-1.32E-06,0.005438125
,,,-1.31E-06,0.00563
,,,-1.3E-06,0.005464375
,,,-1.29E-06,0.005465625
,,,-1.28E-06,0.005530625
,,,-1.27E-06,0.005675625
,,,-1.26E-06,0.005595625
,,,-1.25E-06,0.00567875
,,,-1.24E-06,0.0054625
,,,-1.23E-06,0.0052725
,,,-1.22E-06,0.00552
,,,-1.21E-06,0.005476875
,,,-1.2E-06,0.005503125
,,,-1.19E-06,0.005481875
,,,-1.18E-06,0.0058525
,,,-1.17E-06,0.00564375
,,,-1.16E-06,0.005535
,,,-1.15E-06,0.00575375
,,,-1.14E-06,0.005415625
,,,-1.13E-06,0.005591875
,,,-1.12E-06,0.005479375
,,,-1.11E-06,0.005710625
,,,-1.1E-06,0.005648125
,,,-1.09E-06,0.005699375
,,,-1.08E-06,0.005531875
,,,-1.07E-06,0.005664375
,,,-1.06E-06,0.005675
,,,-1.05E-06,0.005565625
,,,-1.04E-06,0.00571375
,,,-1.03E-06,0.005606875
,,,-1.02E-06,0.00559375
,,,-1.01E-06,0.00575625
,,,-1E-06,0.005634375
,,,-9.9E-07,0.005695625
,,,-9.8E-07,0.005935625
,,,-9.7E-07,0.005481875
,,,-9.6E-07,0.00573125
,,,-9.5E-07,0.005621875
,,,-9.4E-07,0.005425
,,,-9.3E-07,0.0057
,,,-9.2E-07,0.005741875
,,,-9.1E-07,0.00548375
,,,-9E-07,0.005581875
,,,-8.9E-07,0.00564625
,,,-8.8E-07,0.0055
,,,-8.7E-07,0.005686875
,,,-8.6E-07,0.0055125
,,,-8.5E-07,0.005519375
,,,-8.4E-07,0.0053125
,,,-8.3E-07,0.00553875
,,,-8.2E-07,0.00564625
,,,-8.1E-07,0.005355
,,,-8E-07,0.005464375
,,,-7.9E-07,0.005701875
,,,-7.8E-07,0.0055775
,,,-7.7E-07,0.0055975
,,,-7.6E-07,0.00571375
,,,-7.5E-07,0.005394375
,,,-7.4E-07,0.0056475
,,,-7.3E-07,0.00552875
,,,-7.2E-07,0.00549625
,,,-7.1E-07,0.005598125
,,,-7E-07,0.005615
,,,-6.9E-07,0.005613125
,,,-6.8E-07,0.00581875
,,,-6.7E-07,0.005545625
,,,-6.6E-07,0.00557125
,,,-6.5E-07,0.005609375
,,,-6.4E-07,0.005669375
,,,-6.3E-07,0.00567625
,,,-6.2E-07,0.005349375
,,,-6.1E-07,0.005594375
,,,-6E-07,0.0058
,,,-5.9E-07,0.0055
,,,-5.8E-07,0.005516875
,,,-5.7E-07,0.0056125
,,,-5.6E-07,0.005453125
,,,-5.5E-07,0.00551125
,,,-5.4E-07,0.005495
,,,-5.3E-07,0.005681875
,,,-5.2E-07,0.005488125
,,,-5.1E-07,0.00583625
,,,-5E-07,0.0056975
,,,-4.9E-07,0.005655625
,,,-4.8E-07,0.005639375
,,,-4.7E-07,0.00545875
,,,-4.6E-07,0.00576625
,,,-4.5E-07,0.0054775
,,,-4.4E-07,0.005798125
,,,-4.3E-07,0.005581875
,,,-4.2E-07,0.0057
,,,-4.1E-07,0.005579375
,,,-4E-07,0.005525
,,,-3.9E-07,0.005415
,,,-3.8E-07,0.005559375
,,,-3.7E-07,0.005671875
,,,-3.6E-07,0.005483125
,,,-3.5E-07,0.005675625
,,,-3.4E-07,0.00544625
,,,-3.3E-07,0.00554125
,,,-3.2E-07,0.005668125
,,,-3.1E-07,0.0054875
,,,-3E-07,0.0056
,,,-2.9E-07,0.005529375
,,,-2.8E-07,0.00539
,,,-2.7E-07,0.005885625
,,,-2.6E-07,0.00564375
,,,-2.5E-07,0.005566875
,,,-2.4E-07,0.005345
,,,-2.3E-07,0.00550625
,,,-2.2E-07,0.005518125
,,,-2.1E-07,0.0056075
,,,-2E-07,0.005828125
,,,-1.9E-07,0.00565625
,,,-1.8E-07,0.005645625
,,,-1.7E-07,0.005623125
,,,-1.6E-07,0.005383125
,,,-1.5E-07,0.005593125
,,,-1.4E-07,0.005559375
,,,-1.3E-07,0.005684375
,,,-1.2E-07,0.005683125
,,,-1.1E-07,0.00566875
,,,-1E-07,0.00571
,,,-9E-08,0.00529875
,,,-8E-08,0.005461875
,,,-7E-08,0.005624375
,,,-6E-08,0.00561375
,,,-5E-08,0.005914375
,,,-4E-08,0.006481875
,,,-3E-08,0.005498125
,,,-2E-08,0.00388375
,,,-1E-08,0.003783125
,,,0,0.004375625
,,,1E-08,0.008456875
,,,2E-08,0.0084475
,,,3E-08,0.00701125
,,,4E-08,0.004165625
,,,5E-08,0.003434375
,,,6E-08,0.0035525
,,,7E-08,0.004985
,,,8E-08,0.00675125
,,,9E-08,0.00737625
,,,1E-07,0.00682625
,,,1.1E-07,0.005285
,,,1.2E-07,0.00456375
,,,1.3E-07,0.004363125
,,,1.4E-07,0.00519
,,,1.5E-07,0.006024375
,,,1.6E-07,0.006160625
,,,1.7E-07,0.005988125
,,,1.8E-07,0.005835625
,,,1.9E-07,0.005724375
,,,2E-07,0.0052925
,,,2.1E-07,0.005429375
,,,2.2E-07,0.005365
,,,2.3E-07,0.005665625
,,,2.4E-07,0.005603125
,,,2.5E-07,0.0055625
,,,2.6E-07,0.00546875
,,,2.7E-07,0.005801875
,,,2.8E-07,0.00545
,,,2.9E-07,0.005766875
,,,3E-07,0.00546875
,,,3.1E-07,0.005508125
,,,3.2E-07,0.00570625
,,,3.3E-07,0.005538125
,,,3.4E-07,0.0057025
,,,3.5E-07,0.00552
,,,3.6E-07,0.005386875
,,,3.7E-07,0.005588125
,,,3.8E-07,0.00567625
,,,3.9E-07,0.0056925
,,,4E-07,0.005793125
,,,4.1E-07,0.0054975
,,,4.2E-07,0.00557625
,,,4.3E-07,0.005615
,,,4.4E-07,0.005561875
,,,4.5E-07,0.00545875
,,,4.6E-07,0.005530625
,,,4.7E-07,0.0056125
,,,4.8E-07,0.00565125
,,,4.9E-07,0.00550875
,,,5E-07,0.005559375
,,,5.1E-07,0.005551875
,,,5.2E-07,0.005525625
,,,5.3E-07,0.005344375
,,,5.4E-07,0.00551
,,,5.5E-07,0.00550875
,,,5.6E-07,0.00559625
,,,5.7E-07,0.00564375
,,,5.8E-07,0.005725
,,,5.9E-07,0.005449375
,,,6E-07,0.005764375
,,,6.1E-07,0.00562125
,,,6.2E-07,0.00533625
,,,6.3E-07,0.00555625
,,,6.4E-07,0.005525625
,,,6.5E-07,0.005585625
,,,6.6E-07,0.00592375
,,,6.7E-07,0.005755625
,,,6.8E-07,0.005494375
,,,6.9E-07,0.005265625
,,,7E-07,0.0055675
,,,7.1E-07,0.005546875
,,,7.2E-07,0.00577875
,,,7.3E-07,0.005724375
,,,7.4E-07,0.005366875
,,,7.5E-07,0.005628125
,,,7.6E-07,0.00557875
,,,7.7E-07,0.00565625
,,,7.8E-07,0.005629375
,,,7.9E-07,0.00576125
,,,8E-07,0.005554375
,,,8.1E-07,0.00569875
,,,8.2E-07,0.0057975
,,,8.3E-07,0.005633125
,,,8.4E-07,0.0055975
,,,8.5E-07,0.00555125
,,,8.6E-07,0.0056125
,,,8.7E-07,0.00567875
,,,8.8E-07,0.005773125
,,,8.9E-07,0.005484375
,,,9E-07,0.00564
,,,9.1E-07,0.00564
,,,9.2E-07,0.005566875
,,,9.3E-07,0.00552625
,,,9.4E-07,0.005618125
,,,9.5E-07,0.00565875
,,,9.6E-07,0.005416875
,,,9.7E-07,0.005486875
,,,9.8E-07,0.005594375
,,,9.9E-07,0.005835625
,,,1E-06,0.005798125
,,,1.01E-06,0.00548
,,,1.02E-06,0.005299375
,,,1.03E-06,0.005488125
,,,1.04E-06,0.00540125
,,,1.05E-06,0.0055625
,,,1.06E-06,0.00596625
,,,1.07E-06,0.00539625
,,,1.08E-06,0.00573625
,,,1.09E-06,0.005584375
,,,1.1E-06,0.00547875
,,,1.11E-06,0.005755625
,,,1.12E-06,0.005823125
,,,1.13E-06,0.0055325
,,,1.14E-06,0.00565
,,,1.15E-06,0.00542625
,,,1.16E-06,0.005573125
,,,1.17E-06,0.005516875
,,,1.18E-06,0.005600625
,,,1.19E-06,0.005490625
,,,1.2E-06,0.005648125
,,,1.21E-06,0.005683125
,,,1.22E-06,0.005510625
,,,1.23E-06,0.00566625
,,,1.24E-06,0.0055075
,,,1.25E-06,0.0056375
,,,1.26E-06,0.005630625
,,,1.27E-06,0.00593875
,,,1.28E-06,0.005525
,,,1.29E-06,0.00539375
,,,1.3E-06,0.00558
,,,1.31E-06,0.005644375
,,,1.32E-06,0.00559125
,,,1.33E-06,0.00545875
,,,1.34E-06,0.005559375
,,,1.35E-06,0.005448125
,,,1.36E-06,0.00539375
,,,1.37E-06,0.005568125
,,,1.38E-06,0.00553125
,,,1.39E-06,0.005804375
,,,1.4E-06,0.00551875
,,,1.41E-06,0.005405
,,,1.42E-06,0.005595625
,,,1.43E-06,0.005444375
,,,1.44E-06,0.00552875
,,,1.45E-06,0.0056175
,,,1.46E-06,0.005724375
,,,1.47E-06,0.00546625
,,,1.48E-06,0.00568125
,,,1.49E-06,0.005646875
,,,1.5E-06,0.005719375
,,,1.51E-06,0.00601
,,,1.52E-06,0.005559375
,,,1.53E-06,0.005465
,,,1.54E-06,0.00571
,,,1.55E-06,0.005611875
,,,1.56E-06,0.005725
,,,1.57E-06,0.0057
,,,1.58E-06,0.005571875
,,,1.59E-06,0.005435
,,,1.6E-06,0.005665625
,,,1.61E-06,0.005600625
,,,1.62E-06,0.005738125
,,,1.63E-06,0.005626875
,,,1.64E-06,0.00591625
,,,1.65E-06,0.00569875
,,,1.66E-06,0.00563
,,,1.67E-06,0.005414375
,,,1.68E-06,0.005595
,,,1.69E-06,0.0054425
,,,1.7E-06,0.005506875
,,,1.71E-06,0.005455
,,,1.72E-06,0.005575625
,,,1.73E-06,0.00568375
,,,1.74E-06,0.005535
,,,1.75E-06,0.0055125
,,,1.76E-06,0.005545625
,,,1.77E-06,0.005689375
,,,1.78E-06,0.00526625
,,,1.79E-06,0.0056275
,,,1.8E-06,0.00552625
,,,1.81E-06,0.0055725
,,,1.82E-06,0.005698125
,,,1.83E-06,0.00555625
,,,1.84E-06,0.005488125
,,,1.85E-06,0.005386875
,,,1.86E-06,0.005664375
,,,1.87E-06,0.0054
,,,1.88E-06,0.0052875
,,,1.89E-06,0.005461875
,,,1.9E-06,0.005621875
,,,1.91E-06,0.0056225
,,,1.92E-06,0.005506875
,,,1.93E-06,0.005444375
,,,1.94E-06,0.005533125
,,,1.95E-06,0.005575
,,,1.96E-06,0.00545625
,,,1.97E-06,0.005536875
,,,1.98E-06,0.005444375
,,,1.99E-06,0.005640625
,,,2E-06,0.00558125
,,,2.01E-06,0.0054
,,,2.02E-06,0.005609375
,,,2.03E-06,0.0056275
,,,2.04E-06,0.00551
,,,2.05E-06,0.00571125
,,,2.06E-06,0.005629375
,,,2.07E-06,0.005565
,,,2.08E-06,0.00565
,,,2.09E-06,0.0055325
,,,2.1E-06,0.00564375
,,,2.11E-06,0.005461875
,,,2.12E-06,0.005358125
,,,2.13E-06,0.0053825
,,,2.14E-06,0.005424375
,,,2.15E-06,0.00568875
,,,2.16E-06,0.005698125
,,,2.17E-06,0.005618125
,,,2.18E-06,0.00546375
,,,2.19E-06,0.005664375
,,,2.2E-06,0.0056375
,,,2.21E-06,0.005694375
,,,2.22E-06,0.005570625
,,,2.23E-06,0.00559625
,,,2.24E-06,0.005624375
,,,2.25E-06,0.005470625
,,,2.26E-06,0.005551875
,,,2.27E-06,0.0056325
,,,2.28E-06,0.0056375
,,,2.29E-06,0.005369375
,,,2.3E-06,0.00551375
,,,2.31E-06,0.005678125
,,,2.32E-06,0.005495625
,,,2.33E-06,0.005334375
,,,2.34E-06,0.005390625
,,,2.35E-06,0.005498125
,,,2.36E-06,0.005879375
,,,2.37E-06,0.00538
,,,2.38E-06,0.0055425
,,,2.39E-06,0.005384375
,,,2.4E-06,0.005568125
,,,2.41E-06,0.005495625
,,,2.42E-06,0.00581125
,,,2.43E-06,0.0053825
,,,2.44E-06,0.0056
,,,2.45E-06,0.0055025
,,,2.46E-06,0.00568125
,,,2.47E-06,0.005705
,,,2.48E-06,0.0055525
,,,2.49E-06,0.005380625
,,,2.5E-06,0.00556
,,,2.51E-06,0.0057825
,,,2.52E-06,0.005590625
,,,2.53E-06,0.00579
,,,2.54E-06,0.005756875
,,,2.55E-06,0.005664375
,,,2.56E-06,0.005630625
,,,2.57E-06,0.005661875
,,,2.58E-06,0.0056675
,,,2.59E-06,0.0057225
,,,2.6E-06,0.0054875
,,,2.61E-06,0.00553375
,,,2.62E-06,0.005324375
,,,2.63E-06,0.005529375
,,,2.64E-06,0.0055875
,,,2.65E-06,0.005588125
,,,2.66E-06,0.0054025
,,,2.67E-06,0.005644375
,,,2.68E-06,0.0054675
,,,2.69E-06,0.005626875
,,,2.7E-06,0.005336875
,,,2.71E-06,0.00574125
,,,2.72E-06,0.00571375
,,,2.73E-06,0.005661875
,,,2.74E-06,0.00557625
,,,2.75E-06,0.00553375
,,,2.76E-06,0.005599375
,,,2.77E-06,0.00552
,,,2.78E-06,0.0055875
,,,2.79E-06,0.00563375
,,,2.8E-06,0.005615625
,,,2.81E-06,0.0054875
,,,2.82E-06,0.005695625
,,,2.83E-06,0.005403125
,,,2.84E-06,0.005615625
,,,2.85E-06,0.00564625
,,,2.86E-06,0.005778125
,,,2.87E-06,0.00552875
,,,2.88E-06,0.0056475
,,,2.89E-06,0.00559625
,,,2.9E-06,0.005455625
,,,2.91E-06,0.005485625
,,,2.92E-06,0.00553875
,,,2.93E-06,0.00551125
,,,2.94E-06,0.005424375
,,,2.95E-06,0.00557
,,,2.96E-06,0.00573875
,,,2.97E-06,0.005600625
,,,2.98E-06,0.005525
,,,2.99E-06,0.005646875
,,,3E-06,0.005525
,,,3.01E-06,0.005454375
,,,3.02E-06,0.00542375
,,,3.03E-06,0.005710625
,,,3.04E-06,0.005625
,,,3.05E-06,0.00536
,,,3.06E-06,0.00548125
,,,3.07E-06,0.005451875
,,,3.08E-06,0.00561875
,,,3.09E-06,0.00553125
,,,3.1E-06,0.005459375
,,,3.11E-06,0.00564375
,,,3.12E-06,0.00538875
,,,3.13E-06,0.00553625
,,,3.14E-06,0.005550625
,,,3.15E-06,0.0055725
,,,3.16E-06,0.005640625
,,,3.17E-06,0.005231875
,,,3.18E-06,0.00573
,,,3.19E-06,0.00537625
,,,3.2E-06,0.00558375
,,,3.21E-06,0.00547
,,,3.22E-06,0.005580625
,,,3.23E-06,0.0056525
,,,3.24E-06,0.005623125
,,,3.25E-06,0.005463125
,,,3.26E-06,0.005679375
,,,3.27E-06,0.00558875
,,,3.28E-06,0.005500625
,,,3.29E-06,0.00550875
,,,3.3E-06,0.005593125
,,,3.31E-06,0.005666875
,,,3.32E-06,0.00582
,,,3.33E-06,0.00553
,,,3.34E-06,0.005425625
,,,3.35E-06,0.00582125
,,,3.36E-06,0.005620625
,,,3.37E-06,0.005628125
,,,3.38E-06,0.00560625
,,,3.39E-06,0.005403125
,,,3.4E-06,0.0056475
,,,3.41E-06,0.005723125
,,,3.42E-06,0.00546
,,,3.43E-06,0.00544625
,,,3.44E-06,0.00556
,,,3.45E-06,0.005635
,,,3.46E-06,0.005840625
,,,3.47E-06,0.00537875
,,,3.48E-06,0.005615
,,,3.49E-06,0.0052775
,,,3.5E-06,0.005519375
,,,3.51E-06,0.00537125
,,,3.52E-06,0.005615
,,,3.53E-06,0.005731875
,,,3.54E-06,0.005546875
,,,3.55E-06,0.005629375
,,,3.56E-06,0.005755625
