data/raw/Final_POL_Test_1/SOP087_Ch3.csv

"Record Length",1000,"Points",-5E-06,0.021893126
"Sample Interval",1E-08,s,-4.99E-06,0.022100001
"Trigger Point",500,"Samples",-4.98E-06,0.021742501
"Trigger Time",0,s,-4.97E-06,0.021894376
"",,,-4.96E-06,0.022218751
"Horizontal Offset",-5E-06,s,-4.95E-06,0.021930001
,,,-4.94E-06,0.021991251
,,,-4.93E-06,0.022156876
,,,-4.92E-06,0.022060626
,,,-4.91E-06,0.022190001
,,,-4.9E-06,0.021997501
,,,-4.89E-06,0.022201876
,,,-4.88E-06,0.021712501
,,,-4.87E-06,0.022017501
,,,-4.86E-06,0.021926876
,,,-4.85E-06,0.021986876
,,,-4.84E-06,0.021958751
,,,-4.83E-06,0.021805626
,,,-4.82E-06,0.021941876
,,,-4.81E-06,0.021993751
,,,-4.8E-06,0.021808126
,,,-4.79E-06,0.021946876
,,,-4.78E-06,0.021754376
,,,-4.77E-06,0.021836876
,,,-4.76E-06,0.021759376
,,,-4.75E-06,0.021805001
,,,-4.74E-06,0.021955626
,,,-4.73E-06,0.021949376
,,,-4.72E-06,0.021966251
,,,-4.71E-06,0.021886251
,,,-4.7E-06,0.021881876
,,,-4.69E-06,0.021999376
,,,-4.68E-06,0.021917501
,,,-4.67E-06,0.021784376
,,,-4.66E-06,0.022163126
,,,-4.65E-06,0.022236876
,,,-4.64E-06,0.021773751
,,,-4.63E-06,0.021971251
,,,-4.62E-06,0.021855001
,,,-4.61E-06,0.021736251
,,,-4.6E-06,0.021855001
,,,-4.59E-06,0.022054376
,,,-4.58E-06,0.021802501
,,,-4.57E-06,0.021863126
,,,-4.56E-06,0.021824376
,,,-4.55E-06,0.022087501
,,,-4.54E-06,0.022146251
,,,-4.53E-06,0.021837501
,,,-4.52E-06,0.021952501
,,,-4.51E-06,0.022058751
,,,-4.5E-06,0.021988126
,,,-4.49E-06,0.022205001
,,,-4.48E-06,0.021894376
,,,-4.47E-06,0.021956876
,,,-4.46E-06,0.021807501
,,,-4.45E-06,0.021832501
,,,-4.44E-06,0.021990001
,,,-4.43E-06,0.022191251
,,,-4.42E-06,0.021856251
,,,-4.41E-06,0.022050001
,,,-4.4E-06,0.022050626
,,,-4.39E-06,0.021831876
,,,-4.38E-06,0.022151876
,,,-4.37E-06,0.021903751
,,,-4.36E-06,0.021840001
,,,-4.35E-06,0.021951251
,,,-4.34E-06,0.021876876
,,,-4.33E-06,0.021805626
,,,-4.32E-06,0.021656251
,,,-4.31E-06,0.022061876
,,,-4.3E-06,0.022000626
,,,-4.29E-06,0.021717501
,,,-4.28E-06,0.021848126
,,,-4.27E-06,0.021917501
,,,-4.26E-06,0.021950626
,,,-4.25E-06,0.021813126
,,,-4.24E-06,0.021856876
,,,-4.23E-06,0.022008126
,,,-4.22E-06,0.021996876
,,,-4.21E-06,0.022034376
,,,-4.2E-06,0.021993751
,,,-4.19E-06,0.022097501
,,,-4.18E-06,0.022052501
,,,-4.17E-06,0.022206251
,,,-4.16E-06,0.022059376
,,,-4.15E-06,0.021874376
,,,-4.14E-06,0.021958126
,,,-4.13E-06,0.021991251
,,,-4.12E-06,0.021985626
,,,-4.11E-06,0.022090626
,,,-4.1E-06,0.022018751
,,,-4.09E-06,0.021939376
,,,-4.08E-06,0.021938126
,,,-4.07E-06,0.021815001
,,,-4.06E-06,0.021973751
,,,-4.05E-06,0.022357501
,,,-4.04E-06,0.021949376
,,,-4.03E-06,0.022094376
,,,-4.02E-06,0.021941251
,,,-4.01E-06,0.022029376
,,,-4E-06,0.021816876
,,,-3.99E-06,0.021766876
,,,-3.98E-06,0.022082501
,,,-3.97E-06,0.021996251
,,,-3.96E-06,0.021881876
,,,-3.95E-06,0.022053751
,,,-3.94E-06,0.021778126
,,,-3.93E-06,0.021920001
,,,-3.92E-06,0.021880001
,,,-3.91E-06,0.021917501
,,,-3.9E-06,0.022065626
,,,-3.89E-06,0.021787501
,,,-3.88E-06,0.021690626
,,,-3.87E-06,0.021930001
,,,-3.86E-06,0.021899376
,,,-3.85E-06,0.021703751
,,,-3.84E-06,0.021866876
,,,-3.83E-06,0.021808126
,,,-3.82E-06,0.022021876
,,,-3.81E-06,0.021695001
,,,-3.8E-06,0.021908126
,,,-3.79E-06,0.021910001
,,,-3.78E-06,0.022045626
,,,-3.77E-06,0.021897501
,,,-3.76E-06,0.021838751
,,,-3.75E-06,0.021926876
,,,-3.74E-06,0.021826876
,,,-3.73E-06,0.021945001
,,,-3.72E-06,0.022227501
,,,-3.71E-06,0.021988126
,,,-3.7E-06,0.022062501
,,,-3.69E-06,0.021661876
,,,-3.68E-06,0.021947501
,,,-3.67E-06,0.022028126
,,,-3.66E-06,0.021895626
,,,-3.65E-06,0.022048126
,,,-3.64E-06,0.021929376
,,,-3.63E-06,0.021926876
,,,-3.62E-06,0.022070001
,,,-3.61E-06,0.021942501
,,,-3.6E-06,0.021831251
,,,-3.59E-06,0.021947501
,,,-3.58E-06,0.021983751
,,,-3.57E-06,0.021954376
,,,-3.56E-06,0.021873751
,,,-3.55E-06,0.022006251
,,,-3.54E-06,0.022091251
,,,-3.53E-06,0.021960001
,,,-3.52E-06,0.021771251
,,,-3.51E-06,0.022151876
,,,-3.5E-06,0.022096876
,,,-3.49E-06,0.021926251
,,,-3.48E-06,0.022055001
,,,-3.47E-06,0.022113126
,,,-3.46E-06,0.021903751
,,,-3.45E-06,0.021916251
,,,-3.44E-06,0.021983751
,,,-3.43E-06,0.021796251
,,,-3.42E-06,0.021981251
,,,-3.41E-06,0.021930001
,,,-3.4E-06,0.021775001
,,,-3.39E-06,0.021776876
,,,-3.38E-06,0.021596251
,,,-3.37E-06,0.022018126
,,,-3.36E-06,0.021924376
,,,-3.35E-06,0.022077501
,,,-3.34E-06,0.022096251
,,,-3.33E-06,0.021936251
,,,-3.32E-06,0.022129376
,,,-3.31E-06,0.021903751
,,,-3.3E-06,0.022111876
,,,-3.29E-06,0.022116876
,,,-3.28E-06,0.021755001
,,,-3.27E-06,0.021810001
,,,-3.26E-06,0.021937501
,,,-3.25E-06,0.022044376
,,,-3.24E-06,0.021901251
,,,-3.23E-06,0.021955001
,,,-3.22E-06,0.021967501
,,,-3.21E-06,0.021993751
,,,-3.2E-06,0.021881251
,,,-3.19E-06,0.022200001
,,,-3.18E-06,0.022085001
,,,-3.17E-06,0.021777501
,,,-3.16E-06,0.021780001
,,,-3.15E-06,0.022298751
,,,-3.14E-06,0.021948126
,,,-3.13E-06,0.022059376
,,,-3.12E-06,0.021756876
,,,-3.11E-06,0.022265001
,,,-3.1E-06,0.021977501
,,,-3.09E-06,0.022148126
,,,-3.08E-06,0.022070001
,,,-3.07E-06,0.021986876
,,,-3.06E-06,0.021917501
,,,-3.05E-06,0.021957501
,,,-3.04E-06,0.021873126
,,,-3.03E-06,0.022132501
,,,-3.02E-06,0.021959376
,,,-3.01E-06,0.021809376
,,,-3E-06,0.022011251
,,,-2.99E-06,0.022081876
,,,-2.98E-06,0.021883126
,,,-2.97E-06,0.021828751
,,,-2.96E-06,0.021983126
,,,-2.95E-06,0.022055626
,,,-2.94E-06,0.022225626
,,,-2.93E-06,0.021885626
,,,-2.92E-06,0.021980001
,,,-2.91E-06,0.021854376
,,,-2.9E-06,0.021979376
,,,-2.89E-06,0.021858126
,,,-2.88E-06,0.022133751
,,,-2.87E-06,0.021990001
,,,-2.86E-06,0.022027501
,,,-2.85E-06,0.021978751
,,,-2.84E-06,0.021780626
,,,-2.83E-06,0.021903126
,,,-2.82E-06,0.021983751
,,,-2.81E-06,0.021940001
,,,-2.8E-06,0.022043751
,,,-2.79E-06,0.021790626
,,,-2.78E-06,0.021743126
,,,-2.77E-06,0.021760001
,,,-2.76E-06,0.022123126
,,,-2.75E-06,0.022111251
,,,-2.74E-06,0.022013126
,,,-2.73E-06,0.021898126
,,,-2.72E-06,0.021873751
,,,-2.71E-06,0.021850626
,,,-2.7E-06,0.021946876
,,,-2.69E-06,0.021846876
,,,-2.68E-06,0.022095001
,,,-2.67E-06,0.021954376
,,,-2.66E-06,0.021963126
,,,-2.65E-06,0.021987501
,,,-2.64E-06,0.021903126
,,,-2.63E-06,0.022033126
,,,-2.62E-06,0.022235626
,,,-2.61E-06,0.022032501
,,,-2.6E-06,0.022230001
,,,-2.59E-06,0.021991251
,,,-2.58E-06,0.021842501
,,,-2.57E-06,0.022005001
,,,-2.56E-06,0.022291251
,,,-2.55E-06,0.022036251
,,,-2.54E-06,0.021878126
,,,-2.53E-06,0.021872501
,,,-2.52E-06,0.021879376
,,,-2.51E-06,0.022339376
,,,-2.5E-06,0.021966251
,,,-2.49E-06,0.022106876
,,,-2.48E-06,0.021841251
,,,-2.47E-06,0.021753126
,,,-2.46E-06,0.021956876
,,,-2.45E-06,0.021696876
,,,-2.44E-06,0.021877501
,,,-2.43E-06,0.021964376
,,,-2.42E-06,0.021758751
,,,-2.41E-06,0.022203751
,,,-2.4E-06,0.021856251
,,,-2.39E-06,0.022133126
,,,-2.38E-06,0.022125626
,,,-2.37E-06,0.021779376
,,,-2.36E-06,0.021943751
,,,-2.35E-06,0.021808751
,,,-2.34E-06,0.022190626
,,,-2.33E-06,0.021941251
,,,-2.32E-06,0.022031876
,,,-2.31E-06,0.021891251
,,,-2.3E-06,0.021940001
,,,-2.29E-06,0.021980001
,,,-2.28E-06,0.021838126
,,,-2.27E-06,0.021833126
,,,-2.26E-06,0.021758751
,,,-2.25E-06,0.021973126
,,,-2.24E-06,0.022101876
,,,-2.23E-06,0.022062501
,,,-2.22E-06,0.021795626
,,,-2.21E-06,0.021863126
,,,-2.2E-06,0.021960001
,,,-2.19E-06,0.022220001
,,,-2.18E-06,0.022293126
,,,-2.17E-06,0.021780626
,,,-2.16E-06,0.021698126
,,,-2.15E-06,0.022013751
,,,-2.14E-06,0.021728751
,,,-2.13E-06,0.021825001
,,,-2.12E-06,0.021845001
,,,-2.11E-06,0.021880626
,,,-2.1E-06,0.021996251
,,,-2.09E-06,0.022016251
,,,-2.08E-06,0.021788126
,,,-2.07E-06,0.021823751
,,,-2.06E-06,0.021852501
,,,-2.05E-06,0.021883751
,,,-2.04E-06,0.021953126
,,,-2.03E-06,0.022099376
,,,-2.02E-06,0.022021876
,,,-2.01E-06,0.021882501
,,,-2E-06,0.021771251
,,,-1.99E-06,0.021751251
,,,-1.98E-06,0.021734376
,,,-1.97E-06,0.021837501
,,,-1.96E-06,0.021840626
,,,-1.95E-06,0.022031251
,,,-1.94E-06,0.021850001
,,,-1.93E-06,0.021741251
,,,-1.92E-06,0.021926876
,,,-1.91E-06,0.021876876
,,,-1.9E-06,0.021847501
,,,-1.89E-06,0.021820001
,,,-1.88E-06,0.021861251
,,,-1.87E-06,0.021846251
,,,-1.86E-06,0.022096251
,,,-1.85E-06,0.021756876
,,,-1.84E-06,0.021910001
,,,-1.83E-06,0.021816876
,,,-1.82E-06,0.021946251
,,,-1.81E-06,0.021993126
,,,-1.8E-06,0.021740626
,,,-1.79E-06,0.021790626
,,,-1.78E-06,0.021926251
,,,-1.77E-06,0.021788126
,,,-1.76E-06,0.022044376
,,,-1.75E-06,0.022038126
,,,-1.74E-06,0.021795001
,,,-1.73E-06,0.022050001
,,,-1.72E-06,0.022102501
,,,-1.71E-06,0.021872501
,,,-1.7E-06,0.021998751
,,,-1.69E-06,0.021769376
,,,-1.68E-06,0.021966876
,,,-1.67E-06,0.022121876
,,,-1.66E-06,0.021854376
,,,-1.65E-06,0.021665001
,,,-1.64E-06,0.022005001
,,,-1.63E-06,0.022033126
,,,-1.62E-06,0.022152501
,,,-1.61E-06,0.021771251
,,,-1.6E-06,0.021660001
,,,-1.59E-06,0.021808126
,,,-1.58E-06,0.021857501
,,,-1.57E-06,0.021827501
,,,-1.56E-06,0.022105001
,,,-1.55E-06,0.022181251
,,,-1.54E-06,0.022011251
,,,-1.53E-06,0.022087501
,,,-1.52E-06,0.021905626
,,,-1.51E-06,0.021809376
,,,-1.5E-06,0.022117501
,,,-1.49E-06,0.021823126
,,,-1.48E-06,0.022223751
,,,-1.47E-06,0.021855626
,,,-1.46E-06,0.021596876
,,,-1.45E-06,0.022057501
,,,-1.44E-06,0.021840001
,,,-1.43E-06,0.022003126
,,,-1.42E-06,0.021941876
,,,-1.41E-06,0.021959376
,,,-1.4E-06,0.021826251
,,,-1.39E-06,0.021774376
,,,-1.38E-06,0.021881251
,,,-1.37E-06,0.022038751
,,,-1.36E-06,0.021818751
,,,-1.35E-06,0.021928126
,,,-1.34E-06,0.021789376
,,,-1.33E-06,0.021788126
,,,-1.32E-06,0.021822501
,,,-1.31E-06,0.021978751
,,,-1.3E-06,0.021961876
,,,-1.29E-06,0.022113751
,,,-1.28E-06,0.022006251
,,,-1.27E-06,0.022025626
,,,-1.26E-06,0.022133751
,,,-1.25E-06,0.021990001
,,,-1.24E-06,0.021906876
,,,-1.23E-06,0.021832501
,,,-1.22E-06,0.022091876
,,,-1.21E-06,0.021935001
,,,-1.2E-06,0.021775001
,,,-1.19E-06,0.021891876
,,,-1.18E-06,0.021803751
,,,-1.17E-06,0.022115001
,,,-1.16E-06,0.021878126
,,,-1.15E-06,0.021899376
,,,-1.14E-06,0.021833126
,,,-1.13E-06,0.021941876
,,,-1.12E-06,0.021756251
,,,-1.11E-06,0.022066251
,,,-1.1E-06,0.021616251
,,,-1.09E-06,0.021957501
,,,-1.08E-06,0.022014376
,,,-1.07E-06,0.021948751
,,,-1.06E-06,0.021857501
,,,-1.05E-06,0.021780626
,,,-1.04E-06,0.021931876
,,,-1.03E-06,0.022048126
,,,-1.02E-06,0.021858126
,,,-1.01E-06,0.022031876
,,,-1E-06,0.021985626
,,,-9.9E-07,0.022038126
,,,-9.8E-07,0.022088751
,,,-9.7E-07,0.021913751
,,,-9.6E-07,0.021905001
,,,-9.5E-07,0.021950001
,,,-9.4E-07,0.021995001
,,,-9.3E-07,0.021890626
,,,-9.2E-07,0.022035001
,,,-9.1E-07,0.022045626
,,,-9E-07,0.021833751
,,,-8.9E-07,0.021955001
,,,-8.8E-07,0.021936251
,,,-8.7E-07,0.022087501
,,,-8.6E-07,0.021918751
,,,-8.5E-07,0.022021876
,,,-8.4E-07,0.021875001
,,,-8.3E-07,0.021911251
,,,-8.2E-07,0.022026876
,,,-8.1E-07,0.022091251
,,,-8E-07,0.021990001
,,,-7.9E-07,0.021783751
,,,-7.8E-07,0.021680626
,,,-7.7E-07,0.022121251
,,,-7.6E-07,0.021847501
,,,-7.5E-07,0.021970626
,,,-7.4E-07,0.022185001
,,,-7.3E-07,0.022054376
,,,-7.2E-07,0.021934376
,,,-7.1E-07,0.021811251
,,,-7E-07,0.021802501
,,,-6.9E-07,0.021962501
,,,-6.8E-07,0.021990001
,,,-6.7E-07,0.021950001
,,,-6.6E-07,0.022051251
,,,-6.5E-07,0.022000001
,,,-6.4E-07,0.021936251
,,,-6.3E-07,0.021900001
,,,-6.2E-07,0.021968751
,,,-6.1E-07,0.021621251
,,,-6E-07,0.022074376
,,,-5.9E-07,0.021929376
,,,-5.8E-07,0.021660001
,,,-5.7E-07,0.021833751
,,,-5.6E-07,0.021948126
,,,-5.5E-07,0.021989376
,,,-5.4E-07,0.021944376
,,,-5.3E-07,0.021658751
,,,-5.2E-07,0.021898126
,,,-5.1E-07,0.021991876
,,,-5E-07,0.021985001
,,,-4.9E-07,0.021898751
,,,-4.8E-07,0.021863751
,,,-4.7E-07,0.021793126
,,,-4.6E-07,0.022111876
,,,-4.5E-07,0.021871251
,,,-4.4E-07,0.021908126
,,,-4.3E-07,0.021835626
,,,-4.2E-07,0.021955001
,,,-4.1E-07,0.021970626
,,,-4E-07,0.021961251
,,,-3.9E-07,0.022029376
,,,-3.8E-07,0.022034376
,,,-3.7E-07,0.021928126
,,,-3.6E-07,0.022091251
,,,-3.5E-07,0.022078751
,,,-3.4E-07,0.021846251
,,,-3.3E-07,0.021921876
,,,-3.2E-07,0.021903126
,,,-3.1E-07,0.021938751
,,,-3E-07,0.022172501
,,,-2.9E-07,0.021965626
,,,-2.8E-07,0.021939376
,,,-2.7E-07,0.021930001
,,,-2.6E-07,0.021920001
,,,-2.5E-07,0.021946251
,,,-2.4E-07,0.022001251
,,,-2.3E-07,0.021949376
,,,-2.2E-07,0.021778751
,,,-2.1E-07,0.022043751
,,,-2E-07,0.021861876
,,,-1.9E-07,0.022174376
,,,-1.8E-07,0.021955626
,,,-1.7E-07,0.021750626
,,,-1.6E-07,0.021767501
,,,-1.5E-07,0.022018126
,,,-1.4E-07,0.021983751
,,,-1.3E-07,0.022060626
,,,-1.2E-07,0.022019376
,,,-1.1E-07,0.021930001
,,,-1E-07,0.022120001
,,,-9E-08,0.021856876
,,,-8E-08,0.022108126
,,,-7E-08,0.021608751
,,,-6E-08,0.022260001
,,,-5E-08,0.022001876
,,,-4E-08,0.022489376
,,,-3E-08,0.021945001
,,,-2E-08,0.021797501
,,,-1E-08,0.021011876
,,,0,0.021608126
,,,1E-08,0.022469376
,,,2E-08,0.022528751
,,,3E-08,0.022490626
,,,4E-08,0.022210001
,,,5E-08,0.021537501
,,,6E-08,0.021313126
,,,7E-08,0.021770001
,,,8E-08,0.021995001
,,,9E-08,0.022285001
,,,1E-07,0.022173751
,,,1.1E-07,0.021703126
,,,1.2E-07,0.021428751
,,,1.3E-07,0.021781876
,,,1.4E-07,0.021661876
,,,1.5E-07,0.021945001
,,,1.6E-07,0.021961251
,,,1.7E-07,0.021918751
,,,1.8E-07,0.021947501
,,,1.9E-07,0.021960001
,,,2E-07,0.021785626
,,,2.1E-07,0.021944376
,,,2.2E-07,0.021811876
,,,2.3E-07,0.021733751
,,,2.4E-07,0.022016251
,,,2.5E-07,0.021698126
,,,2.6E-07,0.022185001
,,,2.7E-07,0.022020001
,,,2.8E-07,0.022087501
,,,2.9E-07,0.021666876
,,,3E-07,0.021822501
,,,3.1E-07,0.022020001
,,,3.2E-07,0.021982501
,,,3.3E-07,0.022003126
,,,3.4E-07,0.022049376
,,,3.5E-07,0.022064376
,,,3.6E-07,0.021981251
,,,3.7E-07,0.022186876
,,,3.8E-07,0.021945626
,,,3.9E-07,0.021729376
,,,4E-07,0.021964376
,,,4.1E-07,0.022222501
,,,4.2E-07,0.021909376
,,,4.3E-07,0.021738126
,,,4.4E-07,0.021771876
,,,4.5E-07,0.021818126
,,,4.6E-07,0.021949376
,,,4.7E-07,0.022018126
,,,4.8E-07,0.021822501
,,,4.9E-07,0.022095001
,,,5E-07,0.021816251
,,,5.1E-07,0.021785626
,,,5.2E-07,0.022138126
,,,5.3E-07,0.022088751
,,,5.4E-07,0.021845626
,,,5.5E-07,0.021927501
,,,5.6E-07,0.022201251
,,,5.7E-07,0.021938751
,,,5.8E-07,0.021885001
,,,5.9E-07,0.021907501
,,,6E-07,0.022201876
,,,6.1E-07,0.021845626
,,,6.2E-07,0.022102501
,,,6.3E-07,0.021861876
,,,6.4E-07,0.021801251
,,,6.5E-07,0.021850001
,,,6.6E-07,0.021980001
,,,6.7E-07,0.021971876
,,,6.8E-07,0.021821876
,,,6.9E-07,0.021796251
,,,7E-07,0.022012501
,,,7.1E-07,0.021853751
,,,7.2E-07,0.021944376
,,,7.3E-07,0.021923126
,,,7.4E-07,0.021941876
,,,7.5E-07,0.022182501
,,,7.6E-07,0.021801251
,,,7.7E-07,0.022210001
,,,7.8E-07,0.022273751
,,,7.9E-07,0.021892501
,,,8E-07,0.022208126
,,,8.1E-07,0.021894376
,,,8.2E-07,0.021900626
,,,8.3E-07,0.021957501
,,,8.4E-07,0.021742501
,,,8.5E-07,0.021881876
,,,8.6E-07,0.021859376
,,,8.7E-07,0.022066876
,,,8.8E-07,0.022083751
,,,8.9E-07,0.021931876
,,,9E-07,0.021787501
,,,9.1E-07,0.021980001
,,,9.2E-07,0.021902501
,,,9.3E-07,0.021869376
,,,9.4E-07,0.021640001
,,,9.5E-07,0.021892501
,,,9.6E-07,0.021915001
,,,9.7E-07,0.021958751
,,,9.8E-07,0.022172501
,,,9.9E-07,0.022049376
,,,1E-06,0.022046876
,,,1.01E-06,0.022073126
,,,1.02E-06,0.021849376
,,,1.03E-06,0.021956876
,,,1.04E-06,0.021916251
,,,1.05E-06,0.021926876
,,,1.06E-06,0.022120626
,,,1.07E-06,0.022096876
,,,1.08E-06,0.022160001
,,,1.09E-06,0.022007501
,,,1.1E-06,0.021985001
,,,1.11E-06,0.022113751
,,,1.12E-06,0.021989376
,,,1.13E-06,0.021941251
,,,1.14E-06,0.021918751
,,,1.15E-06,0.021917501
,,,1.16E-06,0.022053126
,,,1.17E-06,0.021916876
,,,1.18E-06,0.022091251
,,,1.19E-06,0.021819376
,,,1.2E-06,0.022014376
,,,1.21E-06,0.022035001
,,,1.22E-06,0.022021876
,,,1.23E-06,0.022165001
,,,1.24E-06,0.022148126
,,,1.25E-06,0.022215626
,,,1.26E-06,0.022100001
,,,1.27E-06,0.022017501
,,,1.28E-06,0.021691251
,,,1.29E-06,0.022033126
,,,1.3E-06,0.021908126
,,,1.31E-06,0.021799376
,,,1.32E-06,0.022119376
,,,1.33E-06,0.021875001
,,,1.34E-06,0.021816876
,,,1.35E-06,0.022143126
,,,1.36E-06,0.022226876
,,,1.37E-06,0.021818751
,,,1.38E-06,0.021885626
,,,1.39E-06,0.021942501
,,,1.4E-06,0.022149376
,,,1.41E-06,0.021896251
,,,1.42E-06,0.021901876
,,,1.43E-06,0.022036251
,,,1.44E-06,0.021887501
,,,1.45E-06,0.022070626
,,,1.46E-06,0.021918751
,,,1.47E-06,0.022088751
,,,1.48E-06,0.021721876
,,,1.49E-06,0.021903751
,,,1.5E-06,0.021741251
,,,1.51E-06,0.022097501
,,,1.52E-06,0.022034376
,,,1.53E-06,0.021969376
,,,1.54E-06,0.022058751
,,,1.55E-06,0.021883126
,,,1.56E-06,0.021886251
,,,1.57E-06,0.022037501
,,,1.58E-06,0.022045626
,,,1.59E-06,0.021937501
,,,1.6E-06,0.021924376
,,,1.61E-06,0.021921876
,,,1.62E-06,0.022080626
,,,1.63E-06,0.021925626
,,,1.64E-06,0.021728751
,,,1.65E-06,0.021933751
,,,1.66E-06,0.021937501
,,,1.67E-06,0.021733126
,,,1.68E-06,0.021768751
,,,1.69E-06,0.021947501
,,,1.7E-06,0.021940001
,,,1.71E-06,0.022033751
,,,1.72E-06,0.022030626
,,,1.73E-06,0.021942501
,,,1.74E-06,0.021997501
,,,1.75E-06,0.022133126
,,,1.76E-06,0.022016876
,,,1.77E-06,0.021942501
,,,1.78E-06,0.021941251
,,,1.79E-06,0.021842501
,,,1.8E-06,0.021894376
,,,1.81E-06,0.021841876
,,,1.82E-06,0.021946876
,,,1.83E-06,0.022151251
,,,1.84E-06,0.021901251
,,,1.85E-06,0.021953126
,,,1.86E-06,0.021983751
,,,1.87E-06,0.021950001
,,,1.88E-06,0.022159376
,,,1.89E-06,0.022076876
,,,1.9E-06,0.021956876
,,,1.91E-06,0.022152501
,,,1.92E-06,0.022098126
,,,1.93E-06,0.022100001
,,,1.94E-06,0.021861876
,,,1.95E-06,0.021859376
,,,1.96E-06,0.021980626
,,,1.97E-06,0.021913126
,,,1.98E-06,0.021762501
,,,1.99E-06,0.021868751
,,,2E-06,0.021927501
,,,2.01E-06,0.021673126
,,,2.02E-06,0.021875001
,,,2.03E-06,0.021746876
,,,2.04E-06,0.021937501
,,,2.05E-06,0.021763126
,,,2.06E-06,0.021905001
,,,2.07E-06,0.022043751
,,,2.08E-06,0.022027501
,,,2.09E-06,0.021982501
,,,2.1E-06,0.021927501
,,,2.11E-06,0.021958751
,,,2.12E-06,0.021943751
,,,2.13E-06,0.021676876
,,,2.14E-06,0.022021251
,,,2.15E-06,0.021761876
,,,2.16E-06,0.022063126
,,,2.17E-06,0.021998126
,,,2.18E-06,0.021941251
,,,2.19E-06,0.022004376
,,,2.2E-06,0.022040626
,,,2.21E-06,0.021944376
,,,2.22E-06,0.021512501
,,,2.23E-06,0.022132501
,,,2.24E-06,0.021891876
,,,2.25E-06,0.021775626
,,,2.26E-06,0.021816251
,,,2.27E-06,0.021812501
,,,2.28E-06,0.022263751
,,,2.29E-06,0.021766251
,,,2.3E-06,0.022084376
,,,2.31E-06,0.021867501
,,,2.32E-06,0.021938751
,,,2.33E-06,0.021650001
,,,2.34E-06,0.021907501
,,,2.35E-06,0.021850626
,,,2.36E-06,0.021803751
,,,2.37E-06,0.021895001
,,,2.38E-06,0.022045001
,,,2.39E-06,0.021892501
,,,2.4E-06,0.022106251
,,,2.41E-06,0.021937501
,,,2.42E-06,0.021993751
,,,2.43E-06,0.021946251
,,,2.44E-06,0.021970626
,,,2.45E-06,0.021926251
,,,2.46E-06,0.021877501
,,,2.47E-06,0.021847501
,,,2.48E-06,0.021983751
,,,2.49E-06,0.022011876
,,,2.5E-06,0.021890626
,,,2.51E-06,0.022167501
,,,2.52E-06,0.022103751
,,,2.53E-06,0.021785626
,,,2.54E-06,0.021798126
,,,2.55E-06,0.022231251
,,,2.56E-06,0.022119376
,,,2.57E-06,0.022116251
,,,2.58E-06,0.021930626
,,,2.59E-06,0.021853751
,,,2.6E-06,0.021983751
,,,2.61E-06,0.021894376
,,,2.62E-06,0.021930001
,,,2.63E-06,0.021842501
,,,2.64E-06,0.022027501
,,,2.65E-06,0.021985001
,,,2.66E-06,0.022215001
,,,2.67E-06,0.021628126
,,,2.68E-06,0.021965001
,,,2.69E-06,0.021826251
,,,2.7E-06,0.021607501
,,,2.71E-06,0.021900626
,,,2.72E-06,0.022040626
,,,2.73E-06,0.021887501
,,,2.74E-06,0.021999376
,,,2.75E-06,0.022163126
,,,2.76E-06,0.021720001
,,,2.77E-06,0.022045626
,,,2.78E-06,0.022143751
,,,2.79E-06,0.022105626
,,,2.8E-06,0.021958751
,,,2.81E-06,0.021931251
,,,2.82E-06,0.022086251
,,,2.83E-06,0.021945626
,,,2.84E-06,0.022007501
,,,2.85E-06,0.022156251
,,,2.86E-06,0.021980001
,,,2.87E-06,0.022050626
,,,2.88E-06,0.021774376
,,,2.89E-06,0.021955626
,,,2.9E-06,0.021761876
,,,2.91E-06,0.021729376
,,,2.92E-06,0.022088126
,,,2.93E-06,0.021897501
,,,2.94E-06,0.021744376
,,,2.95E-06,0.021950626
,,,2.96E-06,0.021876876
,,,2.97E-06,0.022032501
,,,2.98E-06,0.021965626
,,,2.99E-06,0.021754376
,,,3E-06,0.021671876
,,,3.01E-06,0.021876876
,,,3.02E-06,0.021935001
,,,3.03E-06,0.021888751
,,,3.04E-06,0.021829376
,,,3.05E-06,0.022043126
,,,3.06E-06,0.021791251
,,,3.07E-06,0.021931876
,,,3.08E-06,0.021980626
,,,3.09E-06,0.021960001
,,,3.1E-06,0.021843751
,,,3.11E-06,0.021793126
,,,3.12E-06,0.021855001
,,,3.13E-06,0.021911876
,,,3.14E-06,0.021974376
,,,3.15E-06,0.022200626
,,,3.16E-06,0.021804376
,,,3.17E-06,0.021916251
,,,3.18E-06,0.021971251
,,,3.19E-06,0.021895626
,,,3.2E-06,0.022146251
,,,3.21E-06,0.022080001
