data/raw/Final_POL_Test_1/SOP003_Ch4.csv

"Record Length",1000,"Points",-5E-06,0.02013
"Sample Interval",1E-08,s,-4.99E-06,0.020158125
"Trigger Point",500,"Samples",-4.98E-06,0.02016375
"Trigger Time",0,s,-4.97E-06,0.020161875
"",,,-4.96E-06,0.02020375
"Horizontal Offset",-5E-06,s,-4.95E-06,0.0201425
,,,-4.94E-06,0.019911875
,,,-4.93E-06,0.019835
,,,-4.92E-06,0.02018
,,,-4.91E-06,0.0202325
,,,-4.9E-06,0.02031
,,,-4.89E-06,0.020204375
,,,-4.88E-06,0.020225
,,,-4.87E-06,0.019975625
,,,-4.86E-06,0.019914375
,,,-4.85E-06,0.020019375
,,,-4.84E-06,0.0199025
,,,-4.83E-06,0.02018
,,,-4.82E-06,0.020423125
,,,-4.81E-06,0.02002625
,,,-4.8E-06,0.020149375
,,,-4.79E-06,0.020098125
,,,-4.78E-06,0.020251875
,,,-4.77E-06,0.020254375
,,,-4.76E-06,0.019918125
,,,-4.75E-06,0.02012125
,,,-4.74E-06,0.020168125
,,,-4.73E-06,0.020284375
,,,-4.72E-06,0.020321875
,,,-4.71E-06,0.02027875
,,,-4.7E-06,0.020129375
,,,-4.69E-06,0.020000625
,,,-4.68E-06,0.0199825
,,,-4.67E-06,0.020315
,,,-4.66E-06,0.020060625
,,,-4.65E-06,0.020143125
,,,-4.64E-06,0.02024375
,,,-4.63E-06,0.020125
,,,-4.62E-06,0.01994375
,,,-4.61E-06,0.02033625
,,,-4.6E-06,0.019889375
,,,-4.59E-06,0.020190625
,,,-4.58E-06,0.020229375
,,,-4.57E-06,0.01993125
,,,-4.56E-06,0.020368125
,,,-4.55E-06,0.02023125
,,,-4.54E-06,0.020126875
,,,-4.53E-06,0.02005
,,,-4.52E-06,0.020011875
,,,-4.51E-06,0.02032625
,,,-4.5E-06,0.020236875
,,,-4.49E-06,0.020190625
,,,-4.48E-06,0.020141875
,,,-4.47E-06,0.020100625
,,,-4.46E-06,0.019933125
,,,-4.45E-06,0.020545
,,,-4.44E-06,0.0201125
,,,-4.43E-06,0.020011875
,,,-4.42E-06,0.019980625
,,,-4.41E-06,0.020330625
,,,-4.4E-06,0.020303125
,,,-4.39E-06,0.020244375
,,,-4.38E-06,0.02023125
,,,-4.37E-06,0.0200625
,,,-4.36E-06,0.019945
,,,-4.35E-06,0.0198425
,,,-4.34E-06,0.020008125
,,,-4.33E-06,0.020279375
,,,-4.32E-06,0.020179375
,,,-4.31E-06,0.02009875
,,,-4.3E-06,0.019968125
,,,-4.29E-06,0.020125
,,,-4.28E-06,0.020133125
,,,-4.27E-06,0.020056875
,,,-4.26E-06,0.020171875
,,,-4.25E-06,0.020201875
,,,-4.24E-06,0.0201425
,,,-4.23E-06,0.020270625
,,,-4.22E-06,0.0200925
,,,-4.21E-06,0.0199375
,,,-4.2E-06,0.020188125
,,,-4.19E-06,0.0199475
,,,-4.18E-06,0.020111875
,,,-4.17E-06,0.0201025
,,,-4.16E-06,0.020228125
,,,-4.15E-06,0.02041
,,,-4.14E-06,0.020284375
,,,-4.13E-06,0.020046875
,,,-4.12E-06,0.02054625
,,,-4.11E-06,0.0204175
,,,-4.1E-06,0.019875625
,,,-4.09E-06,0.020143125
,,,-4.08E-06,0.020314375
,,,-4.07E-06,0.02007875
,,,-4.06E-06,0.020046875
,,,-4.05E-06,0.02004
,,,-4.04E-06,0.020288125
,,,-4.03E-06,0.019994375
,,,-4.02E-06,0.020071875
,,,-4.01E-06,0.0200775
,,,-4E-06,0.02006625
,,,-3.99E-06,0.019935
,,,-3.98E-06,0.020293125
,,,-3.97E-06,0.02023125
,,,-3.96E-06,0.020066875
,,,-3.95E-06,0.020178125
,,,-3.94E-06,0.02027125
,,,-3.93E-06,0.0202175
,,,-3.92E-06,0.0201725
,,,-3.91E-06,0.020269375
,,,-3.9E-06,0.0201025
,,,-3.89E-06,0.02027
,,,-3.88E-06,0.02013625
,,,-3.87E-06,0.020119375
,,,-3.86E-06,0.020259375
,,,-3.85E-06,0.0200875
,,,-3.84E-06,0.020153125
,,,-3.83E-06,0.020208125
,,,-3.82E-06,0.020086875
,,,-3.81E-06,0.02029375
,,,-3.8E-06,0.020336875
,,,-3.79E-06,0.019948125
,,,-3.78E-06,0.02017
,,,-3.77E-06,0.020050625
,,,-3.76E-06,0.020176875
,,,-3.75E-06,0.02009875
,,,-3.74E-06,0.020474375
,,,-3.73E-06,0.020385
,,,-3.72E-06,0.020203125
,,,-3.71E-06,0.0200775
,,,-3.7E-06,0.01982125
,,,-3.69E-06,0.02009
,,,-3.68E-06,0.020100625
,,,-3.67E-06,0.0201125
,,,-3.66E-06,0.02038875
,,,-3.65E-06,0.020103125
,,,-3.64E-06,0.0200925
,,,-3.63E-06,0.02017625
,,,-3.62E-06,0.020374375
,,,-3.61E-06,0.0204625
,,,-3.6E-06,0.020125
,,,-3.59E-06,0.020224375
,,,-3.58E-06,0.020341875
,,,-3.57E-06,0.0203425
,,,-3.56E-06,0.0202
,,,-3.55E-06,0.020430625
,,,-3.54E-06,0.020265625
,,,-3.53E-06,0.020250625
,,,-3.52E-06,0.020540625
,,,-3.51E-06,0.02006375
,,,-3.5E-06,0.020214375
,,,-3.49E-06,0.019989375
,,,-3.48E-06,0.0198575
,,,-3.47E-06,0.01992375
,,,-3.46E-06,0.02027375
,,,-3.45E-06,0.020193125
,,,-3.44E-06,0.01991
,,,-3.43E-06,0.020275
,,,-3.42E-06,0.02017875
,,,-3.41E-06,0.0202825
,,,-3.4E-06,0.020345625
,,,-3.39E-06,0.02004
,,,-3.38E-06,0.0203775
,,,-3.37E-06,0.02016625
,,,-3.36E-06,0.02019
,,,-3.35E-06,0.020145
,,,-3.34E-06,0.020195
,,,-3.33E-06,0.02021125
,,,-3.32E-06,0.020204375
,,,-3.31E-06,0.020155
,,,-3.3E-06,0.02035875
,,,-3.29E-06,0.02029625
,,,-3.28E-06,0.02005625
,,,-3.27E-06,0.0198975
,,,-3.26E-06,0.01995875
,,,-3.25E-06,0.020155
,,,-3.24E-06,0.02018125
,,,-3.23E-06,0.0202
,,,-3.22E-06,0.020025
,,,-3.21E-06,0.02025875
,,,-3.2E-06,0.020180625
,,,-3.19E-06,0.020055
,,,-3.18E-06,0.020238125
,,,-3.17E-06,0.020258125
,,,-3.16E-06,0.02013375
,,,-3.15E-06,0.0202475
,,,-3.14E-06,0.020168125
,,,-3.13E-06,0.020409375
,,,-3.12E-06,0.020104375
,,,-3.11E-06,0.020416875
,,,-3.1E-06,0.02026125
,,,-3.09E-06,0.020245625
,,,-3.08E-06,0.020289375
,,,-3.07E-06,0.020196875
,,,-3.06E-06,0.020266875
,,,-3.05E-06,0.0202825
,,,-3.04E-06,0.0203475
,,,-3.03E-06,0.02009125
,,,-3.02E-06,0.02002625
,,,-3.01E-06,0.020186875
,,,-3E-06,0.020183125
,,,-2.99E-06,0.020030625
,,,-2.98E-06,0.020215625
,,,-2.97E-06,0.02001375
,,,-2.96E-06,0.020079375
,,,-2.95E-06,0.02010375
,,,-2.94E-06,0.020111875
,,,-2.93E-06,0.02042375
,,,-2.92E-06,0.020065
,,,-2.91E-06,0.020195
,,,-2.9E-06,0.019949375
,,,-2.89E-06,0.0204125
,,,-2.88E-06,0.02019
,,,-2.87E-06,0.0201425
,,,-2.86E-06,0.0201275
,,,-2.85E-06,0.0200225
,,,-2.84E-06,0.020375
,,,-2.83E-06,0.020086875
,,,-2.82E-06,0.0202075
,,,-2.81E-06,0.020394375
,,,-2.8E-06,0.02002375
,,,-2.79E-06,0.01995625
,,,-2.78E-06,0.020073125
,,,-2.77E-06,0.01989625
,,,-2.76E-06,0.020055
,,,-2.75E-06,0.01999625
,,,-2.74E-06,0.020389375
,,,-2.73E-06,0.020098125
,,,-2.72E-06,0.02008625
,,,-2.71E-06,0.02026
,,,-2.7E-06,0.020284375
,,,-2.69E-06,0.02016125
,,,-2.68E-06,0.020141875
,,,-2.67E-06,0.019836875
,,,-2.66E-06,0.0200675
,,,-2.65E-06,0.02011375
,,,-2.64E-06,0.02012125
,,,-2.63E-06,0.02022
,,,-2.62E-06,0.020134375
,,,-2.61E-06,0.02012125
,,,-2.6E-06,0.020273125
,,,-2.59E-06,0.02011625
,,,-2.58E-06,0.019986875
,,,-2.57E-06,0.020195
,,,-2.56E-06,0.02005
,,,-2.55E-06,0.020253125
,,,-2.54E-06,0.020384375
,,,-2.53E-06,0.02032625
,,,-2.52E-06,0.0202975
,,,-2.51E-06,0.020200625
,,,-2.5E-06,0.020135
,,,-2.49E-06,0.020203125
,,,-2.48E-06,0.020119375
,,,-2.47E-06,0.020274375
,,,-2.46E-06,0.020085625
,,,-2.45E-06,0.020248125
,,,-2.44E-06,0.019965625
,,,-2.43E-06,0.020108125
,,,-2.42E-06,0.0204125
,,,-2.41E-06,0.02038125
,,,-2.4E-06,0.02009875
,,,-2.39E-06,0.020055625
,,,-2.38E-06,0.020248125
,,,-2.37E-06,0.02010375
,,,-2.36E-06,0.019928125
,,,-2.35E-06,0.019949375
,,,-2.34E-06,0.020060625
,,,-2.33E-06,0.020230625
,,,-2.32E-06,0.020224375
,,,-2.31E-06,0.02017625
,,,-2.3E-06,0.020105625
,,,-2.29E-06,0.0203
,,,-2.28E-06,0.01998625
,,,-2.27E-06,0.019999375
,,,-2.26E-06,0.01995
,,,-2.25E-06,0.020333125
,,,-2.24E-06,0.020101875
,,,-2.23E-06,0.019984375
,,,-2.22E-06,0.020159375
,,,-2.21E-06,0.020160625
,,,-2.2E-06,0.020370625
,,,-2.19E-06,0.02023
,,,-2.18E-06,0.02028125
,,,-2.17E-06,0.020036875
,,,-2.16E-06,0.020170625
,,,-2.15E-06,0.020165625
,,,-2.14E-06,0.020215
,,,-2.13E-06,0.020233125
,,,-2.12E-06,0.020301875
,,,-2.11E-06,0.02021375
,,,-2.1E-06,0.02035125
,,,-2.09E-06,0.02034375
,,,-2.08E-06,0.020295625
,,,-2.07E-06,0.019945
,,,-2.06E-06,0.02004375
,,,-2.05E-06,0.020135
,,,-2.04E-06,0.020155
,,,-2.03E-06,0.02042375
,,,-2.02E-06,0.020255625
,,,-2.01E-06,0.02004625
,,,-2E-06,0.019909375
,,,-1.99E-06,0.0201375
,,,-1.98E-06,0.0202225
,,,-1.97E-06,0.02012625
,,,-1.96E-06,0.0201125
,,,-1.95E-06,0.020115625
,,,-1.94E-06,0.0202675
,,,-1.93E-06,0.020199375
,,,-1.92E-06,0.02014625
,,,-1.91E-06,0.0201725
,,,-1.9E-06,0.020041875
,,,-1.89E-06,0.02009875
,,,-1.88E-06,0.019973125
,,,-1.87E-06,0.020073125
,,,-1.86E-06,0.020085625
,,,-1.85E-06,0.020030625
,,,-1.84E-06,0.020155
,,,-1.83E-06,0.0201925
,,,-1.82E-06,0.02027375
,,,-1.81E-06,0.020256875
,,,-1.8E-06,0.020241875
,,,-1.79E-06,0.019953125
,,,-1.78E-06,0.0200525
,,,-1.77E-06,0.020133125
,,,-1.76E-06,0.020248125
,,,-1.75E-06,0.020101875
,,,-1.74E-06,0.020365
,,,-1.73E-06,0.02020125
,,,-1.72E-06,0.020431875
,,,-1.71E-06,0.020315625
,,,-1.7E-06,0.01990875
,,,-1.69E-06,0.0202225
,,,-1.68E-06,0.02015875
,,,-1.67E-06,0.02023875
,,,-1.66E-06,0.020143125
,,,-1.65E-06,0.02008125
,,,-1.64E-06,0.020169375
,,,-1.63E-06,0.020198125
,,,-1.62E-06,0.020345
,,,-1.61E-06,0.019834375
,,,-1.6E-06,0.020221875
,,,-1.59E-06,0.0204525
,,,-1.58E-06,0.019936875
,,,-1.57E-06,0.020218125
,,,-1.56E-06,0.020144375
,,,-1.55E-06,0.02018375
,,,-1.54E-06,0.020146875
,,,-1.53E-06,0.020259375
,,,-1.52E-06,0.020096875
,,,-1.51E-06,0.020374375
,,,-1.5E-06,0.0200075
,,,-1.49E-06,0.0201425
,,,-1.48E-06,0.020318125
,,,-1.47E-06,0.02008625
,,,-1.46E-06,0.02009
,,,-1.45E-06,0.020005625
,,,-1.44E-06,0.02004625
,,,-1.43E-06,0.020168125
,,,-1.42E-06,0.020265625
,,,-1.41E-06,0.02012375
,,,-1.4E-06,0.02026625
,,,-1.39E-06,0.0202625
,,,-1.38E-06,0.020129375
,,,-1.37E-06,0.0200925
,,,-1.36E-06,0.020040625
,,,-1.35E-06,0.02027
,,,-1.34E-06,0.02021625
,,,-1.33E-06,0.020115
,,,-1.32E-06,0.020113125
,,,-1.31E-06,0.020076875
,,,-1.3E-06,0.020008125
,,,-1.29E-06,0.020045625
,,,-1.28E-06,0.0203825
,,,-1.27E-06,0.020196875
,,,-1.26E-06,0.020116875
,,,-1.25E-06,0.020149375
,,,-1.24E-06,0.020088125
,,,-1.23E-06,0.020185
,,,-1.22E-06,0.020356875
,,,-1.21E-06,0.020011875
,,,-1.2E-06,0.020068125
,,,-1.19E-06,0.020185625
,,,-1.18E-06,0.0201225
,,,-1.17E-06,0.02032125
,,,-1.16E-06,0.020210625
,,,-1.15E-06,0.01999625
,,,-1.14E-06,0.020170625
,,,-1.13E-06,0.019996875
,,,-1.12E-06,0.02016125
,,,-1.11E-06,0.020288125
,,,-1.1E-06,0.020238125
,,,-1.09E-06,0.020165
,,,-1.08E-06,0.01986625
,,,-1.07E-06,0.02017875
,,,-1.06E-06,0.02009
,,,-1.05E-06,0.0201375
,,,-1.04E-06,0.020193125
,,,-1.03E-06,0.02017
,,,-1.02E-06,0.020178125
,,,-1.01E-06,0.02016875
,,,-1E-06,0.020163125
,,,-9.9E-07,0.01999125
,,,-9.8E-07,0.020279375
,,,-9.7E-07,0.020230625
,,,-9.6E-07,0.020245625
,,,-9.5E-07,0.020329375
,,,-9.4E-07,0.02014625
,,,-9.3E-07,0.020165625
,,,-9.2E-07,0.020245625
,,,-9.1E-07,0.019983125
,,,-9E-07,0.020311875
,,,-8.9E-07,0.02004
,,,-8.8E-07,0.02019375
,,,-8.7E-07,0.020279375
,,,-8.6E-07,0.0205225
,,,-8.5E-07,0.02009375
,,,-8.4E-07,0.020009375
,,,-8.3E-07,0.020114375
,,,-8.2E-07,0.02035375
,,,-8.1E-07,0.01998375
,,,-8E-07,0.020259375
,,,-7.9E-07,0.02007875
,,,-7.8E-07,0.02032375
,,,-7.7E-07,0.020205625
,,,-7.6E-07,0.020198125
,,,-7.5E-07,0.02014625
,,,-7.4E-07,0.020234375
,,,-7.3E-07,0.02017625
,,,-7.2E-07,0.02032
,,,-7.1E-07,0.02006375
,,,-7E-07,0.020031875
,,,-6.9E-07,0.020088125
,,,-6.8E-07,0.02026125
,,,-6.7E-07,0.020083125
,,,-6.6E-07,0.02013625
,,,-6.5E-07,0.02039625
,,,-6.4E-07,0.02014375
,,,-6.3E-07,0.019921875
,,,-6.2E-07,0.0200625
,,,-6.1E-07,0.020183125
,,,-6E-07,0.020525625
,,,-5.9E-07,0.02023625
,,,-5.8E-07,0.02017125
,,,-5.7E-07,0.0202575
,,,-5.6E-07,0.01993
,,,-5.5E-07,0.02006375
,,,-5.4E-07,0.020098125
,,,-5.3E-07,0.02019125
,,,-5.2E-07,0.020305625
,,,-5.1E-07,0.020115625
,,,-5E-07,0.020185
,,,-4.9E-07,0.020165
,,,-4.8E-07,0.020468125
,,,-4.7E-07,0.020046875
,,,-4.6E-07,0.020061875
,,,-4.5E-07,0.02026375
,,,-4.4E-07,0.0200925
,,,-4.3E-07,0.02018375
,,,-4.2E-07,0.020260625
,,,-4.1E-07,0.0200675
,,,-4E-07,0.02008375
,,,-3.9E-07,0.020159375
,,,-3.8E-07,0.02008375
,,,-3.7E-07,0.020326875
,,,-3.6E-07,0.02029125
,,,-3.5E-07,0.020324375
,,,-3.4E-07,0.02003375
,,,-3.3E-07,0.020315
,,,-3.2E-07,0.020333125
,,,-3.1E-07,0.020138125
,,,-3E-07,0.020245625
,,,-2.9E-07,0.020070625
,,,-2.8E-07,0.020145
,,,-2.7E-07,0.02002625
,,,-2.6E-07,0.02023375
,,,-2.5E-07,0.0204875
,,,-2.4E-07,0.02004
,,,-2.3E-07,0.020215625
,,,-2.2E-07,0.02016625
,,,-2.1E-07,0.020061875
,,,-2E-07,0.019941875
,,,-1.9E-07,0.02035
,,,-1.8E-07,0.020146875
,,,-1.7E-07,0.019979375
,,,-1.6E-07,0.020283125
,,,-1.5E-07,0.020121875
,,,-1.4E-07,0.02026125
,,,-1.3E-07,0.02016
,,,-1.2E-07,0.020084375
,,,-1.1E-07,0.020310625
,,,-1E-07,0.020244375
,,,-9E-08,0.0202725
,,,-8E-08,0.02015375
,,,-7E-08,0.01997125
,,,-6E-08,0.019985
,,,-5E-08,0.020303125
,,,-4E-08,0.02065375
,,,-3E-08,0.021015
,,,-2E-08,0.01949625
,,,-1E-08,0.018901875
,,,0,0.0185225
,,,1E-08,0.02207375
,,,2E-08,0.022323125
,,,3E-08,0.022101875
,,,4E-08,0.019650625
,,,5E-08,0.0187925
,,,6E-08,0.018424375
,,,7E-08,0.01993
,,,8E-08,0.020725625
,,,9E-08,0.021401875
,,,1E-07,0.0211975
,,,1.1E-07,0.020331875
,,,1.2E-07,0.019675
,,,1.3E-07,0.019413125
,,,1.4E-07,0.019780625
,,,1.5E-07,0.02033875
,,,1.6E-07,0.02045625
,,,1.7E-07,0.020473125
,,,1.8E-07,0.02041125
,,,1.9E-07,0.020209375
,,,2E-07,0.019815
,,,2.1E-07,0.02002625
,,,2.2E-07,0.020134375
,,,2.3E-07,0.020100625
,,,2.4E-07,0.020214375
,,,2.5E-07,0.02014
,,,2.6E-07,0.020178125
,,,2.7E-07,0.02005625
,,,2.8E-07,0.02014
,,,2.9E-07,0.02006375
,,,3E-07,0.020191875
,,,3.1E-07,0.020403125
,,,3.2E-07,0.020418125
,,,3.3E-07,0.020480625
,,,3.4E-07,0.020289375
,,,3.5E-07,0.020008125
,,,3.6E-07,0.020126875
,,,3.7E-07,0.02016625
,,,3.8E-07,0.0201425
,,,3.9E-07,0.02015125
,,,4E-07,0.0201325
,,,4.1E-07,0.020188125
,,,4.2E-07,0.020270625
,,,4.3E-07,0.02021125
,,,4.4E-07,0.020379375
,,,4.5E-07,0.01986
,,,4.6E-07,0.020185625
,,,4.7E-07,0.020056875
,,,4.8E-07,0.020170625
,,,4.9E-07,0.020303125
,,,5E-07,0.020303125
,,,5.1E-07,0.02017625
,,,5.2E-07,0.020159375
,,,5.3E-07,0.019999375
,,,5.4E-07,0.01992625
,,,5.5E-07,0.020106875
,,,5.6E-07,0.020108125
,,,5.7E-07,0.020103125
,,,5.8E-07,0.020140625
,,,5.9E-07,0.020219375
,,,6E-07,0.020134375
,,,6.1E-07,0.020118125
,,,6.2E-07,0.0200675
,,,6.3E-07,0.02021625
,,,6.4E-07,0.020215625
,,,6.5E-07,0.02014375
,,,6.6E-07,0.02013375
,,,6.7E-07,0.02020625
,,,6.8E-07,0.020136875
,,,6.9E-07,0.0201575
,,,7E-07,0.020166875
,,,7.1E-07,0.0199825
,,,7.2E-07,0.020056875
,,,7.3E-07,0.020168125
,,,7.4E-07,0.020089375
,,,7.5E-07,0.0203125
,,,7.6E-07,0.020131875
,,,7.7E-07,0.020224375
,,,7.8E-07,0.02022625
,,,7.9E-07,0.020215
,,,8E-07,0.020135
,,,8.1E-07,0.020190625
,,,8.2E-07,0.020120625
,,,8.3E-07,0.02036375
,,,8.4E-07,0.020214375
,,,8.5E-07,0.02027375
,,,8.6E-07,0.019863125
,,,8.7E-07,0.02009
,,,8.8E-07,0.020041875
,,,8.9E-07,0.020359375
,,,9E-07,0.020203125
,,,9.1E-07,0.02025875
,,,9.2E-07,0.020058125
,,,9.3E-07,0.020051875
,,,9.4E-07,0.02031875
,,,9.5E-07,0.020361875
,,,9.6E-07,0.020065625
,,,9.7E-07,0.02022625
,,,9.8E-07,0.02024375
,,,9.9E-07,0.020213125
,,,1E-06,0.020265625
,,,1.01E-06,0.020175
,,,1.02E-06,0.020055625
,,,1.03E-06,0.01978875
,,,1.04E-06,0.02020875
,,,1.05E-06,0.02012
,,,1.06E-06,0.0202725
,,,1.07E-06,0.0203025
,,,1.08E-06,0.020301875
,,,1.09E-06,0.0202
,,,1.1E-06,0.019999375
,,,1.11E-06,0.01999125
,,,1.12E-06,0.02022375
,,,1.13E-06,0.020294375
,,,1.14E-06,0.020370625
,,,1.15E-06,0.02032
,,,1.16E-06,0.02003
,,,1.17E-06,0.02029
,,,1.18E-06,0.020369375
,,,1.19E-06,0.02026375
,,,1.2E-06,0.020148125
,,,1.21E-06,0.020241875
,,,1.22E-06,0.02022125
,,,1.23E-06,0.020091875
,,,1.24E-06,0.020035625
,,,1.25E-06,0.02022375
,,,1.26E-06,0.020236875
,,,1.27E-06,0.020129375
,,,1.28E-06,0.020201875
,,,1.29E-06,0.02013625
,,,1.3E-06,0.0201025
,,,1.31E-06,0.020184375
,,,1.32E-06,0.02027
,,,1.33E-06,0.020230625
,,,1.34E-06,0.020073125
,,,1.35E-06,0.02025625
,,,1.36E-06,0.02007375
,,,1.37E-06,0.020188125
,,,1.38E-06,0.020068125
,,,1.39E-06,0.02063875
,,,1.4E-06,0.020084375
,,,1.41E-06,0.02013
,,,1.42E-06,0.020095
,,,1.43E-06,0.0199775
,,,1.44E-06,0.020085625
,,,1.45E-06,0.020219375
,,,1.46E-06,0.020271875
,,,1.47E-06,0.020138125
,,,1.48E-06,0.020241875
,,,1.49E-06,0.020334375
,,,1.5E-06,0.02006375
,,,1.51E-06,0.020141875
,,,1.52E-06,0.020044375
,,,1.53E-06,0.0199925
,,,1.54E-06,0.02005125
,,,1.55E-06,0.02008625
,,,1.56E-06,0.0204175
,,,1.57E-06,0.020199375
,,,1.58E-06,0.0203525
,,,1.59E-06,0.0199525
,,,1.6E-06,0.020265
,,,1.61E-06,0.02014125
,,,1.62E-06,0.01996125
,,,1.63E-06,0.02021
,,,1.64E-06,0.020316875
,,,1.65E-06,0.020395
,,,1.66E-06,0.020235
,,,1.67E-06,0.02049375
,,,1.68E-06,0.020291875
,,,1.69E-06,0.019959375
,,,1.7E-06,0.02008
,,,1.71E-06,0.019908125
,,,1.72E-06,0.020335
,,,1.73E-06,0.02028875
,,,1.74E-06,0.020280625
,,,1.75E-06,0.020119375
,,,1.76E-06,0.01993375
,,,1.77E-06,0.02022
,,,1.78E-06,0.02027
,,,1.79E-06,0.0201475
,,,1.8E-06,0.020153125
,,,1.81E-06,0.020111875
,,,1.82E-06,0.020406875
,,,1.83E-06,0.020184375
,,,1.84E-06,0.020174375
,,,1.85E-06,0.020370625
,,,1.86E-06,0.02024875
,,,1.87E-06,0.02041875
,,,1.88E-06,0.02034625
,,,1.89E-06,0.0203225
,,,1.9E-06,0.02021
,,,1.91E-06,0.0202525
,,,1.92E-06,0.02024
,,,1.93E-06,0.02049
,,,1.94E-06,0.020384375
,,,1.95E-06,0.0199725
,,,1.96E-06,0.0202675
,,,1.97E-06,0.02008875
,,,1.98E-06,0.020303125
,,,1.99E-06,0.02034
,,,2E-06,0.020374375
,,,2.01E-06,0.020049375
,,,2.02E-06,0.02001125
,,,2.03E-06,0.020186875
,,,2.04E-06,0.02031125
,,,2.05E-06,0.02042375
,,,2.06E-06,0.020339375
,,,2.07E-06,0.02004625
,,,2.08E-06,0.020134375
,,,2.09E-06,0.020179375
,,,2.1E-06,0.020165
,,,2.11E-06,0.0200675
,,,2.12E-06,0.020334375
,,,2.13E-06,0.0199425
,,,2.14E-06,0.02016625
,,,2.15E-06,0.020498125
,,,2.16E-06,0.020280625
,,,2.17E-06,0.0201775
,,,2.18E-06,0.0200225
,,,2.19E-06,0.020266875
,,,2.2E-06,0.020310625
,,,2.21E-06,0.0201125
,,,2.22E-06,0.02032
,,,2.23E-06,0.0200125
,,,2.24E-06,0.020061875
,,,2.25E-06,0.02025
,,,2.26E-06,0.02024125
,,,2.27E-06,0.020204375
,,,2.28E-06,0.02011
,,,2.29E-06,0.0202325
,,,2.3E-06,0.02016875
,,,2.31E-06,0.02001875
,,,2.32E-06,0.0200525
,,,2.33E-06,0.020223125
,,,2.34E-06,0.019995
,,,2.35E-06,0.020046875
,,,2.36E-06,0.020045625
,,,2.37E-06,0.020335
,,,2.38E-06,0.02026875
,,,2.39E-06,0.01995375
,,,2.4E-06,0.02015625
,,,2.41E-06,0.020103125
,,,2.42E-06,0.019991875
,,,2.43E-06,0.0199125
,,,2.44E-06,0.020195625
,,,2.45E-06,0.02003375
,,,2.46E-06,0.0200425
,,,2.47E-06,0.020051875
,,,2.48E-06,0.020473125
,,,2.49E-06,0.02025125
,,,2.5E-06,0.02029375
,,,2.51E-06,0.020194375
,,,2.52E-06,0.02026125
,,,2.53E-06,0.020338125
,,,2.54E-06,0.0202475
,,,2.55E-06,0.02007375
,,,2.56E-06,0.020076875
,,,2.57E-06,0.02024125
,,,2.58E-06,0.019751875
,,,2.59E-06,0.020276875
,,,2.6E-06,0.020188125
,,,2.61E-06,0.020170625
,,,2.62E-06,0.020399375
,,,2.63E-06,0.0201425
,,,2.64E-06,0.02029375
,,,2.65E-06,0.02044
,,,2.66E-06,0.0201875
,,,2.67E-06,0.020125625
,,,2.68E-06,0.0200275
,,,2.69E-06,0.02011
,,,2.7E-06,0.020059375
,,,2.71E-06,0.0203325
,,,2.72E-06,0.02016125
,,,2.73E-06,0.020240625
,,,2.74E-06,0.02002625
,,,2.75E-06,0.020280625
,,,2.76E-06,0.020150625
,,,2.77E-06,0.019814375
,,,2.78E-06,0.02027875
,,,2.79E-06,0.02009625
,,,2.8E-06,0.02017375
,,,2.81E-06,0.019979375
,,,2.82E-06,0.020509375
,,,2.83E-06,0.020293125
,,,2.84E-06,0.020065
,,,2.85E-06,0.019775
,,,2.86E-06,0.020166875
,,,2.87E-06,0.0203425
,,,2.88E-06,0.0201
,,,2.89E-06,0.02011
,,,2.9E-06,0.020223125
,,,2.91E-06,0.020215
,,,2.92E-06,0.020274375
,,,2.93E-06,0.02018
,,,2.94E-06,0.020166875
,,,2.95E-06,0.020129375
,,,2.96E-06,0.0202525
,,,2.97E-06,0.020266875
,,,2.98E-06,0.020241875
,,,2.99E-06,0.020049375
,,,3E-06,0.020145625
,,,3.01E-06,0.02010875
,,,3.02E-06,0.020131875
,,,3.03E-06,0.020181875
,,,3.04E-06,0.020438125
,,,3.05E-06,0.020091875
,,,3.06E-06,0.020290625
,,,3.07E-06,0.020488125
,,,3.08E-06,0.0201925
,,,3.09E-06,0.02020125
,,,3.1E-06,0.020416875
,,,3.11E-06,0.020171875
,,,3.12E-06,0.020245625
,,,3.13E-06,0.020173125
,,,3.14E-06,0.02022
,,,3.15E-06,0.0199875
,,,3.16E-06,0.020085625
,,,3.17E-06,0.020384375
,,,3.18E-06,0.020444375
,,,3.19E-06,0.0203175
,,,3.2E-06,0.02012
,,,3.21E-06,0.020223125
,,,3.22E-06,0.020065
,,,3.23E-06,0.02018875
,,,3.24E-06,0.020025
,,,3.25E-06,0.01998
,,,3.26E-06,0.02026625
,,,3.27E-06,0.02017625
,,,3.28E-06,0.020173125
,,,3.29E-06,0.020285
,,,3.3E-06,0.02012875
,,,3.31E-06,0.02042125
,,,3.32E-06,0.020024375
,,,3.33E-06,0.019979375
,,,3.34E-06,0.019830625
,,,3.35E-06,0.01999625
,,,3.36E-06,0.020154375
,,,3.37E-06,0.02021125
,,,3.38E-06,0.020108125
,,,3.39E-06,0.02031
,,,3.4E-06,0.02026875
,,,3.41E-06,0.0200625
,,,3.42E-06,0.020085
,,,3.43E-06,0.02033125
,,,3.44E-06,0.020223125
,,,3.45E-06,0.02012875
,,,3.46E-06,0.01993625
,,,3.47E-06,0.020096875
,,,3.48E-06,0.02016375
,,,3.49E-06,0.020036875
,,,3.5E-06,0.0200875
,,,3.51E-06,0.020234375
,,,3.52E-06,0.0202825
,,,3.53E-06,0.020116875
,,,3.54E-06,0.020413125
,,,3.55E-06,0.020003125
,,,3.56E-06,0.020325
,,,3.57E-06,0.020128125
