data/raw/Final_POL_Test_1/SOP085_Ch4.csv

"Record Length",1000,"Points",-5E-06,0.01683
"Sample Interval",1E-08,s,-4.99E-06,0.016755625
"Trigger Point",500,"Samples",-4.98E-06,0.016901875
"Trigger Time",0,s,-4.97E-06,0.01686625
"",,,-4.96E-06,0.01691875
"Horizontal Offset",-5E-06,s,-4.95E-06,0.016868125
,,,-4.94E-06,0.0169175
,,,-4.93E-06,0.016830625
,,,-4.92E-06,0.01688625
,,,-4.91E-06,0.016879375
,,,-4.9E-06,0.016886875
,,,-4.89E-06,0.016945
,,,-4.88E-06,0.016948125
,,,-4.87E-06,0.01667375
,,,-4.86E-06,0.01667625
,,,-4.85E-06,0.016865
,,,-4.84E-06,0.0167625
,,,-4.83E-06,0.016771875
,,,-4.82E-06,0.016875
,,,-4.81E-06,0.016840625
,,,-4.8E-06,0.016676875
,,,-4.79E-06,0.016881875
,,,-4.78E-06,0.01672125
,,,-4.77E-06,0.017006875
,,,-4.76E-06,0.016910625
,,,-4.75E-06,0.016729375
,,,-4.74E-06,0.01673875
,,,-4.73E-06,0.01663125
,,,-4.72E-06,0.016761875
,,,-4.71E-06,0.01655
,,,-4.7E-06,0.017098125
,,,-4.69E-06,0.016666875
,,,-4.68E-06,0.01711125
,,,-4.67E-06,0.016886875
,,,-4.66E-06,0.01688625
,,,-4.65E-06,0.0167875
,,,-4.64E-06,0.016874375
,,,-4.63E-06,0.016655
,,,-4.62E-06,0.01689875
,,,-4.61E-06,0.016801875
,,,-4.6E-06,0.0168975
,,,-4.59E-06,0.01670125
,,,-4.58E-06,0.01677375
,,,-4.57E-06,0.016799375
,,,-4.56E-06,0.01681125
,,,-4.55E-06,0.016855625
,,,-4.54E-06,0.01675625
,,,-4.53E-06,0.01676375
,,,-4.52E-06,0.016755625
,,,-4.51E-06,0.0167625
,,,-4.5E-06,0.016844375
,,,-4.49E-06,0.016836875
,,,-4.48E-06,0.016843125
,,,-4.47E-06,0.016681875
,,,-4.46E-06,0.016683125
,,,-4.45E-06,0.01677125
,,,-4.44E-06,0.016801875
,,,-4.43E-06,0.016831875
,,,-4.42E-06,0.01684
,,,-4.41E-06,0.0165975
,,,-4.4E-06,0.016868125
,,,-4.39E-06,0.016736875
,,,-4.38E-06,0.016789375
,,,-4.37E-06,0.01668
,,,-4.36E-06,0.01655375
,,,-4.35E-06,0.016841875
,,,-4.34E-06,0.01670625
,,,-4.33E-06,0.016673125
,,,-4.32E-06,0.017079375
,,,-4.31E-06,0.016445625
,,,-4.3E-06,0.016776875
,,,-4.29E-06,0.016675
,,,-4.28E-06,0.016854375
,,,-4.27E-06,0.016640625
,,,-4.26E-06,0.0169225
,,,-4.25E-06,0.016745625
,,,-4.24E-06,0.0168175
,,,-4.23E-06,0.016745
,,,-4.22E-06,0.016845
,,,-4.21E-06,0.016709375
,,,-4.2E-06,0.01669875
,,,-4.19E-06,0.016935
,,,-4.18E-06,0.0167425
,,,-4.17E-06,0.016968125
,,,-4.16E-06,0.016735
,,,-4.15E-06,0.01698125
,,,-4.14E-06,0.0167475
,,,-4.13E-06,0.016805625
,,,-4.12E-06,0.01670375
,,,-4.11E-06,0.016820625
,,,-4.1E-06,0.01670375
,,,-4.09E-06,0.016756875
,,,-4.08E-06,0.016683125
,,,-4.07E-06,0.0166025
,,,-4.06E-06,0.016976875
,,,-4.05E-06,0.016800625
,,,-4.04E-06,0.016834375
,,,-4.03E-06,0.016879375
,,,-4.02E-06,0.016779375
,,,-4.01E-06,0.0170125
,,,-4E-06,0.016698125
,,,-3.99E-06,0.017014375
,,,-3.98E-06,0.01691625
,,,-3.97E-06,0.016923125
,,,-3.96E-06,0.0169975
,,,-3.95E-06,0.016841875
,,,-3.94E-06,0.016808125
,,,-3.93E-06,0.01678875
,,,-3.92E-06,0.0168025
,,,-3.91E-06,0.01689625
,,,-3.9E-06,0.016841875
,,,-3.89E-06,0.01682875
,,,-3.88E-06,0.016884375
,,,-3.87E-06,0.0168225
,,,-3.86E-06,0.016860625
,,,-3.85E-06,0.016990625
,,,-3.84E-06,0.0167075
,,,-3.83E-06,0.01693125
,,,-3.82E-06,0.016645
,,,-3.81E-06,0.01656625
,,,-3.8E-06,0.01670125
,,,-3.79E-06,0.016803125
,,,-3.78E-06,0.01698125
,,,-3.77E-06,0.01673
,,,-3.76E-06,0.016615625
,,,-3.75E-06,0.017215625
,,,-3.74E-06,0.01699375
,,,-3.73E-06,0.01687
,,,-3.72E-06,0.016886875
,,,-3.71E-06,0.016618125
,,,-3.7E-06,0.016829375
,,,-3.69E-06,0.01669875
,,,-3.68E-06,0.0167425
,,,-3.67E-06,0.0168525
,,,-3.66E-06,0.016855625
,,,-3.65E-06,0.016813125
,,,-3.64E-06,0.01682625
,,,-3.63E-06,0.0166875
,,,-3.62E-06,0.016688125
,,,-3.61E-06,0.01678625
,,,-3.6E-06,0.01681625
,,,-3.59E-06,0.016661875
,,,-3.58E-06,0.016714375
,,,-3.57E-06,0.01707
,,,-3.56E-06,0.01671375
,,,-3.55E-06,0.016899375
,,,-3.54E-06,0.016823125
,,,-3.53E-06,0.017130625
,,,-3.52E-06,0.016780625
,,,-3.51E-06,0.016945625
,,,-3.5E-06,0.016805625
,,,-3.49E-06,0.016850625
,,,-3.48E-06,0.016734375
,,,-3.47E-06,0.01674
,,,-3.46E-06,0.016414375
,,,-3.45E-06,0.016701875
,,,-3.44E-06,0.016825
,,,-3.43E-06,0.016723125
,,,-3.42E-06,0.016976875
,,,-3.41E-06,0.016819375
,,,-3.4E-06,0.016595625
,,,-3.39E-06,0.01693875
,,,-3.38E-06,0.01660375
,,,-3.37E-06,0.016950625
,,,-3.36E-06,0.016775
,,,-3.35E-06,0.01699
,,,-3.34E-06,0.016824375
,,,-3.33E-06,0.01688
,,,-3.32E-06,0.01675125
,,,-3.31E-06,0.016560625
,,,-3.3E-06,0.016616875
,,,-3.29E-06,0.01658125
,,,-3.28E-06,0.01650875
,,,-3.27E-06,0.016933125
,,,-3.26E-06,0.01675875
,,,-3.25E-06,0.017063125
,,,-3.24E-06,0.01664625
,,,-3.23E-06,0.01671125
,,,-3.22E-06,0.0166775
,,,-3.21E-06,0.01679125
,,,-3.2E-06,0.016835625
,,,-3.19E-06,0.01680625
,,,-3.18E-06,0.016723125
,,,-3.17E-06,0.01698125
,,,-3.16E-06,0.016769375
,,,-3.15E-06,0.016929375
,,,-3.14E-06,0.016940625
,,,-3.13E-06,0.01675625
,,,-3.12E-06,0.01674625
,,,-3.11E-06,0.01674625
,,,-3.1E-06,0.01687625
,,,-3.09E-06,0.01657
,,,-3.08E-06,0.016761875
,,,-3.07E-06,0.0167725
,,,-3.06E-06,0.0168775
,,,-3.05E-06,0.01671875
,,,-3.04E-06,0.01690625
,,,-3.03E-06,0.01681
,,,-3.02E-06,0.0165575
,,,-3.01E-06,0.01698
,,,-3E-06,0.016904375
,,,-2.99E-06,0.016669375
,,,-2.98E-06,0.016783125
,,,-2.97E-06,0.016735
,,,-2.96E-06,0.016771875
,,,-2.95E-06,0.016686875
,,,-2.94E-06,0.01669
,,,-2.93E-06,0.01663375
,,,-2.92E-06,0.016551875
,,,-2.91E-06,0.016798125
,,,-2.9E-06,0.016400625
,,,-2.89E-06,0.01692
,,,-2.88E-06,0.016689375
,,,-2.87E-06,0.016779375
,,,-2.86E-06,0.01657
,,,-2.85E-06,0.016901875
,,,-2.84E-06,0.016758125
,,,-2.83E-06,0.0167625
,,,-2.82E-06,0.016840625
,,,-2.81E-06,0.01686125
,,,-2.8E-06,0.01668625
,,,-2.79E-06,0.016619375
,,,-2.78E-06,0.01653875
,,,-2.77E-06,0.017095625
,,,-2.76E-06,0.016781875
,,,-2.75E-06,0.01695125
,,,-2.74E-06,0.01688625
,,,-2.73E-06,0.016955
,,,-2.72E-06,0.01664125
,,,-2.71E-06,0.016474375
,,,-2.7E-06,0.016766875
,,,-2.69E-06,0.016655625
,,,-2.68E-06,0.016815
,,,-2.67E-06,0.016735
,,,-2.66E-06,0.01672375
,,,-2.65E-06,0.0166375
,,,-2.64E-06,0.016603125
,,,-2.63E-06,0.01674
,,,-2.62E-06,0.016805
,,,-2.61E-06,0.01663375
,,,-2.6E-06,0.0168525
,,,-2.59E-06,0.016951875
,,,-2.58E-06,0.01678125
,,,-2.57E-06,0.016611875
,,,-2.56E-06,0.016848125
,,,-2.55E-06,0.01663875
,,,-2.54E-06,0.016763125
,,,-2.53E-06,0.016645625
,,,-2.52E-06,0.0166675
,,,-2.51E-06,0.01673
,,,-2.5E-06,0.016735625
,,,-2.49E-06,0.016724375
,,,-2.48E-06,0.017119375
,,,-2.47E-06,0.0168825
,,,-2.46E-06,0.0166575
,,,-2.45E-06,0.016995
,,,-2.44E-06,0.016700625
,,,-2.43E-06,0.016694375
,,,-2.42E-06,0.016696875
,,,-2.41E-06,0.016879375
,,,-2.4E-06,0.016678125
,,,-2.39E-06,0.016898125
,,,-2.38E-06,0.01666625
,,,-2.37E-06,0.016529375
,,,-2.36E-06,0.01681375
,,,-2.35E-06,0.01663125
,,,-2.34E-06,0.01698625
,,,-2.33E-06,0.01663875
,,,-2.32E-06,0.01684875
,,,-2.31E-06,0.01682375
,,,-2.3E-06,0.016690625
,,,-2.29E-06,0.01658625
,,,-2.28E-06,0.01676125
,,,-2.27E-06,0.0167275
,,,-2.26E-06,0.016649375
,,,-2.25E-06,0.016839375
,,,-2.24E-06,0.01676875
,,,-2.23E-06,0.016614375
,,,-2.22E-06,0.016678125
,,,-2.21E-06,0.0166
,,,-2.2E-06,0.016535625
,,,-2.19E-06,0.016726875
,,,-2.18E-06,0.016625
,,,-2.17E-06,0.01673625
,,,-2.16E-06,0.016835
,,,-2.15E-06,0.016699375
,,,-2.14E-06,0.016681875
,,,-2.13E-06,0.016856875
,,,-2.12E-06,0.01674875
,,,-2.11E-06,0.0168125
,,,-2.1E-06,0.0167
,,,-2.09E-06,0.016915625
,,,-2.08E-06,0.016848125
,,,-2.07E-06,0.01666
,,,-2.06E-06,0.016313125
,,,-2.05E-06,0.016850625
,,,-2.04E-06,0.01685875
,,,-2.03E-06,0.016843125
,,,-2.02E-06,0.016793125
,,,-2.01E-06,0.016540625
,,,-2E-06,0.0167575
,,,-1.99E-06,0.01687375
,,,-1.98E-06,0.016638125
,,,-1.97E-06,0.01678
,,,-1.96E-06,0.0168525
,,,-1.95E-06,0.01687375
,,,-1.94E-06,0.01666125
,,,-1.93E-06,0.016711875
,,,-1.92E-06,0.01693625
,,,-1.91E-06,0.0166975
,,,-1.9E-06,0.017009375
,,,-1.89E-06,0.016655
,,,-1.88E-06,0.016745
,,,-1.87E-06,0.0166275
,,,-1.86E-06,0.0168375
,,,-1.85E-06,0.016740625
,,,-1.84E-06,0.016841875
,,,-1.83E-06,0.016890625
,,,-1.82E-06,0.01661625
,,,-1.81E-06,0.01676
,,,-1.8E-06,0.0166475
,,,-1.79E-06,0.0168125
,,,-1.78E-06,0.01658125
,,,-1.77E-06,0.0167875
,,,-1.76E-06,0.016730625
,,,-1.75E-06,0.016763125
,,,-1.74E-06,0.016874375
,,,-1.73E-06,0.01683
,,,-1.72E-06,0.016751875
,,,-1.71E-06,0.016780625
,,,-1.7E-06,0.01664
,,,-1.69E-06,0.01676125
,,,-1.68E-06,0.01695
,,,-1.67E-06,0.01674375
,,,-1.66E-06,0.0169025
,,,-1.65E-06,0.01688375
,,,-1.64E-06,0.01684
,,,-1.63E-06,0.016443125
,,,-1.62E-06,0.016900625
,,,-1.61E-06,0.016883125
,,,-1.6E-06,0.016670625
,,,-1.59E-06,0.016803125
,,,-1.58E-06,0.0169325
,,,-1.57E-06,0.016739375
,,,-1.56E-06,0.016665625
,,,-1.55E-06,0.016616875
,,,-1.54E-06,0.016859375
,,,-1.53E-06,0.016795
,,,-1.52E-06,0.016849375
,,,-1.51E-06,0.0170275
,,,-1.5E-06,0.01650125
,,,-1.49E-06,0.016874375
,,,-1.48E-06,0.01652125
,,,-1.47E-06,0.016808125
,,,-1.46E-06,0.016636875
,,,-1.45E-06,0.0166525
,,,-1.44E-06,0.01692375
,,,-1.43E-06,0.016834375
,,,-1.42E-06,0.01691875
,,,-1.41E-06,0.01665875
,,,-1.4E-06,0.016856875
,,,-1.39E-06,0.01680625
,,,-1.38E-06,0.016749375
,,,-1.37E-06,0.016835
,,,-1.36E-06,0.01685125
,,,-1.35E-06,0.0167475
,,,-1.34E-06,0.016744375
,,,-1.33E-06,0.01679
,,,-1.32E-06,0.016549375
,,,-1.31E-06,0.016729375
,,,-1.3E-06,0.016485625
,,,-1.29E-06,0.0167975
,,,-1.28E-06,0.016690625
,,,-1.27E-06,0.016504375
,,,-1.26E-06,0.016784375
,,,-1.25E-06,0.01671
,,,-1.24E-06,0.016684375
,,,-1.23E-06,0.016738125
,,,-1.22E-06,0.0167175
,,,-1.21E-06,0.016645625
,,,-1.2E-06,0.01678875
,,,-1.19E-06,0.01680125
,,,-1.18E-06,0.016835
,,,-1.17E-06,0.016666875
,,,-1.16E-06,0.01665375
,,,-1.15E-06,0.01654875
,,,-1.14E-06,0.01647625
,,,-1.13E-06,0.01695875
,,,-1.12E-06,0.016518125
,,,-1.11E-06,0.016848125
,,,-1.1E-06,0.01689375
,,,-1.09E-06,0.0168875
,,,-1.08E-06,0.01679375
,,,-1.07E-06,0.016955
,,,-1.06E-06,0.01672375
,,,-1.05E-06,0.01674375
,,,-1.04E-06,0.0168125
,,,-1.03E-06,0.016838125
,,,-1.02E-06,0.01660125
,,,-1.01E-06,0.01669
,,,-1E-06,0.016874375
,,,-9.9E-07,0.016840625
,,,-9.8E-07,0.01686375
,,,-9.7E-07,0.0165075
,,,-9.6E-07,0.01667375
,,,-9.5E-07,0.01678125
,,,-9.4E-07,0.01668375
,,,-9.3E-07,0.01689125
,,,-9.2E-07,0.01675375
,,,-9.1E-07,0.016734375
,,,-9E-07,0.01661375
,,,-8.9E-07,0.01682625
,,,-8.8E-07,0.016614375
,,,-8.7E-07,0.016803125
,,,-8.6E-07,0.016944375
,,,-8.5E-07,0.016691875
,,,-8.4E-07,0.01671875
,,,-8.3E-07,0.01672125
,,,-8.2E-07,0.016965625
,,,-8.1E-07,0.01694625
,,,-8E-07,0.016835625
,,,-7.9E-07,0.016938125
,,,-7.8E-07,0.016860625
,,,-7.7E-07,0.01684125
,,,-7.6E-07,0.01701375
,,,-7.5E-07,0.01667125
,,,-7.4E-07,0.01695125
,,,-7.3E-07,0.016900625
,,,-7.2E-07,0.0166375
,,,-7.1E-07,0.016791875
,,,-7E-07,0.01675125
,,,-6.9E-07,0.016565625
,,,-6.8E-07,0.016934375
,,,-6.7E-07,0.01675125
,,,-6.6E-07,0.016834375
,,,-6.5E-07,0.016829375
,,,-6.4E-07,0.016931875
,,,-6.3E-07,0.0164625
,,,-6.2E-07,0.016794375
,,,-6.1E-07,0.016753125
,,,-6E-07,0.016648125
,,,-5.9E-07,0.016623125
,,,-5.8E-07,0.016734375
,,,-5.7E-07,0.016760625
,,,-5.6E-07,0.01686125
,,,-5.5E-07,0.01658
,,,-5.4E-07,0.0167025
,,,-5.3E-07,0.016709375
,,,-5.2E-07,0.01679125
,,,-5.1E-07,0.016771875
,,,-5E-07,0.016986875
,,,-4.9E-07,0.01684
,,,-4.8E-07,0.01662
,,,-4.7E-07,0.016585
,,,-4.6E-07,0.016730625
,,,-4.5E-07,0.016675625
,,,-4.4E-07,0.016773125
,,,-4.3E-07,0.01675125
,,,-4.2E-07,0.0169175
,,,-4.1E-07,0.016721875
,,,-4E-07,0.01663875
,,,-3.9E-07,0.016700625
,,,-3.8E-07,0.016651875
,,,-3.7E-07,0.016579375
,,,-3.6E-07,0.01694
,,,-3.5E-07,0.01676125
,,,-3.4E-07,0.01712875
,,,-3.3E-07,0.016815625
,,,-3.2E-07,0.01656
,,,-3.1E-07,0.0169575
,,,-3E-07,0.01699875
,,,-2.9E-07,0.016460625
,,,-2.8E-07,0.016918125
,,,-2.7E-07,0.016639375
,,,-2.6E-07,0.016983125
,,,-2.5E-07,0.0169125
,,,-2.4E-07,0.016714375
,,,-2.3E-07,0.01679
,,,-2.2E-07,0.016865625
,,,-2.1E-07,0.016696875
,,,-2E-07,0.01682
,,,-1.9E-07,0.0169025
,,,-1.8E-07,0.016681875
,,,-1.7E-07,0.016993125
,,,-1.6E-07,0.01672375
,,,-1.5E-07,0.016775
,,,-1.4E-07,0.0167525
,,,-1.3E-07,0.0169325
,,,-1.2E-07,0.01639625
,,,-1.1E-07,0.01677
,,,-1E-07,0.0169025
,,,-9E-08,0.016949375
,,,-8E-08,0.016864375
,,,-7E-08,0.016711875
,,,-6E-08,0.016605
,,,-5E-08,0.016718125
,,,-4E-08,0.017760625
,,,-3E-08,0.01764375
,,,-2E-08,0.015064375
,,,-1E-08,0.01355625
,,,0,0.015508125
,,,1E-08,0.01944125
,,,2E-08,0.020756875
,,,3E-08,0.01876625
,,,4E-08,0.015399375
,,,5E-08,0.014046875
,,,6E-08,0.014441875
,,,7E-08,0.01657125
,,,8E-08,0.01774875
,,,9E-08,0.01884375
,,,1E-07,0.018028125
,,,1.1E-07,0.01690625
,,,1.2E-07,0.0153575
,,,1.3E-07,0.01567125
,,,1.4E-07,0.016370625
,,,1.5E-07,0.01711
,,,1.6E-07,0.01731
,,,1.7E-07,0.01706
,,,1.8E-07,0.01701125
,,,1.9E-07,0.01672
,,,2E-07,0.01640625
,,,2.1E-07,0.016340625
,,,2.2E-07,0.016556875
,,,2.3E-07,0.016765
,,,2.4E-07,0.01708125
,,,2.5E-07,0.01694375
,,,2.6E-07,0.016999375
,,,2.7E-07,0.01694625
,,,2.8E-07,0.016803125
,,,2.9E-07,0.016783125
,,,3E-07,0.016830625
,,,3.1E-07,0.0166825
,,,3.2E-07,0.01686625
,,,3.3E-07,0.0170925
,,,3.4E-07,0.0169275
,,,3.5E-07,0.01686125
,,,3.6E-07,0.016720625
,,,3.7E-07,0.016711875
,,,3.8E-07,0.01686375
,,,3.9E-07,0.016761875
,,,4E-07,0.016605625
,,,4.1E-07,0.0167825
,,,4.2E-07,0.017041875
,,,4.3E-07,0.016553125
,,,4.4E-07,0.016746875
,,,4.5E-07,0.01677125
,,,4.6E-07,0.016605
,,,4.7E-07,0.016614375
,,,4.8E-07,0.0166825
,,,4.9E-07,0.01689625
,,,5E-07,0.016958125
,,,5.1E-07,0.016501875
,,,5.2E-07,0.016686875
,,,5.3E-07,0.01681625
,,,5.4E-07,0.016789375
,,,5.5E-07,0.01667
,,,5.6E-07,0.0169725
,,,5.7E-07,0.016711875
,,,5.8E-07,0.016810625
,,,5.9E-07,0.016784375
,,,6E-07,0.016680625
,,,6.1E-07,0.016635
,,,6.2E-07,0.01675875
,,,6.3E-07,0.01673875
,,,6.4E-07,0.01679
,,,6.5E-07,0.0167425
,,,6.6E-07,0.01650875
,,,6.7E-07,0.01672375
,,,6.8E-07,0.01665625
,,,6.9E-07,0.01657125
,,,7E-07,0.016849375
,,,7.1E-07,0.016871875
,,,7.2E-07,0.016860625
,,,7.3E-07,0.01682375
,,,7.4E-07,0.0167625
,,,7.5E-07,0.016580625
,,,7.6E-07,0.016624375
,,,7.7E-07,0.016464375
,,,7.8E-07,0.01677125
,,,7.9E-07,0.01681875
,,,8E-07,0.01683875
,,,8.1E-07,0.0168
,,,8.2E-07,0.016899375
,,,8.3E-07,0.016849375
,,,8.4E-07,0.01671
,,,8.5E-07,0.01687375
,,,8.6E-07,0.01672875
,,,8.7E-07,0.016703125
,,,8.8E-07,0.01681625
,,,8.9E-07,0.01667875
,,,9E-07,0.01696
,,,9.1E-07,0.017065
,,,9.2E-07,0.0169525
,,,9.3E-07,0.016696875
,,,9.4E-07,0.01663
,,,9.5E-07,0.016886875
,,,9.6E-07,0.01670875
,,,9.7E-07,0.016816875
,,,9.8E-07,0.016749375
,,,9.9E-07,0.016700625
,,,1E-06,0.016924375
,,,1.01E-06,0.016800625
,,,1.02E-06,0.016641875
,,,1.03E-06,0.01658
,,,1.04E-06,0.016963125
,,,1.05E-06,0.016828125
,,,1.06E-06,0.016705
,,,1.07E-06,0.0168425
,,,1.08E-06,0.016800625
,,,1.09E-06,0.016750625
,,,1.1E-06,0.016695625
,,,1.11E-06,0.016785625
,,,1.12E-06,0.01668375
,,,1.13E-06,0.017014375
,,,1.14E-06,0.016708125
,,,1.15E-06,0.016604375
,,,1.16E-06,0.016915
,,,1.17E-06,0.01674
,,,1.18E-06,0.016601875
,,,1.19E-06,0.016773125
,,,1.2E-06,0.016819375
,,,1.21E-06,0.016728125
,,,1.22E-06,0.01686875
,,,1.23E-06,0.01660125
,,,1.24E-06,0.017035
,,,1.25E-06,0.01693125
,,,1.26E-06,0.016575
,,,1.27E-06,0.016793125
,,,1.28E-06,0.016960625
,,,1.29E-06,0.016898125
,,,1.3E-06,0.016815625
,,,1.31E-06,0.016775
,,,1.32E-06,0.016878125
,,,1.33E-06,0.016893125
,,,1.34E-06,0.0165575
,,,1.35E-06,0.016758125
,,,1.36E-06,0.01675625
,,,1.37E-06,0.01667625
,,,1.38E-06,0.016596875
,,,1.39E-06,0.01657125
,,,1.4E-06,0.016563125
,,,1.41E-06,0.0168025
,,,1.42E-06,0.016654375
,,,1.43E-06,0.01684375
,,,1.44E-06,0.016593125
,,,1.45E-06,0.0167925
,,,1.46E-06,0.01703625
,,,1.47E-06,0.016908125
,,,1.48E-06,0.01674
,,,1.49E-06,0.016855625
,,,1.5E-06,0.016804375
,,,1.51E-06,0.01664
,,,1.52E-06,0.0167875
,,,1.53E-06,0.016845625
,,,1.54E-06,0.016555
,,,1.55E-06,0.016744375
,,,1.56E-06,0.01700625
,,,1.57E-06,0.016893125
,,,1.58E-06,0.016696875
,,,1.59E-06,0.016458125
,,,1.6E-06,0.016675
,,,1.61E-06,0.01688125
,,,1.62E-06,0.01671625
,,,1.63E-06,0.0168425
,,,1.64E-06,0.0168575
,,,1.65E-06,0.01682125
,,,1.66E-06,0.017029375
,,,1.67E-06,0.016923125
,,,1.68E-06,0.017028125
,,,1.69E-06,0.016723125
,,,1.7E-06,0.01681625
,,,1.71E-06,0.016746875
,,,1.72E-06,0.01652625
,,,1.73E-06,0.016785625
,,,1.74E-06,0.01662875
,,,1.75E-06,0.01676375
,,,1.76E-06,0.016865
,,,1.77E-06,0.0165725
,,,1.78E-06,0.016900625
,,,1.79E-06,0.01684875
,,,1.8E-06,0.016818125
,,,1.81E-06,0.016623125
,,,1.82E-06,0.017005
,,,1.83E-06,0.01691375
,,,1.84E-06,0.01668125
,,,1.85E-06,0.016905
,,,1.86E-06,0.016748125
,,,1.87E-06,0.0168725
,,,1.88E-06,0.016885625
,,,1.89E-06,0.016566875
,,,1.9E-06,0.017199375
,,,1.91E-06,0.016605625
,,,1.92E-06,0.016720625
,,,1.93E-06,0.016755
,,,1.94E-06,0.016720625
,,,1.95E-06,0.01675375
,,,1.96E-06,0.016915
,,,1.97E-06,0.01693
,,,1.98E-06,0.01668875
,,,1.99E-06,0.016664375
,,,2E-06,0.016665
,,,2.01E-06,0.01677125
,,,2.02E-06,0.01665375
,,,2.03E-06,0.016618125
,,,2.04E-06,0.016815
,,,2.05E-06,0.01683875
,,,2.06E-06,0.016929375
,,,2.07E-06,0.01692375
,,,2.08E-06,0.016758125
,,,2.09E-06,0.01668125
,,,2.1E-06,0.0167325
,,,2.11E-06,0.016748125
,,,2.12E-06,0.016811875
,,,2.13E-06,0.016755625
,,,2.14E-06,0.016780625
,,,2.15E-06,0.01727375
,,,2.16E-06,0.016798125
,,,2.17E-06,0.016698125
,,,2.18E-06,0.01686375
,,,2.19E-06,0.016833125
,,,2.2E-06,0.01673875
,,,2.21E-06,0.0168925
,,,2.22E-06,0.016761875
,,,2.23E-06,0.016730625
,,,2.24E-06,0.01675
,,,2.25E-06,0.016760625
,,,2.26E-06,0.016746875
,,,2.27E-06,0.016585
,,,2.28E-06,0.0166125
,,,2.29E-06,0.01673625
,,,2.3E-06,0.016713125
,,,2.31E-06,0.01690875
,,,2.32E-06,0.01672375
,,,2.33E-06,0.0169525
,,,2.34E-06,0.01667
,,,2.35E-06,0.016765
,,,2.36E-06,0.016765
,,,2.37E-06,0.01651
,,,2.38E-06,0.0167475
,,,2.39E-06,0.016745625
,,,2.4E-06,0.016810625
,,,2.41E-06,0.01669125
,,,2.42E-06,0.016825
,,,2.43E-06,0.01668375
,,,2.44E-06,0.016710625
,,,2.45E-06,0.0166175
,,,2.46E-06,0.016518125
,,,2.47E-06,0.016943125
,,,2.48E-06,0.016949375
,,,2.49E-06,0.016995
,,,2.5E-06,0.01677625
,,,2.51E-06,0.016813125
,,,2.52E-06,0.016785
,,,2.53E-06,0.016621875
,,,2.54E-06,0.0168125
,,,2.55E-06,0.016955625
,,,2.56E-06,0.01695375
,,,2.57E-06,0.0168625
,,,2.58E-06,0.01661375
,,,2.59E-06,0.016779375
,,,2.6E-06,0.016894375
,,,2.61E-06,0.016491875
,,,2.62E-06,0.016758125
,,,2.63E-06,0.016750625
,,,2.64E-06,0.016643125
,,,2.65E-06,0.016790625
,,,2.66E-06,0.01677625
,,,2.67E-06,0.016604375
,,,2.68E-06,0.016571875
,,,2.69E-06,0.016708125
,,,2.7E-06,0.016811875
,,,2.71E-06,0.016704375
,,,2.72E-06,0.016749375
,,,2.73E-06,0.01687875
,,,2.74E-06,0.01671
,,,2.75E-06,0.016675625
,,,2.76E-06,0.01684375
,,,2.77E-06,0.017070625
,,,2.78E-06,0.01690875
,,,2.79E-06,0.01686
,,,2.8E-06,0.01693
,,,2.81E-06,0.01699
,,,2.82E-06,0.016768125
,,,2.83E-06,0.01679125
,,,2.84E-06,0.016885625
,,,2.85E-06,0.01671
,,,2.86E-06,0.0166875
,,,2.87E-06,0.016819375
,,,2.88E-06,0.0165375
,,,2.89E-06,0.016655625
,,,2.9E-06,0.016805
,,,2.91E-06,0.01688125
,,,2.92E-06,0.0166975
,,,2.93E-06,0.01685125
,,,2.94E-06,0.0168075
,,,2.95E-06,0.016749375
,,,2.96E-06,0.016863125
,,,2.97E-06,0.016841875
,,,2.98E-06,0.016978125
,,,2.99E-06,0.016808125
,,,3E-06,0.01678375
,,,3.01E-06,0.016791875
,,,3.02E-06,0.016809375
,,,3.03E-06,0.016516875
,,,3.04E-06,0.01691375
,,,3.05E-06,0.01684875
,,,3.06E-06,0.016763125
,,,3.07E-06,0.01683375
,,,3.08E-06,0.0167675
,,,3.09E-06,0.016489375
,,,3.1E-06,0.01682
,,,3.11E-06,0.01686375
,,,3.12E-06,0.01671375
,,,3.13E-06,0.016603125
,,,3.14E-06,0.016714375
,,,3.15E-06,0.016751875
,,,3.16E-06,0.016615625
,,,3.17E-06,0.016871875
,,,3.18E-06,0.016866875
,,,3.19E-06,0.016944375
,,,3.2E-06,0.016765625
,,,3.21E-06,0.01668
,,,3.22E-06,0.01675625
,,,3.23E-06,0.016840625
,,,3.24E-06,0.016600625
,,,3.25E-06,0.01678
,,,3.26E-06,0.016805
,,,3.27E-06,0.0168075
,,,3.28E-06,0.01672
,,,3.29E-06,0.01679125
,,,3.3E-06,0.016938125
,,,3.31E-06,0.0170225
,,,3.32E-06,0.016764375
,,,3.33E-06,0.01713
,,,3.34E-06,0.0168275
,,,3.35E-06,0.017223125
,,,3.36E-06,0.01664625
,,,3.37E-06,0.01677125
,,,3.38E-06,0.016749375
,,,3.39E-06,0.016830625
,,,3.4E-06,0.016860625
,,,3.41E-06,0.016749375
,,,3.42E-06,0.016956875
,,,3.43E-06,0.01709875
,,,3.44E-06,0.01690375
,,,3.45E-06,0.016673125
,,,3.46E-06,0.01679625
,,,3.47E-06,0.0165375
,,,3.48E-06,0.016705625
,,,3.49E-06,0.016656875
,,,3.5E-06,0.0167275
,,,3.51E-06,0.0167675
,,,3.52E-06,0.01672125
,,,3.53E-06,0.0167775
,,,3.54E-06,0.016970625
,,,3.55E-06,0.0167825
,,,3.56E-06,0.016741875
,,,3.57E-06,0.016773125
