data/raw/Final_POL_Test_1/SOP051_Ch1.csv

"Record Length",1000,"Points",-5E-06,0.007304375
"Sample Interval",1E-08,s,-4.99E-06,0.007359375
"Trigger Point",500,"Samples",-4.98E-06,0.0071125
"Trigger Time",0,s,-4.97E-06,0.0070325
"",,,-4.96E-06,0.007224375
"Horizontal Offset",-5E-06,s,-4.95E-06,0.007275625
,,,-4.94E-06,0.00711375
,,,-4.93E-06,0.007108125
,,,-4.92E-06,0.007249375
,,,-4.91E-06,0.007250625
,,,-4.9E-06,0.00721125
,,,-4.89E-06,0.007315
,,,-4.88E-06,0.00709125
,,,-4.87E-06,0.0072475
,,,-4.86E-06,0.0072175
,,,-4.85E-06,0.007061875
,,,-4.84E-06,0.00711
,,,-4.83E-06,0.007205
,,,-4.82E-06,0.0071325
,,,-4.81E-06,0.007071875
,,,-4.8E-06,0.0073875
,,,-4.79E-06,0.0071975
,,,-4.78E-06,0.00736875
,,,-4.77E-06,0.007161875
,,,-4.76E-06,0.007175625
,,,-4.75E-06,0.00735125
,,,-4.74E-06,0.007134375
,,,-4.73E-06,0.0072775
,,,-4.72E-06,0.007535625
,,,-4.71E-06,0.007084375
,,,-4.7E-06,0.007001875
,,,-4.69E-06,0.007121875
,,,-4.68E-06,0.007124375
,,,-4.67E-06,0.007165625
,,,-4.66E-06,0.00713
,,,-4.65E-06,0.007158125
,,,-4.64E-06,0.007181875
,,,-4.63E-06,0.007066875
,,,-4.62E-06,0.007218125
,,,-4.61E-06,0.007060625
,,,-4.6E-06,0.006845
,,,-4.59E-06,0.007168125
,,,-4.58E-06,0.0069975
,,,-4.57E-06,0.007364375
,,,-4.56E-06,0.007125625
,,,-4.55E-06,0.007191875
,,,-4.54E-06,0.007156875
,,,-4.53E-06,0.007066875
,,,-4.52E-06,0.00722875
,,,-4.51E-06,0.0073275
,,,-4.5E-06,0.007236875
,,,-4.49E-06,0.0071675
,,,-4.48E-06,0.00714625
,,,-4.47E-06,0.007064375
,,,-4.46E-06,0.007459375
,,,-4.45E-06,0.007313125
,,,-4.44E-06,0.007194375
,,,-4.43E-06,0.007074375
,,,-4.42E-06,0.00716375
,,,-4.41E-06,0.007221875
,,,-4.4E-06,0.007186875
,,,-4.39E-06,0.006925625
,,,-4.38E-06,0.007028125
,,,-4.37E-06,0.00707
,,,-4.36E-06,0.007063125
,,,-4.35E-06,0.00700125
,,,-4.34E-06,0.0072625
,,,-4.33E-06,0.00729
,,,-4.32E-06,0.0070175
,,,-4.31E-06,0.0072975
,,,-4.3E-06,0.007296875
,,,-4.29E-06,0.007043125
,,,-4.28E-06,0.00725125
,,,-4.27E-06,0.00698625
,,,-4.26E-06,0.00707875
,,,-4.25E-06,0.007340625
,,,-4.24E-06,0.007305625
,,,-4.23E-06,0.0073575
,,,-4.22E-06,0.00746
,,,-4.21E-06,0.00725375
,,,-4.2E-06,0.007121875
,,,-4.19E-06,0.007100625
,,,-4.18E-06,0.00694375
,,,-4.17E-06,0.007151875
,,,-4.16E-06,0.0072575
,,,-4.15E-06,0.007245625
,,,-4.14E-06,0.00707625
,,,-4.13E-06,0.007215625
,,,-4.12E-06,0.007159375
,,,-4.11E-06,0.00710875
,,,-4.1E-06,0.00712875
,,,-4.09E-06,0.00705
,,,-4.08E-06,0.007301875
,,,-4.07E-06,0.007404375
,,,-4.06E-06,0.007149375
,,,-4.05E-06,0.007346875
,,,-4.04E-06,0.007154375
,,,-4.03E-06,0.006950625
,,,-4.02E-06,0.007089375
,,,-4.01E-06,0.007263125
,,,-4E-06,0.0071925
,,,-3.99E-06,0.007005625
,,,-3.98E-06,0.007011875
,,,-3.97E-06,0.00753625
,,,-3.96E-06,0.0072075
,,,-3.95E-06,0.006948125
,,,-3.94E-06,0.007148125
,,,-3.93E-06,0.007361875
,,,-3.92E-06,0.0072875
,,,-3.91E-06,0.0070425
,,,-3.9E-06,0.007406875
,,,-3.89E-06,0.00713125
,,,-3.88E-06,0.007195
,,,-3.87E-06,0.00716375
,,,-3.86E-06,0.0070025
,,,-3.85E-06,0.007283125
,,,-3.84E-06,0.00731375
,,,-3.83E-06,0.007156875
,,,-3.82E-06,0.00731375
,,,-3.81E-06,0.006949375
,,,-3.8E-06,0.00734125
,,,-3.79E-06,0.007305
,,,-3.78E-06,0.00718375
,,,-3.77E-06,0.007310625
,,,-3.76E-06,0.00714
,,,-3.75E-06,0.007175625
,,,-3.74E-06,0.00709375
,,,-3.73E-06,0.007354375
,,,-3.72E-06,0.007254375
,,,-3.71E-06,0.00720125
,,,-3.7E-06,0.007124375
,,,-3.69E-06,0.006979375
,,,-3.68E-06,0.007059375
,,,-3.67E-06,0.007154375
,,,-3.66E-06,0.00713875
,,,-3.65E-06,0.007455625
,,,-3.64E-06,0.007021875
,,,-3.63E-06,0.006970625
,,,-3.62E-06,0.007303125
,,,-3.61E-06,0.007120625
,,,-3.6E-06,0.00708
,,,-3.59E-06,0.0073025
,,,-3.58E-06,0.007496875
,,,-3.57E-06,0.00723625
,,,-3.56E-06,0.00697625
,,,-3.55E-06,0.00694
,,,-3.54E-06,0.007085
,,,-3.53E-06,0.007225
,,,-3.52E-06,0.007195625
,,,-3.51E-06,0.007265
,,,-3.5E-06,0.007104375
,,,-3.49E-06,0.007450625
,,,-3.48E-06,0.0072375
,,,-3.47E-06,0.00726875
,,,-3.46E-06,0.007011875
,,,-3.45E-06,0.007199375
,,,-3.44E-06,0.0072775
,,,-3.43E-06,0.0070775
,,,-3.42E-06,0.007288125
,,,-3.41E-06,0.007405
,,,-3.4E-06,0.007254375
,,,-3.39E-06,0.006948125
,,,-3.38E-06,0.007194375
,,,-3.37E-06,0.00717875
,,,-3.36E-06,0.00717625
,,,-3.35E-06,0.007060625
,,,-3.34E-06,0.00729
,,,-3.33E-06,0.007155625
,,,-3.32E-06,0.007273125
,,,-3.31E-06,0.007061875
,,,-3.3E-06,0.007230625
,,,-3.29E-06,0.0069875
,,,-3.28E-06,0.0071075
,,,-3.27E-06,0.007043125
,,,-3.26E-06,0.007045
,,,-3.25E-06,0.007405625
,,,-3.24E-06,0.007131875
,,,-3.23E-06,0.00723625
,,,-3.22E-06,0.0069375
,,,-3.21E-06,0.00732875
,,,-3.2E-06,0.006969375
,,,-3.19E-06,0.007294375
,,,-3.18E-06,0.0074225
,,,-3.17E-06,0.00707125
,,,-3.16E-06,0.00724875
,,,-3.15E-06,0.007164375
,,,-3.14E-06,0.007031875
,,,-3.13E-06,0.00700875
,,,-3.12E-06,0.007254375
,,,-3.11E-06,0.00714375
,,,-3.1E-06,0.007129375
,,,-3.09E-06,0.0073275
,,,-3.08E-06,0.00734625
,,,-3.07E-06,0.0073675
,,,-3.06E-06,0.0073925
,,,-3.05E-06,0.007215625
,,,-3.04E-06,0.006989375
,,,-3.03E-06,0.006866875
,,,-3.02E-06,0.007265
,,,-3.01E-06,0.007125
,,,-3E-06,0.00772125
,,,-2.99E-06,0.007094375
,,,-2.98E-06,0.007143125
,,,-2.97E-06,0.00731625
,,,-2.96E-06,0.007215
,,,-2.95E-06,0.00751125
,,,-2.94E-06,0.0071325
,,,-2.93E-06,0.00723125
,,,-2.92E-06,0.007170625
,,,-2.91E-06,0.007385
,,,-2.9E-06,0.007174375
,,,-2.89E-06,0.007270625
,,,-2.88E-06,0.00683125
,,,-2.87E-06,0.00697375
,,,-2.86E-06,0.00694
,,,-2.85E-06,0.007076875
,,,-2.84E-06,0.007435
,,,-2.83E-06,0.007403125
,,,-2.82E-06,0.007099375
,,,-2.81E-06,0.00736875
,,,-2.8E-06,0.0072375
,,,-2.79E-06,0.007184375
,,,-2.78E-06,0.00725
,,,-2.77E-06,0.007138125
,,,-2.76E-06,0.007249375
,,,-2.75E-06,0.007324375
,,,-2.74E-06,0.007275
,,,-2.73E-06,0.007259375
,,,-2.72E-06,0.00728125
,,,-2.71E-06,0.0072125
,,,-2.7E-06,0.007274375
,,,-2.69E-06,0.007090625
,,,-2.68E-06,0.0072875
,,,-2.67E-06,0.007138125
,,,-2.66E-06,0.007150625
,,,-2.65E-06,0.0072425
,,,-2.64E-06,0.00727875
,,,-2.63E-06,0.0073
,,,-2.62E-06,0.00718375
,,,-2.61E-06,0.00709375
,,,-2.6E-06,0.007294375
,,,-2.59E-06,0.007215
,,,-2.58E-06,0.007166875
,,,-2.57E-06,0.00706
,,,-2.56E-06,0.00716125
,,,-2.55E-06,0.00702875
,,,-2.54E-06,0.00727375
,,,-2.53E-06,0.007233125
,,,-2.52E-06,0.007295
,,,-2.51E-06,0.00718625
,,,-2.5E-06,0.00723875
,,,-2.49E-06,0.00747625
,,,-2.48E-06,0.007175625
,,,-2.47E-06,0.007065
,,,-2.46E-06,0.0074
,,,-2.45E-06,0.0070325
,,,-2.44E-06,0.007195
,,,-2.43E-06,0.00734875
,,,-2.42E-06,0.00719125
,,,-2.41E-06,0.007065
,,,-2.4E-06,0.007478125
,,,-2.39E-06,0.007379375
,,,-2.38E-06,0.006886875
,,,-2.37E-06,0.0072475
,,,-2.36E-06,0.007270625
,,,-2.35E-06,0.007058125
,,,-2.34E-06,0.00718375
,,,-2.33E-06,0.007285625
,,,-2.32E-06,0.0070325
,,,-2.31E-06,0.00703
,,,-2.3E-06,0.007198125
,,,-2.29E-06,0.007259375
,,,-2.28E-06,0.0074525
,,,-2.27E-06,0.0069775
,,,-2.26E-06,0.0072225
,,,-2.25E-06,0.007075625
,,,-2.24E-06,0.007175625
,,,-2.23E-06,0.007244375
,,,-2.22E-06,0.007138125
,,,-2.21E-06,0.00704375
,,,-2.2E-06,0.007119375
,,,-2.19E-06,0.0071225
,,,-2.18E-06,0.007143125
,,,-2.17E-06,0.007215625
,,,-2.16E-06,0.0069625
,,,-2.15E-06,0.007305625
,,,-2.14E-06,0.00719
,,,-2.13E-06,0.007189375
,,,-2.12E-06,0.006855625
,,,-2.11E-06,0.007289375
,,,-2.1E-06,0.007149375
,,,-2.09E-06,0.00724625
,,,-2.08E-06,0.007171875
,,,-2.07E-06,0.00728875
,,,-2.06E-06,0.006865
,,,-2.05E-06,0.007103125
,,,-2.04E-06,0.007026875
,,,-2.03E-06,0.00727
,,,-2.02E-06,0.007128125
,,,-2.01E-06,0.006973125
,,,-2E-06,0.0073075
,,,-1.99E-06,0.007111875
,,,-1.98E-06,0.00707375
,,,-1.97E-06,0.007435625
,,,-1.96E-06,0.007030625
,,,-1.95E-06,0.006973125
,,,-1.94E-06,0.007064375
,,,-1.93E-06,0.007198125
,,,-1.92E-06,0.0072075
,,,-1.91E-06,0.007334375
,,,-1.9E-06,0.0071175
,,,-1.89E-06,0.007350625
,,,-1.88E-06,0.00716375
,,,-1.87E-06,0.00735875
,,,-1.86E-06,0.00707
,,,-1.85E-06,0.0073775
,,,-1.84E-06,0.007229375
,,,-1.83E-06,0.007258125
,,,-1.82E-06,0.007178125
,,,-1.81E-06,0.007368125
,,,-1.8E-06,0.00709375
,,,-1.79E-06,0.00727375
,,,-1.78E-06,0.0072175
,,,-1.77E-06,0.0072975
,,,-1.76E-06,0.00712
,,,-1.75E-06,0.0074475
,,,-1.74E-06,0.00710875
,,,-1.73E-06,0.007158125
,,,-1.72E-06,0.00693
,,,-1.71E-06,0.007193125
,,,-1.7E-06,0.0070625
,,,-1.69E-06,0.00724625
,,,-1.68E-06,0.007383125
,,,-1.67E-06,0.00742375
,,,-1.66E-06,0.007243125
,,,-1.65E-06,0.007318125
,,,-1.64E-06,0.007326875
,,,-1.63E-06,0.00709375
,,,-1.62E-06,0.00697
,,,-1.61E-06,0.007271875
,,,-1.6E-06,0.00724375
,,,-1.59E-06,0.007605625
,,,-1.58E-06,0.00735875
,,,-1.57E-06,0.00698625
,,,-1.56E-06,0.00737875
,,,-1.55E-06,0.0072625
,,,-1.54E-06,0.007073125
,,,-1.53E-06,0.00722875
,,,-1.52E-06,0.007358125
,,,-1.51E-06,0.007075
,,,-1.5E-06,0.007390625
,,,-1.49E-06,0.00728125
,,,-1.48E-06,0.00699
,,,-1.47E-06,0.0072075
,,,-1.46E-06,0.007049375
,,,-1.45E-06,0.007224375
,,,-1.44E-06,0.0069775
,,,-1.43E-06,0.007090625
,,,-1.42E-06,0.007175
,,,-1.41E-06,0.0073125
,,,-1.4E-06,0.00717875
,,,-1.39E-06,0.007065
,,,-1.38E-06,0.00720625
,,,-1.37E-06,0.007195
,,,-1.36E-06,0.007429375
,,,-1.35E-06,0.007226875
,,,-1.34E-06,0.007159375
,,,-1.33E-06,0.007148125
,,,-1.32E-06,0.007196875
,,,-1.31E-06,0.006908125
,,,-1.3E-06,0.00718625
,,,-1.29E-06,0.0071575
,,,-1.28E-06,0.007045625
,,,-1.27E-06,0.006970625
,,,-1.26E-06,0.007328125
,,,-1.25E-06,0.007261875
,,,-1.24E-06,0.007478125
,,,-1.23E-06,0.00718625
,,,-1.22E-06,0.006834375
,,,-1.21E-06,0.007258125
,,,-1.2E-06,0.007183125
,,,-1.19E-06,0.007005
,,,-1.18E-06,0.00742875
,,,-1.17E-06,0.00724875
,,,-1.16E-06,0.007115
,,,-1.15E-06,0.00729875
,,,-1.14E-06,0.007395625
,,,-1.13E-06,0.00722625
,,,-1.12E-06,0.007300625
,,,-1.11E-06,0.0072925
,,,-1.1E-06,0.00694125
,,,-1.09E-06,0.007235625
,,,-1.08E-06,0.007226875
,,,-1.07E-06,0.00730375
,,,-1.06E-06,0.00696375
,,,-1.05E-06,0.00722
,,,-1.04E-06,0.00712
,,,-1.03E-06,0.00727875
,,,-1.02E-06,0.00722125
,,,-1.01E-06,0.00724125
,,,-1E-06,0.007270625
,,,-9.9E-07,0.006971875
,,,-9.8E-07,0.00722375
,,,-9.7E-07,0.007234375
,,,-9.6E-07,0.007051875
,,,-9.5E-07,0.007109375
,,,-9.4E-07,0.007201875
,,,-9.3E-07,0.0071275
,,,-9.2E-07,0.0072675
,,,-9.1E-07,0.007498125
,,,-9E-07,0.00731875
,,,-8.9E-07,0.0072425
,,,-8.8E-07,0.007068125
,,,-8.7E-07,0.0073225
,,,-8.6E-07,0.007335
,,,-8.5E-07,0.007094375
,,,-8.4E-07,0.007183125
,,,-8.3E-07,0.007233125
,,,-8.2E-07,0.007135
,,,-8.1E-07,0.006945
,,,-8E-07,0.00717875
,,,-7.9E-07,0.007173125
,,,-7.8E-07,0.007134375
,,,-7.7E-07,0.007225
,,,-7.6E-07,0.007168125
,,,-7.5E-07,0.0071625
,,,-7.4E-07,0.007096875
,,,-7.3E-07,0.00728
,,,-7.2E-07,0.006765
,,,-7.1E-07,0.007180625
,,,-7E-07,0.00719875
,,,-6.9E-07,0.007213125
,,,-6.8E-07,0.00712875
,,,-6.7E-07,0.00702625
,,,-6.6E-07,0.00689125
,,,-6.5E-07,0.007348125
,,,-6.4E-07,0.007038125
,,,-6.3E-07,0.007251875
,,,-6.2E-07,0.007173125
,,,-6.1E-07,0.00731
,,,-6E-07,0.00716625
,,,-5.9E-07,0.00743375
,,,-5.8E-07,0.00726875
,,,-5.7E-07,0.0071
,,,-5.6E-07,0.00705375
,,,-5.5E-07,0.0070725
,,,-5.4E-07,0.006935
,,,-5.3E-07,0.007365
,,,-5.2E-07,0.007155625
,,,-5.1E-07,0.007324375
,,,-5E-07,0.0069425
,,,-4.9E-07,0.007220625
,,,-4.8E-07,0.006840625
,,,-4.7E-07,0.0069925
,,,-4.6E-07,0.007279375
,,,-4.5E-07,0.007011875
,,,-4.4E-07,0.007340625
,,,-4.3E-07,0.007214375
,,,-4.2E-07,0.007070625
,,,-4.1E-07,0.0070725
,,,-4E-07,0.006925
,,,-3.9E-07,0.007094375
,,,-3.8E-07,0.007153125
,,,-3.7E-07,0.0072475
,,,-3.6E-07,0.007081875
,,,-3.5E-07,0.00711
,,,-3.4E-07,0.00737125
,,,-3.3E-07,0.00719375
,,,-3.2E-07,0.007179375
,,,-3.1E-07,0.007028125
,,,-3E-07,0.007144375
,,,-2.9E-07,0.007035625
,,,-2.8E-07,0.007249375
,,,-2.7E-07,0.0069675
,,,-2.6E-07,0.007315625
,,,-2.5E-07,0.0071175
,,,-2.4E-07,0.00699625
,,,-2.3E-07,0.00719875
,,,-2.2E-07,0.0073675
,,,-2.1E-07,0.00717375
,,,-2E-07,0.007131875
,,,-1.9E-07,0.00742
,,,-1.8E-07,0.00707
,,,-1.7E-07,0.00712625
,,,-1.6E-07,0.007183125
,,,-1.5E-07,0.007180625
,,,-1.4E-07,0.0070875
,,,-1.3E-07,0.007196875
,,,-1.2E-07,0.007150625
,,,-1.1E-07,0.00720125
,,,-1E-07,0.00737875
,,,-9E-08,0.007169375
,,,-8E-08,0.007189375
,,,-7E-08,0.007348125
,,,-6E-08,0.00722
,,,-5E-08,0.00732
,,,-4E-08,0.008069375
,,,-3E-08,0.008876875
,,,-2E-08,0.00533375
,,,-1E-08,0.003270625
,,,0,0.00406125
,,,1E-08,0.009989375
,,,2E-08,0.01182125
,,,3E-08,0.010658125
,,,4E-08,0.006619375
,,,5E-08,0.004225
,,,6E-08,0.003426875
,,,7E-08,0.00556875
,,,8E-08,0.00782375
,,,9E-08,0.009645
,,,1E-07,0.0096725
,,,1.1E-07,0.007775625
,,,1.2E-07,0.00594125
,,,1.3E-07,0.005328125
,,,1.4E-07,0.00631875
,,,1.5E-07,0.007278125
,,,1.6E-07,0.00800375
,,,1.7E-07,0.007446875
,,,1.8E-07,0.00743625
,,,1.9E-07,0.0073675
,,,2E-07,0.007144375
,,,2.1E-07,0.00706
,,,2.2E-07,0.006899375
,,,2.3E-07,0.007194375
,,,2.4E-07,0.00738875
,,,2.5E-07,0.007410625
,,,2.6E-07,0.00734875
,,,2.7E-07,0.00719
,,,2.8E-07,0.007135
,,,2.9E-07,0.006939375
,,,3E-07,0.006820625
,,,3.1E-07,0.0070725
,,,3.2E-07,0.00715625
,,,3.3E-07,0.00717125
,,,3.4E-07,0.007241875
,,,3.5E-07,0.007116875
,,,3.6E-07,0.006896875
,,,3.7E-07,0.00718875
,,,3.8E-07,0.007169375
,,,3.9E-07,0.00704375
,,,4E-07,0.00708
,,,4.1E-07,0.007316875
,,,4.2E-07,0.00711375
,,,4.3E-07,0.007175625
,,,4.4E-07,0.006849375
,,,4.5E-07,0.007191875
,,,4.6E-07,0.0073025
,,,4.7E-07,0.007331875
,,,4.8E-07,0.007223125
,,,4.9E-07,0.007145
,,,5E-07,0.007375
,,,5.1E-07,0.00731125
,,,5.2E-07,0.0071225
,,,5.3E-07,0.0072025
,,,5.4E-07,0.006973125
,,,5.5E-07,0.00727875
,,,5.6E-07,0.007190625
,,,5.7E-07,0.00738125
,,,5.8E-07,0.007375
,,,5.9E-07,0.007095625
,,,6E-07,0.007304375
,,,6.1E-07,0.007009375
,,,6.2E-07,0.007148125
,,,6.3E-07,0.007204375
,,,6.4E-07,0.00712875
,,,6.5E-07,0.00725625
,,,6.6E-07,0.00716125
,,,6.7E-07,0.007485
,,,6.8E-07,0.007070625
,,,6.9E-07,0.00729875
,,,7E-07,0.0071475
,,,7.1E-07,0.0072625
,,,7.2E-07,0.007174375
,,,7.3E-07,0.00704875
,,,7.4E-07,0.007251875
,,,7.5E-07,0.007301875
,,,7.6E-07,0.007188125
,,,7.7E-07,0.0070175
,,,7.8E-07,0.0072
,,,7.9E-07,0.0071275
,,,8E-07,0.0073275
,,,8.1E-07,0.0072975
,,,8.2E-07,0.007270625
,,,8.3E-07,0.00749
,,,8.4E-07,0.007139375
,,,8.5E-07,0.007165
,,,8.6E-07,0.00711375
,,,8.7E-07,0.00729625
,,,8.8E-07,0.006858125
,,,8.9E-07,0.00707125
,,,9E-07,0.00722875
,,,9.1E-07,0.007458125
,,,9.2E-07,0.0069425
,,,9.3E-07,0.007111875
,,,9.4E-07,0.006990625
,,,9.5E-07,0.007175625
,,,9.6E-07,0.00709625
,,,9.7E-07,0.007314375
,,,9.8E-07,0.007120625
,,,9.9E-07,0.007066875
,,,1E-06,0.0073875
,,,1.01E-06,0.0070125
,,,1.02E-06,0.0071375
,,,1.03E-06,0.00725625
,,,1.04E-06,0.0070525
,,,1.05E-06,0.007088125
,,,1.06E-06,0.007281875
,,,1.07E-06,0.007113125
,,,1.08E-06,0.00700125
,,,1.09E-06,0.00723875
,,,1.1E-06,0.007138125
,,,1.11E-06,0.00718875
,,,1.12E-06,0.00694
,,,1.13E-06,0.007388125
,,,1.14E-06,0.0070975
,,,1.15E-06,0.00708375
,,,1.16E-06,0.007105625
,,,1.17E-06,0.007303125
,,,1.18E-06,0.00708625
,,,1.19E-06,0.006953125
,,,1.2E-06,0.007148125
,,,1.21E-06,0.00688875
,,,1.22E-06,0.00721625
,,,1.23E-06,0.00718125
,,,1.24E-06,0.007131875
,,,1.25E-06,0.007164375
,,,1.26E-06,0.007245625
,,,1.27E-06,0.007144375
,,,1.28E-06,0.0071175
,,,1.29E-06,0.0071375
,,,1.3E-06,0.00725
,,,1.31E-06,0.007148125
,,,1.32E-06,0.007075
,,,1.33E-06,0.007133125
,,,1.34E-06,0.00729375
,,,1.35E-06,0.0070575
,,,1.36E-06,0.007199375
,,,1.37E-06,0.007306875
,,,1.38E-06,0.00720625
,,,1.39E-06,0.0074475
,,,1.4E-06,0.00719125
,,,1.41E-06,0.00731
,,,1.42E-06,0.00712125
,,,1.43E-06,0.007026875
,,,1.44E-06,0.00718875
,,,1.45E-06,0.007169375
,,,1.46E-06,0.007329375
,,,1.47E-06,0.007230625
,,,1.48E-06,0.00722
,,,1.49E-06,0.0071025
,,,1.5E-06,0.007175
,,,1.51E-06,0.007294375
,,,1.52E-06,0.007055625
,,,1.53E-06,0.0070175
,,,1.54E-06,0.007176875
,,,1.55E-06,0.007338125
,,,1.56E-06,0.0072525
,,,1.57E-06,0.007483125
,,,1.58E-06,0.007161875
,,,1.59E-06,0.007076875
,,,1.6E-06,0.007163125
,,,1.61E-06,0.007005625
,,,1.62E-06,0.0070625
,,,1.63E-06,0.007149375
,,,1.64E-06,0.00713125
,,,1.65E-06,0.007124375
,,,1.66E-06,0.007433125
,,,1.67E-06,0.00708875
,,,1.68E-06,0.0070925
,,,1.69E-06,0.007059375
,,,1.7E-06,0.007373125
,,,1.71E-06,0.006904375
,,,1.72E-06,0.007206875
,,,1.73E-06,0.007170625
,,,1.74E-06,0.00714375
,,,1.75E-06,0.007115
,,,1.76E-06,0.007196875
,,,1.77E-06,0.00733
,,,1.78E-06,0.00726625
,,,1.79E-06,0.007300625
,,,1.8E-06,0.007208125
,,,1.81E-06,0.00715375
,,,1.82E-06,0.00743
,,,1.83E-06,0.00716125
,,,1.84E-06,0.007240625
,,,1.85E-06,0.007039375
,,,1.86E-06,0.007235
,,,1.87E-06,0.007278125
,,,1.88E-06,0.007295625
,,,1.89E-06,0.00707375
,,,1.9E-06,0.00729375
,,,1.91E-06,0.00707625
,,,1.92E-06,0.006736875
,,,1.93E-06,0.0069075
,,,1.94E-06,0.007255625
,,,1.95E-06,0.007046875
,,,1.96E-06,0.007221875
,,,1.97E-06,0.007169375
,,,1.98E-06,0.00739875
,,,1.99E-06,0.007075
,,,2E-06,0.007395625
,,,2.01E-06,0.007086875
,,,2.02E-06,0.00718
,,,2.03E-06,0.00729875
,,,2.04E-06,0.007173125
,,,2.05E-06,0.00732125
,,,2.06E-06,0.00718125
,,,2.07E-06,0.0073
,,,2.08E-06,0.007095625
,,,2.09E-06,0.007055
,,,2.1E-06,0.007290625
,,,2.11E-06,0.00723
,,,2.12E-06,0.007441875
,,,2.13E-06,0.00721875
,,,2.14E-06,0.00720375
,,,2.15E-06,0.007386875
,,,2.16E-06,0.007264375
,,,2.17E-06,0.007136875
,,,2.18E-06,0.007263125
,,,2.19E-06,0.0070975
,,,2.2E-06,0.006899375
,,,2.21E-06,0.007269375
,,,2.22E-06,0.007256875
,,,2.23E-06,0.00740375
,,,2.24E-06,0.0073525
,,,2.25E-06,0.0070475
,,,2.26E-06,0.00707125
,,,2.27E-06,0.00741125
,,,2.28E-06,0.007298125
,,,2.29E-06,0.006999375
,,,2.3E-06,0.00745625
,,,2.31E-06,0.00718125
,,,2.32E-06,0.007085
,,,2.33E-06,0.00742875
,,,2.34E-06,0.007064375
,,,2.35E-06,0.0069925
,,,2.36E-06,0.00714625
,,,2.37E-06,0.00708875
,,,2.38E-06,0.007186875
,,,2.39E-06,0.0074
,,,2.4E-06,0.007284375
,,,2.41E-06,0.00703125
,,,2.42E-06,0.0070525
,,,2.43E-06,0.00722375
,,,2.44E-06,0.007220625
,,,2.45E-06,0.007245
,,,2.46E-06,0.007049375
,,,2.47E-06,0.007225625
,,,2.48E-06,0.0074025
,,,2.49E-06,0.007153125
,,,2.5E-06,0.00709
,,,2.51E-06,0.007033125
,,,2.52E-06,0.007225
,,,2.53E-06,0.00715625
,,,2.54E-06,0.007141875
,,,2.55E-06,0.006969375
,,,2.56E-06,0.007368125
,,,2.57E-06,0.0073825
,,,2.58E-06,0.007150625
,,,2.59E-06,0.007065
,,,2.6E-06,0.007268125
,,,2.61E-06,0.007289375
,,,2.62E-06,0.007181875
,,,2.63E-06,0.007150625
,,,2.64E-06,0.0072475
,,,2.65E-06,0.00731125
,,,2.66E-06,0.00723125
,,,2.67E-06,0.0070575
,,,2.68E-06,0.0070625
,,,2.69E-06,0.00709
,,,2.7E-06,0.00741875
,,,2.71E-06,0.00712375
,,,2.72E-06,0.007109375
,,,2.73E-06,0.007155625
,,,2.74E-06,0.0073875
,,,2.75E-06,0.00697375
,,,2.76E-06,0.0072225
,,,2.77E-06,0.007004375
,,,2.78E-06,0.0071375
,,,2.79E-06,0.006999375
,,,2.8E-06,0.0071225
,,,2.81E-06,0.0072475
,,,2.82E-06,0.007321875
,,,2.83E-06,0.007025625
,,,2.84E-06,0.0069875
,,,2.85E-06,0.00716
,,,2.86E-06,0.007158125
,,,2.87E-06,0.007201875
,,,2.88E-06,0.00723
,,,2.89E-06,0.007405
,,,2.9E-06,0.0073575
,,,2.91E-06,0.007098125
,,,2.92E-06,0.0070175
,,,2.93E-06,0.00715375
,,,2.94E-06,0.00734125
,,,2.95E-06,0.0073
,,,2.96E-06,0.007218125
,,,2.97E-06,0.007213125
,,,2.98E-06,0.00737125
,,,2.99E-06,0.00732875
,,,3E-06,0.007225625
,,,3.01E-06,0.00725625
,,,3.02E-06,0.00721625
,,,3.03E-06,0.00708875
,,,3.04E-06,0.007365
,,,3.05E-06,0.00738375
,,,3.06E-06,0.007259375
,,,3.07E-06,0.00712375
,,,3.08E-06,0.00705125
,,,3.09E-06,0.007545625
,,,3.1E-06,0.007236875
,,,3.11E-06,0.007118125
,,,3.12E-06,0.007179375
,,,3.13E-06,0.00728375
,,,3.14E-06,0.0074525
,,,3.15E-06,0.00721125
,,,3.16E-06,0.007185625
,,,3.17E-06,0.0071625
,,,3.18E-06,0.007260625
,,,3.19E-06,0.007185
,,,3.2E-06,0.00726125
,,,3.21E-06,0.0071125
,,,3.22E-06,0.007178125
,,,3.23E-06,0.00716
,,,3.24E-06,0.007289375
,,,3.25E-06,0.007095
,,,3.26E-06,0.007185625
,,,3.27E-06,0.007285
,,,3.28E-06,0.007149375
,,,3.29E-06,0.00692125
,,,3.3E-06,0.007183125
,,,3.31E-06,0.007313125
,,,3.32E-06,0.007476875
,,,3.33E-06,0.007218125
,,,3.34E-06,0.00716875
,,,3.35E-06,0.00713
,,,3.36E-06,0.00708625
,,,3.37E-06,0.007159375
,,,3.38E-06,0.007215625
,,,3.39E-06,0.00738125
,,,3.4E-06,0.00708125
,,,3.41E-06,0.007351875
,,,3.42E-06,0.007220625
,,,3.43E-06,0.0071525
,,,3.44E-06,0.00731875
,,,3.45E-06,0.007120625
,,,3.46E-06,0.007383125
,,,3.47E-06,0.00728875
,,,3.48E-06,0.007233125
,,,3.49E-06,0.007255
,,,3.5E-06,0.00721625
,,,3.51E-06,0.007178125
,,,3.52E-06,0.00692875
,,,3.53E-06,0.00723875
,,,3.54E-06,0.0071875
,,,3.55E-06,0.007425625
,,,3.56E-06,0.00737875
,,,3.57E-06,0.007165625
