data/raw/Final_POL_Test_1/SOP039_Ch1.csv

"Record Length",1000,"Points",-5E-06,0.007161875
"Sample Interval",1E-08,s,-4.99E-06,0.007055
"Trigger Point",500,"Samples",-4.98E-06,0.007025
"Trigger Time",0,s,-4.97E-06,0.006949375
"",,,-4.96E-06,0.00695625
"Horizontal Offset",-5E-06,s,-4.95E-06,0.007129375
,,,-4.94E-06,0.00697375
,,,-4.93E-06,0.00701
,,,-4.92E-06,0.006974375
,,,-4.91E-06,0.00707875
,,,-4.9E-06,0.007044375
,,,-4.89E-06,0.0067075
,,,-4.88E-06,0.00698125
,,,-4.87E-06,0.006639375
,,,-4.86E-06,0.006841875
,,,-4.85E-06,0.006835625
,,,-4.84E-06,0.0072075
,,,-4.83E-06,0.00710625
,,,-4.82E-06,0.006894375
,,,-4.81E-06,0.006968125
,,,-4.8E-06,0.00707625
,,,-4.79E-06,0.00710125
,,,-4.78E-06,0.006906875
,,,-4.77E-06,0.007114375
,,,-4.76E-06,0.006878125
,,,-4.75E-06,0.007083125
,,,-4.74E-06,0.00699625
,,,-4.73E-06,0.007035
,,,-4.72E-06,0.00707375
,,,-4.71E-06,0.007084375
,,,-4.7E-06,0.006971875
,,,-4.69E-06,0.006866875
,,,-4.68E-06,0.0071925
,,,-4.67E-06,0.007294375
,,,-4.66E-06,0.0069925
,,,-4.65E-06,0.006983125
,,,-4.64E-06,0.006861875
,,,-4.63E-06,0.00729
,,,-4.62E-06,0.00686
,,,-4.61E-06,0.00744
,,,-4.6E-06,0.00713375
,,,-4.59E-06,0.007045625
,,,-4.58E-06,0.00705375
,,,-4.57E-06,0.007065625
,,,-4.56E-06,0.0071175
,,,-4.55E-06,0.007045
,,,-4.54E-06,0.007025
,,,-4.53E-06,0.00723375
,,,-4.52E-06,0.007205
,,,-4.51E-06,0.00713125
,,,-4.5E-06,0.006961875
,,,-4.49E-06,0.00724875
,,,-4.48E-06,0.007125625
,,,-4.47E-06,0.007286875
,,,-4.46E-06,0.007026875
,,,-4.45E-06,0.0070275
,,,-4.44E-06,0.006705
,,,-4.43E-06,0.00707
,,,-4.42E-06,0.006905625
,,,-4.41E-06,0.00693
,,,-4.4E-06,0.007130625
,,,-4.39E-06,0.0069925
,,,-4.38E-06,0.0070575
,,,-4.37E-06,0.007035625
,,,-4.36E-06,0.007011875
,,,-4.35E-06,0.0070025
,,,-4.34E-06,0.00707375
,,,-4.33E-06,0.007228125
,,,-4.32E-06,0.0070375
,,,-4.31E-06,0.00689
,,,-4.3E-06,0.00702
,,,-4.29E-06,0.006889375
,,,-4.28E-06,0.00717875
,,,-4.27E-06,0.0070725
,,,-4.26E-06,0.007188125
,,,-4.25E-06,0.00697875
,,,-4.24E-06,0.006989375
,,,-4.23E-06,0.007184375
,,,-4.22E-06,0.007005
,,,-4.21E-06,0.006805625
,,,-4.2E-06,0.006678125
,,,-4.19E-06,0.006795625
,,,-4.18E-06,0.006885
,,,-4.17E-06,0.007071875
,,,-4.16E-06,0.007224375
,,,-4.15E-06,0.00730625
,,,-4.14E-06,0.00709875
,,,-4.13E-06,0.006810625
,,,-4.12E-06,0.007109375
,,,-4.11E-06,0.007138125
,,,-4.1E-06,0.006815
,,,-4.09E-06,0.006959375
,,,-4.08E-06,0.007060625
,,,-4.07E-06,0.007286875
,,,-4.06E-06,0.00708875
,,,-4.05E-06,0.006930625
,,,-4.04E-06,0.00694125
,,,-4.03E-06,0.007065
,,,-4.02E-06,0.00679625
,,,-4.01E-06,0.0072125
,,,-4E-06,0.007303125
,,,-3.99E-06,0.006994375
,,,-3.98E-06,0.007011875
,,,-3.97E-06,0.00695875
,,,-3.96E-06,0.007149375
,,,-3.95E-06,0.00706125
,,,-3.94E-06,0.007051875
,,,-3.93E-06,0.007030625
,,,-3.92E-06,0.007219375
,,,-3.91E-06,0.007185625
,,,-3.9E-06,0.006946875
,,,-3.89E-06,0.007109375
,,,-3.88E-06,0.00688
,,,-3.87E-06,0.006796875
,,,-3.86E-06,0.00692
,,,-3.85E-06,0.00698
,,,-3.84E-06,0.00715
,,,-3.83E-06,0.0068925
,,,-3.82E-06,0.00678
,,,-3.81E-06,0.0069675
,,,-3.8E-06,0.007263125
,,,-3.79E-06,0.006809375
,,,-3.78E-06,0.007280625
,,,-3.77E-06,0.00698
,,,-3.76E-06,0.0071475
,,,-3.75E-06,0.006950625
,,,-3.74E-06,0.007284375
,,,-3.73E-06,0.007139375
,,,-3.72E-06,0.007388125
,,,-3.71E-06,0.006925
,,,-3.7E-06,0.006993125
,,,-3.69E-06,0.007156875
,,,-3.68E-06,0.007
,,,-3.67E-06,0.00723125
,,,-3.66E-06,0.00706875
,,,-3.65E-06,0.00704125
,,,-3.64E-06,0.006938125
,,,-3.63E-06,0.006896875
,,,-3.62E-06,0.0070625
,,,-3.61E-06,0.00696625
,,,-3.6E-06,0.007039375
,,,-3.59E-06,0.007229375
,,,-3.58E-06,0.006910625
,,,-3.57E-06,0.007089375
,,,-3.56E-06,0.006973125
,,,-3.55E-06,0.006839375
,,,-3.54E-06,0.006921875
,,,-3.53E-06,0.00685625
,,,-3.52E-06,0.007146875
,,,-3.51E-06,0.006859375
,,,-3.5E-06,0.007065
,,,-3.49E-06,0.00680625
,,,-3.48E-06,0.00698375
,,,-3.47E-06,0.007106875
,,,-3.46E-06,0.006990625
,,,-3.45E-06,0.006896875
,,,-3.44E-06,0.007144375
,,,-3.43E-06,0.006885
,,,-3.42E-06,0.007105
,,,-3.41E-06,0.006946875
,,,-3.4E-06,0.007076875
,,,-3.39E-06,0.007093125
,,,-3.38E-06,0.0068375
,,,-3.37E-06,0.007101875
,,,-3.36E-06,0.007025
,,,-3.35E-06,0.007023125
,,,-3.34E-06,0.006885
,,,-3.33E-06,0.00705875
,,,-3.32E-06,0.00704625
,,,-3.31E-06,0.006933125
,,,-3.3E-06,0.007319375
,,,-3.29E-06,0.007064375
,,,-3.28E-06,0.006951875
,,,-3.27E-06,0.006984375
,,,-3.26E-06,0.00717
,,,-3.25E-06,0.007040625
,,,-3.24E-06,0.00697625
,,,-3.23E-06,0.006868125
,,,-3.22E-06,0.006960625
,,,-3.21E-06,0.0067575
,,,-3.2E-06,0.0070675
,,,-3.19E-06,0.00682
,,,-3.18E-06,0.007239375
,,,-3.17E-06,0.00733875
,,,-3.16E-06,0.006961875
,,,-3.15E-06,0.0070425
,,,-3.14E-06,0.007110625
,,,-3.13E-06,0.0070025
,,,-3.12E-06,0.00713875
,,,-3.11E-06,0.00699625
,,,-3.1E-06,0.0072525
,,,-3.09E-06,0.007154375
,,,-3.08E-06,0.00720125
,,,-3.07E-06,0.006875
,,,-3.06E-06,0.007190625
,,,-3.05E-06,0.006903125
,,,-3.04E-06,0.00669875
,,,-3.03E-06,0.007031875
,,,-3.02E-06,0.007058125
,,,-3.01E-06,0.0071675
,,,-3E-06,0.006939375
,,,-2.99E-06,0.00704875
,,,-2.98E-06,0.0071825
,,,-2.97E-06,0.00695
,,,-2.96E-06,0.00692875
,,,-2.95E-06,0.00724125
,,,-2.94E-06,0.006876875
,,,-2.93E-06,0.00708625
,,,-2.92E-06,0.0072575
,,,-2.91E-06,0.007038125
,,,-2.9E-06,0.00709875
,,,-2.89E-06,0.006969375
,,,-2.88E-06,0.007001875
,,,-2.87E-06,0.0071
,,,-2.86E-06,0.00701625
,,,-2.85E-06,0.007194375
,,,-2.84E-06,0.007070625
,,,-2.83E-06,0.006966875
,,,-2.82E-06,0.00734125
,,,-2.81E-06,0.007255625
,,,-2.8E-06,0.00709125
,,,-2.79E-06,0.00705125
,,,-2.78E-06,0.007028125
,,,-2.77E-06,0.00693375
,,,-2.76E-06,0.007103125
,,,-2.75E-06,0.006943125
,,,-2.74E-06,0.007108125
,,,-2.73E-06,0.007
,,,-2.72E-06,0.006674375
,,,-2.71E-06,0.006908125
,,,-2.7E-06,0.006805
,,,-2.69E-06,0.007211875
,,,-2.68E-06,0.007021875
,,,-2.67E-06,0.006965
,,,-2.66E-06,0.007263125
,,,-2.65E-06,0.00711625
,,,-2.64E-06,0.007020625
,,,-2.63E-06,0.00694625
,,,-2.62E-06,0.007030625
,,,-2.61E-06,0.006974375
,,,-2.6E-06,0.00691375
,,,-2.59E-06,0.007048125
,,,-2.58E-06,0.00714875
,,,-2.57E-06,0.007135625
,,,-2.56E-06,0.0070525
,,,-2.55E-06,0.007038125
,,,-2.54E-06,0.006774375
,,,-2.53E-06,0.007085625
,,,-2.52E-06,0.0069725
,,,-2.51E-06,0.00728375
,,,-2.5E-06,0.006959375
,,,-2.49E-06,0.007009375
,,,-2.48E-06,0.0068375
,,,-2.47E-06,0.007116875
,,,-2.46E-06,0.007149375
,,,-2.45E-06,0.006821875
,,,-2.44E-06,0.006964375
,,,-2.43E-06,0.007030625
,,,-2.42E-06,0.0070125
,,,-2.41E-06,0.00714625
,,,-2.4E-06,0.007056875
,,,-2.39E-06,0.0071125
,,,-2.38E-06,0.00696
,,,-2.37E-06,0.00691625
,,,-2.36E-06,0.007013125
,,,-2.35E-06,0.0072375
,,,-2.34E-06,0.007020625
,,,-2.33E-06,0.007054375
,,,-2.32E-06,0.0070825
,,,-2.31E-06,0.006986875
,,,-2.3E-06,0.0071275
,,,-2.29E-06,0.00675875
,,,-2.28E-06,0.006915
,,,-2.27E-06,0.00702375
,,,-2.26E-06,0.007
,,,-2.25E-06,0.0073175
,,,-2.24E-06,0.007175625
,,,-2.23E-06,0.007035
,,,-2.22E-06,0.00715375
,,,-2.21E-06,0.00689375
,,,-2.2E-06,0.007076875
,,,-2.19E-06,0.007260625
,,,-2.18E-06,0.007056875
,,,-2.17E-06,0.006968125
,,,-2.16E-06,0.00664375
,,,-2.15E-06,0.007109375
,,,-2.14E-06,0.006954375
,,,-2.13E-06,0.007268125
,,,-2.12E-06,0.006765
,,,-2.11E-06,0.0066875
,,,-2.1E-06,0.006930625
,,,-2.09E-06,0.006971875
,,,-2.08E-06,0.00715625
,,,-2.07E-06,0.00691625
,,,-2.06E-06,0.007095
,,,-2.05E-06,0.007165625
,,,-2.04E-06,0.00698375
,,,-2.03E-06,0.007143125
,,,-2.02E-06,0.00707
,,,-2.01E-06,0.0070325
,,,-2E-06,0.00678875
,,,-1.99E-06,0.00707875
,,,-1.98E-06,0.00703625
,,,-1.97E-06,0.006960625
,,,-1.96E-06,0.007138125
,,,-1.95E-06,0.006849375
,,,-1.94E-06,0.0069525
,,,-1.93E-06,0.00697
,,,-1.92E-06,0.00703875
,,,-1.91E-06,0.007103125
,,,-1.9E-06,0.00690625
,,,-1.89E-06,0.00685625
,,,-1.88E-06,0.00693625
,,,-1.87E-06,0.00716375
,,,-1.86E-06,0.006931875
,,,-1.85E-06,0.00691875
,,,-1.84E-06,0.00685375
,,,-1.83E-06,0.006855625
,,,-1.82E-06,0.00697875
,,,-1.81E-06,0.006931875
,,,-1.8E-06,0.00707875
,,,-1.79E-06,0.007175
,,,-1.78E-06,0.006833125
,,,-1.77E-06,0.007001875
,,,-1.76E-06,0.007259375
,,,-1.75E-06,0.00717875
,,,-1.74E-06,0.00717375
,,,-1.73E-06,0.006695625
,,,-1.72E-06,0.006924375
,,,-1.71E-06,0.00687375
,,,-1.7E-06,0.007245
,,,-1.69E-06,0.007053125
,,,-1.68E-06,0.0072375
,,,-1.67E-06,0.006826875
,,,-1.66E-06,0.00699375
,,,-1.65E-06,0.007218125
,,,-1.64E-06,0.006939375
,,,-1.63E-06,0.007105625
,,,-1.62E-06,0.006771875
,,,-1.61E-06,0.007091875
,,,-1.6E-06,0.007125625
,,,-1.59E-06,0.007346875
,,,-1.58E-06,0.00713875
,,,-1.57E-06,0.007001875
,,,-1.56E-06,0.006745625
,,,-1.55E-06,0.006899375
,,,-1.54E-06,0.006965625
,,,-1.53E-06,0.0068
,,,-1.52E-06,0.007043125
,,,-1.51E-06,0.006935
,,,-1.5E-06,0.007014375
,,,-1.49E-06,0.00695
,,,-1.48E-06,0.007059375
,,,-1.47E-06,0.007018125
,,,-1.46E-06,0.006875
,,,-1.45E-06,0.006919375
,,,-1.44E-06,0.007054375
,,,-1.43E-06,0.00717875
,,,-1.42E-06,0.007131875
,,,-1.41E-06,0.006789375
,,,-1.4E-06,0.0069075
,,,-1.39E-06,0.007120625
,,,-1.38E-06,0.006885
,,,-1.37E-06,0.006895625
,,,-1.36E-06,0.006924375
,,,-1.35E-06,0.0071675
,,,-1.34E-06,0.0070025
,,,-1.33E-06,0.0070425
,,,-1.32E-06,0.007165625
,,,-1.31E-06,0.00698625
,,,-1.3E-06,0.00704375
,,,-1.29E-06,0.00712
,,,-1.28E-06,0.007071875
,,,-1.27E-06,0.007183125
,,,-1.26E-06,0.006885
,,,-1.25E-06,0.007050625
,,,-1.24E-06,0.006980625
,,,-1.23E-06,0.007061875
,,,-1.22E-06,0.00688875
,,,-1.21E-06,0.006988125
,,,-1.2E-06,0.006943125
,,,-1.19E-06,0.0072
,,,-1.18E-06,0.007431875
,,,-1.17E-06,0.00703
,,,-1.16E-06,0.007009375
,,,-1.15E-06,0.0069875
,,,-1.14E-06,0.007134375
,,,-1.13E-06,0.006793125
,,,-1.12E-06,0.006984375
,,,-1.11E-06,0.007104375
,,,-1.1E-06,0.00691875
,,,-1.09E-06,0.00685
,,,-1.08E-06,0.007191875
,,,-1.07E-06,0.006921875
,,,-1.06E-06,0.006865
,,,-1.05E-06,0.00697875
,,,-1.04E-06,0.00701875
,,,-1.03E-06,0.006838125
,,,-1.02E-06,0.00707375
,,,-1.01E-06,0.00694625
,,,-1E-06,0.006883125
,,,-9.9E-07,0.006950625
,,,-9.8E-07,0.006955625
,,,-9.7E-07,0.007009375
,,,-9.6E-07,0.007031875
,,,-9.5E-07,0.007075625
,,,-9.4E-07,0.0070325
,,,-9.3E-07,0.006895
,,,-9.2E-07,0.0072325
,,,-9.1E-07,0.006944375
,,,-9E-07,0.006884375
,,,-8.9E-07,0.007103125
,,,-8.8E-07,0.00689875
,,,-8.7E-07,0.006939375
,,,-8.6E-07,0.006834375
,,,-8.5E-07,0.007045
,,,-8.4E-07,0.00708
,,,-8.3E-07,0.007176875
,,,-8.2E-07,0.0068075
,,,-8.1E-07,0.00721
,,,-8E-07,0.0067075
,,,-7.9E-07,0.00689375
,,,-7.8E-07,0.00689125
,,,-7.7E-07,0.0070375
,,,-7.6E-07,0.007093125
,,,-7.5E-07,0.00722
,,,-7.4E-07,0.006843125
,,,-7.3E-07,0.00689
,,,-7.2E-07,0.0069975
,,,-7.1E-07,0.006915625
,,,-7E-07,0.0071525
,,,-6.9E-07,0.00704375
,,,-6.8E-07,0.007173125
,,,-6.7E-07,0.007303125
,,,-6.6E-07,0.006998125
,,,-6.5E-07,0.006999375
,,,-6.4E-07,0.00674
,,,-6.3E-07,0.006921875
,,,-6.2E-07,0.00712625
,,,-6.1E-07,0.00716
,,,-6E-07,0.007355625
,,,-5.9E-07,0.007119375
,,,-5.8E-07,0.007188125
,,,-5.7E-07,0.0068125
,,,-5.6E-07,0.006974375
,,,-5.5E-07,0.006921875
,,,-5.4E-07,0.006954375
,,,-5.3E-07,0.0069675
,,,-5.2E-07,0.007125
,,,-5.1E-07,0.0069725
,,,-5E-07,0.006835
,,,-4.9E-07,0.0071025
,,,-4.8E-07,0.00699375
,,,-4.7E-07,0.0070425
,,,-4.6E-07,0.00682625
,,,-4.5E-07,0.00728375
,,,-4.4E-07,0.00697625
,,,-4.3E-07,0.0071
,,,-4.2E-07,0.00700125
,,,-4.1E-07,0.00703125
,,,-4E-07,0.00718375
,,,-3.9E-07,0.0069675
,,,-3.8E-07,0.007159375
,,,-3.7E-07,0.007045625
,,,-3.6E-07,0.007081875
,,,-3.5E-07,0.00727875
,,,-3.4E-07,0.0068625
,,,-3.3E-07,0.007053125
,,,-3.2E-07,0.00693875
,,,-3.1E-07,0.00706
,,,-3E-07,0.007005625
,,,-2.9E-07,0.0071375
,,,-2.8E-07,0.0068375
,,,-2.7E-07,0.007111875
,,,-2.6E-07,0.00715375
,,,-2.5E-07,0.00730125
,,,-2.4E-07,0.006963125
,,,-2.3E-07,0.007280625
,,,-2.2E-07,0.00698
,,,-2.1E-07,0.0071125
,,,-2E-07,0.007179375
,,,-1.9E-07,0.007215625
,,,-1.8E-07,0.00704625
,,,-1.7E-07,0.0070825
,,,-1.6E-07,0.007059375
,,,-1.5E-07,0.007046875
,,,-1.4E-07,0.00696375
,,,-1.3E-07,0.006879375
,,,-1.2E-07,0.0068775
,,,-1.1E-07,0.0069475
,,,-1E-07,0.00716
,,,-9E-08,0.00694
,,,-8E-08,0.00699125
,,,-7E-08,0.006775625
,,,-6E-08,0.006941875
,,,-5E-08,0.00749875
,,,-4E-08,0.008569375
,,,-3E-08,0.00748375
,,,-2E-08,0.004850625
,,,-1E-08,0.0024525
,,,0,0.00558625
,,,1E-08,0.010823125
,,,2E-08,0.012284375
,,,3E-08,0.0099675
,,,4E-08,0.005696875
,,,5E-08,0.003269375
,,,6E-08,0.003788125
,,,7E-08,0.006411875
,,,8E-08,0.00825375
,,,9E-08,0.0095325
,,,1E-07,0.00928375
,,,1.1E-07,0.00722625
,,,1.2E-07,0.0053025
,,,1.3E-07,0.005455625
,,,1.4E-07,0.006685625
,,,1.5E-07,0.00791375
,,,1.6E-07,0.00742625
,,,1.7E-07,0.0073325
,,,1.8E-07,0.007119375
,,,1.9E-07,0.00697875
,,,2E-07,0.006841875
,,,2.1E-07,0.00669
,,,2.2E-07,0.006670625
,,,2.3E-07,0.00693625
,,,2.4E-07,0.006995
,,,2.5E-07,0.00725
,,,2.6E-07,0.007099375
,,,2.7E-07,0.00712125
,,,2.8E-07,0.0068675
,,,2.9E-07,0.007106875
,,,3E-07,0.006876875
,,,3.1E-07,0.006774375
,,,3.2E-07,0.0071925
,,,3.3E-07,0.006984375
,,,3.4E-07,0.00703625
,,,3.5E-07,0.0069875
,,,3.6E-07,0.00700375
,,,3.7E-07,0.007150625
,,,3.8E-07,0.00698875
,,,3.9E-07,0.007036875
,,,4E-07,0.007188125
,,,4.1E-07,0.00707375
,,,4.2E-07,0.00690375
,,,4.3E-07,0.006936875
,,,4.4E-07,0.0069125
,,,4.5E-07,0.00694
,,,4.6E-07,0.007035625
,,,4.7E-07,0.007031875
,,,4.8E-07,0.0070375
,,,4.9E-07,0.0070475
,,,5E-07,0.00731125
,,,5.1E-07,0.007343125
,,,5.2E-07,0.00724375
,,,5.3E-07,0.00720125
,,,5.4E-07,0.006911875
,,,5.5E-07,0.007009375
,,,5.6E-07,0.006989375
,,,5.7E-07,0.00716375
,,,5.8E-07,0.0071225
,,,5.9E-07,0.0068875
,,,6E-07,0.00704375
,,,6.1E-07,0.00702375
,,,6.2E-07,0.006693125
,,,6.3E-07,0.006875
,,,6.4E-07,0.0072325
,,,6.5E-07,0.007021875
,,,6.6E-07,0.00712625
,,,6.7E-07,0.007246875
,,,6.8E-07,0.0069625
,,,6.9E-07,0.006930625
,,,7E-07,0.0072325
,,,7.1E-07,0.00696125
,,,7.2E-07,0.00735
,,,7.3E-07,0.0072425
,,,7.4E-07,0.00701875
,,,7.5E-07,0.007230625
,,,7.6E-07,0.0068525
,,,7.7E-07,0.006919375
,,,7.8E-07,0.00686875
,,,7.9E-07,0.006941875
,,,8E-07,0.00679625
,,,8.1E-07,0.00689875
,,,8.2E-07,0.00726
,,,8.3E-07,0.0070675
,,,8.4E-07,0.00711875
,,,8.5E-07,0.0069475
,,,8.6E-07,0.006846875
,,,8.7E-07,0.007036875
,,,8.8E-07,0.007283125
,,,8.9E-07,0.007173125
,,,9E-07,0.007155
,,,9.1E-07,0.00697625
,,,9.2E-07,0.00689625
,,,9.3E-07,0.0071825
,,,9.4E-07,0.0067175
,,,9.5E-07,0.007233125
,,,9.6E-07,0.0070275
,,,9.7E-07,0.00704625
,,,9.8E-07,0.00698875
,,,9.9E-07,0.006740625
,,,1E-06,0.0069975
,,,1.01E-06,0.007154375
,,,1.02E-06,0.00681875
,,,1.03E-06,0.006815625
,,,1.04E-06,0.0070375
,,,1.05E-06,0.00698625
,,,1.06E-06,0.007343125
,,,1.07E-06,0.00707875
,,,1.08E-06,0.00718875
,,,1.09E-06,0.0072
,,,1.1E-06,0.00724
,,,1.11E-06,0.00715
,,,1.12E-06,0.00721375
,,,1.13E-06,0.006874375
,,,1.14E-06,0.007080625
,,,1.15E-06,0.007098125
,,,1.16E-06,0.007121875
,,,1.17E-06,0.006983125
,,,1.18E-06,0.00670125
,,,1.19E-06,0.006938125
,,,1.2E-06,0.006599375
,,,1.21E-06,0.007010625
,,,1.22E-06,0.00701
,,,1.23E-06,0.00688375
,,,1.24E-06,0.007209375
,,,1.25E-06,0.006701875
,,,1.26E-06,0.00706375
,,,1.27E-06,0.007025
,,,1.28E-06,0.007013125
,,,1.29E-06,0.00697875
,,,1.3E-06,0.00714625
,,,1.31E-06,0.006885625
,,,1.32E-06,0.007295625
,,,1.33E-06,0.00691375
,,,1.34E-06,0.0070975
,,,1.35E-06,0.00691375
,,,1.36E-06,0.00718375
,,,1.37E-06,0.006936875
,,,1.38E-06,0.006960625
,,,1.39E-06,0.006804375
,,,1.4E-06,0.0069475
,,,1.41E-06,0.007181875
,,,1.42E-06,0.00707125
,,,1.43E-06,0.0069025
,,,1.44E-06,0.006934375
,,,1.45E-06,0.007278125
,,,1.46E-06,0.006841875
,,,1.47E-06,0.007020625
,,,1.48E-06,0.00714875
,,,1.49E-06,0.00699
,,,1.5E-06,0.006865
,,,1.51E-06,0.0069825
,,,1.52E-06,0.006699375
,,,1.53E-06,0.00733625
,,,1.54E-06,0.006821875
,,,1.55E-06,0.007100625
,,,1.56E-06,0.0071225
,,,1.57E-06,0.00700625
,,,1.58E-06,0.0069325
,,,1.59E-06,0.007016875
,,,1.6E-06,0.006906875
,,,1.61E-06,0.007269375
,,,1.62E-06,0.006945625
,,,1.63E-06,0.007166875
,,,1.64E-06,0.007054375
,,,1.65E-06,0.007129375
,,,1.66E-06,0.006944375
,,,1.67E-06,0.007158125
,,,1.68E-06,0.00686625
,,,1.69E-06,0.00696
,,,1.7E-06,0.0071625
,,,1.71E-06,0.00708625
,,,1.72E-06,0.007031875
,,,1.73E-06,0.007218125
,,,1.74E-06,0.006901875
,,,1.75E-06,0.007054375
,,,1.76E-06,0.006890625
,,,1.77E-06,0.007313125
,,,1.78E-06,0.006778125
,,,1.79E-06,0.007048125
,,,1.8E-06,0.007234375
,,,1.81E-06,0.00694125
,,,1.82E-06,0.00724125
,,,1.83E-06,0.007089375
,,,1.84E-06,0.007161875
,,,1.85E-06,0.006823125
,,,1.86E-06,0.00686375
,,,1.87E-06,0.007205
,,,1.88E-06,0.0067775
,,,1.89E-06,0.0067775
,,,1.9E-06,0.006719375
,,,1.91E-06,0.007061875
,,,1.92E-06,0.00682375
,,,1.93E-06,0.00691625
,,,1.94E-06,0.007119375
,,,1.95E-06,0.00719
,,,1.96E-06,0.00716875
,,,1.97E-06,0.007119375
,,,1.98E-06,0.00712375
,,,1.99E-06,0.007080625
,,,2E-06,0.0069825
,,,2.01E-06,0.007040625
,,,2.02E-06,0.006991875
,,,2.03E-06,0.00703875
,,,2.04E-06,0.006830625
,,,2.05E-06,0.0069675
,,,2.06E-06,0.007325625
,,,2.07E-06,0.0071175
,,,2.08E-06,0.007130625
,,,2.09E-06,0.007069375
,,,2.1E-06,0.0071625
,,,2.11E-06,0.0070725
,,,2.12E-06,0.00712125
,,,2.13E-06,0.0072175
,,,2.14E-06,0.00708625
,,,2.15E-06,0.006949375
,,,2.16E-06,0.007321875
,,,2.17E-06,0.006956875
,,,2.18E-06,0.006988125
,,,2.19E-06,0.00686125
,,,2.2E-06,0.006944375
,,,2.21E-06,0.006834375
,,,2.22E-06,0.006768125
,,,2.23E-06,0.00696125
,,,2.24E-06,0.007171875
,,,2.25E-06,0.00708
,,,2.26E-06,0.007005
,,,2.27E-06,0.006895625
,,,2.28E-06,0.00693875
,,,2.29E-06,0.007018125
,,,2.3E-06,0.007045625
,,,2.31E-06,0.00703625
,,,2.32E-06,0.007040625
,,,2.33E-06,0.007255625
,,,2.34E-06,0.006783125
,,,2.35E-06,0.00703875
,,,2.36E-06,0.00697875
,,,2.37E-06,0.007149375
,,,2.38E-06,0.00733625
,,,2.39E-06,0.00715375
,,,2.4E-06,0.006966875
,,,2.41E-06,0.0068925
,,,2.42E-06,0.0070175
,,,2.43E-06,0.00675625
,,,2.44E-06,0.007005625
,,,2.45E-06,0.00711625
,,,2.46E-06,0.00710875
,,,2.47E-06,0.007258125
,,,2.48E-06,0.0071
,,,2.49E-06,0.00714375
,,,2.5E-06,0.007133125
,,,2.51E-06,0.0073025
,,,2.52E-06,0.00720625
,,,2.53E-06,0.006694375
,,,2.54E-06,0.0071275
,,,2.55E-06,0.00728125
,,,2.56E-06,0.00718625
,,,2.57E-06,0.007128125
,,,2.58E-06,0.00712
,,,2.59E-06,0.007313125
,,,2.6E-06,0.00689
,,,2.61E-06,0.0070225
,,,2.62E-06,0.00712625
,,,2.63E-06,0.0071875
,,,2.64E-06,0.007251875
,,,2.65E-06,0.0071125
,,,2.66E-06,0.00709875
,,,2.67E-06,0.006821875
,,,2.68E-06,0.007219375
,,,2.69E-06,0.006951875
,,,2.7E-06,0.006995
,,,2.71E-06,0.0071175
,,,2.72E-06,0.00728625
,,,2.73E-06,0.006985625
,,,2.74E-06,0.006780625
,,,2.75E-06,0.006835625
,,,2.76E-06,0.00682
,,,2.77E-06,0.00700375
,,,2.78E-06,0.006986875
,,,2.79E-06,0.006939375
,,,2.8E-06,0.00688625
,,,2.81E-06,0.006869375
,,,2.82E-06,0.00701875
,,,2.83E-06,0.006786875
,,,2.84E-06,0.006730625
,,,2.85E-06,0.006866875
,,,2.86E-06,0.006931875
,,,2.87E-06,0.00683125
,,,2.88E-06,0.00717375
,,,2.89E-06,0.007215625
,,,2.9E-06,0.007075
,,,2.91E-06,0.00722875
,,,2.92E-06,0.006999375
,,,2.93E-06,0.007020625
,,,2.94E-06,0.007136875
,,,2.95E-06,0.00716
,,,2.96E-06,0.007089375
,,,2.97E-06,0.0071025
,,,2.98E-06,0.007273125
,,,2.99E-06,0.007173125
,,,3E-06,0.007028125
,,,3.01E-06,0.00695625
,,,3.02E-06,0.006999375
,,,3.03E-06,0.00684375
,,,3.04E-06,0.00710875
,,,3.05E-06,0.00700875
,,,3.06E-06,0.00717875
,,,3.07E-06,0.0069525
,,,3.08E-06,0.006914375
,,,3.09E-06,0.00701
,,,3.1E-06,0.00692875
,,,3.11E-06,0.007013125
,,,3.12E-06,0.0071425
,,,3.13E-06,0.007185
,,,3.14E-06,0.007015625
,,,3.15E-06,0.007083125
,,,3.16E-06,0.007065
,,,3.17E-06,0.00703875
,,,3.18E-06,0.007126875
,,,3.19E-06,0.007126875
,,,3.2E-06,0.007163125
,,,3.21E-06,0.006885
,,,3.22E-06,0.007231875
,,,3.23E-06,0.006986875
,,,3.24E-06,0.00699375
,,,3.25E-06,0.0067325
,,,3.26E-06,0.006855625
,,,3.27E-06,0.00709625
,,,3.28E-06,0.00676875
,,,3.29E-06,0.0070425
,,,3.3E-06,0.00742
,,,3.31E-06,0.00724375
,,,3.32E-06,0.00699375
,,,3.33E-06,0.006893125
,,,3.34E-06,0.006869375
,,,3.35E-06,0.006841875
,,,3.36E-06,0.00711375
,,,3.37E-06,0.007084375
,,,3.38E-06,0.00691
,,,3.39E-06,0.007045625
,,,3.4E-06,0.00712125
,,,3.41E-06,0.007186875
,,,3.42E-06,0.00706
,,,3.43E-06,0.0068425
,,,3.44E-06,0.00714875
,,,3.45E-06,0.00720375
,,,3.46E-06,0.00716
,,,3.47E-06,0.007188125
,,,3.48E-06,0.007315
,,,3.49E-06,0.007101875
,,,3.5E-06,0.007098125
,,,3.51E-06,0.007055625
,,,3.52E-06,0.007165625
,,,3.53E-06,0.007010625
,,,3.54E-06,0.00721375
,,,3.55E-06,0.006884375
,,,3.56E-06,0.00719625
,,,3.57E-06,0.00708
