data/raw/Final_POL_Test_1/SOP068_Ch4.csv

"Record Length",1000,"Points",-5E-06,0.019450625
"Sample Interval",1E-08,s,-4.99E-06,0.019098125
"Trigger Point",500,"Samples",-4.98E-06,0.019295
"Trigger Time",0,s,-4.97E-06,0.01927
"",,,-4.96E-06,0.019356875
"Horizontal Offset",-5E-06,s,-4.95E-06,0.019225
,,,-4.94E-06,0.0192325
,,,-4.93E-06,0.019125625
,,,-4.92E-06,0.019173125
,,,-4.91E-06,0.01956625
,,,-4.9E-06,0.01943375
,,,-4.89E-06,0.019440625
,,,-4.88E-06,0.01932375
,,,-4.87E-06,0.019266875
,,,-4.86E-06,0.01955
,,,-4.85E-06,0.019138125
,,,-4.84E-06,0.019305
,,,-4.83E-06,0.019135
,,,-4.82E-06,0.0194875
,,,-4.81E-06,0.019488125
,,,-4.8E-06,0.0192925
,,,-4.79E-06,0.01946125
,,,-4.78E-06,0.01944625
,,,-4.77E-06,0.0192375
,,,-4.76E-06,0.0193275
,,,-4.75E-06,0.019215
,,,-4.74E-06,0.019476875
,,,-4.73E-06,0.01938625
,,,-4.72E-06,0.01928625
,,,-4.71E-06,0.019219375
,,,-4.7E-06,0.019193125
,,,-4.69E-06,0.019298125
,,,-4.68E-06,0.01929625
,,,-4.67E-06,0.0194475
,,,-4.66E-06,0.0191625
,,,-4.65E-06,0.019371875
,,,-4.64E-06,0.019169375
,,,-4.63E-06,0.019231875
,,,-4.62E-06,0.0194025
,,,-4.61E-06,0.01926625
,,,-4.6E-06,0.019374375
,,,-4.59E-06,0.01933125
,,,-4.58E-06,0.019428125
,,,-4.57E-06,0.01941875
,,,-4.56E-06,0.019328125
,,,-4.55E-06,0.019351875
,,,-4.54E-06,0.019045
,,,-4.53E-06,0.019218125
,,,-4.52E-06,0.019385625
,,,-4.51E-06,0.019168125
,,,-4.5E-06,0.01923875
,,,-4.49E-06,0.019408125
,,,-4.48E-06,0.019300625
,,,-4.47E-06,0.019230625
,,,-4.46E-06,0.01917625
,,,-4.45E-06,0.0194575
,,,-4.44E-06,0.01931375
,,,-4.43E-06,0.019255625
,,,-4.42E-06,0.019263125
,,,-4.41E-06,0.0192525
,,,-4.4E-06,0.0194225
,,,-4.39E-06,0.019231875
,,,-4.38E-06,0.019301875
,,,-4.37E-06,0.019071875
,,,-4.36E-06,0.01943625
,,,-4.35E-06,0.019398125
,,,-4.34E-06,0.019261875
,,,-4.33E-06,0.0195225
,,,-4.32E-06,0.019016875
,,,-4.31E-06,0.01904375
,,,-4.3E-06,0.0194925
,,,-4.29E-06,0.019240625
,,,-4.28E-06,0.019473125
,,,-4.27E-06,0.019244375
,,,-4.26E-06,0.0193725
,,,-4.25E-06,0.0190175
,,,-4.24E-06,0.019436875
,,,-4.23E-06,0.019465
,,,-4.22E-06,0.01920625
,,,-4.21E-06,0.019346875
,,,-4.2E-06,0.0193
,,,-4.19E-06,0.019251875
,,,-4.18E-06,0.019320625
,,,-4.17E-06,0.0194875
,,,-4.16E-06,0.019439375
,,,-4.15E-06,0.019235625
,,,-4.14E-06,0.019234375
,,,-4.13E-06,0.01936125
,,,-4.12E-06,0.0193125
,,,-4.11E-06,0.01929375
,,,-4.1E-06,0.019190625
,,,-4.09E-06,0.019495625
,,,-4.08E-06,0.01927625
,,,-4.07E-06,0.019345
,,,-4.06E-06,0.019248125
,,,-4.05E-06,0.019316875
,,,-4.04E-06,0.01913875
,,,-4.03E-06,0.01928
,,,-4.02E-06,0.01942
,,,-4.01E-06,0.019435
,,,-4E-06,0.019435
,,,-3.99E-06,0.01945
,,,-3.98E-06,0.019385625
,,,-3.97E-06,0.019269375
,,,-3.96E-06,0.01948375
,,,-3.95E-06,0.0190325
,,,-3.94E-06,0.01899125
,,,-3.93E-06,0.019281875
,,,-3.92E-06,0.01900375
,,,-3.91E-06,0.0192025
,,,-3.9E-06,0.01943125
,,,-3.89E-06,0.01940875
,,,-3.88E-06,0.01928875
,,,-3.87E-06,0.01959875
,,,-3.86E-06,0.01918375
,,,-3.85E-06,0.019369375
,,,-3.84E-06,0.01937875
,,,-3.83E-06,0.019045625
,,,-3.82E-06,0.01918125
,,,-3.81E-06,0.019245
,,,-3.8E-06,0.019151875
,,,-3.79E-06,0.01909125
,,,-3.78E-06,0.01943625
,,,-3.77E-06,0.01930125
,,,-3.76E-06,0.0192975
,,,-3.75E-06,0.019233125
,,,-3.74E-06,0.019333125
,,,-3.73E-06,0.01941375
,,,-3.72E-06,0.0194225
,,,-3.71E-06,0.01940625
,,,-3.7E-06,0.01894875
,,,-3.69E-06,0.0193775
,,,-3.68E-06,0.01937
,,,-3.67E-06,0.019314375
,,,-3.66E-06,0.019256875
,,,-3.65E-06,0.019154375
,,,-3.64E-06,0.019226875
,,,-3.63E-06,0.0190625
,,,-3.62E-06,0.019158125
,,,-3.61E-06,0.0192725
,,,-3.6E-06,0.01944375
,,,-3.59E-06,0.019190625
,,,-3.58E-06,0.0194925
,,,-3.57E-06,0.019296875
,,,-3.56E-06,0.01937
,,,-3.55E-06,0.019469375
,,,-3.54E-06,0.01927625
,,,-3.53E-06,0.01914125
,,,-3.52E-06,0.0195325
,,,-3.51E-06,0.019334375
,,,-3.5E-06,0.01931
,,,-3.49E-06,0.01919625
,,,-3.48E-06,0.019131875
,,,-3.47E-06,0.019279375
,,,-3.46E-06,0.019106875
,,,-3.45E-06,0.019378125
,,,-3.44E-06,0.019381875
,,,-3.43E-06,0.019163125
,,,-3.42E-06,0.019314375
,,,-3.41E-06,0.0194125
,,,-3.4E-06,0.01928625
,,,-3.39E-06,0.0194025
,,,-3.38E-06,0.01902375
,,,-3.37E-06,0.01902
,,,-3.36E-06,0.0193225
,,,-3.35E-06,0.01923375
,,,-3.34E-06,0.01925125
,,,-3.33E-06,0.01944875
,,,-3.32E-06,0.01931875
,,,-3.31E-06,0.01921375
,,,-3.3E-06,0.019438125
,,,-3.29E-06,0.0194625
,,,-3.28E-06,0.019094375
,,,-3.27E-06,0.01930375
,,,-3.26E-06,0.019204375
,,,-3.25E-06,0.01922
,,,-3.24E-06,0.019344375
,,,-3.23E-06,0.01916375
,,,-3.22E-06,0.019125
,,,-3.21E-06,0.019334375
,,,-3.2E-06,0.019241875
,,,-3.19E-06,0.019445
,,,-3.18E-06,0.019388125
,,,-3.17E-06,0.019319375
,,,-3.16E-06,0.019139375
,,,-3.15E-06,0.0192775
,,,-3.14E-06,0.0194275
,,,-3.13E-06,0.019410625
,,,-3.12E-06,0.01923875
,,,-3.11E-06,0.01921625
,,,-3.1E-06,0.018994375
,,,-3.09E-06,0.0192175
,,,-3.08E-06,0.019326875
,,,-3.07E-06,0.01923
,,,-3.06E-06,0.0191825
,,,-3.05E-06,0.019504375
,,,-3.04E-06,0.019170625
,,,-3.03E-06,0.01916375
,,,-3.02E-06,0.01919375
,,,-3.01E-06,0.01924
,,,-3E-06,0.01945
,,,-2.99E-06,0.019338125
,,,-2.98E-06,0.01914875
,,,-2.97E-06,0.0192125
,,,-2.96E-06,0.019450625
,,,-2.95E-06,0.019289375
,,,-2.94E-06,0.019395
,,,-2.93E-06,0.01919
,,,-2.92E-06,0.019483125
,,,-2.91E-06,0.01931125
,,,-2.9E-06,0.019404375
,,,-2.89E-06,0.0192925
,,,-2.88E-06,0.019105
,,,-2.87E-06,0.01918625
,,,-2.86E-06,0.01912125
,,,-2.85E-06,0.019225
,,,-2.84E-06,0.019310625
,,,-2.83E-06,0.019321875
,,,-2.82E-06,0.019505
,,,-2.81E-06,0.0193625
,,,-2.8E-06,0.0195175
,,,-2.79E-06,0.01915375
,,,-2.78E-06,0.01908375
,,,-2.77E-06,0.019123125
,,,-2.76E-06,0.019401875
,,,-2.75E-06,0.019265625
,,,-2.74E-06,0.019383125
,,,-2.73E-06,0.019465
,,,-2.72E-06,0.019323125
,,,-2.71E-06,0.01926
,,,-2.7E-06,0.019310625
,,,-2.69E-06,0.01936875
,,,-2.68E-06,0.019200625
,,,-2.67E-06,0.01909625
,,,-2.66E-06,0.019249375
,,,-2.65E-06,0.019154375
,,,-2.64E-06,0.019264375
,,,-2.63E-06,0.019275
,,,-2.62E-06,0.019190625
,,,-2.61E-06,0.019048125
,,,-2.6E-06,0.01932875
,,,-2.59E-06,0.019393125
,,,-2.58E-06,0.019476875
,,,-2.57E-06,0.01914125
,,,-2.56E-06,0.01946875
,,,-2.55E-06,0.019541875
,,,-2.54E-06,0.019278125
,,,-2.53E-06,0.019284375
,,,-2.52E-06,0.01928625
,,,-2.51E-06,0.019389375
,,,-2.5E-06,0.019439375
,,,-2.49E-06,0.019481875
,,,-2.48E-06,0.0191525
,,,-2.47E-06,0.019286875
,,,-2.46E-06,0.019076875
,,,-2.45E-06,0.0191975
,,,-2.44E-06,0.0194775
,,,-2.43E-06,0.019613125
,,,-2.42E-06,0.01925625
,,,-2.41E-06,0.01918125
,,,-2.4E-06,0.019340625
,,,-2.39E-06,0.01944
,,,-2.38E-06,0.01909125
,,,-2.37E-06,0.019055
,,,-2.36E-06,0.0192375
,,,-2.35E-06,0.01944375
,,,-2.34E-06,0.019301875
,,,-2.33E-06,0.01939125
,,,-2.32E-06,0.0193475
,,,-2.31E-06,0.019316875
,,,-2.3E-06,0.0193575
,,,-2.29E-06,0.01947625
,,,-2.28E-06,0.019543125
,,,-2.27E-06,0.0192825
,,,-2.26E-06,0.019485625
,,,-2.25E-06,0.019444375
,,,-2.24E-06,0.019020625
,,,-2.23E-06,0.01942875
,,,-2.22E-06,0.0193525
,,,-2.21E-06,0.019293125
,,,-2.2E-06,0.01950875
,,,-2.19E-06,0.019146875
,,,-2.18E-06,0.019245
,,,-2.17E-06,0.019431875
,,,-2.16E-06,0.0193525
,,,-2.15E-06,0.0193975
,,,-2.14E-06,0.019350625
,,,-2.13E-06,0.01933625
,,,-2.12E-06,0.019325
,,,-2.11E-06,0.019223125
,,,-2.1E-06,0.019344375
,,,-2.09E-06,0.019265
,,,-2.08E-06,0.019433125
,,,-2.07E-06,0.01910625
,,,-2.06E-06,0.01915875
,,,-2.05E-06,0.019150625
,,,-2.04E-06,0.019505625
,,,-2.03E-06,0.019383125
,,,-2.02E-06,0.019286875
,,,-2.01E-06,0.019291875
,,,-2E-06,0.019226875
,,,-1.99E-06,0.019213125
,,,-1.98E-06,0.0193375
,,,-1.97E-06,0.01925875
,,,-1.96E-06,0.01947875
,,,-1.95E-06,0.01946
,,,-1.94E-06,0.019125
,,,-1.93E-06,0.0195125
,,,-1.92E-06,0.019263125
,,,-1.91E-06,0.019496875
,,,-1.9E-06,0.019499375
,,,-1.89E-06,0.01939375
,,,-1.88E-06,0.01931875
,,,-1.87E-06,0.019295625
,,,-1.86E-06,0.019541875
,,,-1.85E-06,0.019136875
,,,-1.84E-06,0.019241875
,,,-1.83E-06,0.0190775
,,,-1.82E-06,0.019118125
,,,-1.81E-06,0.01922625
,,,-1.8E-06,0.0191775
,,,-1.79E-06,0.01941125
,,,-1.78E-06,0.01935375
,,,-1.77E-06,0.01936
,,,-1.76E-06,0.019353125
,,,-1.75E-06,0.01941125
,,,-1.74E-06,0.01944875
,,,-1.73E-06,0.0191925
,,,-1.72E-06,0.01935375
,,,-1.71E-06,0.01937125
,,,-1.7E-06,0.0193575
,,,-1.69E-06,0.019041875
,,,-1.68E-06,0.0190625
,,,-1.67E-06,0.019420625
,,,-1.66E-06,0.01928625
,,,-1.65E-06,0.019155
,,,-1.64E-06,0.0194325
,,,-1.63E-06,0.019264375
,,,-1.62E-06,0.01921625
,,,-1.61E-06,0.0191475
,,,-1.6E-06,0.019249375
,,,-1.59E-06,0.019475
,,,-1.58E-06,0.019604375
,,,-1.57E-06,0.01948
,,,-1.56E-06,0.01915
,,,-1.55E-06,0.01915625
,,,-1.54E-06,0.01940625
,,,-1.53E-06,0.019291875
,,,-1.52E-06,0.01949125
,,,-1.51E-06,0.019469375
,,,-1.5E-06,0.01933125
,,,-1.49E-06,0.019423125
,,,-1.48E-06,0.019151875
,,,-1.47E-06,0.01909125
,,,-1.46E-06,0.01931625
,,,-1.45E-06,0.0193925
,,,-1.44E-06,0.019438125
,,,-1.43E-06,0.019523125
,,,-1.42E-06,0.019426875
,,,-1.41E-06,0.019239375
,,,-1.4E-06,0.019366875
,,,-1.39E-06,0.019213125
,,,-1.38E-06,0.01933875
,,,-1.37E-06,0.019115
,,,-1.36E-06,0.019085
,,,-1.35E-06,0.019570625
,,,-1.34E-06,0.0194225
,,,-1.33E-06,0.019356875
,,,-1.32E-06,0.019650625
,,,-1.31E-06,0.01945
,,,-1.3E-06,0.019281875
,,,-1.29E-06,0.01906125
,,,-1.28E-06,0.01903125
,,,-1.27E-06,0.019469375
,,,-1.26E-06,0.01932125
,,,-1.25E-06,0.019413125
,,,-1.24E-06,0.0195075
,,,-1.23E-06,0.01914625
,,,-1.22E-06,0.019485
,,,-1.21E-06,0.01938125
,,,-1.2E-06,0.019171875
,,,-1.19E-06,0.01927875
,,,-1.18E-06,0.01925125
,,,-1.17E-06,0.019170625
,,,-1.16E-06,0.019480625
,,,-1.15E-06,0.019438125
,,,-1.14E-06,0.019318125
,,,-1.13E-06,0.0191
,,,-1.12E-06,0.0191925
,,,-1.11E-06,0.019220625
,,,-1.1E-06,0.01934375
,,,-1.09E-06,0.019481875
,,,-1.08E-06,0.0192075
,,,-1.07E-06,0.019123125
,,,-1.06E-06,0.0194175
,,,-1.05E-06,0.019268125
,,,-1.04E-06,0.01927125
,,,-1.03E-06,0.01934375
,,,-1.02E-06,0.01941
,,,-1.01E-06,0.0193625
,,,-1E-06,0.01963125
,,,-9.9E-07,0.019375625
,,,-9.8E-07,0.019335
,,,-9.7E-07,0.019285
,,,-9.6E-07,0.019226875
,,,-9.5E-07,0.01904125
,,,-9.4E-07,0.019298125
,,,-9.3E-07,0.0193175
,,,-9.2E-07,0.01914625
,,,-9.1E-07,0.01931125
,,,-9E-07,0.018911875
,,,-8.9E-07,0.01910875
,,,-8.8E-07,0.0192875
,,,-8.7E-07,0.01958
,,,-8.6E-07,0.019255
,,,-8.5E-07,0.019296875
,,,-8.4E-07,0.019273125
,,,-8.3E-07,0.019031875
,,,-8.2E-07,0.019453125
,,,-8.1E-07,0.01921875
,,,-8E-07,0.01947875
,,,-7.9E-07,0.019211875
,,,-7.8E-07,0.01944
,,,-7.7E-07,0.019645
,,,-7.6E-07,0.019516875
,,,-7.5E-07,0.019511875
,,,-7.4E-07,0.019345625
,,,-7.3E-07,0.019280625
,,,-7.2E-07,0.01937875
,,,-7.1E-07,0.019238125
,,,-7E-07,0.019428125
,,,-6.9E-07,0.019355
,,,-6.8E-07,0.019314375
,,,-6.7E-07,0.01942
,,,-6.6E-07,0.019558125
,,,-6.5E-07,0.019395
,,,-6.4E-07,0.019244375
,,,-6.3E-07,0.01933625
,,,-6.2E-07,0.01913875
,,,-6.1E-07,0.019461875
,,,-6E-07,0.019515
,,,-5.9E-07,0.019464375
,,,-5.8E-07,0.019154375
,,,-5.7E-07,0.01941125
,,,-5.6E-07,0.019378125
,,,-5.5E-07,0.01911
,,,-5.4E-07,0.0195175
,,,-5.3E-07,0.019185625
,,,-5.2E-07,0.019270625
,,,-5.1E-07,0.01931125
,,,-5E-07,0.019364375
,,,-4.9E-07,0.01912125
,,,-4.8E-07,0.01934
,,,-4.7E-07,0.019239375
,,,-4.6E-07,0.019181875
,,,-4.5E-07,0.01933625
,,,-4.4E-07,0.019341875
,,,-4.3E-07,0.0192
,,,-4.2E-07,0.0192475
,,,-4.1E-07,0.019339375
,,,-4E-07,0.01898
,,,-3.9E-07,0.019545
,,,-3.8E-07,0.019213125
,,,-3.7E-07,0.019330625
,,,-3.6E-07,0.01932375
,,,-3.5E-07,0.019334375
,,,-3.4E-07,0.019293125
,,,-3.3E-07,0.019211875
,,,-3.2E-07,0.0192
,,,-3.1E-07,0.01940375
,,,-3E-07,0.01907375
,,,-2.9E-07,0.019188125
,,,-2.8E-07,0.019283125
,,,-2.7E-07,0.019321875
,,,-2.6E-07,0.019155625
,,,-2.5E-07,0.019440625
,,,-2.4E-07,0.01916125
,,,-2.3E-07,0.019150625
,,,-2.2E-07,0.0190725
,,,-2.1E-07,0.019298125
,,,-2E-07,0.019485625
,,,-1.9E-07,0.019258125
,,,-1.8E-07,0.01914375
,,,-1.7E-07,0.019374375
,,,-1.6E-07,0.01933375
,,,-1.5E-07,0.019309375
,,,-1.4E-07,0.019170625
,,,-1.3E-07,0.01938
,,,-1.2E-07,0.01917875
,,,-1.1E-07,0.0192625
,,,-1E-07,0.019435
,,,-9E-08,0.019465
,,,-8E-08,0.019269375
,,,-7E-08,0.019105625
,,,-6E-08,0.019244375
,,,-5E-08,0.019390625
,,,-4E-08,0.01989875
,,,-3E-08,0.020853125
,,,-2E-08,0.01806
,,,-1E-08,0.01684
,,,0,0.0163725
,,,1E-08,0.02130875
,,,2E-08,0.02289375
,,,3E-08,0.02236375
,,,4E-08,0.0191325
,,,5E-08,0.017205
,,,6E-08,0.01661
,,,7E-08,0.018444375
,,,8E-08,0.019765625
,,,9E-08,0.0209075
,,,1E-07,0.02095
,,,1.1E-07,0.020094375
,,,1.2E-07,0.01864
,,,1.3E-07,0.0180975
,,,1.4E-07,0.0187525
,,,1.5E-07,0.0196075
,,,1.6E-07,0.02
,,,1.7E-07,0.019546875
,,,1.8E-07,0.0193375
,,,1.9E-07,0.01933
,,,2E-07,0.01918
,,,2.1E-07,0.019105625
,,,2.2E-07,0.01931
,,,2.3E-07,0.01931
,,,2.4E-07,0.01949625
,,,2.5E-07,0.01938
,,,2.6E-07,0.019136875
,,,2.7E-07,0.019330625
,,,2.8E-07,0.019279375
,,,2.9E-07,0.01929
,,,3E-07,0.019271875
,,,3.1E-07,0.019474375
,,,3.2E-07,0.019354375
,,,3.3E-07,0.019499375
,,,3.4E-07,0.019570625
,,,3.5E-07,0.01951125
,,,3.6E-07,0.019214375
,,,3.7E-07,0.019205625
,,,3.8E-07,0.01932625
,,,3.9E-07,0.019179375
,,,4E-07,0.019744375
,,,4.1E-07,0.019085
,,,4.2E-07,0.01915875
,,,4.3E-07,0.019188125
,,,4.4E-07,0.019208125
,,,4.5E-07,0.01952125
,,,4.6E-07,0.019478125
,,,4.7E-07,0.019259375
,,,4.8E-07,0.019505625
,,,4.9E-07,0.019116875
,,,5E-07,0.019023125
,,,5.1E-07,0.019501875
,,,5.2E-07,0.019175
,,,5.3E-07,0.019255
,,,5.4E-07,0.019298125
,,,5.5E-07,0.01927125
,,,5.6E-07,0.0193925
,,,5.7E-07,0.01924
,,,5.8E-07,0.01967
,,,5.9E-07,0.019298125
,,,6E-07,0.01926875
,,,6.1E-07,0.019433125
,,,6.2E-07,0.019380625
,,,6.3E-07,0.01944
,,,6.4E-07,0.019401875
,,,6.5E-07,0.01947
,,,6.6E-07,0.01932625
,,,6.7E-07,0.019325
,,,6.8E-07,0.019645
,,,6.9E-07,0.019183125
,,,7E-07,0.019380625
,,,7.1E-07,0.01931125
,,,7.2E-07,0.01919625
,,,7.3E-07,0.019200625
,,,7.4E-07,0.01921
,,,7.5E-07,0.0194725
,,,7.6E-07,0.01928375
,,,7.7E-07,0.01927125
,,,7.8E-07,0.0193575
,,,7.9E-07,0.01934625
,,,8E-07,0.019234375
,,,8.1E-07,0.01941125
,,,8.2E-07,0.019300625
,,,8.3E-07,0.019431875
,,,8.4E-07,0.01955
,,,8.5E-07,0.019418125
,,,8.6E-07,0.0192225
,,,8.7E-07,0.019439375
,,,8.8E-07,0.01922
,,,8.9E-07,0.019181875
,,,9E-07,0.019414375
,,,9.1E-07,0.019250625
,,,9.2E-07,0.0194475
,,,9.3E-07,0.019190625
,,,9.4E-07,0.019236875
,,,9.5E-07,0.019230625
,,,9.6E-07,0.0190825
,,,9.7E-07,0.019568125
,,,9.8E-07,0.0191325
,,,9.9E-07,0.01963
,,,1E-06,0.01936875
,,,1.01E-06,0.019300625
,,,1.02E-06,0.019488125
,,,1.03E-06,0.019370625
,,,1.04E-06,0.018976875
,,,1.05E-06,0.019385
,,,1.06E-06,0.01949
,,,1.07E-06,0.019170625
,,,1.08E-06,0.019254375
,,,1.09E-06,0.0194925
,,,1.1E-06,0.019355
,,,1.11E-06,0.01944375
,,,1.12E-06,0.019444375
,,,1.13E-06,0.019391875
,,,1.14E-06,0.019399375
,,,1.15E-06,0.019355
,,,1.16E-06,0.01928
,,,1.17E-06,0.019360625
,,,1.18E-06,0.019443125
,,,1.19E-06,0.01943625
,,,1.2E-06,0.019323125
,,,1.21E-06,0.01938
,,,1.22E-06,0.019205625
,,,1.23E-06,0.01939625
,,,1.24E-06,0.019329375
,,,1.25E-06,0.0193875
,,,1.26E-06,0.0191925
,,,1.27E-06,0.019243125
,,,1.28E-06,0.01925
,,,1.29E-06,0.01928375
,,,1.3E-06,0.01912125
,,,1.31E-06,0.019186875
,,,1.32E-06,0.0192275
,,,1.33E-06,0.01941
,,,1.34E-06,0.019209375
,,,1.35E-06,0.019244375
,,,1.36E-06,0.019205625
,,,1.37E-06,0.01939
,,,1.38E-06,0.01931875
,,,1.39E-06,0.01930125
,,,1.4E-06,0.019438125
,,,1.41E-06,0.019039375
,,,1.42E-06,0.0192875
,,,1.43E-06,0.0191825
,,,1.44E-06,0.019479375
,,,1.45E-06,0.01925
,,,1.46E-06,0.01937125
,,,1.47E-06,0.019305
,,,1.48E-06,0.019015
,,,1.49E-06,0.019469375
,,,1.5E-06,0.019281875
,,,1.51E-06,0.01942375
,,,1.52E-06,0.01925875
,,,1.53E-06,0.01917625
,,,1.54E-06,0.019346875
,,,1.55E-06,0.01927625
,,,1.56E-06,0.01923875
,,,1.57E-06,0.019315625
,,,1.58E-06,0.019316875
,,,1.59E-06,0.01932
,,,1.6E-06,0.019241875
,,,1.61E-06,0.019305
,,,1.62E-06,0.019439375
,,,1.63E-06,0.0192825
,,,1.64E-06,0.019439375
,,,1.65E-06,0.019330625
,,,1.66E-06,0.019288125
,,,1.67E-06,0.019586875
,,,1.68E-06,0.01927875
,,,1.69E-06,0.01918875
,,,1.7E-06,0.019200625
,,,1.71E-06,0.019179375
,,,1.72E-06,0.01952
,,,1.73E-06,0.019500625
,,,1.74E-06,0.019174375
,,,1.75E-06,0.01920125
,,,1.76E-06,0.019185
,,,1.77E-06,0.01923125
,,,1.78E-06,0.019236875
,,,1.79E-06,0.01931625
,,,1.8E-06,0.019420625
,,,1.81E-06,0.019509375
,,,1.82E-06,0.01921125
,,,1.83E-06,0.019450625
,,,1.84E-06,0.019249375
,,,1.85E-06,0.018991875
,,,1.86E-06,0.019278125
,,,1.87E-06,0.019289375
,,,1.88E-06,0.019148125
,,,1.89E-06,0.01916625
,,,1.9E-06,0.0195225
,,,1.91E-06,0.019115
,,,1.92E-06,0.0194975
,,,1.93E-06,0.019390625
,,,1.94E-06,0.019165625
,,,1.95E-06,0.019178125
,,,1.96E-06,0.019283125
,,,1.97E-06,0.019240625
,,,1.98E-06,0.01917125
,,,1.99E-06,0.01941
,,,2E-06,0.01951625
,,,2.01E-06,0.01924375
,,,2.02E-06,0.019375625
,,,2.03E-06,0.01911
,,,2.04E-06,0.01930875
,,,2.05E-06,0.019379375
,,,2.06E-06,0.019433125
,,,2.07E-06,0.01947
,,,2.08E-06,0.019229375
,,,2.09E-06,0.0192175
,,,2.1E-06,0.01956625
,,,2.11E-06,0.0192825
,,,2.12E-06,0.01905625
,,,2.13E-06,0.019425
,,,2.14E-06,0.019230625
,,,2.15E-06,0.019298125
,,,2.16E-06,0.0193575
,,,2.17E-06,0.019405625
,,,2.18E-06,0.01903
,,,2.19E-06,0.01892
,,,2.2E-06,0.019295
,,,2.21E-06,0.01923875
,,,2.22E-06,0.01934125
,,,2.23E-06,0.01953
,,,2.24E-06,0.0192225
,,,2.25E-06,0.01915375
,,,2.26E-06,0.019330625
,,,2.27E-06,0.0191725
,,,2.28E-06,0.01939375
,,,2.29E-06,0.01918125
,,,2.3E-06,0.019351875
,,,2.31E-06,0.019266875
,,,2.32E-06,0.019493125
,,,2.33E-06,0.01955
,,,2.34E-06,0.01915
,,,2.35E-06,0.019255
,,,2.36E-06,0.019294375
,,,2.37E-06,0.01923875
,,,2.38E-06,0.019256875
,,,2.39E-06,0.019195
,,,2.4E-06,0.01927
,,,2.41E-06,0.0191025
,,,2.42E-06,0.01913375
,,,2.43E-06,0.0190825
,,,2.44E-06,0.01926
,,,2.45E-06,0.019058125
,,,2.46E-06,0.01914625
,,,2.47E-06,0.01926625
,,,2.48E-06,0.01922875
,,,2.49E-06,0.019331875
,,,2.5E-06,0.019145
,,,2.51E-06,0.0189225
,,,2.52E-06,0.019410625
,,,2.53E-06,0.019435625
,,,2.54E-06,0.019401875
,,,2.55E-06,0.01927375
,,,2.56E-06,0.019225625
,,,2.57E-06,0.019315625
,,,2.58E-06,0.019295
,,,2.59E-06,0.0193075
,,,2.6E-06,0.01920375
,,,2.61E-06,0.019174375
,,,2.62E-06,0.019336875
,,,2.63E-06,0.019354375
,,,2.64E-06,0.0193825
,,,2.65E-06,0.0193425
,,,2.66E-06,0.01949
,,,2.67E-06,0.019201875
,,,2.68E-06,0.019325625
,,,2.69E-06,0.019209375
,,,2.7E-06,0.019260625
,,,2.71E-06,0.019436875
,,,2.72E-06,0.0195175
,,,2.73E-06,0.019368125
,,,2.74E-06,0.019354375
,,,2.75E-06,0.019155
,,,2.76E-06,0.019181875
,,,2.77E-06,0.0191775
,,,2.78E-06,0.019384375
,,,2.79E-06,0.0191975
,,,2.8E-06,0.019275625
,,,2.81E-06,0.019273125
,,,2.82E-06,0.01937125
,,,2.83E-06,0.019486875
,,,2.84E-06,0.019203125
,,,2.85E-06,0.01924875
,,,2.86E-06,0.019205
,,,2.87E-06,0.01932375
,,,2.88E-06,0.019305
,,,2.89E-06,0.019346875
,,,2.9E-06,0.019473125
,,,2.91E-06,0.019199375
,,,2.92E-06,0.019258125
,,,2.93E-06,0.019236875
,,,2.94E-06,0.01927
,,,2.95E-06,0.0194275
,,,2.96E-06,0.019338125
,,,2.97E-06,0.019534375
,,,2.98E-06,0.019355625
,,,2.99E-06,0.01932625
,,,3E-06,0.0191675
,,,3.01E-06,0.019475625
,,,3.02E-06,0.019284375
,,,3.03E-06,0.019235
,,,3.04E-06,0.01922875
,,,3.05E-06,0.01922625
,,,3.06E-06,0.019505625
,,,3.07E-06,0.0192325
,,,3.08E-06,0.0192575
,,,3.09E-06,0.019280625
,,,3.1E-06,0.01936375
,,,3.11E-06,0.019481875
,,,3.12E-06,0.019361875
,,,3.13E-06,0.0192875
,,,3.14E-06,0.0192975
,,,3.15E-06,0.01941375
,,,3.16E-06,0.019351875
,,,3.17E-06,0.019541875
,,,3.18E-06,0.01912625
,,,3.19E-06,0.019259375
,,,3.2E-06,0.01918125
,,,3.21E-06,0.0190025
,,,3.22E-06,0.01952375
,,,3.23E-06,0.019140625
,,,3.24E-06,0.019339375
,,,3.25E-06,0.01941625
,,,3.26E-06,0.019329375
,,,3.27E-06,0.019355
,,,3.28E-06,0.019130625
,,,3.29E-06,0.019324375
,,,3.3E-06,0.019141875
,,,3.31E-06,0.01939
,,,3.32E-06,0.01909125
,,,3.33E-06,0.019181875
,,,3.34E-06,0.0192475
,,,3.35E-06,0.019155
,,,3.36E-06,0.01930625
,,,3.37E-06,0.0195125
,,,3.38E-06,0.019156875
,,,3.39E-06,0.01941625
,,,3.4E-06,0.019385625
,,,3.41E-06,0.019044375
,,,3.42E-06,0.019218125
,,,3.43E-06,0.01933625
,,,3.44E-06,0.0194175
,,,3.45E-06,0.019408125
,,,3.46E-06,0.018984375
,,,3.47E-06,0.019491875
,,,3.48E-06,0.019320625
,,,3.49E-06,0.019044375
,,,3.5E-06,0.01931125
,,,3.51E-06,0.019245625
,,,3.52E-06,0.019345625
,,,3.53E-06,0.01928875
,,,3.54E-06,0.019515
,,,3.55E-06,0.0196025
,,,3.56E-06,0.01925625
,,,3.57E-06,0.019341875
,,,3.58E-06,0.0192675
,,,3.59E-06,0.019355625
,,,3.6E-06,0.019151875
