data/raw/Final_POL_Test_1/SOP043_Ch3.csv

"Record Length",1000,"Points",-5E-06,0.017064376
"Sample Interval",1E-08,s,-4.99E-06,0.016848751
"Trigger Point",500,"Samples",-4.98E-06,0.017034376
"Trigger Time",0,s,-4.97E-06,0.017195626
"",,,-4.96E-06,0.017218751
"Horizontal Offset",-5E-06,s,-4.95E-06,0.017206251
,,,-4.94E-06,0.017110626
,,,-4.93E-06,0.017260001
,,,-4.92E-06,0.017077501
,,,-4.91E-06,0.017159376
,,,-4.9E-06,0.016940001
,,,-4.89E-06,0.017138126
,,,-4.88E-06,0.017087501
,,,-4.87E-06,0.017115001
,,,-4.86E-06,0.017035001
,,,-4.85E-06,0.017116876
,,,-4.84E-06,0.017311251
,,,-4.83E-06,0.016856876
,,,-4.82E-06,0.017202501
,,,-4.81E-06,0.017190626
,,,-4.8E-06,0.017178126
,,,-4.79E-06,0.016951251
,,,-4.78E-06,0.017250001
,,,-4.77E-06,0.017082501
,,,-4.76E-06,0.017163751
,,,-4.75E-06,0.016949376
,,,-4.74E-06,0.016962501
,,,-4.73E-06,0.017225626
,,,-4.72E-06,0.016935626
,,,-4.71E-06,0.017140001
,,,-4.7E-06,0.017033751
,,,-4.69E-06,0.017193751
,,,-4.68E-06,0.017295001
,,,-4.67E-06,0.017275626
,,,-4.66E-06,0.017214376
,,,-4.65E-06,0.017158126
,,,-4.64E-06,0.017082501
,,,-4.63E-06,0.017071251
,,,-4.62E-06,0.016953126
,,,-4.61E-06,0.017029376
,,,-4.6E-06,0.017100626
,,,-4.59E-06,0.017266876
,,,-4.58E-06,0.017020001
,,,-4.57E-06,0.017211876
,,,-4.56E-06,0.016932501
,,,-4.55E-06,0.016862501
,,,-4.54E-06,0.017040626
,,,-4.53E-06,0.017165001
,,,-4.52E-06,0.017195001
,,,-4.51E-06,0.017036876
,,,-4.5E-06,0.017109376
,,,-4.49E-06,0.017241876
,,,-4.48E-06,0.017286876
,,,-4.47E-06,0.016988751
,,,-4.46E-06,0.017010001
,,,-4.45E-06,0.016881251
,,,-4.44E-06,0.017213751
,,,-4.43E-06,0.017051876
,,,-4.42E-06,0.017320626
,,,-4.41E-06,0.017056251
,,,-4.4E-06,0.017083126
,,,-4.39E-06,0.017058126
,,,-4.38E-06,0.017073126
,,,-4.37E-06,0.017251876
,,,-4.36E-06,0.016906251
,,,-4.35E-06,0.016978751
,,,-4.34E-06,0.017021876
,,,-4.33E-06,0.016991251
,,,-4.32E-06,0.016936251
,,,-4.31E-06,0.017044376
,,,-4.3E-06,0.017145001
,,,-4.29E-06,0.017166876
,,,-4.28E-06,0.017046876
,,,-4.27E-06,0.017191251
,,,-4.26E-06,0.016971876
,,,-4.25E-06,0.016878751
,,,-4.24E-06,0.017054376
,,,-4.23E-06,0.017268126
,,,-4.22E-06,0.017064376
,,,-4.21E-06,0.017015001
,,,-4.2E-06,0.017248751
,,,-4.19E-06,0.017320001
,,,-4.18E-06,0.017149376
,,,-4.17E-06,0.017043126
,,,-4.16E-06,0.016946876
,,,-4.15E-06,0.016965001
,,,-4.14E-06,0.017051876
,,,-4.13E-06,0.017289376
,,,-4.12E-06,0.017222501
,,,-4.11E-06,0.017219376
,,,-4.1E-06,0.017029376
,,,-4.09E-06,0.016960001
,,,-4.08E-06,0.017192501
,,,-4.07E-06,0.017196251
,,,-4.06E-06,0.017160626
,,,-4.05E-06,0.017355626
,,,-4.04E-06,0.017423751
,,,-4.03E-06,0.017113751
,,,-4.02E-06,0.017204376
,,,-4.01E-06,0.017226251
,,,-4E-06,0.016996251
,,,-3.99E-06,0.016842501
,,,-3.98E-06,0.017231876
,,,-3.97E-06,0.016943751
,,,-3.96E-06,0.017024376
,,,-3.95E-06,0.017243126
,,,-3.94E-06,0.017088751
,,,-3.93E-06,0.017131251
,,,-3.92E-06,0.016967501
,,,-3.91E-06,0.017075626
,,,-3.9E-06,0.017246251
,,,-3.89E-06,0.017043751
,,,-3.88E-06,0.017228126
,,,-3.87E-06,0.017190626
,,,-3.86E-06,0.017098126
,,,-3.85E-06,0.017165626
,,,-3.84E-06,0.017283751
,,,-3.83E-06,0.017206876
,,,-3.82E-06,0.017203751
,,,-3.81E-06,0.017013751
,,,-3.8E-06,0.017083751
,,,-3.79E-06,0.016931251
,,,-3.78E-06,0.017038126
,,,-3.77E-06,0.016935001
,,,-3.76E-06,0.016985001
,,,-3.75E-06,0.017172501
,,,-3.74E-06,0.016966251
,,,-3.73E-06,0.017246251
,,,-3.72E-06,0.017182501
,,,-3.71E-06,0.016999376
,,,-3.7E-06,0.017086251
,,,-3.69E-06,0.017172501
,,,-3.68E-06,0.017129376
,,,-3.67E-06,0.017020001
,,,-3.66E-06,0.017192501
,,,-3.65E-06,0.016937501
,,,-3.64E-06,0.016822501
,,,-3.63E-06,0.017041251
,,,-3.62E-06,0.017058126
,,,-3.61E-06,0.017140626
,,,-3.6E-06,0.017345001
,,,-3.59E-06,0.016927501
,,,-3.58E-06,0.017128126
,,,-3.57E-06,0.016839376
,,,-3.56E-06,0.016996251
,,,-3.55E-06,0.017178751
,,,-3.54E-06,0.016933751
,,,-3.53E-06,0.016972501
,,,-3.52E-06,0.017131251
,,,-3.51E-06,0.017075001
,,,-3.5E-06,0.017023751
,,,-3.49E-06,0.017065001
,,,-3.48E-06,0.017083126
,,,-3.47E-06,0.016883751
,,,-3.46E-06,0.017097501
,,,-3.45E-06,0.017147501
,,,-3.44E-06,0.017289376
,,,-3.43E-06,0.016847501
,,,-3.42E-06,0.016876251
,,,-3.41E-06,0.017301876
,,,-3.4E-06,0.016926876
,,,-3.39E-06,0.016993751
,,,-3.38E-06,0.017128126
,,,-3.37E-06,0.017106876
,,,-3.36E-06,0.016761251
,,,-3.35E-06,0.017185626
,,,-3.34E-06,0.016941251
,,,-3.33E-06,0.017200626
,,,-3.32E-06,0.016829376
,,,-3.31E-06,0.016976876
,,,-3.3E-06,0.017211251
,,,-3.29E-06,0.016967501
,,,-3.28E-06,0.017093751
,,,-3.27E-06,0.017009376
,,,-3.26E-06,0.017188751
,,,-3.25E-06,0.017131251
,,,-3.24E-06,0.016953126
,,,-3.23E-06,0.017115626
,,,-3.22E-06,0.017016251
,,,-3.21E-06,0.017310001
,,,-3.2E-06,0.017266876
,,,-3.19E-06,0.017201876
,,,-3.18E-06,0.017162501
,,,-3.17E-06,0.017016251
,,,-3.16E-06,0.017206251
,,,-3.15E-06,0.017173751
,,,-3.14E-06,0.017156876
,,,-3.13E-06,0.017088126
,,,-3.12E-06,0.016986251
,,,-3.11E-06,0.017148751
,,,-3.1E-06,0.017264376
,,,-3.09E-06,0.017083126
,,,-3.08E-06,0.016968751
,,,-3.07E-06,0.017125626
,,,-3.06E-06,0.017388751
,,,-3.05E-06,0.017051251
,,,-3.04E-06,0.017281251
,,,-3.03E-06,0.017144376
,,,-3.02E-06,0.017125626
,,,-3.01E-06,0.017396251
,,,-3E-06,0.016960001
,,,-2.99E-06,0.017277501
,,,-2.98E-06,0.017087501
,,,-2.97E-06,0.016953751
,,,-2.96E-06,0.016933751
,,,-2.95E-06,0.016988126
,,,-2.94E-06,0.017175001
,,,-2.93E-06,0.016982501
,,,-2.92E-06,0.016916876
,,,-2.91E-06,0.017133751
,,,-2.9E-06,0.017092501
,,,-2.89E-06,0.016950001
,,,-2.88E-06,0.017038126
,,,-2.87E-06,0.017086876
,,,-2.86E-06,0.017197501
,,,-2.85E-06,0.016950001
,,,-2.84E-06,0.017323126
,,,-2.83E-06,0.017298126
,,,-2.82E-06,0.017396251
,,,-2.81E-06,0.017096876
,,,-2.8E-06,0.017091251
,,,-2.79E-06,0.017030626
,,,-2.78E-06,0.017211251
,,,-2.77E-06,0.017216251
,,,-2.76E-06,0.017165001
,,,-2.75E-06,0.017054376
,,,-2.74E-06,0.017223751
,,,-2.73E-06,0.016932501
,,,-2.72E-06,0.017077501
,,,-2.71E-06,0.016978751
,,,-2.7E-06,0.017013751
,,,-2.69E-06,0.017335001
,,,-2.68E-06,0.017196251
,,,-2.67E-06,0.017105626
,,,-2.66E-06,0.017051876
,,,-2.65E-06,0.017021876
,,,-2.64E-06,0.016764376
,,,-2.63E-06,0.017160626
,,,-2.62E-06,0.017153751
,,,-2.61E-06,0.017201251
,,,-2.6E-06,0.017286876
,,,-2.59E-06,0.017215001
,,,-2.58E-06,0.017208751
,,,-2.57E-06,0.017080001
,,,-2.56E-06,0.016980626
,,,-2.55E-06,0.017044376
,,,-2.54E-06,0.017001876
,,,-2.53E-06,0.017129376
,,,-2.52E-06,0.017184376
,,,-2.51E-06,0.017203751
,,,-2.5E-06,0.016919376
,,,-2.49E-06,0.016866251
,,,-2.48E-06,0.017051251
,,,-2.47E-06,0.017179376
,,,-2.46E-06,0.017023126
,,,-2.45E-06,0.017120001
,,,-2.44E-06,0.017174376
,,,-2.43E-06,0.017025626
,,,-2.42E-06,0.017214376
,,,-2.41E-06,0.017418126
,,,-2.4E-06,0.017151876
,,,-2.39E-06,0.017211876
,,,-2.38E-06,0.017119376
,,,-2.37E-06,0.017140001
,,,-2.36E-06,0.017166251
,,,-2.35E-06,0.016999376
,,,-2.34E-06,0.017262501
,,,-2.33E-06,0.017168751
,,,-2.32E-06,0.016765626
,,,-2.31E-06,0.017185626
,,,-2.3E-06,0.017213126
,,,-2.29E-06,0.016799376
,,,-2.28E-06,0.017175626
,,,-2.27E-06,0.017013751
,,,-2.26E-06,0.017200001
,,,-2.25E-06,0.016764376
,,,-2.24E-06,0.017425001
,,,-2.23E-06,0.017187501
,,,-2.22E-06,0.017235626
,,,-2.21E-06,0.017160001
,,,-2.2E-06,0.016757501
,,,-2.19E-06,0.017019376
,,,-2.18E-06,0.017300001
,,,-2.17E-06,0.017276876
,,,-2.16E-06,0.017223751
,,,-2.15E-06,0.017142501
,,,-2.14E-06,0.016992501
,,,-2.13E-06,0.017237501
,,,-2.12E-06,0.017192501
,,,-2.11E-06,0.017247501
,,,-2.1E-06,0.017250626
,,,-2.09E-06,0.017123751
,,,-2.08E-06,0.017141251
,,,-2.07E-06,0.017188751
,,,-2.06E-06,0.017088751
,,,-2.05E-06,0.017389376
,,,-2.04E-06,0.016940001
,,,-2.03E-06,0.017150001
,,,-2.02E-06,0.017168126
,,,-2.01E-06,0.017128126
,,,-2E-06,0.017200626
,,,-1.99E-06,0.017025626
,,,-1.98E-06,0.017306251
,,,-1.97E-06,0.017122501
,,,-1.96E-06,0.017103126
,,,-1.95E-06,0.017205626
,,,-1.94E-06,0.017254376
,,,-1.93E-06,0.017255001
,,,-1.92E-06,0.017110001
,,,-1.91E-06,0.017221251
,,,-1.9E-06,0.017118126
,,,-1.89E-06,0.016950626
,,,-1.88E-06,0.017162501
,,,-1.87E-06,0.017061876
,,,-1.86E-06,0.016965626
,,,-1.85E-06,0.017411876
,,,-1.84E-06,0.016833126
,,,-1.83E-06,0.016989376
,,,-1.82E-06,0.017193126
,,,-1.81E-06,0.017097501
,,,-1.8E-06,0.017051251
,,,-1.79E-06,0.017147501
,,,-1.78E-06,0.016975626
,,,-1.77E-06,0.016943751
,,,-1.76E-06,0.016872501
,,,-1.75E-06,0.017233126
,,,-1.74E-06,0.017201251
,,,-1.73E-06,0.017125626
,,,-1.72E-06,0.016761251
,,,-1.71E-06,0.017060626
,,,-1.7E-06,0.017333751
,,,-1.69E-06,0.016995001
,,,-1.68E-06,0.017143751
,,,-1.67E-06,0.017219376
,,,-1.66E-06,0.017150626
,,,-1.65E-06,0.016671251
,,,-1.64E-06,0.017431251
,,,-1.63E-06,0.017050626
,,,-1.62E-06,0.017433751
,,,-1.61E-06,0.016831876
,,,-1.6E-06,0.017152501
,,,-1.59E-06,0.016993751
,,,-1.58E-06,0.017065001
,,,-1.57E-06,0.017045626
,,,-1.56E-06,0.017034376
,,,-1.55E-06,0.017281876
,,,-1.54E-06,0.017305626
,,,-1.53E-06,0.017108751
,,,-1.52E-06,0.017147501
,,,-1.51E-06,0.017182501
,,,-1.5E-06,0.017065626
,,,-1.49E-06,0.016939376
,,,-1.48E-06,0.017392501
,,,-1.47E-06,0.017332501
,,,-1.46E-06,0.017398751
,,,-1.45E-06,0.017075626
,,,-1.44E-06,0.017025626
,,,-1.43E-06,0.017385626
,,,-1.42E-06,0.017175001
,,,-1.41E-06,0.017280626
,,,-1.4E-06,0.017229376
,,,-1.39E-06,0.017141251
,,,-1.38E-06,0.017230001
,,,-1.37E-06,0.017123126
,,,-1.36E-06,0.016818751
,,,-1.35E-06,0.017146876
,,,-1.34E-06,0.017188751
,,,-1.33E-06,0.017200001
,,,-1.32E-06,0.017149376
,,,-1.31E-06,0.016953126
,,,-1.3E-06,0.017003126
,,,-1.29E-06,0.017348126
,,,-1.28E-06,0.017288126
,,,-1.27E-06,0.016901251
,,,-1.26E-06,0.017356251
,,,-1.25E-06,0.017116876
,,,-1.24E-06,0.017266251
,,,-1.23E-06,0.017148751
,,,-1.22E-06,0.017117501
,,,-1.21E-06,0.017055626
,,,-1.2E-06,0.017234376
,,,-1.19E-06,0.017210001
,,,-1.18E-06,0.016985001
,,,-1.17E-06,0.017243751
,,,-1.16E-06,0.017110001
,,,-1.15E-06,0.017080626
,,,-1.14E-06,0.017165626
,,,-1.13E-06,0.017450001
,,,-1.12E-06,0.016980626
,,,-1.11E-06,0.016982501
,,,-1.1E-06,0.017163751
,,,-1.09E-06,0.016951251
,,,-1.08E-06,0.017266876
,,,-1.07E-06,0.017217501
,,,-1.06E-06,0.017182501
,,,-1.05E-06,0.017036251
,,,-1.04E-06,0.016991251
,,,-1.03E-06,0.017361876
,,,-1.02E-06,0.017040626
,,,-1.01E-06,0.017259376
,,,-1E-06,0.016924376
,,,-9.9E-07,0.017043751
,,,-9.8E-07,0.017123751
,,,-9.7E-07,0.016966251
,,,-9.6E-07,0.017292501
,,,-9.5E-07,0.017019376
,,,-9.4E-07,0.017386251
,,,-9.3E-07,0.017104376
,,,-9.2E-07,0.017146251
,,,-9.1E-07,0.017361251
,,,-9E-07,0.017188126
,,,-8.9E-07,0.017018126
,,,-8.8E-07,0.017245626
,,,-8.7E-07,0.017254376
,,,-8.6E-07,0.017074376
,,,-8.5E-07,0.017002501
,,,-8.4E-07,0.017165001
,,,-8.3E-07,0.016961876
,,,-8.2E-07,0.017176876
,,,-8.1E-07,0.017249376
,,,-8E-07,0.017347501
,,,-7.9E-07,0.017023751
,,,-7.8E-07,0.017081251
,,,-7.7E-07,0.016861876
,,,-7.6E-07,0.017213751
,,,-7.5E-07,0.016980001
,,,-7.4E-07,0.016988751
,,,-7.3E-07,0.016951251
,,,-7.2E-07,0.016839376
,,,-7.1E-07,0.017310001
,,,-7E-07,0.016931251
,,,-6.9E-07,0.017150001
,,,-6.8E-07,0.017084376
,,,-6.7E-07,0.017243126
,,,-6.6E-07,0.017087501
,,,-6.5E-07,0.017129376
,,,-6.4E-07,0.017210001
,,,-6.3E-07,0.017108751
,,,-6.2E-07,0.017106251
,,,-6.1E-07,0.017125626
,,,-6E-07,0.017205001
,,,-5.9E-07,0.017268751
,,,-5.8E-07,0.017187501
,,,-5.7E-07,0.017060001
,,,-5.6E-07,0.017317501
,,,-5.5E-07,0.017038751
,,,-5.4E-07,0.016976876
,,,-5.3E-07,0.017025001
,,,-5.2E-07,0.017330001
,,,-5.1E-07,0.017288751
,,,-5E-07,0.017065001
,,,-4.9E-07,0.017272501
,,,-4.8E-07,0.016961251
,,,-4.7E-07,0.017170626
,,,-4.6E-07,0.017014376
,,,-4.5E-07,0.017239376
,,,-4.4E-07,0.017116251
,,,-4.3E-07,0.017062501
,,,-4.2E-07,0.017302501
,,,-4.1E-07,0.017290001
,,,-4E-07,0.016790626
,,,-3.9E-07,0.017136876
,,,-3.8E-07,0.016851251
,,,-3.7E-07,0.017066251
,,,-3.6E-07,0.017131251
,,,-3.5E-07,0.017003751
,,,-3.4E-07,0.017164376
,,,-3.3E-07,0.017006251
,,,-3.2E-07,0.017130626
,,,-3.1E-07,0.017333751
,,,-3E-07,0.017113126
,,,-2.9E-07,0.017086876
,,,-2.8E-07,0.016961876
,,,-2.7E-07,0.017256251
,,,-2.6E-07,0.016833751
,,,-2.5E-07,0.017228751
,,,-2.4E-07,0.017230001
,,,-2.3E-07,0.016878751
,,,-2.2E-07,0.017219376
,,,-2.1E-07,0.016973751
,,,-2E-07,0.017115626
,,,-1.9E-07,0.017057501
,,,-1.8E-07,0.017120001
,,,-1.7E-07,0.016961876
,,,-1.6E-07,0.017286251
,,,-1.5E-07,0.017099376
,,,-1.4E-07,0.017133126
,,,-1.3E-07,0.017053751
,,,-1.2E-07,0.017331251
,,,-1.1E-07,0.017154376
,,,-1E-07,0.017146876
,,,-9E-08,0.017148126
,,,-8E-08,0.016882501
,,,-7E-08,0.016902501
,,,-6E-08,0.017261251
,,,-5E-08,0.017498751
,,,-4E-08,0.018493126
,,,-3E-08,0.017262501
,,,-2E-08,0.015963751
,,,-1E-08,0.014905626
,,,0,0.015866251
,,,1E-08,0.018422501
,,,2E-08,0.019353126
,,,3E-08,0.018837501
,,,4E-08,0.016748751
,,,5E-08,0.015688126
,,,6E-08,0.015340001
,,,7E-08,0.016611876
,,,8E-08,0.017658126
,,,9E-08,0.018023126
,,,1E-07,0.018214376
,,,1.1E-07,0.017335001
,,,1.2E-07,0.016565626
,,,1.3E-07,0.016590626
,,,1.4E-07,0.016959376
,,,1.5E-07,0.017063126
,,,1.6E-07,0.017306251
,,,1.7E-07,0.017216251
,,,1.8E-07,0.017277501
,,,1.9E-07,0.017268126
,,,2E-07,0.017046251
,,,2.1E-07,0.016918126
,,,2.2E-07,0.017188751
,,,2.3E-07,0.016859376
,,,2.4E-07,0.017074376
,,,2.5E-07,0.017154376
,,,2.6E-07,0.017196251
,,,2.7E-07,0.016938751
,,,2.8E-07,0.017040001
,,,2.9E-07,0.017013126
,,,3E-07,0.016951876
,,,3.1E-07,0.017120626
,,,3.2E-07,0.017091876
,,,3.3E-07,0.017086876
,,,3.4E-07,0.017133751
,,,3.5E-07,0.016946251
,,,3.6E-07,0.017103751
,,,3.7E-07,0.017009376
,,,3.8E-07,0.017115626
,,,3.9E-07,0.017037501
,,,4E-07,0.017220001
,,,4.1E-07,0.017219376
,,,4.2E-07,0.017171251
,,,4.3E-07,0.017090626
,,,4.4E-07,0.017348126
,,,4.5E-07,0.016916251
,,,4.6E-07,0.017010001
,,,4.7E-07,0.017236251
,,,4.8E-07,0.017175626
,,,4.9E-07,0.016990626
,,,5E-07,0.017115626
,,,5.1E-07,0.017295001
,,,5.2E-07,0.017042501
,,,5.3E-07,0.017267501
,,,5.4E-07,0.017071876
,,,5.5E-07,0.017118126
,,,5.6E-07,0.017115626
,,,5.7E-07,0.017115001
,,,5.8E-07,0.017191876
,,,5.9E-07,0.017295626
,,,6E-07,0.016880626
,,,6.1E-07,0.017276251
,,,6.2E-07,0.017291251
,,,6.3E-07,0.017091251
,,,6.4E-07,0.016995001
,,,6.5E-07,0.017248751
,,,6.6E-07,0.017206251
,,,6.7E-07,0.017090626
,,,6.8E-07,0.017309376
,,,6.9E-07,0.017041251
,,,7E-07,0.016988126
,,,7.1E-07,0.016893126
,,,7.2E-07,0.017014376
,,,7.3E-07,0.016801251
,,,7.4E-07,0.017108126
,,,7.5E-07,0.017170001
,,,7.6E-07,0.017163751
,,,7.7E-07,0.017097501
,,,7.8E-07,0.017013126
,,,7.9E-07,0.017175626
,,,8E-07,0.017130001
,,,8.1E-07,0.017194376
,,,8.2E-07,0.017113751
,,,8.3E-07,0.017051251
,,,8.4E-07,0.017285001
,,,8.5E-07,0.017230626
,,,8.6E-07,0.017131876
,,,8.7E-07,0.017052501
,,,8.8E-07,0.017158126
,,,8.9E-07,0.017120001
,,,9E-07,0.017122501
,,,9.1E-07,0.017030001
,,,9.2E-07,0.017291876
,,,9.3E-07,0.017042501
,,,9.4E-07,0.017085626
,,,9.5E-07,0.017248751
,,,9.6E-07,0.017071876
,,,9.7E-07,0.017061251
,,,9.8E-07,0.016993751
,,,9.9E-07,0.017232501
,,,1E-06,0.016660626
,,,1.01E-06,0.017156251
,,,1.02E-06,0.016953751
,,,1.03E-06,0.017085001
,,,1.04E-06,0.017095626
,,,1.05E-06,0.017219376
,,,1.06E-06,0.017418751
,,,1.07E-06,0.017159376
,,,1.08E-06,0.017125001
,,,1.09E-06,0.017029376
,,,1.1E-06,0.017045001
,,,1.11E-06,0.017076251
,,,1.12E-06,0.017064376
,,,1.13E-06,0.017343751
,,,1.14E-06,0.017026876
,,,1.15E-06,0.017036876
,,,1.16E-06,0.017140001
,,,1.17E-06,0.017334376
,,,1.18E-06,0.017173126
,,,1.19E-06,0.017039376
,,,1.2E-06,0.017196876
,,,1.21E-06,0.017236876
,,,1.22E-06,0.017337501
,,,1.23E-06,0.017071251
,,,1.24E-06,0.017054376
,,,1.25E-06,0.017170626
,,,1.26E-06,0.017011251
,,,1.27E-06,0.017191876
,,,1.28E-06,0.016958126
,,,1.29E-06,0.017069376
,,,1.3E-06,0.017033126
,,,1.31E-06,0.017100626
,,,1.32E-06,0.016887501
,,,1.33E-06,0.017193126
,,,1.34E-06,0.017124376
,,,1.35E-06,0.017301876
,,,1.36E-06,0.017074376
,,,1.37E-06,0.016933126
,,,1.38E-06,0.017041876
,,,1.39E-06,0.016987501
,,,1.4E-06,0.017200626
,,,1.41E-06,0.016942501
,,,1.42E-06,0.017046876
,,,1.43E-06,0.017113751
,,,1.44E-06,0.017170001
,,,1.45E-06,0.016992501
,,,1.46E-06,0.017286876
,,,1.47E-06,0.017181251
,,,1.48E-06,0.017063751
,,,1.49E-06,0.017224376
,,,1.5E-06,0.016902501
,,,1.51E-06,0.017119376
,,,1.52E-06,0.017049376
,,,1.53E-06,0.017055626
,,,1.54E-06,0.016864376
,,,1.55E-06,0.016918126
,,,1.56E-06,0.017053126
,,,1.57E-06,0.017221251
,,,1.58E-06,0.016986251
,,,1.59E-06,0.017116251
,,,1.6E-06,0.016983751
,,,1.61E-06,0.017142501
,,,1.62E-06,0.016995626
,,,1.63E-06,0.017246876
,,,1.64E-06,0.017199376
,,,1.65E-06,0.017371251
,,,1.66E-06,0.017077501
,,,1.67E-06,0.017181876
,,,1.68E-06,0.017241876
,,,1.69E-06,0.017046876
,,,1.7E-06,0.017158126
,,,1.71E-06,0.016966876
,,,1.72E-06,0.017199376
,,,1.73E-06,0.017364376
,,,1.74E-06,0.016825001
,,,1.75E-06,0.017154376
,,,1.76E-06,0.017100001
,,,1.77E-06,0.017094376
,,,1.78E-06,0.017311876
,,,1.79E-06,0.017086251
,,,1.8E-06,0.017090001
,,,1.81E-06,0.016998126
,,,1.82E-06,0.017226251
,,,1.83E-06,0.017020626
,,,1.84E-06,0.017210001
,,,1.85E-06,0.016859376
,,,1.86E-06,0.016922501
,,,1.87E-06,0.017026251
,,,1.88E-06,0.017155001
,,,1.89E-06,0.016827501
,,,1.9E-06,0.017231251
,,,1.91E-06,0.017177501
,,,1.92E-06,0.017168751
,,,1.93E-06,0.016733126
,,,1.94E-06,0.016941251
,,,1.95E-06,0.017221876
,,,1.96E-06,0.016974376
,,,1.97E-06,0.017171251
,,,1.98E-06,0.016865626
,,,1.99E-06,0.016993751
,,,2E-06,0.017169376
,,,2.01E-06,0.017013126
,,,2.02E-06,0.016990001
,,,2.03E-06,0.017165626
,,,2.04E-06,0.017107501
,,,2.05E-06,0.017050001
,,,2.06E-06,0.017061251
,,,2.07E-06,0.017171876
,,,2.08E-06,0.017178126
,,,2.09E-06,0.017128126
,,,2.1E-06,0.016993126
,,,2.11E-06,0.016913751
,,,2.12E-06,0.016961251
,,,2.13E-06,0.017275001
,,,2.14E-06,0.017241251
,,,2.15E-06,0.017240001
,,,2.16E-06,0.017208126
,,,2.17E-06,0.017196251
,,,2.18E-06,0.017202501
,,,2.19E-06,0.016939376
,,,2.2E-06,0.017202501
,,,2.21E-06,0.017376251
,,,2.22E-06,0.017013751
,,,2.23E-06,0.017136876
,,,2.24E-06,0.017115626
,,,2.25E-06,0.017026251
,,,2.26E-06,0.017091251
,,,2.27E-06,0.016818751
,,,2.28E-06,0.017029376
,,,2.29E-06,0.016925626
,,,2.3E-06,0.016968751
,,,2.31E-06,0.017464376
,,,2.32E-06,0.017024376
,,,2.33E-06,0.017033751
,,,2.34E-06,0.017278126
,,,2.35E-06,0.017351251
,,,2.36E-06,0.016983751
,,,2.37E-06,0.016993126
,,,2.38E-06,0.017114376
,,,2.39E-06,0.017228751
,,,2.4E-06,0.017101251
,,,2.41E-06,0.016893751
,,,2.42E-06,0.016869376
,,,2.43E-06,0.016940001
,,,2.44E-06,0.017236876
,,,2.45E-06,0.017449376
,,,2.46E-06,0.017229376
,,,2.47E-06,0.017171251
,,,2.48E-06,0.017338751
,,,2.49E-06,0.017322501
,,,2.5E-06,0.017042501
,,,2.51E-06,0.017135001
,,,2.52E-06,0.017136251
,,,2.53E-06,0.017033126
,,,2.54E-06,0.017191251
,,,2.55E-06,0.016943126
,,,2.56E-06,0.017281251
,,,2.57E-06,0.017065001
,,,2.58E-06,0.016916251
,,,2.59E-06,0.017113751
,,,2.6E-06,0.017286251
,,,2.61E-06,0.016896251
,,,2.62E-06,0.017355001
,,,2.63E-06,0.017120626
,,,2.64E-06,0.017021251
,,,2.65E-06,0.017394376
,,,2.66E-06,0.017167501
,,,2.67E-06,0.016940626
,,,2.68E-06,0.016948751
,,,2.69E-06,0.017238126
,,,2.7E-06,0.017034376
,,,2.71E-06,0.017061251
,,,2.72E-06,0.016939376
,,,2.73E-06,0.017003751
,,,2.74E-06,0.017366876
,,,2.75E-06,0.017150001
,,,2.76E-06,0.017168751
,,,2.77E-06,0.017195001
,,,2.78E-06,0.017191251
,,,2.79E-06,0.017249376
,,,2.8E-06,0.017079376
,,,2.81E-06,0.017300001
,,,2.82E-06,0.017360626
,,,2.83E-06,0.017057501
,,,2.84E-06,0.017171251
,,,2.85E-06,0.017087501
,,,2.86E-06,0.016916251
,,,2.87E-06,0.017158126
,,,2.88E-06,0.017105626
,,,2.89E-06,0.017230626
,,,2.9E-06,0.017228751
,,,2.91E-06,0.017332501
,,,2.92E-06,0.017223126
,,,2.93E-06,0.016940626
,,,2.94E-06,0.017030626
,,,2.95E-06,0.017106876
,,,2.96E-06,0.016891876
,,,2.97E-06,0.017287501
,,,2.98E-06,0.016971251
,,,2.99E-06,0.017140001
,,,3E-06,0.017143126
,,,3.01E-06,0.017096876
,,,3.02E-06,0.017075001
,,,3.03E-06,0.017063751
,,,3.04E-06,0.017139376
,,,3.05E-06,0.016886251
,,,3.06E-06,0.017057501
,,,3.07E-06,0.017207501
,,,3.08E-06,0.017201251
,,,3.09E-06,0.017195001
,,,3.1E-06,0.016966251
,,,3.11E-06,0.017188126
,,,3.12E-06,0.017237501
,,,3.13E-06,0.017115001
,,,3.14E-06,0.017105001
,,,3.15E-06,0.017277501
,,,3.16E-06,0.017277501
,,,3.17E-06,0.016926251
,,,3.18E-06,0.016858751
,,,3.19E-06,0.017169376
,,,3.2E-06,0.017095626
,,,3.21E-06,0.017127501
