data/raw/Final_POL_Test_1/SOP034_Ch1.csv

"Record Length",1000,"Points",-5E-06,0.007204375
"Sample Interval",1E-08,s,-4.99E-06,0.007064375
"Trigger Point",500,"Samples",-4.98E-06,0.00723375
"Trigger Time",0,s,-4.97E-06,0.007258125
"",,,-4.96E-06,0.007234375
"Horizontal Offset",-5E-06,s,-4.95E-06,0.007265
,,,-4.94E-06,0.007310625
,,,-4.93E-06,0.00713625
,,,-4.92E-06,0.007271875
,,,-4.91E-06,0.007035625
,,,-4.9E-06,0.00707625
,,,-4.89E-06,0.00693875
,,,-4.88E-06,0.0069825
,,,-4.87E-06,0.0070025
,,,-4.86E-06,0.0067325
,,,-4.85E-06,0.007141875
,,,-4.84E-06,0.0070825
,,,-4.83E-06,0.0072025
,,,-4.82E-06,0.006845625
,,,-4.81E-06,0.00726625
,,,-4.8E-06,0.00707
,,,-4.79E-06,0.006978125
,,,-4.78E-06,0.007065625
,,,-4.77E-06,0.006978125
,,,-4.76E-06,0.007184375
,,,-4.75E-06,0.00708125
,,,-4.74E-06,0.007193125
,,,-4.73E-06,0.0070525
,,,-4.72E-06,0.007308125
,,,-4.71E-06,0.006970625
,,,-4.7E-06,0.00729375
,,,-4.69E-06,0.007075625
,,,-4.68E-06,0.007173125
,,,-4.67E-06,0.007089375
,,,-4.66E-06,0.007419375
,,,-4.65E-06,0.007271875
,,,-4.64E-06,0.007205
,,,-4.63E-06,0.007241875
,,,-4.62E-06,0.007188125
,,,-4.61E-06,0.00707625
,,,-4.6E-06,0.0071325
,,,-4.59E-06,0.00700375
,,,-4.58E-06,0.0069175
,,,-4.57E-06,0.007071875
,,,-4.56E-06,0.00727
,,,-4.55E-06,0.007014375
,,,-4.54E-06,0.00697875
,,,-4.53E-06,0.007184375
,,,-4.52E-06,0.007249375
,,,-4.51E-06,0.007024375
,,,-4.5E-06,0.007040625
,,,-4.49E-06,0.007216875
,,,-4.48E-06,0.007075625
,,,-4.47E-06,0.007288125
,,,-4.46E-06,0.006941875
,,,-4.45E-06,0.0071375
,,,-4.44E-06,0.007225
,,,-4.43E-06,0.007313125
,,,-4.42E-06,0.00695
,,,-4.41E-06,0.00701
,,,-4.4E-06,0.00707625
,,,-4.39E-06,0.007
,,,-4.38E-06,0.007133125
,,,-4.37E-06,0.00687125
,,,-4.36E-06,0.007128125
,,,-4.35E-06,0.006904375
,,,-4.34E-06,0.00715875
,,,-4.33E-06,0.007064375
,,,-4.32E-06,0.007163125
,,,-4.31E-06,0.00696125
,,,-4.3E-06,0.00723875
,,,-4.29E-06,0.0070675
,,,-4.28E-06,0.007001875
,,,-4.27E-06,0.00711
,,,-4.26E-06,0.0069225
,,,-4.25E-06,0.007000625
,,,-4.24E-06,0.007155625
,,,-4.23E-06,0.007075625
,,,-4.22E-06,0.0073325
,,,-4.21E-06,0.006904375
,,,-4.2E-06,0.00687125
,,,-4.19E-06,0.00701875
,,,-4.18E-06,0.00710125
,,,-4.17E-06,0.007065625
,,,-4.16E-06,0.00707125
,,,-4.15E-06,0.006748125
,,,-4.14E-06,0.00697
,,,-4.13E-06,0.00726
,,,-4.12E-06,0.007258125
,,,-4.11E-06,0.00698125
,,,-4.1E-06,0.007020625
,,,-4.09E-06,0.006949375
,,,-4.08E-06,0.006953125
,,,-4.07E-06,0.006749375
,,,-4.06E-06,0.006994375
,,,-4.05E-06,0.007301875
,,,-4.04E-06,0.006975
,,,-4.03E-06,0.0070375
,,,-4.02E-06,0.00727
,,,-4.01E-06,0.00706875
,,,-4E-06,0.007288125
,,,-3.99E-06,0.007080625
,,,-3.98E-06,0.007238125
,,,-3.97E-06,0.006995625
,,,-3.96E-06,0.0072175
,,,-3.95E-06,0.007275
,,,-3.94E-06,0.007013125
,,,-3.93E-06,0.007064375
,,,-3.92E-06,0.00700625
,,,-3.91E-06,0.00716
,,,-3.9E-06,0.00723375
,,,-3.89E-06,0.007214375
,,,-3.88E-06,0.007115
,,,-3.87E-06,0.007164375
,,,-3.86E-06,0.00719
,,,-3.85E-06,0.007084375
,,,-3.84E-06,0.00705875
,,,-3.83E-06,0.007144375
,,,-3.82E-06,0.007156875
,,,-3.81E-06,0.007198125
,,,-3.8E-06,0.007356875
,,,-3.79E-06,0.007056875
,,,-3.78E-06,0.007139375
,,,-3.77E-06,0.007150625
,,,-3.76E-06,0.00706375
,,,-3.75E-06,0.00711125
,,,-3.74E-06,0.00702
,,,-3.73E-06,0.00706375
,,,-3.72E-06,0.007203125
,,,-3.71E-06,0.0067925
,,,-3.7E-06,0.00730375
,,,-3.69E-06,0.006983125
,,,-3.68E-06,0.007159375
,,,-3.67E-06,0.007130625
,,,-3.66E-06,0.007215
,,,-3.65E-06,0.007165
,,,-3.64E-06,0.00726625
,,,-3.63E-06,0.00698375
,,,-3.62E-06,0.007259375
,,,-3.61E-06,0.0070825
,,,-3.6E-06,0.0072
,,,-3.59E-06,0.007275
,,,-3.58E-06,0.007119375
,,,-3.57E-06,0.007280625
,,,-3.56E-06,0.00717625
,,,-3.55E-06,0.007095625
,,,-3.54E-06,0.0068975
,,,-3.53E-06,0.006966875
,,,-3.52E-06,0.006964375
,,,-3.51E-06,0.006915
,,,-3.5E-06,0.0067775
,,,-3.49E-06,0.0072175
,,,-3.48E-06,0.00712375
,,,-3.47E-06,0.007051875
,,,-3.46E-06,0.00723625
,,,-3.45E-06,0.0070875
,,,-3.44E-06,0.00702
,,,-3.43E-06,0.007461875
,,,-3.42E-06,0.007010625
,,,-3.41E-06,0.00734
,,,-3.4E-06,0.007256875
,,,-3.39E-06,0.007193125
,,,-3.38E-06,0.007239375
,,,-3.37E-06,0.0073075
,,,-3.36E-06,0.007015625
,,,-3.35E-06,0.00721875
,,,-3.34E-06,0.00722625
,,,-3.33E-06,0.00731
,,,-3.32E-06,0.007154375
,,,-3.31E-06,0.007143125
,,,-3.3E-06,0.006948125
,,,-3.29E-06,0.007219375
,,,-3.28E-06,0.0069875
,,,-3.27E-06,0.0073275
,,,-3.26E-06,0.0068675
,,,-3.25E-06,0.007201875
,,,-3.24E-06,0.0069225
,,,-3.23E-06,0.00739625
,,,-3.22E-06,0.007069375
,,,-3.21E-06,0.007228125
,,,-3.2E-06,0.007183125
,,,-3.19E-06,0.007290625
,,,-3.18E-06,0.007071875
,,,-3.17E-06,0.00715375
,,,-3.16E-06,0.007113125
,,,-3.15E-06,0.0073925
,,,-3.14E-06,0.007071875
,,,-3.13E-06,0.00706625
,,,-3.12E-06,0.006929375
,,,-3.11E-06,0.006976875
,,,-3.1E-06,0.0071
,,,-3.09E-06,0.007153125
,,,-3.08E-06,0.007115625
,,,-3.07E-06,0.007413125
,,,-3.06E-06,0.00713125
,,,-3.05E-06,0.00716625
,,,-3.04E-06,0.0068725
,,,-3.03E-06,0.007321875
,,,-3.02E-06,0.007019375
,,,-3.01E-06,0.006903125
,,,-3E-06,0.007120625
,,,-2.99E-06,0.007261875
,,,-2.98E-06,0.007365625
,,,-2.97E-06,0.007055
,,,-2.96E-06,0.00683375
,,,-2.95E-06,0.007001875
,,,-2.94E-06,0.0071675
,,,-2.93E-06,0.0071175
,,,-2.92E-06,0.007130625
,,,-2.91E-06,0.007011875
,,,-2.9E-06,0.00711
,,,-2.89E-06,0.007234375
,,,-2.88E-06,0.00716
,,,-2.87E-06,0.007153125
,,,-2.86E-06,0.00719625
,,,-2.85E-06,0.007008125
,,,-2.84E-06,0.0072375
,,,-2.83E-06,0.007044375
,,,-2.82E-06,0.00736125
,,,-2.81E-06,0.00710875
,,,-2.8E-06,0.0072325
,,,-2.79E-06,0.007166875
,,,-2.78E-06,0.006955
,,,-2.77E-06,0.007255
,,,-2.76E-06,0.00697375
,,,-2.75E-06,0.007200625
,,,-2.74E-06,0.007215625
,,,-2.73E-06,0.0071275
,,,-2.72E-06,0.00720375
,,,-2.71E-06,0.006645
,,,-2.7E-06,0.007121875
,,,-2.69E-06,0.006914375
,,,-2.68E-06,0.007298125
,,,-2.67E-06,0.00702375
,,,-2.66E-06,0.007104375
,,,-2.65E-06,0.007144375
,,,-2.64E-06,0.0071675
,,,-2.63E-06,0.007164375
,,,-2.62E-06,0.007145625
,,,-2.61E-06,0.006989375
,,,-2.6E-06,0.0072225
,,,-2.59E-06,0.0067975
,,,-2.58E-06,0.00709125
,,,-2.57E-06,0.007215
,,,-2.56E-06,0.006980625
,,,-2.55E-06,0.007230625
,,,-2.54E-06,0.007024375
,,,-2.53E-06,0.006875
,,,-2.52E-06,0.007238125
,,,-2.51E-06,0.00726125
,,,-2.5E-06,0.00705375
,,,-2.49E-06,0.007125625
,,,-2.48E-06,0.00704
,,,-2.47E-06,0.007048125
,,,-2.46E-06,0.007060625
,,,-2.45E-06,0.007134375
,,,-2.44E-06,0.00734375
,,,-2.43E-06,0.00722125
,,,-2.42E-06,0.0070775
,,,-2.41E-06,0.006940625
,,,-2.4E-06,0.007081875
,,,-2.39E-06,0.006969375
,,,-2.38E-06,0.007038125
,,,-2.37E-06,0.007100625
,,,-2.36E-06,0.00693875
,,,-2.35E-06,0.00728125
,,,-2.34E-06,0.006973125
,,,-2.33E-06,0.00709125
,,,-2.32E-06,0.007140625
,,,-2.31E-06,0.007316875
,,,-2.3E-06,0.00685
,,,-2.29E-06,0.007029375
,,,-2.28E-06,0.00709375
,,,-2.27E-06,0.0069975
,,,-2.26E-06,0.0073675
,,,-2.25E-06,0.007161875
,,,-2.24E-06,0.00722125
,,,-2.23E-06,0.007048125
,,,-2.22E-06,0.007156875
,,,-2.21E-06,0.007066875
,,,-2.2E-06,0.00708375
,,,-2.19E-06,0.006971875
,,,-2.18E-06,0.006936875
,,,-2.17E-06,0.00680875
,,,-2.16E-06,0.007110625
,,,-2.15E-06,0.007175
,,,-2.14E-06,0.007015
,,,-2.13E-06,0.00715875
,,,-2.12E-06,0.00705
,,,-2.11E-06,0.007184375
,,,-2.1E-06,0.007123125
,,,-2.09E-06,0.007130625
,,,-2.08E-06,0.0069725
,,,-2.07E-06,0.00727625
,,,-2.06E-06,0.007311875
,,,-2.05E-06,0.00699375
,,,-2.04E-06,0.00694
,,,-2.03E-06,0.007038125
,,,-2.02E-06,0.007125625
,,,-2.01E-06,0.007344375
,,,-2E-06,0.007193125
,,,-1.99E-06,0.0072475
,,,-1.98E-06,0.00720375
,,,-1.97E-06,0.00718375
,,,-1.96E-06,0.006944375
,,,-1.95E-06,0.007326875
,,,-1.94E-06,0.007290625
,,,-1.93E-06,0.007061875
,,,-1.92E-06,0.007198125
,,,-1.91E-06,0.0069975
,,,-1.9E-06,0.007001875
,,,-1.89E-06,0.006873125
,,,-1.88E-06,0.007231875
,,,-1.87E-06,0.007095
,,,-1.86E-06,0.007105
,,,-1.85E-06,0.0071475
,,,-1.84E-06,0.007171875
,,,-1.83E-06,0.00723
,,,-1.82E-06,0.0071925
,,,-1.81E-06,0.00718
,,,-1.8E-06,0.0073675
,,,-1.79E-06,0.0070675
,,,-1.78E-06,0.007296875
,,,-1.77E-06,0.0072125
,,,-1.76E-06,0.00708375
,,,-1.75E-06,0.00709125
,,,-1.74E-06,0.00693875
,,,-1.73E-06,0.006983125
,,,-1.72E-06,0.006950625
,,,-1.71E-06,0.006999375
,,,-1.7E-06,0.0072175
,,,-1.69E-06,0.007014375
,,,-1.68E-06,0.00696
,,,-1.67E-06,0.006715625
,,,-1.66E-06,0.007193125
,,,-1.65E-06,0.007125625
,,,-1.64E-06,0.007075625
,,,-1.63E-06,0.007096875
,,,-1.62E-06,0.00715875
,,,-1.61E-06,0.006793125
,,,-1.6E-06,0.00737125
,,,-1.59E-06,0.006868125
,,,-1.58E-06,0.00706
,,,-1.57E-06,0.006939375
,,,-1.56E-06,0.007063125
,,,-1.55E-06,0.0070825
,,,-1.54E-06,0.0071825
,,,-1.53E-06,0.007313125
,,,-1.52E-06,0.00715625
,,,-1.51E-06,0.0071925
,,,-1.5E-06,0.007019375
,,,-1.49E-06,0.0069875
,,,-1.48E-06,0.006889375
,,,-1.47E-06,0.00702
,,,-1.46E-06,0.007025625
,,,-1.45E-06,0.007035625
,,,-1.44E-06,0.007301875
,,,-1.43E-06,0.00712
,,,-1.42E-06,0.007044375
,,,-1.41E-06,0.007081875
,,,-1.4E-06,0.006969375
,,,-1.39E-06,0.007121875
,,,-1.38E-06,0.00682125
,,,-1.37E-06,0.00720875
,,,-1.36E-06,0.007035625
,,,-1.35E-06,0.00715125
,,,-1.34E-06,0.006818125
,,,-1.33E-06,0.007080625
,,,-1.32E-06,0.0069675
,,,-1.31E-06,0.007024375
,,,-1.3E-06,0.0069975
,,,-1.29E-06,0.00693125
,,,-1.28E-06,0.00720875
,,,-1.27E-06,0.007291875
,,,-1.26E-06,0.0072425
,,,-1.25E-06,0.00715
,,,-1.24E-06,0.0071325
,,,-1.23E-06,0.007275
,,,-1.22E-06,0.00708125
,,,-1.21E-06,0.00680125
,,,-1.2E-06,0.007136875
,,,-1.19E-06,0.007031875
,,,-1.18E-06,0.0071025
,,,-1.17E-06,0.00737375
,,,-1.16E-06,0.007380625
,,,-1.15E-06,0.006975
,,,-1.14E-06,0.00699375
,,,-1.13E-06,0.0072675
,,,-1.12E-06,0.007279375
,,,-1.11E-06,0.00729125
,,,-1.1E-06,0.007093125
,,,-1.09E-06,0.007386875
,,,-1.08E-06,0.007065
,,,-1.07E-06,0.0073875
,,,-1.06E-06,0.007139375
,,,-1.05E-06,0.00710625
,,,-1.04E-06,0.007249375
,,,-1.03E-06,0.007015
,,,-1.02E-06,0.007129375
,,,-1.01E-06,0.007128125
,,,-1E-06,0.006843125
,,,-9.9E-07,0.006963125
,,,-9.8E-07,0.007146875
,,,-9.7E-07,0.00711375
,,,-9.6E-07,0.007085
,,,-9.5E-07,0.007074375
,,,-9.4E-07,0.006965625
,,,-9.3E-07,0.007228125
,,,-9.2E-07,0.007065625
,,,-9.1E-07,0.007185
,,,-9E-07,0.00705
,,,-8.9E-07,0.006955625
,,,-8.8E-07,0.00690125
,,,-8.7E-07,0.00710125
,,,-8.6E-07,0.007251875
,,,-8.5E-07,0.007221875
,,,-8.4E-07,0.00708125
,,,-8.3E-07,0.0070425
,,,-8.2E-07,0.00707
,,,-8.1E-07,0.006955
,,,-8E-07,0.0068025
,,,-7.9E-07,0.007191875
,,,-7.8E-07,0.007135625
,,,-7.7E-07,0.00704375
,,,-7.6E-07,0.006873125
,,,-7.5E-07,0.0073725
,,,-7.4E-07,0.007159375
,,,-7.3E-07,0.00722375
,,,-7.2E-07,0.007093125
,,,-7.1E-07,0.007083125
,,,-7E-07,0.0070475
,,,-6.9E-07,0.007078125
,,,-6.8E-07,0.006939375
,,,-6.7E-07,0.0071375
,,,-6.6E-07,0.00715125
,,,-6.5E-07,0.006933125
,,,-6.4E-07,0.00736625
,,,-6.3E-07,0.007089375
,,,-6.2E-07,0.00710625
,,,-6.1E-07,0.006925
,,,-6E-07,0.00696625
,,,-5.9E-07,0.007133125
,,,-5.8E-07,0.00704625
,,,-5.7E-07,0.006971875
,,,-5.6E-07,0.007109375
,,,-5.5E-07,0.00689875
,,,-5.4E-07,0.0071825
,,,-5.3E-07,0.007200625
,,,-5.2E-07,0.00722125
,,,-5.1E-07,0.00688125
,,,-5E-07,0.006883125
,,,-4.9E-07,0.0072
,,,-4.8E-07,0.007351875
,,,-4.7E-07,0.007079375
,,,-4.6E-07,0.007054375
,,,-4.5E-07,0.0072525
,,,-4.4E-07,0.007060625
,,,-4.3E-07,0.007249375
,,,-4.2E-07,0.00701625
,,,-4.1E-07,0.007039375
,,,-4E-07,0.00711875
,,,-3.9E-07,0.007120625
,,,-3.8E-07,0.007210625
,,,-3.7E-07,0.007110625
,,,-3.6E-07,0.00709625
,,,-3.5E-07,0.007260625
,,,-3.4E-07,0.007256875
,,,-3.3E-07,0.007279375
,,,-3.2E-07,0.007149375
,,,-3.1E-07,0.0073175
,,,-3E-07,0.00695375
,,,-2.9E-07,0.006998125
,,,-2.8E-07,0.007221875
,,,-2.7E-07,0.00698625
,,,-2.6E-07,0.00711125
,,,-2.5E-07,0.006996875
,,,-2.4E-07,0.00703625
,,,-2.3E-07,0.00710125
,,,-2.2E-07,0.007095
,,,-2.1E-07,0.007208125
,,,-2E-07,0.00706375
,,,-1.9E-07,0.0070925
,,,-1.8E-07,0.00711375
,,,-1.7E-07,0.00701875
,,,-1.6E-07,0.0072025
,,,-1.5E-07,0.007045
,,,-1.4E-07,0.007188125
,,,-1.3E-07,0.0069175
,,,-1.2E-07,0.007069375
,,,-1.1E-07,0.007359375
,,,-1E-07,0.007196875
,,,-9E-08,0.006835625
,,,-8E-08,0.006895
,,,-7E-08,0.00689875
,,,-6E-08,0.00688
,,,-5E-08,0.007259375
,,,-4E-08,0.0075925
,,,-3E-08,0.008169375
,,,-2E-08,0.006696875
,,,-1E-08,0.00472375
,,,0,0.004068125
,,,1E-08,0.007943125
,,,2E-08,0.010755625
,,,3E-08,0.01082
,,,4E-08,0.00743
,,,5E-08,0.005239375
,,,6E-08,0.00422625
,,,7E-08,0.005425625
,,,8E-08,0.00720125
,,,9E-08,0.0085875
,,,1E-07,0.00901625
,,,1.1E-07,0.008019375
,,,1.2E-07,0.0067875
,,,1.3E-07,0.005890625
,,,1.4E-07,0.006478125
,,,1.5E-07,0.007318125
,,,1.6E-07,0.0076475
,,,1.7E-07,0.007248125
,,,1.8E-07,0.007221875
,,,1.9E-07,0.007353125
,,,2E-07,0.00714
,,,2.1E-07,0.0068475
,,,2.2E-07,0.006915625
,,,2.3E-07,0.007014375
,,,2.4E-07,0.0071775
,,,2.5E-07,0.00706125
,,,2.6E-07,0.007138125
,,,2.7E-07,0.007224375
,,,2.8E-07,0.007134375
,,,2.9E-07,0.007104375
,,,3E-07,0.007120625
,,,3.1E-07,0.006835
,,,3.2E-07,0.006956875
,,,3.3E-07,0.007078125
,,,3.4E-07,0.007336875
,,,3.5E-07,0.0068
,,,3.6E-07,0.00718625
,,,3.7E-07,0.0070325
,,,3.8E-07,0.00715125
,,,3.9E-07,0.0073075
,,,4E-07,0.0069925
,,,4.1E-07,0.007124375
,,,4.2E-07,0.00715
,,,4.3E-07,0.007076875
,,,4.4E-07,0.007076875
,,,4.5E-07,0.006950625
,,,4.6E-07,0.007154375
,,,4.7E-07,0.007019375
,,,4.8E-07,0.007181875
,,,4.9E-07,0.00687625
,,,5E-07,0.0070025
,,,5.1E-07,0.007176875
,,,5.2E-07,0.0071525
,,,5.3E-07,0.007100625
,,,5.4E-07,0.00700875
,,,5.5E-07,0.0070075
,,,5.6E-07,0.00706125
,,,5.7E-07,0.007021875
,,,5.8E-07,0.00700125
,,,5.9E-07,0.007248125
,,,6E-07,0.00727375
,,,6.1E-07,0.007208125
,,,6.2E-07,0.007024375
,,,6.3E-07,0.007083125
,,,6.4E-07,0.007179375
,,,6.5E-07,0.007126875
,,,6.6E-07,0.007248125
,,,6.7E-07,0.007166875
,,,6.8E-07,0.00708125
,,,6.9E-07,0.00721375
,,,7E-07,0.00694
,,,7.1E-07,0.00715125
,,,7.2E-07,0.0069725
,,,7.3E-07,0.007163125
,,,7.4E-07,0.007423125
,,,7.5E-07,0.007380625
,,,7.6E-07,0.007123125
,,,7.7E-07,0.007078125
,,,7.8E-07,0.00729125
,,,7.9E-07,0.007068125
,,,8E-07,0.007386875
,,,8.1E-07,0.007181875
,,,8.2E-07,0.006915625
,,,8.3E-07,0.006890625
,,,8.4E-07,0.00715625
,,,8.5E-07,0.007099375
,,,8.6E-07,0.00696375
,,,8.7E-07,0.007306875
,,,8.8E-07,0.007199375
,,,8.9E-07,0.00716125
,,,9E-07,0.00698
,,,9.1E-07,0.007195
,,,9.2E-07,0.007029375
,,,9.3E-07,0.00722125
,,,9.4E-07,0.00716125
,,,9.5E-07,0.007144375
,,,9.6E-07,0.007144375
,,,9.7E-07,0.006850625
,,,9.8E-07,0.00745875
,,,9.9E-07,0.007176875
,,,1E-06,0.0069925
,,,1.01E-06,0.007040625
,,,1.02E-06,0.00684875
,,,1.03E-06,0.006905625
,,,1.04E-06,0.007175625
,,,1.05E-06,0.006931875
,,,1.06E-06,0.0072625
,,,1.07E-06,0.00713
,,,1.08E-06,0.00719125
,,,1.09E-06,0.007081875
,,,1.1E-06,0.007135625
,,,1.11E-06,0.0073475
,,,1.12E-06,0.0072025
,,,1.13E-06,0.0071775
,,,1.14E-06,0.007150625
,,,1.15E-06,0.007083125
,,,1.16E-06,0.00726125
,,,1.17E-06,0.007080625
,,,1.18E-06,0.00732125
,,,1.19E-06,0.007185
,,,1.2E-06,0.007179375
,,,1.21E-06,0.00706125
,,,1.22E-06,0.007173125
,,,1.23E-06,0.00712625
,,,1.24E-06,0.00721375
,,,1.25E-06,0.00703125
,,,1.26E-06,0.00699875
,,,1.27E-06,0.007263125
,,,1.28E-06,0.007039375
,,,1.29E-06,0.006879375
,,,1.3E-06,0.00703875
,,,1.31E-06,0.006905625
,,,1.32E-06,0.007180625
,,,1.33E-06,0.007186875
,,,1.34E-06,0.007336875
,,,1.35E-06,0.006978125
,,,1.36E-06,0.00697
,,,1.37E-06,0.007035625
,,,1.38E-06,0.007366875
,,,1.39E-06,0.00722
,,,1.4E-06,0.007104375
,,,1.41E-06,0.0071675
,,,1.42E-06,0.00730375
,,,1.43E-06,0.00721
,,,1.44E-06,0.007344375
,,,1.45E-06,0.007138125
,,,1.46E-06,0.007014375
,,,1.47E-06,0.006976875
,,,1.48E-06,0.006939375
,,,1.49E-06,0.006965
,,,1.5E-06,0.00719375
,,,1.51E-06,0.00701625
,,,1.52E-06,0.007038125
,,,1.53E-06,0.007108125
,,,1.54E-06,0.0071175
,,,1.55E-06,0.007099375
,,,1.56E-06,0.006966875
,,,1.57E-06,0.007033125
,,,1.58E-06,0.00745
,,,1.59E-06,0.00713
,,,1.6E-06,0.0070275
,,,1.61E-06,0.0069175
,,,1.62E-06,0.007300625
,,,1.63E-06,0.00698375
,,,1.64E-06,0.007201875
,,,1.65E-06,0.0069825
,,,1.66E-06,0.007229375
,,,1.67E-06,0.00712
,,,1.68E-06,0.007135
,,,1.69E-06,0.0070275
,,,1.7E-06,0.007198125
,,,1.71E-06,0.007528125
,,,1.72E-06,0.00722125
,,,1.73E-06,0.007169375
,,,1.74E-06,0.0071
,,,1.75E-06,0.007021875
,,,1.76E-06,0.00714
,,,1.77E-06,0.0067775
,,,1.78E-06,0.0068425
,,,1.79E-06,0.00733
,,,1.8E-06,0.006951875
,,,1.81E-06,0.007179375
,,,1.82E-06,0.007051875
,,,1.83E-06,0.007251875
,,,1.84E-06,0.007368125
,,,1.85E-06,0.0069275
,,,1.86E-06,0.007045625
,,,1.87E-06,0.007243125
,,,1.88E-06,0.007030625
,,,1.89E-06,0.006984375
,,,1.9E-06,0.00697125
,,,1.91E-06,0.007073125
,,,1.92E-06,0.006826875
,,,1.93E-06,0.007079375
,,,1.94E-06,0.007041875
,,,1.95E-06,0.007125625
,,,1.96E-06,0.00708375
,,,1.97E-06,0.0073025
,,,1.98E-06,0.006983125
,,,1.99E-06,0.0069875
,,,2E-06,0.007220625
,,,2.01E-06,0.007279375
,,,2.02E-06,0.0070275
,,,2.03E-06,0.006974375
,,,2.04E-06,0.00719
,,,2.05E-06,0.007144375
,,,2.06E-06,0.00716375
,,,2.07E-06,0.007023125
,,,2.08E-06,0.006959375
,,,2.09E-06,0.00718375
,,,2.1E-06,0.0072125
,,,2.11E-06,0.00711625
,,,2.12E-06,0.00684375
,,,2.13E-06,0.00689125
,,,2.14E-06,0.007215625
,,,2.15E-06,0.00712
,,,2.16E-06,0.007175625
,,,2.17E-06,0.007160625
,,,2.18E-06,0.00706875
,,,2.19E-06,0.00737125
,,,2.2E-06,0.00712
,,,2.21E-06,0.007195625
,,,2.22E-06,0.007355
,,,2.23E-06,0.00724375
,,,2.24E-06,0.00740375
,,,2.25E-06,0.007008125
,,,2.26E-06,0.007380625
,,,2.27E-06,0.007306875
,,,2.28E-06,0.007205625
,,,2.29E-06,0.007105625
,,,2.3E-06,0.007208125
,,,2.31E-06,0.007280625
,,,2.32E-06,0.0070425
,,,2.33E-06,0.007165625
,,,2.34E-06,0.0072275
,,,2.35E-06,0.00701375
,,,2.36E-06,0.007193125
,,,2.37E-06,0.007121875
,,,2.38E-06,0.007365625
,,,2.39E-06,0.00721375
,,,2.4E-06,0.007085625
,,,2.41E-06,0.007268125
,,,2.42E-06,0.00700375
,,,2.43E-06,0.006934375
,,,2.44E-06,0.007109375
,,,2.45E-06,0.007145625
,,,2.46E-06,0.007105
,,,2.47E-06,0.007201875
,,,2.48E-06,0.007129375
,,,2.49E-06,0.007188125
,,,2.5E-06,0.0072125
,,,2.51E-06,0.00712
,,,2.52E-06,0.007224375
,,,2.53E-06,0.006945
,,,2.54E-06,0.006888125
,,,2.55E-06,0.007071875
,,,2.56E-06,0.00701375
,,,2.57E-06,0.007083125
,,,2.58E-06,0.00703
,,,2.59E-06,0.007095
,,,2.6E-06,0.007246875
,,,2.61E-06,0.006935
,,,2.62E-06,0.007025
,,,2.63E-06,0.007081875
,,,2.64E-06,0.007293125
,,,2.65E-06,0.00732875
,,,2.66E-06,0.006961875
,,,2.67E-06,0.007148125
,,,2.68E-06,0.007123125
,,,2.69E-06,0.007149375
,,,2.7E-06,0.007250625
,,,2.71E-06,0.007009375
,,,2.72E-06,0.0070075
,,,2.73E-06,0.007574375
,,,2.74E-06,0.00702375
,,,2.75E-06,0.00726
,,,2.76E-06,0.00694125
,,,2.77E-06,0.006998125
,,,2.78E-06,0.007130625
,,,2.79E-06,0.006965625
,,,2.8E-06,0.00732125
,,,2.81E-06,0.007100625
,,,2.82E-06,0.007155
,,,2.83E-06,0.00719375
,,,2.84E-06,0.007044375
,,,2.85E-06,0.007046875
,,,2.86E-06,0.00728
,,,2.87E-06,0.006861875
,,,2.88E-06,0.0070975
,,,2.89E-06,0.007174375
,,,2.9E-06,0.0071725
,,,2.91E-06,0.00748125
,,,2.92E-06,0.007123125
,,,2.93E-06,0.007215
,,,2.94E-06,0.00719875
,,,2.95E-06,0.00692
,,,2.96E-06,0.007093125
,,,2.97E-06,0.00718125
,,,2.98E-06,0.007384375
,,,2.99E-06,0.007118125
,,,3E-06,0.00704875
,,,3.01E-06,0.006864375
,,,3.02E-06,0.007045
,,,3.03E-06,0.00697
,,,3.04E-06,0.007104375
,,,3.05E-06,0.007103125
,,,3.06E-06,0.00727375
,,,3.07E-06,0.007256875
,,,3.08E-06,0.006975625
,,,3.09E-06,0.007223125
,,,3.1E-06,0.006969375
,,,3.11E-06,0.007213125
,,,3.12E-06,0.007084375
,,,3.13E-06,0.00705
,,,3.14E-06,0.00751
,,,3.15E-06,0.007306875
,,,3.16E-06,0.007126875
,,,3.17E-06,0.007058125
,,,3.18E-06,0.00698375
,,,3.19E-06,0.007181875
,,,3.2E-06,0.006999375
,,,3.21E-06,0.00691125
,,,3.22E-06,0.006955625
,,,3.23E-06,0.007463125
,,,3.24E-06,0.007241875
,,,3.25E-06,0.007140625
,,,3.26E-06,0.007234375
,,,3.27E-06,0.00696625
,,,3.28E-06,0.006945625
,,,3.29E-06,0.0070625
,,,3.3E-06,0.007021875
,,,3.31E-06,0.007125
,,,3.32E-06,0.007051875
,,,3.33E-06,0.007201875
,,,3.34E-06,0.00725875
,,,3.35E-06,0.007115625
,,,3.36E-06,0.007191875
,,,3.37E-06,0.00739625
,,,3.38E-06,0.007183125
,,,3.39E-06,0.00725625
,,,3.4E-06,0.007115
,,,3.41E-06,0.007165625
,,,3.42E-06,0.0070625
,,,3.43E-06,0.006851875
,,,3.44E-06,0.00707125
,,,3.45E-06,0.00698375
,,,3.46E-06,0.007276875
,,,3.47E-06,0.0072075
,,,3.48E-06,0.007035
,,,3.49E-06,0.006875625
,,,3.5E-06,0.007060625
,,,3.51E-06,0.0070675
,,,3.52E-06,0.00725
,,,3.53E-06,0.006993125
,,,3.54E-06,0.00712
,,,3.55E-06,0.0072975
