data/raw/Final_POL_Test_1/SOP052_Ch1.csv

"Record Length",1000,"Points",-5E-06,0.005238125
"Sample Interval",1E-08,s,-4.99E-06,0.00519125
"Trigger Point",500,"Samples",-4.98E-06,0.005145625
"Trigger Time",0,s,-4.97E-06,0.00513625
"",,,-4.96E-06,0.00513625
"Horizontal Offset",-5E-06,s,-4.95E-06,0.005084375
,,,-4.94E-06,0.00510625
,,,-4.93E-06,0.005120625
,,,-4.92E-06,0.005163125
,,,-4.91E-06,0.00509625
,,,-4.9E-06,0.005205
,,,-4.89E-06,0.00533875
,,,-4.88E-06,0.005098125
,,,-4.87E-06,0.005310625
,,,-4.86E-06,0.005131875
,,,-4.85E-06,0.005195
,,,-4.84E-06,0.0049475
,,,-4.83E-06,0.0049625
,,,-4.82E-06,0.005125625
,,,-4.81E-06,0.00526875
,,,-4.8E-06,0.00516375
,,,-4.79E-06,0.00515375
,,,-4.78E-06,0.005158125
,,,-4.77E-06,0.00529875
,,,-4.76E-06,0.005224375
,,,-4.75E-06,0.005304375
,,,-4.74E-06,0.005361875
,,,-4.73E-06,0.0052225
,,,-4.72E-06,0.005160625
,,,-4.71E-06,0.0051825
,,,-4.7E-06,0.005305
,,,-4.69E-06,0.005146875
,,,-4.68E-06,0.005010625
,,,-4.67E-06,0.005204375
,,,-4.66E-06,0.005195625
,,,-4.65E-06,0.005035625
,,,-4.64E-06,0.00515375
,,,-4.63E-06,0.00533875
,,,-4.62E-06,0.005134375
,,,-4.61E-06,0.005090625
,,,-4.6E-06,0.004954375
,,,-4.59E-06,0.00522875
,,,-4.58E-06,0.005298125
,,,-4.57E-06,0.0051675
,,,-4.56E-06,0.00505875
,,,-4.55E-06,0.0051225
,,,-4.54E-06,0.00516375
,,,-4.53E-06,0.00526875
,,,-4.52E-06,0.005056875
,,,-4.51E-06,0.005345625
,,,-4.5E-06,0.00515
,,,-4.49E-06,0.005355625
,,,-4.48E-06,0.005248125
,,,-4.47E-06,0.005353125
,,,-4.46E-06,0.00525875
,,,-4.45E-06,0.005004375
,,,-4.44E-06,0.005125625
,,,-4.43E-06,0.00520875
,,,-4.42E-06,0.005189375
,,,-4.41E-06,0.005393125
,,,-4.4E-06,0.00516
,,,-4.39E-06,0.00497625
,,,-4.38E-06,0.005220625
,,,-4.37E-06,0.005125625
,,,-4.36E-06,0.00508
,,,-4.35E-06,0.005128125
,,,-4.34E-06,0.00506125
,,,-4.33E-06,0.005584375
,,,-4.32E-06,0.005060625
,,,-4.31E-06,0.005145625
,,,-4.3E-06,0.005115625
,,,-4.29E-06,0.004926875
,,,-4.28E-06,0.005355625
,,,-4.27E-06,0.00510125
,,,-4.26E-06,0.005451875
,,,-4.25E-06,0.0054325
,,,-4.24E-06,0.00498875
,,,-4.23E-06,0.00513125
,,,-4.22E-06,0.005075
,,,-4.21E-06,0.005185625
,,,-4.2E-06,0.0050975
,,,-4.19E-06,0.005244375
,,,-4.18E-06,0.005253125
,,,-4.17E-06,0.00525
,,,-4.16E-06,0.00525125
,,,-4.15E-06,0.0050825
,,,-4.14E-06,0.005354375
,,,-4.13E-06,0.005183125
,,,-4.12E-06,0.005133125
,,,-4.11E-06,0.005275
,,,-4.1E-06,0.005034375
,,,-4.09E-06,0.00527
,,,-4.08E-06,0.005073125
,,,-4.07E-06,0.0052425
,,,-4.06E-06,0.00495125
,,,-4.05E-06,0.00515
,,,-4.04E-06,0.00489625
,,,-4.03E-06,0.004989375
,,,-4.02E-06,0.005235625
,,,-4.01E-06,0.005284375
,,,-4E-06,0.0052125
,,,-3.99E-06,0.005158125
,,,-3.98E-06,0.005215
,,,-3.97E-06,0.00505
,,,-3.96E-06,0.005206875
,,,-3.95E-06,0.005123125
,,,-3.94E-06,0.00512
,,,-3.93E-06,0.005258125
,,,-3.92E-06,0.00487875
,,,-3.91E-06,0.005226875
,,,-3.9E-06,0.00506875
,,,-3.89E-06,0.005171875
,,,-3.88E-06,0.004851875
,,,-3.87E-06,0.005054375
,,,-3.86E-06,0.005201875
,,,-3.85E-06,0.005410625
,,,-3.84E-06,0.005531875
,,,-3.83E-06,0.005299375
,,,-3.82E-06,0.005183125
,,,-3.81E-06,0.005156875
,,,-3.8E-06,0.005338125
,,,-3.79E-06,0.00519375
,,,-3.78E-06,0.005253125
,,,-3.77E-06,0.005116875
,,,-3.76E-06,0.00513375
,,,-3.75E-06,0.0053375
,,,-3.74E-06,0.005173125
,,,-3.73E-06,0.005141875
,,,-3.72E-06,0.0050875
,,,-3.71E-06,0.00498
,,,-3.7E-06,0.0052025
,,,-3.69E-06,0.005115
,,,-3.68E-06,0.00549875
,,,-3.67E-06,0.005158125
,,,-3.66E-06,0.005308125
,,,-3.65E-06,0.005033125
,,,-3.64E-06,0.005146875
,,,-3.63E-06,0.00524125
,,,-3.62E-06,0.00499625
,,,-3.61E-06,0.005071875
,,,-3.6E-06,0.005365625
,,,-3.59E-06,0.00533625
,,,-3.58E-06,0.0053625
,,,-3.57E-06,0.005015
,,,-3.56E-06,0.005015625
,,,-3.55E-06,0.00494625
,,,-3.54E-06,0.005109375
,,,-3.53E-06,0.005583125
,,,-3.52E-06,0.005111875
,,,-3.51E-06,0.0049525
,,,-3.5E-06,0.00545
,,,-3.49E-06,0.0053625
,,,-3.48E-06,0.005180625
,,,-3.47E-06,0.00511375
,,,-3.46E-06,0.004974375
,,,-3.45E-06,0.0051475
,,,-3.44E-06,0.005230625
,,,-3.43E-06,0.00518875
,,,-3.42E-06,0.0053175
,,,-3.41E-06,0.005250625
,,,-3.4E-06,0.005225
,,,-3.39E-06,0.00527
,,,-3.38E-06,0.00492
,,,-3.37E-06,0.005226875
,,,-3.36E-06,0.00518875
,,,-3.35E-06,0.00534625
,,,-3.34E-06,0.005133125
,,,-3.33E-06,0.00527
,,,-3.32E-06,0.005018125
,,,-3.31E-06,0.005238125
,,,-3.3E-06,0.00508875
,,,-3.29E-06,0.00531875
,,,-3.28E-06,0.004955
,,,-3.27E-06,0.00509
,,,-3.26E-06,0.00503625
,,,-3.25E-06,0.005265
,,,-3.24E-06,0.005026875
,,,-3.23E-06,0.005154375
,,,-3.22E-06,0.005289375
,,,-3.21E-06,0.00508
,,,-3.2E-06,0.005180625
,,,-3.19E-06,0.00488875
,,,-3.18E-06,0.005273125
,,,-3.17E-06,0.0049875
,,,-3.16E-06,0.005158125
,,,-3.15E-06,0.005328125
,,,-3.14E-06,0.004809375
,,,-3.13E-06,0.00485
,,,-3.12E-06,0.0050525
,,,-3.11E-06,0.005064375
,,,-3.1E-06,0.005258125
,,,-3.09E-06,0.005019375
,,,-3.08E-06,0.00489875
,,,-3.07E-06,0.00518625
,,,-3.06E-06,0.005116875
,,,-3.05E-06,0.005081875
,,,-3.04E-06,0.0052525
,,,-3.03E-06,0.005004375
,,,-3.02E-06,0.005123125
,,,-3.01E-06,0.005124375
,,,-3E-06,0.005229375
,,,-2.99E-06,0.005050625
,,,-2.98E-06,0.004924375
,,,-2.97E-06,0.005176875
,,,-2.96E-06,0.005206875
,,,-2.95E-06,0.005270625
,,,-2.94E-06,0.005148125
,,,-2.93E-06,0.00510625
,,,-2.92E-06,0.005116875
,,,-2.91E-06,0.005104375
,,,-2.9E-06,0.00497
,,,-2.89E-06,0.00523
,,,-2.88E-06,0.005080625
,,,-2.87E-06,0.00527625
,,,-2.86E-06,0.004874375
,,,-2.85E-06,0.0051975
,,,-2.84E-06,0.005145
,,,-2.83E-06,0.00500625
,,,-2.82E-06,0.004933125
,,,-2.81E-06,0.005231875
,,,-2.8E-06,0.005085
,,,-2.79E-06,0.0048975
,,,-2.78E-06,0.005461875
,,,-2.77E-06,0.00518
,,,-2.76E-06,0.00524625
,,,-2.75E-06,0.00523375
,,,-2.74E-06,0.00507125
,,,-2.73E-06,0.00514
,,,-2.72E-06,0.005213125
,,,-2.71E-06,0.005095625
,,,-2.7E-06,0.00531
,,,-2.69E-06,0.005079375
,,,-2.68E-06,0.005008125
,,,-2.67E-06,0.00556375
,,,-2.66E-06,0.005166875
,,,-2.65E-06,0.0049225
,,,-2.64E-06,0.00498
,,,-2.63E-06,0.004986875
,,,-2.62E-06,0.00496625
,,,-2.61E-06,0.00494875
,,,-2.6E-06,0.005359375
,,,-2.59E-06,0.005214375
,,,-2.58E-06,0.00500875
,,,-2.57E-06,0.004863125
,,,-2.56E-06,0.005068125
,,,-2.55E-06,0.005059375
,,,-2.54E-06,0.0052025
,,,-2.53E-06,0.005219375
,,,-2.52E-06,0.005225
,,,-2.51E-06,0.005381875
,,,-2.5E-06,0.005169375
,,,-2.49E-06,0.00520625
,,,-2.48E-06,0.005175625
,,,-2.47E-06,0.004988125
,,,-2.46E-06,0.005330625
,,,-2.45E-06,0.00542125
,,,-2.44E-06,0.005210625
,,,-2.43E-06,0.00525
,,,-2.42E-06,0.0049275
,,,-2.41E-06,0.00495625
,,,-2.4E-06,0.005365625
,,,-2.39E-06,0.004908125
,,,-2.38E-06,0.005105
,,,-2.37E-06,0.005055625
,,,-2.36E-06,0.005305625
,,,-2.35E-06,0.00520375
,,,-2.34E-06,0.005210625
,,,-2.33E-06,0.0053175
,,,-2.32E-06,0.005189375
,,,-2.31E-06,0.00517125
,,,-2.3E-06,0.005088125
,,,-2.29E-06,0.005310625
,,,-2.28E-06,0.00533125
,,,-2.27E-06,0.00525875
,,,-2.26E-06,0.00498625
,,,-2.25E-06,0.0052475
,,,-2.24E-06,0.005049375
,,,-2.23E-06,0.0050025
,,,-2.22E-06,0.00511125
,,,-2.21E-06,0.005001875
,,,-2.2E-06,0.005141875
,,,-2.19E-06,0.005013125
,,,-2.18E-06,0.005119375
,,,-2.17E-06,0.005223125
,,,-2.16E-06,0.005074375
,,,-2.15E-06,0.0051
,,,-2.14E-06,0.005055625
,,,-2.13E-06,0.005185
,,,-2.12E-06,0.005224375
,,,-2.11E-06,0.00545875
,,,-2.1E-06,0.005214375
,,,-2.09E-06,0.00543125
,,,-2.08E-06,0.00500625
,,,-2.07E-06,0.005085
,,,-2.06E-06,0.005314375
,,,-2.05E-06,0.00504
,,,-2.04E-06,0.005190625
,,,-2.03E-06,0.005279375
,,,-2.02E-06,0.004975625
,,,-2.01E-06,0.005356875
,,,-2E-06,0.005025625
,,,-1.99E-06,0.00521375
,,,-1.98E-06,0.005261875
,,,-1.97E-06,0.004964375
,,,-1.96E-06,0.005111875
,,,-1.95E-06,0.005533125
,,,-1.94E-06,0.005204375
,,,-1.93E-06,0.00507875
,,,-1.92E-06,0.00527875
,,,-1.91E-06,0.00513375
,,,-1.9E-06,0.005113125
,,,-1.89E-06,0.00519625
,,,-1.88E-06,0.005045625
,,,-1.87E-06,0.00534
,,,-1.86E-06,0.005315625
,,,-1.85E-06,0.00535
,,,-1.84E-06,0.005001875
,,,-1.83E-06,0.00511875
,,,-1.82E-06,0.005091875
,,,-1.81E-06,0.00515625
,,,-1.8E-06,0.005450625
,,,-1.79E-06,0.005178125
,,,-1.78E-06,0.0051275
,,,-1.77E-06,0.005368125
,,,-1.76E-06,0.005181875
,,,-1.75E-06,0.005403125
,,,-1.74E-06,0.005174375
,,,-1.73E-06,0.004929375
,,,-1.72E-06,0.00506375
,,,-1.71E-06,0.005103125
,,,-1.7E-06,0.005019375
,,,-1.69E-06,0.00526875
,,,-1.68E-06,0.005240625
,,,-1.67E-06,0.00510125
,,,-1.66E-06,0.005104375
,,,-1.65E-06,0.005055625
,,,-1.64E-06,0.00505
,,,-1.63E-06,0.005435
,,,-1.62E-06,0.00514375
,,,-1.61E-06,0.00525125
,,,-1.6E-06,0.00499
,,,-1.59E-06,0.0051925
,,,-1.58E-06,0.00522875
,,,-1.57E-06,0.005
,,,-1.56E-06,0.00510625
,,,-1.55E-06,0.005031875
,,,-1.54E-06,0.00511625
,,,-1.53E-06,0.005178125
,,,-1.52E-06,0.005175
,,,-1.51E-06,0.00529
,,,-1.5E-06,0.0052075
,,,-1.49E-06,0.0051075
,,,-1.48E-06,0.005250625
,,,-1.47E-06,0.00527375
,,,-1.46E-06,0.005455
,,,-1.45E-06,0.00521125
,,,-1.44E-06,0.005274375
,,,-1.43E-06,0.005254375
,,,-1.42E-06,0.004939375
,,,-1.41E-06,0.00525375
,,,-1.4E-06,0.00520625
,,,-1.39E-06,0.00510625
,,,-1.38E-06,0.005140625
,,,-1.37E-06,0.00499
,,,-1.36E-06,0.00537125
,,,-1.35E-06,0.0052025
,,,-1.34E-06,0.0050025
,,,-1.33E-06,0.00515
,,,-1.32E-06,0.005055
,,,-1.31E-06,0.0051875
,,,-1.3E-06,0.005139375
,,,-1.29E-06,0.005184375
,,,-1.28E-06,0.005435625
,,,-1.27E-06,0.005136875
,,,-1.26E-06,0.005150625
,,,-1.25E-06,0.00520125
,,,-1.24E-06,0.0053025
,,,-1.23E-06,0.00508125
,,,-1.22E-06,0.00522875
,,,-1.21E-06,0.005300625
,,,-1.2E-06,0.005180625
,,,-1.19E-06,0.00514875
,,,-1.18E-06,0.005204375
,,,-1.17E-06,0.005135625
,,,-1.16E-06,0.00516375
,,,-1.15E-06,0.0050925
,,,-1.14E-06,0.00508625
,,,-1.13E-06,0.005011875
,,,-1.12E-06,0.0053125
,,,-1.11E-06,0.005040625
,,,-1.1E-06,0.0052175
,,,-1.09E-06,0.005325625
,,,-1.08E-06,0.005193125
,,,-1.07E-06,0.005130625
,,,-1.06E-06,0.005113125
,,,-1.05E-06,0.005066875
,,,-1.04E-06,0.005145
,,,-1.03E-06,0.0053175
,,,-1.02E-06,0.00525125
,,,-1.01E-06,0.00534
,,,-1E-06,0.005071875
,,,-9.9E-07,0.005209375
,,,-9.8E-07,0.00515125
,,,-9.7E-07,0.005105
,,,-9.6E-07,0.005316875
,,,-9.5E-07,0.00518875
,,,-9.4E-07,0.005155
,,,-9.3E-07,0.00501
,,,-9.2E-07,0.005118125
,,,-9.1E-07,0.005001875
,,,-9E-07,0.005319375
,,,-8.9E-07,0.005103125
,,,-8.8E-07,0.004865625
,,,-8.7E-07,0.005431875
,,,-8.6E-07,0.005315
,,,-8.5E-07,0.0049425
,,,-8.4E-07,0.0051775
,,,-8.3E-07,0.005380625
,,,-8.2E-07,0.004876875
,,,-8.1E-07,0.00522625
,,,-8E-07,0.00535375
,,,-7.9E-07,0.00535125
,,,-7.8E-07,0.00488
,,,-7.7E-07,0.005344375
,,,-7.6E-07,0.005186875
,,,-7.5E-07,0.005096875
,,,-7.4E-07,0.005015
,,,-7.3E-07,0.005128125
,,,-7.2E-07,0.00508
,,,-7.1E-07,0.005093125
,,,-7E-07,0.00526375
,,,-6.9E-07,0.00512375
,,,-6.8E-07,0.005083125
,,,-6.7E-07,0.005374375
,,,-6.6E-07,0.00537125
,,,-6.5E-07,0.005045
,,,-6.4E-07,0.005054375
,,,-6.3E-07,0.00512125
,,,-6.2E-07,0.0049125
,,,-6.1E-07,0.005141875
,,,-6E-07,0.00509
,,,-5.9E-07,0.00524
,,,-5.8E-07,0.00515625
,,,-5.7E-07,0.004948125
,,,-5.6E-07,0.00518625
,,,-5.5E-07,0.004894375
,,,-5.4E-07,0.0051375
,,,-5.3E-07,0.00523125
,,,-5.2E-07,0.00529875
,,,-5.1E-07,0.0050925
,,,-5E-07,0.00530375
,,,-4.9E-07,0.0052525
,,,-4.8E-07,0.00523375
,,,-4.7E-07,0.004965
,,,-4.6E-07,0.00518
,,,-4.5E-07,0.0051925
,,,-4.4E-07,0.0054225
,,,-4.3E-07,0.005079375
,,,-4.2E-07,0.00504375
,,,-4.1E-07,0.005149375
,,,-4E-07,0.004888125
,,,-3.9E-07,0.005169375
,,,-3.8E-07,0.004925625
,,,-3.7E-07,0.005169375
,,,-3.6E-07,0.0050425
,,,-3.5E-07,0.00509
,,,-3.4E-07,0.00518375
,,,-3.3E-07,0.005236875
,,,-3.2E-07,0.0052825
,,,-3.1E-07,0.004924375
,,,-3E-07,0.005144375
,,,-2.9E-07,0.005091875
,,,-2.8E-07,0.005215625
,,,-2.7E-07,0.005090625
,,,-2.6E-07,0.005179375
,,,-2.5E-07,0.0054025
,,,-2.4E-07,0.005014375
,,,-2.3E-07,0.0052725
,,,-2.2E-07,0.00541125
,,,-2.1E-07,0.005341875
,,,-2E-07,0.005353125
,,,-1.9E-07,0.00512625
,,,-1.8E-07,0.00515125
,,,-1.7E-07,0.00526125
,,,-1.6E-07,0.00535125
,,,-1.5E-07,0.00491375
,,,-1.4E-07,0.00511875
,,,-1.3E-07,0.00543375
,,,-1.2E-07,0.005290625
,,,-1.1E-07,0.00514125
,,,-1E-07,0.0051275
,,,-9E-08,0.005145625
,,,-8E-08,0.00504875
,,,-7E-08,0.0049775
,,,-6E-08,0.00473625
,,,-5E-08,0.005978125
,,,-4E-08,0.006609375
,,,-3E-08,0.005155625
,,,-2E-08,0.004005625
,,,-1E-08,0.003259375
,,,0,0.004818125
,,,1E-08,0.0059525
,,,2E-08,0.00687
,,,3E-08,0.006181875
,,,4E-08,0.005165
,,,5E-08,0.004163125
,,,6E-08,0.003811875
,,,7E-08,0.004895625
,,,8E-08,0.00531
,,,9E-08,0.006166875
,,,1E-07,0.0057725
,,,1.1E-07,0.00519625
,,,1.2E-07,0.0051025
,,,1.3E-07,0.00449875
,,,1.4E-07,0.004935
,,,1.5E-07,0.00532
,,,1.6E-07,0.005395625
,,,1.7E-07,0.00537625
,,,1.8E-07,0.005043125
,,,1.9E-07,0.005279375
,,,2E-07,0.005128125
,,,2.1E-07,0.005034375
,,,2.2E-07,0.005185625
,,,2.3E-07,0.0049325
,,,2.4E-07,0.0051775
,,,2.5E-07,0.00526125
,,,2.6E-07,0.005159375
,,,2.7E-07,0.005321875
,,,2.8E-07,0.0050775
,,,2.9E-07,0.005174375
,,,3E-07,0.00504375
,,,3.1E-07,0.005030625
,,,3.2E-07,0.00527
,,,3.3E-07,0.005215
,,,3.4E-07,0.005105
,,,3.5E-07,0.005129375
,,,3.6E-07,0.0054325
,,,3.7E-07,0.00536125
,,,3.8E-07,0.0051175
,,,3.9E-07,0.005111875
,,,4E-07,0.00534375
,,,4.1E-07,0.004888125
,,,4.2E-07,0.005025625
,,,4.3E-07,0.005086875
,,,4.4E-07,0.005139375
,,,4.5E-07,0.005535
,,,4.6E-07,0.005395625
,,,4.7E-07,0.00502375
,,,4.8E-07,0.005250625
,,,4.9E-07,0.00495875
,,,5E-07,0.00541375
,,,5.1E-07,0.00513
,,,5.2E-07,0.0053475
,,,5.3E-07,0.005005
,,,5.4E-07,0.005229375
,,,5.5E-07,0.005031875
,,,5.6E-07,0.005054375
,,,5.7E-07,0.005130625
,,,5.8E-07,0.00539125
,,,5.9E-07,0.00524
,,,6E-07,0.0051825
,,,6.1E-07,0.0052475
,,,6.2E-07,0.005099375
,,,6.3E-07,0.005239375
,,,6.4E-07,0.005110625
,,,6.5E-07,0.0052275
,,,6.6E-07,0.00499875
,,,6.7E-07,0.00517125
,,,6.8E-07,0.005243125
,,,6.9E-07,0.00505625
,,,7E-07,0.00471625
,,,7.1E-07,0.005016875
,,,7.2E-07,0.0053025
,,,7.3E-07,0.005219375
,,,7.4E-07,0.0052875
,,,7.5E-07,0.00513625
,,,7.6E-07,0.0049975
,,,7.7E-07,0.005141875
,,,7.8E-07,0.0051425
,,,7.9E-07,0.0052525
,,,8E-07,0.00536
,,,8.1E-07,0.005116875
,,,8.2E-07,0.00526
,,,8.3E-07,0.005178125
,,,8.4E-07,0.0050175
,,,8.5E-07,0.005325
,,,8.6E-07,0.005256875
,,,8.7E-07,0.005175
,,,8.8E-07,0.00523625
,,,8.9E-07,0.005269375
,,,9E-07,0.0053625
,,,9.1E-07,0.00523375
,,,9.2E-07,0.0053775
,,,9.3E-07,0.0051425
,,,9.4E-07,0.00512875
,,,9.5E-07,0.0052625
,,,9.6E-07,0.005371875
,,,9.7E-07,0.005135625
,,,9.8E-07,0.00503375
,,,9.9E-07,0.004966875
,,,1E-06,0.00520875
,,,1.01E-06,0.005260625
,,,1.02E-06,0.00521375
,,,1.03E-06,0.0052275
,,,1.04E-06,0.00524875
,,,1.05E-06,0.005174375
,,,1.06E-06,0.005275625
,,,1.07E-06,0.005379375
,,,1.08E-06,0.005433125
,,,1.09E-06,0.005136875
,,,1.1E-06,0.005095625
,,,1.11E-06,0.005120625
,,,1.12E-06,0.00510625
,,,1.13E-06,0.0051625
,,,1.14E-06,0.005048125
,,,1.15E-06,0.005179375
,,,1.16E-06,0.00529
,,,1.17E-06,0.005384375
,,,1.18E-06,0.004881875
,,,1.19E-06,0.00530375
,,,1.2E-06,0.00551125
,,,1.21E-06,0.00504
,,,1.22E-06,0.00510625
,,,1.23E-06,0.0051225
,,,1.24E-06,0.005358125
,,,1.25E-06,0.005106875
,,,1.26E-06,0.005176875
,,,1.27E-06,0.005158125
,,,1.28E-06,0.005221875
,,,1.29E-06,0.005445625
,,,1.3E-06,0.00504
,,,1.31E-06,0.0050275
,,,1.32E-06,0.005161875
,,,1.33E-06,0.005233125
,,,1.34E-06,0.005265
,,,1.35E-06,0.005240625
,,,1.36E-06,0.005420625
,,,1.37E-06,0.0054
,,,1.38E-06,0.00520375
,,,1.39E-06,0.00525875
,,,1.4E-06,0.0051975
,,,1.41E-06,0.005395
,,,1.42E-06,0.00512625
,,,1.43E-06,0.004911875
,,,1.44E-06,0.005010625
,,,1.45E-06,0.005286875
,,,1.46E-06,0.005250625
,,,1.47E-06,0.005240625
,,,1.48E-06,0.005178125
,,,1.49E-06,0.005185
,,,1.5E-06,0.005121875
,,,1.51E-06,0.005045
,,,1.52E-06,0.005255625
,,,1.53E-06,0.00521375
,,,1.54E-06,0.005191875
,,,1.55E-06,0.00516
,,,1.56E-06,0.00499125
,,,1.57E-06,0.005295
,,,1.58E-06,0.005168125
,,,1.59E-06,0.005075
,,,1.6E-06,0.005165
,,,1.61E-06,0.005161875
,,,1.62E-06,0.00506375
,,,1.63E-06,0.005281875
,,,1.64E-06,0.005319375
,,,1.65E-06,0.005280625
,,,1.66E-06,0.005164375
,,,1.67E-06,0.00533875
,,,1.68E-06,0.005235
,,,1.69E-06,0.004989375
,,,1.7E-06,0.005160625
,,,1.71E-06,0.005255625
,,,1.72E-06,0.00521875
,,,1.73E-06,0.00494
,,,1.74E-06,0.00512625
,,,1.75E-06,0.005170625
,,,1.76E-06,0.005034375
,,,1.77E-06,0.00523875
,,,1.78E-06,0.004955
,,,1.79E-06,0.00509875
,,,1.8E-06,0.00531375
,,,1.81E-06,0.0051675
,,,1.82E-06,0.005158125
,,,1.83E-06,0.005225625
,,,1.84E-06,0.00525875
,,,1.85E-06,0.00519
,,,1.86E-06,0.00511625
,,,1.87E-06,0.00523375
,,,1.88E-06,0.00498875
,,,1.89E-06,0.005254375
,,,1.9E-06,0.00548875
,,,1.91E-06,0.005090625
,,,1.92E-06,0.005045625
,,,1.93E-06,0.004929375
,,,1.94E-06,0.005233125
,,,1.95E-06,0.005085625
,,,1.96E-06,0.00509
,,,1.97E-06,0.005125625
,,,1.98E-06,0.005055
,,,1.99E-06,0.005138125
,,,2E-06,0.005246875
,,,2.01E-06,0.00501625
,,,2.02E-06,0.00520875
,,,2.03E-06,0.00524125
,,,2.04E-06,0.00506625
,,,2.05E-06,0.0051975
,,,2.06E-06,0.00513375
,,,2.07E-06,0.00515625
,,,2.08E-06,0.00530125
,,,2.09E-06,0.00509875
,,,2.1E-06,0.00530125
,,,2.11E-06,0.005033125
,,,2.12E-06,0.0054175
,,,2.13E-06,0.005231875
,,,2.14E-06,0.00517125
,,,2.15E-06,0.0050275
,,,2.16E-06,0.005141875
,,,2.17E-06,0.005039375
,,,2.18E-06,0.0048425
,,,2.19E-06,0.0053525
,,,2.2E-06,0.005180625
,,,2.21E-06,0.005238125
,,,2.22E-06,0.00515875
,,,2.23E-06,0.005106875
,,,2.24E-06,0.005135
,,,2.25E-06,0.00493375
,,,2.26E-06,0.0049875
,,,2.27E-06,0.005175
,,,2.28E-06,0.005146875
,,,2.29E-06,0.0052075
,,,2.3E-06,0.005013125
,,,2.31E-06,0.005345625
,,,2.32E-06,0.005206875
,,,2.33E-06,0.005018125
,,,2.34E-06,0.005135625
,,,2.35E-06,0.00494
,,,2.36E-06,0.005186875
,,,2.37E-06,0.0049975
,,,2.38E-06,0.004996875
,,,2.39E-06,0.005441875
,,,2.4E-06,0.0053425
,,,2.41E-06,0.005035
,,,2.42E-06,0.005205
,,,2.43E-06,0.005115625
,,,2.44E-06,0.004834375
,,,2.45E-06,0.005275625
,,,2.46E-06,0.00508375
,,,2.47E-06,0.00523625
,,,2.48E-06,0.0049875
,,,2.49E-06,0.005161875
,,,2.5E-06,0.004944375
,,,2.51E-06,0.0052425
,,,2.52E-06,0.005253125
,,,2.53E-06,0.005234375
,,,2.54E-06,0.005320625
,,,2.55E-06,0.00521625
,,,2.56E-06,0.00520625
,,,2.57E-06,0.00525625
,,,2.58E-06,0.005218125
,,,2.59E-06,0.005285625
,,,2.6E-06,0.00525
,,,2.61E-06,0.00539125
,,,2.62E-06,0.00520375
,,,2.63E-06,0.0050475
,,,2.64E-06,0.005219375
,,,2.65E-06,0.00526375
,,,2.66E-06,0.005336875
,,,2.67E-06,0.005386875
,,,2.68E-06,0.005254375
,,,2.69E-06,0.005143125
,,,2.7E-06,0.005050625
,,,2.71E-06,0.0049675
,,,2.72E-06,0.00502125
,,,2.73E-06,0.004924375
,,,2.74E-06,0.004923125
,,,2.75E-06,0.005199375
,,,2.76E-06,0.005249375
,,,2.77E-06,0.0052125
,,,2.78E-06,0.0051425
,,,2.79E-06,0.005243125
,,,2.8E-06,0.005064375
,,,2.81E-06,0.00508375
,,,2.82E-06,0.0051925
,,,2.83E-06,0.00512625
,,,2.84E-06,0.004935
,,,2.85E-06,0.0051475
,,,2.86E-06,0.005245
,,,2.87E-06,0.005045625
,,,2.88E-06,0.00516625
,,,2.89E-06,0.005415
,,,2.9E-06,0.0052775
,,,2.91E-06,0.005363125
,,,2.92E-06,0.00517375
,,,2.93E-06,0.00528625
,,,2.94E-06,0.00521875
,,,2.95E-06,0.00512375
,,,2.96E-06,0.005355625
,,,2.97E-06,0.00509625
,,,2.98E-06,0.005040625
,,,2.99E-06,0.005293125
,,,3E-06,0.00524625
,,,3.01E-06,0.005554375
,,,3.02E-06,0.005248125
,,,3.03E-06,0.00499
,,,3.04E-06,0.0053075
,,,3.05E-06,0.00514125
,,,3.06E-06,0.00519125
,,,3.07E-06,0.005305625
,,,3.08E-06,0.005033125
,,,3.09E-06,0.0052225
,,,3.1E-06,0.005004375
,,,3.11E-06,0.005023125
,,,3.12E-06,0.005209375
,,,3.13E-06,0.00508375
,,,3.14E-06,0.00503125
,,,3.15E-06,0.005296875
,,,3.16E-06,0.00504625
,,,3.17E-06,0.00520625
,,,3.18E-06,0.004979375
,,,3.19E-06,0.005153125
,,,3.2E-06,0.005266875
,,,3.21E-06,0.0053375
,,,3.22E-06,0.00526125
,,,3.23E-06,0.005180625
,,,3.24E-06,0.00529375
,,,3.25E-06,0.0052875
,,,3.26E-06,0.0051
,,,3.27E-06,0.00492875
,,,3.28E-06,0.00533
,,,3.29E-06,0.00518375
,,,3.3E-06,0.005148125
,,,3.31E-06,0.005026875
,,,3.32E-06,0.005316875
,,,3.33E-06,0.00516375
,,,3.34E-06,0.00527875
,,,3.35E-06,0.005308125
,,,3.36E-06,0.005239375
,,,3.37E-06,0.005114375
,,,3.38E-06,0.00519125
,,,3.39E-06,0.005144375
,,,3.4E-06,0.00533875
,,,3.41E-06,0.00537375
,,,3.42E-06,0.005070625
,,,3.43E-06,0.005276875
,,,3.44E-06,0.005116875
,,,3.45E-06,0.005080625
,,,3.46E-06,0.005426875
,,,3.47E-06,0.005158125
,,,3.48E-06,0.00526625
,,,3.49E-06,0.005093125
,,,3.5E-06,0.0052875
,,,3.51E-06,0.0052275
,,,3.52E-06,0.005285625
,,,3.53E-06,0.00480625
,,,3.54E-06,0.00531375
,,,3.55E-06,0.00516
,,,3.56E-06,0.005209375
