data/raw/Final_POL_Test_1/SOP037_Ch2.csv

"Record Length",1000,"Points",-5E-06,0.023443125
"Sample Interval",1E-08,s,-4.99E-06,0.023741875
"Trigger Point",500,"Samples",-4.98E-06,0.023951875
"Trigger Time",0,s,-4.97E-06,0.02358125
"",,,-4.96E-06,0.023488125
"Horizontal Offset",-5E-06,s,-4.95E-06,0.02361625
,,,-4.94E-06,0.023723125
,,,-4.93E-06,0.02337
,,,-4.92E-06,0.023638125
,,,-4.91E-06,0.023506875
,,,-4.9E-06,0.0236675
,,,-4.89E-06,0.023615
,,,-4.88E-06,0.0236525
,,,-4.87E-06,0.02343375
,,,-4.86E-06,0.023573125
,,,-4.85E-06,0.023365625
,,,-4.84E-06,0.0234125
,,,-4.83E-06,0.023586875
,,,-4.82E-06,0.023735625
,,,-4.81E-06,0.02372
,,,-4.8E-06,0.023780625
,,,-4.79E-06,0.023480625
,,,-4.78E-06,0.0233275
,,,-4.77E-06,0.023514375
,,,-4.76E-06,0.023490625
,,,-4.75E-06,0.023355
,,,-4.74E-06,0.0234875
,,,-4.73E-06,0.023805
,,,-4.72E-06,0.023711875
,,,-4.71E-06,0.023724375
,,,-4.7E-06,0.023390625
,,,-4.69E-06,0.023538125
,,,-4.68E-06,0.0238975
,,,-4.67E-06,0.02415125
,,,-4.66E-06,0.023571875
,,,-4.65E-06,0.023578125
,,,-4.64E-06,0.023708125
,,,-4.63E-06,0.023656875
,,,-4.62E-06,0.023519375
,,,-4.61E-06,0.023664375
,,,-4.6E-06,0.023736875
,,,-4.59E-06,0.023598125
,,,-4.58E-06,0.02365
,,,-4.57E-06,0.023556875
,,,-4.56E-06,0.023668125
,,,-4.55E-06,0.023855
,,,-4.54E-06,0.023368125
,,,-4.53E-06,0.02367125
,,,-4.52E-06,0.02362625
,,,-4.51E-06,0.0236975
,,,-4.5E-06,0.0235925
,,,-4.49E-06,0.02371
,,,-4.48E-06,0.023729375
,,,-4.47E-06,0.023658125
,,,-4.46E-06,0.02358
,,,-4.45E-06,0.023425
,,,-4.44E-06,0.0236375
,,,-4.43E-06,0.02357875
,,,-4.42E-06,0.02366625
,,,-4.41E-06,0.023675625
,,,-4.4E-06,0.02373
,,,-4.39E-06,0.02384
,,,-4.38E-06,0.0236775
,,,-4.37E-06,0.0235225
,,,-4.36E-06,0.023458125
,,,-4.35E-06,0.023699375
,,,-4.34E-06,0.0236425
,,,-4.33E-06,0.023374375
,,,-4.32E-06,0.023541875
,,,-4.31E-06,0.02339
,,,-4.3E-06,0.02345
,,,-4.29E-06,0.02338375
,,,-4.28E-06,0.02375375
,,,-4.27E-06,0.023576875
,,,-4.26E-06,0.0233725
,,,-4.25E-06,0.02375375
,,,-4.24E-06,0.02360125
,,,-4.23E-06,0.02355875
,,,-4.22E-06,0.023596875
,,,-4.21E-06,0.02356375
,,,-4.2E-06,0.02357
,,,-4.19E-06,0.0235875
,,,-4.18E-06,0.023603125
,,,-4.17E-06,0.023725625
,,,-4.16E-06,0.023643125
,,,-4.15E-06,0.023444375
,,,-4.14E-06,0.02369875
,,,-4.13E-06,0.02342125
,,,-4.12E-06,0.023605
,,,-4.11E-06,0.023813125
,,,-4.1E-06,0.023454375
,,,-4.09E-06,0.023671875
,,,-4.08E-06,0.02360625
,,,-4.07E-06,0.023569375
,,,-4.06E-06,0.02375625
,,,-4.05E-06,0.02350125
,,,-4.04E-06,0.0235
,,,-4.03E-06,0.023693125
,,,-4.02E-06,0.023470625
,,,-4.01E-06,0.023729375
,,,-4E-06,0.023511875
,,,-3.99E-06,0.023606875
,,,-3.98E-06,0.0236975
,,,-3.97E-06,0.02378125
,,,-3.96E-06,0.023655
,,,-3.95E-06,0.023656875
,,,-3.94E-06,0.02356125
,,,-3.93E-06,0.023499375
,,,-3.92E-06,0.023721875
,,,-3.91E-06,0.02367625
,,,-3.9E-06,0.0238225
,,,-3.89E-06,0.0236
,,,-3.88E-06,0.023368125
,,,-3.87E-06,0.023284375
,,,-3.86E-06,0.023630625
,,,-3.85E-06,0.023679375
,,,-3.84E-06,0.0238
,,,-3.83E-06,0.02343
,,,-3.82E-06,0.023371875
,,,-3.81E-06,0.023615625
,,,-3.8E-06,0.023705
,,,-3.79E-06,0.02360375
,,,-3.78E-06,0.023780625
,,,-3.77E-06,0.02356
,,,-3.76E-06,0.023625625
,,,-3.75E-06,0.0238
,,,-3.74E-06,0.023681875
,,,-3.73E-06,0.023708125
,,,-3.72E-06,0.0236975
,,,-3.71E-06,0.02354375
,,,-3.7E-06,0.023426875
,,,-3.69E-06,0.02348
,,,-3.68E-06,0.0234875
,,,-3.67E-06,0.023526875
,,,-3.66E-06,0.023473125
,,,-3.65E-06,0.023644375
,,,-3.64E-06,0.02339
,,,-3.63E-06,0.02344625
,,,-3.62E-06,0.023550625
,,,-3.61E-06,0.0234225
,,,-3.6E-06,0.023544375
,,,-3.59E-06,0.02321625
,,,-3.58E-06,0.02344375
,,,-3.57E-06,0.023655
,,,-3.56E-06,0.023601875
,,,-3.55E-06,0.023469375
,,,-3.54E-06,0.023604375
,,,-3.53E-06,0.02362375
,,,-3.52E-06,0.023676875
,,,-3.51E-06,0.023639375
,,,-3.5E-06,0.023601875
,,,-3.49E-06,0.02345
,,,-3.48E-06,0.023443125
,,,-3.47E-06,0.02366875
,,,-3.46E-06,0.02373875
,,,-3.45E-06,0.0236325
,,,-3.44E-06,0.02370125
,,,-3.43E-06,0.023610625
,,,-3.42E-06,0.02366375
,,,-3.41E-06,0.023686875
,,,-3.4E-06,0.02377375
,,,-3.39E-06,0.02344625
,,,-3.38E-06,0.023619375
,,,-3.37E-06,0.023460625
,,,-3.36E-06,0.02369125
,,,-3.35E-06,0.02398125
,,,-3.34E-06,0.023273125
,,,-3.33E-06,0.0235825
,,,-3.32E-06,0.023475625
,,,-3.31E-06,0.02354125
,,,-3.3E-06,0.023743125
,,,-3.29E-06,0.0236575
,,,-3.28E-06,0.02354
,,,-3.27E-06,0.0236775
,,,-3.26E-06,0.023606875
,,,-3.25E-06,0.02350375
,,,-3.24E-06,0.023620625
,,,-3.23E-06,0.02374375
,,,-3.22E-06,0.023583125
,,,-3.21E-06,0.023645
,,,-3.2E-06,0.02348
,,,-3.19E-06,0.023670625
,,,-3.18E-06,0.023736875
,,,-3.17E-06,0.023601875
,,,-3.16E-06,0.02360875
,,,-3.15E-06,0.02355625
,,,-3.14E-06,0.023383125
,,,-3.13E-06,0.023505
,,,-3.12E-06,0.023495625
,,,-3.11E-06,0.02357375
,,,-3.1E-06,0.02363375
,,,-3.09E-06,0.0236175
,,,-3.08E-06,0.023581875
,,,-3.07E-06,0.023553125
,,,-3.06E-06,0.0235625
,,,-3.05E-06,0.023636875
,,,-3.04E-06,0.023374375
,,,-3.03E-06,0.02342
,,,-3.02E-06,0.023533125
,,,-3.01E-06,0.023808125
,,,-3E-06,0.02372
,,,-2.99E-06,0.023524375
,,,-2.98E-06,0.02391875
,,,-2.97E-06,0.02337
,,,-2.96E-06,0.02360625
,,,-2.95E-06,0.02344875
,,,-2.94E-06,0.023705625
,,,-2.93E-06,0.0235725
,,,-2.92E-06,0.023434375
,,,-2.91E-06,0.023785
,,,-2.9E-06,0.023575
,,,-2.89E-06,0.023430625
,,,-2.88E-06,0.0234725
,,,-2.87E-06,0.023223125
,,,-2.86E-06,0.023436875
,,,-2.85E-06,0.02371375
,,,-2.84E-06,0.02367375
,,,-2.83E-06,0.02385
,,,-2.82E-06,0.0236425
,,,-2.81E-06,0.02373
,,,-2.8E-06,0.023459375
,,,-2.79E-06,0.023480625
,,,-2.78E-06,0.023558125
,,,-2.77E-06,0.023460625
,,,-2.76E-06,0.02371375
,,,-2.75E-06,0.023753125
,,,-2.74E-06,0.0237
,,,-2.73E-06,0.023803125
,,,-2.72E-06,0.0234625
,,,-2.71E-06,0.023439375
,,,-2.7E-06,0.0234225
,,,-2.69E-06,0.02359
,,,-2.68E-06,0.0235925
,,,-2.67E-06,0.023428125
,,,-2.66E-06,0.0236225
,,,-2.65E-06,0.0235925
,,,-2.64E-06,0.023700625
,,,-2.63E-06,0.023541875
,,,-2.62E-06,0.023665
,,,-2.61E-06,0.023478125
,,,-2.6E-06,0.0237175
,,,-2.59E-06,0.023554375
,,,-2.58E-06,0.023631875
,,,-2.57E-06,0.02372375
,,,-2.56E-06,0.023481875
,,,-2.55E-06,0.023386875
,,,-2.54E-06,0.023683125
,,,-2.53E-06,0.023656875
,,,-2.52E-06,0.02369375
,,,-2.51E-06,0.023809375
,,,-2.5E-06,0.023503125
,,,-2.49E-06,0.02351375
,,,-2.48E-06,0.023578125
,,,-2.47E-06,0.023474375
,,,-2.46E-06,0.023490625
,,,-2.45E-06,0.023695625
,,,-2.44E-06,0.023465
,,,-2.43E-06,0.023695
,,,-2.42E-06,0.023699375
,,,-2.41E-06,0.023675625
,,,-2.4E-06,0.02372875
,,,-2.39E-06,0.023465625
,,,-2.38E-06,0.02343875
,,,-2.37E-06,0.023471875
,,,-2.36E-06,0.023540625
,,,-2.35E-06,0.023749375
,,,-2.34E-06,0.023664375
,,,-2.33E-06,0.023949375
,,,-2.32E-06,0.023495
,,,-2.31E-06,0.023615625
,,,-2.3E-06,0.023580625
,,,-2.29E-06,0.023483125
,,,-2.28E-06,0.02369375
,,,-2.27E-06,0.02349625
,,,-2.26E-06,0.02357
,,,-2.25E-06,0.02374625
,,,-2.24E-06,0.023875
,,,-2.23E-06,0.0237475
,,,-2.22E-06,0.02336875
,,,-2.21E-06,0.02337625
,,,-2.2E-06,0.023638125
,,,-2.19E-06,0.02369625
,,,-2.18E-06,0.023865625
,,,-2.17E-06,0.0235675
,,,-2.16E-06,0.0237325
,,,-2.15E-06,0.023530625
,,,-2.14E-06,0.02367875
,,,-2.13E-06,0.023785
,,,-2.12E-06,0.023660625
,,,-2.11E-06,0.023638125
,,,-2.1E-06,0.023651875
,,,-2.09E-06,0.023666875
,,,-2.08E-06,0.023610625
,,,-2.07E-06,0.02366
,,,-2.06E-06,0.023435
,,,-2.05E-06,0.023514375
,,,-2.04E-06,0.02362125
,,,-2.03E-06,0.0238
,,,-2.02E-06,0.023416875
,,,-2.01E-06,0.02351875
,,,-2E-06,0.0236325
,,,-1.99E-06,0.023754375
,,,-1.98E-06,0.02373875
,,,-1.97E-06,0.023864375
,,,-1.96E-06,0.0236125
,,,-1.95E-06,0.02358875
,,,-1.94E-06,0.0233725
,,,-1.93E-06,0.02358
,,,-1.92E-06,0.02372125
,,,-1.91E-06,0.0235275
,,,-1.9E-06,0.02376125
,,,-1.89E-06,0.023380625
,,,-1.88E-06,0.023558125
,,,-1.87E-06,0.02355
,,,-1.86E-06,0.023816875
,,,-1.85E-06,0.02375375
,,,-1.84E-06,0.023565625
,,,-1.83E-06,0.023550625
,,,-1.82E-06,0.023695
,,,-1.81E-06,0.023541875
,,,-1.8E-06,0.023530625
,,,-1.79E-06,0.023708125
,,,-1.78E-06,0.023624375
,,,-1.77E-06,0.023475
,,,-1.76E-06,0.023809375
,,,-1.75E-06,0.02363375
,,,-1.74E-06,0.02377375
,,,-1.73E-06,0.02356875
,,,-1.72E-06,0.02374375
,,,-1.71E-06,0.02366125
,,,-1.7E-06,0.0237425
,,,-1.69E-06,0.0236025
,,,-1.68E-06,0.023814375
,,,-1.67E-06,0.02364625
,,,-1.66E-06,0.02362
,,,-1.65E-06,0.023605
,,,-1.64E-06,0.0236475
,,,-1.63E-06,0.023583125
,,,-1.62E-06,0.02354875
,,,-1.61E-06,0.0236125
,,,-1.6E-06,0.02365625
,,,-1.59E-06,0.02382625
,,,-1.58E-06,0.023673125
,,,-1.57E-06,0.023719375
,,,-1.56E-06,0.023625
,,,-1.55E-06,0.02351
,,,-1.54E-06,0.02368875
,,,-1.53E-06,0.0235825
,,,-1.52E-06,0.02359375
,,,-1.51E-06,0.023468125
,,,-1.5E-06,0.023335
,,,-1.49E-06,0.0235675
,,,-1.48E-06,0.023871875
,,,-1.47E-06,0.0236725
,,,-1.46E-06,0.02355625
,,,-1.45E-06,0.02369875
,,,-1.44E-06,0.023484375
,,,-1.43E-06,0.023760625
,,,-1.42E-06,0.023759375
,,,-1.41E-06,0.023810625
,,,-1.4E-06,0.02366625
,,,-1.39E-06,0.02372
,,,-1.38E-06,0.023514375
,,,-1.37E-06,0.0236775
,,,-1.36E-06,0.02354
,,,-1.35E-06,0.023808125
,,,-1.34E-06,0.023978125
,,,-1.33E-06,0.023841875
,,,-1.32E-06,0.023565625
,,,-1.31E-06,0.0235825
,,,-1.3E-06,0.023365
,,,-1.29E-06,0.0237
,,,-1.28E-06,0.02371875
,,,-1.27E-06,0.023490625
,,,-1.26E-06,0.023543125
,,,-1.25E-06,0.023755625
,,,-1.24E-06,0.023779375
,,,-1.23E-06,0.023528125
,,,-1.22E-06,0.023689375
,,,-1.21E-06,0.023748125
,,,-1.2E-06,0.02376
,,,-1.19E-06,0.02332625
,,,-1.18E-06,0.023508125
,,,-1.17E-06,0.023605625
,,,-1.16E-06,0.023619375
,,,-1.15E-06,0.023830625
,,,-1.14E-06,0.0235325
,,,-1.13E-06,0.023408125
,,,-1.12E-06,0.023368125
,,,-1.11E-06,0.023431875
,,,-1.1E-06,0.023675
,,,-1.09E-06,0.023696875
,,,-1.08E-06,0.023741875
,,,-1.07E-06,0.02373
,,,-1.06E-06,0.023510625
,,,-1.05E-06,0.023729375
,,,-1.04E-06,0.02366875
,,,-1.03E-06,0.0233575
,,,-1.02E-06,0.0236625
,,,-1.01E-06,0.023759375
,,,-1E-06,0.02361875
,,,-9.9E-07,0.02363125
,,,-9.8E-07,0.023510625
,,,-9.7E-07,0.023695625
,,,-9.6E-07,0.02353375
,,,-9.5E-07,0.02357
,,,-9.4E-07,0.023583125
,,,-9.3E-07,0.0238175
,,,-9.2E-07,0.023820625
,,,-9.1E-07,0.02357625
,,,-9E-07,0.023395625
,,,-8.9E-07,0.0234975
,,,-8.8E-07,0.02365875
,,,-8.7E-07,0.02349
,,,-8.6E-07,0.02363625
,,,-8.5E-07,0.023258125
,,,-8.4E-07,0.02361
,,,-8.3E-07,0.02372375
,,,-8.2E-07,0.02365625
,,,-8.1E-07,0.0235125
,,,-8E-07,0.0235775
,,,-7.9E-07,0.02344
,,,-7.8E-07,0.0238575
,,,-7.7E-07,0.023486875
,,,-7.6E-07,0.023665625
,,,-7.5E-07,0.023771875
,,,-7.4E-07,0.02363875
,,,-7.3E-07,0.02366
,,,-7.2E-07,0.02338375
,,,-7.1E-07,0.023505625
,,,-7E-07,0.0236325
,,,-6.9E-07,0.02356
,,,-6.8E-07,0.02360375
,,,-6.7E-07,0.023640625
,,,-6.6E-07,0.023359375
,,,-6.5E-07,0.023751875
,,,-6.4E-07,0.0235525
,,,-6.3E-07,0.02368
,,,-6.2E-07,0.0237625
,,,-6.1E-07,0.023683125
,,,-6E-07,0.0236225
,,,-5.9E-07,0.02356
,,,-5.8E-07,0.02391875
,,,-5.7E-07,0.02354
,,,-5.6E-07,0.0235675
,,,-5.5E-07,0.0234825
,,,-5.4E-07,0.023754375
,,,-5.3E-07,0.023839375
,,,-5.2E-07,0.023471875
,,,-5.1E-07,0.0235575
,,,-5E-07,0.023604375
,,,-4.9E-07,0.02364375
,,,-4.8E-07,0.023445625
,,,-4.7E-07,0.023468125
,,,-4.6E-07,0.023438125
,,,-4.5E-07,0.023601875
,,,-4.4E-07,0.02347
,,,-4.3E-07,0.02348375
,,,-4.2E-07,0.023588125
,,,-4.1E-07,0.02335875
,,,-4E-07,0.023483125
,,,-3.9E-07,0.02355625
,,,-3.8E-07,0.02369625
,,,-3.7E-07,0.02353875
,,,-3.6E-07,0.02363
,,,-3.5E-07,0.02373875
,,,-3.4E-07,0.02361125
,,,-3.3E-07,0.02372875
,,,-3.2E-07,0.023859375
,,,-3.1E-07,0.023284375
,,,-3E-07,0.02368
,,,-2.9E-07,0.023491875
,,,-2.8E-07,0.02366625
,,,-2.7E-07,0.023746875
,,,-2.6E-07,0.023639375
,,,-2.5E-07,0.0237425
,,,-2.4E-07,0.02345875
,,,-2.3E-07,0.023284375
,,,-2.2E-07,0.023488125
,,,-2.1E-07,0.023660625
,,,-2E-07,0.023524375
,,,-1.9E-07,0.0237575
,,,-1.8E-07,0.02359
,,,-1.7E-07,0.023559375
,,,-1.6E-07,0.023333125
,,,-1.5E-07,0.02362375
,,,-1.4E-07,0.02358875
,,,-1.3E-07,0.02341625
,,,-1.2E-07,0.02378125
,,,-1.1E-07,0.02367125
,,,-1E-07,0.023510625
,,,-9E-08,0.023681875
,,,-8E-08,0.0237125
,,,-7E-08,0.02340125
,,,-6E-08,0.023545625
,,,-5E-08,0.023654375
,,,-4E-08,0.02466875
,,,-3E-08,0.0248875
,,,-2E-08,0.021390625
,,,-1E-08,0.019609375
,,,0,0.02186375
,,,1E-08,0.02710625
,,,2E-08,0.02790625
,,,3E-08,0.026131875
,,,4E-08,0.021826875
,,,5E-08,0.020591875
,,,6E-08,0.02084375
,,,7E-08,0.023134375
,,,8E-08,0.02472625
,,,9E-08,0.02601625
,,,1E-07,0.025331875
,,,1.1E-07,0.023838125
,,,1.2E-07,0.022015
,,,1.3E-07,0.02213875
,,,1.4E-07,0.0233625
,,,1.5E-07,0.024185
,,,1.6E-07,0.02430625
,,,1.7E-07,0.02361625
,,,1.8E-07,0.02368375
,,,1.9E-07,0.023691875
,,,2E-07,0.023603125
,,,2.1E-07,0.023395625
,,,2.2E-07,0.023408125
,,,2.3E-07,0.023423125
,,,2.4E-07,0.023725625
,,,2.5E-07,0.023744375
,,,2.6E-07,0.023408125
,,,2.7E-07,0.02363375
,,,2.8E-07,0.02379625
,,,2.9E-07,0.023663125
,,,3E-07,0.023508125
,,,3.1E-07,0.023505
,,,3.2E-07,0.0238025
,,,3.3E-07,0.023920625
,,,3.4E-07,0.023624375
,,,3.5E-07,0.023424375
,,,3.6E-07,0.023719375
,,,3.7E-07,0.023595625
,,,3.8E-07,0.02359125
,,,3.9E-07,0.02373875
,,,4E-07,0.02363875
,,,4.1E-07,0.023485625
,,,4.2E-07,0.023665625
,,,4.3E-07,0.02361
,,,4.4E-07,0.0236725
,,,4.5E-07,0.023605625
,,,4.6E-07,0.02361
,,,4.7E-07,0.02375125
,,,4.8E-07,0.023693125
,,,4.9E-07,0.023529375
,,,5E-07,0.023745625
,,,5.1E-07,0.023324375
,,,5.2E-07,0.023634375
,,,5.3E-07,0.023465
,,,5.4E-07,0.0233925
,,,5.5E-07,0.023574375
,,,5.6E-07,0.023570625
,,,5.7E-07,0.023704375
,,,5.8E-07,0.02359875
,,,5.9E-07,0.0235525
,,,6E-07,0.023438125
,,,6.1E-07,0.023680625
,,,6.2E-07,0.02362
,,,6.3E-07,0.0236025
,,,6.4E-07,0.023641875
,,,6.5E-07,0.023676875
,,,6.6E-07,0.02375875
,,,6.7E-07,0.0235225
,,,6.8E-07,0.023476875
,,,6.9E-07,0.02362125
,,,7E-07,0.023475625
,,,7.1E-07,0.023521875
,,,7.2E-07,0.023446875
,,,7.3E-07,0.0236775
,,,7.4E-07,0.023491875
,,,7.5E-07,0.0234825
,,,7.6E-07,0.02364125
,,,7.7E-07,0.02375375
,,,7.8E-07,0.023528125
,,,7.9E-07,0.023801875
,,,8E-07,0.02358
,,,8.1E-07,0.0236975
,,,8.2E-07,0.0234925
,,,8.3E-07,0.023405625
,,,8.4E-07,0.023420625
,,,8.5E-07,0.02353375
,,,8.6E-07,0.02350375
,,,8.7E-07,0.023434375
,,,8.8E-07,0.02367
,,,8.9E-07,0.023665625
,,,9E-07,0.023479375
,,,9.1E-07,0.023759375
,,,9.2E-07,0.0234425
,,,9.3E-07,0.023414375
,,,9.4E-07,0.02375125
,,,9.5E-07,0.02350875
,,,9.6E-07,0.023714375
,,,9.7E-07,0.02370125
,,,9.8E-07,0.02361125
,,,9.9E-07,0.023816875
,,,1E-06,0.02363375
,,,1.01E-06,0.023503125
,,,1.02E-06,0.02357625
,,,1.03E-06,0.023681875
,,,1.04E-06,0.023605625
,,,1.05E-06,0.023791875
,,,1.06E-06,0.023706875
,,,1.07E-06,0.0234575
,,,1.08E-06,0.023579375
,,,1.09E-06,0.023543125
,,,1.1E-06,0.023541875
,,,1.11E-06,0.02355125
,,,1.12E-06,0.023540625
,,,1.13E-06,0.023738125
,,,1.14E-06,0.02357
,,,1.15E-06,0.02357875
,,,1.16E-06,0.02348375
,,,1.17E-06,0.02351375
,,,1.18E-06,0.02361875
,,,1.19E-06,0.023433125
,,,1.2E-06,0.023841875
,,,1.21E-06,0.023596875
,,,1.22E-06,0.0238175
,,,1.23E-06,0.02376375
,,,1.24E-06,0.0236675
,,,1.25E-06,0.02368125
,,,1.26E-06,0.02370375
,,,1.27E-06,0.02347
,,,1.28E-06,0.023688125
,,,1.29E-06,0.023434375
,,,1.3E-06,0.023714375
,,,1.31E-06,0.023605
,,,1.32E-06,0.023640625
,,,1.33E-06,0.02361875
,,,1.34E-06,0.023618125
,,,1.35E-06,0.023689375
,,,1.36E-06,0.02358
,,,1.37E-06,0.023638125
,,,1.38E-06,0.02365375
,,,1.39E-06,0.02354
,,,1.4E-06,0.023745
,,,1.41E-06,0.02363625
,,,1.42E-06,0.02343125
,,,1.43E-06,0.023541875
,,,1.44E-06,0.02362
,,,1.45E-06,0.023726875
,,,1.46E-06,0.02349875
,,,1.47E-06,0.023473125
,,,1.48E-06,0.023534375
,,,1.49E-06,0.02370125
,,,1.5E-06,0.0238575
,,,1.51E-06,0.02362875
,,,1.52E-06,0.0237625
,,,1.53E-06,0.023505
,,,1.54E-06,0.0235825
,,,1.55E-06,0.02379
,,,1.56E-06,0.023730625
,,,1.57E-06,0.0237075
,,,1.58E-06,0.02356625
,,,1.59E-06,0.023548125
,,,1.6E-06,0.0235625
,,,1.61E-06,0.023613125
,,,1.62E-06,0.023375
,,,1.63E-06,0.02356625
,,,1.64E-06,0.02379125
,,,1.65E-06,0.023740625
,,,1.66E-06,0.023638125
,,,1.67E-06,0.023553125
,,,1.68E-06,0.02346375
,,,1.69E-06,0.02361
,,,1.7E-06,0.023425
,,,1.71E-06,0.023381875
,,,1.72E-06,0.023750625
,,,1.73E-06,0.023654375
,,,1.74E-06,0.023685625
,,,1.75E-06,0.02348375
,,,1.76E-06,0.02351125
,,,1.77E-06,0.0237975
,,,1.78E-06,0.02362125
,,,1.79E-06,0.023571875
,,,1.8E-06,0.02365
,,,1.81E-06,0.0239025
,,,1.82E-06,0.0238175
,,,1.83E-06,0.02382
,,,1.84E-06,0.023685
,,,1.85E-06,0.023715
,,,1.86E-06,0.0233825
,,,1.87E-06,0.023584375
,,,1.88E-06,0.023865625
,,,1.89E-06,0.02345
,,,1.9E-06,0.023815
,,,1.91E-06,0.023616875
,,,1.92E-06,0.0234525
,,,1.93E-06,0.023669375
,,,1.94E-06,0.023204375
,,,1.95E-06,0.02366
,,,1.96E-06,0.02371
,,,1.97E-06,0.02369375
,,,1.98E-06,0.02380625
,,,1.99E-06,0.0237875
,,,2E-06,0.02355375
,,,2.01E-06,0.02353125
,,,2.02E-06,0.02347875
,,,2.03E-06,0.02348125
,,,2.04E-06,0.023600625
,,,2.05E-06,0.02349125
,,,2.06E-06,0.023641875
,,,2.07E-06,0.02326375
,,,2.08E-06,0.023465625
,,,2.09E-06,0.0235875
,,,2.1E-06,0.0235625
,,,2.11E-06,0.023615
,,,2.12E-06,0.0236325
,,,2.13E-06,0.023620625
,,,2.14E-06,0.023729375
,,,2.15E-06,0.023595625
,,,2.16E-06,0.0235725
,,,2.17E-06,0.023865
,,,2.18E-06,0.023366875
,,,2.19E-06,0.02357
,,,2.2E-06,0.023425
,,,2.21E-06,0.023704375
,,,2.22E-06,0.023886875
,,,2.23E-06,0.023745
,,,2.24E-06,0.02349
,,,2.25E-06,0.023499375
,,,2.26E-06,0.02361625
,,,2.27E-06,0.023464375
,,,2.28E-06,0.0235325
,,,2.29E-06,0.02361625
,,,2.3E-06,0.02374125
,,,2.31E-06,0.023605
,,,2.32E-06,0.023645625
,,,2.33E-06,0.0235825
,,,2.34E-06,0.023559375
,,,2.35E-06,0.0237725
,,,2.36E-06,0.023874375
,,,2.37E-06,0.0235375
,,,2.38E-06,0.023676875
,,,2.39E-06,0.0237575
,,,2.4E-06,0.02341375
,,,2.41E-06,0.023663125
,,,2.42E-06,0.02356875
,,,2.43E-06,0.023684375
,,,2.44E-06,0.023424375
,,,2.45E-06,0.02372
,,,2.46E-06,0.023609375
,,,2.47E-06,0.023560625
,,,2.48E-06,0.023453125
,,,2.49E-06,0.023835
,,,2.5E-06,0.023784375
,,,2.51E-06,0.023325
,,,2.52E-06,0.023553125
,,,2.53E-06,0.023578125
,,,2.54E-06,0.02374625
,,,2.55E-06,0.023540625
,,,2.56E-06,0.0235775
,,,2.57E-06,0.0236225
,,,2.58E-06,0.02353125
,,,2.59E-06,0.02348625
,,,2.6E-06,0.023541875
,,,2.61E-06,0.0236075
,,,2.62E-06,0.0235725
,,,2.63E-06,0.02365
,,,2.64E-06,0.02371125
,,,2.65E-06,0.0236325
,,,2.66E-06,0.023449375
,,,2.67E-06,0.023406875
,,,2.68E-06,0.023655625
,,,2.69E-06,0.02359875
,,,2.7E-06,0.023356875
,,,2.71E-06,0.0239
,,,2.72E-06,0.023660625
,,,2.73E-06,0.02359125
,,,2.74E-06,0.023378125
,,,2.75E-06,0.02343
,,,2.76E-06,0.0233425
,,,2.77E-06,0.023528125
,,,2.78E-06,0.023408125
,,,2.79E-06,0.023590625
,,,2.8E-06,0.02351
,,,2.81E-06,0.023513125
,,,2.82E-06,0.023645625
,,,2.83E-06,0.0236975
,,,2.84E-06,0.02354
,,,2.85E-06,0.023554375
,,,2.86E-06,0.023491875
,,,2.87E-06,0.023706875
,,,2.88E-06,0.023799375
,,,2.89E-06,0.02376
,,,2.9E-06,0.0235525
,,,2.91E-06,0.023496875
,,,2.92E-06,0.02343625
,,,2.93E-06,0.023715
,,,2.94E-06,0.023723125
,,,2.95E-06,0.02354375
,,,2.96E-06,0.023699375
,,,2.97E-06,0.023573125
,,,2.98E-06,0.02380875
,,,2.99E-06,0.023349375
,,,3E-06,0.023579375
,,,3.01E-06,0.02350625
,,,3.02E-06,0.023444375
,,,3.03E-06,0.02349
,,,3.04E-06,0.023655625
,,,3.05E-06,0.02336875
,,,3.06E-06,0.023435625
,,,3.07E-06,0.023489375
,,,3.08E-06,0.023821875
,,,3.09E-06,0.023689375
,,,3.1E-06,0.023775
,,,3.11E-06,0.0235975
,,,3.12E-06,0.023945
,,,3.13E-06,0.02356
,,,3.14E-06,0.02344875
,,,3.15E-06,0.023566875
,,,3.16E-06,0.023644375
,,,3.17E-06,0.0233025
,,,3.18E-06,0.02356625
,,,3.19E-06,0.0235625
,,,3.2E-06,0.023336875
,,,3.21E-06,0.02362125
,,,3.22E-06,0.02363625
,,,3.23E-06,0.02375
,,,3.24E-06,0.023499375
,,,3.25E-06,0.023680625
,,,3.26E-06,0.0235775
,,,3.27E-06,0.02354875
,,,3.28E-06,0.023615625
,,,3.29E-06,0.02351125
,,,3.3E-06,0.02346375
,,,3.31E-06,0.023530625
,,,3.32E-06,0.023681875
,,,3.33E-06,0.023405
,,,3.34E-06,0.02348625
,,,3.35E-06,0.02337625
,,,3.36E-06,0.02354375
,,,3.37E-06,0.02364
,,,3.38E-06,0.023610625
,,,3.39E-06,0.023661875
,,,3.4E-06,0.02347625
,,,3.41E-06,0.02343125
,,,3.42E-06,0.02335
,,,3.43E-06,0.023558125
,,,3.44E-06,0.0236875
,,,3.45E-06,0.023675
,,,3.46E-06,0.023508125
,,,3.47E-06,0.02360375
,,,3.48E-06,0.02369375
,,,3.49E-06,0.023664375
,,,3.5E-06,0.0232575
,,,3.51E-06,0.023624375
,,,3.52E-06,0.023468125
,,,3.53E-06,0.023609375
,,,3.54E-06,0.02363125
,,,3.55E-06,0.0234575
,,,3.56E-06,0.023335
,,,3.57E-06,0.023635625
,,,3.58E-06,0.0236575
,,,3.59E-06,0.023689375
,,,3.6E-06,0.023405
,,,3.61E-06,0.023635
