data/raw/Final_POL_Test_1/SOP077_Ch1.csv

"Record Length",1000,"Points",-5E-06,0.005105
"Sample Interval",1E-08,s,-4.99E-06,0.00510375
"Trigger Point",500,"Samples",-4.98E-06,0.004919375
"Trigger Time",0,s,-4.97E-06,0.005329375
"",,,-4.96E-06,0.00497375
"Horizontal Offset",-5E-06,s,-4.95E-06,0.005105625
,,,-4.94E-06,0.00519625
,,,-4.93E-06,0.004916875
,,,-4.92E-06,0.004675
,,,-4.91E-06,0.00509
,,,-4.9E-06,0.005149375
,,,-4.89E-06,0.005090625
,,,-4.88E-06,0.005000625
,,,-4.87E-06,0.005015625
,,,-4.86E-06,0.005096875
,,,-4.85E-06,0.00500125
,,,-4.84E-06,0.004865625
,,,-4.83E-06,0.005064375
,,,-4.82E-06,0.004986875
,,,-4.81E-06,0.005248125
,,,-4.8E-06,0.005019375
,,,-4.79E-06,0.005031875
,,,-4.78E-06,0.004958125
,,,-4.77E-06,0.004914375
,,,-4.76E-06,0.00494625
,,,-4.75E-06,0.0049425
,,,-4.74E-06,0.004916875
,,,-4.73E-06,0.00489875
,,,-4.72E-06,0.00486625
,,,-4.71E-06,0.0049525
,,,-4.7E-06,0.005065625
,,,-4.69E-06,0.005071875
,,,-4.68E-06,0.00492875
,,,-4.67E-06,0.005061875
,,,-4.66E-06,0.0049625
,,,-4.65E-06,0.00488375
,,,-4.64E-06,0.00507875
,,,-4.63E-06,0.005065
,,,-4.62E-06,0.0050275
,,,-4.61E-06,0.005124375
,,,-4.6E-06,0.004878125
,,,-4.59E-06,0.00484125
,,,-4.58E-06,0.005089375
,,,-4.57E-06,0.005068125
,,,-4.56E-06,0.00479
,,,-4.55E-06,0.005055
,,,-4.54E-06,0.005054375
,,,-4.53E-06,0.004770625
,,,-4.52E-06,0.004831875
,,,-4.51E-06,0.00516375
,,,-4.5E-06,0.004975
,,,-4.49E-06,0.004995625
,,,-4.48E-06,0.005131875
,,,-4.47E-06,0.004960625
,,,-4.46E-06,0.00490875
,,,-4.45E-06,0.00517375
,,,-4.44E-06,0.00483875
,,,-4.43E-06,0.005013125
,,,-4.42E-06,0.0053075
,,,-4.41E-06,0.004913125
,,,-4.4E-06,0.004889375
,,,-4.39E-06,0.00495375
,,,-4.38E-06,0.005086875
,,,-4.37E-06,0.004955625
,,,-4.36E-06,0.004990625
,,,-4.35E-06,0.0048075
,,,-4.34E-06,0.0050175
,,,-4.33E-06,0.00508
,,,-4.32E-06,0.005094375
,,,-4.31E-06,0.00503625
,,,-4.3E-06,0.00492875
,,,-4.29E-06,0.0051725
,,,-4.28E-06,0.005253125
,,,-4.27E-06,0.00509625
,,,-4.26E-06,0.005101875
,,,-4.25E-06,0.00508
,,,-4.24E-06,0.004835
,,,-4.23E-06,0.004950625
,,,-4.22E-06,0.00498875
,,,-4.21E-06,0.005090625
,,,-4.2E-06,0.00487625
,,,-4.19E-06,0.00511625
,,,-4.18E-06,0.00509125
,,,-4.17E-06,0.00504
,,,-4.16E-06,0.005263125
,,,-4.15E-06,0.004886875
,,,-4.14E-06,0.005039375
,,,-4.13E-06,0.00517625
,,,-4.12E-06,0.00517875
,,,-4.11E-06,0.005056875
,,,-4.1E-06,0.00491375
,,,-4.09E-06,0.004963125
,,,-4.08E-06,0.004953125
,,,-4.07E-06,0.00514625
,,,-4.06E-06,0.005166875
,,,-4.05E-06,0.00523875
,,,-4.04E-06,0.005068125
,,,-4.03E-06,0.00482875
,,,-4.02E-06,0.00501875
,,,-4.01E-06,0.005084375
,,,-4E-06,0.004959375
,,,-3.99E-06,0.0051425
,,,-3.98E-06,0.005143125
,,,-3.97E-06,0.00491
,,,-3.96E-06,0.005035
,,,-3.95E-06,0.00491125
,,,-3.94E-06,0.005143125
,,,-3.93E-06,0.0049775
,,,-3.92E-06,0.005281875
,,,-3.91E-06,0.004801875
,,,-3.9E-06,0.005065625
,,,-3.89E-06,0.00495125
,,,-3.88E-06,0.005110625
,,,-3.87E-06,0.0050625
,,,-3.86E-06,0.004881875
,,,-3.85E-06,0.005051875
,,,-3.84E-06,0.0049375
,,,-3.83E-06,0.004969375
,,,-3.82E-06,0.005108125
,,,-3.81E-06,0.00515375
,,,-3.8E-06,0.005061875
,,,-3.79E-06,0.004971875
,,,-3.78E-06,0.004830625
,,,-3.77E-06,0.004944375
,,,-3.76E-06,0.00512625
,,,-3.75E-06,0.00488375
,,,-3.74E-06,0.00491875
,,,-3.73E-06,0.00527
,,,-3.72E-06,0.005015625
,,,-3.71E-06,0.004794375
,,,-3.7E-06,0.005016875
,,,-3.69E-06,0.005033125
,,,-3.68E-06,0.00493625
,,,-3.67E-06,0.0051225
,,,-3.66E-06,0.005146875
,,,-3.65E-06,0.004984375
,,,-3.64E-06,0.005243125
,,,-3.63E-06,0.004981875
,,,-3.62E-06,0.00521125
,,,-3.61E-06,0.005166875
,,,-3.6E-06,0.004916875
,,,-3.59E-06,0.005051875
,,,-3.58E-06,0.005330625
,,,-3.57E-06,0.004899375
,,,-3.56E-06,0.00498
,,,-3.55E-06,0.005033125
,,,-3.54E-06,0.004850625
,,,-3.53E-06,0.00491625
,,,-3.52E-06,0.004773125
,,,-3.51E-06,0.005243125
,,,-3.5E-06,0.00504
,,,-3.49E-06,0.00493625
,,,-3.48E-06,0.00487
,,,-3.47E-06,0.005058125
,,,-3.46E-06,0.00508
,,,-3.45E-06,0.00515875
,,,-3.44E-06,0.00516
,,,-3.43E-06,0.005168125
,,,-3.42E-06,0.00495125
,,,-3.41E-06,0.00501125
,,,-3.4E-06,0.00506125
,,,-3.39E-06,0.004885
,,,-3.38E-06,0.00490625
,,,-3.37E-06,0.00494625
,,,-3.36E-06,0.00503875
,,,-3.35E-06,0.005155
,,,-3.34E-06,0.0053225
,,,-3.33E-06,0.0049675
,,,-3.32E-06,0.0048525
,,,-3.31E-06,0.005070625
,,,-3.3E-06,0.0049775
,,,-3.29E-06,0.004924375
,,,-3.28E-06,0.005215625
,,,-3.27E-06,0.004804375
,,,-3.26E-06,0.005175
,,,-3.25E-06,0.005119375
,,,-3.24E-06,0.00511875
,,,-3.23E-06,0.005028125
,,,-3.22E-06,0.00485625
,,,-3.21E-06,0.005035
,,,-3.2E-06,0.00490125
,,,-3.19E-06,0.005054375
,,,-3.18E-06,0.004999375
,,,-3.17E-06,0.00509625
,,,-3.16E-06,0.004783125
,,,-3.15E-06,0.004824375
,,,-3.14E-06,0.00536625
,,,-3.13E-06,0.005194375
,,,-3.12E-06,0.00515625
,,,-3.11E-06,0.004873125
,,,-3.1E-06,0.004923125
,,,-3.09E-06,0.0050475
,,,-3.08E-06,0.005338125
,,,-3.07E-06,0.00501375
,,,-3.06E-06,0.00502625
,,,-3.05E-06,0.005034375
,,,-3.04E-06,0.00492375
,,,-3.03E-06,0.00482875
,,,-3.02E-06,0.00471125
,,,-3.01E-06,0.005001875
,,,-3E-06,0.00504375
,,,-2.99E-06,0.004994375
,,,-2.98E-06,0.00511625
,,,-2.97E-06,0.0050725
,,,-2.96E-06,0.00531125
,,,-2.95E-06,0.004896875
,,,-2.94E-06,0.004854375
,,,-2.93E-06,0.004869375
,,,-2.92E-06,0.004745
,,,-2.91E-06,0.00484625
,,,-2.9E-06,0.00506875
,,,-2.89E-06,0.005085
,,,-2.88E-06,0.0049925
,,,-2.87E-06,0.00491125
,,,-2.86E-06,0.00494
,,,-2.85E-06,0.00480875
,,,-2.84E-06,0.005264375
,,,-2.83E-06,0.005156875
,,,-2.82E-06,0.005085625
,,,-2.81E-06,0.00504125
,,,-2.8E-06,0.005
,,,-2.79E-06,0.005151875
,,,-2.78E-06,0.0050575
,,,-2.77E-06,0.004948125
,,,-2.76E-06,0.004978125
,,,-2.75E-06,0.004991875
,,,-2.74E-06,0.0049875
,,,-2.73E-06,0.005191875
,,,-2.72E-06,0.005003125
,,,-2.71E-06,0.0050475
,,,-2.7E-06,0.004863125
,,,-2.69E-06,0.00490875
,,,-2.68E-06,0.005055
,,,-2.67E-06,0.0051375
,,,-2.66E-06,0.004936875
,,,-2.65E-06,0.00513625
,,,-2.64E-06,0.00526875
,,,-2.63E-06,0.004951875
,,,-2.62E-06,0.0050975
,,,-2.61E-06,0.004899375
,,,-2.6E-06,0.004906875
,,,-2.59E-06,0.0049475
,,,-2.58E-06,0.00501375
,,,-2.57E-06,0.005071875
,,,-2.56E-06,0.0049875
,,,-2.55E-06,0.00487125
,,,-2.54E-06,0.004781875
,,,-2.53E-06,0.005344375
,,,-2.52E-06,0.0051675
,,,-2.51E-06,0.004936875
,,,-2.5E-06,0.004670625
,,,-2.49E-06,0.004810625
,,,-2.48E-06,0.005005625
,,,-2.47E-06,0.0052825
,,,-2.46E-06,0.005089375
,,,-2.45E-06,0.005088125
,,,-2.44E-06,0.004903125
,,,-2.43E-06,0.004941875
,,,-2.42E-06,0.004978125
,,,-2.41E-06,0.0051
,,,-2.4E-06,0.00489625
,,,-2.39E-06,0.005089375
,,,-2.38E-06,0.004735625
,,,-2.37E-06,0.00499375
,,,-2.36E-06,0.00499
,,,-2.35E-06,0.004995
,,,-2.34E-06,0.00512
,,,-2.33E-06,0.00476125
,,,-2.32E-06,0.004975625
,,,-2.31E-06,0.004940625
,,,-2.3E-06,0.004889375
,,,-2.29E-06,0.005016875
,,,-2.28E-06,0.00500625
,,,-2.27E-06,0.00510375
,,,-2.26E-06,0.0046975
,,,-2.25E-06,0.00533125
,,,-2.24E-06,0.00501375
,,,-2.23E-06,0.0050975
,,,-2.22E-06,0.00494125
,,,-2.21E-06,0.00492875
,,,-2.2E-06,0.005114375
,,,-2.19E-06,0.004888125
,,,-2.18E-06,0.004934375
,,,-2.17E-06,0.00511375
,,,-2.16E-06,0.00510125
,,,-2.15E-06,0.00495
,,,-2.14E-06,0.005225
,,,-2.13E-06,0.0051375
,,,-2.12E-06,0.00507
,,,-2.11E-06,0.00498125
,,,-2.1E-06,0.00513875
,,,-2.09E-06,0.005255625
,,,-2.08E-06,0.00515
,,,-2.07E-06,0.00522
,,,-2.06E-06,0.005093125
,,,-2.05E-06,0.00517875
,,,-2.04E-06,0.00519
,,,-2.03E-06,0.005011875
,,,-2.02E-06,0.005021875
,,,-2.01E-06,0.00500125
,,,-2E-06,0.005074375
,,,-1.99E-06,0.005106875
,,,-1.98E-06,0.005235625
,,,-1.97E-06,0.00517
,,,-1.96E-06,0.00493375
,,,-1.95E-06,0.00489625
,,,-1.94E-06,0.0050375
,,,-1.93E-06,0.005174375
,,,-1.92E-06,0.005086875
,,,-1.91E-06,0.00513625
,,,-1.9E-06,0.00504375
,,,-1.89E-06,0.005026875
,,,-1.88E-06,0.004936875
,,,-1.87E-06,0.0050325
,,,-1.86E-06,0.00504125
,,,-1.85E-06,0.0049975
,,,-1.84E-06,0.004968125
,,,-1.83E-06,0.005078125
,,,-1.82E-06,0.00488125
,,,-1.81E-06,0.0049075
,,,-1.8E-06,0.00512125
,,,-1.79E-06,0.004835
,,,-1.78E-06,0.00478
,,,-1.77E-06,0.005166875
,,,-1.76E-06,0.00478
,,,-1.75E-06,0.005115625
,,,-1.74E-06,0.005130625
,,,-1.73E-06,0.0048725
,,,-1.72E-06,0.0049525
,,,-1.71E-06,0.004828125
,,,-1.7E-06,0.005
,,,-1.69E-06,0.00488375
,,,-1.68E-06,0.00493125
,,,-1.67E-06,0.005091875
,,,-1.66E-06,0.004694375
,,,-1.65E-06,0.004943125
,,,-1.64E-06,0.0049075
,,,-1.63E-06,0.004968125
,,,-1.62E-06,0.005068125
,,,-1.61E-06,0.004873125
,,,-1.6E-06,0.00511125
,,,-1.59E-06,0.005160625
,,,-1.58E-06,0.00502
,,,-1.57E-06,0.004955
,,,-1.56E-06,0.0050775
,,,-1.55E-06,0.00498375
,,,-1.54E-06,0.005095625
,,,-1.53E-06,0.005111875
,,,-1.52E-06,0.005245625
,,,-1.51E-06,0.005011875
,,,-1.5E-06,0.004975625
,,,-1.49E-06,0.004938125
,,,-1.48E-06,0.004968125
,,,-1.47E-06,0.005228125
,,,-1.46E-06,0.004749375
,,,-1.45E-06,0.004914375
,,,-1.44E-06,0.005123125
,,,-1.43E-06,0.005125625
,,,-1.42E-06,0.005156875
,,,-1.41E-06,0.00480625
,,,-1.4E-06,0.00497375
,,,-1.39E-06,0.004800625
,,,-1.38E-06,0.00496625
,,,-1.37E-06,0.0051125
,,,-1.36E-06,0.005070625
,,,-1.35E-06,0.0052025
,,,-1.34E-06,0.00500375
,,,-1.33E-06,0.00510125
,,,-1.32E-06,0.005265
,,,-1.31E-06,0.005191875
,,,-1.3E-06,0.0051425
,,,-1.29E-06,0.0050675
,,,-1.28E-06,0.004826875
,,,-1.27E-06,0.0050475
,,,-1.26E-06,0.005209375
,,,-1.25E-06,0.005021875
,,,-1.24E-06,0.005195
,,,-1.23E-06,0.005269375
,,,-1.22E-06,0.00512
,,,-1.21E-06,0.005010625
,,,-1.2E-06,0.004963125
,,,-1.19E-06,0.00523375
,,,-1.18E-06,0.00517375
,,,-1.17E-06,0.004884375
,,,-1.16E-06,0.00490125
,,,-1.15E-06,0.00498875
,,,-1.14E-06,0.004995625
,,,-1.13E-06,0.0051025
,,,-1.12E-06,0.0052225
,,,-1.11E-06,0.004855
,,,-1.1E-06,0.005160625
,,,-1.09E-06,0.005076875
,,,-1.08E-06,0.00492375
,,,-1.07E-06,0.005015625
,,,-1.06E-06,0.0049375
,,,-1.05E-06,0.00494125
,,,-1.04E-06,0.004883125
,,,-1.03E-06,0.00483125
,,,-1.02E-06,0.005321875
,,,-1.01E-06,0.005215625
,,,-1E-06,0.00517625
,,,-9.9E-07,0.00486375
,,,-9.8E-07,0.004950625
,,,-9.7E-07,0.00490625
,,,-9.6E-07,0.00537375
,,,-9.5E-07,0.00530125
,,,-9.4E-07,0.005023125
,,,-9.3E-07,0.005015625
,,,-9.2E-07,0.005086875
,,,-9.1E-07,0.00502
,,,-9E-07,0.004976875
,,,-8.9E-07,0.005231875
,,,-8.8E-07,0.00483375
,,,-8.7E-07,0.005185
,,,-8.6E-07,0.00511625
,,,-8.5E-07,0.00512125
,,,-8.4E-07,0.0049725
,,,-8.3E-07,0.00496875
,,,-8.2E-07,0.005024375
,,,-8.1E-07,0.005040625
,,,-8E-07,0.004905625
,,,-7.9E-07,0.00497
,,,-7.8E-07,0.0050225
,,,-7.7E-07,0.00480375
,,,-7.6E-07,0.005125
,,,-7.5E-07,0.005049375
,,,-7.4E-07,0.0049175
,,,-7.3E-07,0.0048525
,,,-7.2E-07,0.00498
,,,-7.1E-07,0.005075625
,,,-7E-07,0.005171875
,,,-6.9E-07,0.005009375
,,,-6.8E-07,0.004796875
,,,-6.7E-07,0.004765625
,,,-6.6E-07,0.0048975
,,,-6.5E-07,0.005101875
,,,-6.4E-07,0.0049275
,,,-6.3E-07,0.00511
,,,-6.2E-07,0.005255
,,,-6.1E-07,0.005106875
,,,-6E-07,0.005104375
,,,-5.9E-07,0.00524875
,,,-5.8E-07,0.00515375
,,,-5.7E-07,0.005136875
,,,-5.6E-07,0.0050025
,,,-5.5E-07,0.005128125
,,,-5.4E-07,0.005391875
,,,-5.3E-07,0.00516375
,,,-5.2E-07,0.0050875
,,,-5.1E-07,0.00521625
,,,-5E-07,0.005280625
,,,-4.9E-07,0.005030625
,,,-4.8E-07,0.004801875
,,,-4.7E-07,0.00487375
,,,-4.6E-07,0.005224375
,,,-4.5E-07,0.004998125
,,,-4.4E-07,0.00503
,,,-4.3E-07,0.00484375
,,,-4.2E-07,0.00512875
,,,-4.1E-07,0.004946875
,,,-4E-07,0.004926875
,,,-3.9E-07,0.0050725
,,,-3.8E-07,0.00508
,,,-3.7E-07,0.0050125
,,,-3.6E-07,0.005100625
,,,-3.5E-07,0.004819375
,,,-3.4E-07,0.00500875
,,,-3.3E-07,0.004875
,,,-3.2E-07,0.005020625
,,,-3.1E-07,0.004804375
,,,-3E-07,0.005203125
,,,-2.9E-07,0.004875625
,,,-2.8E-07,0.004878125
,,,-2.7E-07,0.005283125
,,,-2.6E-07,0.00523125
,,,-2.5E-07,0.004909375
,,,-2.4E-07,0.005049375
,,,-2.3E-07,0.0050475
,,,-2.2E-07,0.004928125
,,,-2.1E-07,0.00509125
,,,-2E-07,0.00495875
,,,-1.9E-07,0.00512625
,,,-1.8E-07,0.00508125
,,,-1.7E-07,0.004953125
,,,-1.6E-07,0.005176875
,,,-1.5E-07,0.004791875
,,,-1.4E-07,0.005026875
,,,-1.3E-07,0.004933125
,,,-1.2E-07,0.005288125
,,,-1.1E-07,0.00504125
,,,-1E-07,0.00512125
,,,-9E-08,0.005001875
,,,-8E-08,0.005016875
,,,-7E-08,0.0049125
,,,-6E-08,0.004845625
,,,-5E-08,0.004964375
,,,-4E-08,0.0056125
,,,-3E-08,0.0056
,,,-2E-08,0.00393625
,,,-1E-08,0.002560625
,,,0,0.003640625
,,,1E-08,0.0071375
,,,2E-08,0.007611875
,,,3E-08,0.006844375
,,,4E-08,0.00399125
,,,5E-08,0.00315375
,,,6E-08,0.00284
,,,7E-08,0.004546875
,,,8E-08,0.0060175
,,,9E-08,0.006355625
,,,1E-07,0.005829375
,,,1.1E-07,0.00493625
,,,1.2E-07,0.004165
,,,1.3E-07,0.00401125
,,,1.4E-07,0.00440875
,,,1.5E-07,0.0051625
,,,1.6E-07,0.00549125
,,,1.7E-07,0.005271875
,,,1.8E-07,0.005145625
,,,1.9E-07,0.00520875
,,,2E-07,0.0048975
,,,2.1E-07,0.004969375
,,,2.2E-07,0.00485625
,,,2.3E-07,0.0050725
,,,2.4E-07,0.00500375
,,,2.5E-07,0.004750625
,,,2.6E-07,0.00511
,,,2.7E-07,0.0050025
,,,2.8E-07,0.005100625
,,,2.9E-07,0.0048925
,,,3E-07,0.00514375
,,,3.1E-07,0.00504375
,,,3.2E-07,0.005394375
,,,3.3E-07,0.00511125
,,,3.4E-07,0.00509375
,,,3.5E-07,0.00495875
,,,3.6E-07,0.004836875
,,,3.7E-07,0.00520625
,,,3.8E-07,0.00501375
,,,3.9E-07,0.005176875
,,,4E-07,0.005154375
,,,4.1E-07,0.005049375
,,,4.2E-07,0.00511
,,,4.3E-07,0.0049425
,,,4.4E-07,0.00491625
,,,4.5E-07,0.005253125
,,,4.6E-07,0.004921875
,,,4.7E-07,0.00503625
,,,4.8E-07,0.00474
,,,4.9E-07,0.0050025
,,,5E-07,0.004979375
,,,5.1E-07,0.004868125
,,,5.2E-07,0.005014375
,,,5.3E-07,0.0050725
,,,5.4E-07,0.005119375
,,,5.5E-07,0.004855625
,,,5.6E-07,0.00520875
,,,5.7E-07,0.005323125
,,,5.8E-07,0.00521
,,,5.9E-07,0.0047675
,,,6E-07,0.00499125
,,,6.1E-07,0.005043125
,,,6.2E-07,0.005155
,,,6.3E-07,0.00485375
,,,6.4E-07,0.00502625
,,,6.5E-07,0.005151875
,,,6.6E-07,0.005045625
,,,6.7E-07,0.004964375
,,,6.8E-07,0.0050175
,,,6.9E-07,0.00493875
,,,7E-07,0.0051425
,,,7.1E-07,0.00509875
,,,7.2E-07,0.005024375
,,,7.3E-07,0.00534
,,,7.4E-07,0.005139375
,,,7.5E-07,0.004948125
,,,7.6E-07,0.005104375
,,,7.7E-07,0.005135625
,,,7.8E-07,0.004929375
,,,7.9E-07,0.005239375
,,,8E-07,0.005169375
,,,8.1E-07,0.005226875
,,,8.2E-07,0.00480375
,,,8.3E-07,0.005124375
,,,8.4E-07,0.005245
,,,8.5E-07,0.005
,,,8.6E-07,0.00503625
,,,8.7E-07,0.0051975
,,,8.8E-07,0.004688125
,,,8.9E-07,0.005035625
,,,9E-07,0.005183125
,,,9.1E-07,0.00482875
,,,9.2E-07,0.005198125
,,,9.3E-07,0.00506375
,,,9.4E-07,0.004889375
,,,9.5E-07,0.005050625
,,,9.6E-07,0.00492875
,,,9.7E-07,0.004895625
,,,9.8E-07,0.005055625
,,,9.9E-07,0.004846875
,,,1E-06,0.004883125
,,,1.01E-06,0.005258125
,,,1.02E-06,0.004708125
,,,1.03E-06,0.0052175
,,,1.04E-06,0.005031875
,,,1.05E-06,0.004938125
,,,1.06E-06,0.005121875
,,,1.07E-06,0.005289375
,,,1.08E-06,0.00491875
,,,1.09E-06,0.004929375
,,,1.1E-06,0.0051675
,,,1.11E-06,0.0048775
,,,1.12E-06,0.004778125
,,,1.13E-06,0.005146875
,,,1.14E-06,0.00514625
,,,1.15E-06,0.0052025
,,,1.16E-06,0.0050275
,,,1.17E-06,0.00502375
,,,1.18E-06,0.00494875
,,,1.19E-06,0.005024375
,,,1.2E-06,0.005018125
,,,1.21E-06,0.005030625
,,,1.22E-06,0.00497625
,,,1.23E-06,0.00490625
,,,1.24E-06,0.0049325
,,,1.25E-06,0.005135625
,,,1.26E-06,0.004701875
,,,1.27E-06,0.004975625
,,,1.28E-06,0.004955625
,,,1.29E-06,0.00488625
,,,1.3E-06,0.00503625
,,,1.31E-06,0.0050975
,,,1.32E-06,0.00509625
,,,1.33E-06,0.00522875
,,,1.34E-06,0.00523125
,,,1.35E-06,0.004901875
,,,1.36E-06,0.004794375
,,,1.37E-06,0.005300625
,,,1.38E-06,0.004908125
,,,1.39E-06,0.005115
,,,1.4E-06,0.004915
,,,1.41E-06,0.005223125
,,,1.42E-06,0.004938125
,,,1.43E-06,0.00491125
,,,1.44E-06,0.0050975
,,,1.45E-06,0.005193125
,,,1.46E-06,0.0050425
,,,1.47E-06,0.005033125
,,,1.48E-06,0.0052625
,,,1.49E-06,0.004908125
,,,1.5E-06,0.005153125
,,,1.51E-06,0.00501625
,,,1.52E-06,0.0046625
,,,1.53E-06,0.004853125
,,,1.54E-06,0.00508375
,,,1.55E-06,0.0050875
,,,1.56E-06,0.005080625
,,,1.57E-06,0.00493375
,,,1.58E-06,0.0049375
,,,1.59E-06,0.004736875
,,,1.6E-06,0.004979375
,,,1.61E-06,0.0049425
,,,1.62E-06,0.004945
,,,1.63E-06,0.00498625
,,,1.64E-06,0.004945625
,,,1.65E-06,0.00500125
,,,1.66E-06,0.005144375
,,,1.67E-06,0.00513
,,,1.68E-06,0.00502625
,,,1.69E-06,0.004868125
,,,1.7E-06,0.005070625
,,,1.71E-06,0.005116875
,,,1.72E-06,0.0051325
,,,1.73E-06,0.005210625
,,,1.74E-06,0.005133125
,,,1.75E-06,0.005315
,,,1.76E-06,0.004961875
,,,1.77E-06,0.0049
,,,1.78E-06,0.005046875
,,,1.79E-06,0.00523125
,,,1.8E-06,0.00512
,,,1.81E-06,0.004884375
,,,1.82E-06,0.005299375
,,,1.83E-06,0.0048175
,,,1.84E-06,0.005124375
,,,1.85E-06,0.005125625
,,,1.86E-06,0.004931875
,,,1.87E-06,0.004908125
,,,1.88E-06,0.005201875
,,,1.89E-06,0.004895
,,,1.9E-06,0.005214375
,,,1.91E-06,0.004736875
,,,1.92E-06,0.0050375
,,,1.93E-06,0.005158125
,,,1.94E-06,0.005256875
,,,1.95E-06,0.00496
,,,1.96E-06,0.00502375
,,,1.97E-06,0.005046875
,,,1.98E-06,0.00503
,,,1.99E-06,0.00498
,,,2E-06,0.004863125
,,,2.01E-06,0.005086875
,,,2.02E-06,0.005099375
,,,2.03E-06,0.00517875
,,,2.04E-06,0.00487
,,,2.05E-06,0.005186875
,,,2.06E-06,0.00504375
,,,2.07E-06,0.00505875
,,,2.08E-06,0.0046475
,,,2.09E-06,0.005334375
,,,2.1E-06,0.004895625
,,,2.11E-06,0.004789375
,,,2.12E-06,0.0052475
,,,2.13E-06,0.005125
,,,2.14E-06,0.005074375
,,,2.15E-06,0.004939375
,,,2.16E-06,0.005248125
,,,2.17E-06,0.0050325
,,,2.18E-06,0.00488
,,,2.19E-06,0.0048275
,,,2.2E-06,0.00518125
,,,2.21E-06,0.00490125
,,,2.22E-06,0.005040625
,,,2.23E-06,0.00493
,,,2.24E-06,0.005325
,,,2.25E-06,0.00519375
,,,2.26E-06,0.005146875
,,,2.27E-06,0.005026875
,,,2.28E-06,0.005231875
,,,2.29E-06,0.004783125
,,,2.3E-06,0.00508125
,,,2.31E-06,0.00520375
,,,2.32E-06,0.005025
,,,2.33E-06,0.00508875
,,,2.34E-06,0.0049575
,,,2.35E-06,0.005140625
,,,2.36E-06,0.0050625
,,,2.37E-06,0.00504
,,,2.38E-06,0.005161875
,,,2.39E-06,0.00507
,,,2.4E-06,0.00522625
,,,2.41E-06,0.0048725
,,,2.42E-06,0.004831875
,,,2.43E-06,0.005100625
,,,2.44E-06,0.0049975
,,,2.45E-06,0.004988125
,,,2.46E-06,0.005179375
,,,2.47E-06,0.004770625
,,,2.48E-06,0.005075625
,,,2.49E-06,0.004924375
,,,2.5E-06,0.005114375
,,,2.51E-06,0.0048375
,,,2.52E-06,0.005149375
,,,2.53E-06,0.0051375
,,,2.54E-06,0.00513
,,,2.55E-06,0.005230625
,,,2.56E-06,0.0050825
,,,2.57E-06,0.004965625
,,,2.58E-06,0.005198125
,,,2.59E-06,0.00473375
,,,2.6E-06,0.005180625
,,,2.61E-06,0.00505375
,,,2.62E-06,0.00513875
,,,2.63E-06,0.00518625
,,,2.64E-06,0.00479125
,,,2.65E-06,0.00505375
,,,2.66E-06,0.005093125
,,,2.67E-06,0.0048275
,,,2.68E-06,0.004956875
,,,2.69E-06,0.00487875
,,,2.7E-06,0.004961875
,,,2.71E-06,0.005119375
,,,2.72E-06,0.0051025
,,,2.73E-06,0.0050825
,,,2.74E-06,0.005106875
,,,2.75E-06,0.005009375
,,,2.76E-06,0.005106875
,,,2.77E-06,0.00513125
,,,2.78E-06,0.0048325
,,,2.79E-06,0.005235
,,,2.8E-06,0.00513125
,,,2.81E-06,0.005236875
,,,2.82E-06,0.00489125
,,,2.83E-06,0.005205
,,,2.84E-06,0.004980625
,,,2.85E-06,0.005101875
,,,2.86E-06,0.004821875
,,,2.87E-06,0.0051875
,,,2.88E-06,0.00478
,,,2.89E-06,0.0050075
,,,2.9E-06,0.00491875
,,,2.91E-06,0.005051875
,,,2.92E-06,0.004914375
,,,2.93E-06,0.005056875
,,,2.94E-06,0.005141875
,,,2.95E-06,0.00477
,,,2.96E-06,0.00515
,,,2.97E-06,0.00525
,,,2.98E-06,0.005105
,,,2.99E-06,0.005031875
,,,3E-06,0.00479125
,,,3.01E-06,0.005241875
,,,3.02E-06,0.004961875
,,,3.03E-06,0.0051425
,,,3.04E-06,0.005225
,,,3.05E-06,0.00515625
,,,3.06E-06,0.004934375
,,,3.07E-06,0.00497875
,,,3.08E-06,0.004883125
,,,3.09E-06,0.004879375
,,,3.1E-06,0.004985625
,,,3.11E-06,0.005125625
,,,3.12E-06,0.00497625
,,,3.13E-06,0.005151875
,,,3.14E-06,0.0050875
,,,3.15E-06,0.00520625
,,,3.16E-06,0.005281875
,,,3.17E-06,0.005165
,,,3.18E-06,0.004775625
,,,3.19E-06,0.00516
,,,3.2E-06,0.00500375
,,,3.21E-06,0.0049675
,,,3.22E-06,0.004850625
,,,3.23E-06,0.005075625
,,,3.24E-06,0.004948125
,,,3.25E-06,0.00496375
,,,3.26E-06,0.005068125
,,,3.27E-06,0.004860625
,,,3.28E-06,0.00502125
,,,3.29E-06,0.00502875
,,,3.3E-06,0.005203125
,,,3.31E-06,0.005220625
,,,3.32E-06,0.004821875
,,,3.33E-06,0.00481
,,,3.34E-06,0.004956875
,,,3.35E-06,0.004786875
,,,3.36E-06,0.004908125
,,,3.37E-06,0.005308125
,,,3.38E-06,0.005305625
,,,3.39E-06,0.005156875
,,,3.4E-06,0.00485375
,,,3.41E-06,0.00546
,,,3.42E-06,0.004883125
,,,3.43E-06,0.005175
,,,3.44E-06,0.00515
,,,3.45E-06,0.00502875
,,,3.46E-06,0.005085625
,,,3.47E-06,0.00478
,,,3.48E-06,0.00520125
,,,3.49E-06,0.0049725
,,,3.5E-06,0.0048125
,,,3.51E-06,0.00515125
,,,3.52E-06,0.005030625
,,,3.53E-06,0.005164375
,,,3.54E-06,0.004955
,,,3.55E-06,0.0051475
,,,3.56E-06,0.005170625
