data/raw/Final_POL_Test_1/SOP024_Ch4.csv

"Record Length",1000,"Points",-5E-06,0.019629375
"Sample Interval",1E-08,s,-4.99E-06,0.0195775
"Trigger Point",500,"Samples",-4.98E-06,0.019836875
"Trigger Time",0,s,-4.97E-06,0.0196175
"",,,-4.96E-06,0.01978
"Horizontal Offset",-5E-06,s,-4.95E-06,0.01985625
,,,-4.94E-06,0.019711875
,,,-4.93E-06,0.01951375
,,,-4.92E-06,0.0197975
,,,-4.91E-06,0.019805625
,,,-4.9E-06,0.01992125
,,,-4.89E-06,0.0198
,,,-4.88E-06,0.019781875
,,,-4.87E-06,0.01969
,,,-4.86E-06,0.019871875
,,,-4.85E-06,0.019765625
,,,-4.84E-06,0.019620625
,,,-4.83E-06,0.01971
,,,-4.82E-06,0.019835
,,,-4.81E-06,0.019505
,,,-4.8E-06,0.019709375
,,,-4.79E-06,0.019743125
,,,-4.78E-06,0.019678125
,,,-4.77E-06,0.01952625
,,,-4.76E-06,0.01989125
,,,-4.75E-06,0.02000875
,,,-4.74E-06,0.0197375
,,,-4.73E-06,0.01979375
,,,-4.72E-06,0.0195225
,,,-4.71E-06,0.0195475
,,,-4.7E-06,0.019659375
,,,-4.69E-06,0.019724375
,,,-4.68E-06,0.019748125
,,,-4.67E-06,0.01973
,,,-4.66E-06,0.019910625
,,,-4.65E-06,0.02001125
,,,-4.64E-06,0.019711875
,,,-4.63E-06,0.019663125
,,,-4.62E-06,0.019686875
,,,-4.61E-06,0.0197
,,,-4.6E-06,0.01995
,,,-4.59E-06,0.019836875
,,,-4.58E-06,0.01982125
,,,-4.57E-06,0.01975625
,,,-4.56E-06,0.0199575
,,,-4.55E-06,0.02000375
,,,-4.54E-06,0.019934375
,,,-4.53E-06,0.019696875
,,,-4.52E-06,0.01986
,,,-4.51E-06,0.01959375
,,,-4.5E-06,0.019845625
,,,-4.49E-06,0.0199125
,,,-4.48E-06,0.019658125
,,,-4.47E-06,0.01967
,,,-4.46E-06,0.019538125
,,,-4.45E-06,0.019705625
,,,-4.44E-06,0.019636875
,,,-4.43E-06,0.0196775
,,,-4.42E-06,0.019650625
,,,-4.41E-06,0.019720625
,,,-4.4E-06,0.019719375
,,,-4.39E-06,0.01976625
,,,-4.38E-06,0.019495625
,,,-4.37E-06,0.019534375
,,,-4.36E-06,0.01952875
,,,-4.35E-06,0.019629375
,,,-4.34E-06,0.019794375
,,,-4.33E-06,0.01983625
,,,-4.32E-06,0.019683125
,,,-4.31E-06,0.019715
,,,-4.3E-06,0.019803125
,,,-4.29E-06,0.01983125
,,,-4.28E-06,0.019711875
,,,-4.27E-06,0.019655
,,,-4.26E-06,0.019858125
,,,-4.25E-06,0.019881875
,,,-4.24E-06,0.0197775
,,,-4.23E-06,0.0197425
,,,-4.22E-06,0.019725625
,,,-4.21E-06,0.019781875
,,,-4.2E-06,0.019455625
,,,-4.19E-06,0.019826875
,,,-4.18E-06,0.019761875
,,,-4.17E-06,0.019838125
,,,-4.16E-06,0.019609375
,,,-4.15E-06,0.019335625
,,,-4.14E-06,0.01998625
,,,-4.13E-06,0.01976625
,,,-4.12E-06,0.019674375
,,,-4.11E-06,0.01970625
,,,-4.1E-06,0.019771875
,,,-4.09E-06,0.01977875
,,,-4.08E-06,0.01975625
,,,-4.07E-06,0.01988625
,,,-4.06E-06,0.019811875
,,,-4.05E-06,0.019915
,,,-4.04E-06,0.019518125
,,,-4.03E-06,0.019691875
,,,-4.02E-06,0.019810625
,,,-4.01E-06,0.01982625
,,,-4E-06,0.0198925
,,,-3.99E-06,0.019925625
,,,-3.98E-06,0.01970875
,,,-3.97E-06,0.019768125
,,,-3.96E-06,0.019845
,,,-3.95E-06,0.01982875
,,,-3.94E-06,0.019789375
,,,-3.93E-06,0.01988875
,,,-3.92E-06,0.01974375
,,,-3.91E-06,0.02002375
,,,-3.9E-06,0.019793125
,,,-3.89E-06,0.0196725
,,,-3.88E-06,0.0199475
,,,-3.87E-06,0.019889375
,,,-3.86E-06,0.01975375
,,,-3.85E-06,0.01955375
,,,-3.84E-06,0.0196925
,,,-3.83E-06,0.019745
,,,-3.82E-06,0.019375
,,,-3.81E-06,0.020048125
,,,-3.8E-06,0.01974875
,,,-3.79E-06,0.019701875
,,,-3.78E-06,0.019644375
,,,-3.77E-06,0.019645625
,,,-3.76E-06,0.0196075
,,,-3.75E-06,0.01966625
,,,-3.74E-06,0.020026875
,,,-3.73E-06,0.019695625
,,,-3.72E-06,0.01977625
,,,-3.71E-06,0.019996875
,,,-3.7E-06,0.019666875
,,,-3.69E-06,0.01959125
,,,-3.68E-06,0.01986375
,,,-3.67E-06,0.019844375
,,,-3.66E-06,0.019691875
,,,-3.65E-06,0.019825625
,,,-3.64E-06,0.019634375
,,,-3.63E-06,0.019855625
,,,-3.62E-06,0.01968125
,,,-3.61E-06,0.019735625
,,,-3.6E-06,0.0199425
,,,-3.59E-06,0.0196425
,,,-3.58E-06,0.0199025
,,,-3.57E-06,0.019916875
,,,-3.56E-06,0.019776875
,,,-3.55E-06,0.019664375
,,,-3.54E-06,0.019551875
,,,-3.53E-06,0.019618125
,,,-3.52E-06,0.019873125
,,,-3.51E-06,0.01969875
,,,-3.5E-06,0.019616875
,,,-3.49E-06,0.019895
,,,-3.48E-06,0.019676875
,,,-3.47E-06,0.020088125
,,,-3.46E-06,0.0196725
,,,-3.45E-06,0.019776875
,,,-3.44E-06,0.01957375
,,,-3.43E-06,0.01974
,,,-3.42E-06,0.01969125
,,,-3.41E-06,0.01976
,,,-3.4E-06,0.0197775
,,,-3.39E-06,0.019476875
,,,-3.38E-06,0.019753125
,,,-3.37E-06,0.0195025
,,,-3.36E-06,0.019573125
,,,-3.35E-06,0.01964
,,,-3.34E-06,0.019445
,,,-3.33E-06,0.01958375
,,,-3.32E-06,0.019568125
,,,-3.31E-06,0.019549375
,,,-3.3E-06,0.019456875
,,,-3.29E-06,0.01949375
,,,-3.28E-06,0.01962125
,,,-3.27E-06,0.0196525
,,,-3.26E-06,0.019925625
,,,-3.25E-06,0.019800625
,,,-3.24E-06,0.019860625
,,,-3.23E-06,0.019505625
,,,-3.22E-06,0.019495625
,,,-3.21E-06,0.019599375
,,,-3.2E-06,0.019393125
,,,-3.19E-06,0.019759375
,,,-3.18E-06,0.019815625
,,,-3.17E-06,0.019709375
,,,-3.16E-06,0.019799375
,,,-3.15E-06,0.019635625
,,,-3.14E-06,0.01997
,,,-3.13E-06,0.01978
,,,-3.12E-06,0.01977375
,,,-3.11E-06,0.019855625
,,,-3.1E-06,0.0196875
,,,-3.09E-06,0.01969875
,,,-3.08E-06,0.019401875
,,,-3.07E-06,0.019975625
,,,-3.06E-06,0.01974625
,,,-3.05E-06,0.019738125
,,,-3.04E-06,0.019675625
,,,-3.03E-06,0.0194
,,,-3.02E-06,0.0199425
,,,-3.01E-06,0.01968
,,,-3E-06,0.01983
,,,-2.99E-06,0.01994375
,,,-2.98E-06,0.01984875
,,,-2.97E-06,0.01976125
,,,-2.96E-06,0.019938125
,,,-2.95E-06,0.019575
,,,-2.94E-06,0.01966875
,,,-2.93E-06,0.019765
,,,-2.92E-06,0.0199125
,,,-2.91E-06,0.01961
,,,-2.9E-06,0.019514375
,,,-2.89E-06,0.019334375
,,,-2.88E-06,0.019915625
,,,-2.87E-06,0.019419375
,,,-2.86E-06,0.01966
,,,-2.85E-06,0.019656875
,,,-2.84E-06,0.01999375
,,,-2.83E-06,0.01966
,,,-2.82E-06,0.01973
,,,-2.81E-06,0.019805
,,,-2.8E-06,0.01973125
,,,-2.79E-06,0.0199175
,,,-2.78E-06,0.0199975
,,,-2.77E-06,0.019648125
,,,-2.76E-06,0.019799375
,,,-2.75E-06,0.01985875
,,,-2.74E-06,0.019814375
,,,-2.73E-06,0.0197525
,,,-2.72E-06,0.01985625
,,,-2.71E-06,0.019598125
,,,-2.7E-06,0.019649375
,,,-2.69E-06,0.0200075
,,,-2.68E-06,0.019764375
,,,-2.67E-06,0.019855
,,,-2.66E-06,0.019915
,,,-2.65E-06,0.019808125
,,,-2.64E-06,0.019910625
,,,-2.63E-06,0.019695625
,,,-2.62E-06,0.019645625
,,,-2.61E-06,0.019725625
,,,-2.6E-06,0.019628125
,,,-2.59E-06,0.01978375
,,,-2.58E-06,0.01997875
,,,-2.57E-06,0.019845
,,,-2.56E-06,0.01986
,,,-2.55E-06,0.019746875
,,,-2.54E-06,0.019604375
,,,-2.53E-06,0.0198175
,,,-2.52E-06,0.01984125
,,,-2.51E-06,0.01975375
,,,-2.5E-06,0.01972625
,,,-2.49E-06,0.019623125
,,,-2.48E-06,0.019833125
,,,-2.47E-06,0.019544375
,,,-2.46E-06,0.01925875
,,,-2.45E-06,0.0196975
,,,-2.44E-06,0.0194525
,,,-2.43E-06,0.019553125
,,,-2.42E-06,0.0199075
,,,-2.41E-06,0.019871875
,,,-2.4E-06,0.019224375
,,,-2.39E-06,0.019488125
,,,-2.38E-06,0.01981875
,,,-2.37E-06,0.019639375
,,,-2.36E-06,0.019965625
,,,-2.35E-06,0.01986625
,,,-2.34E-06,0.01953875
,,,-2.33E-06,0.02009125
,,,-2.32E-06,0.0197425
,,,-2.31E-06,0.01973625
,,,-2.3E-06,0.019718125
,,,-2.29E-06,0.019649375
,,,-2.28E-06,0.019556875
,,,-2.27E-06,0.019764375
,,,-2.26E-06,0.019646875
,,,-2.25E-06,0.019866875
,,,-2.24E-06,0.01981
,,,-2.23E-06,0.0196725
,,,-2.22E-06,0.019835
,,,-2.21E-06,0.019625
,,,-2.2E-06,0.02011125
,,,-2.19E-06,0.0197825
,,,-2.18E-06,0.019665625
,,,-2.17E-06,0.0197025
,,,-2.16E-06,0.019728125
,,,-2.15E-06,0.019661875
,,,-2.14E-06,0.019909375
,,,-2.13E-06,0.019725625
,,,-2.12E-06,0.01945375
,,,-2.11E-06,0.0196875
,,,-2.1E-06,0.019594375
,,,-2.09E-06,0.019665
,,,-2.08E-06,0.019941875
,,,-2.07E-06,0.01962125
,,,-2.06E-06,0.019825
,,,-2.05E-06,0.019496875
,,,-2.04E-06,0.019409375
,,,-2.03E-06,0.019849375
,,,-2.02E-06,0.0197075
,,,-2.01E-06,0.01988625
,,,-2E-06,0.019990625
,,,-1.99E-06,0.01986875
,,,-1.98E-06,0.019645625
,,,-1.97E-06,0.01982
,,,-1.96E-06,0.019735
,,,-1.95E-06,0.0197725
,,,-1.94E-06,0.0196275
,,,-1.93E-06,0.01982875
,,,-1.92E-06,0.0198
,,,-1.91E-06,0.01988
,,,-1.9E-06,0.019555625
,,,-1.89E-06,0.019775
,,,-1.88E-06,0.01960375
,,,-1.87E-06,0.019479375
,,,-1.86E-06,0.019818125
,,,-1.85E-06,0.01952
,,,-1.84E-06,0.01972
,,,-1.83E-06,0.019514375
,,,-1.82E-06,0.0196725
,,,-1.81E-06,0.019919375
,,,-1.8E-06,0.0198575
,,,-1.79E-06,0.01955875
,,,-1.78E-06,0.01971375
,,,-1.77E-06,0.01964625
,,,-1.76E-06,0.019556875
,,,-1.75E-06,0.01989875
,,,-1.74E-06,0.019635
,,,-1.73E-06,0.019681875
,,,-1.72E-06,0.019868125
,,,-1.71E-06,0.019488125
,,,-1.7E-06,0.019624375
,,,-1.69E-06,0.01976875
,,,-1.68E-06,0.019775
,,,-1.67E-06,0.0196775
,,,-1.66E-06,0.019875
,,,-1.65E-06,0.0197
,,,-1.64E-06,0.019675
,,,-1.63E-06,0.019625
,,,-1.62E-06,0.019658125
,,,-1.61E-06,0.019703125
,,,-1.6E-06,0.01982125
,,,-1.59E-06,0.019814375
,,,-1.58E-06,0.01980125
,,,-1.57E-06,0.019790625
,,,-1.56E-06,0.019643125
,,,-1.55E-06,0.0199175
,,,-1.54E-06,0.0197625
,,,-1.53E-06,0.01991875
,,,-1.52E-06,0.0196525
,,,-1.51E-06,0.019719375
,,,-1.5E-06,0.01992125
,,,-1.49E-06,0.0195775
,,,-1.48E-06,0.019725
,,,-1.47E-06,0.019815
,,,-1.46E-06,0.019764375
,,,-1.45E-06,0.01975625
,,,-1.44E-06,0.0196725
,,,-1.43E-06,0.01969875
,,,-1.42E-06,0.020058125
,,,-1.41E-06,0.01992
,,,-1.4E-06,0.019545
,,,-1.39E-06,0.019886875
,,,-1.38E-06,0.019901875
,,,-1.37E-06,0.01993125
,,,-1.36E-06,0.01975125
,,,-1.35E-06,0.01982125
,,,-1.34E-06,0.019685
,,,-1.33E-06,0.019726875
,,,-1.32E-06,0.019995
,,,-1.31E-06,0.01982875
,,,-1.3E-06,0.0196675
,,,-1.29E-06,0.019653125
,,,-1.28E-06,0.019749375
,,,-1.27E-06,0.019796875
,,,-1.26E-06,0.020021875
,,,-1.25E-06,0.019731875
,,,-1.24E-06,0.01978
,,,-1.23E-06,0.019575
,,,-1.22E-06,0.019730625
,,,-1.21E-06,0.01954625
,,,-1.2E-06,0.019658125
,,,-1.19E-06,0.0196725
,,,-1.18E-06,0.019594375
,,,-1.17E-06,0.01975875
,,,-1.16E-06,0.019856875
,,,-1.15E-06,0.019845625
,,,-1.14E-06,0.019598125
,,,-1.13E-06,0.01996
,,,-1.12E-06,0.019840625
,,,-1.11E-06,0.02009125
,,,-1.1E-06,0.01966625
,,,-1.09E-06,0.0198175
,,,-1.08E-06,0.019799375
,,,-1.07E-06,0.019806875
,,,-1.06E-06,0.0197225
,,,-1.05E-06,0.0198875
,,,-1.04E-06,0.019701875
,,,-1.03E-06,0.019849375
,,,-1.02E-06,0.019956875
,,,-1.01E-06,0.019813125
,,,-1E-06,0.0198025
,,,-9.9E-07,0.019735625
,,,-9.8E-07,0.019784375
,,,-9.7E-07,0.019683125
,,,-9.6E-07,0.019803125
,,,-9.5E-07,0.01970875
,,,-9.4E-07,0.0195575
,,,-9.3E-07,0.0198875
,,,-9.2E-07,0.01986875
,,,-9.1E-07,0.019753125
,,,-9E-07,0.01962875
,,,-8.9E-07,0.019624375
,,,-8.8E-07,0.01963125
,,,-8.7E-07,0.01973625
,,,-8.6E-07,0.019845625
,,,-8.5E-07,0.02002875
,,,-8.4E-07,0.019941875
,,,-8.3E-07,0.019476875
,,,-8.2E-07,0.019825
,,,-8.1E-07,0.01955875
,,,-8E-07,0.01968875
,,,-7.9E-07,0.019568125
,,,-7.8E-07,0.019590625
,,,-7.7E-07,0.020041875
,,,-7.6E-07,0.01975
,,,-7.5E-07,0.01976125
,,,-7.4E-07,0.019694375
,,,-7.3E-07,0.019628125
,,,-7.2E-07,0.0200725
,,,-7.1E-07,0.01955625
,,,-7E-07,0.01950375
,,,-6.9E-07,0.0197075
,,,-6.8E-07,0.02004375
,,,-6.7E-07,0.019815625
,,,-6.6E-07,0.019584375
,,,-6.5E-07,0.019684375
,,,-6.4E-07,0.019545625
,,,-6.3E-07,0.01973125
,,,-6.2E-07,0.0197875
,,,-6.1E-07,0.019726875
,,,-6E-07,0.019645
,,,-5.9E-07,0.019728125
,,,-5.8E-07,0.019730625
,,,-5.7E-07,0.01957125
,,,-5.6E-07,0.01974625
,,,-5.5E-07,0.01944125
,,,-5.4E-07,0.019819375
,,,-5.3E-07,0.019458125
,,,-5.2E-07,0.019524375
,,,-5.1E-07,0.019730625
,,,-5E-07,0.0199025
,,,-4.9E-07,0.01976125
,,,-4.8E-07,0.019955625
,,,-4.7E-07,0.01969625
,,,-4.6E-07,0.01957375
,,,-4.5E-07,0.019696875
,,,-4.4E-07,0.019584375
,,,-4.3E-07,0.01973375
,,,-4.2E-07,0.02004
,,,-4.1E-07,0.01966875
,,,-4E-07,0.0197025
,,,-3.9E-07,0.019715
,,,-3.8E-07,0.01954875
,,,-3.7E-07,0.0197725
,,,-3.6E-07,0.019610625
,,,-3.5E-07,0.019823125
,,,-3.4E-07,0.019765625
,,,-3.3E-07,0.01974125
,,,-3.2E-07,0.019745
,,,-3.1E-07,0.019785625
,,,-3E-07,0.019525625
,,,-2.9E-07,0.019666875
,,,-2.8E-07,0.0195975
,,,-2.7E-07,0.019643125
,,,-2.6E-07,0.019866875
,,,-2.5E-07,0.01966125
,,,-2.4E-07,0.01964
,,,-2.3E-07,0.019285625
,,,-2.2E-07,0.019483125
,,,-2.1E-07,0.0197875
,,,-2E-07,0.01972125
,,,-1.9E-07,0.01970625
,,,-1.8E-07,0.019784375
,,,-1.7E-07,0.0197125
,,,-1.6E-07,0.0197075
,,,-1.5E-07,0.01979
,,,-1.4E-07,0.019666875
,,,-1.3E-07,0.01969875
,,,-1.2E-07,0.01981375
,,,-1.1E-07,0.019614375
,,,-1E-07,0.019685
,,,-9E-08,0.019571875
,,,-8E-08,0.01967
,,,-7E-08,0.019409375
,,,-6E-08,0.0195775
,,,-5E-08,0.0198025
,,,-4E-08,0.02055875
,,,-3E-08,0.02116
,,,-2E-08,0.018515
,,,-1E-08,0.016466875
,,,0,0.01640625
,,,1E-08,0.02219875
,,,2E-08,0.024224375
,,,3E-08,0.023535625
,,,4E-08,0.019151875
,,,5E-08,0.016921875
,,,6E-08,0.016003125
,,,7E-08,0.018245
,,,8E-08,0.020683125
,,,9E-08,0.021815
,,,1E-07,0.02229875
,,,1.1E-07,0.02042875
,,,1.2E-07,0.018674375
,,,1.3E-07,0.017898125
,,,1.4E-07,0.0188725
,,,1.5E-07,0.020153125
,,,1.6E-07,0.020463125
,,,1.7E-07,0.020279375
,,,1.8E-07,0.020093125
,,,1.9E-07,0.019946875
,,,2E-07,0.020050625
,,,2.1E-07,0.019630625
,,,2.2E-07,0.0192075
,,,2.3E-07,0.019583125
,,,2.4E-07,0.01971125
,,,2.5E-07,0.020029375
,,,2.6E-07,0.01991375
,,,2.7E-07,0.0195675
,,,2.8E-07,0.019694375
,,,2.9E-07,0.019733125
,,,3E-07,0.01956125
,,,3.1E-07,0.01976125
,,,3.2E-07,0.019743125
,,,3.3E-07,0.0198125
,,,3.4E-07,0.019619375
,,,3.5E-07,0.019695
,,,3.6E-07,0.019634375
,,,3.7E-07,0.019625
,,,3.8E-07,0.019614375
,,,3.9E-07,0.01978625
,,,4E-07,0.019876875
,,,4.1E-07,0.0197275
,,,4.2E-07,0.019569375
,,,4.3E-07,0.0198275
,,,4.4E-07,0.019780625
,,,4.5E-07,0.019655
,,,4.6E-07,0.019913125
,,,4.7E-07,0.01972625
,,,4.8E-07,0.019679375
,,,4.9E-07,0.0195825
,,,5E-07,0.019563125
,,,5.1E-07,0.01964625
,,,5.2E-07,0.0196325
,,,5.3E-07,0.01955875
,,,5.4E-07,0.019603125
,,,5.5E-07,0.019745625
,,,5.6E-07,0.01982
,,,5.7E-07,0.019850625
,,,5.8E-07,0.019663125
,,,5.9E-07,0.019769375
,,,6E-07,0.019791875
,,,6.1E-07,0.019538125
,,,6.2E-07,0.0196075
,,,6.3E-07,0.019774375
,,,6.4E-07,0.019330625
,,,6.5E-07,0.019633125
,,,6.6E-07,0.019860625
,,,6.7E-07,0.01990625
,,,6.8E-07,0.0197875
,,,6.9E-07,0.019765625
,,,7E-07,0.01954625
,,,7.1E-07,0.01953875
,,,7.2E-07,0.019768125
,,,7.3E-07,0.02011375
,,,7.4E-07,0.0197425
,,,7.5E-07,0.01937625
,,,7.6E-07,0.0195925
,,,7.7E-07,0.019554375
,,,7.8E-07,0.01963
,,,7.9E-07,0.019715625
,,,8E-07,0.01976625
,,,8.1E-07,0.01982875
,,,8.2E-07,0.019655
,,,8.3E-07,0.019770625
,,,8.4E-07,0.019649375
,,,8.5E-07,0.019709375
,,,8.6E-07,0.019695625
,,,8.7E-07,0.019798125
,,,8.8E-07,0.019768125
,,,8.9E-07,0.01984875
,,,9E-07,0.019904375
,,,9.1E-07,0.01974125
,,,9.2E-07,0.019785
,,,9.3E-07,0.01950375
,,,9.4E-07,0.019603125
,,,9.5E-07,0.019629375
,,,9.6E-07,0.019658125
,,,9.7E-07,0.01976625
,,,9.8E-07,0.01975625
,,,9.9E-07,0.01969
,,,1E-06,0.019600625
,,,1.01E-06,0.0197325
,,,1.02E-06,0.019825625
,,,1.03E-06,0.01963375
,,,1.04E-06,0.019878125
,,,1.05E-06,0.01968
,,,1.06E-06,0.01984375
,,,1.07E-06,0.0196875
,,,1.08E-06,0.01961
,,,1.09E-06,0.019718125
,,,1.1E-06,0.019728125
,,,1.11E-06,0.019708125
,,,1.12E-06,0.019730625
,,,1.13E-06,0.01958125
,,,1.14E-06,0.019618125
,,,1.15E-06,0.019611875
,,,1.16E-06,0.019754375
,,,1.17E-06,0.019735625
,,,1.18E-06,0.019735625
,,,1.19E-06,0.019691875
,,,1.2E-06,0.01944125
,,,1.21E-06,0.0194575
,,,1.22E-06,0.01957125
,,,1.23E-06,0.019653125
,,,1.24E-06,0.0199475
,,,1.25E-06,0.0195225
,,,1.26E-06,0.01971875
,,,1.27E-06,0.019743125
,,,1.28E-06,0.01969125
,,,1.29E-06,0.01955625
,,,1.3E-06,0.01974375
,,,1.31E-06,0.0200525
,,,1.32E-06,0.01976
,,,1.33E-06,0.019823125
,,,1.34E-06,0.019704375
,,,1.35E-06,0.01967625
,,,1.36E-06,0.0196825
,,,1.37E-06,0.01968875
,,,1.38E-06,0.019713125
,,,1.39E-06,0.019906875
,,,1.4E-06,0.019928125
,,,1.41E-06,0.01974875
,,,1.42E-06,0.01956875
,,,1.43E-06,0.0197775
,,,1.44E-06,0.019604375
,,,1.45E-06,0.019849375
,,,1.46E-06,0.019651875
,,,1.47E-06,0.01990375
,,,1.48E-06,0.01969
,,,1.49E-06,0.02003
,,,1.5E-06,0.01998625
,,,1.51E-06,0.01975625
,,,1.52E-06,0.01960875
,,,1.53E-06,0.019721875
,,,1.54E-06,0.019576875
,,,1.55E-06,0.01976
,,,1.56E-06,0.019639375
,,,1.57E-06,0.019905625
,,,1.58E-06,0.0197975
,,,1.59E-06,0.01975
,,,1.6E-06,0.019736875
,,,1.61E-06,0.019510625
,,,1.62E-06,0.019595
,,,1.63E-06,0.019635
,,,1.64E-06,0.01956125
,,,1.65E-06,0.019553125
,,,1.66E-06,0.01953
,,,1.67E-06,0.01995
,,,1.68E-06,0.01986625
,,,1.69E-06,0.01977375
,,,1.7E-06,0.019614375
,,,1.71E-06,0.01965
,,,1.72E-06,0.01979125
,,,1.73E-06,0.019546875
,,,1.74E-06,0.019618125
,,,1.75E-06,0.0198175
,,,1.76E-06,0.01964
,,,1.77E-06,0.019581875
,,,1.78E-06,0.01979875
,,,1.79E-06,0.019813125
,,,1.8E-06,0.0198875
,,,1.81E-06,0.01968
,,,1.82E-06,0.01969875
,,,1.83E-06,0.01977625
,,,1.84E-06,0.019563125
,,,1.85E-06,0.019663125
,,,1.86E-06,0.019706875
,,,1.87E-06,0.0198425
,,,1.88E-06,0.019865625
,,,1.89E-06,0.01980625
,,,1.9E-06,0.019601875
,,,1.91E-06,0.01978375
,,,1.92E-06,0.01992625
,,,1.93E-06,0.019774375
,,,1.94E-06,0.019803125
,,,1.95E-06,0.01967
,,,1.96E-06,0.019545625
,,,1.97E-06,0.019785
,,,1.98E-06,0.01974625
,,,1.99E-06,0.019831875
,,,2E-06,0.01992
,,,2.01E-06,0.019805625
,,,2.02E-06,0.019798125
,,,2.03E-06,0.01975
,,,2.04E-06,0.019595625
,,,2.05E-06,0.0197075
,,,2.06E-06,0.01970875
,,,2.07E-06,0.01991375
,,,2.08E-06,0.019624375
,,,2.09E-06,0.01973625
,,,2.1E-06,0.019581875
,,,2.11E-06,0.0198125
,,,2.12E-06,0.019679375
,,,2.13E-06,0.01968
,,,2.14E-06,0.020028125
,,,2.15E-06,0.0196625
,,,2.16E-06,0.019755625
,,,2.17E-06,0.01982125
,,,2.18E-06,0.01971875
,,,2.19E-06,0.019575
,,,2.2E-06,0.01956875
,,,2.21E-06,0.01969
,,,2.22E-06,0.01965
,,,2.23E-06,0.01971
,,,2.24E-06,0.019690625
,,,2.25E-06,0.019734375
,,,2.26E-06,0.01970125
,,,2.27E-06,0.019755
,,,2.28E-06,0.019961875
,,,2.29E-06,0.01963125
,,,2.3E-06,0.01945375
,,,2.31E-06,0.01956375
,,,2.32E-06,0.01984625
,,,2.33E-06,0.019596875
,,,2.34E-06,0.019728125
,,,2.35E-06,0.019718125
,,,2.36E-06,0.01977
,,,2.37E-06,0.019695625
,,,2.38E-06,0.019928125
,,,2.39E-06,0.0198025
,,,2.4E-06,0.019748125
,,,2.41E-06,0.019678125
,,,2.42E-06,0.019574375
,,,2.43E-06,0.01964125
,,,2.44E-06,0.019521875
,,,2.45E-06,0.0196925
,,,2.46E-06,0.019728125
,,,2.47E-06,0.01977
,,,2.48E-06,0.019840625
,,,2.49E-06,0.0196025
,,,2.5E-06,0.019643125
,,,2.51E-06,0.019278125
,,,2.52E-06,0.01951875
,,,2.53E-06,0.019583125
,,,2.54E-06,0.019689375
,,,2.55E-06,0.019783125
,,,2.56E-06,0.01995625
,,,2.57E-06,0.01962875
,,,2.58E-06,0.019536875
,,,2.59E-06,0.0196125
,,,2.6E-06,0.019769375
,,,2.61E-06,0.01985125
,,,2.62E-06,0.019631875
,,,2.63E-06,0.019950625
,,,2.64E-06,0.019316875
,,,2.65E-06,0.019585625
,,,2.66E-06,0.0197625
,,,2.67E-06,0.019691875
,,,2.68E-06,0.01992
,,,2.69E-06,0.019845
,,,2.7E-06,0.0197075
,,,2.71E-06,0.01969375
,,,2.72E-06,0.019934375
,,,2.73E-06,0.01982375
,,,2.74E-06,0.01965625
,,,2.75E-06,0.019824375
,,,2.76E-06,0.019586875
,,,2.77E-06,0.019751875
,,,2.78E-06,0.019475
,,,2.79E-06,0.01952
,,,2.8E-06,0.01969625
,,,2.81E-06,0.019489375
,,,2.82E-06,0.019615625
,,,2.83E-06,0.019634375
,,,2.84E-06,0.019558125
,,,2.85E-06,0.019534375
,,,2.86E-06,0.019784375
,,,2.87E-06,0.019551875
,,,2.88E-06,0.0200075
,,,2.89E-06,0.01981125
,,,2.9E-06,0.019715625
,,,2.91E-06,0.019760625
,,,2.92E-06,0.0197
,,,2.93E-06,0.01972125
,,,2.94E-06,0.01972125
,,,2.95E-06,0.019765625
,,,2.96E-06,0.0197
,,,2.97E-06,0.01965375
,,,2.98E-06,0.01980625
,,,2.99E-06,0.019611875
,,,3E-06,0.0197525
,,,3.01E-06,0.01973125
,,,3.02E-06,0.0196275
,,,3.03E-06,0.019561875
,,,3.04E-06,0.019725
,,,3.05E-06,0.01972375
,,,3.06E-06,0.01979375
,,,3.07E-06,0.019758125
,,,3.08E-06,0.01950125
,,,3.09E-06,0.019615
,,,3.1E-06,0.019844375
,,,3.11E-06,0.019755
,,,3.12E-06,0.019845
,,,3.13E-06,0.0196825
,,,3.14E-06,0.01959625
,,,3.15E-06,0.01976625
,,,3.16E-06,0.019745
,,,3.17E-06,0.019694375
,,,3.18E-06,0.01996625
,,,3.19E-06,0.019795
,,,3.2E-06,0.0195825
,,,3.21E-06,0.019744375
,,,3.22E-06,0.019493125
,,,3.23E-06,0.01973875
,,,3.24E-06,0.019990625
,,,3.25E-06,0.019554375
,,,3.26E-06,0.0191875
,,,3.27E-06,0.019755625
,,,3.28E-06,0.019794375
,,,3.29E-06,0.019659375
,,,3.3E-06,0.019924375
,,,3.31E-06,0.019826875
,,,3.32E-06,0.019689375
,,,3.33E-06,0.01957
,,,3.34E-06,0.019520625
,,,3.35E-06,0.01964
,,,3.36E-06,0.01974875
,,,3.37E-06,0.019575625
,,,3.38E-06,0.019863125
,,,3.39E-06,0.0197175
,,,3.4E-06,0.0197325
,,,3.41E-06,0.019879375
,,,3.42E-06,0.0197575
,,,3.43E-06,0.0196975
,,,3.44E-06,0.019533125
,,,3.45E-06,0.019535
,,,3.46E-06,0.019710625
,,,3.47E-06,0.019671875
,,,3.48E-06,0.0197375
,,,3.49E-06,0.019665625
,,,3.5E-06,0.019560625
,,,3.51E-06,0.0198975
,,,3.52E-06,0.01965
,,,3.53E-06,0.0198375
,,,3.54E-06,0.019704375
,,,3.55E-06,0.01964625
,,,3.56E-06,0.019828125
,,,3.57E-06,0.019739375
,,,3.58E-06,0.0198525
,,,3.59E-06,0.0198375
