data/raw/Final_POL_Test_1/SOP041_Ch3.csv

"Record Length",1000,"Points",-5E-06,0.020126876
"Sample Interval",1E-08,s,-4.99E-06,0.019960001
"Trigger Point",500,"Samples",-4.98E-06,0.020134376
"Trigger Time",0,s,-4.97E-06,0.020088126
"",,,-4.96E-06,0.020187501
"Horizontal Offset",-5E-06,s,-4.95E-06,0.019964376
,,,-4.94E-06,0.020002501
,,,-4.93E-06,0.020081876
,,,-4.92E-06,0.020108126
,,,-4.91E-06,0.020151251
,,,-4.9E-06,0.019876876
,,,-4.89E-06,0.020054376
,,,-4.88E-06,0.020163126
,,,-4.87E-06,0.019880626
,,,-4.86E-06,0.019782501
,,,-4.85E-06,0.019828126
,,,-4.84E-06,0.020011876
,,,-4.83E-06,0.019956876
,,,-4.82E-06,0.019959376
,,,-4.81E-06,0.020048751
,,,-4.8E-06,0.019979376
,,,-4.79E-06,0.020248751
,,,-4.78E-06,0.019906876
,,,-4.77E-06,0.019797501
,,,-4.76E-06,0.019908126
,,,-4.75E-06,0.020008126
,,,-4.74E-06,0.020005626
,,,-4.73E-06,0.020122501
,,,-4.72E-06,0.020190626
,,,-4.71E-06,0.019924376
,,,-4.7E-06,0.020094376
,,,-4.69E-06,0.020093126
,,,-4.68E-06,0.020183751
,,,-4.67E-06,0.019858126
,,,-4.66E-06,0.019959376
,,,-4.65E-06,0.019999376
,,,-4.64E-06,0.020063751
,,,-4.63E-06,0.020101876
,,,-4.62E-06,0.020082501
,,,-4.61E-06,0.019925001
,,,-4.6E-06,0.020109376
,,,-4.59E-06,0.020118751
,,,-4.58E-06,0.020040626
,,,-4.57E-06,0.020018751
,,,-4.56E-06,0.020020001
,,,-4.55E-06,0.020083126
,,,-4.54E-06,0.020097501
,,,-4.53E-06,0.020080001
,,,-4.52E-06,0.019845001
,,,-4.51E-06,0.019894376
,,,-4.5E-06,0.019823126
,,,-4.49E-06,0.019853751
,,,-4.48E-06,0.020085001
,,,-4.47E-06,0.020224376
,,,-4.46E-06,0.019805001
,,,-4.45E-06,0.020002501
,,,-4.44E-06,0.019816876
,,,-4.43E-06,0.019918751
,,,-4.42E-06,0.020161876
,,,-4.41E-06,0.020211876
,,,-4.4E-06,0.019986251
,,,-4.39E-06,0.019888751
,,,-4.38E-06,0.020278751
,,,-4.37E-06,0.020260001
,,,-4.36E-06,0.020030001
,,,-4.35E-06,0.019976251
,,,-4.34E-06,0.020031876
,,,-4.33E-06,0.020099376
,,,-4.32E-06,0.019937501
,,,-4.31E-06,0.020107501
,,,-4.3E-06,0.019735626
,,,-4.29E-06,0.020093126
,,,-4.28E-06,0.019968751
,,,-4.27E-06,0.019768751
,,,-4.26E-06,0.019804376
,,,-4.25E-06,0.020010626
,,,-4.24E-06,0.019765626
,,,-4.23E-06,0.019991876
,,,-4.22E-06,0.020026251
,,,-4.21E-06,0.019923751
,,,-4.2E-06,0.020021876
,,,-4.19E-06,0.019865001
,,,-4.18E-06,0.019935626
,,,-4.17E-06,0.020055626
,,,-4.16E-06,0.020046876
,,,-4.15E-06,0.020318126
,,,-4.14E-06,0.020136251
,,,-4.13E-06,0.020044376
,,,-4.12E-06,0.019950001
,,,-4.11E-06,0.020066251
,,,-4.1E-06,0.019799376
,,,-4.09E-06,0.020043126
,,,-4.08E-06,0.019736876
,,,-4.07E-06,0.020063126
,,,-4.06E-06,0.019892501
,,,-4.05E-06,0.020072501
,,,-4.04E-06,0.020053751
,,,-4.03E-06,0.019803126
,,,-4.02E-06,0.019906251
,,,-4.01E-06,0.019840626
,,,-4E-06,0.019960001
,,,-3.99E-06,0.019987501
,,,-3.98E-06,0.020145626
,,,-3.97E-06,0.019743126
,,,-3.96E-06,0.019842501
,,,-3.95E-06,0.020134376
,,,-3.94E-06,0.019978126
,,,-3.93E-06,0.019970626
,,,-3.92E-06,0.019903751
,,,-3.91E-06,0.020015001
,,,-3.9E-06,0.019996251
,,,-3.89E-06,0.019930001
,,,-3.88E-06,0.019903751
,,,-3.87E-06,0.019935001
,,,-3.86E-06,0.019975626
,,,-3.85E-06,0.019960001
,,,-3.84E-06,0.020093751
,,,-3.83E-06,0.019915001
,,,-3.82E-06,0.019970001
,,,-3.81E-06,0.020156251
,,,-3.8E-06,0.019888126
,,,-3.79E-06,0.019860001
,,,-3.78E-06,0.020151251
,,,-3.77E-06,0.019999376
,,,-3.76E-06,0.020150001
,,,-3.75E-06,0.019983126
,,,-3.74E-06,0.020035626
,,,-3.73E-06,0.019997501
,,,-3.72E-06,0.019878751
,,,-3.71E-06,0.019989376
,,,-3.7E-06,0.019880626
,,,-3.69E-06,0.020138751
,,,-3.68E-06,0.019990001
,,,-3.67E-06,0.020153751
,,,-3.66E-06,0.019935626
,,,-3.65E-06,0.019866251
,,,-3.64E-06,0.020297501
,,,-3.63E-06,0.020042501
,,,-3.62E-06,0.019976251
,,,-3.61E-06,0.020075001
,,,-3.6E-06,0.020207501
,,,-3.59E-06,0.020278126
,,,-3.58E-06,0.020138126
,,,-3.57E-06,0.020074376
,,,-3.56E-06,0.019988751
,,,-3.55E-06,0.020255626
,,,-3.54E-06,0.020308126
,,,-3.53E-06,0.019968126
,,,-3.52E-06,0.020165001
,,,-3.51E-06,0.020050626
,,,-3.5E-06,0.019791876
,,,-3.49E-06,0.020258751
,,,-3.48E-06,0.019900626
,,,-3.47E-06,0.020013126
,,,-3.46E-06,0.020273751
,,,-3.45E-06,0.020178126
,,,-3.44E-06,0.019934376
,,,-3.43E-06,0.019825001
,,,-3.42E-06,0.019822501
,,,-3.41E-06,0.020045626
,,,-3.4E-06,0.019910001
,,,-3.39E-06,0.020055626
,,,-3.38E-06,0.019744376
,,,-3.37E-06,0.020048751
,,,-3.36E-06,0.020228126
,,,-3.35E-06,0.020025001
,,,-3.34E-06,0.019833751
,,,-3.33E-06,0.019880626
,,,-3.32E-06,0.019914376
,,,-3.31E-06,0.019993126
,,,-3.3E-06,0.019916876
,,,-3.29E-06,0.020170001
,,,-3.28E-06,0.019990626
,,,-3.27E-06,0.020026251
,,,-3.26E-06,0.019815626
,,,-3.25E-06,0.019848751
,,,-3.24E-06,0.019950626
,,,-3.23E-06,0.020074376
,,,-3.22E-06,0.020165001
,,,-3.21E-06,0.019685626
,,,-3.2E-06,0.020169376
,,,-3.19E-06,0.019701251
,,,-3.18E-06,0.019961251
,,,-3.17E-06,0.020020626
,,,-3.16E-06,0.019991876
,,,-3.15E-06,0.019908751
,,,-3.14E-06,0.020084376
,,,-3.13E-06,0.020154376
,,,-3.12E-06,0.020170626
,,,-3.11E-06,0.019920626
,,,-3.1E-06,0.020100001
,,,-3.09E-06,0.019780626
,,,-3.08E-06,0.020131251
,,,-3.07E-06,0.019888126
,,,-3.06E-06,0.020073751
,,,-3.05E-06,0.019973126
,,,-3.04E-06,0.019903751
,,,-3.03E-06,0.019836876
,,,-3.02E-06,0.020110001
,,,-3.01E-06,0.020110626
,,,-3E-06,0.019865626
,,,-2.99E-06,0.019677501
,,,-2.98E-06,0.019890001
,,,-2.97E-06,0.019838126
,,,-2.96E-06,0.019915626
,,,-2.95E-06,0.019806876
,,,-2.94E-06,0.019715001
,,,-2.93E-06,0.019965001
,,,-2.92E-06,0.019887501
,,,-2.91E-06,0.020056251
,,,-2.9E-06,0.019903751
,,,-2.89E-06,0.020086876
,,,-2.88E-06,0.019904376
,,,-2.87E-06,0.019884376
,,,-2.86E-06,0.019990626
,,,-2.85E-06,0.020196251
,,,-2.84E-06,0.020124376
,,,-2.83E-06,0.019980001
,,,-2.82E-06,0.020365626
,,,-2.81E-06,0.019966876
,,,-2.8E-06,0.019886251
,,,-2.79E-06,0.019905626
,,,-2.78E-06,0.019736251
,,,-2.77E-06,0.020020626
,,,-2.76E-06,0.019994376
,,,-2.75E-06,0.020069376
,,,-2.74E-06,0.019923126
,,,-2.73E-06,0.019846876
,,,-2.72E-06,0.020126251
,,,-2.71E-06,0.020181251
,,,-2.7E-06,0.019939376
,,,-2.69E-06,0.020003751
,,,-2.68E-06,0.019857501
,,,-2.67E-06,0.020188751
,,,-2.66E-06,0.020046876
,,,-2.65E-06,0.019826876
,,,-2.64E-06,0.020056251
,,,-2.63E-06,0.020136876
,,,-2.62E-06,0.020236251
,,,-2.61E-06,0.020022501
,,,-2.6E-06,0.019976251
,,,-2.59E-06,0.020194376
,,,-2.58E-06,0.019840626
,,,-2.57E-06,0.019912501
,,,-2.56E-06,0.019970001
,,,-2.55E-06,0.020005001
,,,-2.54E-06,0.019946876
,,,-2.53E-06,0.019821251
,,,-2.52E-06,0.019838126
,,,-2.51E-06,0.020026876
,,,-2.5E-06,0.019886876
,,,-2.49E-06,0.019879376
,,,-2.48E-06,0.020165001
,,,-2.47E-06,0.019916251
,,,-2.46E-06,0.020014376
,,,-2.45E-06,0.019890001
,,,-2.44E-06,0.019933751
,,,-2.43E-06,0.020081876
,,,-2.42E-06,0.019883126
,,,-2.41E-06,0.020146876
,,,-2.4E-06,0.020058126
,,,-2.39E-06,0.020101876
,,,-2.38E-06,0.019966251
,,,-2.37E-06,0.019856251
,,,-2.36E-06,0.019791876
,,,-2.35E-06,0.020081876
,,,-2.34E-06,0.019883751
,,,-2.33E-06,0.019986251
,,,-2.32E-06,0.019948751
,,,-2.31E-06,0.019940001
,,,-2.3E-06,0.019835001
,,,-2.29E-06,0.019930626
,,,-2.28E-06,0.020005626
,,,-2.27E-06,0.020377501
,,,-2.26E-06,0.019951876
,,,-2.25E-06,0.019962501
,,,-2.24E-06,0.020109376
,,,-2.23E-06,0.020168751
,,,-2.22E-06,0.019836876
,,,-2.21E-06,0.020023751
,,,-2.2E-06,0.019973126
,,,-2.19E-06,0.020101876
,,,-2.18E-06,0.019786876
,,,-2.17E-06,0.020001876
,,,-2.16E-06,0.019998126
,,,-2.15E-06,0.020058751
,,,-2.14E-06,0.019966251
,,,-2.13E-06,0.019959376
,,,-2.12E-06,0.019982501
,,,-2.11E-06,0.020148126
,,,-2.1E-06,0.019915626
,,,-2.09E-06,0.020070626
,,,-2.08E-06,0.019858751
,,,-2.07E-06,0.019905001
,,,-2.06E-06,0.020015626
,,,-2.05E-06,0.020184376
,,,-2.04E-06,0.019689376
,,,-2.03E-06,0.019998126
,,,-2.02E-06,0.020091251
,,,-2.01E-06,0.020134376
,,,-2E-06,0.020010626
,,,-1.99E-06,0.019816876
,,,-1.98E-06,0.019930626
,,,-1.97E-06,0.019695626
,,,-1.96E-06,0.019821251
,,,-1.95E-06,0.019950001
,,,-1.94E-06,0.020131876
,,,-1.93E-06,0.019882501
,,,-1.92E-06,0.020112501
,,,-1.91E-06,0.020082501
,,,-1.9E-06,0.020074376
,,,-1.89E-06,0.020040626
,,,-1.88E-06,0.019963126
,,,-1.87E-06,0.020000626
,,,-1.86E-06,0.020259376
,,,-1.85E-06,0.020083751
,,,-1.84E-06,0.020026876
,,,-1.83E-06,0.019809376
,,,-1.82E-06,0.020072501
,,,-1.81E-06,0.020105626
,,,-1.8E-06,0.020208126
,,,-1.79E-06,0.020031251
,,,-1.78E-06,0.019941876
,,,-1.77E-06,0.019945626
,,,-1.76E-06,0.019970626
,,,-1.75E-06,0.020025001
,,,-1.74E-06,0.020022501
,,,-1.73E-06,0.019768126
,,,-1.72E-06,0.019877501
,,,-1.71E-06,0.019925001
,,,-1.7E-06,0.019883126
,,,-1.69E-06,0.020015626
,,,-1.68E-06,0.019854376
,,,-1.67E-06,0.020027501
,,,-1.66E-06,0.020033751
,,,-1.65E-06,0.020118126
,,,-1.64E-06,0.019977501
,,,-1.63E-06,0.019804376
,,,-1.62E-06,0.019900626
,,,-1.61E-06,0.019963751
,,,-1.6E-06,0.019821251
,,,-1.59E-06,0.019983751
,,,-1.58E-06,0.020213126
,,,-1.57E-06,0.019866876
,,,-1.56E-06,0.019820001
,,,-1.55E-06,0.019891876
,,,-1.54E-06,0.019553751
,,,-1.53E-06,0.019990001
,,,-1.52E-06,0.020063126
,,,-1.51E-06,0.019745626
,,,-1.5E-06,0.020016876
,,,-1.49E-06,0.019980001
,,,-1.48E-06,0.020000001
,,,-1.47E-06,0.019970626
,,,-1.46E-06,0.019893126
,,,-1.45E-06,0.019993126
,,,-1.44E-06,0.019901251
,,,-1.43E-06,0.019953126
,,,-1.42E-06,0.020164376
,,,-1.41E-06,0.019965001
,,,-1.4E-06,0.020006251
,,,-1.39E-06,0.020161876
,,,-1.38E-06,0.019941876
,,,-1.37E-06,0.019855626
,,,-1.36E-06,0.020027501
,,,-1.35E-06,0.019862501
,,,-1.34E-06,0.019828126
,,,-1.33E-06,0.020043751
,,,-1.32E-06,0.019890001
,,,-1.31E-06,0.020115001
,,,-1.3E-06,0.019907501
,,,-1.29E-06,0.020108751
,,,-1.28E-06,0.020261251
,,,-1.27E-06,0.019790001
,,,-1.26E-06,0.019955626
,,,-1.25E-06,0.019745626
,,,-1.24E-06,0.020006876
,,,-1.23E-06,0.019740001
,,,-1.22E-06,0.020083751
,,,-1.21E-06,0.019843126
,,,-1.2E-06,0.020015001
,,,-1.19E-06,0.019982501
,,,-1.18E-06,0.019909376
,,,-1.17E-06,0.019927501
,,,-1.16E-06,0.019952501
,,,-1.15E-06,0.019836876
,,,-1.14E-06,0.019865626
,,,-1.13E-06,0.019968126
,,,-1.12E-06,0.020026876
,,,-1.11E-06,0.020138751
,,,-1.1E-06,0.019845626
,,,-1.09E-06,0.020035001
,,,-1.08E-06,0.020099376
,,,-1.07E-06,0.019937501
,,,-1.06E-06,0.019913126
,,,-1.05E-06,0.020091251
,,,-1.04E-06,0.020206251
,,,-1.03E-06,0.020123751
,,,-1.02E-06,0.019873751
,,,-1.01E-06,0.020082501
,,,-1E-06,0.019923126
,,,-9.9E-07,0.020066876
,,,-9.8E-07,0.020108751
,,,-9.7E-07,0.019782501
,,,-9.6E-07,0.020130001
,,,-9.5E-07,0.020053126
,,,-9.4E-07,0.020021876
,,,-9.3E-07,0.019937501
,,,-9.2E-07,0.019914376
,,,-9.1E-07,0.019944376
,,,-9E-07,0.019644376
,,,-8.9E-07,0.020165001
,,,-8.8E-07,0.020140626
,,,-8.7E-07,0.020234376
,,,-8.6E-07,0.019885626
,,,-8.5E-07,0.019891251
,,,-8.4E-07,0.019988126
,,,-8.3E-07,0.019822501
,,,-8.2E-07,0.019888126
,,,-8.1E-07,0.019824376
,,,-8E-07,0.019885001
,,,-7.9E-07,0.019880001
,,,-7.8E-07,0.020251876
,,,-7.7E-07,0.020016876
,,,-7.6E-07,0.020226876
,,,-7.5E-07,0.019959376
,,,-7.4E-07,0.020100626
,,,-7.3E-07,0.020082501
,,,-7.2E-07,0.020420626
,,,-7.1E-07,0.020001251
,,,-7E-07,0.020028751
,,,-6.9E-07,0.020020001
,,,-6.8E-07,0.020182501
,,,-6.7E-07,0.020080626
,,,-6.6E-07,0.019926251
,,,-6.5E-07,0.019930001
,,,-6.4E-07,0.020062501
,,,-6.3E-07,0.020051876
,,,-6.2E-07,0.020067501
,,,-6.1E-07,0.020156251
,,,-6E-07,0.020087501
,,,-5.9E-07,0.019976251
,,,-5.8E-07,0.019952501
,,,-5.7E-07,0.019968751
,,,-5.6E-07,0.020243751
,,,-5.5E-07,0.019850626
,,,-5.4E-07,0.020244376
,,,-5.3E-07,0.019831251
,,,-5.2E-07,0.019917501
,,,-5.1E-07,0.020083751
,,,-5E-07,0.019796251
,,,-4.9E-07,0.020020001
,,,-4.8E-07,0.019943126
,,,-4.7E-07,0.020006876
,,,-4.6E-07,0.019935001
,,,-4.5E-07,0.019950626
,,,-4.4E-07,0.019816251
,,,-4.3E-07,0.019860626
,,,-4.2E-07,0.020183126
,,,-4.1E-07,0.019855626
,,,-4E-07,0.020125626
,,,-3.9E-07,0.020031876
,,,-3.8E-07,0.019776876
,,,-3.7E-07,0.020051876
,,,-3.6E-07,0.020056251
,,,-3.5E-07,0.020216876
,,,-3.4E-07,0.019782501
,,,-3.3E-07,0.019958126
,,,-3.2E-07,0.019913126
,,,-3.1E-07,0.020105001
,,,-3E-07,0.020066251
,,,-2.9E-07,0.020036876
,,,-2.8E-07,0.019925626
,,,-2.7E-07,0.020223751
,,,-2.6E-07,0.019810001
,,,-2.5E-07,0.020129376
,,,-2.4E-07,0.019844376
,,,-2.3E-07,0.020056876
,,,-2.2E-07,0.020011251
,,,-2.1E-07,0.019926251
,,,-2E-07,0.020147501
,,,-1.9E-07,0.019903126
,,,-1.8E-07,0.020088126
,,,-1.7E-07,0.019941876
,,,-1.6E-07,0.019976251
,,,-1.5E-07,0.019946251
,,,-1.4E-07,0.020195001
,,,-1.3E-07,0.020281876
,,,-1.2E-07,0.019925626
,,,-1.1E-07,0.020063751
,,,-1E-07,0.019826876
,,,-9E-08,0.019876876
,,,-8E-08,0.020017501
,,,-7E-08,0.019987501
,,,-6E-08,0.019899376
,,,-5E-08,0.019713126
,,,-4E-08,0.020448751
,,,-3E-08,0.020317501
,,,-2E-08,0.019508126
,,,-1E-08,0.018989376
,,,0,0.019821251
,,,1E-08,0.020595001
,,,2E-08,0.021555001
,,,3E-08,0.020687501
,,,4E-08,0.020000001
,,,5E-08,0.019167501
,,,6E-08,0.019234376
,,,7E-08,0.019650626
,,,8E-08,0.020410626
,,,9E-08,0.020506876
,,,1E-07,0.020238751
,,,1.1E-07,0.020168751
,,,1.2E-07,0.019552501
,,,1.3E-07,0.019713751
,,,1.4E-07,0.019736876
,,,1.5E-07,0.020176876
,,,1.6E-07,0.020262501
,,,1.7E-07,0.019950626
,,,1.8E-07,0.020011876
,,,1.9E-07,0.019902501
,,,2E-07,0.020124376
,,,2.1E-07,0.019857501
,,,2.2E-07,0.019626876
,,,2.3E-07,0.020084376
,,,2.4E-07,0.020128126
,,,2.5E-07,0.020071251
,,,2.6E-07,0.020237501
,,,2.7E-07,0.019885626
,,,2.8E-07,0.019988126
,,,2.9E-07,0.020085626
,,,3E-07,0.019850626
,,,3.1E-07,0.020085001
,,,3.2E-07,0.020200001
,,,3.3E-07,0.019946251
,,,3.4E-07,0.019880001
,,,3.5E-07,0.019996876
,,,3.6E-07,0.020011876
,,,3.7E-07,0.019866876
,,,3.8E-07,0.019976251
,,,3.9E-07,0.020120001
,,,4E-07,0.019946876
,,,4.1E-07,0.020168126
,,,4.2E-07,0.020115001
,,,4.3E-07,0.019755001
,,,4.4E-07,0.020027501
,,,4.5E-07,0.019831251
,,,4.6E-07,0.020130001
,,,4.7E-07,0.019911876
,,,4.8E-07,0.020140001
,,,4.9E-07,0.020006251
,,,5E-07,0.020095626
,,,5.1E-07,0.019793751
,,,5.2E-07,0.019955001
,,,5.3E-07,0.020013126
,,,5.4E-07,0.020231251
,,,5.5E-07,0.019908126
,,,5.6E-07,0.020047501
,,,5.7E-07,0.020126876
,,,5.8E-07,0.019948751
,,,5.9E-07,0.019964376
,,,6E-07,0.020032501
,,,6.1E-07,0.019825001
,,,6.2E-07,0.019831876
,,,6.3E-07,0.019861876
,,,6.4E-07,0.019803126
,,,6.5E-07,0.020118751
,,,6.6E-07,0.020198126
,,,6.7E-07,0.019847501
,,,6.8E-07,0.019950001
,,,6.9E-07,0.020145001
,,,7E-07,0.020088751
,,,7.1E-07,0.019966876
,,,7.2E-07,0.020050001
,,,7.3E-07,0.020082501
,,,7.4E-07,0.019930001
,,,7.5E-07,0.020288126
,,,7.6E-07,0.020106876
,,,7.7E-07,0.019923126
,,,7.8E-07,0.019950001
,,,7.9E-07,0.019951876
,,,8E-07,0.019899376
,,,8.1E-07,0.019938751
,,,8.2E-07,0.020065001
,,,8.3E-07,0.020139376
,,,8.4E-07,0.020081876
,,,8.5E-07,0.019976876
,,,8.6E-07,0.019933126
,,,8.7E-07,0.019879376
,,,8.8E-07,0.020123126
,,,8.9E-07,0.020126876
,,,9E-07,0.019965626
,,,9.1E-07,0.020190626
,,,9.2E-07,0.019950626
,,,9.3E-07,0.020138751
,,,9.4E-07,0.019991876
,,,9.5E-07,0.020008751
,,,9.6E-07,0.019870001
,,,9.7E-07,0.020176251
,,,9.8E-07,0.020164376
,,,9.9E-07,0.020290626
,,,1E-06,0.020241251
,,,1.01E-06,0.019970626
,,,1.02E-06,0.019873126
,,,1.03E-06,0.020004376
,,,1.04E-06,0.020020001
,,,1.05E-06,0.020198751
,,,1.06E-06,0.019918751
,,,1.07E-06,0.020022501
,,,1.08E-06,0.020006251
,,,1.09E-06,0.020014376
,,,1.1E-06,0.020288126
,,,1.11E-06,0.020030626
,,,1.12E-06,0.020009376
,,,1.13E-06,0.020061876
,,,1.14E-06,0.019950626
,,,1.15E-06,0.019875626
,,,1.16E-06,0.020016876
,,,1.17E-06,0.020069376
,,,1.18E-06,0.019836876
,,,1.19E-06,0.020071876
,,,1.2E-06,0.020054376
,,,1.21E-06,0.019976251
,,,1.22E-06,0.020248126
,,,1.23E-06,0.020053751
,,,1.24E-06,0.019927501
,,,1.25E-06,0.020062501
,,,1.26E-06,0.020036876
,,,1.27E-06,0.020290001
,,,1.28E-06,0.020355001
,,,1.29E-06,0.019981876
,,,1.3E-06,0.020034376
,,,1.31E-06,0.019872501
,,,1.32E-06,0.020049376
,,,1.33E-06,0.019912501
,,,1.34E-06,0.020011876
,,,1.35E-06,0.020019376
,,,1.36E-06,0.019992501
,,,1.37E-06,0.020000001
,,,1.38E-06,0.020136251
,,,1.39E-06,0.019768126
,,,1.4E-06,0.020021251
,,,1.41E-06,0.019822501
,,,1.42E-06,0.019862501
,,,1.43E-06,0.019883126
,,,1.44E-06,0.019865001
,,,1.45E-06,0.020056876
,,,1.46E-06,0.019993126
,,,1.47E-06,0.020116251
,,,1.48E-06,0.020078751
,,,1.49E-06,0.019973751
,,,1.5E-06,0.019938751
,,,1.51E-06,0.019943751
,,,1.52E-06,0.019821876
,,,1.53E-06,0.019769376
,,,1.54E-06,0.019870626
,,,1.55E-06,0.020048751
,,,1.56E-06,0.019911876
,,,1.57E-06,0.020070001
,,,1.58E-06,0.020054376
,,,1.59E-06,0.020098126
,,,1.6E-06,0.019878126
,,,1.61E-06,0.019942501
,,,1.62E-06,0.019856876
,,,1.63E-06,0.019938751
,,,1.64E-06,0.020191876
,,,1.65E-06,0.019907501
,,,1.66E-06,0.019977501
,,,1.67E-06,0.019955001
,,,1.68E-06,0.020056876
,,,1.69E-06,0.020021251
,,,1.7E-06,0.019936876
,,,1.71E-06,0.020131876
,,,1.72E-06,0.020170626
,,,1.73E-06,0.020037501
,,,1.74E-06,0.020106251
,,,1.75E-06,0.019900626
,,,1.76E-06,0.020081876
,,,1.77E-06,0.019884376
,,,1.78E-06,0.019983751
,,,1.79E-06,0.020222501
,,,1.8E-06,0.020107501
,,,1.81E-06,0.020100626
,,,1.82E-06,0.020241251
,,,1.83E-06,0.020016251
,,,1.84E-06,0.019734376
,,,1.85E-06,0.020128126
,,,1.86E-06,0.020076251
,,,1.87E-06,0.020028751
,,,1.88E-06,0.020109376
,,,1.89E-06,0.020223751
,,,1.9E-06,0.020136876
,,,1.91E-06,0.019968751
,,,1.92E-06,0.019757501
,,,1.93E-06,0.020101876
,,,1.94E-06,0.019983751
,,,1.95E-06,0.019600001
,,,1.96E-06,0.019743126
,,,1.97E-06,0.020048751
,,,1.98E-06,0.020135001
,,,1.99E-06,0.019947501
,,,2E-06,0.019830001
,,,2.01E-06,0.019967501
,,,2.02E-06,0.019940001
,,,2.03E-06,0.020169376
,,,2.04E-06,0.020036251
,,,2.05E-06,0.020128126
,,,2.06E-06,0.019834376
,,,2.07E-06,0.020072501
,,,2.08E-06,0.020127501
,,,2.09E-06,0.020056876
,,,2.1E-06,0.019832501
,,,2.11E-06,0.019865626
,,,2.12E-06,0.020013751
,,,2.13E-06,0.020202501
,,,2.14E-06,0.019911876
,,,2.15E-06,0.020350001
,,,2.16E-06,0.019886251
,,,2.17E-06,0.019998126
,,,2.18E-06,0.019841251
,,,2.19E-06,0.019897501
,,,2.2E-06,0.020025626
,,,2.21E-06,0.019947501
,,,2.22E-06,0.019733751
,,,2.23E-06,0.020242501
,,,2.24E-06,0.019979376
,,,2.25E-06,0.020031876
,,,2.26E-06,0.019927501
,,,2.27E-06,0.020054376
,,,2.28E-06,0.020118751
,,,2.29E-06,0.020010626
,,,2.3E-06,0.020043126
,,,2.31E-06,0.019816251
,,,2.32E-06,0.019767501
,,,2.33E-06,0.019880626
,,,2.34E-06,0.020075001
,,,2.35E-06,0.020175001
,,,2.36E-06,0.019960626
,,,2.37E-06,0.020076876
,,,2.38E-06,0.020051251
,,,2.39E-06,0.019932501
,,,2.4E-06,0.019873751
,,,2.41E-06,0.020090001
,,,2.42E-06,0.019893126
,,,2.43E-06,0.019941251
,,,2.44E-06,0.019871876
,,,2.45E-06,0.020010626
,,,2.46E-06,0.019811251
,,,2.47E-06,0.019706251
,,,2.48E-06,0.020002501
,,,2.49E-06,0.019815626
,,,2.5E-06,0.020095001
,,,2.51E-06,0.019955626
,,,2.52E-06,0.019891251
,,,2.53E-06,0.020046876
,,,2.54E-06,0.020103126
,,,2.55E-06,0.020014376
,,,2.56E-06,0.020188751
,,,2.57E-06,0.019991251
,,,2.58E-06,0.020067501
,,,2.59E-06,0.019818126
,,,2.6E-06,0.019873751
,,,2.61E-06,0.019974376
,,,2.62E-06,0.020282501
,,,2.63E-06,0.019904376
,,,2.64E-06,0.019916251
,,,2.65E-06,0.019996251
,,,2.66E-06,0.020043751
,,,2.67E-06,0.020130626
,,,2.68E-06,0.020111251
,,,2.69E-06,0.019830626
,,,2.7E-06,0.019945626
,,,2.71E-06,0.019870001
,,,2.72E-06,0.020058751
,,,2.73E-06,0.019749376
,,,2.74E-06,0.019965626
,,,2.75E-06,0.020126876
,,,2.76E-06,0.019936251
,,,2.77E-06,0.020172501
,,,2.78E-06,0.020106251
,,,2.79E-06,0.019961251
,,,2.8E-06,0.019888126
,,,2.81E-06,0.019906251
,,,2.82E-06,0.019867501
,,,2.83E-06,0.020039376
,,,2.84E-06,0.020099376
,,,2.85E-06,0.019996876
,,,2.86E-06,0.020026876
,,,2.87E-06,0.020126876
,,,2.88E-06,0.019938126
,,,2.89E-06,0.019863751
,,,2.9E-06,0.019931876
,,,2.91E-06,0.019772501
,,,2.92E-06,0.020013126
,,,2.93E-06,0.019859376
,,,2.94E-06,0.020044376
,,,2.95E-06,0.020051876
,,,2.96E-06,0.019909376
,,,2.97E-06,0.019758126
,,,2.98E-06,0.019918751
,,,2.99E-06,0.019833126
,,,3E-06,0.019906251
,,,3.01E-06,0.020040001
,,,3.02E-06,0.020056876
,,,3.03E-06,0.019941251
,,,3.04E-06,0.020074376
,,,3.05E-06,0.019833751
,,,3.06E-06,0.019868126
,,,3.07E-06,0.019991251
,,,3.08E-06,0.019818751
,,,3.09E-06,0.020078751
,,,3.1E-06,0.020154376
,,,3.11E-06,0.020078751
,,,3.12E-06,0.019838126
,,,3.13E-06,0.019861876
,,,3.14E-06,0.019928751
,,,3.15E-06,0.019897501
,,,3.16E-06,0.019983126
,,,3.17E-06,0.020107501
,,,3.18E-06,0.020008126
,,,3.19E-06,0.019980001
,,,3.2E-06,0.020019376
,,,3.21E-06,0.019956876
