data/raw/Final_POL_Test_1/SOP066_Ch2.csv

"Record Length",1000,"Points",-5E-06,0.02081125
"Sample Interval",1E-08,s,-4.99E-06,0.020645625
"Trigger Point",500,"Samples",-4.98E-06,0.020778125
"Trigger Time",0,s,-4.97E-06,0.020945625
"",,,-4.96E-06,0.020744375
"Horizontal Offset",-5E-06,s,-4.95E-06,0.020961875
,,,-4.94E-06,0.02083625
,,,-4.93E-06,0.02056
,,,-4.92E-06,0.020748125
,,,-4.91E-06,0.020865
,,,-4.9E-06,0.020850625
,,,-4.89E-06,0.020949375
,,,-4.88E-06,0.020631875
,,,-4.87E-06,0.02101875
,,,-4.86E-06,0.020713125
,,,-4.85E-06,0.0207025
,,,-4.84E-06,0.020788125
,,,-4.83E-06,0.020625625
,,,-4.82E-06,0.02085125
,,,-4.81E-06,0.02109875
,,,-4.8E-06,0.020793125
,,,-4.79E-06,0.021059375
,,,-4.78E-06,0.020673125
,,,-4.77E-06,0.020690625
,,,-4.76E-06,0.02056875
,,,-4.75E-06,0.02072625
,,,-4.74E-06,0.02085625
,,,-4.73E-06,0.020835
,,,-4.72E-06,0.020765
,,,-4.71E-06,0.020778125
,,,-4.7E-06,0.020769375
,,,-4.69E-06,0.020915625
,,,-4.68E-06,0.02068625
,,,-4.67E-06,0.020874375
,,,-4.66E-06,0.02072875
,,,-4.65E-06,0.0208375
,,,-4.64E-06,0.0206925
,,,-4.63E-06,0.02089125
,,,-4.62E-06,0.020915
,,,-4.61E-06,0.02079
,,,-4.6E-06,0.020941875
,,,-4.59E-06,0.0207275
,,,-4.58E-06,0.020811875
,,,-4.57E-06,0.020845
,,,-4.56E-06,0.020833125
,,,-4.55E-06,0.020769375
,,,-4.54E-06,0.0205725
,,,-4.53E-06,0.020939375
,,,-4.52E-06,0.020768125
,,,-4.51E-06,0.020664375
,,,-4.5E-06,0.02083125
,,,-4.49E-06,0.0207575
,,,-4.48E-06,0.021145625
,,,-4.47E-06,0.0209525
,,,-4.46E-06,0.020813125
,,,-4.45E-06,0.020779375
,,,-4.44E-06,0.0208325
,,,-4.43E-06,0.020775
,,,-4.42E-06,0.020669375
,,,-4.41E-06,0.020753125
,,,-4.4E-06,0.020796875
,,,-4.39E-06,0.021045625
,,,-4.38E-06,0.020849375
,,,-4.37E-06,0.0206625
,,,-4.36E-06,0.0208075
,,,-4.35E-06,0.02101875
,,,-4.34E-06,0.020960625
,,,-4.33E-06,0.020515
,,,-4.32E-06,0.020889375
,,,-4.31E-06,0.020846875
,,,-4.3E-06,0.02084875
,,,-4.29E-06,0.021029375
,,,-4.28E-06,0.021070625
,,,-4.27E-06,0.02086125
,,,-4.26E-06,0.020688125
,,,-4.25E-06,0.021090625
,,,-4.24E-06,0.020655625
,,,-4.23E-06,0.020585
,,,-4.22E-06,0.020721875
,,,-4.21E-06,0.020871875
,,,-4.2E-06,0.02074875
,,,-4.19E-06,0.0211025
,,,-4.18E-06,0.02095375
,,,-4.17E-06,0.02088625
,,,-4.16E-06,0.02066125
,,,-4.15E-06,0.02063375
,,,-4.14E-06,0.020799375
,,,-4.13E-06,0.02093875
,,,-4.12E-06,0.02073625
,,,-4.11E-06,0.02080875
,,,-4.1E-06,0.02058125
,,,-4.09E-06,0.02097
,,,-4.08E-06,0.02088
,,,-4.07E-06,0.020825625
,,,-4.06E-06,0.02081125
,,,-4.05E-06,0.020850625
,,,-4.04E-06,0.020770625
,,,-4.03E-06,0.02074375
,,,-4.02E-06,0.020661875
,,,-4.01E-06,0.020674375
,,,-4E-06,0.02074
,,,-3.99E-06,0.020664375
,,,-3.98E-06,0.0208575
,,,-3.97E-06,0.0208475
,,,-3.96E-06,0.020970625
,,,-3.95E-06,0.02070625
,,,-3.94E-06,0.0209225
,,,-3.93E-06,0.020756875
,,,-3.92E-06,0.02075625
,,,-3.91E-06,0.02098
,,,-3.9E-06,0.02062
,,,-3.89E-06,0.020806875
,,,-3.88E-06,0.02083
,,,-3.87E-06,0.02055
,,,-3.86E-06,0.02081125
,,,-3.85E-06,0.021159375
,,,-3.84E-06,0.021008125
,,,-3.83E-06,0.020981875
,,,-3.82E-06,0.020946875
,,,-3.81E-06,0.0207
,,,-3.8E-06,0.0209525
,,,-3.79E-06,0.02079625
,,,-3.78E-06,0.020834375
,,,-3.77E-06,0.020818125
,,,-3.76E-06,0.0209775
,,,-3.75E-06,0.021094375
,,,-3.74E-06,0.02086
,,,-3.73E-06,0.02056625
,,,-3.72E-06,0.020936875
,,,-3.71E-06,0.020901875
,,,-3.7E-06,0.020891875
,,,-3.69E-06,0.02106875
,,,-3.68E-06,0.02081875
,,,-3.67E-06,0.021004375
,,,-3.66E-06,0.02088625
,,,-3.65E-06,0.020710625
,,,-3.64E-06,0.020861875
,,,-3.63E-06,0.020888125
,,,-3.62E-06,0.020735
,,,-3.61E-06,0.020549375
,,,-3.6E-06,0.02062
,,,-3.59E-06,0.021011875
,,,-3.58E-06,0.020731875
,,,-3.57E-06,0.02082375
,,,-3.56E-06,0.021078125
,,,-3.55E-06,0.020765
,,,-3.54E-06,0.020678125
,,,-3.53E-06,0.020924375
,,,-3.52E-06,0.020665
,,,-3.51E-06,0.020950625
,,,-3.5E-06,0.020789375
,,,-3.49E-06,0.02088125
,,,-3.48E-06,0.02083
,,,-3.47E-06,0.02092
,,,-3.46E-06,0.020810625
,,,-3.45E-06,0.020809375
,,,-3.44E-06,0.021000625
,,,-3.43E-06,0.020765625
,,,-3.42E-06,0.02070875
,,,-3.41E-06,0.020860625
,,,-3.4E-06,0.020980625
,,,-3.39E-06,0.020954375
,,,-3.38E-06,0.020773125
,,,-3.37E-06,0.02087
,,,-3.36E-06,0.021014375
,,,-3.35E-06,0.02107875
,,,-3.34E-06,0.020655625
,,,-3.33E-06,0.0207725
,,,-3.32E-06,0.020751875
,,,-3.31E-06,0.02089375
,,,-3.3E-06,0.02070875
,,,-3.29E-06,0.02071875
,,,-3.28E-06,0.020708125
,,,-3.27E-06,0.020878125
,,,-3.26E-06,0.020945625
,,,-3.25E-06,0.021009375
,,,-3.24E-06,0.020765
,,,-3.23E-06,0.0208675
,,,-3.22E-06,0.020890625
,,,-3.21E-06,0.02074875
,,,-3.2E-06,0.02072875
,,,-3.19E-06,0.02084125
,,,-3.18E-06,0.02065
,,,-3.17E-06,0.0208175
,,,-3.16E-06,0.02068125
,,,-3.15E-06,0.020800625
,,,-3.14E-06,0.02065375
,,,-3.13E-06,0.02070375
,,,-3.12E-06,0.020894375
,,,-3.11E-06,0.02084
,,,-3.1E-06,0.020629375
,,,-3.09E-06,0.0209
,,,-3.08E-06,0.020944375
,,,-3.07E-06,0.02122
,,,-3.06E-06,0.02076875
,,,-3.05E-06,0.020661875
,,,-3.04E-06,0.020565
,,,-3.03E-06,0.020865625
,,,-3.02E-06,0.020625
,,,-3.01E-06,0.020788125
,,,-3E-06,0.020791875
,,,-2.99E-06,0.021060625
,,,-2.98E-06,0.020650625
,,,-2.97E-06,0.020799375
,,,-2.96E-06,0.02064875
,,,-2.95E-06,0.02081875
,,,-2.94E-06,0.02071
,,,-2.93E-06,0.020681875
,,,-2.92E-06,0.020963125
,,,-2.91E-06,0.020879375
,,,-2.9E-06,0.021045
,,,-2.89E-06,0.02077125
,,,-2.88E-06,0.02087125
,,,-2.87E-06,0.0209125
,,,-2.86E-06,0.0206475
,,,-2.85E-06,0.020668125
,,,-2.84E-06,0.020859375
,,,-2.83E-06,0.020951875
,,,-2.82E-06,0.020694375
,,,-2.81E-06,0.020970625
,,,-2.8E-06,0.020864375
,,,-2.79E-06,0.020684375
,,,-2.78E-06,0.02069875
,,,-2.77E-06,0.020591875
,,,-2.76E-06,0.020735
,,,-2.75E-06,0.02093125
,,,-2.74E-06,0.02078625
,,,-2.73E-06,0.020944375
,,,-2.72E-06,0.02078875
,,,-2.71E-06,0.020988125
,,,-2.7E-06,0.0207725
,,,-2.69E-06,0.02084125
,,,-2.68E-06,0.02078875
,,,-2.67E-06,0.02095
,,,-2.66E-06,0.02089
,,,-2.65E-06,0.020669375
,,,-2.64E-06,0.020821875
,,,-2.63E-06,0.020635625
,,,-2.62E-06,0.0208775
,,,-2.61E-06,0.02066625
,,,-2.6E-06,0.021005625
,,,-2.59E-06,0.020789375
,,,-2.58E-06,0.020925625
,,,-2.57E-06,0.0206725
,,,-2.56E-06,0.02086375
,,,-2.55E-06,0.0209275
,,,-2.54E-06,0.020659375
,,,-2.53E-06,0.020916875
,,,-2.52E-06,0.0207025
,,,-2.51E-06,0.020885625
,,,-2.5E-06,0.020755
,,,-2.49E-06,0.0209925
,,,-2.48E-06,0.02088
,,,-2.47E-06,0.0205725
,,,-2.46E-06,0.020635625
,,,-2.45E-06,0.02082125
,,,-2.44E-06,0.021030625
,,,-2.43E-06,0.020735
,,,-2.42E-06,0.020735
,,,-2.41E-06,0.020965
,,,-2.4E-06,0.020925625
,,,-2.39E-06,0.020591875
,,,-2.38E-06,0.02066875
,,,-2.37E-06,0.020946875
,,,-2.36E-06,0.020694375
,,,-2.35E-06,0.02078
,,,-2.34E-06,0.02066375
,,,-2.33E-06,0.02115
,,,-2.32E-06,0.0207575
,,,-2.31E-06,0.0211225
,,,-2.3E-06,0.020886875
,,,-2.29E-06,0.0209075
,,,-2.28E-06,0.0208525
,,,-2.27E-06,0.020786875
,,,-2.26E-06,0.021010625
,,,-2.25E-06,0.02072625
,,,-2.24E-06,0.020718125
,,,-2.23E-06,0.020771875
,,,-2.22E-06,0.02084625
,,,-2.21E-06,0.020671875
,,,-2.2E-06,0.020796875
,,,-2.19E-06,0.0208125
,,,-2.18E-06,0.020688125
,,,-2.17E-06,0.021040625
,,,-2.16E-06,0.0207275
,,,-2.15E-06,0.02084875
,,,-2.14E-06,0.02060125
,,,-2.13E-06,0.0208275
,,,-2.12E-06,0.020699375
,,,-2.11E-06,0.0211775
,,,-2.1E-06,0.020863125
,,,-2.09E-06,0.02088
,,,-2.08E-06,0.020703125
,,,-2.07E-06,0.020853125
,,,-2.06E-06,0.020768125
,,,-2.05E-06,0.020895
,,,-2.04E-06,0.020745
,,,-2.03E-06,0.02091375
,,,-2.02E-06,0.0208725
,,,-2.01E-06,0.020766875
,,,-2E-06,0.020695625
,,,-1.99E-06,0.020920625
,,,-1.98E-06,0.020903125
,,,-1.97E-06,0.02068875
,,,-1.96E-06,0.020833125
,,,-1.95E-06,0.02076
,,,-1.94E-06,0.020714375
,,,-1.93E-06,0.020803125
,,,-1.92E-06,0.020976875
,,,-1.91E-06,0.0207825
,,,-1.9E-06,0.020780625
,,,-1.89E-06,0.02090625
,,,-1.88E-06,0.02079625
,,,-1.87E-06,0.020891875
,,,-1.86E-06,0.020753125
,,,-1.85E-06,0.02075625
,,,-1.84E-06,0.020820625
,,,-1.83E-06,0.02082375
,,,-1.82E-06,0.020919375
,,,-1.81E-06,0.020903125
,,,-1.8E-06,0.020821875
,,,-1.79E-06,0.020604375
,,,-1.78E-06,0.020581875
,,,-1.77E-06,0.02093125
,,,-1.76E-06,0.02069625
,,,-1.75E-06,0.02101125
,,,-1.74E-06,0.020778125
,,,-1.73E-06,0.020908125
,,,-1.72E-06,0.020835625
,,,-1.71E-06,0.0209325
,,,-1.7E-06,0.020905
,,,-1.69E-06,0.020806875
,,,-1.68E-06,0.021085
,,,-1.67E-06,0.02068875
,,,-1.66E-06,0.020735625
,,,-1.65E-06,0.0209
,,,-1.64E-06,0.0207075
,,,-1.63E-06,0.020856875
,,,-1.62E-06,0.020855625
,,,-1.61E-06,0.020989375
,,,-1.6E-06,0.020785
,,,-1.59E-06,0.020991875
,,,-1.58E-06,0.02072125
,,,-1.57E-06,0.02078
,,,-1.56E-06,0.02058
,,,-1.55E-06,0.0206125
,,,-1.54E-06,0.020854375
,,,-1.53E-06,0.02081375
,,,-1.52E-06,0.02092125
,,,-1.51E-06,0.02074375
,,,-1.5E-06,0.02088375
,,,-1.49E-06,0.02060875
,,,-1.48E-06,0.02059375
,,,-1.47E-06,0.02098375
,,,-1.46E-06,0.020839375
,,,-1.45E-06,0.021013125
,,,-1.44E-06,0.0208675
,,,-1.43E-06,0.0208875
,,,-1.42E-06,0.02075625
,,,-1.41E-06,0.02097625
,,,-1.4E-06,0.020763125
,,,-1.39E-06,0.020788125
,,,-1.38E-06,0.020664375
,,,-1.37E-06,0.020598125
,,,-1.36E-06,0.02073375
,,,-1.35E-06,0.021111875
,,,-1.34E-06,0.020914375
,,,-1.33E-06,0.02089625
,,,-1.32E-06,0.02073
,,,-1.31E-06,0.021003125
,,,-1.3E-06,0.020619375
,,,-1.29E-06,0.020665
,,,-1.28E-06,0.02086
,,,-1.27E-06,0.020786875
,,,-1.26E-06,0.02106375
,,,-1.25E-06,0.02085875
,,,-1.24E-06,0.020905
,,,-1.23E-06,0.0208525
,,,-1.22E-06,0.020641875
,,,-1.21E-06,0.02087
,,,-1.2E-06,0.02047375
,,,-1.19E-06,0.02069375
,,,-1.18E-06,0.020808125
,,,-1.17E-06,0.0208575
,,,-1.16E-06,0.02101625
,,,-1.15E-06,0.020875625
,,,-1.14E-06,0.020836875
,,,-1.13E-06,0.0208125
,,,-1.12E-06,0.020780625
,,,-1.11E-06,0.020899375
,,,-1.1E-06,0.020869375
,,,-1.09E-06,0.02095125
,,,-1.08E-06,0.020839375
,,,-1.07E-06,0.02081375
,,,-1.06E-06,0.020953125
,,,-1.05E-06,0.02070875
,,,-1.04E-06,0.020715625
,,,-1.03E-06,0.0205575
,,,-1.02E-06,0.021065
,,,-1.01E-06,0.020625625
,,,-1E-06,0.020935625
,,,-9.9E-07,0.020895625
,,,-9.8E-07,0.020605
,,,-9.7E-07,0.02079875
,,,-9.6E-07,0.02056875
,,,-9.5E-07,0.020774375
,,,-9.4E-07,0.0210375
,,,-9.3E-07,0.0207125
,,,-9.2E-07,0.020825
,,,-9.1E-07,0.02061125
,,,-9E-07,0.02066625
,,,-8.9E-07,0.0206475
,,,-8.8E-07,0.0206825
,,,-8.7E-07,0.0207225
,,,-8.6E-07,0.02073875
,,,-8.5E-07,0.020916875
,,,-8.4E-07,0.020904375
,,,-8.3E-07,0.020839375
,,,-8.2E-07,0.0208525
,,,-8.1E-07,0.020835625
,,,-8E-07,0.02081125
,,,-7.9E-07,0.020799375
,,,-7.8E-07,0.02098
,,,-7.7E-07,0.02078125
,,,-7.6E-07,0.020616875
,,,-7.5E-07,0.020916875
,,,-7.4E-07,0.020834375
,,,-7.3E-07,0.020768125
,,,-7.2E-07,0.0209575
,,,-7.1E-07,0.020815
,,,-7E-07,0.020651875
,,,-6.9E-07,0.02090125
,,,-6.8E-07,0.020755
,,,-6.7E-07,0.02084375
,,,-6.6E-07,0.02082875
,,,-6.5E-07,0.020830625
,,,-6.4E-07,0.020665625
,,,-6.3E-07,0.02061125
,,,-6.2E-07,0.020861875
,,,-6.1E-07,0.020779375
,,,-6E-07,0.020869375
,,,-5.9E-07,0.020791875
,,,-5.8E-07,0.020843125
,,,-5.7E-07,0.020843125
,,,-5.6E-07,0.02066125
,,,-5.5E-07,0.020811875
,,,-5.4E-07,0.02075
,,,-5.3E-07,0.021038125
,,,-5.2E-07,0.0208225
,,,-5.1E-07,0.021034375
,,,-5E-07,0.02074375
,,,-4.9E-07,0.0208625
,,,-4.8E-07,0.021108125
,,,-4.7E-07,0.02095375
,,,-4.6E-07,0.02063
,,,-4.5E-07,0.020873125
,,,-4.4E-07,0.020715
,,,-4.3E-07,0.0208475
,,,-4.2E-07,0.020939375
,,,-4.1E-07,0.02077875
,,,-4E-07,0.020711875
,,,-3.9E-07,0.020849375
,,,-3.8E-07,0.02083
,,,-3.7E-07,0.0208175
,,,-3.6E-07,0.020799375
,,,-3.5E-07,0.02084
,,,-3.4E-07,0.02072375
,,,-3.3E-07,0.02077125
,,,-3.2E-07,0.020605625
,,,-3.1E-07,0.020781875
,,,-3E-07,0.020639375
,,,-2.9E-07,0.020845625
,,,-2.8E-07,0.020686875
,,,-2.7E-07,0.02107625
,,,-2.6E-07,0.020755
,,,-2.5E-07,0.020895625
,,,-2.4E-07,0.020625625
,,,-2.3E-07,0.020843125
,,,-2.2E-07,0.020886875
,,,-2.1E-07,0.020951875
,,,-2E-07,0.020599375
,,,-1.9E-07,0.0207225
,,,-1.8E-07,0.02102
,,,-1.7E-07,0.020726875
,,,-1.6E-07,0.0206675
,,,-1.5E-07,0.020516875
,,,-1.4E-07,0.020865625
,,,-1.3E-07,0.020710625
,,,-1.2E-07,0.020671875
,,,-1.1E-07,0.020898125
,,,-1E-07,0.020791875
,,,-9E-08,0.020713125
,,,-8E-08,0.020820625
,,,-7E-08,0.02049375
,,,-6E-08,0.020726875
,,,-5E-08,0.02072
,,,-4E-08,0.021219375
,,,-3E-08,0.02125875
,,,-2E-08,0.020039375
,,,-1E-08,0.019581875
,,,0,0.0200425
,,,1E-08,0.021926875
,,,2E-08,0.0223125
,,,3E-08,0.021678125
,,,4E-08,0.020121875
,,,5E-08,0.019865
,,,6E-08,0.01972
,,,7E-08,0.0205725
,,,8E-08,0.02092375
,,,9E-08,0.0214975
,,,1E-07,0.021423125
,,,1.1E-07,0.020909375
,,,1.2E-07,0.020391875
,,,1.3E-07,0.020293125
,,,1.4E-07,0.0206575
,,,1.5E-07,0.021163125
,,,1.6E-07,0.02099375
,,,1.7E-07,0.0208925
,,,1.8E-07,0.0206875
,,,1.9E-07,0.020716875
,,,2E-07,0.020593125
,,,2.1E-07,0.020905
,,,2.2E-07,0.020635625
,,,2.3E-07,0.020731875
,,,2.4E-07,0.021014375
,,,2.5E-07,0.02093875
,,,2.6E-07,0.021036875
,,,2.7E-07,0.02057875
,,,2.8E-07,0.0207325
,,,2.9E-07,0.020694375
,,,3E-07,0.020570625
,,,3.1E-07,0.020665
,,,3.2E-07,0.02088375
,,,3.3E-07,0.020978125
,,,3.4E-07,0.02072375
,,,3.5E-07,0.0208225
,,,3.6E-07,0.0207275
,,,3.7E-07,0.020795625
,,,3.8E-07,0.020645625
,,,3.9E-07,0.020821875
,,,4E-07,0.020578125
,,,4.1E-07,0.0207
,,,4.2E-07,0.020721875
,,,4.3E-07,0.020535
,,,4.4E-07,0.020701875
,,,4.5E-07,0.020648125
,,,4.6E-07,0.020696875
,,,4.7E-07,0.020820625
,,,4.8E-07,0.020830625
,,,4.9E-07,0.02103125
,,,5E-07,0.020641875
,,,5.1E-07,0.0210575
,,,5.2E-07,0.0206725
,,,5.3E-07,0.02070875
,,,5.4E-07,0.02104125
,,,5.5E-07,0.020699375
,,,5.6E-07,0.020960625
,,,5.7E-07,0.020546875
,,,5.8E-07,0.02106
,,,5.9E-07,0.02085875
,,,6E-07,0.020794375
,,,6.1E-07,0.020871875
,,,6.2E-07,0.020871875
,,,6.3E-07,0.02082
,,,6.4E-07,0.020594375
,,,6.5E-07,0.020685
,,,6.6E-07,0.020846875
,,,6.7E-07,0.02075625
,,,6.8E-07,0.020855625
,,,6.9E-07,0.020848125
,,,7E-07,0.020854375
,,,7.1E-07,0.0209525
,,,7.2E-07,0.020720625
,,,7.3E-07,0.021034375
,,,7.4E-07,0.0208975
,,,7.5E-07,0.02088875
,,,7.6E-07,0.020799375
,,,7.7E-07,0.02081125
,,,7.8E-07,0.0207525
,,,7.9E-07,0.02070875
,,,8E-07,0.02070125
,,,8.1E-07,0.0207025
,,,8.2E-07,0.020676875
,,,8.3E-07,0.0207475
,,,8.4E-07,0.0204575
,,,8.5E-07,0.020619375
,,,8.6E-07,0.020575
,,,8.7E-07,0.02077875
,,,8.8E-07,0.020916875
,,,8.9E-07,0.020699375
,,,9E-07,0.021080625
,,,9.1E-07,0.020853125
,,,9.2E-07,0.020691875
,,,9.3E-07,0.020693125
,,,9.4E-07,0.02076
,,,9.5E-07,0.020774375
,,,9.6E-07,0.02093375
,,,9.7E-07,0.02069625
,,,9.8E-07,0.021011875
,,,9.9E-07,0.020581875
,,,1E-06,0.02086875
,,,1.01E-06,0.02070625
,,,1.02E-06,0.020671875
,,,1.03E-06,0.02092625
,,,1.04E-06,0.020995
,,,1.05E-06,0.020834375
,,,1.06E-06,0.020714375
,,,1.07E-06,0.02079625
,,,1.08E-06,0.02088
,,,1.09E-06,0.020950625
,,,1.1E-06,0.020661875
,,,1.11E-06,0.02103125
,,,1.12E-06,0.02075125
,,,1.13E-06,0.020738125
,,,1.14E-06,0.020946875
,,,1.15E-06,0.021016875
,,,1.16E-06,0.020701875
,,,1.17E-06,0.020848125
,,,1.18E-06,0.0207325
,,,1.19E-06,0.02070625
,,,1.2E-06,0.020561875
,,,1.21E-06,0.0208125
,,,1.22E-06,0.020613125
,,,1.23E-06,0.020754375
,,,1.24E-06,0.020963125
,,,1.25E-06,0.0207425
,,,1.26E-06,0.02055625
,,,1.27E-06,0.02086625
,,,1.28E-06,0.020780625
,,,1.29E-06,0.021055625
,,,1.3E-06,0.020585
,,,1.31E-06,0.0208625
,,,1.32E-06,0.02066375
,,,1.33E-06,0.02091625
,,,1.34E-06,0.020618125
,,,1.35E-06,0.0207025
,,,1.36E-06,0.020756875
,,,1.37E-06,0.020741875
,,,1.38E-06,0.02085875
,,,1.39E-06,0.021305
,,,1.4E-06,0.02078125
,,,1.41E-06,0.0205075
,,,1.42E-06,0.0207025
,,,1.43E-06,0.020511875
,,,1.44E-06,0.02083
,,,1.45E-06,0.0208975
,,,1.46E-06,0.020546875
,,,1.47E-06,0.0206225
,,,1.48E-06,0.02063625
,,,1.49E-06,0.0210275
,,,1.5E-06,0.0206975
,,,1.51E-06,0.02061625
,,,1.52E-06,0.02088
,,,1.53E-06,0.02078
,,,1.54E-06,0.020940625
,,,1.55E-06,0.021044375
,,,1.56E-06,0.02081
,,,1.57E-06,0.020856875
,,,1.58E-06,0.020985
,,,1.59E-06,0.02072875
,,,1.6E-06,0.021166875
,,,1.61E-06,0.020521875
,,,1.62E-06,0.020765
,,,1.63E-06,0.020990625
,,,1.64E-06,0.021065625
,,,1.65E-06,0.02088
,,,1.66E-06,0.020691875
,,,1.67E-06,0.02077625
,,,1.68E-06,0.020808125
,,,1.69E-06,0.0208025
,,,1.7E-06,0.02092125
,,,1.71E-06,0.020781875
,,,1.72E-06,0.020701875
,,,1.73E-06,0.02093375
,,,1.74E-06,0.020675
,,,1.75E-06,0.020946875
,,,1.76E-06,0.020886875
,,,1.77E-06,0.020765
,,,1.78E-06,0.02081625
,,,1.79E-06,0.020683125
,,,1.8E-06,0.020824375
,,,1.81E-06,0.0207225
,,,1.82E-06,0.020858125
,,,1.83E-06,0.02084625
,,,1.84E-06,0.020701875
,,,1.85E-06,0.02077875
,,,1.86E-06,0.020795
,,,1.87E-06,0.020915
,,,1.88E-06,0.02069625
,,,1.89E-06,0.020513125
,,,1.9E-06,0.021055
,,,1.91E-06,0.020815
,,,1.92E-06,0.0209475
,,,1.93E-06,0.020911875
,,,1.94E-06,0.02069625
,,,1.95E-06,0.0208125
,,,1.96E-06,0.020859375
,,,1.97E-06,0.020735
,,,1.98E-06,0.02084875
,,,1.99E-06,0.020686875
,,,2E-06,0.02068125
,,,2.01E-06,0.020685625
,,,2.02E-06,0.0210225
,,,2.03E-06,0.020916875
,,,2.04E-06,0.020926875
,,,2.05E-06,0.02077875
,,,2.06E-06,0.02079375
,,,2.07E-06,0.020796875
,,,2.08E-06,0.020776875
,,,2.09E-06,0.020765
,,,2.1E-06,0.021000625
,,,2.11E-06,0.020700625
,,,2.12E-06,0.020888125
,,,2.13E-06,0.020885625
,,,2.14E-06,0.020983125
,,,2.15E-06,0.020981875
,,,2.16E-06,0.0208
,,,2.17E-06,0.020584375
,,,2.18E-06,0.020836875
,,,2.19E-06,0.02093625
,,,2.2E-06,0.020735
,,,2.21E-06,0.020665625
,,,2.22E-06,0.020751875
,,,2.23E-06,0.02105125
,,,2.24E-06,0.020664375
,,,2.25E-06,0.020916875
,,,2.26E-06,0.0206275
,,,2.27E-06,0.020661875
,,,2.28E-06,0.020845625
,,,2.29E-06,0.020723125
,,,2.3E-06,0.0209525
,,,2.31E-06,0.020608125
,,,2.32E-06,0.020905
,,,2.33E-06,0.020855
,,,2.34E-06,0.02052875
,,,2.35E-06,0.02064125
,,,2.36E-06,0.02057
,,,2.37E-06,0.020983125
,,,2.38E-06,0.020805625
,,,2.39E-06,0.02092375
,,,2.4E-06,0.021095
,,,2.41E-06,0.020829375
,,,2.42E-06,0.020629375
,,,2.43E-06,0.020665625
,,,2.44E-06,0.020725625
,,,2.45E-06,0.02050875
,,,2.46E-06,0.0207875
,,,2.47E-06,0.0207475
,,,2.48E-06,0.020905625
,,,2.49E-06,0.0208625
,,,2.5E-06,0.020870625
,,,2.51E-06,0.020790625
,,,2.52E-06,0.02064875
,,,2.53E-06,0.0209675
,,,2.54E-06,0.020935
,,,2.55E-06,0.0209925
,,,2.56E-06,0.020834375
,,,2.57E-06,0.02088625
,,,2.58E-06,0.02077875
,,,2.59E-06,0.020826875
,,,2.6E-06,0.02087125
,,,2.61E-06,0.020871875
,,,2.62E-06,0.020978125
,,,2.63E-06,0.0208625
,,,2.64E-06,0.020819375
,,,2.65E-06,0.0208575
,,,2.66E-06,0.02053625
,,,2.67E-06,0.0210025
,,,2.68E-06,0.02057375
,,,2.69E-06,0.020704375
,,,2.7E-06,0.02091875
,,,2.71E-06,0.02076625
,,,2.72E-06,0.02088
,,,2.73E-06,0.0208125
,,,2.74E-06,0.0209
,,,2.75E-06,0.020829375
,,,2.76E-06,0.0208975
,,,2.77E-06,0.020738125
,,,2.78E-06,0.020804375
,,,2.79E-06,0.021089375
,,,2.8E-06,0.020634375
,,,2.81E-06,0.021135625
,,,2.82E-06,0.02070125
,,,2.83E-06,0.020893125
,,,2.84E-06,0.02085
,,,2.85E-06,0.020715
,,,2.86E-06,0.02074875
,,,2.87E-06,0.02074875
,,,2.88E-06,0.02093625
,,,2.89E-06,0.020698125
,,,2.9E-06,0.02104375
,,,2.91E-06,0.02059375
,,,2.92E-06,0.02077
,,,2.93E-06,0.020813125
,,,2.94E-06,0.020964375
,,,2.95E-06,0.020888125
,,,2.96E-06,0.020798125
,,,2.97E-06,0.020888125
,,,2.98E-06,0.020930625
,,,2.99E-06,0.02084
,,,3E-06,0.020695
,,,3.01E-06,0.020794375
,,,3.02E-06,0.020660625
,,,3.03E-06,0.02089875
,,,3.04E-06,0.020729375
,,,3.05E-06,0.02085125
,,,3.06E-06,0.020536875
,,,3.07E-06,0.020615625
,,,3.08E-06,0.02049375
,,,3.09E-06,0.0210575
,,,3.1E-06,0.02072375
,,,3.11E-06,0.020731875
,,,3.12E-06,0.02064
,,,3.13E-06,0.02059
,,,3.14E-06,0.020891875
,,,3.15E-06,0.020871875
,,,3.16E-06,0.020728125
,,,3.17E-06,0.0208975
,,,3.18E-06,0.02103625
,,,3.19E-06,0.020854375
,,,3.2E-06,0.021155625
,,,3.21E-06,0.02118
,,,3.22E-06,0.020759375
,,,3.23E-06,0.02066125
,,,3.24E-06,0.020978125
,,,3.25E-06,0.020668125
,,,3.26E-06,0.0207675
,,,3.27E-06,0.020950625
,,,3.28E-06,0.0209475
,,,3.29E-06,0.0209575
,,,3.3E-06,0.02082625
,,,3.31E-06,0.02100375
,,,3.32E-06,0.020698125
,,,3.33E-06,0.02105875
,,,3.34E-06,0.02063125
,,,3.35E-06,0.02086625
,,,3.36E-06,0.020885625
,,,3.37E-06,0.020859375
,,,3.38E-06,0.020688125
,,,3.39E-06,0.020836875
,,,3.4E-06,0.020625625
,,,3.41E-06,0.02099
,,,3.42E-06,0.020841875
,,,3.43E-06,0.02081
,,,3.44E-06,0.020639375
,,,3.45E-06,0.02087
,,,3.46E-06,0.0208
,,,3.47E-06,0.020925
,,,3.48E-06,0.020725625
,,,3.49E-06,0.02057375
,,,3.5E-06,0.02094
,,,3.51E-06,0.02054
,,,3.52E-06,0.020848125
,,,3.53E-06,0.020536875
,,,3.54E-06,0.020834375
,,,3.55E-06,0.02069125
,,,3.56E-06,0.02072
,,,3.57E-06,0.0209825
,,,3.58E-06,0.020688125
