data/raw/Final_POL_Test_1/SOP084_Ch1.csv

"Record Length",1000,"Points",-5E-06,0.00793875
"Sample Interval",1E-08,s,-4.99E-06,0.00748625
"Trigger Point",500,"Samples",-4.98E-06,0.007574375
"Trigger Time",0,s,-4.97E-06,0.0075525
"",,,-4.96E-06,0.007855
"Horizontal Offset",-5E-06,s,-4.95E-06,0.007483125
,,,-4.94E-06,0.007589375
,,,-4.93E-06,0.00748625
,,,-4.92E-06,0.007400625
,,,-4.91E-06,0.0076875
,,,-4.9E-06,0.007711875
,,,-4.89E-06,0.007935625
,,,-4.88E-06,0.00787875
,,,-4.87E-06,0.007661875
,,,-4.86E-06,0.007443125
,,,-4.85E-06,0.007566875
,,,-4.84E-06,0.0075625
,,,-4.83E-06,0.007705
,,,-4.82E-06,0.007688125
,,,-4.81E-06,0.0077975
,,,-4.8E-06,0.00787375
,,,-4.79E-06,0.007515625
,,,-4.78E-06,0.007636875
,,,-4.77E-06,0.00752375
,,,-4.76E-06,0.007498125
,,,-4.75E-06,0.007709375
,,,-4.74E-06,0.0074575
,,,-4.73E-06,0.007495
,,,-4.72E-06,0.007833125
,,,-4.71E-06,0.007565
,,,-4.7E-06,0.0077675
,,,-4.69E-06,0.0077175
,,,-4.68E-06,0.007531875
,,,-4.67E-06,0.007588125
,,,-4.66E-06,0.00767
,,,-4.65E-06,0.007689375
,,,-4.64E-06,0.00762875
,,,-4.63E-06,0.007635625
,,,-4.62E-06,0.007613125
,,,-4.61E-06,0.00730875
,,,-4.6E-06,0.00754875
,,,-4.59E-06,0.00751125
,,,-4.58E-06,0.0077775
,,,-4.57E-06,0.007734375
,,,-4.56E-06,0.007756875
,,,-4.55E-06,0.007816875
,,,-4.54E-06,0.00769625
,,,-4.53E-06,0.007653125
,,,-4.52E-06,0.007595625
,,,-4.51E-06,0.007754375
,,,-4.5E-06,0.007881875
,,,-4.49E-06,0.007618125
,,,-4.48E-06,0.00749625
,,,-4.47E-06,0.007716875
,,,-4.46E-06,0.007750625
,,,-4.45E-06,0.007400625
,,,-4.44E-06,0.0076525
,,,-4.43E-06,0.007590625
,,,-4.42E-06,0.00749
,,,-4.41E-06,0.007443125
,,,-4.4E-06,0.007675
,,,-4.39E-06,0.00767625
,,,-4.38E-06,0.007705625
,,,-4.37E-06,0.007575625
,,,-4.36E-06,0.0074975
,,,-4.35E-06,0.007538125
,,,-4.34E-06,0.00775375
,,,-4.33E-06,0.0076625
,,,-4.32E-06,0.00790375
,,,-4.31E-06,0.007743125
,,,-4.3E-06,0.007585
,,,-4.29E-06,0.007440625
,,,-4.28E-06,0.0075125
,,,-4.27E-06,0.007658125
,,,-4.26E-06,0.0075825
,,,-4.25E-06,0.0076175
,,,-4.24E-06,0.007724375
,,,-4.23E-06,0.007485625
,,,-4.22E-06,0.00757875
,,,-4.21E-06,0.00754875
,,,-4.2E-06,0.007428125
,,,-4.19E-06,0.007515625
,,,-4.18E-06,0.0076625
,,,-4.17E-06,0.007681875
,,,-4.16E-06,0.00788
,,,-4.15E-06,0.00754375
,,,-4.14E-06,0.007634375
,,,-4.13E-06,0.00781375
,,,-4.12E-06,0.00766875
,,,-4.11E-06,0.007709375
,,,-4.1E-06,0.0074225
,,,-4.09E-06,0.007535625
,,,-4.08E-06,0.00764125
,,,-4.07E-06,0.007631875
,,,-4.06E-06,0.00786875
,,,-4.05E-06,0.007695
,,,-4.04E-06,0.007253125
,,,-4.03E-06,0.007570625
,,,-4.02E-06,0.007725625
,,,-4.01E-06,0.007444375
,,,-4E-06,0.007548125
,,,-3.99E-06,0.007650625
,,,-3.98E-06,0.00760125
,,,-3.97E-06,0.0076275
,,,-3.96E-06,0.00753625
,,,-3.95E-06,0.007689375
,,,-3.94E-06,0.007421875
,,,-3.93E-06,0.007643125
,,,-3.92E-06,0.007896875
,,,-3.91E-06,0.00770625
,,,-3.9E-06,0.0078175
,,,-3.89E-06,0.00781125
,,,-3.88E-06,0.007545
,,,-3.87E-06,0.007435
,,,-3.86E-06,0.00779
,,,-3.85E-06,0.007605
,,,-3.84E-06,0.0074325
,,,-3.83E-06,0.007554375
,,,-3.82E-06,0.00756
,,,-3.81E-06,0.0076925
,,,-3.8E-06,0.00758625
,,,-3.79E-06,0.00797
,,,-3.78E-06,0.007670625
,,,-3.77E-06,0.007510625
,,,-3.76E-06,0.0074325
,,,-3.75E-06,0.00743
,,,-3.74E-06,0.007541875
,,,-3.73E-06,0.007835625
,,,-3.72E-06,0.007693125
,,,-3.71E-06,0.007514375
,,,-3.7E-06,0.007591875
,,,-3.69E-06,0.00758875
,,,-3.68E-06,0.00744875
,,,-3.67E-06,0.007635
,,,-3.66E-06,0.007795625
,,,-3.65E-06,0.007731875
,,,-3.64E-06,0.00770125
,,,-3.63E-06,0.007596875
,,,-3.62E-06,0.007674375
,,,-3.61E-06,0.007690625
,,,-3.6E-06,0.007766875
,,,-3.59E-06,0.007780625
,,,-3.58E-06,0.00766625
,,,-3.57E-06,0.007691875
,,,-3.56E-06,0.007860625
,,,-3.55E-06,0.00740625
,,,-3.54E-06,0.007713125
,,,-3.53E-06,0.00771375
,,,-3.52E-06,0.00761625
,,,-3.51E-06,0.007556875
,,,-3.5E-06,0.00757125
,,,-3.49E-06,0.007626875
,,,-3.48E-06,0.00752375
,,,-3.47E-06,0.00743875
,,,-3.46E-06,0.007481875
,,,-3.45E-06,0.007625
,,,-3.44E-06,0.007705625
,,,-3.43E-06,0.0075175
,,,-3.42E-06,0.0077025
,,,-3.41E-06,0.00760875
,,,-3.4E-06,0.007791875
,,,-3.39E-06,0.00752
,,,-3.38E-06,0.00746375
,,,-3.37E-06,0.0073625
,,,-3.36E-06,0.00766125
,,,-3.35E-06,0.00757
,,,-3.34E-06,0.0077975
,,,-3.33E-06,0.007640625
,,,-3.32E-06,0.007513125
,,,-3.31E-06,0.007635
,,,-3.3E-06,0.007681875
,,,-3.29E-06,0.007786875
,,,-3.28E-06,0.007638125
,,,-3.27E-06,0.007398125
,,,-3.26E-06,0.00770375
,,,-3.25E-06,0.0079025
,,,-3.24E-06,0.007535
,,,-3.23E-06,0.007705
,,,-3.22E-06,0.00782125
,,,-3.21E-06,0.007446875
,,,-3.2E-06,0.007629375
,,,-3.19E-06,0.007616875
,,,-3.18E-06,0.007458125
,,,-3.17E-06,0.0078175
,,,-3.16E-06,0.007895
,,,-3.15E-06,0.007570625
,,,-3.14E-06,0.007699375
,,,-3.13E-06,0.0076025
,,,-3.12E-06,0.007620625
,,,-3.11E-06,0.00737375
,,,-3.1E-06,0.007668125
,,,-3.09E-06,0.00769875
,,,-3.08E-06,0.007448125
,,,-3.07E-06,0.00770125
,,,-3.06E-06,0.00790375
,,,-3.05E-06,0.007555
,,,-3.04E-06,0.00729625
,,,-3.03E-06,0.007520625
,,,-3.02E-06,0.0075525
,,,-3.01E-06,0.007766875
,,,-3E-06,0.00748125
,,,-2.99E-06,0.00766
,,,-2.98E-06,0.00764
,,,-2.97E-06,0.007871875
,,,-2.96E-06,0.0074675
,,,-2.95E-06,0.007675
,,,-2.94E-06,0.007538125
,,,-2.93E-06,0.007504375
,,,-2.92E-06,0.007270625
,,,-2.91E-06,0.007669375
,,,-2.9E-06,0.0077975
,,,-2.89E-06,0.00783625
,,,-2.88E-06,0.00749625
,,,-2.87E-06,0.0075375
,,,-2.86E-06,0.0076725
,,,-2.85E-06,0.00778
,,,-2.84E-06,0.007846875
,,,-2.83E-06,0.007449375
,,,-2.82E-06,0.0075875
,,,-2.81E-06,0.007455625
,,,-2.8E-06,0.007785625
,,,-2.79E-06,0.007476875
,,,-2.78E-06,0.00761
,,,-2.77E-06,0.0074275
,,,-2.76E-06,0.0076925
,,,-2.75E-06,0.007556875
,,,-2.74E-06,0.0078
,,,-2.73E-06,0.007745625
,,,-2.72E-06,0.007529375
,,,-2.71E-06,0.007404375
,,,-2.7E-06,0.007449375
,,,-2.69E-06,0.00744875
,,,-2.68E-06,0.00769
,,,-2.67E-06,0.007631875
,,,-2.66E-06,0.0077175
,,,-2.65E-06,0.007395625
,,,-2.64E-06,0.007584375
,,,-2.63E-06,0.00755
,,,-2.62E-06,0.0074925
,,,-2.61E-06,0.00762125
,,,-2.6E-06,0.0078725
,,,-2.59E-06,0.00757125
,,,-2.58E-06,0.007704375
,,,-2.57E-06,0.007565625
,,,-2.56E-06,0.007839375
,,,-2.55E-06,0.00752875
,,,-2.54E-06,0.007664375
,,,-2.53E-06,0.007659375
,,,-2.52E-06,0.00759875
,,,-2.51E-06,0.007695
,,,-2.5E-06,0.00761125
,,,-2.49E-06,0.0075825
,,,-2.48E-06,0.0075425
,,,-2.47E-06,0.00766
,,,-2.46E-06,0.00746625
,,,-2.45E-06,0.007576875
,,,-2.44E-06,0.007451875
,,,-2.43E-06,0.007596875
,,,-2.42E-06,0.00776125
,,,-2.41E-06,0.00784375
,,,-2.4E-06,0.007548125
,,,-2.39E-06,0.007473125
,,,-2.38E-06,0.007554375
,,,-2.37E-06,0.007536875
,,,-2.36E-06,0.007793125
,,,-2.35E-06,0.007729375
,,,-2.34E-06,0.007765
,,,-2.33E-06,0.007430625
,,,-2.32E-06,0.007711875
,,,-2.31E-06,0.0075575
,,,-2.3E-06,0.007640625
,,,-2.29E-06,0.00777375
,,,-2.28E-06,0.007540625
,,,-2.27E-06,0.007463125
,,,-2.26E-06,0.007770625
,,,-2.25E-06,0.00766
,,,-2.24E-06,0.007425625
,,,-2.23E-06,0.00786625
,,,-2.22E-06,0.00740125
,,,-2.21E-06,0.007606875
,,,-2.2E-06,0.00749375
,,,-2.19E-06,0.0077175
,,,-2.18E-06,0.00778
,,,-2.17E-06,0.00779875
,,,-2.16E-06,0.007661875
,,,-2.15E-06,0.007724375
,,,-2.14E-06,0.007615625
,,,-2.13E-06,0.00751
,,,-2.12E-06,0.00775125
,,,-2.11E-06,0.00757375
,,,-2.1E-06,0.007665
,,,-2.09E-06,0.007749375
,,,-2.08E-06,0.007565
,,,-2.07E-06,0.007825
,,,-2.06E-06,0.00785
,,,-2.05E-06,0.0073625
,,,-2.04E-06,0.00754375
,,,-2.03E-06,0.007709375
,,,-2.02E-06,0.007703125
,,,-2.01E-06,0.00763625
,,,-2E-06,0.007776875
,,,-1.99E-06,0.00753875
,,,-1.98E-06,0.007606875
,,,-1.97E-06,0.00757875
,,,-1.96E-06,0.007425625
,,,-1.95E-06,0.007721875
,,,-1.94E-06,0.007310625
,,,-1.93E-06,0.00781
,,,-1.92E-06,0.0074675
,,,-1.91E-06,0.007918125
,,,-1.9E-06,0.00755375
,,,-1.89E-06,0.007665
,,,-1.88E-06,0.00770125
,,,-1.87E-06,0.007623125
,,,-1.86E-06,0.007743125
,,,-1.85E-06,0.007553125
,,,-1.84E-06,0.0076775
,,,-1.83E-06,0.007595
,,,-1.82E-06,0.0075225
,,,-1.81E-06,0.00761875
,,,-1.8E-06,0.007505
,,,-1.79E-06,0.0076225
,,,-1.78E-06,0.007634375
,,,-1.77E-06,0.007666875
,,,-1.76E-06,0.007656875
,,,-1.75E-06,0.007740625
,,,-1.74E-06,0.00761875
,,,-1.73E-06,0.007576875
,,,-1.72E-06,0.007665625
,,,-1.71E-06,0.0075025
,,,-1.7E-06,0.007575
,,,-1.69E-06,0.007841875
,,,-1.68E-06,0.007458125
,,,-1.67E-06,0.00778375
,,,-1.66E-06,0.007570625
,,,-1.65E-06,0.007635
,,,-1.64E-06,0.007568125
,,,-1.63E-06,0.00775625
,,,-1.62E-06,0.007525
,,,-1.61E-06,0.00738875
,,,-1.6E-06,0.00766875
,,,-1.59E-06,0.00769
,,,-1.58E-06,0.00785
,,,-1.57E-06,0.00754625
,,,-1.56E-06,0.007498125
,,,-1.55E-06,0.007423125
,,,-1.54E-06,0.007556875
,,,-1.53E-06,0.007674375
,,,-1.52E-06,0.0077025
,,,-1.51E-06,0.007606875
,,,-1.5E-06,0.007739375
,,,-1.49E-06,0.00766
,,,-1.48E-06,0.007649375
,,,-1.47E-06,0.007711875
,,,-1.46E-06,0.0077225
,,,-1.45E-06,0.0077625
,,,-1.44E-06,0.007490625
,,,-1.43E-06,0.00766375
,,,-1.42E-06,0.007820625
,,,-1.41E-06,0.007789375
,,,-1.4E-06,0.007591875
,,,-1.39E-06,0.0074175
,,,-1.38E-06,0.007654375
,,,-1.37E-06,0.00768375
,,,-1.36E-06,0.007598125
,,,-1.35E-06,0.007628125
,,,-1.34E-06,0.007555625
,,,-1.33E-06,0.007621875
,,,-1.32E-06,0.007459375
,,,-1.31E-06,0.007764375
,,,-1.3E-06,0.0075075
,,,-1.29E-06,0.0076225
,,,-1.28E-06,0.0076375
,,,-1.27E-06,0.007474375
,,,-1.26E-06,0.007730625
,,,-1.25E-06,0.007731875
,,,-1.24E-06,0.00777
,,,-1.23E-06,0.007350625
,,,-1.22E-06,0.007520625
,,,-1.21E-06,0.007551875
,,,-1.2E-06,0.007694375
,,,-1.19E-06,0.00765875
,,,-1.18E-06,0.00762875
,,,-1.17E-06,0.007603125
,,,-1.16E-06,0.007578125
,,,-1.15E-06,0.00778125
,,,-1.14E-06,0.007678125
,,,-1.13E-06,0.007440625
,,,-1.12E-06,0.007715625
,,,-1.11E-06,0.00776625
,,,-1.1E-06,0.00750125
,,,-1.09E-06,0.00767
,,,-1.08E-06,0.007604375
,,,-1.07E-06,0.007589375
,,,-1.06E-06,0.00758
,,,-1.05E-06,0.007776875
,,,-1.04E-06,0.007504375
,,,-1.03E-06,0.007413125
,,,-1.02E-06,0.007911875
,,,-1.01E-06,0.00801
,,,-1E-06,0.007815625
,,,-9.9E-07,0.0074475
,,,-9.8E-07,0.00780625
,,,-9.7E-07,0.00760375
,,,-9.6E-07,0.007613125
,,,-9.5E-07,0.00776125
,,,-9.4E-07,0.00785625
,,,-9.3E-07,0.00768625
,,,-9.2E-07,0.00763375
,,,-9.1E-07,0.007716875
,,,-9E-07,0.007510625
,,,-8.9E-07,0.0077875
,,,-8.8E-07,0.007724375
,,,-8.7E-07,0.0076375
,,,-8.6E-07,0.00795
,,,-8.5E-07,0.007691875
,,,-8.4E-07,0.007631875
,,,-8.3E-07,0.00740125
,,,-8.2E-07,0.007691875
,,,-8.1E-07,0.00747875
,,,-8E-07,0.007704375
,,,-7.9E-07,0.007665
,,,-7.8E-07,0.007585
,,,-7.7E-07,0.00765125
,,,-7.6E-07,0.007778125
,,,-7.5E-07,0.00751875
,,,-7.4E-07,0.007719375
,,,-7.3E-07,0.00762375
,,,-7.2E-07,0.0078225
,,,-7.1E-07,0.007650625
,,,-7E-07,0.00799
,,,-6.9E-07,0.007706875
,,,-6.8E-07,0.007583125
,,,-6.7E-07,0.007875
,,,-6.6E-07,0.007690625
,,,-6.5E-07,0.00756625
,,,-6.4E-07,0.007766875
,,,-6.3E-07,0.00755
,,,-6.2E-07,0.007546875
,,,-6.1E-07,0.007494375
,,,-6E-07,0.007541875
,,,-5.9E-07,0.007563125
,,,-5.8E-07,0.0075275
,,,-5.7E-07,0.00756
,,,-5.6E-07,0.0075125
,,,-5.5E-07,0.007668125
,,,-5.4E-07,0.00774
,,,-5.3E-07,0.007656875
,,,-5.2E-07,0.007663125
,,,-5.1E-07,0.00764875
,,,-5E-07,0.007801875
,,,-4.9E-07,0.007668125
,,,-4.8E-07,0.007306875
,,,-4.7E-07,0.0075375
,,,-4.6E-07,0.007375
,,,-4.5E-07,0.00742
,,,-4.4E-07,0.007575
,,,-4.3E-07,0.00795875
,,,-4.2E-07,0.007645625
,,,-4.1E-07,0.00764125
,,,-4E-07,0.007456875
,,,-3.9E-07,0.007376875
,,,-3.8E-07,0.00749125
,,,-3.7E-07,0.0077725
,,,-3.6E-07,0.007630625
,,,-3.5E-07,0.007583125
,,,-3.4E-07,0.00781625
,,,-3.3E-07,0.0076525
,,,-3.2E-07,0.007678125
,,,-3.1E-07,0.0075925
,,,-3E-07,0.00766625
,,,-2.9E-07,0.00743625
,,,-2.8E-07,0.00770375
,,,-2.7E-07,0.007630625
,,,-2.6E-07,0.0076325
,,,-2.5E-07,0.007629375
,,,-2.4E-07,0.00749125
,,,-2.3E-07,0.007579375
,,,-2.2E-07,0.007510625
,,,-2.1E-07,0.00758
,,,-2E-07,0.00759375
,,,-1.9E-07,0.00756625
,,,-1.8E-07,0.00756375
,,,-1.7E-07,0.007751875
,,,-1.6E-07,0.007651875
,,,-1.5E-07,0.007593125
,,,-1.4E-07,0.007563125
,,,-1.3E-07,0.007555625
,,,-1.2E-07,0.00757125
,,,-1.1E-07,0.0075375
,,,-1E-07,0.007908125
,,,-9E-08,0.0075575
,,,-8E-08,0.0076525
,,,-7E-08,0.007355
,,,-6E-08,0.007710625
,,,-5E-08,0.007744375
,,,-4E-08,0.0084325
,,,-3E-08,0.00940875
,,,-2E-08,0.006085
,,,-1E-08,0.004325625
,,,0,0.00363875
,,,1E-08,0.00997
,,,2E-08,0.01209125
,,,3E-08,0.012218125
,,,4E-08,0.00740125
,,,5E-08,0.0048275
,,,6E-08,0.00381875
,,,7E-08,0.00568375
,,,8E-08,0.008090625
,,,9E-08,0.01005125
,,,1E-07,0.0102575
,,,1.1E-07,0.008494375
,,,1.2E-07,0.007089375
,,,1.3E-07,0.005939375
,,,1.4E-07,0.006721875
,,,1.5E-07,0.007691875
,,,1.6E-07,0.00825875
,,,1.7E-07,0.0078425
,,,1.8E-07,0.00782
,,,1.9E-07,0.00788375
,,,2E-07,0.00779125
,,,2.1E-07,0.007594375
,,,2.2E-07,0.007454375
,,,2.3E-07,0.007560625
,,,2.4E-07,0.007720625
,,,2.5E-07,0.007863125
,,,2.6E-07,0.007683125
,,,2.7E-07,0.007503125
,,,2.8E-07,0.007640625
,,,2.9E-07,0.00760375
,,,3E-07,0.007555625
,,,3.1E-07,0.00750125
,,,3.2E-07,0.00766
,,,3.3E-07,0.0078375
,,,3.4E-07,0.007750625
,,,3.5E-07,0.007330625
,,,3.6E-07,0.00743375
,,,3.7E-07,0.007510625
,,,3.8E-07,0.007704375
,,,3.9E-07,0.007986875
,,,4E-07,0.00751125
,,,4.1E-07,0.00749
,,,4.2E-07,0.0076925
,,,4.3E-07,0.00777875
,,,4.4E-07,0.0076
,,,4.5E-07,0.0079125
,,,4.6E-07,0.0079175
,,,4.7E-07,0.007583125
,,,4.8E-07,0.00774
,,,4.9E-07,0.007425625
,,,5E-07,0.007778125
,,,5.1E-07,0.007581875
,,,5.2E-07,0.00759875
,,,5.3E-07,0.00792875
,,,5.4E-07,0.00746375
,,,5.5E-07,0.007530625
,,,5.6E-07,0.00750125
,,,5.7E-07,0.007598125
,,,5.8E-07,0.0077125
,,,5.9E-07,0.007636875
,,,6E-07,0.007638125
,,,6.1E-07,0.00757625
,,,6.2E-07,0.00754625
,,,6.3E-07,0.007608125
,,,6.4E-07,0.00772875
,,,6.5E-07,0.007534375
,,,6.6E-07,0.007905625
,,,6.7E-07,0.00777875
,,,6.8E-07,0.00765125
,,,6.9E-07,0.00755
,,,7E-07,0.007571875
,,,7.1E-07,0.007630625
,,,7.2E-07,0.007448125
,,,7.3E-07,0.00752
,,,7.4E-07,0.0076675
,,,7.5E-07,0.0077575
,,,7.6E-07,0.00745125
,,,7.7E-07,0.00777875
,,,7.8E-07,0.00746625
,,,7.9E-07,0.00764375
,,,8E-07,0.00772625
,,,8.1E-07,0.007438125
,,,8.2E-07,0.0074175
,,,8.3E-07,0.007571875
,,,8.4E-07,0.007504375
,,,8.5E-07,0.007645
,,,8.6E-07,0.0074975
,,,8.7E-07,0.007495
,,,8.8E-07,0.00755
,,,8.9E-07,0.007784375
,,,9E-07,0.00772875
,,,9.1E-07,0.00786125
,,,9.2E-07,0.007456875
,,,9.3E-07,0.007643125
,,,9.4E-07,0.007384375
,,,9.5E-07,0.007404375
,,,9.6E-07,0.007668125
,,,9.7E-07,0.007548125
,,,9.8E-07,0.00761375
,,,9.9E-07,0.00761375
,,,1E-06,0.007635
,,,1.01E-06,0.0077925
,,,1.02E-06,0.007645
,,,1.03E-06,0.007670625
,,,1.04E-06,0.007376875
,,,1.05E-06,0.007781875
,,,1.06E-06,0.007845625
,,,1.07E-06,0.00758625
,,,1.08E-06,0.007616875
,,,1.09E-06,0.00778625
,,,1.1E-06,0.00779
,,,1.11E-06,0.007664375
,,,1.12E-06,0.007754375
,,,1.13E-06,0.00753
,,,1.14E-06,0.007565625
,,,1.15E-06,0.007364375
,,,1.16E-06,0.007725625
,,,1.17E-06,0.00758125
,,,1.18E-06,0.007613125
,,,1.19E-06,0.00772875
,,,1.2E-06,0.007575625
,,,1.21E-06,0.007466875
,,,1.22E-06,0.00751125
,,,1.23E-06,0.0077325
,,,1.24E-06,0.0078025
,,,1.25E-06,0.0077275
,,,1.26E-06,0.007655
,,,1.27E-06,0.007475
,,,1.28E-06,0.007915
,,,1.29E-06,0.007598125
,,,1.3E-06,0.007559375
,,,1.31E-06,0.007566875
,,,1.32E-06,0.00763375
,,,1.33E-06,0.00759375
,,,1.34E-06,0.007623125
,,,1.35E-06,0.007689375
,,,1.36E-06,0.0075625
,,,1.37E-06,0.007714375
,,,1.38E-06,0.007516875
,,,1.39E-06,0.007729375
,,,1.4E-06,0.007789375
,,,1.41E-06,0.007601875
,,,1.42E-06,0.00778625
,,,1.43E-06,0.0076125
,,,1.44E-06,0.00754125
,,,1.45E-06,0.007784375
,,,1.46E-06,0.007676875
,,,1.47E-06,0.007764375
,,,1.48E-06,0.007630625
,,,1.49E-06,0.00785625
,,,1.5E-06,0.007535625
,,,1.51E-06,0.007478125
,,,1.52E-06,0.007345625
,,,1.53E-06,0.007634375
,,,1.54E-06,0.00753625
,,,1.55E-06,0.007500625
,,,1.56E-06,0.007730625
,,,1.57E-06,0.00774
,,,1.58E-06,0.0074525
,,,1.59E-06,0.007658125
,,,1.6E-06,0.007485
,,,1.61E-06,0.007524375
,,,1.62E-06,0.007499375
,,,1.63E-06,0.007663125
,,,1.64E-06,0.007721875
,,,1.65E-06,0.007478125
,,,1.66E-06,0.00775
,,,1.67E-06,0.007525
,,,1.68E-06,0.007505625
,,,1.69E-06,0.00766125
,,,1.7E-06,0.00773
,,,1.71E-06,0.00761
,,,1.72E-06,0.007696875
,,,1.73E-06,0.007559375
,,,1.74E-06,0.00763875
,,,1.75E-06,0.007609375
,,,1.76E-06,0.007608125
,,,1.77E-06,0.0076525
,,,1.78E-06,0.007591875
,,,1.79E-06,0.007490625
,,,1.8E-06,0.00769875
,,,1.81E-06,0.0076375
,,,1.82E-06,0.007718125
,,,1.83E-06,0.00759875
,,,1.84E-06,0.007379375
,,,1.85E-06,0.007565
,,,1.86E-06,0.007458125
,,,1.87E-06,0.00736625
,,,1.88E-06,0.007699375
,,,1.89E-06,0.007596875
,,,1.9E-06,0.007845
,,,1.91E-06,0.007570625
,,,1.92E-06,0.007656875
,,,1.93E-06,0.007555
,,,1.94E-06,0.00768
,,,1.95E-06,0.00761
,,,1.96E-06,0.007784375
,,,1.97E-06,0.007750625
,,,1.98E-06,0.00771625
,,,1.99E-06,0.007835
,,,2E-06,0.00767875
,,,2.01E-06,0.007529375
,,,2.02E-06,0.0075175
,,,2.03E-06,0.0077925
,,,2.04E-06,0.0076075
,,,2.05E-06,0.007838125
,,,2.06E-06,0.00758625
,,,2.07E-06,0.00772875
,,,2.08E-06,0.00751875
,,,2.09E-06,0.00746
,,,2.1E-06,0.007371875
,,,2.11E-06,0.007803125
,,,2.12E-06,0.00744375
,,,2.13E-06,0.00781375
,,,2.14E-06,0.007533125
,,,2.15E-06,0.00758
,,,2.16E-06,0.00767375
,,,2.17E-06,0.007796875
,,,2.18E-06,0.007648125
,,,2.19E-06,0.007530625
,,,2.2E-06,0.007555625
,,,2.21E-06,0.0076975
,,,2.22E-06,0.007500625
,,,2.23E-06,0.007706875
,,,2.24E-06,0.0076
,,,2.25E-06,0.007605625
,,,2.26E-06,0.0076
,,,2.27E-06,0.007685625
,,,2.28E-06,0.007480625
,,,2.29E-06,0.0074725
,,,2.3E-06,0.007638125
,,,2.31E-06,0.00773
,,,2.32E-06,0.00778125
,,,2.33E-06,0.007559375
,,,2.34E-06,0.007428125
,,,2.35E-06,0.00770875
,,,2.36E-06,0.007693125
,,,2.37E-06,0.007575625
,,,2.38E-06,0.00768875
,,,2.39E-06,0.007501875
,,,2.4E-06,0.007890625
,,,2.41E-06,0.007495625
,,,2.42E-06,0.00765625
,,,2.43E-06,0.00782
,,,2.44E-06,0.0076725
,,,2.45E-06,0.00742
,,,2.46E-06,0.007463125
,,,2.47E-06,0.007815625
,,,2.48E-06,0.00767375
,,,2.49E-06,0.007515
,,,2.5E-06,0.00768
,,,2.51E-06,0.007619375
,,,2.52E-06,0.00744625
,,,2.53E-06,0.00764875
,,,2.54E-06,0.007793125
,,,2.55E-06,0.00776
,,,2.56E-06,0.007691875
,,,2.57E-06,0.007449375
,,,2.58E-06,0.007404375
,,,2.59E-06,0.007619375
,,,2.6E-06,0.007381875
,,,2.61E-06,0.0076325
,,,2.62E-06,0.007679375
,,,2.63E-06,0.00765
,,,2.64E-06,0.0076975
,,,2.65E-06,0.007765
,,,2.66E-06,0.00764375
,,,2.67E-06,0.00759625
,,,2.68E-06,0.007449375
,,,2.69E-06,0.0076825
,,,2.7E-06,0.007705625
,,,2.71E-06,0.007565625
,,,2.72E-06,0.00774125
,,,2.73E-06,0.007526875
,,,2.74E-06,0.00758375
,,,2.75E-06,0.00761625
,,,2.76E-06,0.007528125
,,,2.77E-06,0.00742
,,,2.78E-06,0.007936875
,,,2.79E-06,0.007678125
,,,2.8E-06,0.00781125
,,,2.81E-06,0.007543125
,,,2.82E-06,0.00753875
,,,2.83E-06,0.007615625
,,,2.84E-06,0.007541875
,,,2.85E-06,0.00760125
,,,2.86E-06,0.007589375
,,,2.87E-06,0.007818125
,,,2.88E-06,0.007559375
,,,2.89E-06,0.0077275
,,,2.9E-06,0.00772875
,,,2.91E-06,0.007706875
,,,2.92E-06,0.00773875
,,,2.93E-06,0.0074775
,,,2.94E-06,0.007586875
,,,2.95E-06,0.007416875
,,,2.96E-06,0.007745
,,,2.97E-06,0.00768625
,,,2.98E-06,0.00770375
,,,2.99E-06,0.007685625
,,,3E-06,0.007808125
,,,3.01E-06,0.007591875
,,,3.02E-06,0.007734375
,,,3.03E-06,0.00761
,,,3.04E-06,0.0077575
,,,3.05E-06,0.007464375
,,,3.06E-06,0.0078175
,,,3.07E-06,0.00792375
,,,3.08E-06,0.007709375
,,,3.09E-06,0.007554375
,,,3.1E-06,0.007735625
,,,3.11E-06,0.00754
,,,3.12E-06,0.007668125
,,,3.13E-06,0.007445625
,,,3.14E-06,0.00777125
,,,3.15E-06,0.007709375
,,,3.16E-06,0.007783125
,,,3.17E-06,0.00741125
,,,3.18E-06,0.00762375
,,,3.19E-06,0.00747
,,,3.2E-06,0.007615
,,,3.21E-06,0.007481875
,,,3.22E-06,0.00761625
,,,3.23E-06,0.00773875
,,,3.24E-06,0.007634375
,,,3.25E-06,0.007565625
,,,3.26E-06,0.007350625
,,,3.27E-06,0.007654375
,,,3.28E-06,0.00774375
,,,3.29E-06,0.007604375
,,,3.3E-06,0.008014375
,,,3.31E-06,0.0076925
,,,3.32E-06,0.007705625
,,,3.33E-06,0.00762875
,,,3.34E-06,0.00762375
,,,3.35E-06,0.007405625
,,,3.36E-06,0.007591875
,,,3.37E-06,0.007719375
,,,3.38E-06,0.00767
,,,3.39E-06,0.007894375
,,,3.4E-06,0.007528125
,,,3.41E-06,0.007548125
,,,3.42E-06,0.007558125
,,,3.43E-06,0.00775
,,,3.44E-06,0.00763
,,,3.45E-06,0.007548125
,,,3.46E-06,0.007796875
,,,3.47E-06,0.007871875
,,,3.48E-06,0.007725
,,,3.49E-06,0.007515
,,,3.5E-06,0.007369375
,,,3.51E-06,0.0074775
,,,3.52E-06,0.007930625
,,,3.53E-06,0.007848125
,,,3.54E-06,0.007589375
,,,3.55E-06,0.00757
,,,3.56E-06,0.007671875
,,,3.57E-06,0.007833125
