data/raw/Final_POL_Test_1/SOP095_Ch1.csv

"Record Length",1000,"Points",-5E-06,0.005731875
"Sample Interval",1E-08,s,-4.99E-06,0.00554125
"Trigger Point",500,"Samples",-4.98E-06,0.005609375
"Trigger Time",0,s,-4.97E-06,0.005475
"",,,-4.96E-06,0.005651875
"Horizontal Offset",-5E-06,s,-4.95E-06,0.00566125
,,,-4.94E-06,0.00552
,,,-4.93E-06,0.0056125
,,,-4.92E-06,0.00558625
,,,-4.91E-06,0.0053875
,,,-4.9E-06,0.005695
,,,-4.89E-06,0.00572125
,,,-4.88E-06,0.00585875
,,,-4.87E-06,0.005841875
,,,-4.86E-06,0.005510625
,,,-4.85E-06,0.005271875
,,,-4.84E-06,0.005529375
,,,-4.83E-06,0.00553625
,,,-4.82E-06,0.0057575
,,,-4.81E-06,0.005594375
,,,-4.8E-06,0.005434375
,,,-4.79E-06,0.0056425
,,,-4.78E-06,0.005728125
,,,-4.77E-06,0.0056775
,,,-4.76E-06,0.00560125
,,,-4.75E-06,0.005485625
,,,-4.74E-06,0.005504375
,,,-4.73E-06,0.005558125
,,,-4.72E-06,0.005324375
,,,-4.71E-06,0.005736875
,,,-4.7E-06,0.005436875
,,,-4.69E-06,0.005524375
,,,-4.68E-06,0.0055
,,,-4.67E-06,0.00561625
,,,-4.66E-06,0.00578875
,,,-4.65E-06,0.00573125
,,,-4.64E-06,0.005503125
,,,-4.63E-06,0.00559125
,,,-4.62E-06,0.005704375
,,,-4.61E-06,0.005606875
,,,-4.6E-06,0.00557375
,,,-4.59E-06,0.00576125
,,,-4.58E-06,0.005851875
,,,-4.57E-06,0.005391875
,,,-4.56E-06,0.0058575
,,,-4.55E-06,0.0056475
,,,-4.54E-06,0.005754375
,,,-4.53E-06,0.00567125
,,,-4.52E-06,0.005699375
,,,-4.51E-06,0.005745
,,,-4.5E-06,0.00560875
,,,-4.49E-06,0.005560625
,,,-4.48E-06,0.00549625
,,,-4.47E-06,0.005684375
,,,-4.46E-06,0.0056975
,,,-4.45E-06,0.005703125
,,,-4.44E-06,0.00587125
,,,-4.43E-06,0.005628125
,,,-4.42E-06,0.005428125
,,,-4.41E-06,0.00535
,,,-4.4E-06,0.00593125
,,,-4.39E-06,0.005649375
,,,-4.38E-06,0.005586875
,,,-4.37E-06,0.005508125
,,,-4.36E-06,0.005650625
,,,-4.35E-06,0.0056075
,,,-4.34E-06,0.0055525
,,,-4.33E-06,0.0056425
,,,-4.32E-06,0.005840625
,,,-4.31E-06,0.00585125
,,,-4.3E-06,0.005824375
,,,-4.29E-06,0.005741875
,,,-4.28E-06,0.00553875
,,,-4.27E-06,0.005465625
,,,-4.26E-06,0.005726875
,,,-4.25E-06,0.005543125
,,,-4.24E-06,0.00577125
,,,-4.23E-06,0.005438125
,,,-4.22E-06,0.005765625
,,,-4.21E-06,0.005508125
,,,-4.2E-06,0.005441875
,,,-4.19E-06,0.005709375
,,,-4.18E-06,0.005589375
,,,-4.17E-06,0.0055475
,,,-4.16E-06,0.00558625
,,,-4.15E-06,0.0057625
,,,-4.14E-06,0.00578625
,,,-4.13E-06,0.005748125
,,,-4.12E-06,0.005505
,,,-4.11E-06,0.00559
,,,-4.1E-06,0.005468125
,,,-4.09E-06,0.005719375
,,,-4.08E-06,0.0056225
,,,-4.07E-06,0.00571125
,,,-4.06E-06,0.005728125
,,,-4.05E-06,0.00538375
,,,-4.04E-06,0.005781875
,,,-4.03E-06,0.005451875
,,,-4.02E-06,0.00564125
,,,-4.01E-06,0.005658125
,,,-4E-06,0.005859375
,,,-3.99E-06,0.00598375
,,,-3.98E-06,0.005801875
,,,-3.97E-06,0.005705
,,,-3.96E-06,0.00580625
,,,-3.95E-06,0.005803125
,,,-3.94E-06,0.005910625
,,,-3.93E-06,0.00571875
,,,-3.92E-06,0.005693125
,,,-3.91E-06,0.00577625
,,,-3.9E-06,0.00566125
,,,-3.89E-06,0.006014375
,,,-3.88E-06,0.005595
,,,-3.87E-06,0.005459375
,,,-3.86E-06,0.0057525
,,,-3.85E-06,0.005280625
,,,-3.84E-06,0.005485625
,,,-3.83E-06,0.005575625
,,,-3.82E-06,0.005675
,,,-3.81E-06,0.005533125
,,,-3.8E-06,0.005548125
,,,-3.79E-06,0.00556625
,,,-3.78E-06,0.0056075
,,,-3.77E-06,0.0057425
,,,-3.76E-06,0.005688125
,,,-3.75E-06,0.00556375
,,,-3.74E-06,0.00554125
,,,-3.73E-06,0.005588125
,,,-3.72E-06,0.005505625
,,,-3.71E-06,0.005795
,,,-3.7E-06,0.00578
,,,-3.69E-06,0.005576875
,,,-3.68E-06,0.005635
,,,-3.67E-06,0.00564625
,,,-3.66E-06,0.005720625
,,,-3.65E-06,0.00578375
,,,-3.64E-06,0.005573125
,,,-3.63E-06,0.00539625
,,,-3.62E-06,0.005625
,,,-3.61E-06,0.005765
,,,-3.6E-06,0.00549625
,,,-3.59E-06,0.005515
,,,-3.58E-06,0.005528125
,,,-3.57E-06,0.00589875
,,,-3.56E-06,0.005585625
,,,-3.55E-06,0.005565625
,,,-3.54E-06,0.005425
,,,-3.53E-06,0.005625625
,,,-3.52E-06,0.005488125
,,,-3.51E-06,0.005658125
,,,-3.5E-06,0.005644375
,,,-3.49E-06,0.00554625
,,,-3.48E-06,0.005715625
,,,-3.47E-06,0.005439375
,,,-3.46E-06,0.005689375
,,,-3.45E-06,0.005618125
,,,-3.44E-06,0.005576875
,,,-3.43E-06,0.005355625
,,,-3.42E-06,0.005906875
,,,-3.41E-06,0.0055375
,,,-3.4E-06,0.00569125
,,,-3.39E-06,0.00552375
,,,-3.38E-06,0.00554375
,,,-3.37E-06,0.005645625
,,,-3.36E-06,0.0056425
,,,-3.35E-06,0.0057625
,,,-3.34E-06,0.00545875
,,,-3.33E-06,0.00562125
,,,-3.32E-06,0.005755
,,,-3.31E-06,0.00561
,,,-3.3E-06,0.005638125
,,,-3.29E-06,0.00568
,,,-3.28E-06,0.0056575
,,,-3.27E-06,0.005616875
,,,-3.26E-06,0.00551375
,,,-3.25E-06,0.005715625
,,,-3.24E-06,0.005611875
,,,-3.23E-06,0.005648125
,,,-3.22E-06,0.00555
,,,-3.21E-06,0.005615
,,,-3.2E-06,0.005664375
,,,-3.19E-06,0.005525625
,,,-3.18E-06,0.005811875
,,,-3.17E-06,0.0054525
,,,-3.16E-06,0.005635
,,,-3.15E-06,0.005725
,,,-3.14E-06,0.00567
,,,-3.13E-06,0.005655625
,,,-3.12E-06,0.005396875
,,,-3.11E-06,0.005636875
,,,-3.1E-06,0.005623125
,,,-3.09E-06,0.005441875
,,,-3.08E-06,0.005775625
,,,-3.07E-06,0.005735625
,,,-3.06E-06,0.00564875
,,,-3.05E-06,0.005456875
,,,-3.04E-06,0.005531875
,,,-3.03E-06,0.005649375
,,,-3.02E-06,0.005714375
,,,-3.01E-06,0.00580625
,,,-3E-06,0.005634375
,,,-2.99E-06,0.005644375
,,,-2.98E-06,0.005364375
,,,-2.97E-06,0.005896875
,,,-2.96E-06,0.0057975
,,,-2.95E-06,0.00558625
,,,-2.94E-06,0.00559125
,,,-2.93E-06,0.00553
,,,-2.92E-06,0.005640625
,,,-2.91E-06,0.005818125
,,,-2.9E-06,0.005488125
,,,-2.89E-06,0.005701875
,,,-2.88E-06,0.00554875
,,,-2.87E-06,0.005725625
,,,-2.86E-06,0.005725
,,,-2.85E-06,0.00585
,,,-2.84E-06,0.00556375
,,,-2.83E-06,0.005503125
,,,-2.82E-06,0.005624375
,,,-2.81E-06,0.005658125
,,,-2.8E-06,0.00547125
,,,-2.79E-06,0.005795
,,,-2.78E-06,0.00565
,,,-2.77E-06,0.005619375
,,,-2.76E-06,0.00574625
,,,-2.75E-06,0.005841875
,,,-2.74E-06,0.005595
,,,-2.73E-06,0.005768125
,,,-2.72E-06,0.005651875
,,,-2.71E-06,0.005555625
,,,-2.7E-06,0.005591875
,,,-2.69E-06,0.005450625
,,,-2.68E-06,0.00569375
,,,-2.67E-06,0.0056
,,,-2.66E-06,0.005829375
,,,-2.65E-06,0.005653125
,,,-2.64E-06,0.005830625
,,,-2.63E-06,0.00548125
,,,-2.62E-06,0.005675625
,,,-2.61E-06,0.00547
,,,-2.6E-06,0.005370625
,,,-2.59E-06,0.005729375
,,,-2.58E-06,0.00588375
,,,-2.57E-06,0.00554875
,,,-2.56E-06,0.0056625
,,,-2.55E-06,0.0055975
,,,-2.54E-06,0.005556875
,,,-2.53E-06,0.005314375
,,,-2.52E-06,0.005566875
,,,-2.51E-06,0.005753125
,,,-2.5E-06,0.005528125
,,,-2.49E-06,0.005575
,,,-2.48E-06,0.00545625
,,,-2.47E-06,0.00574625
,,,-2.46E-06,0.005574375
,,,-2.45E-06,0.005689375
,,,-2.44E-06,0.00528625
,,,-2.43E-06,0.005546875
,,,-2.42E-06,0.005775
,,,-2.41E-06,0.00586375
,,,-2.4E-06,0.005733125
,,,-2.39E-06,0.005535
,,,-2.38E-06,0.005250625
,,,-2.37E-06,0.0055975
,,,-2.36E-06,0.005838125
,,,-2.35E-06,0.005988125
,,,-2.34E-06,0.005581875
,,,-2.33E-06,0.0056925
,,,-2.32E-06,0.005366875
,,,-2.31E-06,0.00569125
,,,-2.3E-06,0.00540375
,,,-2.29E-06,0.005556875
,,,-2.28E-06,0.00567125
,,,-2.27E-06,0.00567
,,,-2.26E-06,0.005721875
,,,-2.25E-06,0.005806875
,,,-2.24E-06,0.005564375
,,,-2.23E-06,0.005648125
,,,-2.22E-06,0.005676875
,,,-2.21E-06,0.005364375
,,,-2.2E-06,0.0057625
,,,-2.19E-06,0.0057475
,,,-2.18E-06,0.005758125
,,,-2.17E-06,0.00547625
,,,-2.16E-06,0.00572125
,,,-2.15E-06,0.00548625
,,,-2.14E-06,0.00576625
,,,-2.13E-06,0.00565125
,,,-2.12E-06,0.00548875
,,,-2.11E-06,0.00559125
,,,-2.1E-06,0.005805
,,,-2.09E-06,0.0056375
,,,-2.08E-06,0.0054625
,,,-2.07E-06,0.005595
,,,-2.06E-06,0.005440625
,,,-2.05E-06,0.005674375
,,,-2.04E-06,0.005560625
,,,-2.03E-06,0.00540125
,,,-2.02E-06,0.00566125
,,,-2.01E-06,0.00568375
,,,-2E-06,0.005860625
,,,-1.99E-06,0.00539875
,,,-1.98E-06,0.005631875
,,,-1.97E-06,0.005571875
,,,-1.96E-06,0.005519375
,,,-1.95E-06,0.00574
,,,-1.94E-06,0.00546875
,,,-1.93E-06,0.00588625
,,,-1.92E-06,0.0055625
,,,-1.91E-06,0.00569875
,,,-1.9E-06,0.00544
,,,-1.89E-06,0.005715
,,,-1.88E-06,0.0056225
,,,-1.87E-06,0.005508125
,,,-1.86E-06,0.005739375
,,,-1.85E-06,0.005856875
,,,-1.84E-06,0.005380625
,,,-1.83E-06,0.005738125
,,,-1.82E-06,0.005653125
,,,-1.81E-06,0.00558
,,,-1.8E-06,0.005655625
,,,-1.79E-06,0.005718125
,,,-1.78E-06,0.005556875
,,,-1.77E-06,0.005629375
,,,-1.76E-06,0.0054825
,,,-1.75E-06,0.005873125
,,,-1.74E-06,0.00571
,,,-1.73E-06,0.005524375
,,,-1.72E-06,0.00548125
,,,-1.71E-06,0.0056525
,,,-1.7E-06,0.0057375
,,,-1.69E-06,0.00563
,,,-1.68E-06,0.005688125
,,,-1.67E-06,0.005599375
,,,-1.66E-06,0.00567375
,,,-1.65E-06,0.005585625
,,,-1.64E-06,0.005559375
,,,-1.63E-06,0.005799375
,,,-1.62E-06,0.00578375
,,,-1.61E-06,0.00568875
,,,-1.6E-06,0.00566
,,,-1.59E-06,0.005670625
,,,-1.58E-06,0.005814375
,,,-1.57E-06,0.0056775
,,,-1.56E-06,0.00573125
,,,-1.55E-06,0.005698125
,,,-1.54E-06,0.005605625
,,,-1.53E-06,0.005768125
,,,-1.52E-06,0.00580875
,,,-1.51E-06,0.0056875
,,,-1.5E-06,0.005886875
,,,-1.49E-06,0.0055375
,,,-1.48E-06,0.00563375
,,,-1.47E-06,0.005596875
,,,-1.46E-06,0.005661875
,,,-1.45E-06,0.005756875
,,,-1.44E-06,0.005390625
,,,-1.43E-06,0.00553
,,,-1.42E-06,0.0056925
,,,-1.41E-06,0.005583125
,,,-1.4E-06,0.0058075
,,,-1.39E-06,0.00540625
,,,-1.38E-06,0.005471875
,,,-1.37E-06,0.00555375
,,,-1.36E-06,0.005758125
,,,-1.35E-06,0.00561125
,,,-1.34E-06,0.005628125
,,,-1.33E-06,0.00558125
,,,-1.32E-06,0.005848125
,,,-1.31E-06,0.00580375
,,,-1.3E-06,0.005715625
,,,-1.29E-06,0.0054625
,,,-1.28E-06,0.00567625
,,,-1.27E-06,0.005605
,,,-1.26E-06,0.005951875
,,,-1.25E-06,0.00566
,,,-1.24E-06,0.00571125
,,,-1.23E-06,0.0055325
,,,-1.22E-06,0.005616875
,,,-1.21E-06,0.00579375
,,,-1.2E-06,0.005850625
,,,-1.19E-06,0.00577
,,,-1.18E-06,0.005561875
,,,-1.17E-06,0.005658125
,,,-1.16E-06,0.00555625
,,,-1.15E-06,0.005503125
,,,-1.14E-06,0.00563875
,,,-1.13E-06,0.005633125
,,,-1.12E-06,0.005719375
,,,-1.11E-06,0.0054925
,,,-1.1E-06,0.00514
,,,-1.09E-06,0.005628125
,,,-1.08E-06,0.005729375
,,,-1.07E-06,0.005570625
,,,-1.06E-06,0.00548375
,,,-1.05E-06,0.00560375
,,,-1.04E-06,0.00560625
,,,-1.03E-06,0.00566125
,,,-1.02E-06,0.00590375
,,,-1.01E-06,0.005494375
,,,-1E-06,0.005474375
,,,-9.9E-07,0.00577875
,,,-9.8E-07,0.005426875
,,,-9.7E-07,0.005496875
,,,-9.6E-07,0.005375625
,,,-9.5E-07,0.00592
,,,-9.4E-07,0.005468125
,,,-9.3E-07,0.005606875
,,,-9.2E-07,0.0056
,,,-9.1E-07,0.005645
,,,-9E-07,0.005443125
,,,-8.9E-07,0.005691875
,,,-8.8E-07,0.0056875
,,,-8.7E-07,0.00552
,,,-8.6E-07,0.00566
,,,-8.5E-07,0.005590625
,,,-8.4E-07,0.005550625
,,,-8.3E-07,0.0054875
,,,-8.2E-07,0.005658125
,,,-8.1E-07,0.0056875
,,,-8E-07,0.00561875
,,,-7.9E-07,0.005698125
,,,-7.8E-07,0.005796875
,,,-7.7E-07,0.005626875
,,,-7.6E-07,0.00572125
,,,-7.5E-07,0.005534375
,,,-7.4E-07,0.005753125
,,,-7.3E-07,0.00561
,,,-7.2E-07,0.005725
,,,-7.1E-07,0.005666875
,,,-7E-07,0.005490625
,,,-6.9E-07,0.005714375
,,,-6.8E-07,0.00585625
,,,-6.7E-07,0.00567625
,,,-6.6E-07,0.00571
,,,-6.5E-07,0.0057175
,,,-6.4E-07,0.00557
,,,-6.3E-07,0.0055525
,,,-6.2E-07,0.005610625
,,,-6.1E-07,0.00562125
,,,-6E-07,0.005645625
,,,-5.9E-07,0.005525
,,,-5.8E-07,0.0058
,,,-5.7E-07,0.00558125
,,,-5.6E-07,0.005473125
,,,-5.5E-07,0.00573
,,,-5.4E-07,0.005854375
,,,-5.3E-07,0.005655
,,,-5.2E-07,0.00541
,,,-5.1E-07,0.00574
,,,-5E-07,0.005825625
,,,-4.9E-07,0.00564625
,,,-4.8E-07,0.00552625
,,,-4.7E-07,0.005846875
,,,-4.6E-07,0.0055625
,,,-4.5E-07,0.005596875
,,,-4.4E-07,0.00575125
,,,-4.3E-07,0.00553625
,,,-4.2E-07,0.005575625
,,,-4.1E-07,0.005514375
,,,-4E-07,0.005655625
,,,-3.9E-07,0.005594375
,,,-3.8E-07,0.0056775
,,,-3.7E-07,0.005855625
,,,-3.6E-07,0.005570625
,,,-3.5E-07,0.005425625
,,,-3.4E-07,0.0057325
,,,-3.3E-07,0.00573375
,,,-3.2E-07,0.00569625
,,,-3.1E-07,0.00580625
,,,-3E-07,0.005440625
,,,-2.9E-07,0.005461875
,,,-2.8E-07,0.005603125
,,,-2.7E-07,0.005730625
,,,-2.6E-07,0.00574875
,,,-2.5E-07,0.005581875
,,,-2.4E-07,0.00533375
,,,-2.3E-07,0.005476875
,,,-2.2E-07,0.0055925
,,,-2.1E-07,0.005790625
,,,-2E-07,0.005754375
,,,-1.9E-07,0.005746875
,,,-1.8E-07,0.005671875
,,,-1.7E-07,0.00549875
,,,-1.6E-07,0.00546
,,,-1.5E-07,0.005771875
,,,-1.4E-07,0.005735625
,,,-1.3E-07,0.005591875
,,,-1.2E-07,0.00544625
,,,-1.1E-07,0.005675
,,,-1E-07,0.005426875
,,,-9E-08,0.005625625
,,,-8E-08,0.005665625
,,,-7E-08,0.005420625
,,,-6E-08,0.00552
,,,-5E-08,0.005756875
,,,-4E-08,0.00586875
,,,-3E-08,0.006265
,,,-2E-08,0.0042375
,,,-1E-08,0.003119375
,,,0,0.004201875
,,,1E-08,0.007908125
,,,2E-08,0.008579375
,,,3E-08,0.0074475
,,,4E-08,0.0047125
,,,5E-08,0.003606875
,,,6E-08,0.00377125
,,,7E-08,0.00517125
,,,8E-08,0.006435
,,,9E-08,0.007429375
,,,1E-07,0.006628125
,,,1.1E-07,0.006031875
,,,1.2E-07,0.004710625
,,,1.3E-07,0.0049
,,,1.4E-07,0.005301875
,,,1.5E-07,0.0060575
,,,1.6E-07,0.006131875
,,,1.7E-07,0.005570625
,,,1.8E-07,0.005563125
,,,1.9E-07,0.005669375
,,,2E-07,0.0054125
,,,2.1E-07,0.00542375
,,,2.2E-07,0.005434375
,,,2.3E-07,0.00563
,,,2.4E-07,0.005701875
,,,2.5E-07,0.00578
,,,2.6E-07,0.0056225
,,,2.7E-07,0.005629375
,,,2.8E-07,0.005336875
,,,2.9E-07,0.005653125
,,,3E-07,0.005354375
,,,3.1E-07,0.0054725
,,,3.2E-07,0.00579875
,,,3.3E-07,0.00575625
,,,3.4E-07,0.005375625
,,,3.5E-07,0.00550625
,,,3.6E-07,0.00546125
,,,3.7E-07,0.005721875
,,,3.8E-07,0.005466875
,,,3.9E-07,0.005614375
,,,4E-07,0.00570375
,,,4.1E-07,0.005686875
,,,4.2E-07,0.0056725
,,,4.3E-07,0.005538125
,,,4.4E-07,0.005471875
,,,4.5E-07,0.00573125
,,,4.6E-07,0.00574625
,,,4.7E-07,0.00570625
,,,4.8E-07,0.005653125
,,,4.9E-07,0.005525
,,,5E-07,0.00581125
,,,5.1E-07,0.005741875
,,,5.2E-07,0.005541875
,,,5.3E-07,0.005500625
,,,5.4E-07,0.00564875
,,,5.5E-07,0.00568875
,,,5.6E-07,0.005515
,,,5.7E-07,0.005688125
,,,5.8E-07,0.005603125
,,,5.9E-07,0.0053975
,,,6E-07,0.0056775
,,,6.1E-07,0.005580625
,,,6.2E-07,0.005220625
,,,6.3E-07,0.00557375
,,,6.4E-07,0.005649375
,,,6.5E-07,0.00551125
,,,6.6E-07,0.005734375
,,,6.7E-07,0.005548125
,,,6.8E-07,0.0056725
,,,6.9E-07,0.00574875
,,,7E-07,0.005278125
,,,7.1E-07,0.005493125
,,,7.2E-07,0.005850625
,,,7.3E-07,0.0056925
,,,7.4E-07,0.0057325
,,,7.5E-07,0.00554625
,,,7.6E-07,0.005620625
,,,7.7E-07,0.005585625
,,,7.8E-07,0.0054975
,,,7.9E-07,0.0056925
,,,8E-07,0.00544
,,,8.1E-07,0.005518125
,,,8.2E-07,0.005594375
,,,8.3E-07,0.005503125
,,,8.4E-07,0.005423125
,,,8.5E-07,0.005648125
,,,8.6E-07,0.00554
,,,8.7E-07,0.00574375
,,,8.8E-07,0.00552875
,,,8.9E-07,0.0056
,,,9E-07,0.00559
,,,9.1E-07,0.00546
,,,9.2E-07,0.005614375
,,,9.3E-07,0.00559125
,,,9.4E-07,0.005365
,,,9.5E-07,0.00573125
,,,9.6E-07,0.005513125
,,,9.7E-07,0.005485
,,,9.8E-07,0.005655
,,,9.9E-07,0.005535625
,,,1E-06,0.005495
,,,1.01E-06,0.00566375
,,,1.02E-06,0.005635
,,,1.03E-06,0.00555
,,,1.04E-06,0.005690625
,,,1.05E-06,0.00593875
,,,1.06E-06,0.005531875
,,,1.07E-06,0.00562375
,,,1.08E-06,0.005831875
,,,1.09E-06,0.00549375
,,,1.1E-06,0.005501875
,,,1.11E-06,0.005751875
,,,1.12E-06,0.00539
,,,1.13E-06,0.005588125
,,,1.14E-06,0.005716875
,,,1.15E-06,0.0055975
,,,1.16E-06,0.005673125
,,,1.17E-06,0.005690625
,,,1.18E-06,0.005433125
,,,1.19E-06,0.00561
,,,1.2E-06,0.005981875
,,,1.21E-06,0.005505
,,,1.22E-06,0.005625625
,,,1.23E-06,0.00600875
,,,1.24E-06,0.005840625
,,,1.25E-06,0.005569375
,,,1.26E-06,0.0058
,,,1.27E-06,0.00553625
,,,1.28E-06,0.005706875
,,,1.29E-06,0.005535
,,,1.3E-06,0.00548625
,,,1.31E-06,0.00558125
,,,1.32E-06,0.00572125
,,,1.33E-06,0.005783125
,,,1.34E-06,0.00578
,,,1.35E-06,0.005625625
,,,1.36E-06,0.005528125
,,,1.37E-06,0.00563875
,,,1.38E-06,0.005586875
,,,1.39E-06,0.00552375
,,,1.4E-06,0.005675625
,,,1.41E-06,0.005820625
,,,1.42E-06,0.00563625
,,,1.43E-06,0.00577625
,,,1.44E-06,0.005605625
,,,1.45E-06,0.005569375
,,,1.46E-06,0.005585
,,,1.47E-06,0.005701875
,,,1.48E-06,0.0055275
,,,1.49E-06,0.00575
,,,1.5E-06,0.005648125
,,,1.51E-06,0.005415625
,,,1.52E-06,0.00560125
,,,1.53E-06,0.005721875
,,,1.54E-06,0.00560125
,,,1.55E-06,0.005758125
,,,1.56E-06,0.00579
,,,1.57E-06,0.005736875
,,,1.58E-06,0.005771875
,,,1.59E-06,0.005596875
,,,1.6E-06,0.005526875
,,,1.61E-06,0.005496875
,,,1.62E-06,0.005799375
,,,1.63E-06,0.00564375
,,,1.64E-06,0.005558125
,,,1.65E-06,0.0056925
,,,1.66E-06,0.0055625
,,,1.67E-06,0.00547625
,,,1.68E-06,0.00537625
,,,1.69E-06,0.00563
,,,1.7E-06,0.00563875
,,,1.71E-06,0.00573625
,,,1.72E-06,0.005566875
,,,1.73E-06,0.005380625
,,,1.74E-06,0.005813125
,,,1.75E-06,0.005690625
,,,1.76E-06,0.0054275
,,,1.77E-06,0.0055325
,,,1.78E-06,0.005669375
,,,1.79E-06,0.0058
,,,1.8E-06,0.00587375
,,,1.81E-06,0.005646875
,,,1.82E-06,0.005666875
,,,1.83E-06,0.0057825
,,,1.84E-06,0.00564375
,,,1.85E-06,0.005715
,,,1.86E-06,0.0058125
,,,1.87E-06,0.005541875
,,,1.88E-06,0.005806875
,,,1.89E-06,0.005639375
,,,1.9E-06,0.0054975
,,,1.91E-06,0.005645625
,,,1.92E-06,0.005741875
,,,1.93E-06,0.005675625
,,,1.94E-06,0.005755
,,,1.95E-06,0.005745
,,,1.96E-06,0.005669375
,,,1.97E-06,0.0055625
,,,1.98E-06,0.005636875
,,,1.99E-06,0.00578375
,,,2E-06,0.00586625
,,,2.01E-06,0.005439375
,,,2.02E-06,0.005735625
,,,2.03E-06,0.00558
,,,2.04E-06,0.00557
,,,2.05E-06,0.0057575
,,,2.06E-06,0.005635
,,,2.07E-06,0.005768125
,,,2.08E-06,0.005449375
,,,2.09E-06,0.005179375
,,,2.1E-06,0.0055575
,,,2.11E-06,0.005711875
,,,2.12E-06,0.005670625
,,,2.13E-06,0.00572
,,,2.14E-06,0.005516875
,,,2.15E-06,0.005605625
,,,2.16E-06,0.005614375
,,,2.17E-06,0.00561125
,,,2.18E-06,0.005338125
,,,2.19E-06,0.005714375
,,,2.2E-06,0.005646875
,,,2.21E-06,0.005671875
,,,2.22E-06,0.005608125
,,,2.23E-06,0.00564375
,,,2.24E-06,0.005464375
,,,2.25E-06,0.005850625
,,,2.26E-06,0.005724375
,,,2.27E-06,0.00542
,,,2.28E-06,0.005530625
,,,2.29E-06,0.00571375
,,,2.3E-06,0.005778125
,,,2.31E-06,0.00562625
,,,2.32E-06,0.005839375
,,,2.33E-06,0.00555125
,,,2.34E-06,0.005556875
,,,2.35E-06,0.005499375
,,,2.36E-06,0.005609375
,,,2.37E-06,0.0054825
,,,2.38E-06,0.005811875
,,,2.39E-06,0.00559875
,,,2.4E-06,0.00584625
,,,2.41E-06,0.00559375
,,,2.42E-06,0.005634375
,,,2.43E-06,0.00548625
,,,2.44E-06,0.0055425
,,,2.45E-06,0.0056075
,,,2.46E-06,0.00563875
,,,2.47E-06,0.00557
,,,2.48E-06,0.006044375
,,,2.49E-06,0.00566
,,,2.5E-06,0.005471875
,,,2.51E-06,0.005625625
,,,2.52E-06,0.00557625
,,,2.53E-06,0.005508125
,,,2.54E-06,0.005719375
,,,2.55E-06,0.005588125
,,,2.56E-06,0.005545625
,,,2.57E-06,0.005796875
,,,2.58E-06,0.005623125
,,,2.59E-06,0.005548125
,,,2.6E-06,0.005825625
,,,2.61E-06,0.00562125
,,,2.62E-06,0.00572125
,,,2.63E-06,0.005641875
,,,2.64E-06,0.00576
,,,2.65E-06,0.005555625
,,,2.66E-06,0.005925625
,,,2.67E-06,0.005561875
,,,2.68E-06,0.005656875
,,,2.69E-06,0.00555875
,,,2.7E-06,0.005746875
,,,2.71E-06,0.005741875
,,,2.72E-06,0.005608125
,,,2.73E-06,0.005545625
,,,2.74E-06,0.005595625
,,,2.75E-06,0.00571
,,,2.76E-06,0.005655625
,,,2.77E-06,0.005524375
,,,2.78E-06,0.00568
,,,2.79E-06,0.005615625
,,,2.8E-06,0.005468125
,,,2.81E-06,0.0055675
,,,2.82E-06,0.005540625
,,,2.83E-06,0.005541875
,,,2.84E-06,0.00545
,,,2.85E-06,0.00571125
,,,2.86E-06,0.005828125
,,,2.87E-06,0.005509375
,,,2.88E-06,0.005951875
,,,2.89E-06,0.005573125
,,,2.9E-06,0.00559125
,,,2.91E-06,0.005580625
,,,2.92E-06,0.005449375
,,,2.93E-06,0.0054425
,,,2.94E-06,0.00589
,,,2.95E-06,0.005743125
,,,2.96E-06,0.005749375
,,,2.97E-06,0.005798125
,,,2.98E-06,0.005640625
,,,2.99E-06,0.005468125
,,,3E-06,0.005566875
,,,3.01E-06,0.00572375
,,,3.02E-06,0.0055225
,,,3.03E-06,0.005694375
,,,3.04E-06,0.005780625
,,,3.05E-06,0.00575875
,,,3.06E-06,0.005373125
,,,3.07E-06,0.005905625
,,,3.08E-06,0.005741875
,,,3.09E-06,0.00562
,,,3.1E-06,0.005731875
,,,3.11E-06,0.0057
,,,3.12E-06,0.005640625
,,,3.13E-06,0.005425625
,,,3.14E-06,0.005671875
,,,3.15E-06,0.00592375
,,,3.16E-06,0.005638125
,,,3.17E-06,0.005369375
,,,3.18E-06,0.0055375
,,,3.19E-06,0.0054975
,,,3.2E-06,0.005458125
,,,3.21E-06,0.005674375
,,,3.22E-06,0.005685
,,,3.23E-06,0.00563375
,,,3.24E-06,0.005569375
,,,3.25E-06,0.005605
,,,3.26E-06,0.00550875
,,,3.27E-06,0.0057075
,,,3.28E-06,0.005783125
,,,3.29E-06,0.005483125
,,,3.3E-06,0.0057775
,,,3.31E-06,0.005540625
,,,3.32E-06,0.005525
,,,3.33E-06,0.005665
,,,3.34E-06,0.005555625
,,,3.35E-06,0.005564375
,,,3.36E-06,0.00545625
,,,3.37E-06,0.00562625
,,,3.38E-06,0.00541
,,,3.39E-06,0.00561625
,,,3.4E-06,0.005583125
,,,3.41E-06,0.005418125
,,,3.42E-06,0.005195
,,,3.43E-06,0.00573
,,,3.44E-06,0.005509375
,,,3.45E-06,0.005455
,,,3.46E-06,0.00542875
,,,3.47E-06,0.005855
,,,3.48E-06,0.00558625
,,,3.49E-06,0.00551375
,,,3.5E-06,0.005665625
,,,3.51E-06,0.005555625
,,,3.52E-06,0.005465
,,,3.53E-06,0.005593125
,,,3.54E-06,0.00546
,,,3.55E-06,0.00548875
,,,3.56E-06,0.005363125
