data/raw/Final_POL_Test_1/SOP031_Ch4.csv

"Record Length",1000,"Points",-5E-06,0.02067125
"Sample Interval",1E-08,s,-4.99E-06,0.02066
"Trigger Point",500,"Samples",-4.98E-06,0.0208425
"Trigger Time",0,s,-4.97E-06,0.020639375
"",,,-4.96E-06,0.02092875
"Horizontal Offset",-5E-06,s,-4.95E-06,0.02082625
,,,-4.94E-06,0.020804375
,,,-4.93E-06,0.02065125
,,,-4.92E-06,0.02087125
,,,-4.91E-06,0.02079
,,,-4.9E-06,0.0207225
,,,-4.89E-06,0.02057375
,,,-4.88E-06,0.020683125
,,,-4.87E-06,0.02080125
,,,-4.86E-06,0.0206175
,,,-4.85E-06,0.020945625
,,,-4.84E-06,0.020676875
,,,-4.83E-06,0.02066625
,,,-4.82E-06,0.020774375
,,,-4.81E-06,0.020813125
,,,-4.8E-06,0.020674375
,,,-4.79E-06,0.020854375
,,,-4.78E-06,0.02044625
,,,-4.77E-06,0.020866875
,,,-4.76E-06,0.020519375
,,,-4.75E-06,0.020728125
,,,-4.74E-06,0.020825
,,,-4.73E-06,0.020736875
,,,-4.72E-06,0.020833125
,,,-4.71E-06,0.0205525
,,,-4.7E-06,0.02057375
,,,-4.69E-06,0.02068
,,,-4.68E-06,0.020895625
,,,-4.67E-06,0.02038375
,,,-4.66E-06,0.0210125
,,,-4.65E-06,0.020825625
,,,-4.64E-06,0.02086375
,,,-4.63E-06,0.0206625
,,,-4.62E-06,0.020676875
,,,-4.61E-06,0.020760625
,,,-4.6E-06,0.020564375
,,,-4.59E-06,0.020840625
,,,-4.58E-06,0.020813125
,,,-4.57E-06,0.02059875
,,,-4.56E-06,0.0207475
,,,-4.55E-06,0.020585
,,,-4.54E-06,0.020651875
,,,-4.53E-06,0.020703125
,,,-4.52E-06,0.02068
,,,-4.51E-06,0.020841875
,,,-4.5E-06,0.020601875
,,,-4.49E-06,0.02075
,,,-4.48E-06,0.020993125
,,,-4.47E-06,0.02071625
,,,-4.46E-06,0.020746875
,,,-4.45E-06,0.020574375
,,,-4.44E-06,0.020673125
,,,-4.43E-06,0.020886875
,,,-4.42E-06,0.020650625
,,,-4.41E-06,0.0209675
,,,-4.4E-06,0.0209575
,,,-4.39E-06,0.02082
,,,-4.38E-06,0.02073
,,,-4.37E-06,0.020571875
,,,-4.36E-06,0.020795625
,,,-4.35E-06,0.0210325
,,,-4.34E-06,0.020685625
,,,-4.33E-06,0.02062
,,,-4.32E-06,0.02079875
,,,-4.31E-06,0.020730625
,,,-4.3E-06,0.020591875
,,,-4.29E-06,0.02099125
,,,-4.28E-06,0.020721875
,,,-4.27E-06,0.021031875
,,,-4.26E-06,0.020818125
,,,-4.25E-06,0.02089125
,,,-4.24E-06,0.02045
,,,-4.23E-06,0.02077875
,,,-4.22E-06,0.020583125
,,,-4.21E-06,0.02082
,,,-4.2E-06,0.0206075
,,,-4.19E-06,0.020685625
,,,-4.18E-06,0.02098
,,,-4.17E-06,0.020904375
,,,-4.16E-06,0.0208225
,,,-4.15E-06,0.020811875
,,,-4.14E-06,0.020815
,,,-4.13E-06,0.02052375
,,,-4.12E-06,0.02060125
,,,-4.11E-06,0.02065
,,,-4.1E-06,0.020851875
,,,-4.09E-06,0.0209
,,,-4.08E-06,0.020713125
,,,-4.07E-06,0.020838125
,,,-4.06E-06,0.02083
,,,-4.05E-06,0.020665625
,,,-4.04E-06,0.020641875
,,,-4.03E-06,0.021009375
,,,-4.02E-06,0.02056125
,,,-4.01E-06,0.02075875
,,,-4E-06,0.02091875
,,,-3.99E-06,0.020796875
,,,-3.98E-06,0.020741875
,,,-3.97E-06,0.020885625
,,,-3.96E-06,0.0206225
,,,-3.95E-06,0.020838125
,,,-3.94E-06,0.020844375
,,,-3.93E-06,0.020689375
,,,-3.92E-06,0.02069875
,,,-3.91E-06,0.02110125
,,,-3.9E-06,0.02084
,,,-3.89E-06,0.020975
,,,-3.88E-06,0.020885625
,,,-3.87E-06,0.0207675
,,,-3.86E-06,0.02080875
,,,-3.85E-06,0.020556875
,,,-3.84E-06,0.020843125
,,,-3.83E-06,0.020824375
,,,-3.82E-06,0.020743125
,,,-3.81E-06,0.02067875
,,,-3.8E-06,0.020685
,,,-3.79E-06,0.02060375
,,,-3.78E-06,0.020868125
,,,-3.77E-06,0.020635625
,,,-3.76E-06,0.020935
,,,-3.75E-06,0.020714375
,,,-3.74E-06,0.020730625
,,,-3.73E-06,0.020830625
,,,-3.72E-06,0.020753125
,,,-3.71E-06,0.02075125
,,,-3.7E-06,0.020660625
,,,-3.69E-06,0.0207775
,,,-3.68E-06,0.0208325
,,,-3.67E-06,0.020865625
,,,-3.66E-06,0.02067125
,,,-3.65E-06,0.020856875
,,,-3.64E-06,0.0208175
,,,-3.63E-06,0.02084875
,,,-3.62E-06,0.020808125
,,,-3.61E-06,0.0207525
,,,-3.6E-06,0.020855625
,,,-3.59E-06,0.020639375
,,,-3.58E-06,0.02073625
,,,-3.57E-06,0.0206975
,,,-3.56E-06,0.0208075
,,,-3.55E-06,0.020773125
,,,-3.54E-06,0.02069875
,,,-3.53E-06,0.02094125
,,,-3.52E-06,0.0206975
,,,-3.51E-06,0.020940625
,,,-3.5E-06,0.0207825
,,,-3.49E-06,0.021025
,,,-3.48E-06,0.02086625
,,,-3.47E-06,0.021031875
,,,-3.46E-06,0.02077
,,,-3.45E-06,0.020741875
,,,-3.44E-06,0.0208125
,,,-3.43E-06,0.02061
,,,-3.42E-06,0.020593125
,,,-3.41E-06,0.020683125
,,,-3.4E-06,0.020785625
,,,-3.39E-06,0.020981875
,,,-3.38E-06,0.020706875
,,,-3.37E-06,0.020408125
,,,-3.36E-06,0.0208325
,,,-3.35E-06,0.020980625
,,,-3.34E-06,0.020751875
,,,-3.33E-06,0.020915625
,,,-3.32E-06,0.02063375
,,,-3.31E-06,0.0207425
,,,-3.3E-06,0.020809375
,,,-3.29E-06,0.02047625
,,,-3.28E-06,0.02072625
,,,-3.27E-06,0.0209675
,,,-3.26E-06,0.020705
,,,-3.25E-06,0.02093
,,,-3.24E-06,0.020963125
,,,-3.23E-06,0.020883125
,,,-3.22E-06,0.020731875
,,,-3.21E-06,0.020725625
,,,-3.2E-06,0.02085
,,,-3.19E-06,0.020791875
,,,-3.18E-06,0.020538125
,,,-3.17E-06,0.020993125
,,,-3.16E-06,0.020766875
,,,-3.15E-06,0.020705
,,,-3.14E-06,0.020535
,,,-3.13E-06,0.02076375
,,,-3.12E-06,0.0205875
,,,-3.11E-06,0.02075875
,,,-3.1E-06,0.020556875
,,,-3.09E-06,0.0205975
,,,-3.08E-06,0.020655625
,,,-3.07E-06,0.02093625
,,,-3.06E-06,0.0208075
,,,-3.05E-06,0.020759375
,,,-3.04E-06,0.020783125
,,,-3.03E-06,0.020529375
,,,-3.02E-06,0.02089375
,,,-3.01E-06,0.020684375
,,,-3E-06,0.02075875
,,,-2.99E-06,0.02087125
,,,-2.98E-06,0.020571875
,,,-2.97E-06,0.020480625
,,,-2.96E-06,0.020591875
,,,-2.95E-06,0.020745625
,,,-2.94E-06,0.020706875
,,,-2.93E-06,0.0206975
,,,-2.92E-06,0.020701875
,,,-2.91E-06,0.020741875
,,,-2.9E-06,0.020915625
,,,-2.89E-06,0.02042375
,,,-2.88E-06,0.02057
,,,-2.87E-06,0.02069375
,,,-2.86E-06,0.020873125
,,,-2.85E-06,0.020858125
,,,-2.84E-06,0.020835625
,,,-2.83E-06,0.020664375
,,,-2.82E-06,0.020830625
,,,-2.81E-06,0.02064125
,,,-2.8E-06,0.020691875
,,,-2.79E-06,0.0205575
,,,-2.78E-06,0.020888125
,,,-2.77E-06,0.020785625
,,,-2.76E-06,0.02068125
,,,-2.75E-06,0.0208025
,,,-2.74E-06,0.0206175
,,,-2.73E-06,0.02064625
,,,-2.72E-06,0.02077125
,,,-2.71E-06,0.0207325
,,,-2.7E-06,0.020934375
,,,-2.69E-06,0.020601875
,,,-2.68E-06,0.021135
,,,-2.67E-06,0.020949375
,,,-2.66E-06,0.020925625
,,,-2.65E-06,0.020873125
,,,-2.64E-06,0.02073125
,,,-2.63E-06,0.020643125
,,,-2.62E-06,0.02064
,,,-2.61E-06,0.02092875
,,,-2.6E-06,0.02068375
,,,-2.59E-06,0.02088125
,,,-2.58E-06,0.020866875
,,,-2.57E-06,0.020835
,,,-2.56E-06,0.020466875
,,,-2.55E-06,0.02060125
,,,-2.54E-06,0.0208125
,,,-2.53E-06,0.020688125
,,,-2.52E-06,0.020563125
,,,-2.51E-06,0.02076125
,,,-2.5E-06,0.020746875
,,,-2.49E-06,0.0206875
,,,-2.48E-06,0.020803125
,,,-2.47E-06,0.02101625
,,,-2.46E-06,0.02063
,,,-2.45E-06,0.0207775
,,,-2.44E-06,0.02068625
,,,-2.43E-06,0.0208675
,,,-2.42E-06,0.020678125
,,,-2.41E-06,0.020825625
,,,-2.4E-06,0.0209125
,,,-2.39E-06,0.0208
,,,-2.38E-06,0.02092625
,,,-2.37E-06,0.02079
,,,-2.36E-06,0.0206725
,,,-2.35E-06,0.020815
,,,-2.34E-06,0.020476875
,,,-2.33E-06,0.02092875
,,,-2.32E-06,0.020863125
,,,-2.31E-06,0.020785
,,,-2.3E-06,0.020668125
,,,-2.29E-06,0.02108125
,,,-2.28E-06,0.020696875
,,,-2.27E-06,0.020580625
,,,-2.26E-06,0.0209175
,,,-2.25E-06,0.020920625
,,,-2.24E-06,0.020644375
,,,-2.23E-06,0.0208625
,,,-2.22E-06,0.020704375
,,,-2.21E-06,0.02067875
,,,-2.2E-06,0.020891875
,,,-2.19E-06,0.020665625
,,,-2.18E-06,0.02092875
,,,-2.17E-06,0.020679375
,,,-2.16E-06,0.02081375
,,,-2.15E-06,0.020863125
,,,-2.14E-06,0.02093125
,,,-2.13E-06,0.0209575
,,,-2.12E-06,0.020815625
,,,-2.11E-06,0.02077625
,,,-2.1E-06,0.020980625
,,,-2.09E-06,0.02077
,,,-2.08E-06,0.0208775
,,,-2.07E-06,0.02052125
,,,-2.06E-06,0.02058375
,,,-2.05E-06,0.02068875
,,,-2.04E-06,0.02084625
,,,-2.03E-06,0.020783125
,,,-2.02E-06,0.020825625
,,,-2.01E-06,0.02085875
,,,-2E-06,0.020763125
,,,-1.99E-06,0.020965
,,,-1.98E-06,0.02040375
,,,-1.97E-06,0.02088
,,,-1.96E-06,0.020686875
,,,-1.95E-06,0.020925
,,,-1.94E-06,0.02084125
,,,-1.93E-06,0.0211
,,,-1.92E-06,0.02081125
,,,-1.91E-06,0.0207825
,,,-1.9E-06,0.02077625
,,,-1.89E-06,0.020851875
,,,-1.88E-06,0.020603125
,,,-1.87E-06,0.020665
,,,-1.86E-06,0.02094625
,,,-1.85E-06,0.020955
,,,-1.84E-06,0.020814375
,,,-1.83E-06,0.020561875
,,,-1.82E-06,0.020615
,,,-1.81E-06,0.02081625
,,,-1.8E-06,0.0208875
,,,-1.79E-06,0.02063875
,,,-1.78E-06,0.02040875
,,,-1.77E-06,0.02076875
,,,-1.76E-06,0.0207675
,,,-1.75E-06,0.0208475
,,,-1.74E-06,0.020639375
,,,-1.73E-06,0.0205625
,,,-1.72E-06,0.020850625
,,,-1.71E-06,0.02061375
,,,-1.7E-06,0.02073625
,,,-1.69E-06,0.020705
,,,-1.68E-06,0.020679375
,,,-1.67E-06,0.020883125
,,,-1.66E-06,0.020729375
,,,-1.65E-06,0.0207125
,,,-1.64E-06,0.0208725
,,,-1.63E-06,0.02096875
,,,-1.62E-06,0.020765
,,,-1.61E-06,0.020940625
,,,-1.6E-06,0.020981875
,,,-1.59E-06,0.020629375
,,,-1.58E-06,0.0207375
,,,-1.57E-06,0.02086
,,,-1.56E-06,0.02064625
,,,-1.55E-06,0.020765625
,,,-1.54E-06,0.02084125
,,,-1.53E-06,0.0209625
,,,-1.52E-06,0.020846875
,,,-1.51E-06,0.020620625
,,,-1.5E-06,0.02068875
,,,-1.49E-06,0.020644375
,,,-1.48E-06,0.020670625
,,,-1.47E-06,0.020696875
,,,-1.46E-06,0.020686875
,,,-1.45E-06,0.020785
,,,-1.44E-06,0.0208425
,,,-1.43E-06,0.020914375
,,,-1.42E-06,0.02104
,,,-1.41E-06,0.020725
,,,-1.4E-06,0.020818125
,,,-1.39E-06,0.020934375
,,,-1.38E-06,0.0207325
,,,-1.37E-06,0.0209825
,,,-1.36E-06,0.020909375
,,,-1.35E-06,0.020790625
,,,-1.34E-06,0.02074125
,,,-1.33E-06,0.020784375
,,,-1.32E-06,0.02064125
,,,-1.31E-06,0.020831875
,,,-1.3E-06,0.0207175
,,,-1.29E-06,0.020763125
,,,-1.28E-06,0.020919375
,,,-1.27E-06,0.0205925
,,,-1.26E-06,0.020878125
,,,-1.25E-06,0.020666875
,,,-1.24E-06,0.020689375
,,,-1.23E-06,0.020745
,,,-1.22E-06,0.020595625
,,,-1.21E-06,0.020889375
,,,-1.2E-06,0.020814375
,,,-1.19E-06,0.020646875
,,,-1.18E-06,0.020598125
,,,-1.17E-06,0.02064
,,,-1.16E-06,0.020730625
,,,-1.15E-06,0.0208225
,,,-1.14E-06,0.020651875
,,,-1.13E-06,0.020656875
,,,-1.12E-06,0.020778125
,,,-1.11E-06,0.020596875
,,,-1.1E-06,0.020773125
,,,-1.09E-06,0.02072375
,,,-1.08E-06,0.020536875
,,,-1.07E-06,0.020665
,,,-1.06E-06,0.02080875
,,,-1.05E-06,0.02080375
,,,-1.04E-06,0.02095125
,,,-1.03E-06,0.02059
,,,-1.02E-06,0.0207725
,,,-1.01E-06,0.02058875
,,,-1E-06,0.020515
,,,-9.9E-07,0.020685
,,,-9.8E-07,0.02072875
,,,-9.7E-07,0.020588125
,,,-9.6E-07,0.02078
,,,-9.5E-07,0.020876875
,,,-9.4E-07,0.02089625
,,,-9.3E-07,0.02079875
,,,-9.2E-07,0.0205
,,,-9.1E-07,0.02049875
,,,-9E-07,0.020865625
,,,-8.9E-07,0.020855
,,,-8.8E-07,0.020713125
,,,-8.7E-07,0.02077625
,,,-8.6E-07,0.020565
,,,-8.5E-07,0.020695625
,,,-8.4E-07,0.02093
,,,-8.3E-07,0.02081
,,,-8.2E-07,0.02083125
,,,-8.1E-07,0.02079125
,,,-8E-07,0.02091625
,,,-7.9E-07,0.020869375
,,,-7.8E-07,0.020553125
,,,-7.7E-07,0.02069125
,,,-7.6E-07,0.021045625
,,,-7.5E-07,0.0205475
,,,-7.4E-07,0.020808125
,,,-7.3E-07,0.02078125
,,,-7.2E-07,0.020655625
,,,-7.1E-07,0.02096375
,,,-7E-07,0.020770625
,,,-6.9E-07,0.0209675
,,,-6.8E-07,0.0209875
,,,-6.7E-07,0.0207675
,,,-6.6E-07,0.02073125
,,,-6.5E-07,0.020918125
,,,-6.4E-07,0.020680625
,,,-6.3E-07,0.02100125
,,,-6.2E-07,0.0206725
,,,-6.1E-07,0.0206025
,,,-6E-07,0.020821875
,,,-5.9E-07,0.020786875
,,,-5.8E-07,0.020825625
,,,-5.7E-07,0.020784375
,,,-5.6E-07,0.020738125
,,,-5.5E-07,0.020775625
,,,-5.4E-07,0.020654375
,,,-5.3E-07,0.020916875
,,,-5.2E-07,0.020825625
,,,-5.1E-07,0.0207725
,,,-5E-07,0.020835625
,,,-4.9E-07,0.020685
,,,-4.8E-07,0.020739375
,,,-4.7E-07,0.02079125
,,,-4.6E-07,0.020633125
,,,-4.5E-07,0.020556875
,,,-4.4E-07,0.0208575
,,,-4.3E-07,0.020629375
,,,-4.2E-07,0.020698125
,,,-4.1E-07,0.020664375
,,,-4E-07,0.020660625
,,,-3.9E-07,0.020725625
,,,-3.8E-07,0.0206675
,,,-3.7E-07,0.0207225
,,,-3.6E-07,0.02071625
,,,-3.5E-07,0.0208425
,,,-3.4E-07,0.020570625
,,,-3.3E-07,0.020528125
,,,-3.2E-07,0.020635
,,,-3.1E-07,0.0208075
,,,-3E-07,0.0209125
,,,-2.9E-07,0.020751875
,,,-2.8E-07,0.0208075
,,,-2.7E-07,0.020825
,,,-2.6E-07,0.020669375
,,,-2.5E-07,0.02056
,,,-2.4E-07,0.02090375
,,,-2.3E-07,0.0207125
,,,-2.2E-07,0.02047125
,,,-2.1E-07,0.020730625
,,,-2E-07,0.020928125
,,,-1.9E-07,0.0207925
,,,-1.8E-07,0.020960625
,,,-1.7E-07,0.020586875
,,,-1.6E-07,0.020703125
,,,-1.5E-07,0.0207225
,,,-1.4E-07,0.020693125
,,,-1.3E-07,0.020955625
,,,-1.2E-07,0.020693125
,,,-1.1E-07,0.020908125
,,,-1E-07,0.020775
,,,-9E-08,0.020865
,,,-8E-08,0.020820625
,,,-7E-08,0.020193125
,,,-6E-08,0.0210375
,,,-5E-08,0.02105875
,,,-4E-08,0.021598125
,,,-3E-08,0.020135625
,,,-2E-08,0.019849375
,,,-1E-08,0.0194475
,,,0,0.0213225
,,,1E-08,0.02176
,,,2E-08,0.021516875
,,,3E-08,0.0204525
,,,4E-08,0.01998625
,,,5E-08,0.02027
,,,6E-08,0.02049125
,,,7E-08,0.020903125
,,,8E-08,0.021375
,,,9E-08,0.021358125
,,,1E-07,0.0207775
,,,1.1E-07,0.020426875
,,,1.2E-07,0.02016625
,,,1.3E-07,0.020708125
,,,1.4E-07,0.0209875
,,,1.5E-07,0.0211025
,,,1.6E-07,0.02066375
,,,1.7E-07,0.020495625
,,,1.8E-07,0.02075
,,,1.9E-07,0.020820625
,,,2E-07,0.020718125
,,,2.1E-07,0.020740625
,,,2.2E-07,0.020678125
,,,2.3E-07,0.0207975
,,,2.4E-07,0.020816875
,,,2.5E-07,0.020825625
,,,2.6E-07,0.020819375
,,,2.7E-07,0.020530625
,,,2.8E-07,0.020585625
,,,2.9E-07,0.0206075
,,,3E-07,0.020959375
,,,3.1E-07,0.02091875
,,,3.2E-07,0.02075375
,,,3.3E-07,0.020791875
,,,3.4E-07,0.020816875
,,,3.5E-07,0.020698125
,,,3.6E-07,0.02077
,,,3.7E-07,0.020615625
,,,3.8E-07,0.02099
,,,3.9E-07,0.020729375
,,,4E-07,0.02078625
,,,4.1E-07,0.020730625
,,,4.2E-07,0.020704375
,,,4.3E-07,0.020791875
,,,4.4E-07,0.02078375
,,,4.5E-07,0.020965
,,,4.6E-07,0.020785625
,,,4.7E-07,0.02085125
,,,4.8E-07,0.02050625
,,,4.9E-07,0.02071625
,,,5E-07,0.02082125
,,,5.1E-07,0.02077375
,,,5.2E-07,0.020704375
,,,5.3E-07,0.021044375
,,,5.4E-07,0.020861875
,,,5.5E-07,0.020675
,,,5.6E-07,0.02102375
,,,5.7E-07,0.021
,,,5.8E-07,0.020926875
,,,5.9E-07,0.020753125
,,,6E-07,0.0208525
,,,6.1E-07,0.020636875
,,,6.2E-07,0.020963125
,,,6.3E-07,0.0206425
,,,6.4E-07,0.02092125
,,,6.5E-07,0.02062
,,,6.6E-07,0.02053625
,,,6.7E-07,0.020540625
,,,6.8E-07,0.020734375
,,,6.9E-07,0.021033125
,,,7E-07,0.0208575
,,,7.1E-07,0.0207075
,,,7.2E-07,0.020649375
,,,7.3E-07,0.02088375
,,,7.4E-07,0.02064625
,,,7.5E-07,0.020534375
,,,7.6E-07,0.020733125
,,,7.7E-07,0.020793125
,,,7.8E-07,0.0207225
,,,7.9E-07,0.020804375
,,,8E-07,0.020864375
,,,8.1E-07,0.02084375
,,,8.2E-07,0.020738125
,,,8.3E-07,0.0208625
,,,8.4E-07,0.020825625
,,,8.5E-07,0.020884375
,,,8.6E-07,0.0208775
,,,8.7E-07,0.020825
,,,8.8E-07,0.020758125
,,,8.9E-07,0.021004375
,,,9E-07,0.02063375
,,,9.1E-07,0.02098375
,,,9.2E-07,0.020925
,,,9.3E-07,0.020891875
,,,9.4E-07,0.02091
,,,9.5E-07,0.021078125
,,,9.6E-07,0.02076125
,,,9.7E-07,0.02092375
,,,9.8E-07,0.020805625
,,,9.9E-07,0.020388125
,,,1E-06,0.02069625
,,,1.01E-06,0.020845625
,,,1.02E-06,0.020605625
,,,1.03E-06,0.020815625
,,,1.04E-06,0.020793125
,,,1.05E-06,0.020839375
,,,1.06E-06,0.020716875
,,,1.07E-06,0.02060375
,,,1.08E-06,0.02099
,,,1.09E-06,0.020869375
,,,1.1E-06,0.020860625
,,,1.11E-06,0.02050375
,,,1.12E-06,0.020849375
,,,1.13E-06,0.020626875
,,,1.14E-06,0.020741875
,,,1.15E-06,0.020943125
,,,1.16E-06,0.020726875
,,,1.17E-06,0.020691875
,,,1.18E-06,0.020999375
,,,1.19E-06,0.0206675
,,,1.2E-06,0.02096125
,,,1.21E-06,0.020526875
,,,1.22E-06,0.020705
,,,1.23E-06,0.020865625
,,,1.24E-06,0.020758125
,,,1.25E-06,0.0208675
,,,1.26E-06,0.02089375
,,,1.27E-06,0.0209725
,,,1.28E-06,0.020754375
,,,1.29E-06,0.020780625
,,,1.3E-06,0.021008125
,,,1.31E-06,0.020909375
,,,1.32E-06,0.0209
,,,1.33E-06,0.02079
,,,1.34E-06,0.02077875
,,,1.35E-06,0.02071875
,,,1.36E-06,0.020605625
,,,1.37E-06,0.0207425
,,,1.38E-06,0.020821875
,,,1.39E-06,0.020773125
,,,1.4E-06,0.02096375
,,,1.41E-06,0.020873125
,,,1.42E-06,0.021045
,,,1.43E-06,0.020538125
,,,1.44E-06,0.020636875
,,,1.45E-06,0.020619375
,,,1.46E-06,0.020803125
,,,1.47E-06,0.020579375
,,,1.48E-06,0.02082625
,,,1.49E-06,0.02077875
,,,1.5E-06,0.020734375
,,,1.51E-06,0.0207275
,,,1.52E-06,0.02056
,,,1.53E-06,0.02115625
,,,1.54E-06,0.02070625
,,,1.55E-06,0.02079
,,,1.56E-06,0.020746875
,,,1.57E-06,0.02069625
,,,1.58E-06,0.020693125
,,,1.59E-06,0.02051625
,,,1.6E-06,0.020725
,,,1.61E-06,0.02061875
,,,1.62E-06,0.020851875
,,,1.63E-06,0.02069375
,,,1.64E-06,0.02081
,,,1.65E-06,0.0206925
,,,1.66E-06,0.020729375
,,,1.67E-06,0.02086875
,,,1.68E-06,0.0205775
,,,1.69E-06,0.0205025
,,,1.7E-06,0.02069
,,,1.71E-06,0.02067875
,,,1.72E-06,0.020803125
,,,1.73E-06,0.020613125
,,,1.74E-06,0.0209825
,,,1.75E-06,0.02083125
,,,1.76E-06,0.0207025
,,,1.77E-06,0.020628125
,,,1.78E-06,0.0208575
,,,1.79E-06,0.020834375
,,,1.8E-06,0.020929375
,,,1.81E-06,0.020858125
,,,1.82E-06,0.020705625
,,,1.83E-06,0.020734375
,,,1.84E-06,0.02072125
,,,1.85E-06,0.02111125
,,,1.86E-06,0.0207975
,,,1.87E-06,0.020896875
,,,1.88E-06,0.020764375
,,,1.89E-06,0.02071375
,,,1.9E-06,0.020901875
,,,1.91E-06,0.020916875
,,,1.92E-06,0.020619375
,,,1.93E-06,0.020649375
,,,1.94E-06,0.02079875
,,,1.95E-06,0.020626875
,,,1.96E-06,0.02089375
,,,1.97E-06,0.020758125
,,,1.98E-06,0.020919375
,,,1.99E-06,0.020875625
,,,2E-06,0.02068
,,,2.01E-06,0.020685625
,,,2.02E-06,0.020814375
,,,2.03E-06,0.02093
,,,2.04E-06,0.020659375
,,,2.05E-06,0.0208575
,,,2.06E-06,0.020928125
,,,2.07E-06,0.020795
,,,2.08E-06,0.020605
,,,2.09E-06,0.020934375
,,,2.1E-06,0.0206875
,,,2.11E-06,0.020831875
,,,2.12E-06,0.02073125
,,,2.13E-06,0.0210825
,,,2.14E-06,0.02060625
,,,2.15E-06,0.02035375
,,,2.16E-06,0.0208975
,,,2.17E-06,0.020559375
,,,2.18E-06,0.0206575
,,,2.19E-06,0.020838125
,,,2.2E-06,0.020955625
,,,2.21E-06,0.020486875
,,,2.22E-06,0.02076625
,,,2.23E-06,0.0207975
,,,2.24E-06,0.0208075
,,,2.25E-06,0.0207875
,,,2.26E-06,0.020825625
,,,2.27E-06,0.020544375
,,,2.28E-06,0.0209375
,,,2.29E-06,0.0205725
,,,2.3E-06,0.020661875
,,,2.31E-06,0.02095875
,,,2.32E-06,0.020651875
,,,2.33E-06,0.0205925
,,,2.34E-06,0.020711875
,,,2.35E-06,0.0205675
,,,2.36E-06,0.020601875
,,,2.37E-06,0.02072
,,,2.38E-06,0.020631875
,,,2.39E-06,0.02105125
,,,2.4E-06,0.02092375
,,,2.41E-06,0.020729375
,,,2.42E-06,0.02059
,,,2.43E-06,0.0206775
,,,2.44E-06,0.02079375
,,,2.45E-06,0.02099375
,,,2.46E-06,0.020859375
,,,2.47E-06,0.020664375
,,,2.48E-06,0.020875625
,,,2.49E-06,0.020893125
,,,2.5E-06,0.0207625
,,,2.51E-06,0.02054625
,,,2.52E-06,0.020768125
,,,2.53E-06,0.02114375
,,,2.54E-06,0.020688125
,,,2.55E-06,0.0205775
,,,2.56E-06,0.0209775
,,,2.57E-06,0.020708125
,,,2.58E-06,0.020966875
,,,2.59E-06,0.020890625
,,,2.6E-06,0.020781875
,,,2.61E-06,0.02076625
,,,2.62E-06,0.020960625
,,,2.63E-06,0.020593125
,,,2.64E-06,0.02108375
,,,2.65E-06,0.02061625
,,,2.66E-06,0.020660625
,,,2.67E-06,0.020574375
,,,2.68E-06,0.020639375
,,,2.69E-06,0.02075375
,,,2.7E-06,0.02066
,,,2.71E-06,0.020625
,,,2.72E-06,0.020824375
,,,2.73E-06,0.020775
,,,2.74E-06,0.0207775
,,,2.75E-06,0.02077375
,,,2.76E-06,0.02056125
,,,2.77E-06,0.020499375
,,,2.78E-06,0.020695
,,,2.79E-06,0.020775625
,,,2.8E-06,0.02087125
,,,2.81E-06,0.020774375
,,,2.82E-06,0.020948125
,,,2.83E-06,0.020859375
,,,2.84E-06,0.0207325
,,,2.85E-06,0.020705
,,,2.86E-06,0.020749375
,,,2.87E-06,0.020865
,,,2.88E-06,0.0207925
,,,2.89E-06,0.02091125
,,,2.9E-06,0.020860625
,,,2.91E-06,0.021089375
,,,2.92E-06,0.02109125
,,,2.93E-06,0.0207375
,,,2.94E-06,0.02078
,,,2.95E-06,0.02098375
,,,2.96E-06,0.020675625
,,,2.97E-06,0.020905
,,,2.98E-06,0.020735
,,,2.99E-06,0.020711875
,,,3E-06,0.020945
,,,3.01E-06,0.0209675
,,,3.02E-06,0.0207275
,,,3.03E-06,0.020774375
,,,3.04E-06,0.020810625
,,,3.05E-06,0.020881875
,,,3.06E-06,0.02089125
,,,3.07E-06,0.020796875
,,,3.08E-06,0.020595
,,,3.09E-06,0.02042125
,,,3.1E-06,0.0207075
,,,3.11E-06,0.02079125
,,,3.12E-06,0.02075375
,,,3.13E-06,0.020619375
,,,3.14E-06,0.020965
,,,3.15E-06,0.020813125
,,,3.16E-06,0.020541875
,,,3.17E-06,0.020795625
,,,3.18E-06,0.020675625
,,,3.19E-06,0.020568125
,,,3.2E-06,0.020969375
,,,3.21E-06,0.0207175
,,,3.22E-06,0.020763125
,,,3.23E-06,0.0207875
,,,3.24E-06,0.020806875
,,,3.25E-06,0.02105125
,,,3.26E-06,0.02064
,,,3.27E-06,0.020740625
,,,3.28E-06,0.020716875
,,,3.29E-06,0.021235625
,,,3.3E-06,0.02071625
,,,3.31E-06,0.02048625
,,,3.32E-06,0.020494375
,,,3.33E-06,0.0206875
,,,3.34E-06,0.020579375
,,,3.35E-06,0.0209025
,,,3.36E-06,0.020633125
,,,3.37E-06,0.020585625
,,,3.38E-06,0.020813125
,,,3.39E-06,0.020714375
,,,3.4E-06,0.02078875
,,,3.41E-06,0.020453125
,,,3.42E-06,0.02071125
,,,3.43E-06,0.0208675
,,,3.44E-06,0.020685625
,,,3.45E-06,0.020911875
,,,3.46E-06,0.0209
,,,3.47E-06,0.02074375
,,,3.48E-06,0.020778125
,,,3.49E-06,0.020636875
,,,3.5E-06,0.020688125
,,,3.51E-06,0.020829375
,,,3.52E-06,0.020853125
,,,3.53E-06,0.020920625
,,,3.54E-06,0.02066625
,,,3.55E-06,0.020708125
,,,3.56E-06,0.020478125
,,,3.57E-06,0.02070375
