data/raw/Final_POL_Test_1/SOP071_Ch4.csv

"Record Length",1000,"Points",-5E-06,0.020694375
"Sample Interval",1E-08,s,-4.99E-06,0.020881875
"Trigger Point",500,"Samples",-4.98E-06,0.021090625
"Trigger Time",0,s,-4.97E-06,0.02082625
"",,,-4.96E-06,0.020745625
"Horizontal Offset",-5E-06,s,-4.95E-06,0.0209375
,,,-4.94E-06,0.021078125
,,,-4.93E-06,0.020913125
,,,-4.92E-06,0.02099125
,,,-4.91E-06,0.0211225
,,,-4.9E-06,0.020755625
,,,-4.89E-06,0.020915
,,,-4.88E-06,0.020971875
,,,-4.87E-06,0.0208725
,,,-4.86E-06,0.020813125
,,,-4.85E-06,0.02073875
,,,-4.84E-06,0.020715
,,,-4.83E-06,0.02087375
,,,-4.82E-06,0.0208825
,,,-4.81E-06,0.02090875
,,,-4.8E-06,0.0209725
,,,-4.79E-06,0.020813125
,,,-4.78E-06,0.020786875
,,,-4.77E-06,0.020981875
,,,-4.76E-06,0.020869375
,,,-4.75E-06,0.020935
,,,-4.74E-06,0.02074375
,,,-4.73E-06,0.020998125
,,,-4.72E-06,0.020770625
,,,-4.71E-06,0.0209625
,,,-4.7E-06,0.020868125
,,,-4.69E-06,0.020766875
,,,-4.68E-06,0.021061875
,,,-4.67E-06,0.0209975
,,,-4.66E-06,0.020701875
,,,-4.65E-06,0.02093875
,,,-4.64E-06,0.02102625
,,,-4.63E-06,0.020919375
,,,-4.62E-06,0.02098125
,,,-4.61E-06,0.02075375
,,,-4.6E-06,0.0210375
,,,-4.59E-06,0.020854375
,,,-4.58E-06,0.020748125
,,,-4.57E-06,0.020791875
,,,-4.56E-06,0.02100375
,,,-4.55E-06,0.020761875
,,,-4.54E-06,0.021068125
,,,-4.53E-06,0.021176875
,,,-4.52E-06,0.02111375
,,,-4.51E-06,0.020836875
,,,-4.5E-06,0.0208425
,,,-4.49E-06,0.020985
,,,-4.48E-06,0.02085875
,,,-4.47E-06,0.02107375
,,,-4.46E-06,0.02088375
,,,-4.45E-06,0.021066875
,,,-4.44E-06,0.0205925
,,,-4.43E-06,0.02078
,,,-4.42E-06,0.02073
,,,-4.41E-06,0.0207975
,,,-4.4E-06,0.0210275
,,,-4.39E-06,0.021009375
,,,-4.38E-06,0.0209925
,,,-4.37E-06,0.020883125
,,,-4.36E-06,0.0207875
,,,-4.35E-06,0.0208625
,,,-4.34E-06,0.0208625
,,,-4.33E-06,0.02096625
,,,-4.32E-06,0.02126375
,,,-4.31E-06,0.020891875
,,,-4.3E-06,0.021164375
,,,-4.29E-06,0.020959375
,,,-4.28E-06,0.020788125
,,,-4.27E-06,0.020723125
,,,-4.26E-06,0.020655
,,,-4.25E-06,0.02101125
,,,-4.24E-06,0.0211075
,,,-4.23E-06,0.02085625
,,,-4.22E-06,0.021233125
,,,-4.21E-06,0.020974375
,,,-4.2E-06,0.020844375
,,,-4.19E-06,0.02078125
,,,-4.18E-06,0.02102
,,,-4.17E-06,0.02091625
,,,-4.16E-06,0.02078125
,,,-4.15E-06,0.02092125
,,,-4.14E-06,0.020739375
,,,-4.13E-06,0.02081
,,,-4.12E-06,0.02095625
,,,-4.11E-06,0.020945
,,,-4.1E-06,0.020675625
,,,-4.09E-06,0.02095875
,,,-4.08E-06,0.0209325
,,,-4.07E-06,0.02124
,,,-4.06E-06,0.020914375
,,,-4.05E-06,0.020863125
,,,-4.04E-06,0.020726875
,,,-4.03E-06,0.020848125
,,,-4.02E-06,0.020849375
,,,-4.01E-06,0.020911875
,,,-4E-06,0.020814375
,,,-3.99E-06,0.021020625
,,,-3.98E-06,0.0206475
,,,-3.97E-06,0.0209025
,,,-3.96E-06,0.020665625
,,,-3.95E-06,0.020990625
,,,-3.94E-06,0.020913125
,,,-3.93E-06,0.020875625
,,,-3.92E-06,0.020849375
,,,-3.91E-06,0.020900625
,,,-3.9E-06,0.020974375
,,,-3.89E-06,0.02097375
,,,-3.88E-06,0.021024375
,,,-3.87E-06,0.0207175
,,,-3.86E-06,0.02074625
,,,-3.85E-06,0.02078625
,,,-3.84E-06,0.02111375
,,,-3.83E-06,0.021105
,,,-3.82E-06,0.020818125
,,,-3.81E-06,0.020813125
,,,-3.8E-06,0.020855625
,,,-3.79E-06,0.020785
,,,-3.78E-06,0.0207275
,,,-3.77E-06,0.021010625
,,,-3.76E-06,0.02089625
,,,-3.75E-06,0.0208575
,,,-3.74E-06,0.02082375
,,,-3.73E-06,0.021081875
,,,-3.72E-06,0.02104375
,,,-3.71E-06,0.0207675
,,,-3.7E-06,0.02102375
,,,-3.69E-06,0.02110125
,,,-3.68E-06,0.020609375
,,,-3.67E-06,0.0208375
,,,-3.66E-06,0.0209
,,,-3.65E-06,0.020831875
,,,-3.64E-06,0.02080125
,,,-3.63E-06,0.020958125
,,,-3.62E-06,0.021051875
,,,-3.61E-06,0.02104125
,,,-3.6E-06,0.021030625
,,,-3.59E-06,0.02103875
,,,-3.58E-06,0.021011875
,,,-3.57E-06,0.0209625
,,,-3.56E-06,0.02086375
,,,-3.55E-06,0.02103875
,,,-3.54E-06,0.020978125
,,,-3.53E-06,0.02080625
,,,-3.52E-06,0.02082
,,,-3.51E-06,0.020970625
,,,-3.5E-06,0.021071875
,,,-3.49E-06,0.02113125
,,,-3.48E-06,0.02088625
,,,-3.47E-06,0.020725625
,,,-3.46E-06,0.020755625
,,,-3.45E-06,0.02074875
,,,-3.44E-06,0.021015625
,,,-3.43E-06,0.020956875
,,,-3.42E-06,0.020890625
,,,-3.41E-06,0.021081875
,,,-3.4E-06,0.021158125
,,,-3.39E-06,0.02105125
,,,-3.38E-06,0.02084125
,,,-3.37E-06,0.02107125
,,,-3.36E-06,0.020823125
,,,-3.35E-06,0.020839375
,,,-3.34E-06,0.020885
,,,-3.33E-06,0.02095875
,,,-3.32E-06,0.020813125
,,,-3.31E-06,0.020941875
,,,-3.3E-06,0.0208425
,,,-3.29E-06,0.021125625
,,,-3.28E-06,0.02102875
,,,-3.27E-06,0.020764375
,,,-3.26E-06,0.02115375
,,,-3.25E-06,0.020905625
,,,-3.24E-06,0.021006875
,,,-3.23E-06,0.020734375
,,,-3.22E-06,0.020804375
,,,-3.21E-06,0.02079875
,,,-3.2E-06,0.020904375
,,,-3.19E-06,0.02079
,,,-3.18E-06,0.02081
,,,-3.17E-06,0.021050625
,,,-3.16E-06,0.02110375
,,,-3.15E-06,0.020900625
,,,-3.14E-06,0.020930625
,,,-3.13E-06,0.0209175
,,,-3.12E-06,0.02105875
,,,-3.11E-06,0.020750625
,,,-3.1E-06,0.020910625
,,,-3.09E-06,0.020885
,,,-3.08E-06,0.020675
,,,-3.07E-06,0.02081
,,,-3.06E-06,0.020916875
,,,-3.05E-06,0.020875625
,,,-3.04E-06,0.020844375
,,,-3.03E-06,0.020730625
,,,-3.02E-06,0.020820625
,,,-3.01E-06,0.020851875
,,,-3E-06,0.020935
,,,-2.99E-06,0.0209525
,,,-2.98E-06,0.020793125
,,,-2.97E-06,0.020635625
,,,-2.96E-06,0.020908125
,,,-2.95E-06,0.020999375
,,,-2.94E-06,0.020928125
,,,-2.93E-06,0.020704375
,,,-2.92E-06,0.020966875
,,,-2.91E-06,0.02080375
,,,-2.9E-06,0.020978125
,,,-2.89E-06,0.02078875
,,,-2.88E-06,0.021063125
,,,-2.87E-06,0.020968125
,,,-2.86E-06,0.020700625
,,,-2.85E-06,0.02086125
,,,-2.84E-06,0.0209475
,,,-2.83E-06,0.02065
,,,-2.82E-06,0.021154375
,,,-2.81E-06,0.02076375
,,,-2.8E-06,0.02084
,,,-2.79E-06,0.0207175
,,,-2.78E-06,0.0207475
,,,-2.77E-06,0.020975
,,,-2.76E-06,0.020908125
,,,-2.75E-06,0.020781875
,,,-2.74E-06,0.0211275
,,,-2.73E-06,0.020909375
,,,-2.72E-06,0.021068125
,,,-2.71E-06,0.02078375
,,,-2.7E-06,0.020938125
,,,-2.69E-06,0.0208025
,,,-2.68E-06,0.020956875
,,,-2.67E-06,0.020871875
,,,-2.66E-06,0.020966875
,,,-2.65E-06,0.0208325
,,,-2.64E-06,0.020865625
,,,-2.63E-06,0.020923125
,,,-2.62E-06,0.020749375
,,,-2.61E-06,0.02095625
,,,-2.6E-06,0.020996875
,,,-2.59E-06,0.02102
,,,-2.58E-06,0.02078625
,,,-2.57E-06,0.0208475
,,,-2.56E-06,0.020818125
,,,-2.55E-06,0.021036875
,,,-2.54E-06,0.02092375
,,,-2.53E-06,0.020745
,,,-2.52E-06,0.02074
,,,-2.51E-06,0.020778125
,,,-2.5E-06,0.020965625
,,,-2.49E-06,0.020979375
,,,-2.48E-06,0.020964375
,,,-2.47E-06,0.02105375
,,,-2.46E-06,0.02081
,,,-2.45E-06,0.02080875
,,,-2.44E-06,0.020670625
,,,-2.43E-06,0.021108125
,,,-2.42E-06,0.020648125
,,,-2.41E-06,0.02114375
,,,-2.4E-06,0.020836875
,,,-2.39E-06,0.02091625
,,,-2.38E-06,0.02063625
,,,-2.37E-06,0.021083125
,,,-2.36E-06,0.02094375
,,,-2.35E-06,0.020760625
,,,-2.34E-06,0.02127625
,,,-2.33E-06,0.020618125
,,,-2.32E-06,0.020983125
,,,-2.31E-06,0.020808125
,,,-2.3E-06,0.020945625
,,,-2.29E-06,0.020856875
,,,-2.28E-06,0.0207975
,,,-2.27E-06,0.0208975
,,,-2.26E-06,0.02069
,,,-2.25E-06,0.020885
,,,-2.24E-06,0.021038125
,,,-2.23E-06,0.020795
,,,-2.22E-06,0.020818125
,,,-2.21E-06,0.02072875
,,,-2.2E-06,0.02103
,,,-2.19E-06,0.021036875
,,,-2.18E-06,0.021006875
,,,-2.17E-06,0.020908125
,,,-2.16E-06,0.0209
,,,-2.15E-06,0.020946875
,,,-2.14E-06,0.021031875
,,,-2.13E-06,0.020843125
,,,-2.12E-06,0.02107875
,,,-2.11E-06,0.02095
,,,-2.1E-06,0.020855625
,,,-2.09E-06,0.020914375
,,,-2.08E-06,0.021035625
,,,-2.07E-06,0.02075125
,,,-2.06E-06,0.021043125
,,,-2.05E-06,0.020831875
,,,-2.04E-06,0.0208
,,,-2.03E-06,0.020866875
,,,-2.02E-06,0.02079375
,,,-2.01E-06,0.020884375
,,,-2E-06,0.021231875
,,,-1.99E-06,0.020700625
,,,-1.98E-06,0.020839375
,,,-1.97E-06,0.020778125
,,,-1.96E-06,0.020848125
,,,-1.95E-06,0.02097375
,,,-1.94E-06,0.020766875
,,,-1.93E-06,0.021140625
,,,-1.92E-06,0.020921875
,,,-1.91E-06,0.0209025
,,,-1.9E-06,0.02083125
,,,-1.89E-06,0.021005625
,,,-1.88E-06,0.02118625
,,,-1.87E-06,0.020801875
,,,-1.86E-06,0.020735625
,,,-1.85E-06,0.020820625
,,,-1.84E-06,0.0206575
,,,-1.83E-06,0.021033125
,,,-1.82E-06,0.02068
,,,-1.81E-06,0.02103
,,,-1.8E-06,0.02068875
,,,-1.79E-06,0.02080375
,,,-1.78E-06,0.0210375
,,,-1.77E-06,0.020848125
,,,-1.76E-06,0.02081125
,,,-1.75E-06,0.020798125
,,,-1.74E-06,0.02104625
,,,-1.73E-06,0.020831875
,,,-1.72E-06,0.020720625
,,,-1.71E-06,0.02090875
,,,-1.7E-06,0.02098875
,,,-1.69E-06,0.021009375
,,,-1.68E-06,0.020833125
,,,-1.67E-06,0.020961875
,,,-1.66E-06,0.0208975
,,,-1.65E-06,0.0209875
,,,-1.64E-06,0.020746875
,,,-1.63E-06,0.020828125
,,,-1.62E-06,0.020829375
,,,-1.61E-06,0.020926875
,,,-1.6E-06,0.021143125
,,,-1.59E-06,0.020831875
,,,-1.58E-06,0.020914375
,,,-1.57E-06,0.0207775
,,,-1.56E-06,0.020798125
,,,-1.55E-06,0.020681875
,,,-1.54E-06,0.021045625
,,,-1.53E-06,0.020686875
,,,-1.52E-06,0.0210125
,,,-1.51E-06,0.021203125
,,,-1.5E-06,0.021033125
,,,-1.49E-06,0.0210875
,,,-1.48E-06,0.020951875
,,,-1.47E-06,0.020436875
,,,-1.46E-06,0.0207025
,,,-1.45E-06,0.02094125
,,,-1.44E-06,0.020706875
,,,-1.43E-06,0.020853125
,,,-1.42E-06,0.02103
,,,-1.41E-06,0.02087625
,,,-1.4E-06,0.02080375
,,,-1.39E-06,0.02063875
,,,-1.38E-06,0.02045125
,,,-1.37E-06,0.020998125
,,,-1.36E-06,0.021168125
,,,-1.35E-06,0.020621875
,,,-1.34E-06,0.02095125
,,,-1.33E-06,0.020834375
,,,-1.32E-06,0.02100125
,,,-1.31E-06,0.020645625
,,,-1.3E-06,0.020980625
,,,-1.29E-06,0.021038125
,,,-1.28E-06,0.02079375
,,,-1.27E-06,0.02100375
,,,-1.26E-06,0.0210325
,,,-1.25E-06,0.02096375
,,,-1.24E-06,0.020801875
,,,-1.23E-06,0.020569375
,,,-1.22E-06,0.020546875
,,,-1.21E-06,0.020765
,,,-1.2E-06,0.0209325
,,,-1.19E-06,0.021035
,,,-1.18E-06,0.02109
,,,-1.17E-06,0.021045
,,,-1.16E-06,0.021059375
,,,-1.15E-06,0.0209275
,,,-1.14E-06,0.020840625
,,,-1.13E-06,0.02105125
,,,-1.12E-06,0.020798125
,,,-1.11E-06,0.020786875
,,,-1.1E-06,0.020891875
,,,-1.09E-06,0.020840625
,,,-1.08E-06,0.0207975
,,,-1.07E-06,0.021005
,,,-1.06E-06,0.020813125
,,,-1.05E-06,0.02067125
,,,-1.04E-06,0.02068375
,,,-1.03E-06,0.02090375
,,,-1.02E-06,0.0209025
,,,-1.01E-06,0.021055625
,,,-1E-06,0.0211
,,,-9.9E-07,0.0209025
,,,-9.8E-07,0.02082125
,,,-9.7E-07,0.0209375
,,,-9.6E-07,0.02085
,,,-9.5E-07,0.02069625
,,,-9.4E-07,0.02074
,,,-9.3E-07,0.02121875
,,,-9.2E-07,0.020759375
,,,-9.1E-07,0.02085
,,,-9E-07,0.020611875
,,,-8.9E-07,0.020895625
,,,-8.8E-07,0.02087
,,,-8.7E-07,0.020763125
,,,-8.6E-07,0.02080875
,,,-8.5E-07,0.021000625
,,,-8.4E-07,0.02082625
,,,-8.3E-07,0.020791875
,,,-8.2E-07,0.021274375
,,,-8.1E-07,0.02102375
,,,-8E-07,0.02085
,,,-7.9E-07,0.0208575
,,,-7.8E-07,0.0210125
,,,-7.7E-07,0.02092125
,,,-7.6E-07,0.020903125
,,,-7.5E-07,0.02112875
,,,-7.4E-07,0.0208175
,,,-7.3E-07,0.020991875
,,,-7.2E-07,0.020898125
,,,-7.1E-07,0.0210275
,,,-7E-07,0.020870625
,,,-6.9E-07,0.02098125
,,,-6.8E-07,0.020915
,,,-6.7E-07,0.020961875
,,,-6.6E-07,0.02092625
,,,-6.5E-07,0.021005625
,,,-6.4E-07,0.02103
,,,-6.3E-07,0.020770625
,,,-6.2E-07,0.020791875
,,,-6.1E-07,0.021084375
,,,-6E-07,0.020994375
,,,-5.9E-07,0.020953125
,,,-5.8E-07,0.020931875
,,,-5.7E-07,0.020713125
,,,-5.6E-07,0.020845625
,,,-5.5E-07,0.02109875
,,,-5.4E-07,0.020878125
,,,-5.3E-07,0.020860625
,,,-5.2E-07,0.020765625
,,,-5.1E-07,0.021005625
,,,-5E-07,0.020819375
,,,-4.9E-07,0.020769375
,,,-4.8E-07,0.020845
,,,-4.7E-07,0.021070625
,,,-4.6E-07,0.02080875
,,,-4.5E-07,0.020883125
,,,-4.4E-07,0.0208225
,,,-4.3E-07,0.02081875
,,,-4.2E-07,0.0208475
,,,-4.1E-07,0.02082125
,,,-4E-07,0.0208475
,,,-3.9E-07,0.020898125
,,,-3.8E-07,0.02086875
,,,-3.7E-07,0.020756875
,,,-3.6E-07,0.020875
,,,-3.5E-07,0.020506875
,,,-3.4E-07,0.0209
,,,-3.3E-07,0.020698125
,,,-3.2E-07,0.020930625
,,,-3.1E-07,0.0207075
,,,-3E-07,0.02085125
,,,-2.9E-07,0.020734375
,,,-2.8E-07,0.021029375
,,,-2.7E-07,0.020850625
,,,-2.6E-07,0.0210075
,,,-2.5E-07,0.02089
,,,-2.4E-07,0.02073
,,,-2.3E-07,0.020880625
,,,-2.2E-07,0.020850625
,,,-2.1E-07,0.021005
,,,-2E-07,0.02071
,,,-1.9E-07,0.020500625
,,,-1.8E-07,0.020765625
,,,-1.7E-07,0.021036875
,,,-1.6E-07,0.020919375
,,,-1.5E-07,0.02061
,,,-1.4E-07,0.02100125
,,,-1.3E-07,0.02096375
,,,-1.2E-07,0.02112
,,,-1.1E-07,0.020841875
,,,-1E-07,0.0209175
,,,-9E-08,0.02076125
,,,-8E-08,0.02082625
,,,-7E-08,0.020826875
,,,-6E-08,0.021080625
,,,-5E-08,0.0209525
,,,-4E-08,0.021308125
,,,-3E-08,0.02180375
,,,-2E-08,0.019484375
,,,-1E-08,0.01992125
,,,0,0.01900125
,,,1E-08,0.02304
,,,2E-08,0.0226275
,,,3E-08,0.02252
,,,4E-08,0.019951875
,,,5E-08,0.01963875
,,,6E-08,0.019240625
,,,7E-08,0.02060875
,,,8E-08,0.021586875
,,,9E-08,0.02221375
,,,1E-07,0.021899375
,,,1.1E-07,0.020866875
,,,1.2E-07,0.020206875
,,,1.3E-07,0.020090625
,,,1.4E-07,0.020409375
,,,1.5E-07,0.020973125
,,,1.6E-07,0.02145
,,,1.7E-07,0.021014375
,,,1.8E-07,0.020961875
,,,1.9E-07,0.021010625
,,,2E-07,0.02074125
,,,2.1E-07,0.0204875
,,,2.2E-07,0.020725625
,,,2.3E-07,0.020908125
,,,2.4E-07,0.020833125
,,,2.5E-07,0.0210125
,,,2.6E-07,0.020883125
,,,2.7E-07,0.02086
,,,2.8E-07,0.02085625
,,,2.9E-07,0.021000625
,,,3E-07,0.020934375
,,,3.1E-07,0.021065
,,,3.2E-07,0.02093125
,,,3.3E-07,0.02119625
,,,3.4E-07,0.02086125
,,,3.5E-07,0.02105
,,,3.6E-07,0.02075625
,,,3.7E-07,0.020918125
,,,3.8E-07,0.021096875
,,,3.9E-07,0.02068375
,,,4E-07,0.020634375
,,,4.1E-07,0.0208275
,,,4.2E-07,0.020891875
,,,4.3E-07,0.02090375
,,,4.4E-07,0.021285
,,,4.5E-07,0.020928125
,,,4.6E-07,0.020824375
,,,4.7E-07,0.020840625
,,,4.8E-07,0.020711875
,,,4.9E-07,0.02090375
,,,5E-07,0.020889375
,,,5.1E-07,0.02079
,,,5.2E-07,0.02100375
,,,5.3E-07,0.020985
,,,5.4E-07,0.0209025
,,,5.5E-07,0.021005
,,,5.6E-07,0.02086875
,,,5.7E-07,0.021038125
,,,5.8E-07,0.021195
,,,5.9E-07,0.02099
,,,6E-07,0.020939375
,,,6.1E-07,0.020956875
,,,6.2E-07,0.021159375
,,,6.3E-07,0.020865625
,,,6.4E-07,0.020814375
,,,6.5E-07,0.02089375
,,,6.6E-07,0.020813125
,,,6.7E-07,0.02075375
,,,6.8E-07,0.0209075
,,,6.9E-07,0.020845
,,,7E-07,0.0209125
,,,7.1E-07,0.020916875
,,,7.2E-07,0.020785625
,,,7.3E-07,0.021165625
,,,7.4E-07,0.021009375
,,,7.5E-07,0.020945
,,,7.6E-07,0.021031875
,,,7.7E-07,0.020901875
,,,7.8E-07,0.020900625
,,,7.9E-07,0.020835
,,,8E-07,0.020749375
,,,8.1E-07,0.0210025
,,,8.2E-07,0.02104125
,,,8.3E-07,0.020994375
,,,8.4E-07,0.02100375
,,,8.5E-07,0.021046875
,,,8.6E-07,0.020753125
,,,8.7E-07,0.02081375
,,,8.8E-07,0.0208325
,,,8.9E-07,0.020919375
,,,9E-07,0.0209225
,,,9.1E-07,0.020868125
,,,9.2E-07,0.02093
,,,9.3E-07,0.020789375
,,,9.4E-07,0.020875625
,,,9.5E-07,0.020828125
,,,9.6E-07,0.020866875
,,,9.7E-07,0.020931875
,,,9.8E-07,0.020918125
,,,9.9E-07,0.021035
,,,1E-06,0.020848125
,,,1.01E-06,0.020836875
,,,1.02E-06,0.02087875
,,,1.03E-06,0.02079875
,,,1.04E-06,0.021065625
,,,1.05E-06,0.021008125
,,,1.06E-06,0.020929375
,,,1.07E-06,0.0207525
,,,1.08E-06,0.020573125
,,,1.09E-06,0.020911875
,,,1.1E-06,0.020830625
,,,1.11E-06,0.021068125
,,,1.12E-06,0.02076625
,,,1.13E-06,0.02089125
,,,1.14E-06,0.02069875
,,,1.15E-06,0.020904375
,,,1.16E-06,0.020840625
,,,1.17E-06,0.02075125
,,,1.18E-06,0.020748125
,,,1.19E-06,0.020928125
,,,1.2E-06,0.020923125
,,,1.21E-06,0.020765
,,,1.22E-06,0.021265625
,,,1.23E-06,0.021036875
,,,1.24E-06,0.020985
,,,1.25E-06,0.020929375
,,,1.26E-06,0.02106375
,,,1.27E-06,0.020706875
,,,1.28E-06,0.020725
,,,1.29E-06,0.02090375
,,,1.3E-06,0.021094375
,,,1.31E-06,0.0206975
,,,1.32E-06,0.02087625
,,,1.33E-06,0.020991875
,,,1.34E-06,0.02086125
,,,1.35E-06,0.020890625
,,,1.36E-06,0.02088125
,,,1.37E-06,0.02081875
,,,1.38E-06,0.02078
,,,1.39E-06,0.0208625
,,,1.4E-06,0.020815625
,,,1.41E-06,0.020959375
,,,1.42E-06,0.02067
,,,1.43E-06,0.020906875
,,,1.44E-06,0.020805
,,,1.45E-06,0.0207375
,,,1.46E-06,0.021044375
,,,1.47E-06,0.021010625
,,,1.48E-06,0.02061
,,,1.49E-06,0.0208875
,,,1.5E-06,0.02070875
,,,1.51E-06,0.020893125
,,,1.52E-06,0.0206025
,,,1.53E-06,0.020888125
,,,1.54E-06,0.02094375
,,,1.55E-06,0.020925
,,,1.56E-06,0.020750625
,,,1.57E-06,0.020909375
,,,1.58E-06,0.0206675
,,,1.59E-06,0.0204675
,,,1.6E-06,0.02078875
,,,1.61E-06,0.02090875
,,,1.62E-06,0.020783125
,,,1.63E-06,0.02091
,,,1.64E-06,0.02093125
,,,1.65E-06,0.020860625
,,,1.66E-06,0.0209575
,,,1.67E-06,0.02106875
,,,1.68E-06,0.02075
,,,1.69E-06,0.0209
,,,1.7E-06,0.020730625
,,,1.71E-06,0.0208725
,,,1.72E-06,0.020905625
,,,1.73E-06,0.0208425
,,,1.74E-06,0.020843125
,,,1.75E-06,0.02111
,,,1.76E-06,0.02084375
,,,1.77E-06,0.02076625
,,,1.78E-06,0.020905
,,,1.79E-06,0.020758125
,,,1.8E-06,0.02073
,,,1.81E-06,0.0207225
,,,1.82E-06,0.021045625
,,,1.83E-06,0.02080375
,,,1.84E-06,0.020724375
,,,1.85E-06,0.0207775
,,,1.86E-06,0.02099875
,,,1.87E-06,0.02100125
,,,1.88E-06,0.020889375
,,,1.89E-06,0.020959375
,,,1.9E-06,0.0208075
,,,1.91E-06,0.020693125
,,,1.92E-06,0.020775
,,,1.93E-06,0.020959375
,,,1.94E-06,0.020885
,,,1.95E-06,0.020875625
,,,1.96E-06,0.020705
,,,1.97E-06,0.020999375
,,,1.98E-06,0.020945625
,,,1.99E-06,0.02079625
,,,2E-06,0.021066875
,,,2.01E-06,0.021275625
,,,2.02E-06,0.020775
,,,2.03E-06,0.0207925
,,,2.04E-06,0.02086
,,,2.05E-06,0.0207425
,,,2.06E-06,0.021024375
,,,2.07E-06,0.020965625
,,,2.08E-06,0.021031875
,,,2.09E-06,0.021005
,,,2.1E-06,0.020424375
,,,2.11E-06,0.02098
,,,2.12E-06,0.02066
,,,2.13E-06,0.020871875
,,,2.14E-06,0.02098625
,,,2.15E-06,0.021019375
,,,2.16E-06,0.02088125
,,,2.17E-06,0.020468125
,,,2.18E-06,0.02099875
,,,2.19E-06,0.020848125
,,,2.2E-06,0.020946875
,,,2.21E-06,0.0210975
,,,2.22E-06,0.02100125
,,,2.23E-06,0.020933125
,,,2.24E-06,0.021040625
,,,2.25E-06,0.020511875
,,,2.26E-06,0.020745625
,,,2.27E-06,0.0207625
,,,2.28E-06,0.020865
,,,2.29E-06,0.0210825
,,,2.3E-06,0.020899375
,,,2.31E-06,0.02085
,,,2.32E-06,0.021048125
,,,2.33E-06,0.02096
,,,2.34E-06,0.02106375
,,,2.35E-06,0.020838125
,,,2.36E-06,0.02065
,,,2.37E-06,0.0210825
,,,2.38E-06,0.02094
,,,2.39E-06,0.0209475
,,,2.4E-06,0.020605
,,,2.41E-06,0.020928125
,,,2.42E-06,0.02100875
,,,2.43E-06,0.020625
,,,2.44E-06,0.02095125
,,,2.45E-06,0.02102625
,,,2.46E-06,0.0210725
,,,2.47E-06,0.02110875
,,,2.48E-06,0.020985625
,,,2.49E-06,0.021128125
,,,2.5E-06,0.020758125
,,,2.51E-06,0.020971875
,,,2.52E-06,0.02087375
,,,2.53E-06,0.0208475
,,,2.54E-06,0.020695
,,,2.55E-06,0.020995
,,,2.56E-06,0.020986875
,,,2.57E-06,0.02101125
,,,2.58E-06,0.020786875
,,,2.59E-06,0.021088125
,,,2.6E-06,0.02101625
,,,2.61E-06,0.0209
,,,2.62E-06,0.020994375
,,,2.63E-06,0.020733125
,,,2.64E-06,0.02084125
,,,2.65E-06,0.020805625
,,,2.66E-06,0.020985625
,,,2.67E-06,0.020775625
,,,2.68E-06,0.02090875
,,,2.69E-06,0.020945
,,,2.7E-06,0.020889375
,,,2.71E-06,0.020734375
,,,2.72E-06,0.0210575
,,,2.73E-06,0.020804375
,,,2.74E-06,0.02054375
,,,2.75E-06,0.020879375
,,,2.76E-06,0.020866875
,,,2.77E-06,0.020994375
,,,2.78E-06,0.021020625
,,,2.79E-06,0.020808125
,,,2.8E-06,0.0208675
,,,2.81E-06,0.020689375
,,,2.82E-06,0.020891875
,,,2.83E-06,0.021051875
,,,2.84E-06,0.02069625
,,,2.85E-06,0.020651875
,,,2.86E-06,0.020791875
,,,2.87E-06,0.021035
,,,2.88E-06,0.021
,,,2.89E-06,0.0209325
,,,2.9E-06,0.020838125
,,,2.91E-06,0.020859375
,,,2.92E-06,0.02070625
,,,2.93E-06,0.02077625
,,,2.94E-06,0.02095125
,,,2.95E-06,0.020926875
,,,2.96E-06,0.021010625
,,,2.97E-06,0.02083625
,,,2.98E-06,0.020839375
,,,2.99E-06,0.021064375
,,,3E-06,0.02086875
,,,3.01E-06,0.02066125
,,,3.02E-06,0.02063
,,,3.03E-06,0.02095125
,,,3.04E-06,0.021019375
,,,3.05E-06,0.020839375
,,,3.06E-06,0.0209275
,,,3.07E-06,0.02098
,,,3.08E-06,0.0208325
,,,3.09E-06,0.020905
,,,3.1E-06,0.0208325
,,,3.11E-06,0.0208575
,,,3.12E-06,0.020908125
,,,3.13E-06,0.020825
,,,3.14E-06,0.02097875
,,,3.15E-06,0.0209075
,,,3.16E-06,0.020709375
,,,3.17E-06,0.021028125
,,,3.18E-06,0.02062125
,,,3.19E-06,0.021100625
,,,3.2E-06,0.02093875
,,,3.21E-06,0.02095125
,,,3.22E-06,0.02088625
,,,3.23E-06,0.02097375
,,,3.24E-06,0.020934375
,,,3.25E-06,0.0208625
,,,3.26E-06,0.021053125
,,,3.27E-06,0.020825625
,,,3.28E-06,0.020765625
,,,3.29E-06,0.020975
,,,3.3E-06,0.0210125
,,,3.31E-06,0.0209375
,,,3.32E-06,0.02082125
,,,3.33E-06,0.020836875
,,,3.34E-06,0.02078125
,,,3.35E-06,0.020945625
,,,3.36E-06,0.020668125
,,,3.37E-06,0.02104625
,,,3.38E-06,0.02101375
,,,3.39E-06,0.020835625
,,,3.4E-06,0.020870625
,,,3.41E-06,0.020636875
,,,3.42E-06,0.0210625
,,,3.43E-06,0.02089
,,,3.44E-06,0.02083
,,,3.45E-06,0.020685625
,,,3.46E-06,0.02095125
,,,3.47E-06,0.020906875
,,,3.48E-06,0.02084375
,,,3.49E-06,0.020966875
,,,3.5E-06,0.020928125
,,,3.51E-06,0.020780625
,,,3.52E-06,0.020948125
,,,3.53E-06,0.02105
,,,3.54E-06,0.020835625
,,,3.55E-06,0.021025
,,,3.56E-06,0.020725
,,,3.57E-06,0.02089625
