data/raw/Final_POL_Test_1/SOP073_Ch1.csv

"Record Length",1000,"Points",-5E-06,0.00629875
"Sample Interval",1E-08,s,-4.99E-06,0.006311875
"Trigger Point",500,"Samples",-4.98E-06,0.006133125
"Trigger Time",0,s,-4.97E-06,0.006173125
"",,,-4.96E-06,0.006298125
"Horizontal Offset",-5E-06,s,-4.95E-06,0.0060975
,,,-4.94E-06,0.00599625
,,,-4.93E-06,0.00602875
,,,-4.92E-06,0.0059425
,,,-4.91E-06,0.006131875
,,,-4.9E-06,0.006084375
,,,-4.89E-06,0.0061975
,,,-4.88E-06,0.006100625
,,,-4.87E-06,0.0062375
,,,-4.86E-06,0.00606625
,,,-4.85E-06,0.00598
,,,-4.84E-06,0.0059525
,,,-4.83E-06,0.006165
,,,-4.82E-06,0.006109375
,,,-4.81E-06,0.006258125
,,,-4.8E-06,0.00624375
,,,-4.79E-06,0.0060375
,,,-4.78E-06,0.006136875
,,,-4.77E-06,0.006346875
,,,-4.76E-06,0.005761875
,,,-4.75E-06,0.006295625
,,,-4.74E-06,0.006061875
,,,-4.73E-06,0.006065625
,,,-4.72E-06,0.006156875
,,,-4.71E-06,0.00621
,,,-4.7E-06,0.00611875
,,,-4.69E-06,0.0058725
,,,-4.68E-06,0.00605125
,,,-4.67E-06,0.006124375
,,,-4.66E-06,0.006035625
,,,-4.65E-06,0.006044375
,,,-4.64E-06,0.0059225
,,,-4.63E-06,0.005924375
,,,-4.62E-06,0.006048125
,,,-4.61E-06,0.006095625
,,,-4.6E-06,0.005985625
,,,-4.59E-06,0.00592375
,,,-4.58E-06,0.006181875
,,,-4.57E-06,0.0061525
,,,-4.56E-06,0.006090625
,,,-4.55E-06,0.00608
,,,-4.54E-06,0.005995
,,,-4.53E-06,0.00605625
,,,-4.52E-06,0.005915
,,,-4.51E-06,0.005966875
,,,-4.5E-06,0.005993125
,,,-4.49E-06,0.005989375
,,,-4.48E-06,0.00597125
,,,-4.47E-06,0.005968125
,,,-4.46E-06,0.00613
,,,-4.45E-06,0.0059375
,,,-4.44E-06,0.006155
,,,-4.43E-06,0.0059225
,,,-4.42E-06,0.00606125
,,,-4.41E-06,0.0059775
,,,-4.4E-06,0.00601
,,,-4.39E-06,0.00608625
,,,-4.38E-06,0.005940625
,,,-4.37E-06,0.006168125
,,,-4.36E-06,0.0060325
,,,-4.35E-06,0.006104375
,,,-4.34E-06,0.006106875
,,,-4.33E-06,0.006075
,,,-4.32E-06,0.006
,,,-4.31E-06,0.006085625
,,,-4.3E-06,0.005950625
,,,-4.29E-06,0.0061175
,,,-4.28E-06,0.0058675
,,,-4.27E-06,0.0059925
,,,-4.26E-06,0.00582875
,,,-4.25E-06,0.00590125
,,,-4.24E-06,0.006063125
,,,-4.23E-06,0.006036875
,,,-4.22E-06,0.006038125
,,,-4.21E-06,0.006151875
,,,-4.2E-06,0.006048125
,,,-4.19E-06,0.006299375
,,,-4.18E-06,0.0060825
,,,-4.17E-06,0.0059725
,,,-4.16E-06,0.006083125
,,,-4.15E-06,0.0061625
,,,-4.14E-06,0.00612125
,,,-4.13E-06,0.006039375
,,,-4.12E-06,0.0060375
,,,-4.11E-06,0.00611
,,,-4.1E-06,0.00606375
,,,-4.09E-06,0.006004375
,,,-4.08E-06,0.005930625
,,,-4.07E-06,0.006121875
,,,-4.06E-06,0.006101875
,,,-4.05E-06,0.005753125
,,,-4.04E-06,0.006178125
,,,-4.03E-06,0.005785625
,,,-4.02E-06,0.006076875
,,,-4.01E-06,0.0060725
,,,-4E-06,0.005951875
,,,-3.99E-06,0.005913125
,,,-3.98E-06,0.0060125
,,,-3.97E-06,0.00625625
,,,-3.96E-06,0.005991875
,,,-3.95E-06,0.006149375
,,,-3.94E-06,0.006209375
,,,-3.93E-06,0.00598375
,,,-3.92E-06,0.00611625
,,,-3.91E-06,0.006271875
,,,-3.9E-06,0.006176875
,,,-3.89E-06,0.006179375
,,,-3.88E-06,0.00592
,,,-3.87E-06,0.006140625
,,,-3.86E-06,0.0059925
,,,-3.85E-06,0.00603625
,,,-3.84E-06,0.006195
,,,-3.83E-06,0.00619
,,,-3.82E-06,0.006224375
,,,-3.81E-06,0.005983125
,,,-3.8E-06,0.00607375
,,,-3.79E-06,0.006100625
,,,-3.78E-06,0.00629
,,,-3.77E-06,0.006341875
,,,-3.76E-06,0.00593875
,,,-3.75E-06,0.006040625
,,,-3.74E-06,0.005925625
,,,-3.73E-06,0.005988125
,,,-3.72E-06,0.006059375
,,,-3.71E-06,0.006090625
,,,-3.7E-06,0.00602875
,,,-3.69E-06,0.005860625
,,,-3.68E-06,0.00601375
,,,-3.67E-06,0.006123125
,,,-3.66E-06,0.006398125
,,,-3.65E-06,0.005979375
,,,-3.64E-06,0.005995
,,,-3.63E-06,0.0060975
,,,-3.62E-06,0.006066875
,,,-3.61E-06,0.00596375
,,,-3.6E-06,0.006186875
,,,-3.59E-06,0.00617875
,,,-3.58E-06,0.006135
,,,-3.57E-06,0.006515625
,,,-3.56E-06,0.005849375
,,,-3.55E-06,0.00595
,,,-3.54E-06,0.006109375
,,,-3.53E-06,0.006015625
,,,-3.52E-06,0.006041875
,,,-3.51E-06,0.006290625
,,,-3.5E-06,0.006209375
,,,-3.49E-06,0.005815625
,,,-3.48E-06,0.006315625
,,,-3.47E-06,0.00608125
,,,-3.46E-06,0.00620875
,,,-3.45E-06,0.005928125
,,,-3.44E-06,0.006039375
,,,-3.43E-06,0.0060475
,,,-3.42E-06,0.005966875
,,,-3.41E-06,0.0062
,,,-3.4E-06,0.006121875
,,,-3.39E-06,0.005974375
,,,-3.38E-06,0.006018125
,,,-3.37E-06,0.00626
,,,-3.36E-06,0.00602
,,,-3.35E-06,0.006001875
,,,-3.34E-06,0.006074375
,,,-3.33E-06,0.00624
,,,-3.32E-06,0.0064025
,,,-3.31E-06,0.00604375
,,,-3.3E-06,0.005980625
,,,-3.29E-06,0.005989375
,,,-3.28E-06,0.00596
,,,-3.27E-06,0.00590625
,,,-3.26E-06,0.006265
,,,-3.25E-06,0.006075625
,,,-3.24E-06,0.00613
,,,-3.23E-06,0.005916875
,,,-3.22E-06,0.00611125
,,,-3.21E-06,0.005638125
,,,-3.2E-06,0.00617625
,,,-3.19E-06,0.006081875
,,,-3.18E-06,0.005840625
,,,-3.17E-06,0.00617125
,,,-3.16E-06,0.00597875
,,,-3.15E-06,0.0059125
,,,-3.14E-06,0.006178125
,,,-3.13E-06,0.00606125
,,,-3.12E-06,0.00575625
,,,-3.11E-06,0.0059425
,,,-3.1E-06,0.00603125
,,,-3.09E-06,0.0061275
,,,-3.08E-06,0.006198125
,,,-3.07E-06,0.00593
,,,-3.06E-06,0.00607375
,,,-3.05E-06,0.00597875
,,,-3.04E-06,0.0060625
,,,-3.03E-06,0.006033125
,,,-3.02E-06,0.006150625
,,,-3.01E-06,0.00600375
,,,-3E-06,0.0062675
,,,-2.99E-06,0.005950625
,,,-2.98E-06,0.00622125
,,,-2.97E-06,0.006009375
,,,-2.96E-06,0.00607375
,,,-2.95E-06,0.00619375
,,,-2.94E-06,0.005968125
,,,-2.93E-06,0.00590625
,,,-2.92E-06,0.006179375
,,,-2.91E-06,0.00602125
,,,-2.9E-06,0.0061725
,,,-2.89E-06,0.00599625
,,,-2.88E-06,0.006065
,,,-2.87E-06,0.006016875
,,,-2.86E-06,0.0061125
,,,-2.85E-06,0.006265
,,,-2.84E-06,0.006030625
,,,-2.83E-06,0.006069375
,,,-2.82E-06,0.0059975
,,,-2.81E-06,0.0059525
,,,-2.8E-06,0.006183125
,,,-2.79E-06,0.006070625
,,,-2.78E-06,0.00593
,,,-2.77E-06,0.006164375
,,,-2.76E-06,0.00615875
,,,-2.75E-06,0.006011875
,,,-2.74E-06,0.00604875
,,,-2.73E-06,0.0063025
,,,-2.72E-06,0.005933125
,,,-2.71E-06,0.0060175
,,,-2.7E-06,0.006149375
,,,-2.69E-06,0.006076875
,,,-2.68E-06,0.0062875
,,,-2.67E-06,0.006134375
,,,-2.66E-06,0.00605
,,,-2.65E-06,0.0057125
,,,-2.64E-06,0.0059775
,,,-2.63E-06,0.00620375
,,,-2.62E-06,0.006019375
,,,-2.61E-06,0.0061625
,,,-2.6E-06,0.006205
,,,-2.59E-06,0.006289375
,,,-2.58E-06,0.006216875
,,,-2.57E-06,0.0062375
,,,-2.56E-06,0.0062825
,,,-2.55E-06,0.005848125
,,,-2.54E-06,0.00606875
,,,-2.53E-06,0.006059375
,,,-2.52E-06,0.006108125
,,,-2.51E-06,0.00604625
,,,-2.5E-06,0.006304375
,,,-2.49E-06,0.006049375
,,,-2.48E-06,0.006055
,,,-2.47E-06,0.0061575
,,,-2.46E-06,0.00614375
,,,-2.45E-06,0.006226875
,,,-2.44E-06,0.00626875
,,,-2.43E-06,0.005974375
,,,-2.42E-06,0.00627625
,,,-2.41E-06,0.006163125
,,,-2.4E-06,0.006171875
,,,-2.39E-06,0.006046875
,,,-2.38E-06,0.005915625
,,,-2.37E-06,0.006049375
,,,-2.36E-06,0.006199375
,,,-2.35E-06,0.006120625
,,,-2.34E-06,0.0059925
,,,-2.33E-06,0.00582375
,,,-2.32E-06,0.00586125
,,,-2.31E-06,0.00624875
,,,-2.3E-06,0.006039375
,,,-2.29E-06,0.00586375
,,,-2.28E-06,0.005999375
,,,-2.27E-06,0.0062
,,,-2.26E-06,0.00639625
,,,-2.25E-06,0.006256875
,,,-2.24E-06,0.00632125
,,,-2.23E-06,0.006245
,,,-2.22E-06,0.005971875
,,,-2.21E-06,0.006163125
,,,-2.2E-06,0.006076875
,,,-2.19E-06,0.006198125
,,,-2.18E-06,0.00594
,,,-2.17E-06,0.0060925
,,,-2.16E-06,0.005958125
,,,-2.15E-06,0.006029375
,,,-2.14E-06,0.0060175
,,,-2.13E-06,0.006098125
,,,-2.12E-06,0.006076875
,,,-2.11E-06,0.00630625
,,,-2.1E-06,0.006341875
,,,-2.09E-06,0.006344375
,,,-2.08E-06,0.006245
,,,-2.07E-06,0.00597625
,,,-2.06E-06,0.005979375
,,,-2.05E-06,0.00616625
,,,-2.04E-06,0.00600625
,,,-2.03E-06,0.006095
,,,-2.02E-06,0.006065
,,,-2.01E-06,0.006023125
,,,-2E-06,0.005984375
,,,-1.99E-06,0.0059825
,,,-1.98E-06,0.0061175
,,,-1.97E-06,0.005993125
,,,-1.96E-06,0.006075
,,,-1.95E-06,0.005868125
,,,-1.94E-06,0.00611875
,,,-1.93E-06,0.00595
,,,-1.92E-06,0.006364375
,,,-1.91E-06,0.006125
,,,-1.9E-06,0.006120625
,,,-1.89E-06,0.006001875
,,,-1.88E-06,0.00608
,,,-1.87E-06,0.005871875
,,,-1.86E-06,0.006146875
,,,-1.85E-06,0.006149375
,,,-1.84E-06,0.006294375
,,,-1.83E-06,0.006095
,,,-1.82E-06,0.0058125
,,,-1.81E-06,0.006085625
,,,-1.8E-06,0.00594875
,,,-1.79E-06,0.005936875
,,,-1.78E-06,0.005999375
,,,-1.77E-06,0.006245
,,,-1.76E-06,0.00601125
,,,-1.75E-06,0.00587875
,,,-1.74E-06,0.006313125
,,,-1.73E-06,0.00604
,,,-1.72E-06,0.005965
,,,-1.71E-06,0.0061625
,,,-1.7E-06,0.006105
,,,-1.69E-06,0.006295
,,,-1.68E-06,0.0061325
,,,-1.67E-06,0.006214375
,,,-1.66E-06,0.00613125
,,,-1.65E-06,0.006174375
,,,-1.64E-06,0.006073125
,,,-1.63E-06,0.005898125
,,,-1.62E-06,0.006166875
,,,-1.61E-06,0.00604125
,,,-1.6E-06,0.006195625
,,,-1.59E-06,0.006099375
,,,-1.58E-06,0.00611625
,,,-1.57E-06,0.00602
,,,-1.56E-06,0.005951875
,,,-1.55E-06,0.006288125
,,,-1.54E-06,0.005990625
,,,-1.53E-06,0.006116875
,,,-1.52E-06,0.00620875
,,,-1.51E-06,0.006018125
,,,-1.5E-06,0.00603625
,,,-1.49E-06,0.0061925
,,,-1.48E-06,0.006021875
,,,-1.47E-06,0.006095625
,,,-1.46E-06,0.00631125
,,,-1.45E-06,0.006156875
,,,-1.44E-06,0.0060525
,,,-1.43E-06,0.006053125
,,,-1.42E-06,0.00603
,,,-1.41E-06,0.00622625
,,,-1.4E-06,0.006055
,,,-1.39E-06,0.00598375
,,,-1.38E-06,0.00627875
,,,-1.37E-06,0.00629125
,,,-1.36E-06,0.006096875
,,,-1.35E-06,0.006208125
,,,-1.34E-06,0.005986875
,,,-1.33E-06,0.006100625
,,,-1.32E-06,0.006120625
,,,-1.31E-06,0.006060625
,,,-1.3E-06,0.0059075
,,,-1.29E-06,0.006030625
,,,-1.28E-06,0.00607875
,,,-1.27E-06,0.006174375
,,,-1.26E-06,0.005968125
,,,-1.25E-06,0.006035
,,,-1.24E-06,0.0057725
,,,-1.23E-06,0.00589875
,,,-1.22E-06,0.006156875
,,,-1.21E-06,0.00610125
,,,-1.2E-06,0.00585
,,,-1.19E-06,0.006010625
,,,-1.18E-06,0.006286875
,,,-1.17E-06,0.005971875
,,,-1.16E-06,0.0062875
,,,-1.15E-06,0.00583
,,,-1.14E-06,0.005961875
,,,-1.13E-06,0.005855
,,,-1.12E-06,0.00586
,,,-1.11E-06,0.0062625
,,,-1.1E-06,0.006134375
,,,-1.09E-06,0.006153125
,,,-1.08E-06,0.006030625
,,,-1.07E-06,0.00614
,,,-1.06E-06,0.00620125
,,,-1.05E-06,0.00599875
,,,-1.04E-06,0.006125
,,,-1.03E-06,0.005790625
,,,-1.02E-06,0.0062225
,,,-1.01E-06,0.005866875
,,,-1E-06,0.006098125
,,,-9.9E-07,0.005791875
,,,-9.8E-07,0.006074375
,,,-9.7E-07,0.005969375
,,,-9.6E-07,0.00604875
,,,-9.5E-07,0.005886875
,,,-9.4E-07,0.006156875
,,,-9.3E-07,0.0060475
,,,-9.2E-07,0.006113125
,,,-9.1E-07,0.005934375
,,,-9E-07,0.0061625
,,,-8.9E-07,0.006083125
,,,-8.8E-07,0.006245
,,,-8.7E-07,0.00614375
,,,-8.6E-07,0.00614
,,,-8.5E-07,0.00632
,,,-8.4E-07,0.00599375
,,,-8.3E-07,0.00602125
,,,-8.2E-07,0.00613375
,,,-8.1E-07,0.006241875
,,,-8E-07,0.005840625
,,,-7.9E-07,0.006163125
,,,-7.8E-07,0.00577875
,,,-7.7E-07,0.0062
,,,-7.6E-07,0.0060325
,,,-7.5E-07,0.00621125
,,,-7.4E-07,0.0060275
,,,-7.3E-07,0.005849375
,,,-7.2E-07,0.005991875
,,,-7.1E-07,0.006164375
,,,-7E-07,0.006031875
,,,-6.9E-07,0.005831875
,,,-6.8E-07,0.005905
,,,-6.7E-07,0.0061875
,,,-6.6E-07,0.00588625
,,,-6.5E-07,0.006030625
,,,-6.4E-07,0.00601375
,,,-6.3E-07,0.00596875
,,,-6.2E-07,0.006469375
,,,-6.1E-07,0.006120625
,,,-6E-07,0.00611375
,,,-5.9E-07,0.00601375
,,,-5.8E-07,0.006006875
,,,-5.7E-07,0.005829375
,,,-5.6E-07,0.005900625
,,,-5.5E-07,0.0061125
,,,-5.4E-07,0.005885625
,,,-5.3E-07,0.006190625
,,,-5.2E-07,0.00633
,,,-5.1E-07,0.005965625
,,,-5E-07,0.006078125
,,,-4.9E-07,0.006119375
,,,-4.8E-07,0.00591625
,,,-4.7E-07,0.006408125
,,,-4.6E-07,0.0061
,,,-4.5E-07,0.0059725
,,,-4.4E-07,0.006198125
,,,-4.3E-07,0.006289375
,,,-4.2E-07,0.00606
,,,-4.1E-07,0.00583375
,,,-4E-07,0.005765625
,,,-3.9E-07,0.006074375
,,,-3.8E-07,0.006438125
,,,-3.7E-07,0.006101875
,,,-3.6E-07,0.006130625
,,,-3.5E-07,0.00606
,,,-3.4E-07,0.0061125
,,,-3.3E-07,0.00574125
,,,-3.2E-07,0.006126875
,,,-3.1E-07,0.00622375
,,,-3E-07,0.005926875
,,,-2.9E-07,0.005976875
,,,-2.8E-07,0.005825
,,,-2.7E-07,0.00624375
,,,-2.6E-07,0.006104375
,,,-2.5E-07,0.005909375
,,,-2.4E-07,0.005905625
,,,-2.3E-07,0.006160625
,,,-2.2E-07,0.006035
,,,-2.1E-07,0.00607
,,,-2E-07,0.006040625
,,,-1.9E-07,0.00615875
,,,-1.8E-07,0.006178125
,,,-1.7E-07,0.0059325
,,,-1.6E-07,0.0061175
,,,-1.5E-07,0.006026875
,,,-1.4E-07,0.005961875
,,,-1.3E-07,0.00609
,,,-1.2E-07,0.006168125
,,,-1.1E-07,0.00599375
,,,-1E-07,0.0058525
,,,-9E-08,0.006226875
,,,-8E-08,0.005909375
,,,-7E-08,0.00597625
,,,-6E-08,0.0057725
,,,-5E-08,0.006631875
,,,-4E-08,0.0075175
,,,-3E-08,0.006770625
,,,-2E-08,0.00427125
,,,-1E-08,0.00281375
,,,0,0.005200625
,,,1E-08,0.00846
,,,2E-08,0.0099375
,,,3E-08,0.00831125
,,,4E-08,0.00502375
,,,5E-08,0.003995
,,,6E-08,0.003730625
,,,7E-08,0.00505
,,,8E-08,0.007048125
,,,9E-08,0.008135
,,,1E-07,0.007459375
,,,1.1E-07,0.006473125
,,,1.2E-07,0.005254375
,,,1.3E-07,0.005110625
,,,1.4E-07,0.005374375
,,,1.5E-07,0.006600625
,,,1.6E-07,0.006445
,,,1.7E-07,0.006184375
,,,1.8E-07,0.006039375
,,,1.9E-07,0.006319375
,,,2E-07,0.006133125
,,,2.1E-07,0.005943125
,,,2.2E-07,0.00581625
,,,2.3E-07,0.00619625
,,,2.4E-07,0.00636125
,,,2.5E-07,0.006185625
,,,2.6E-07,0.006126875
,,,2.7E-07,0.006223125
,,,2.8E-07,0.00621375
,,,2.9E-07,0.0060225
,,,3E-07,0.00617375
,,,3.1E-07,0.006125
,,,3.2E-07,0.006059375
,,,3.3E-07,0.00635875
,,,3.4E-07,0.006005
,,,3.5E-07,0.0059525
,,,3.6E-07,0.00592375
,,,3.7E-07,0.00599625
,,,3.8E-07,0.0059475
,,,3.9E-07,0.0059775
,,,4E-07,0.005909375
,,,4.1E-07,0.006205625
,,,4.2E-07,0.006149375
,,,4.3E-07,0.006145625
,,,4.4E-07,0.006065
,,,4.5E-07,0.006175
,,,4.6E-07,0.00624
,,,4.7E-07,0.00606875
,,,4.8E-07,0.006015
,,,4.9E-07,0.005953125
,,,5E-07,0.00599
,,,5.1E-07,0.005899375
,,,5.2E-07,0.00613125
,,,5.3E-07,0.00618375
,,,5.4E-07,0.00619125
,,,5.5E-07,0.006253125
,,,5.6E-07,0.0060475
,,,5.7E-07,0.005980625
,,,5.8E-07,0.00607875
,,,5.9E-07,0.00606125
,,,6E-07,0.00607375
,,,6.1E-07,0.0061225
,,,6.2E-07,0.00621625
,,,6.3E-07,0.0058325
,,,6.4E-07,0.006040625
,,,6.5E-07,0.0058575
,,,6.6E-07,0.00574
,,,6.7E-07,0.0062125
,,,6.8E-07,0.005984375
,,,6.9E-07,0.0060125
,,,7E-07,0.0060825
,,,7.1E-07,0.006026875
,,,7.2E-07,0.006296875
,,,7.3E-07,0.006065
,,,7.4E-07,0.0060675
,,,7.5E-07,0.00584125
,,,7.6E-07,0.00620625
,,,7.7E-07,0.006028125
,,,7.8E-07,0.00623875
,,,7.9E-07,0.00610375
,,,8E-07,0.00624
,,,8.1E-07,0.00573
,,,8.2E-07,0.005719375
,,,8.3E-07,0.006163125
,,,8.4E-07,0.006005
,,,8.5E-07,0.0061075
,,,8.6E-07,0.006085
,,,8.7E-07,0.006245625
,,,8.8E-07,0.00606125
,,,8.9E-07,0.00604375
,,,9E-07,0.006034375
,,,9.1E-07,0.005819375
,,,9.2E-07,0.006066875
,,,9.3E-07,0.006118125
,,,9.4E-07,0.005843125
,,,9.5E-07,0.00589125
,,,9.6E-07,0.006133125
,,,9.7E-07,0.00608875
,,,9.8E-07,0.0062175
,,,9.9E-07,0.006184375
,,,1E-06,0.005976875
,,,1.01E-06,0.00599375
,,,1.02E-06,0.00610625
,,,1.03E-06,0.00596625
,,,1.04E-06,0.006265625
,,,1.05E-06,0.0060875
,,,1.06E-06,0.00609625
,,,1.07E-06,0.006045
,,,1.08E-06,0.00625125
,,,1.09E-06,0.006016875
,,,1.1E-06,0.005954375
,,,1.11E-06,0.006019375
,,,1.12E-06,0.005993125
,,,1.13E-06,0.006088125
,,,1.14E-06,0.00599375
,,,1.15E-06,0.00563875
,,,1.16E-06,0.0061275
,,,1.17E-06,0.005963125
,,,1.18E-06,0.006075625
,,,1.19E-06,0.006039375
,,,1.2E-06,0.00619875
,,,1.21E-06,0.006145
,,,1.22E-06,0.00611375
,,,1.23E-06,0.00597875
,,,1.24E-06,0.005809375
,,,1.25E-06,0.006199375
,,,1.26E-06,0.0061925
,,,1.27E-06,0.005975
,,,1.28E-06,0.006468125
,,,1.29E-06,0.006004375
,,,1.3E-06,0.00619125
,,,1.31E-06,0.006105
,,,1.32E-06,0.00633625
,,,1.33E-06,0.006028125
,,,1.34E-06,0.006128125
,,,1.35E-06,0.00579125
,,,1.36E-06,0.006030625
,,,1.37E-06,0.006121875
,,,1.38E-06,0.005744375
,,,1.39E-06,0.0061875
,,,1.4E-06,0.006015625
,,,1.41E-06,0.00618
,,,1.42E-06,0.00613125
,,,1.43E-06,0.0056875
,,,1.44E-06,0.006013125
,,,1.45E-06,0.0061025
,,,1.46E-06,0.006175
,,,1.47E-06,0.005985
,,,1.48E-06,0.00612625
,,,1.49E-06,0.006518125
,,,1.5E-06,0.006360625
,,,1.51E-06,0.00602125
,,,1.52E-06,0.00608625
,,,1.53E-06,0.006104375
,,,1.54E-06,0.00583625
,,,1.55E-06,0.0058825
,,,1.56E-06,0.005875
,,,1.57E-06,0.00608375
,,,1.58E-06,0.00594625
,,,1.59E-06,0.0061425
,,,1.6E-06,0.005949375
,,,1.61E-06,0.00592125
,,,1.62E-06,0.006180625
,,,1.63E-06,0.006209375
,,,1.64E-06,0.00579375
,,,1.65E-06,0.00599
,,,1.66E-06,0.006190625
,,,1.67E-06,0.00601875
,,,1.68E-06,0.00594875
,,,1.69E-06,0.00586
,,,1.7E-06,0.00606125
,,,1.71E-06,0.006021875
,,,1.72E-06,0.0062275
,,,1.73E-06,0.00633
,,,1.74E-06,0.005944375
,,,1.75E-06,0.00606625
,,,1.76E-06,0.006028125
,,,1.77E-06,0.006325
,,,1.78E-06,0.0060875
,,,1.79E-06,0.005878125
,,,1.8E-06,0.006099375
,,,1.81E-06,0.005833125
,,,1.82E-06,0.006034375
,,,1.83E-06,0.006050625
,,,1.84E-06,0.006218125
,,,1.85E-06,0.006186875
,,,1.86E-06,0.005944375
,,,1.87E-06,0.00600375
,,,1.88E-06,0.006116875
,,,1.89E-06,0.006075625
,,,1.9E-06,0.00631
,,,1.91E-06,0.006118125
,,,1.92E-06,0.00606375
,,,1.93E-06,0.006234375
,,,1.94E-06,0.00627125
,,,1.95E-06,0.006170625
,,,1.96E-06,0.005853125
,,,1.97E-06,0.0057975
,,,1.98E-06,0.00609625
,,,1.99E-06,0.006049375
,,,2E-06,0.006148125
,,,2.01E-06,0.00626875
,,,2.02E-06,0.0060375
,,,2.03E-06,0.006181875
,,,2.04E-06,0.00613
,,,2.05E-06,0.00625125
,,,2.06E-06,0.00625125
,,,2.07E-06,0.00607875
,,,2.08E-06,0.00625625
,,,2.09E-06,0.0061075
,,,2.1E-06,0.00619125
,,,2.11E-06,0.005965625
,,,2.12E-06,0.00606375
,,,2.13E-06,0.00596875
,,,2.14E-06,0.006009375
,,,2.15E-06,0.006096875
,,,2.16E-06,0.00642125
,,,2.17E-06,0.006234375
,,,2.18E-06,0.005999375
,,,2.19E-06,0.006163125
,,,2.2E-06,0.006129375
,,,2.21E-06,0.006235
,,,2.22E-06,0.005951875
,,,2.23E-06,0.00611375
,,,2.24E-06,0.005924375
,,,2.25E-06,0.0060175
,,,2.26E-06,0.006170625
,,,2.27E-06,0.00614875
,,,2.28E-06,0.00604125
,,,2.29E-06,0.0061225
,,,2.3E-06,0.006003125
,,,2.31E-06,0.005930625
,,,2.32E-06,0.006065625
,,,2.33E-06,0.006006875
,,,2.34E-06,0.0059975
,,,2.35E-06,0.0060475
,,,2.36E-06,0.0060225
,,,2.37E-06,0.005995
,,,2.38E-06,0.00607625
,,,2.39E-06,0.00593125
,,,2.4E-06,0.005891875
,,,2.41E-06,0.00593125
,,,2.42E-06,0.0059575
,,,2.43E-06,0.006125
,,,2.44E-06,0.006228125
,,,2.45E-06,0.006326875
,,,2.46E-06,0.0061325
,,,2.47E-06,0.006090625
,,,2.48E-06,0.005969375
,,,2.49E-06,0.00612875
,,,2.5E-06,0.0057275
,,,2.51E-06,0.005956875
,,,2.52E-06,0.00611
,,,2.53E-06,0.006229375
,,,2.54E-06,0.006188125
,,,2.55E-06,0.0059475
,,,2.56E-06,0.006171875
,,,2.57E-06,0.005881875
,,,2.58E-06,0.00604
,,,2.59E-06,0.005983125
,,,2.6E-06,0.00606625
,,,2.61E-06,0.00608375
,,,2.62E-06,0.00616875
,,,2.63E-06,0.00615
,,,2.64E-06,0.005825
,,,2.65E-06,0.006104375
,,,2.66E-06,0.006173125
,,,2.67E-06,0.005908125
,,,2.68E-06,0.00623625
,,,2.69E-06,0.006069375
,,,2.7E-06,0.006044375
,,,2.71E-06,0.006159375
,,,2.72E-06,0.0059725
,,,2.73E-06,0.005785625
,,,2.74E-06,0.006130625
,,,2.75E-06,0.00593375
,,,2.76E-06,0.006090625
,,,2.77E-06,0.006105625
,,,2.78E-06,0.00612375
,,,2.79E-06,0.00584625
,,,2.8E-06,0.0063025
,,,2.81E-06,0.0061475
,,,2.82E-06,0.00601125
,,,2.83E-06,0.006104375
,,,2.84E-06,0.00590125
,,,2.85E-06,0.0059225
,,,2.86E-06,0.006084375
,,,2.87E-06,0.00608875
,,,2.88E-06,0.00598
,,,2.89E-06,0.006065
,,,2.9E-06,0.006045
,,,2.91E-06,0.00610875
,,,2.92E-06,0.006265625
,,,2.93E-06,0.006043125
,,,2.94E-06,0.005985
,,,2.95E-06,0.005755
,,,2.96E-06,0.00596875
,,,2.97E-06,0.00599375
,,,2.98E-06,0.0062325
,,,2.99E-06,0.00598375
,,,3E-06,0.006035
,,,3.01E-06,0.0059325
,,,3.02E-06,0.005870625
,,,3.03E-06,0.0062725
,,,3.04E-06,0.006081875
,,,3.05E-06,0.00617875
,,,3.06E-06,0.006125
,,,3.07E-06,0.006179375
,,,3.08E-06,0.005853125
,,,3.09E-06,0.00626375
,,,3.1E-06,0.0061025
,,,3.11E-06,0.00622
,,,3.12E-06,0.006160625
,,,3.13E-06,0.0059725
,,,3.14E-06,0.006090625
,,,3.15E-06,0.006208125
,,,3.16E-06,0.006094375
,,,3.17E-06,0.006116875
,,,3.18E-06,0.006068125
,,,3.19E-06,0.006095625
,,,3.2E-06,0.006158125
,,,3.21E-06,0.006195625
,,,3.22E-06,0.005760625
,,,3.23E-06,0.006084375
,,,3.24E-06,0.006115625
,,,3.25E-06,0.00593625
,,,3.26E-06,0.00620375
,,,3.27E-06,0.00607375
,,,3.28E-06,0.005679375
,,,3.29E-06,0.006230625
,,,3.3E-06,0.006393125
,,,3.31E-06,0.006215
,,,3.32E-06,0.00622125
,,,3.33E-06,0.006135
,,,3.34E-06,0.005803125
,,,3.35E-06,0.00602875
,,,3.36E-06,0.006161875
,,,3.37E-06,0.006011875
,,,3.38E-06,0.0060925
,,,3.39E-06,0.00608625
,,,3.4E-06,0.0064125
,,,3.41E-06,0.006170625
,,,3.42E-06,0.006330625
,,,3.43E-06,0.006110625
,,,3.44E-06,0.006085
,,,3.45E-06,0.0061325
,,,3.46E-06,0.006183125
,,,3.47E-06,0.00618
,,,3.48E-06,0.00611375
,,,3.49E-06,0.006131875
,,,3.5E-06,0.006316875
,,,3.51E-06,0.00623625
,,,3.52E-06,0.00606625
,,,3.53E-06,0.005944375
,,,3.54E-06,0.006053125
,,,3.55E-06,0.006158125
,,,3.56E-06,0.0061
,,,3.57E-06,0.00624
,,,3.58E-06,0.00596375
