data/raw/Final_POL_Test_1/SOP006_Ch2.csv

"Record Length",1000,"Points",-5E-06,0.0240425
"Sample Interval",1E-08,s,-4.99E-06,0.024240625
"Trigger Point",500,"Samples",-4.98E-06,0.023963125
"Trigger Time",0,s,-4.97E-06,0.02401125
"",,,-4.96E-06,0.024160625
"Horizontal Offset",-5E-06,s,-4.95E-06,0.024291875
,,,-4.94E-06,0.024226875
,,,-4.93E-06,0.024185
,,,-4.92E-06,0.024188125
,,,-4.91E-06,0.0243025
,,,-4.9E-06,0.023991875
,,,-4.89E-06,0.02427125
,,,-4.88E-06,0.0245175
,,,-4.87E-06,0.024005625
,,,-4.86E-06,0.0240125
,,,-4.85E-06,0.02398375
,,,-4.84E-06,0.024051875
,,,-4.83E-06,0.02426125
,,,-4.82E-06,0.024035
,,,-4.81E-06,0.024398125
,,,-4.8E-06,0.02417125
,,,-4.79E-06,0.023900625
,,,-4.78E-06,0.024025
,,,-4.77E-06,0.0239625
,,,-4.76E-06,0.024368125
,,,-4.75E-06,0.02386875
,,,-4.74E-06,0.02377625
,,,-4.73E-06,0.024305
,,,-4.72E-06,0.02395875
,,,-4.71E-06,0.024209375
,,,-4.7E-06,0.02415375
,,,-4.69E-06,0.024096875
,,,-4.68E-06,0.024028125
,,,-4.67E-06,0.02436875
,,,-4.66E-06,0.024265
,,,-4.65E-06,0.023900625
,,,-4.64E-06,0.024375625
,,,-4.63E-06,0.02404375
,,,-4.62E-06,0.02396625
,,,-4.61E-06,0.024155625
,,,-4.6E-06,0.024256875
,,,-4.59E-06,0.023825
,,,-4.58E-06,0.023955625
,,,-4.57E-06,0.024138125
,,,-4.56E-06,0.02425375
,,,-4.55E-06,0.0239175
,,,-4.54E-06,0.0239125
,,,-4.53E-06,0.02397
,,,-4.52E-06,0.0240425
,,,-4.51E-06,0.024259375
,,,-4.5E-06,0.024125625
,,,-4.49E-06,0.02424375
,,,-4.48E-06,0.02419
,,,-4.47E-06,0.023975625
,,,-4.46E-06,0.024054375
,,,-4.45E-06,0.02405
,,,-4.44E-06,0.023966875
,,,-4.43E-06,0.02422875
,,,-4.42E-06,0.02402125
,,,-4.41E-06,0.024096875
,,,-4.4E-06,0.024065625
,,,-4.39E-06,0.02399125
,,,-4.38E-06,0.02394375
,,,-4.37E-06,0.0240825
,,,-4.36E-06,0.023993125
,,,-4.35E-06,0.024031875
,,,-4.34E-06,0.024123125
,,,-4.33E-06,0.024099375
,,,-4.32E-06,0.024093125
,,,-4.31E-06,0.024304375
,,,-4.3E-06,0.024254375
,,,-4.29E-06,0.0241425
,,,-4.28E-06,0.024159375
,,,-4.27E-06,0.0240025
,,,-4.26E-06,0.02434
,,,-4.25E-06,0.024185625
,,,-4.24E-06,0.024145625
,,,-4.23E-06,0.024243125
,,,-4.22E-06,0.0241725
,,,-4.21E-06,0.023965625
,,,-4.2E-06,0.023916875
,,,-4.19E-06,0.0239575
,,,-4.18E-06,0.024186875
,,,-4.17E-06,0.023985
,,,-4.16E-06,0.0240825
,,,-4.15E-06,0.024188125
,,,-4.14E-06,0.024170625
,,,-4.13E-06,0.024265
,,,-4.12E-06,0.023890625
,,,-4.11E-06,0.02403875
,,,-4.1E-06,0.02416375
,,,-4.09E-06,0.02429625
,,,-4.08E-06,0.024271875
,,,-4.07E-06,0.02432375
,,,-4.06E-06,0.02396
,,,-4.05E-06,0.024091875
,,,-4.04E-06,0.02389125
,,,-4.03E-06,0.02403
,,,-4.02E-06,0.024089375
,,,-4.01E-06,0.02421875
,,,-4E-06,0.024365
,,,-3.99E-06,0.023889375
,,,-3.98E-06,0.023899375
,,,-3.97E-06,0.0240925
,,,-3.96E-06,0.024120625
,,,-3.95E-06,0.024058125
,,,-3.94E-06,0.024145
,,,-3.93E-06,0.023856875
,,,-3.92E-06,0.024050625
,,,-3.91E-06,0.024314375
,,,-3.9E-06,0.024176875
,,,-3.89E-06,0.024095
,,,-3.88E-06,0.0240875
,,,-3.87E-06,0.0241075
,,,-3.86E-06,0.023955
,,,-3.85E-06,0.024
,,,-3.84E-06,0.0241
,,,-3.83E-06,0.0241775
,,,-3.82E-06,0.02419875
,,,-3.81E-06,0.024356875
,,,-3.8E-06,0.024044375
,,,-3.79E-06,0.024175625
,,,-3.78E-06,0.02400875
,,,-3.77E-06,0.024145
,,,-3.76E-06,0.023903125
,,,-3.75E-06,0.02406125
,,,-3.74E-06,0.0240075
,,,-3.73E-06,0.024358125
,,,-3.72E-06,0.02408625
,,,-3.71E-06,0.02395625
,,,-3.7E-06,0.02425125
,,,-3.69E-06,0.024046875
,,,-3.68E-06,0.024258125
,,,-3.67E-06,0.02431875
,,,-3.66E-06,0.023991875
,,,-3.65E-06,0.0241175
,,,-3.64E-06,0.024064375
,,,-3.63E-06,0.024000625
,,,-3.62E-06,0.024186875
,,,-3.61E-06,0.023908125
,,,-3.6E-06,0.02432375
,,,-3.59E-06,0.024243125
,,,-3.58E-06,0.024295
,,,-3.57E-06,0.024213125
,,,-3.56E-06,0.0242925
,,,-3.55E-06,0.024055
,,,-3.54E-06,0.02411
,,,-3.53E-06,0.02421875
,,,-3.52E-06,0.02417375
,,,-3.51E-06,0.023953125
,,,-3.5E-06,0.0239275
,,,-3.49E-06,0.02409
,,,-3.48E-06,0.023893125
,,,-3.47E-06,0.023968125
,,,-3.46E-06,0.02405625
,,,-3.45E-06,0.024041875
,,,-3.44E-06,0.023959375
,,,-3.43E-06,0.02430125
,,,-3.42E-06,0.024188125
,,,-3.41E-06,0.02427625
,,,-3.4E-06,0.02378625
,,,-3.39E-06,0.02435125
,,,-3.38E-06,0.024096875
,,,-3.37E-06,0.024426875
,,,-3.36E-06,0.023913125
,,,-3.35E-06,0.024030625
,,,-3.34E-06,0.024013125
,,,-3.33E-06,0.02424875
,,,-3.32E-06,0.024051875
,,,-3.31E-06,0.02425375
,,,-3.3E-06,0.023924375
,,,-3.29E-06,0.02392875
,,,-3.28E-06,0.023890625
,,,-3.27E-06,0.0240275
,,,-3.26E-06,0.0241475
,,,-3.25E-06,0.024065
,,,-3.24E-06,0.02422625
,,,-3.23E-06,0.0241175
,,,-3.22E-06,0.024165625
,,,-3.21E-06,0.024039375
,,,-3.2E-06,0.023953125
,,,-3.19E-06,0.024080625
,,,-3.18E-06,0.02410875
,,,-3.17E-06,0.024273125
,,,-3.16E-06,0.02421875
,,,-3.15E-06,0.024228125
,,,-3.14E-06,0.023955
,,,-3.13E-06,0.024081875
,,,-3.12E-06,0.024355
,,,-3.11E-06,0.024063125
,,,-3.1E-06,0.0241525
,,,-3.09E-06,0.023978125
,,,-3.08E-06,0.02398125
,,,-3.07E-06,0.024118125
,,,-3.06E-06,0.02413625
,,,-3.05E-06,0.024110625
,,,-3.04E-06,0.023809375
,,,-3.03E-06,0.024108125
,,,-3.02E-06,0.024271875
,,,-3.01E-06,0.024194375
,,,-3E-06,0.024110625
,,,-2.99E-06,0.024128125
,,,-2.98E-06,0.02411
,,,-2.97E-06,0.02394625
,,,-2.96E-06,0.0243975
,,,-2.95E-06,0.02404875
,,,-2.94E-06,0.023845625
,,,-2.93E-06,0.024124375
,,,-2.92E-06,0.02412
,,,-2.91E-06,0.024326875
,,,-2.9E-06,0.02404375
,,,-2.89E-06,0.024291875
,,,-2.88E-06,0.024050625
,,,-2.87E-06,0.02401125
,,,-2.86E-06,0.02416625
,,,-2.85E-06,0.024139375
,,,-2.84E-06,0.0241125
,,,-2.83E-06,0.02418
,,,-2.82E-06,0.0243325
,,,-2.81E-06,0.024346875
,,,-2.8E-06,0.02412375
,,,-2.79E-06,0.024005625
,,,-2.78E-06,0.02406625
,,,-2.77E-06,0.024096875
,,,-2.76E-06,0.024040625
,,,-2.75E-06,0.024035
,,,-2.74E-06,0.02400625
,,,-2.73E-06,0.024378125
,,,-2.72E-06,0.024075
,,,-2.71E-06,0.024039375
,,,-2.7E-06,0.02433625
,,,-2.69E-06,0.024163125
,,,-2.68E-06,0.024148125
,,,-2.67E-06,0.024211875
,,,-2.66E-06,0.023886875
,,,-2.65E-06,0.02407
,,,-2.64E-06,0.024075625
,,,-2.63E-06,0.02416
,,,-2.62E-06,0.023999375
,,,-2.61E-06,0.024155
,,,-2.6E-06,0.024275
,,,-2.59E-06,0.0239
,,,-2.58E-06,0.024355
,,,-2.57E-06,0.02435375
,,,-2.56E-06,0.02397875
,,,-2.55E-06,0.02398625
,,,-2.54E-06,0.023956875
,,,-2.53E-06,0.023898125
,,,-2.52E-06,0.024363125
,,,-2.51E-06,0.02435375
,,,-2.5E-06,0.023946875
,,,-2.49E-06,0.02433125
,,,-2.48E-06,0.0239125
,,,-2.47E-06,0.024145
,,,-2.46E-06,0.0240175
,,,-2.45E-06,0.024155
,,,-2.44E-06,0.02402375
,,,-2.43E-06,0.02405125
,,,-2.42E-06,0.024289375
,,,-2.41E-06,0.024431875
,,,-2.4E-06,0.024328125
,,,-2.39E-06,0.0240825
,,,-2.38E-06,0.024041875
,,,-2.37E-06,0.023954375
,,,-2.36E-06,0.024065625
,,,-2.35E-06,0.02420125
,,,-2.34E-06,0.02434625
,,,-2.33E-06,0.024180625
,,,-2.32E-06,0.024071875
,,,-2.31E-06,0.024218125
,,,-2.3E-06,0.02420875
,,,-2.29E-06,0.024235625
,,,-2.28E-06,0.024023125
,,,-2.27E-06,0.024035
,,,-2.26E-06,0.024265625
,,,-2.25E-06,0.024075
,,,-2.24E-06,0.02416
,,,-2.23E-06,0.024206875
,,,-2.22E-06,0.023839375
,,,-2.21E-06,0.0241
,,,-2.2E-06,0.024278125
,,,-2.19E-06,0.024165
,,,-2.18E-06,0.024398125
,,,-2.17E-06,0.02424125
,,,-2.16E-06,0.024030625
,,,-2.15E-06,0.024109375
,,,-2.14E-06,0.02396125
,,,-2.13E-06,0.02409
,,,-2.12E-06,0.02408375
,,,-2.11E-06,0.024049375
,,,-2.1E-06,0.0239225
,,,-2.09E-06,0.024123125
,,,-2.08E-06,0.02402625
,,,-2.07E-06,0.024423125
,,,-2.06E-06,0.024379375
,,,-2.05E-06,0.024263125
,,,-2.04E-06,0.024119375
,,,-2.03E-06,0.02399125
,,,-2.02E-06,0.024151875
,,,-2.01E-06,0.024131875
,,,-2E-06,0.02395
,,,-1.99E-06,0.024028125
,,,-1.98E-06,0.024174375
,,,-1.97E-06,0.02394125
,,,-1.96E-06,0.023728125
,,,-1.95E-06,0.024004375
,,,-1.94E-06,0.024245625
,,,-1.93E-06,0.024029375
,,,-1.92E-06,0.02414625
,,,-1.91E-06,0.023884375
,,,-1.9E-06,0.024246875
,,,-1.89E-06,0.024
,,,-1.88E-06,0.0240825
,,,-1.87E-06,0.0241075
,,,-1.86E-06,0.024238125
,,,-1.85E-06,0.024189375
,,,-1.84E-06,0.02388
,,,-1.83E-06,0.024139375
,,,-1.82E-06,0.02413
,,,-1.81E-06,0.0243725
,,,-1.8E-06,0.024095
,,,-1.79E-06,0.024216875
,,,-1.78E-06,0.02391
,,,-1.77E-06,0.0241625
,,,-1.76E-06,0.0241725
,,,-1.75E-06,0.024051875
,,,-1.74E-06,0.023964375
,,,-1.73E-06,0.02413625
,,,-1.72E-06,0.0238575
,,,-1.71E-06,0.0244275
,,,-1.7E-06,0.02412
,,,-1.69E-06,0.024400625
,,,-1.68E-06,0.023934375
,,,-1.67E-06,0.023945625
,,,-1.66E-06,0.024113125
,,,-1.65E-06,0.023955625
,,,-1.64E-06,0.0240325
,,,-1.63E-06,0.024201875
,,,-1.62E-06,0.023921875
,,,-1.61E-06,0.0239675
,,,-1.6E-06,0.0241775
,,,-1.59E-06,0.024058125
,,,-1.58E-06,0.024128125
,,,-1.57E-06,0.0243175
,,,-1.56E-06,0.02424625
,,,-1.55E-06,0.023963125
,,,-1.54E-06,0.024269375
,,,-1.53E-06,0.024033125
,,,-1.52E-06,0.02401125
,,,-1.51E-06,0.0241
,,,-1.5E-06,0.024334375
,,,-1.49E-06,0.024301875
,,,-1.48E-06,0.02431625
,,,-1.47E-06,0.02409875
,,,-1.46E-06,0.023910625
,,,-1.45E-06,0.024078125
,,,-1.44E-06,0.024011875
,,,-1.43E-06,0.02418
,,,-1.42E-06,0.024208125
,,,-1.41E-06,0.024306875
,,,-1.4E-06,0.02395125
,,,-1.39E-06,0.023948125
,,,-1.38E-06,0.024125625
,,,-1.37E-06,0.024230625
,,,-1.36E-06,0.024180625
,,,-1.35E-06,0.024256875
,,,-1.34E-06,0.024290625
,,,-1.33E-06,0.024041875
,,,-1.32E-06,0.02421
,,,-1.31E-06,0.024084375
,,,-1.3E-06,0.02393875
,,,-1.29E-06,0.023954375
,,,-1.28E-06,0.024090625
,,,-1.27E-06,0.023985
,,,-1.26E-06,0.02411
,,,-1.25E-06,0.02415625
,,,-1.24E-06,0.024129375
,,,-1.23E-06,0.02405125
,,,-1.22E-06,0.0241725
,,,-1.21E-06,0.024086875
,,,-1.2E-06,0.02425625
,,,-1.19E-06,0.02407375
,,,-1.18E-06,0.023909375
,,,-1.17E-06,0.024148125
,,,-1.16E-06,0.023971875
,,,-1.15E-06,0.02427875
,,,-1.14E-06,0.024019375
,,,-1.13E-06,0.0237225
,,,-1.12E-06,0.024136875
,,,-1.11E-06,0.02406
,,,-1.1E-06,0.0241625
,,,-1.09E-06,0.0239425
,,,-1.08E-06,0.0242525
,,,-1.07E-06,0.024075
,,,-1.06E-06,0.023806875
,,,-1.05E-06,0.024085
,,,-1.04E-06,0.02404
,,,-1.03E-06,0.02432625
,,,-1.02E-06,0.024158125
,,,-1.01E-06,0.024245
,,,-1E-06,0.0243575
,,,-9.9E-07,0.0241825
,,,-9.8E-07,0.0241525
,,,-9.7E-07,0.02403875
,,,-9.6E-07,0.024131875
,,,-9.5E-07,0.024101875
,,,-9.4E-07,0.024385
,,,-9.3E-07,0.024241875
,,,-9.2E-07,0.023905
,,,-9.1E-07,0.024181875
,,,-9E-07,0.023781875
,,,-8.9E-07,0.023884375
,,,-8.8E-07,0.023925
,,,-8.7E-07,0.024326875
,,,-8.6E-07,0.024196875
,,,-8.5E-07,0.0241025
,,,-8.4E-07,0.02416
,,,-8.3E-07,0.02417125
,,,-8.2E-07,0.0239125
,,,-8.1E-07,0.024179375
,,,-8E-07,0.0240225
,,,-7.9E-07,0.024065625
,,,-7.8E-07,0.024318125
,,,-7.7E-07,0.024189375
,,,-7.6E-07,0.024056875
,,,-7.5E-07,0.024100625
,,,-7.4E-07,0.024254375
,,,-7.3E-07,0.024213125
,,,-7.2E-07,0.0240925
,,,-7.1E-07,0.024254375
,,,-7E-07,0.024358125
,,,-6.9E-07,0.024298125
,,,-6.8E-07,0.02418375
,,,-6.7E-07,0.0243075
,,,-6.6E-07,0.023970625
,,,-6.5E-07,0.024076875
,,,-6.4E-07,0.02393875
,,,-6.3E-07,0.02420125
,,,-6.2E-07,0.024086875
,,,-6.1E-07,0.0240575
,,,-6E-07,0.02418875
,,,-5.9E-07,0.024125625
,,,-5.8E-07,0.0242525
,,,-5.7E-07,0.023753125
,,,-5.6E-07,0.024376875
,,,-5.5E-07,0.0242075
,,,-5.4E-07,0.02429
,,,-5.3E-07,0.024285625
,,,-5.2E-07,0.02428375
,,,-5.1E-07,0.02394875
,,,-5E-07,0.024151875
,,,-4.9E-07,0.023969375
,,,-4.8E-07,0.02403375
,,,-4.7E-07,0.02387125
,,,-4.6E-07,0.024093125
,,,-4.5E-07,0.02402375
,,,-4.4E-07,0.024185625
,,,-4.3E-07,0.024134375
,,,-4.2E-07,0.0243775
,,,-4.1E-07,0.02414
,,,-4E-07,0.023853125
,,,-3.9E-07,0.02395625
,,,-3.8E-07,0.0240325
,,,-3.7E-07,0.024055
,,,-3.6E-07,0.02412625
,,,-3.5E-07,0.02396
,,,-3.4E-07,0.0241525
,,,-3.3E-07,0.023965625
,,,-3.2E-07,0.024019375
,,,-3.1E-07,0.0241725
,,,-3E-07,0.024253125
,,,-2.9E-07,0.02433
,,,-2.8E-07,0.0240825
,,,-2.7E-07,0.02418
,,,-2.6E-07,0.024179375
,,,-2.5E-07,0.024371875
,,,-2.4E-07,0.024009375
,,,-2.3E-07,0.0240025
,,,-2.2E-07,0.02410625
,,,-2.1E-07,0.02429
,,,-2E-07,0.024124375
,,,-1.9E-07,0.02422875
,,,-1.8E-07,0.02428875
,,,-1.7E-07,0.0241075
,,,-1.6E-07,0.024135
,,,-1.5E-07,0.024136875
,,,-1.4E-07,0.02413125
,,,-1.3E-07,0.02399375
,,,-1.2E-07,0.0242275
,,,-1.1E-07,0.0240975
,,,-1E-07,0.02394125
,,,-9E-08,0.024093125
,,,-8E-08,0.02404375
,,,-7E-08,0.02397875
,,,-6E-08,0.023875
,,,-5E-08,0.02432125
,,,-4E-08,0.025395
,,,-3E-08,0.025389375
,,,-2E-08,0.022041875
,,,-1E-08,0.020504375
,,,0,0.02248875
,,,1E-08,0.027353125
,,,2E-08,0.028329375
,,,3E-08,0.026205
,,,4E-08,0.02257125
,,,5E-08,0.020956875
,,,6E-08,0.0215925
,,,7E-08,0.02353125
,,,8E-08,0.02506625
,,,9E-08,0.02615625
,,,1E-07,0.025918125
,,,1.1E-07,0.024175
,,,1.2E-07,0.0229025
,,,1.3E-07,0.02281625
,,,1.4E-07,0.023509375
,,,1.5E-07,0.02461375
,,,1.6E-07,0.0247125
,,,1.7E-07,0.0242675
,,,1.8E-07,0.024098125
,,,1.9E-07,0.02408
,,,2E-07,0.0238025
,,,2.1E-07,0.023885
,,,2.2E-07,0.023644375
,,,2.3E-07,0.023990625
,,,2.4E-07,0.024336875
,,,2.5E-07,0.024191875
,,,2.6E-07,0.02385
,,,2.7E-07,0.024316875
,,,2.8E-07,0.024195
,,,2.9E-07,0.02417
,,,3E-07,0.024153125
,,,3.1E-07,0.02401625
,,,3.2E-07,0.02423875
,,,3.3E-07,0.024500625
,,,3.4E-07,0.02403
,,,3.5E-07,0.024080625
,,,3.6E-07,0.023953125
,,,3.7E-07,0.023979375
,,,3.8E-07,0.02434875
,,,3.9E-07,0.02405875
,,,4E-07,0.024199375
,,,4.1E-07,0.024174375
,,,4.2E-07,0.0241325
,,,4.3E-07,0.02402625
,,,4.4E-07,0.02453375
,,,4.5E-07,0.02424125
,,,4.6E-07,0.02393625
,,,4.7E-07,0.024065625
,,,4.8E-07,0.024198125
,,,4.9E-07,0.02396
,,,5E-07,0.024193125
,,,5.1E-07,0.02423125
,,,5.2E-07,0.02421375
,,,5.3E-07,0.024165
,,,5.4E-07,0.0241825
,,,5.5E-07,0.02434875
,,,5.6E-07,0.024161875
,,,5.7E-07,0.024014375
,,,5.8E-07,0.02392875
,,,5.9E-07,0.024189375
,,,6E-07,0.024166875
,,,6.1E-07,0.024169375
,,,6.2E-07,0.02412125
,,,6.3E-07,0.02416
,,,6.4E-07,0.0242325
,,,6.5E-07,0.023808125
,,,6.6E-07,0.023915
,,,6.7E-07,0.02409
,,,6.8E-07,0.02413
,,,6.9E-07,0.024095
,,,7E-07,0.024056875
,,,7.1E-07,0.024199375
,,,7.2E-07,0.02417375
,,,7.3E-07,0.0240825
,,,7.4E-07,0.024183125
,,,7.5E-07,0.02403375
,,,7.6E-07,0.024101875
,,,7.7E-07,0.024205
,,,7.8E-07,0.024165
,,,7.9E-07,0.0239725
,,,8E-07,0.0238975
,,,8.1E-07,0.024081875
,,,8.2E-07,0.024078125
,,,8.3E-07,0.02430125
,,,8.4E-07,0.0240625
,,,8.5E-07,0.023941875
,,,8.6E-07,0.02398125
,,,8.7E-07,0.0238375
,,,8.8E-07,0.024175
,,,8.9E-07,0.024176875
,,,9E-07,0.024005625
,,,9.1E-07,0.024200625
,,,9.2E-07,0.02431375
,,,9.3E-07,0.023925
,,,9.4E-07,0.024305
,,,9.5E-07,0.02411375
,,,9.6E-07,0.02431625
,,,9.7E-07,0.024051875
,,,9.8E-07,0.024369375
,,,9.9E-07,0.02414
,,,1E-06,0.0241175
,,,1.01E-06,0.023934375
,,,1.02E-06,0.023904375
,,,1.03E-06,0.024339375
,,,1.04E-06,0.024146875
,,,1.05E-06,0.02408875
,,,1.06E-06,0.02414625
,,,1.07E-06,0.024106875
,,,1.08E-06,0.024150625
,,,1.09E-06,0.023953125
,,,1.1E-06,0.02397875
,,,1.11E-06,0.024135
,,,1.12E-06,0.024161875
,,,1.13E-06,0.0240725
,,,1.14E-06,0.02411
,,,1.15E-06,0.024060625
,,,1.16E-06,0.024289375
,,,1.17E-06,0.0240925
,,,1.18E-06,0.024018125
,,,1.19E-06,0.023984375
,,,1.2E-06,0.023933125
,,,1.21E-06,0.02411625
,,,1.22E-06,0.024314375
,,,1.23E-06,0.02415
,,,1.24E-06,0.024055625
,,,1.25E-06,0.024064375
,,,1.26E-06,0.02394375
,,,1.27E-06,0.024198125
,,,1.28E-06,0.023998125
,,,1.29E-06,0.024095
,,,1.3E-06,0.0242125
,,,1.31E-06,0.024109375
,,,1.32E-06,0.02406375
,,,1.33E-06,0.024245625
,,,1.34E-06,0.024149375
,,,1.35E-06,0.024070625
,,,1.36E-06,0.023863125
,,,1.37E-06,0.024248125
,,,1.38E-06,0.0240825
,,,1.39E-06,0.0240775
,,,1.4E-06,0.02398875
,,,1.41E-06,0.0241875
,,,1.42E-06,0.0242925
,,,1.43E-06,0.02414
,,,1.44E-06,0.02409125
,,,1.45E-06,0.0240625
,,,1.46E-06,0.024209375
,,,1.47E-06,0.023978125
,,,1.48E-06,0.023971875
,,,1.49E-06,0.02414375
,,,1.5E-06,0.024001875
,,,1.51E-06,0.024026875
,,,1.52E-06,0.023850625
,,,1.53E-06,0.02429375
,,,1.54E-06,0.02401875
,,,1.55E-06,0.024116875
,,,1.56E-06,0.02413125
,,,1.57E-06,0.02400125
,,,1.58E-06,0.0240825
,,,1.59E-06,0.024170625
,,,1.6E-06,0.023964375
,,,1.61E-06,0.024159375
,,,1.62E-06,0.023888125
,,,1.63E-06,0.024269375
,,,1.64E-06,0.024134375
,,,1.65E-06,0.024110625
,,,1.66E-06,0.02405875
,,,1.67E-06,0.024184375
,,,1.68E-06,0.0240175
,,,1.69E-06,0.02424125
,,,1.7E-06,0.02417
,,,1.71E-06,0.024231875
,,,1.72E-06,0.024221875
,,,1.73E-06,0.0241025
,,,1.74E-06,0.02380875
,,,1.75E-06,0.024059375
,,,1.76E-06,0.024146875
,,,1.77E-06,0.02399375
,,,1.78E-06,0.024194375
,,,1.79E-06,0.02412125
,,,1.8E-06,0.024136875
,,,1.81E-06,0.023805
,,,1.82E-06,0.0240275
,,,1.83E-06,0.024104375
,,,1.84E-06,0.02406875
,,,1.85E-06,0.0241225
,,,1.86E-06,0.0239925
,,,1.87E-06,0.02410875
,,,1.88E-06,0.0241275
,,,1.89E-06,0.02415375
,,,1.9E-06,0.02421
,,,1.91E-06,0.023843125
,,,1.92E-06,0.0239875
,,,1.93E-06,0.024235625
,,,1.94E-06,0.02411375
,,,1.95E-06,0.02422
,,,1.96E-06,0.024119375
,,,1.97E-06,0.02419625
,,,1.98E-06,0.024228125
,,,1.99E-06,0.024083125
,,,2E-06,0.0241975
,,,2.01E-06,0.023969375
,,,2.02E-06,0.023840625
,,,2.03E-06,0.02419125
,,,2.04E-06,0.024138125
,,,2.05E-06,0.024144375
,,,2.06E-06,0.0243325
,,,2.07E-06,0.02401875
,,,2.08E-06,0.024054375
,,,2.09E-06,0.02427
,,,2.1E-06,0.02407375
,,,2.11E-06,0.024284375
,,,2.12E-06,0.023933125
,,,2.13E-06,0.023998125
,,,2.14E-06,0.02435625
,,,2.15E-06,0.02414375
,,,2.16E-06,0.02421
,,,2.17E-06,0.024125
,,,2.18E-06,0.024293125
,,,2.19E-06,0.024149375
,,,2.2E-06,0.02400625
,,,2.21E-06,0.024113125
,,,2.22E-06,0.024109375
,,,2.23E-06,0.02394
,,,2.24E-06,0.02413875
,,,2.25E-06,0.023964375
,,,2.26E-06,0.024109375
,,,2.27E-06,0.024186875
,,,2.28E-06,0.0242475
,,,2.29E-06,0.024108125
,,,2.3E-06,0.0241525
,,,2.31E-06,0.024135625
,,,2.32E-06,0.02436875
,,,2.33E-06,0.024103125
,,,2.34E-06,0.02420125
,,,2.35E-06,0.0240975
,,,2.36E-06,0.0238025
,,,2.37E-06,0.024266875
,,,2.38E-06,0.024148125
,,,2.39E-06,0.0240775
,,,2.4E-06,0.024064375
,,,2.41E-06,0.02407875
,,,2.42E-06,0.02425875
,,,2.43E-06,0.024045
,,,2.44E-06,0.024260625
,,,2.45E-06,0.02388875
,,,2.46E-06,0.024175625
,,,2.47E-06,0.02430375
,,,2.48E-06,0.024255625
,,,2.49E-06,0.024134375
,,,2.5E-06,0.024051875
,,,2.51E-06,0.02415375
,,,2.52E-06,0.024045
,,,2.53E-06,0.024015
,,,2.54E-06,0.024011875
,,,2.55E-06,0.0240425
,,,2.56E-06,0.023814375
,,,2.57E-06,0.024159375
,,,2.58E-06,0.024148125
,,,2.59E-06,0.024269375
,,,2.6E-06,0.024248125
,,,2.61E-06,0.02406
,,,2.62E-06,0.023873125
,,,2.63E-06,0.02415125
,,,2.64E-06,0.02412
,,,2.65E-06,0.024309375
,,,2.66E-06,0.024145
,,,2.67E-06,0.02421875
,,,2.68E-06,0.023941875
,,,2.69E-06,0.02427875
,,,2.7E-06,0.02414125
,,,2.71E-06,0.02388625
,,,2.72E-06,0.0241275
,,,2.73E-06,0.024328125
,,,2.74E-06,0.024016875
,,,2.75E-06,0.024245
,,,2.76E-06,0.02415625
,,,2.77E-06,0.0240575
,,,2.78E-06,0.024309375
,,,2.79E-06,0.0242525
,,,2.8E-06,0.024245
,,,2.81E-06,0.024185625
,,,2.82E-06,0.02417625
,,,2.83E-06,0.0242275
,,,2.84E-06,0.024306875
,,,2.85E-06,0.024276875
,,,2.86E-06,0.023878125
,,,2.87E-06,0.024095
,,,2.88E-06,0.02406875
,,,2.89E-06,0.02409375
,,,2.9E-06,0.024281875
,,,2.91E-06,0.024319375
,,,2.92E-06,0.024043125
,,,2.93E-06,0.0239225
,,,2.94E-06,0.02404375
,,,2.95E-06,0.024249375
,,,2.96E-06,0.02413125
,,,2.97E-06,0.024135
,,,2.98E-06,0.0242675
,,,2.99E-06,0.02421875
,,,3E-06,0.023981875
,,,3.01E-06,0.024134375
,,,3.02E-06,0.024270625
,,,3.03E-06,0.0240075
,,,3.04E-06,0.02410125
,,,3.05E-06,0.024265
,,,3.06E-06,0.02410625
,,,3.07E-06,0.02412625
,,,3.08E-06,0.02402
,,,3.09E-06,0.024175
,,,3.1E-06,0.024219375
,,,3.11E-06,0.0242925
,,,3.12E-06,0.02433875
,,,3.13E-06,0.02419375
,,,3.14E-06,0.024113125
,,,3.15E-06,0.024228125
,,,3.16E-06,0.024235
,,,3.17E-06,0.024174375
,,,3.18E-06,0.0242625
,,,3.19E-06,0.023945
,,,3.2E-06,0.02391375
,,,3.21E-06,0.0241375
,,,3.22E-06,0.024159375
,,,3.23E-06,0.024179375
,,,3.24E-06,0.02404
,,,3.25E-06,0.024034375
,,,3.26E-06,0.024165
,,,3.27E-06,0.02416375
,,,3.28E-06,0.023979375
,,,3.29E-06,0.024239375
,,,3.3E-06,0.02408625
,,,3.31E-06,0.024255625
,,,3.32E-06,0.02419875
,,,3.33E-06,0.02394125
,,,3.34E-06,0.02407875
,,,3.35E-06,0.024100625
,,,3.36E-06,0.02413625
,,,3.37E-06,0.023961875
,,,3.38E-06,0.02385375
,,,3.39E-06,0.023986875
,,,3.4E-06,0.023948125
,,,3.41E-06,0.024120625
,,,3.42E-06,0.024063125
,,,3.43E-06,0.02392
,,,3.44E-06,0.024079375
,,,3.45E-06,0.024116875
,,,3.46E-06,0.023828125
,,,3.47E-06,0.024218125
,,,3.48E-06,0.023876875
,,,3.49E-06,0.023985
,,,3.5E-06,0.024095625
,,,3.51E-06,0.0241475
,,,3.52E-06,0.023964375
,,,3.53E-06,0.02407375
,,,3.54E-06,0.024024375
,,,3.55E-06,0.02406125
,,,3.56E-06,0.02395625
,,,3.57E-06,0.024215625
,,,3.58E-06,0.0240725
