data/raw/Final_POL_Test_1/SOP004_Ch1.csv

"Record Length",1000,"Points",-5E-06,0.006513125
"Sample Interval",1E-08,s,-4.99E-06,0.00604
"Trigger Point",500,"Samples",-4.98E-06,0.006500625
"Trigger Time",0,s,-4.97E-06,0.00636
"",,,-4.96E-06,0.006369375
"Horizontal Offset",-5E-06,s,-4.95E-06,0.00633125
,,,-4.94E-06,0.00638875
,,,-4.93E-06,0.006185625
,,,-4.92E-06,0.006114375
,,,-4.91E-06,0.006454375
,,,-4.9E-06,0.00664875
,,,-4.89E-06,0.006284375
,,,-4.88E-06,0.006443125
,,,-4.87E-06,0.006429375
,,,-4.86E-06,0.006185625
,,,-4.85E-06,0.006030625
,,,-4.84E-06,0.00630625
,,,-4.83E-06,0.00656625
,,,-4.82E-06,0.006428125
,,,-4.81E-06,0.006325625
,,,-4.8E-06,0.006281875
,,,-4.79E-06,0.006570625
,,,-4.78E-06,0.006594375
,,,-4.77E-06,0.006601875
,,,-4.76E-06,0.006235625
,,,-4.75E-06,0.006375625
,,,-4.74E-06,0.00659625
,,,-4.73E-06,0.006595625
,,,-4.72E-06,0.00651125
,,,-4.71E-06,0.006478125
,,,-4.7E-06,0.006425
,,,-4.69E-06,0.00659
,,,-4.68E-06,0.00646625
,,,-4.67E-06,0.006610625
,,,-4.66E-06,0.0066275
,,,-4.65E-06,0.006331875
,,,-4.64E-06,0.006605
,,,-4.63E-06,0.006296875
,,,-4.62E-06,0.006371875
,,,-4.61E-06,0.0064725
,,,-4.6E-06,0.006490625
,,,-4.59E-06,0.006274375
,,,-4.58E-06,0.00645375
,,,-4.57E-06,0.006549375
,,,-4.56E-06,0.006451875
,,,-4.55E-06,0.006360625
,,,-4.54E-06,0.006545625
,,,-4.53E-06,0.00636125
,,,-4.52E-06,0.00648625
,,,-4.51E-06,0.006316875
,,,-4.5E-06,0.006435625
,,,-4.49E-06,0.006385625
,,,-4.48E-06,0.006145
,,,-4.47E-06,0.006275625
,,,-4.46E-06,0.006406875
,,,-4.45E-06,0.006350625
,,,-4.44E-06,0.006455625
,,,-4.43E-06,0.0065875
,,,-4.42E-06,0.0063675
,,,-4.41E-06,0.00645125
,,,-4.4E-06,0.00653625
,,,-4.39E-06,0.0063625
,,,-4.38E-06,0.006509375
,,,-4.37E-06,0.00646875
,,,-4.36E-06,0.006314375
,,,-4.35E-06,0.006449375
,,,-4.34E-06,0.00650375
,,,-4.33E-06,0.0064625
,,,-4.32E-06,0.00649125
,,,-4.31E-06,0.00635375
,,,-4.3E-06,0.0064225
,,,-4.29E-06,0.00649625
,,,-4.28E-06,0.006224375
,,,-4.27E-06,0.006465625
,,,-4.26E-06,0.006166875
,,,-4.25E-06,0.006453125
,,,-4.24E-06,0.0064
,,,-4.23E-06,0.006518125
,,,-4.22E-06,0.0061825
,,,-4.21E-06,0.00625
,,,-4.2E-06,0.006325625
,,,-4.19E-06,0.00638875
,,,-4.18E-06,0.00673
,,,-4.17E-06,0.0066375
,,,-4.16E-06,0.006290625
,,,-4.15E-06,0.006480625
,,,-4.14E-06,0.006315625
,,,-4.13E-06,0.00618625
,,,-4.12E-06,0.0063875
,,,-4.11E-06,0.0061725
,,,-4.1E-06,0.006640625
,,,-4.09E-06,0.006150625
,,,-4.08E-06,0.006349375
,,,-4.07E-06,0.00647625
,,,-4.06E-06,0.006470625
,,,-4.05E-06,0.006623125
,,,-4.04E-06,0.006445
,,,-4.03E-06,0.006518125
,,,-4.02E-06,0.00627625
,,,-4.01E-06,0.00646375
,,,-4E-06,0.006324375
,,,-3.99E-06,0.00629375
,,,-3.98E-06,0.006380625
,,,-3.97E-06,0.006455625
,,,-3.96E-06,0.00624875
,,,-3.95E-06,0.006358125
,,,-3.94E-06,0.006344375
,,,-3.93E-06,0.006205625
,,,-3.92E-06,0.006309375
,,,-3.91E-06,0.00621375
,,,-3.9E-06,0.00662625
,,,-3.89E-06,0.0061925
,,,-3.88E-06,0.0063
,,,-3.87E-06,0.00641875
,,,-3.86E-06,0.006231875
,,,-3.85E-06,0.0064775
,,,-3.84E-06,0.00641875
,,,-3.83E-06,0.006358125
,,,-3.82E-06,0.006366875
,,,-3.81E-06,0.00629375
,,,-3.8E-06,0.006610625
,,,-3.79E-06,0.00659
,,,-3.78E-06,0.006218125
,,,-3.77E-06,0.006430625
,,,-3.76E-06,0.00621125
,,,-3.75E-06,0.006054375
,,,-3.74E-06,0.006165
,,,-3.73E-06,0.00647125
,,,-3.72E-06,0.0063375
,,,-3.71E-06,0.006464375
,,,-3.7E-06,0.006258125
,,,-3.69E-06,0.00662
,,,-3.68E-06,0.006580625
,,,-3.67E-06,0.00636375
,,,-3.66E-06,0.006361875
,,,-3.65E-06,0.00657125
,,,-3.64E-06,0.00638
,,,-3.63E-06,0.006360625
,,,-3.62E-06,0.00632375
,,,-3.61E-06,0.006424375
,,,-3.6E-06,0.00617125
,,,-3.59E-06,0.006475
,,,-3.58E-06,0.0065775
,,,-3.57E-06,0.00657875
,,,-3.56E-06,0.00641
,,,-3.55E-06,0.00628875
,,,-3.54E-06,0.00632875
,,,-3.53E-06,0.00628625
,,,-3.52E-06,0.006584375
,,,-3.51E-06,0.006341875
,,,-3.5E-06,0.006475625
,,,-3.49E-06,0.00639375
,,,-3.48E-06,0.00625875
,,,-3.47E-06,0.0062825
,,,-3.46E-06,0.006171875
,,,-3.45E-06,0.0062575
,,,-3.44E-06,0.00633375
,,,-3.43E-06,0.006329375
,,,-3.42E-06,0.006455625
,,,-3.41E-06,0.00645125
,,,-3.4E-06,0.006439375
,,,-3.39E-06,0.006406875
,,,-3.38E-06,0.006615625
,,,-3.37E-06,0.00631625
,,,-3.36E-06,0.006365625
,,,-3.35E-06,0.00650875
,,,-3.34E-06,0.00655875
,,,-3.33E-06,0.00633375
,,,-3.32E-06,0.006075625
,,,-3.31E-06,0.00634125
,,,-3.3E-06,0.00630375
,,,-3.29E-06,0.006449375
,,,-3.28E-06,0.006624375
,,,-3.27E-06,0.00643375
,,,-3.26E-06,0.00672
,,,-3.25E-06,0.006531875
,,,-3.24E-06,0.006555
,,,-3.23E-06,0.00632
,,,-3.22E-06,0.0063775
,,,-3.21E-06,0.006370625
,,,-3.2E-06,0.006420625
,,,-3.19E-06,0.006329375
,,,-3.18E-06,0.0064025
,,,-3.17E-06,0.0063275
,,,-3.16E-06,0.006570625
,,,-3.15E-06,0.006329375
,,,-3.14E-06,0.006495
,,,-3.13E-06,0.006173125
,,,-3.12E-06,0.006235
,,,-3.11E-06,0.00642625
,,,-3.1E-06,0.006429375
,,,-3.09E-06,0.006448125
,,,-3.08E-06,0.006554375
,,,-3.07E-06,0.006375
,,,-3.06E-06,0.006079375
,,,-3.05E-06,0.006439375
,,,-3.04E-06,0.006371875
,,,-3.03E-06,0.006319375
,,,-3.02E-06,0.00645875
,,,-3.01E-06,0.00643375
,,,-3E-06,0.00650625
,,,-2.99E-06,0.00643875
,,,-2.98E-06,0.006328125
,,,-2.97E-06,0.00638125
,,,-2.96E-06,0.006535625
,,,-2.95E-06,0.006525
,,,-2.94E-06,0.00666875
,,,-2.93E-06,0.006395625
,,,-2.92E-06,0.0063175
,,,-2.91E-06,0.00625875
,,,-2.9E-06,0.00642875
,,,-2.89E-06,0.006389375
,,,-2.88E-06,0.00635875
,,,-2.87E-06,0.00643125
,,,-2.86E-06,0.00639125
,,,-2.85E-06,0.006469375
,,,-2.84E-06,0.006345
,,,-2.83E-06,0.00688
,,,-2.82E-06,0.006269375
,,,-2.81E-06,0.0064375
,,,-2.8E-06,0.006325625
,,,-2.79E-06,0.006663125
,,,-2.78E-06,0.0062575
,,,-2.77E-06,0.00627625
,,,-2.76E-06,0.00630375
,,,-2.75E-06,0.00657625
,,,-2.74E-06,0.006310625
,,,-2.73E-06,0.00632125
,,,-2.72E-06,0.0063375
,,,-2.71E-06,0.006485
,,,-2.7E-06,0.006226875
,,,-2.69E-06,0.00639375
,,,-2.68E-06,0.00652375
,,,-2.67E-06,0.0062825
,,,-2.66E-06,0.006519375
,,,-2.65E-06,0.0062375
,,,-2.64E-06,0.006159375
,,,-2.63E-06,0.006415625
,,,-2.62E-06,0.006175
,,,-2.61E-06,0.00638
,,,-2.6E-06,0.00641625
,,,-2.59E-06,0.0062725
,,,-2.58E-06,0.006286875
,,,-2.57E-06,0.006429375
,,,-2.56E-06,0.00641375
,,,-2.55E-06,0.00637125
,,,-2.54E-06,0.006398125
,,,-2.53E-06,0.006321875
,,,-2.52E-06,0.006403125
,,,-2.51E-06,0.006646875
,,,-2.5E-06,0.00640375
,,,-2.49E-06,0.00637125
,,,-2.48E-06,0.006475625
,,,-2.47E-06,0.006388125
,,,-2.46E-06,0.00653875
,,,-2.45E-06,0.006329375
,,,-2.44E-06,0.006398125
,,,-2.43E-06,0.006356875
,,,-2.42E-06,0.00623875
,,,-2.41E-06,0.006351875
,,,-2.4E-06,0.006470625
,,,-2.39E-06,0.00648375
,,,-2.38E-06,0.00644
,,,-2.37E-06,0.0059875
,,,-2.36E-06,0.006370625
,,,-2.35E-06,0.0064525
,,,-2.34E-06,0.006400625
,,,-2.33E-06,0.006605625
,,,-2.32E-06,0.006475
,,,-2.31E-06,0.00651375
,,,-2.3E-06,0.0065525
,,,-2.29E-06,0.00631875
,,,-2.28E-06,0.00632625
,,,-2.27E-06,0.00667125
,,,-2.26E-06,0.00656875
,,,-2.25E-06,0.006355
,,,-2.24E-06,0.006475625
,,,-2.23E-06,0.006195
,,,-2.22E-06,0.006468125
,,,-2.21E-06,0.006596875
,,,-2.2E-06,0.00659625
,,,-2.19E-06,0.006659375
,,,-2.18E-06,0.006665
,,,-2.17E-06,0.0064225
,,,-2.16E-06,0.00630375
,,,-2.15E-06,0.006415
,,,-2.14E-06,0.006458125
,,,-2.13E-06,0.0062925
,,,-2.12E-06,0.006343125
,,,-2.11E-06,0.006196875
,,,-2.1E-06,0.006313125
,,,-2.09E-06,0.006406875
,,,-2.08E-06,0.006455
,,,-2.07E-06,0.00634625
,,,-2.06E-06,0.006375625
,,,-2.05E-06,0.0064425
,,,-2.04E-06,0.006428125
,,,-2.03E-06,0.006510625
,,,-2.02E-06,0.006153125
,,,-2.01E-06,0.006400625
,,,-2E-06,0.006145625
,,,-1.99E-06,0.006245
,,,-1.98E-06,0.006499375
,,,-1.97E-06,0.006466875
,,,-1.96E-06,0.00617
,,,-1.95E-06,0.00641625
,,,-1.94E-06,0.006120625
,,,-1.93E-06,0.006515
,,,-1.92E-06,0.00654
,,,-1.91E-06,0.006395625
,,,-1.9E-06,0.006381875
,,,-1.89E-06,0.00615
,,,-1.88E-06,0.00646125
,,,-1.87E-06,0.00636375
,,,-1.86E-06,0.006423125
,,,-1.85E-06,0.006606875
,,,-1.84E-06,0.006360625
,,,-1.83E-06,0.00647375
,,,-1.82E-06,0.0063775
,,,-1.81E-06,0.00637125
,,,-1.8E-06,0.006390625
,,,-1.79E-06,0.006240625
,,,-1.78E-06,0.006265
,,,-1.77E-06,0.0064425
,,,-1.76E-06,0.006255
,,,-1.75E-06,0.006409375
,,,-1.74E-06,0.006734375
,,,-1.73E-06,0.006165625
,,,-1.72E-06,0.006358125
,,,-1.71E-06,0.006513125
,,,-1.7E-06,0.006058125
,,,-1.69E-06,0.006254375
,,,-1.68E-06,0.006580625
,,,-1.67E-06,0.006420625
,,,-1.66E-06,0.006635625
,,,-1.65E-06,0.00637875
,,,-1.64E-06,0.0063775
,,,-1.63E-06,0.006255625
,,,-1.62E-06,0.006500625
,,,-1.61E-06,0.006118125
,,,-1.6E-06,0.00672125
,,,-1.59E-06,0.0064725
,,,-1.58E-06,0.006471875
,,,-1.57E-06,0.0065675
,,,-1.56E-06,0.00643125
,,,-1.55E-06,0.0062625
,,,-1.54E-06,0.006315625
,,,-1.53E-06,0.00641125
,,,-1.52E-06,0.00649125
,,,-1.51E-06,0.006340625
,,,-1.5E-06,0.0063775
,,,-1.49E-06,0.006514375
,,,-1.48E-06,0.0064675
,,,-1.47E-06,0.006223125
,,,-1.46E-06,0.0061875
,,,-1.45E-06,0.00675625
,,,-1.44E-06,0.006418125
,,,-1.43E-06,0.006234375
,,,-1.42E-06,0.006424375
,,,-1.41E-06,0.00635375
,,,-1.4E-06,0.006459375
,,,-1.39E-06,0.006323125
,,,-1.38E-06,0.00616625
,,,-1.37E-06,0.006515625
,,,-1.36E-06,0.0064825
,,,-1.35E-06,0.0061375
,,,-1.34E-06,0.00627875
,,,-1.33E-06,0.006574375
,,,-1.32E-06,0.006246875
,,,-1.31E-06,0.0066475
,,,-1.3E-06,0.00621875
,,,-1.29E-06,0.0062825
,,,-1.28E-06,0.006544375
,,,-1.27E-06,0.006210625
,,,-1.26E-06,0.00652125
,,,-1.25E-06,0.006318125
,,,-1.24E-06,0.006356875
,,,-1.23E-06,0.006459375
,,,-1.22E-06,0.006296875
,,,-1.21E-06,0.0064925
,,,-1.2E-06,0.00605
,,,-1.19E-06,0.00628
,,,-1.18E-06,0.00636125
,,,-1.17E-06,0.006250625
,,,-1.16E-06,0.006528125
,,,-1.15E-06,0.006315625
,,,-1.14E-06,0.0062025
,,,-1.13E-06,0.006621875
,,,-1.12E-06,0.00639125
,,,-1.11E-06,0.006615625
,,,-1.1E-06,0.0065
,,,-1.09E-06,0.006436875
,,,-1.08E-06,0.006244375
,,,-1.07E-06,0.006485625
,,,-1.06E-06,0.0063875
,,,-1.05E-06,0.006385625
,,,-1.04E-06,0.006435
,,,-1.03E-06,0.00635875
,,,-1.02E-06,0.006328125
,,,-1.01E-06,0.006553125
,,,-1E-06,0.006196875
,,,-9.9E-07,0.006243125
,,,-9.8E-07,0.0062375
,,,-9.7E-07,0.00638875
,,,-9.6E-07,0.0064175
,,,-9.5E-07,0.006324375
,,,-9.4E-07,0.006375
,,,-9.3E-07,0.00645875
,,,-9.2E-07,0.006386875
,,,-9.1E-07,0.00634
,,,-9E-07,0.006525
,,,-8.9E-07,0.006405625
,,,-8.8E-07,0.00654875
,,,-8.7E-07,0.006605
,,,-8.6E-07,0.00641375
,,,-8.5E-07,0.00650375
,,,-8.4E-07,0.00623625
,,,-8.3E-07,0.006601875
,,,-8.2E-07,0.00630375
,,,-8.1E-07,0.006481875
,,,-8E-07,0.006455625
,,,-7.9E-07,0.0065125
,,,-7.8E-07,0.006264375
,,,-7.7E-07,0.0063575
,,,-7.6E-07,0.00638875
,,,-7.5E-07,0.006264375
,,,-7.4E-07,0.006585625
,,,-7.3E-07,0.006236875
,,,-7.2E-07,0.006554375
,,,-7.1E-07,0.00640125
,,,-7E-07,0.00638875
,,,-6.9E-07,0.006639375
,,,-6.8E-07,0.0063675
,,,-6.7E-07,0.0061275
,,,-6.6E-07,0.0064425
,,,-6.5E-07,0.006465625
,,,-6.4E-07,0.006201875
,,,-6.3E-07,0.006133125
,,,-6.2E-07,0.00661
,,,-6.1E-07,0.006579375
,,,-6E-07,0.0061825
,,,-5.9E-07,0.006338125
,,,-5.8E-07,0.0064225
,,,-5.7E-07,0.006573125
,,,-5.6E-07,0.006725
,,,-5.5E-07,0.0064025
,,,-5.4E-07,0.006491875
,,,-5.3E-07,0.006305625
,,,-5.2E-07,0.006324375
,,,-5.1E-07,0.00651
,,,-5E-07,0.00638375
,,,-4.9E-07,0.00657875
,,,-4.8E-07,0.0061875
,,,-4.7E-07,0.0066975
,,,-4.6E-07,0.006196875
,,,-4.5E-07,0.006576875
,,,-4.4E-07,0.006431875
,,,-4.3E-07,0.00652
,,,-4.2E-07,0.006344375
,,,-4.1E-07,0.006505
,,,-4E-07,0.0062275
,,,-3.9E-07,0.00614
,,,-3.8E-07,0.00645
,,,-3.7E-07,0.005988125
,,,-3.6E-07,0.006148125
,,,-3.5E-07,0.00641625
,,,-3.4E-07,0.00644875
,,,-3.3E-07,0.006299375
,,,-3.2E-07,0.006644375
,,,-3.1E-07,0.006295625
,,,-3E-07,0.006469375
,,,-2.9E-07,0.00620375
,,,-2.8E-07,0.0064825
,,,-2.7E-07,0.006479375
,,,-2.6E-07,0.006410625
,,,-2.5E-07,0.00629
,,,-2.4E-07,0.006351875
,,,-2.3E-07,0.00636875
,,,-2.2E-07,0.00666375
,,,-2.1E-07,0.0061875
,,,-2E-07,0.00655625
,,,-1.9E-07,0.006390625
,,,-1.8E-07,0.0063675
,,,-1.7E-07,0.00649375
,,,-1.6E-07,0.00632875
,,,-1.5E-07,0.006276875
,,,-1.4E-07,0.006386875
,,,-1.3E-07,0.006589375
,,,-1.2E-07,0.00625125
,,,-1.1E-07,0.006258125
,,,-1E-07,0.00631125
,,,-9E-08,0.00640625
,,,-8E-08,0.006350625
,,,-7E-08,0.006220625
,,,-6E-08,0.0065675
,,,-5E-08,0.006564375
,,,-4E-08,0.00756
,,,-3E-08,0.00744625
,,,-2E-08,0.004826875
,,,-1E-08,0.0037225
,,,0,0.004191875
,,,1E-08,0.008385625
,,,2E-08,0.00981375
,,,3E-08,0.009019375
,,,4E-08,0.005925625
,,,5E-08,0.00437625
,,,6E-08,0.00393375
,,,7E-08,0.005310625
,,,8E-08,0.007166875
,,,9E-08,0.008003125
,,,1E-07,0.008085625
,,,1.1E-07,0.006781875
,,,1.2E-07,0.00569
,,,1.3E-07,0.00522875
,,,1.4E-07,0.0059925
,,,1.5E-07,0.006561875
,,,1.6E-07,0.006710625
,,,1.7E-07,0.006771875
,,,1.8E-07,0.0066325
,,,1.9E-07,0.006356875
,,,2E-07,0.00658375
,,,2.1E-07,0.006058125
,,,2.2E-07,0.006155
,,,2.3E-07,0.006335
,,,2.4E-07,0.006555625
,,,2.5E-07,0.006569375
,,,2.6E-07,0.006481875
,,,2.7E-07,0.00633375
,,,2.8E-07,0.006645
,,,2.9E-07,0.006224375
,,,3E-07,0.006648125
,,,3.1E-07,0.006418125
,,,3.2E-07,0.00640625
,,,3.3E-07,0.00656375
,,,3.4E-07,0.006114375
,,,3.5E-07,0.006705625
,,,3.6E-07,0.00635125
,,,3.7E-07,0.006201875
,,,3.8E-07,0.0065725
,,,3.9E-07,0.0064975
,,,4E-07,0.006380625
,,,4.1E-07,0.006159375
,,,4.2E-07,0.006194375
,,,4.3E-07,0.006385
,,,4.4E-07,0.006359375
,,,4.5E-07,0.00675125
,,,4.6E-07,0.00640375
,,,4.7E-07,0.006249375
,,,4.8E-07,0.006401875
,,,4.9E-07,0.00637375
,,,5E-07,0.006335
,,,5.1E-07,0.006536875
,,,5.2E-07,0.006346875
,,,5.3E-07,0.00662875
,,,5.4E-07,0.00648625
,,,5.5E-07,0.006501875
,,,5.6E-07,0.006251875
,,,5.7E-07,0.006563125
,,,5.8E-07,0.006329375
,,,5.9E-07,0.006288125
,,,6E-07,0.006415
,,,6.1E-07,0.006339375
,,,6.2E-07,0.006175625
,,,6.3E-07,0.00634875
,,,6.4E-07,0.006305625
,,,6.5E-07,0.006501875
,,,6.6E-07,0.006256875
,,,6.7E-07,0.00639125
,,,6.8E-07,0.006706875
,,,6.9E-07,0.0066675
,,,7E-07,0.006350625
,,,7.1E-07,0.006395625
,,,7.2E-07,0.0064
,,,7.3E-07,0.006394375
,,,7.4E-07,0.0063925
,,,7.5E-07,0.0063775
,,,7.6E-07,0.00652
,,,7.7E-07,0.0064475
,,,7.8E-07,0.006355625
,,,7.9E-07,0.006546875
,,,8E-07,0.006323125
,,,8.1E-07,0.006485
,,,8.2E-07,0.006218125
,,,8.3E-07,0.00637
,,,8.4E-07,0.00629
,,,8.5E-07,0.00647
,,,8.6E-07,0.0063175
,,,8.7E-07,0.006236875
,,,8.8E-07,0.0065075
,,,8.9E-07,0.0062425
,,,9E-07,0.00656375
,,,9.1E-07,0.006519375
,,,9.2E-07,0.006530625
,,,9.3E-07,0.006311875
,,,9.4E-07,0.006223125
,,,9.5E-07,0.006333125
,,,9.6E-07,0.0062725
,,,9.7E-07,0.00638375
,,,9.8E-07,0.006240625
,,,9.9E-07,0.006585625
,,,1E-06,0.006173125
,,,1.01E-06,0.006713125
,,,1.02E-06,0.006179375
,,,1.03E-06,0.00635875
,,,1.04E-06,0.006273125
,,,1.05E-06,0.006413125
,,,1.06E-06,0.0063025
,,,1.07E-06,0.00631
,,,1.08E-06,0.00644
,,,1.09E-06,0.00651375
,,,1.1E-06,0.006275
,,,1.11E-06,0.006353125
,,,1.12E-06,0.0063925
,,,1.13E-06,0.00641
,,,1.14E-06,0.006345
,,,1.15E-06,0.00653125
,,,1.16E-06,0.00612625
,,,1.17E-06,0.006536875
,,,1.18E-06,0.0065
,,,1.19E-06,0.00631
,,,1.2E-06,0.006503125
,,,1.21E-06,0.006445625
,,,1.22E-06,0.006305
,,,1.23E-06,0.00643375
,,,1.24E-06,0.00667
,,,1.25E-06,0.00654375
,,,1.26E-06,0.006269375
,,,1.27E-06,0.006503125
,,,1.28E-06,0.00634875
,,,1.29E-06,0.00625125
,,,1.3E-06,0.00628
,,,1.31E-06,0.006365
,,,1.32E-06,0.00647625
,,,1.33E-06,0.006235
,,,1.34E-06,0.0065875
,,,1.35E-06,0.006340625
,,,1.36E-06,0.006469375
,,,1.37E-06,0.0063675
,,,1.38E-06,0.0063075
,,,1.39E-06,0.00637
,,,1.4E-06,0.006638125
,,,1.41E-06,0.006331875
,,,1.42E-06,0.00644375
,,,1.43E-06,0.00646375
,,,1.44E-06,0.006370625
,,,1.45E-06,0.006280625
,,,1.46E-06,0.00619
,,,1.47E-06,0.0063625
,,,1.48E-06,0.00646
,,,1.49E-06,0.00639625
,,,1.5E-06,0.006301875
,,,1.51E-06,0.0064275
,,,1.52E-06,0.006494375
,,,1.53E-06,0.006245625
,,,1.54E-06,0.006633125
,,,1.55E-06,0.00655875
,,,1.56E-06,0.00619375
,,,1.57E-06,0.006344375
,,,1.58E-06,0.00627625
,,,1.59E-06,0.00651625
,,,1.6E-06,0.00631625
,,,1.61E-06,0.00659
,,,1.62E-06,0.0064875
,,,1.63E-06,0.00638
,,,1.64E-06,0.006404375
,,,1.65E-06,0.00639625
,,,1.66E-06,0.006498125
,,,1.67E-06,0.00626625
,,,1.68E-06,0.006350625
,,,1.69E-06,0.006444375
,,,1.7E-06,0.006229375
,,,1.71E-06,0.00636375
,,,1.72E-06,0.006448125
,,,1.73E-06,0.006333125
,,,1.74E-06,0.006485625
,,,1.75E-06,0.00666125
,,,1.76E-06,0.0066325
,,,1.77E-06,0.006311875
,,,1.78E-06,0.00653625
,,,1.79E-06,0.0062525
,,,1.8E-06,0.006318125
,,,1.81E-06,0.006323125
,,,1.82E-06,0.0065625
,,,1.83E-06,0.006589375
,,,1.84E-06,0.0061975
,,,1.85E-06,0.006225
,,,1.86E-06,0.00646375
,,,1.87E-06,0.00631625
,,,1.88E-06,0.006438125
,,,1.89E-06,0.006528125
,,,1.9E-06,0.006609375
,,,1.91E-06,0.0064125
,,,1.92E-06,0.006711875
,,,1.93E-06,0.00657625
,,,1.94E-06,0.00637
,,,1.95E-06,0.006194375
,,,1.96E-06,0.00617625
,,,1.97E-06,0.00633
,,,1.98E-06,0.006573125
,,,1.99E-06,0.006439375
,,,2E-06,0.006704375
,,,2.01E-06,0.00636875
,,,2.02E-06,0.006440625
,,,2.03E-06,0.006479375
,,,2.04E-06,0.006256875
,,,2.05E-06,0.006415625
,,,2.06E-06,0.006255
,,,2.07E-06,0.0063675
,,,2.08E-06,0.006539375
,,,2.09E-06,0.006298125
,,,2.1E-06,0.006441875
,,,2.11E-06,0.0064375
,,,2.12E-06,0.00641875
,,,2.13E-06,0.00634625
,,,2.14E-06,0.00629375
,,,2.15E-06,0.00648625
,,,2.16E-06,0.00644125
,,,2.17E-06,0.006508125
,,,2.18E-06,0.00631875
,,,2.19E-06,0.0064125
,,,2.2E-06,0.006164375
,,,2.21E-06,0.006159375
,,,2.22E-06,0.006323125
,,,2.23E-06,0.006601875
,,,2.24E-06,0.006458125
,,,2.25E-06,0.0065525
,,,2.26E-06,0.006453125
,,,2.27E-06,0.00652375
,,,2.28E-06,0.00634
,,,2.29E-06,0.006519375
,,,2.3E-06,0.006455
,,,2.31E-06,0.00641
,,,2.32E-06,0.006589375
,,,2.33E-06,0.006459375
,,,2.34E-06,0.006650625
,,,2.35E-06,0.006279375
,,,2.36E-06,0.006465
,,,2.37E-06,0.00642625
,,,2.38E-06,0.006455
,,,2.39E-06,0.006270625
,,,2.4E-06,0.006385
,,,2.41E-06,0.006425625
,,,2.42E-06,0.00673
,,,2.43E-06,0.00619
,,,2.44E-06,0.00632
,,,2.45E-06,0.0063675
,,,2.46E-06,0.0064
,,,2.47E-06,0.006273125
,,,2.48E-06,0.0064075
,,,2.49E-06,0.00617
,,,2.5E-06,0.006385
,,,2.51E-06,0.006379375
,,,2.52E-06,0.006509375
,,,2.53E-06,0.006265625
,,,2.54E-06,0.00614125
,,,2.55E-06,0.006373125
,,,2.56E-06,0.00641
,,,2.57E-06,0.006644375
,,,2.58E-06,0.006321875
,,,2.59E-06,0.00629875
,,,2.6E-06,0.006515
,,,2.61E-06,0.006516875
,,,2.62E-06,0.0065375
,,,2.63E-06,0.00645
,,,2.64E-06,0.00656375
,,,2.65E-06,0.006175
,,,2.66E-06,0.00650625
,,,2.67E-06,0.006371875
,,,2.68E-06,0.006246875
,,,2.69E-06,0.00629
,,,2.7E-06,0.00626375
,,,2.71E-06,0.006374375
,,,2.72E-06,0.00657375
,,,2.73E-06,0.0064775
,,,2.74E-06,0.006236875
,,,2.75E-06,0.006164375
,,,2.76E-06,0.00635625
,,,2.77E-06,0.00651625
,,,2.78E-06,0.0062825
,,,2.79E-06,0.006266875
,,,2.8E-06,0.00652625
,,,2.81E-06,0.006323125
,,,2.82E-06,0.0063075
,,,2.83E-06,0.00658375
,,,2.84E-06,0.00634375
,,,2.85E-06,0.006493125
,,,2.86E-06,0.00642
,,,2.87E-06,0.00663625
,,,2.88E-06,0.006529375
,,,2.89E-06,0.006511875
,,,2.9E-06,0.00652625
,,,2.91E-06,0.006606875
,,,2.92E-06,0.006551875
,,,2.93E-06,0.006518125
,,,2.94E-06,0.006516875
,,,2.95E-06,0.006565625
,,,2.96E-06,0.0065
,,,2.97E-06,0.006536875
,,,2.98E-06,0.006475625
,,,2.99E-06,0.0063725
,,,3E-06,0.006113125
,,,3.01E-06,0.006450625
,,,3.02E-06,0.006736875
,,,3.03E-06,0.0065625
,,,3.04E-06,0.0064775
,,,3.05E-06,0.006465
,,,3.06E-06,0.00658875
,,,3.07E-06,0.006405625
,,,3.08E-06,0.00639875
,,,3.09E-06,0.006505
,,,3.1E-06,0.0061075
,,,3.11E-06,0.006421875
,,,3.12E-06,0.00633
,,,3.13E-06,0.0063725
,,,3.14E-06,0.00648375
,,,3.15E-06,0.006410625
,,,3.16E-06,0.006349375
,,,3.17E-06,0.006503125
,,,3.18E-06,0.006293125
,,,3.19E-06,0.006570625
,,,3.2E-06,0.00614875
,,,3.21E-06,0.006525625
,,,3.22E-06,0.00671
,,,3.23E-06,0.0064525
,,,3.24E-06,0.00645
,,,3.25E-06,0.00632
,,,3.26E-06,0.006534375
,,,3.27E-06,0.006360625
,,,3.28E-06,0.006499375
,,,3.29E-06,0.006406875
,,,3.3E-06,0.006515625
,,,3.31E-06,0.00627875
,,,3.32E-06,0.006615
,,,3.33E-06,0.00625125
,,,3.34E-06,0.0066175
,,,3.35E-06,0.006429375
,,,3.36E-06,0.006245625
,,,3.37E-06,0.00637625
,,,3.38E-06,0.006549375
,,,3.39E-06,0.0064475
,,,3.4E-06,0.00638125
,,,3.41E-06,0.00655875
,,,3.42E-06,0.00607875
,,,3.43E-06,0.0065775
,,,3.44E-06,0.006398125
,,,3.45E-06,0.006363125
,,,3.46E-06,0.00668375
,,,3.47E-06,0.00660875
,,,3.48E-06,0.006424375
,,,3.49E-06,0.0062725
,,,3.5E-06,0.00637125
,,,3.51E-06,0.006369375
,,,3.52E-06,0.0062725
,,,3.53E-06,0.0065575
,,,3.54E-06,0.0064675
,,,3.55E-06,0.006515
,,,3.56E-06,0.006454375
,,,3.57E-06,0.00628625
