data/raw/Final_POL_Test_1/SOP080_Ch2.csv

"Record Length",1000,"Points",-5E-06,0.0206325
"Sample Interval",1E-08,s,-4.99E-06,0.0206975
"Trigger Point",500,"Samples",-4.98E-06,0.02068625
"Trigger Time",0,s,-4.97E-06,0.020575625
"",,,-4.96E-06,0.02056875
"Horizontal Offset",-5E-06,s,-4.95E-06,0.020460625
,,,-4.94E-06,0.020395
,,,-4.93E-06,0.02031
,,,-4.92E-06,0.02075375
,,,-4.91E-06,0.020443125
,,,-4.9E-06,0.020485
,,,-4.89E-06,0.020725625
,,,-4.88E-06,0.02071875
,,,-4.87E-06,0.02055875
,,,-4.86E-06,0.020384375
,,,-4.85E-06,0.020501875
,,,-4.84E-06,0.020478125
,,,-4.83E-06,0.02070875
,,,-4.82E-06,0.020503125
,,,-4.81E-06,0.020575
,,,-4.8E-06,0.02048375
,,,-4.79E-06,0.020455625
,,,-4.78E-06,0.02038125
,,,-4.77E-06,0.020378125
,,,-4.76E-06,0.02079125
,,,-4.75E-06,0.020375
,,,-4.74E-06,0.020355
,,,-4.73E-06,0.020391875
,,,-4.72E-06,0.0205525
,,,-4.71E-06,0.0205925
,,,-4.7E-06,0.020545
,,,-4.69E-06,0.020410625
,,,-4.68E-06,0.020565625
,,,-4.67E-06,0.02064
,,,-4.66E-06,0.020715
,,,-4.65E-06,0.020364375
,,,-4.64E-06,0.020434375
,,,-4.63E-06,0.020544375
,,,-4.62E-06,0.02065375
,,,-4.61E-06,0.0204525
,,,-4.6E-06,0.020775
,,,-4.59E-06,0.020464375
,,,-4.58E-06,0.02065625
,,,-4.57E-06,0.020588125
,,,-4.56E-06,0.020466875
,,,-4.55E-06,0.020345625
,,,-4.54E-06,0.02031125
,,,-4.53E-06,0.0206425
,,,-4.52E-06,0.02022
,,,-4.51E-06,0.0206625
,,,-4.5E-06,0.020673125
,,,-4.49E-06,0.020493125
,,,-4.48E-06,0.020434375
,,,-4.47E-06,0.02063875
,,,-4.46E-06,0.020224375
,,,-4.45E-06,0.020509375
,,,-4.44E-06,0.020595
,,,-4.43E-06,0.020788125
,,,-4.42E-06,0.020489375
,,,-4.41E-06,0.020603125
,,,-4.4E-06,0.02056125
,,,-4.39E-06,0.020810625
,,,-4.38E-06,0.02044125
,,,-4.37E-06,0.020585625
,,,-4.36E-06,0.020505625
,,,-4.35E-06,0.0206775
,,,-4.34E-06,0.020333125
,,,-4.33E-06,0.02045
,,,-4.32E-06,0.020655625
,,,-4.31E-06,0.02048625
,,,-4.3E-06,0.02051125
,,,-4.29E-06,0.020358125
,,,-4.28E-06,0.020421875
,,,-4.27E-06,0.02086125
,,,-4.26E-06,0.020500625
,,,-4.25E-06,0.02069375
,,,-4.24E-06,0.020685
,,,-4.23E-06,0.0205375
,,,-4.22E-06,0.02056125
,,,-4.21E-06,0.020573125
,,,-4.2E-06,0.0204625
,,,-4.19E-06,0.020441875
,,,-4.18E-06,0.02041
,,,-4.17E-06,0.020451875
,,,-4.16E-06,0.020508125
,,,-4.15E-06,0.02060875
,,,-4.14E-06,0.020605
,,,-4.13E-06,0.020528125
,,,-4.12E-06,0.020585
,,,-4.11E-06,0.020439375
,,,-4.1E-06,0.020366875
,,,-4.09E-06,0.020614375
,,,-4.08E-06,0.020533125
,,,-4.07E-06,0.0207575
,,,-4.06E-06,0.020795
,,,-4.05E-06,0.020644375
,,,-4.04E-06,0.02049375
,,,-4.03E-06,0.02054625
,,,-4.02E-06,0.020578125
,,,-4.01E-06,0.020375625
,,,-4E-06,0.020429375
,,,-3.99E-06,0.020455
,,,-3.98E-06,0.020359375
,,,-3.97E-06,0.02091
,,,-3.96E-06,0.02068
,,,-3.95E-06,0.020736875
,,,-3.94E-06,0.020363125
,,,-3.93E-06,0.02064
,,,-3.92E-06,0.02052
,,,-3.91E-06,0.020483125
,,,-3.9E-06,0.020683125
,,,-3.89E-06,0.020605625
,,,-3.88E-06,0.020559375
,,,-3.87E-06,0.020548125
,,,-3.86E-06,0.02046875
,,,-3.85E-06,0.020435
,,,-3.84E-06,0.020356875
,,,-3.83E-06,0.02052625
,,,-3.82E-06,0.02059875
,,,-3.81E-06,0.020519375
,,,-3.8E-06,0.020385625
,,,-3.79E-06,0.02072875
,,,-3.78E-06,0.0205275
,,,-3.77E-06,0.02052375
,,,-3.76E-06,0.02071625
,,,-3.75E-06,0.0206625
,,,-3.74E-06,0.020440625
,,,-3.73E-06,0.020520625
,,,-3.72E-06,0.0207175
,,,-3.71E-06,0.020719375
,,,-3.7E-06,0.020545625
,,,-3.69E-06,0.02045125
,,,-3.68E-06,0.020746875
,,,-3.67E-06,0.02077875
,,,-3.66E-06,0.020566875
,,,-3.65E-06,0.0205925
,,,-3.64E-06,0.0205225
,,,-3.63E-06,0.020635
,,,-3.62E-06,0.02071375
,,,-3.61E-06,0.02052875
,,,-3.6E-06,0.020463125
,,,-3.59E-06,0.0207225
,,,-3.58E-06,0.020676875
,,,-3.57E-06,0.02068125
,,,-3.56E-06,0.0206475
,,,-3.55E-06,0.020908125
,,,-3.54E-06,0.020475625
,,,-3.53E-06,0.020389375
,,,-3.52E-06,0.020375
,,,-3.51E-06,0.02051875
,,,-3.5E-06,0.02055375
,,,-3.49E-06,0.02050625
,,,-3.48E-06,0.020420625
,,,-3.47E-06,0.020695
,,,-3.46E-06,0.020396875
,,,-3.45E-06,0.0204625
,,,-3.44E-06,0.02050375
,,,-3.43E-06,0.02052375
,,,-3.42E-06,0.02052625
,,,-3.41E-06,0.020665
,,,-3.4E-06,0.02058
,,,-3.39E-06,0.020319375
,,,-3.38E-06,0.020479375
,,,-3.37E-06,0.020869375
,,,-3.36E-06,0.020555625
,,,-3.35E-06,0.020554375
,,,-3.34E-06,0.02077375
,,,-3.33E-06,0.02053
,,,-3.32E-06,0.0204775
,,,-3.31E-06,0.02049875
,,,-3.3E-06,0.02061375
,,,-3.29E-06,0.020625625
,,,-3.28E-06,0.020439375
,,,-3.27E-06,0.020363125
,,,-3.26E-06,0.020555625
,,,-3.25E-06,0.020705625
,,,-3.24E-06,0.020375
,,,-3.23E-06,0.020503125
,,,-3.22E-06,0.02054
,,,-3.21E-06,0.020600625
,,,-3.2E-06,0.02069375
,,,-3.19E-06,0.02062875
,,,-3.18E-06,0.020365
,,,-3.17E-06,0.020495
,,,-3.16E-06,0.020643125
,,,-3.15E-06,0.020669375
,,,-3.14E-06,0.020718125
,,,-3.13E-06,0.02076375
,,,-3.12E-06,0.02033625
,,,-3.11E-06,0.02077125
,,,-3.1E-06,0.020355625
,,,-3.09E-06,0.02050625
,,,-3.08E-06,0.020828125
,,,-3.07E-06,0.020710625
,,,-3.06E-06,0.020505625
,,,-3.05E-06,0.020299375
,,,-3.04E-06,0.0203
,,,-3.03E-06,0.020323125
,,,-3.02E-06,0.020486875
,,,-3.01E-06,0.020613125
,,,-3E-06,0.02065875
,,,-2.99E-06,0.02036875
,,,-2.98E-06,0.020491875
,,,-2.97E-06,0.020456875
,,,-2.96E-06,0.0206
,,,-2.95E-06,0.020601875
,,,-2.94E-06,0.020761875
,,,-2.93E-06,0.02056875
,,,-2.92E-06,0.020516875
,,,-2.91E-06,0.0206275
,,,-2.9E-06,0.02084375
,,,-2.89E-06,0.0205975
,,,-2.88E-06,0.02066875
,,,-2.87E-06,0.020440625
,,,-2.86E-06,0.0205925
,,,-2.85E-06,0.02073375
,,,-2.84E-06,0.020553125
,,,-2.83E-06,0.0205275
,,,-2.82E-06,0.020638125
,,,-2.81E-06,0.020565
,,,-2.8E-06,0.02080625
,,,-2.79E-06,0.020585
,,,-2.78E-06,0.020703125
,,,-2.77E-06,0.0205725
,,,-2.76E-06,0.020635
,,,-2.75E-06,0.0204075
,,,-2.74E-06,0.020541875
,,,-2.73E-06,0.020350625
,,,-2.72E-06,0.020346875
,,,-2.71E-06,0.020333125
,,,-2.7E-06,0.020581875
,,,-2.69E-06,0.020785
,,,-2.68E-06,0.020675
,,,-2.67E-06,0.020595
,,,-2.66E-06,0.020695625
,,,-2.65E-06,0.020674375
,,,-2.64E-06,0.020396875
,,,-2.63E-06,0.020505
,,,-2.62E-06,0.02056
,,,-2.61E-06,0.02060375
,,,-2.6E-06,0.02056625
,,,-2.59E-06,0.020770625
,,,-2.58E-06,0.020491875
,,,-2.57E-06,0.02058125
,,,-2.56E-06,0.02047625
,,,-2.55E-06,0.0205025
,,,-2.54E-06,0.020404375
,,,-2.53E-06,0.020560625
,,,-2.52E-06,0.02055
,,,-2.51E-06,0.02075625
,,,-2.5E-06,0.020693125
,,,-2.49E-06,0.02037875
,,,-2.48E-06,0.0206675
,,,-2.47E-06,0.02071
,,,-2.46E-06,0.020091875
,,,-2.45E-06,0.0206125
,,,-2.44E-06,0.020585625
,,,-2.43E-06,0.02041375
,,,-2.42E-06,0.020480625
,,,-2.41E-06,0.020735625
,,,-2.4E-06,0.02059625
,,,-2.39E-06,0.0207075
,,,-2.38E-06,0.020781875
,,,-2.37E-06,0.02033
,,,-2.36E-06,0.020633125
,,,-2.35E-06,0.0205875
,,,-2.34E-06,0.02065375
,,,-2.33E-06,0.020681875
,,,-2.32E-06,0.02047
,,,-2.31E-06,0.020620625
,,,-2.3E-06,0.020426875
,,,-2.29E-06,0.020665625
,,,-2.28E-06,0.020626875
,,,-2.27E-06,0.02047125
,,,-2.26E-06,0.020688125
,,,-2.25E-06,0.020634375
,,,-2.24E-06,0.020695625
,,,-2.23E-06,0.020404375
,,,-2.22E-06,0.020525
,,,-2.21E-06,0.02075125
,,,-2.2E-06,0.0205675
,,,-2.19E-06,0.02054875
,,,-2.18E-06,0.02096375
,,,-2.17E-06,0.020778125
,,,-2.16E-06,0.02048875
,,,-2.15E-06,0.02068875
,,,-2.14E-06,0.020723125
,,,-2.13E-06,0.020566875
,,,-2.12E-06,0.02070125
,,,-2.11E-06,0.020604375
,,,-2.1E-06,0.02045875
,,,-2.09E-06,0.02056
,,,-2.08E-06,0.0203525
,,,-2.07E-06,0.020511875
,,,-2.06E-06,0.02061625
,,,-2.05E-06,0.020586875
,,,-2.04E-06,0.020345
,,,-2.03E-06,0.020714375
,,,-2.02E-06,0.0207325
,,,-2.01E-06,0.020575
,,,-2E-06,0.020323125
,,,-1.99E-06,0.020425625
,,,-1.98E-06,0.0205375
,,,-1.97E-06,0.020604375
,,,-1.96E-06,0.020505625
,,,-1.95E-06,0.02050375
,,,-1.94E-06,0.0205575
,,,-1.93E-06,0.020825
,,,-1.92E-06,0.020629375
,,,-1.91E-06,0.020509375
,,,-1.9E-06,0.020401875
,,,-1.89E-06,0.020541875
,,,-1.88E-06,0.02048
,,,-1.87E-06,0.02066875
,,,-1.86E-06,0.0205975
,,,-1.85E-06,0.020661875
,,,-1.84E-06,0.020726875
,,,-1.83E-06,0.020565625
,,,-1.82E-06,0.020538125
,,,-1.81E-06,0.020448125
,,,-1.8E-06,0.0204525
,,,-1.79E-06,0.020555625
,,,-1.78E-06,0.02039125
,,,-1.77E-06,0.020525625
,,,-1.76E-06,0.020606875
,,,-1.75E-06,0.020668125
,,,-1.74E-06,0.020709375
,,,-1.73E-06,0.020505
,,,-1.72E-06,0.020575625
,,,-1.71E-06,0.020284375
,,,-1.7E-06,0.02036
,,,-1.69E-06,0.020514375
,,,-1.68E-06,0.02053625
,,,-1.67E-06,0.020686875
,,,-1.66E-06,0.02045
,,,-1.65E-06,0.020465
,,,-1.64E-06,0.020709375
,,,-1.63E-06,0.020701875
,,,-1.62E-06,0.020678125
,,,-1.61E-06,0.020581875
,,,-1.6E-06,0.0203525
,,,-1.59E-06,0.020599375
,,,-1.58E-06,0.02056875
,,,-1.57E-06,0.02055375
,,,-1.56E-06,0.02038625
,,,-1.55E-06,0.020530625
,,,-1.54E-06,0.020466875
,,,-1.53E-06,0.0202575
,,,-1.52E-06,0.02056375
,,,-1.51E-06,0.02046125
,,,-1.5E-06,0.0205275
,,,-1.49E-06,0.02044375
,,,-1.48E-06,0.02053125
,,,-1.47E-06,0.020565
,,,-1.46E-06,0.02049375
,,,-1.45E-06,0.020516875
,,,-1.44E-06,0.020291875
,,,-1.43E-06,0.02056
,,,-1.42E-06,0.02080875
,,,-1.41E-06,0.020679375
,,,-1.4E-06,0.020459375
,,,-1.39E-06,0.020411875
,,,-1.38E-06,0.020274375
,,,-1.37E-06,0.020508125
,,,-1.36E-06,0.0205375
,,,-1.35E-06,0.020644375
,,,-1.34E-06,0.0205975
,,,-1.33E-06,0.02056125
,,,-1.32E-06,0.0200675
,,,-1.31E-06,0.020485625
,,,-1.3E-06,0.02039875
,,,-1.29E-06,0.0207975
,,,-1.28E-06,0.020495
,,,-1.27E-06,0.020655625
,,,-1.26E-06,0.02063
,,,-1.25E-06,0.02041625
,,,-1.24E-06,0.020555625
,,,-1.23E-06,0.020585
,,,-1.22E-06,0.020599375
,,,-1.21E-06,0.02061375
,,,-1.2E-06,0.02033125
,,,-1.19E-06,0.0203425
,,,-1.18E-06,0.0203725
,,,-1.17E-06,0.02037375
,,,-1.16E-06,0.020409375
,,,-1.15E-06,0.02061375
,,,-1.14E-06,0.020455
,,,-1.13E-06,0.0205575
,,,-1.12E-06,0.020660625
,,,-1.11E-06,0.0205625
,,,-1.1E-06,0.020549375
,,,-1.09E-06,0.020684375
,,,-1.08E-06,0.02055625
,,,-1.07E-06,0.020574375
,,,-1.06E-06,0.0206775
,,,-1.05E-06,0.020729375
,,,-1.04E-06,0.020393125
,,,-1.03E-06,0.020255625
,,,-1.02E-06,0.020556875
,,,-1.01E-06,0.020611875
,,,-1E-06,0.02065125
,,,-9.9E-07,0.020741875
,,,-9.8E-07,0.020489375
,,,-9.7E-07,0.020396875
,,,-9.6E-07,0.02041
,,,-9.5E-07,0.02032125
,,,-9.4E-07,0.020610625
,,,-9.3E-07,0.020698125
,,,-9.2E-07,0.0205475
,,,-9.1E-07,0.020638125
,,,-9E-07,0.020603125
,,,-8.9E-07,0.02042125
,,,-8.8E-07,0.0204325
,,,-8.7E-07,0.020480625
,,,-8.6E-07,0.020629375
,,,-8.5E-07,0.021006875
,,,-8.4E-07,0.020295625
,,,-8.3E-07,0.020405625
,,,-8.2E-07,0.020466875
,,,-8.1E-07,0.02047625
,,,-8E-07,0.020393125
,,,-7.9E-07,0.02055
,,,-7.8E-07,0.02069625
,,,-7.7E-07,0.02082375
,,,-7.6E-07,0.0206675
,,,-7.5E-07,0.020521875
,,,-7.4E-07,0.020366875
,,,-7.3E-07,0.020390625
,,,-7.2E-07,0.0205025
,,,-7.1E-07,0.02054625
,,,-7E-07,0.020625
,,,-6.9E-07,0.0208325
,,,-6.8E-07,0.020480625
,,,-6.7E-07,0.0206825
,,,-6.6E-07,0.02032125
,,,-6.5E-07,0.02063
,,,-6.4E-07,0.02072
,,,-6.3E-07,0.020330625
,,,-6.2E-07,0.020583125
,,,-6.1E-07,0.020600625
,,,-6E-07,0.02046125
,,,-5.9E-07,0.02080125
,,,-5.8E-07,0.020414375
,,,-5.7E-07,0.020523125
,,,-5.6E-07,0.0202975
,,,-5.5E-07,0.020640625
,,,-5.4E-07,0.020924375
,,,-5.3E-07,0.02068
,,,-5.2E-07,0.02054
,,,-5.1E-07,0.020524375
,,,-5E-07,0.020659375
,,,-4.9E-07,0.020523125
,,,-4.8E-07,0.020663125
,,,-4.7E-07,0.020524375
,,,-4.6E-07,0.020569375
,,,-4.5E-07,0.02070375
,,,-4.4E-07,0.020444375
,,,-4.3E-07,0.02039875
,,,-4.2E-07,0.020515625
,,,-4.1E-07,0.02057125
,,,-4E-07,0.02045
,,,-3.9E-07,0.020580625
,,,-3.8E-07,0.0205675
,,,-3.7E-07,0.020588125
,,,-3.6E-07,0.020705625
,,,-3.5E-07,0.020388125
,,,-3.4E-07,0.02041125
,,,-3.3E-07,0.0204725
,,,-3.2E-07,0.0203675
,,,-3.1E-07,0.020588125
,,,-3E-07,0.020709375
,,,-2.9E-07,0.0202925
,,,-2.8E-07,0.020581875
,,,-2.7E-07,0.020594375
,,,-2.6E-07,0.02059375
,,,-2.5E-07,0.020534375
,,,-2.4E-07,0.02059375
,,,-2.3E-07,0.02035375
,,,-2.2E-07,0.020553125
,,,-2.1E-07,0.020705625
,,,-2E-07,0.02089125
,,,-1.9E-07,0.020505
,,,-1.8E-07,0.0205825
,,,-1.7E-07,0.0204675
,,,-1.6E-07,0.0206575
,,,-1.5E-07,0.02046375
,,,-1.4E-07,0.0203275
,,,-1.3E-07,0.020818125
,,,-1.2E-07,0.020765
,,,-1.1E-07,0.020624375
,,,-1E-07,0.020571875
,,,-9E-08,0.020685625
,,,-8E-08,0.0205525
,,,-7E-08,0.020395625
,,,-6E-08,0.020423125
,,,-5E-08,0.020975625
,,,-4E-08,0.02194625
,,,-3E-08,0.02088
,,,-2E-08,0.018843125
,,,-1E-08,0.017981875
,,,0,0.019994375
,,,1E-08,0.02275
,,,2E-08,0.023285625
,,,3E-08,0.021925
,,,4E-08,0.019690625
,,,5E-08,0.018671875
,,,6E-08,0.01862
,,,7E-08,0.020251875
,,,8E-08,0.020995625
,,,9E-08,0.022009375
,,,1E-07,0.02156625
,,,1.1E-07,0.0203625
,,,1.2E-07,0.01974125
,,,1.3E-07,0.0198075
,,,1.4E-07,0.020330625
,,,1.5E-07,0.02059875
,,,1.6E-07,0.02093
,,,1.7E-07,0.020725625
,,,1.8E-07,0.0210575
,,,1.9E-07,0.020409375
,,,2E-07,0.020548125
,,,2.1E-07,0.02031875
,,,2.2E-07,0.020550625
,,,2.3E-07,0.021088125
,,,2.4E-07,0.020426875
,,,2.5E-07,0.020774375
,,,2.6E-07,0.02060625
,,,2.7E-07,0.0204875
,,,2.8E-07,0.02025
,,,2.9E-07,0.02031
,,,3E-07,0.020430625
,,,3.1E-07,0.020595625
,,,3.2E-07,0.020720625
,,,3.3E-07,0.02054125
,,,3.4E-07,0.02062375
,,,3.5E-07,0.020755625
,,,3.6E-07,0.020341875
,,,3.7E-07,0.020574375
,,,3.8E-07,0.020566875
,,,3.9E-07,0.02067125
,,,4E-07,0.02087375
,,,4.1E-07,0.020605
,,,4.2E-07,0.02044875
,,,4.3E-07,0.02061125
,,,4.4E-07,0.020464375
,,,4.5E-07,0.020351875
,,,4.6E-07,0.020739375
,,,4.7E-07,0.020558125
,,,4.8E-07,0.02049375
,,,4.9E-07,0.02051625
,,,5E-07,0.020560625
,,,5.1E-07,0.020376875
,,,5.2E-07,0.020610625
,,,5.3E-07,0.02059625
,,,5.4E-07,0.020624375
,,,5.5E-07,0.0205725
,,,5.6E-07,0.02062
,,,5.7E-07,0.02068125
,,,5.8E-07,0.020680625
,,,5.9E-07,0.020695
,,,6E-07,0.020705
,,,6.1E-07,0.02048
,,,6.2E-07,0.020808125
,,,6.3E-07,0.02074375
,,,6.4E-07,0.02026375
,,,6.5E-07,0.02075125
,,,6.6E-07,0.0206075
,,,6.7E-07,0.02052
,,,6.8E-07,0.020686875
,,,6.9E-07,0.02058
,,,7E-07,0.020365625
,,,7.1E-07,0.020745625
,,,7.2E-07,0.020689375
,,,7.3E-07,0.02048875
,,,7.4E-07,0.0206025
,,,7.5E-07,0.020428125
,,,7.6E-07,0.020800625
,,,7.7E-07,0.02067
,,,7.8E-07,0.020464375
,,,7.9E-07,0.02046875
,,,8E-07,0.02046125
,,,8.1E-07,0.020445
,,,8.2E-07,0.02064
,,,8.3E-07,0.02054
,,,8.4E-07,0.020475
,,,8.5E-07,0.02054
,,,8.6E-07,0.020321875
,,,8.7E-07,0.02046625
,,,8.8E-07,0.02058625
,,,8.9E-07,0.0205575
,,,9E-07,0.020713125
,,,9.1E-07,0.02050625
,,,9.2E-07,0.020670625
,,,9.3E-07,0.020505
,,,9.4E-07,0.02072
,,,9.5E-07,0.0205875
,,,9.6E-07,0.02087
,,,9.7E-07,0.0202925
,,,9.8E-07,0.02048
,,,9.9E-07,0.02051
,,,1E-06,0.0205075
,,,1.01E-06,0.02071625
,,,1.02E-06,0.020566875
,,,1.03E-06,0.0208325
,,,1.04E-06,0.020579375
,,,1.05E-06,0.0206375
,,,1.06E-06,0.0203975
,,,1.07E-06,0.02060125
,,,1.08E-06,0.020675
,,,1.09E-06,0.020525625
,,,1.1E-06,0.02036875
,,,1.11E-06,0.02043125
,,,1.12E-06,0.020755625
,,,1.13E-06,0.020590625
,,,1.14E-06,0.020356875
,,,1.15E-06,0.020541875
,,,1.16E-06,0.0206625
,,,1.17E-06,0.020468125
,,,1.18E-06,0.020503125
,,,1.19E-06,0.020659375
,,,1.2E-06,0.020535
,,,1.21E-06,0.02050625
,,,1.22E-06,0.020605625
,,,1.23E-06,0.020386875
,,,1.24E-06,0.0207175
,,,1.25E-06,0.020805625
,,,1.26E-06,0.02033625
,,,1.27E-06,0.02040625
,,,1.28E-06,0.0203375
,,,1.29E-06,0.020588125
,,,1.3E-06,0.02066875
,,,1.31E-06,0.020536875
,,,1.32E-06,0.020401875
,,,1.33E-06,0.020651875
,,,1.34E-06,0.020401875
,,,1.35E-06,0.02058
,,,1.36E-06,0.02059125
,,,1.37E-06,0.02057375
,,,1.38E-06,0.020400625
,,,1.39E-06,0.020300625
,,,1.4E-06,0.020780625
,,,1.41E-06,0.020745
,,,1.42E-06,0.020465
,,,1.43E-06,0.020634375
,,,1.44E-06,0.020550625
,,,1.45E-06,0.020514375
,,,1.46E-06,0.020549375
,,,1.47E-06,0.020623125
,,,1.48E-06,0.02053
,,,1.49E-06,0.020665
,,,1.5E-06,0.020679375
,,,1.51E-06,0.02055625
,,,1.52E-06,0.0206725
,,,1.53E-06,0.02020375
,,,1.54E-06,0.020313125
,,,1.55E-06,0.020515625
,,,1.56E-06,0.020504375
,,,1.57E-06,0.0205925
,,,1.58E-06,0.020548125
,,,1.59E-06,0.0205775
,,,1.6E-06,0.02084625
,,,1.61E-06,0.02083
,,,1.62E-06,0.0205075
,,,1.63E-06,0.02048625
,,,1.64E-06,0.02054375
,,,1.65E-06,0.0204275
,,,1.66E-06,0.0207425
,,,1.67E-06,0.0204325
,,,1.68E-06,0.02066
,,,1.69E-06,0.02048
,,,1.7E-06,0.0203925
,,,1.71E-06,0.0206525
,,,1.72E-06,0.02046
,,,1.73E-06,0.020615625
,,,1.74E-06,0.02062875
,,,1.75E-06,0.02081625
,,,1.76E-06,0.02030625
,,,1.77E-06,0.02039375
,,,1.78E-06,0.02061125
,,,1.79E-06,0.02050625
,,,1.8E-06,0.020521875
,,,1.81E-06,0.02042125
,,,1.82E-06,0.020510625
,,,1.83E-06,0.020629375
,,,1.84E-06,0.020578125
,,,1.85E-06,0.02055375
,,,1.86E-06,0.020566875
,,,1.87E-06,0.020655
,,,1.88E-06,0.020559375
,,,1.89E-06,0.020636875
,,,1.9E-06,0.020454375
,,,1.91E-06,0.020526875
,,,1.92E-06,0.020414375
,,,1.93E-06,0.02057
,,,1.94E-06,0.0206375
,,,1.95E-06,0.020645
,,,1.96E-06,0.020603125
,,,1.97E-06,0.02061625
,,,1.98E-06,0.02051125
,,,1.99E-06,0.020498125
,,,2E-06,0.02061375
,,,2.01E-06,0.020499375
,,,2.02E-06,0.02042875
,,,2.03E-06,0.02056125
,,,2.04E-06,0.020455
,,,2.05E-06,0.020661875
,,,2.06E-06,0.0204875
,,,2.07E-06,0.0205625
,,,2.08E-06,0.020546875
,,,2.09E-06,0.020506875
,,,2.1E-06,0.020658125
,,,2.11E-06,0.02042375
,,,2.12E-06,0.020575625
,,,2.13E-06,0.02052375
,,,2.14E-06,0.02023875
,,,2.15E-06,0.020845
,,,2.16E-06,0.020654375
,,,2.17E-06,0.020494375
,,,2.18E-06,0.0206625
,,,2.19E-06,0.020385625
,,,2.2E-06,0.02027375
,,,2.21E-06,0.020735625
,,,2.22E-06,0.0206675
,,,2.23E-06,0.02058
,,,2.24E-06,0.020665625
,,,2.25E-06,0.0204625
,,,2.26E-06,0.020740625
,,,2.27E-06,0.02052
,,,2.28E-06,0.02075875
,,,2.29E-06,0.020565625
,,,2.3E-06,0.02037875
,,,2.31E-06,0.020585625
,,,2.32E-06,0.020744375
,,,2.33E-06,0.02032625
,,,2.34E-06,0.020678125
,,,2.35E-06,0.0204875
,,,2.36E-06,0.0205675
,,,2.37E-06,0.020588125
,,,2.38E-06,0.020648125
,,,2.39E-06,0.020844375
,,,2.4E-06,0.0205975
,,,2.41E-06,0.020521875
,,,2.42E-06,0.020698125
,,,2.43E-06,0.0206325
,,,2.44E-06,0.020386875
,,,2.45E-06,0.0206675
,,,2.46E-06,0.0207425
,,,2.47E-06,0.0203775
,,,2.48E-06,0.0204975
,,,2.49E-06,0.02059
,,,2.5E-06,0.020525625
,,,2.51E-06,0.020544375
,,,2.52E-06,0.020706875
,,,2.53E-06,0.02059625
,,,2.54E-06,0.020574375
,,,2.55E-06,0.02032875
,,,2.56E-06,0.020820625
,,,2.57E-06,0.02057875
,,,2.58E-06,0.02055375
,,,2.59E-06,0.020445625
,,,2.6E-06,0.020614375
,,,2.61E-06,0.020536875
,,,2.62E-06,0.020673125
,,,2.63E-06,0.020783125
,,,2.64E-06,0.020626875
,,,2.65E-06,0.020543125
,,,2.66E-06,0.02060375
,,,2.67E-06,0.020563125
,,,2.68E-06,0.020665625
,,,2.69E-06,0.020505
,,,2.7E-06,0.020390625
,,,2.71E-06,0.020568125
,,,2.72E-06,0.020565625
,,,2.73E-06,0.0207
,,,2.74E-06,0.020631875
,,,2.75E-06,0.0205125
,,,2.76E-06,0.020674375
,,,2.77E-06,0.020333125
,,,2.78E-06,0.0208525
,,,2.79E-06,0.020430625
,,,2.8E-06,0.02070375
,,,2.81E-06,0.020521875
,,,2.82E-06,0.020491875
,,,2.83E-06,0.020504375
,,,2.84E-06,0.02035625
,,,2.85E-06,0.020636875
,,,2.86E-06,0.020685
,,,2.87E-06,0.02056625
,,,2.88E-06,0.02072125
,,,2.89E-06,0.0206125
,,,2.9E-06,0.020561875
,,,2.91E-06,0.02037625
,,,2.92E-06,0.020486875
,,,2.93E-06,0.020519375
,,,2.94E-06,0.020456875
,,,2.95E-06,0.020931875
,,,2.96E-06,0.020453125
,,,2.97E-06,0.020471875
,,,2.98E-06,0.020234375
,,,2.99E-06,0.02063
,,,3E-06,0.020703125
,,,3.01E-06,0.020465625
,,,3.02E-06,0.020725
,,,3.03E-06,0.020655625
,,,3.04E-06,0.02038
,,,3.05E-06,0.020585625
,,,3.06E-06,0.02085
,,,3.07E-06,0.02075125
,,,3.08E-06,0.0205025
,,,3.09E-06,0.02053875
,,,3.1E-06,0.020449375
,,,3.11E-06,0.020344375
,,,3.12E-06,0.020493125
,,,3.13E-06,0.02032
,,,3.14E-06,0.020481875
,,,3.15E-06,0.020600625
,,,3.16E-06,0.02043375
,,,3.17E-06,0.02063375
,,,3.18E-06,0.020716875
,,,3.19E-06,0.020359375
,,,3.2E-06,0.0206125
,,,3.21E-06,0.020494375
,,,3.22E-06,0.020619375
,,,3.23E-06,0.0205025
,,,3.24E-06,0.02047
,,,3.25E-06,0.020480625
,,,3.26E-06,0.02051125
,,,3.27E-06,0.020688125
,,,3.28E-06,0.020625625
,,,3.29E-06,0.020633125
,,,3.3E-06,0.02051
,,,3.31E-06,0.02045125
,,,3.32E-06,0.020381875
,,,3.33E-06,0.020515
,,,3.34E-06,0.0206675
,,,3.35E-06,0.02058
,,,3.36E-06,0.020475
,,,3.37E-06,0.020576875
,,,3.38E-06,0.020668125
,,,3.39E-06,0.0203925
,,,3.4E-06,0.020693125
,,,3.41E-06,0.020421875
,,,3.42E-06,0.020604375
,,,3.43E-06,0.02055375
,,,3.44E-06,0.020521875
,,,3.45E-06,0.02047125
,,,3.46E-06,0.020578125
,,,3.47E-06,0.020574375
,,,3.48E-06,0.020610625
,,,3.49E-06,0.0206675
,,,3.5E-06,0.020644375
,,,3.51E-06,0.020743125
,,,3.52E-06,0.02067
,,,3.53E-06,0.020564375
,,,3.54E-06,0.0205225
,,,3.55E-06,0.020665625
,,,3.56E-06,0.020539375
,,,3.57E-06,0.020454375
,,,3.58E-06,0.02065125
