data/raw/Final_POL_Test_1/SOP067_Ch1.csv

"Record Length",1000,"Points",-5E-06,0.00726125
"Sample Interval",1E-08,s,-4.99E-06,0.00723375
"Trigger Point",500,"Samples",-4.98E-06,0.00721375
"Trigger Time",0,s,-4.97E-06,0.007214375
"",,,-4.96E-06,0.00742375
"Horizontal Offset",-5E-06,s,-4.95E-06,0.007441875
,,,-4.94E-06,0.007364375
,,,-4.93E-06,0.00716875
,,,-4.92E-06,0.0071925
,,,-4.91E-06,0.007075
,,,-4.9E-06,0.00743125
,,,-4.89E-06,0.007463125
,,,-4.88E-06,0.0071975
,,,-4.87E-06,0.0071925
,,,-4.86E-06,0.00725875
,,,-4.85E-06,0.007191875
,,,-4.84E-06,0.00705375
,,,-4.83E-06,0.0074675
,,,-4.82E-06,0.00719
,,,-4.81E-06,0.00737625
,,,-4.8E-06,0.00715
,,,-4.79E-06,0.00750125
,,,-4.78E-06,0.007320625
,,,-4.77E-06,0.00732875
,,,-4.76E-06,0.00709125
,,,-4.75E-06,0.00717625
,,,-4.74E-06,0.00723
,,,-4.73E-06,0.007346875
,,,-4.72E-06,0.007306875
,,,-4.71E-06,0.00737
,,,-4.7E-06,0.00707125
,,,-4.69E-06,0.007214375
,,,-4.68E-06,0.007388125
,,,-4.67E-06,0.00733125
,,,-4.66E-06,0.007244375
,,,-4.65E-06,0.00731375
,,,-4.64E-06,0.00739875
,,,-4.63E-06,0.00735875
,,,-4.62E-06,0.0071175
,,,-4.61E-06,0.0071025
,,,-4.6E-06,0.007359375
,,,-4.59E-06,0.007026875
,,,-4.58E-06,0.007243125
,,,-4.57E-06,0.00719625
,,,-4.56E-06,0.00736125
,,,-4.55E-06,0.00705125
,,,-4.54E-06,0.00712125
,,,-4.53E-06,0.00727875
,,,-4.52E-06,0.00728125
,,,-4.51E-06,0.00729875
,,,-4.5E-06,0.007028125
,,,-4.49E-06,0.0075075
,,,-4.48E-06,0.007044375
,,,-4.47E-06,0.0072
,,,-4.46E-06,0.007329375
,,,-4.45E-06,0.007270625
,,,-4.44E-06,0.0072475
,,,-4.43E-06,0.007361875
,,,-4.42E-06,0.007319375
,,,-4.41E-06,0.00718125
,,,-4.4E-06,0.007381875
,,,-4.39E-06,0.007264375
,,,-4.38E-06,0.007264375
,,,-4.37E-06,0.007255
,,,-4.36E-06,0.007053125
,,,-4.35E-06,0.007118125
,,,-4.34E-06,0.007373125
,,,-4.33E-06,0.007306875
,,,-4.32E-06,0.00726375
,,,-4.31E-06,0.0072
,,,-4.3E-06,0.00741125
,,,-4.29E-06,0.007203125
,,,-4.28E-06,0.00732375
,,,-4.27E-06,0.0073125
,,,-4.26E-06,0.007343125
,,,-4.25E-06,0.007264375
,,,-4.24E-06,0.00748625
,,,-4.23E-06,0.007188125
,,,-4.22E-06,0.00756375
,,,-4.21E-06,0.0072325
,,,-4.2E-06,0.0071475
,,,-4.19E-06,0.007378125
,,,-4.18E-06,0.007503125
,,,-4.17E-06,0.007435
,,,-4.16E-06,0.007498125
,,,-4.15E-06,0.00747375
,,,-4.14E-06,0.0073175
,,,-4.13E-06,0.00741875
,,,-4.12E-06,0.007039375
,,,-4.11E-06,0.007191875
,,,-4.1E-06,0.007354375
,,,-4.09E-06,0.00733125
,,,-4.08E-06,0.007460625
,,,-4.07E-06,0.00747
,,,-4.06E-06,0.007395
,,,-4.05E-06,0.007108125
,,,-4.04E-06,0.00723
,,,-4.03E-06,0.007243125
,,,-4.02E-06,0.00721
,,,-4.01E-06,0.00720625
,,,-4E-06,0.007214375
,,,-3.99E-06,0.00736
,,,-3.98E-06,0.00730625
,,,-3.97E-06,0.007389375
,,,-3.96E-06,0.007216875
,,,-3.95E-06,0.007065625
,,,-3.94E-06,0.007366875
,,,-3.93E-06,0.00727375
,,,-3.92E-06,0.007443125
,,,-3.91E-06,0.007403125
,,,-3.9E-06,0.00726875
,,,-3.89E-06,0.00723375
,,,-3.88E-06,0.007259375
,,,-3.87E-06,0.007225625
,,,-3.86E-06,0.007415
,,,-3.85E-06,0.00739
,,,-3.84E-06,0.0075375
,,,-3.83E-06,0.007315625
,,,-3.82E-06,0.007444375
,,,-3.81E-06,0.007258125
,,,-3.8E-06,0.00731
,,,-3.79E-06,0.0071125
,,,-3.78E-06,0.007174375
,,,-3.77E-06,0.007085625
,,,-3.76E-06,0.0071
,,,-3.75E-06,0.00712875
,,,-3.74E-06,0.007283125
,,,-3.73E-06,0.007415
,,,-3.72E-06,0.00734875
,,,-3.71E-06,0.0073825
,,,-3.7E-06,0.007336875
,,,-3.69E-06,0.007275
,,,-3.68E-06,0.007225
,,,-3.67E-06,0.00728375
,,,-3.66E-06,0.00728
,,,-3.65E-06,0.007321875
,,,-3.64E-06,0.007085
,,,-3.63E-06,0.0073825
,,,-3.62E-06,0.007005
,,,-3.61E-06,0.0073225
,,,-3.6E-06,0.006926875
,,,-3.59E-06,0.007348125
,,,-3.58E-06,0.00733625
,,,-3.57E-06,0.007610625
,,,-3.56E-06,0.007525625
,,,-3.55E-06,0.0072225
,,,-3.54E-06,0.007105
,,,-3.53E-06,0.007469375
,,,-3.52E-06,0.00707875
,,,-3.51E-06,0.007195625
,,,-3.5E-06,0.007474375
,,,-3.49E-06,0.007253125
,,,-3.48E-06,0.007359375
,,,-3.47E-06,0.00715625
,,,-3.46E-06,0.0072825
,,,-3.45E-06,0.00740375
,,,-3.44E-06,0.00706875
,,,-3.43E-06,0.006835625
,,,-3.42E-06,0.007389375
,,,-3.41E-06,0.00740125
,,,-3.4E-06,0.007189375
,,,-3.39E-06,0.007280625
,,,-3.38E-06,0.007316875
,,,-3.37E-06,0.007240625
,,,-3.36E-06,0.007123125
,,,-3.35E-06,0.007358125
,,,-3.34E-06,0.00738
,,,-3.33E-06,0.00727125
,,,-3.32E-06,0.00737
,,,-3.31E-06,0.007415
,,,-3.3E-06,0.00724875
,,,-3.29E-06,0.007266875
,,,-3.28E-06,0.0073125
,,,-3.27E-06,0.0072375
,,,-3.26E-06,0.007415
,,,-3.25E-06,0.007326875
,,,-3.24E-06,0.007446875
,,,-3.23E-06,0.00732
,,,-3.22E-06,0.007068125
,,,-3.21E-06,0.007164375
,,,-3.2E-06,0.00729
,,,-3.19E-06,0.00695625
,,,-3.18E-06,0.00734375
,,,-3.17E-06,0.00740625
,,,-3.16E-06,0.007453125
,,,-3.15E-06,0.00719375
,,,-3.14E-06,0.007420625
,,,-3.13E-06,0.007163125
,,,-3.12E-06,0.007416875
,,,-3.11E-06,0.007248125
,,,-3.1E-06,0.007269375
,,,-3.09E-06,0.007233125
,,,-3.08E-06,0.007169375
,,,-3.07E-06,0.00735625
,,,-3.06E-06,0.007241875
,,,-3.05E-06,0.007130625
,,,-3.04E-06,0.0071725
,,,-3.03E-06,0.007361875
,,,-3.02E-06,0.00717375
,,,-3.01E-06,0.00743375
,,,-3E-06,0.00739375
,,,-2.99E-06,0.0073275
,,,-2.98E-06,0.0072
,,,-2.97E-06,0.00745625
,,,-2.96E-06,0.007118125
,,,-2.95E-06,0.007299375
,,,-2.94E-06,0.0072625
,,,-2.93E-06,0.007303125
,,,-2.92E-06,0.0072625
,,,-2.91E-06,0.00748
,,,-2.9E-06,0.007410625
,,,-2.89E-06,0.007308125
,,,-2.88E-06,0.007075
,,,-2.87E-06,0.007041875
,,,-2.86E-06,0.007141875
,,,-2.85E-06,0.0072375
,,,-2.84E-06,0.007335
,,,-2.83E-06,0.00734875
,,,-2.82E-06,0.007345625
,,,-2.81E-06,0.00751
,,,-2.8E-06,0.00732375
,,,-2.79E-06,0.007144375
,,,-2.78E-06,0.007471875
,,,-2.77E-06,0.007050625
,,,-2.76E-06,0.007185625
,,,-2.75E-06,0.007346875
,,,-2.74E-06,0.007329375
,,,-2.73E-06,0.00743125
,,,-2.72E-06,0.006999375
,,,-2.71E-06,0.007081875
,,,-2.7E-06,0.007004375
,,,-2.69E-06,0.00745875
,,,-2.68E-06,0.007416875
,,,-2.67E-06,0.00715125
,,,-2.66E-06,0.007381875
,,,-2.65E-06,0.007306875
,,,-2.64E-06,0.007273125
,,,-2.63E-06,0.00731875
,,,-2.62E-06,0.00726375
,,,-2.61E-06,0.007341875
,,,-2.6E-06,0.007225
,,,-2.59E-06,0.00737
,,,-2.58E-06,0.0072
,,,-2.57E-06,0.007335625
,,,-2.56E-06,0.00724375
,,,-2.55E-06,0.007195
,,,-2.54E-06,0.007250625
,,,-2.53E-06,0.007544375
,,,-2.52E-06,0.007278125
,,,-2.51E-06,0.0072725
,,,-2.5E-06,0.00749375
,,,-2.49E-06,0.007191875
,,,-2.48E-06,0.00736125
,,,-2.47E-06,0.007235
,,,-2.46E-06,0.007165
,,,-2.45E-06,0.00710125
,,,-2.44E-06,0.007436875
,,,-2.43E-06,0.0071425
,,,-2.42E-06,0.00738875
,,,-2.41E-06,0.007470625
,,,-2.4E-06,0.007333125
,,,-2.39E-06,0.007419375
,,,-2.38E-06,0.00731
,,,-2.37E-06,0.00728125
,,,-2.36E-06,0.00722375
,,,-2.35E-06,0.007395625
,,,-2.34E-06,0.007404375
,,,-2.33E-06,0.00731375
,,,-2.32E-06,0.00689375
,,,-2.31E-06,0.007416875
,,,-2.3E-06,0.007394375
,,,-2.29E-06,0.007319375
,,,-2.28E-06,0.006926875
,,,-2.27E-06,0.007213125
,,,-2.26E-06,0.007408125
,,,-2.25E-06,0.00752125
,,,-2.24E-06,0.007453125
,,,-2.23E-06,0.007231875
,,,-2.22E-06,0.007220625
,,,-2.21E-06,0.007079375
,,,-2.2E-06,0.00726
,,,-2.19E-06,0.007368125
,,,-2.18E-06,0.0074825
,,,-2.17E-06,0.007365625
,,,-2.16E-06,0.00734
,,,-2.15E-06,0.007150625
,,,-2.14E-06,0.007311875
,,,-2.13E-06,0.0072475
,,,-2.12E-06,0.0073125
,,,-2.11E-06,0.00725625
,,,-2.1E-06,0.007270625
,,,-2.09E-06,0.007294375
,,,-2.08E-06,0.00731125
,,,-2.07E-06,0.007371875
,,,-2.06E-06,0.007433125
,,,-2.05E-06,0.0070575
,,,-2.04E-06,0.007275
,,,-2.03E-06,0.007124375
,,,-2.02E-06,0.007199375
,,,-2.01E-06,0.007205
,,,-2E-06,0.00728
,,,-1.99E-06,0.00753625
,,,-1.98E-06,0.007391875
,,,-1.97E-06,0.007231875
,,,-1.96E-06,0.007275
,,,-1.95E-06,0.007128125
,,,-1.94E-06,0.00719875
,,,-1.93E-06,0.00748625
,,,-1.92E-06,0.007325625
,,,-1.91E-06,0.007238125
,,,-1.9E-06,0.007383125
,,,-1.89E-06,0.0070975
,,,-1.88E-06,0.007251875
,,,-1.87E-06,0.00716625
,,,-1.86E-06,0.00721375
,,,-1.85E-06,0.00724
,,,-1.84E-06,0.007205625
,,,-1.83E-06,0.00723875
,,,-1.82E-06,0.00736625
,,,-1.81E-06,0.007249375
,,,-1.8E-06,0.0074825
,,,-1.79E-06,0.007325
,,,-1.78E-06,0.007290625
,,,-1.77E-06,0.0077225
,,,-1.76E-06,0.007365625
,,,-1.75E-06,0.007389375
,,,-1.74E-06,0.007266875
,,,-1.73E-06,0.007070625
,,,-1.72E-06,0.007140625
,,,-1.71E-06,0.0072975
,,,-1.7E-06,0.007441875
,,,-1.69E-06,0.0075
,,,-1.68E-06,0.007384375
,,,-1.67E-06,0.007304375
,,,-1.66E-06,0.007199375
,,,-1.65E-06,0.007061875
,,,-1.64E-06,0.00739
,,,-1.63E-06,0.007234375
,,,-1.62E-06,0.007060625
,,,-1.61E-06,0.0073425
,,,-1.6E-06,0.007311875
,,,-1.59E-06,0.007260625
,,,-1.58E-06,0.007405
,,,-1.57E-06,0.00722
,,,-1.56E-06,0.007159375
,,,-1.55E-06,0.007264375
,,,-1.54E-06,0.007245625
,,,-1.53E-06,0.0071175
,,,-1.52E-06,0.00755625
,,,-1.51E-06,0.007318125
,,,-1.5E-06,0.007519375
,,,-1.49E-06,0.00723
,,,-1.48E-06,0.007315
,,,-1.47E-06,0.00705375
,,,-1.46E-06,0.00726
,,,-1.45E-06,0.007284375
,,,-1.44E-06,0.00734875
,,,-1.43E-06,0.0072725
,,,-1.42E-06,0.007446875
,,,-1.41E-06,0.00730375
,,,-1.4E-06,0.00710625
,,,-1.39E-06,0.007219375
,,,-1.38E-06,0.0072175
,,,-1.37E-06,0.007365
,,,-1.36E-06,0.007483125
,,,-1.35E-06,0.007415625
,,,-1.34E-06,0.00730875
,,,-1.33E-06,0.00722625
,,,-1.32E-06,0.00731875
,,,-1.31E-06,0.00735
,,,-1.3E-06,0.007364375
,,,-1.29E-06,0.007271875
,,,-1.28E-06,0.00737625
,,,-1.27E-06,0.00726
,,,-1.26E-06,0.0072425
,,,-1.25E-06,0.007321875
,,,-1.24E-06,0.007415
,,,-1.23E-06,0.007160625
,,,-1.22E-06,0.007371875
,,,-1.21E-06,0.00721375
,,,-1.2E-06,0.0071025
,,,-1.19E-06,0.00700125
,,,-1.18E-06,0.00750875
,,,-1.17E-06,0.00743875
,,,-1.16E-06,0.00715625
,,,-1.15E-06,0.0072475
,,,-1.14E-06,0.007095
,,,-1.13E-06,0.0074325
,,,-1.12E-06,0.007365625
,,,-1.11E-06,0.007390625
,,,-1.1E-06,0.00739
,,,-1.09E-06,0.00756125
,,,-1.08E-06,0.00752
,,,-1.07E-06,0.007180625
,,,-1.06E-06,0.0070875
,,,-1.05E-06,0.007044375
,,,-1.04E-06,0.00732
,,,-1.03E-06,0.0072775
,,,-1.02E-06,0.007325
,,,-1.01E-06,0.007468125
,,,-1E-06,0.0074575
,,,-9.9E-07,0.007256875
,,,-9.8E-07,0.007391875
,,,-9.7E-07,0.00720375
,,,-9.6E-07,0.007285
,,,-9.5E-07,0.00707125
,,,-9.4E-07,0.00720625
,,,-9.3E-07,0.00721
,,,-9.2E-07,0.0070375
,,,-9.1E-07,0.00739625
,,,-9E-07,0.0073525
,,,-8.9E-07,0.007460625
,,,-8.8E-07,0.007170625
,,,-8.7E-07,0.007338125
,,,-8.6E-07,0.007435625
,,,-8.5E-07,0.00726875
,,,-8.4E-07,0.0071075
,,,-8.3E-07,0.0071725
,,,-8.2E-07,0.007204375
,,,-8.1E-07,0.00716375
,,,-8E-07,0.007254375
,,,-7.9E-07,0.007213125
,,,-7.8E-07,0.007126875
,,,-7.7E-07,0.007290625
,,,-7.6E-07,0.007238125
,,,-7.5E-07,0.0072625
,,,-7.4E-07,0.00724875
,,,-7.3E-07,0.007205625
,,,-7.2E-07,0.007085
,,,-7.1E-07,0.00727875
,,,-7E-07,0.0074325
,,,-6.9E-07,0.00735875
,,,-6.8E-07,0.007258125
,,,-6.7E-07,0.0071075
,,,-6.6E-07,0.0072725
,,,-6.5E-07,0.007346875
,,,-6.4E-07,0.007285
,,,-6.3E-07,0.007230625
,,,-6.2E-07,0.00717375
,,,-6.1E-07,0.007218125
,,,-6E-07,0.007565625
,,,-5.9E-07,0.0073225
,,,-5.8E-07,0.00748625
,,,-5.7E-07,0.007325625
,,,-5.6E-07,0.007490625
,,,-5.5E-07,0.007133125
,,,-5.4E-07,0.007234375
,,,-5.3E-07,0.0075375
,,,-5.2E-07,0.00704
,,,-5.1E-07,0.007375625
,,,-5E-07,0.00731375
,,,-4.9E-07,0.00734875
,,,-4.8E-07,0.00720125
,,,-4.7E-07,0.007000625
,,,-4.6E-07,0.007440625
,,,-4.5E-07,0.007205
,,,-4.4E-07,0.007153125
,,,-4.3E-07,0.007414375
,,,-4.2E-07,0.0075075
,,,-4.1E-07,0.007276875
,,,-4E-07,0.0071775
,,,-3.9E-07,0.00722375
,,,-3.8E-07,0.00722625
,,,-3.7E-07,0.007511875
,,,-3.6E-07,0.007343125
,,,-3.5E-07,0.007511875
,,,-3.4E-07,0.007415
,,,-3.3E-07,0.007550625
,,,-3.2E-07,0.007355
,,,-3.1E-07,0.00706875
,,,-3E-07,0.0071875
,,,-2.9E-07,0.0074675
,,,-2.8E-07,0.007335
,,,-2.7E-07,0.007494375
,,,-2.6E-07,0.007320625
,,,-2.5E-07,0.0072725
,,,-2.4E-07,0.00716
,,,-2.3E-07,0.007299375
,,,-2.2E-07,0.00736
,,,-2.1E-07,0.007181875
,,,-2E-07,0.00729125
,,,-1.9E-07,0.00722
,,,-1.8E-07,0.00742875
,,,-1.7E-07,0.00736625
,,,-1.6E-07,0.007365625
,,,-1.5E-07,0.007574375
,,,-1.4E-07,0.007228125
,,,-1.3E-07,0.00758875
,,,-1.2E-07,0.007249375
,,,-1.1E-07,0.007359375
,,,-1E-07,0.00752875
,,,-9E-08,0.007139375
,,,-8E-08,0.007305
,,,-7E-08,0.007260625
,,,-6E-08,0.00732875
,,,-5E-08,0.007639375
,,,-4E-08,0.00820875
,,,-3E-08,0.008365625
,,,-2E-08,0.00470375
,,,-1E-08,0.003066875
,,,0,0.004971875
,,,1E-08,0.010945
,,,2E-08,0.0123775
,,,3E-08,0.0102325
,,,4E-08,0.00574875
,,,5E-08,0.00390375
,,,6E-08,0.0039825
,,,7E-08,0.006720625
,,,8E-08,0.00844125
,,,9E-08,0.009795
,,,1E-07,0.0094275
,,,1.1E-07,0.0077375
,,,1.2E-07,0.00569375
,,,1.3E-07,0.005833125
,,,1.4E-07,0.00665375
,,,1.5E-07,0.007656875
,,,1.6E-07,0.00790125
,,,1.7E-07,0.007520625
,,,1.8E-07,0.0073625
,,,1.9E-07,0.007448125
,,,2E-07,0.00738625
,,,2.1E-07,0.006848125
,,,2.2E-07,0.007103125
,,,2.3E-07,0.00763375
,,,2.4E-07,0.00748
,,,2.5E-07,0.00770375
,,,2.6E-07,0.0074025
,,,2.7E-07,0.007331875
,,,2.8E-07,0.00739125
,,,2.9E-07,0.007115625
,,,3E-07,0.0070675
,,,3.1E-07,0.007266875
,,,3.2E-07,0.0073725
,,,3.3E-07,0.0074425
,,,3.4E-07,0.0073125
,,,3.5E-07,0.0073475
,,,3.6E-07,0.00736375
,,,3.7E-07,0.00732375
,,,3.8E-07,0.007424375
,,,3.9E-07,0.007465625
,,,4E-07,0.00747
,,,4.1E-07,0.007604375
,,,4.2E-07,0.007095625
,,,4.3E-07,0.007365
,,,4.4E-07,0.007305
,,,4.5E-07,0.007223125
,,,4.6E-07,0.007545625
,,,4.7E-07,0.007520625
,,,4.8E-07,0.007205625
,,,4.9E-07,0.006978125
,,,5E-07,0.007165
,,,5.1E-07,0.00721625
,,,5.2E-07,0.0073525
,,,5.3E-07,0.00743625
,,,5.4E-07,0.007016875
,,,5.5E-07,0.00727
,,,5.6E-07,0.007173125
,,,5.7E-07,0.00728625
,,,5.8E-07,0.00714375
,,,5.9E-07,0.00711
,,,6E-07,0.007491875
,,,6.1E-07,0.007383125
,,,6.2E-07,0.007258125
,,,6.3E-07,0.007335
,,,6.4E-07,0.007265
,,,6.5E-07,0.00718
,,,6.6E-07,0.0071925
,,,6.7E-07,0.00721
,,,6.8E-07,0.00728375
,,,6.9E-07,0.007450625
,,,7E-07,0.0071925
,,,7.1E-07,0.007318125
,,,7.2E-07,0.007270625
,,,7.3E-07,0.007270625
,,,7.4E-07,0.007393125
,,,7.5E-07,0.007180625
,,,7.6E-07,0.007028125
,,,7.7E-07,0.007424375
,,,7.8E-07,0.00730125
,,,7.9E-07,0.007495
,,,8E-07,0.00739875
,,,8.1E-07,0.007241875
,,,8.2E-07,0.007205
,,,8.3E-07,0.00758375
,,,8.4E-07,0.007415
,,,8.5E-07,0.007133125
,,,8.6E-07,0.007181875
,,,8.7E-07,0.00726
,,,8.8E-07,0.0074075
,,,8.9E-07,0.0072925
,,,9E-07,0.007116875
,,,9.1E-07,0.0074825
,,,9.2E-07,0.00727
,,,9.3E-07,0.007340625
,,,9.4E-07,0.00727625
,,,9.5E-07,0.007186875
,,,9.6E-07,0.007329375
,,,9.7E-07,0.007265
,,,9.8E-07,0.007443125
,,,9.9E-07,0.0073575
,,,1E-06,0.00738625
,,,1.01E-06,0.00708875
,,,1.02E-06,0.007190625
,,,1.03E-06,0.007054375
,,,1.04E-06,0.007195
,,,1.05E-06,0.0073725
,,,1.06E-06,0.00735125
,,,1.07E-06,0.00729375
,,,1.08E-06,0.00730375
,,,1.09E-06,0.007095
,,,1.1E-06,0.007395
,,,1.11E-06,0.00707625
,,,1.12E-06,0.007546875
,,,1.13E-06,0.007194375
,,,1.14E-06,0.00720125
,,,1.15E-06,0.007318125
,,,1.16E-06,0.00749625
,,,1.17E-06,0.00739375
,,,1.18E-06,0.007426875
,,,1.19E-06,0.007208125
,,,1.2E-06,0.00725125
,,,1.21E-06,0.00725125
,,,1.22E-06,0.00731875
,,,1.23E-06,0.007364375
,,,1.24E-06,0.007195625
,,,1.25E-06,0.007103125
,,,1.26E-06,0.0070925
,,,1.27E-06,0.007070625
,,,1.28E-06,0.007425
,,,1.29E-06,0.0073275
,,,1.3E-06,0.007484375
,,,1.31E-06,0.007353125
,,,1.32E-06,0.007474375
,,,1.33E-06,0.007463125
,,,1.34E-06,0.007375625
,,,1.35E-06,0.007096875
,,,1.36E-06,0.00746375
,,,1.37E-06,0.00717875
,,,1.38E-06,0.007075625
,,,1.39E-06,0.007475
,,,1.4E-06,0.0073675
,,,1.41E-06,0.007431875
,,,1.42E-06,0.007153125
,,,1.43E-06,0.0074075
,,,1.44E-06,0.007239375
,,,1.45E-06,0.00740375
,,,1.46E-06,0.007185625
,,,1.47E-06,0.0073
,,,1.48E-06,0.0072775
,,,1.49E-06,0.00712125
,,,1.5E-06,0.007343125
,,,1.51E-06,0.007335
,,,1.52E-06,0.00724875
,,,1.53E-06,0.007524375
,,,1.54E-06,0.0075275
,,,1.55E-06,0.007189375
,,,1.56E-06,0.007125625
,,,1.57E-06,0.007539375
,,,1.58E-06,0.007488125
,,,1.59E-06,0.007186875
,,,1.6E-06,0.0074325
,,,1.61E-06,0.0073025
,,,1.62E-06,0.00743875
,,,1.63E-06,0.007366875
,,,1.64E-06,0.00703
,,,1.65E-06,0.00743875
,,,1.66E-06,0.007283125
,,,1.67E-06,0.007510625
,,,1.68E-06,0.007324375
,,,1.69E-06,0.00719375
,,,1.7E-06,0.0075575
,,,1.71E-06,0.00748125
,,,1.72E-06,0.007140625
,,,1.73E-06,0.006945625
,,,1.74E-06,0.007379375
,,,1.75E-06,0.007195
,,,1.76E-06,0.007455
,,,1.77E-06,0.00733875
,,,1.78E-06,0.00751875
,,,1.79E-06,0.0073125
,,,1.8E-06,0.0072225
,,,1.81E-06,0.0072325
,,,1.82E-06,0.007413125
,,,1.83E-06,0.007490625
,,,1.84E-06,0.007223125
,,,1.85E-06,0.00708375
,,,1.86E-06,0.007105
,,,1.87E-06,0.00715
,,,1.88E-06,0.00735
,,,1.89E-06,0.00716
,,,1.9E-06,0.00739625
,,,1.91E-06,0.00734375
,,,1.92E-06,0.0073225
,,,1.93E-06,0.0071275
,,,1.94E-06,0.00713625
,,,1.95E-06,0.00703375
,,,1.96E-06,0.00742375
,,,1.97E-06,0.007176875
,,,1.98E-06,0.00752875
,,,1.99E-06,0.007355
,,,2E-06,0.00721625
,,,2.01E-06,0.00721
,,,2.02E-06,0.007238125
,,,2.03E-06,0.007464375
,,,2.04E-06,0.007231875
,,,2.05E-06,0.00748
,,,2.06E-06,0.007188125
,,,2.07E-06,0.007259375
,,,2.08E-06,0.007203125
,,,2.09E-06,0.007116875
,,,2.1E-06,0.007318125
,,,2.11E-06,0.007331875
,,,2.12E-06,0.007436875
,,,2.13E-06,0.006954375
,,,2.14E-06,0.0072475
,,,2.15E-06,0.007554375
,,,2.16E-06,0.00714
,,,2.17E-06,0.0074175
,,,2.18E-06,0.0072925
,,,2.19E-06,0.007265625
,,,2.2E-06,0.007215625
,,,2.21E-06,0.007443125
,,,2.22E-06,0.00714
,,,2.23E-06,0.007315625
,,,2.24E-06,0.0073725
,,,2.25E-06,0.00734375
,,,2.26E-06,0.00716375
,,,2.27E-06,0.007171875
,,,2.28E-06,0.0074575
,,,2.29E-06,0.00748
,,,2.3E-06,0.007150625
,,,2.31E-06,0.0071175
,,,2.32E-06,0.007326875
,,,2.33E-06,0.007159375
,,,2.34E-06,0.007226875
,,,2.35E-06,0.00735
,,,2.36E-06,0.007506875
,,,2.37E-06,0.0075775
,,,2.38E-06,0.007381875
,,,2.39E-06,0.00722875
,,,2.4E-06,0.00752
,,,2.41E-06,0.0071075
,,,2.42E-06,0.007430625
,,,2.43E-06,0.007155625
,,,2.44E-06,0.007313125
,,,2.45E-06,0.007171875
,,,2.46E-06,0.007339375
,,,2.47E-06,0.00735875
,,,2.48E-06,0.00767125
,,,2.49E-06,0.007315625
,,,2.5E-06,0.006869375
,,,2.51E-06,0.007106875
,,,2.52E-06,0.00725375
,,,2.53E-06,0.007366875
,,,2.54E-06,0.007595
,,,2.55E-06,0.007480625
,,,2.56E-06,0.007198125
,,,2.57E-06,0.00736375
,,,2.58E-06,0.007155625
,,,2.59E-06,0.00706
,,,2.6E-06,0.00718625
,,,2.61E-06,0.00720375
,,,2.62E-06,0.007415625
,,,2.63E-06,0.007068125
,,,2.64E-06,0.00737875
,,,2.65E-06,0.007215
,,,2.66E-06,0.007309375
,,,2.67E-06,0.0072825
,,,2.68E-06,0.007009375
,,,2.69E-06,0.007049375
,,,2.7E-06,0.007404375
,,,2.71E-06,0.00750875
,,,2.72E-06,0.007170625
,,,2.73E-06,0.007345
,,,2.74E-06,0.0075225
,,,2.75E-06,0.007165625
,,,2.76E-06,0.00739375
,,,2.77E-06,0.007283125
,,,2.78E-06,0.007425625
,,,2.79E-06,0.00734375
,,,2.8E-06,0.007184375
,,,2.81E-06,0.007263125
,,,2.82E-06,0.00718875
,,,2.83E-06,0.007155
,,,2.84E-06,0.007148125
,,,2.85E-06,0.00726125
,,,2.86E-06,0.007049375
,,,2.87E-06,0.007521875
,,,2.88E-06,0.007146875
,,,2.89E-06,0.007539375
,,,2.9E-06,0.0074075
,,,2.91E-06,0.00713125
,,,2.92E-06,0.007385
,,,2.93E-06,0.007368125
,,,2.94E-06,0.007238125
,,,2.95E-06,0.007051875
,,,2.96E-06,0.007155
,,,2.97E-06,0.007339375
,,,2.98E-06,0.0075375
,,,2.99E-06,0.0073475
,,,3E-06,0.00730125
,,,3.01E-06,0.007023125
,,,3.02E-06,0.007254375
,,,3.03E-06,0.00738625
,,,3.04E-06,0.007375
,,,3.05E-06,0.007463125
,,,3.06E-06,0.007451875
,,,3.07E-06,0.007168125
,,,3.08E-06,0.007193125
,,,3.09E-06,0.007199375
,,,3.1E-06,0.00712
,,,3.11E-06,0.0072825
,,,3.12E-06,0.007185
,,,3.13E-06,0.00731125
,,,3.14E-06,0.007385
,,,3.15E-06,0.00713375
,,,3.16E-06,0.007319375
,,,3.17E-06,0.00705875
,,,3.18E-06,0.0074875
,,,3.19E-06,0.007270625
,,,3.2E-06,0.0074075
,,,3.21E-06,0.00724125
,,,3.22E-06,0.007478125
,,,3.23E-06,0.00731125
,,,3.24E-06,0.007461875
,,,3.25E-06,0.007361875
,,,3.26E-06,0.0072025
,,,3.27E-06,0.007221875
,,,3.28E-06,0.00746375
,,,3.29E-06,0.007559375
,,,3.3E-06,0.007468125
,,,3.31E-06,0.0071325
,,,3.32E-06,0.0073725
,,,3.33E-06,0.007326875
,,,3.34E-06,0.007033125
,,,3.35E-06,0.007361875
,,,3.36E-06,0.0073
,,,3.37E-06,0.007375
,,,3.38E-06,0.0072575
,,,3.39E-06,0.007223125
,,,3.4E-06,0.007259375
,,,3.41E-06,0.00703375
,,,3.42E-06,0.007311875
,,,3.43E-06,0.007226875
,,,3.44E-06,0.00728
,,,3.45E-06,0.007479375
,,,3.46E-06,0.007355625
,,,3.47E-06,0.007528125
,,,3.48E-06,0.007419375
,,,3.49E-06,0.007444375
,,,3.5E-06,0.007451875
,,,3.51E-06,0.007214375
,,,3.52E-06,0.007071875
,,,3.53E-06,0.0071475
,,,3.54E-06,0.007260625
,,,3.55E-06,0.007278125
,,,3.56E-06,0.007299375
,,,3.57E-06,0.007181875
,,,3.58E-06,0.007120625
,,,3.59E-06,0.0071575
