data/raw/Final_POL_Test_1/SOP009_Ch3.csv

"Record Length",1000,"Points",-5E-06,0.020631251
"Sample Interval",1E-08,s,-4.99E-06,0.020610001
"Trigger Point",500,"Samples",-4.98E-06,0.020787501
"Trigger Time",0,s,-4.97E-06,0.020679376
"",,,-4.96E-06,0.020687501
"Horizontal Offset",-5E-06,s,-4.95E-06,0.020850001
,,,-4.94E-06,0.020702501
,,,-4.93E-06,0.020580626
,,,-4.92E-06,0.020665001
,,,-4.91E-06,0.020682501
,,,-4.9E-06,0.020768751
,,,-4.89E-06,0.020595001
,,,-4.88E-06,0.020561251
,,,-4.87E-06,0.020662501
,,,-4.86E-06,0.020505001
,,,-4.85E-06,0.020777501
,,,-4.84E-06,0.020365626
,,,-4.83E-06,0.020727501
,,,-4.82E-06,0.020641876
,,,-4.81E-06,0.020752501
,,,-4.8E-06,0.020718126
,,,-4.79E-06,0.020846251
,,,-4.78E-06,0.020729376
,,,-4.77E-06,0.020554376
,,,-4.76E-06,0.020702501
,,,-4.75E-06,0.020595626
,,,-4.74E-06,0.020720626
,,,-4.73E-06,0.020633126
,,,-4.72E-06,0.020640001
,,,-4.71E-06,0.020897501
,,,-4.7E-06,0.020763751
,,,-4.69E-06,0.020731876
,,,-4.68E-06,0.020637501
,,,-4.67E-06,0.020636876
,,,-4.66E-06,0.020563126
,,,-4.65E-06,0.020657501
,,,-4.64E-06,0.020556876
,,,-4.63E-06,0.020814376
,,,-4.62E-06,0.020728126
,,,-4.61E-06,0.020543126
,,,-4.6E-06,0.020583126
,,,-4.59E-06,0.020335626
,,,-4.58E-06,0.020833126
,,,-4.57E-06,0.020734376
,,,-4.56E-06,0.020736876
,,,-4.55E-06,0.020908126
,,,-4.54E-06,0.020460001
,,,-4.53E-06,0.020583126
,,,-4.52E-06,0.020716251
,,,-4.51E-06,0.020750626
,,,-4.5E-06,0.020600626
,,,-4.49E-06,0.020758126
,,,-4.48E-06,0.020573126
,,,-4.47E-06,0.020519376
,,,-4.46E-06,0.020334376
,,,-4.45E-06,0.020576876
,,,-4.44E-06,0.020518751
,,,-4.43E-06,0.020570626
,,,-4.42E-06,0.020591251
,,,-4.41E-06,0.020815626
,,,-4.4E-06,0.020764376
,,,-4.39E-06,0.020845001
,,,-4.38E-06,0.020623751
,,,-4.37E-06,0.020868751
,,,-4.36E-06,0.020561251
,,,-4.35E-06,0.020466251
,,,-4.34E-06,0.020677501
,,,-4.33E-06,0.020832501
,,,-4.32E-06,0.020818751
,,,-4.31E-06,0.020695626
,,,-4.3E-06,0.020613126
,,,-4.29E-06,0.020821251
,,,-4.28E-06,0.020636251
,,,-4.27E-06,0.020560626
,,,-4.26E-06,0.020747501
,,,-4.25E-06,0.020840626
,,,-4.24E-06,0.020608126
,,,-4.23E-06,0.020826876
,,,-4.22E-06,0.020763126
,,,-4.21E-06,0.020615626
,,,-4.2E-06,0.020627501
,,,-4.19E-06,0.020692501
,,,-4.18E-06,0.020583126
,,,-4.17E-06,0.020820626
,,,-4.16E-06,0.020747501
,,,-4.15E-06,0.020613126
,,,-4.14E-06,0.020832501
,,,-4.13E-06,0.020806251
,,,-4.12E-06,0.020714376
,,,-4.11E-06,0.020737501
,,,-4.1E-06,0.020888751
,,,-4.09E-06,0.020501876
,,,-4.08E-06,0.020570626
,,,-4.07E-06,0.020598751
,,,-4.06E-06,0.020565001
,,,-4.05E-06,0.020652501
,,,-4.04E-06,0.020380001
,,,-4.03E-06,0.020454376
,,,-4.02E-06,0.020680001
,,,-4.01E-06,0.020657501
,,,-4E-06,0.020620001
,,,-3.99E-06,0.020632501
,,,-3.98E-06,0.020445001
,,,-3.97E-06,0.020616876
,,,-3.96E-06,0.020633751
,,,-3.95E-06,0.020685001
,,,-3.94E-06,0.020694376
,,,-3.93E-06,0.020706251
,,,-3.92E-06,0.020730001
,,,-3.91E-06,0.020591876
,,,-3.9E-06,0.020703126
,,,-3.89E-06,0.020471251
,,,-3.88E-06,0.020635626
,,,-3.87E-06,0.020523751
,,,-3.86E-06,0.020498751
,,,-3.85E-06,0.020444376
,,,-3.84E-06,0.020781876
,,,-3.83E-06,0.020592501
,,,-3.82E-06,0.020643751
,,,-3.81E-06,0.020456876
,,,-3.8E-06,0.020797501
,,,-3.79E-06,0.020813751
,,,-3.78E-06,0.020856876
,,,-3.77E-06,0.020595626
,,,-3.76E-06,0.020631876
,,,-3.75E-06,0.020660001
,,,-3.74E-06,0.020590001
,,,-3.73E-06,0.020664376
,,,-3.72E-06,0.020612501
,,,-3.71E-06,0.020605626
,,,-3.7E-06,0.020650626
,,,-3.69E-06,0.020611251
,,,-3.68E-06,0.020451876
,,,-3.67E-06,0.020777501
,,,-3.66E-06,0.020670626
,,,-3.65E-06,0.020718126
,,,-3.64E-06,0.020700626
,,,-3.63E-06,0.020621251
,,,-3.62E-06,0.020691251
,,,-3.61E-06,0.020639376
,,,-3.6E-06,0.020593751
,,,-3.59E-06,0.020739376
,,,-3.58E-06,0.020821251
,,,-3.57E-06,0.020729376
,,,-3.56E-06,0.020771251
,,,-3.55E-06,0.020716251
,,,-3.54E-06,0.020556251
,,,-3.53E-06,0.020903751
,,,-3.52E-06,0.020698751
,,,-3.51E-06,0.020690626
,,,-3.5E-06,0.020883126
,,,-3.49E-06,0.020692501
,,,-3.48E-06,0.020712501
,,,-3.47E-06,0.020798751
,,,-3.46E-06,0.020282501
,,,-3.45E-06,0.020696251
,,,-3.44E-06,0.020774376
,,,-3.43E-06,0.020521251
,,,-3.42E-06,0.020741251
,,,-3.41E-06,0.020821876
,,,-3.4E-06,0.020561251
,,,-3.39E-06,0.020742501
,,,-3.38E-06,0.020681876
,,,-3.37E-06,0.020659376
,,,-3.36E-06,0.020638126
,,,-3.35E-06,0.020855626
,,,-3.34E-06,0.020484376
,,,-3.33E-06,0.020673751
,,,-3.32E-06,0.020884376
,,,-3.31E-06,0.020733751
,,,-3.3E-06,0.020550001
,,,-3.29E-06,0.020525001
,,,-3.28E-06,0.020787501
,,,-3.27E-06,0.020668751
,,,-3.26E-06,0.020566876
,,,-3.25E-06,0.020547501
,,,-3.24E-06,0.020588751
,,,-3.23E-06,0.020793751
,,,-3.22E-06,0.020717501
,,,-3.21E-06,0.020505626
,,,-3.2E-06,0.020591876
,,,-3.19E-06,0.020755001
,,,-3.18E-06,0.020658126
,,,-3.17E-06,0.020754376
,,,-3.16E-06,0.020630001
,,,-3.15E-06,0.020817501
,,,-3.14E-06,0.020617501
,,,-3.13E-06,0.020630001
,,,-3.12E-06,0.020765626
,,,-3.11E-06,0.020456876
,,,-3.1E-06,0.020579376
,,,-3.09E-06,0.020730626
,,,-3.08E-06,0.020714376
,,,-3.07E-06,0.020608126
,,,-3.06E-06,0.020707501
,,,-3.05E-06,0.020626251
,,,-3.04E-06,0.020486876
,,,-3.03E-06,0.020510001
,,,-3.02E-06,0.020378126
,,,-3.01E-06,0.020686251
,,,-3E-06,0.020700001
,,,-2.99E-06,0.020583126
,,,-2.98E-06,0.020508126
,,,-2.97E-06,0.020573126
,,,-2.96E-06,0.020572501
,,,-2.95E-06,0.020670626
,,,-2.94E-06,0.020725626
,,,-2.93E-06,0.020580001
,,,-2.92E-06,0.020720001
,,,-2.91E-06,0.020898126
,,,-2.9E-06,0.020835001
,,,-2.89E-06,0.020730001
,,,-2.88E-06,0.020525626
,,,-2.87E-06,0.020691876
,,,-2.86E-06,0.020535001
,,,-2.85E-06,0.020520001
,,,-2.84E-06,0.020843751
,,,-2.83E-06,0.020706876
,,,-2.82E-06,0.020594376
,,,-2.81E-06,0.020543751
,,,-2.8E-06,0.020570001
,,,-2.79E-06,0.020493751
,,,-2.78E-06,0.020670626
,,,-2.77E-06,0.020835001
,,,-2.76E-06,0.020703751
,,,-2.75E-06,0.020741251
,,,-2.74E-06,0.020606876
,,,-2.73E-06,0.020787501
,,,-2.72E-06,0.020738126
,,,-2.71E-06,0.020702501
,,,-2.7E-06,0.020582501
,,,-2.69E-06,0.020782501
,,,-2.68E-06,0.020687501
,,,-2.67E-06,0.020813751
,,,-2.66E-06,0.020411251
,,,-2.65E-06,0.020686251
,,,-2.64E-06,0.020656876
,,,-2.63E-06,0.020676876
,,,-2.62E-06,0.020493751
,,,-2.61E-06,0.020981876
,,,-2.6E-06,0.020778126
,,,-2.59E-06,0.020510001
,,,-2.58E-06,0.020621251
,,,-2.57E-06,0.020631251
,,,-2.56E-06,0.020694376
,,,-2.55E-06,0.020676251
,,,-2.54E-06,0.020750001
,,,-2.53E-06,0.020460001
,,,-2.52E-06,0.020678751
,,,-2.51E-06,0.020743126
,,,-2.5E-06,0.020516876
,,,-2.49E-06,0.020361876
,,,-2.48E-06,0.020662501
,,,-2.47E-06,0.020719376
,,,-2.46E-06,0.020814376
,,,-2.45E-06,0.020571876
,,,-2.44E-06,0.020733751
,,,-2.43E-06,0.020515626
,,,-2.42E-06,0.020535626
,,,-2.41E-06,0.020597501
,,,-2.4E-06,0.020723751
,,,-2.39E-06,0.020498126
,,,-2.38E-06,0.020557501
,,,-2.37E-06,0.020416876
,,,-2.36E-06,0.020815626
,,,-2.35E-06,0.020610001
,,,-2.34E-06,0.020727501
,,,-2.33E-06,0.020599376
,,,-2.32E-06,0.020743751
,,,-2.31E-06,0.020710626
,,,-2.3E-06,0.020518126
,,,-2.29E-06,0.020641876
,,,-2.28E-06,0.020493126
,,,-2.27E-06,0.020599376
,,,-2.26E-06,0.020636876
,,,-2.25E-06,0.020775001
,,,-2.24E-06,0.020651251
,,,-2.23E-06,0.020831251
,,,-2.22E-06,0.020740001
,,,-2.21E-06,0.020821251
,,,-2.2E-06,0.020376876
,,,-2.19E-06,0.020727501
,,,-2.18E-06,0.020618126
,,,-2.17E-06,0.020538126
,,,-2.16E-06,0.020729376
,,,-2.15E-06,0.020518751
,,,-2.14E-06,0.020818751
,,,-2.13E-06,0.020562501
,,,-2.12E-06,0.020556876
,,,-2.11E-06,0.020531876
,,,-2.1E-06,0.020490626
,,,-2.09E-06,0.020583751
,,,-2.08E-06,0.020768751
,,,-2.07E-06,0.020676876
,,,-2.06E-06,0.020570001
,,,-2.05E-06,0.020566876
,,,-2.04E-06,0.020378126
,,,-2.03E-06,0.020855626
,,,-2.02E-06,0.020661251
,,,-2.01E-06,0.020474376
,,,-2E-06,0.020511251
,,,-1.99E-06,0.020721251
,,,-1.98E-06,0.020392501
,,,-1.97E-06,0.020565001
,,,-1.96E-06,0.020742501
,,,-1.95E-06,0.020663751
,,,-1.94E-06,0.020591876
,,,-1.93E-06,0.020692501
,,,-1.92E-06,0.020947501
,,,-1.91E-06,0.020896876
,,,-1.9E-06,0.020673751
,,,-1.89E-06,0.020486251
,,,-1.88E-06,0.020903751
,,,-1.87E-06,0.020533126
,,,-1.86E-06,0.020803751
,,,-1.85E-06,0.020639376
,,,-1.84E-06,0.020839376
,,,-1.83E-06,0.020358751
,,,-1.82E-06,0.020425626
,,,-1.81E-06,0.020460001
,,,-1.8E-06,0.020801251
,,,-1.79E-06,0.020412501
,,,-1.78E-06,0.020629376
,,,-1.77E-06,0.020622501
,,,-1.76E-06,0.020655001
,,,-1.75E-06,0.020850001
,,,-1.74E-06,0.020620626
,,,-1.73E-06,0.020738126
,,,-1.72E-06,0.020391876
,,,-1.71E-06,0.020608126
,,,-1.7E-06,0.020839376
,,,-1.69E-06,0.020925626
,,,-1.68E-06,0.020763126
,,,-1.67E-06,0.020740001
,,,-1.66E-06,0.020539376
,,,-1.65E-06,0.020806251
,,,-1.64E-06,0.020782501
,,,-1.63E-06,0.020612501
,,,-1.62E-06,0.020811251
,,,-1.61E-06,0.020708126
,,,-1.6E-06,0.020676251
,,,-1.59E-06,0.020723751
,,,-1.58E-06,0.020815626
,,,-1.57E-06,0.020862501
,,,-1.56E-06,0.020809376
,,,-1.55E-06,0.020526876
,,,-1.54E-06,0.020606251
,,,-1.53E-06,0.020479376
,,,-1.52E-06,0.020708751
,,,-1.51E-06,0.020756251
,,,-1.5E-06,0.020671876
,,,-1.49E-06,0.020651876
,,,-1.48E-06,0.020829376
,,,-1.47E-06,0.020673126
,,,-1.46E-06,0.020452501
,,,-1.45E-06,0.020546876
,,,-1.44E-06,0.020556876
,,,-1.43E-06,0.020658751
,,,-1.42E-06,0.020533126
,,,-1.41E-06,0.020676876
,,,-1.4E-06,0.020558751
,,,-1.39E-06,0.020481876
,,,-1.38E-06,0.020645001
,,,-1.37E-06,0.020624376
,,,-1.36E-06,0.020772501
,,,-1.35E-06,0.020634376
,,,-1.34E-06,0.020722501
,,,-1.33E-06,0.020606876
,,,-1.32E-06,0.020468126
,,,-1.31E-06,0.020659376
,,,-1.3E-06,0.020732501
,,,-1.29E-06,0.020733126
,,,-1.28E-06,0.020635001
,,,-1.27E-06,0.020761251
,,,-1.26E-06,0.020733751
,,,-1.25E-06,0.020895626
,,,-1.24E-06,0.020805001
,,,-1.23E-06,0.020740001
,,,-1.22E-06,0.020614376
,,,-1.21E-06,0.020630001
,,,-1.2E-06,0.020691251
,,,-1.19E-06,0.020586251
,,,-1.18E-06,0.020702501
,,,-1.17E-06,0.020759376
,,,-1.16E-06,0.020664376
,,,-1.15E-06,0.020636876
,,,-1.14E-06,0.020688751
,,,-1.13E-06,0.020795626
,,,-1.12E-06,0.020551876
,,,-1.11E-06,0.020383126
,,,-1.1E-06,0.020735001
,,,-1.09E-06,0.020910001
,,,-1.08E-06,0.020631876
,,,-1.07E-06,0.020418751
,,,-1.06E-06,0.020480001
,,,-1.05E-06,0.020682501
,,,-1.04E-06,0.020455001
,,,-1.03E-06,0.020685626
,,,-1.02E-06,0.020475626
,,,-1.01E-06,0.020749376
,,,-1E-06,0.020514376
,,,-9.9E-07,0.020672501
,,,-9.8E-07,0.020598751
,,,-9.7E-07,0.020673126
,,,-9.6E-07,0.020497501
,,,-9.5E-07,0.020646876
,,,-9.4E-07,0.020626251
,,,-9.3E-07,0.020724376
,,,-9.2E-07,0.021112501
,,,-9.1E-07,0.020571251
,,,-9E-07,0.020568126
,,,-8.9E-07,0.020591876
,,,-8.8E-07,0.020560626
,,,-8.7E-07,0.020688751
,,,-8.6E-07,0.020691251
,,,-8.5E-07,0.020861251
,,,-8.4E-07,0.020663126
,,,-8.3E-07,0.020463126
,,,-8.2E-07,0.020716251
,,,-8.1E-07,0.020706251
,,,-8E-07,0.020682501
,,,-7.9E-07,0.020773751
,,,-7.8E-07,0.020678751
,,,-7.7E-07,0.020622501
,,,-7.6E-07,0.020957501
,,,-7.5E-07,0.020755626
,,,-7.4E-07,0.020887501
,,,-7.3E-07,0.020417501
,,,-7.2E-07,0.020596251
,,,-7.1E-07,0.020493751
,,,-7E-07,0.020723126
,,,-6.9E-07,0.020540001
,,,-6.8E-07,0.020670001
,,,-6.7E-07,0.020758751
,,,-6.6E-07,0.020648751
,,,-6.5E-07,0.020388751
,,,-6.4E-07,0.020651251
,,,-6.3E-07,0.020681251
,,,-6.2E-07,0.020617501
,,,-6.1E-07,0.020420001
,,,-6E-07,0.020690001
,,,-5.9E-07,0.020945001
,,,-5.8E-07,0.020704376
,,,-5.7E-07,0.020463751
,,,-5.6E-07,0.020545626
,,,-5.5E-07,0.020630001
,,,-5.4E-07,0.020551876
,,,-5.3E-07,0.020827501
,,,-5.2E-07,0.020546251
,,,-5.1E-07,0.020854376
,,,-5E-07,0.020675001
,,,-4.9E-07,0.020611876
,,,-4.8E-07,0.020489376
,,,-4.7E-07,0.020606876
,,,-4.6E-07,0.020517501
,,,-4.5E-07,0.020798126
,,,-4.4E-07,0.020802501
,,,-4.3E-07,0.020925001
,,,-4.2E-07,0.020666251
,,,-4.1E-07,0.020767501
,,,-4E-07,0.020525626
,,,-3.9E-07,0.020626876
,,,-3.8E-07,0.020433751
,,,-3.7E-07,0.020620626
,,,-3.6E-07,0.020627501
,,,-3.5E-07,0.020581876
,,,-3.4E-07,0.020425001
,,,-3.3E-07,0.020771876
,,,-3.2E-07,0.020775001
,,,-3.1E-07,0.020721251
,,,-3E-07,0.020522501
,,,-2.9E-07,0.020781876
,,,-2.8E-07,0.020570626
,,,-2.7E-07,0.020602501
,,,-2.6E-07,0.020718751
,,,-2.5E-07,0.020920626
,,,-2.4E-07,0.020618126
,,,-2.3E-07,0.020551876
,,,-2.2E-07,0.020466876
,,,-2.1E-07,0.020611251
,,,-2E-07,0.020681876
,,,-1.9E-07,0.020592501
,,,-1.8E-07,0.020748751
,,,-1.7E-07,0.020739376
,,,-1.6E-07,0.020555001
,,,-1.5E-07,0.020636251
,,,-1.4E-07,0.020763126
,,,-1.3E-07,0.020701876
,,,-1.2E-07,0.020597501
,,,-1.1E-07,0.020492501
,,,-1E-07,0.020964376
,,,-9E-08,0.020493751
,,,-8E-08,0.020636251
,,,-7E-08,0.020558126
,,,-6E-08,0.020514376
,,,-5E-08,0.020535626
,,,-4E-08,0.020863751
,,,-3E-08,0.022855001
,,,-2E-08,0.019062501
,,,-1E-08,0.017641876
,,,0,0.017222501
,,,1E-08,0.022894376
,,,2E-08,0.024689376
,,,3E-08,0.024170001
,,,4E-08,0.020107501
,,,5E-08,0.018012501
,,,6E-08,0.017236251
,,,7E-08,0.019438751
,,,8E-08,0.021136876
,,,9E-08,0.022886876
,,,1E-07,0.022390626
,,,1.1E-07,0.021391876
,,,1.2E-07,0.019608751
,,,1.3E-07,0.019056876
,,,1.4E-07,0.019528751
,,,1.5E-07,0.020809376
,,,1.6E-07,0.021225626
,,,1.7E-07,0.021166251
,,,1.8E-07,0.020741876
,,,1.9E-07,0.020981251
,,,2E-07,0.020554376
,,,2.1E-07,0.020045626
,,,2.2E-07,0.020405626
,,,2.3E-07,0.020730001
,,,2.4E-07,0.020930001
,,,2.5E-07,0.020590626
,,,2.6E-07,0.020714376
,,,2.7E-07,0.020722501
,,,2.8E-07,0.020713126
,,,2.9E-07,0.020584376
,,,3E-07,0.020780626
,,,3.1E-07,0.020600001
,,,3.2E-07,0.020709376
,,,3.3E-07,0.020742501
,,,3.4E-07,0.020820001
,,,3.5E-07,0.020756876
,,,3.6E-07,0.020614376
,,,3.7E-07,0.020753126
,,,3.8E-07,0.020693751
,,,3.9E-07,0.020361876
,,,4E-07,0.020646876
,,,4.1E-07,0.020655001
,,,4.2E-07,0.020746251
,,,4.3E-07,0.020669376
,,,4.4E-07,0.020756251
,,,4.5E-07,0.020719376
,,,4.6E-07,0.020567501
,,,4.7E-07,0.020399376
,,,4.8E-07,0.020618126
,,,4.9E-07,0.020728751
,,,5E-07,0.020763751
,,,5.1E-07,0.020520626
,,,5.2E-07,0.020980001
,,,5.3E-07,0.020198751
,,,5.4E-07,0.020386251
,,,5.5E-07,0.020640001
,,,5.6E-07,0.020627501
,,,5.7E-07,0.020564376
,,,5.8E-07,0.020750001
,,,5.9E-07,0.020936251
,,,6E-07,0.020233126
,,,6.1E-07,0.020279376
,,,6.2E-07,0.020540001
,,,6.3E-07,0.020801876
,,,6.4E-07,0.020663751
,,,6.5E-07,0.020917501
,,,6.6E-07,0.020485001
,,,6.7E-07,0.020986251
,,,6.8E-07,0.020567501
,,,6.9E-07,0.020573751
,,,7E-07,0.020355001
,,,7.1E-07,0.020636251
,,,7.2E-07,0.020723751
,,,7.3E-07,0.020506876
,,,7.4E-07,0.020540001
,,,7.5E-07,0.020626251
,,,7.6E-07,0.020430626
,,,7.7E-07,0.020543751
,,,7.8E-07,0.020554376
,,,7.9E-07,0.020663126
,,,8E-07,0.020538126
,,,8.1E-07,0.020786876
,,,8.2E-07,0.020270001
,,,8.3E-07,0.020821251
,,,8.4E-07,0.020563126
,,,8.5E-07,0.020908751
,,,8.6E-07,0.020546876
,,,8.7E-07,0.020556251
,,,8.8E-07,0.020748126
,,,8.9E-07,0.020699376
,,,9E-07,0.020610626
,,,9.1E-07,0.020658751
,,,9.2E-07,0.020783126
,,,9.3E-07,0.020763126
,,,9.4E-07,0.020460001
,,,9.5E-07,0.020548126
,,,9.6E-07,0.020784376
,,,9.7E-07,0.020546876
,,,9.8E-07,0.020574376
,,,9.9E-07,0.020826876
,,,1E-06,0.020675626
,,,1.01E-06,0.020541876
,,,1.02E-06,0.020504376
,,,1.03E-06,0.020455626
,,,1.04E-06,0.020825001
,,,1.05E-06,0.020798126
,,,1.06E-06,0.020486876
,,,1.07E-06,0.020698126
,,,1.08E-06,0.020686876
,,,1.09E-06,0.020583751
,,,1.1E-06,0.020466876
,,,1.11E-06,0.020451876
,,,1.12E-06,0.020600626
,,,1.13E-06,0.020676251
,,,1.14E-06,0.020632501
,,,1.15E-06,0.020540001
,,,1.16E-06,0.020791251
,,,1.17E-06,0.020783126
,,,1.18E-06,0.020834376
,,,1.19E-06,0.020321251
,,,1.2E-06,0.020483751
,,,1.21E-06,0.020432501
,,,1.22E-06,0.020703126
,,,1.23E-06,0.020644376
,,,1.24E-06,0.020693751
,,,1.25E-06,0.020536876
,,,1.26E-06,0.020580626
,,,1.27E-06,0.020632501
,,,1.28E-06,0.020845001
,,,1.29E-06,0.020501251
,,,1.3E-06,0.020608751
,,,1.31E-06,0.020648751
,,,1.32E-06,0.020886251
,,,1.33E-06,0.020565626
,,,1.34E-06,0.020512501
,,,1.35E-06,0.020495626
,,,1.36E-06,0.020594376
,,,1.37E-06,0.020650626
,,,1.38E-06,0.020552501
,,,1.39E-06,0.020624376
,,,1.4E-06,0.020753126
,,,1.41E-06,0.020631251
,,,1.42E-06,0.020395001
,,,1.43E-06,0.020723751
,,,1.44E-06,0.020686876
,,,1.45E-06,0.020408751
,,,1.46E-06,0.020320626
,,,1.47E-06,0.020544376
,,,1.48E-06,0.020666251
,,,1.49E-06,0.020431876
,,,1.5E-06,0.020450626
,,,1.51E-06,0.020652501
,,,1.52E-06,0.020522501
,,,1.53E-06,0.020504376
,,,1.54E-06,0.020601876
,,,1.55E-06,0.020895626
,,,1.56E-06,0.020815626
,,,1.57E-06,0.020732501
,,,1.58E-06,0.020565626
,,,1.59E-06,0.020665626
,,,1.6E-06,0.020595001
,,,1.61E-06,0.020724376
,,,1.62E-06,0.020445626
,,,1.63E-06,0.020663126
,,,1.64E-06,0.020811876
,,,1.65E-06,0.020784376
,,,1.66E-06,0.020406251
,,,1.67E-06,0.020340626
,,,1.68E-06,0.020679376
,,,1.69E-06,0.020523751
,,,1.7E-06,0.020564376
,,,1.71E-06,0.020785001
,,,1.72E-06,0.020687501
,,,1.73E-06,0.020681876
,,,1.74E-06,0.020596251
,,,1.75E-06,0.020552501
,,,1.76E-06,0.020353751
,,,1.77E-06,0.020425626
,,,1.78E-06,0.020816251
,,,1.79E-06,0.020722501
,,,1.8E-06,0.020617501
,,,1.81E-06,0.020656876
,,,1.82E-06,0.020646251
,,,1.83E-06,0.020742501
,,,1.84E-06,0.020609376
,,,1.85E-06,0.020768126
,,,1.86E-06,0.020546876
,,,1.87E-06,0.020502501
,,,1.88E-06,0.020806876
,,,1.89E-06,0.020568751
,,,1.9E-06,0.020573126
,,,1.91E-06,0.020414376
,,,1.92E-06,0.020771251
,,,1.93E-06,0.020401876
,,,1.94E-06,0.020465626
,,,1.95E-06,0.020713751
,,,1.96E-06,0.020751876
,,,1.97E-06,0.020757501
,,,1.98E-06,0.020651876
,,,1.99E-06,0.020680626
,,,2E-06,0.020544376
,,,2.01E-06,0.020758126
,,,2.02E-06,0.020741251
,,,2.03E-06,0.020455626
,,,2.04E-06,0.020696251
,,,2.05E-06,0.020676251
,,,2.06E-06,0.020755001
,,,2.07E-06,0.020689376
,,,2.08E-06,0.020587501
,,,2.09E-06,0.020632501
,,,2.1E-06,0.020677501
,,,2.11E-06,0.020789376
,,,2.12E-06,0.020635626
,,,2.13E-06,0.020670626
,,,2.14E-06,0.020351251
,,,2.15E-06,0.020605001
,,,2.16E-06,0.020549376
,,,2.17E-06,0.020568751
,,,2.18E-06,0.020581251
,,,2.19E-06,0.020604376
,,,2.2E-06,0.020541251
,,,2.21E-06,0.020703126
,,,2.22E-06,0.020666876
,,,2.23E-06,0.020578751
,,,2.24E-06,0.020696251
,,,2.25E-06,0.020837501
,,,2.26E-06,0.020617501
,,,2.27E-06,0.020718126
,,,2.28E-06,0.020733126
,,,2.29E-06,0.020692501
,,,2.3E-06,0.020460001
,,,2.31E-06,0.020790001
,,,2.32E-06,0.020850626
,,,2.33E-06,0.020471876
,,,2.34E-06,0.020480626
,,,2.35E-06,0.020531251
,,,2.36E-06,0.020593126
,,,2.37E-06,0.020582501
,,,2.38E-06,0.020938751
,,,2.39E-06,0.020649376
,,,2.4E-06,0.020619376
,,,2.41E-06,0.020780001
,,,2.42E-06,0.020644376
,,,2.43E-06,0.020688126
,,,2.44E-06,0.020680626
,,,2.45E-06,0.020791876
,,,2.46E-06,0.020418751
,,,2.47E-06,0.020483126
,,,2.48E-06,0.020744376
,,,2.49E-06,0.020791876
,,,2.5E-06,0.020736251
,,,2.51E-06,0.020575001
,,,2.52E-06,0.020726251
,,,2.53E-06,0.020761876
,,,2.54E-06,0.020796251
,,,2.55E-06,0.020572501
,,,2.56E-06,0.020641251
,,,2.57E-06,0.020580626
,,,2.58E-06,0.020711876
,,,2.59E-06,0.020594376
,,,2.6E-06,0.020786251
,,,2.61E-06,0.020801251
,,,2.62E-06,0.020615626
,,,2.63E-06,0.020852501
,,,2.64E-06,0.020824376
,,,2.65E-06,0.020840626
,,,2.66E-06,0.020835001
,,,2.67E-06,0.020539376
,,,2.68E-06,0.020604376
,,,2.69E-06,0.020596251
,,,2.7E-06,0.020715001
,,,2.71E-06,0.020876251
,,,2.72E-06,0.020789376
,,,2.73E-06,0.020482501
,,,2.74E-06,0.020503126
,,,2.75E-06,0.020735001
,,,2.76E-06,0.020513751
,,,2.77E-06,0.020691251
,,,2.78E-06,0.020672501
,,,2.79E-06,0.020525001
,,,2.8E-06,0.020685626
,,,2.81E-06,0.020732501
,,,2.82E-06,0.020527501
,,,2.83E-06,0.020724376
,,,2.84E-06,0.020576251
,,,2.85E-06,0.020535626
,,,2.86E-06,0.020557501
,,,2.87E-06,0.020781876
,,,2.88E-06,0.020565001
,,,2.89E-06,0.020903751
,,,2.9E-06,0.020576876
,,,2.91E-06,0.020756876
,,,2.92E-06,0.020376251
,,,2.93E-06,0.020781876
,,,2.94E-06,0.020620626
,,,2.95E-06,0.020591876
,,,2.96E-06,0.020698751
,,,2.97E-06,0.020664376
,,,2.98E-06,0.020507501
,,,2.99E-06,0.020701876
,,,3E-06,0.020691876
,,,3.01E-06,0.020476876
,,,3.02E-06,0.020573751
,,,3.03E-06,0.020519376
,,,3.04E-06,0.020718751
,,,3.05E-06,0.020768751
,,,3.06E-06,0.020698126
,,,3.07E-06,0.020765626
,,,3.08E-06,0.020544376
,,,3.09E-06,0.020545001
,,,3.1E-06,0.020800626
,,,3.11E-06,0.020700626
,,,3.12E-06,0.020584376
,,,3.13E-06,0.020654376
,,,3.14E-06,0.020593751
,,,3.15E-06,0.020679376
,,,3.16E-06,0.020531251
,,,3.17E-06,0.020630626
,,,3.18E-06,0.020648751
,,,3.19E-06,0.020516876
,,,3.2E-06,0.020671876
,,,3.21E-06,0.020924376
