data/raw/Final_POL_Test_1/SOP077_Ch3.csv

"Record Length",1000,"Points",-5E-06,0.016498126
"Sample Interval",1E-08,s,-4.99E-06,0.016693126
"Trigger Point",500,"Samples",-4.98E-06,0.016741251
"Trigger Time",0,s,-4.97E-06,0.016635001
"",,,-4.96E-06,0.016705001
"Horizontal Offset",-5E-06,s,-4.95E-06,0.016910001
,,,-4.94E-06,0.016705626
,,,-4.93E-06,0.016842501
,,,-4.92E-06,0.016785001
,,,-4.91E-06,0.016838751
,,,-4.9E-06,0.016700626
,,,-4.89E-06,0.016731876
,,,-4.88E-06,0.016326876
,,,-4.87E-06,0.016811251
,,,-4.86E-06,0.016513126
,,,-4.85E-06,0.016503751
,,,-4.84E-06,0.016806251
,,,-4.83E-06,0.016460001
,,,-4.82E-06,0.016582501
,,,-4.81E-06,0.016543126
,,,-4.8E-06,0.016770626
,,,-4.79E-06,0.016755001
,,,-4.78E-06,0.016720001
,,,-4.77E-06,0.016811251
,,,-4.76E-06,0.016885001
,,,-4.75E-06,0.016827501
,,,-4.74E-06,0.016591876
,,,-4.73E-06,0.016592501
,,,-4.72E-06,0.016831876
,,,-4.71E-06,0.016560001
,,,-4.7E-06,0.016761251
,,,-4.69E-06,0.016823126
,,,-4.68E-06,0.016860001
,,,-4.67E-06,0.016621251
,,,-4.66E-06,0.016864376
,,,-4.65E-06,0.016905001
,,,-4.64E-06,0.016663751
,,,-4.63E-06,0.016779376
,,,-4.62E-06,0.016698751
,,,-4.61E-06,0.016508751
,,,-4.6E-06,0.016848126
,,,-4.59E-06,0.016768751
,,,-4.58E-06,0.016456251
,,,-4.57E-06,0.016805626
,,,-4.56E-06,0.016906876
,,,-4.55E-06,0.016805001
,,,-4.54E-06,0.016742501
,,,-4.53E-06,0.016500626
,,,-4.52E-06,0.016708751
,,,-4.51E-06,0.016703751
,,,-4.5E-06,0.016947501
,,,-4.49E-06,0.016692501
,,,-4.48E-06,0.016836876
,,,-4.47E-06,0.016680626
,,,-4.46E-06,0.016488751
,,,-4.45E-06,0.016668126
,,,-4.44E-06,0.016488751
,,,-4.43E-06,0.016755626
,,,-4.42E-06,0.016729376
,,,-4.41E-06,0.016818126
,,,-4.4E-06,0.016878751
,,,-4.39E-06,0.016695001
,,,-4.38E-06,0.016678751
,,,-4.37E-06,0.016461876
,,,-4.36E-06,0.016553126
,,,-4.35E-06,0.016466251
,,,-4.34E-06,0.017134376
,,,-4.33E-06,0.016746251
,,,-4.32E-06,0.016685626
,,,-4.31E-06,0.016418126
,,,-4.3E-06,0.016576251
,,,-4.29E-06,0.016862501
,,,-4.28E-06,0.016420001
,,,-4.27E-06,0.016528126
,,,-4.26E-06,0.016592501
,,,-4.25E-06,0.016717501
,,,-4.24E-06,0.016641876
,,,-4.23E-06,0.016426876
,,,-4.22E-06,0.017014376
,,,-4.21E-06,0.016693751
,,,-4.2E-06,0.016602501
,,,-4.19E-06,0.016648126
,,,-4.18E-06,0.016911876
,,,-4.17E-06,0.016828126
,,,-4.16E-06,0.016893751
,,,-4.15E-06,0.016690001
,,,-4.14E-06,0.016796876
,,,-4.13E-06,0.016618126
,,,-4.12E-06,0.016678126
,,,-4.11E-06,0.016666876
,,,-4.1E-06,0.016620001
,,,-4.09E-06,0.016682501
,,,-4.08E-06,0.017005001
,,,-4.07E-06,0.016638126
,,,-4.06E-06,0.017018751
,,,-4.05E-06,0.016656876
,,,-4.04E-06,0.016526876
,,,-4.03E-06,0.016518126
,,,-4.02E-06,0.016558751
,,,-4.01E-06,0.016791251
,,,-4E-06,0.016652501
,,,-3.99E-06,0.016647501
,,,-3.98E-06,0.016811876
,,,-3.97E-06,0.016712501
,,,-3.96E-06,0.016738751
,,,-3.95E-06,0.016830626
,,,-3.94E-06,0.016834376
,,,-3.93E-06,0.016907501
,,,-3.92E-06,0.016550626
,,,-3.91E-06,0.016878751
,,,-3.9E-06,0.016964376
,,,-3.89E-06,0.016895001
,,,-3.88E-06,0.016831876
,,,-3.87E-06,0.016580001
,,,-3.86E-06,0.016530001
,,,-3.85E-06,0.016768126
,,,-3.84E-06,0.016791876
,,,-3.83E-06,0.016796876
,,,-3.82E-06,0.016885001
,,,-3.81E-06,0.016853751
,,,-3.8E-06,0.016720001
,,,-3.79E-06,0.016758751
,,,-3.78E-06,0.016686251
,,,-3.77E-06,0.016746251
,,,-3.76E-06,0.016618126
,,,-3.75E-06,0.016745001
,,,-3.74E-06,0.016604376
,,,-3.73E-06,0.016760001
,,,-3.72E-06,0.016504376
,,,-3.71E-06,0.016661251
,,,-3.7E-06,0.016364376
,,,-3.69E-06,0.016465626
,,,-3.68E-06,0.016887501
,,,-3.67E-06,0.016709376
,,,-3.66E-06,0.016678751
,,,-3.65E-06,0.016579376
,,,-3.64E-06,0.016946251
,,,-3.63E-06,0.016789376
,,,-3.62E-06,0.016646876
,,,-3.61E-06,0.016455001
,,,-3.6E-06,0.016688126
,,,-3.59E-06,0.016726876
,,,-3.58E-06,0.016673751
,,,-3.57E-06,0.016807501
,,,-3.56E-06,0.016897501
,,,-3.55E-06,0.016650001
,,,-3.54E-06,0.016458126
,,,-3.53E-06,0.016696251
,,,-3.52E-06,0.016518751
,,,-3.51E-06,0.016615001
,,,-3.5E-06,0.016765001
,,,-3.49E-06,0.016893126
,,,-3.48E-06,0.016867501
,,,-3.47E-06,0.016958751
,,,-3.46E-06,0.016558751
,,,-3.45E-06,0.016490001
,,,-3.44E-06,0.016750626
,,,-3.43E-06,0.016470001
,,,-3.42E-06,0.016587501
,,,-3.41E-06,0.016865626
,,,-3.4E-06,0.016612501
,,,-3.39E-06,0.016839376
,,,-3.38E-06,0.016535626
,,,-3.37E-06,0.016691876
,,,-3.36E-06,0.016625001
,,,-3.35E-06,0.016801251
,,,-3.34E-06,0.016626251
,,,-3.33E-06,0.016495626
,,,-3.32E-06,0.016804376
,,,-3.31E-06,0.016573751
,,,-3.3E-06,0.017091251
,,,-3.29E-06,0.016835626
,,,-3.28E-06,0.016855626
,,,-3.27E-06,0.016667501
,,,-3.26E-06,0.016993751
,,,-3.25E-06,0.016429376
,,,-3.24E-06,0.016753126
,,,-3.23E-06,0.016547501
,,,-3.22E-06,0.016686876
,,,-3.21E-06,0.016448126
,,,-3.2E-06,0.016378751
,,,-3.19E-06,0.016878751
,,,-3.18E-06,0.016670626
,,,-3.17E-06,0.016753751
,,,-3.16E-06,0.016608751
,,,-3.15E-06,0.016840001
,,,-3.14E-06,0.016718751
,,,-3.13E-06,0.016895001
,,,-3.12E-06,0.016796251
,,,-3.11E-06,0.016923751
,,,-3.1E-06,0.016561876
,,,-3.09E-06,0.016896251
,,,-3.08E-06,0.016625001
,,,-3.07E-06,0.017046876
,,,-3.06E-06,0.016980001
,,,-3.05E-06,0.016478751
,,,-3.04E-06,0.016735001
,,,-3.03E-06,0.016609376
,,,-3.02E-06,0.016772501
,,,-3.01E-06,0.016612501
,,,-3E-06,0.016853751
,,,-2.99E-06,0.016858751
,,,-2.98E-06,0.016610001
,,,-2.97E-06,0.016750001
,,,-2.96E-06,0.016446251
,,,-2.95E-06,0.016768126
,,,-2.94E-06,0.016696251
,,,-2.93E-06,0.016831876
,,,-2.92E-06,0.016964376
,,,-2.91E-06,0.016859376
,,,-2.9E-06,0.016597501
,,,-2.89E-06,0.016627501
,,,-2.88E-06,0.016697501
,,,-2.87E-06,0.016536251
,,,-2.86E-06,0.016712501
,,,-2.85E-06,0.016576876
,,,-2.84E-06,0.016790626
,,,-2.83E-06,0.016697501
,,,-2.82E-06,0.017041876
,,,-2.81E-06,0.016773126
,,,-2.8E-06,0.016650001
,,,-2.79E-06,0.016730001
,,,-2.78E-06,0.016705001
,,,-2.77E-06,0.016515001
,,,-2.76E-06,0.016713126
,,,-2.75E-06,0.016696876
,,,-2.74E-06,0.016709376
,,,-2.73E-06,0.016666876
,,,-2.72E-06,0.016502501
,,,-2.71E-06,0.016740626
,,,-2.7E-06,0.016749376
,,,-2.69E-06,0.016661876
,,,-2.68E-06,0.016580001
,,,-2.67E-06,0.016730626
,,,-2.66E-06,0.016591251
,,,-2.65E-06,0.016714376
,,,-2.64E-06,0.016744376
,,,-2.63E-06,0.016480001
,,,-2.62E-06,0.016996251
,,,-2.61E-06,0.016857501
,,,-2.6E-06,0.016554376
,,,-2.59E-06,0.016771876
,,,-2.58E-06,0.016786251
,,,-2.57E-06,0.016648751
,,,-2.56E-06,0.016804376
,,,-2.55E-06,0.016919376
,,,-2.54E-06,0.016668126
,,,-2.53E-06,0.016771876
,,,-2.52E-06,0.016445626
,,,-2.51E-06,0.016835001
,,,-2.5E-06,0.016775001
,,,-2.49E-06,0.016688751
,,,-2.48E-06,0.016436876
,,,-2.47E-06,0.016702501
,,,-2.46E-06,0.016840001
,,,-2.45E-06,0.016810626
,,,-2.44E-06,0.016483751
,,,-2.43E-06,0.016735626
,,,-2.42E-06,0.016880626
,,,-2.41E-06,0.016605001
,,,-2.4E-06,0.016765001
,,,-2.39E-06,0.016916251
,,,-2.38E-06,0.016813751
,,,-2.37E-06,0.016492501
,,,-2.36E-06,0.016700001
,,,-2.35E-06,0.016770626
,,,-2.34E-06,0.016758751
,,,-2.33E-06,0.016686876
,,,-2.32E-06,0.016623126
,,,-2.31E-06,0.016549376
,,,-2.3E-06,0.016831251
,,,-2.29E-06,0.016781251
,,,-2.28E-06,0.016875001
,,,-2.27E-06,0.016725001
,,,-2.26E-06,0.016540001
,,,-2.25E-06,0.016718126
,,,-2.24E-06,0.016846876
,,,-2.23E-06,0.016831876
,,,-2.22E-06,0.016647501
,,,-2.21E-06,0.016692501
,,,-2.2E-06,0.016696251
,,,-2.19E-06,0.016790001
,,,-2.18E-06,0.016810001
,,,-2.17E-06,0.016884376
,,,-2.16E-06,0.016825626
,,,-2.15E-06,0.016622501
,,,-2.14E-06,0.016939376
,,,-2.13E-06,0.016480001
,,,-2.12E-06,0.016734376
,,,-2.11E-06,0.016770001
,,,-2.1E-06,0.016810001
,,,-2.09E-06,0.016849376
,,,-2.08E-06,0.016608126
,,,-2.07E-06,0.016953126
,,,-2.06E-06,0.016781876
,,,-2.05E-06,0.016549376
,,,-2.04E-06,0.016806251
,,,-2.03E-06,0.016675001
,,,-2.02E-06,0.016808751
,,,-2.01E-06,0.016738126
,,,-2E-06,0.016925626
,,,-1.99E-06,0.016799376
,,,-1.98E-06,0.016483126
,,,-1.97E-06,0.016563126
,,,-1.96E-06,0.016341876
,,,-1.95E-06,0.016770001
,,,-1.94E-06,0.016555626
,,,-1.93E-06,0.016748126
,,,-1.92E-06,0.016675626
,,,-1.91E-06,0.016790001
,,,-1.9E-06,0.016787501
,,,-1.89E-06,0.016685001
,,,-1.88E-06,0.016581251
,,,-1.87E-06,0.016768751
,,,-1.86E-06,0.016652501
,,,-1.85E-06,0.016625001
,,,-1.84E-06,0.016785001
,,,-1.83E-06,0.016693126
,,,-1.82E-06,0.016641251
,,,-1.81E-06,0.016670626
,,,-1.8E-06,0.016528751
,,,-1.79E-06,0.017101251
,,,-1.78E-06,0.016541251
,,,-1.77E-06,0.016656251
,,,-1.76E-06,0.016686876
,,,-1.75E-06,0.016832501
,,,-1.74E-06,0.016798751
,,,-1.73E-06,0.016680001
,,,-1.72E-06,0.016727501
,,,-1.71E-06,0.016933751
,,,-1.7E-06,0.016789376
,,,-1.69E-06,0.016806251
,,,-1.68E-06,0.016613126
,,,-1.67E-06,0.016805001
,,,-1.66E-06,0.016284376
,,,-1.65E-06,0.016525626
,,,-1.64E-06,0.016680626
,,,-1.63E-06,0.016486251
,,,-1.62E-06,0.016596251
,,,-1.61E-06,0.016780001
,,,-1.6E-06,0.016615001
,,,-1.59E-06,0.016774376
,,,-1.58E-06,0.016793126
,,,-1.57E-06,0.016745001
,,,-1.56E-06,0.016496251
,,,-1.55E-06,0.016488126
,,,-1.54E-06,0.016769376
,,,-1.53E-06,0.016554376
,,,-1.52E-06,0.016876251
,,,-1.51E-06,0.016584376
,,,-1.5E-06,0.016613126
,,,-1.49E-06,0.016666876
,,,-1.48E-06,0.016647501
,,,-1.47E-06,0.016858751
,,,-1.46E-06,0.016641251
,,,-1.45E-06,0.016698126
,,,-1.44E-06,0.016792501
,,,-1.43E-06,0.016941876
,,,-1.42E-06,0.016618126
,,,-1.41E-06,0.016765001
,,,-1.4E-06,0.016391251
,,,-1.39E-06,0.016828751
,,,-1.38E-06,0.016713126
,,,-1.37E-06,0.016697501
,,,-1.36E-06,0.016661251
,,,-1.35E-06,0.016816251
,,,-1.34E-06,0.016412501
,,,-1.33E-06,0.016845626
,,,-1.32E-06,0.016654376
,,,-1.31E-06,0.016791876
,,,-1.3E-06,0.016676251
,,,-1.29E-06,0.016748126
,,,-1.28E-06,0.016667501
,,,-1.27E-06,0.016612501
,,,-1.26E-06,0.016710001
,,,-1.25E-06,0.016800001
,,,-1.24E-06,0.016649376
,,,-1.23E-06,0.016478751
,,,-1.22E-06,0.016628126
,,,-1.21E-06,0.016623751
,,,-1.2E-06,0.016625626
,,,-1.19E-06,0.016484376
,,,-1.18E-06,0.016540001
,,,-1.17E-06,0.016613751
,,,-1.16E-06,0.016625001
,,,-1.15E-06,0.016783126
,,,-1.14E-06,0.016710626
,,,-1.13E-06,0.016836876
,,,-1.12E-06,0.016684376
,,,-1.11E-06,0.016996876
,,,-1.1E-06,0.016601876
,,,-1.09E-06,0.016995001
,,,-1.08E-06,0.016888126
,,,-1.07E-06,0.016666251
,,,-1.06E-06,0.016819376
,,,-1.05E-06,0.016800001
,,,-1.04E-06,0.016582501
,,,-1.03E-06,0.016746251
,,,-1.02E-06,0.016700626
,,,-1.01E-06,0.016554376
,,,-1E-06,0.016830626
,,,-9.9E-07,0.016781251
,,,-9.8E-07,0.016759376
,,,-9.7E-07,0.016735001
,,,-9.6E-07,0.016625001
,,,-9.5E-07,0.016555626
,,,-9.4E-07,0.016945001
,,,-9.3E-07,0.016718751
,,,-9.2E-07,0.016866876
,,,-9.1E-07,0.016648126
,,,-9E-07,0.016641251
,,,-8.9E-07,0.016734376
,,,-8.8E-07,0.016727501
,,,-8.7E-07,0.016845626
,,,-8.6E-07,0.016473751
,,,-8.5E-07,0.016855001
,,,-8.4E-07,0.016620001
,,,-8.3E-07,0.016760001
,,,-8.2E-07,0.016741876
,,,-8.1E-07,0.016726251
,,,-8E-07,0.016546251
,,,-7.9E-07,0.016608126
,,,-7.8E-07,0.016650001
,,,-7.7E-07,0.016577501
,,,-7.6E-07,0.016775001
,,,-7.5E-07,0.016653126
,,,-7.4E-07,0.016615626
,,,-7.3E-07,0.016796251
,,,-7.2E-07,0.016596876
,,,-7.1E-07,0.016818126
,,,-7E-07,0.016721251
,,,-6.9E-07,0.016648751
,,,-6.8E-07,0.016960001
,,,-6.7E-07,0.017097501
,,,-6.6E-07,0.016598126
,,,-6.5E-07,0.016866251
,,,-6.4E-07,0.016666876
,,,-6.3E-07,0.016740001
,,,-6.2E-07,0.016739376
,,,-6.1E-07,0.016712501
,,,-6E-07,0.016813126
,,,-5.9E-07,0.016803126
,,,-5.8E-07,0.016930626
,,,-5.7E-07,0.016660001
,,,-5.6E-07,0.016585001
,,,-5.5E-07,0.016990626
,,,-5.4E-07,0.016735626
,,,-5.3E-07,0.016495626
,,,-5.2E-07,0.016733751
,,,-5.1E-07,0.016670001
,,,-5E-07,0.016811876
,,,-4.9E-07,0.016574376
,,,-4.8E-07,0.016635626
,,,-4.7E-07,0.016826251
,,,-4.6E-07,0.016775001
,,,-4.5E-07,0.016703126
,,,-4.4E-07,0.016656876
,,,-4.3E-07,0.016571876
,,,-4.2E-07,0.016648751
,,,-4.1E-07,0.016717501
,,,-4E-07,0.017113126
,,,-3.9E-07,0.016859376
,,,-3.8E-07,0.016924376
,,,-3.7E-07,0.016941251
,,,-3.6E-07,0.016682501
,,,-3.5E-07,0.016781876
,,,-3.4E-07,0.016625626
,,,-3.3E-07,0.016650626
,,,-3.2E-07,0.016681876
,,,-3.1E-07,0.016905001
,,,-3E-07,0.016503126
,,,-2.9E-07,0.016862501
,,,-2.8E-07,0.016718126
,,,-2.7E-07,0.016768751
,,,-2.6E-07,0.016961251
,,,-2.5E-07,0.016714376
,,,-2.4E-07,0.016651876
,,,-2.3E-07,0.016745626
,,,-2.2E-07,0.016735001
,,,-2.1E-07,0.016725626
,,,-2E-07,0.016348126
,,,-1.9E-07,0.016925001
,,,-1.8E-07,0.016731251
,,,-1.7E-07,0.016640626
,,,-1.6E-07,0.016649376
,,,-1.5E-07,0.016701876
,,,-1.4E-07,0.016834376
,,,-1.3E-07,0.016427501
,,,-1.2E-07,0.016486251
,,,-1.1E-07,0.016534376
,,,-1E-07,0.016637501
,,,-9E-08,0.016790626
,,,-8E-08,0.016568751
,,,-7E-08,0.016551251
,,,-6E-08,0.016703126
,,,-5E-08,0.017045001
,,,-4E-08,0.017645001
,,,-3E-08,0.017392501
,,,-2E-08,0.015607501
,,,-1E-08,0.014582501
,,,0,0.013953126
,,,1E-08,0.018104376
,,,2E-08,0.019550626
,,,3E-08,0.019905626
,,,4E-08,0.016436251
,,,5E-08,0.014990001
,,,6E-08,0.014120001
,,,7E-08,0.015556251
,,,8E-08,0.017080001
,,,9E-08,0.018325001
,,,1E-07,0.018206876
,,,1.1E-07,0.017198126
,,,1.2E-07,0.016013126
,,,1.3E-07,0.015573126
,,,1.4E-07,0.016126876
,,,1.5E-07,0.016798126
,,,1.6E-07,0.017085626
,,,1.7E-07,0.017346876
,,,1.8E-07,0.016919376
,,,1.9E-07,0.016808126
,,,2E-07,0.016481876
,,,2.1E-07,0.016400626
,,,2.2E-07,0.016386251
,,,2.3E-07,0.016853751
,,,2.4E-07,0.016837501
,,,2.5E-07,0.016628126
,,,2.6E-07,0.016835001
,,,2.7E-07,0.016638751
,,,2.8E-07,0.016706876
,,,2.9E-07,0.016832501
,,,3E-07,0.016786876
,,,3.1E-07,0.016723126
,,,3.2E-07,0.016903751
,,,3.3E-07,0.016769376
,,,3.4E-07,0.016776251
,,,3.5E-07,0.016733751
,,,3.6E-07,0.016790001
,,,3.7E-07,0.016696876
,,,3.8E-07,0.016893751
,,,3.9E-07,0.016740001
,,,4E-07,0.017007501
,,,4.1E-07,0.016461876
,,,4.2E-07,0.017028126
,,,4.3E-07,0.016669376
,,,4.4E-07,0.016383751
,,,4.5E-07,0.016459376
,,,4.6E-07,0.016553126
,,,4.7E-07,0.016665626
,,,4.8E-07,0.016465001
,,,4.9E-07,0.016850001
,,,5E-07,0.016725001
,,,5.1E-07,0.016552501
,,,5.2E-07,0.016752501
,,,5.3E-07,0.016781876
,,,5.4E-07,0.016526251
,,,5.5E-07,0.016831251
,,,5.6E-07,0.016758126
,,,5.7E-07,0.016632501
,,,5.8E-07,0.016758126
,,,5.9E-07,0.016685001
,,,6E-07,0.016645626
,,,6.1E-07,0.016673751
,,,6.2E-07,0.016720001
,,,6.3E-07,0.016621876
,,,6.4E-07,0.016596251
,,,6.5E-07,0.016753126
,,,6.6E-07,0.016633751
,,,6.7E-07,0.016801876
,,,6.8E-07,0.016749376
,,,6.9E-07,0.016660626
,,,7E-07,0.016617501
,,,7.1E-07,0.016623126
,,,7.2E-07,0.016928126
,,,7.3E-07,0.016756876
,,,7.4E-07,0.016525626
,,,7.5E-07,0.017025001
,,,7.6E-07,0.016655001
,,,7.7E-07,0.016706876
,,,7.8E-07,0.016714376
,,,7.9E-07,0.016991251
,,,8E-07,0.016815626
,,,8.1E-07,0.016789376
,,,8.2E-07,0.016628751
,,,8.3E-07,0.016785001
,,,8.4E-07,0.016955626
,,,8.5E-07,0.016903751
,,,8.6E-07,0.016557501
,,,8.7E-07,0.016748751
,,,8.8E-07,0.016795001
,,,8.9E-07,0.016579376
,,,9E-07,0.016799376
,,,9.1E-07,0.016791876
,,,9.2E-07,0.016641876
,,,9.3E-07,0.016566876
,,,9.4E-07,0.016828126
,,,9.5E-07,0.016353751
,,,9.6E-07,0.016644376
,,,9.7E-07,0.016745626
,,,9.8E-07,0.016943751
,,,9.9E-07,0.016825626
,,,1E-06,0.016565001
,,,1.01E-06,0.016590626
,,,1.02E-06,0.016951876
,,,1.03E-06,0.016605626
,,,1.04E-06,0.016795001
,,,1.05E-06,0.016959376
,,,1.06E-06,0.016712501
,,,1.07E-06,0.016646876
,,,1.08E-06,0.016877501
,,,1.09E-06,0.016753751
,,,1.1E-06,0.016596251
,,,1.11E-06,0.016626251
,,,1.12E-06,0.016738751
,,,1.13E-06,0.016616876
,,,1.14E-06,0.016746876
,,,1.15E-06,0.016712501
,,,1.16E-06,0.016955001
,,,1.17E-06,0.016750001
,,,1.18E-06,0.016750626
,,,1.19E-06,0.016713126
,,,1.2E-06,0.016825626
,,,1.21E-06,0.016637501
,,,1.22E-06,0.016738126
,,,1.23E-06,0.016600626
,,,1.24E-06,0.016658126
,,,1.25E-06,0.016823751
,,,1.26E-06,0.016433751
,,,1.27E-06,0.016825626
,,,1.28E-06,0.016770001
,,,1.29E-06,0.016367501
,,,1.3E-06,0.016565626
,,,1.31E-06,0.016640626
,,,1.32E-06,0.016748751
,,,1.33E-06,0.016636251
,,,1.34E-06,0.016965626
,,,1.35E-06,0.016560626
,,,1.36E-06,0.016653751
,,,1.37E-06,0.016900001
,,,1.38E-06,0.016731251
,,,1.39E-06,0.016590001
,,,1.4E-06,0.016790001
,,,1.41E-06,0.016831876
,,,1.42E-06,0.016983126
,,,1.43E-06,0.016608126
,,,1.44E-06,0.016794376
,,,1.45E-06,0.016555001
,,,1.46E-06,0.016743751
,,,1.47E-06,0.016466876
,,,1.48E-06,0.016633751
,,,1.49E-06,0.016357501
,,,1.5E-06,0.016748751
,,,1.51E-06,0.016944376
,,,1.52E-06,0.016625001
,,,1.53E-06,0.016635001
,,,1.54E-06,0.016555626
,,,1.55E-06,0.016523126
,,,1.56E-06,0.016860001
,,,1.57E-06,0.016575626
,,,1.58E-06,0.016740626
,,,1.59E-06,0.016791876
,,,1.6E-06,0.016513126
,,,1.61E-06,0.016584376
,,,1.62E-06,0.016928751
,,,1.63E-06,0.016675001
,,,1.64E-06,0.016671876
,,,1.65E-06,0.016780001
,,,1.66E-06,0.016661876
,,,1.67E-06,0.016739376
,,,1.68E-06,0.016596251
,,,1.69E-06,0.016638126
,,,1.7E-06,0.016526876
,,,1.71E-06,0.016630001
,,,1.72E-06,0.016627501
,,,1.73E-06,0.016924376
,,,1.74E-06,0.016828751
,,,1.75E-06,0.016513751
,,,1.76E-06,0.016551876
,,,1.77E-06,0.016719376
,,,1.78E-06,0.016626876
,,,1.79E-06,0.016826251
,,,1.8E-06,0.016555626
,,,1.81E-06,0.016704376
,,,1.82E-06,0.016885626
,,,1.83E-06,0.016656251
,,,1.84E-06,0.016551251
,,,1.85E-06,0.016441251
,,,1.86E-06,0.016736251
,,,1.87E-06,0.016710626
,,,1.88E-06,0.016561251
,,,1.89E-06,0.016786876
,,,1.9E-06,0.016728751
,,,1.91E-06,0.016488126
,,,1.92E-06,0.016803751
,,,1.93E-06,0.016865001
,,,1.94E-06,0.016811876
,,,1.95E-06,0.017054376
,,,1.96E-06,0.016632501
,,,1.97E-06,0.016898126
,,,1.98E-06,0.016531251
,,,1.99E-06,0.017002501
,,,2E-06,0.016855626
,,,2.01E-06,0.016778126
,,,2.02E-06,0.016830001
,,,2.03E-06,0.016525626
,,,2.04E-06,0.016713126
,,,2.05E-06,0.016887501
,,,2.06E-06,0.016876876
,,,2.07E-06,0.017090001
,,,2.08E-06,0.016800626
,,,2.09E-06,0.016535626
,,,2.1E-06,0.016560626
,,,2.11E-06,0.016604376
,,,2.12E-06,0.016705001
,,,2.13E-06,0.016986251
,,,2.14E-06,0.016621876
,,,2.15E-06,0.016718751
,,,2.16E-06,0.016725001
,,,2.17E-06,0.016840001
,,,2.18E-06,0.016534376
,,,2.19E-06,0.016665001
,,,2.2E-06,0.016913751
,,,2.21E-06,0.016821251
,,,2.22E-06,0.016472501
,,,2.23E-06,0.016871251
,,,2.24E-06,0.016486876
,,,2.25E-06,0.016636876
,,,2.26E-06,0.016783126
,,,2.27E-06,0.016717501
,,,2.28E-06,0.016745001
,,,2.29E-06,0.016652501
,,,2.3E-06,0.016667501
,,,2.31E-06,0.016723126
,,,2.32E-06,0.016801876
,,,2.33E-06,0.016752501
,,,2.34E-06,0.016626251
,,,2.35E-06,0.016796876
,,,2.36E-06,0.016520626
,,,2.37E-06,0.016715001
,,,2.38E-06,0.016696251
,,,2.39E-06,0.016846251
,,,2.4E-06,0.016615001
,,,2.41E-06,0.016710626
,,,2.42E-06,0.016551251
,,,2.43E-06,0.016598751
,,,2.44E-06,0.016695001
,,,2.45E-06,0.016818126
,,,2.46E-06,0.016618751
,,,2.47E-06,0.016883751
,,,2.48E-06,0.016558126
,,,2.49E-06,0.016758126
,,,2.5E-06,0.016751876
,,,2.51E-06,0.016660626
,,,2.52E-06,0.016407501
,,,2.53E-06,0.016835626
,,,2.54E-06,0.016651876
,,,2.55E-06,0.016790001
,,,2.56E-06,0.016989376
,,,2.57E-06,0.016644376
,,,2.58E-06,0.016748126
,,,2.59E-06,0.016830626
,,,2.6E-06,0.016592501
,,,2.61E-06,0.016793126
,,,2.62E-06,0.017041876
,,,2.63E-06,0.016570626
,,,2.64E-06,0.016652501
,,,2.65E-06,0.016572501
,,,2.66E-06,0.016928126
,,,2.67E-06,0.016736876
,,,2.68E-06,0.016616876
,,,2.69E-06,0.016762501
,,,2.7E-06,0.016777501
,,,2.71E-06,0.016949376
,,,2.72E-06,0.017090001
,,,2.73E-06,0.016803751
,,,2.74E-06,0.016791251
,,,2.75E-06,0.016598126
,,,2.76E-06,0.016599376
,,,2.77E-06,0.016676876
,,,2.78E-06,0.016835001
,,,2.79E-06,0.016666876
,,,2.8E-06,0.016565626
,,,2.81E-06,0.016543751
,,,2.82E-06,0.016671876
,,,2.83E-06,0.016834376
,,,2.84E-06,0.016723126
,,,2.85E-06,0.016689376
,,,2.86E-06,0.016401876
,,,2.87E-06,0.016556251
,,,2.88E-06,0.016809376
,,,2.89E-06,0.016714376
,,,2.9E-06,0.016740001
,,,2.91E-06,0.016732501
,,,2.92E-06,0.016534376
,,,2.93E-06,0.016733751
,,,2.94E-06,0.016637501
,,,2.95E-06,0.016482501
,,,2.96E-06,0.016874376
,,,2.97E-06,0.016778126
,,,2.98E-06,0.016816251
,,,2.99E-06,0.016571876
,,,3E-06,0.016748126
,,,3.01E-06,0.016708126
,,,3.02E-06,0.016634376
,,,3.03E-06,0.016827501
,,,3.04E-06,0.016612501
,,,3.05E-06,0.016677501
,,,3.06E-06,0.016860626
,,,3.07E-06,0.016852501
,,,3.08E-06,0.016566876
,,,3.09E-06,0.016595626
,,,3.1E-06,0.016826251
,,,3.11E-06,0.016717501
,,,3.12E-06,0.016458751
,,,3.13E-06,0.016995001
,,,3.14E-06,0.016681251
,,,3.15E-06,0.016798751
,,,3.16E-06,0.016600626
,,,3.17E-06,0.016513751
,,,3.18E-06,0.016735001
,,,3.19E-06,0.016593751
,,,3.2E-06,0.016530626
,,,3.21E-06,0.016793751
