data/raw/Final_POL_Test_1/SOP098_Ch1.csv

"Record Length",1000,"Points",-5E-06,0.007475625
"Sample Interval",1E-08,s,-4.99E-06,0.00794625
"Trigger Point",500,"Samples",-4.98E-06,0.007555625
"Trigger Time",0,s,-4.97E-06,0.00740375
"",,,-4.96E-06,0.0072775
"Horizontal Offset",-5E-06,s,-4.95E-06,0.00758125
,,,-4.94E-06,0.007649375
,,,-4.93E-06,0.0076675
,,,-4.92E-06,0.007414375
,,,-4.91E-06,0.007415625
,,,-4.9E-06,0.00749375
,,,-4.89E-06,0.00745625
,,,-4.88E-06,0.00754875
,,,-4.87E-06,0.0075675
,,,-4.86E-06,0.007475625
,,,-4.85E-06,0.00723125
,,,-4.84E-06,0.007476875
,,,-4.83E-06,0.00769125
,,,-4.82E-06,0.00739875
,,,-4.81E-06,0.007479375
,,,-4.8E-06,0.00779
,,,-4.79E-06,0.007610625
,,,-4.78E-06,0.007355625
,,,-4.77E-06,0.00743375
,,,-4.76E-06,0.007415625
,,,-4.75E-06,0.00753
,,,-4.74E-06,0.007483125
,,,-4.73E-06,0.00729375
,,,-4.72E-06,0.00747375
,,,-4.71E-06,0.00781875
,,,-4.7E-06,0.00747625
,,,-4.69E-06,0.007310625
,,,-4.68E-06,0.007540625
,,,-4.67E-06,0.00740375
,,,-4.66E-06,0.00719625
,,,-4.65E-06,0.0076
,,,-4.64E-06,0.007795
,,,-4.63E-06,0.007166875
,,,-4.62E-06,0.007344375
,,,-4.61E-06,0.007463125
,,,-4.6E-06,0.007435625
,,,-4.59E-06,0.007393125
,,,-4.58E-06,0.007495625
,,,-4.57E-06,0.007505625
,,,-4.56E-06,0.007591875
,,,-4.55E-06,0.0075725
,,,-4.54E-06,0.007509375
,,,-4.53E-06,0.00755
,,,-4.52E-06,0.00766
,,,-4.51E-06,0.0073425
,,,-4.5E-06,0.0075025
,,,-4.49E-06,0.00729125
,,,-4.48E-06,0.007224375
,,,-4.47E-06,0.007504375
,,,-4.46E-06,0.0075475
,,,-4.45E-06,0.0074325
,,,-4.44E-06,0.0074225
,,,-4.43E-06,0.00747
,,,-4.42E-06,0.00729625
,,,-4.41E-06,0.00750625
,,,-4.4E-06,0.007740625
,,,-4.39E-06,0.00746875
,,,-4.38E-06,0.007529375
,,,-4.37E-06,0.007370625
,,,-4.36E-06,0.007444375
,,,-4.35E-06,0.007464375
,,,-4.34E-06,0.00731625
,,,-4.33E-06,0.0074775
,,,-4.32E-06,0.00747375
,,,-4.31E-06,0.007560625
,,,-4.3E-06,0.00736
,,,-4.29E-06,0.00758
,,,-4.28E-06,0.007231875
,,,-4.27E-06,0.00761625
,,,-4.26E-06,0.0076225
,,,-4.25E-06,0.00730625
,,,-4.24E-06,0.0073075
,,,-4.23E-06,0.007466875
,,,-4.22E-06,0.007565625
,,,-4.21E-06,0.00758625
,,,-4.2E-06,0.007208125
,,,-4.19E-06,0.00761375
,,,-4.18E-06,0.0077125
,,,-4.17E-06,0.00752875
,,,-4.16E-06,0.007706875
,,,-4.15E-06,0.007525625
,,,-4.14E-06,0.00722375
,,,-4.13E-06,0.00769125
,,,-4.12E-06,0.0074525
,,,-4.11E-06,0.007441875
,,,-4.1E-06,0.007685625
,,,-4.09E-06,0.007464375
,,,-4.08E-06,0.00757375
,,,-4.07E-06,0.00763
,,,-4.06E-06,0.00763875
,,,-4.05E-06,0.007735625
,,,-4.04E-06,0.007515
,,,-4.03E-06,0.00747
,,,-4.02E-06,0.00746625
,,,-4.01E-06,0.00735625
,,,-4E-06,0.00732125
,,,-3.99E-06,0.007508125
,,,-3.98E-06,0.0075
,,,-3.97E-06,0.007500625
,,,-3.96E-06,0.007390625
,,,-3.95E-06,0.0073425
,,,-3.94E-06,0.007460625
,,,-3.93E-06,0.007444375
,,,-3.92E-06,0.0074825
,,,-3.91E-06,0.007285
,,,-3.9E-06,0.007339375
,,,-3.89E-06,0.00758125
,,,-3.88E-06,0.007384375
,,,-3.87E-06,0.007350625
,,,-3.86E-06,0.007531875
,,,-3.85E-06,0.007274375
,,,-3.84E-06,0.00759125
,,,-3.83E-06,0.00745
,,,-3.82E-06,0.00741375
,,,-3.81E-06,0.007326875
,,,-3.8E-06,0.007495
,,,-3.79E-06,0.00731
,,,-3.78E-06,0.0076125
,,,-3.77E-06,0.007399375
,,,-3.76E-06,0.007418125
,,,-3.75E-06,0.00735
,,,-3.74E-06,0.007274375
,,,-3.73E-06,0.007400625
,,,-3.72E-06,0.007495625
,,,-3.71E-06,0.007415
,,,-3.7E-06,0.00752625
,,,-3.69E-06,0.007333125
,,,-3.68E-06,0.00734125
,,,-3.67E-06,0.007515625
,,,-3.66E-06,0.007359375
,,,-3.65E-06,0.007373125
,,,-3.64E-06,0.0075675
,,,-3.63E-06,0.007373125
,,,-3.62E-06,0.00735625
,,,-3.61E-06,0.007346875
,,,-3.6E-06,0.007279375
,,,-3.59E-06,0.00745
,,,-3.58E-06,0.00742875
,,,-3.57E-06,0.007489375
,,,-3.56E-06,0.007605
,,,-3.55E-06,0.007365
,,,-3.54E-06,0.00739625
,,,-3.53E-06,0.007454375
,,,-3.52E-06,0.007486875
,,,-3.51E-06,0.00752625
,,,-3.5E-06,0.00740125
,,,-3.49E-06,0.007394375
,,,-3.48E-06,0.007510625
,,,-3.47E-06,0.007664375
,,,-3.46E-06,0.00752125
,,,-3.45E-06,0.007515
,,,-3.44E-06,0.00743375
,,,-3.43E-06,0.00740125
,,,-3.42E-06,0.007494375
,,,-3.41E-06,0.0073375
,,,-3.4E-06,0.0075075
,,,-3.39E-06,0.007515
,,,-3.38E-06,0.007566875
,,,-3.37E-06,0.00707375
,,,-3.36E-06,0.007265625
,,,-3.35E-06,0.0073525
,,,-3.34E-06,0.007501875
,,,-3.33E-06,0.007504375
,,,-3.32E-06,0.007850625
,,,-3.31E-06,0.00715
,,,-3.3E-06,0.007375
,,,-3.29E-06,0.00749375
,,,-3.28E-06,0.00735
,,,-3.27E-06,0.00726625
,,,-3.26E-06,0.007871875
,,,-3.25E-06,0.007405
,,,-3.24E-06,0.00746625
,,,-3.23E-06,0.00757
,,,-3.22E-06,0.00745125
,,,-3.21E-06,0.00743875
,,,-3.2E-06,0.007550625
,,,-3.19E-06,0.007481875
,,,-3.18E-06,0.007470625
,,,-3.17E-06,0.007484375
,,,-3.16E-06,0.00753125
,,,-3.15E-06,0.00751875
,,,-3.14E-06,0.0074475
,,,-3.13E-06,0.00744125
,,,-3.12E-06,0.007475
,,,-3.11E-06,0.00771625
,,,-3.1E-06,0.007179375
,,,-3.09E-06,0.007410625
,,,-3.08E-06,0.007725625
,,,-3.07E-06,0.00757125
,,,-3.06E-06,0.007588125
,,,-3.05E-06,0.00751375
,,,-3.04E-06,0.00732
,,,-3.03E-06,0.007571875
,,,-3.02E-06,0.00746375
,,,-3.01E-06,0.007493125
,,,-3E-06,0.007584375
,,,-2.99E-06,0.0074825
,,,-2.98E-06,0.00752375
,,,-2.97E-06,0.00767625
,,,-2.96E-06,0.007739375
,,,-2.95E-06,0.007084375
,,,-2.94E-06,0.007190625
,,,-2.93E-06,0.00746
,,,-2.92E-06,0.0074475
,,,-2.91E-06,0.0074875
,,,-2.9E-06,0.0078275
,,,-2.89E-06,0.00736625
,,,-2.88E-06,0.00740375
,,,-2.87E-06,0.007445625
,,,-2.86E-06,0.00765375
,,,-2.85E-06,0.0074525
,,,-2.84E-06,0.007474375
,,,-2.83E-06,0.007454375
,,,-2.82E-06,0.00755125
,,,-2.81E-06,0.00765
,,,-2.8E-06,0.00753125
,,,-2.79E-06,0.0076625
,,,-2.78E-06,0.007305625
,,,-2.77E-06,0.00742625
,,,-2.76E-06,0.007475625
,,,-2.75E-06,0.00757125
,,,-2.74E-06,0.007514375
,,,-2.73E-06,0.00748125
,,,-2.72E-06,0.00757875
,,,-2.71E-06,0.007531875
,,,-2.7E-06,0.00726
,,,-2.69E-06,0.00740125
,,,-2.68E-06,0.00737625
,,,-2.67E-06,0.007405
,,,-2.66E-06,0.00739375
,,,-2.65E-06,0.007439375
,,,-2.64E-06,0.007500625
,,,-2.63E-06,0.0076525
,,,-2.62E-06,0.00733375
,,,-2.61E-06,0.007624375
,,,-2.6E-06,0.007685625
,,,-2.59E-06,0.007366875
,,,-2.58E-06,0.0073675
,,,-2.57E-06,0.0076175
,,,-2.56E-06,0.0073775
,,,-2.55E-06,0.00756375
,,,-2.54E-06,0.007654375
,,,-2.53E-06,0.00735
,,,-2.52E-06,0.007513125
,,,-2.51E-06,0.007585
,,,-2.5E-06,0.007500625
,,,-2.49E-06,0.0074175
,,,-2.48E-06,0.007256875
,,,-2.47E-06,0.007510625
,,,-2.46E-06,0.007394375
,,,-2.45E-06,0.0074175
,,,-2.44E-06,0.007475
,,,-2.43E-06,0.007526875
,,,-2.42E-06,0.007384375
,,,-2.41E-06,0.00753125
,,,-2.4E-06,0.00756125
,,,-2.39E-06,0.007410625
,,,-2.38E-06,0.007415625
,,,-2.37E-06,0.00748125
,,,-2.36E-06,0.00756625
,,,-2.35E-06,0.00756625
,,,-2.34E-06,0.00756375
,,,-2.33E-06,0.007604375
,,,-2.32E-06,0.00741625
,,,-2.31E-06,0.007571875
,,,-2.3E-06,0.007634375
,,,-2.29E-06,0.007323125
,,,-2.28E-06,0.00719125
,,,-2.27E-06,0.00729875
,,,-2.26E-06,0.007348125
,,,-2.25E-06,0.007599375
,,,-2.24E-06,0.007670625
,,,-2.23E-06,0.007525
,,,-2.22E-06,0.007395
,,,-2.21E-06,0.007499375
,,,-2.2E-06,0.00722
,,,-2.19E-06,0.007595
,,,-2.18E-06,0.007564375
,,,-2.17E-06,0.00752375
,,,-2.16E-06,0.0072775
,,,-2.15E-06,0.0076625
,,,-2.14E-06,0.00743
,,,-2.13E-06,0.007539375
,,,-2.12E-06,0.007491875
,,,-2.11E-06,0.007475
,,,-2.1E-06,0.00752125
,,,-2.09E-06,0.00753125
,,,-2.08E-06,0.007685
,,,-2.07E-06,0.007575
,,,-2.06E-06,0.007354375
,,,-2.05E-06,0.007511875
,,,-2.04E-06,0.007418125
,,,-2.03E-06,0.007525
,,,-2.02E-06,0.0074725
,,,-2.01E-06,0.007575625
,,,-2E-06,0.00728875
,,,-1.99E-06,0.007636875
,,,-1.98E-06,0.00754375
,,,-1.97E-06,0.007458125
,,,-1.96E-06,0.007220625
,,,-1.95E-06,0.007449375
,,,-1.94E-06,0.00748375
,,,-1.93E-06,0.00744875
,,,-1.92E-06,0.00758875
,,,-1.91E-06,0.00768875
,,,-1.9E-06,0.00745375
,,,-1.89E-06,0.00739625
,,,-1.88E-06,0.007496875
,,,-1.87E-06,0.00733625
,,,-1.86E-06,0.00746125
,,,-1.85E-06,0.007295625
,,,-1.84E-06,0.007455625
,,,-1.83E-06,0.00741625
,,,-1.82E-06,0.0075025
,,,-1.81E-06,0.007604375
,,,-1.8E-06,0.00762125
,,,-1.79E-06,0.007435
,,,-1.78E-06,0.0075075
,,,-1.77E-06,0.00722625
,,,-1.76E-06,0.00761875
,,,-1.75E-06,0.007730625
,,,-1.74E-06,0.00753875
,,,-1.73E-06,0.00761375
,,,-1.72E-06,0.007423125
,,,-1.71E-06,0.0073725
,,,-1.7E-06,0.0072725
,,,-1.69E-06,0.007626875
,,,-1.68E-06,0.007285625
,,,-1.67E-06,0.007460625
,,,-1.66E-06,0.00723125
,,,-1.65E-06,0.007348125
,,,-1.64E-06,0.007524375
,,,-1.63E-06,0.00742375
,,,-1.62E-06,0.007621875
,,,-1.61E-06,0.007308125
,,,-1.6E-06,0.00729625
,,,-1.59E-06,0.00770375
,,,-1.58E-06,0.00737
,,,-1.57E-06,0.00747375
,,,-1.56E-06,0.00723
,,,-1.55E-06,0.007565625
,,,-1.54E-06,0.00752625
,,,-1.53E-06,0.0074825
,,,-1.52E-06,0.007374375
,,,-1.51E-06,0.007616875
,,,-1.5E-06,0.007539375
,,,-1.49E-06,0.00734875
,,,-1.48E-06,0.00739375
,,,-1.47E-06,0.00754375
,,,-1.46E-06,0.007455
,,,-1.45E-06,0.0075725
,,,-1.44E-06,0.00761625
,,,-1.43E-06,0.00754
,,,-1.42E-06,0.00772625
,,,-1.41E-06,0.007585625
,,,-1.4E-06,0.00769375
,,,-1.39E-06,0.007285625
,,,-1.38E-06,0.007648125
,,,-1.37E-06,0.007398125
,,,-1.36E-06,0.00723
,,,-1.35E-06,0.007576875
,,,-1.34E-06,0.007356875
,,,-1.33E-06,0.007375625
,,,-1.32E-06,0.007740625
,,,-1.31E-06,0.00755125
,,,-1.3E-06,0.007505625
,,,-1.29E-06,0.00736625
,,,-1.28E-06,0.0075025
,,,-1.27E-06,0.00752125
,,,-1.26E-06,0.0075775
,,,-1.25E-06,0.00741875
,,,-1.24E-06,0.007383125
,,,-1.23E-06,0.007664375
,,,-1.22E-06,0.00742625
,,,-1.21E-06,0.007510625
,,,-1.2E-06,0.0072625
,,,-1.19E-06,0.00737125
,,,-1.18E-06,0.007413125
,,,-1.17E-06,0.007555
,,,-1.16E-06,0.007180625
,,,-1.15E-06,0.00738625
,,,-1.14E-06,0.00737375
,,,-1.13E-06,0.007451875
,,,-1.12E-06,0.007414375
,,,-1.11E-06,0.00752625
,,,-1.1E-06,0.00732
,,,-1.09E-06,0.007525
,,,-1.08E-06,0.007485
,,,-1.07E-06,0.007656875
,,,-1.06E-06,0.007515625
,,,-1.05E-06,0.00755
,,,-1.04E-06,0.007551875
,,,-1.03E-06,0.007454375
,,,-1.02E-06,0.007433125
,,,-1.01E-06,0.007525
,,,-1E-06,0.00759
,,,-9.9E-07,0.0076575
,,,-9.8E-07,0.007454375
,,,-9.7E-07,0.007311875
,,,-9.6E-07,0.007493125
,,,-9.5E-07,0.007315
,,,-9.4E-07,0.007590625
,,,-9.3E-07,0.00768375
,,,-9.2E-07,0.007674375
,,,-9.1E-07,0.0073
,,,-9E-07,0.0074525
,,,-8.9E-07,0.007333125
,,,-8.8E-07,0.007444375
,,,-8.7E-07,0.007404375
,,,-8.6E-07,0.00748375
,,,-8.5E-07,0.0073525
,,,-8.4E-07,0.007690625
,,,-8.3E-07,0.007221875
,,,-8.2E-07,0.007378125
,,,-8.1E-07,0.007326875
,,,-8E-07,0.007256875
,,,-7.9E-07,0.0073825
,,,-7.8E-07,0.007535
,,,-7.7E-07,0.0076375
,,,-7.6E-07,0.007425625
,,,-7.5E-07,0.00754125
,,,-7.4E-07,0.007561875
,,,-7.3E-07,0.0077375
,,,-7.2E-07,0.0076125
,,,-7.1E-07,0.007495
,,,-7E-07,0.0074925
,,,-6.9E-07,0.007151875
,,,-6.8E-07,0.00743
,,,-6.7E-07,0.007555625
,,,-6.6E-07,0.007441875
,,,-6.5E-07,0.007405
,,,-6.4E-07,0.00734875
,,,-6.3E-07,0.00725875
,,,-6.2E-07,0.007385
,,,-6.1E-07,0.007355
,,,-6E-07,0.007485625
,,,-5.9E-07,0.0075125
,,,-5.8E-07,0.007525625
,,,-5.7E-07,0.00745375
,,,-5.6E-07,0.007406875
,,,-5.5E-07,0.007538125
,,,-5.4E-07,0.007648125
,,,-5.3E-07,0.007416875
,,,-5.2E-07,0.007381875
,,,-5.1E-07,0.00775
,,,-5E-07,0.007733125
,,,-4.9E-07,0.007244375
,,,-4.8E-07,0.007575
,,,-4.7E-07,0.0072375
,,,-4.6E-07,0.007441875
,,,-4.5E-07,0.007543125
,,,-4.4E-07,0.007459375
,,,-4.3E-07,0.0074925
,,,-4.2E-07,0.00770125
,,,-4.1E-07,0.00742375
,,,-4E-07,0.007274375
,,,-3.9E-07,0.007383125
,,,-3.8E-07,0.00721
,,,-3.7E-07,0.007556875
,,,-3.6E-07,0.0076125
,,,-3.5E-07,0.007399375
,,,-3.4E-07,0.007591875
,,,-3.3E-07,0.007225625
,,,-3.2E-07,0.007629375
,,,-3.1E-07,0.007388125
,,,-3E-07,0.007275625
,,,-2.9E-07,0.00723125
,,,-2.8E-07,0.00733625
,,,-2.7E-07,0.00747875
,,,-2.6E-07,0.007650625
,,,-2.5E-07,0.0073775
,,,-2.4E-07,0.007624375
,,,-2.3E-07,0.00753875
,,,-2.2E-07,0.007563125
,,,-2.1E-07,0.007715
,,,-2E-07,0.007351875
,,,-1.9E-07,0.00754375
,,,-1.8E-07,0.00742125
,,,-1.7E-07,0.00731
,,,-1.6E-07,0.007510625
,,,-1.5E-07,0.007659375
,,,-1.4E-07,0.007534375
,,,-1.3E-07,0.007294375
,,,-1.2E-07,0.00739375
,,,-1.1E-07,0.007304375
,,,-1E-07,0.007985
,,,-9E-08,0.008230625
,,,-8E-08,0.006686875
,,,-7E-08,0.0060625
,,,-6E-08,0.006451875
,,,-5E-08,0.009095625
,,,-4E-08,0.009931875
,,,-3E-08,0.010045
,,,-2E-08,0.005824375
,,,-1E-08,0.003948125
,,,0,0.0038725
,,,1E-08,0.0088325
,,,2E-08,0.01060625
,,,3E-08,0.01089875
,,,4E-08,0.007865625
,,,5E-08,0.00570375
,,,6E-08,0.0046625
,,,7E-08,0.0058925
,,,8E-08,0.00773125
,,,9E-08,0.009063125
,,,1E-07,0.009085625
,,,1.1E-07,0.0084025
,,,1.2E-07,0.007051875
,,,1.3E-07,0.0062475
,,,1.4E-07,0.007163125
,,,1.5E-07,0.007434375
,,,1.6E-07,0.007616875
,,,1.7E-07,0.007889375
,,,1.8E-07,0.007585625
,,,1.9E-07,0.007475
,,,2E-07,0.007465
,,,2.1E-07,0.007450625
,,,2.2E-07,0.00723125
,,,2.3E-07,0.00748875
,,,2.4E-07,0.007559375
,,,2.5E-07,0.00758625
,,,2.6E-07,0.007444375
,,,2.7E-07,0.00756875
,,,2.8E-07,0.007481875
,,,2.9E-07,0.007683125
,,,3E-07,0.00729
,,,3.1E-07,0.007385625
,,,3.2E-07,0.007361875
,,,3.3E-07,0.007675
,,,3.4E-07,0.007594375
,,,3.5E-07,0.00727
,,,3.6E-07,0.007473125
,,,3.7E-07,0.007446875
,,,3.8E-07,0.007421875
,,,3.9E-07,0.007573125
,,,4E-07,0.0077125
,,,4.1E-07,0.007480625
,,,4.2E-07,0.007483125
,,,4.3E-07,0.007493125
,,,4.4E-07,0.007266875
,,,4.5E-07,0.00763125
,,,4.6E-07,0.007543125
,,,4.7E-07,0.00722125
,,,4.8E-07,0.00754875
,,,4.9E-07,0.00758625
,,,5E-07,0.007756875
,,,5.1E-07,0.0073475
,,,5.2E-07,0.007359375
,,,5.3E-07,0.007424375
,,,5.4E-07,0.007541875
,,,5.5E-07,0.00751375
,,,5.6E-07,0.007533125
,,,5.7E-07,0.007595625
,,,5.8E-07,0.00743375
,,,5.9E-07,0.007339375
,,,6E-07,0.007471875
,,,6.1E-07,0.00743375
,,,6.2E-07,0.007376875
,,,6.3E-07,0.007456875
,,,6.4E-07,0.007550625
,,,6.5E-07,0.007484375
,,,6.6E-07,0.0076225
,,,6.7E-07,0.007480625
,,,6.8E-07,0.00753
,,,6.9E-07,0.00733625
,,,7E-07,0.00751375
,,,7.1E-07,0.007431875
,,,7.2E-07,0.007645
,,,7.3E-07,0.00724
,,,7.4E-07,0.0074275
,,,7.5E-07,0.00748125
,,,7.6E-07,0.00737625
,,,7.7E-07,0.007609375
,,,7.8E-07,0.007495625
,,,7.9E-07,0.00735875
,,,8E-07,0.007465625
,,,8.1E-07,0.007338125
,,,8.2E-07,0.007596875
,,,8.3E-07,0.0075175
,,,8.4E-07,0.007426875
,,,8.5E-07,0.00746375
,,,8.6E-07,0.007405625
,,,8.7E-07,0.007649375
,,,8.8E-07,0.007249375
,,,8.9E-07,0.007389375
,,,9E-07,0.007475625
,,,9.1E-07,0.007665625
,,,9.2E-07,0.007488125
,,,9.3E-07,0.007609375
,,,9.4E-07,0.0073425
,,,9.5E-07,0.007421875
,,,9.6E-07,0.0073975
,,,9.7E-07,0.00771625
,,,9.8E-07,0.00732375
,,,9.9E-07,0.00752375
,,,1E-06,0.007450625
,,,1.01E-06,0.00773375
,,,1.02E-06,0.0072775
,,,1.03E-06,0.0072725
,,,1.04E-06,0.007280625
,,,1.05E-06,0.007345
,,,1.06E-06,0.007705625
,,,1.07E-06,0.007278125
,,,1.08E-06,0.0074075
,,,1.09E-06,0.0074275
,,,1.1E-06,0.007445
,,,1.11E-06,0.007125
,,,1.12E-06,0.007503125
,,,1.13E-06,0.007258125
,,,1.14E-06,0.0073525
,,,1.15E-06,0.007500625
,,,1.16E-06,0.00753625
,,,1.17E-06,0.0074875
,,,1.18E-06,0.00736
,,,1.19E-06,0.00720375
,,,1.2E-06,0.00736125
,,,1.21E-06,0.007600625
,,,1.22E-06,0.00756125
,,,1.23E-06,0.007430625
,,,1.24E-06,0.00760375
,,,1.25E-06,0.007558125
,,,1.26E-06,0.007248125
,,,1.27E-06,0.0074325
,,,1.28E-06,0.007481875
,,,1.29E-06,0.007546875
,,,1.3E-06,0.007435625
,,,1.31E-06,0.00722875
,,,1.32E-06,0.00755875
,,,1.33E-06,0.007576875
,,,1.34E-06,0.007384375
,,,1.35E-06,0.007753125
,,,1.36E-06,0.00747625
,,,1.37E-06,0.007383125
,,,1.38E-06,0.007224375
,,,1.39E-06,0.007494375
,,,1.4E-06,0.007405625
,,,1.41E-06,0.00730625
,,,1.42E-06,0.00720625
,,,1.43E-06,0.00739875
,,,1.44E-06,0.007503125
,,,1.45E-06,0.007421875
,,,1.46E-06,0.00748625
,,,1.47E-06,0.00772125
,,,1.48E-06,0.00742125
,,,1.49E-06,0.00768375
,,,1.5E-06,0.00749375
,,,1.51E-06,0.007533125
,,,1.52E-06,0.007308125
,,,1.53E-06,0.007404375
,,,1.54E-06,0.007365
,,,1.55E-06,0.00752375
,,,1.56E-06,0.00765125
,,,1.57E-06,0.007414375
,,,1.58E-06,0.0074475
,,,1.59E-06,0.00727
,,,1.6E-06,0.0076125
,,,1.61E-06,0.007565625
,,,1.62E-06,0.0074
,,,1.63E-06,0.007321875
,,,1.64E-06,0.007481875
,,,1.65E-06,0.007565
,,,1.66E-06,0.007704375
,,,1.67E-06,0.007564375
,,,1.68E-06,0.00751625
,,,1.69E-06,0.007241875
,,,1.7E-06,0.007211875
,,,1.71E-06,0.00728125
,,,1.72E-06,0.007434375
,,,1.73E-06,0.007249375
,,,1.74E-06,0.007789375
,,,1.75E-06,0.007273125
,,,1.76E-06,0.00747
,,,1.77E-06,0.0073175
,,,1.78E-06,0.007344375
,,,1.79E-06,0.00747125
,,,1.8E-06,0.00754875
,,,1.81E-06,0.007303125
,,,1.82E-06,0.007439375
,,,1.83E-06,0.007623125
,,,1.84E-06,0.007548125
,,,1.85E-06,0.00736375
,,,1.86E-06,0.007255
,,,1.87E-06,0.007410625
,,,1.88E-06,0.00745125
,,,1.89E-06,0.00763
,,,1.9E-06,0.007446875
,,,1.91E-06,0.007469375
,,,1.92E-06,0.00770375
,,,1.93E-06,0.0075225
,,,1.94E-06,0.00743125
,,,1.95E-06,0.00734
,,,1.96E-06,0.007371875
,,,1.97E-06,0.0074
,,,1.98E-06,0.0076125
,,,1.99E-06,0.007618125
,,,2E-06,0.00752875
,,,2.01E-06,0.0076575
,,,2.02E-06,0.007206875
,,,2.03E-06,0.00732
,,,2.04E-06,0.007554375
,,,2.05E-06,0.0075825
,,,2.06E-06,0.0076775
,,,2.07E-06,0.0075425
,,,2.08E-06,0.007415
,,,2.09E-06,0.007423125
,,,2.1E-06,0.007453125
,,,2.11E-06,0.007580625
,,,2.12E-06,0.007463125
,,,2.13E-06,0.0076325
,,,2.14E-06,0.007485
,,,2.15E-06,0.0075225
,,,2.16E-06,0.0073975
,,,2.17E-06,0.00748375
,,,2.18E-06,0.007533125
,,,2.19E-06,0.007411875
,,,2.2E-06,0.00765375
,,,2.21E-06,0.00748
,,,2.22E-06,0.00767375
,,,2.23E-06,0.007374375
,,,2.24E-06,0.007160625
,,,2.25E-06,0.007521875
,,,2.26E-06,0.00757125
,,,2.27E-06,0.007545625
,,,2.28E-06,0.007605625
,,,2.29E-06,0.007754375
,,,2.3E-06,0.00737
,,,2.31E-06,0.0073525
,,,2.32E-06,0.00760375
,,,2.33E-06,0.007735
,,,2.34E-06,0.00758
,,,2.35E-06,0.007455625
,,,2.36E-06,0.007415
,,,2.37E-06,0.007575
,,,2.38E-06,0.007664375
,,,2.39E-06,0.007676875
,,,2.4E-06,0.007708125
,,,2.41E-06,0.0074125
,,,2.42E-06,0.00746375
,,,2.43E-06,0.007398125
,,,2.44E-06,0.007570625
,,,2.45E-06,0.00736
,,,2.46E-06,0.007356875
,,,2.47E-06,0.007291875
,,,2.48E-06,0.00754375
,,,2.49E-06,0.0076475
,,,2.5E-06,0.00747625
,,,2.51E-06,0.007399375
,,,2.52E-06,0.007495
,,,2.53E-06,0.00736125
,,,2.54E-06,0.0074125
,,,2.55E-06,0.007584375
,,,2.56E-06,0.007493125
,,,2.57E-06,0.007450625
,,,2.58E-06,0.007425
,,,2.59E-06,0.0075625
,,,2.6E-06,0.00744625
,,,2.61E-06,0.00738
,,,2.62E-06,0.007535
,,,2.63E-06,0.007325
,,,2.64E-06,0.007463125
,,,2.65E-06,0.007475625
,,,2.66E-06,0.007536875
,,,2.67E-06,0.007629375
,,,2.68E-06,0.007291875
,,,2.69E-06,0.007300625
,,,2.7E-06,0.007350625
,,,2.71E-06,0.00746
,,,2.72E-06,0.00748375
,,,2.73E-06,0.007684375
,,,2.74E-06,0.007109375
,,,2.75E-06,0.007155
,,,2.76E-06,0.00742875
,,,2.77E-06,0.007569375
,,,2.78E-06,0.00738
,,,2.79E-06,0.00741875
,,,2.8E-06,0.00764625
,,,2.81E-06,0.007654375
,,,2.82E-06,0.007446875
,,,2.83E-06,0.00759875
,,,2.84E-06,0.007435
,,,2.85E-06,0.007536875
,,,2.86E-06,0.00753
,,,2.87E-06,0.007639375
,,,2.88E-06,0.00753875
,,,2.89E-06,0.007274375
,,,2.9E-06,0.007461875
,,,2.91E-06,0.00745125
,,,2.92E-06,0.00724125
,,,2.93E-06,0.0073325
,,,2.94E-06,0.007615
,,,2.95E-06,0.007370625
,,,2.96E-06,0.0072825
,,,2.97E-06,0.007451875
,,,2.98E-06,0.007695
,,,2.99E-06,0.0075
,,,3E-06,0.0073825
,,,3.01E-06,0.007519375
,,,3.02E-06,0.007543125
,,,3.03E-06,0.00735375
,,,3.04E-06,0.007386875
,,,3.05E-06,0.007466875
,,,3.06E-06,0.00746625
,,,3.07E-06,0.007461875
,,,3.08E-06,0.007435625
,,,3.09E-06,0.00751
,,,3.1E-06,0.007261875
,,,3.11E-06,0.0074175
,,,3.12E-06,0.00743
,,,3.13E-06,0.007450625
,,,3.14E-06,0.0076
,,,3.15E-06,0.007585625
,,,3.16E-06,0.007503125
,,,3.17E-06,0.007424375
,,,3.18E-06,0.00728
,,,3.19E-06,0.007375
,,,3.2E-06,0.00748375
,,,3.21E-06,0.007424375
,,,3.22E-06,0.0074875
,,,3.23E-06,0.0076875
,,,3.24E-06,0.007326875
,,,3.25E-06,0.007375
,,,3.26E-06,0.007355625
,,,3.27E-06,0.007496875
,,,3.28E-06,0.007415625
,,,3.29E-06,0.007403125
,,,3.3E-06,0.007589375
,,,3.31E-06,0.0076525
,,,3.32E-06,0.007298125
,,,3.33E-06,0.007345625
,,,3.34E-06,0.00734875
,,,3.35E-06,0.007449375
,,,3.36E-06,0.007441875
,,,3.37E-06,0.007569375
,,,3.38E-06,0.00728625
,,,3.39E-06,0.00737625
,,,3.4E-06,0.007136875
,,,3.41E-06,0.007614375
,,,3.42E-06,0.007521875
,,,3.43E-06,0.0075675
,,,3.44E-06,0.007355625
,,,3.45E-06,0.007431875
,,,3.46E-06,0.007429375
,,,3.47E-06,0.007385
,,,3.48E-06,0.007595625
,,,3.49E-06,0.007664375
,,,3.5E-06,0.007223125
,,,3.51E-06,0.00769125
,,,3.52E-06,0.0073475
,,,3.53E-06,0.007678125
,,,3.54E-06,0.007590625
,,,3.55E-06,0.007573125
,,,3.56E-06,0.0073575
,,,3.57E-06,0.0073825
,,,3.58E-06,0.007574375
