data/raw/Final_POL_Test_1/SOP046_Ch3.csv

"Record Length",1000,"Points",-5E-06,0.018091876
"Sample Interval",1E-08,s,-4.99E-06,0.017916251
"Trigger Point",500,"Samples",-4.98E-06,0.018035626
"Trigger Time",0,s,-4.97E-06,0.017875626
"",,,-4.96E-06,0.018079376
"Horizontal Offset",-5E-06,s,-4.95E-06,0.018202501
,,,-4.94E-06,0.018045001
,,,-4.93E-06,0.018220001
,,,-4.92E-06,0.018198126
,,,-4.91E-06,0.018027501
,,,-4.9E-06,0.018148126
,,,-4.89E-06,0.018000001
,,,-4.88E-06,0.018280001
,,,-4.87E-06,0.017913751
,,,-4.86E-06,0.018032501
,,,-4.85E-06,0.018214376
,,,-4.84E-06,0.018241251
,,,-4.83E-06,0.017925626
,,,-4.82E-06,0.018383751
,,,-4.81E-06,0.018014376
,,,-4.8E-06,0.018166251
,,,-4.79E-06,0.018002501
,,,-4.78E-06,0.018232501
,,,-4.77E-06,0.018011876
,,,-4.76E-06,0.017962501
,,,-4.75E-06,0.018217501
,,,-4.74E-06,0.018167501
,,,-4.73E-06,0.017989376
,,,-4.72E-06,0.017939376
,,,-4.71E-06,0.018385626
,,,-4.7E-06,0.018010001
,,,-4.69E-06,0.017983126
,,,-4.68E-06,0.017902501
,,,-4.67E-06,0.018110001
,,,-4.66E-06,0.018012501
,,,-4.65E-06,0.018246251
,,,-4.64E-06,0.017836876
,,,-4.63E-06,0.017821876
,,,-4.62E-06,0.018026251
,,,-4.61E-06,0.018058751
,,,-4.6E-06,0.017920001
,,,-4.59E-06,0.018005626
,,,-4.58E-06,0.018140001
,,,-4.57E-06,0.018210626
,,,-4.56E-06,0.017998751
,,,-4.55E-06,0.017741876
,,,-4.54E-06,0.018008751
,,,-4.53E-06,0.017981876
,,,-4.52E-06,0.018197501
,,,-4.51E-06,0.018288751
,,,-4.5E-06,0.017974376
,,,-4.49E-06,0.018025001
,,,-4.48E-06,0.017996876
,,,-4.47E-06,0.018361251
,,,-4.46E-06,0.018060001
,,,-4.45E-06,0.018104376
,,,-4.44E-06,0.018233751
,,,-4.43E-06,0.017922501
,,,-4.42E-06,0.018121251
,,,-4.41E-06,0.017975001
,,,-4.4E-06,0.018212501
,,,-4.39E-06,0.018083126
,,,-4.38E-06,0.017838751
,,,-4.37E-06,0.018016876
,,,-4.36E-06,0.018350626
,,,-4.35E-06,0.018375626
,,,-4.34E-06,0.018104376
,,,-4.33E-06,0.017735626
,,,-4.32E-06,0.017848126
,,,-4.31E-06,0.018307501
,,,-4.3E-06,0.017921251
,,,-4.29E-06,0.018052501
,,,-4.28E-06,0.018467501
,,,-4.27E-06,0.018203751
,,,-4.26E-06,0.018182501
,,,-4.25E-06,0.018007501
,,,-4.24E-06,0.018217501
,,,-4.23E-06,0.018056251
,,,-4.22E-06,0.017928751
,,,-4.21E-06,0.018144376
,,,-4.2E-06,0.018221876
,,,-4.19E-06,0.018180001
,,,-4.18E-06,0.018001251
,,,-4.17E-06,0.018000001
,,,-4.16E-06,0.018118126
,,,-4.15E-06,0.018178126
,,,-4.14E-06,0.018194376
,,,-4.13E-06,0.017930626
,,,-4.12E-06,0.018176251
,,,-4.11E-06,0.018154376
,,,-4.1E-06,0.018257501
,,,-4.09E-06,0.018129376
,,,-4.08E-06,0.018005001
,,,-4.07E-06,0.018136876
,,,-4.06E-06,0.018120001
,,,-4.05E-06,0.018340001
,,,-4.04E-06,0.018373751
,,,-4.03E-06,0.018122501
,,,-4.02E-06,0.018392501
,,,-4.01E-06,0.018282501
,,,-4E-06,0.017970001
,,,-3.99E-06,0.018306251
,,,-3.98E-06,0.017907501
,,,-3.97E-06,0.018250001
,,,-3.96E-06,0.018380001
,,,-3.95E-06,0.018082501
,,,-3.94E-06,0.017931876
,,,-3.93E-06,0.017868126
,,,-3.92E-06,0.018075626
,,,-3.91E-06,0.018211876
,,,-3.9E-06,0.017843751
,,,-3.89E-06,0.018178751
,,,-3.88E-06,0.018149376
,,,-3.87E-06,0.018189376
,,,-3.86E-06,0.018410626
,,,-3.85E-06,0.018130626
,,,-3.84E-06,0.018193751
,,,-3.83E-06,0.018163751
,,,-3.82E-06,0.018020001
,,,-3.81E-06,0.018123751
,,,-3.8E-06,0.018042501
,,,-3.79E-06,0.017891876
,,,-3.78E-06,0.018211876
,,,-3.77E-06,0.018286876
,,,-3.76E-06,0.018052501
,,,-3.75E-06,0.017971876
,,,-3.74E-06,0.018191876
,,,-3.73E-06,0.017921876
,,,-3.72E-06,0.017933751
,,,-3.71E-06,0.018332501
,,,-3.7E-06,0.017960001
,,,-3.69E-06,0.018027501
,,,-3.68E-06,0.017997501
,,,-3.67E-06,0.017895626
,,,-3.66E-06,0.017890001
,,,-3.65E-06,0.018032501
,,,-3.64E-06,0.018044376
,,,-3.63E-06,0.018336876
,,,-3.62E-06,0.018049376
,,,-3.61E-06,0.018485626
,,,-3.6E-06,0.018248126
,,,-3.59E-06,0.018021876
,,,-3.58E-06,0.017986251
,,,-3.57E-06,0.018077501
,,,-3.56E-06,0.018241876
,,,-3.55E-06,0.018248126
,,,-3.54E-06,0.017997501
,,,-3.53E-06,0.018141876
,,,-3.52E-06,0.018198751
,,,-3.51E-06,0.017977501
,,,-3.5E-06,0.018137501
,,,-3.49E-06,0.018038751
,,,-3.48E-06,0.018170001
,,,-3.47E-06,0.018058126
,,,-3.46E-06,0.018214376
,,,-3.45E-06,0.017962501
,,,-3.44E-06,0.018377501
,,,-3.43E-06,0.018186876
,,,-3.42E-06,0.018236251
,,,-3.41E-06,0.017912501
,,,-3.4E-06,0.018211876
,,,-3.39E-06,0.018130001
,,,-3.38E-06,0.018138126
,,,-3.37E-06,0.018043126
,,,-3.36E-06,0.018251251
,,,-3.35E-06,0.018238751
,,,-3.34E-06,0.018040626
,,,-3.33E-06,0.018206876
,,,-3.32E-06,0.018168126
,,,-3.31E-06,0.018015626
,,,-3.3E-06,0.018155001
,,,-3.29E-06,0.017725001
,,,-3.28E-06,0.018013126
,,,-3.27E-06,0.018116251
,,,-3.26E-06,0.017703751
,,,-3.25E-06,0.018315001
,,,-3.24E-06,0.018320001
,,,-3.23E-06,0.017944376
,,,-3.22E-06,0.018350626
,,,-3.21E-06,0.018111876
,,,-3.2E-06,0.017977501
,,,-3.19E-06,0.018203126
,,,-3.18E-06,0.017926876
,,,-3.17E-06,0.018122501
,,,-3.16E-06,0.018218126
,,,-3.15E-06,0.018141251
,,,-3.14E-06,0.018018751
,,,-3.13E-06,0.017913751
,,,-3.12E-06,0.018256251
,,,-3.11E-06,0.018117501
,,,-3.1E-06,0.017892501
,,,-3.09E-06,0.018156876
,,,-3.08E-06,0.018170626
,,,-3.07E-06,0.017915626
,,,-3.06E-06,0.018280001
,,,-3.05E-06,0.018159376
,,,-3.04E-06,0.018298751
,,,-3.03E-06,0.018270001
,,,-3.02E-06,0.018073751
,,,-3.01E-06,0.017990626
,,,-3E-06,0.018038126
,,,-2.99E-06,0.018133751
,,,-2.98E-06,0.018093751
,,,-2.97E-06,0.018160626
,,,-2.96E-06,0.018314376
,,,-2.95E-06,0.018043126
,,,-2.94E-06,0.017788126
,,,-2.93E-06,0.018045626
,,,-2.92E-06,0.018195626
,,,-2.91E-06,0.017993751
,,,-2.9E-06,0.017953126
,,,-2.89E-06,0.017977501
,,,-2.88E-06,0.017993126
,,,-2.87E-06,0.018133751
,,,-2.86E-06,0.017986251
,,,-2.85E-06,0.018001876
,,,-2.84E-06,0.018261876
,,,-2.83E-06,0.018111876
,,,-2.82E-06,0.018118126
,,,-2.81E-06,0.018059376
,,,-2.8E-06,0.018248126
,,,-2.79E-06,0.017970626
,,,-2.78E-06,0.018116876
,,,-2.77E-06,0.017800001
,,,-2.76E-06,0.017758126
,,,-2.75E-06,0.018094376
,,,-2.74E-06,0.018201251
,,,-2.73E-06,0.018175001
,,,-2.72E-06,0.018159376
,,,-2.71E-06,0.018282501
,,,-2.7E-06,0.018333751
,,,-2.69E-06,0.018100626
,,,-2.68E-06,0.018180001
,,,-2.67E-06,0.018325626
,,,-2.66E-06,0.018253751
,,,-2.65E-06,0.018046251
,,,-2.64E-06,0.018248126
,,,-2.63E-06,0.018273751
,,,-2.62E-06,0.018100001
,,,-2.61E-06,0.018448126
,,,-2.6E-06,0.018231876
,,,-2.59E-06,0.018085626
,,,-2.58E-06,0.018158126
,,,-2.57E-06,0.018036251
,,,-2.56E-06,0.018123751
,,,-2.55E-06,0.018204376
,,,-2.54E-06,0.018179376
,,,-2.53E-06,0.017946251
,,,-2.52E-06,0.018163751
,,,-2.51E-06,0.018027501
,,,-2.5E-06,0.018124376
,,,-2.49E-06,0.018072501
,,,-2.48E-06,0.017980001
,,,-2.47E-06,0.017928751
,,,-2.46E-06,0.018312501
,,,-2.45E-06,0.018110626
,,,-2.44E-06,0.018107501
,,,-2.43E-06,0.017997501
,,,-2.42E-06,0.018079376
,,,-2.41E-06,0.018130001
,,,-2.4E-06,0.018360001
,,,-2.39E-06,0.017860001
,,,-2.38E-06,0.018015001
,,,-2.37E-06,0.017876251
,,,-2.36E-06,0.018156876
,,,-2.35E-06,0.018065001
,,,-2.34E-06,0.018109376
,,,-2.33E-06,0.018030001
,,,-2.32E-06,0.017925001
,,,-2.31E-06,0.018111876
,,,-2.3E-06,0.017992501
,,,-2.29E-06,0.017983751
,,,-2.28E-06,0.018108751
,,,-2.27E-06,0.018078126
,,,-2.26E-06,0.018131251
,,,-2.25E-06,0.018142501
,,,-2.24E-06,0.017953751
,,,-2.23E-06,0.018312501
,,,-2.22E-06,0.018077501
,,,-2.21E-06,0.018135001
,,,-2.2E-06,0.018085001
,,,-2.19E-06,0.018036251
,,,-2.18E-06,0.017988126
,,,-2.17E-06,0.018248751
,,,-2.16E-06,0.018046876
,,,-2.15E-06,0.018142501
,,,-2.14E-06,0.018016876
,,,-2.13E-06,0.018238126
,,,-2.12E-06,0.018020001
,,,-2.11E-06,0.018041251
,,,-2.1E-06,0.017997501
,,,-2.09E-06,0.018163751
,,,-2.08E-06,0.018226251
,,,-2.07E-06,0.018163751
,,,-2.06E-06,0.017874376
,,,-2.05E-06,0.018099376
,,,-2.04E-06,0.018223126
,,,-2.03E-06,0.017988751
,,,-2.02E-06,0.017908751
,,,-2.01E-06,0.017977501
,,,-2E-06,0.017932501
,,,-1.99E-06,0.017971876
,,,-1.98E-06,0.017938751
,,,-1.97E-06,0.018190001
,,,-1.96E-06,0.018170001
,,,-1.95E-06,0.018081251
,,,-1.94E-06,0.018187501
,,,-1.93E-06,0.018009376
,,,-1.92E-06,0.018184376
,,,-1.91E-06,0.018212501
,,,-1.9E-06,0.017998126
,,,-1.89E-06,0.018159376
,,,-1.88E-06,0.017842501
,,,-1.87E-06,0.018282501
,,,-1.86E-06,0.018030001
,,,-1.85E-06,0.017802501
,,,-1.84E-06,0.017888751
,,,-1.83E-06,0.018260626
,,,-1.82E-06,0.018041876
,,,-1.81E-06,0.018130001
,,,-1.8E-06,0.018184376
,,,-1.79E-06,0.018094376
,,,-1.78E-06,0.017992501
,,,-1.77E-06,0.018047501
,,,-1.76E-06,0.018220626
,,,-1.75E-06,0.018109376
,,,-1.74E-06,0.018163126
,,,-1.73E-06,0.018267501
,,,-1.72E-06,0.018110626
,,,-1.71E-06,0.017938126
,,,-1.7E-06,0.018221876
,,,-1.69E-06,0.018331876
,,,-1.68E-06,0.018423126
,,,-1.67E-06,0.018139376
,,,-1.66E-06,0.018088126
,,,-1.65E-06,0.018081251
,,,-1.64E-06,0.018164376
,,,-1.63E-06,0.018168126
,,,-1.62E-06,0.017916251
,,,-1.61E-06,0.018193126
,,,-1.6E-06,0.017960626
,,,-1.59E-06,0.018108126
,,,-1.58E-06,0.018036876
,,,-1.57E-06,0.018218126
,,,-1.56E-06,0.018061251
,,,-1.55E-06,0.018215626
,,,-1.54E-06,0.018150001
,,,-1.53E-06,0.018366251
,,,-1.52E-06,0.018212501
,,,-1.51E-06,0.018001251
,,,-1.5E-06,0.017891876
,,,-1.49E-06,0.017970626
,,,-1.48E-06,0.018135001
,,,-1.47E-06,0.017989376
,,,-1.46E-06,0.018222501
,,,-1.45E-06,0.018070626
,,,-1.44E-06,0.018223751
,,,-1.43E-06,0.018036251
,,,-1.42E-06,0.017996251
,,,-1.41E-06,0.017983751
,,,-1.4E-06,0.018082501
,,,-1.39E-06,0.018090001
,,,-1.38E-06,0.018366251
,,,-1.37E-06,0.018146251
,,,-1.36E-06,0.017911251
,,,-1.35E-06,0.018095626
,,,-1.34E-06,0.018174376
,,,-1.33E-06,0.017983751
,,,-1.32E-06,0.018413751
,,,-1.31E-06,0.018013751
,,,-1.3E-06,0.018195626
,,,-1.29E-06,0.018013751
,,,-1.28E-06,0.018074376
,,,-1.27E-06,0.017833126
,,,-1.26E-06,0.018195626
,,,-1.25E-06,0.018152501
,,,-1.24E-06,0.017891876
,,,-1.23E-06,0.018368126
,,,-1.22E-06,0.017999376
,,,-1.21E-06,0.018028751
,,,-1.2E-06,0.018030001
,,,-1.19E-06,0.018097501
,,,-1.18E-06,0.017958126
,,,-1.17E-06,0.017968126
,,,-1.16E-06,0.018022501
,,,-1.15E-06,0.018308126
,,,-1.14E-06,0.017976251
,,,-1.13E-06,0.018125001
,,,-1.12E-06,0.017848126
,,,-1.11E-06,0.018098126
,,,-1.1E-06,0.018141251
,,,-1.09E-06,0.018105001
,,,-1.08E-06,0.017982501
,,,-1.07E-06,0.018322501
,,,-1.06E-06,0.018179376
,,,-1.05E-06,0.018009376
,,,-1.04E-06,0.018188751
,,,-1.03E-06,0.018165001
,,,-1.02E-06,0.018017501
,,,-1.01E-06,0.018021251
,,,-1E-06,0.018128126
,,,-9.9E-07,0.018070001
,,,-9.8E-07,0.018107501
,,,-9.7E-07,0.018228751
,,,-9.6E-07,0.018101876
,,,-9.5E-07,0.017842501
,,,-9.4E-07,0.018111251
,,,-9.3E-07,0.018175626
,,,-9.2E-07,0.018080001
,,,-9.1E-07,0.018133126
,,,-9E-07,0.017932501
,,,-8.9E-07,0.018189376
,,,-8.8E-07,0.018005001
,,,-8.7E-07,0.018101876
,,,-8.6E-07,0.017854376
,,,-8.5E-07,0.018120001
,,,-8.4E-07,0.018175001
,,,-8.3E-07,0.018104376
,,,-8.2E-07,0.018121876
,,,-8.1E-07,0.017862501
,,,-8E-07,0.017992501
,,,-7.9E-07,0.017878751
,,,-7.8E-07,0.018133751
,,,-7.7E-07,0.017912501
,,,-7.6E-07,0.018133751
,,,-7.5E-07,0.018286251
,,,-7.4E-07,0.018125001
,,,-7.3E-07,0.018146251
,,,-7.2E-07,0.018263751
,,,-7.1E-07,0.017915626
,,,-7E-07,0.017977501
,,,-6.9E-07,0.017984376
,,,-6.8E-07,0.018404376
,,,-6.7E-07,0.018033751
,,,-6.6E-07,0.018031876
,,,-6.5E-07,0.018214376
,,,-6.4E-07,0.018085626
,,,-6.3E-07,0.018036251
,,,-6.2E-07,0.017915626
,,,-6.1E-07,0.018190001
,,,-6E-07,0.017889376
,,,-5.9E-07,0.017955001
,,,-5.8E-07,0.018458126
,,,-5.7E-07,0.017993751
,,,-5.6E-07,0.018120001
,,,-5.5E-07,0.018078126
,,,-5.4E-07,0.018200001
,,,-5.3E-07,0.017999376
,,,-5.2E-07,0.018114376
,,,-5.1E-07,0.018070001
,,,-5E-07,0.018304376
,,,-4.9E-07,0.017980626
,,,-4.8E-07,0.018408126
,,,-4.7E-07,0.018210626
,,,-4.6E-07,0.018116251
,,,-4.5E-07,0.018080001
,,,-4.4E-07,0.018058126
,,,-4.3E-07,0.018175001
,,,-4.2E-07,0.018216251
,,,-4.1E-07,0.018331876
,,,-4E-07,0.018175001
,,,-3.9E-07,0.018035626
,,,-3.8E-07,0.017941251
,,,-3.7E-07,0.018186251
,,,-3.6E-07,0.018344376
,,,-3.5E-07,0.017833751
,,,-3.4E-07,0.018162501
,,,-3.3E-07,0.017878751
,,,-3.2E-07,0.018286251
,,,-3.1E-07,0.018177501
,,,-3E-07,0.018136251
,,,-2.9E-07,0.018005001
,,,-2.8E-07,0.018218126
,,,-2.7E-07,0.018021876
,,,-2.6E-07,0.018098751
,,,-2.5E-07,0.017925626
,,,-2.4E-07,0.018044376
,,,-2.3E-07,0.018072501
,,,-2.2E-07,0.018485626
,,,-2.1E-07,0.018204376
,,,-2E-07,0.017843751
,,,-1.9E-07,0.018411251
,,,-1.8E-07,0.018172501
,,,-1.7E-07,0.018129376
,,,-1.6E-07,0.018138751
,,,-1.5E-07,0.018124376
,,,-1.4E-07,0.018125626
,,,-1.3E-07,0.018004376
,,,-1.2E-07,0.018218751
,,,-1.1E-07,0.018098751
,,,-1E-07,0.018307501
,,,-9E-08,0.017888751
,,,-8E-08,0.018209376
,,,-7E-08,0.018161251
,,,-6E-08,0.018034376
,,,-5E-08,0.018130001
,,,-4E-08,0.018326876
,,,-3E-08,0.018010001
,,,-2E-08,0.017923126
,,,-1E-08,0.017935001
,,,0,0.017559376
,,,1E-08,0.018313126
,,,2E-08,0.018678751
,,,3E-08,0.018699376
,,,4E-08,0.018075626
,,,5E-08,0.017638126
,,,6E-08,0.017876876
,,,7E-08,0.017866876
,,,8E-08,0.018029376
,,,9E-08,0.018281876
,,,1E-07,0.018417501
,,,1.1E-07,0.018313126
,,,1.2E-07,0.018003751
,,,1.3E-07,0.017820001
,,,1.4E-07,0.017936251
,,,1.5E-07,0.018238751
,,,1.6E-07,0.018187501
,,,1.7E-07,0.018196876
,,,1.8E-07,0.018496876
,,,1.9E-07,0.018325001
,,,2E-07,0.018415001
,,,2.1E-07,0.017924376
,,,2.2E-07,0.018235001
,,,2.3E-07,0.018335626
,,,2.4E-07,0.018216876
,,,2.5E-07,0.018135626
,,,2.6E-07,0.018004376
,,,2.7E-07,0.018081876
,,,2.8E-07,0.018038126
,,,2.9E-07,0.018157501
,,,3E-07,0.018324376
,,,3.1E-07,0.018146251
,,,3.2E-07,0.018011876
,,,3.3E-07,0.018446251
,,,3.4E-07,0.018151251
,,,3.5E-07,0.017986876
,,,3.6E-07,0.018120001
,,,3.7E-07,0.018045001
,,,3.8E-07,0.018118751
,,,3.9E-07,0.018018126
,,,4E-07,0.018055626
,,,4.1E-07,0.018068126
,,,4.2E-07,0.018110001
,,,4.3E-07,0.018326251
,,,4.4E-07,0.018270626
,,,4.5E-07,0.018089376
,,,4.6E-07,0.018323126
,,,4.7E-07,0.018093126
,,,4.8E-07,0.017886876
,,,4.9E-07,0.017947501
,,,5E-07,0.018343126
,,,5.1E-07,0.018193126
,,,5.2E-07,0.018298751
,,,5.3E-07,0.018230001
,,,5.4E-07,0.018191251
,,,5.5E-07,0.018183126
,,,5.6E-07,0.017965626
,,,5.7E-07,0.018252501
,,,5.8E-07,0.018170001
,,,5.9E-07,0.018046876
,,,6E-07,0.018225001
,,,6.1E-07,0.018050626
,,,6.2E-07,0.018288126
,,,6.3E-07,0.017884376
,,,6.4E-07,0.018088751
,,,6.5E-07,0.018088126
,,,6.6E-07,0.017917501
,,,6.7E-07,0.018216251
,,,6.8E-07,0.018550001
,,,6.9E-07,0.018011251
,,,7E-07,0.018100001
,,,7.1E-07,0.018071251
,,,7.2E-07,0.018083751
,,,7.3E-07,0.018073751
,,,7.4E-07,0.018082501
,,,7.5E-07,0.018033751
,,,7.6E-07,0.018166251
,,,7.7E-07,0.018041876
,,,7.8E-07,0.018123751
,,,7.9E-07,0.018210001
,,,8E-07,0.018019376
,,,8.1E-07,0.017996876
,,,8.2E-07,0.017990001
,,,8.3E-07,0.017933126
,,,8.4E-07,0.018196876
,,,8.5E-07,0.018096251
,,,8.6E-07,0.018205626
,,,8.7E-07,0.018005626
,,,8.8E-07,0.018443126
,,,8.9E-07,0.018123126
,,,9E-07,0.018091876
,,,9.1E-07,0.018119376
,,,9.2E-07,0.018239376
,,,9.3E-07,0.018265001
,,,9.4E-07,0.018186251
,,,9.5E-07,0.018053126
,,,9.6E-07,0.017892501
,,,9.7E-07,0.018014376
,,,9.8E-07,0.017959376
,,,9.9E-07,0.018343751
,,,1E-06,0.018089376
,,,1.01E-06,0.017995626
,,,1.02E-06,0.018031876
,,,1.03E-06,0.018140001
,,,1.04E-06,0.018156251
,,,1.05E-06,0.018183751
,,,1.06E-06,0.018316251
,,,1.07E-06,0.018141876
,,,1.08E-06,0.018140626
,,,1.09E-06,0.017826876
,,,1.1E-06,0.017993751
,,,1.11E-06,0.018035626
,,,1.12E-06,0.017921251
,,,1.13E-06,0.018057501
,,,1.14E-06,0.017948751
,,,1.15E-06,0.017764376
,,,1.16E-06,0.018163126
,,,1.17E-06,0.018050626
,,,1.18E-06,0.017811876
,,,1.19E-06,0.017913126
,,,1.2E-06,0.017926251
,,,1.21E-06,0.018058751
,,,1.22E-06,0.017977501
,,,1.23E-06,0.018149376
,,,1.24E-06,0.018046876
,,,1.25E-06,0.018302501
,,,1.26E-06,0.018423126
,,,1.27E-06,0.018072501
,,,1.28E-06,0.018253751
,,,1.29E-06,0.018201251
,,,1.3E-06,0.018045001
,,,1.31E-06,0.018070001
,,,1.32E-06,0.018116876
,,,1.33E-06,0.018102501
,,,1.34E-06,0.017888751
,,,1.35E-06,0.018068751
,,,1.36E-06,0.018167501
,,,1.37E-06,0.018267501
,,,1.38E-06,0.017833126
,,,1.39E-06,0.018093126
,,,1.4E-06,0.018055001
,,,1.41E-06,0.017950001
,,,1.42E-06,0.018368751
,,,1.43E-06,0.018288751
,,,1.44E-06,0.018009376
,,,1.45E-06,0.017851251
,,,1.46E-06,0.018141876
,,,1.47E-06,0.017927501
,,,1.48E-06,0.018225626
,,,1.49E-06,0.018178126
,,,1.5E-06,0.018233126
,,,1.51E-06,0.018014376
,,,1.52E-06,0.018076251
,,,1.53E-06,0.018018751
,,,1.54E-06,0.018230626
,,,1.55E-06,0.018090626
,,,1.56E-06,0.018023751
,,,1.57E-06,0.018021876
,,,1.58E-06,0.018035626
,,,1.59E-06,0.017835626
,,,1.6E-06,0.018030001
,,,1.61E-06,0.018257501
,,,1.62E-06,0.018110626
,,,1.63E-06,0.018138751
,,,1.64E-06,0.018081251
,,,1.65E-06,0.018226876
,,,1.66E-06,0.018140626
,,,1.67E-06,0.017855626
,,,1.68E-06,0.018231876
,,,1.69E-06,0.018285626
,,,1.7E-06,0.018113126
,,,1.71E-06,0.017915626
,,,1.72E-06,0.018123126
,,,1.73E-06,0.018040001
,,,1.74E-06,0.018402501
,,,1.75E-06,0.018035001
,,,1.76E-06,0.018053126
,,,1.77E-06,0.018228126
,,,1.78E-06,0.017846251
,,,1.79E-06,0.018211876
,,,1.8E-06,0.017944376
,,,1.81E-06,0.017801251
,,,1.82E-06,0.018179376
,,,1.83E-06,0.018138126
,,,1.84E-06,0.017942501
,,,1.85E-06,0.018210001
,,,1.86E-06,0.017967501
,,,1.87E-06,0.018189376
,,,1.88E-06,0.018255626
,,,1.89E-06,0.017801876
,,,1.9E-06,0.017975626
,,,1.91E-06,0.018046876
,,,1.92E-06,0.017989376
,,,1.93E-06,0.017936251
,,,1.94E-06,0.017987501
,,,1.95E-06,0.018246251
,,,1.96E-06,0.018095626
,,,1.97E-06,0.018334376
,,,1.98E-06,0.018081251
,,,1.99E-06,0.018021251
,,,2E-06,0.018175626
,,,2.01E-06,0.018243751
,,,2.02E-06,0.018179376
,,,2.03E-06,0.018138751
,,,2.04E-06,0.018221876
,,,2.05E-06,0.018139376
,,,2.06E-06,0.018152501
,,,2.07E-06,0.018058751
,,,2.08E-06,0.018113126
,,,2.09E-06,0.018088126
,,,2.1E-06,0.018124376
,,,2.11E-06,0.018014376
,,,2.12E-06,0.018058126
,,,2.13E-06,0.018090001
,,,2.14E-06,0.018003751
,,,2.15E-06,0.018088126
,,,2.16E-06,0.018126251
,,,2.17E-06,0.018123751
,,,2.18E-06,0.017970001
,,,2.19E-06,0.017923751
,,,2.2E-06,0.018102501
,,,2.21E-06,0.018067501
,,,2.22E-06,0.017834376
,,,2.23E-06,0.018158126
,,,2.24E-06,0.018301876
,,,2.25E-06,0.018121876
,,,2.26E-06,0.017969376
,,,2.27E-06,0.017929376
,,,2.28E-06,0.018070626
,,,2.29E-06,0.017905001
,,,2.3E-06,0.018230626
,,,2.31E-06,0.018239376
,,,2.32E-06,0.018015001
,,,2.33E-06,0.018070626
,,,2.34E-06,0.018340001
,,,2.35E-06,0.017936876
,,,2.36E-06,0.018173126
,,,2.37E-06,0.018116251
,,,2.38E-06,0.018101876
,,,2.39E-06,0.018056876
,,,2.4E-06,0.018281251
,,,2.41E-06,0.018013126
,,,2.42E-06,0.017916876
,,,2.43E-06,0.017894376
,,,2.44E-06,0.018128126
,,,2.45E-06,0.018130001
,,,2.46E-06,0.018030626
,,,2.47E-06,0.018306251
,,,2.48E-06,0.018104376
,,,2.49E-06,0.018302501
,,,2.5E-06,0.018070001
,,,2.51E-06,0.018183126
,,,2.52E-06,0.018116251
,,,2.53E-06,0.018063126
,,,2.54E-06,0.018036251
,,,2.55E-06,0.018098126
,,,2.56E-06,0.018204376
,,,2.57E-06,0.018338126
,,,2.58E-06,0.018149376
,,,2.59E-06,0.018125001
,,,2.6E-06,0.018238751
,,,2.61E-06,0.018014376
,,,2.62E-06,0.017989376
,,,2.63E-06,0.018071876
,,,2.64E-06,0.018306251
,,,2.65E-06,0.017963126
,,,2.66E-06,0.017870001
,,,2.67E-06,0.017985626
,,,2.68E-06,0.018002501
,,,2.69E-06,0.017932501
,,,2.7E-06,0.018228126
,,,2.71E-06,0.018120001
,,,2.72E-06,0.018038126
,,,2.73E-06,0.018097501
,,,2.74E-06,0.018171876
,,,2.75E-06,0.018116251
,,,2.76E-06,0.018082501
,,,2.77E-06,0.017963751
,,,2.78E-06,0.017979376
,,,2.79E-06,0.018180001
,,,2.8E-06,0.017991876
,,,2.81E-06,0.018226251
,,,2.82E-06,0.018186251
,,,2.83E-06,0.018183126
,,,2.84E-06,0.018195626
,,,2.85E-06,0.018161251
,,,2.86E-06,0.018186251
,,,2.87E-06,0.018141876
,,,2.88E-06,0.018080001
,,,2.89E-06,0.018282501
,,,2.9E-06,0.018175626
,,,2.91E-06,0.018103751
,,,2.92E-06,0.018076876
,,,2.93E-06,0.017691251
,,,2.94E-06,0.018216251
,,,2.95E-06,0.018038751
,,,2.96E-06,0.018276876
,,,2.97E-06,0.018244376
,,,2.98E-06,0.018038126
,,,2.99E-06,0.017973751
,,,3E-06,0.017975626
,,,3.01E-06,0.018098751
,,,3.02E-06,0.017958751
,,,3.03E-06,0.018100001
,,,3.04E-06,0.018088126
,,,3.05E-06,0.017998126
,,,3.06E-06,0.018358751
,,,3.07E-06,0.018277501
,,,3.08E-06,0.018187501
,,,3.09E-06,0.018280001
,,,3.1E-06,0.017941251
,,,3.11E-06,0.017990001
,,,3.12E-06,0.017970001
,,,3.13E-06,0.018173751
,,,3.14E-06,0.018040001
,,,3.15E-06,0.018127501
,,,3.16E-06,0.018022501
,,,3.17E-06,0.018008751
,,,3.18E-06,0.018240626
,,,3.19E-06,0.017872501
,,,3.2E-06,0.018201876
,,,3.21E-06,0.018045626
