data/raw/Final_POL_Test_1/SOP022_Ch2.csv

"Record Length",1000,"Points",-5E-06,0.020491875
"Sample Interval",1E-08,s,-4.99E-06,0.02046875
"Trigger Point",500,"Samples",-4.98E-06,0.020506875
"Trigger Time",0,s,-4.97E-06,0.020475
"",,,-4.96E-06,0.020319375
"Horizontal Offset",-5E-06,s,-4.95E-06,0.020590625
,,,-4.94E-06,0.020674375
,,,-4.93E-06,0.02031
,,,-4.92E-06,0.02036875
,,,-4.91E-06,0.020425625
,,,-4.9E-06,0.020375
,,,-4.89E-06,0.020666875
,,,-4.88E-06,0.020510625
,,,-4.87E-06,0.020339375
,,,-4.86E-06,0.02026875
,,,-4.85E-06,0.02052
,,,-4.84E-06,0.0204675
,,,-4.83E-06,0.020343125
,,,-4.82E-06,0.020311875
,,,-4.81E-06,0.020560625
,,,-4.8E-06,0.02039
,,,-4.79E-06,0.02044375
,,,-4.78E-06,0.020673125
,,,-4.77E-06,0.020423125
,,,-4.76E-06,0.020483125
,,,-4.75E-06,0.020768125
,,,-4.74E-06,0.020630625
,,,-4.73E-06,0.020525625
,,,-4.72E-06,0.02063125
,,,-4.71E-06,0.0204
,,,-4.7E-06,0.020080625
,,,-4.69E-06,0.0204275
,,,-4.68E-06,0.020425
,,,-4.67E-06,0.0203025
,,,-4.66E-06,0.020525
,,,-4.65E-06,0.020283125
,,,-4.64E-06,0.0205675
,,,-4.63E-06,0.020468125
,,,-4.62E-06,0.0205125
,,,-4.61E-06,0.02037
,,,-4.6E-06,0.02044
,,,-4.59E-06,0.02032625
,,,-4.58E-06,0.020569375
,,,-4.57E-06,0.020608125
,,,-4.56E-06,0.0203825
,,,-4.55E-06,0.02045
,,,-4.54E-06,0.02050125
,,,-4.53E-06,0.020488125
,,,-4.52E-06,0.020398125
,,,-4.51E-06,0.020401875
,,,-4.5E-06,0.020475625
,,,-4.49E-06,0.0204525
,,,-4.48E-06,0.02055875
,,,-4.47E-06,0.020638125
,,,-4.46E-06,0.02038125
,,,-4.45E-06,0.02046375
,,,-4.44E-06,0.020518125
,,,-4.43E-06,0.02052625
,,,-4.42E-06,0.020474375
,,,-4.41E-06,0.0202825
,,,-4.4E-06,0.020335625
,,,-4.39E-06,0.020435625
,,,-4.38E-06,0.02046125
,,,-4.37E-06,0.02042375
,,,-4.36E-06,0.020655
,,,-4.35E-06,0.0201825
,,,-4.34E-06,0.020509375
,,,-4.33E-06,0.0205775
,,,-4.32E-06,0.020485
,,,-4.31E-06,0.020565625
,,,-4.3E-06,0.02053125
,,,-4.29E-06,0.020603125
,,,-4.28E-06,0.020566875
,,,-4.27E-06,0.02055
,,,-4.26E-06,0.020525625
,,,-4.25E-06,0.02035125
,,,-4.24E-06,0.0206125
,,,-4.23E-06,0.020630625
,,,-4.22E-06,0.02060375
,,,-4.21E-06,0.0205025
,,,-4.2E-06,0.020574375
,,,-4.19E-06,0.020553125
,,,-4.18E-06,0.020386875
,,,-4.17E-06,0.02066875
,,,-4.16E-06,0.02042
,,,-4.15E-06,0.02075
,,,-4.14E-06,0.0204
,,,-4.13E-06,0.020313125
,,,-4.12E-06,0.020584375
,,,-4.11E-06,0.020553125
,,,-4.1E-06,0.020480625
,,,-4.09E-06,0.020626875
,,,-4.08E-06,0.020210625
,,,-4.07E-06,0.0204725
,,,-4.06E-06,0.020550625
,,,-4.05E-06,0.02038875
,,,-4.04E-06,0.02060375
,,,-4.03E-06,0.020551875
,,,-4.02E-06,0.020445
,,,-4.01E-06,0.020509375
,,,-4E-06,0.02048875
,,,-3.99E-06,0.020423125
,,,-3.98E-06,0.020379375
,,,-3.97E-06,0.02054125
,,,-3.96E-06,0.020676875
,,,-3.95E-06,0.02040875
,,,-3.94E-06,0.0206675
,,,-3.93E-06,0.02041
,,,-3.92E-06,0.020333125
,,,-3.91E-06,0.02041375
,,,-3.9E-06,0.02038875
,,,-3.89E-06,0.020485625
,,,-3.88E-06,0.0203325
,,,-3.87E-06,0.02057875
,,,-3.86E-06,0.020384375
,,,-3.85E-06,0.020508125
,,,-3.84E-06,0.020388125
,,,-3.83E-06,0.0206025
,,,-3.82E-06,0.020438125
,,,-3.81E-06,0.020386875
,,,-3.8E-06,0.0206275
,,,-3.79E-06,0.02057375
,,,-3.78E-06,0.020278125
,,,-3.77E-06,0.02047875
,,,-3.76E-06,0.02049875
,,,-3.75E-06,0.020293125
,,,-3.74E-06,0.02046625
,,,-3.73E-06,0.02047875
,,,-3.72E-06,0.020519375
,,,-3.71E-06,0.02046125
,,,-3.7E-06,0.02047625
,,,-3.69E-06,0.020558125
,,,-3.68E-06,0.020209375
,,,-3.67E-06,0.02058
,,,-3.66E-06,0.020568125
,,,-3.65E-06,0.02042875
,,,-3.64E-06,0.02034875
,,,-3.63E-06,0.020435625
,,,-3.62E-06,0.02021125
,,,-3.61E-06,0.02042125
,,,-3.6E-06,0.0201525
,,,-3.59E-06,0.02040625
,,,-3.58E-06,0.020573125
,,,-3.57E-06,0.020570625
,,,-3.56E-06,0.0203325
,,,-3.55E-06,0.020414375
,,,-3.54E-06,0.02023125
,,,-3.53E-06,0.020608125
,,,-3.52E-06,0.02036375
,,,-3.51E-06,0.020549375
,,,-3.5E-06,0.020361875
,,,-3.49E-06,0.02044375
,,,-3.48E-06,0.020553125
,,,-3.47E-06,0.020546875
,,,-3.46E-06,0.02039375
,,,-3.45E-06,0.020575
,,,-3.44E-06,0.020473125
,,,-3.43E-06,0.02049875
,,,-3.42E-06,0.02039625
,,,-3.41E-06,0.02061875
,,,-3.4E-06,0.020471875
,,,-3.39E-06,0.0202675
,,,-3.38E-06,0.020533125
,,,-3.37E-06,0.02044
,,,-3.36E-06,0.0202775
,,,-3.35E-06,0.02044
,,,-3.34E-06,0.0208225
,,,-3.33E-06,0.020395625
,,,-3.32E-06,0.020464375
,,,-3.31E-06,0.02065625
,,,-3.3E-06,0.020393125
,,,-3.29E-06,0.020453125
,,,-3.28E-06,0.0205825
,,,-3.27E-06,0.02038625
,,,-3.26E-06,0.020466875
,,,-3.25E-06,0.020364375
,,,-3.24E-06,0.020544375
,,,-3.23E-06,0.0202875
,,,-3.22E-06,0.0205375
,,,-3.21E-06,0.020746875
,,,-3.2E-06,0.020365625
,,,-3.19E-06,0.020505
,,,-3.18E-06,0.020545
,,,-3.17E-06,0.020306875
,,,-3.16E-06,0.020499375
,,,-3.15E-06,0.0203375
,,,-3.14E-06,0.02055125
,,,-3.13E-06,0.02034375
,,,-3.12E-06,0.020398125
,,,-3.11E-06,0.020331875
,,,-3.1E-06,0.020535
,,,-3.09E-06,0.02068
,,,-3.08E-06,0.020595625
,,,-3.07E-06,0.02039125
,,,-3.06E-06,0.020624375
,,,-3.05E-06,0.02045875
,,,-3.04E-06,0.02027875
,,,-3.03E-06,0.020380625
,,,-3.02E-06,0.0204775
,,,-3.01E-06,0.020418125
,,,-3E-06,0.02054125
,,,-2.99E-06,0.020625625
,,,-2.98E-06,0.0204675
,,,-2.97E-06,0.02061625
,,,-2.96E-06,0.02023125
,,,-2.95E-06,0.020426875
,,,-2.94E-06,0.020310625
,,,-2.93E-06,0.020495625
,,,-2.92E-06,0.02041
,,,-2.91E-06,0.020569375
,,,-2.9E-06,0.02067
,,,-2.89E-06,0.02056375
,,,-2.88E-06,0.020405625
,,,-2.87E-06,0.02061625
,,,-2.86E-06,0.0203775
,,,-2.85E-06,0.020455
,,,-2.84E-06,0.020534375
,,,-2.83E-06,0.020615
,,,-2.82E-06,0.020185625
,,,-2.81E-06,0.0205925
,,,-2.8E-06,0.0205025
,,,-2.79E-06,0.0204175
,,,-2.78E-06,0.020471875
,,,-2.77E-06,0.020524375
,,,-2.76E-06,0.020435625
,,,-2.75E-06,0.020506875
,,,-2.74E-06,0.02044625
,,,-2.73E-06,0.0203425
,,,-2.72E-06,0.02021875
,,,-2.71E-06,0.02024
,,,-2.7E-06,0.020476875
,,,-2.69E-06,0.02056875
,,,-2.68E-06,0.020559375
,,,-2.67E-06,0.020575625
,,,-2.66E-06,0.020613125
,,,-2.65E-06,0.0204275
,,,-2.64E-06,0.02038625
,,,-2.63E-06,0.020388125
,,,-2.62E-06,0.020380625
,,,-2.61E-06,0.020269375
,,,-2.6E-06,0.0203975
,,,-2.59E-06,0.02052
,,,-2.58E-06,0.020431875
,,,-2.57E-06,0.020776875
,,,-2.56E-06,0.0204825
,,,-2.55E-06,0.020594375
,,,-2.54E-06,0.020451875
,,,-2.53E-06,0.0204225
,,,-2.52E-06,0.020586875
,,,-2.51E-06,0.020384375
,,,-2.5E-06,0.020524375
,,,-2.49E-06,0.020393125
,,,-2.48E-06,0.020523125
,,,-2.47E-06,0.0206675
,,,-2.46E-06,0.02031
,,,-2.45E-06,0.020385
,,,-2.44E-06,0.020558125
,,,-2.43E-06,0.020439375
,,,-2.42E-06,0.02056
,,,-2.41E-06,0.020409375
,,,-2.4E-06,0.02070125
,,,-2.39E-06,0.02047375
,,,-2.38E-06,0.020264375
,,,-2.37E-06,0.020310625
,,,-2.36E-06,0.020391875
,,,-2.35E-06,0.0204775
,,,-2.34E-06,0.020518125
,,,-2.33E-06,0.02038
,,,-2.32E-06,0.020515
,,,-2.31E-06,0.0204975
,,,-2.3E-06,0.020265625
,,,-2.29E-06,0.020620625
,,,-2.28E-06,0.020515625
,,,-2.27E-06,0.02045625
,,,-2.26E-06,0.02061625
,,,-2.25E-06,0.020426875
,,,-2.24E-06,0.0207225
,,,-2.23E-06,0.02035375
,,,-2.22E-06,0.020721875
,,,-2.21E-06,0.0205575
,,,-2.2E-06,0.02048
,,,-2.19E-06,0.020598125
,,,-2.18E-06,0.020829375
,,,-2.17E-06,0.020655625
,,,-2.16E-06,0.020350625
,,,-2.15E-06,0.02044
,,,-2.14E-06,0.020535625
,,,-2.13E-06,0.0202725
,,,-2.12E-06,0.020425
,,,-2.11E-06,0.0203875
,,,-2.1E-06,0.0204975
,,,-2.09E-06,0.020469375
,,,-2.08E-06,0.020676875
,,,-2.07E-06,0.02070125
,,,-2.06E-06,0.02050375
,,,-2.05E-06,0.0205275
,,,-2.04E-06,0.020333125
,,,-2.03E-06,0.020735625
,,,-2.02E-06,0.02059625
,,,-2.01E-06,0.02029625
,,,-2E-06,0.02042
,,,-1.99E-06,0.020473125
,,,-1.98E-06,0.020450625
,,,-1.97E-06,0.0204225
,,,-1.96E-06,0.020439375
,,,-1.95E-06,0.0202325
,,,-1.94E-06,0.02045875
,,,-1.93E-06,0.020715625
,,,-1.92E-06,0.020644375
,,,-1.91E-06,0.02049875
,,,-1.9E-06,0.020515625
,,,-1.89E-06,0.0203775
,,,-1.88E-06,0.0204175
,,,-1.87E-06,0.020251875
,,,-1.86E-06,0.02030625
,,,-1.85E-06,0.02023625
,,,-1.84E-06,0.02045375
,,,-1.83E-06,0.02056125
,,,-1.82E-06,0.020569375
,,,-1.81E-06,0.0204175
,,,-1.8E-06,0.020490625
,,,-1.79E-06,0.02051625
,,,-1.78E-06,0.020349375
,,,-1.77E-06,0.0203575
,,,-1.76E-06,0.02035875
,,,-1.75E-06,0.020621875
,,,-1.74E-06,0.02061125
,,,-1.73E-06,0.02027625
,,,-1.72E-06,0.020508125
,,,-1.71E-06,0.020403125
,,,-1.7E-06,0.020445625
,,,-1.69E-06,0.020455
,,,-1.68E-06,0.02048375
,,,-1.67E-06,0.020496875
,,,-1.66E-06,0.02039125
,,,-1.65E-06,0.020566875
,,,-1.64E-06,0.020423125
,,,-1.63E-06,0.020408125
,,,-1.62E-06,0.020439375
,,,-1.61E-06,0.020433125
,,,-1.6E-06,0.0203375
,,,-1.59E-06,0.020521875
,,,-1.58E-06,0.020369375
,,,-1.57E-06,0.02024
,,,-1.56E-06,0.020460625
,,,-1.55E-06,0.0202975
,,,-1.54E-06,0.02037375
,,,-1.53E-06,0.020586875
,,,-1.52E-06,0.02038625
,,,-1.51E-06,0.020431875
,,,-1.5E-06,0.020276875
,,,-1.49E-06,0.020505625
,,,-1.48E-06,0.020586875
,,,-1.47E-06,0.02057125
,,,-1.46E-06,0.020588125
,,,-1.45E-06,0.020465
,,,-1.44E-06,0.020643125
,,,-1.43E-06,0.02062125
,,,-1.42E-06,0.0205475
,,,-1.41E-06,0.020373125
,,,-1.4E-06,0.02054625
,,,-1.39E-06,0.020451875
,,,-1.38E-06,0.020435
,,,-1.37E-06,0.02040625
,,,-1.36E-06,0.0205325
,,,-1.35E-06,0.020514375
,,,-1.34E-06,0.020245
,,,-1.33E-06,0.020365
,,,-1.32E-06,0.020305625
,,,-1.31E-06,0.02047375
,,,-1.3E-06,0.020533125
,,,-1.29E-06,0.020393125
,,,-1.28E-06,0.0203125
,,,-1.27E-06,0.020358125
,,,-1.26E-06,0.020470625
,,,-1.25E-06,0.020504375
,,,-1.24E-06,0.020410625
,,,-1.23E-06,0.020365625
,,,-1.22E-06,0.0202775
,,,-1.21E-06,0.020590625
,,,-1.2E-06,0.020446875
,,,-1.19E-06,0.020663125
,,,-1.18E-06,0.020449375
,,,-1.17E-06,0.020495
,,,-1.16E-06,0.0203625
,,,-1.15E-06,0.02051
,,,-1.14E-06,0.020274375
,,,-1.13E-06,0.020503125
,,,-1.12E-06,0.0205275
,,,-1.11E-06,0.0203175
,,,-1.1E-06,0.02045125
,,,-1.09E-06,0.020409375
,,,-1.08E-06,0.0207525
,,,-1.07E-06,0.020395625
,,,-1.06E-06,0.0203525
,,,-1.05E-06,0.020524375
,,,-1.04E-06,0.020584375
,,,-1.03E-06,0.020569375
,,,-1.02E-06,0.02060125
,,,-1.01E-06,0.0205575
,,,-1E-06,0.020526875
,,,-9.9E-07,0.0203425
,,,-9.8E-07,0.02040125
,,,-9.7E-07,0.0204725
,,,-9.6E-07,0.020394375
,,,-9.5E-07,0.020588125
,,,-9.4E-07,0.0204075
,,,-9.3E-07,0.0205225
,,,-9.2E-07,0.020605
,,,-9.1E-07,0.0205825
,,,-9E-07,0.020420625
,,,-8.9E-07,0.02056375
,,,-8.8E-07,0.0204725
,,,-8.7E-07,0.02055375
,,,-8.6E-07,0.020798125
,,,-8.5E-07,0.020818125
,,,-8.4E-07,0.020481875
,,,-8.3E-07,0.02042875
,,,-8.2E-07,0.020386875
,,,-8.1E-07,0.020306875
,,,-8E-07,0.020325625
,,,-7.9E-07,0.020453125
,,,-7.8E-07,0.020575
,,,-7.7E-07,0.02072375
,,,-7.6E-07,0.02047625
,,,-7.5E-07,0.020439375
,,,-7.4E-07,0.020529375
,,,-7.3E-07,0.020293125
,,,-7.2E-07,0.020419375
,,,-7.1E-07,0.02050375
,,,-7E-07,0.020508125
,,,-6.9E-07,0.020685
,,,-6.8E-07,0.020635
,,,-6.7E-07,0.02029625
,,,-6.6E-07,0.02056875
,,,-6.5E-07,0.020673125
,,,-6.4E-07,0.02047
,,,-6.3E-07,0.020500625
,,,-6.2E-07,0.020509375
,,,-6.1E-07,0.020414375
,,,-6E-07,0.020390625
,,,-5.9E-07,0.020468125
,,,-5.8E-07,0.02041625
,,,-5.7E-07,0.020643125
,,,-5.6E-07,0.020249375
,,,-5.5E-07,0.020411875
,,,-5.4E-07,0.020628125
,,,-5.3E-07,0.020541875
,,,-5.2E-07,0.020605
,,,-5.1E-07,0.0204575
,,,-5E-07,0.020525625
,,,-4.9E-07,0.0204175
,,,-4.8E-07,0.02033125
,,,-4.7E-07,0.02043625
,,,-4.6E-07,0.02038125
,,,-4.5E-07,0.020568125
,,,-4.4E-07,0.02063625
,,,-4.3E-07,0.020426875
,,,-4.2E-07,0.020605
,,,-4.1E-07,0.0204125
,,,-4E-07,0.020329375
,,,-3.9E-07,0.020521875
,,,-3.8E-07,0.02037
,,,-3.7E-07,0.020616875
,,,-3.6E-07,0.020406875
,,,-3.5E-07,0.020581875
,,,-3.4E-07,0.0202775
,,,-3.3E-07,0.0205525
,,,-3.2E-07,0.020293125
,,,-3.1E-07,0.0203625
,,,-3E-07,0.02043
,,,-2.9E-07,0.020498125
,,,-2.8E-07,0.020348125
,,,-2.7E-07,0.020435625
,,,-2.6E-07,0.020400625
,,,-2.5E-07,0.020623125
,,,-2.4E-07,0.02043375
,,,-2.3E-07,0.02059875
,,,-2.2E-07,0.020453125
,,,-2.1E-07,0.020459375
,,,-2E-07,0.02054125
,,,-1.9E-07,0.02040375
,,,-1.8E-07,0.02039875
,,,-1.7E-07,0.020588125
,,,-1.6E-07,0.0204625
,,,-1.5E-07,0.020475625
,,,-1.4E-07,0.0205925
,,,-1.3E-07,0.020314375
,,,-1.2E-07,0.020254375
,,,-1.1E-07,0.02048375
,,,-1E-07,0.0204075
,,,-9E-08,0.020419375
,,,-8E-08,0.0205375
,,,-7E-08,0.020411875
,,,-6E-08,0.020355625
,,,-5E-08,0.0206825
,,,-4E-08,0.02185375
,,,-3E-08,0.021456875
,,,-2E-08,0.018550625
,,,-1E-08,0.016400624
,,,0,0.019361875
,,,1E-08,0.023796875
,,,2E-08,0.02504625
,,,3E-08,0.022840625
,,,4E-08,0.018680625
,,,5E-08,0.017155
,,,6E-08,0.01731125
,,,7E-08,0.0198875
,,,8E-08,0.0216975
,,,9E-08,0.022841875
,,,1E-07,0.022040625
,,,1.1E-07,0.02057625
,,,1.2E-07,0.018915625
,,,1.3E-07,0.018966875
,,,1.4E-07,0.019895
,,,1.5E-07,0.021121875
,,,1.6E-07,0.021214375
,,,1.7E-07,0.020755
,,,1.8E-07,0.020575
,,,1.9E-07,0.020481875
,,,2E-07,0.020410625
,,,2.1E-07,0.020169375
,,,2.2E-07,0.020078125
,,,2.3E-07,0.020429375
,,,2.4E-07,0.020825625
,,,2.5E-07,0.020734375
,,,2.6E-07,0.020476875
,,,2.7E-07,0.020411875
,,,2.8E-07,0.020435
,,,2.9E-07,0.020481875
,,,3E-07,0.020495
,,,3.1E-07,0.020254375
,,,3.2E-07,0.020795625
,,,3.3E-07,0.020426875
,,,3.4E-07,0.02051
,,,3.5E-07,0.02046375
,,,3.6E-07,0.020484375
,,,3.7E-07,0.020336875
,,,3.8E-07,0.020379375
,,,3.9E-07,0.02049625
,,,4E-07,0.0204425
,,,4.1E-07,0.020755625
,,,4.2E-07,0.020344375
,,,4.3E-07,0.020389375
,,,4.4E-07,0.0205925
,,,4.5E-07,0.02050125
,,,4.6E-07,0.02043375
,,,4.7E-07,0.0202775
,,,4.8E-07,0.02035375
,,,4.9E-07,0.02036625
,,,5E-07,0.020510625
,,,5.1E-07,0.02058
,,,5.2E-07,0.0208325
,,,5.3E-07,0.02044125
,,,5.4E-07,0.020366875
,,,5.5E-07,0.02044125
,,,5.6E-07,0.020426875
,,,5.7E-07,0.0204
,,,5.8E-07,0.020530625
,,,5.9E-07,0.020478125
,,,6E-07,0.020439375
,,,6.1E-07,0.0205075
,,,6.2E-07,0.02045
,,,6.3E-07,0.020370625
,,,6.4E-07,0.0203175
,,,6.5E-07,0.0204275
,,,6.6E-07,0.0204325
,,,6.7E-07,0.02052375
,,,6.8E-07,0.020581875
,,,6.9E-07,0.02052
,,,7E-07,0.020573125
,,,7.1E-07,0.02067375
,,,7.2E-07,0.0203675
,,,7.3E-07,0.020565
,,,7.4E-07,0.020190625
,,,7.5E-07,0.020555
,,,7.6E-07,0.02014375
,,,7.7E-07,0.0204075
,,,7.8E-07,0.020370625
,,,7.9E-07,0.020395
,,,8E-07,0.020455
,,,8.1E-07,0.02058875
,,,8.2E-07,0.020436875
,,,8.3E-07,0.02056125
,,,8.4E-07,0.020483125
,,,8.5E-07,0.0204775
,,,8.6E-07,0.0201525
,,,8.7E-07,0.020404375
,,,8.8E-07,0.020376875
,,,8.9E-07,0.020585625
,,,9E-07,0.020480625
,,,9.1E-07,0.02074375
,,,9.2E-07,0.020540625
,,,9.3E-07,0.020349375
,,,9.4E-07,0.020555625
,,,9.5E-07,0.020576875
,,,9.6E-07,0.020385
,,,9.7E-07,0.0202825
,,,9.8E-07,0.02052
,,,9.9E-07,0.02056125
,,,1E-06,0.020429375
,,,1.01E-06,0.020625
,,,1.02E-06,0.020288125
,,,1.03E-06,0.02042375
,,,1.04E-06,0.020451875
,,,1.05E-06,0.020396875
,,,1.06E-06,0.02064125
,,,1.07E-06,0.020285
,,,1.08E-06,0.02033
,,,1.09E-06,0.02045875
,,,1.1E-06,0.020631875
,,,1.11E-06,0.0205175
,,,1.12E-06,0.020506875
,,,1.13E-06,0.020441875
,,,1.14E-06,0.020413125
,,,1.15E-06,0.02055625
,,,1.16E-06,0.0206125
,,,1.17E-06,0.020566875
,,,1.18E-06,0.020514375
,,,1.19E-06,0.020465
,,,1.2E-06,0.02017125
,,,1.21E-06,0.02045375
,,,1.22E-06,0.020590625
,,,1.23E-06,0.02056
,,,1.24E-06,0.020571875
,,,1.25E-06,0.020615625
,,,1.26E-06,0.02050125
,,,1.27E-06,0.020430625
,,,1.28E-06,0.020538125
,,,1.29E-06,0.020638125
,,,1.3E-06,0.02048125
,,,1.31E-06,0.020704375
,,,1.32E-06,0.020468125
,,,1.33E-06,0.020619375
,,,1.34E-06,0.02047625
,,,1.35E-06,0.02028
,,,1.36E-06,0.02057625
,,,1.37E-06,0.020421875
,,,1.38E-06,0.020455
,,,1.39E-06,0.02053625
,,,1.4E-06,0.020399375
,,,1.41E-06,0.02050125
,,,1.42E-06,0.02048375
,,,1.43E-06,0.02054375
,,,1.44E-06,0.020490625
,,,1.45E-06,0.020374375
,,,1.46E-06,0.020214375
,,,1.47E-06,0.02055375
,,,1.48E-06,0.02039375
,,,1.49E-06,0.020545
,,,1.5E-06,0.020505625
,,,1.51E-06,0.02054
,,,1.52E-06,0.02046
,,,1.53E-06,0.02048
,,,1.54E-06,0.02042375
,,,1.55E-06,0.020529375
,,,1.56E-06,0.020265
,,,1.57E-06,0.020461875
,,,1.58E-06,0.020418125
,,,1.59E-06,0.020685625
,,,1.6E-06,0.02046625
,,,1.61E-06,0.02038625
,,,1.62E-06,0.0206375
,,,1.63E-06,0.02045
,,,1.64E-06,0.02069125
,,,1.65E-06,0.0207275
,,,1.66E-06,0.020491875
,,,1.67E-06,0.02026875
,,,1.68E-06,0.02039875
,,,1.69E-06,0.020526875
,,,1.7E-06,0.02031875
,,,1.71E-06,0.02076625
,,,1.72E-06,0.02034125
,,,1.73E-06,0.020613125
,,,1.74E-06,0.020330625
,,,1.75E-06,0.020498125
,,,1.76E-06,0.020290625
,,,1.77E-06,0.02045375
,,,1.78E-06,0.02056125
,,,1.79E-06,0.02045875
,,,1.8E-06,0.020355625
,,,1.81E-06,0.020509375
,,,1.82E-06,0.020498125
,,,1.83E-06,0.02059
,,,1.84E-06,0.0202875
,,,1.85E-06,0.02045
,,,1.86E-06,0.02059125
,,,1.87E-06,0.02052875
,,,1.88E-06,0.0205025
,,,1.89E-06,0.02049375
,,,1.9E-06,0.020440625
,,,1.91E-06,0.02060375
,,,1.92E-06,0.020253125
,,,1.93E-06,0.0203
,,,1.94E-06,0.02059625
,,,1.95E-06,0.0204425
,,,1.96E-06,0.020213125
,,,1.97E-06,0.02057625
,,,1.98E-06,0.020416875
,,,1.99E-06,0.020589375
,,,2E-06,0.02048625
,,,2.01E-06,0.0204975
,,,2.02E-06,0.020456875
,,,2.03E-06,0.020949375
,,,2.04E-06,0.020305
,,,2.05E-06,0.020524375
,,,2.06E-06,0.020486875
,,,2.07E-06,0.020561875
,,,2.08E-06,0.020401875
,,,2.09E-06,0.020445625
,,,2.1E-06,0.020450625
,,,2.11E-06,0.0206275
,,,2.12E-06,0.02068
,,,2.13E-06,0.0206425
,,,2.14E-06,0.02054375
,,,2.15E-06,0.02070875
,,,2.16E-06,0.02023875
,,,2.17E-06,0.020395625
,,,2.18E-06,0.02045
,,,2.19E-06,0.02047375
,,,2.2E-06,0.0204425
,,,2.21E-06,0.0206275
,,,2.22E-06,0.0204375
,,,2.23E-06,0.020554375
,,,2.24E-06,0.020853125
,,,2.25E-06,0.020468125
,,,2.26E-06,0.020434375
,,,2.27E-06,0.020465
,,,2.28E-06,0.020606875
,,,2.29E-06,0.020318125
,,,2.3E-06,0.02023125
,,,2.31E-06,0.0205975
,,,2.32E-06,0.020635
,,,2.33E-06,0.020529375
,,,2.34E-06,0.02037
,,,2.35E-06,0.0204275
,,,2.36E-06,0.020415
,,,2.37E-06,0.020234375
,,,2.38E-06,0.020625625
,,,2.39E-06,0.0206825
,,,2.4E-06,0.020614375
,,,2.41E-06,0.02045875
,,,2.42E-06,0.020531875
,,,2.43E-06,0.020355
,,,2.44E-06,0.02051
,,,2.45E-06,0.0205475
,,,2.46E-06,0.020579375
,,,2.47E-06,0.020511875
,,,2.48E-06,0.020361875
,,,2.49E-06,0.0204075
,,,2.5E-06,0.0203775
,,,2.51E-06,0.020645625
,,,2.52E-06,0.020359375
,,,2.53E-06,0.020239375
,,,2.54E-06,0.0206425
,,,2.55E-06,0.020469375
,,,2.56E-06,0.020704375
,,,2.57E-06,0.020476875
,,,2.58E-06,0.020445
,,,2.59E-06,0.020550625
,,,2.6E-06,0.0205925
,,,2.61E-06,0.020459375
,,,2.62E-06,0.020161875
,,,2.63E-06,0.020395
,,,2.64E-06,0.0205275
,,,2.65E-06,0.020385
,,,2.66E-06,0.020504375
,,,2.67E-06,0.02051125
,,,2.68E-06,0.020455
,,,2.69E-06,0.020365625
,,,2.7E-06,0.02028625
,,,2.71E-06,0.02022875
,,,2.72E-06,0.02057875
,,,2.73E-06,0.020655
,,,2.74E-06,0.02037625
,,,2.75E-06,0.02044375
,,,2.76E-06,0.02034625
,,,2.77E-06,0.020605625
,,,2.78E-06,0.0204875
,,,2.79E-06,0.020643125
,,,2.8E-06,0.020471875
,,,2.81E-06,0.0204675
,,,2.82E-06,0.020659375
,,,2.83E-06,0.020316875
,,,2.84E-06,0.02057
,,,2.85E-06,0.020436875
,,,2.86E-06,0.020335
,,,2.87E-06,0.020428125
,,,2.88E-06,0.020378125
,,,2.89E-06,0.020460625
,,,2.9E-06,0.0204575
,,,2.91E-06,0.0203675
,,,2.92E-06,0.0205875
,,,2.93E-06,0.02024
,,,2.94E-06,0.020370625
,,,2.95E-06,0.0206675
,,,2.96E-06,0.020398125
,,,2.97E-06,0.020425625
,,,2.98E-06,0.02025625
,,,2.99E-06,0.0204225
,,,3E-06,0.02046
,,,3.01E-06,0.020381875
,,,3.02E-06,0.02049125
,,,3.03E-06,0.020693125
,,,3.04E-06,0.020698125
,,,3.05E-06,0.02030875
,,,3.06E-06,0.020483125
,,,3.07E-06,0.020500625
,,,3.08E-06,0.0204975
,,,3.09E-06,0.020343125
,,,3.1E-06,0.020365
,,,3.11E-06,0.020441875
,,,3.12E-06,0.020321875
,,,3.13E-06,0.020455625
,,,3.14E-06,0.020628125
,,,3.15E-06,0.020458125
,,,3.16E-06,0.020461875
,,,3.17E-06,0.02048875
,,,3.18E-06,0.02027375
,,,3.19E-06,0.0206825
,,,3.2E-06,0.020584375
,,,3.21E-06,0.020441875
,,,3.22E-06,0.0205075
,,,3.23E-06,0.020224375
,,,3.24E-06,0.020470625
,,,3.25E-06,0.020414375
,,,3.26E-06,0.02042375
,,,3.27E-06,0.020570625
,,,3.28E-06,0.020214375
,,,3.29E-06,0.020439375
,,,3.3E-06,0.0207025
,,,3.31E-06,0.020478125
,,,3.32E-06,0.020510625
,,,3.33E-06,0.0203325
,,,3.34E-06,0.020635
,,,3.35E-06,0.020414375
,,,3.36E-06,0.0205875
,,,3.37E-06,0.02057875
,,,3.38E-06,0.020499375
,,,3.39E-06,0.020425625
,,,3.4E-06,0.02042
,,,3.41E-06,0.020348125
,,,3.42E-06,0.020443125
,,,3.43E-06,0.020440625
,,,3.44E-06,0.020294375
,,,3.45E-06,0.020375
,,,3.46E-06,0.02064
,,,3.47E-06,0.0203775
,,,3.48E-06,0.02045625
,,,3.49E-06,0.020425625
,,,3.5E-06,0.020568125
,,,3.51E-06,0.0206575
,,,3.52E-06,0.020499375
,,,3.53E-06,0.02043
,,,3.54E-06,0.02035625
,,,3.55E-06,0.020570625
,,,3.56E-06,0.02056125
,,,3.57E-06,0.020503125
