data/raw/Final_POL_Test_1/SOP014_Ch2.csv

"Record Length",1000,"Points",-5E-06,0.02411
"Sample Interval",1E-08,s,-4.99E-06,0.024168125
"Trigger Point",500,"Samples",-4.98E-06,0.024264375
"Trigger Time",0,s,-4.97E-06,0.024185
"",,,-4.96E-06,0.02428375
"Horizontal Offset",-5E-06,s,-4.95E-06,0.02413125
,,,-4.94E-06,0.02428625
,,,-4.93E-06,0.02407875
,,,-4.92E-06,0.02409
,,,-4.91E-06,0.024535
,,,-4.9E-06,0.02436375
,,,-4.89E-06,0.02447125
,,,-4.88E-06,0.024294375
,,,-4.87E-06,0.024448125
,,,-4.86E-06,0.0241925
,,,-4.85E-06,0.024315
,,,-4.84E-06,0.0243425
,,,-4.83E-06,0.0242625
,,,-4.82E-06,0.0242975
,,,-4.81E-06,0.024209375
,,,-4.8E-06,0.024356875
,,,-4.79E-06,0.024390625
,,,-4.78E-06,0.0243775
,,,-4.77E-06,0.02423875
,,,-4.76E-06,0.02422625
,,,-4.75E-06,0.02424625
,,,-4.74E-06,0.02426125
,,,-4.73E-06,0.024601875
,,,-4.72E-06,0.024346875
,,,-4.71E-06,0.0241275
,,,-4.7E-06,0.024285625
,,,-4.69E-06,0.024095625
,,,-4.68E-06,0.024071875
,,,-4.67E-06,0.024429375
,,,-4.66E-06,0.024451875
,,,-4.65E-06,0.0243025
,,,-4.64E-06,0.0242625
,,,-4.63E-06,0.024230625
,,,-4.62E-06,0.02420125
,,,-4.61E-06,0.024265625
,,,-4.6E-06,0.02428
,,,-4.59E-06,0.024475625
,,,-4.58E-06,0.02438
,,,-4.57E-06,0.02419625
,,,-4.56E-06,0.0242225
,,,-4.55E-06,0.024401875
,,,-4.54E-06,0.024226875
,,,-4.53E-06,0.02428625
,,,-4.52E-06,0.024518125
,,,-4.51E-06,0.024255625
,,,-4.5E-06,0.024234375
,,,-4.49E-06,0.024556875
,,,-4.48E-06,0.024238125
,,,-4.47E-06,0.0244625
,,,-4.46E-06,0.024175625
,,,-4.45E-06,0.024338125
,,,-4.44E-06,0.02410875
,,,-4.43E-06,0.024315625
,,,-4.42E-06,0.024050625
,,,-4.41E-06,0.024435625
,,,-4.4E-06,0.0242425
,,,-4.39E-06,0.024303125
,,,-4.38E-06,0.024285
,,,-4.37E-06,0.024104375
,,,-4.36E-06,0.024248125
,,,-4.35E-06,0.02415
,,,-4.34E-06,0.02417375
,,,-4.33E-06,0.02439375
,,,-4.32E-06,0.024411875
,,,-4.31E-06,0.024415625
,,,-4.3E-06,0.02411625
,,,-4.29E-06,0.02412625
,,,-4.28E-06,0.024099375
,,,-4.27E-06,0.024291875
,,,-4.26E-06,0.02413625
,,,-4.25E-06,0.024435625
,,,-4.24E-06,0.024239375
,,,-4.23E-06,0.02451625
,,,-4.22E-06,0.0241575
,,,-4.21E-06,0.024245
,,,-4.2E-06,0.024171875
,,,-4.19E-06,0.024210625
,,,-4.18E-06,0.024113125
,,,-4.17E-06,0.024119375
,,,-4.16E-06,0.024241875
,,,-4.15E-06,0.024346875
,,,-4.14E-06,0.02428
,,,-4.13E-06,0.023975625
,,,-4.12E-06,0.0240375
,,,-4.11E-06,0.024195625
,,,-4.1E-06,0.024098125
,,,-4.09E-06,0.024365
,,,-4.08E-06,0.024223125
,,,-4.07E-06,0.0243275
,,,-4.06E-06,0.0239525
,,,-4.05E-06,0.02438
,,,-4.04E-06,0.024165625
,,,-4.03E-06,0.024278125
,,,-4.02E-06,0.02437625
,,,-4.01E-06,0.02442
,,,-4E-06,0.024110625
,,,-3.99E-06,0.02431375
,,,-3.98E-06,0.024563125
,,,-3.97E-06,0.024278125
,,,-3.96E-06,0.024240625
,,,-3.95E-06,0.024185625
,,,-3.94E-06,0.024463125
,,,-3.93E-06,0.024259375
,,,-3.92E-06,0.024295
,,,-3.91E-06,0.02432
,,,-3.9E-06,0.024351875
,,,-3.89E-06,0.024485625
,,,-3.88E-06,0.02422625
,,,-3.87E-06,0.024295625
,,,-3.86E-06,0.024303125
,,,-3.85E-06,0.024043125
,,,-3.84E-06,0.0242575
,,,-3.83E-06,0.02424875
,,,-3.82E-06,0.0242375
,,,-3.81E-06,0.02418375
,,,-3.8E-06,0.024085625
,,,-3.79E-06,0.024200625
,,,-3.78E-06,0.024425
,,,-3.77E-06,0.0241825
,,,-3.76E-06,0.024239375
,,,-3.75E-06,0.024314375
,,,-3.74E-06,0.024110625
,,,-3.73E-06,0.024265625
,,,-3.72E-06,0.024109375
,,,-3.71E-06,0.02406625
,,,-3.7E-06,0.02424375
,,,-3.69E-06,0.024128125
,,,-3.68E-06,0.024240625
,,,-3.67E-06,0.02433375
,,,-3.66E-06,0.024466875
,,,-3.65E-06,0.0241825
,,,-3.64E-06,0.024328125
,,,-3.63E-06,0.024374375
,,,-3.62E-06,0.024185
,,,-3.61E-06,0.024099375
,,,-3.6E-06,0.024265
,,,-3.59E-06,0.024141875
,,,-3.58E-06,0.02431375
,,,-3.57E-06,0.02421
,,,-3.56E-06,0.0240425
,,,-3.55E-06,0.02412875
,,,-3.54E-06,0.02430625
,,,-3.53E-06,0.02410625
,,,-3.52E-06,0.024188125
,,,-3.51E-06,0.024394375
,,,-3.5E-06,0.02424
,,,-3.49E-06,0.02442
,,,-3.48E-06,0.024130625
,,,-3.47E-06,0.0243125
,,,-3.46E-06,0.02396375
,,,-3.45E-06,0.02426375
,,,-3.44E-06,0.024204375
,,,-3.43E-06,0.02422
,,,-3.42E-06,0.024285
,,,-3.41E-06,0.024335625
,,,-3.4E-06,0.024079375
,,,-3.39E-06,0.0245175
,,,-3.38E-06,0.02417375
,,,-3.37E-06,0.0243625
,,,-3.36E-06,0.02441
,,,-3.35E-06,0.02424
,,,-3.34E-06,0.02389
,,,-3.33E-06,0.0242625
,,,-3.32E-06,0.02435875
,,,-3.31E-06,0.024226875
,,,-3.3E-06,0.02429875
,,,-3.29E-06,0.02426375
,,,-3.28E-06,0.024354375
,,,-3.27E-06,0.02430125
,,,-3.26E-06,0.02442375
,,,-3.25E-06,0.024144375
,,,-3.24E-06,0.024331875
,,,-3.23E-06,0.02412375
,,,-3.22E-06,0.0243375
,,,-3.21E-06,0.02432125
,,,-3.2E-06,0.02401875
,,,-3.19E-06,0.02442625
,,,-3.18E-06,0.024131875
,,,-3.17E-06,0.024191875
,,,-3.16E-06,0.024440625
,,,-3.15E-06,0.0242975
,,,-3.14E-06,0.0240125
,,,-3.13E-06,0.0240675
,,,-3.12E-06,0.024435
,,,-3.11E-06,0.024169375
,,,-3.1E-06,0.024079375
,,,-3.09E-06,0.024315
,,,-3.08E-06,0.024329375
,,,-3.07E-06,0.024333125
,,,-3.06E-06,0.02427625
,,,-3.05E-06,0.02431125
,,,-3.04E-06,0.0244425
,,,-3.03E-06,0.024359375
,,,-3.02E-06,0.024114375
,,,-3.01E-06,0.0241825
,,,-3E-06,0.024313125
,,,-2.99E-06,0.0242275
,,,-2.98E-06,0.024249375
,,,-2.97E-06,0.02413
,,,-2.96E-06,0.0242375
,,,-2.95E-06,0.02429
,,,-2.94E-06,0.024299375
,,,-2.93E-06,0.024248125
,,,-2.92E-06,0.024244375
,,,-2.91E-06,0.024475625
,,,-2.9E-06,0.02426625
,,,-2.89E-06,0.02412375
,,,-2.88E-06,0.024329375
,,,-2.87E-06,0.02438
,,,-2.86E-06,0.024230625
,,,-2.85E-06,0.024299375
,,,-2.84E-06,0.024090625
,,,-2.83E-06,0.0243075
,,,-2.82E-06,0.0243725
,,,-2.81E-06,0.024081875
,,,-2.8E-06,0.024246875
,,,-2.79E-06,0.024065
,,,-2.78E-06,0.024143125
,,,-2.77E-06,0.02428625
,,,-2.76E-06,0.02431625
,,,-2.75E-06,0.02406375
,,,-2.74E-06,0.02409625
,,,-2.73E-06,0.0243025
,,,-2.72E-06,0.024220625
,,,-2.71E-06,0.02437875
,,,-2.7E-06,0.02445875
,,,-2.69E-06,0.024276875
,,,-2.68E-06,0.02427375
,,,-2.67E-06,0.02418375
,,,-2.66E-06,0.024196875
,,,-2.65E-06,0.024315625
,,,-2.64E-06,0.024228125
,,,-2.63E-06,0.024095625
,,,-2.62E-06,0.024503125
,,,-2.61E-06,0.024336875
,,,-2.6E-06,0.0242525
,,,-2.59E-06,0.02411875
,,,-2.58E-06,0.02417375
,,,-2.57E-06,0.02413
,,,-2.56E-06,0.024048125
,,,-2.55E-06,0.02426
,,,-2.54E-06,0.024166875
,,,-2.53E-06,0.024165
,,,-2.52E-06,0.024368125
,,,-2.51E-06,0.02434
,,,-2.5E-06,0.024411875
,,,-2.49E-06,0.02418
,,,-2.48E-06,0.024160625
,,,-2.47E-06,0.02407125
,,,-2.46E-06,0.0241725
,,,-2.45E-06,0.024375
,,,-2.44E-06,0.024345
,,,-2.43E-06,0.024373125
,,,-2.42E-06,0.024131875
,,,-2.41E-06,0.0241675
,,,-2.4E-06,0.024029375
,,,-2.39E-06,0.024413125
,,,-2.38E-06,0.02430625
,,,-2.37E-06,0.02424625
,,,-2.36E-06,0.0241875
,,,-2.35E-06,0.024178125
,,,-2.34E-06,0.0245225
,,,-2.33E-06,0.024255
,,,-2.32E-06,0.0241175
,,,-2.31E-06,0.024249375
,,,-2.3E-06,0.02411125
,,,-2.29E-06,0.0242175
,,,-2.28E-06,0.02421
,,,-2.27E-06,0.02436875
,,,-2.26E-06,0.02414625
,,,-2.25E-06,0.0243425
,,,-2.24E-06,0.02433375
,,,-2.23E-06,0.024281875
,,,-2.22E-06,0.024449375
,,,-2.21E-06,0.024324375
,,,-2.2E-06,0.02421
,,,-2.19E-06,0.024324375
,,,-2.18E-06,0.024265
,,,-2.17E-06,0.024366875
,,,-2.16E-06,0.02438875
,,,-2.15E-06,0.0242025
,,,-2.14E-06,0.02423875
,,,-2.13E-06,0.024455
,,,-2.12E-06,0.024174375
,,,-2.11E-06,0.02434125
,,,-2.1E-06,0.024053125
,,,-2.09E-06,0.0241
,,,-2.08E-06,0.024199375
,,,-2.07E-06,0.024129375
,,,-2.06E-06,0.02442125
,,,-2.05E-06,0.023876875
,,,-2.04E-06,0.024258125
,,,-2.03E-06,0.024449375
,,,-2.02E-06,0.02408125
,,,-2.01E-06,0.024049375
,,,-2E-06,0.024085
,,,-1.99E-06,0.02450875
,,,-1.98E-06,0.024261875
,,,-1.97E-06,0.024070625
,,,-1.96E-06,0.024536875
,,,-1.95E-06,0.024295625
,,,-1.94E-06,0.024299375
,,,-1.93E-06,0.0242675
,,,-1.92E-06,0.024221875
,,,-1.91E-06,0.02437625
,,,-1.9E-06,0.024290625
,,,-1.89E-06,0.0243025
,,,-1.88E-06,0.023996875
,,,-1.87E-06,0.024165
,,,-1.86E-06,0.024216875
,,,-1.85E-06,0.024155625
,,,-1.84E-06,0.024081875
,,,-1.83E-06,0.024295625
,,,-1.82E-06,0.02419625
,,,-1.81E-06,0.02445
,,,-1.8E-06,0.02452
,,,-1.79E-06,0.0242
,,,-1.78E-06,0.024123125
,,,-1.77E-06,0.0242425
,,,-1.76E-06,0.02425125
,,,-1.75E-06,0.024308125
,,,-1.74E-06,0.023956875
,,,-1.73E-06,0.024269375
,,,-1.72E-06,0.024338125
,,,-1.71E-06,0.0242125
,,,-1.7E-06,0.02415
,,,-1.69E-06,0.024013125
,,,-1.68E-06,0.02434625
,,,-1.67E-06,0.024375625
,,,-1.66E-06,0.02402125
,,,-1.65E-06,0.02433625
,,,-1.64E-06,0.0241975
,,,-1.63E-06,0.024326875
,,,-1.62E-06,0.02442625
,,,-1.61E-06,0.0244575
,,,-1.6E-06,0.0243475
,,,-1.59E-06,0.02412125
,,,-1.58E-06,0.024213125
,,,-1.57E-06,0.024319375
,,,-1.56E-06,0.02418625
,,,-1.55E-06,0.024106875
,,,-1.54E-06,0.02423125
,,,-1.53E-06,0.0242
,,,-1.52E-06,0.024200625
,,,-1.51E-06,0.024246875
,,,-1.5E-06,0.02432625
,,,-1.49E-06,0.024425
,,,-1.48E-06,0.02418125
,,,-1.47E-06,0.024174375
,,,-1.46E-06,0.024253125
,,,-1.45E-06,0.02423875
,,,-1.44E-06,0.024269375
,,,-1.43E-06,0.02442375
,,,-1.42E-06,0.024445625
,,,-1.41E-06,0.024405625
,,,-1.4E-06,0.024335625
,,,-1.39E-06,0.02434875
,,,-1.38E-06,0.024293125
,,,-1.37E-06,0.02428875
,,,-1.36E-06,0.0242475
,,,-1.35E-06,0.024208125
,,,-1.34E-06,0.024275
,,,-1.33E-06,0.024195625
,,,-1.32E-06,0.02417375
,,,-1.31E-06,0.024640625
,,,-1.3E-06,0.0243625
,,,-1.29E-06,0.024195
,,,-1.28E-06,0.024206875
,,,-1.27E-06,0.024133125
,,,-1.26E-06,0.02395125
,,,-1.25E-06,0.0243175
,,,-1.24E-06,0.023965625
,,,-1.23E-06,0.0242725
,,,-1.22E-06,0.02423
,,,-1.21E-06,0.0242825
,,,-1.2E-06,0.02416375
,,,-1.19E-06,0.0243775
,,,-1.18E-06,0.024221875
,,,-1.17E-06,0.024331875
,,,-1.16E-06,0.02450125
,,,-1.15E-06,0.024395
,,,-1.14E-06,0.02397375
,,,-1.13E-06,0.02421375
,,,-1.12E-06,0.024263125
,,,-1.11E-06,0.02411875
,,,-1.1E-06,0.024295625
,,,-1.09E-06,0.02431625
,,,-1.08E-06,0.02413375
,,,-1.07E-06,0.024245625
,,,-1.06E-06,0.02450875
,,,-1.05E-06,0.02424875
,,,-1.04E-06,0.024034375
,,,-1.03E-06,0.02404
,,,-1.02E-06,0.024254375
,,,-1.01E-06,0.024231875
,,,-1E-06,0.024116875
,,,-9.9E-07,0.02426875
,,,-9.8E-07,0.02451
,,,-9.7E-07,0.0242675
,,,-9.6E-07,0.02429625
,,,-9.5E-07,0.024154375
,,,-9.4E-07,0.024336875
,,,-9.3E-07,0.02437375
,,,-9.2E-07,0.024411875
,,,-9.1E-07,0.02424125
,,,-9E-07,0.024425625
,,,-8.9E-07,0.024491875
,,,-8.8E-07,0.024461875
,,,-8.7E-07,0.024434375
,,,-8.6E-07,0.02455125
,,,-8.5E-07,0.024061875
,,,-8.4E-07,0.02427625
,,,-8.3E-07,0.02404875
,,,-8.2E-07,0.024350625
,,,-8.1E-07,0.024524375
,,,-8E-07,0.023949375
,,,-7.9E-07,0.024155
,,,-7.8E-07,0.024325
,,,-7.7E-07,0.0246
,,,-7.6E-07,0.0245875
,,,-7.5E-07,0.024301875
,,,-7.4E-07,0.02436875
,,,-7.3E-07,0.024375625
,,,-7.2E-07,0.024313125
,,,-7.1E-07,0.02407375
,,,-7E-07,0.02434125
,,,-6.9E-07,0.0241825
,,,-6.8E-07,0.0241275
,,,-6.7E-07,0.02435
,,,-6.6E-07,0.024290625
,,,-6.5E-07,0.024393125
,,,-6.4E-07,0.0242875
,,,-6.3E-07,0.024285
,,,-6.2E-07,0.024288125
,,,-6.1E-07,0.024439375
,,,-6E-07,0.024389375
,,,-5.9E-07,0.024350625
,,,-5.8E-07,0.024144375
,,,-5.7E-07,0.0243775
,,,-5.6E-07,0.024424375
,,,-5.5E-07,0.02432625
,,,-5.4E-07,0.024050625
,,,-5.3E-07,0.024179375
,,,-5.2E-07,0.02421
,,,-5.1E-07,0.024224375
,,,-5E-07,0.024485625
,,,-4.9E-07,0.0241675
,,,-4.8E-07,0.024096875
,,,-4.7E-07,0.02441
,,,-4.6E-07,0.024508125
,,,-4.5E-07,0.0243
,,,-4.4E-07,0.024413125
,,,-4.3E-07,0.024219375
,,,-4.2E-07,0.024424375
,,,-4.1E-07,0.0243775
,,,-4E-07,0.024168125
,,,-3.9E-07,0.024230625
,,,-3.8E-07,0.02417
,,,-3.7E-07,0.024155625
,,,-3.6E-07,0.024350625
,,,-3.5E-07,0.024193125
,,,-3.4E-07,0.024454375
,,,-3.3E-07,0.024058125
,,,-3.2E-07,0.024145625
,,,-3.1E-07,0.02428375
,,,-3E-07,0.024575625
,,,-2.9E-07,0.024401875
,,,-2.8E-07,0.02433
,,,-2.7E-07,0.024485
,,,-2.6E-07,0.024465625
,,,-2.5E-07,0.02459625
,,,-2.4E-07,0.024125
,,,-2.3E-07,0.024264375
,,,-2.2E-07,0.0241825
,,,-2.1E-07,0.02402875
,,,-2E-07,0.02427125
,,,-1.9E-07,0.024310625
,,,-1.8E-07,0.024431875
,,,-1.7E-07,0.024180625
,,,-1.6E-07,0.024249375
,,,-1.5E-07,0.024305
,,,-1.4E-07,0.024119375
,,,-1.3E-07,0.024533125
,,,-1.2E-07,0.024266875
,,,-1.1E-07,0.0244475
,,,-1E-07,0.02435375
,,,-9E-08,0.024080625
,,,-8E-08,0.024255625
,,,-7E-08,0.023824375
,,,-6E-08,0.024326875
,,,-5E-08,0.024368125
,,,-4E-08,0.025411875
,,,-3E-08,0.023830625
,,,-2E-08,0.0236275
,,,-1E-08,0.02306875
,,,0,0.024266875
,,,1E-08,0.025091875
,,,2E-08,0.025443125
,,,3E-08,0.024539375
,,,4E-08,0.0240375
,,,5E-08,0.023395
,,,6E-08,0.02329875
,,,7E-08,0.024125
,,,8E-08,0.024455
,,,9E-08,0.02481
,,,1E-07,0.024578125
,,,1.1E-07,0.024234375
,,,1.2E-07,0.02355875
,,,1.3E-07,0.024001875
,,,1.4E-07,0.02412
,,,1.5E-07,0.02444375
,,,1.6E-07,0.02432625
,,,1.7E-07,0.02426625
,,,1.8E-07,0.024446875
,,,1.9E-07,0.024470625
,,,2E-07,0.02423625
,,,2.1E-07,0.0241725
,,,2.2E-07,0.024394375
,,,2.3E-07,0.02408625
,,,2.4E-07,0.024256875
,,,2.5E-07,0.024275625
,,,2.6E-07,0.024188125
,,,2.7E-07,0.024255
,,,2.8E-07,0.02399125
,,,2.9E-07,0.02434375
,,,3E-07,0.02422125
,,,3.1E-07,0.02416125
,,,3.2E-07,0.0243325
,,,3.3E-07,0.024016875
,,,3.4E-07,0.02408875
,,,3.5E-07,0.024344375
,,,3.6E-07,0.02447125
,,,3.7E-07,0.024206875
,,,3.8E-07,0.024258125
,,,3.9E-07,0.02418375
,,,4E-07,0.024280625
,,,4.1E-07,0.024160625
,,,4.2E-07,0.024254375
,,,4.3E-07,0.024141875
,,,4.4E-07,0.02425125
,,,4.5E-07,0.024391875
,,,4.6E-07,0.02430375
,,,4.7E-07,0.024229375
,,,4.8E-07,0.02427625
,,,4.9E-07,0.02455625
,,,5E-07,0.02446625
,,,5.1E-07,0.0244975
,,,5.2E-07,0.024318125
,,,5.3E-07,0.02443875
,,,5.4E-07,0.02436375
,,,5.5E-07,0.02437375
,,,5.6E-07,0.02423125
,,,5.7E-07,0.024155625
,,,5.8E-07,0.024265
,,,5.9E-07,0.0241225
,,,6E-07,0.024296875
,,,6.1E-07,0.024295
,,,6.2E-07,0.02433375
,,,6.3E-07,0.024309375
,,,6.4E-07,0.024378125
,,,6.5E-07,0.024103125
,,,6.6E-07,0.0244075
,,,6.7E-07,0.0242225
,,,6.8E-07,0.024383125
,,,6.9E-07,0.024433125
,,,7E-07,0.024461875
,,,7.1E-07,0.024160625
,,,7.2E-07,0.02424625
,,,7.3E-07,0.024321875
,,,7.4E-07,0.024378125
,,,7.5E-07,0.0241675
,,,7.6E-07,0.024264375
,,,7.7E-07,0.024219375
,,,7.8E-07,0.024223125
,,,7.9E-07,0.024560625
,,,8E-07,0.024151875
,,,8.1E-07,0.02438875
,,,8.2E-07,0.024226875
,,,8.3E-07,0.024448125
,,,8.4E-07,0.02415
,,,8.5E-07,0.024345625
,,,8.6E-07,0.02433875
,,,8.7E-07,0.02401625
,,,8.8E-07,0.024295625
,,,8.9E-07,0.024100625
,,,9E-07,0.02445125
,,,9.1E-07,0.02425375
,,,9.2E-07,0.024278125
,,,9.3E-07,0.024206875
,,,9.4E-07,0.024203125
,,,9.5E-07,0.02386
,,,9.6E-07,0.024333125
,,,9.7E-07,0.0243175
,,,9.8E-07,0.024268125
,,,9.9E-07,0.02434125
,,,1E-06,0.02427125
,,,1.01E-06,0.02441625
,,,1.02E-06,0.02435875
,,,1.03E-06,0.024434375
,,,1.04E-06,0.024485
,,,1.05E-06,0.024285
,,,1.06E-06,0.024265625
,,,1.07E-06,0.024094375
,,,1.08E-06,0.02446875
,,,1.09E-06,0.024299375
,,,1.1E-06,0.0242
,,,1.11E-06,0.02423875
,,,1.12E-06,0.024254375
,,,1.13E-06,0.02436375
,,,1.14E-06,0.02438375
,,,1.15E-06,0.024236875
,,,1.16E-06,0.024128125
,,,1.17E-06,0.02439
,,,1.18E-06,0.02426
,,,1.19E-06,0.02430625
,,,1.2E-06,0.024380625
,,,1.21E-06,0.024254375
,,,1.22E-06,0.024310625
,,,1.23E-06,0.02425625
,,,1.24E-06,0.024229375
,,,1.25E-06,0.0244275
,,,1.26E-06,0.024541875
,,,1.27E-06,0.02440625
,,,1.28E-06,0.024303125
,,,1.29E-06,0.02444875
,,,1.3E-06,0.02418625
,,,1.31E-06,0.024345625
,,,1.32E-06,0.024213125
,,,1.33E-06,0.02422
,,,1.34E-06,0.02440125
,,,1.35E-06,0.024173125
,,,1.36E-06,0.024259375
,,,1.37E-06,0.024264375
,,,1.38E-06,0.024155625
,,,1.39E-06,0.024461875
,,,1.4E-06,0.024190625
,,,1.41E-06,0.02452875
,,,1.42E-06,0.02433875
,,,1.43E-06,0.02427625
,,,1.44E-06,0.024111875
,,,1.45E-06,0.024081875
,,,1.46E-06,0.02454375
,,,1.47E-06,0.024498125
,,,1.48E-06,0.02447125
,,,1.49E-06,0.024263125
,,,1.5E-06,0.024354375
,,,1.51E-06,0.024210625
,,,1.52E-06,0.02422
,,,1.53E-06,0.024184375
,,,1.54E-06,0.0242575
,,,1.55E-06,0.024358125
,,,1.56E-06,0.024409375
,,,1.57E-06,0.024284375
,,,1.58E-06,0.024265625
,,,1.59E-06,0.02426125
,,,1.6E-06,0.0242925
,,,1.61E-06,0.0243025
,,,1.62E-06,0.024128125
,,,1.63E-06,0.024210625
,,,1.64E-06,0.024259375
,,,1.65E-06,0.024588125
,,,1.66E-06,0.02427125
,,,1.67E-06,0.024011875
,,,1.68E-06,0.02431875
,,,1.69E-06,0.02431125
,,,1.7E-06,0.02438625
,,,1.71E-06,0.024185625
,,,1.72E-06,0.024041875
,,,1.73E-06,0.0243475
,,,1.74E-06,0.02430375
,,,1.75E-06,0.02449625
,,,1.76E-06,0.023979375
,,,1.77E-06,0.024455
,,,1.78E-06,0.02420875
,,,1.79E-06,0.024215
,,,1.8E-06,0.02442
,,,1.81E-06,0.024160625
,,,1.82E-06,0.024199375
,,,1.83E-06,0.0242675
,,,1.84E-06,0.02410375
,,,1.85E-06,0.024198125
,,,1.86E-06,0.023974375
,,,1.87E-06,0.0243225
,,,1.88E-06,0.024223125
,,,1.89E-06,0.023994375
,,,1.9E-06,0.024385
,,,1.91E-06,0.02401875
,,,1.92E-06,0.024285
,,,1.93E-06,0.02412625
,,,1.94E-06,0.02432625
,,,1.95E-06,0.024285625
,,,1.96E-06,0.024168125
,,,1.97E-06,0.024099375
,,,1.98E-06,0.024230625
,,,1.99E-06,0.024528125
,,,2E-06,0.024345625
,,,2.01E-06,0.024255
,,,2.02E-06,0.02453
,,,2.03E-06,0.0241675
,,,2.04E-06,0.024120625
,,,2.05E-06,0.02432875
,,,2.06E-06,0.024213125
,,,2.07E-06,0.024345625
,,,2.08E-06,0.024285
,,,2.09E-06,0.024409375
,,,2.1E-06,0.024255
,,,2.11E-06,0.02417
,,,2.12E-06,0.024405625
,,,2.13E-06,0.024388125
,,,2.14E-06,0.024478125
,,,2.15E-06,0.02444625
,,,2.16E-06,0.024084375
,,,2.17E-06,0.024199375
,,,2.18E-06,0.024305
,,,2.19E-06,0.024339375
,,,2.2E-06,0.024226875
,,,2.21E-06,0.02426875
,,,2.22E-06,0.02421875
,,,2.23E-06,0.024283125
,,,2.24E-06,0.024155625
,,,2.25E-06,0.024345
,,,2.26E-06,0.024271875
,,,2.27E-06,0.02423
,,,2.28E-06,0.02436
,,,2.29E-06,0.024145
,,,2.3E-06,0.02437125
,,,2.31E-06,0.024095
,,,2.32E-06,0.024220625
,,,2.33E-06,0.02426125
,,,2.34E-06,0.02435
,,,2.35E-06,0.02435125
,,,2.36E-06,0.0240975
,,,2.37E-06,0.02421375
,,,2.38E-06,0.02396375
,,,2.39E-06,0.024419375
,,,2.4E-06,0.024184375
,,,2.41E-06,0.02431125
,,,2.42E-06,0.0243175
,,,2.43E-06,0.0243475
,,,2.44E-06,0.024555625
,,,2.45E-06,0.024160625
,,,2.46E-06,0.024329375
,,,2.47E-06,0.0244275
,,,2.48E-06,0.02439125
,,,2.49E-06,0.024261875
,,,2.5E-06,0.02434
,,,2.51E-06,0.024243125
,,,2.52E-06,0.024226875
,,,2.53E-06,0.02415
,,,2.54E-06,0.024155
,,,2.55E-06,0.0242825
,,,2.56E-06,0.024233125
,,,2.57E-06,0.024105
,,,2.58E-06,0.024296875
,,,2.59E-06,0.024265625
,,,2.6E-06,0.024394375
,,,2.61E-06,0.02429375
,,,2.62E-06,0.024160625
,,,2.63E-06,0.0243175
,,,2.64E-06,0.02432
,,,2.65E-06,0.02465
,,,2.66E-06,0.024559375
,,,2.67E-06,0.024256875
,,,2.68E-06,0.024200625
,,,2.69E-06,0.0242725
,,,2.7E-06,0.02422625
,,,2.71E-06,0.02435375
,,,2.72E-06,0.024305
,,,2.73E-06,0.024360625
,,,2.74E-06,0.024239375
,,,2.75E-06,0.024175
,,,2.76E-06,0.024274375
,,,2.77E-06,0.0242
,,,2.78E-06,0.024296875
,,,2.79E-06,0.024293125
,,,2.8E-06,0.024030625
,,,2.81E-06,0.024345
,,,2.82E-06,0.024254375
,,,2.83E-06,0.02418875
,,,2.84E-06,0.02425125
,,,2.85E-06,0.02434625
,,,2.86E-06,0.024189375
,,,2.87E-06,0.02423375
,,,2.88E-06,0.024
,,,2.89E-06,0.024376875
,,,2.9E-06,0.02431375
,,,2.91E-06,0.024376875
,,,2.92E-06,0.024186875
,,,2.93E-06,0.02427625
,,,2.94E-06,0.02432625
,,,2.95E-06,0.024373125
,,,2.96E-06,0.024133125
,,,2.97E-06,0.024385625
,,,2.98E-06,0.024213125
,,,2.99E-06,0.02410625
,,,3E-06,0.02420375
,,,3.01E-06,0.02447875
,,,3.02E-06,0.024008125
,,,3.03E-06,0.024124375
,,,3.04E-06,0.024315
,,,3.05E-06,0.024280625
,,,3.06E-06,0.024276875
,,,3.07E-06,0.02414375
,,,3.08E-06,0.024376875
,,,3.09E-06,0.024339375
,,,3.1E-06,0.024516875
,,,3.11E-06,0.024478125
,,,3.12E-06,0.02426875
,,,3.13E-06,0.02439
,,,3.14E-06,0.024345
,,,3.15E-06,0.024038125
,,,3.16E-06,0.024278125
,,,3.17E-06,0.024354375
,,,3.18E-06,0.024211875
,,,3.19E-06,0.024516875
,,,3.2E-06,0.024094375
,,,3.21E-06,0.024436875
,,,3.22E-06,0.02392375
,,,3.23E-06,0.0244775
,,,3.24E-06,0.024551875
,,,3.25E-06,0.0242825
,,,3.26E-06,0.024145
,,,3.27E-06,0.024201875
,,,3.28E-06,0.024180625
,,,3.29E-06,0.0244175
,,,3.3E-06,0.024264375
,,,3.31E-06,0.024124375
,,,3.32E-06,0.024374375
,,,3.33E-06,0.024365625
,,,3.34E-06,0.024050625
,,,3.35E-06,0.024405
,,,3.36E-06,0.0242475
,,,3.37E-06,0.02418625
,,,3.38E-06,0.02430375
,,,3.39E-06,0.024239375
,,,3.4E-06,0.02413125
,,,3.41E-06,0.024426875
,,,3.42E-06,0.0244125
,,,3.43E-06,0.0239975
,,,3.44E-06,0.02426125
,,,3.45E-06,0.024420625
,,,3.46E-06,0.0240775
,,,3.47E-06,0.024306875
,,,3.48E-06,0.024543125
,,,3.49E-06,0.02432125
,,,3.5E-06,0.024270625
,,,3.51E-06,0.024324375
,,,3.52E-06,0.024404375
,,,3.53E-06,0.024345625
,,,3.54E-06,0.024191875
,,,3.55E-06,0.024551875
,,,3.56E-06,0.024164375
