data/raw/Final_POL_Test_1/SOP038_Ch3.csv

"Record Length",1000,"Points",-5E-06,0.022213751
"Sample Interval",1E-08,s,-4.99E-06,0.022163751
"Trigger Point",500,"Samples",-4.98E-06,0.022068751
"Trigger Time",0,s,-4.97E-06,0.022257501
"",,,-4.96E-06,0.022131251
"Horizontal Offset",-5E-06,s,-4.95E-06,0.022135626
,,,-4.94E-06,0.022284376
,,,-4.93E-06,0.022273751
,,,-4.92E-06,0.022250001
,,,-4.91E-06,0.022130626
,,,-4.9E-06,0.022379376
,,,-4.89E-06,0.022418126
,,,-4.88E-06,0.022370626
,,,-4.87E-06,0.022353126
,,,-4.86E-06,0.021971876
,,,-4.85E-06,0.022210001
,,,-4.84E-06,0.022327501
,,,-4.83E-06,0.022248751
,,,-4.82E-06,0.022442501
,,,-4.81E-06,0.022260001
,,,-4.8E-06,0.022108751
,,,-4.79E-06,0.022334376
,,,-4.78E-06,0.022405001
,,,-4.77E-06,0.021960001
,,,-4.76E-06,0.022122501
,,,-4.75E-06,0.022096876
,,,-4.74E-06,0.022159376
,,,-4.73E-06,0.022282501
,,,-4.72E-06,0.022270626
,,,-4.71E-06,0.022116876
,,,-4.7E-06,0.022200001
,,,-4.69E-06,0.022120001
,,,-4.68E-06,0.022186251
,,,-4.67E-06,0.022239376
,,,-4.66E-06,0.022252501
,,,-4.65E-06,0.022149376
,,,-4.64E-06,0.022191251
,,,-4.63E-06,0.022228751
,,,-4.62E-06,0.022145001
,,,-4.61E-06,0.022242501
,,,-4.6E-06,0.022115626
,,,-4.59E-06,0.022351876
,,,-4.58E-06,0.022413751
,,,-4.57E-06,0.022041876
,,,-4.56E-06,0.022261876
,,,-4.55E-06,0.022238126
,,,-4.54E-06,0.022335001
,,,-4.53E-06,0.022290626
,,,-4.52E-06,0.022392501
,,,-4.51E-06,0.022028751
,,,-4.5E-06,0.022195001
,,,-4.49E-06,0.022416251
,,,-4.48E-06,0.022371876
,,,-4.47E-06,0.022343751
,,,-4.46E-06,0.022396251
,,,-4.45E-06,0.022061251
,,,-4.44E-06,0.022248751
,,,-4.43E-06,0.022310001
,,,-4.42E-06,0.022120001
,,,-4.41E-06,0.022421251
,,,-4.4E-06,0.022280001
,,,-4.39E-06,0.022276251
,,,-4.38E-06,0.021813751
,,,-4.37E-06,0.022496876
,,,-4.36E-06,0.022135626
,,,-4.35E-06,0.022088751
,,,-4.34E-06,0.022122501
,,,-4.33E-06,0.022146876
,,,-4.32E-06,0.022305001
,,,-4.31E-06,0.022368126
,,,-4.3E-06,0.022122501
,,,-4.29E-06,0.022430001
,,,-4.28E-06,0.022244376
,,,-4.27E-06,0.022161251
,,,-4.26E-06,0.022001251
,,,-4.25E-06,0.022231251
,,,-4.24E-06,0.022025001
,,,-4.23E-06,0.022536876
,,,-4.22E-06,0.022257501
,,,-4.21E-06,0.022179376
,,,-4.2E-06,0.021968126
,,,-4.19E-06,0.022056876
,,,-4.18E-06,0.022182501
,,,-4.17E-06,0.022173751
,,,-4.16E-06,0.022361876
,,,-4.15E-06,0.022294376
,,,-4.14E-06,0.022302501
,,,-4.13E-06,0.022295626
,,,-4.12E-06,0.022217501
,,,-4.11E-06,0.021926876
,,,-4.1E-06,0.022410626
,,,-4.09E-06,0.022185626
,,,-4.08E-06,0.022058751
,,,-4.07E-06,0.022302501
,,,-4.06E-06,0.022301876
,,,-4.05E-06,0.022107501
,,,-4.04E-06,0.022255001
,,,-4.03E-06,0.022141251
,,,-4.02E-06,0.022388126
,,,-4.01E-06,0.022341876
,,,-4E-06,0.022195001
,,,-3.99E-06,0.022221876
,,,-3.98E-06,0.022307501
,,,-3.97E-06,0.022470001
,,,-3.96E-06,0.022154376
,,,-3.95E-06,0.022216876
,,,-3.94E-06,0.021998751
,,,-3.93E-06,0.021959376
,,,-3.92E-06,0.022170626
,,,-3.91E-06,0.022273126
,,,-3.9E-06,0.022173751
,,,-3.89E-06,0.022293751
,,,-3.88E-06,0.022120626
,,,-3.87E-06,0.022313126
,,,-3.86E-06,0.022253751
,,,-3.85E-06,0.022273751
,,,-3.84E-06,0.022371876
,,,-3.83E-06,0.022348751
,,,-3.82E-06,0.022091251
,,,-3.81E-06,0.022417501
,,,-3.8E-06,0.022464376
,,,-3.79E-06,0.022300626
,,,-3.78E-06,0.022344376
,,,-3.77E-06,0.022225001
,,,-3.76E-06,0.022281876
,,,-3.75E-06,0.022077501
,,,-3.74E-06,0.022315626
,,,-3.73E-06,0.022309376
,,,-3.72E-06,0.022249376
,,,-3.71E-06,0.022216251
,,,-3.7E-06,0.022158751
,,,-3.69E-06,0.022178751
,,,-3.68E-06,0.022050001
,,,-3.67E-06,0.022087501
,,,-3.66E-06,0.022223126
,,,-3.65E-06,0.022075001
,,,-3.64E-06,0.022454376
,,,-3.63E-06,0.022067501
,,,-3.62E-06,0.022251251
,,,-3.61E-06,0.022098751
,,,-3.6E-06,0.022148126
,,,-3.59E-06,0.021988126
,,,-3.58E-06,0.022226251
,,,-3.57E-06,0.022199376
,,,-3.56E-06,0.022343126
,,,-3.55E-06,0.022170001
,,,-3.54E-06,0.022170626
,,,-3.53E-06,0.022328751
,,,-3.52E-06,0.022201876
,,,-3.51E-06,0.022073751
,,,-3.5E-06,0.022114376
,,,-3.49E-06,0.022325626
,,,-3.48E-06,0.022191876
,,,-3.47E-06,0.022126251
,,,-3.46E-06,0.022291251
,,,-3.45E-06,0.022190001
,,,-3.44E-06,0.022300001
,,,-3.43E-06,0.022026251
,,,-3.42E-06,0.022294376
,,,-3.41E-06,0.022145001
,,,-3.4E-06,0.022119376
,,,-3.39E-06,0.022430001
,,,-3.38E-06,0.022281876
,,,-3.37E-06,0.022111876
,,,-3.36E-06,0.022178126
,,,-3.35E-06,0.022170001
,,,-3.34E-06,0.022026251
,,,-3.33E-06,0.022404376
,,,-3.32E-06,0.022076876
,,,-3.31E-06,0.022213126
,,,-3.3E-06,0.022057501
,,,-3.29E-06,0.022366876
,,,-3.28E-06,0.022235001
,,,-3.27E-06,0.022168126
,,,-3.26E-06,0.022092501
,,,-3.25E-06,0.022301251
,,,-3.24E-06,0.022306876
,,,-3.23E-06,0.022579376
,,,-3.22E-06,0.022103751
,,,-3.21E-06,0.022191876
,,,-3.2E-06,0.022390626
,,,-3.19E-06,0.022222501
,,,-3.18E-06,0.022127501
,,,-3.17E-06,0.022161251
,,,-3.16E-06,0.022193126
,,,-3.15E-06,0.022237501
,,,-3.14E-06,0.022266876
,,,-3.13E-06,0.022195626
,,,-3.12E-06,0.022235626
,,,-3.11E-06,0.022200001
,,,-3.1E-06,0.021965001
,,,-3.09E-06,0.022136251
,,,-3.08E-06,0.022265626
,,,-3.07E-06,0.022142501
,,,-3.06E-06,0.022140001
,,,-3.05E-06,0.022430001
,,,-3.04E-06,0.022280626
,,,-3.03E-06,0.022316876
,,,-3.02E-06,0.022185626
,,,-3.01E-06,0.022251251
,,,-3E-06,0.022009376
,,,-2.99E-06,0.022236251
,,,-2.98E-06,0.022171251
,,,-2.97E-06,0.022127501
,,,-2.96E-06,0.022341876
,,,-2.95E-06,0.022226251
,,,-2.94E-06,0.022245001
,,,-2.93E-06,0.022201251
,,,-2.92E-06,0.022366251
,,,-2.91E-06,0.022377501
,,,-2.9E-06,0.022403126
,,,-2.89E-06,0.022139376
,,,-2.88E-06,0.022065626
,,,-2.87E-06,0.022134376
,,,-2.86E-06,0.022170001
,,,-2.85E-06,0.022131876
,,,-2.84E-06,0.022343751
,,,-2.83E-06,0.022170001
,,,-2.82E-06,0.022255626
,,,-2.81E-06,0.022264376
,,,-2.8E-06,0.022194376
,,,-2.79E-06,0.022016251
,,,-2.78E-06,0.022423751
,,,-2.77E-06,0.021963126
,,,-2.76E-06,0.022044376
,,,-2.75E-06,0.022328751
,,,-2.74E-06,0.022451251
,,,-2.73E-06,0.022290626
,,,-2.72E-06,0.021957501
,,,-2.71E-06,0.022371251
,,,-2.7E-06,0.022163126
,,,-2.69E-06,0.022221876
,,,-2.68E-06,0.022197501
,,,-2.67E-06,0.022352501
,,,-2.66E-06,0.022073751
,,,-2.65E-06,0.022315001
,,,-2.64E-06,0.022065001
,,,-2.63E-06,0.022380001
,,,-2.62E-06,0.022394376
,,,-2.61E-06,0.022332501
,,,-2.6E-06,0.022068751
,,,-2.59E-06,0.022174376
,,,-2.58E-06,0.022383126
,,,-2.57E-06,0.022341251
,,,-2.56E-06,0.022404376
,,,-2.55E-06,0.022419376
,,,-2.54E-06,0.022226251
,,,-2.53E-06,0.022257501
,,,-2.52E-06,0.021965626
,,,-2.51E-06,0.022378126
,,,-2.5E-06,0.022238126
,,,-2.49E-06,0.022300001
,,,-2.48E-06,0.022166876
,,,-2.47E-06,0.022002501
,,,-2.46E-06,0.022382501
,,,-2.45E-06,0.022289376
,,,-2.44E-06,0.022002501
,,,-2.43E-06,0.022078126
,,,-2.42E-06,0.022183751
,,,-2.41E-06,0.022174376
,,,-2.4E-06,0.022003126
,,,-2.39E-06,0.022350001
,,,-2.38E-06,0.022128751
,,,-2.37E-06,0.022148751
,,,-2.36E-06,0.022265001
,,,-2.35E-06,0.022338126
,,,-2.34E-06,0.022087501
,,,-2.33E-06,0.022218751
,,,-2.32E-06,0.022341876
,,,-2.31E-06,0.022146251
,,,-2.3E-06,0.022175001
,,,-2.29E-06,0.022225001
,,,-2.28E-06,0.022259376
,,,-2.27E-06,0.022344376
,,,-2.26E-06,0.022293751
,,,-2.25E-06,0.022142501
,,,-2.24E-06,0.022360626
,,,-2.23E-06,0.022117501
,,,-2.22E-06,0.022266876
,,,-2.21E-06,0.022158126
,,,-2.2E-06,0.022308751
,,,-2.19E-06,0.022343126
,,,-2.18E-06,0.022044376
,,,-2.17E-06,0.021954376
,,,-2.16E-06,0.022547501
,,,-2.15E-06,0.022170626
,,,-2.14E-06,0.022161876
,,,-2.13E-06,0.022126251
,,,-2.12E-06,0.022098751
,,,-2.11E-06,0.022265626
,,,-2.1E-06,0.021950001
,,,-2.09E-06,0.022163751
,,,-2.08E-06,0.022395626
,,,-2.07E-06,0.022279376
,,,-2.06E-06,0.022241251
,,,-2.05E-06,0.022273126
,,,-2.04E-06,0.022140626
,,,-2.03E-06,0.022111251
,,,-2.02E-06,0.022226251
,,,-2.01E-06,0.022320626
,,,-2E-06,0.022391876
,,,-1.99E-06,0.022185001
,,,-1.98E-06,0.021957501
,,,-1.97E-06,0.022142501
,,,-1.96E-06,0.022112501
,,,-1.95E-06,0.022562501
,,,-1.94E-06,0.022320001
,,,-1.93E-06,0.022369376
,,,-1.92E-06,0.022203126
,,,-1.91E-06,0.022316876
,,,-1.9E-06,0.022160626
,,,-1.89E-06,0.022099376
,,,-1.88E-06,0.022261251
,,,-1.87E-06,0.022468126
,,,-1.86E-06,0.022271876
,,,-1.85E-06,0.022223126
,,,-1.84E-06,0.022443126
,,,-1.83E-06,0.022309376
,,,-1.82E-06,0.021924376
,,,-1.81E-06,0.022373126
,,,-1.8E-06,0.022091251
,,,-1.79E-06,0.022156876
,,,-1.78E-06,0.022178751
,,,-1.77E-06,0.022186876
,,,-1.76E-06,0.022082501
,,,-1.75E-06,0.022206876
,,,-1.74E-06,0.021990626
,,,-1.73E-06,0.022250626
,,,-1.72E-06,0.022273126
,,,-1.71E-06,0.022140626
,,,-1.7E-06,0.022230626
,,,-1.69E-06,0.022278751
,,,-1.68E-06,0.022463751
,,,-1.67E-06,0.022215626
,,,-1.66E-06,0.022283751
,,,-1.65E-06,0.022358751
,,,-1.64E-06,0.022105001
,,,-1.63E-06,0.022319376
,,,-1.62E-06,0.022288751
,,,-1.61E-06,0.022049376
,,,-1.6E-06,0.022251876
,,,-1.59E-06,0.022092501
,,,-1.58E-06,0.022204376
,,,-1.57E-06,0.022135001
,,,-1.56E-06,0.022146251
,,,-1.55E-06,0.022191251
,,,-1.54E-06,0.022037501
,,,-1.53E-06,0.022233751
,,,-1.52E-06,0.022226251
,,,-1.51E-06,0.021905001
,,,-1.5E-06,0.022237501
,,,-1.49E-06,0.022085626
,,,-1.48E-06,0.022273751
,,,-1.47E-06,0.022186876
,,,-1.46E-06,0.022375626
,,,-1.45E-06,0.022238126
,,,-1.44E-06,0.022203126
,,,-1.43E-06,0.022126251
,,,-1.42E-06,0.022410626
,,,-1.41E-06,0.022292501
,,,-1.4E-06,0.022254376
,,,-1.39E-06,0.022136251
,,,-1.38E-06,0.022285626
,,,-1.37E-06,0.022208126
,,,-1.36E-06,0.022174376
,,,-1.35E-06,0.022390626
,,,-1.34E-06,0.022285626
,,,-1.33E-06,0.022284376
,,,-1.32E-06,0.022143126
,,,-1.31E-06,0.021990626
,,,-1.3E-06,0.022261876
,,,-1.29E-06,0.022336876
,,,-1.28E-06,0.022143126
,,,-1.27E-06,0.022180626
,,,-1.26E-06,0.022213751
,,,-1.25E-06,0.022190626
,,,-1.24E-06,0.022091251
,,,-1.23E-06,0.022131251
,,,-1.22E-06,0.022249376
,,,-1.21E-06,0.022199376
,,,-1.2E-06,0.022461251
,,,-1.19E-06,0.022277501
,,,-1.18E-06,0.022212501
,,,-1.17E-06,0.022295001
,,,-1.16E-06,0.022482501
,,,-1.15E-06,0.022220001
,,,-1.14E-06,0.022168751
,,,-1.13E-06,0.022134376
,,,-1.12E-06,0.021969376
,,,-1.11E-06,0.022180001
,,,-1.1E-06,0.022127501
,,,-1.09E-06,0.022541876
,,,-1.08E-06,0.022232501
,,,-1.07E-06,0.022373126
,,,-1.06E-06,0.022148751
,,,-1.05E-06,0.022166251
,,,-1.04E-06,0.022061876
,,,-1.03E-06,0.022228126
,,,-1.02E-06,0.022199376
,,,-1.01E-06,0.022346876
,,,-1E-06,0.022448126
,,,-9.9E-07,0.022203751
,,,-9.8E-07,0.022321876
,,,-9.7E-07,0.022419376
,,,-9.6E-07,0.022145001
,,,-9.5E-07,0.022007501
,,,-9.4E-07,0.022226251
,,,-9.3E-07,0.022411251
,,,-9.2E-07,0.022476876
,,,-9.1E-07,0.022204376
,,,-9E-07,0.022317501
,,,-8.9E-07,0.022228751
,,,-8.8E-07,0.022431251
,,,-8.7E-07,0.022301876
,,,-8.6E-07,0.022514376
,,,-8.5E-07,0.022257501
,,,-8.4E-07,0.022323126
,,,-8.3E-07,0.021934376
,,,-8.2E-07,0.022433751
,,,-8.1E-07,0.022346876
,,,-8E-07,0.021966251
,,,-7.9E-07,0.022095001
,,,-7.8E-07,0.022269376
,,,-7.7E-07,0.022463126
,,,-7.6E-07,0.022201251
,,,-7.5E-07,0.022245626
,,,-7.4E-07,0.022215626
,,,-7.3E-07,0.022155626
,,,-7.2E-07,0.022020001
,,,-7.1E-07,0.022476251
,,,-7E-07,0.022410001
,,,-6.9E-07,0.022199376
,,,-6.8E-07,0.022343126
,,,-6.7E-07,0.021981251
,,,-6.6E-07,0.022065001
,,,-6.5E-07,0.021975001
,,,-6.4E-07,0.022212501
,,,-6.3E-07,0.021864376
,,,-6.2E-07,0.022053751
,,,-6.1E-07,0.022191251
,,,-6E-07,0.022346876
,,,-5.9E-07,0.022203751
,,,-5.8E-07,0.022340001
,,,-5.7E-07,0.022277501
,,,-5.6E-07,0.021930001
,,,-5.5E-07,0.022145626
,,,-5.4E-07,0.022105626
,,,-5.3E-07,0.022196251
,,,-5.2E-07,0.022450001
,,,-5.1E-07,0.022388126
,,,-5E-07,0.022158126
,,,-4.9E-07,0.022533126
,,,-4.8E-07,0.022236251
,,,-4.7E-07,0.022135626
,,,-4.6E-07,0.022156876
,,,-4.5E-07,0.022571251
,,,-4.4E-07,0.022378126
,,,-4.3E-07,0.022390626
,,,-4.2E-07,0.022116251
,,,-4.1E-07,0.022247501
,,,-4E-07,0.022185001
,,,-3.9E-07,0.022148751
,,,-3.8E-07,0.022185626
,,,-3.7E-07,0.022256876
,,,-3.6E-07,0.022091251
,,,-3.5E-07,0.022055001
,,,-3.4E-07,0.021925001
,,,-3.3E-07,0.022275001
,,,-3.2E-07,0.022167501
,,,-3.1E-07,0.022375626
,,,-3E-07,0.022382501
,,,-2.9E-07,0.021983751
,,,-2.8E-07,0.022409376
,,,-2.7E-07,0.022446876
,,,-2.6E-07,0.022316876
,,,-2.5E-07,0.022310626
,,,-2.4E-07,0.022506876
,,,-2.3E-07,0.022364376
,,,-2.2E-07,0.022193126
,,,-2.1E-07,0.022367501
,,,-2E-07,0.022542501
,,,-1.9E-07,0.022331876
,,,-1.8E-07,0.022325626
,,,-1.7E-07,0.022240001
,,,-1.6E-07,0.022318126
,,,-1.5E-07,0.022071876
,,,-1.4E-07,0.022155626
,,,-1.3E-07,0.022295626
,,,-1.2E-07,0.022460626
,,,-1.1E-07,0.022253126
,,,-1E-07,0.022195001
,,,-9E-08,0.021969376
,,,-8E-08,0.022203126
,,,-7E-08,0.022097501
,,,-6E-08,0.022218126
,,,-5E-08,0.022250001
,,,-4E-08,0.022884376
,,,-3E-08,0.024455626
,,,-2E-08,0.020950626
,,,-1E-08,0.018931251
,,,0,0.017714376
,,,1E-08,0.024383751
,,,2E-08,0.026721251
,,,3E-08,0.027136876
,,,4E-08,0.022559376
,,,5E-08,0.019621876
,,,6E-08,0.018447501
,,,7E-08,0.020245626
,,,8E-08,0.022933751
,,,9E-08,0.024163751
,,,1E-07,0.024603751
,,,1.1E-07,0.023438126
,,,1.2E-07,0.021544376
,,,1.3E-07,0.020194376
,,,1.4E-07,0.021115001
,,,1.5E-07,0.022302501
,,,1.6E-07,0.022938126
,,,1.7E-07,0.022870001
,,,1.8E-07,0.022190001
,,,1.9E-07,0.022267501
,,,2E-07,0.022225626
,,,2.1E-07,0.021989376
,,,2.2E-07,0.021927501
,,,2.3E-07,0.021880626
,,,2.4E-07,0.022359376
,,,2.5E-07,0.022374376
,,,2.6E-07,0.022341251
,,,2.7E-07,0.022104376
,,,2.8E-07,0.022317501
,,,2.9E-07,0.022440626
,,,3E-07,0.021958126
,,,3.1E-07,0.021973126
,,,3.2E-07,0.022593751
,,,3.3E-07,0.022323126
,,,3.4E-07,0.022366876
,,,3.5E-07,0.022360626
,,,3.6E-07,0.022184376
,,,3.7E-07,0.022219376
,,,3.8E-07,0.022203751
,,,3.9E-07,0.022369376
,,,4E-07,0.022310626
,,,4.1E-07,0.022131876
,,,4.2E-07,0.022240001
,,,4.3E-07,0.022014376
,,,4.4E-07,0.022335626
,,,4.5E-07,0.022165001
,,,4.6E-07,0.022188126
,,,4.7E-07,0.022428751
,,,4.8E-07,0.022252501
,,,4.9E-07,0.021996251
,,,5E-07,0.022497501
,,,5.1E-07,0.022254376
,,,5.2E-07,0.022141876
,,,5.3E-07,0.022134376
,,,5.4E-07,0.022193126
,,,5.5E-07,0.022255626
,,,5.6E-07,0.022439376
,,,5.7E-07,0.022153751
,,,5.8E-07,0.022265001
,,,5.9E-07,0.022358126
,,,6E-07,0.022200626
,,,6.1E-07,0.022095626
,,,6.2E-07,0.022278126
,,,6.3E-07,0.022072501
,,,6.4E-07,0.022175626
,,,6.5E-07,0.022096876
,,,6.6E-07,0.022280001
,,,6.7E-07,0.022161251
,,,6.8E-07,0.022326876
,,,6.9E-07,0.022014376
,,,7E-07,0.022121876
,,,7.1E-07,0.022041876
,,,7.2E-07,0.022010626
,,,7.3E-07,0.022366251
,,,7.4E-07,0.022213751
,,,7.5E-07,0.022255001
,,,7.6E-07,0.022049376
,,,7.7E-07,0.022299376
,,,7.8E-07,0.022087501
,,,7.9E-07,0.022335626
,,,8E-07,0.022323126
,,,8.1E-07,0.022126876
,,,8.2E-07,0.022467501
,,,8.3E-07,0.022335001
,,,8.4E-07,0.022564376
,,,8.5E-07,0.022458751
,,,8.6E-07,0.022081876
,,,8.7E-07,0.022271876
,,,8.8E-07,0.022012501
,,,8.9E-07,0.022473751
,,,9E-07,0.022143751
,,,9.1E-07,0.022125001
,,,9.2E-07,0.022051876
,,,9.3E-07,0.022164376
,,,9.4E-07,0.022207501
,,,9.5E-07,0.022386251
,,,9.6E-07,0.022148751
,,,9.7E-07,0.022009376
,,,9.8E-07,0.022556251
,,,9.9E-07,0.022288751
,,,1E-06,0.022255001
,,,1.01E-06,0.022133751
,,,1.02E-06,0.022516251
,,,1.03E-06,0.022221876
,,,1.04E-06,0.022190001
,,,1.05E-06,0.022350001
,,,1.06E-06,0.022524376
,,,1.07E-06,0.022452501
,,,1.08E-06,0.022483126
,,,1.09E-06,0.022276251
,,,1.1E-06,0.022328751
,,,1.11E-06,0.022103126
,,,1.12E-06,0.022111876
,,,1.13E-06,0.022096251
,,,1.14E-06,0.022318126
,,,1.15E-06,0.022423751
,,,1.16E-06,0.022150001
,,,1.17E-06,0.022108126
,,,1.18E-06,0.022300001
,,,1.19E-06,0.021950626
,,,1.2E-06,0.022170001
,,,1.21E-06,0.022223126
,,,1.22E-06,0.022358126
,,,1.23E-06,0.022036251
,,,1.24E-06,0.022445001
,,,1.25E-06,0.022038126
,,,1.26E-06,0.022161251
,,,1.27E-06,0.022248751
,,,1.28E-06,0.022010001
,,,1.29E-06,0.022264376
,,,1.3E-06,0.022281876
,,,1.31E-06,0.021966251
,,,1.32E-06,0.022368126
,,,1.33E-06,0.022372501
,,,1.34E-06,0.022249376
,,,1.35E-06,0.022225001
,,,1.36E-06,0.021909376
,,,1.37E-06,0.021928751
,,,1.38E-06,0.022075001
,,,1.39E-06,0.022389376
,,,1.4E-06,0.022270001
,,,1.41E-06,0.022014376
,,,1.42E-06,0.022335626
,,,1.43E-06,0.022213751
,,,1.44E-06,0.022043751
,,,1.45E-06,0.022136876
,,,1.46E-06,0.022205001
,,,1.47E-06,0.022309376
,,,1.48E-06,0.022356251
,,,1.49E-06,0.022246876
,,,1.5E-06,0.022166251
,,,1.51E-06,0.022161876
,,,1.52E-06,0.022336251
,,,1.53E-06,0.022076251
,,,1.54E-06,0.022204376
,,,1.55E-06,0.022275626
,,,1.56E-06,0.022380001
,,,1.57E-06,0.021982501
,,,1.58E-06,0.022325001
,,,1.59E-06,0.022193126
,,,1.6E-06,0.022169376
,,,1.61E-06,0.022255001
,,,1.62E-06,0.022290626
,,,1.63E-06,0.022205001
,,,1.64E-06,0.022107501
,,,1.65E-06,0.022317501
,,,1.66E-06,0.022301876
,,,1.67E-06,0.022397501
,,,1.68E-06,0.022108751
,,,1.69E-06,0.022045001
,,,1.7E-06,0.022227501
,,,1.71E-06,0.022361251
,,,1.72E-06,0.022445001
,,,1.73E-06,0.022392501
,,,1.74E-06,0.022315626
,,,1.75E-06,0.022200626
,,,1.76E-06,0.022293751
,,,1.77E-06,0.022145626
,,,1.78E-06,0.022375001
,,,1.79E-06,0.022397501
,,,1.8E-06,0.022094376
,,,1.81E-06,0.022131251
,,,1.82E-06,0.022198751
,,,1.83E-06,0.022166876
,,,1.84E-06,0.022556876
,,,1.85E-06,0.022226876
,,,1.86E-06,0.022176251
,,,1.87E-06,0.022327501
,,,1.88E-06,0.022208751
,,,1.89E-06,0.022205626
,,,1.9E-06,0.022259376
,,,1.91E-06,0.022480001
,,,1.92E-06,0.022159376
,,,1.93E-06,0.022150626
,,,1.94E-06,0.022098126
,,,1.95E-06,0.022144376
,,,1.96E-06,0.022005626
,,,1.97E-06,0.022276876
,,,1.98E-06,0.022216251
,,,1.99E-06,0.022368751
,,,2E-06,0.022281876
,,,2.01E-06,0.022275626
,,,2.02E-06,0.022156876
,,,2.03E-06,0.022403126
,,,2.04E-06,0.022375626
,,,2.05E-06,0.022238126
,,,2.06E-06,0.022191876
,,,2.07E-06,0.022203126
,,,2.08E-06,0.022208751
,,,2.09E-06,0.022246876
,,,2.1E-06,0.022039376
,,,2.11E-06,0.022124376
,,,2.12E-06,0.022248126
,,,2.13E-06,0.022418126
,,,2.14E-06,0.022168126
,,,2.15E-06,0.022244376
,,,2.16E-06,0.021991876
,,,2.17E-06,0.022314376
,,,2.18E-06,0.022195626
,,,2.19E-06,0.022016876
,,,2.2E-06,0.022050001
,,,2.21E-06,0.022300626
,,,2.22E-06,0.022158126
,,,2.23E-06,0.022460626
,,,2.24E-06,0.022196876
,,,2.25E-06,0.022072501
,,,2.26E-06,0.022218751
,,,2.27E-06,0.022201251
,,,2.28E-06,0.022308126
,,,2.29E-06,0.022322501
,,,2.3E-06,0.022260001
,,,2.31E-06,0.022309376
,,,2.32E-06,0.022428751
,,,2.33E-06,0.022167501
,,,2.34E-06,0.022122501
,,,2.35E-06,0.022348751
,,,2.36E-06,0.022235626
,,,2.37E-06,0.022203751
,,,2.38E-06,0.022493751
,,,2.39E-06,0.021943126
,,,2.4E-06,0.022214376
,,,2.41E-06,0.022083751
,,,2.42E-06,0.021981251
,,,2.43E-06,0.022282501
,,,2.44E-06,0.022146251
,,,2.45E-06,0.022191876
,,,2.46E-06,0.022559376
,,,2.47E-06,0.022340001
,,,2.48E-06,0.022350001
,,,2.49E-06,0.022320001
,,,2.5E-06,0.022396251
,,,2.51E-06,0.022195626
,,,2.52E-06,0.022288126
,,,2.53E-06,0.022353751
,,,2.54E-06,0.022126876
,,,2.55E-06,0.022199376
,,,2.56E-06,0.022377501
,,,2.57E-06,0.022303126
,,,2.58E-06,0.022398751
,,,2.59E-06,0.022314376
,,,2.6E-06,0.021975626
,,,2.61E-06,0.022233751
,,,2.62E-06,0.022355001
,,,2.63E-06,0.022300001
,,,2.64E-06,0.022226251
,,,2.65E-06,0.022359376
,,,2.66E-06,0.022328126
,,,2.67E-06,0.022107501
,,,2.68E-06,0.022158751
,,,2.69E-06,0.022111251
,,,2.7E-06,0.022216876
,,,2.71E-06,0.022189376
,,,2.72E-06,0.022299376
,,,2.73E-06,0.022383126
,,,2.74E-06,0.022305001
,,,2.75E-06,0.022026251
,,,2.76E-06,0.022128126
,,,2.77E-06,0.022367501
,,,2.78E-06,0.022141876
,,,2.79E-06,0.021980001
,,,2.8E-06,0.022128751
,,,2.81E-06,0.022329376
,,,2.82E-06,0.022294376
,,,2.83E-06,0.022474376
,,,2.84E-06,0.022193751
,,,2.85E-06,0.022205626
,,,2.86E-06,0.022064376
,,,2.87E-06,0.022333751
,,,2.88E-06,0.022322501
,,,2.89E-06,0.022281251
,,,2.9E-06,0.022174376
,,,2.91E-06,0.022446251
,,,2.92E-06,0.022350626
,,,2.93E-06,0.022306876
,,,2.94E-06,0.022300001
,,,2.95E-06,0.022219376
,,,2.96E-06,0.022274376
,,,2.97E-06,0.022298751
,,,2.98E-06,0.022353751
,,,2.99E-06,0.022317501
,,,3E-06,0.022010626
,,,3.01E-06,0.022225001
,,,3.02E-06,0.021968751
,,,3.03E-06,0.022153751
,,,3.04E-06,0.022240001
,,,3.05E-06,0.022241876
,,,3.06E-06,0.022404376
,,,3.07E-06,0.022274376
,,,3.08E-06,0.022266876
,,,3.09E-06,0.022042501
,,,3.1E-06,0.022178126
,,,3.11E-06,0.022243126
,,,3.12E-06,0.022345001
,,,3.13E-06,0.022071251
,,,3.14E-06,0.022476876
,,,3.15E-06,0.022235001
,,,3.16E-06,0.022308751
,,,3.17E-06,0.022175001
,,,3.18E-06,0.022268751
,,,3.19E-06,0.022421251
,,,3.2E-06,0.022048126
,,,3.21E-06,0.022256251
