data/raw/Final_POL_Test_1/SOP065_Ch1.csv

"Record Length",1000,"Points",-5E-06,0.006954375
"Sample Interval",1E-08,s,-4.99E-06,0.006963125
"Trigger Point",500,"Samples",-4.98E-06,0.006605625
"Trigger Time",0,s,-4.97E-06,0.006945625
"",,,-4.96E-06,0.00681375
"Horizontal Offset",-5E-06,s,-4.95E-06,0.006899375
,,,-4.94E-06,0.006764375
,,,-4.93E-06,0.006990625
,,,-4.92E-06,0.007075
,,,-4.91E-06,0.0070125
,,,-4.9E-06,0.007078125
,,,-4.89E-06,0.00706
,,,-4.88E-06,0.007165
,,,-4.87E-06,0.00707375
,,,-4.86E-06,0.006844375
,,,-4.85E-06,0.006963125
,,,-4.84E-06,0.00681375
,,,-4.83E-06,0.00703625
,,,-4.82E-06,0.007213125
,,,-4.81E-06,0.007076875
,,,-4.8E-06,0.007101875
,,,-4.79E-06,0.006820625
,,,-4.78E-06,0.0067275
,,,-4.77E-06,0.006666875
,,,-4.76E-06,0.007179375
,,,-4.75E-06,0.00675
,,,-4.74E-06,0.006883125
,,,-4.73E-06,0.00700125
,,,-4.72E-06,0.006970625
,,,-4.71E-06,0.00671
,,,-4.7E-06,0.00693
,,,-4.69E-06,0.007050625
,,,-4.68E-06,0.006879375
,,,-4.67E-06,0.007220625
,,,-4.66E-06,0.006838125
,,,-4.65E-06,0.0069425
,,,-4.64E-06,0.006776875
,,,-4.63E-06,0.00687125
,,,-4.62E-06,0.006798125
,,,-4.61E-06,0.006978125
,,,-4.6E-06,0.006815625
,,,-4.59E-06,0.006931875
,,,-4.58E-06,0.006990625
,,,-4.57E-06,0.006958125
,,,-4.56E-06,0.00709125
,,,-4.55E-06,0.007068125
,,,-4.54E-06,0.007139375
,,,-4.53E-06,0.007091875
,,,-4.52E-06,0.006983125
,,,-4.51E-06,0.006895
,,,-4.5E-06,0.00694375
,,,-4.49E-06,0.00699625
,,,-4.48E-06,0.007078125
,,,-4.47E-06,0.0070875
,,,-4.46E-06,0.006805
,,,-4.45E-06,0.0069775
,,,-4.44E-06,0.0070025
,,,-4.43E-06,0.006880625
,,,-4.42E-06,0.00681
,,,-4.41E-06,0.006895625
,,,-4.4E-06,0.00683375
,,,-4.39E-06,0.007245
,,,-4.38E-06,0.00705125
,,,-4.37E-06,0.0070075
,,,-4.36E-06,0.007
,,,-4.35E-06,0.0069375
,,,-4.34E-06,0.006776875
,,,-4.33E-06,0.006919375
,,,-4.32E-06,0.006901875
,,,-4.31E-06,0.006788125
,,,-4.3E-06,0.007120625
,,,-4.29E-06,0.00673875
,,,-4.28E-06,0.006965625
,,,-4.27E-06,0.007014375
,,,-4.26E-06,0.006918125
,,,-4.25E-06,0.0069475
,,,-4.24E-06,0.006839375
,,,-4.23E-06,0.006918125
,,,-4.22E-06,0.0070175
,,,-4.21E-06,0.006800625
,,,-4.2E-06,0.0070575
,,,-4.19E-06,0.00692625
,,,-4.18E-06,0.0069225
,,,-4.17E-06,0.007025625
,,,-4.16E-06,0.006939375
,,,-4.15E-06,0.007039375
,,,-4.14E-06,0.0070875
,,,-4.13E-06,0.00677
,,,-4.12E-06,0.006824375
,,,-4.11E-06,0.0069325
,,,-4.1E-06,0.006938125
,,,-4.09E-06,0.00688375
,,,-4.08E-06,0.007078125
,,,-4.07E-06,0.00685875
,,,-4.06E-06,0.007089375
,,,-4.05E-06,0.006955625
,,,-4.04E-06,0.00685375
,,,-4.03E-06,0.006861875
,,,-4.02E-06,0.006689375
,,,-4.01E-06,0.0069625
,,,-4E-06,0.00703375
,,,-3.99E-06,0.00693875
,,,-3.98E-06,0.00693125
,,,-3.97E-06,0.00673375
,,,-3.96E-06,0.00704875
,,,-3.95E-06,0.007066875
,,,-3.94E-06,0.007071875
,,,-3.93E-06,0.00669
,,,-3.92E-06,0.006938125
,,,-3.91E-06,0.00687375
,,,-3.9E-06,0.007003125
,,,-3.89E-06,0.0069175
,,,-3.88E-06,0.006995
,,,-3.87E-06,0.007
,,,-3.86E-06,0.00706
,,,-3.85E-06,0.00706
,,,-3.84E-06,0.00702625
,,,-3.83E-06,0.007
,,,-3.82E-06,0.007065625
,,,-3.81E-06,0.00713
,,,-3.8E-06,0.006945
,,,-3.79E-06,0.007006875
,,,-3.78E-06,0.0067025
,,,-3.77E-06,0.00690375
,,,-3.76E-06,0.006703125
,,,-3.75E-06,0.00708625
,,,-3.74E-06,0.006885625
,,,-3.73E-06,0.007015625
,,,-3.72E-06,0.007028125
,,,-3.71E-06,0.006925
,,,-3.7E-06,0.006850625
,,,-3.69E-06,0.007014375
,,,-3.68E-06,0.006825625
,,,-3.67E-06,0.0068925
,,,-3.66E-06,0.006965
,,,-3.65E-06,0.00687625
,,,-3.64E-06,0.00659
,,,-3.63E-06,0.00710875
,,,-3.62E-06,0.006999375
,,,-3.61E-06,0.007305
,,,-3.6E-06,0.006983125
,,,-3.59E-06,0.006958125
,,,-3.58E-06,0.007045
,,,-3.57E-06,0.006970625
,,,-3.56E-06,0.00694875
,,,-3.55E-06,0.007009375
,,,-3.54E-06,0.006920625
,,,-3.53E-06,0.006980625
,,,-3.52E-06,0.006920625
,,,-3.51E-06,0.006773125
,,,-3.5E-06,0.0068525
,,,-3.49E-06,0.00692625
,,,-3.48E-06,0.007026875
,,,-3.47E-06,0.00689625
,,,-3.46E-06,0.006914375
,,,-3.45E-06,0.00699375
,,,-3.44E-06,0.00714625
,,,-3.43E-06,0.00684625
,,,-3.42E-06,0.00701
,,,-3.41E-06,0.00692375
,,,-3.4E-06,0.00693875
,,,-3.39E-06,0.007063125
,,,-3.38E-06,0.0069225
,,,-3.37E-06,0.0068525
,,,-3.36E-06,0.006815
,,,-3.35E-06,0.00705375
,,,-3.34E-06,0.00691
,,,-3.33E-06,0.00687625
,,,-3.32E-06,0.00694125
,,,-3.31E-06,0.00714375
,,,-3.3E-06,0.006911875
,,,-3.29E-06,0.006988125
,,,-3.28E-06,0.006735625
,,,-3.27E-06,0.00689625
,,,-3.26E-06,0.006925625
,,,-3.25E-06,0.007011875
,,,-3.24E-06,0.006916875
,,,-3.23E-06,0.007143125
,,,-3.22E-06,0.00695125
,,,-3.21E-06,0.006870625
,,,-3.2E-06,0.006835
,,,-3.19E-06,0.00694875
,,,-3.18E-06,0.0069225
,,,-3.17E-06,0.006855
,,,-3.16E-06,0.00691
,,,-3.15E-06,0.006996875
,,,-3.14E-06,0.007031875
,,,-3.13E-06,0.007075
,,,-3.12E-06,0.006978125
,,,-3.11E-06,0.00682625
,,,-3.1E-06,0.0068175
,,,-3.09E-06,0.006970625
,,,-3.08E-06,0.00696125
,,,-3.07E-06,0.007035625
,,,-3.06E-06,0.00705375
,,,-3.05E-06,0.00704
,,,-3.04E-06,0.006994375
,,,-3.03E-06,0.006815625
,,,-3.02E-06,0.006998125
,,,-3.01E-06,0.00700375
,,,-3E-06,0.00683625
,,,-2.99E-06,0.006993125
,,,-2.98E-06,0.007038125
,,,-2.97E-06,0.00707875
,,,-2.96E-06,0.007093125
,,,-2.95E-06,0.00687125
,,,-2.94E-06,0.006879375
,,,-2.93E-06,0.00708625
,,,-2.92E-06,0.006839375
,,,-2.91E-06,0.006995625
,,,-2.9E-06,0.007109375
,,,-2.89E-06,0.00679375
,,,-2.88E-06,0.007130625
,,,-2.87E-06,0.006874375
,,,-2.86E-06,0.00691
,,,-2.85E-06,0.006885625
,,,-2.84E-06,0.006874375
,,,-2.83E-06,0.006940625
,,,-2.82E-06,0.006815
,,,-2.81E-06,0.00703
,,,-2.8E-06,0.00693375
,,,-2.79E-06,0.00687125
,,,-2.78E-06,0.006754375
,,,-2.77E-06,0.00708
,,,-2.76E-06,0.0068775
,,,-2.75E-06,0.006841875
,,,-2.74E-06,0.007096875
,,,-2.73E-06,0.0070275
,,,-2.72E-06,0.00713375
,,,-2.71E-06,0.006945625
,,,-2.7E-06,0.006901875
,,,-2.69E-06,0.007075625
,,,-2.68E-06,0.007054375
,,,-2.67E-06,0.006924375
,,,-2.66E-06,0.007279375
,,,-2.65E-06,0.007033125
,,,-2.64E-06,0.007124375
,,,-2.63E-06,0.00699375
,,,-2.62E-06,0.007078125
,,,-2.61E-06,0.007055625
,,,-2.6E-06,0.00675
,,,-2.59E-06,0.00697
,,,-2.58E-06,0.007064375
,,,-2.57E-06,0.00694125
,,,-2.56E-06,0.006956875
,,,-2.55E-06,0.006945
,,,-2.54E-06,0.006798125
,,,-2.53E-06,0.006991875
,,,-2.52E-06,0.006784375
,,,-2.51E-06,0.0067825
,,,-2.5E-06,0.00700375
,,,-2.49E-06,0.00694875
,,,-2.48E-06,0.0070075
,,,-2.47E-06,0.007129375
,,,-2.46E-06,0.006805
,,,-2.45E-06,0.00703625
,,,-2.44E-06,0.007049375
,,,-2.43E-06,0.00699875
,,,-2.42E-06,0.006875625
,,,-2.41E-06,0.00696125
,,,-2.4E-06,0.007029375
,,,-2.39E-06,0.007055
,,,-2.38E-06,0.00697375
,,,-2.37E-06,0.00687375
,,,-2.36E-06,0.007000625
,,,-2.35E-06,0.007133125
,,,-2.34E-06,0.00691375
,,,-2.33E-06,0.00698
,,,-2.32E-06,0.0071225
,,,-2.31E-06,0.007129375
,,,-2.3E-06,0.006833125
,,,-2.29E-06,0.00695875
,,,-2.28E-06,0.007121875
,,,-2.27E-06,0.00688
,,,-2.26E-06,0.006929375
,,,-2.25E-06,0.00675625
,,,-2.24E-06,0.00694875
,,,-2.23E-06,0.00682125
,,,-2.22E-06,0.007031875
,,,-2.21E-06,0.006905
,,,-2.2E-06,0.00696125
,,,-2.19E-06,0.00709375
,,,-2.18E-06,0.007011875
,,,-2.17E-06,0.006910625
,,,-2.16E-06,0.0068275
,,,-2.15E-06,0.006909375
,,,-2.14E-06,0.006966875
,,,-2.13E-06,0.007165
,,,-2.12E-06,0.00691
,,,-2.11E-06,0.006761875
,,,-2.1E-06,0.006814375
,,,-2.09E-06,0.00689
,,,-2.08E-06,0.007164375
,,,-2.07E-06,0.006958125
,,,-2.06E-06,0.006929375
,,,-2.05E-06,0.006646875
,,,-2.04E-06,0.006880625
,,,-2.03E-06,0.00701875
,,,-2.02E-06,0.00704875
,,,-2.01E-06,0.00673875
,,,-2E-06,0.006905
,,,-1.99E-06,0.006965625
,,,-1.98E-06,0.006875
,,,-1.97E-06,0.00694625
,,,-1.96E-06,0.00686
,,,-1.95E-06,0.00686
,,,-1.94E-06,0.006834375
,,,-1.93E-06,0.00694875
,,,-1.92E-06,0.006893125
,,,-1.91E-06,0.00700625
,,,-1.9E-06,0.006929375
,,,-1.89E-06,0.0068825
,,,-1.88E-06,0.007151875
,,,-1.87E-06,0.0068925
,,,-1.86E-06,0.007045
,,,-1.85E-06,0.00704875
,,,-1.84E-06,0.007026875
,,,-1.83E-06,0.006940625
,,,-1.82E-06,0.007106875
,,,-1.81E-06,0.006850625
,,,-1.8E-06,0.006905
,,,-1.79E-06,0.00704625
,,,-1.78E-06,0.0069625
,,,-1.77E-06,0.007165
,,,-1.76E-06,0.006908125
,,,-1.75E-06,0.00704625
,,,-1.74E-06,0.0069675
,,,-1.73E-06,0.00702
,,,-1.72E-06,0.00699625
,,,-1.71E-06,0.0068575
,,,-1.7E-06,0.00693625
,,,-1.69E-06,0.007105625
,,,-1.68E-06,0.006895
,,,-1.67E-06,0.007156875
,,,-1.66E-06,0.00688625
,,,-1.65E-06,0.0068825
,,,-1.64E-06,0.00695375
,,,-1.63E-06,0.006896875
,,,-1.62E-06,0.006849375
,,,-1.61E-06,0.006898125
,,,-1.6E-06,0.006806875
,,,-1.59E-06,0.00682125
,,,-1.58E-06,0.007065625
,,,-1.57E-06,0.007081875
,,,-1.56E-06,0.0068675
,,,-1.55E-06,0.007021875
,,,-1.54E-06,0.0071475
,,,-1.53E-06,0.006976875
,,,-1.52E-06,0.00688
,,,-1.51E-06,0.006773125
,,,-1.5E-06,0.007018125
,,,-1.49E-06,0.006894375
,,,-1.48E-06,0.006991875
,,,-1.47E-06,0.006995625
,,,-1.46E-06,0.006484375
,,,-1.45E-06,0.00689875
,,,-1.44E-06,0.00693875
,,,-1.43E-06,0.007053125
,,,-1.42E-06,0.00709125
,,,-1.41E-06,0.0068275
,,,-1.4E-06,0.006860625
,,,-1.39E-06,0.00706
,,,-1.38E-06,0.00677
,,,-1.37E-06,0.006986875
,,,-1.36E-06,0.0069075
,,,-1.35E-06,0.00697375
,,,-1.34E-06,0.0070025
,,,-1.33E-06,0.00693625
,,,-1.32E-06,0.00692875
,,,-1.31E-06,0.007088125
,,,-1.3E-06,0.00679
,,,-1.29E-06,0.00675375
,,,-1.28E-06,0.006968125
,,,-1.27E-06,0.006976875
,,,-1.26E-06,0.006955625
,,,-1.25E-06,0.0072325
,,,-1.24E-06,0.00693625
,,,-1.23E-06,0.00689
,,,-1.22E-06,0.006890625
,,,-1.21E-06,0.006765
,,,-1.2E-06,0.006835625
,,,-1.19E-06,0.0072
,,,-1.18E-06,0.007014375
,,,-1.17E-06,0.00673625
,,,-1.16E-06,0.006968125
,,,-1.15E-06,0.006914375
,,,-1.14E-06,0.0070475
,,,-1.13E-06,0.00700875
,,,-1.12E-06,0.006765
,,,-1.11E-06,0.006890625
,,,-1.1E-06,0.0071875
,,,-1.09E-06,0.00710375
,,,-1.08E-06,0.0070775
,,,-1.07E-06,0.0069
,,,-1.06E-06,0.00700625
,,,-1.05E-06,0.00703125
,,,-1.04E-06,0.006965
,,,-1.03E-06,0.006925
,,,-1.02E-06,0.006978125
,,,-1.01E-06,0.006835625
,,,-1E-06,0.0071125
,,,-9.9E-07,0.00698
,,,-9.8E-07,0.00687625
,,,-9.7E-07,0.006873125
,,,-9.6E-07,0.0069825
,,,-9.5E-07,0.00698875
,,,-9.4E-07,0.007089375
,,,-9.3E-07,0.00695625
,,,-9.2E-07,0.00687625
,,,-9.1E-07,0.006904375
,,,-9E-07,0.006679375
,,,-8.9E-07,0.0067325
,,,-8.8E-07,0.00697625
,,,-8.7E-07,0.006945
,,,-8.6E-07,0.0070275
,,,-8.5E-07,0.007030625
,,,-8.4E-07,0.006868125
,,,-8.3E-07,0.006938125
,,,-8.2E-07,0.00700125
,,,-8.1E-07,0.00693875
,,,-8E-07,0.006943125
,,,-7.9E-07,0.006894375
,,,-7.8E-07,0.0069575
,,,-7.7E-07,0.0067025
,,,-7.6E-07,0.00693375
,,,-7.5E-07,0.006934375
,,,-7.4E-07,0.0067975
,,,-7.3E-07,0.00691875
,,,-7.2E-07,0.00701625
,,,-7.1E-07,0.00699125
,,,-7E-07,0.007205
,,,-6.9E-07,0.00689125
,,,-6.8E-07,0.007150625
,,,-6.7E-07,0.00698375
,,,-6.6E-07,0.00688375
,,,-6.5E-07,0.006990625
,,,-6.4E-07,0.006808125
,,,-6.3E-07,0.00682125
,,,-6.2E-07,0.006685
,,,-6.1E-07,0.006949375
,,,-6E-07,0.00711375
,,,-5.9E-07,0.00712375
,,,-5.8E-07,0.006793125
,,,-5.7E-07,0.00697875
,,,-5.6E-07,0.006974375
,,,-5.5E-07,0.006889375
,,,-5.4E-07,0.00707625
,,,-5.3E-07,0.007041875
,,,-5.2E-07,0.006894375
,,,-5.1E-07,0.006900625
,,,-5E-07,0.0068725
,,,-4.9E-07,0.006733125
,,,-4.8E-07,0.006881875
,,,-4.7E-07,0.006796875
,,,-4.6E-07,0.006966875
,,,-4.5E-07,0.006934375
,,,-4.4E-07,0.0068225
,,,-4.3E-07,0.0067675
,,,-4.2E-07,0.006979375
,,,-4.1E-07,0.0069125
,,,-4E-07,0.006834375
,,,-3.9E-07,0.006765625
,,,-3.8E-07,0.00705625
,,,-3.7E-07,0.00701625
,,,-3.6E-07,0.00687625
,,,-3.5E-07,0.0070125
,,,-3.4E-07,0.006930625
,,,-3.3E-07,0.00704875
,,,-3.2E-07,0.00698125
,,,-3.1E-07,0.0071575
,,,-3E-07,0.0067475
,,,-2.9E-07,0.006933125
,,,-2.8E-07,0.00659625
,,,-2.7E-07,0.00706
,,,-2.6E-07,0.00681
,,,-2.5E-07,0.006835625
,,,-2.4E-07,0.00682875
,,,-2.3E-07,0.006856875
,,,-2.2E-07,0.006766875
,,,-2.1E-07,0.006931875
,,,-2E-07,0.006978125
,,,-1.9E-07,0.00716375
,,,-1.8E-07,0.00684
,,,-1.7E-07,0.007071875
,,,-1.6E-07,0.006896875
,,,-1.5E-07,0.006984375
,,,-1.4E-07,0.0069775
,,,-1.3E-07,0.0069625
,,,-1.2E-07,0.006886875
,,,-1.1E-07,0.00688
,,,-1E-07,0.0070825
,,,-9E-08,0.0072925
,,,-8E-08,0.00678
,,,-7E-08,0.006710625
,,,-6E-08,0.006834375
,,,-5E-08,0.006850625
,,,-4E-08,0.007481875
,,,-3E-08,0.0082275
,,,-2E-08,0.006001875
,,,-1E-08,0.00419
,,,0,0.00403
,,,1E-08,0.00866
,,,2E-08,0.010505
,,,3E-08,0.010656875
,,,4E-08,0.00713375
,,,5E-08,0.0047175
,,,6E-08,0.003884375
,,,7E-08,0.00566125
,,,8E-08,0.007138125
,,,9E-08,0.008460625
,,,1E-07,0.0088175
,,,1.1E-07,0.007874375
,,,1.2E-07,0.006704375
,,,1.3E-07,0.005438125
,,,1.4E-07,0.00613125
,,,1.5E-07,0.00689375
,,,1.6E-07,0.0074675
,,,1.7E-07,0.006948125
,,,1.8E-07,0.00726625
,,,1.9E-07,0.007134375
,,,2E-07,0.006944375
,,,2.1E-07,0.00708
,,,2.2E-07,0.006691875
,,,2.3E-07,0.00705125
,,,2.4E-07,0.00713625
,,,2.5E-07,0.006871875
,,,2.6E-07,0.006736875
,,,2.7E-07,0.006993125
,,,2.8E-07,0.006886875
,,,2.9E-07,0.006741875
,,,3E-07,0.006895625
,,,3.1E-07,0.006529375
,,,3.2E-07,0.0067025
,,,3.3E-07,0.00717625
,,,3.4E-07,0.007093125
,,,3.5E-07,0.006874375
,,,3.6E-07,0.007053125
,,,3.7E-07,0.006685625
,,,3.8E-07,0.00703375
,,,3.9E-07,0.006998125
,,,4E-07,0.006978125
,,,4.1E-07,0.006911875
,,,4.2E-07,0.00659375
,,,4.3E-07,0.00712
,,,4.4E-07,0.00688375
,,,4.5E-07,0.006826875
,,,4.6E-07,0.0069075
,,,4.7E-07,0.007016875
,,,4.8E-07,0.006906875
,,,4.9E-07,0.00679
,,,5E-07,0.007125625
,,,5.1E-07,0.006884375
,,,5.2E-07,0.007164375
,,,5.3E-07,0.00696
,,,5.4E-07,0.0068625
,,,5.5E-07,0.00703375
,,,5.6E-07,0.0070325
,,,5.7E-07,0.007229375
,,,5.8E-07,0.006820625
,,,5.9E-07,0.0070325
,,,6E-07,0.00720625
,,,6.1E-07,0.00666625
,,,6.2E-07,0.006851875
,,,6.3E-07,0.0069775
,,,6.4E-07,0.006774375
,,,6.5E-07,0.00665
,,,6.6E-07,0.007074375
,,,6.7E-07,0.00707875
,,,6.8E-07,0.0071225
,,,6.9E-07,0.006958125
,,,7E-07,0.00683125
,,,7.1E-07,0.00695875
,,,7.2E-07,0.00666625
,,,7.3E-07,0.006981875
,,,7.4E-07,0.006725625
,,,7.5E-07,0.006954375
,,,7.6E-07,0.006885625
,,,7.7E-07,0.00703
,,,7.8E-07,0.007065
,,,7.9E-07,0.006963125
,,,8E-07,0.006848125
,,,8.1E-07,0.00712125
,,,8.2E-07,0.006885
,,,8.3E-07,0.007116875
,,,8.4E-07,0.006969375
,,,8.5E-07,0.006865625
,,,8.6E-07,0.006948125
,,,8.7E-07,0.00675875
,,,8.8E-07,0.00696375
,,,8.9E-07,0.007204375
,,,9E-07,0.006935625
,,,9.1E-07,0.00699875
,,,9.2E-07,0.007171875
,,,9.3E-07,0.0067625
,,,9.4E-07,0.00689375
,,,9.5E-07,0.00694875
,,,9.6E-07,0.006746875
,,,9.7E-07,0.007081875
,,,9.8E-07,0.006968125
,,,9.9E-07,0.006941875
,,,1E-06,0.0068975
,,,1.01E-06,0.00688625
,,,1.02E-06,0.00676
,,,1.03E-06,0.006859375
,,,1.04E-06,0.00684625
,,,1.05E-06,0.006865
,,,1.06E-06,0.00703
,,,1.07E-06,0.00699625
,,,1.08E-06,0.00706125
,,,1.09E-06,0.00710125
,,,1.1E-06,0.00686625
,,,1.11E-06,0.006815625
,,,1.12E-06,0.006879375
,,,1.13E-06,0.00697875
,,,1.14E-06,0.00697625
,,,1.15E-06,0.0070825
,,,1.16E-06,0.0066875
,,,1.17E-06,0.0069425
,,,1.18E-06,0.006846875
,,,1.19E-06,0.006646875
,,,1.2E-06,0.00669375
,,,1.21E-06,0.006906875
,,,1.22E-06,0.007290625
,,,1.23E-06,0.00706125
,,,1.24E-06,0.00711375
,,,1.25E-06,0.0068975
,,,1.26E-06,0.0069775
,,,1.27E-06,0.006768125
,,,1.28E-06,0.007018125
,,,1.29E-06,0.007061875
,,,1.3E-06,0.00677
,,,1.31E-06,0.006914375
,,,1.32E-06,0.007134375
,,,1.33E-06,0.006891875
,,,1.34E-06,0.0071175
,,,1.35E-06,0.0070325
,,,1.36E-06,0.0068475
,,,1.37E-06,0.006936875
,,,1.38E-06,0.006918125
,,,1.39E-06,0.007013125
,,,1.4E-06,0.0071125
,,,1.41E-06,0.0069975
,,,1.42E-06,0.006968125
,,,1.43E-06,0.0068375
,,,1.44E-06,0.00692875
,,,1.45E-06,0.006834375
,,,1.46E-06,0.006915
,,,1.47E-06,0.0069275
,,,1.48E-06,0.006789375
,,,1.49E-06,0.00670125
,,,1.5E-06,0.007025
,,,1.51E-06,0.007019375
,,,1.52E-06,0.006793125
,,,1.53E-06,0.006934375
,,,1.54E-06,0.00681
,,,1.55E-06,0.0072
,,,1.56E-06,0.007194375
,,,1.57E-06,0.007161875
,,,1.58E-06,0.006856875
,,,1.59E-06,0.006851875
,,,1.6E-06,0.007013125
,,,1.61E-06,0.00697125
,,,1.62E-06,0.006924375
,,,1.63E-06,0.00705375
,,,1.64E-06,0.00692125
,,,1.65E-06,0.00707875
,,,1.66E-06,0.00719125
,,,1.67E-06,0.00702
,,,1.68E-06,0.007104375
,,,1.69E-06,0.00725875
,,,1.7E-06,0.0070175
,,,1.71E-06,0.00700875
,,,1.72E-06,0.007
,,,1.73E-06,0.00671625
,,,1.74E-06,0.007044375
,,,1.75E-06,0.006743125
,,,1.76E-06,0.0067575
,,,1.77E-06,0.006611875
,,,1.78E-06,0.006928125
,,,1.79E-06,0.007201875
,,,1.8E-06,0.006896875
,,,1.81E-06,0.006999375
,,,1.82E-06,0.007098125
,,,1.83E-06,0.006855
,,,1.84E-06,0.0065775
,,,1.85E-06,0.006995
,,,1.86E-06,0.006726875
,,,1.87E-06,0.00691125
,,,1.88E-06,0.006930625
,,,1.89E-06,0.006945625
,,,1.9E-06,0.007003125
,,,1.91E-06,0.006795
,,,1.92E-06,0.00673625
,,,1.93E-06,0.006711875
,,,1.94E-06,0.00711375
,,,1.95E-06,0.006508125
,,,1.96E-06,0.00707375
,,,1.97E-06,0.006871875
,,,1.98E-06,0.00708875
,,,1.99E-06,0.006994375
,,,2E-06,0.007231875
,,,2.01E-06,0.006908125
,,,2.02E-06,0.0070975
,,,2.03E-06,0.00705375
,,,2.04E-06,0.00705
,,,2.05E-06,0.006809375
,,,2.06E-06,0.00695375
,,,2.07E-06,0.006864375
,,,2.08E-06,0.0068975
,,,2.09E-06,0.00668375
,,,2.1E-06,0.006974375
,,,2.11E-06,0.006905
,,,2.12E-06,0.00691125
,,,2.13E-06,0.006933125
,,,2.14E-06,0.006840625
,,,2.15E-06,0.007116875
,,,2.16E-06,0.0069975
,,,2.17E-06,0.00698125
,,,2.18E-06,0.00658
,,,2.19E-06,0.006900625
,,,2.2E-06,0.0071025
,,,2.21E-06,0.007078125
,,,2.22E-06,0.00703625
,,,2.23E-06,0.00699
,,,2.24E-06,0.006931875
,,,2.25E-06,0.00707625
,,,2.26E-06,0.00695375
,,,2.27E-06,0.00677625
,,,2.28E-06,0.00703875
,,,2.29E-06,0.006873125
,,,2.3E-06,0.007009375
,,,2.31E-06,0.006835
,,,2.32E-06,0.006843125
,,,2.33E-06,0.00711875
,,,2.34E-06,0.007125625
,,,2.35E-06,0.00706375
,,,2.36E-06,0.006935625
,,,2.37E-06,0.00700125
,,,2.38E-06,0.006924375
,,,2.39E-06,0.006885
,,,2.4E-06,0.006905
,,,2.41E-06,0.00704
,,,2.42E-06,0.0068225
,,,2.43E-06,0.006814375
,,,2.44E-06,0.006955
,,,2.45E-06,0.0067075
,,,2.46E-06,0.00701875
,,,2.47E-06,0.006926875
,,,2.48E-06,0.006901875
,,,2.49E-06,0.007001875
,,,2.5E-06,0.006871875
,,,2.51E-06,0.0066875
,,,2.52E-06,0.006734375
,,,2.53E-06,0.00680375
,,,2.54E-06,0.00686375
,,,2.55E-06,0.00693875
,,,2.56E-06,0.00701125
,,,2.57E-06,0.00662625
,,,2.58E-06,0.007083125
,,,2.59E-06,0.006793125
,,,2.6E-06,0.007173125
,,,2.61E-06,0.0068675
,,,2.62E-06,0.006980625
,,,2.63E-06,0.0070025
,,,2.64E-06,0.006933125
,,,2.65E-06,0.00700125
,,,2.66E-06,0.0070575
,,,2.67E-06,0.006921875
,,,2.68E-06,0.006801875
,,,2.69E-06,0.006966875
,,,2.7E-06,0.006854375
,,,2.71E-06,0.006860625
,,,2.72E-06,0.007041875
,,,2.73E-06,0.007115
,,,2.74E-06,0.00689625
,,,2.75E-06,0.00700125
,,,2.76E-06,0.006663125
,,,2.77E-06,0.007356875
,,,2.78E-06,0.006944375
,,,2.79E-06,0.006974375
,,,2.8E-06,0.006975625
,,,2.81E-06,0.00692375
,,,2.82E-06,0.006828125
,,,2.83E-06,0.006785625
,,,2.84E-06,0.00703
,,,2.85E-06,0.006760625
,,,2.86E-06,0.007090625
,,,2.87E-06,0.006950625
,,,2.88E-06,0.00696375
,,,2.89E-06,0.006969375
,,,2.9E-06,0.007185625
,,,2.91E-06,0.00701875
,,,2.92E-06,0.006951875
,,,2.93E-06,0.00670625
,,,2.94E-06,0.007063125
,,,2.95E-06,0.007008125
,,,2.96E-06,0.00703875
,,,2.97E-06,0.0072025
,,,2.98E-06,0.0069425
,,,2.99E-06,0.007065625
,,,3E-06,0.006829375
,,,3.01E-06,0.00692875
,,,3.02E-06,0.006904375
,,,3.03E-06,0.00721875
,,,3.04E-06,0.007320625
,,,3.05E-06,0.00699
,,,3.06E-06,0.006610625
,,,3.07E-06,0.006963125
,,,3.08E-06,0.00675
,,,3.09E-06,0.006939375
,,,3.1E-06,0.00731875
,,,3.11E-06,0.0069775
,,,3.12E-06,0.007089375
,,,3.13E-06,0.006959375
,,,3.14E-06,0.007056875
,,,3.15E-06,0.007153125
,,,3.16E-06,0.0070425
,,,3.17E-06,0.00693625
,,,3.18E-06,0.00669125
,,,3.19E-06,0.006978125
,,,3.2E-06,0.00699625
,,,3.21E-06,0.00727125
,,,3.22E-06,0.0071525
,,,3.23E-06,0.006775625
,,,3.24E-06,0.006935
,,,3.25E-06,0.006876875
,,,3.26E-06,0.00713
,,,3.27E-06,0.006754375
,,,3.28E-06,0.00706125
,,,3.29E-06,0.00707125
,,,3.3E-06,0.006940625
,,,3.31E-06,0.006965625
,,,3.32E-06,0.006839375
,,,3.33E-06,0.00699875
,,,3.34E-06,0.0069975
,,,3.35E-06,0.00690625
,,,3.36E-06,0.00698375
,,,3.37E-06,0.007095
,,,3.38E-06,0.0070025
,,,3.39E-06,0.00702
,,,3.4E-06,0.0069725
,,,3.41E-06,0.006891875
,,,3.42E-06,0.0071025
,,,3.43E-06,0.007030625
,,,3.44E-06,0.006926875
,,,3.45E-06,0.00689
,,,3.46E-06,0.00675
,,,3.47E-06,0.00719
,,,3.48E-06,0.006859375
,,,3.49E-06,0.006758125
,,,3.5E-06,0.007025
,,,3.51E-06,0.006991875
,,,3.52E-06,0.006888125
,,,3.53E-06,0.0068075
,,,3.54E-06,0.00682125
,,,3.55E-06,0.006848125
,,,3.56E-06,0.00673625
,,,3.57E-06,0.00686875
,,,3.58E-06,0.00701375
