data/raw/Final_POL_Test_1/SOP029_Ch1.csv

"Record Length",1000,"Points",-5E-06,0.006384375
"Sample Interval",1E-08,s,-4.99E-06,0.0063575
"Trigger Point",500,"Samples",-4.98E-06,0.0066725
"Trigger Time",0,s,-4.97E-06,0.0064425
"",,,-4.96E-06,0.006551875
"Horizontal Offset",-5E-06,s,-4.95E-06,0.006550625
,,,-4.94E-06,0.006431875
,,,-4.93E-06,0.0065
,,,-4.92E-06,0.006533125
,,,-4.91E-06,0.00640375
,,,-4.9E-06,0.00646875
,,,-4.89E-06,0.0067075
,,,-4.88E-06,0.00641375
,,,-4.87E-06,0.00657625
,,,-4.86E-06,0.0065225
,,,-4.85E-06,0.00639125
,,,-4.84E-06,0.006466875
,,,-4.83E-06,0.00665625
,,,-4.82E-06,0.00641125
,,,-4.81E-06,0.006455625
,,,-4.8E-06,0.00673125
,,,-4.79E-06,0.006544375
,,,-4.78E-06,0.006431875
,,,-4.77E-06,0.00667875
,,,-4.76E-06,0.0063325
,,,-4.75E-06,0.006326875
,,,-4.74E-06,0.006451875
,,,-4.73E-06,0.00665875
,,,-4.72E-06,0.006319375
,,,-4.71E-06,0.006544375
,,,-4.7E-06,0.00645625
,,,-4.69E-06,0.0066
,,,-4.68E-06,0.006665
,,,-4.67E-06,0.006685
,,,-4.66E-06,0.006415625
,,,-4.65E-06,0.00643
,,,-4.64E-06,0.00636625
,,,-4.63E-06,0.0065725
,,,-4.62E-06,0.006463125
,,,-4.61E-06,0.006593125
,,,-4.6E-06,0.006570625
,,,-4.59E-06,0.006515625
,,,-4.58E-06,0.006405625
,,,-4.57E-06,0.0066025
,,,-4.56E-06,0.006609375
,,,-4.55E-06,0.006489375
,,,-4.54E-06,0.006446875
,,,-4.53E-06,0.006404375
,,,-4.52E-06,0.0063225
,,,-4.51E-06,0.006453125
,,,-4.5E-06,0.006769375
,,,-4.49E-06,0.006690625
,,,-4.48E-06,0.006608125
,,,-4.47E-06,0.006529375
,,,-4.46E-06,0.00678875
,,,-4.45E-06,0.006355
,,,-4.44E-06,0.0064625
,,,-4.43E-06,0.00647125
,,,-4.42E-06,0.006398125
,,,-4.41E-06,0.0067175
,,,-4.4E-06,0.00653375
,,,-4.39E-06,0.006405
,,,-4.38E-06,0.00674875
,,,-4.37E-06,0.00630375
,,,-4.36E-06,0.0066525
,,,-4.35E-06,0.006473125
,,,-4.34E-06,0.006513125
,,,-4.33E-06,0.0066675
,,,-4.32E-06,0.006539375
,,,-4.31E-06,0.006448125
,,,-4.3E-06,0.00649625
,,,-4.29E-06,0.0065825
,,,-4.28E-06,0.00657
,,,-4.27E-06,0.00631
,,,-4.26E-06,0.00691125
,,,-4.25E-06,0.006480625
,,,-4.24E-06,0.006460625
,,,-4.23E-06,0.006630625
,,,-4.22E-06,0.006839375
,,,-4.21E-06,0.00635875
,,,-4.2E-06,0.0062825
,,,-4.19E-06,0.00634375
,,,-4.18E-06,0.0063525
,,,-4.17E-06,0.006575
,,,-4.16E-06,0.00657875
,,,-4.15E-06,0.0064475
,,,-4.14E-06,0.0064475
,,,-4.13E-06,0.006420625
,,,-4.12E-06,0.006433125
,,,-4.11E-06,0.0064875
,,,-4.1E-06,0.006536875
,,,-4.09E-06,0.006430625
,,,-4.08E-06,0.006619375
,,,-4.07E-06,0.006743125
,,,-4.06E-06,0.006729375
,,,-4.05E-06,0.006498125
,,,-4.04E-06,0.00645875
,,,-4.03E-06,0.006328125
,,,-4.02E-06,0.006305
,,,-4.01E-06,0.006479375
,,,-4E-06,0.00663125
,,,-3.99E-06,0.00647125
,,,-3.98E-06,0.0065375
,,,-3.97E-06,0.00649625
,,,-3.96E-06,0.0065225
,,,-3.95E-06,0.006523125
,,,-3.94E-06,0.006806875
,,,-3.93E-06,0.006455
,,,-3.92E-06,0.006551875
,,,-3.91E-06,0.006684375
,,,-3.9E-06,0.00663125
,,,-3.89E-06,0.00656875
,,,-3.88E-06,0.006471875
,,,-3.87E-06,0.006316875
,,,-3.86E-06,0.006363125
,,,-3.85E-06,0.006756875
,,,-3.84E-06,0.00637875
,,,-3.83E-06,0.006706875
,,,-3.82E-06,0.00651125
,,,-3.81E-06,0.006855625
,,,-3.8E-06,0.006575
,,,-3.79E-06,0.006544375
,,,-3.78E-06,0.00659
,,,-3.77E-06,0.006628125
,,,-3.76E-06,0.00665
,,,-3.75E-06,0.0064725
,,,-3.74E-06,0.0066475
,,,-3.73E-06,0.006315
,,,-3.72E-06,0.006575625
,,,-3.71E-06,0.006289375
,,,-3.7E-06,0.00645625
,,,-3.69E-06,0.0062575
,,,-3.68E-06,0.00665875
,,,-3.67E-06,0.00672
,,,-3.66E-06,0.006629375
,,,-3.65E-06,0.006305
,,,-3.64E-06,0.00650125
,,,-3.63E-06,0.006550625
,,,-3.62E-06,0.006556875
,,,-3.61E-06,0.006574375
,,,-3.6E-06,0.006318125
,,,-3.59E-06,0.006441875
,,,-3.58E-06,0.006616875
,,,-3.57E-06,0.006675
,,,-3.56E-06,0.006590625
,,,-3.55E-06,0.00658625
,,,-3.54E-06,0.00651625
,,,-3.53E-06,0.006419375
,,,-3.52E-06,0.006623125
,,,-3.51E-06,0.00651
,,,-3.5E-06,0.00681875
,,,-3.49E-06,0.00654125
,,,-3.48E-06,0.006256875
,,,-3.47E-06,0.006525625
,,,-3.46E-06,0.006581875
,,,-3.45E-06,0.00635625
,,,-3.44E-06,0.006574375
,,,-3.43E-06,0.006783125
,,,-3.42E-06,0.00639625
,,,-3.41E-06,0.00655875
,,,-3.4E-06,0.006695
,,,-3.39E-06,0.00646
,,,-3.38E-06,0.0065
,,,-3.37E-06,0.006560625
,,,-3.36E-06,0.006366875
,,,-3.35E-06,0.00649
,,,-3.34E-06,0.0064675
,,,-3.33E-06,0.00634125
,,,-3.32E-06,0.006546875
,,,-3.31E-06,0.006581875
,,,-3.3E-06,0.006514375
,,,-3.29E-06,0.006495625
,,,-3.28E-06,0.006463125
,,,-3.27E-06,0.006421875
,,,-3.26E-06,0.006556875
,,,-3.25E-06,0.00629375
,,,-3.24E-06,0.0063825
,,,-3.23E-06,0.0062775
,,,-3.22E-06,0.006691875
,,,-3.21E-06,0.006479375
,,,-3.2E-06,0.006266875
,,,-3.19E-06,0.006519375
,,,-3.18E-06,0.00658
,,,-3.17E-06,0.006529375
,,,-3.16E-06,0.006396875
,,,-3.15E-06,0.00664
,,,-3.14E-06,0.006519375
,,,-3.13E-06,0.00657625
,,,-3.12E-06,0.0064275
,,,-3.11E-06,0.0064725
,,,-3.1E-06,0.006585
,,,-3.09E-06,0.0064425
,,,-3.08E-06,0.00655625
,,,-3.07E-06,0.006668125
,,,-3.06E-06,0.006658125
,,,-3.05E-06,0.00656375
,,,-3.04E-06,0.00655625
,,,-3.03E-06,0.00641375
,,,-3.02E-06,0.006563125
,,,-3.01E-06,0.006483125
,,,-3E-06,0.006655625
,,,-2.99E-06,0.00651
,,,-2.98E-06,0.006329375
,,,-2.97E-06,0.00655625
,,,-2.96E-06,0.00661375
,,,-2.95E-06,0.00649625
,,,-2.94E-06,0.00665875
,,,-2.93E-06,0.006465
,,,-2.92E-06,0.006635625
,,,-2.91E-06,0.006578125
,,,-2.9E-06,0.006643125
,,,-2.89E-06,0.006689375
,,,-2.88E-06,0.00662125
,,,-2.87E-06,0.00617
,,,-2.86E-06,0.006530625
,,,-2.85E-06,0.006524375
,,,-2.84E-06,0.00653
,,,-2.83E-06,0.0064175
,,,-2.82E-06,0.00658375
,,,-2.81E-06,0.006354375
,,,-2.8E-06,0.006458125
,,,-2.79E-06,0.0065225
,,,-2.78E-06,0.006654375
,,,-2.77E-06,0.00641875
,,,-2.76E-06,0.00673875
,,,-2.75E-06,0.0065975
,,,-2.74E-06,0.006495625
,,,-2.73E-06,0.006574375
,,,-2.72E-06,0.00668
,,,-2.71E-06,0.006509375
,,,-2.7E-06,0.006453125
,,,-2.69E-06,0.00651
,,,-2.68E-06,0.006661875
,,,-2.67E-06,0.006516875
,,,-2.66E-06,0.006630625
,,,-2.65E-06,0.0063875
,,,-2.64E-06,0.006673125
,,,-2.63E-06,0.006513125
,,,-2.62E-06,0.006624375
,,,-2.61E-06,0.006549375
,,,-2.6E-06,0.006605
,,,-2.59E-06,0.006614375
,,,-2.58E-06,0.00655625
,,,-2.57E-06,0.006876875
,,,-2.56E-06,0.006256875
,,,-2.55E-06,0.006499375
,,,-2.54E-06,0.0065825
,,,-2.53E-06,0.006448125
,,,-2.52E-06,0.00670375
,,,-2.51E-06,0.0067725
,,,-2.5E-06,0.00627
,,,-2.49E-06,0.0065525
,,,-2.48E-06,0.0064025
,,,-2.47E-06,0.006185625
,,,-2.46E-06,0.00656625
,,,-2.45E-06,0.006486875
,,,-2.44E-06,0.006463125
,,,-2.43E-06,0.00655875
,,,-2.42E-06,0.00656375
,,,-2.41E-06,0.00667625
,,,-2.4E-06,0.00657125
,,,-2.39E-06,0.00654
,,,-2.38E-06,0.006306875
,,,-2.37E-06,0.00649
,,,-2.36E-06,0.006591875
,,,-2.35E-06,0.00654375
,,,-2.34E-06,0.006525
,,,-2.33E-06,0.00631625
,,,-2.32E-06,0.00657
,,,-2.31E-06,0.006515625
,,,-2.3E-06,0.00635625
,,,-2.29E-06,0.006586875
,,,-2.28E-06,0.006091875
,,,-2.27E-06,0.006398125
,,,-2.26E-06,0.00669125
,,,-2.25E-06,0.0067525
,,,-2.24E-06,0.00660375
,,,-2.23E-06,0.00654
,,,-2.22E-06,0.0065725
,,,-2.21E-06,0.0064575
,,,-2.2E-06,0.006570625
,,,-2.19E-06,0.006328125
,,,-2.18E-06,0.006715625
,,,-2.17E-06,0.006551875
,,,-2.16E-06,0.006260625
,,,-2.15E-06,0.00662375
,,,-2.14E-06,0.00657625
,,,-2.13E-06,0.00657125
,,,-2.12E-06,0.006355
,,,-2.11E-06,0.006185625
,,,-2.1E-06,0.00642875
,,,-2.09E-06,0.006683125
,,,-2.08E-06,0.006435
,,,-2.07E-06,0.006796875
,,,-2.06E-06,0.00652125
,,,-2.05E-06,0.00630375
,,,-2.04E-06,0.006511875
,,,-2.03E-06,0.006490625
,,,-2.02E-06,0.00654375
,,,-2.01E-06,0.00640375
,,,-2E-06,0.0064775
,,,-1.99E-06,0.006699375
,,,-1.98E-06,0.006669375
,,,-1.97E-06,0.006471875
,,,-1.96E-06,0.0065375
,,,-1.95E-06,0.006269375
,,,-1.94E-06,0.006491875
,,,-1.93E-06,0.006665
,,,-1.92E-06,0.006470625
,,,-1.91E-06,0.006563125
,,,-1.9E-06,0.00641375
,,,-1.89E-06,0.00645
,,,-1.88E-06,0.0063625
,,,-1.87E-06,0.0064275
,,,-1.86E-06,0.006575
,,,-1.85E-06,0.006588125
,,,-1.84E-06,0.006640625
,,,-1.83E-06,0.0066325
,,,-1.82E-06,0.00645875
,,,-1.81E-06,0.0065275
,,,-1.8E-06,0.00645
,,,-1.79E-06,0.006565625
,,,-1.78E-06,0.0066875
,,,-1.77E-06,0.006660625
,,,-1.76E-06,0.00645875
,,,-1.75E-06,0.0065325
,,,-1.74E-06,0.006439375
,,,-1.73E-06,0.006538125
,,,-1.72E-06,0.006480625
,,,-1.71E-06,0.006324375
,,,-1.7E-06,0.006575
,,,-1.69E-06,0.006479375
,,,-1.68E-06,0.006621875
,,,-1.67E-06,0.0061675
,,,-1.66E-06,0.006374375
,,,-1.65E-06,0.0065
,,,-1.64E-06,0.0063625
,,,-1.63E-06,0.0067
,,,-1.62E-06,0.00652125
,,,-1.61E-06,0.00654875
,,,-1.6E-06,0.006561875
,,,-1.59E-06,0.00655375
,,,-1.58E-06,0.006418125
,,,-1.57E-06,0.00654
,,,-1.56E-06,0.0064
,,,-1.55E-06,0.00635875
,,,-1.54E-06,0.00643
,,,-1.53E-06,0.00631375
,,,-1.52E-06,0.00673625
,,,-1.51E-06,0.006535
,,,-1.5E-06,0.00680375
,,,-1.49E-06,0.00649125
,,,-1.48E-06,0.0063425
,,,-1.47E-06,0.0068
,,,-1.46E-06,0.006493125
,,,-1.45E-06,0.006638125
,,,-1.44E-06,0.006575625
,,,-1.43E-06,0.006563125
,,,-1.42E-06,0.006564375
,,,-1.41E-06,0.006625625
,,,-1.4E-06,0.006195
,,,-1.39E-06,0.006315
,,,-1.38E-06,0.00651
,,,-1.37E-06,0.00638125
,,,-1.36E-06,0.006305
,,,-1.35E-06,0.006540625
,,,-1.34E-06,0.0062925
,,,-1.33E-06,0.006466875
,,,-1.32E-06,0.00632625
,,,-1.31E-06,0.006265
,,,-1.3E-06,0.006636875
,,,-1.29E-06,0.00641125
,,,-1.28E-06,0.006491875
,,,-1.27E-06,0.0066225
,,,-1.26E-06,0.0063875
,,,-1.25E-06,0.0066725
,,,-1.24E-06,0.00655
,,,-1.23E-06,0.006354375
,,,-1.22E-06,0.006520625
,,,-1.21E-06,0.006446875
,,,-1.2E-06,0.00681375
,,,-1.19E-06,0.006439375
,,,-1.18E-06,0.006789375
,,,-1.17E-06,0.0065225
,,,-1.16E-06,0.006568125
,,,-1.15E-06,0.00641125
,,,-1.14E-06,0.006328125
,,,-1.13E-06,0.006613125
,,,-1.12E-06,0.006458125
,,,-1.11E-06,0.0065225
,,,-1.1E-06,0.00665
,,,-1.09E-06,0.0063675
,,,-1.08E-06,0.006569375
,,,-1.07E-06,0.00673625
,,,-1.06E-06,0.006235
,,,-1.05E-06,0.006249375
,,,-1.04E-06,0.006440625
,,,-1.03E-06,0.006558125
,,,-1.02E-06,0.006558125
,,,-1.01E-06,0.00656
,,,-1E-06,0.0065425
,,,-9.9E-07,0.006355
,,,-9.8E-07,0.00656
,,,-9.7E-07,0.0065775
,,,-9.6E-07,0.006555625
,,,-9.5E-07,0.006475
,,,-9.4E-07,0.00641625
,,,-9.3E-07,0.006763125
,,,-9.2E-07,0.0065625
,,,-9.1E-07,0.00631875
,,,-9E-07,0.00663375
,,,-8.9E-07,0.0065275
,,,-8.8E-07,0.0064675
,,,-8.7E-07,0.006760625
,,,-8.6E-07,0.006594375
,,,-8.5E-07,0.00666375
,,,-8.4E-07,0.006700625
,,,-8.3E-07,0.006648125
,,,-8.2E-07,0.0065075
,,,-8.1E-07,0.0065075
,,,-8E-07,0.006186875
,,,-7.9E-07,0.006150625
,,,-7.8E-07,0.0065475
,,,-7.7E-07,0.00669625
,,,-7.6E-07,0.006448125
,,,-7.5E-07,0.006573125
,,,-7.4E-07,0.0065075
,,,-7.3E-07,0.006530625
,,,-7.2E-07,0.006574375
,,,-7.1E-07,0.006548125
,,,-7E-07,0.0066425
,,,-6.9E-07,0.00632
,,,-6.8E-07,0.0065025
,,,-6.7E-07,0.00616875
,,,-6.6E-07,0.006688125
,,,-6.5E-07,0.00646125
,,,-6.4E-07,0.006430625
,,,-6.3E-07,0.006365625
,,,-6.2E-07,0.006629375
,,,-6.1E-07,0.006625
,,,-6E-07,0.006698125
,,,-5.9E-07,0.0067475
,,,-5.8E-07,0.006531875
,,,-5.7E-07,0.006458125
,,,-5.6E-07,0.00641375
,,,-5.5E-07,0.006424375
,,,-5.4E-07,0.00643375
,,,-5.3E-07,0.006835625
,,,-5.2E-07,0.00633875
,,,-5.1E-07,0.006525625
,,,-5E-07,0.0065625
,,,-4.9E-07,0.006466875
,,,-4.8E-07,0.00633
,,,-4.7E-07,0.0064175
,,,-4.6E-07,0.00646125
,,,-4.5E-07,0.006713125
,,,-4.4E-07,0.006626875
,,,-4.3E-07,0.00651375
,,,-4.2E-07,0.00645875
,,,-4.1E-07,0.00628
,,,-4E-07,0.006535625
,,,-3.9E-07,0.006619375
,,,-3.8E-07,0.006384375
,,,-3.7E-07,0.0064325
,,,-3.6E-07,0.006404375
,,,-3.5E-07,0.006535625
,,,-3.4E-07,0.006384375
,,,-3.3E-07,0.006413125
,,,-3.2E-07,0.006348125
,,,-3.1E-07,0.00636
,,,-3E-07,0.006545625
,,,-2.9E-07,0.00645875
,,,-2.8E-07,0.006784375
,,,-2.7E-07,0.006615625
,,,-2.6E-07,0.006685
,,,-2.5E-07,0.00649625
,,,-2.4E-07,0.00664375
,,,-2.3E-07,0.006541875
,,,-2.2E-07,0.006465
,,,-2.1E-07,0.00647625
,,,-2E-07,0.006885
,,,-1.9E-07,0.006723125
,,,-1.8E-07,0.00623875
,,,-1.7E-07,0.006535625
,,,-1.6E-07,0.00632375
,,,-1.5E-07,0.00625
,,,-1.4E-07,0.006706875
,,,-1.3E-07,0.006359375
,,,-1.2E-07,0.00661125
,,,-1.1E-07,0.00668375
,,,-1E-07,0.00665875
,,,-9E-08,0.006468125
,,,-8E-08,0.006299375
,,,-7E-08,0.00641125
,,,-6E-08,0.0061875
,,,-5E-08,0.006670625
,,,-4E-08,0.007233125
,,,-3E-08,0.007568125
,,,-2E-08,0.004481875
,,,-1E-08,0.00267875
,,,0,0.0040325
,,,1E-08,0.009661875
,,,2E-08,0.011200625
,,,3E-08,0.009398125
,,,4E-08,0.00537
,,,5E-08,0.0032675
,,,6E-08,0.0029775
,,,7E-08,0.00557125
,,,8E-08,0.007779375
,,,9E-08,0.00909375
,,,1E-07,0.00855
,,,1.1E-07,0.006763125
,,,1.2E-07,0.00525
,,,1.3E-07,0.004883125
,,,1.4E-07,0.005955
,,,1.5E-07,0.00686625
,,,1.6E-07,0.007108125
,,,1.7E-07,0.006896875
,,,1.8E-07,0.0066975
,,,1.9E-07,0.0063175
,,,2E-07,0.006408125
,,,2.1E-07,0.00603875
,,,2.2E-07,0.00632125
,,,2.3E-07,0.00666
,,,2.4E-07,0.00693
,,,2.5E-07,0.006731875
,,,2.6E-07,0.0066175
,,,2.7E-07,0.00649
,,,2.8E-07,0.006706875
,,,2.9E-07,0.006671875
,,,3E-07,0.00616125
,,,3.1E-07,0.00630375
,,,3.2E-07,0.00657375
,,,3.3E-07,0.00672625
,,,3.4E-07,0.006625
,,,3.5E-07,0.006676875
,,,3.6E-07,0.006589375
,,,3.7E-07,0.00665375
,,,3.8E-07,0.006518125
,,,3.9E-07,0.00664375
,,,4E-07,0.00647
,,,4.1E-07,0.00660375
,,,4.2E-07,0.006590625
,,,4.3E-07,0.0061775
,,,4.4E-07,0.006588125
,,,4.5E-07,0.006389375
,,,4.6E-07,0.006585
,,,4.7E-07,0.006678125
,,,4.8E-07,0.006316875
,,,4.9E-07,0.006544375
,,,5E-07,0.006649375
,,,5.1E-07,0.0066625
,,,5.2E-07,0.006381875
,,,5.3E-07,0.006578125
,,,5.4E-07,0.00658375
,,,5.5E-07,0.00639375
,,,5.6E-07,0.00671625
,,,5.7E-07,0.006556875
,,,5.8E-07,0.00658875
,,,5.9E-07,0.00639875
,,,6E-07,0.00652625
,,,6.1E-07,0.00643
,,,6.2E-07,0.00649375
,,,6.3E-07,0.006625
,,,6.4E-07,0.00654875
,,,6.5E-07,0.006446875
,,,6.6E-07,0.00638875
,,,6.7E-07,0.00662625
,,,6.8E-07,0.006380625
,,,6.9E-07,0.006321875
,,,7E-07,0.006125
,,,7.1E-07,0.0066175
,,,7.2E-07,0.006541875
,,,7.3E-07,0.00670875
,,,7.4E-07,0.00648875
,,,7.5E-07,0.006511875
,,,7.6E-07,0.00627625
,,,7.7E-07,0.006486875
,,,7.8E-07,0.0065025
,,,7.9E-07,0.006495625
,,,8E-07,0.0060625
,,,8.1E-07,0.006595625
,,,8.2E-07,0.00662125
,,,8.3E-07,0.006515
,,,8.4E-07,0.00678
,,,8.5E-07,0.00659125
,,,8.6E-07,0.00644875
,,,8.7E-07,0.006443125
,,,8.8E-07,0.006455
,,,8.9E-07,0.006518125
,,,9E-07,0.006375
,,,9.1E-07,0.006590625
,,,9.2E-07,0.006483125
,,,9.3E-07,0.006819375
,,,9.4E-07,0.006718125
,,,9.5E-07,0.00626125
,,,9.6E-07,0.00655125
,,,9.7E-07,0.006500625
,,,9.8E-07,0.006468125
,,,9.9E-07,0.006674375
,,,1E-06,0.006681875
,,,1.01E-06,0.0065175
,,,1.02E-06,0.006390625
,,,1.03E-06,0.006649375
,,,1.04E-06,0.0066
,,,1.05E-06,0.00657875
,,,1.06E-06,0.006660625
,,,1.07E-06,0.006809375
,,,1.08E-06,0.006603125
,,,1.09E-06,0.006645625
,,,1.1E-06,0.00645375
,,,1.11E-06,0.00664125
,,,1.12E-06,0.00644875
,,,1.13E-06,0.00644125
,,,1.14E-06,0.0065675
,,,1.15E-06,0.00650125
,,,1.16E-06,0.006429375
,,,1.17E-06,0.006346875
,,,1.18E-06,0.00671
,,,1.19E-06,0.006503125
,,,1.2E-06,0.00668375
,,,1.21E-06,0.00621625
,,,1.22E-06,0.00657875
,,,1.23E-06,0.006625
,,,1.24E-06,0.006659375
,,,1.25E-06,0.0065225
,,,1.26E-06,0.00648875
,,,1.27E-06,0.006664375
,,,1.28E-06,0.00663
,,,1.29E-06,0.006689375
,,,1.3E-06,0.00662625
,,,1.31E-06,0.006581875
,,,1.32E-06,0.006624375
,,,1.33E-06,0.006498125
,,,1.34E-06,0.00622
,,,1.35E-06,0.006225
,,,1.36E-06,0.0064875
,,,1.37E-06,0.00652625
,,,1.38E-06,0.00642875
,,,1.39E-06,0.006705625
,,,1.4E-06,0.00670875
,,,1.41E-06,0.0064875
,,,1.42E-06,0.006608125
,,,1.43E-06,0.0063125
,,,1.44E-06,0.00642375
,,,1.45E-06,0.00657875
,,,1.46E-06,0.006546875
,,,1.47E-06,0.006358125
,,,1.48E-06,0.006461875
,,,1.49E-06,0.006849375
,,,1.5E-06,0.006391875
,,,1.51E-06,0.006646875
,,,1.52E-06,0.006426875
,,,1.53E-06,0.00653125
,,,1.54E-06,0.006506875
,,,1.55E-06,0.00662875
,,,1.56E-06,0.006573125
,,,1.57E-06,0.00672875
,,,1.58E-06,0.00644875
,,,1.59E-06,0.00657875
,,,1.6E-06,0.0066275
,,,1.61E-06,0.00646875
,,,1.62E-06,0.006414375
,,,1.63E-06,0.0064975
,,,1.64E-06,0.006520625
,,,1.65E-06,0.0068225
,,,1.66E-06,0.006723125
,,,1.67E-06,0.006504375
,,,1.68E-06,0.0063175
,,,1.69E-06,0.0063375
,,,1.7E-06,0.006580625
,,,1.71E-06,0.005996875
,,,1.72E-06,0.006598125
,,,1.73E-06,0.006655
,,,1.74E-06,0.006321875
,,,1.75E-06,0.00647
,,,1.76E-06,0.006548125
,,,1.77E-06,0.00628375
,,,1.78E-06,0.006628125
,,,1.79E-06,0.0062225
,,,1.8E-06,0.006500625
,,,1.81E-06,0.0065425
,,,1.82E-06,0.006608125
,,,1.83E-06,0.006313125
,,,1.84E-06,0.00664125
,,,1.85E-06,0.006656875
,,,1.86E-06,0.0065025
,,,1.87E-06,0.006753125
,,,1.88E-06,0.00666
,,,1.89E-06,0.0066075
,,,1.9E-06,0.00654875
,,,1.91E-06,0.00636125
,,,1.92E-06,0.00634
,,,1.93E-06,0.006419375
,,,1.94E-06,0.00655125
,,,1.95E-06,0.006729375
,,,1.96E-06,0.00660375
,,,1.97E-06,0.0065425
,,,1.98E-06,0.00663125
,,,1.99E-06,0.00641
,,,2E-06,0.006644375
,,,2.01E-06,0.00658375
,,,2.02E-06,0.006270625
,,,2.03E-06,0.00661125
,,,2.04E-06,0.0065375
,,,2.05E-06,0.006531875
,,,2.06E-06,0.006540625
,,,2.07E-06,0.006626875
,,,2.08E-06,0.00639
,,,2.09E-06,0.0064325
,,,2.1E-06,0.00653625
,,,2.11E-06,0.006594375
,,,2.12E-06,0.00662
,,,2.13E-06,0.006731875
,,,2.14E-06,0.0064725
,,,2.15E-06,0.0066825
,,,2.16E-06,0.006320625
,,,2.17E-06,0.0066075
,,,2.18E-06,0.0063425
,,,2.19E-06,0.006364375
,,,2.2E-06,0.0065125
,,,2.21E-06,0.006299375
,,,2.22E-06,0.00677125
,,,2.23E-06,0.006615625
,,,2.24E-06,0.00659375
,,,2.25E-06,0.0067425
,,,2.26E-06,0.006496875
,,,2.27E-06,0.0066125
,,,2.28E-06,0.006579375
,,,2.29E-06,0.006445
,,,2.3E-06,0.00633375
,,,2.31E-06,0.0064125
,,,2.32E-06,0.006565625
,,,2.33E-06,0.006323125
,,,2.34E-06,0.00624
,,,2.35E-06,0.00668
,,,2.36E-06,0.00647875
,,,2.37E-06,0.006496875
,,,2.38E-06,0.006674375
,,,2.39E-06,0.006521875
,,,2.4E-06,0.006564375
,,,2.41E-06,0.00676375
,,,2.42E-06,0.00635
,,,2.43E-06,0.006503125
,,,2.44E-06,0.00633375
,,,2.45E-06,0.006285
,,,2.46E-06,0.006565625
,,,2.47E-06,0.00636875
,,,2.48E-06,0.00654
,,,2.49E-06,0.0066725
,,,2.5E-06,0.006569375
,,,2.51E-06,0.00629375
,,,2.52E-06,0.00657375
,,,2.53E-06,0.006490625
,,,2.54E-06,0.006679375
,,,2.55E-06,0.00639875
,,,2.56E-06,0.00646
,,,2.57E-06,0.006386875
,,,2.58E-06,0.0065425
,,,2.59E-06,0.00631625
,,,2.6E-06,0.00651125
,,,2.61E-06,0.006486875
,,,2.62E-06,0.00659125
,,,2.63E-06,0.006488125
,,,2.64E-06,0.006569375
,,,2.65E-06,0.006194375
,,,2.66E-06,0.00622875
,,,2.67E-06,0.006453125
,,,2.68E-06,0.0064125
,,,2.69E-06,0.006705625
,,,2.7E-06,0.006653125
,,,2.71E-06,0.006424375
,,,2.72E-06,0.00638625
,,,2.73E-06,0.00674625
,,,2.74E-06,0.00636125
,,,2.75E-06,0.006515
,,,2.76E-06,0.00636375
,,,2.77E-06,0.006540625
,,,2.78E-06,0.006246875
,,,2.79E-06,0.006645625
,,,2.8E-06,0.006871875
,,,2.81E-06,0.0062825
,,,2.82E-06,0.006686875
,,,2.83E-06,0.00666625
,,,2.84E-06,0.0064575
,,,2.85E-06,0.006371875
,,,2.86E-06,0.006534375
,,,2.87E-06,0.0064475
,,,2.88E-06,0.00676375
,,,2.89E-06,0.00669
,,,2.9E-06,0.006521875
,,,2.91E-06,0.006388125
,,,2.92E-06,0.00631
,,,2.93E-06,0.0062225
,,,2.94E-06,0.00648875
,,,2.95E-06,0.00658375
,,,2.96E-06,0.006401875
,,,2.97E-06,0.006810625
,,,2.98E-06,0.006975
,,,2.99E-06,0.0064975
,,,3E-06,0.0064975
,,,3.01E-06,0.00624875
,,,3.02E-06,0.0064075
,,,3.03E-06,0.00673875
,,,3.04E-06,0.006404375
,,,3.05E-06,0.0066275
,,,3.06E-06,0.006444375
,,,3.07E-06,0.006365
,,,3.08E-06,0.006399375
,,,3.09E-06,0.00661
,,,3.1E-06,0.006648125
,,,3.11E-06,0.006324375
,,,3.12E-06,0.006714375
,,,3.13E-06,0.0062775
,,,3.14E-06,0.0066675
,,,3.15E-06,0.006525
,,,3.16E-06,0.006641875
,,,3.17E-06,0.006520625
,,,3.18E-06,0.006406875
,,,3.19E-06,0.00656875
,,,3.2E-06,0.00668125
,,,3.21E-06,0.006383125
,,,3.22E-06,0.00648375
,,,3.23E-06,0.0065775
,,,3.24E-06,0.006523125
,,,3.25E-06,0.0065325
,,,3.26E-06,0.00665375
,,,3.27E-06,0.006741875
,,,3.28E-06,0.006419375
,,,3.29E-06,0.006576875
,,,3.3E-06,0.006439375
,,,3.31E-06,0.00665
,,,3.32E-06,0.00653375
,,,3.33E-06,0.0064925
,,,3.34E-06,0.00652625
,,,3.35E-06,0.0064975
,,,3.36E-06,0.006600625
,,,3.37E-06,0.00662875
,,,3.38E-06,0.006863125
,,,3.39E-06,0.00646375
,,,3.4E-06,0.006575
,,,3.41E-06,0.0064425
,,,3.42E-06,0.006323125
,,,3.43E-06,0.006475625
,,,3.44E-06,0.0062675
,,,3.45E-06,0.006716875
,,,3.46E-06,0.0064925
,,,3.47E-06,0.00651375
,,,3.48E-06,0.00659625
,,,3.49E-06,0.006293125
,,,3.5E-06,0.0065925
,,,3.51E-06,0.006543125
,,,3.52E-06,0.00647625
,,,3.53E-06,0.006564375
,,,3.54E-06,0.0066025
,,,3.55E-06,0.006634375
,,,3.56E-06,0.00654625
,,,3.57E-06,0.006431875
,,,3.58E-06,0.006680625
,,,3.59E-06,0.00632375
,,,3.6E-06,0.006320625
