data/raw/Final_POL_Test_1/SOP091_Ch3.csv

"Record Length",1000,"Points",-5E-06,0.021477501
"Sample Interval",1E-08,s,-4.99E-06,0.021657501
"Trigger Point",500,"Samples",-4.98E-06,0.021750001
"Trigger Time",0,s,-4.97E-06,0.021772501
"",,,-4.96E-06,0.021628126
"Horizontal Offset",-5E-06,s,-4.95E-06,0.021380001
,,,-4.94E-06,0.021450001
,,,-4.93E-06,0.021767501
,,,-4.92E-06,0.021854376
,,,-4.91E-06,0.021603126
,,,-4.9E-06,0.021706876
,,,-4.89E-06,0.021520626
,,,-4.88E-06,0.021816251
,,,-4.87E-06,0.021676876
,,,-4.86E-06,0.021621876
,,,-4.85E-06,0.021470626
,,,-4.84E-06,0.021598751
,,,-4.83E-06,0.021553751
,,,-4.82E-06,0.021608126
,,,-4.81E-06,0.021767501
,,,-4.8E-06,0.021661251
,,,-4.79E-06,0.021572501
,,,-4.78E-06,0.021503126
,,,-4.77E-06,0.021495001
,,,-4.76E-06,0.021488126
,,,-4.75E-06,0.021704376
,,,-4.74E-06,0.021648751
,,,-4.73E-06,0.021598751
,,,-4.72E-06,0.021480626
,,,-4.71E-06,0.021678126
,,,-4.7E-06,0.021636876
,,,-4.69E-06,0.021424376
,,,-4.68E-06,0.021646251
,,,-4.67E-06,0.021730626
,,,-4.66E-06,0.021636251
,,,-4.65E-06,0.021431251
,,,-4.64E-06,0.021553751
,,,-4.63E-06,0.021677501
,,,-4.62E-06,0.021378126
,,,-4.61E-06,0.021609376
,,,-4.6E-06,0.021870001
,,,-4.59E-06,0.021646251
,,,-4.58E-06,0.021591251
,,,-4.57E-06,0.021560626
,,,-4.56E-06,0.021827501
,,,-4.55E-06,0.021541876
,,,-4.54E-06,0.021384376
,,,-4.53E-06,0.021484376
,,,-4.52E-06,0.021456251
,,,-4.51E-06,0.021502501
,,,-4.5E-06,0.021556251
,,,-4.49E-06,0.021609376
,,,-4.48E-06,0.021879376
,,,-4.47E-06,0.021568126
,,,-4.46E-06,0.021699376
,,,-4.45E-06,0.021672501
,,,-4.44E-06,0.021674376
,,,-4.43E-06,0.021620626
,,,-4.42E-06,0.021658126
,,,-4.41E-06,0.021571251
,,,-4.4E-06,0.021629376
,,,-4.39E-06,0.021618751
,,,-4.38E-06,0.021503751
,,,-4.37E-06,0.021533126
,,,-4.36E-06,0.021508126
,,,-4.35E-06,0.021561251
,,,-4.34E-06,0.021671876
,,,-4.33E-06,0.021520626
,,,-4.32E-06,0.021461251
,,,-4.31E-06,0.021698126
,,,-4.3E-06,0.021623751
,,,-4.29E-06,0.021540626
,,,-4.28E-06,0.021575001
,,,-4.27E-06,0.021368751
,,,-4.26E-06,0.021566251
,,,-4.25E-06,0.021423126
,,,-4.24E-06,0.021738751
,,,-4.23E-06,0.021613751
,,,-4.22E-06,0.021543751
,,,-4.21E-06,0.021490626
,,,-4.2E-06,0.021365626
,,,-4.19E-06,0.021875626
,,,-4.18E-06,0.021717501
,,,-4.17E-06,0.021711251
,,,-4.16E-06,0.021668126
,,,-4.15E-06,0.021591876
,,,-4.14E-06,0.021631876
,,,-4.13E-06,0.021323126
,,,-4.12E-06,0.021623126
,,,-4.11E-06,0.021371251
,,,-4.1E-06,0.021641876
,,,-4.09E-06,0.021421876
,,,-4.08E-06,0.021683751
,,,-4.07E-06,0.021507501
,,,-4.06E-06,0.021775001
,,,-4.05E-06,0.021506251
,,,-4.04E-06,0.021568126
,,,-4.03E-06,0.021827501
,,,-4.02E-06,0.021761251
,,,-4.01E-06,0.021631251
,,,-4E-06,0.021855001
,,,-3.99E-06,0.021698126
,,,-3.98E-06,0.021625001
,,,-3.97E-06,0.021515001
,,,-3.96E-06,0.021378126
,,,-3.95E-06,0.021729376
,,,-3.94E-06,0.021553126
,,,-3.93E-06,0.021766251
,,,-3.92E-06,0.021865626
,,,-3.91E-06,0.021618751
,,,-3.9E-06,0.021631251
,,,-3.89E-06,0.021504376
,,,-3.88E-06,0.021672501
,,,-3.87E-06,0.021756876
,,,-3.86E-06,0.021414376
,,,-3.85E-06,0.021810001
,,,-3.84E-06,0.021789376
,,,-3.83E-06,0.021510626
,,,-3.82E-06,0.021390626
,,,-3.81E-06,0.021805001
,,,-3.8E-06,0.021638126
,,,-3.79E-06,0.021823751
,,,-3.78E-06,0.021497501
,,,-3.77E-06,0.021842501
,,,-3.76E-06,0.021669376
,,,-3.75E-06,0.021666876
,,,-3.74E-06,0.021491251
,,,-3.73E-06,0.021543126
,,,-3.72E-06,0.021498751
,,,-3.71E-06,0.021811251
,,,-3.7E-06,0.021625626
,,,-3.69E-06,0.021389376
,,,-3.68E-06,0.021531876
,,,-3.67E-06,0.021545001
,,,-3.66E-06,0.021460001
,,,-3.65E-06,0.021628751
,,,-3.64E-06,0.021668751
,,,-3.63E-06,0.021462501
,,,-3.62E-06,0.021392501
,,,-3.61E-06,0.021641876
,,,-3.6E-06,0.021529376
,,,-3.59E-06,0.021642501
,,,-3.58E-06,0.021506251
,,,-3.57E-06,0.021551251
,,,-3.56E-06,0.021564376
,,,-3.55E-06,0.021636251
,,,-3.54E-06,0.021483751
,,,-3.53E-06,0.021806876
,,,-3.52E-06,0.021878126
,,,-3.51E-06,0.021692501
,,,-3.5E-06,0.021666251
,,,-3.49E-06,0.021880626
,,,-3.48E-06,0.021580626
,,,-3.47E-06,0.021507501
,,,-3.46E-06,0.021886876
,,,-3.45E-06,0.021543751
,,,-3.44E-06,0.021846876
,,,-3.43E-06,0.021428751
,,,-3.42E-06,0.021708126
,,,-3.41E-06,0.021626251
,,,-3.4E-06,0.021634376
,,,-3.39E-06,0.021580001
,,,-3.38E-06,0.021600001
,,,-3.37E-06,0.021697501
,,,-3.36E-06,0.021698126
,,,-3.35E-06,0.021704376
,,,-3.34E-06,0.021651876
,,,-3.33E-06,0.021791251
,,,-3.32E-06,0.021658751
,,,-3.31E-06,0.021660626
,,,-3.3E-06,0.021644376
,,,-3.29E-06,0.021738126
,,,-3.28E-06,0.021625626
,,,-3.27E-06,0.021605001
,,,-3.26E-06,0.021585626
,,,-3.25E-06,0.021630001
,,,-3.24E-06,0.021524376
,,,-3.23E-06,0.021594376
,,,-3.22E-06,0.021601876
,,,-3.21E-06,0.021480626
,,,-3.2E-06,0.021590626
,,,-3.19E-06,0.021575001
,,,-3.18E-06,0.021529376
,,,-3.17E-06,0.021540626
,,,-3.16E-06,0.021593751
,,,-3.15E-06,0.021452501
,,,-3.14E-06,0.021573126
,,,-3.13E-06,0.021608126
,,,-3.12E-06,0.021790001
,,,-3.11E-06,0.021599376
,,,-3.1E-06,0.021573751
,,,-3.09E-06,0.021730626
,,,-3.08E-06,0.021561876
,,,-3.07E-06,0.021493751
,,,-3.06E-06,0.021683751
,,,-3.05E-06,0.021443751
,,,-3.04E-06,0.021852501
,,,-3.03E-06,0.021655001
,,,-3.02E-06,0.021490626
,,,-3.01E-06,0.021426251
,,,-3E-06,0.021601876
,,,-2.99E-06,0.021786876
,,,-2.98E-06,0.021549376
,,,-2.97E-06,0.021797501
,,,-2.96E-06,0.021703751
,,,-2.95E-06,0.021988751
,,,-2.94E-06,0.021403126
,,,-2.93E-06,0.021646251
,,,-2.92E-06,0.021642501
,,,-2.91E-06,0.021675001
,,,-2.9E-06,0.021488751
,,,-2.89E-06,0.021768751
,,,-2.88E-06,0.021499376
,,,-2.87E-06,0.021588126
,,,-2.86E-06,0.021771251
,,,-2.85E-06,0.021528751
,,,-2.84E-06,0.021825001
,,,-2.83E-06,0.021658126
,,,-2.82E-06,0.021353751
,,,-2.81E-06,0.021570626
,,,-2.8E-06,0.021568751
,,,-2.79E-06,0.021480001
,,,-2.78E-06,0.021719376
,,,-2.77E-06,0.021750626
,,,-2.76E-06,0.021830626
,,,-2.75E-06,0.021652501
,,,-2.74E-06,0.021568126
,,,-2.73E-06,0.021430626
,,,-2.72E-06,0.021644376
,,,-2.71E-06,0.021632501
,,,-2.7E-06,0.021837501
,,,-2.69E-06,0.021640001
,,,-2.68E-06,0.021646251
,,,-2.67E-06,0.021553126
,,,-2.66E-06,0.021435626
,,,-2.65E-06,0.021451251
,,,-2.64E-06,0.021450001
,,,-2.63E-06,0.021641251
,,,-2.62E-06,0.021849376
,,,-2.61E-06,0.021481251
,,,-2.6E-06,0.021416876
,,,-2.59E-06,0.021490626
,,,-2.58E-06,0.021694376
,,,-2.57E-06,0.021575001
,,,-2.56E-06,0.021611876
,,,-2.55E-06,0.021794376
,,,-2.54E-06,0.021820001
,,,-2.53E-06,0.021571876
,,,-2.52E-06,0.021460626
,,,-2.51E-06,0.021781251
,,,-2.5E-06,0.021578126
,,,-2.49E-06,0.021995001
,,,-2.48E-06,0.021660626
,,,-2.47E-06,0.021653751
,,,-2.46E-06,0.021726251
,,,-2.45E-06,0.021761876
,,,-2.44E-06,0.021473126
,,,-2.43E-06,0.021467501
,,,-2.42E-06,0.021500001
,,,-2.41E-06,0.021605626
,,,-2.4E-06,0.021576251
,,,-2.39E-06,0.021506876
,,,-2.38E-06,0.021691251
,,,-2.37E-06,0.021767501
,,,-2.36E-06,0.021306251
,,,-2.35E-06,0.021649376
,,,-2.34E-06,0.021744376
,,,-2.33E-06,0.021348751
,,,-2.32E-06,0.021518126
,,,-2.31E-06,0.021575001
,,,-2.3E-06,0.021565626
,,,-2.29E-06,0.021761876
,,,-2.28E-06,0.021631876
,,,-2.27E-06,0.021668126
,,,-2.26E-06,0.021685626
,,,-2.25E-06,0.021540001
,,,-2.24E-06,0.021487501
,,,-2.23E-06,0.021588751
,,,-2.22E-06,0.021641251
,,,-2.21E-06,0.021492501
,,,-2.2E-06,0.021745626
,,,-2.19E-06,0.021467501
,,,-2.18E-06,0.021658751
,,,-2.17E-06,0.021615626
,,,-2.16E-06,0.021677501
,,,-2.15E-06,0.021720001
,,,-2.14E-06,0.021323751
,,,-2.13E-06,0.021529376
,,,-2.12E-06,0.021800626
,,,-2.11E-06,0.021635626
,,,-2.1E-06,0.021723751
,,,-2.09E-06,0.021426251
,,,-2.08E-06,0.021491876
,,,-2.07E-06,0.021649376
,,,-2.06E-06,0.021776876
,,,-2.05E-06,0.021580001
,,,-2.04E-06,0.021510001
,,,-2.03E-06,0.021660626
,,,-2.02E-06,0.021936251
,,,-2.01E-06,0.021490001
,,,-2E-06,0.021865626
,,,-1.99E-06,0.021479376
,,,-1.98E-06,0.021634376
,,,-1.97E-06,0.021416876
,,,-1.96E-06,0.021580001
,,,-1.95E-06,0.021855626
,,,-1.94E-06,0.021829376
,,,-1.93E-06,0.021778751
,,,-1.92E-06,0.021478751
,,,-1.91E-06,0.021607501
,,,-1.9E-06,0.021606251
,,,-1.89E-06,0.021326251
,,,-1.88E-06,0.021690626
,,,-1.87E-06,0.021944376
,,,-1.86E-06,0.021608751
,,,-1.85E-06,0.021803126
,,,-1.84E-06,0.021663751
,,,-1.83E-06,0.021652501
,,,-1.82E-06,0.021574376
,,,-1.81E-06,0.021608126
,,,-1.8E-06,0.021476251
,,,-1.79E-06,0.021638751
,,,-1.78E-06,0.021927501
,,,-1.77E-06,0.021831876
,,,-1.76E-06,0.021645626
,,,-1.75E-06,0.021691251
,,,-1.74E-06,0.021646251
,,,-1.73E-06,0.021608751
,,,-1.72E-06,0.021675001
,,,-1.71E-06,0.021571876
,,,-1.7E-06,0.021374376
,,,-1.69E-06,0.021779376
,,,-1.68E-06,0.021478751
,,,-1.67E-06,0.021405001
,,,-1.66E-06,0.021542501
,,,-1.65E-06,0.021307501
,,,-1.64E-06,0.021551876
,,,-1.63E-06,0.021471876
,,,-1.62E-06,0.021511251
,,,-1.61E-06,0.021506876
,,,-1.6E-06,0.021603126
,,,-1.59E-06,0.021660001
,,,-1.58E-06,0.021406251
,,,-1.57E-06,0.021466876
,,,-1.56E-06,0.021706876
,,,-1.55E-06,0.021843751
,,,-1.54E-06,0.021819376
,,,-1.53E-06,0.021516876
,,,-1.52E-06,0.021703126
,,,-1.51E-06,0.021409376
,,,-1.5E-06,0.021905626
,,,-1.49E-06,0.021389376
,,,-1.48E-06,0.021615001
,,,-1.47E-06,0.021554376
,,,-1.46E-06,0.021996251
,,,-1.45E-06,0.021390626
,,,-1.44E-06,0.021839376
,,,-1.43E-06,0.021611876
,,,-1.42E-06,0.021815626
,,,-1.41E-06,0.021607501
,,,-1.4E-06,0.021666251
,,,-1.39E-06,0.021752501
,,,-1.38E-06,0.021722501
,,,-1.37E-06,0.021548751
,,,-1.36E-06,0.021721876
,,,-1.35E-06,0.021870626
,,,-1.34E-06,0.021407501
,,,-1.33E-06,0.021468126
,,,-1.32E-06,0.021458751
,,,-1.31E-06,0.021491876
,,,-1.3E-06,0.021568126
,,,-1.29E-06,0.021658751
,,,-1.28E-06,0.021559376
,,,-1.27E-06,0.021685626
,,,-1.26E-06,0.021654376
,,,-1.25E-06,0.021815626
,,,-1.24E-06,0.021578126
,,,-1.23E-06,0.021741876
,,,-1.22E-06,0.021540626
,,,-1.21E-06,0.021663126
,,,-1.2E-06,0.021561251
,,,-1.19E-06,0.021602501
,,,-1.18E-06,0.021536251
,,,-1.17E-06,0.021756876
,,,-1.16E-06,0.021498126
,,,-1.15E-06,0.021579376
,,,-1.14E-06,0.021696876
,,,-1.13E-06,0.021611876
,,,-1.12E-06,0.021482501
,,,-1.11E-06,0.021710626
,,,-1.1E-06,0.021768126
,,,-1.09E-06,0.021625001
,,,-1.08E-06,0.021618126
,,,-1.07E-06,0.021808751
,,,-1.06E-06,0.021600626
,,,-1.05E-06,0.021646876
,,,-1.04E-06,0.021918126
,,,-1.03E-06,0.021587501
,,,-1.02E-06,0.021520001
,,,-1.01E-06,0.021546251
,,,-1E-06,0.021516251
,,,-9.9E-07,0.021700001
,,,-9.8E-07,0.021755001
,,,-9.7E-07,0.021702501
,,,-9.6E-07,0.021600001
,,,-9.5E-07,0.021657501
,,,-9.4E-07,0.021432501
,,,-9.3E-07,0.021464376
,,,-9.2E-07,0.021403126
,,,-9.1E-07,0.021583126
,,,-9E-07,0.021785001
,,,-8.9E-07,0.021506876
,,,-8.8E-07,0.021560001
,,,-8.7E-07,0.021633126
,,,-8.6E-07,0.021633751
,,,-8.5E-07,0.021631251
,,,-8.4E-07,0.021444376
,,,-8.3E-07,0.021401251
,,,-8.2E-07,0.021826251
,,,-8.1E-07,0.021585001
,,,-8E-07,0.021451876
,,,-7.9E-07,0.021705626
,,,-7.8E-07,0.021736251
,,,-7.7E-07,0.021878751
,,,-7.6E-07,0.021571251
,,,-7.5E-07,0.021455626
,,,-7.4E-07,0.021421876
,,,-7.3E-07,0.021721251
,,,-7.2E-07,0.021545626
,,,-7.1E-07,0.021795001
,,,-7E-07,0.021688126
,,,-6.9E-07,0.021683751
,,,-6.8E-07,0.021792501
,,,-6.7E-07,0.021413751
,,,-6.6E-07,0.021702501
,,,-6.5E-07,0.021681251
,,,-6.4E-07,0.021485626
,,,-6.3E-07,0.021848751
,,,-6.2E-07,0.021811251
,,,-6.1E-07,0.021719376
,,,-6E-07,0.021481876
,,,-5.9E-07,0.021348126
,,,-5.8E-07,0.021497501
,,,-5.7E-07,0.021731876
,,,-5.6E-07,0.021598751
,,,-5.5E-07,0.021634376
,,,-5.4E-07,0.021680626
,,,-5.3E-07,0.021573126
,,,-5.2E-07,0.021468126
,,,-5.1E-07,0.021598751
,,,-5E-07,0.021493751
,,,-4.9E-07,0.021484376
,,,-4.8E-07,0.021906251
,,,-4.7E-07,0.021499376
,,,-4.6E-07,0.021428751
,,,-4.5E-07,0.021560626
,,,-4.4E-07,0.021616251
,,,-4.3E-07,0.021436251
,,,-4.2E-07,0.021628751
,,,-4.1E-07,0.021760001
,,,-4E-07,0.021568126
,,,-3.9E-07,0.021643126
,,,-3.8E-07,0.021447501
,,,-3.7E-07,0.021581876
,,,-3.6E-07,0.021525001
,,,-3.5E-07,0.021561251
,,,-3.4E-07,0.021660001
,,,-3.3E-07,0.021628126
,,,-3.2E-07,0.021521876
,,,-3.1E-07,0.021448126
,,,-3E-07,0.021744376
,,,-2.9E-07,0.021580001
,,,-2.8E-07,0.021566251
,,,-2.7E-07,0.021623751
,,,-2.6E-07,0.021464376
,,,-2.5E-07,0.021571876
,,,-2.4E-07,0.021438751
,,,-2.3E-07,0.021723126
,,,-2.2E-07,0.021771876
,,,-2.1E-07,0.021467501
,,,-2E-07,0.021591251
,,,-1.9E-07,0.021523751
,,,-1.8E-07,0.021783751
,,,-1.7E-07,0.021651251
,,,-1.6E-07,0.021650001
,,,-1.5E-07,0.021465001
,,,-1.4E-07,0.021745001
,,,-1.3E-07,0.021733751
,,,-1.2E-07,0.021982501
,,,-1.1E-07,0.021631876
,,,-1E-07,0.021673751
,,,-9E-08,0.021516251
,,,-8E-08,0.021330626
,,,-7E-08,0.021210626
,,,-6E-08,0.021550001
,,,-5E-08,0.022270626
,,,-4E-08,0.023296251
,,,-3E-08,0.021305626
,,,-2E-08,0.020523751
,,,-1E-08,0.019671251
,,,0,0.021290626
,,,1E-08,0.022600001
,,,2E-08,0.023646251
,,,3E-08,0.022570626
,,,4E-08,0.021474376
,,,5E-08,0.020507501
,,,6E-08,0.020285001
,,,7E-08,0.021290001
,,,8E-08,0.021936876
,,,9E-08,0.022690626
,,,1E-07,0.022458751
,,,1.1E-07,0.021581251
,,,1.2E-07,0.021251876
,,,1.3E-07,0.021310626
,,,1.4E-07,0.021480001
,,,1.5E-07,0.021760001
,,,1.6E-07,0.021868126
,,,1.7E-07,0.021734376
,,,1.8E-07,0.021558751
,,,1.9E-07,0.021717501
,,,2E-07,0.021403751
,,,2.1E-07,0.021404376
,,,2.2E-07,0.021508126
,,,2.3E-07,0.021785001
,,,2.4E-07,0.021681876
,,,2.5E-07,0.021626251
,,,2.6E-07,0.021518126
,,,2.7E-07,0.021654376
,,,2.8E-07,0.021580001
,,,2.9E-07,0.021757501
,,,3E-07,0.021658751
,,,3.1E-07,0.021906251
,,,3.2E-07,0.021703751
,,,3.3E-07,0.021800626
,,,3.4E-07,0.021546251
,,,3.5E-07,0.021621876
,,,3.6E-07,0.021519376
,,,3.7E-07,0.021700001
,,,3.8E-07,0.021616876
,,,3.9E-07,0.021436251
,,,4E-07,0.021503126
,,,4.1E-07,0.021571876
,,,4.2E-07,0.021384376
,,,4.3E-07,0.021991876
,,,4.4E-07,0.021421876
,,,4.5E-07,0.021505001
,,,4.6E-07,0.021545001
,,,4.7E-07,0.021586876
,,,4.8E-07,0.021515001
,,,4.9E-07,0.021508751
,,,5E-07,0.021736251
,,,5.1E-07,0.021711251
,,,5.2E-07,0.021580001
,,,5.3E-07,0.021454376
,,,5.4E-07,0.021637501
,,,5.5E-07,0.021640626
,,,5.6E-07,0.021704376
,,,5.7E-07,0.021330001
,,,5.8E-07,0.021483751
,,,5.9E-07,0.021700626
,,,6E-07,0.021783126
,,,6.1E-07,0.021761251
,,,6.2E-07,0.021659376
,,,6.3E-07,0.021886876
,,,6.4E-07,0.021440001
,,,6.5E-07,0.021652501
,,,6.6E-07,0.021542501
,,,6.7E-07,0.021603751
,,,6.8E-07,0.021607501
,,,6.9E-07,0.021492501
,,,7E-07,0.021687501
,,,7.1E-07,0.021710001
,,,7.2E-07,0.021515626
,,,7.3E-07,0.021408751
,,,7.4E-07,0.021690626
,,,7.5E-07,0.021559376
,,,7.6E-07,0.021472501
,,,7.7E-07,0.021650001
,,,7.8E-07,0.021560001
,,,7.9E-07,0.021445001
,,,8E-07,0.021525001
,,,8.1E-07,0.021688126
,,,8.2E-07,0.021886251
,,,8.3E-07,0.021485001
,,,8.4E-07,0.021548751
,,,8.5E-07,0.021606876
,,,8.6E-07,0.021629376
,,,8.7E-07,0.021713751
,,,8.8E-07,0.021745626
,,,8.9E-07,0.021432501
,,,9E-07,0.021810001
,,,9.1E-07,0.021768126
,,,9.2E-07,0.021621251
,,,9.3E-07,0.021706876
,,,9.4E-07,0.021578751
,,,9.5E-07,0.021851876
,,,9.6E-07,0.021868751
,,,9.7E-07,0.021903126
,,,9.8E-07,0.021747501
,,,9.9E-07,0.021718126
,,,1E-06,0.021522501
,,,1.01E-06,0.021672501
,,,1.02E-06,0.021633126
,,,1.03E-06,0.021675626
,,,1.04E-06,0.021611876
,,,1.05E-06,0.021446876
,,,1.06E-06,0.021743751
,,,1.07E-06,0.021630001
,,,1.08E-06,0.021450001
,,,1.09E-06,0.021683751
,,,1.1E-06,0.021678751
,,,1.11E-06,0.021608751
,,,1.12E-06,0.021720001
,,,1.13E-06,0.021620626
,,,1.14E-06,0.021550626
,,,1.15E-06,0.021486251
,,,1.16E-06,0.021742501
,,,1.17E-06,0.021537501
,,,1.18E-06,0.021628126
,,,1.19E-06,0.021745001
,,,1.2E-06,0.021436876
,,,1.21E-06,0.021742501
,,,1.22E-06,0.021568126
,,,1.23E-06,0.021751876
,,,1.24E-06,0.021443126
,,,1.25E-06,0.021630626
,,,1.26E-06,0.021411876
,,,1.27E-06,0.021673126
,,,1.28E-06,0.021518751
,,,1.29E-06,0.021731876
,,,1.3E-06,0.021340001
,,,1.31E-06,0.021738751
,,,1.32E-06,0.021525626
,,,1.33E-06,0.021666251
,,,1.34E-06,0.021416876
,,,1.35E-06,0.021506876
,,,1.36E-06,0.021738126
,,,1.37E-06,0.021547501
,,,1.38E-06,0.021496251
,,,1.39E-06,0.021698751
,,,1.4E-06,0.021421876
,,,1.41E-06,0.021501251
,,,1.42E-06,0.021712501
,,,1.43E-06,0.021678126
,,,1.44E-06,0.021501876
,,,1.45E-06,0.021550626
,,,1.46E-06,0.021620626
,,,1.47E-06,0.021870626
,,,1.48E-06,0.021633751
,,,1.49E-06,0.021729376
,,,1.5E-06,0.021761876
,,,1.51E-06,0.021719376
,,,1.52E-06,0.021870001
,,,1.53E-06,0.021828751
,,,1.54E-06,0.021609376
,,,1.55E-06,0.021350001
,,,1.56E-06,0.021560626
,,,1.57E-06,0.021690626
,,,1.58E-06,0.021714376
,,,1.59E-06,0.021679376
,,,1.6E-06,0.021934376
,,,1.61E-06,0.021580626
,,,1.62E-06,0.021823126
,,,1.63E-06,0.021561251
,,,1.64E-06,0.021418126
,,,1.65E-06,0.021433126
,,,1.66E-06,0.021492501
,,,1.67E-06,0.021688126
,,,1.68E-06,0.021510626
,,,1.69E-06,0.021653126
,,,1.7E-06,0.021620001
,,,1.71E-06,0.021585001
,,,1.72E-06,0.021607501
,,,1.73E-06,0.021657501
,,,1.74E-06,0.021596876
,,,1.75E-06,0.021691876
,,,1.76E-06,0.021666876
,,,1.77E-06,0.021436876
,,,1.78E-06,0.021800001
,,,1.79E-06,0.021601251
,,,1.8E-06,0.021616251
,,,1.81E-06,0.021238751
,,,1.82E-06,0.021673126
,,,1.83E-06,0.021518751
,,,1.84E-06,0.021436876
,,,1.85E-06,0.021695626
,,,1.86E-06,0.021764376
,,,1.87E-06,0.021911876
,,,1.88E-06,0.021673751
,,,1.89E-06,0.021760626
,,,1.9E-06,0.021729376
,,,1.91E-06,0.021634376
,,,1.92E-06,0.021538751
,,,1.93E-06,0.021614376
,,,1.94E-06,0.021586876
,,,1.95E-06,0.021642501
,,,1.96E-06,0.021707501
,,,1.97E-06,0.021570001
,,,1.98E-06,0.021698126
,,,1.99E-06,0.021587501
,,,2E-06,0.021766876
,,,2.01E-06,0.021474376
,,,2.02E-06,0.021491251
,,,2.03E-06,0.021601876
,,,2.04E-06,0.021475626
,,,2.05E-06,0.021562501
,,,2.06E-06,0.021495626
,,,2.07E-06,0.021600626
,,,2.08E-06,0.021790001
,,,2.09E-06,0.021399376
,,,2.1E-06,0.021444376
,,,2.11E-06,0.021525626
,,,2.12E-06,0.021525001
,,,2.13E-06,0.021477501
,,,2.14E-06,0.021953751
,,,2.15E-06,0.021408751
,,,2.16E-06,0.021633126
,,,2.17E-06,0.021620001
,,,2.18E-06,0.021826251
,,,2.19E-06,0.021381876
,,,2.2E-06,0.021478126
,,,2.21E-06,0.021298126
,,,2.22E-06,0.021718126
,,,2.23E-06,0.021460001
,,,2.24E-06,0.021717501
,,,2.25E-06,0.021350626
,,,2.26E-06,0.021673751
,,,2.27E-06,0.021726876
,,,2.28E-06,0.021765626
,,,2.29E-06,0.021546876
,,,2.3E-06,0.021745001
,,,2.31E-06,0.021483126
,,,2.32E-06,0.021688126
,,,2.33E-06,0.021571251
,,,2.34E-06,0.021491251
,,,2.35E-06,0.021468751
,,,2.36E-06,0.021486876
,,,2.37E-06,0.021393126
,,,2.38E-06,0.021501251
,,,2.39E-06,0.021743751
,,,2.4E-06,0.021511251
,,,2.41E-06,0.021637501
,,,2.42E-06,0.021700626
,,,2.43E-06,0.021460001
,,,2.44E-06,0.021445626
,,,2.45E-06,0.021478751
,,,2.46E-06,0.021426876
,,,2.47E-06,0.021560626
,,,2.48E-06,0.021518126
,,,2.49E-06,0.021671876
,,,2.5E-06,0.021537501
,,,2.51E-06,0.021815626
,,,2.52E-06,0.021681876
,,,2.53E-06,0.021626876
,,,2.54E-06,0.021481876
,,,2.55E-06,0.021594376
,,,2.56E-06,0.021716251
,,,2.57E-06,0.021608126
,,,2.58E-06,0.021784376
,,,2.59E-06,0.021510001
,,,2.6E-06,0.021690001
,,,2.61E-06,0.021551876
,,,2.62E-06,0.021571251
,,,2.63E-06,0.021546251
,,,2.64E-06,0.021586876
,,,2.65E-06,0.021720626
,,,2.66E-06,0.021401876
,,,2.67E-06,0.021418126
,,,2.68E-06,0.021548751
,,,2.69E-06,0.021573126
,,,2.7E-06,0.021930626
,,,2.71E-06,0.021645626
,,,2.72E-06,0.021481876
,,,2.73E-06,0.021798751
,,,2.74E-06,0.021768751
,,,2.75E-06,0.021448126
,,,2.76E-06,0.021765001
,,,2.77E-06,0.021592501
,,,2.78E-06,0.021596251
,,,2.79E-06,0.021806251
,,,2.8E-06,0.021598751
,,,2.81E-06,0.021600626
,,,2.82E-06,0.021800001
,,,2.83E-06,0.021647501
,,,2.84E-06,0.021687501
,,,2.85E-06,0.021609376
,,,2.86E-06,0.021550001
,,,2.87E-06,0.021540626
,,,2.88E-06,0.021696251
,,,2.89E-06,0.021634376
,,,2.9E-06,0.021574376
,,,2.91E-06,0.021665001
,,,2.92E-06,0.021767501
,,,2.93E-06,0.021721251
,,,2.94E-06,0.021485001
,,,2.95E-06,0.021611876
,,,2.96E-06,0.021954376
,,,2.97E-06,0.021342501
,,,2.98E-06,0.021798751
,,,2.99E-06,0.021674376
,,,3E-06,0.021668751
,,,3.01E-06,0.021583126
,,,3.02E-06,0.021557501
,,,3.03E-06,0.021535001
,,,3.04E-06,0.021572501
,,,3.05E-06,0.021681251
,,,3.06E-06,0.021611876
,,,3.07E-06,0.021978126
,,,3.08E-06,0.021298126
,,,3.09E-06,0.021593751
,,,3.1E-06,0.021636876
,,,3.11E-06,0.021323126
,,,3.12E-06,0.021488751
,,,3.13E-06,0.021741876
,,,3.14E-06,0.021649376
,,,3.15E-06,0.021494376
,,,3.16E-06,0.021396251
,,,3.17E-06,0.021516251
,,,3.18E-06,0.021591876
,,,3.19E-06,0.021691251
,,,3.2E-06,0.021561876
,,,3.21E-06,0.021277501
