data/raw/Final_POL_Test_1/SOP049_Ch2.csv

"Record Length",1000,"Points",-5E-06,0.0194825
"Sample Interval",1E-08,s,-4.99E-06,0.019496875
"Trigger Point",500,"Samples",-4.98E-06,0.01965
"Trigger Time",0,s,-4.97E-06,0.019364375
"",,,-4.96E-06,0.01969375
"Horizontal Offset",-5E-06,s,-4.95E-06,0.01976625
,,,-4.94E-06,0.019631875
,,,-4.93E-06,0.019589375
,,,-4.92E-06,0.019351875
,,,-4.91E-06,0.019738125
,,,-4.9E-06,0.019768125
,,,-4.89E-06,0.01978125
,,,-4.88E-06,0.019660625
,,,-4.87E-06,0.019553125
,,,-4.86E-06,0.01937
,,,-4.85E-06,0.01952125
,,,-4.84E-06,0.01989875
,,,-4.83E-06,0.0198925
,,,-4.82E-06,0.0197775
,,,-4.81E-06,0.019439375
,,,-4.8E-06,0.019258125
,,,-4.79E-06,0.019541875
,,,-4.78E-06,0.0198025
,,,-4.77E-06,0.019640625
,,,-4.76E-06,0.019680625
,,,-4.75E-06,0.01965
,,,-4.74E-06,0.019595
,,,-4.73E-06,0.019854375
,,,-4.72E-06,0.019599375
,,,-4.71E-06,0.01953875
,,,-4.7E-06,0.019578125
,,,-4.69E-06,0.01939375
,,,-4.68E-06,0.01994875
,,,-4.67E-06,0.01947
,,,-4.66E-06,0.01935125
,,,-4.65E-06,0.01950125
,,,-4.64E-06,0.01956875
,,,-4.63E-06,0.019654375
,,,-4.62E-06,0.019379375
,,,-4.61E-06,0.019533125
,,,-4.6E-06,0.019615
,,,-4.59E-06,0.01954625
,,,-4.58E-06,0.0194325
,,,-4.57E-06,0.019490625
,,,-4.56E-06,0.019571875
,,,-4.55E-06,0.019513125
,,,-4.54E-06,0.019664375
,,,-4.53E-06,0.01930875
,,,-4.52E-06,0.019713125
,,,-4.51E-06,0.019400625
,,,-4.5E-06,0.0197325
,,,-4.49E-06,0.01949
,,,-4.48E-06,0.01972
,,,-4.47E-06,0.0194225
,,,-4.46E-06,0.019675
,,,-4.45E-06,0.01974625
,,,-4.44E-06,0.01986875
,,,-4.43E-06,0.019435
,,,-4.42E-06,0.019331875
,,,-4.41E-06,0.01946625
,,,-4.4E-06,0.019698125
,,,-4.39E-06,0.019809375
,,,-4.38E-06,0.019381875
,,,-4.37E-06,0.01933625
,,,-4.36E-06,0.01950625
,,,-4.35E-06,0.01962625
,,,-4.34E-06,0.01966
,,,-4.33E-06,0.019439375
,,,-4.32E-06,0.019605625
,,,-4.31E-06,0.01949875
,,,-4.3E-06,0.019590625
,,,-4.29E-06,0.019605
,,,-4.28E-06,0.019429375
,,,-4.27E-06,0.0193975
,,,-4.26E-06,0.0195075
,,,-4.25E-06,0.019380625
,,,-4.24E-06,0.019718125
,,,-4.23E-06,0.0195875
,,,-4.22E-06,0.019706875
,,,-4.21E-06,0.01975625
,,,-4.2E-06,0.01951625
,,,-4.19E-06,0.019548125
,,,-4.18E-06,0.01970125
,,,-4.17E-06,0.019533125
,,,-4.16E-06,0.019646875
,,,-4.15E-06,0.019614375
,,,-4.14E-06,0.019308125
,,,-4.13E-06,0.0193575
,,,-4.12E-06,0.01945625
,,,-4.11E-06,0.019416875
,,,-4.1E-06,0.01969125
,,,-4.09E-06,0.01961
,,,-4.08E-06,0.01976
,,,-4.07E-06,0.019714375
,,,-4.06E-06,0.01975375
,,,-4.05E-06,0.01932125
,,,-4.04E-06,0.019349375
,,,-4.03E-06,0.01952375
,,,-4.02E-06,0.019476875
,,,-4.01E-06,0.019365
,,,-4E-06,0.0197275
,,,-3.99E-06,0.019520625
,,,-3.98E-06,0.019630625
,,,-3.97E-06,0.019476875
,,,-3.96E-06,0.01957
,,,-3.95E-06,0.0195575
,,,-3.94E-06,0.019839375
,,,-3.93E-06,0.0194575
,,,-3.92E-06,0.019425
,,,-3.91E-06,0.01962875
,,,-3.9E-06,0.01942875
,,,-3.89E-06,0.01970125
,,,-3.88E-06,0.01923125
,,,-3.87E-06,0.01958625
,,,-3.86E-06,0.019441875
,,,-3.85E-06,0.0197325
,,,-3.84E-06,0.0196
,,,-3.83E-06,0.01954125
,,,-3.82E-06,0.019483125
,,,-3.81E-06,0.019579375
,,,-3.8E-06,0.019678125
,,,-3.79E-06,0.019756875
,,,-3.78E-06,0.01974
,,,-3.77E-06,0.019780625
,,,-3.76E-06,0.019403125
,,,-3.75E-06,0.01949875
,,,-3.74E-06,0.01983625
,,,-3.73E-06,0.01971875
,,,-3.72E-06,0.019593125
,,,-3.71E-06,0.019598125
,,,-3.7E-06,0.019633125
,,,-3.69E-06,0.019330625
,,,-3.68E-06,0.0195
,,,-3.67E-06,0.019556875
,,,-3.66E-06,0.0195525
,,,-3.65E-06,0.019515
,,,-3.64E-06,0.019688125
,,,-3.63E-06,0.0196125
,,,-3.62E-06,0.01989125
,,,-3.61E-06,0.019690625
,,,-3.6E-06,0.01953875
,,,-3.59E-06,0.019658125
,,,-3.58E-06,0.0197025
,,,-3.57E-06,0.01962
,,,-3.56E-06,0.0195825
,,,-3.55E-06,0.019220625
,,,-3.54E-06,0.0196275
,,,-3.53E-06,0.019666875
,,,-3.52E-06,0.019586875
,,,-3.51E-06,0.01970625
,,,-3.5E-06,0.01949125
,,,-3.49E-06,0.019636875
,,,-3.48E-06,0.019491875
,,,-3.47E-06,0.019565
,,,-3.46E-06,0.0196925
,,,-3.45E-06,0.019555625
,,,-3.44E-06,0.0195175
,,,-3.43E-06,0.019553125
,,,-3.42E-06,0.01984375
,,,-3.41E-06,0.01958375
,,,-3.4E-06,0.019721875
,,,-3.39E-06,0.0196775
,,,-3.38E-06,0.019599375
,,,-3.37E-06,0.01934625
,,,-3.36E-06,0.0193775
,,,-3.35E-06,0.019664375
,,,-3.34E-06,0.01949625
,,,-3.33E-06,0.019609375
,,,-3.32E-06,0.019458125
,,,-3.31E-06,0.019714375
,,,-3.3E-06,0.019479375
,,,-3.29E-06,0.019458125
,,,-3.28E-06,0.019826875
,,,-3.27E-06,0.019634375
,,,-3.26E-06,0.0194925
,,,-3.25E-06,0.019553125
,,,-3.24E-06,0.01968375
,,,-3.23E-06,0.019549375
,,,-3.22E-06,0.019665625
,,,-3.21E-06,0.019606875
,,,-3.2E-06,0.019575
,,,-3.19E-06,0.01965375
,,,-3.18E-06,0.019619375
,,,-3.17E-06,0.019583125
,,,-3.16E-06,0.019348125
,,,-3.15E-06,0.01966625
,,,-3.14E-06,0.0197175
,,,-3.13E-06,0.019691875
,,,-3.12E-06,0.019325625
,,,-3.11E-06,0.019834375
,,,-3.1E-06,0.01955625
,,,-3.09E-06,0.01969375
,,,-3.08E-06,0.019305
,,,-3.07E-06,0.019409375
,,,-3.06E-06,0.01969375
,,,-3.05E-06,0.019624375
,,,-3.04E-06,0.0196925
,,,-3.03E-06,0.0196525
,,,-3.02E-06,0.019896875
,,,-3.01E-06,0.0195975
,,,-3E-06,0.01957
,,,-2.99E-06,0.0197425
,,,-2.98E-06,0.019405
,,,-2.97E-06,0.019806875
,,,-2.96E-06,0.01954125
,,,-2.95E-06,0.019676875
,,,-2.94E-06,0.01942625
,,,-2.93E-06,0.01953
,,,-2.92E-06,0.019481875
,,,-2.91E-06,0.0196075
,,,-2.9E-06,0.0196075
,,,-2.89E-06,0.019666875
,,,-2.88E-06,0.019555625
,,,-2.87E-06,0.019603125
,,,-2.86E-06,0.019678125
,,,-2.85E-06,0.0195925
,,,-2.84E-06,0.01968875
,,,-2.83E-06,0.019450625
,,,-2.82E-06,0.019680625
,,,-2.81E-06,0.01948
,,,-2.8E-06,0.019835625
,,,-2.79E-06,0.019773125
,,,-2.78E-06,0.019433125
,,,-2.77E-06,0.019575625
,,,-2.76E-06,0.019588125
,,,-2.75E-06,0.01946875
,,,-2.74E-06,0.019804375
,,,-2.73E-06,0.019559375
,,,-2.72E-06,0.01964
,,,-2.71E-06,0.019604375
,,,-2.7E-06,0.01950625
,,,-2.69E-06,0.019478125
,,,-2.68E-06,0.019595625
,,,-2.67E-06,0.019509375
,,,-2.66E-06,0.01976625
,,,-2.65E-06,0.01965875
,,,-2.64E-06,0.01963125
,,,-2.63E-06,0.01957
,,,-2.62E-06,0.019780625
,,,-2.61E-06,0.019706875
,,,-2.6E-06,0.019745
,,,-2.59E-06,0.01978875
,,,-2.58E-06,0.01944375
,,,-2.57E-06,0.019658125
,,,-2.56E-06,0.019641875
,,,-2.55E-06,0.019661875
,,,-2.54E-06,0.019513125
,,,-2.53E-06,0.0194525
,,,-2.52E-06,0.019541875
,,,-2.51E-06,0.0196375
,,,-2.5E-06,0.01967
,,,-2.49E-06,0.019748125
,,,-2.48E-06,0.019583125
,,,-2.47E-06,0.01938875
,,,-2.46E-06,0.01967
,,,-2.45E-06,0.0197725
,,,-2.44E-06,0.019413125
,,,-2.43E-06,0.019725
,,,-2.42E-06,0.01968375
,,,-2.41E-06,0.019725
,,,-2.4E-06,0.019545625
,,,-2.39E-06,0.019381875
,,,-2.38E-06,0.0194925
,,,-2.37E-06,0.0195625
,,,-2.36E-06,0.01964875
,,,-2.35E-06,0.01959875
,,,-2.34E-06,0.019393125
,,,-2.33E-06,0.019229375
,,,-2.32E-06,0.0193075
,,,-2.31E-06,0.019495
,,,-2.3E-06,0.019395625
,,,-2.29E-06,0.01983125
,,,-2.28E-06,0.019435625
,,,-2.27E-06,0.0195475
,,,-2.26E-06,0.019539375
,,,-2.25E-06,0.019639375
,,,-2.24E-06,0.0196925
,,,-2.23E-06,0.019340625
,,,-2.22E-06,0.019401875
,,,-2.21E-06,0.019564375
,,,-2.2E-06,0.019673125
,,,-2.19E-06,0.019650625
,,,-2.18E-06,0.01969125
,,,-2.17E-06,0.019659375
,,,-2.16E-06,0.019939375
,,,-2.15E-06,0.019504375
,,,-2.14E-06,0.019516875
,,,-2.13E-06,0.01944625
,,,-2.12E-06,0.019460625
,,,-2.11E-06,0.01973875
,,,-2.1E-06,0.01942875
,,,-2.09E-06,0.019710625
,,,-2.08E-06,0.019520625
,,,-2.07E-06,0.019696875
,,,-2.06E-06,0.019645
,,,-2.05E-06,0.01974125
,,,-2.04E-06,0.01953875
,,,-2.03E-06,0.019614375
,,,-2.02E-06,0.019646875
,,,-2.01E-06,0.01949125
,,,-2E-06,0.01972625
,,,-1.99E-06,0.01976
,,,-1.98E-06,0.01976
,,,-1.97E-06,0.0195575
,,,-1.96E-06,0.019445
,,,-1.95E-06,0.019490625
,,,-1.94E-06,0.019506875
,,,-1.93E-06,0.019469375
,,,-1.92E-06,0.019445625
,,,-1.91E-06,0.01969
,,,-1.9E-06,0.019535
,,,-1.89E-06,0.01956
,,,-1.88E-06,0.019315
,,,-1.87E-06,0.019730625
,,,-1.86E-06,0.01945625
,,,-1.85E-06,0.01964
,,,-1.84E-06,0.019805
,,,-1.83E-06,0.019659375
,,,-1.82E-06,0.01944
,,,-1.81E-06,0.0197325
,,,-1.8E-06,0.019715625
,,,-1.79E-06,0.019424375
,,,-1.78E-06,0.019626875
,,,-1.77E-06,0.01975375
,,,-1.76E-06,0.019614375
,,,-1.75E-06,0.019921875
,,,-1.74E-06,0.019433125
,,,-1.73E-06,0.019426875
,,,-1.72E-06,0.01936125
,,,-1.71E-06,0.019286875
,,,-1.7E-06,0.01959625
,,,-1.69E-06,0.01959625
,,,-1.68E-06,0.019455625
,,,-1.67E-06,0.0193525
,,,-1.66E-06,0.019781875
,,,-1.65E-06,0.01951625
,,,-1.64E-06,0.019415625
,,,-1.63E-06,0.019480625
,,,-1.62E-06,0.019655625
,,,-1.61E-06,0.01950625
,,,-1.6E-06,0.0195675
,,,-1.59E-06,0.019725625
,,,-1.58E-06,0.019308125
,,,-1.57E-06,0.019550625
,,,-1.56E-06,0.019545
,,,-1.55E-06,0.019601875
,,,-1.54E-06,0.0196225
,,,-1.53E-06,0.019603125
,,,-1.52E-06,0.01961625
,,,-1.51E-06,0.01957875
,,,-1.5E-06,0.01940875
,,,-1.49E-06,0.019629375
,,,-1.48E-06,0.01947
,,,-1.47E-06,0.0195225
,,,-1.46E-06,0.0198475
,,,-1.45E-06,0.01969875
,,,-1.44E-06,0.01972125
,,,-1.43E-06,0.019651875
,,,-1.42E-06,0.019418125
,,,-1.41E-06,0.01963
,,,-1.4E-06,0.01987375
,,,-1.39E-06,0.01958375
,,,-1.38E-06,0.019460625
,,,-1.37E-06,0.019408125
,,,-1.36E-06,0.019539375
,,,-1.35E-06,0.019260625
,,,-1.34E-06,0.019759375
,,,-1.33E-06,0.01966
,,,-1.32E-06,0.019704375
,,,-1.31E-06,0.01948125
,,,-1.3E-06,0.019705625
,,,-1.29E-06,0.019653125
,,,-1.28E-06,0.019578125
,,,-1.27E-06,0.01933625
,,,-1.26E-06,0.01978875
,,,-1.25E-06,0.019729375
,,,-1.24E-06,0.01935375
,,,-1.23E-06,0.01957625
,,,-1.22E-06,0.019526875
,,,-1.21E-06,0.019778125
,,,-1.2E-06,0.0194625
,,,-1.19E-06,0.01978125
,,,-1.18E-06,0.01949375
,,,-1.17E-06,0.0195825
,,,-1.16E-06,0.019636875
,,,-1.15E-06,0.019903125
,,,-1.14E-06,0.019805
,,,-1.13E-06,0.019585
,,,-1.12E-06,0.019665625
,,,-1.11E-06,0.019346875
,,,-1.1E-06,0.019436875
,,,-1.09E-06,0.01968125
,,,-1.08E-06,0.019768125
,,,-1.07E-06,0.01956875
,,,-1.06E-06,0.019509375
,,,-1.05E-06,0.019413125
,,,-1.04E-06,0.01966
,,,-1.03E-06,0.019344375
,,,-1.02E-06,0.019559375
,,,-1.01E-06,0.0196275
,,,-1E-06,0.019775625
,,,-9.9E-07,0.01960875
,,,-9.8E-07,0.019515625
,,,-9.7E-07,0.019385
,,,-9.6E-07,0.019780625
,,,-9.5E-07,0.019726875
,,,-9.4E-07,0.019371875
,,,-9.3E-07,0.019665625
,,,-9.2E-07,0.019716875
,,,-9.1E-07,0.01957875
,,,-9E-07,0.019494375
,,,-8.9E-07,0.0194325
,,,-8.8E-07,0.019654375
,,,-8.7E-07,0.01980625
,,,-8.6E-07,0.019613125
,,,-8.5E-07,0.0196475
,,,-8.4E-07,0.019773125
,,,-8.3E-07,0.019663125
,,,-8.2E-07,0.01987625
,,,-8.1E-07,0.019630625
,,,-8E-07,0.019751875
,,,-7.9E-07,0.01946625
,,,-7.8E-07,0.019804375
,,,-7.7E-07,0.01969625
,,,-7.6E-07,0.019720625
,,,-7.5E-07,0.019634375
,,,-7.4E-07,0.01984625
,,,-7.3E-07,0.0195375
,,,-7.2E-07,0.01960125
,,,-7.1E-07,0.019438125
,,,-7E-07,0.019834375
,,,-6.9E-07,0.01978625
,,,-6.8E-07,0.019764375
,,,-6.7E-07,0.019310625
,,,-6.6E-07,0.019295
,,,-6.5E-07,0.01936
,,,-6.4E-07,0.0196425
,,,-6.3E-07,0.019629375
,,,-6.2E-07,0.019475625
,,,-6.1E-07,0.0196275
,,,-6E-07,0.019605625
,,,-5.9E-07,0.019573125
,,,-5.8E-07,0.01967625
,,,-5.7E-07,0.019460625
,,,-5.6E-07,0.01940125
,,,-5.5E-07,0.01940875
,,,-5.4E-07,0.019565625
,,,-5.3E-07,0.0194625
,,,-5.2E-07,0.01964125
,,,-5.1E-07,0.019613125
,,,-5E-07,0.019604375
,,,-4.9E-07,0.01978625
,,,-4.8E-07,0.019605
,,,-4.7E-07,0.019659375
,,,-4.6E-07,0.019723125
,,,-4.5E-07,0.01934625
,,,-4.4E-07,0.019709375
,,,-4.3E-07,0.019755625
,,,-4.2E-07,0.019615625
,,,-4.1E-07,0.0195925
,,,-4E-07,0.019484375
,,,-3.9E-07,0.019605
,,,-3.8E-07,0.019496875
,,,-3.7E-07,0.019509375
,,,-3.6E-07,0.01949375
,,,-3.5E-07,0.0194725
,,,-3.4E-07,0.019490625
,,,-3.3E-07,0.0197675
,,,-3.2E-07,0.01968125
,,,-3.1E-07,0.01944875
,,,-3E-07,0.019446875
,,,-2.9E-07,0.019775
,,,-2.8E-07,0.01979875
,,,-2.7E-07,0.0193575
,,,-2.6E-07,0.019703125
,,,-2.5E-07,0.019676875
,,,-2.4E-07,0.0194125
,,,-2.3E-07,0.019506875
,,,-2.2E-07,0.01943875
,,,-2.1E-07,0.0196825
,,,-2E-07,0.019459375
,,,-1.9E-07,0.01952625
,,,-1.8E-07,0.019501875
,,,-1.7E-07,0.01933375
,,,-1.6E-07,0.01946
,,,-1.5E-07,0.01973
,,,-1.4E-07,0.01957375
,,,-1.3E-07,0.01934625
,,,-1.2E-07,0.0197975
,,,-1.1E-07,0.0194925
,,,-1E-07,0.0197325
,,,-9E-08,0.019479375
,,,-8E-08,0.019690625
,,,-7E-08,0.01962875
,,,-6E-08,0.019548125
,,,-5E-08,0.01953375
,,,-4E-08,0.02052375
,,,-3E-08,0.02128
,,,-2E-08,0.017465
,,,-1E-08,0.015704374
,,,0,0.016415624
,,,1E-08,0.0226725
,,,2E-08,0.02467
,,,3E-08,0.023196875
,,,4E-08,0.01875375
,,,5E-08,0.016253749
,,,6E-08,0.015893749
,,,7E-08,0.01834125
,,,8E-08,0.02080625
,,,9E-08,0.022298125
,,,1E-07,0.021953125
,,,1.1E-07,0.0203725
,,,1.2E-07,0.018271875
,,,1.3E-07,0.017768125
,,,1.4E-07,0.018801875
,,,1.5E-07,0.019826875
,,,1.6E-07,0.020305625
,,,1.7E-07,0.020290625
,,,1.8E-07,0.01963875
,,,1.9E-07,0.019501875
,,,2E-07,0.01966875
,,,2.1E-07,0.019144375
,,,2.2E-07,0.0194975
,,,2.3E-07,0.01932
,,,2.4E-07,0.020048125
,,,2.5E-07,0.0197975
,,,2.6E-07,0.019519375
,,,2.7E-07,0.01979875
,,,2.8E-07,0.019530625
,,,2.9E-07,0.019460625
,,,3E-07,0.019514375
,,,3.1E-07,0.019668125
,,,3.2E-07,0.019605
,,,3.3E-07,0.019446875
,,,3.4E-07,0.019415
,,,3.5E-07,0.019630625
,,,3.6E-07,0.019425
,,,3.7E-07,0.01951875
,,,3.8E-07,0.019555625
,,,3.9E-07,0.0199575
,,,4E-07,0.019564375
,,,4.1E-07,0.019750625
,,,4.2E-07,0.01967
,,,4.3E-07,0.019566875
,,,4.4E-07,0.0194125
,,,4.5E-07,0.0194825
,,,4.6E-07,0.0198825
,,,4.7E-07,0.019635
,,,4.8E-07,0.01959
,,,4.9E-07,0.01947375
,,,5E-07,0.019659375
,,,5.1E-07,0.019388125
,,,5.2E-07,0.019871875
,,,5.3E-07,0.019570625
,,,5.4E-07,0.01953125
,,,5.5E-07,0.019640625
,,,5.6E-07,0.0197325
,,,5.7E-07,0.01961125
,,,5.8E-07,0.01959
,,,5.9E-07,0.019716875
,,,6E-07,0.019658125
,,,6.1E-07,0.019539375
,,,6.2E-07,0.019733125
,,,6.3E-07,0.0197525
,,,6.4E-07,0.01963
,,,6.5E-07,0.01948625
,,,6.6E-07,0.019815625
,,,6.7E-07,0.0198425
,,,6.8E-07,0.01956125
,,,6.9E-07,0.01939
,,,7E-07,0.019585625
,,,7.1E-07,0.01953625
,,,7.2E-07,0.01968875
,,,7.3E-07,0.019731875
,,,7.4E-07,0.019596875
,,,7.5E-07,0.019471875
,,,7.6E-07,0.01974625
,,,7.7E-07,0.01959
,,,7.8E-07,0.01953
,,,7.9E-07,0.0194775
,,,8E-07,0.01964625
,,,8.1E-07,0.01964625
,,,8.2E-07,0.0195375
,,,8.3E-07,0.0198675
,,,8.4E-07,0.019463125
,,,8.5E-07,0.019535
,,,8.6E-07,0.019654375
,,,8.7E-07,0.019423125
,,,8.8E-07,0.01935875
,,,8.9E-07,0.0196325
,,,9E-07,0.019753125
,,,9.1E-07,0.019471875
,,,9.2E-07,0.019659375
,,,9.3E-07,0.01959875
,,,9.4E-07,0.019274375
,,,9.5E-07,0.0195825
,,,9.6E-07,0.0196325
,,,9.7E-07,0.019440625
,,,9.8E-07,0.01966125
,,,9.9E-07,0.019570625
,,,1E-06,0.01996875
,,,1.01E-06,0.019661875
,,,1.02E-06,0.019515625
,,,1.03E-06,0.019415
,,,1.04E-06,0.019745625
,,,1.05E-06,0.0196625
,,,1.06E-06,0.01944875
,,,1.07E-06,0.01961125
,,,1.08E-06,0.0196625
,,,1.09E-06,0.01976625
,,,1.1E-06,0.019514375
,,,1.11E-06,0.019505
,,,1.12E-06,0.019718125
,,,1.13E-06,0.019650625
,,,1.14E-06,0.0194725
,,,1.15E-06,0.0194225
,,,1.16E-06,0.019708125
,,,1.17E-06,0.019651875
,,,1.18E-06,0.01923
,,,1.19E-06,0.019365625
,,,1.2E-06,0.019710625
,,,1.21E-06,0.01949625
,,,1.22E-06,0.0194175
,,,1.23E-06,0.019680625
,,,1.24E-06,0.01950625
,,,1.25E-06,0.01945375
,,,1.26E-06,0.01933875
,,,1.27E-06,0.019898125
,,,1.28E-06,0.019671875
,,,1.29E-06,0.01956625
,,,1.3E-06,0.0193625
,,,1.31E-06,0.019781875
,,,1.32E-06,0.019660625
,,,1.33E-06,0.019628125
,,,1.34E-06,0.01974625
,,,1.35E-06,0.01934125
,,,1.36E-06,0.0195475
,,,1.37E-06,0.0195425
,,,1.38E-06,0.01948
,,,1.39E-06,0.019519375
,,,1.4E-06,0.0197275
,,,1.41E-06,0.019485625
,,,1.42E-06,0.019685
,,,1.43E-06,0.0194225
,,,1.44E-06,0.01945
,,,1.45E-06,0.01965875
,,,1.46E-06,0.019718125
,,,1.47E-06,0.019621875
,,,1.48E-06,0.01957125
,,,1.49E-06,0.019584375
,,,1.5E-06,0.019715
,,,1.51E-06,0.0195675
,,,1.52E-06,0.0196125
,,,1.53E-06,0.0195225
,,,1.54E-06,0.019754375
,,,1.55E-06,0.019700625
,,,1.56E-06,0.019555625
,,,1.57E-06,0.019596875
,,,1.58E-06,0.019601875
,,,1.59E-06,0.019448125
,,,1.6E-06,0.019761875
,,,1.61E-06,0.01953375
,,,1.62E-06,0.01956875
,,,1.63E-06,0.019370625
,,,1.64E-06,0.019486875
,,,1.65E-06,0.019393125
,,,1.66E-06,0.019651875
,,,1.67E-06,0.019505
,,,1.68E-06,0.01970875
,,,1.69E-06,0.019393125
,,,1.7E-06,0.0195075
,,,1.71E-06,0.019556875
,,,1.72E-06,0.019379375
,,,1.73E-06,0.01941125
,,,1.74E-06,0.01985625
,,,1.75E-06,0.01961375
,,,1.76E-06,0.019471875
,,,1.77E-06,0.0196425
,,,1.78E-06,0.0195975
,,,1.79E-06,0.01930625
,,,1.8E-06,0.0195325
,,,1.81E-06,0.019559375
,,,1.82E-06,0.019619375
,,,1.83E-06,0.0195175
,,,1.84E-06,0.019628125
,,,1.85E-06,0.019618125
,,,1.86E-06,0.01939125
,,,1.87E-06,0.019798125
,,,1.88E-06,0.0197075
,,,1.89E-06,0.019663125
,,,1.9E-06,0.01950875
,,,1.91E-06,0.01952
,,,1.92E-06,0.0193925
,,,1.93E-06,0.019589375
,,,1.94E-06,0.019529375
,,,1.95E-06,0.019450625
,,,1.96E-06,0.019584375
,,,1.97E-06,0.019551875
,,,1.98E-06,0.01997
,,,1.99E-06,0.01944
,,,2E-06,0.019538125
,,,2.01E-06,0.019615
,,,2.02E-06,0.0195025
,,,2.03E-06,0.01983
,,,2.04E-06,0.019595
,,,2.05E-06,0.019685
,,,2.06E-06,0.019536875
,,,2.07E-06,0.01967625
,,,2.08E-06,0.019595625
,,,2.09E-06,0.01953
,,,2.1E-06,0.0195025
,,,2.11E-06,0.01980375
,,,2.12E-06,0.019469375
,,,2.13E-06,0.0196725
,,,2.14E-06,0.019449375
,,,2.15E-06,0.019518125
,,,2.16E-06,0.0200075
,,,2.17E-06,0.0195325
,,,2.18E-06,0.019295
,,,2.19E-06,0.0195925
,,,2.2E-06,0.0195975
,,,2.21E-06,0.0196025
,,,2.22E-06,0.019624375
,,,2.23E-06,0.01962375
,,,2.24E-06,0.01951625
,,,2.25E-06,0.0195
,,,2.26E-06,0.019393125
,,,2.27E-06,0.0196675
,,,2.28E-06,0.019538125
,,,2.29E-06,0.0195575
,,,2.3E-06,0.0197525
,,,2.31E-06,0.019975
,,,2.32E-06,0.019495625
,,,2.33E-06,0.019295
,,,2.34E-06,0.01945
,,,2.35E-06,0.01922375
,,,2.36E-06,0.01957375
,,,2.37E-06,0.01948
,,,2.38E-06,0.019403125
,,,2.39E-06,0.01955875
,,,2.4E-06,0.01959
,,,2.41E-06,0.01939
,,,2.42E-06,0.01958
,,,2.43E-06,0.01934125
,,,2.44E-06,0.019778125
,,,2.45E-06,0.019540625
,,,2.46E-06,0.019888125
,,,2.47E-06,0.019718125
,,,2.48E-06,0.0195725
,,,2.49E-06,0.01982625
,,,2.5E-06,0.019635625
,,,2.51E-06,0.019510625
,,,2.52E-06,0.019545
,,,2.53E-06,0.019459375
,,,2.54E-06,0.019675
,,,2.55E-06,0.019675625
,,,2.56E-06,0.019471875
,,,2.57E-06,0.01991875
,,,2.58E-06,0.019729375
,,,2.59E-06,0.019383125
,,,2.6E-06,0.019764375
,,,2.61E-06,0.019616875
,,,2.62E-06,0.01963125
,,,2.63E-06,0.01942
,,,2.64E-06,0.0196825
,,,2.65E-06,0.019825625
,,,2.66E-06,0.01980875
,,,2.67E-06,0.019414375
,,,2.68E-06,0.019608125
,,,2.69E-06,0.0197325
,,,2.7E-06,0.019521875
,,,2.71E-06,0.019530625
,,,2.72E-06,0.019704375
,,,2.73E-06,0.0197375
,,,2.74E-06,0.0195375
,,,2.75E-06,0.019673125
,,,2.76E-06,0.019578125
,,,2.77E-06,0.019481875
,,,2.78E-06,0.01941125
,,,2.79E-06,0.019751875
,,,2.8E-06,0.01954125
,,,2.81E-06,0.0195725
,,,2.82E-06,0.019529375
,,,2.83E-06,0.019571875
,,,2.84E-06,0.01954625
,,,2.85E-06,0.019479375
,,,2.86E-06,0.019788125
,,,2.87E-06,0.01985
,,,2.88E-06,0.01983875
,,,2.89E-06,0.01973875
,,,2.9E-06,0.019756875
,,,2.91E-06,0.019526875
,,,2.92E-06,0.01950375
,,,2.93E-06,0.01945875
,,,2.94E-06,0.019625
,,,2.95E-06,0.019815
,,,2.96E-06,0.019590625
,,,2.97E-06,0.019506875
,,,2.98E-06,0.019708125
,,,2.99E-06,0.019224375
,,,3E-06,0.019449375
,,,3.01E-06,0.019706875
,,,3.02E-06,0.019680625
,,,3.03E-06,0.01958875
,,,3.04E-06,0.019785625
,,,3.05E-06,0.01964125
,,,3.06E-06,0.019595
,,,3.07E-06,0.0195
,,,3.08E-06,0.01974
,,,3.09E-06,0.0195125
,,,3.1E-06,0.019528125
,,,3.11E-06,0.019688125
,,,3.12E-06,0.019675625
,,,3.13E-06,0.01969375
,,,3.14E-06,0.019549375
,,,3.15E-06,0.019401875
,,,3.16E-06,0.0197725
,,,3.17E-06,0.0196475
,,,3.18E-06,0.01950125
,,,3.19E-06,0.019620625
,,,3.2E-06,0.019983125
,,,3.21E-06,0.019576875
,,,3.22E-06,0.019206875
,,,3.23E-06,0.01965375
,,,3.24E-06,0.01965625
,,,3.25E-06,0.01942
,,,3.26E-06,0.01974875
,,,3.27E-06,0.01963
,,,3.28E-06,0.01969625
,,,3.29E-06,0.019591875
,,,3.3E-06,0.01950875
,,,3.31E-06,0.019543125
,,,3.32E-06,0.019544375
,,,3.33E-06,0.019480625
,,,3.34E-06,0.019438125
,,,3.35E-06,0.019610625
,,,3.36E-06,0.01953125
,,,3.37E-06,0.01976375
,,,3.38E-06,0.01976875
,,,3.39E-06,0.01967
,,,3.4E-06,0.019596875
,,,3.41E-06,0.019671875
,,,3.42E-06,0.019389375
,,,3.43E-06,0.019708125
,,,3.44E-06,0.0194825
,,,3.45E-06,0.019471875
,,,3.46E-06,0.019755625
,,,3.47E-06,0.019568125
,,,3.48E-06,0.01953625
,,,3.49E-06,0.01945875
,,,3.5E-06,0.01969875
,,,3.51E-06,0.01944
,,,3.52E-06,0.019535625
,,,3.53E-06,0.01974
,,,3.54E-06,0.01953875
,,,3.55E-06,0.01985625
,,,3.56E-06,0.019600625
,,,3.57E-06,0.01969
,,,3.58E-06,0.019689375
