data/raw/Final_POL_Test_1/SOP083_Ch1.csv

"Record Length",1000,"Points",-5E-06,0.007935
"Sample Interval",1E-08,s,-4.99E-06,0.008055
"Trigger Point",500,"Samples",-4.98E-06,0.007903125
"Trigger Time",0,s,-4.97E-06,0.007930625
"",,,-4.96E-06,0.007680625
"Horizontal Offset",-5E-06,s,-4.95E-06,0.007898125
,,,-4.94E-06,0.007655625
,,,-4.93E-06,0.007786875
,,,-4.92E-06,0.007646875
,,,-4.91E-06,0.00750375
,,,-4.9E-06,0.007643125
,,,-4.89E-06,0.007934375
,,,-4.88E-06,0.007823125
,,,-4.87E-06,0.00766375
,,,-4.86E-06,0.00781375
,,,-4.85E-06,0.007715
,,,-4.84E-06,0.00762625
,,,-4.83E-06,0.007748125
,,,-4.82E-06,0.00776125
,,,-4.81E-06,0.0078775
,,,-4.8E-06,0.0076275
,,,-4.79E-06,0.0078675
,,,-4.78E-06,0.007616875
,,,-4.77E-06,0.00788625
,,,-4.76E-06,0.0077475
,,,-4.75E-06,0.007859375
,,,-4.74E-06,0.00776
,,,-4.73E-06,0.007843125
,,,-4.72E-06,0.00771625
,,,-4.71E-06,0.00781875
,,,-4.7E-06,0.00762625
,,,-4.69E-06,0.007726875
,,,-4.68E-06,0.0078625
,,,-4.67E-06,0.00761875
,,,-4.66E-06,0.00792
,,,-4.65E-06,0.00775875
,,,-4.64E-06,0.007783125
,,,-4.63E-06,0.00799125
,,,-4.62E-06,0.00770375
,,,-4.61E-06,0.007898125
,,,-4.6E-06,0.007775
,,,-4.59E-06,0.007846875
,,,-4.58E-06,0.007554375
,,,-4.57E-06,0.00797625
,,,-4.56E-06,0.00772375
,,,-4.55E-06,0.0078775
,,,-4.54E-06,0.0078025
,,,-4.53E-06,0.007799375
,,,-4.52E-06,0.0077325
,,,-4.51E-06,0.007663125
,,,-4.5E-06,0.007836875
,,,-4.49E-06,0.00774125
,,,-4.48E-06,0.007868125
,,,-4.47E-06,0.00805625
,,,-4.46E-06,0.007786875
,,,-4.45E-06,0.007535625
,,,-4.44E-06,0.007878125
,,,-4.43E-06,0.00776375
,,,-4.42E-06,0.007875
,,,-4.41E-06,0.007751875
,,,-4.4E-06,0.00778125
,,,-4.39E-06,0.00781125
,,,-4.38E-06,0.007855
,,,-4.37E-06,0.007675
,,,-4.36E-06,0.0077625
,,,-4.35E-06,0.0076925
,,,-4.34E-06,0.0079975
,,,-4.33E-06,0.00771
,,,-4.32E-06,0.007805625
,,,-4.31E-06,0.00789625
,,,-4.3E-06,0.007604375
,,,-4.29E-06,0.0076525
,,,-4.28E-06,0.00783875
,,,-4.27E-06,0.007681875
,,,-4.26E-06,0.007746875
,,,-4.25E-06,0.007725
,,,-4.24E-06,0.007766875
,,,-4.23E-06,0.00783
,,,-4.22E-06,0.007739375
,,,-4.21E-06,0.00756625
,,,-4.2E-06,0.00769375
,,,-4.19E-06,0.008036875
,,,-4.18E-06,0.0077625
,,,-4.17E-06,0.007946875
,,,-4.16E-06,0.007888125
,,,-4.15E-06,0.007868125
,,,-4.14E-06,0.007775625
,,,-4.13E-06,0.00769375
,,,-4.12E-06,0.008036875
,,,-4.11E-06,0.007845
,,,-4.1E-06,0.007599375
,,,-4.09E-06,0.007844375
,,,-4.08E-06,0.00785375
,,,-4.07E-06,0.007799375
,,,-4.06E-06,0.007761875
,,,-4.05E-06,0.007945
,,,-4.04E-06,0.007709375
,,,-4.03E-06,0.00802875
,,,-4.02E-06,0.0077225
,,,-4.01E-06,0.00754625
,,,-4E-06,0.00787625
,,,-3.99E-06,0.008058125
,,,-3.98E-06,0.007719375
,,,-3.97E-06,0.00769125
,,,-3.96E-06,0.0077375
,,,-3.95E-06,0.00770125
,,,-3.94E-06,0.007871875
,,,-3.93E-06,0.007869375
,,,-3.92E-06,0.00780125
,,,-3.91E-06,0.008049375
,,,-3.9E-06,0.007815
,,,-3.89E-06,0.00786875
,,,-3.88E-06,0.007791875
,,,-3.87E-06,0.007723125
,,,-3.86E-06,0.007725625
,,,-3.85E-06,0.00757625
,,,-3.84E-06,0.0075675
,,,-3.83E-06,0.00795625
,,,-3.82E-06,0.00752375
,,,-3.81E-06,0.00776
,,,-3.8E-06,0.00780375
,,,-3.79E-06,0.00810875
,,,-3.78E-06,0.00773
,,,-3.77E-06,0.007656875
,,,-3.76E-06,0.007715625
,,,-3.75E-06,0.0079425
,,,-3.74E-06,0.007909375
,,,-3.73E-06,0.007900625
,,,-3.72E-06,0.007995
,,,-3.71E-06,0.007548125
,,,-3.7E-06,0.007819375
,,,-3.69E-06,0.007845625
,,,-3.68E-06,0.007828125
,,,-3.67E-06,0.007748125
,,,-3.66E-06,0.0080075
,,,-3.65E-06,0.00790375
,,,-3.64E-06,0.007721875
,,,-3.63E-06,0.008025625
,,,-3.62E-06,0.007665625
,,,-3.61E-06,0.007793125
,,,-3.6E-06,0.007760625
,,,-3.59E-06,0.00767375
,,,-3.58E-06,0.00752875
,,,-3.57E-06,0.0079875
,,,-3.56E-06,0.007798125
,,,-3.55E-06,0.0078925
,,,-3.54E-06,0.0075825
,,,-3.53E-06,0.007643125
,,,-3.52E-06,0.007619375
,,,-3.51E-06,0.007836875
,,,-3.5E-06,0.008055625
,,,-3.49E-06,0.0077675
,,,-3.48E-06,0.007665625
,,,-3.47E-06,0.007798125
,,,-3.46E-06,0.007505625
,,,-3.45E-06,0.007741875
,,,-3.44E-06,0.00752125
,,,-3.43E-06,0.00809625
,,,-3.42E-06,0.007830625
,,,-3.41E-06,0.007775
,,,-3.4E-06,0.0078125
,,,-3.39E-06,0.007836875
,,,-3.38E-06,0.0080925
,,,-3.37E-06,0.007728125
,,,-3.36E-06,0.00775125
,,,-3.35E-06,0.00770625
,,,-3.34E-06,0.007738125
,,,-3.33E-06,0.0078275
,,,-3.32E-06,0.007790625
,,,-3.31E-06,0.00785125
,,,-3.3E-06,0.00775
,,,-3.29E-06,0.007878125
,,,-3.28E-06,0.00796125
,,,-3.27E-06,0.00763875
,,,-3.26E-06,0.00762375
,,,-3.25E-06,0.007709375
,,,-3.24E-06,0.007944375
,,,-3.23E-06,0.007869375
,,,-3.22E-06,0.007718125
,,,-3.21E-06,0.00743875
,,,-3.2E-06,0.0076475
,,,-3.19E-06,0.007813125
,,,-3.18E-06,0.007771875
,,,-3.17E-06,0.007945
,,,-3.16E-06,0.007899375
,,,-3.15E-06,0.007808125
,,,-3.14E-06,0.0077275
,,,-3.13E-06,0.007964375
,,,-3.12E-06,0.0076875
,,,-3.11E-06,0.00787875
,,,-3.1E-06,0.007700625
,,,-3.09E-06,0.007715
,,,-3.08E-06,0.008245
,,,-3.07E-06,0.007930625
,,,-3.06E-06,0.007928125
,,,-3.05E-06,0.007750625
,,,-3.04E-06,0.008100625
,,,-3.03E-06,0.0074225
,,,-3.02E-06,0.0078475
,,,-3.01E-06,0.007893125
,,,-3E-06,0.007695
,,,-2.99E-06,0.00789625
,,,-2.98E-06,0.008001875
,,,-2.97E-06,0.00762625
,,,-2.96E-06,0.0077275
,,,-2.95E-06,0.0079075
,,,-2.94E-06,0.007935
,,,-2.93E-06,0.007803125
,,,-2.92E-06,0.007676875
,,,-2.91E-06,0.007755
,,,-2.9E-06,0.007894375
,,,-2.89E-06,0.007860625
,,,-2.88E-06,0.0077125
,,,-2.87E-06,0.00779125
,,,-2.86E-06,0.007669375
,,,-2.85E-06,0.00806375
,,,-2.84E-06,0.007675
,,,-2.83E-06,0.00782875
,,,-2.82E-06,0.0077525
,,,-2.81E-06,0.007970625
,,,-2.8E-06,0.007595625
,,,-2.79E-06,0.007991875
,,,-2.78E-06,0.0076475
,,,-2.77E-06,0.0078175
,,,-2.76E-06,0.007851875
,,,-2.75E-06,0.007930625
,,,-2.74E-06,0.007870625
,,,-2.73E-06,0.00781875
,,,-2.72E-06,0.007790625
,,,-2.71E-06,0.00770125
,,,-2.7E-06,0.00769125
,,,-2.69E-06,0.0074675
,,,-2.68E-06,0.007953125
,,,-2.67E-06,0.00799625
,,,-2.66E-06,0.007965
,,,-2.65E-06,0.007721875
,,,-2.64E-06,0.007675625
,,,-2.63E-06,0.007575625
,,,-2.62E-06,0.007799375
,,,-2.61E-06,0.00771375
,,,-2.6E-06,0.00794625
,,,-2.59E-06,0.0077775
,,,-2.58E-06,0.007630625
,,,-2.57E-06,0.007721875
,,,-2.56E-06,0.007635625
,,,-2.55E-06,0.007671875
,,,-2.54E-06,0.007621875
,,,-2.53E-06,0.007893125
,,,-2.52E-06,0.007666875
,,,-2.51E-06,0.007675
,,,-2.5E-06,0.00776875
,,,-2.49E-06,0.007928125
,,,-2.48E-06,0.00790625
,,,-2.47E-06,0.008026875
,,,-2.46E-06,0.0074725
,,,-2.45E-06,0.00772
,,,-2.44E-06,0.007705
,,,-2.43E-06,0.0076225
,,,-2.42E-06,0.00788375
,,,-2.41E-06,0.00776625
,,,-2.4E-06,0.0076325
,,,-2.39E-06,0.00751
,,,-2.38E-06,0.007834375
,,,-2.37E-06,0.00770125
,,,-2.36E-06,0.007764375
,,,-2.35E-06,0.00796125
,,,-2.34E-06,0.00783625
,,,-2.33E-06,0.008026875
,,,-2.32E-06,0.00768
,,,-2.31E-06,0.008084375
,,,-2.3E-06,0.00775875
,,,-2.29E-06,0.00777375
,,,-2.28E-06,0.007791875
,,,-2.27E-06,0.007836875
,,,-2.26E-06,0.007699375
,,,-2.25E-06,0.007864375
,,,-2.24E-06,0.0079975
,,,-2.23E-06,0.007739375
,,,-2.22E-06,0.007654375
,,,-2.21E-06,0.007718125
,,,-2.2E-06,0.007761875
,,,-2.19E-06,0.0077675
,,,-2.18E-06,0.00811375
,,,-2.17E-06,0.00783125
,,,-2.16E-06,0.00776125
,,,-2.15E-06,0.00774
,,,-2.14E-06,0.007811875
,,,-2.13E-06,0.007855625
,,,-2.12E-06,0.007595625
,,,-2.11E-06,0.00767
,,,-2.1E-06,0.007613125
,,,-2.09E-06,0.007986875
,,,-2.08E-06,0.008103125
,,,-2.07E-06,0.007540625
,,,-2.06E-06,0.007836875
,,,-2.05E-06,0.007683125
,,,-2.04E-06,0.007975
,,,-2.03E-06,0.007848125
,,,-2.02E-06,0.00782625
,,,-2.01E-06,0.00792625
,,,-2E-06,0.0078925
,,,-1.99E-06,0.007835625
,,,-1.98E-06,0.007738125
,,,-1.97E-06,0.007891875
,,,-1.96E-06,0.007525625
,,,-1.95E-06,0.00790625
,,,-1.94E-06,0.00769
,,,-1.93E-06,0.00781125
,,,-1.92E-06,0.0078775
,,,-1.91E-06,0.00787625
,,,-1.9E-06,0.007676875
,,,-1.89E-06,0.007588125
,,,-1.88E-06,0.00772125
,,,-1.87E-06,0.00762875
,,,-1.86E-06,0.00768125
,,,-1.85E-06,0.007834375
,,,-1.84E-06,0.0078275
,,,-1.83E-06,0.007690625
,,,-1.82E-06,0.00775875
,,,-1.81E-06,0.007738125
,,,-1.8E-06,0.007780625
,,,-1.79E-06,0.007741875
,,,-1.78E-06,0.00768
,,,-1.77E-06,0.00766
,,,-1.76E-06,0.00794625
,,,-1.75E-06,0.00790125
,,,-1.74E-06,0.0080175
,,,-1.73E-06,0.007643125
,,,-1.72E-06,0.00767375
,,,-1.71E-06,0.007801875
,,,-1.7E-06,0.007615625
,,,-1.69E-06,0.007825625
,,,-1.68E-06,0.007879375
,,,-1.67E-06,0.007828125
,,,-1.66E-06,0.007693125
,,,-1.65E-06,0.007676875
,,,-1.64E-06,0.007911875
,,,-1.63E-06,0.008106875
,,,-1.62E-06,0.00783
,,,-1.61E-06,0.007693125
,,,-1.6E-06,0.007836875
,,,-1.59E-06,0.007835625
,,,-1.58E-06,0.00789375
,,,-1.57E-06,0.00780125
,,,-1.56E-06,0.007661875
,,,-1.55E-06,0.00768375
,,,-1.54E-06,0.00801375
,,,-1.53E-06,0.007678125
,,,-1.52E-06,0.0076825
,,,-1.51E-06,0.0077625
,,,-1.5E-06,0.00774625
,,,-1.49E-06,0.007570625
,,,-1.48E-06,0.007825
,,,-1.47E-06,0.0077925
,,,-1.46E-06,0.007419375
,,,-1.45E-06,0.00771125
,,,-1.44E-06,0.007701875
,,,-1.43E-06,0.00770875
,,,-1.42E-06,0.0076975
,,,-1.41E-06,0.007950625
,,,-1.4E-06,0.007821875
,,,-1.39E-06,0.007784375
,,,-1.38E-06,0.0076075
,,,-1.37E-06,0.007714375
,,,-1.36E-06,0.007715625
,,,-1.35E-06,0.007774375
,,,-1.34E-06,0.007563125
,,,-1.33E-06,0.00771375
,,,-1.32E-06,0.00765875
,,,-1.31E-06,0.00777375
,,,-1.3E-06,0.007534375
,,,-1.29E-06,0.00768875
,,,-1.28E-06,0.00779
,,,-1.27E-06,0.0077425
,,,-1.26E-06,0.007729375
,,,-1.25E-06,0.00777125
,,,-1.24E-06,0.008078125
,,,-1.23E-06,0.00781375
,,,-1.22E-06,0.007514375
,,,-1.21E-06,0.00773125
,,,-1.2E-06,0.007453125
,,,-1.19E-06,0.007693125
,,,-1.18E-06,0.0077975
,,,-1.17E-06,0.007756875
,,,-1.16E-06,0.007805625
,,,-1.15E-06,0.007985625
,,,-1.14E-06,0.007909375
,,,-1.13E-06,0.007899375
,,,-1.12E-06,0.008151875
,,,-1.11E-06,0.007845625
,,,-1.1E-06,0.007803125
,,,-1.09E-06,0.007789375
,,,-1.08E-06,0.00754375
,,,-1.07E-06,0.00787375
,,,-1.06E-06,0.008068125
,,,-1.05E-06,0.007899375
,,,-1.04E-06,0.007774375
,,,-1.03E-06,0.007913125
,,,-1.02E-06,0.00759125
,,,-1.01E-06,0.00784375
,,,-1E-06,0.00779375
,,,-9.9E-07,0.00756375
,,,-9.8E-07,0.007748125
,,,-9.7E-07,0.00777375
,,,-9.6E-07,0.00782
,,,-9.5E-07,0.007809375
,,,-9.4E-07,0.007788125
,,,-9.3E-07,0.00789
,,,-9.2E-07,0.007700625
,,,-9.1E-07,0.007655625
,,,-9E-07,0.00782375
,,,-8.9E-07,0.0078675
,,,-8.8E-07,0.00798875
,,,-8.7E-07,0.007905625
,,,-8.6E-07,0.00776625
,,,-8.5E-07,0.00794625
,,,-8.4E-07,0.0075525
,,,-8.3E-07,0.007935
,,,-8.2E-07,0.00795
,,,-8.1E-07,0.007524375
,,,-8E-07,0.007909375
,,,-7.9E-07,0.0077475
,,,-7.8E-07,0.007594375
,,,-7.7E-07,0.00792125
,,,-7.6E-07,0.00794
,,,-7.5E-07,0.007718125
,,,-7.4E-07,0.008053125
,,,-7.3E-07,0.00788125
,,,-7.2E-07,0.007819375
,,,-7.1E-07,0.0077525
,,,-7E-07,0.00775375
,,,-6.9E-07,0.007655625
,,,-6.8E-07,0.008075625
,,,-6.7E-07,0.00770875
,,,-6.6E-07,0.007839375
,,,-6.5E-07,0.007491875
,,,-6.4E-07,0.00780875
,,,-6.3E-07,0.00778125
,,,-6.2E-07,0.00771375
,,,-6.1E-07,0.00793875
,,,-6E-07,0.00784875
,,,-5.9E-07,0.00793375
,,,-5.8E-07,0.00777625
,,,-5.7E-07,0.00776125
,,,-5.6E-07,0.007814375
,,,-5.5E-07,0.00751625
,,,-5.4E-07,0.00783625
,,,-5.3E-07,0.007874375
,,,-5.2E-07,0.00776375
,,,-5.1E-07,0.0077125
,,,-5E-07,0.007835625
,,,-4.9E-07,0.007874375
,,,-4.8E-07,0.007775625
,,,-4.7E-07,0.00790875
,,,-4.6E-07,0.0077625
,,,-4.5E-07,0.007705
,,,-4.4E-07,0.007745
,,,-4.3E-07,0.00799125
,,,-4.2E-07,0.007633125
,,,-4.1E-07,0.007689375
,,,-4E-07,0.008021875
,,,-3.9E-07,0.00781
,,,-3.8E-07,0.0077275
,,,-3.7E-07,0.007685625
,,,-3.6E-07,0.007693125
,,,-3.5E-07,0.00772375
,,,-3.4E-07,0.00755125
,,,-3.3E-07,0.007866875
,,,-3.2E-07,0.007939375
,,,-3.1E-07,0.007654375
,,,-3E-07,0.007719375
,,,-2.9E-07,0.007978125
,,,-2.8E-07,0.007686875
,,,-2.7E-07,0.0077675
,,,-2.6E-07,0.0077775
,,,-2.5E-07,0.007710625
,,,-2.4E-07,0.007981875
,,,-2.3E-07,0.00798
,,,-2.2E-07,0.007889375
,,,-2.1E-07,0.007976875
,,,-2E-07,0.007843125
,,,-1.9E-07,0.007879375
,,,-1.8E-07,0.007839375
,,,-1.7E-07,0.007925
,,,-1.6E-07,0.007935
,,,-1.5E-07,0.00795625
,,,-1.4E-07,0.007879375
,,,-1.3E-07,0.008060625
,,,-1.2E-07,0.007844375
,,,-1.1E-07,0.007818125
,,,-1E-07,0.008305625
,,,-9E-08,0.00816875
,,,-8E-08,0.007505625
,,,-7E-08,0.007135625
,,,-6E-08,0.00722875
,,,-5E-08,0.008355
,,,-4E-08,0.00983625
,,,-3E-08,0.008820625
,,,-2E-08,0.00574375
,,,-1E-08,0.004379375
,,,0,0.006294375
,,,1E-08,0.010639375
,,,2E-08,0.0116375
,,,3E-08,0.00992625
,,,4E-08,0.006704375
,,,5E-08,0.0054875
,,,6E-08,0.00535625
,,,7E-08,0.00724125
,,,8E-08,0.00879125
,,,9E-08,0.009755625
,,,1E-07,0.00939375
,,,1.1E-07,0.007965625
,,,1.2E-07,0.00665875
,,,1.3E-07,0.006825
,,,1.4E-07,0.0075
,,,1.5E-07,0.00812625
,,,1.6E-07,0.0081975
,,,1.7E-07,0.0083975
,,,1.8E-07,0.008239375
,,,1.9E-07,0.007894375
,,,2E-07,0.007716875
,,,2.1E-07,0.007714375
,,,2.2E-07,0.007673125
,,,2.3E-07,0.007945
,,,2.4E-07,0.007763125
,,,2.5E-07,0.00785375
,,,2.6E-07,0.0077525
,,,2.7E-07,0.00776
,,,2.8E-07,0.007839375
,,,2.9E-07,0.00779875
,,,3E-07,0.007634375
,,,3.1E-07,0.007906875
,,,3.2E-07,0.007975625
,,,3.3E-07,0.008071875
,,,3.4E-07,0.007795
,,,3.5E-07,0.007636875
,,,3.6E-07,0.007744375
,,,3.7E-07,0.00757375
,,,3.8E-07,0.00783625
,,,3.9E-07,0.007948125
,,,4E-07,0.0078375
,,,4.1E-07,0.00785
,,,4.2E-07,0.00770375
,,,4.3E-07,0.007905625
,,,4.4E-07,0.007730625
,,,4.5E-07,0.007830625
,,,4.6E-07,0.007865
,,,4.7E-07,0.0075775
,,,4.8E-07,0.00779875
,,,4.9E-07,0.00761875
,,,5E-07,0.00806125
,,,5.1E-07,0.007799375
,,,5.2E-07,0.00770125
,,,5.3E-07,0.0078375
,,,5.4E-07,0.0077725
,,,5.5E-07,0.007985625
,,,5.6E-07,0.007819375
,,,5.7E-07,0.00770875
,,,5.8E-07,0.008063125
,,,5.9E-07,0.007695625
,,,6E-07,0.007673125
,,,6.1E-07,0.007880625
,,,6.2E-07,0.007889375
,,,6.3E-07,0.00783875
,,,6.4E-07,0.008165625
,,,6.5E-07,0.007858125
,,,6.6E-07,0.008058125
,,,6.7E-07,0.007615625
,,,6.8E-07,0.0077675
,,,6.9E-07,0.007906875
,,,7E-07,0.00774125
,,,7.1E-07,0.008095625
,,,7.2E-07,0.00784625
,,,7.3E-07,0.007811875
,,,7.4E-07,0.007880625
,,,7.5E-07,0.007766875
,,,7.6E-07,0.0079925
,,,7.7E-07,0.0078025
,,,7.8E-07,0.00772375
,,,7.9E-07,0.00777375
,,,8E-07,0.007871875
,,,8.1E-07,0.00785375
,,,8.2E-07,0.0078675
,,,8.3E-07,0.007680625
,,,8.4E-07,0.007940625
,,,8.5E-07,0.007805
,,,8.6E-07,0.007853125
,,,8.7E-07,0.00753875
,,,8.8E-07,0.00795125
,,,8.9E-07,0.008159375
,,,9E-07,0.007883125
,,,9.1E-07,0.0077275
,,,9.2E-07,0.00761125
,,,9.3E-07,0.0078
,,,9.4E-07,0.007704375
,,,9.5E-07,0.00772875
,,,9.6E-07,0.008016875
,,,9.7E-07,0.007770625
,,,9.8E-07,0.0079075
,,,9.9E-07,0.007814375
,,,1E-06,0.007724375
,,,1.01E-06,0.007900625
,,,1.02E-06,0.008003125
,,,1.03E-06,0.0078275
,,,1.04E-06,0.007889375
,,,1.05E-06,0.007856875
,,,1.06E-06,0.007724375
,,,1.07E-06,0.0075775
,,,1.08E-06,0.007788125
,,,1.09E-06,0.0076275
,,,1.1E-06,0.007744375
,,,1.11E-06,0.007754375
,,,1.12E-06,0.0081075
,,,1.13E-06,0.00790375
,,,1.14E-06,0.00778875
,,,1.15E-06,0.00797
,,,1.16E-06,0.007704375
,,,1.17E-06,0.00783125
,,,1.18E-06,0.007785
,,,1.19E-06,0.007881875
,,,1.2E-06,0.007775625
,,,1.21E-06,0.007915
,,,1.22E-06,0.0076875
,,,1.23E-06,0.007789375
,,,1.24E-06,0.007735625
,,,1.25E-06,0.0078075
,,,1.26E-06,0.0079525
,,,1.27E-06,0.007761875
,,,1.28E-06,0.00787875
,,,1.29E-06,0.008138125
,,,1.3E-06,0.00799875
,,,1.31E-06,0.00760125
,,,1.32E-06,0.007935625
,,,1.33E-06,0.007861875
,,,1.34E-06,0.0078425
,,,1.35E-06,0.00783375
,,,1.36E-06,0.007791875
,,,1.37E-06,0.007879375
,,,1.38E-06,0.007830625
,,,1.39E-06,0.0077325
,,,1.4E-06,0.0079575
,,,1.41E-06,0.007943125
,,,1.42E-06,0.007534375
,,,1.43E-06,0.007748125
,,,1.44E-06,0.007681875
,,,1.45E-06,0.007619375
,,,1.46E-06,0.007774375
,,,1.47E-06,0.00790625
,,,1.48E-06,0.00760875
,,,1.49E-06,0.008035
,,,1.5E-06,0.007699375
,,,1.51E-06,0.0077225
,,,1.52E-06,0.00775375
,,,1.53E-06,0.007938125
,,,1.54E-06,0.00750875
,,,1.55E-06,0.00802
,,,1.56E-06,0.0078525
,,,1.57E-06,0.007795
,,,1.58E-06,0.0077875
,,,1.59E-06,0.0079025
,,,1.6E-06,0.00808625
,,,1.61E-06,0.00794
,,,1.62E-06,0.007894375
,,,1.63E-06,0.007624375
,,,1.64E-06,0.0079425
,,,1.65E-06,0.00773
,,,1.66E-06,0.00776375
,,,1.67E-06,0.007763125
,,,1.68E-06,0.0080275
,,,1.69E-06,0.00790875
,,,1.7E-06,0.00780625
,,,1.71E-06,0.00758875
,,,1.72E-06,0.007955
,,,1.73E-06,0.007635625
,,,1.74E-06,0.007835
,,,1.75E-06,0.00773125
,,,1.76E-06,0.00774
,,,1.77E-06,0.007761875
,,,1.78E-06,0.007965
,,,1.79E-06,0.00761125
,,,1.8E-06,0.00785625
,,,1.81E-06,0.007565
,,,1.82E-06,0.007735
,,,1.83E-06,0.007894375
,,,1.84E-06,0.00771375
,,,1.85E-06,0.008075625
,,,1.86E-06,0.00794875
,,,1.87E-06,0.007976875
,,,1.88E-06,0.0076
,,,1.89E-06,0.0077
,,,1.9E-06,0.007845625
,,,1.91E-06,0.00761
,,,1.92E-06,0.007879375
,,,1.93E-06,0.007488125
,,,1.94E-06,0.00791625
,,,1.95E-06,0.00776
,,,1.96E-06,0.00785375
,,,1.97E-06,0.007674375
,,,1.98E-06,0.00780125
,,,1.99E-06,0.0079025
,,,2E-06,0.007985625
,,,2.01E-06,0.0078575
,,,2.02E-06,0.00791875
,,,2.03E-06,0.00789375
,,,2.04E-06,0.0078525
,,,2.05E-06,0.007689375
,,,2.06E-06,0.00797125
,,,2.07E-06,0.007768125
,,,2.08E-06,0.0077275
,,,2.09E-06,0.007870625
,,,2.1E-06,0.00787125
,,,2.11E-06,0.007860625
,,,2.12E-06,0.007775625
,,,2.13E-06,0.007754375
,,,2.14E-06,0.007805625
,,,2.15E-06,0.0076775
,,,2.16E-06,0.007686875
,,,2.17E-06,0.007828125
,,,2.18E-06,0.00793125
,,,2.19E-06,0.00775875
,,,2.2E-06,0.007933125
,,,2.21E-06,0.007915
,,,2.22E-06,0.00781375
,,,2.23E-06,0.00780875
,,,2.24E-06,0.00786875
,,,2.25E-06,0.0076625
,,,2.26E-06,0.007888125
,,,2.27E-06,0.007699375
,,,2.28E-06,0.007863125
,,,2.29E-06,0.007818125
,,,2.3E-06,0.007661875
,,,2.31E-06,0.007776875
,,,2.32E-06,0.00794
,,,2.33E-06,0.00776375
,,,2.34E-06,0.007875
,,,2.35E-06,0.0077425
,,,2.36E-06,0.00771625
,,,2.37E-06,0.008019375
,,,2.38E-06,0.0077225
,,,2.39E-06,0.00781
,,,2.4E-06,0.007928125
,,,2.41E-06,0.007776875
,,,2.42E-06,0.0079425
,,,2.43E-06,0.0078825
,,,2.44E-06,0.00774875
,,,2.45E-06,0.00778625
,,,2.46E-06,0.007923125
,,,2.47E-06,0.0078225
,,,2.48E-06,0.0078
,,,2.49E-06,0.0078425
,,,2.5E-06,0.007966875
,,,2.51E-06,0.007886875
,,,2.52E-06,0.007585
,,,2.53E-06,0.007690625
,,,2.54E-06,0.007945625
,,,2.55E-06,0.00793625
,,,2.56E-06,0.008123125
,,,2.57E-06,0.007766875
,,,2.58E-06,0.0076675
,,,2.59E-06,0.007945625
,,,2.6E-06,0.007795
,,,2.61E-06,0.007494375
,,,2.62E-06,0.00785125
,,,2.63E-06,0.007923125
,,,2.64E-06,0.007710625
,,,2.65E-06,0.007581875
,,,2.66E-06,0.00784625
,,,2.67E-06,0.007569375
,,,2.68E-06,0.007808125
,,,2.69E-06,0.007820625
,,,2.7E-06,0.008085
,,,2.71E-06,0.007568125
,,,2.72E-06,0.0079375
,,,2.73E-06,0.007804375
,,,2.74E-06,0.00793125
,,,2.75E-06,0.00788875
,,,2.76E-06,0.0078
,,,2.77E-06,0.00796875
,,,2.78E-06,0.007695
,,,2.79E-06,0.00781625
,,,2.8E-06,0.007635
,,,2.81E-06,0.0077725
,,,2.82E-06,0.007700625
,,,2.83E-06,0.00768625
,,,2.84E-06,0.007621875
,,,2.85E-06,0.007765
,,,2.86E-06,0.00775
,,,2.87E-06,0.007894375
,,,2.88E-06,0.007825625
,,,2.89E-06,0.007741875
,,,2.9E-06,0.00778875
,,,2.91E-06,0.007815625
,,,2.92E-06,0.007701875
,,,2.93E-06,0.00774125
,,,2.94E-06,0.007620625
,,,2.95E-06,0.00803125
,,,2.96E-06,0.007871875
,,,2.97E-06,0.0078625
,,,2.98E-06,0.007679375
,,,2.99E-06,0.007630625
,,,3E-06,0.007513125
,,,3.01E-06,0.007723125
,,,3.02E-06,0.007815625
,,,3.03E-06,0.00791125
,,,3.04E-06,0.007959375
,,,3.05E-06,0.007673125
,,,3.06E-06,0.0077275
,,,3.07E-06,0.00772875
,,,3.08E-06,0.0079925
,,,3.09E-06,0.007966875
,,,3.1E-06,0.007671875
,,,3.11E-06,0.007575
,,,3.12E-06,0.007665625
,,,3.13E-06,0.0079075
,,,3.14E-06,0.007801875
,,,3.15E-06,0.007825625
,,,3.16E-06,0.007691875
,,,3.17E-06,0.00781375
,,,3.18E-06,0.007611875
,,,3.19E-06,0.007550625
,,,3.2E-06,0.0079675
,,,3.21E-06,0.007820625
,,,3.22E-06,0.0076825
,,,3.23E-06,0.00775625
,,,3.24E-06,0.0075725
,,,3.25E-06,0.007678125
,,,3.26E-06,0.007891875
,,,3.27E-06,0.007715625
,,,3.28E-06,0.007954375
,,,3.29E-06,0.007783125
,,,3.3E-06,0.007875
,,,3.31E-06,0.0079225
,,,3.32E-06,0.007918125
,,,3.33E-06,0.007863125
,,,3.34E-06,0.007811875
,,,3.35E-06,0.00767125
,,,3.36E-06,0.00786625
,,,3.37E-06,0.0079375
,,,3.38E-06,0.007428125
,,,3.39E-06,0.007825625
,,,3.4E-06,0.007716875
,,,3.41E-06,0.007618125
,,,3.42E-06,0.00758375
,,,3.43E-06,0.0077475
,,,3.44E-06,0.00765625
,,,3.45E-06,0.00767375
,,,3.46E-06,0.0077525
,,,3.47E-06,0.00788
,,,3.48E-06,0.0077
,,,3.49E-06,0.007929375
,,,3.5E-06,0.0076825
,,,3.51E-06,0.00764875
,,,3.52E-06,0.00781125
,,,3.53E-06,0.0078625
,,,3.54E-06,0.00758625
,,,3.55E-06,0.00785375
