data/raw/Final_POL_Test_1/SOP011_Ch1.csv

"Record Length",1000,"Points",-5E-06,0.00729625
"Sample Interval",1E-08,s,-4.99E-06,0.0073275
"Trigger Point",500,"Samples",-4.98E-06,0.007456875
"Trigger Time",0,s,-4.97E-06,0.007383125
"",,,-4.96E-06,0.007600625
"Horizontal Offset",-5E-06,s,-4.95E-06,0.007538125
,,,-4.94E-06,0.00733125
,,,-4.93E-06,0.007491875
,,,-4.92E-06,0.007443125
,,,-4.91E-06,0.0075575
,,,-4.9E-06,0.007585
,,,-4.89E-06,0.007671875
,,,-4.88E-06,0.007559375
,,,-4.87E-06,0.00745625
,,,-4.86E-06,0.007595
,,,-4.85E-06,0.007455
,,,-4.84E-06,0.007496875
,,,-4.83E-06,0.00752625
,,,-4.82E-06,0.007445
,,,-4.81E-06,0.00730625
,,,-4.8E-06,0.007590625
,,,-4.79E-06,0.007403125
,,,-4.78E-06,0.007675
,,,-4.77E-06,0.007150625
,,,-4.76E-06,0.007364375
,,,-4.75E-06,0.007385625
,,,-4.74E-06,0.007234375
,,,-4.73E-06,0.00745625
,,,-4.72E-06,0.007659375
,,,-4.71E-06,0.007239375
,,,-4.7E-06,0.0073
,,,-4.69E-06,0.007421875
,,,-4.68E-06,0.00745
,,,-4.67E-06,0.00742
,,,-4.66E-06,0.00754625
,,,-4.65E-06,0.007366875
,,,-4.64E-06,0.007690625
,,,-4.63E-06,0.007349375
,,,-4.62E-06,0.00748
,,,-4.61E-06,0.00744875
,,,-4.6E-06,0.007390625
,,,-4.59E-06,0.007501875
,,,-4.58E-06,0.007370625
,,,-4.57E-06,0.007539375
,,,-4.56E-06,0.007675
,,,-4.55E-06,0.00753375
,,,-4.54E-06,0.00750625
,,,-4.53E-06,0.007261875
,,,-4.52E-06,0.00759125
,,,-4.51E-06,0.00731
,,,-4.5E-06,0.00735375
,,,-4.49E-06,0.007671875
,,,-4.48E-06,0.007460625
,,,-4.47E-06,0.007291875
,,,-4.46E-06,0.00760375
,,,-4.45E-06,0.0073575
,,,-4.44E-06,0.0074725
,,,-4.43E-06,0.00730625
,,,-4.42E-06,0.0072825
,,,-4.41E-06,0.007768125
,,,-4.4E-06,0.007369375
,,,-4.39E-06,0.00775125
,,,-4.38E-06,0.007351875
,,,-4.37E-06,0.00740125
,,,-4.36E-06,0.007353125
,,,-4.35E-06,0.007435
,,,-4.34E-06,0.007474375
,,,-4.33E-06,0.007269375
,,,-4.32E-06,0.00751375
,,,-4.31E-06,0.00732125
,,,-4.3E-06,0.007468125
,,,-4.29E-06,0.007263125
,,,-4.28E-06,0.007466875
,,,-4.27E-06,0.0075175
,,,-4.26E-06,0.007519375
,,,-4.25E-06,0.007519375
,,,-4.24E-06,0.00761875
,,,-4.23E-06,0.007589375
,,,-4.22E-06,0.007448125
,,,-4.21E-06,0.007605625
,,,-4.2E-06,0.007470625
,,,-4.19E-06,0.00746375
,,,-4.18E-06,0.00733875
,,,-4.17E-06,0.007728125
,,,-4.16E-06,0.00761625
,,,-4.15E-06,0.00738625
,,,-4.14E-06,0.007615625
,,,-4.13E-06,0.00751125
,,,-4.12E-06,0.007559375
,,,-4.11E-06,0.007485
,,,-4.1E-06,0.0075825
,,,-4.09E-06,0.007545625
,,,-4.08E-06,0.00752125
,,,-4.07E-06,0.00748875
,,,-4.06E-06,0.007624375
,,,-4.05E-06,0.00730875
,,,-4.04E-06,0.0073825
,,,-4.03E-06,0.007384375
,,,-4.02E-06,0.007388125
,,,-4.01E-06,0.007506875
,,,-4E-06,0.007454375
,,,-3.99E-06,0.00735625
,,,-3.98E-06,0.007428125
,,,-3.97E-06,0.00762
,,,-3.96E-06,0.007346875
,,,-3.95E-06,0.00749
,,,-3.94E-06,0.00741375
,,,-3.93E-06,0.007376875
,,,-3.92E-06,0.0074075
,,,-3.91E-06,0.0074975
,,,-3.9E-06,0.00759
,,,-3.89E-06,0.007520625
,,,-3.88E-06,0.00746375
,,,-3.87E-06,0.007433125
,,,-3.86E-06,0.00726
,,,-3.85E-06,0.0073175
,,,-3.84E-06,0.00733375
,,,-3.83E-06,0.007450625
,,,-3.82E-06,0.0075025
,,,-3.81E-06,0.007306875
,,,-3.8E-06,0.007495625
,,,-3.79E-06,0.00745125
,,,-3.78E-06,0.007395625
,,,-3.77E-06,0.00745375
,,,-3.76E-06,0.00744125
,,,-3.75E-06,0.00745
,,,-3.74E-06,0.007655625
,,,-3.73E-06,0.007515
,,,-3.72E-06,0.00757625
,,,-3.71E-06,0.00744
,,,-3.7E-06,0.00752
,,,-3.69E-06,0.0075725
,,,-3.68E-06,0.00747
,,,-3.67E-06,0.0074675
,,,-3.66E-06,0.007779375
,,,-3.65E-06,0.007445625
,,,-3.64E-06,0.00741
,,,-3.63E-06,0.007551875
,,,-3.62E-06,0.0077175
,,,-3.61E-06,0.007554375
,,,-3.6E-06,0.007460625
,,,-3.59E-06,0.00736
,,,-3.58E-06,0.00759625
,,,-3.57E-06,0.0075775
,,,-3.56E-06,0.00754375
,,,-3.55E-06,0.007346875
,,,-3.54E-06,0.0072925
,,,-3.53E-06,0.0074425
,,,-3.52E-06,0.007535625
,,,-3.51E-06,0.007564375
,,,-3.5E-06,0.0073975
,,,-3.49E-06,0.00767
,,,-3.48E-06,0.007271875
,,,-3.47E-06,0.00756125
,,,-3.46E-06,0.00741
,,,-3.45E-06,0.00763875
,,,-3.44E-06,0.007235
,,,-3.43E-06,0.0073325
,,,-3.42E-06,0.007430625
,,,-3.41E-06,0.00751375
,,,-3.4E-06,0.007235625
,,,-3.39E-06,0.00763625
,,,-3.38E-06,0.007205
,,,-3.37E-06,0.007524375
,,,-3.36E-06,0.00721375
,,,-3.35E-06,0.007469375
,,,-3.34E-06,0.007361875
,,,-3.33E-06,0.007335625
,,,-3.32E-06,0.007435
,,,-3.31E-06,0.0077625
,,,-3.3E-06,0.007336875
,,,-3.29E-06,0.007635625
,,,-3.28E-06,0.007549375
,,,-3.27E-06,0.00762125
,,,-3.26E-06,0.00725625
,,,-3.25E-06,0.0074275
,,,-3.24E-06,0.007408125
,,,-3.23E-06,0.007426875
,,,-3.22E-06,0.007498125
,,,-3.21E-06,0.007090625
,,,-3.2E-06,0.00744375
,,,-3.19E-06,0.00760875
,,,-3.18E-06,0.00743125
,,,-3.17E-06,0.00739375
,,,-3.16E-06,0.0073625
,,,-3.15E-06,0.007485625
,,,-3.14E-06,0.007583125
,,,-3.13E-06,0.007574375
,,,-3.12E-06,0.007365
,,,-3.11E-06,0.00751
,,,-3.1E-06,0.00767
,,,-3.09E-06,0.007635
,,,-3.08E-06,0.007386875
,,,-3.07E-06,0.007644375
,,,-3.06E-06,0.007519375
,,,-3.05E-06,0.0074375
,,,-3.04E-06,0.0075625
,,,-3.03E-06,0.00722375
,,,-3.02E-06,0.007255
,,,-3.01E-06,0.007268125
,,,-3E-06,0.00747625
,,,-2.99E-06,0.00743
,,,-2.98E-06,0.007859375
,,,-2.97E-06,0.007396875
,,,-2.96E-06,0.007341875
,,,-2.95E-06,0.007499375
,,,-2.94E-06,0.00747
,,,-2.93E-06,0.007303125
,,,-2.92E-06,0.00728875
,,,-2.91E-06,0.007514375
,,,-2.9E-06,0.007595
,,,-2.89E-06,0.00741125
,,,-2.88E-06,0.007315625
,,,-2.87E-06,0.00752125
,,,-2.86E-06,0.007513125
,,,-2.85E-06,0.007499375
,,,-2.84E-06,0.007303125
,,,-2.83E-06,0.007344375
,,,-2.82E-06,0.007478125
,,,-2.81E-06,0.00738625
,,,-2.8E-06,0.00745
,,,-2.79E-06,0.007498125
,,,-2.78E-06,0.00739375
,,,-2.77E-06,0.007395625
,,,-2.76E-06,0.00751
,,,-2.75E-06,0.007355625
,,,-2.74E-06,0.007355
,,,-2.73E-06,0.007465
,,,-2.72E-06,0.00728875
,,,-2.71E-06,0.007239375
,,,-2.7E-06,0.007448125
,,,-2.69E-06,0.0074325
,,,-2.68E-06,0.0075075
,,,-2.67E-06,0.007359375
,,,-2.66E-06,0.0076275
,,,-2.65E-06,0.007443125
,,,-2.64E-06,0.007275
,,,-2.63E-06,0.007483125
,,,-2.62E-06,0.00742125
,,,-2.61E-06,0.007416875
,,,-2.6E-06,0.007615625
,,,-2.59E-06,0.007545
,,,-2.58E-06,0.0074625
,,,-2.57E-06,0.007621875
,,,-2.56E-06,0.007285625
,,,-2.55E-06,0.007341875
,,,-2.54E-06,0.00742625
,,,-2.53E-06,0.007535625
,,,-2.52E-06,0.00736625
,,,-2.51E-06,0.0074775
,,,-2.5E-06,0.007365625
,,,-2.49E-06,0.00758875
,,,-2.48E-06,0.007569375
,,,-2.47E-06,0.007300625
,,,-2.46E-06,0.0073375
,,,-2.45E-06,0.007409375
,,,-2.44E-06,0.007449375
,,,-2.43E-06,0.00739875
,,,-2.42E-06,0.007465625
,,,-2.41E-06,0.007475
,,,-2.4E-06,0.00755625
,,,-2.39E-06,0.00732125
,,,-2.38E-06,0.0074175
,,,-2.37E-06,0.0074425
,,,-2.36E-06,0.00753375
,,,-2.35E-06,0.007496875
,,,-2.34E-06,0.00767125
,,,-2.33E-06,0.0074375
,,,-2.32E-06,0.007564375
,,,-2.31E-06,0.007471875
,,,-2.3E-06,0.00751
,,,-2.29E-06,0.007393125
,,,-2.28E-06,0.007319375
,,,-2.27E-06,0.007405
,,,-2.26E-06,0.00721875
,,,-2.25E-06,0.00740125
,,,-2.24E-06,0.007179375
,,,-2.23E-06,0.00748625
,,,-2.22E-06,0.00734
,,,-2.21E-06,0.007365625
,,,-2.2E-06,0.00756
,,,-2.19E-06,0.00722
,,,-2.18E-06,0.007700625
,,,-2.17E-06,0.00723
,,,-2.16E-06,0.00752
,,,-2.15E-06,0.007368125
,,,-2.14E-06,0.00744125
,,,-2.13E-06,0.00755125
,,,-2.12E-06,0.0075625
,,,-2.11E-06,0.0075325
,,,-2.1E-06,0.00749
,,,-2.09E-06,0.007505625
,,,-2.08E-06,0.007424375
,,,-2.07E-06,0.00728625
,,,-2.06E-06,0.00768625
,,,-2.05E-06,0.007650625
,,,-2.04E-06,0.007508125
,,,-2.03E-06,0.00758375
,,,-2.02E-06,0.00754
,,,-2.01E-06,0.00752625
,,,-2E-06,0.00755875
,,,-1.99E-06,0.007358125
,,,-1.98E-06,0.00737
,,,-1.97E-06,0.00738
,,,-1.96E-06,0.007431875
,,,-1.95E-06,0.007295625
,,,-1.94E-06,0.007395
,,,-1.93E-06,0.00740375
,,,-1.92E-06,0.007416875
,,,-1.91E-06,0.00737125
,,,-1.9E-06,0.007585625
,,,-1.89E-06,0.007328125
,,,-1.88E-06,0.007513125
,,,-1.87E-06,0.007441875
,,,-1.86E-06,0.00722875
,,,-1.85E-06,0.00771875
,,,-1.84E-06,0.007685
,,,-1.83E-06,0.00749
,,,-1.82E-06,0.007384375
,,,-1.81E-06,0.007374375
,,,-1.8E-06,0.007519375
,,,-1.79E-06,0.007305625
,,,-1.78E-06,0.007625625
,,,-1.77E-06,0.0073925
,,,-1.76E-06,0.0074525
,,,-1.75E-06,0.00772125
,,,-1.74E-06,0.00752625
,,,-1.73E-06,0.00759375
,,,-1.72E-06,0.00752375
,,,-1.71E-06,0.007284375
,,,-1.7E-06,0.00777625
,,,-1.69E-06,0.007421875
,,,-1.68E-06,0.007600625
,,,-1.67E-06,0.007534375
,,,-1.66E-06,0.007425625
,,,-1.65E-06,0.0073825
,,,-1.64E-06,0.00747375
,,,-1.63E-06,0.007475625
,,,-1.62E-06,0.00717375
,,,-1.61E-06,0.007410625
,,,-1.6E-06,0.007524375
,,,-1.59E-06,0.007500625
,,,-1.58E-06,0.007399375
,,,-1.57E-06,0.0073975
,,,-1.56E-06,0.007436875
,,,-1.55E-06,0.007248125
,,,-1.54E-06,0.007345
,,,-1.53E-06,0.00724375
,,,-1.52E-06,0.007758125
,,,-1.51E-06,0.007499375
,,,-1.5E-06,0.007609375
,,,-1.49E-06,0.00745
,,,-1.48E-06,0.007655625
,,,-1.47E-06,0.007486875
,,,-1.46E-06,0.00717875
,,,-1.45E-06,0.007296875
,,,-1.44E-06,0.00730375
,,,-1.43E-06,0.007429375
,,,-1.42E-06,0.00742875
,,,-1.41E-06,0.007433125
,,,-1.4E-06,0.007205
,,,-1.39E-06,0.007525
,,,-1.38E-06,0.007426875
,,,-1.37E-06,0.007493125
,,,-1.36E-06,0.007694375
,,,-1.35E-06,0.007516875
,,,-1.34E-06,0.007421875
,,,-1.33E-06,0.007425
,,,-1.32E-06,0.007394375
,,,-1.31E-06,0.007485625
,,,-1.3E-06,0.0076175
,,,-1.29E-06,0.00725625
,,,-1.28E-06,0.00743625
,,,-1.27E-06,0.007533125
,,,-1.26E-06,0.00733875
,,,-1.25E-06,0.007426875
,,,-1.24E-06,0.00752125
,,,-1.23E-06,0.007453125
,,,-1.22E-06,0.0073925
,,,-1.21E-06,0.007445
,,,-1.2E-06,0.00727125
,,,-1.19E-06,0.007475
,,,-1.18E-06,0.007463125
,,,-1.17E-06,0.007583125
,,,-1.16E-06,0.007295
,,,-1.15E-06,0.00746625
,,,-1.14E-06,0.007426875
,,,-1.13E-06,0.00745875
,,,-1.12E-06,0.0073525
,,,-1.11E-06,0.00738625
,,,-1.1E-06,0.007585625
,,,-1.09E-06,0.00737375
,,,-1.08E-06,0.007111875
,,,-1.07E-06,0.00757375
,,,-1.06E-06,0.007455
,,,-1.05E-06,0.00723
,,,-1.04E-06,0.0074525
,,,-1.03E-06,0.00738625
,,,-1.02E-06,0.00750875
,,,-1.01E-06,0.007363125
,,,-1E-06,0.007489375
,,,-9.9E-07,0.00733125
,,,-9.8E-07,0.007403125
,,,-9.7E-07,0.00752875
,,,-9.6E-07,0.007325625
,,,-9.5E-07,0.0072575
,,,-9.4E-07,0.007330625
,,,-9.3E-07,0.00756
,,,-9.2E-07,0.007550625
,,,-9.1E-07,0.00728625
,,,-9E-07,0.0073
,,,-8.9E-07,0.007446875
,,,-8.8E-07,0.007431875
,,,-8.7E-07,0.0076425
,,,-8.6E-07,0.007600625
,,,-8.5E-07,0.00758375
,,,-8.4E-07,0.007306875
,,,-8.3E-07,0.00748375
,,,-8.2E-07,0.0075425
,,,-8.1E-07,0.007456875
,,,-8E-07,0.007485
,,,-7.9E-07,0.007369375
,,,-7.8E-07,0.007298125
,,,-7.7E-07,0.007355
,,,-7.6E-07,0.007595
,,,-7.5E-07,0.007579375
,,,-7.4E-07,0.0075225
,,,-7.3E-07,0.007643125
,,,-7.2E-07,0.007425625
,,,-7.1E-07,0.00749125
,,,-7E-07,0.007381875
,,,-6.9E-07,0.007368125
,,,-6.8E-07,0.0072675
,,,-6.7E-07,0.007565
,,,-6.6E-07,0.0076125
,,,-6.5E-07,0.007686875
,,,-6.4E-07,0.00739125
,,,-6.3E-07,0.007550625
,,,-6.2E-07,0.007443125
,,,-6.1E-07,0.007456875
,,,-6E-07,0.00756
,,,-5.9E-07,0.007516875
,,,-5.8E-07,0.007519375
,,,-5.7E-07,0.00744625
,,,-5.6E-07,0.0075175
,,,-5.5E-07,0.007403125
,,,-5.4E-07,0.007574375
,,,-5.3E-07,0.007485
,,,-5.2E-07,0.00767
,,,-5.1E-07,0.0076025
,,,-5E-07,0.007443125
,,,-4.9E-07,0.00740875
,,,-4.8E-07,0.0073925
,,,-4.7E-07,0.007496875
,,,-4.6E-07,0.00735875
,,,-4.5E-07,0.007424375
,,,-4.4E-07,0.007506875
,,,-4.3E-07,0.00758
,,,-4.2E-07,0.007756875
,,,-4.1E-07,0.007526875
,,,-4E-07,0.007353125
,,,-3.9E-07,0.00724875
,,,-3.8E-07,0.007339375
,,,-3.7E-07,0.007635625
,,,-3.6E-07,0.00747125
,,,-3.5E-07,0.0076775
,,,-3.4E-07,0.0074875
,,,-3.3E-07,0.007378125
,,,-3.2E-07,0.007224375
,,,-3.1E-07,0.0071875
,,,-3E-07,0.0076025
,,,-2.9E-07,0.007246875
,,,-2.8E-07,0.00746375
,,,-2.7E-07,0.007539375
,,,-2.6E-07,0.00756375
,,,-2.5E-07,0.007261875
,,,-2.4E-07,0.00727875
,,,-2.3E-07,0.00739375
,,,-2.2E-07,0.007595
,,,-2.1E-07,0.00755375
,,,-2E-07,0.007538125
,,,-1.9E-07,0.007683125
,,,-1.8E-07,0.007346875
,,,-1.7E-07,0.007539375
,,,-1.6E-07,0.007260625
,,,-1.5E-07,0.0073675
,,,-1.4E-07,0.007355625
,,,-1.3E-07,0.0075375
,,,-1.2E-07,0.00754875
,,,-1.1E-07,0.007509375
,,,-1E-07,0.007581875
,,,-9E-08,0.007450625
,,,-8E-08,0.007384375
,,,-7E-08,0.007586875
,,,-6E-08,0.007493125
,,,-5E-08,0.007445
,,,-4E-08,0.00854875
,,,-3E-08,0.00892
,,,-2E-08,0.005959375
,,,-1E-08,0.0038975
,,,0,0.004175
,,,1E-08,0.009798125
,,,2E-08,0.012250625
,,,3E-08,0.011243125
,,,4E-08,0.006830625
,,,5E-08,0.004553125
,,,6E-08,0.00407
,,,7E-08,0.005921875
,,,8E-08,0.008083125
,,,9E-08,0.0098475
,,,1E-07,0.0096775
,,,1.1E-07,0.008221875
,,,1.2E-07,0.00644
,,,1.3E-07,0.0058175
,,,1.4E-07,0.006745625
,,,1.5E-07,0.007655
,,,1.6E-07,0.008151875
,,,1.7E-07,0.007655625
,,,1.8E-07,0.007415625
,,,1.9E-07,0.00756875
,,,2E-07,0.00733375
,,,2.1E-07,0.00746
,,,2.2E-07,0.007039375
,,,2.3E-07,0.007221875
,,,2.4E-07,0.007549375
,,,2.5E-07,0.0075075
,,,2.6E-07,0.007435625
,,,2.7E-07,0.0074925
,,,2.8E-07,0.007283125
,,,2.9E-07,0.007513125
,,,3E-07,0.007335625
,,,3.1E-07,0.00751875
,,,3.2E-07,0.007615625
,,,3.3E-07,0.0077075
,,,3.4E-07,0.00733875
,,,3.5E-07,0.00748125
,,,3.6E-07,0.00747875
,,,3.7E-07,0.0071775
,,,3.8E-07,0.007410625
,,,3.9E-07,0.007395
,,,4E-07,0.007480625
,,,4.1E-07,0.0075325
,,,4.2E-07,0.00740875
,,,4.3E-07,0.007425625
,,,4.4E-07,0.0074125
,,,4.5E-07,0.00735
,,,4.6E-07,0.007575625
,,,4.7E-07,0.00737125
,,,4.8E-07,0.0074175
,,,4.9E-07,0.007271875
,,,5E-07,0.007566875
,,,5.1E-07,0.00766625
,,,5.2E-07,0.00736375
,,,5.3E-07,0.00758875
,,,5.4E-07,0.00748625
,,,5.5E-07,0.007378125
,,,5.6E-07,0.0074675
,,,5.7E-07,0.007609375
,,,5.8E-07,0.007490625
,,,5.9E-07,0.007416875
,,,6E-07,0.007448125
,,,6.1E-07,0.007361875
,,,6.2E-07,0.007419375
,,,6.3E-07,0.007445625
,,,6.4E-07,0.007410625
,,,6.5E-07,0.007394375
,,,6.6E-07,0.00743
,,,6.7E-07,0.007318125
,,,6.8E-07,0.007503125
,,,6.9E-07,0.007558125
,,,7E-07,0.00732
,,,7.1E-07,0.00725
,,,7.2E-07,0.00753
,,,7.3E-07,0.00763375
,,,7.4E-07,0.007401875
,,,7.5E-07,0.007493125
,,,7.6E-07,0.007355
,,,7.7E-07,0.007575625
,,,7.8E-07,0.00748375
,,,7.9E-07,0.007756875
,,,8E-07,0.007444375
,,,8.1E-07,0.007523125
,,,8.2E-07,0.00761125
,,,8.3E-07,0.0074625
,,,8.4E-07,0.007448125
,,,8.5E-07,0.007295
,,,8.6E-07,0.00758625
,,,8.7E-07,0.007275625
,,,8.8E-07,0.00736125
,,,8.9E-07,0.007534375
,,,9E-07,0.007510625
,,,9.1E-07,0.007505625
,,,9.2E-07,0.0074175
,,,9.3E-07,0.007505625
,,,9.4E-07,0.0074075
,,,9.5E-07,0.007370625
,,,9.6E-07,0.00747375
,,,9.7E-07,0.007680625
,,,9.8E-07,0.00750375
,,,9.9E-07,0.007433125
,,,1E-06,0.0073325
,,,1.01E-06,0.007645
,,,1.02E-06,0.007505625
,,,1.03E-06,0.00751375
,,,1.04E-06,0.00770375
,,,1.05E-06,0.007710625
,,,1.06E-06,0.007593125
,,,1.07E-06,0.007668125
,,,1.08E-06,0.007456875
,,,1.09E-06,0.00739125
,,,1.1E-06,0.007568125
,,,1.11E-06,0.00741
,,,1.12E-06,0.007495625
,,,1.13E-06,0.007431875
,,,1.14E-06,0.0074325
,,,1.15E-06,0.0074775
,,,1.16E-06,0.007589375
,,,1.17E-06,0.007715
,,,1.18E-06,0.0072725
,,,1.19E-06,0.00721
,,,1.2E-06,0.00744375
,,,1.21E-06,0.007505625
,,,1.22E-06,0.00729375
,,,1.23E-06,0.007395625
,,,1.24E-06,0.007631875
,,,1.25E-06,0.00744875
,,,1.26E-06,0.0073975
,,,1.27E-06,0.00752125
,,,1.28E-06,0.00748625
,,,1.29E-06,0.00740625
,,,1.3E-06,0.00752625
,,,1.31E-06,0.0073175
,,,1.32E-06,0.007418125
,,,1.33E-06,0.0073225
,,,1.34E-06,0.007535
,,,1.35E-06,0.007658125
,,,1.36E-06,0.007321875
,,,1.37E-06,0.00742375
,,,1.38E-06,0.007500625
,,,1.39E-06,0.007535625
,,,1.4E-06,0.007275625
,,,1.41E-06,0.00761875
,,,1.42E-06,0.007633125
,,,1.43E-06,0.00728625
,,,1.44E-06,0.007424375
,,,1.45E-06,0.00728625
,,,1.46E-06,0.0075925
,,,1.47E-06,0.00743375
,,,1.48E-06,0.007515625
,,,1.49E-06,0.00743875
,,,1.5E-06,0.007583125
,,,1.51E-06,0.00744875
,,,1.52E-06,0.007345625
,,,1.53E-06,0.007574375
,,,1.54E-06,0.007425625
,,,1.55E-06,0.0077
,,,1.56E-06,0.007391875
,,,1.57E-06,0.0073125
,,,1.58E-06,0.00738125
,,,1.59E-06,0.0074225
,,,1.6E-06,0.00747125
,,,1.61E-06,0.00742375
,,,1.62E-06,0.00739875
,,,1.63E-06,0.007275625
,,,1.64E-06,0.00742125
,,,1.65E-06,0.007479375
,,,1.66E-06,0.007465625
,,,1.67E-06,0.007584375
,,,1.68E-06,0.0073175
,,,1.69E-06,0.007415
,,,1.7E-06,0.00727625
,,,1.71E-06,0.007623125
,,,1.72E-06,0.00733125
,,,1.73E-06,0.00746875
,,,1.74E-06,0.00743875
,,,1.75E-06,0.00751625
,,,1.76E-06,0.007288125
,,,1.77E-06,0.00734375
,,,1.78E-06,0.007410625
,,,1.79E-06,0.007434375
,,,1.8E-06,0.007315625
,,,1.81E-06,0.007609375
,,,1.82E-06,0.007409375
,,,1.83E-06,0.00751875
,,,1.84E-06,0.007385
,,,1.85E-06,0.0074225
,,,1.86E-06,0.007439375
,,,1.87E-06,0.007520625
,,,1.88E-06,0.007695625
,,,1.89E-06,0.007331875
,,,1.9E-06,0.00746375
,,,1.91E-06,0.007391875
,,,1.92E-06,0.007660625
,,,1.93E-06,0.00748375
,,,1.94E-06,0.007445625
,,,1.95E-06,0.00746
,,,1.96E-06,0.007478125
,,,1.97E-06,0.007570625
,,,1.98E-06,0.0075175
,,,1.99E-06,0.00751
,,,2E-06,0.00745625
,,,2.01E-06,0.00733125
,,,2.02E-06,0.007565625
,,,2.03E-06,0.007511875
,,,2.04E-06,0.007555625
,,,2.05E-06,0.00745875
,,,2.06E-06,0.00737375
,,,2.07E-06,0.00734875
,,,2.08E-06,0.00757625
,,,2.09E-06,0.00743375
,,,2.1E-06,0.007475
,,,2.11E-06,0.007519375
,,,2.12E-06,0.0072825
,,,2.13E-06,0.0074575
,,,2.14E-06,0.0073775
,,,2.15E-06,0.00765125
,,,2.16E-06,0.00759375
,,,2.17E-06,0.0075675
,,,2.18E-06,0.007254375
,,,2.19E-06,0.00743875
,,,2.2E-06,0.00759375
,,,2.21E-06,0.007729375
,,,2.22E-06,0.007605625
,,,2.23E-06,0.00747625
,,,2.24E-06,0.00722125
,,,2.25E-06,0.00764625
,,,2.26E-06,0.00734125
,,,2.27E-06,0.0073425
,,,2.28E-06,0.007433125
,,,2.29E-06,0.007501875
,,,2.3E-06,0.007671875
,,,2.31E-06,0.007526875
,,,2.32E-06,0.007490625
,,,2.33E-06,0.0074025
,,,2.34E-06,0.00764375
,,,2.35E-06,0.007221875
,,,2.36E-06,0.007328125
,,,2.37E-06,0.00737375
,,,2.38E-06,0.007490625
,,,2.39E-06,0.007536875
,,,2.4E-06,0.00740375
,,,2.41E-06,0.007388125
,,,2.42E-06,0.007561875
,,,2.43E-06,0.007515625
,,,2.44E-06,0.007376875
,,,2.45E-06,0.007168125
,,,2.46E-06,0.00742375
,,,2.47E-06,0.007511875
,,,2.48E-06,0.00763125
,,,2.49E-06,0.0074025
,,,2.5E-06,0.00742
,,,2.51E-06,0.007603125
,,,2.52E-06,0.007476875
,,,2.53E-06,0.00725125
,,,2.54E-06,0.007523125
,,,2.55E-06,0.007520625
,,,2.56E-06,0.00751875
,,,2.57E-06,0.007543125
,,,2.58E-06,0.007468125
,,,2.59E-06,0.0075425
,,,2.6E-06,0.007385625
,,,2.61E-06,0.00761625
,,,2.62E-06,0.007355
,,,2.63E-06,0.007598125
,,,2.64E-06,0.007664375
,,,2.65E-06,0.007506875
,,,2.66E-06,0.007374375
,,,2.67E-06,0.007445
,,,2.68E-06,0.007515625
,,,2.69E-06,0.00733625
,,,2.7E-06,0.00735375
,,,2.71E-06,0.00734375
,,,2.72E-06,0.00733125
,,,2.73E-06,0.00732
,,,2.74E-06,0.0075925
,,,2.75E-06,0.007289375
,,,2.76E-06,0.007304375
,,,2.77E-06,0.007438125
,,,2.78E-06,0.00741
,,,2.79E-06,0.0075425
,,,2.8E-06,0.007256875
,,,2.81E-06,0.00716875
,,,2.82E-06,0.0074925
,,,2.83E-06,0.007609375
,,,2.84E-06,0.007386875
,,,2.85E-06,0.0076175
,,,2.86E-06,0.00731875
,,,2.87E-06,0.00755875
,,,2.88E-06,0.007591875
,,,2.89E-06,0.007555
,,,2.9E-06,0.007425625
,,,2.91E-06,0.007476875
,,,2.92E-06,0.00728375
,,,2.93E-06,0.007264375
,,,2.94E-06,0.007550625
,,,2.95E-06,0.007311875
,,,2.96E-06,0.007375
,,,2.97E-06,0.007309375
,,,2.98E-06,0.0074625
,,,2.99E-06,0.007551875
,,,3E-06,0.007540625
,,,3.01E-06,0.007403125
,,,3.02E-06,0.007488125
,,,3.03E-06,0.007576875
,,,3.04E-06,0.00762625
,,,3.05E-06,0.007304375
,,,3.06E-06,0.0076625
,,,3.07E-06,0.007725625
,,,3.08E-06,0.00738375
,,,3.09E-06,0.007534375
,,,3.1E-06,0.007274375
,,,3.11E-06,0.00762125
,,,3.12E-06,0.007665625
,,,3.13E-06,0.007460625
,,,3.14E-06,0.007350625
,,,3.15E-06,0.00771875
,,,3.16E-06,0.00755375
,,,3.17E-06,0.00721375
,,,3.18E-06,0.00723875
,,,3.19E-06,0.007466875
,,,3.2E-06,0.007491875
,,,3.21E-06,0.007651875
,,,3.22E-06,0.007535625
,,,3.23E-06,0.00748875
,,,3.24E-06,0.007276875
,,,3.25E-06,0.0074
,,,3.26E-06,0.00736125
,,,3.27E-06,0.0072825
,,,3.28E-06,0.007396875
,,,3.29E-06,0.007501875
,,,3.3E-06,0.007451875
,,,3.31E-06,0.007398125
,,,3.32E-06,0.007518125
,,,3.33E-06,0.0075175
,,,3.34E-06,0.0073
,,,3.35E-06,0.007451875
,,,3.36E-06,0.007358125
,,,3.37E-06,0.00749
,,,3.38E-06,0.007479375
,,,3.39E-06,0.007710625
,,,3.4E-06,0.007545625
,,,3.41E-06,0.00739375
,,,3.42E-06,0.0073825
,,,3.43E-06,0.0077225
,,,3.44E-06,0.007514375
,,,3.45E-06,0.0076425
,,,3.46E-06,0.00764625
,,,3.47E-06,0.007383125
,,,3.48E-06,0.007373125
,,,3.49E-06,0.007285625
,,,3.5E-06,0.00753375
,,,3.51E-06,0.007435
,,,3.52E-06,0.00735125
,,,3.53E-06,0.007429375
,,,3.54E-06,0.007324375
,,,3.55E-06,0.00748375
,,,3.56E-06,0.007385
