data/raw/Final_POL_Test_1/SOP090_Ch2.csv

"Record Length",1000,"Points",-5E-06,0.02328625
"Sample Interval",1E-08,s,-4.99E-06,0.0236175
"Trigger Point",500,"Samples",-4.98E-06,0.023208125
"Trigger Time",0,s,-4.97E-06,0.023101875
"",,,-4.96E-06,0.02343625
"Horizontal Offset",-5E-06,s,-4.95E-06,0.023533125
,,,-4.94E-06,0.0233325
,,,-4.93E-06,0.023480625
,,,-4.92E-06,0.02328125
,,,-4.91E-06,0.0236525
,,,-4.9E-06,0.023481875
,,,-4.89E-06,0.02352875
,,,-4.88E-06,0.023439375
,,,-4.87E-06,0.023296875
,,,-4.86E-06,0.023146875
,,,-4.85E-06,0.023474375
,,,-4.84E-06,0.02355875
,,,-4.83E-06,0.02357
,,,-4.82E-06,0.023190625
,,,-4.81E-06,0.023758125
,,,-4.8E-06,0.02348625
,,,-4.79E-06,0.0234
,,,-4.78E-06,0.023305
,,,-4.77E-06,0.02322625
,,,-4.76E-06,0.023529375
,,,-4.75E-06,0.023411875
,,,-4.74E-06,0.023400625
,,,-4.73E-06,0.023451875
,,,-4.72E-06,0.02356125
,,,-4.71E-06,0.023051875
,,,-4.7E-06,0.023610625
,,,-4.69E-06,0.0235
,,,-4.68E-06,0.0237075
,,,-4.67E-06,0.023453125
,,,-4.66E-06,0.02341875
,,,-4.65E-06,0.02351875
,,,-4.64E-06,0.023324375
,,,-4.63E-06,0.023341875
,,,-4.62E-06,0.02328875
,,,-4.61E-06,0.023421875
,,,-4.6E-06,0.023471875
,,,-4.59E-06,0.02317125
,,,-4.58E-06,0.023455625
,,,-4.57E-06,0.023325
,,,-4.56E-06,0.023435
,,,-4.55E-06,0.0238
,,,-4.54E-06,0.02352375
,,,-4.53E-06,0.0236125
,,,-4.52E-06,0.023466875
,,,-4.51E-06,0.023321875
,,,-4.5E-06,0.023655625
,,,-4.49E-06,0.023499375
,,,-4.48E-06,0.02357625
,,,-4.47E-06,0.023573125
,,,-4.46E-06,0.023488125
,,,-4.45E-06,0.0234725
,,,-4.44E-06,0.023469375
,,,-4.43E-06,0.0233575
,,,-4.42E-06,0.023410625
,,,-4.41E-06,0.02362625
,,,-4.4E-06,0.02351875
,,,-4.39E-06,0.02342875
,,,-4.38E-06,0.023503125
,,,-4.37E-06,0.0235
,,,-4.36E-06,0.0231775
,,,-4.35E-06,0.023175625
,,,-4.34E-06,0.0233075
,,,-4.33E-06,0.02346625
,,,-4.32E-06,0.02357125
,,,-4.31E-06,0.023375625
,,,-4.3E-06,0.02315875
,,,-4.29E-06,0.02349125
,,,-4.28E-06,0.023390625
,,,-4.27E-06,0.023285625
,,,-4.26E-06,0.023165
,,,-4.25E-06,0.023321875
,,,-4.24E-06,0.023378125
,,,-4.23E-06,0.02355375
,,,-4.22E-06,0.023563125
,,,-4.21E-06,0.0233425
,,,-4.2E-06,0.02343375
,,,-4.19E-06,0.02349
,,,-4.18E-06,0.0234
,,,-4.17E-06,0.02358
,,,-4.16E-06,0.023596875
,,,-4.15E-06,0.023165625
,,,-4.14E-06,0.023529375
,,,-4.13E-06,0.023585
,,,-4.12E-06,0.023444375
,,,-4.11E-06,0.023654375
,,,-4.1E-06,0.02341125
,,,-4.09E-06,0.02342
,,,-4.08E-06,0.023248125
,,,-4.07E-06,0.023225
,,,-4.06E-06,0.02337
,,,-4.05E-06,0.0233625
,,,-4.04E-06,0.023294375
,,,-4.03E-06,0.0231475
,,,-4.02E-06,0.023055
,,,-4.01E-06,0.02374375
,,,-4E-06,0.02352375
,,,-3.99E-06,0.02358125
,,,-3.98E-06,0.023495
,,,-3.97E-06,0.02346125
,,,-3.96E-06,0.023655
,,,-3.95E-06,0.023280625
,,,-3.94E-06,0.0234975
,,,-3.93E-06,0.02339125
,,,-3.92E-06,0.023283125
,,,-3.91E-06,0.0236875
,,,-3.9E-06,0.023474375
,,,-3.89E-06,0.0237825
,,,-3.88E-06,0.023515
,,,-3.87E-06,0.023275
,,,-3.86E-06,0.0234775
,,,-3.85E-06,0.023256875
,,,-3.84E-06,0.02349
,,,-3.83E-06,0.023458125
,,,-3.82E-06,0.023336875
,,,-3.81E-06,0.023460625
,,,-3.8E-06,0.023263125
,,,-3.79E-06,0.02370625
,,,-3.78E-06,0.023268125
,,,-3.77E-06,0.02360875
,,,-3.76E-06,0.023228125
,,,-3.75E-06,0.023473125
,,,-3.74E-06,0.023335
,,,-3.73E-06,0.02351
,,,-3.72E-06,0.023371875
,,,-3.71E-06,0.023443125
,,,-3.7E-06,0.02367
,,,-3.69E-06,0.023438125
,,,-3.68E-06,0.02339
,,,-3.67E-06,0.023345625
,,,-3.66E-06,0.02352125
,,,-3.65E-06,0.02369125
,,,-3.64E-06,0.02331625
,,,-3.63E-06,0.023415625
,,,-3.62E-06,0.023488125
,,,-3.61E-06,0.02354125
,,,-3.6E-06,0.023359375
,,,-3.59E-06,0.0233125
,,,-3.58E-06,0.02347875
,,,-3.57E-06,0.023514375
,,,-3.56E-06,0.023431875
,,,-3.55E-06,0.02334625
,,,-3.54E-06,0.023315625
,,,-3.53E-06,0.023306875
,,,-3.52E-06,0.023496875
,,,-3.51E-06,0.023285625
,,,-3.5E-06,0.023429375
,,,-3.49E-06,0.023513125
,,,-3.48E-06,0.023485
,,,-3.47E-06,0.023716875
,,,-3.46E-06,0.023760625
,,,-3.45E-06,0.023301875
,,,-3.44E-06,0.023444375
,,,-3.43E-06,0.0233725
,,,-3.42E-06,0.02337625
,,,-3.41E-06,0.02355625
,,,-3.4E-06,0.023213125
,,,-3.39E-06,0.02338
,,,-3.38E-06,0.023484375
,,,-3.37E-06,0.02354625
,,,-3.36E-06,0.02336125
,,,-3.35E-06,0.0234375
,,,-3.34E-06,0.02342
,,,-3.33E-06,0.023366875
,,,-3.32E-06,0.023274375
,,,-3.31E-06,0.02349375
,,,-3.3E-06,0.02363375
,,,-3.29E-06,0.02332375
,,,-3.28E-06,0.023411875
,,,-3.27E-06,0.0233575
,,,-3.26E-06,0.02355125
,,,-3.25E-06,0.02335
,,,-3.24E-06,0.02320875
,,,-3.23E-06,0.023550625
,,,-3.22E-06,0.0235275
,,,-3.21E-06,0.0234125
,,,-3.2E-06,0.023543125
,,,-3.19E-06,0.02339375
,,,-3.18E-06,0.023575625
,,,-3.17E-06,0.023539375
,,,-3.16E-06,0.023306875
,,,-3.15E-06,0.02356625
,,,-3.14E-06,0.023243125
,,,-3.13E-06,0.0234
,,,-3.12E-06,0.023210625
,,,-3.11E-06,0.023639375
,,,-3.1E-06,0.023393125
,,,-3.09E-06,0.0233075
,,,-3.08E-06,0.023388125
,,,-3.07E-06,0.0238225
,,,-3.06E-06,0.02340875
,,,-3.05E-06,0.023421875
,,,-3.04E-06,0.023395625
,,,-3.03E-06,0.02342625
,,,-3.02E-06,0.023261875
,,,-3.01E-06,0.023726875
,,,-3E-06,0.02353625
,,,-2.99E-06,0.02351375
,,,-2.98E-06,0.023311875
,,,-2.97E-06,0.02334375
,,,-2.96E-06,0.0233075
,,,-2.95E-06,0.023291875
,,,-2.94E-06,0.023766875
,,,-2.93E-06,0.023516875
,,,-2.92E-06,0.023380625
,,,-2.91E-06,0.02352375
,,,-2.9E-06,0.023440625
,,,-2.89E-06,0.023455625
,,,-2.88E-06,0.023668125
,,,-2.87E-06,0.02352
,,,-2.86E-06,0.0235
,,,-2.85E-06,0.023230625
,,,-2.84E-06,0.0233525
,,,-2.83E-06,0.02351625
,,,-2.82E-06,0.023519375
,,,-2.81E-06,0.0234825
,,,-2.8E-06,0.023495
,,,-2.79E-06,0.023428125
,,,-2.78E-06,0.023628125
,,,-2.77E-06,0.023351875
,,,-2.76E-06,0.0234725
,,,-2.75E-06,0.023588125
,,,-2.74E-06,0.023733125
,,,-2.73E-06,0.02327125
,,,-2.72E-06,0.023596875
,,,-2.71E-06,0.023299375
,,,-2.7E-06,0.023421875
,,,-2.69E-06,0.02336
,,,-2.68E-06,0.023441875
,,,-2.67E-06,0.023391875
,,,-2.66E-06,0.023625
,,,-2.65E-06,0.023440625
,,,-2.64E-06,0.0232
,,,-2.63E-06,0.023399375
,,,-2.62E-06,0.02335375
,,,-2.61E-06,0.023545625
,,,-2.6E-06,0.023473125
,,,-2.59E-06,0.023350625
,,,-2.58E-06,0.023445
,,,-2.57E-06,0.023573125
,,,-2.56E-06,0.02324125
,,,-2.55E-06,0.023669375
,,,-2.54E-06,0.023450625
,,,-2.53E-06,0.023168125
,,,-2.52E-06,0.0232475
,,,-2.51E-06,0.023381875
,,,-2.5E-06,0.02327125
,,,-2.49E-06,0.023529375
,,,-2.48E-06,0.02335
,,,-2.47E-06,0.023591875
,,,-2.46E-06,0.023551875
,,,-2.45E-06,0.023634375
,,,-2.44E-06,0.023615
,,,-2.43E-06,0.02355
,,,-2.42E-06,0.023375
,,,-2.41E-06,0.023664375
,,,-2.4E-06,0.0232525
,,,-2.39E-06,0.023236875
,,,-2.38E-06,0.023269375
,,,-2.37E-06,0.02336875
,,,-2.36E-06,0.023419375
,,,-2.35E-06,0.023754375
,,,-2.34E-06,0.023306875
,,,-2.33E-06,0.0234275
,,,-2.32E-06,0.0234075
,,,-2.31E-06,0.02341
,,,-2.3E-06,0.0234975
,,,-2.29E-06,0.023551875
,,,-2.28E-06,0.02339
,,,-2.27E-06,0.0235225
,,,-2.26E-06,0.023475
,,,-2.25E-06,0.023504375
,,,-2.24E-06,0.02338
,,,-2.23E-06,0.023459375
,,,-2.22E-06,0.02345625
,,,-2.21E-06,0.02338125
,,,-2.2E-06,0.0233875
,,,-2.19E-06,0.0238075
,,,-2.18E-06,0.023278125
,,,-2.17E-06,0.02353
,,,-2.16E-06,0.0232875
,,,-2.15E-06,0.023200625
,,,-2.14E-06,0.0234425
,,,-2.13E-06,0.02332
,,,-2.12E-06,0.02358
,,,-2.11E-06,0.023596875
,,,-2.1E-06,0.023505
,,,-2.09E-06,0.023483125
,,,-2.08E-06,0.023544375
,,,-2.07E-06,0.023511875
,,,-2.06E-06,0.0234925
,,,-2.05E-06,0.023275625
,,,-2.04E-06,0.023309375
,,,-2.03E-06,0.023163125
,,,-2.02E-06,0.0236475
,,,-2.01E-06,0.023515
,,,-2E-06,0.023323125
,,,-1.99E-06,0.023353125
,,,-1.98E-06,0.0232725
,,,-1.97E-06,0.023425625
,,,-1.96E-06,0.023793125
,,,-1.95E-06,0.023446875
,,,-1.94E-06,0.0235025
,,,-1.93E-06,0.02344625
,,,-1.92E-06,0.023488125
,,,-1.91E-06,0.023496875
,,,-1.9E-06,0.023441875
,,,-1.89E-06,0.023466875
,,,-1.88E-06,0.02332875
,,,-1.87E-06,0.02339625
,,,-1.86E-06,0.02330375
,,,-1.85E-06,0.023599375
,,,-1.84E-06,0.0233125
,,,-1.83E-06,0.0235
,,,-1.82E-06,0.02354875
,,,-1.81E-06,0.023495625
,,,-1.8E-06,0.0232975
,,,-1.79E-06,0.023156875
,,,-1.78E-06,0.023605625
,,,-1.77E-06,0.023785
,,,-1.76E-06,0.0234225
,,,-1.75E-06,0.0236825
,,,-1.74E-06,0.023250625
,,,-1.73E-06,0.02350875
,,,-1.72E-06,0.02347125
,,,-1.71E-06,0.023375
,,,-1.7E-06,0.0233575
,,,-1.69E-06,0.02350375
,,,-1.68E-06,0.023530625
,,,-1.67E-06,0.02333875
,,,-1.66E-06,0.02349125
,,,-1.65E-06,0.02335875
,,,-1.64E-06,0.023604375
,,,-1.63E-06,0.02367875
,,,-1.62E-06,0.023308125
,,,-1.61E-06,0.02358
,,,-1.6E-06,0.023678125
,,,-1.59E-06,0.02354
,,,-1.58E-06,0.023634375
,,,-1.57E-06,0.02329375
,,,-1.56E-06,0.02354875
,,,-1.55E-06,0.023379375
,,,-1.54E-06,0.023244375
,,,-1.53E-06,0.023365625
,,,-1.52E-06,0.023476875
,,,-1.51E-06,0.023465625
,,,-1.5E-06,0.0233725
,,,-1.49E-06,0.02334125
,,,-1.48E-06,0.02345625
,,,-1.47E-06,0.023629375
,,,-1.46E-06,0.0233325
,,,-1.45E-06,0.023064375
,,,-1.44E-06,0.023518125
,,,-1.43E-06,0.023528125
,,,-1.42E-06,0.023514375
,,,-1.41E-06,0.023730625
,,,-1.4E-06,0.023228125
,,,-1.39E-06,0.023415
,,,-1.38E-06,0.023301875
,,,-1.37E-06,0.0233075
,,,-1.36E-06,0.023415
,,,-1.35E-06,0.023383125
,,,-1.34E-06,0.023474375
,,,-1.33E-06,0.02350625
,,,-1.32E-06,0.0233625
,,,-1.31E-06,0.023421875
,,,-1.3E-06,0.02312125
,,,-1.29E-06,0.023628125
,,,-1.28E-06,0.023464375
,,,-1.27E-06,0.0233525
,,,-1.26E-06,0.02338375
,,,-1.25E-06,0.02371625
,,,-1.24E-06,0.023709375
,,,-1.23E-06,0.02338125
,,,-1.22E-06,0.023428125
,,,-1.21E-06,0.023490625
,,,-1.2E-06,0.023521875
,,,-1.19E-06,0.02345375
,,,-1.18E-06,0.02339625
,,,-1.17E-06,0.02333625
,,,-1.16E-06,0.023275625
,,,-1.15E-06,0.02357625
,,,-1.14E-06,0.023496875
,,,-1.13E-06,0.0232325
,,,-1.12E-06,0.0233125
,,,-1.11E-06,0.023299375
,,,-1.1E-06,0.02369
,,,-1.09E-06,0.02348
,,,-1.08E-06,0.023376875
,,,-1.07E-06,0.023295625
,,,-1.06E-06,0.023476875
,,,-1.05E-06,0.023520625
,,,-1.04E-06,0.023518125
,,,-1.03E-06,0.023824375
,,,-1.02E-06,0.023355
,,,-1.01E-06,0.023403125
,,,-1E-06,0.0235325
,,,-9.9E-07,0.02341375
,,,-9.8E-07,0.023318125
,,,-9.7E-07,0.0234025
,,,-9.6E-07,0.023601875
,,,-9.5E-07,0.023439375
,,,-9.4E-07,0.023491875
,,,-9.3E-07,0.02363875
,,,-9.2E-07,0.023466875
,,,-9.1E-07,0.02342
,,,-9E-07,0.02346625
,,,-8.9E-07,0.02334375
,,,-8.8E-07,0.023581875
,,,-8.7E-07,0.0234275
,,,-8.6E-07,0.023279375
,,,-8.5E-07,0.02333125
,,,-8.4E-07,0.023580625
,,,-8.3E-07,0.02354
,,,-8.2E-07,0.023475625
,,,-8.1E-07,0.02327875
,,,-8E-07,0.023403125
,,,-7.9E-07,0.023456875
,,,-7.8E-07,0.02357125
,,,-7.7E-07,0.02364875
,,,-7.6E-07,0.02365625
,,,-7.5E-07,0.023630625
,,,-7.4E-07,0.023520625
,,,-7.3E-07,0.023194375
,,,-7.2E-07,0.02324875
,,,-7.1E-07,0.023251875
,,,-7E-07,0.02338625
,,,-6.9E-07,0.02337
,,,-6.8E-07,0.02368125
,,,-6.7E-07,0.02307
,,,-6.6E-07,0.023335625
,,,-6.5E-07,0.023525625
,,,-6.4E-07,0.02340125
,,,-6.3E-07,0.0234025
,,,-6.2E-07,0.023284375
,,,-6.1E-07,0.02349
,,,-6E-07,0.0234875
,,,-5.9E-07,0.023530625
,,,-5.8E-07,0.023284375
,,,-5.7E-07,0.023769375
,,,-5.6E-07,0.023268125
,,,-5.5E-07,0.02335375
,,,-5.4E-07,0.023586875
,,,-5.3E-07,0.02346875
,,,-5.2E-07,0.02347125
,,,-5.1E-07,0.02344625
,,,-5E-07,0.02365375
,,,-4.9E-07,0.023423125
,,,-4.8E-07,0.02363125
,,,-4.7E-07,0.02349625
,,,-4.6E-07,0.023365
,,,-4.5E-07,0.023401875
,,,-4.4E-07,0.023305625
,,,-4.3E-07,0.02356
,,,-4.2E-07,0.023431875
,,,-4.1E-07,0.02335875
,,,-4E-07,0.02343625
,,,-3.9E-07,0.02360125
,,,-3.8E-07,0.023601875
,,,-3.7E-07,0.0235925
,,,-3.6E-07,0.02322875
,,,-3.5E-07,0.02341875
,,,-3.4E-07,0.02329875
,,,-3.3E-07,0.02350625
,,,-3.2E-07,0.023510625
,,,-3.1E-07,0.0234125
,,,-3E-07,0.023289375
,,,-2.9E-07,0.023483125
,,,-2.8E-07,0.023461875
,,,-2.7E-07,0.023561875
,,,-2.6E-07,0.023563125
,,,-2.5E-07,0.023296875
,,,-2.4E-07,0.023363125
,,,-2.3E-07,0.023300625
,,,-2.2E-07,0.0234725
,,,-2.1E-07,0.02354
,,,-2E-07,0.02346625
,,,-1.9E-07,0.023388125
,,,-1.8E-07,0.0233975
,,,-1.7E-07,0.023460625
,,,-1.6E-07,0.02357125
,,,-1.5E-07,0.023360625
,,,-1.4E-07,0.02338375
,,,-1.3E-07,0.023180625
,,,-1.2E-07,0.0233375
,,,-1.1E-07,0.023489375
,,,-1E-07,0.023256875
,,,-9E-08,0.0234525
,,,-8E-08,0.0232575
,,,-7E-08,0.02345
,,,-6E-08,0.023290625
,,,-5E-08,0.02382
,,,-4E-08,0.02413375
,,,-3E-08,0.024408125
,,,-2E-08,0.0223275
,,,-1E-08,0.020130625
,,,0,0.020525
,,,1E-08,0.025384375
,,,2E-08,0.02786625
,,,3E-08,0.026964375
,,,4E-08,0.023115
,,,5E-08,0.0207275
,,,6E-08,0.019935
,,,7E-08,0.021895625
,,,8E-08,0.02435375
,,,9E-08,0.025550625
,,,1E-07,0.025536875
,,,1.1E-07,0.024038125
,,,1.2E-07,0.022815
,,,1.3E-07,0.021948125
,,,1.4E-07,0.022538125
,,,1.5E-07,0.023651875
,,,1.6E-07,0.024014375
,,,1.7E-07,0.023689375
,,,1.8E-07,0.02371
,,,1.9E-07,0.023569375
,,,2E-07,0.02343625
,,,2.1E-07,0.0231775
,,,2.2E-07,0.02312875
,,,2.3E-07,0.02358625
,,,2.4E-07,0.023400625
,,,2.5E-07,0.023625
,,,2.6E-07,0.023434375
,,,2.7E-07,0.0236325
,,,2.8E-07,0.0234525
,,,2.9E-07,0.023331875
,,,3E-07,0.023315625
,,,3.1E-07,0.023425625
,,,3.2E-07,0.02335375
,,,3.3E-07,0.023581875
,,,3.4E-07,0.023594375
,,,3.5E-07,0.023641875
,,,3.6E-07,0.0234875
,,,3.7E-07,0.0236225
,,,3.8E-07,0.02364
,,,3.9E-07,0.023370625
,,,4E-07,0.023321875
,,,4.1E-07,0.02348375
,,,4.2E-07,0.023470625
,,,4.3E-07,0.0233375
,,,4.4E-07,0.0234125
,,,4.5E-07,0.02351
,,,4.6E-07,0.02360125
,,,4.7E-07,0.0234575
,,,4.8E-07,0.023285625
,,,4.9E-07,0.02330375
,,,5E-07,0.0235375
,,,5.1E-07,0.02339625
,,,5.2E-07,0.02340875
,,,5.3E-07,0.023463125
,,,5.4E-07,0.02348625
,,,5.5E-07,0.023010625
,,,5.6E-07,0.023273125
,,,5.7E-07,0.023525625
,,,5.8E-07,0.023591875
,,,5.9E-07,0.023430625
,,,6E-07,0.02326625
,,,6.1E-07,0.02328625
,,,6.2E-07,0.02351
,,,6.3E-07,0.02338875
,,,6.4E-07,0.023525625
,,,6.5E-07,0.023708125
,,,6.6E-07,0.023440625
,,,6.7E-07,0.023690625
,,,6.8E-07,0.023430625
,,,6.9E-07,0.023289375
,,,7E-07,0.02358375
,,,7.1E-07,0.02338875
,,,7.2E-07,0.023395
,,,7.3E-07,0.02328875
,,,7.4E-07,0.02334
,,,7.5E-07,0.023514375
,,,7.6E-07,0.023394375
,,,7.7E-07,0.02346375
,,,7.8E-07,0.023551875
,,,7.9E-07,0.02347
,,,8E-07,0.02329125
,,,8.1E-07,0.02323375
,,,8.2E-07,0.02326375
,,,8.3E-07,0.0233125
,,,8.4E-07,0.0236625
,,,8.5E-07,0.023461875
,,,8.6E-07,0.023308125
,,,8.7E-07,0.02327875
,,,8.8E-07,0.023285625
,,,8.9E-07,0.02376
,,,9E-07,0.02367
,,,9.1E-07,0.023434375
,,,9.2E-07,0.0234525
,,,9.3E-07,0.02356125
,,,9.4E-07,0.02339125
,,,9.5E-07,0.023373125
,,,9.6E-07,0.02332375
,,,9.7E-07,0.02354375
,,,9.8E-07,0.023308125
,,,9.9E-07,0.023318125
,,,1E-06,0.023671875
,,,1.01E-06,0.023465
,,,1.02E-06,0.023254375
,,,1.03E-06,0.0235975
,,,1.04E-06,0.0234475
,,,1.05E-06,0.023276875
,,,1.06E-06,0.02353875
,,,1.07E-06,0.0233675
,,,1.08E-06,0.0235525
,,,1.09E-06,0.02339
,,,1.1E-06,0.02323375
,,,1.11E-06,0.02340875
,,,1.12E-06,0.023449375
,,,1.13E-06,0.02327625
,,,1.14E-06,0.02323625
,,,1.15E-06,0.023415
,,,1.16E-06,0.0233925
,,,1.17E-06,0.023415625
,,,1.18E-06,0.023438125
,,,1.19E-06,0.023434375
,,,1.2E-06,0.023415625
,,,1.21E-06,0.023569375
,,,1.22E-06,0.023525625
,,,1.23E-06,0.023404375
,,,1.24E-06,0.0233825
,,,1.25E-06,0.023389375
,,,1.26E-06,0.023165
,,,1.27E-06,0.023300625
,,,1.28E-06,0.023405
,,,1.29E-06,0.023478125
,,,1.3E-06,0.0232825
,,,1.31E-06,0.023498125
,,,1.32E-06,0.023551875
,,,1.33E-06,0.023638125
,,,1.34E-06,0.02342
,,,1.35E-06,0.023414375
,,,1.36E-06,0.023679375
,,,1.37E-06,0.02321
,,,1.38E-06,0.0234475
,,,1.39E-06,0.02368625
,,,1.4E-06,0.0234975
,,,1.41E-06,0.023565
,,,1.42E-06,0.02333125
,,,1.43E-06,0.0237
,,,1.44E-06,0.02333875
,,,1.45E-06,0.0235275
,,,1.46E-06,0.023331875
,,,1.47E-06,0.023413125
,,,1.48E-06,0.02336
,,,1.49E-06,0.023544375
,,,1.5E-06,0.023411875
,,,1.51E-06,0.023581875
,,,1.52E-06,0.023243125
,,,1.53E-06,0.02355625
,,,1.54E-06,0.023443125
,,,1.55E-06,0.0234675
,,,1.56E-06,0.023305625
,,,1.57E-06,0.023610625
,,,1.58E-06,0.023396875
,,,1.59E-06,0.02345875
,,,1.6E-06,0.0235175
,,,1.61E-06,0.02331625
,,,1.62E-06,0.02326875
,,,1.63E-06,0.023390625
,,,1.64E-06,0.0236775
,,,1.65E-06,0.023451875
,,,1.66E-06,0.0233325
,,,1.67E-06,0.023438125
,,,1.68E-06,0.02341125
,,,1.69E-06,0.02348625
,,,1.7E-06,0.0234725
,,,1.71E-06,0.0233
,,,1.72E-06,0.023349375
,,,1.73E-06,0.023514375
,,,1.74E-06,0.023406875
,,,1.75E-06,0.023504375
,,,1.76E-06,0.02334375
,,,1.77E-06,0.02320125
,,,1.78E-06,0.023395625
,,,1.79E-06,0.023205625
,,,1.8E-06,0.0232625
,,,1.81E-06,0.02364875
,,,1.82E-06,0.023409375
,,,1.83E-06,0.02353125
,,,1.84E-06,0.02352875
,,,1.85E-06,0.0233625
,,,1.86E-06,0.023424375
,,,1.87E-06,0.023415
,,,1.88E-06,0.02365375
,,,1.89E-06,0.023448125
,,,1.9E-06,0.02336375
,,,1.91E-06,0.02343
,,,1.92E-06,0.023360625
,,,1.93E-06,0.023276875
,,,1.94E-06,0.02335375
,,,1.95E-06,0.0235025
,,,1.96E-06,0.023459375
,,,1.97E-06,0.02361625
,,,1.98E-06,0.023468125
,,,1.99E-06,0.023358125
,,,2E-06,0.023301875
,,,2.01E-06,0.02320625
,,,2.02E-06,0.02332875
,,,2.03E-06,0.02348125
,,,2.04E-06,0.02376125
,,,2.05E-06,0.02344625
,,,2.06E-06,0.02339625
,,,2.07E-06,0.023628125
,,,2.08E-06,0.02363375
,,,2.09E-06,0.023545
,,,2.1E-06,0.023653125
,,,2.11E-06,0.023681875
,,,2.12E-06,0.0236675
,,,2.13E-06,0.023341875
,,,2.14E-06,0.02337625
,,,2.15E-06,0.023579375
,,,2.16E-06,0.023651875
,,,2.17E-06,0.02330125
,,,2.18E-06,0.02332875
,,,2.19E-06,0.023431875
,,,2.2E-06,0.02328125
,,,2.21E-06,0.02334375
,,,2.22E-06,0.023415625
,,,2.23E-06,0.023279375
,,,2.24E-06,0.023401875
,,,2.25E-06,0.023634375
,,,2.26E-06,0.0230575
,,,2.27E-06,0.023215
,,,2.28E-06,0.0234475
,,,2.29E-06,0.02358
,,,2.3E-06,0.02356375
,,,2.31E-06,0.023394375
,,,2.32E-06,0.02350125
,,,2.33E-06,0.02334125
,,,2.34E-06,0.023305625
,,,2.35E-06,0.023613125
,,,2.36E-06,0.02346125
,,,2.37E-06,0.0232625
,,,2.38E-06,0.02331375
,,,2.39E-06,0.0232325
,,,2.4E-06,0.02345375
,,,2.41E-06,0.02335
,,,2.42E-06,0.02323125
,,,2.43E-06,0.0233475
,,,2.44E-06,0.02335125
,,,2.45E-06,0.023163125
,,,2.46E-06,0.023564375
,,,2.47E-06,0.0234175
,,,2.48E-06,0.0233725
,,,2.49E-06,0.02335375
,,,2.5E-06,0.023665
,,,2.51E-06,0.023449375
,,,2.52E-06,0.023366875
,,,2.53E-06,0.023428125
,,,2.54E-06,0.02335125
,,,2.55E-06,0.023584375
,,,2.56E-06,0.0236675
,,,2.57E-06,0.0234175
,,,2.58E-06,0.023325
,,,2.59E-06,0.02341375
,,,2.6E-06,0.023468125
,,,2.61E-06,0.023355
,,,2.62E-06,0.023334375
,,,2.63E-06,0.023378125
,,,2.64E-06,0.023345625
,,,2.65E-06,0.02354
,,,2.66E-06,0.0234825
,,,2.67E-06,0.02324875
,,,2.68E-06,0.023319375
,,,2.69E-06,0.023434375
,,,2.7E-06,0.023451875
,,,2.71E-06,0.023455625
,,,2.72E-06,0.02327625
,,,2.73E-06,0.023283125
,,,2.74E-06,0.02347875
,,,2.75E-06,0.023356875
,,,2.76E-06,0.02342
,,,2.77E-06,0.023230625
,,,2.78E-06,0.02344875
,,,2.79E-06,0.023234375
,,,2.8E-06,0.023365
,,,2.81E-06,0.023344375
,,,2.82E-06,0.023595
,,,2.83E-06,0.023543125
,,,2.84E-06,0.0233325
,,,2.85E-06,0.023438125
,,,2.86E-06,0.023505
,,,2.87E-06,0.02342375
,,,2.88E-06,0.02325125
,,,2.89E-06,0.023528125
,,,2.9E-06,0.02353875
,,,2.91E-06,0.023596875
,,,2.92E-06,0.02350375
,,,2.93E-06,0.023459375
,,,2.94E-06,0.023491875
,,,2.95E-06,0.02345875
,,,2.96E-06,0.02354625
,,,2.97E-06,0.023678125
,,,2.98E-06,0.02351125
,,,2.99E-06,0.0232875
,,,3E-06,0.02329625
,,,3.01E-06,0.0230175
,,,3.02E-06,0.023489375
,,,3.03E-06,0.023336875
,,,3.04E-06,0.023335
,,,3.05E-06,0.02359125
,,,3.06E-06,0.023588125
,,,3.07E-06,0.023685625
,,,3.08E-06,0.023005
,,,3.09E-06,0.023250625
,,,3.1E-06,0.023433125
,,,3.11E-06,0.023559375
,,,3.12E-06,0.023294375
,,,3.13E-06,0.0232375
,,,3.14E-06,0.02357875
,,,3.15E-06,0.023490625
,,,3.16E-06,0.023425
,,,3.17E-06,0.023286875
,,,3.18E-06,0.0231025
,,,3.19E-06,0.023535625
,,,3.2E-06,0.023555625
,,,3.21E-06,0.023628125
,,,3.22E-06,0.023481875
,,,3.23E-06,0.0235725
,,,3.24E-06,0.02362875
,,,3.25E-06,0.023575625
,,,3.26E-06,0.02339875
,,,3.27E-06,0.023553125
,,,3.28E-06,0.02324375
,,,3.29E-06,0.02345125
,,,3.3E-06,0.02341875
,,,3.31E-06,0.02362375
,,,3.32E-06,0.023670625
,,,3.33E-06,0.02312
,,,3.34E-06,0.023281875
,,,3.35E-06,0.023391875
,,,3.36E-06,0.023528125
,,,3.37E-06,0.02331875
,,,3.38E-06,0.02348375
,,,3.39E-06,0.02341
,,,3.4E-06,0.02339375
,,,3.41E-06,0.02338
,,,3.42E-06,0.0233625
,,,3.43E-06,0.023465
,,,3.44E-06,0.023283125
,,,3.45E-06,0.023500625
,,,3.46E-06,0.02361625
,,,3.47E-06,0.023580625
,,,3.48E-06,0.023316875
,,,3.49E-06,0.02332
,,,3.5E-06,0.023198125
,,,3.51E-06,0.023335625
,,,3.52E-06,0.02361
,,,3.53E-06,0.023621875
,,,3.54E-06,0.023673125
,,,3.55E-06,0.023395625
,,,3.56E-06,0.0235475
,,,3.57E-06,0.02367625
,,,3.58E-06,0.02329125
