data/raw/Final_POL_Test_1/SOP074_Ch2.csv

"Record Length",1000,"Points",-5E-06,0.02021625
"Sample Interval",1E-08,s,-4.99E-06,0.02049
"Trigger Point",500,"Samples",-4.98E-06,0.0205975
"Trigger Time",0,s,-4.97E-06,0.020131875
"",,,-4.96E-06,0.020320625
"Horizontal Offset",-5E-06,s,-4.95E-06,0.019946875
,,,-4.94E-06,0.0203825
,,,-4.93E-06,0.02005875
,,,-4.92E-06,0.0202575
,,,-4.91E-06,0.02012375
,,,-4.9E-06,0.020268125
,,,-4.89E-06,0.02048875
,,,-4.88E-06,0.02059
,,,-4.87E-06,0.02031375
,,,-4.86E-06,0.020311875
,,,-4.85E-06,0.020445
,,,-4.84E-06,0.020340625
,,,-4.83E-06,0.02029875
,,,-4.82E-06,0.020400625
,,,-4.81E-06,0.020518125
,,,-4.8E-06,0.020473125
,,,-4.79E-06,0.020441875
,,,-4.78E-06,0.0202525
,,,-4.77E-06,0.02032
,,,-4.76E-06,0.02027
,,,-4.75E-06,0.020259375
,,,-4.74E-06,0.02028375
,,,-4.73E-06,0.020105
,,,-4.72E-06,0.020463125
,,,-4.71E-06,0.020383125
,,,-4.7E-06,0.01999375
,,,-4.69E-06,0.020225
,,,-4.68E-06,0.02016875
,,,-4.67E-06,0.02028875
,,,-4.66E-06,0.020419375
,,,-4.65E-06,0.02025
,,,-4.64E-06,0.02012125
,,,-4.63E-06,0.02022875
,,,-4.62E-06,0.020228125
,,,-4.61E-06,0.020276875
,,,-4.6E-06,0.02013125
,,,-4.59E-06,0.0201675
,,,-4.58E-06,0.020155625
,,,-4.57E-06,0.020151875
,,,-4.56E-06,0.020518125
,,,-4.55E-06,0.020343125
,,,-4.54E-06,0.020184375
,,,-4.53E-06,0.020371875
,,,-4.52E-06,0.02042
,,,-4.51E-06,0.020445
,,,-4.5E-06,0.020360625
,,,-4.49E-06,0.02001375
,,,-4.48E-06,0.02033375
,,,-4.47E-06,0.020143125
,,,-4.46E-06,0.020376875
,,,-4.45E-06,0.0201825
,,,-4.44E-06,0.0202525
,,,-4.43E-06,0.0203
,,,-4.42E-06,0.020051875
,,,-4.41E-06,0.02023
,,,-4.4E-06,0.020261875
,,,-4.39E-06,0.02012625
,,,-4.38E-06,0.020243125
,,,-4.37E-06,0.0203
,,,-4.36E-06,0.02031125
,,,-4.35E-06,0.02019875
,,,-4.34E-06,0.020039375
,,,-4.33E-06,0.02028375
,,,-4.32E-06,0.020225625
,,,-4.31E-06,0.020385
,,,-4.3E-06,0.020280625
,,,-4.29E-06,0.02032875
,,,-4.28E-06,0.020265625
,,,-4.27E-06,0.020036875
,,,-4.26E-06,0.020371875
,,,-4.25E-06,0.020088125
,,,-4.24E-06,0.0203325
,,,-4.23E-06,0.020233125
,,,-4.22E-06,0.020321875
,,,-4.21E-06,0.020316875
,,,-4.2E-06,0.02022125
,,,-4.19E-06,0.0200525
,,,-4.18E-06,0.020271875
,,,-4.17E-06,0.020206875
,,,-4.16E-06,0.020325625
,,,-4.15E-06,0.020470625
,,,-4.14E-06,0.020475625
,,,-4.13E-06,0.020231875
,,,-4.12E-06,0.020174375
,,,-4.11E-06,0.020364375
,,,-4.1E-06,0.020289375
,,,-4.09E-06,0.020144375
,,,-4.08E-06,0.0201825
,,,-4.07E-06,0.020205
,,,-4.06E-06,0.020205
,,,-4.05E-06,0.02041
,,,-4.04E-06,0.02054375
,,,-4.03E-06,0.020189375
,,,-4.02E-06,0.0203075
,,,-4.01E-06,0.020303125
,,,-4E-06,0.020090625
,,,-3.99E-06,0.02046375
,,,-3.98E-06,0.020304375
,,,-3.97E-06,0.020678125
,,,-3.96E-06,0.020218125
,,,-3.95E-06,0.020241875
,,,-3.94E-06,0.020318125
,,,-3.93E-06,0.020186875
,,,-3.92E-06,0.02046125
,,,-3.91E-06,0.02047125
,,,-3.9E-06,0.02026625
,,,-3.89E-06,0.02041375
,,,-3.88E-06,0.020374375
,,,-3.87E-06,0.0201575
,,,-3.86E-06,0.02013125
,,,-3.85E-06,0.02033875
,,,-3.84E-06,0.02026125
,,,-3.83E-06,0.02048375
,,,-3.82E-06,0.0202925
,,,-3.81E-06,0.020220625
,,,-3.8E-06,0.020175
,,,-3.79E-06,0.01999375
,,,-3.78E-06,0.02018
,,,-3.77E-06,0.020476875
,,,-3.76E-06,0.020380625
,,,-3.75E-06,0.020586875
,,,-3.74E-06,0.02039125
,,,-3.73E-06,0.020434375
,,,-3.72E-06,0.020351875
,,,-3.71E-06,0.020181875
,,,-3.7E-06,0.02014625
,,,-3.69E-06,0.0202925
,,,-3.68E-06,0.02018125
,,,-3.67E-06,0.020359375
,,,-3.66E-06,0.020305
,,,-3.65E-06,0.020255
,,,-3.64E-06,0.020414375
,,,-3.63E-06,0.020415625
,,,-3.62E-06,0.020304375
,,,-3.61E-06,0.02012
,,,-3.6E-06,0.020195625
,,,-3.59E-06,0.0203
,,,-3.58E-06,0.020141875
,,,-3.57E-06,0.02015625
,,,-3.56E-06,0.020404375
,,,-3.55E-06,0.0201975
,,,-3.54E-06,0.02003375
,,,-3.53E-06,0.020295625
,,,-3.52E-06,0.02028375
,,,-3.51E-06,0.020321875
,,,-3.5E-06,0.02019875
,,,-3.49E-06,0.020175
,,,-3.48E-06,0.020329375
,,,-3.47E-06,0.020305
,,,-3.46E-06,0.020266875
,,,-3.45E-06,0.02012375
,,,-3.44E-06,0.02018375
,,,-3.43E-06,0.020208125
,,,-3.42E-06,0.0203375
,,,-3.41E-06,0.02017625
,,,-3.4E-06,0.020168125
,,,-3.39E-06,0.020405
,,,-3.38E-06,0.020208125
,,,-3.37E-06,0.020319375
,,,-3.36E-06,0.020275
,,,-3.35E-06,0.02034125
,,,-3.34E-06,0.020269375
,,,-3.33E-06,0.020238125
,,,-3.32E-06,0.02032375
,,,-3.31E-06,0.020485625
,,,-3.3E-06,0.020326875
,,,-3.29E-06,0.02021875
,,,-3.28E-06,0.02061125
,,,-3.27E-06,0.020081875
,,,-3.26E-06,0.02030875
,,,-3.25E-06,0.020279375
,,,-3.24E-06,0.020231875
,,,-3.23E-06,0.02018125
,,,-3.22E-06,0.02010875
,,,-3.21E-06,0.020100625
,,,-3.2E-06,0.020321875
,,,-3.19E-06,0.0204
,,,-3.18E-06,0.020450625
,,,-3.17E-06,0.020281875
,,,-3.16E-06,0.020224375
,,,-3.15E-06,0.02021375
,,,-3.14E-06,0.020528125
,,,-3.13E-06,0.020286875
,,,-3.12E-06,0.020254375
,,,-3.11E-06,0.020165
,,,-3.1E-06,0.020209375
,,,-3.09E-06,0.02023875
,,,-3.08E-06,0.0202425
,,,-3.07E-06,0.02033
,,,-3.06E-06,0.02044375
,,,-3.05E-06,0.02023375
,,,-3.04E-06,0.0204425
,,,-3.03E-06,0.0203475
,,,-3.02E-06,0.0201625
,,,-3.01E-06,0.02024875
,,,-3E-06,0.02015625
,,,-2.99E-06,0.02027
,,,-2.98E-06,0.02014375
,,,-2.97E-06,0.0201075
,,,-2.96E-06,0.020225625
,,,-2.95E-06,0.02008875
,,,-2.94E-06,0.02016125
,,,-2.93E-06,0.02036375
,,,-2.92E-06,0.020286875
,,,-2.91E-06,0.0204775
,,,-2.9E-06,0.020268125
,,,-2.89E-06,0.02035125
,,,-2.88E-06,0.020456875
,,,-2.87E-06,0.020134375
,,,-2.86E-06,0.020164375
,,,-2.85E-06,0.020253125
,,,-2.84E-06,0.02031875
,,,-2.83E-06,0.020236875
,,,-2.82E-06,0.02028875
,,,-2.81E-06,0.020230625
,,,-2.8E-06,0.020250625
,,,-2.79E-06,0.0204625
,,,-2.78E-06,0.02024875
,,,-2.77E-06,0.020213125
,,,-2.76E-06,0.02021125
,,,-2.75E-06,0.020484375
,,,-2.74E-06,0.020315625
,,,-2.73E-06,0.020209375
,,,-2.72E-06,0.020259375
,,,-2.71E-06,0.020180625
,,,-2.7E-06,0.020339375
,,,-2.69E-06,0.02043375
,,,-2.68E-06,0.02033125
,,,-2.67E-06,0.02029
,,,-2.66E-06,0.020186875
,,,-2.65E-06,0.020234375
,,,-2.64E-06,0.020255
,,,-2.63E-06,0.020265625
,,,-2.62E-06,0.0202275
,,,-2.61E-06,0.02007625
,,,-2.6E-06,0.0199725
,,,-2.59E-06,0.020334375
,,,-2.58E-06,0.020450625
,,,-2.57E-06,0.0202025
,,,-2.56E-06,0.020203125
,,,-2.55E-06,0.02031125
,,,-2.54E-06,0.020370625
,,,-2.53E-06,0.02021875
,,,-2.52E-06,0.02006
,,,-2.51E-06,0.0201275
,,,-2.5E-06,0.0200525
,,,-2.49E-06,0.0201725
,,,-2.48E-06,0.020245625
,,,-2.47E-06,0.020461875
,,,-2.46E-06,0.0203225
,,,-2.45E-06,0.020235
,,,-2.44E-06,0.0202775
,,,-2.43E-06,0.020071875
,,,-2.42E-06,0.020248125
,,,-2.41E-06,0.020489375
,,,-2.4E-06,0.02058625
,,,-2.39E-06,0.02008625
,,,-2.38E-06,0.02044375
,,,-2.37E-06,0.020276875
,,,-2.36E-06,0.02045625
,,,-2.35E-06,0.020229375
,,,-2.34E-06,0.0202525
,,,-2.33E-06,0.02015125
,,,-2.32E-06,0.02021125
,,,-2.31E-06,0.02035375
,,,-2.3E-06,0.02018875
,,,-2.29E-06,0.020283125
,,,-2.28E-06,0.020573125
,,,-2.27E-06,0.02013625
,,,-2.26E-06,0.02011625
,,,-2.25E-06,0.020389375
,,,-2.24E-06,0.02048625
,,,-2.23E-06,0.0203075
,,,-2.22E-06,0.02036625
,,,-2.21E-06,0.019991875
,,,-2.2E-06,0.020335625
,,,-2.19E-06,0.020376875
,,,-2.18E-06,0.020234375
,,,-2.17E-06,0.020243125
,,,-2.16E-06,0.020256875
,,,-2.15E-06,0.020105625
,,,-2.14E-06,0.02014375
,,,-2.13E-06,0.020366875
,,,-2.12E-06,0.0203675
,,,-2.11E-06,0.020148125
,,,-2.1E-06,0.020165
,,,-2.09E-06,0.0200425
,,,-2.08E-06,0.0205025
,,,-2.07E-06,0.02029375
,,,-2.06E-06,0.020261875
,,,-2.05E-06,0.020243125
,,,-2.04E-06,0.020173125
,,,-2.03E-06,0.020196875
,,,-2.02E-06,0.020116875
,,,-2.01E-06,0.0204275
,,,-2E-06,0.020285
,,,-1.99E-06,0.02028625
,,,-1.98E-06,0.0201175
,,,-1.97E-06,0.020109375
,,,-1.96E-06,0.020230625
,,,-1.95E-06,0.020153125
,,,-1.94E-06,0.020411875
,,,-1.93E-06,0.02010625
,,,-1.92E-06,0.020446875
,,,-1.91E-06,0.020345
,,,-1.9E-06,0.020398125
,,,-1.89E-06,0.020285
,,,-1.88E-06,0.02031
,,,-1.87E-06,0.02028375
,,,-1.86E-06,0.020096875
,,,-1.85E-06,0.0201825
,,,-1.84E-06,0.020343125
,,,-1.83E-06,0.0201425
,,,-1.82E-06,0.02023375
,,,-1.81E-06,0.020438125
,,,-1.8E-06,0.020313125
,,,-1.79E-06,0.020435625
,,,-1.78E-06,0.020268125
,,,-1.77E-06,0.020386875
,,,-1.76E-06,0.0200675
,,,-1.75E-06,0.02034375
,,,-1.74E-06,0.020295
,,,-1.73E-06,0.020293125
,,,-1.72E-06,0.020255
,,,-1.71E-06,0.020255625
,,,-1.7E-06,0.020230625
,,,-1.69E-06,0.020241875
,,,-1.68E-06,0.0206525
,,,-1.67E-06,0.02031875
,,,-1.66E-06,0.02025125
,,,-1.65E-06,0.02035125
,,,-1.64E-06,0.02032625
,,,-1.63E-06,0.02019625
,,,-1.62E-06,0.02036
,,,-1.61E-06,0.02031
,,,-1.6E-06,0.02014625
,,,-1.59E-06,0.02044
,,,-1.58E-06,0.0202825
,,,-1.57E-06,0.02046125
,,,-1.56E-06,0.020419375
,,,-1.55E-06,0.0201825
,,,-1.54E-06,0.020188125
,,,-1.53E-06,0.020313125
,,,-1.52E-06,0.020245
,,,-1.51E-06,0.020393125
,,,-1.5E-06,0.020360625
,,,-1.49E-06,0.0202675
,,,-1.48E-06,0.020405
,,,-1.47E-06,0.02030125
,,,-1.46E-06,0.020469375
,,,-1.45E-06,0.020305
,,,-1.44E-06,0.0202625
,,,-1.43E-06,0.02027
,,,-1.42E-06,0.02019
,,,-1.41E-06,0.02019625
,,,-1.4E-06,0.02029125
,,,-1.39E-06,0.0202875
,,,-1.38E-06,0.0202975
,,,-1.37E-06,0.020171875
,,,-1.36E-06,0.020358125
,,,-1.35E-06,0.02046875
,,,-1.34E-06,0.020055625
,,,-1.33E-06,0.020365625
,,,-1.32E-06,0.020300625
,,,-1.31E-06,0.020181875
,,,-1.3E-06,0.020219375
,,,-1.29E-06,0.020173125
,,,-1.28E-06,0.02010625
,,,-1.27E-06,0.0201275
,,,-1.26E-06,0.0201825
,,,-1.25E-06,0.0202925
,,,-1.24E-06,0.020498125
,,,-1.23E-06,0.020263125
,,,-1.22E-06,0.02019875
,,,-1.21E-06,0.0201475
,,,-1.2E-06,0.02035
,,,-1.19E-06,0.02062
,,,-1.18E-06,0.020385625
,,,-1.17E-06,0.020140625
,,,-1.16E-06,0.020253125
,,,-1.15E-06,0.020216875
,,,-1.14E-06,0.02021625
,,,-1.13E-06,0.020255
,,,-1.12E-06,0.020506875
,,,-1.11E-06,0.02025625
,,,-1.1E-06,0.020191875
,,,-1.09E-06,0.020340625
,,,-1.08E-06,0.02034125
,,,-1.07E-06,0.020304375
,,,-1.06E-06,0.020298125
,,,-1.05E-06,0.020329375
,,,-1.04E-06,0.020394375
,,,-1.03E-06,0.02037
,,,-1.02E-06,0.020335
,,,-1.01E-06,0.020364375
,,,-1E-06,0.02045375
,,,-9.9E-07,0.0201775
,,,-9.8E-07,0.020441875
,,,-9.7E-07,0.02019625
,,,-9.6E-07,0.020405625
,,,-9.5E-07,0.020271875
,,,-9.4E-07,0.020244375
,,,-9.3E-07,0.0200525
,,,-9.2E-07,0.020283125
,,,-9.1E-07,0.020395625
,,,-9E-07,0.020225625
,,,-8.9E-07,0.020294375
,,,-8.8E-07,0.020311875
,,,-8.7E-07,0.020110625
,,,-8.6E-07,0.02002875
,,,-8.5E-07,0.020195
,,,-8.4E-07,0.02027
,,,-8.3E-07,0.020581875
,,,-8.2E-07,0.020106875
,,,-8.1E-07,0.020295625
,,,-8E-07,0.020345625
,,,-7.9E-07,0.02025
,,,-7.8E-07,0.02038125
,,,-7.7E-07,0.0203525
,,,-7.6E-07,0.02044375
,,,-7.5E-07,0.02013625
,,,-7.4E-07,0.020274375
,,,-7.3E-07,0.020630625
,,,-7.2E-07,0.0201375
,,,-7.1E-07,0.020556875
,,,-7E-07,0.0204125
,,,-6.9E-07,0.020355
,,,-6.8E-07,0.02021625
,,,-6.7E-07,0.020280625
,,,-6.6E-07,0.020128125
,,,-6.5E-07,0.020326875
,,,-6.4E-07,0.020476875
,,,-6.3E-07,0.020303125
,,,-6.2E-07,0.020294375
,,,-6.1E-07,0.020058125
,,,-6E-07,0.020213125
,,,-5.9E-07,0.020551875
,,,-5.8E-07,0.02030125
,,,-5.7E-07,0.02016625
,,,-5.6E-07,0.02033
,,,-5.5E-07,0.0202875
,,,-5.4E-07,0.02021
,,,-5.3E-07,0.020396875
,,,-5.2E-07,0.020410625
,,,-5.1E-07,0.02040625
,,,-5E-07,0.0201
,,,-4.9E-07,0.02022875
,,,-4.8E-07,0.020325
,,,-4.7E-07,0.020038125
,,,-4.6E-07,0.02036375
,,,-4.5E-07,0.020351875
,,,-4.4E-07,0.02050125
,,,-4.3E-07,0.020245625
,,,-4.2E-07,0.020570625
,,,-4.1E-07,0.02045875
,,,-4E-07,0.020273125
,,,-3.9E-07,0.020206875
,,,-3.8E-07,0.020429375
,,,-3.7E-07,0.02048125
,,,-3.6E-07,0.0202575
,,,-3.5E-07,0.020385625
,,,-3.4E-07,0.020365625
,,,-3.3E-07,0.020269375
,,,-3.2E-07,0.02042625
,,,-3.1E-07,0.02044125
,,,-3E-07,0.02042375
,,,-2.9E-07,0.020280625
,,,-2.8E-07,0.020275625
,,,-2.7E-07,0.020425
,,,-2.6E-07,0.02014
,,,-2.5E-07,0.020363125
,,,-2.4E-07,0.020401875
,,,-2.3E-07,0.02033
,,,-2.2E-07,0.0202025
,,,-2.1E-07,0.020475625
,,,-2E-07,0.020268125
,,,-1.9E-07,0.020428125
,,,-1.8E-07,0.0201675
,,,-1.7E-07,0.020354375
,,,-1.6E-07,0.02015
,,,-1.5E-07,0.020095625
,,,-1.4E-07,0.02031125
,,,-1.3E-07,0.020250625
,,,-1.2E-07,0.020353125
,,,-1.1E-07,0.0201625
,,,-1E-07,0.02036375
,,,-9E-08,0.0203875
,,,-8E-08,0.020441875
,,,-7E-08,0.02009875
,,,-6E-08,0.02029125
,,,-5E-08,0.02023625
,,,-4E-08,0.02066125
,,,-3E-08,0.02054125
,,,-2E-08,0.019733125
,,,-1E-08,0.019195
,,,0,0.019945
,,,1E-08,0.021413125
,,,2E-08,0.0217725
,,,3E-08,0.02095375
,,,4E-08,0.019845
,,,5E-08,0.01917625
,,,6E-08,0.01930125
,,,7E-08,0.020311875
,,,8E-08,0.0207575
,,,9E-08,0.021253125
,,,1E-07,0.020530625
,,,1.1E-07,0.019898125
,,,1.2E-07,0.01989375
,,,1.3E-07,0.0199825
,,,1.4E-07,0.020203125
,,,1.5E-07,0.020558125
,,,1.6E-07,0.02034125
,,,1.7E-07,0.020514375
,,,1.8E-07,0.020240625
,,,1.9E-07,0.020331875
,,,2E-07,0.020393125
,,,2.1E-07,0.020139375
,,,2.2E-07,0.0201275
,,,2.3E-07,0.020084375
,,,2.4E-07,0.020431875
,,,2.5E-07,0.02027875
,,,2.6E-07,0.020431875
,,,2.7E-07,0.020213125
,,,2.8E-07,0.02020625
,,,2.9E-07,0.019935625
,,,3E-07,0.020395
,,,3.1E-07,0.020173125
,,,3.2E-07,0.020295
,,,3.3E-07,0.020561875
,,,3.4E-07,0.02032375
,,,3.5E-07,0.02033875
,,,3.6E-07,0.020231875
,,,3.7E-07,0.0201775
,,,3.8E-07,0.02036
,,,3.9E-07,0.02040875
,,,4E-07,0.02037
,,,4.1E-07,0.0206175
,,,4.2E-07,0.02025125
,,,4.3E-07,0.020455625
,,,4.4E-07,0.020670625
,,,4.5E-07,0.020214375
,,,4.6E-07,0.020445625
,,,4.7E-07,0.02054875
,,,4.8E-07,0.02005625
,,,4.9E-07,0.020119375
,,,5E-07,0.020185625
,,,5.1E-07,0.020395
,,,5.2E-07,0.02033625
,,,5.3E-07,0.02031
,,,5.4E-07,0.02034875
,,,5.5E-07,0.02040125
,,,5.6E-07,0.020259375
,,,5.7E-07,0.020375
,,,5.8E-07,0.02045125
,,,5.9E-07,0.020254375
,,,6E-07,0.020429375
,,,6.1E-07,0.02026625
,,,6.2E-07,0.02026125
,,,6.3E-07,0.0202725
,,,6.4E-07,0.020204375
,,,6.5E-07,0.02056125
,,,6.6E-07,0.02016
,,,6.7E-07,0.020088125
,,,6.8E-07,0.02016125
,,,6.9E-07,0.020335625
,,,7E-07,0.02032
,,,7.1E-07,0.020513125
,,,7.2E-07,0.020164375
,,,7.3E-07,0.020405
,,,7.4E-07,0.020354375
,,,7.5E-07,0.020254375
,,,7.6E-07,0.02018125
,,,7.7E-07,0.02027625
,,,7.8E-07,0.020283125
,,,7.9E-07,0.020096875
,,,8E-07,0.020535625
,,,8.1E-07,0.020305625
,,,8.2E-07,0.02031125
,,,8.3E-07,0.020354375
,,,8.4E-07,0.0203825
,,,8.5E-07,0.02036
,,,8.6E-07,0.02019875
,,,8.7E-07,0.020386875
,,,8.8E-07,0.020389375
,,,8.9E-07,0.020505
,,,9E-07,0.0203625
,,,9.1E-07,0.02031375
,,,9.2E-07,0.020198125
,,,9.3E-07,0.02011625
,,,9.4E-07,0.020210625
,,,9.5E-07,0.020443125
,,,9.6E-07,0.01995875
,,,9.7E-07,0.02032
,,,9.8E-07,0.020094375
,,,9.9E-07,0.02029375
,,,1E-06,0.020476875
,,,1.01E-06,0.020149375
,,,1.02E-06,0.02069
,,,1.03E-06,0.020345625
,,,1.04E-06,0.02039
,,,1.05E-06,0.020275
,,,1.06E-06,0.02021875
,,,1.07E-06,0.02042
,,,1.08E-06,0.020354375
,,,1.09E-06,0.02037875
,,,1.1E-06,0.02012125
,,,1.11E-06,0.020203125
,,,1.12E-06,0.020308125
,,,1.13E-06,0.020226875
,,,1.14E-06,0.02029125
,,,1.15E-06,0.020113125
,,,1.16E-06,0.020073125
,,,1.17E-06,0.020510625
,,,1.18E-06,0.02028875
,,,1.19E-06,0.0203875
,,,1.2E-06,0.020229375
,,,1.21E-06,0.020206875
,,,1.22E-06,0.02027625
,,,1.23E-06,0.020238125
,,,1.24E-06,0.02021
,,,1.25E-06,0.0202025
,,,1.26E-06,0.0202825
,,,1.27E-06,0.0202775
,,,1.28E-06,0.020186875
,,,1.29E-06,0.02057125
,,,1.3E-06,0.0203275
,,,1.31E-06,0.0204
,,,1.32E-06,0.020361875
,,,1.33E-06,0.0203325
,,,1.34E-06,0.02028625
,,,1.35E-06,0.020341875
,,,1.36E-06,0.020289375
,,,1.37E-06,0.020346875
,,,1.38E-06,0.02038625
,,,1.39E-06,0.020475
,,,1.4E-06,0.02041625
,,,1.41E-06,0.02018625
,,,1.42E-06,0.02020625
,,,1.43E-06,0.020203125
,,,1.44E-06,0.02030875
,,,1.45E-06,0.02036
,,,1.46E-06,0.020304375
,,,1.47E-06,0.020255
,,,1.48E-06,0.02016125
,,,1.49E-06,0.020328125
,,,1.5E-06,0.02031375
,,,1.51E-06,0.0201425
,,,1.52E-06,0.020373125
,,,1.53E-06,0.020375625
,,,1.54E-06,0.020486875
,,,1.55E-06,0.02018
,,,1.56E-06,0.020284375
,,,1.57E-06,0.020165625
,,,1.58E-06,0.02003125
,,,1.59E-06,0.020310625
,,,1.6E-06,0.020023125
,,,1.61E-06,0.020113125
,,,1.62E-06,0.020193125
,,,1.63E-06,0.02029375
,,,1.64E-06,0.02017
,,,1.65E-06,0.020504375
,,,1.66E-06,0.020654375
,,,1.67E-06,0.019993125
,,,1.68E-06,0.020265625
,,,1.69E-06,0.020274375
,,,1.7E-06,0.020130625
,,,1.71E-06,0.02016
,,,1.72E-06,0.02031375
,,,1.73E-06,0.02041125
,,,1.74E-06,0.020365
,,,1.75E-06,0.020333125
,,,1.76E-06,0.020284375
,,,1.77E-06,0.020434375
,,,1.78E-06,0.020293125
,,,1.79E-06,0.020295625
,,,1.8E-06,0.0202325
,,,1.81E-06,0.020335
,,,1.82E-06,0.0202225
,,,1.83E-06,0.0204875
,,,1.84E-06,0.02005
,,,1.85E-06,0.0202625
,,,1.86E-06,0.0203075
,,,1.87E-06,0.020384375
,,,1.88E-06,0.020475625
,,,1.89E-06,0.020235
,,,1.9E-06,0.020265625
,,,1.91E-06,0.020389375
,,,1.92E-06,0.020435
,,,1.93E-06,0.02027625
,,,1.94E-06,0.020265
,,,1.95E-06,0.02027875
,,,1.96E-06,0.02010375
,,,1.97E-06,0.020310625
,,,1.98E-06,0.0203625
,,,1.99E-06,0.02037125
,,,2E-06,0.02054625
,,,2.01E-06,0.02038125
,,,2.02E-06,0.02026875
,,,2.03E-06,0.02018625
,,,2.04E-06,0.02026875
,,,2.05E-06,0.020291875
,,,2.06E-06,0.020494375
,,,2.07E-06,0.020228125
,,,2.08E-06,0.020379375
,,,2.09E-06,0.020209375
,,,2.1E-06,0.020446875
,,,2.11E-06,0.02015625
,,,2.12E-06,0.020276875
,,,2.13E-06,0.020266875
,,,2.14E-06,0.020471875
,,,2.15E-06,0.020545625
,,,2.16E-06,0.020198125
,,,2.17E-06,0.02025875
,,,2.18E-06,0.02011375
,,,2.19E-06,0.020308125
,,,2.2E-06,0.020308125
,,,2.21E-06,0.020271875
,,,2.22E-06,0.02049625
,,,2.23E-06,0.0202825
,,,2.24E-06,0.020170625
,,,2.25E-06,0.020406875
,,,2.26E-06,0.0200975
,,,2.27E-06,0.020188125
,,,2.28E-06,0.02022625
,,,2.29E-06,0.02041625
,,,2.3E-06,0.020141875
,,,2.31E-06,0.02018625
,,,2.32E-06,0.020086875
,,,2.33E-06,0.020270625
,,,2.34E-06,0.02048875
,,,2.35E-06,0.020378125
,,,2.36E-06,0.020418125
,,,2.37E-06,0.020081875
,,,2.38E-06,0.0203425
,,,2.39E-06,0.020444375
,,,2.4E-06,0.020356875
,,,2.41E-06,0.02043625
,,,2.42E-06,0.020271875
,,,2.43E-06,0.02033375
,,,2.44E-06,0.020255
,,,2.45E-06,0.02010125
,,,2.46E-06,0.020279375
,,,2.47E-06,0.020055
,,,2.48E-06,0.020226875
,,,2.49E-06,0.020316875
,,,2.5E-06,0.020526875
,,,2.51E-06,0.020290625
,,,2.52E-06,0.02035875
,,,2.53E-06,0.0202575
,,,2.54E-06,0.020171875
,,,2.55E-06,0.0202175
,,,2.56E-06,0.020388125
,,,2.57E-06,0.020350625
,,,2.58E-06,0.02041125
,,,2.59E-06,0.02045375
,,,2.6E-06,0.02051
,,,2.61E-06,0.0202125
,,,2.62E-06,0.02020125
,,,2.63E-06,0.020280625
,,,2.64E-06,0.020589375
,,,2.65E-06,0.020478125
,,,2.66E-06,0.0201525
,,,2.67E-06,0.0203575
,,,2.68E-06,0.02026125
,,,2.69E-06,0.020148125
,,,2.7E-06,0.020275625
,,,2.71E-06,0.020365625
,,,2.72E-06,0.020388125
,,,2.73E-06,0.0202275
,,,2.74E-06,0.02041625
,,,2.75E-06,0.0201825
,,,2.76E-06,0.020060625
,,,2.77E-06,0.020406875
,,,2.78E-06,0.02042875
,,,2.79E-06,0.02033375
,,,2.8E-06,0.020335625
,,,2.81E-06,0.020016875
,,,2.82E-06,0.020263125
,,,2.83E-06,0.02047625
,,,2.84E-06,0.020305
,,,2.85E-06,0.020188125
,,,2.86E-06,0.020185625
,,,2.87E-06,0.020346875
,,,2.88E-06,0.020320625
,,,2.89E-06,0.02054
,,,2.9E-06,0.020385
,,,2.91E-06,0.0205575
,,,2.92E-06,0.020265625
,,,2.93E-06,0.020173125
,,,2.94E-06,0.02021375
,,,2.95E-06,0.0203875
,,,2.96E-06,0.0203975
,,,2.97E-06,0.020323125
,,,2.98E-06,0.020398125
,,,2.99E-06,0.020419375
,,,3E-06,0.02022
,,,3.01E-06,0.0202075
,,,3.02E-06,0.020325
,,,3.03E-06,0.020125625
,,,3.04E-06,0.020311875
,,,3.05E-06,0.020209375
,,,3.06E-06,0.02040375
,,,3.07E-06,0.02027875
,,,3.08E-06,0.02019625
,,,3.09E-06,0.0202075
,,,3.1E-06,0.02012375
,,,3.11E-06,0.02009625
,,,3.12E-06,0.02044
,,,3.13E-06,0.020343125
,,,3.14E-06,0.02040875
,,,3.15E-06,0.020198125
,,,3.16E-06,0.020344375
,,,3.17E-06,0.020558125
,,,3.18E-06,0.020290625
,,,3.19E-06,0.02016
,,,3.2E-06,0.020211875
,,,3.21E-06,0.020090625
,,,3.22E-06,0.020425
,,,3.23E-06,0.020351875
,,,3.24E-06,0.020111875
,,,3.25E-06,0.020219375
,,,3.26E-06,0.0204925
,,,3.27E-06,0.020191875
,,,3.28E-06,0.020289375
,,,3.29E-06,0.020184375
,,,3.3E-06,0.020134375
,,,3.31E-06,0.020423125
,,,3.32E-06,0.02053875
,,,3.33E-06,0.02024375
,,,3.34E-06,0.02045125
,,,3.35E-06,0.020198125
,,,3.36E-06,0.02028625
,,,3.37E-06,0.02030625
,,,3.38E-06,0.020184375
,,,3.39E-06,0.020435625
,,,3.4E-06,0.02043
,,,3.41E-06,0.0205175
,,,3.42E-06,0.02020875
,,,3.43E-06,0.020229375
,,,3.44E-06,0.020036875
,,,3.45E-06,0.0202225
,,,3.46E-06,0.02032125
,,,3.47E-06,0.02039625
,,,3.48E-06,0.020174375
,,,3.49E-06,0.02045625
,,,3.5E-06,0.0201075
,,,3.51E-06,0.020519375
,,,3.52E-06,0.020073125
,,,3.53E-06,0.02034625
,,,3.54E-06,0.020125625
,,,3.55E-06,0.020170625
,,,3.56E-06,0.020439375
