data/raw/Final_POL_Test_1/SOP075_Ch4.csv

"Record Length",1000,"Points",-5E-06,0.0205475
"Sample Interval",1E-08,s,-4.99E-06,0.020746875
"Trigger Point",500,"Samples",-4.98E-06,0.020768125
"Trigger Time",0,s,-4.97E-06,0.0209225
"",,,-4.96E-06,0.02058125
"Horizontal Offset",-5E-06,s,-4.95E-06,0.020695
,,,-4.94E-06,0.02108875
,,,-4.93E-06,0.02050375
,,,-4.92E-06,0.020793125
,,,-4.91E-06,0.020655625
,,,-4.9E-06,0.020495
,,,-4.89E-06,0.020641875
,,,-4.88E-06,0.020679375
,,,-4.87E-06,0.020730625
,,,-4.86E-06,0.020673125
,,,-4.85E-06,0.02085125
,,,-4.84E-06,0.020784375
,,,-4.83E-06,0.020725625
,,,-4.82E-06,0.021019375
,,,-4.81E-06,0.02068125
,,,-4.8E-06,0.02081875
,,,-4.79E-06,0.020729375
,,,-4.78E-06,0.020738125
,,,-4.77E-06,0.020745
,,,-4.76E-06,0.020696875
,,,-4.75E-06,0.020621875
,,,-4.74E-06,0.020950625
,,,-4.73E-06,0.020615625
,,,-4.72E-06,0.02064375
,,,-4.71E-06,0.02047875
,,,-4.7E-06,0.0206125
,,,-4.69E-06,0.0207275
,,,-4.68E-06,0.02073625
,,,-4.67E-06,0.020688125
,,,-4.66E-06,0.020775
,,,-4.65E-06,0.020971875
,,,-4.64E-06,0.0207275
,,,-4.63E-06,0.0207425
,,,-4.62E-06,0.020693125
,,,-4.61E-06,0.0206475
,,,-4.6E-06,0.020935
,,,-4.59E-06,0.02073125
,,,-4.58E-06,0.0204775
,,,-4.57E-06,0.02088125
,,,-4.56E-06,0.0207475
,,,-4.55E-06,0.0207475
,,,-4.54E-06,0.020758125
,,,-4.53E-06,0.02059125
,,,-4.52E-06,0.020705
,,,-4.51E-06,0.02089625
,,,-4.5E-06,0.02089625
,,,-4.49E-06,0.020860625
,,,-4.48E-06,0.020734375
,,,-4.47E-06,0.020574375
,,,-4.46E-06,0.02070125
,,,-4.45E-06,0.020933125
,,,-4.44E-06,0.02083125
,,,-4.43E-06,0.02053875
,,,-4.42E-06,0.02062375
,,,-4.41E-06,0.020803125
,,,-4.4E-06,0.020649375
,,,-4.39E-06,0.02065
,,,-4.38E-06,0.02075
,,,-4.37E-06,0.02079625
,,,-4.36E-06,0.020695625
,,,-4.35E-06,0.020623125
,,,-4.34E-06,0.020805
,,,-4.33E-06,0.020701875
,,,-4.32E-06,0.0207825
,,,-4.31E-06,0.02061
,,,-4.3E-06,0.0208875
,,,-4.29E-06,0.020735
,,,-4.28E-06,0.02058625
,,,-4.27E-06,0.0205275
,,,-4.26E-06,0.020575625
,,,-4.25E-06,0.0207975
,,,-4.24E-06,0.02081125
,,,-4.23E-06,0.020845625
,,,-4.22E-06,0.02072375
,,,-4.21E-06,0.020870625
,,,-4.2E-06,0.020580625
,,,-4.19E-06,0.020674375
,,,-4.18E-06,0.020673125
,,,-4.17E-06,0.02064
,,,-4.16E-06,0.020645
,,,-4.15E-06,0.02059875
,,,-4.14E-06,0.02104125
,,,-4.13E-06,0.020778125
,,,-4.12E-06,0.020769375
,,,-4.11E-06,0.020606875
,,,-4.1E-06,0.020556875
,,,-4.09E-06,0.020640625
,,,-4.08E-06,0.02087875
,,,-4.07E-06,0.0208175
,,,-4.06E-06,0.0206275
,,,-4.05E-06,0.020870625
,,,-4.04E-06,0.0205975
,,,-4.03E-06,0.0206675
,,,-4.02E-06,0.020825
,,,-4.01E-06,0.020786875
,,,-4E-06,0.020661875
,,,-3.99E-06,0.020735
,,,-3.98E-06,0.0206575
,,,-3.97E-06,0.020564375
,,,-3.96E-06,0.020909375
,,,-3.95E-06,0.020768125
,,,-3.94E-06,0.02085
,,,-3.93E-06,0.0208625
,,,-3.92E-06,0.020679375
,,,-3.91E-06,0.020731875
,,,-3.9E-06,0.020728125
,,,-3.89E-06,0.021079375
,,,-3.88E-06,0.020731875
,,,-3.87E-06,0.02074375
,,,-3.86E-06,0.020621875
,,,-3.85E-06,0.020576875
,,,-3.84E-06,0.020823125
,,,-3.83E-06,0.02077375
,,,-3.82E-06,0.020870625
,,,-3.81E-06,0.020870625
,,,-3.8E-06,0.02061
,,,-3.79E-06,0.02070375
,,,-3.78E-06,0.020864375
,,,-3.77E-06,0.020863125
,,,-3.76E-06,0.020743125
,,,-3.75E-06,0.0209525
,,,-3.74E-06,0.02081375
,,,-3.73E-06,0.020723125
,,,-3.72E-06,0.02090375
,,,-3.71E-06,0.020769375
,,,-3.7E-06,0.02065125
,,,-3.69E-06,0.0208075
,,,-3.68E-06,0.020483125
,,,-3.67E-06,0.020828125
,,,-3.66E-06,0.02066
,,,-3.65E-06,0.02054875
,,,-3.64E-06,0.021040625
,,,-3.63E-06,0.02071125
,,,-3.62E-06,0.02063
,,,-3.61E-06,0.020653125
,,,-3.6E-06,0.020628125
,,,-3.59E-06,0.02074875
,,,-3.58E-06,0.0206375
,,,-3.57E-06,0.02057875
,,,-3.56E-06,0.020651875
,,,-3.55E-06,0.02069625
,,,-3.54E-06,0.0207475
,,,-3.53E-06,0.0208125
,,,-3.52E-06,0.020840625
,,,-3.51E-06,0.020569375
,,,-3.5E-06,0.020733125
,,,-3.49E-06,0.020745625
,,,-3.48E-06,0.02097875
,,,-3.47E-06,0.020559375
,,,-3.46E-06,0.02058
,,,-3.45E-06,0.0207875
,,,-3.44E-06,0.020925
,,,-3.43E-06,0.020681875
,,,-3.42E-06,0.02085
,,,-3.41E-06,0.020585
,,,-3.4E-06,0.020745625
,,,-3.39E-06,0.02065625
,,,-3.38E-06,0.020786875
,,,-3.37E-06,0.02059875
,,,-3.36E-06,0.02089
,,,-3.35E-06,0.02077625
,,,-3.34E-06,0.020969375
,,,-3.33E-06,0.0208675
,,,-3.32E-06,0.020693125
,,,-3.31E-06,0.0208775
,,,-3.3E-06,0.020649375
,,,-3.29E-06,0.02049125
,,,-3.28E-06,0.020881875
,,,-3.27E-06,0.0206925
,,,-3.26E-06,0.02071875
,,,-3.25E-06,0.020495
,,,-3.24E-06,0.020704375
,,,-3.23E-06,0.02078625
,,,-3.22E-06,0.02068
,,,-3.21E-06,0.02066625
,,,-3.2E-06,0.020935625
,,,-3.19E-06,0.020749375
,,,-3.18E-06,0.02062375
,,,-3.17E-06,0.02108
,,,-3.16E-06,0.020781875
,,,-3.15E-06,0.0205775
,,,-3.14E-06,0.02052625
,,,-3.13E-06,0.020775625
,,,-3.12E-06,0.02064
,,,-3.11E-06,0.020845625
,,,-3.1E-06,0.020985
,,,-3.09E-06,0.020559375
,,,-3.08E-06,0.0206575
,,,-3.07E-06,0.0208425
,,,-3.06E-06,0.02069
,,,-3.05E-06,0.02091875
,,,-3.04E-06,0.02078875
,,,-3.03E-06,0.020525
,,,-3.02E-06,0.020595
,,,-3.01E-06,0.02072
,,,-3E-06,0.020726875
,,,-2.99E-06,0.020448125
,,,-2.98E-06,0.020696875
,,,-2.97E-06,0.020729375
,,,-2.96E-06,0.020843125
,,,-2.95E-06,0.020693125
,,,-2.94E-06,0.02091
,,,-2.93E-06,0.02067625
,,,-2.92E-06,0.02084
,,,-2.91E-06,0.020865625
,,,-2.9E-06,0.020599375
,,,-2.89E-06,0.020804375
,,,-2.88E-06,0.020773125
,,,-2.87E-06,0.020704375
,,,-2.86E-06,0.02069125
,,,-2.85E-06,0.020643125
,,,-2.84E-06,0.020735625
,,,-2.83E-06,0.020684375
,,,-2.82E-06,0.020765
,,,-2.81E-06,0.02066875
,,,-2.8E-06,0.020444375
,,,-2.79E-06,0.020686875
,,,-2.78E-06,0.0207275
,,,-2.77E-06,0.0208
,,,-2.76E-06,0.020679375
,,,-2.75E-06,0.0206525
,,,-2.74E-06,0.020688125
,,,-2.73E-06,0.020675
,,,-2.72E-06,0.020729375
,,,-2.71E-06,0.020458125
,,,-2.7E-06,0.020779375
,,,-2.69E-06,0.020530625
,,,-2.68E-06,0.020668125
,,,-2.67E-06,0.02070625
,,,-2.66E-06,0.02070875
,,,-2.65E-06,0.020745625
,,,-2.64E-06,0.020663125
,,,-2.63E-06,0.020558125
,,,-2.62E-06,0.02074125
,,,-2.61E-06,0.02055625
,,,-2.6E-06,0.02060375
,,,-2.59E-06,0.0210375
,,,-2.58E-06,0.020549375
,,,-2.57E-06,0.02083875
,,,-2.56E-06,0.02067625
,,,-2.55E-06,0.0205275
,,,-2.54E-06,0.0206725
,,,-2.53E-06,0.02081125
,,,-2.52E-06,0.020856875
,,,-2.51E-06,0.021005
,,,-2.5E-06,0.020469375
,,,-2.49E-06,0.020684375
,,,-2.48E-06,0.020709375
,,,-2.47E-06,0.02075
,,,-2.46E-06,0.02091125
,,,-2.45E-06,0.020608125
,,,-2.44E-06,0.020760625
,,,-2.43E-06,0.02081
,,,-2.42E-06,0.0205375
,,,-2.41E-06,0.02079375
,,,-2.4E-06,0.02093375
,,,-2.39E-06,0.02078125
,,,-2.38E-06,0.020785625
,,,-2.37E-06,0.020668125
,,,-2.36E-06,0.020526875
,,,-2.35E-06,0.020824375
,,,-2.34E-06,0.02082
,,,-2.33E-06,0.020600625
,,,-2.32E-06,0.020820625
,,,-2.31E-06,0.021068125
,,,-2.3E-06,0.0209
,,,-2.29E-06,0.020761875
,,,-2.28E-06,0.02067375
,,,-2.27E-06,0.02069375
,,,-2.26E-06,0.020775625
,,,-2.25E-06,0.02077
,,,-2.24E-06,0.020959375
,,,-2.23E-06,0.02077625
,,,-2.22E-06,0.0206075
,,,-2.21E-06,0.020884375
,,,-2.2E-06,0.020781875
,,,-2.19E-06,0.02080125
,,,-2.18E-06,0.020708125
,,,-2.17E-06,0.0205525
,,,-2.16E-06,0.020593125
,,,-2.15E-06,0.02059375
,,,-2.14E-06,0.02082875
,,,-2.13E-06,0.020775625
,,,-2.12E-06,0.020901875
,,,-2.11E-06,0.020635
,,,-2.1E-06,0.020836875
,,,-2.09E-06,0.02077375
,,,-2.08E-06,0.0211225
,,,-2.07E-06,0.020725625
,,,-2.06E-06,0.0206475
,,,-2.05E-06,0.020818125
,,,-2.04E-06,0.020648125
,,,-2.03E-06,0.02086
,,,-2.02E-06,0.020783125
,,,-2.01E-06,0.020755
,,,-2E-06,0.020725
,,,-1.99E-06,0.021004375
,,,-1.98E-06,0.020571875
,,,-1.97E-06,0.020881875
,,,-1.96E-06,0.02055375
,,,-1.95E-06,0.02087
,,,-1.94E-06,0.020598125
,,,-1.93E-06,0.02080375
,,,-1.92E-06,0.020943125
,,,-1.91E-06,0.02072375
,,,-1.9E-06,0.020850625
,,,-1.89E-06,0.020748125
,,,-1.88E-06,0.02067
,,,-1.87E-06,0.020674375
,,,-1.86E-06,0.02082375
,,,-1.85E-06,0.02075625
,,,-1.84E-06,0.020716875
,,,-1.83E-06,0.020805625
,,,-1.82E-06,0.0207525
,,,-1.81E-06,0.020631875
,,,-1.8E-06,0.02073
,,,-1.79E-06,0.02064
,,,-1.78E-06,0.020709375
,,,-1.77E-06,0.02086375
,,,-1.76E-06,0.02054625
,,,-1.75E-06,0.021006875
,,,-1.74E-06,0.020543125
,,,-1.73E-06,0.020675
,,,-1.72E-06,0.02048
,,,-1.71E-06,0.020730625
,,,-1.7E-06,0.02058125
,,,-1.69E-06,0.02070375
,,,-1.68E-06,0.020508125
,,,-1.67E-06,0.020675625
,,,-1.66E-06,0.02068625
,,,-1.65E-06,0.020929375
,,,-1.64E-06,0.0207225
,,,-1.63E-06,0.020475625
,,,-1.62E-06,0.0208475
,,,-1.61E-06,0.02085625
,,,-1.6E-06,0.020525625
,,,-1.59E-06,0.020710625
,,,-1.58E-06,0.02089125
,,,-1.57E-06,0.02069125
,,,-1.56E-06,0.020625
,,,-1.55E-06,0.020755625
,,,-1.54E-06,0.020738125
,,,-1.53E-06,0.02070125
,,,-1.52E-06,0.020616875
,,,-1.51E-06,0.0209025
,,,-1.5E-06,0.020830625
,,,-1.49E-06,0.0204975
,,,-1.48E-06,0.020838125
,,,-1.47E-06,0.0204225
,,,-1.46E-06,0.0208375
,,,-1.45E-06,0.02046875
,,,-1.44E-06,0.02083125
,,,-1.43E-06,0.020935
,,,-1.42E-06,0.020858125
,,,-1.41E-06,0.020745625
,,,-1.4E-06,0.020734375
,,,-1.39E-06,0.020751875
,,,-1.38E-06,0.02053125
,,,-1.37E-06,0.020665
,,,-1.36E-06,0.020805
,,,-1.35E-06,0.020804375
,,,-1.34E-06,0.020591875
,,,-1.33E-06,0.02090375
,,,-1.32E-06,0.020789375
,,,-1.31E-06,0.02041875
,,,-1.3E-06,0.020863125
,,,-1.29E-06,0.02069625
,,,-1.28E-06,0.020755625
,,,-1.27E-06,0.020599375
,,,-1.26E-06,0.020806875
,,,-1.25E-06,0.02067125
,,,-1.24E-06,0.020869375
,,,-1.23E-06,0.020559375
,,,-1.22E-06,0.020726875
,,,-1.21E-06,0.02066125
,,,-1.2E-06,0.020558125
,,,-1.19E-06,0.0206475
,,,-1.18E-06,0.020754375
,,,-1.17E-06,0.020623125
,,,-1.16E-06,0.020746875
,,,-1.15E-06,0.020614375
,,,-1.14E-06,0.020861875
,,,-1.13E-06,0.020663125
,,,-1.12E-06,0.02072875
,,,-1.11E-06,0.02086375
,,,-1.1E-06,0.020683125
,,,-1.09E-06,0.02081125
,,,-1.08E-06,0.02066125
,,,-1.07E-06,0.020809375
,,,-1.06E-06,0.02059125
,,,-1.05E-06,0.0204925
,,,-1.04E-06,0.0206575
,,,-1.03E-06,0.0208675
,,,-1.02E-06,0.02066
,,,-1.01E-06,0.0208525
,,,-1E-06,0.02086375
,,,-9.9E-07,0.020665625
,,,-9.8E-07,0.0205025
,,,-9.7E-07,0.0208375
,,,-9.6E-07,0.0208375
,,,-9.5E-07,0.020505625
,,,-9.4E-07,0.020590625
,,,-9.3E-07,0.02082625
,,,-9.2E-07,0.0210025
,,,-9.1E-07,0.02068875
,,,-9E-07,0.020690625
,,,-8.9E-07,0.020508125
,,,-8.8E-07,0.020695625
,,,-8.7E-07,0.02079875
,,,-8.6E-07,0.020605625
,,,-8.5E-07,0.02057875
,,,-8.4E-07,0.020785
,,,-8.3E-07,0.020720625
,,,-8.2E-07,0.02094875
,,,-8.1E-07,0.02105375
,,,-8E-07,0.020625625
,,,-7.9E-07,0.0207525
,,,-7.8E-07,0.020710625
,,,-7.7E-07,0.020635625
,,,-7.6E-07,0.020829375
,,,-7.5E-07,0.020766875
,,,-7.4E-07,0.020714375
,,,-7.3E-07,0.020518125
,,,-7.2E-07,0.02084125
,,,-7.1E-07,0.02081875
,,,-7E-07,0.020719375
,,,-6.9E-07,0.020671875
,,,-6.8E-07,0.020710625
,,,-6.7E-07,0.0206525
,,,-6.6E-07,0.0206525
,,,-6.5E-07,0.020869375
,,,-6.4E-07,0.020805625
,,,-6.3E-07,0.021083125
,,,-6.2E-07,0.020623125
,,,-6.1E-07,0.020776875
,,,-6E-07,0.020745
,,,-5.9E-07,0.02078875
,,,-5.8E-07,0.02096
,,,-5.7E-07,0.020759375
,,,-5.6E-07,0.020803125
,,,-5.5E-07,0.020755
,,,-5.4E-07,0.02068625
,,,-5.3E-07,0.020739375
,,,-5.2E-07,0.020798125
,,,-5.1E-07,0.0204825
,,,-5E-07,0.020788125
,,,-4.9E-07,0.020754375
,,,-4.8E-07,0.020454375
,,,-4.7E-07,0.020675
,,,-4.6E-07,0.020475625
,,,-4.5E-07,0.02074125
,,,-4.4E-07,0.02048875
,,,-4.3E-07,0.02067375
,,,-4.2E-07,0.020589375
,,,-4.1E-07,0.020834375
,,,-4E-07,0.020708125
,,,-3.9E-07,0.020630625
,,,-3.8E-07,0.0207075
,,,-3.7E-07,0.020924375
,,,-3.6E-07,0.020805625
,,,-3.5E-07,0.0207475
,,,-3.4E-07,0.020876875
,,,-3.3E-07,0.020900625
,,,-3.2E-07,0.02068
,,,-3.1E-07,0.0206525
,,,-3E-07,0.02105125
,,,-2.9E-07,0.020605
,,,-2.8E-07,0.02084625
,,,-2.7E-07,0.020709375
,,,-2.6E-07,0.020775
,,,-2.5E-07,0.020750625
,,,-2.4E-07,0.02066875
,,,-2.3E-07,0.02074875
,,,-2.2E-07,0.020679375
,,,-2.1E-07,0.020786875
,,,-2E-07,0.02074
,,,-1.9E-07,0.020475
,,,-1.8E-07,0.020561875
,,,-1.7E-07,0.020653125
,,,-1.6E-07,0.020836875
,,,-1.5E-07,0.020656875
,,,-1.4E-07,0.02074
,,,-1.3E-07,0.020790625
,,,-1.2E-07,0.02066
,,,-1.1E-07,0.0205125
,,,-1E-07,0.020944375
,,,-9E-08,0.020676875
,,,-8E-08,0.02066
,,,-7E-08,0.020895
,,,-6E-08,0.020440625
,,,-5E-08,0.02120125
,,,-4E-08,0.020951875
,,,-3E-08,0.02147625
,,,-2E-08,0.0200175
,,,-1E-08,0.01931
,,,0,0.02006
,,,1E-08,0.02151625
,,,2E-08,0.02211875
,,,3E-08,0.02181125
,,,4E-08,0.0204775
,,,5E-08,0.019905625
,,,6E-08,0.019666875
,,,7E-08,0.020415
,,,8E-08,0.021110625
,,,9E-08,0.021780625
,,,1E-07,0.02132875
,,,1.1E-07,0.020804375
,,,1.2E-07,0.020095625
,,,1.3E-07,0.020243125
,,,1.4E-07,0.020609375
,,,1.5E-07,0.0206825
,,,1.6E-07,0.02073375
,,,1.7E-07,0.02105625
,,,1.8E-07,0.020759375
,,,1.9E-07,0.020736875
,,,2E-07,0.0208075
,,,2.1E-07,0.02054375
,,,2.2E-07,0.0206675
,,,2.3E-07,0.02081875
,,,2.4E-07,0.020636875
,,,2.5E-07,0.020883125
,,,2.6E-07,0.020830625
,,,2.7E-07,0.020386875
,,,2.8E-07,0.0207675
,,,2.9E-07,0.02083375
,,,3E-07,0.020858125
,,,3.1E-07,0.020695
,,,3.2E-07,0.020790625
,,,3.3E-07,0.0209525
,,,3.4E-07,0.020664375
,,,3.5E-07,0.020885625
,,,3.6E-07,0.02065375
,,,3.7E-07,0.020693125
,,,3.8E-07,0.020664375
,,,3.9E-07,0.020848125
,,,4E-07,0.020725
,,,4.1E-07,0.02081625
,,,4.2E-07,0.020821875
,,,4.3E-07,0.020555625
,,,4.4E-07,0.020659375
,,,4.5E-07,0.020865
,,,4.6E-07,0.0204675
,,,4.7E-07,0.02096625
,,,4.8E-07,0.020905625
,,,4.9E-07,0.020455
,,,5E-07,0.020683125
,,,5.1E-07,0.020885
,,,5.2E-07,0.02081625
,,,5.3E-07,0.020650625
,,,5.4E-07,0.020481875
,,,5.5E-07,0.020830625
,,,5.6E-07,0.020843125
,,,5.7E-07,0.02055
,,,5.8E-07,0.02097125
,,,5.9E-07,0.020696875
,,,6E-07,0.020693125
,,,6.1E-07,0.020774375
,,,6.2E-07,0.02077
,,,6.3E-07,0.0206175
,,,6.4E-07,0.020665
,,,6.5E-07,0.02062375
,,,6.6E-07,0.020658125
,,,6.7E-07,0.020728125
,,,6.8E-07,0.020625
,,,6.9E-07,0.0206225
,,,7E-07,0.02078125
,,,7.1E-07,0.020765625
,,,7.2E-07,0.020799375
,,,7.3E-07,0.020803125
,,,7.4E-07,0.0209475
,,,7.5E-07,0.02068625
,,,7.6E-07,0.02044875
,,,7.7E-07,0.020726875
,,,7.8E-07,0.020726875
,,,7.9E-07,0.02064625
,,,8E-07,0.02093375
,,,8.1E-07,0.020360625
,,,8.2E-07,0.020850625
,,,8.3E-07,0.020603125
,,,8.4E-07,0.020666875
,,,8.5E-07,0.0208875
,,,8.6E-07,0.0207475
,,,8.7E-07,0.02074125
,,,8.8E-07,0.02088875
,,,8.9E-07,0.020450625
,,,9E-07,0.02078
,,,9.1E-07,0.020766875
,,,9.2E-07,0.020675625
,,,9.3E-07,0.020736875
,,,9.4E-07,0.02083375
,,,9.5E-07,0.0207375
,,,9.6E-07,0.020680625
,,,9.7E-07,0.020643125
,,,9.8E-07,0.02072
,,,9.9E-07,0.02069
,,,1E-06,0.020775625
,,,1.01E-06,0.020674375
,,,1.02E-06,0.02065125
,,,1.03E-06,0.020723125
,,,1.04E-06,0.020764375
,,,1.05E-06,0.020543125
,,,1.06E-06,0.0206675
,,,1.07E-06,0.020811875
,,,1.08E-06,0.020651875
,,,1.09E-06,0.02085625
,,,1.1E-06,0.02076875
,,,1.11E-06,0.02072
,,,1.12E-06,0.020556875
,,,1.13E-06,0.020693125
,,,1.14E-06,0.0206325
,,,1.15E-06,0.02086375
,,,1.16E-06,0.02071125
,,,1.17E-06,0.020675625
,,,1.18E-06,0.02080125
,,,1.19E-06,0.020840625
,,,1.2E-06,0.02055875
,,,1.21E-06,0.0206
,,,1.22E-06,0.020748125
,,,1.23E-06,0.020775
,,,1.24E-06,0.0206325
,,,1.25E-06,0.02053375
,,,1.26E-06,0.020803125
,,,1.27E-06,0.0207375
,,,1.28E-06,0.02077
,,,1.29E-06,0.020475625
,,,1.3E-06,0.020738125
,,,1.31E-06,0.02082875
,,,1.32E-06,0.0206875
,,,1.33E-06,0.0208525
,,,1.34E-06,0.020731875
,,,1.35E-06,0.020678125
,,,1.36E-06,0.0207225
,,,1.37E-06,0.020898125
,,,1.38E-06,0.020603125
,,,1.39E-06,0.02080625
,,,1.4E-06,0.020896875
,,,1.41E-06,0.0205575
,,,1.42E-06,0.0210875
,,,1.43E-06,0.020780625
,,,1.44E-06,0.020746875
,,,1.45E-06,0.02063375
,,,1.46E-06,0.020808125
,,,1.47E-06,0.0208
,,,1.48E-06,0.02062
,,,1.49E-06,0.021069375
,,,1.5E-06,0.020773125
,,,1.51E-06,0.02090375
,,,1.52E-06,0.02055375
,,,1.53E-06,0.020854375
,,,1.54E-06,0.0206425
,,,1.55E-06,0.020768125
,,,1.56E-06,0.020765625
,,,1.57E-06,0.020949375
,,,1.58E-06,0.020744375
,,,1.59E-06,0.02073
,,,1.6E-06,0.02062
,,,1.61E-06,0.020865625
,,,1.62E-06,0.0208225
,,,1.63E-06,0.02081625
,,,1.64E-06,0.020706875
,,,1.65E-06,0.020738125
,,,1.66E-06,0.02087375
,,,1.67E-06,0.020640625
,,,1.68E-06,0.0207825
,,,1.69E-06,0.0208625
,,,1.7E-06,0.020564375
,,,1.71E-06,0.02076125
,,,1.72E-06,0.02063375
,,,1.73E-06,0.020658125
,,,1.74E-06,0.020835625
,,,1.75E-06,0.02082375
,,,1.76E-06,0.020590625
,,,1.77E-06,0.020690625
,,,1.78E-06,0.02086
,,,1.79E-06,0.0208025
,,,1.8E-06,0.020435625
,,,1.81E-06,0.02100375
,,,1.82E-06,0.020899375
,,,1.83E-06,0.020888125
,,,1.84E-06,0.020893125
,,,1.85E-06,0.02055375
,,,1.86E-06,0.020670625
,,,1.87E-06,0.020805
,,,1.88E-06,0.020950625
,,,1.89E-06,0.020685
,,,1.9E-06,0.0206925
,,,1.91E-06,0.020801875
,,,1.92E-06,0.020785625
,,,1.93E-06,0.02101875
,,,1.94E-06,0.02073625
,,,1.95E-06,0.02077125
,,,1.96E-06,0.020635625
,,,1.97E-06,0.02081625
,,,1.98E-06,0.020793125
,,,1.99E-06,0.020893125
,,,2E-06,0.02064875
,,,2.01E-06,0.020735
,,,2.02E-06,0.020700625
,,,2.03E-06,0.020864375
,,,2.04E-06,0.0208025
,,,2.05E-06,0.020663125
,,,2.06E-06,0.020705625
,,,2.07E-06,0.0208025
,,,2.08E-06,0.02056125
,,,2.09E-06,0.02050875
,,,2.1E-06,0.02073
,,,2.11E-06,0.02060375
,,,2.12E-06,0.020631875
,,,2.13E-06,0.020804375
,,,2.14E-06,0.020965
,,,2.15E-06,0.020706875
,,,2.16E-06,0.0205975
,,,2.17E-06,0.02066625
,,,2.18E-06,0.02082
,,,2.19E-06,0.0205375
,,,2.2E-06,0.020810625
,,,2.21E-06,0.02071375
,,,2.22E-06,0.020845625
,,,2.23E-06,0.02081625
,,,2.24E-06,0.0209925
,,,2.25E-06,0.020913125
,,,2.26E-06,0.0207825
,,,2.27E-06,0.020956875
,,,2.28E-06,0.020941875
,,,2.29E-06,0.020665
,,,2.3E-06,0.0207975
,,,2.31E-06,0.020684375
,,,2.32E-06,0.020668125
,,,2.33E-06,0.0208075
,,,2.34E-06,0.020973125
,,,2.35E-06,0.02086
,,,2.36E-06,0.02082
,,,2.37E-06,0.0208175
,,,2.38E-06,0.02066625
,,,2.39E-06,0.02069375
,,,2.4E-06,0.020833125
,,,2.41E-06,0.020699375
,,,2.42E-06,0.020599375
,,,2.43E-06,0.020840625
,,,2.44E-06,0.02071875
,,,2.45E-06,0.020935
,,,2.46E-06,0.0208025
,,,2.47E-06,0.02057
,,,2.48E-06,0.02074625
,,,2.49E-06,0.020615
,,,2.5E-06,0.020855625
,,,2.51E-06,0.0205975
,,,2.52E-06,0.0207275
,,,2.53E-06,0.020758125
,,,2.54E-06,0.020918125
,,,2.55E-06,0.02077375
,,,2.56E-06,0.020881875
,,,2.57E-06,0.020494375
,,,2.58E-06,0.02070125
,,,2.59E-06,0.02066375
,,,2.6E-06,0.020878125
,,,2.61E-06,0.02078
,,,2.62E-06,0.02090375
,,,2.63E-06,0.020653125
,,,2.64E-06,0.0207025
,,,2.65E-06,0.020671875
,,,2.66E-06,0.020601875
,,,2.67E-06,0.020654375
,,,2.68E-06,0.02058375
,,,2.69E-06,0.02086125
,,,2.7E-06,0.02034125
,,,2.71E-06,0.02079625
,,,2.72E-06,0.020654375
,,,2.73E-06,0.020846875
,,,2.74E-06,0.02064125
,,,2.75E-06,0.0205
,,,2.76E-06,0.020648125
,,,2.77E-06,0.02073875
,,,2.78E-06,0.020829375
,,,2.79E-06,0.02068125
,,,2.8E-06,0.02057875
,,,2.81E-06,0.02087375
,,,2.82E-06,0.020570625
,,,2.83E-06,0.020328125
,,,2.84E-06,0.0207425
,,,2.85E-06,0.0206175
,,,2.86E-06,0.020626875
,,,2.87E-06,0.0206875
,,,2.88E-06,0.020783125
,,,2.89E-06,0.020691875
,,,2.9E-06,0.0208175
,,,2.91E-06,0.020856875
,,,2.92E-06,0.0205
,,,2.93E-06,0.020730625
,,,2.94E-06,0.02077125
,,,2.95E-06,0.020665625
,,,2.96E-06,0.020595625
,,,2.97E-06,0.020584375
,,,2.98E-06,0.02081875
,,,2.99E-06,0.02084625
,,,3E-06,0.020406875
,,,3.01E-06,0.020658125
,,,3.02E-06,0.020363125
,,,3.03E-06,0.0207475
,,,3.04E-06,0.021006875
,,,3.05E-06,0.020753125
,,,3.06E-06,0.02075875
,,,3.07E-06,0.020674375
,,,3.08E-06,0.020734375
,,,3.09E-06,0.02062375
,,,3.1E-06,0.020485
,,,3.11E-06,0.0209575
,,,3.12E-06,0.020533125
,,,3.13E-06,0.020633125
,,,3.14E-06,0.020725625
,,,3.15E-06,0.020830625
,,,3.16E-06,0.020675
,,,3.17E-06,0.020806875
,,,3.18E-06,0.02084125
,,,3.19E-06,0.020721875
,,,3.2E-06,0.0206075
,,,3.21E-06,0.02078375
,,,3.22E-06,0.020624375
,,,3.23E-06,0.020928125
,,,3.24E-06,0.02092875
,,,3.25E-06,0.020618125
,,,3.26E-06,0.020705
,,,3.27E-06,0.020925
,,,3.28E-06,0.0205225
,,,3.29E-06,0.020714375
,,,3.3E-06,0.020539375
,,,3.31E-06,0.020793125
,,,3.32E-06,0.0209
,,,3.33E-06,0.020543125
,,,3.34E-06,0.020684375
,,,3.35E-06,0.020564375
,,,3.36E-06,0.02061
,,,3.37E-06,0.020721875
,,,3.38E-06,0.020909375
,,,3.39E-06,0.020834375
,,,3.4E-06,0.020728125
,,,3.41E-06,0.02073125
,,,3.42E-06,0.020639375
,,,3.43E-06,0.020504375
,,,3.44E-06,0.0207075
,,,3.45E-06,0.02053375
,,,3.46E-06,0.020798125
,,,3.47E-06,0.020848125
,,,3.48E-06,0.020631875
,,,3.49E-06,0.020744375
,,,3.5E-06,0.020751875
,,,3.51E-06,0.020695
,,,3.52E-06,0.02072625
,,,3.53E-06,0.020595
,,,3.54E-06,0.02057
,,,3.55E-06,0.020715
,,,3.56E-06,0.020574375
,,,3.57E-06,0.020828125
