data/raw/Final_POL_Test_1/SOP038_Ch2.csv

"Record Length",1000,"Points",-5E-06,0.022744375
"Sample Interval",1E-08,s,-4.99E-06,0.022793125
"Trigger Point",500,"Samples",-4.98E-06,0.022333125
"Trigger Time",0,s,-4.97E-06,0.022611875
"",,,-4.96E-06,0.022465
"Horizontal Offset",-5E-06,s,-4.95E-06,0.022690625
,,,-4.94E-06,0.022368125
,,,-4.93E-06,0.022595
,,,-4.92E-06,0.022536875
,,,-4.91E-06,0.022529375
,,,-4.9E-06,0.02252375
,,,-4.89E-06,0.02273
,,,-4.88E-06,0.02250375
,,,-4.87E-06,0.02258375
,,,-4.86E-06,0.02223375
,,,-4.85E-06,0.02247
,,,-4.84E-06,0.022518125
,,,-4.83E-06,0.022603125
,,,-4.82E-06,0.022738125
,,,-4.81E-06,0.022766875
,,,-4.8E-06,0.022705625
,,,-4.79E-06,0.022626875
,,,-4.78E-06,0.022380625
,,,-4.77E-06,0.022604375
,,,-4.76E-06,0.022350625
,,,-4.75E-06,0.022308125
,,,-4.74E-06,0.02234625
,,,-4.73E-06,0.022255625
,,,-4.72E-06,0.022550625
,,,-4.71E-06,0.02254125
,,,-4.7E-06,0.022553125
,,,-4.69E-06,0.022626875
,,,-4.68E-06,0.022328125
,,,-4.67E-06,0.022478125
,,,-4.66E-06,0.022369375
,,,-4.65E-06,0.022646875
,,,-4.64E-06,0.022510625
,,,-4.63E-06,0.022448125
,,,-4.62E-06,0.022759375
,,,-4.61E-06,0.022646875
,,,-4.6E-06,0.022540625
,,,-4.59E-06,0.022394375
,,,-4.58E-06,0.02253125
,,,-4.57E-06,0.022776875
,,,-4.56E-06,0.02253
,,,-4.55E-06,0.02263625
,,,-4.54E-06,0.022850625
,,,-4.53E-06,0.022431875
,,,-4.52E-06,0.0226725
,,,-4.51E-06,0.022384375
,,,-4.5E-06,0.022365
,,,-4.49E-06,0.022446875
,,,-4.48E-06,0.0226025
,,,-4.47E-06,0.022465625
,,,-4.46E-06,0.02258625
,,,-4.45E-06,0.022455
,,,-4.44E-06,0.022356875
,,,-4.43E-06,0.02249125
,,,-4.42E-06,0.022568125
,,,-4.41E-06,0.02255125
,,,-4.4E-06,0.02278125
,,,-4.39E-06,0.0226225
,,,-4.38E-06,0.02243
,,,-4.37E-06,0.0223275
,,,-4.36E-06,0.022485
,,,-4.35E-06,0.022428125
,,,-4.34E-06,0.02275375
,,,-4.33E-06,0.022464375
,,,-4.32E-06,0.02263375
,,,-4.31E-06,0.022360625
,,,-4.3E-06,0.022243125
,,,-4.29E-06,0.02267375
,,,-4.28E-06,0.022528125
,,,-4.27E-06,0.02246625
,,,-4.26E-06,0.02234375
,,,-4.25E-06,0.022504375
,,,-4.24E-06,0.0225275
,,,-4.23E-06,0.02280625
,,,-4.22E-06,0.022515
,,,-4.21E-06,0.022476875
,,,-4.2E-06,0.022681875
,,,-4.19E-06,0.02263875
,,,-4.18E-06,0.02261
,,,-4.17E-06,0.022494375
,,,-4.16E-06,0.0224675
,,,-4.15E-06,0.022395
,,,-4.14E-06,0.022483125
,,,-4.13E-06,0.02248625
,,,-4.12E-06,0.022493125
,,,-4.11E-06,0.022666875
,,,-4.1E-06,0.022518125
,,,-4.09E-06,0.02228875
,,,-4.08E-06,0.02250375
,,,-4.07E-06,0.022619375
,,,-4.06E-06,0.022529375
,,,-4.05E-06,0.022469375
,,,-4.04E-06,0.022531875
,,,-4.03E-06,0.022614375
,,,-4.02E-06,0.0225125
,,,-4.01E-06,0.022594375
,,,-4E-06,0.0225375
,,,-3.99E-06,0.02228375
,,,-3.98E-06,0.022490625
,,,-3.97E-06,0.022531875
,,,-3.96E-06,0.022314375
,,,-3.95E-06,0.022581875
,,,-3.94E-06,0.022451875
,,,-3.93E-06,0.022198125
,,,-3.92E-06,0.022570625
,,,-3.91E-06,0.022205625
,,,-3.9E-06,0.02265125
,,,-3.89E-06,0.022588125
,,,-3.88E-06,0.022435625
,,,-3.87E-06,0.022438125
,,,-3.86E-06,0.022445
,,,-3.85E-06,0.022468125
,,,-3.84E-06,0.022376875
,,,-3.83E-06,0.022499375
,,,-3.82E-06,0.022701875
,,,-3.81E-06,0.0227175
,,,-3.8E-06,0.022129375
,,,-3.79E-06,0.022413125
,,,-3.78E-06,0.022701875
,,,-3.77E-06,0.02255
,,,-3.76E-06,0.02223
,,,-3.75E-06,0.0222225
,,,-3.74E-06,0.02255625
,,,-3.73E-06,0.022478125
,,,-3.72E-06,0.022535625
,,,-3.71E-06,0.022636875
,,,-3.7E-06,0.022310625
,,,-3.69E-06,0.022345
,,,-3.68E-06,0.022715
,,,-3.67E-06,0.02258125
,,,-3.66E-06,0.022329375
,,,-3.65E-06,0.022638125
,,,-3.64E-06,0.022541875
,,,-3.63E-06,0.022454375
,,,-3.62E-06,0.02236125
,,,-3.61E-06,0.022391875
,,,-3.6E-06,0.022405
,,,-3.59E-06,0.022268125
,,,-3.58E-06,0.022654375
,,,-3.57E-06,0.0226475
,,,-3.56E-06,0.022668125
,,,-3.55E-06,0.022585625
,,,-3.54E-06,0.02249625
,,,-3.53E-06,0.022455625
,,,-3.52E-06,0.022536875
,,,-3.51E-06,0.022686875
,,,-3.5E-06,0.022439375
,,,-3.49E-06,0.022399375
,,,-3.48E-06,0.022615
,,,-3.47E-06,0.022544375
,,,-3.46E-06,0.022385
,,,-3.45E-06,0.022533125
,,,-3.44E-06,0.022318125
,,,-3.43E-06,0.02248875
,,,-3.42E-06,0.022415625
,,,-3.41E-06,0.02263
,,,-3.4E-06,0.022621875
,,,-3.39E-06,0.022484375
,,,-3.38E-06,0.02248125
,,,-3.37E-06,0.022473125
,,,-3.36E-06,0.0223875
,,,-3.35E-06,0.02235125
,,,-3.34E-06,0.022613125
,,,-3.33E-06,0.0225475
,,,-3.32E-06,0.022475
,,,-3.31E-06,0.02258875
,,,-3.3E-06,0.02267
,,,-3.29E-06,0.022451875
,,,-3.28E-06,0.022395625
,,,-3.27E-06,0.022743125
,,,-3.26E-06,0.02246625
,,,-3.25E-06,0.022411875
,,,-3.24E-06,0.02268375
,,,-3.23E-06,0.02247625
,,,-3.22E-06,0.02258125
,,,-3.21E-06,0.022229375
,,,-3.2E-06,0.022431875
,,,-3.19E-06,0.02231625
,,,-3.18E-06,0.022429375
,,,-3.17E-06,0.022718125
,,,-3.16E-06,0.02263125
,,,-3.15E-06,0.022313125
,,,-3.14E-06,0.02224
,,,-3.13E-06,0.02255875
,,,-3.12E-06,0.0225825
,,,-3.11E-06,0.022380625
,,,-3.1E-06,0.022446875
,,,-3.09E-06,0.02273625
,,,-3.08E-06,0.022313125
,,,-3.07E-06,0.0224325
,,,-3.06E-06,0.022555
,,,-3.05E-06,0.022545
,,,-3.04E-06,0.02250125
,,,-3.03E-06,0.02251375
,,,-3.02E-06,0.02254
,,,-3.01E-06,0.022530625
,,,-3E-06,0.022620625
,,,-2.99E-06,0.02267
,,,-2.98E-06,0.02254375
,,,-2.97E-06,0.022744375
,,,-2.96E-06,0.02234
,,,-2.95E-06,0.022409375
,,,-2.94E-06,0.022325
,,,-2.93E-06,0.022349375
,,,-2.92E-06,0.02274375
,,,-2.91E-06,0.022505
,,,-2.9E-06,0.02263125
,,,-2.89E-06,0.0225875
,,,-2.88E-06,0.02235125
,,,-2.87E-06,0.022255
,,,-2.86E-06,0.022525625
,,,-2.85E-06,0.0225625
,,,-2.84E-06,0.022325625
,,,-2.83E-06,0.02246625
,,,-2.82E-06,0.02233375
,,,-2.81E-06,0.02234
,,,-2.8E-06,0.02244875
,,,-2.79E-06,0.022441875
,,,-2.78E-06,0.022584375
,,,-2.77E-06,0.022540625
,,,-2.76E-06,0.0226625
,,,-2.75E-06,0.022659375
,,,-2.74E-06,0.022649375
,,,-2.73E-06,0.02240375
,,,-2.72E-06,0.02265
,,,-2.71E-06,0.022395625
,,,-2.7E-06,0.0224725
,,,-2.69E-06,0.02250125
,,,-2.68E-06,0.022774375
,,,-2.67E-06,0.022689375
,,,-2.66E-06,0.022735625
,,,-2.65E-06,0.0223475
,,,-2.64E-06,0.022480625
,,,-2.63E-06,0.022608125
,,,-2.62E-06,0.02248125
,,,-2.61E-06,0.02247875
,,,-2.6E-06,0.022521875
,,,-2.59E-06,0.02260125
,,,-2.58E-06,0.022526875
,,,-2.57E-06,0.0225025
,,,-2.56E-06,0.02231625
,,,-2.55E-06,0.0222175
,,,-2.54E-06,0.022249375
,,,-2.53E-06,0.022425
,,,-2.52E-06,0.02256
,,,-2.51E-06,0.0228375
,,,-2.5E-06,0.022675
,,,-2.49E-06,0.022589375
,,,-2.48E-06,0.022548125
,,,-2.47E-06,0.022364375
,,,-2.46E-06,0.0225
,,,-2.45E-06,0.022535625
,,,-2.44E-06,0.022495
,,,-2.43E-06,0.022315
,,,-2.42E-06,0.0225125
,,,-2.41E-06,0.02275875
,,,-2.4E-06,0.02238625
,,,-2.39E-06,0.02263
,,,-2.38E-06,0.022444375
,,,-2.37E-06,0.022460625
,,,-2.36E-06,0.02237125
,,,-2.35E-06,0.022449375
,,,-2.34E-06,0.022486875
,,,-2.33E-06,0.0224675
,,,-2.32E-06,0.022525625
,,,-2.31E-06,0.022536875
,,,-2.3E-06,0.022411875
,,,-2.29E-06,0.02218
,,,-2.28E-06,0.022515625
,,,-2.27E-06,0.022623125
,,,-2.26E-06,0.022348125
,,,-2.25E-06,0.02250625
,,,-2.24E-06,0.022516875
,,,-2.23E-06,0.02273875
,,,-2.22E-06,0.022511875
,,,-2.21E-06,0.02241
,,,-2.2E-06,0.02242
,,,-2.19E-06,0.022535625
,,,-2.18E-06,0.022484375
,,,-2.17E-06,0.022534375
,,,-2.16E-06,0.02267375
,,,-2.15E-06,0.022735
,,,-2.14E-06,0.022215
,,,-2.13E-06,0.0224725
,,,-2.12E-06,0.0223825
,,,-2.11E-06,0.0221475
,,,-2.1E-06,0.022504375
,,,-2.09E-06,0.02264125
,,,-2.08E-06,0.02268
,,,-2.07E-06,0.022484375
,,,-2.06E-06,0.0222975
,,,-2.05E-06,0.022208125
,,,-2.04E-06,0.022481875
,,,-2.03E-06,0.02256625
,,,-2.02E-06,0.022441875
,,,-2.01E-06,0.0222025
,,,-2E-06,0.022485
,,,-1.99E-06,0.022669375
,,,-1.98E-06,0.0223725
,,,-1.97E-06,0.022663125
,,,-1.96E-06,0.0223625
,,,-1.95E-06,0.02223875
,,,-1.94E-06,0.02220875
,,,-1.93E-06,0.022441875
,,,-1.92E-06,0.022328125
,,,-1.91E-06,0.022445
,,,-1.9E-06,0.0222575
,,,-1.89E-06,0.022375
,,,-1.88E-06,0.022535625
,,,-1.87E-06,0.022425625
,,,-1.86E-06,0.022446875
,,,-1.85E-06,0.0224975
,,,-1.84E-06,0.022508125
,,,-1.83E-06,0.0227575
,,,-1.82E-06,0.022464375
,,,-1.81E-06,0.022433125
,,,-1.8E-06,0.022334375
,,,-1.79E-06,0.022385625
,,,-1.78E-06,0.022555
,,,-1.77E-06,0.0224975
,,,-1.76E-06,0.02267
,,,-1.75E-06,0.02266625
,,,-1.74E-06,0.022665625
,,,-1.73E-06,0.02241875
,,,-1.72E-06,0.022679375
,,,-1.71E-06,0.02251
,,,-1.7E-06,0.022609375
,,,-1.69E-06,0.022465
,,,-1.68E-06,0.02260875
,,,-1.67E-06,0.0224725
,,,-1.66E-06,0.02240875
,,,-1.65E-06,0.022583125
,,,-1.64E-06,0.022350625
,,,-1.63E-06,0.022659375
,,,-1.62E-06,0.022466875
,,,-1.61E-06,0.022478125
,,,-1.6E-06,0.0223775
,,,-1.59E-06,0.0223625
,,,-1.58E-06,0.0224075
,,,-1.57E-06,0.02246625
,,,-1.56E-06,0.022436875
,,,-1.55E-06,0.022744375
,,,-1.54E-06,0.022521875
,,,-1.53E-06,0.02256
,,,-1.52E-06,0.022395625
,,,-1.51E-06,0.022328125
,,,-1.5E-06,0.02269
,,,-1.49E-06,0.02261
,,,-1.48E-06,0.022511875
,,,-1.47E-06,0.022609375
,,,-1.46E-06,0.022575
,,,-1.45E-06,0.02252625
,,,-1.44E-06,0.022593125
,,,-1.43E-06,0.02258
,,,-1.42E-06,0.02258875
,,,-1.41E-06,0.022363125
,,,-1.4E-06,0.022575
,,,-1.39E-06,0.022519375
,,,-1.38E-06,0.022589375
,,,-1.37E-06,0.02241875
,,,-1.36E-06,0.022644375
,,,-1.35E-06,0.022425625
,,,-1.34E-06,0.02255375
,,,-1.33E-06,0.02235875
,,,-1.32E-06,0.02239125
,,,-1.31E-06,0.022355625
,,,-1.3E-06,0.022555
,,,-1.29E-06,0.02241
,,,-1.28E-06,0.02248375
,,,-1.27E-06,0.022395625
,,,-1.26E-06,0.02241625
,,,-1.25E-06,0.022494375
,,,-1.24E-06,0.02236
,,,-1.23E-06,0.022146875
,,,-1.22E-06,0.0221875
,,,-1.21E-06,0.02242125
,,,-1.2E-06,0.02274625
,,,-1.19E-06,0.02266375
,,,-1.18E-06,0.0227525
,,,-1.17E-06,0.0223825
,,,-1.16E-06,0.022540625
,,,-1.15E-06,0.022464375
,,,-1.14E-06,0.022323125
,,,-1.13E-06,0.022499375
,,,-1.12E-06,0.022526875
,,,-1.11E-06,0.022445625
,,,-1.1E-06,0.022553125
,,,-1.09E-06,0.0227125
,,,-1.08E-06,0.022184375
,,,-1.07E-06,0.022358125
,,,-1.06E-06,0.022113125
,,,-1.05E-06,0.022304375
,,,-1.04E-06,0.02275625
,,,-1.03E-06,0.02261875
,,,-1.02E-06,0.022585
,,,-1.01E-06,0.0227975
,,,-1E-06,0.02251875
,,,-9.9E-07,0.022494375
,,,-9.8E-07,0.0227575
,,,-9.7E-07,0.022391875
,,,-9.6E-07,0.02233875
,,,-9.5E-07,0.022319375
,,,-9.4E-07,0.02247625
,,,-9.3E-07,0.02261125
,,,-9.2E-07,0.0226975
,,,-9.1E-07,0.022366875
,,,-9E-07,0.022470625
,,,-8.9E-07,0.022619375
,,,-8.8E-07,0.022164375
,,,-8.7E-07,0.022566875
,,,-8.6E-07,0.022505
,,,-8.5E-07,0.0225225
,,,-8.4E-07,0.022591875
,,,-8.3E-07,0.02231
,,,-8.2E-07,0.022516875
,,,-8.1E-07,0.02253875
,,,-8E-07,0.022529375
,,,-7.9E-07,0.02271375
,,,-7.8E-07,0.0224825
,,,-7.7E-07,0.022405625
,,,-7.6E-07,0.02255375
,,,-7.5E-07,0.0224475
,,,-7.4E-07,0.022424375
,,,-7.3E-07,0.022453125
,,,-7.2E-07,0.022393125
,,,-7.1E-07,0.022599375
,,,-7E-07,0.02243
,,,-6.9E-07,0.022335625
,,,-6.8E-07,0.022596875
,,,-6.7E-07,0.0223425
,,,-6.6E-07,0.02256
,,,-6.5E-07,0.02263
,,,-6.4E-07,0.022651875
,,,-6.3E-07,0.02258875
,,,-6.2E-07,0.02232125
,,,-6.1E-07,0.02282625
,,,-6E-07,0.022455625
,,,-5.9E-07,0.022530625
,,,-5.8E-07,0.02254625
,,,-5.7E-07,0.0223925
,,,-5.6E-07,0.022610625
,,,-5.5E-07,0.02270625
,,,-5.4E-07,0.02246375
,,,-5.3E-07,0.022441875
,,,-5.2E-07,0.02257875
,,,-5.1E-07,0.02212
,,,-5E-07,0.02258625
,,,-4.9E-07,0.02245375
,,,-4.8E-07,0.0226675
,,,-4.7E-07,0.022590625
,,,-4.6E-07,0.022516875
,,,-4.5E-07,0.02253625
,,,-4.4E-07,0.0223425
,,,-4.3E-07,0.022544375
,,,-4.2E-07,0.02254
,,,-4.1E-07,0.0225475
,,,-4E-07,0.022504375
,,,-3.9E-07,0.02263375
,,,-3.8E-07,0.02243
,,,-3.7E-07,0.022589375
,,,-3.6E-07,0.022590625
,,,-3.5E-07,0.022461875
,,,-3.4E-07,0.022279375
,,,-3.3E-07,0.022654375
,,,-3.2E-07,0.0222625
,,,-3.1E-07,0.0223275
,,,-3E-07,0.022455
,,,-2.9E-07,0.02247875
,,,-2.8E-07,0.02259125
,,,-2.7E-07,0.02280625
,,,-2.6E-07,0.02257375
,,,-2.5E-07,0.022539375
,,,-2.4E-07,0.0224875
,,,-2.3E-07,0.022535625
,,,-2.2E-07,0.022801875
,,,-2.1E-07,0.022526875
,,,-2E-07,0.022553125
,,,-1.9E-07,0.02252125
,,,-1.8E-07,0.022481875
,,,-1.7E-07,0.022705
,,,-1.6E-07,0.02237875
,,,-1.5E-07,0.022304375
,,,-1.4E-07,0.022526875
,,,-1.3E-07,0.022423125
,,,-1.2E-07,0.0223125
,,,-1.1E-07,0.022520625
,,,-1E-07,0.022244375
,,,-9E-08,0.022409375
,,,-8E-08,0.022248125
,,,-7E-08,0.022310625
,,,-6E-08,0.02272375
,,,-5E-08,0.022463125
,,,-4E-08,0.0235725
,,,-3E-08,0.02395875
,,,-2E-08,0.020605
,,,-1E-08,0.01879125
,,,0,0.02007125
,,,1E-08,0.02546625
,,,2E-08,0.02749375
,,,3E-08,0.025871875
,,,4E-08,0.021656875
,,,5E-08,0.019185
,,,6E-08,0.01918
,,,7E-08,0.021244375
,,,8E-08,0.02368375
,,,9E-08,0.025025625
,,,1E-07,0.024689375
,,,1.1E-07,0.0226425
,,,1.2E-07,0.0212325
,,,1.3E-07,0.02072875
,,,1.4E-07,0.022001875
,,,1.5E-07,0.02289
,,,1.6E-07,0.02299375
,,,1.7E-07,0.023019375
,,,1.8E-07,0.022314375
,,,1.9E-07,0.022713125
,,,2E-07,0.0223025
,,,2.1E-07,0.022145
,,,2.2E-07,0.022215625
,,,2.3E-07,0.02238125
,,,2.4E-07,0.023015625
,,,2.5E-07,0.022859375
,,,2.6E-07,0.02230875
,,,2.7E-07,0.02231375
,,,2.8E-07,0.022555625
,,,2.9E-07,0.02262375
,,,3E-07,0.02204125
,,,3.1E-07,0.022436875
,,,3.2E-07,0.022628125
,,,3.3E-07,0.0225275
,,,3.4E-07,0.02266875
,,,3.5E-07,0.0222225
,,,3.6E-07,0.0226525
,,,3.7E-07,0.022289375
,,,3.8E-07,0.022673125
,,,3.9E-07,0.022780625
,,,4E-07,0.022508125
,,,4.1E-07,0.022636875
,,,4.2E-07,0.022315625
,,,4.3E-07,0.022479375
,,,4.4E-07,0.022674375
,,,4.5E-07,0.02237875
,,,4.6E-07,0.022504375
,,,4.7E-07,0.022324375
,,,4.8E-07,0.0224325
,,,4.9E-07,0.02274375
,,,5E-07,0.022660625
,,,5.1E-07,0.02244375
,,,5.2E-07,0.02265625
,,,5.3E-07,0.022323125
,,,5.4E-07,0.022365
,,,5.5E-07,0.02249375
,,,5.6E-07,0.022704375
,,,5.7E-07,0.022564375
,,,5.8E-07,0.022555625
,,,5.9E-07,0.022669375
,,,6E-07,0.022434375
,,,6.1E-07,0.022604375
,,,6.2E-07,0.022591875
,,,6.3E-07,0.022546875
,,,6.4E-07,0.0227925
,,,6.5E-07,0.022768125
,,,6.6E-07,0.022805
,,,6.7E-07,0.0223925
,,,6.8E-07,0.022525
,,,6.9E-07,0.02252375
,,,7E-07,0.02228
,,,7.1E-07,0.02226875
,,,7.2E-07,0.022345
,,,7.3E-07,0.02243375
,,,7.4E-07,0.022671875
,,,7.5E-07,0.022635
,,,7.6E-07,0.0223525
,,,7.7E-07,0.022573125
,,,7.8E-07,0.022724375
,,,7.9E-07,0.0223525
,,,8E-07,0.022558125
,,,8.1E-07,0.022365625
,,,8.2E-07,0.0226075
,,,8.3E-07,0.022660625
,,,8.4E-07,0.022418125
,,,8.5E-07,0.022353125
,,,8.6E-07,0.022401875
,,,8.7E-07,0.022540625
,,,8.8E-07,0.022624375
,,,8.9E-07,0.0226275
,,,9E-07,0.02264625
,,,9.1E-07,0.02255375
,,,9.2E-07,0.022585
,,,9.3E-07,0.02243375
,,,9.4E-07,0.022475625
,,,9.5E-07,0.022466875
,,,9.6E-07,0.02251
,,,9.7E-07,0.022361875
,,,9.8E-07,0.0223975
,,,9.9E-07,0.02255625
,,,1E-06,0.02264375
,,,1.01E-06,0.022473125
,,,1.02E-06,0.02251875
,,,1.03E-06,0.0225925
,,,1.04E-06,0.022484375
,,,1.05E-06,0.022526875
,,,1.06E-06,0.02250375
,,,1.07E-06,0.0227325
,,,1.08E-06,0.0227075
,,,1.09E-06,0.022516875
,,,1.1E-06,0.02247375
,,,1.11E-06,0.022383125
,,,1.12E-06,0.022458125
,,,1.13E-06,0.022546875
,,,1.14E-06,0.02256375
,,,1.15E-06,0.02251125
,,,1.16E-06,0.02271125
,,,1.17E-06,0.0225075
,,,1.18E-06,0.022535625
,,,1.19E-06,0.022445
,,,1.2E-06,0.02255875
,,,1.21E-06,0.022345625
,,,1.22E-06,0.022265625
,,,1.23E-06,0.022444375
,,,1.24E-06,0.022698125
,,,1.25E-06,0.022439375
,,,1.26E-06,0.02254625
,,,1.27E-06,0.022654375
,,,1.28E-06,0.0226475
,,,1.29E-06,0.022595
,,,1.3E-06,0.022365
,,,1.31E-06,0.022601875
,,,1.32E-06,0.022809375
,,,1.33E-06,0.0224575
,,,1.34E-06,0.02251
,,,1.35E-06,0.02262
,,,1.36E-06,0.022336875
,,,1.37E-06,0.022511875
,,,1.38E-06,0.022433125
,,,1.39E-06,0.02255
,,,1.4E-06,0.022474375
,,,1.41E-06,0.02244875
,,,1.42E-06,0.0224425
,,,1.43E-06,0.0223225
,,,1.44E-06,0.022151875
,,,1.45E-06,0.022505
,,,1.46E-06,0.0227075
,,,1.47E-06,0.022526875
,,,1.48E-06,0.022273125
,,,1.49E-06,0.022535
,,,1.5E-06,0.02251125
,,,1.51E-06,0.02235375
,,,1.52E-06,0.022295625
,,,1.53E-06,0.02233
,,,1.54E-06,0.02262625
,,,1.55E-06,0.02262
,,,1.56E-06,0.022609375
,,,1.57E-06,0.02222375
,,,1.58E-06,0.022723125
,,,1.59E-06,0.022565
,,,1.6E-06,0.02235875
,,,1.61E-06,0.022611875
,,,1.62E-06,0.022598125
,,,1.63E-06,0.022394375
,,,1.64E-06,0.022631875
,,,1.65E-06,0.02274
,,,1.66E-06,0.02262
,,,1.67E-06,0.022115625
,,,1.68E-06,0.022664375
,,,1.69E-06,0.02223625
,,,1.7E-06,0.02242125
,,,1.71E-06,0.02258
,,,1.72E-06,0.022470625
,,,1.73E-06,0.02243625
,,,1.74E-06,0.02260625
,,,1.75E-06,0.022495625
,,,1.76E-06,0.022573125
,,,1.77E-06,0.022491875
,,,1.78E-06,0.0226475
,,,1.79E-06,0.02236875
,,,1.8E-06,0.02250375
,,,1.81E-06,0.02257875
,,,1.82E-06,0.022518125
,,,1.83E-06,0.022268125
,,,1.84E-06,0.02231
,,,1.85E-06,0.022509375
,,,1.86E-06,0.022089375
,,,1.87E-06,0.022475
,,,1.88E-06,0.0223875
,,,1.89E-06,0.0224075
,,,1.9E-06,0.02243375
,,,1.91E-06,0.022706875
,,,1.92E-06,0.022563125
,,,1.93E-06,0.022288125
,,,1.94E-06,0.022300625
,,,1.95E-06,0.02224
,,,1.96E-06,0.02247625
,,,1.97E-06,0.02258875
,,,1.98E-06,0.02270875
,,,1.99E-06,0.02250375
,,,2E-06,0.02255375
,,,2.01E-06,0.02266
,,,2.02E-06,0.0224275
,,,2.03E-06,0.022406875
,,,2.04E-06,0.022315625
,,,2.05E-06,0.022365
,,,2.06E-06,0.02266125
,,,2.07E-06,0.02249375
,,,2.08E-06,0.022563125
,,,2.09E-06,0.022699375
,,,2.1E-06,0.0222875
,,,2.11E-06,0.02226125
,,,2.12E-06,0.022264375
,,,2.13E-06,0.022436875
,,,2.14E-06,0.022510625
,,,2.15E-06,0.022448125
,,,2.16E-06,0.02266125
,,,2.17E-06,0.02240125
,,,2.18E-06,0.02253375
,,,2.19E-06,0.022670625
,,,2.2E-06,0.022695
,,,2.21E-06,0.02255
,,,2.22E-06,0.0222975
,,,2.23E-06,0.02234625
,,,2.24E-06,0.02246
,,,2.25E-06,0.02241375
,,,2.26E-06,0.022645
,,,2.27E-06,0.022411875
,,,2.28E-06,0.022791875
,,,2.29E-06,0.022630625
,,,2.3E-06,0.0225775
,,,2.31E-06,0.02244
,,,2.32E-06,0.022400625
,,,2.33E-06,0.022735625
,,,2.34E-06,0.022483125
,,,2.35E-06,0.02244
,,,2.36E-06,0.02225625
,,,2.37E-06,0.022638125
,,,2.38E-06,0.02254625
,,,2.39E-06,0.022585625
,,,2.4E-06,0.0221775
,,,2.41E-06,0.022435
,,,2.42E-06,0.022376875
,,,2.43E-06,0.02248
,,,2.44E-06,0.02243875
,,,2.45E-06,0.022451875
,,,2.46E-06,0.022324375
,,,2.47E-06,0.022654375
,,,2.48E-06,0.022651875
,,,2.49E-06,0.022545625
,,,2.5E-06,0.022426875
,,,2.51E-06,0.022339375
,,,2.52E-06,0.022644375
,,,2.53E-06,0.022753125
,,,2.54E-06,0.02250625
,,,2.55E-06,0.022706875
,,,2.56E-06,0.02273875
,,,2.57E-06,0.0223225
,,,2.58E-06,0.02239875
,,,2.59E-06,0.0224675
,,,2.6E-06,0.022835
,,,2.61E-06,0.022615
,,,2.62E-06,0.022626875
,,,2.63E-06,0.022550625
,,,2.64E-06,0.02243625
,,,2.65E-06,0.022454375
,,,2.66E-06,0.02237625
,,,2.67E-06,0.02235875
,,,2.68E-06,0.02247125
,,,2.69E-06,0.022458125
,,,2.7E-06,0.02256
,,,2.71E-06,0.022593125
,,,2.72E-06,0.0226475
,,,2.73E-06,0.022679375
,,,2.74E-06,0.022243125
,,,2.75E-06,0.022498125
,,,2.76E-06,0.022530625
,,,2.77E-06,0.02264625
,,,2.78E-06,0.0225525
,,,2.79E-06,0.02266125
,,,2.8E-06,0.02267875
,,,2.81E-06,0.022435625
,,,2.82E-06,0.022225625
,,,2.83E-06,0.02257875
,,,2.84E-06,0.022260625
,,,2.85E-06,0.022424375
,,,2.86E-06,0.02236875
,,,2.87E-06,0.022510625
,,,2.88E-06,0.02235875
,,,2.89E-06,0.022911875
,,,2.9E-06,0.02268
,,,2.91E-06,0.022564375
,,,2.92E-06,0.022614375
,,,2.93E-06,0.02219625
,,,2.94E-06,0.022619375
,,,2.95E-06,0.02255625
,,,2.96E-06,0.022434375
,,,2.97E-06,0.022390625
,,,2.98E-06,0.02270375
,,,2.99E-06,0.02255375
,,,3E-06,0.02256
,,,3.01E-06,0.02254125
,,,3.02E-06,0.022430625
,,,3.03E-06,0.022338125
,,,3.04E-06,0.02260625
,,,3.05E-06,0.022558125
,,,3.06E-06,0.022423125
,,,3.07E-06,0.022614375
,,,3.08E-06,0.022735625
,,,3.09E-06,0.022413125
,,,3.1E-06,0.022343125
,,,3.11E-06,0.0223575
,,,3.12E-06,0.022424375
,,,3.13E-06,0.02259
,,,3.14E-06,0.022438125
,,,3.15E-06,0.022515
,,,3.16E-06,0.022633125
,,,3.17E-06,0.022366875
,,,3.18E-06,0.022541875
,,,3.19E-06,0.022330625
,,,3.2E-06,0.022615625
,,,3.21E-06,0.02261375
,,,3.22E-06,0.02252
,,,3.23E-06,0.02249875
,,,3.24E-06,0.02270125
,,,3.25E-06,0.0224875
,,,3.26E-06,0.02253
,,,3.27E-06,0.022375625
,,,3.28E-06,0.022754375
,,,3.29E-06,0.02228625
,,,3.3E-06,0.02248125
,,,3.31E-06,0.0226275
,,,3.32E-06,0.022469375
,,,3.33E-06,0.02272625
,,,3.34E-06,0.022315
,,,3.35E-06,0.0225975
,,,3.36E-06,0.0223625
,,,3.37E-06,0.02264625
,,,3.38E-06,0.02273625
,,,3.39E-06,0.022465625
,,,3.4E-06,0.022340625
,,,3.41E-06,0.022614375
,,,3.42E-06,0.0225775
,,,3.43E-06,0.022763125
,,,3.44E-06,0.0226475
,,,3.45E-06,0.02254625
,,,3.46E-06,0.022505625
,,,3.47E-06,0.022386875
,,,3.48E-06,0.02249
,,,3.49E-06,0.0225525
,,,3.5E-06,0.0223225
,,,3.51E-06,0.02248375
,,,3.52E-06,0.022474375
,,,3.53E-06,0.022603125
,,,3.54E-06,0.022485625
,,,3.55E-06,0.022430625
,,,3.56E-06,0.0225975
,,,3.57E-06,0.0228225
