data/raw/Final_POL_Test_1/SOP076_Ch2.csv

"Record Length",1000,"Points",-5E-06,0.022505625
"Sample Interval",1E-08,s,-4.99E-06,0.02257
"Trigger Point",500,"Samples",-4.98E-06,0.02269
"Trigger Time",0,s,-4.97E-06,0.022591875
"",,,-4.96E-06,0.022585625
"Horizontal Offset",-5E-06,s,-4.95E-06,0.022571875
,,,-4.94E-06,0.022378125
,,,-4.93E-06,0.0223575
,,,-4.92E-06,0.022660625
,,,-4.91E-06,0.022604375
,,,-4.9E-06,0.022450625
,,,-4.89E-06,0.02237625
,,,-4.88E-06,0.02257
,,,-4.87E-06,0.0224
,,,-4.86E-06,0.022505
,,,-4.85E-06,0.022465
,,,-4.84E-06,0.02249
,,,-4.83E-06,0.0226275
,,,-4.82E-06,0.022585
,,,-4.81E-06,0.022675
,,,-4.8E-06,0.022126875
,,,-4.79E-06,0.022670625
,,,-4.78E-06,0.022550625
,,,-4.77E-06,0.02245125
,,,-4.76E-06,0.0224625
,,,-4.75E-06,0.022619375
,,,-4.74E-06,0.022668125
,,,-4.73E-06,0.022548125
,,,-4.72E-06,0.02260625
,,,-4.71E-06,0.02285625
,,,-4.7E-06,0.02252
,,,-4.69E-06,0.022455625
,,,-4.68E-06,0.022446875
,,,-4.67E-06,0.022285625
,,,-4.66E-06,0.02264875
,,,-4.65E-06,0.02282125
,,,-4.64E-06,0.022353125
,,,-4.63E-06,0.022449375
,,,-4.62E-06,0.022573125
,,,-4.61E-06,0.02268625
,,,-4.6E-06,0.0225325
,,,-4.59E-06,0.02231
,,,-4.58E-06,0.02245125
,,,-4.57E-06,0.022409375
,,,-4.56E-06,0.022361875
,,,-4.55E-06,0.022651875
,,,-4.54E-06,0.022385
,,,-4.53E-06,0.022301875
,,,-4.52E-06,0.02256875
,,,-4.51E-06,0.022360625
,,,-4.5E-06,0.02256125
,,,-4.49E-06,0.022468125
,,,-4.48E-06,0.022439375
,,,-4.47E-06,0.022440625
,,,-4.46E-06,0.02240625
,,,-4.45E-06,0.02253875
,,,-4.44E-06,0.022600625
,,,-4.43E-06,0.022494375
,,,-4.42E-06,0.022775625
,,,-4.41E-06,0.022448125
,,,-4.4E-06,0.022575
,,,-4.39E-06,0.022455
,,,-4.38E-06,0.022521875
,,,-4.37E-06,0.022235625
,,,-4.36E-06,0.022328125
,,,-4.35E-06,0.022496875
,,,-4.34E-06,0.022658125
,,,-4.33E-06,0.022603125
,,,-4.32E-06,0.02259375
,,,-4.31E-06,0.02262375
,,,-4.3E-06,0.022490625
,,,-4.29E-06,0.022510625
,,,-4.28E-06,0.022534375
,,,-4.27E-06,0.022623125
,,,-4.26E-06,0.0225725
,,,-4.25E-06,0.022595625
,,,-4.24E-06,0.02271375
,,,-4.23E-06,0.022538125
,,,-4.22E-06,0.0222925
,,,-4.21E-06,0.022444375
,,,-4.2E-06,0.022375
,,,-4.19E-06,0.0225375
,,,-4.18E-06,0.02247375
,,,-4.17E-06,0.022534375
,,,-4.16E-06,0.022524375
,,,-4.15E-06,0.02262875
,,,-4.14E-06,0.02236625
,,,-4.13E-06,0.022415625
,,,-4.12E-06,0.0226225
,,,-4.11E-06,0.0224825
,,,-4.1E-06,0.022336875
,,,-4.09E-06,0.022674375
,,,-4.08E-06,0.02247
,,,-4.07E-06,0.022349375
,,,-4.06E-06,0.022574375
,,,-4.05E-06,0.022311875
,,,-4.04E-06,0.022319375
,,,-4.03E-06,0.022285
,,,-4.02E-06,0.02277125
,,,-4.01E-06,0.02251625
,,,-4E-06,0.02261375
,,,-3.99E-06,0.02255875
,,,-3.98E-06,0.022350625
,,,-3.97E-06,0.022526875
,,,-3.96E-06,0.022551875
,,,-3.95E-06,0.022536875
,,,-3.94E-06,0.0223575
,,,-3.93E-06,0.022615625
,,,-3.92E-06,0.02247375
,,,-3.91E-06,0.022515
,,,-3.9E-06,0.022663125
,,,-3.89E-06,0.02227
,,,-3.88E-06,0.022516875
,,,-3.87E-06,0.02277875
,,,-3.86E-06,0.02259375
,,,-3.85E-06,0.022516875
,,,-3.84E-06,0.022614375
,,,-3.83E-06,0.02248875
,,,-3.82E-06,0.02253625
,,,-3.81E-06,0.02259375
,,,-3.8E-06,0.022429375
,,,-3.79E-06,0.02231375
,,,-3.78E-06,0.022555625
,,,-3.77E-06,0.022556875
,,,-3.76E-06,0.0224475
,,,-3.75E-06,0.02247625
,,,-3.74E-06,0.02252875
,,,-3.73E-06,0.0225875
,,,-3.72E-06,0.02249375
,,,-3.71E-06,0.02248375
,,,-3.7E-06,0.022349375
,,,-3.69E-06,0.022340625
,,,-3.68E-06,0.022375625
,,,-3.67E-06,0.022959375
,,,-3.66E-06,0.022533125
,,,-3.65E-06,0.02242
,,,-3.64E-06,0.02251375
,,,-3.63E-06,0.02246
,,,-3.62E-06,0.0225825
,,,-3.61E-06,0.022415625
,,,-3.6E-06,0.022301875
,,,-3.59E-06,0.0225525
,,,-3.58E-06,0.022555
,,,-3.57E-06,0.022714375
,,,-3.56E-06,0.022629375
,,,-3.55E-06,0.02235875
,,,-3.54E-06,0.0225775
,,,-3.53E-06,0.0225225
,,,-3.52E-06,0.0225125
,,,-3.51E-06,0.022400625
,,,-3.5E-06,0.022528125
,,,-3.49E-06,0.022328125
,,,-3.48E-06,0.0228975
,,,-3.47E-06,0.02269125
,,,-3.46E-06,0.022403125
,,,-3.45E-06,0.022588125
,,,-3.44E-06,0.022173125
,,,-3.43E-06,0.022636875
,,,-3.42E-06,0.022526875
,,,-3.41E-06,0.022741875
,,,-3.4E-06,0.022713125
,,,-3.39E-06,0.022340625
,,,-3.38E-06,0.022566875
,,,-3.37E-06,0.02254375
,,,-3.36E-06,0.022431875
,,,-3.35E-06,0.022349375
,,,-3.34E-06,0.022653125
,,,-3.33E-06,0.022584375
,,,-3.32E-06,0.022488125
,,,-3.31E-06,0.022451875
,,,-3.3E-06,0.022421875
,,,-3.29E-06,0.02241375
,,,-3.28E-06,0.02265125
,,,-3.27E-06,0.022365
,,,-3.26E-06,0.022295
,,,-3.25E-06,0.022528125
,,,-3.24E-06,0.022769375
,,,-3.23E-06,0.02269
,,,-3.22E-06,0.022405625
,,,-3.21E-06,0.02245875
,,,-3.2E-06,0.022449375
,,,-3.19E-06,0.02236
,,,-3.18E-06,0.02271375
,,,-3.17E-06,0.0223775
,,,-3.16E-06,0.022701875
,,,-3.15E-06,0.022549375
,,,-3.14E-06,0.022518125
,,,-3.13E-06,0.022391875
,,,-3.12E-06,0.022200625
,,,-3.11E-06,0.022575625
,,,-3.1E-06,0.0223875
,,,-3.09E-06,0.0224575
,,,-3.08E-06,0.022500625
,,,-3.07E-06,0.022576875
,,,-3.06E-06,0.022614375
,,,-3.05E-06,0.022503125
,,,-3.04E-06,0.02242
,,,-3.03E-06,0.02245875
,,,-3.02E-06,0.022618125
,,,-3.01E-06,0.022485
,,,-3E-06,0.0224925
,,,-2.99E-06,0.0225125
,,,-2.98E-06,0.022498125
,,,-2.97E-06,0.022464375
,,,-2.96E-06,0.02257375
,,,-2.95E-06,0.02225875
,,,-2.94E-06,0.02249
,,,-2.93E-06,0.02249625
,,,-2.92E-06,0.022321875
,,,-2.91E-06,0.022351875
,,,-2.9E-06,0.0222675
,,,-2.89E-06,0.02256625
,,,-2.88E-06,0.02256
,,,-2.87E-06,0.02245375
,,,-2.86E-06,0.02225375
,,,-2.85E-06,0.022605
,,,-2.84E-06,0.02252375
,,,-2.83E-06,0.02252375
,,,-2.82E-06,0.02249625
,,,-2.81E-06,0.0225675
,,,-2.8E-06,0.022745625
,,,-2.79E-06,0.02258375
,,,-2.78E-06,0.022466875
,,,-2.77E-06,0.022368125
,,,-2.76E-06,0.0224775
,,,-2.75E-06,0.0225875
,,,-2.74E-06,0.02260625
,,,-2.73E-06,0.022555625
,,,-2.72E-06,0.022198125
,,,-2.71E-06,0.0226075
,,,-2.7E-06,0.022561875
,,,-2.69E-06,0.022270625
,,,-2.68E-06,0.022695625
,,,-2.67E-06,0.0224775
,,,-2.66E-06,0.022635625
,,,-2.65E-06,0.022636875
,,,-2.64E-06,0.0224
,,,-2.63E-06,0.02288625
,,,-2.62E-06,0.022790625
,,,-2.61E-06,0.022735625
,,,-2.6E-06,0.022639375
,,,-2.59E-06,0.0223275
,,,-2.58E-06,0.022805625
,,,-2.57E-06,0.022641875
,,,-2.56E-06,0.022509375
,,,-2.55E-06,0.02224125
,,,-2.54E-06,0.022210625
,,,-2.53E-06,0.02255875
,,,-2.52E-06,0.022535625
,,,-2.51E-06,0.02258125
,,,-2.5E-06,0.022306875
,,,-2.49E-06,0.022760625
,,,-2.48E-06,0.022519375
,,,-2.47E-06,0.0223875
,,,-2.46E-06,0.022621875
,,,-2.45E-06,0.022480625
,,,-2.44E-06,0.022299375
,,,-2.43E-06,0.0224525
,,,-2.42E-06,0.022439375
,,,-2.41E-06,0.02262625
,,,-2.4E-06,0.02261875
,,,-2.39E-06,0.0224025
,,,-2.38E-06,0.022481875
,,,-2.37E-06,0.022658125
,,,-2.36E-06,0.0226675
,,,-2.35E-06,0.02241625
,,,-2.34E-06,0.02254625
,,,-2.33E-06,0.02247875
,,,-2.32E-06,0.02243375
,,,-2.31E-06,0.02273375
,,,-2.3E-06,0.022544375
,,,-2.29E-06,0.02265
,,,-2.28E-06,0.0227075
,,,-2.27E-06,0.022541875
,,,-2.26E-06,0.0225775
,,,-2.25E-06,0.02248875
,,,-2.24E-06,0.022421875
,,,-2.23E-06,0.022504375
,,,-2.22E-06,0.02250875
,,,-2.21E-06,0.02201875
,,,-2.2E-06,0.0225225
,,,-2.19E-06,0.02253875
,,,-2.18E-06,0.0223075
,,,-2.17E-06,0.02256
,,,-2.16E-06,0.02238125
,,,-2.15E-06,0.0226175
,,,-2.14E-06,0.022546875
,,,-2.13E-06,0.0223925
,,,-2.12E-06,0.022549375
,,,-2.11E-06,0.02243
,,,-2.1E-06,0.02262
,,,-2.09E-06,0.022404375
,,,-2.08E-06,0.02248375
,,,-2.07E-06,0.0225625
,,,-2.06E-06,0.022305
,,,-2.05E-06,0.022555625
,,,-2.04E-06,0.022428125
,,,-2.03E-06,0.02243375
,,,-2.02E-06,0.0225225
,,,-2.01E-06,0.0225
,,,-2E-06,0.02242625
,,,-1.99E-06,0.0224225
,,,-1.98E-06,0.022304375
,,,-1.97E-06,0.022644375
,,,-1.96E-06,0.022448125
,,,-1.95E-06,0.022515
,,,-1.94E-06,0.022448125
,,,-1.93E-06,0.02267
,,,-1.92E-06,0.022698125
,,,-1.91E-06,0.02272
,,,-1.9E-06,0.02242625
,,,-1.89E-06,0.022739375
,,,-1.88E-06,0.022264375
,,,-1.87E-06,0.02235
,,,-1.86E-06,0.022716875
,,,-1.85E-06,0.0224975
,,,-1.84E-06,0.0223425
,,,-1.83E-06,0.02244625
,,,-1.82E-06,0.02260375
,,,-1.81E-06,0.022485625
,,,-1.8E-06,0.0223375
,,,-1.79E-06,0.022569375
,,,-1.78E-06,0.022569375
,,,-1.77E-06,0.02247125
,,,-1.76E-06,0.02268625
,,,-1.75E-06,0.02234625
,,,-1.74E-06,0.022526875
,,,-1.73E-06,0.022523125
,,,-1.72E-06,0.02247375
,,,-1.71E-06,0.022449375
,,,-1.7E-06,0.02273375
,,,-1.69E-06,0.022365625
,,,-1.68E-06,0.022649375
,,,-1.67E-06,0.02275
,,,-1.66E-06,0.022829375
,,,-1.65E-06,0.02247125
,,,-1.64E-06,0.022276875
,,,-1.63E-06,0.022621875
,,,-1.62E-06,0.022450625
,,,-1.61E-06,0.022309375
,,,-1.6E-06,0.022653125
,,,-1.59E-06,0.0226475
,,,-1.58E-06,0.0223
,,,-1.57E-06,0.022513125
,,,-1.56E-06,0.0223275
,,,-1.55E-06,0.022411875
,,,-1.54E-06,0.02258
,,,-1.53E-06,0.022771875
,,,-1.52E-06,0.022128125
,,,-1.51E-06,0.02267375
,,,-1.5E-06,0.022336875
,,,-1.49E-06,0.022449375
,,,-1.48E-06,0.0223975
,,,-1.47E-06,0.022605
,,,-1.46E-06,0.0225675
,,,-1.45E-06,0.02256625
,,,-1.44E-06,0.022365625
,,,-1.43E-06,0.022514375
,,,-1.42E-06,0.02266375
,,,-1.41E-06,0.022501875
,,,-1.4E-06,0.0223175
,,,-1.39E-06,0.0223025
,,,-1.38E-06,0.02245875
,,,-1.37E-06,0.022424375
,,,-1.36E-06,0.022465625
,,,-1.35E-06,0.022668125
,,,-1.34E-06,0.022668125
,,,-1.33E-06,0.0225525
,,,-1.32E-06,0.02261125
,,,-1.31E-06,0.02268
,,,-1.3E-06,0.022464375
,,,-1.29E-06,0.022611875
,,,-1.28E-06,0.022371875
,,,-1.27E-06,0.0224475
,,,-1.26E-06,0.02262625
,,,-1.25E-06,0.02262375
,,,-1.24E-06,0.02243625
,,,-1.23E-06,0.02246625
,,,-1.22E-06,0.022419375
,,,-1.21E-06,0.022800625
,,,-1.2E-06,0.02265375
,,,-1.19E-06,0.022584375
,,,-1.18E-06,0.022209375
,,,-1.17E-06,0.022543125
,,,-1.16E-06,0.022529375
,,,-1.15E-06,0.0225275
,,,-1.14E-06,0.022335
,,,-1.13E-06,0.02229875
,,,-1.12E-06,0.022403125
,,,-1.11E-06,0.022550625
,,,-1.1E-06,0.022500625
,,,-1.09E-06,0.02269875
,,,-1.08E-06,0.02251125
,,,-1.07E-06,0.022338125
,,,-1.06E-06,0.02253625
,,,-1.05E-06,0.022595625
,,,-1.04E-06,0.022255625
,,,-1.03E-06,0.022700625
,,,-1.02E-06,0.022330625
,,,-1.01E-06,0.02232125
,,,-1E-06,0.022293125
,,,-9.9E-07,0.022476875
,,,-9.8E-07,0.02242
,,,-9.7E-07,0.02243375
,,,-9.6E-07,0.022359375
,,,-9.5E-07,0.0227775
,,,-9.4E-07,0.022698125
,,,-9.3E-07,0.02247125
,,,-9.2E-07,0.02254
,,,-9.1E-07,0.022739375
,,,-9E-07,0.022381875
,,,-8.9E-07,0.022494375
,,,-8.8E-07,0.022298125
,,,-8.7E-07,0.022659375
,,,-8.6E-07,0.022565
,,,-8.5E-07,0.02298
,,,-8.4E-07,0.022529375
,,,-8.3E-07,0.022619375
,,,-8.2E-07,0.02233875
,,,-8.1E-07,0.022530625
,,,-8E-07,0.022500625
,,,-7.9E-07,0.022618125
,,,-7.8E-07,0.0225775
,,,-7.7E-07,0.022595
,,,-7.6E-07,0.0225325
,,,-7.5E-07,0.022624375
,,,-7.4E-07,0.02273375
,,,-7.3E-07,0.02235
,,,-7.2E-07,0.022566875
,,,-7.1E-07,0.02231
,,,-7E-07,0.02271
,,,-6.9E-07,0.022739375
,,,-6.8E-07,0.022393125
,,,-6.7E-07,0.022390625
,,,-6.6E-07,0.02236625
,,,-6.5E-07,0.022355
,,,-6.4E-07,0.022505
,,,-6.3E-07,0.02260875
,,,-6.2E-07,0.0225725
,,,-6.1E-07,0.022290625
,,,-6E-07,0.022395625
,,,-5.9E-07,0.02261
,,,-5.8E-07,0.022444375
,,,-5.7E-07,0.02256
,,,-5.6E-07,0.02223125
,,,-5.5E-07,0.022373125
,,,-5.4E-07,0.022569375
,,,-5.3E-07,0.022596875
,,,-5.2E-07,0.022576875
,,,-5.1E-07,0.02273
,,,-5E-07,0.022405625
,,,-4.9E-07,0.0224875
,,,-4.8E-07,0.0226725
,,,-4.7E-07,0.02250625
,,,-4.6E-07,0.02258375
,,,-4.5E-07,0.022635
,,,-4.4E-07,0.022413125
,,,-4.3E-07,0.022659375
,,,-4.2E-07,0.0223775
,,,-4.1E-07,0.022494375
,,,-4E-07,0.0223825
,,,-3.9E-07,0.0226125
,,,-3.8E-07,0.022345
,,,-3.7E-07,0.0226425
,,,-3.6E-07,0.0224375
,,,-3.5E-07,0.022348125
,,,-3.4E-07,0.022499375
,,,-3.3E-07,0.0224
,,,-3.2E-07,0.022463125
,,,-3.1E-07,0.02238375
,,,-3E-07,0.022233125
,,,-2.9E-07,0.022445
,,,-2.8E-07,0.02255625
,,,-2.7E-07,0.022535625
,,,-2.6E-07,0.02266125
,,,-2.5E-07,0.022341875
,,,-2.4E-07,0.02239
,,,-2.3E-07,0.022563125
,,,-2.2E-07,0.02240625
,,,-2.1E-07,0.022555
,,,-2E-07,0.0223775
,,,-1.9E-07,0.022375625
,,,-1.8E-07,0.02264375
,,,-1.7E-07,0.022395
,,,-1.6E-07,0.02237125
,,,-1.5E-07,0.02259
,,,-1.4E-07,0.022390625
,,,-1.3E-07,0.022351875
,,,-1.2E-07,0.0224
,,,-1.1E-07,0.02256625
,,,-1E-07,0.022400625
,,,-9E-08,0.02251125
,,,-8E-08,0.022299375
,,,-7E-08,0.022441875
,,,-6E-08,0.022484375
,,,-5E-08,0.022720625
,,,-4E-08,0.023701875
,,,-3E-08,0.02408875
,,,-2E-08,0.020041875
,,,-1E-08,0.017921875
,,,0,0.020660625
,,,1E-08,0.026144375
,,,2E-08,0.028085625
,,,3E-08,0.02517375
,,,4E-08,0.020640625
,,,5E-08,0.018750625
,,,6E-08,0.019319375
,,,7E-08,0.021863125
,,,8E-08,0.0236425
,,,9E-08,0.0252375
,,,1E-07,0.02446875
,,,1.1E-07,0.022786875
,,,1.2E-07,0.020745
,,,1.3E-07,0.02088
,,,1.4E-07,0.02181875
,,,1.5E-07,0.023159375
,,,1.6E-07,0.023235625
,,,1.7E-07,0.02293375
,,,1.8E-07,0.022608125
,,,1.9E-07,0.02252125
,,,2E-07,0.022416875
,,,2.1E-07,0.022185
,,,2.2E-07,0.02202625
,,,2.3E-07,0.0227325
,,,2.4E-07,0.022678125
,,,2.5E-07,0.02284375
,,,2.6E-07,0.022500625
,,,2.7E-07,0.022705625
,,,2.8E-07,0.022419375
,,,2.9E-07,0.022633125
,,,3E-07,0.02215
,,,3.1E-07,0.022395625
,,,3.2E-07,0.022560625
,,,3.3E-07,0.022696875
,,,3.4E-07,0.02257625
,,,3.5E-07,0.022625
,,,3.6E-07,0.022229375
,,,3.7E-07,0.022633125
,,,3.8E-07,0.022623125
,,,3.9E-07,0.022723125
,,,4E-07,0.02244625
,,,4.1E-07,0.022474375
,,,4.2E-07,0.02263
,,,4.3E-07,0.02255875
,,,4.4E-07,0.02232
,,,4.5E-07,0.022589375
,,,4.6E-07,0.022674375
,,,4.7E-07,0.022336875
,,,4.8E-07,0.02248375
,,,4.9E-07,0.02237
,,,5E-07,0.0226425
,,,5.1E-07,0.02259
,,,5.2E-07,0.02250125
,,,5.3E-07,0.022268125
,,,5.4E-07,0.02235125
,,,5.5E-07,0.022406875
,,,5.6E-07,0.02268375
,,,5.7E-07,0.02277125
,,,5.8E-07,0.022535
,,,5.9E-07,0.02265125
,,,6E-07,0.022388125
,,,6.1E-07,0.022371875
,,,6.2E-07,0.02242625
,,,6.3E-07,0.02250375
,,,6.4E-07,0.022481875
,,,6.5E-07,0.022393125
,,,6.6E-07,0.022486875
,,,6.7E-07,0.022604375
,,,6.8E-07,0.022229375
,,,6.9E-07,0.022524375
,,,7E-07,0.022641875
,,,7.1E-07,0.022420625
,,,7.2E-07,0.022540625
,,,7.3E-07,0.022521875
,,,7.4E-07,0.022499375
,,,7.5E-07,0.022443125
,,,7.6E-07,0.02212375
,,,7.7E-07,0.02243625
,,,7.8E-07,0.022603125
,,,7.9E-07,0.02268125
,,,8E-07,0.022610625
,,,8.1E-07,0.022486875
,,,8.2E-07,0.02261375
,,,8.3E-07,0.022628125
,,,8.4E-07,0.0225575
,,,8.5E-07,0.022771875
,,,8.6E-07,0.022458125
,,,8.7E-07,0.0223575
,,,8.8E-07,0.02258625
,,,8.9E-07,0.022459375
,,,9E-07,0.0226375
,,,9.1E-07,0.022543125
,,,9.2E-07,0.0226775
,,,9.3E-07,0.02252875
,,,9.4E-07,0.02235
,,,9.5E-07,0.02255875
,,,9.6E-07,0.022265
,,,9.7E-07,0.022585
,,,9.8E-07,0.02250125
,,,9.9E-07,0.022639375
,,,1E-06,0.02240125
,,,1.01E-06,0.022524375
,,,1.02E-06,0.022478125
,,,1.03E-06,0.022340625
,,,1.04E-06,0.022245
,,,1.05E-06,0.022631875
,,,1.06E-06,0.022600625
,,,1.07E-06,0.022591875
,,,1.08E-06,0.022658125
,,,1.09E-06,0.022618125
,,,1.1E-06,0.0223575
,,,1.11E-06,0.02243875
,,,1.12E-06,0.022456875
,,,1.13E-06,0.0225025
,,,1.14E-06,0.02229375
,,,1.15E-06,0.022494375
,,,1.16E-06,0.02239625
,,,1.17E-06,0.022695625
,,,1.18E-06,0.022419375
,,,1.19E-06,0.022548125
,,,1.2E-06,0.0224975
,,,1.21E-06,0.022434375
,,,1.22E-06,0.02263375
,,,1.23E-06,0.022826875
,,,1.24E-06,0.0223375
,,,1.25E-06,0.022115
,,,1.26E-06,0.022525
,,,1.27E-06,0.0225675
,,,1.28E-06,0.022405
,,,1.29E-06,0.02246875
,,,1.3E-06,0.02248875
,,,1.31E-06,0.02236
,,,1.32E-06,0.02258375
,,,1.33E-06,0.02276375
,,,1.34E-06,0.022701875
,,,1.35E-06,0.022315625
,,,1.36E-06,0.02248875
,,,1.37E-06,0.022433125
,,,1.38E-06,0.022615625
,,,1.39E-06,0.022461875
,,,1.4E-06,0.0224675
,,,1.41E-06,0.022426875
,,,1.42E-06,0.02232
,,,1.43E-06,0.02229
,,,1.44E-06,0.022760625
,,,1.45E-06,0.02241875
,,,1.46E-06,0.022441875
,,,1.47E-06,0.022454375
,,,1.48E-06,0.02257
,,,1.49E-06,0.022786875
,,,1.5E-06,0.022375
,,,1.51E-06,0.02244625
,,,1.52E-06,0.022301875
,,,1.53E-06,0.0223575
,,,1.54E-06,0.022516875
,,,1.55E-06,0.022754375
,,,1.56E-06,0.022593125
,,,1.57E-06,0.0227
,,,1.58E-06,0.022563125
,,,1.59E-06,0.0225925
,,,1.6E-06,0.02232
,,,1.61E-06,0.022698125
,,,1.62E-06,0.02243625
,,,1.63E-06,0.0223625
,,,1.64E-06,0.022280625
,,,1.65E-06,0.022435
,,,1.66E-06,0.02236125
,,,1.67E-06,0.0224675
,,,1.68E-06,0.0225425
,,,1.69E-06,0.022384375
,,,1.7E-06,0.022485625
,,,1.71E-06,0.022248125
,,,1.72E-06,0.022571875
,,,1.73E-06,0.022645
,,,1.74E-06,0.022535
,,,1.75E-06,0.0225975
,,,1.76E-06,0.022594375
,,,1.77E-06,0.02250125
,,,1.78E-06,0.022621875
,,,1.79E-06,0.022490625
,,,1.8E-06,0.022635625
,,,1.81E-06,0.0224125
,,,1.82E-06,0.02271375
,,,1.83E-06,0.0224025
,,,1.84E-06,0.022829375
,,,1.85E-06,0.022605625
,,,1.86E-06,0.02258
,,,1.87E-06,0.022665
,,,1.88E-06,0.02221875
,,,1.89E-06,0.02278
,,,1.9E-06,0.022540625
,,,1.91E-06,0.02257875
,,,1.92E-06,0.0225475
,,,1.93E-06,0.0225025
,,,1.94E-06,0.0224325
,,,1.95E-06,0.02259625
,,,1.96E-06,0.02242375
,,,1.97E-06,0.022734375
,,,1.98E-06,0.022639375
,,,1.99E-06,0.022611875
,,,2E-06,0.02237875
,,,2.01E-06,0.02251375
,,,2.02E-06,0.022588125
,,,2.03E-06,0.022455625
,,,2.04E-06,0.022583125
,,,2.05E-06,0.022553125
,,,2.06E-06,0.02256375
,,,2.07E-06,0.02251375
,,,2.08E-06,0.022775
,,,2.09E-06,0.0224925
,,,2.1E-06,0.02248375
,,,2.11E-06,0.022428125
,,,2.12E-06,0.022458125
,,,2.13E-06,0.022535
,,,2.14E-06,0.02246875
,,,2.15E-06,0.022900625
,,,2.16E-06,0.022429375
,,,2.17E-06,0.022388125
,,,2.18E-06,0.02248625
,,,2.19E-06,0.022436875
,,,2.2E-06,0.022021875
,,,2.21E-06,0.02266375
,,,2.22E-06,0.022470625
,,,2.23E-06,0.02249
,,,2.24E-06,0.022291875
,,,2.25E-06,0.02246875
,,,2.26E-06,0.02226125
,,,2.27E-06,0.022636875
,,,2.28E-06,0.022686875
,,,2.29E-06,0.02252
,,,2.3E-06,0.0225175
,,,2.31E-06,0.02280125
,,,2.32E-06,0.02256125
,,,2.33E-06,0.0225
,,,2.34E-06,0.02244625
,,,2.35E-06,0.02266375
,,,2.36E-06,0.02253875
,,,2.37E-06,0.02236125
,,,2.38E-06,0.022528125
,,,2.39E-06,0.022653125
,,,2.4E-06,0.022265625
,,,2.41E-06,0.022625
,,,2.42E-06,0.022415
,,,2.43E-06,0.022619375
,,,2.44E-06,0.022608125
,,,2.45E-06,0.022474375
,,,2.46E-06,0.022630625
,,,2.47E-06,0.022375
,,,2.48E-06,0.022348125
,,,2.49E-06,0.022654375
,,,2.5E-06,0.022468125
,,,2.51E-06,0.022509375
,,,2.52E-06,0.022704375
,,,2.53E-06,0.022724375
,,,2.54E-06,0.02239625
,,,2.55E-06,0.02253125
,,,2.56E-06,0.02273875
,,,2.57E-06,0.022881875
,,,2.58E-06,0.022485
,,,2.59E-06,0.02228875
,,,2.6E-06,0.022516875
,,,2.61E-06,0.022409375
,,,2.62E-06,0.02242625
,,,2.63E-06,0.022691875
,,,2.64E-06,0.02266625
,,,2.65E-06,0.022719375
,,,2.66E-06,0.0226775
,,,2.67E-06,0.02241375
,,,2.68E-06,0.022415
,,,2.69E-06,0.0225825
,,,2.7E-06,0.02275
,,,2.71E-06,0.022615
,,,2.72E-06,0.0224975
,,,2.73E-06,0.022383125
,,,2.74E-06,0.022509375
,,,2.75E-06,0.022386875
,,,2.76E-06,0.02248
,,,2.77E-06,0.022474375
,,,2.78E-06,0.022353125
,,,2.79E-06,0.02262625
,,,2.8E-06,0.022215
,,,2.81E-06,0.02272875
,,,2.82E-06,0.02265125
,,,2.83E-06,0.022678125
,,,2.84E-06,0.022256875
,,,2.85E-06,0.02238875
,,,2.86E-06,0.022446875
,,,2.87E-06,0.022563125
,,,2.88E-06,0.0223825
,,,2.89E-06,0.02265
,,,2.9E-06,0.02247625
,,,2.91E-06,0.022575625
,,,2.92E-06,0.022285
,,,2.93E-06,0.022443125
,,,2.94E-06,0.0227075
,,,2.95E-06,0.02254625
,,,2.96E-06,0.02248875
,,,2.97E-06,0.022454375
,,,2.98E-06,0.02262875
,,,2.99E-06,0.022201875
,,,3E-06,0.022560625
,,,3.01E-06,0.02236375
,,,3.02E-06,0.022525625
,,,3.03E-06,0.022230625
,,,3.04E-06,0.022249375
,,,3.05E-06,0.022296875
,,,3.06E-06,0.02259125
,,,3.07E-06,0.022743125
,,,3.08E-06,0.022468125
,,,3.09E-06,0.02238875
,,,3.1E-06,0.022498125
,,,3.11E-06,0.022343125
,,,3.12E-06,0.02255125
,,,3.13E-06,0.022496875
,,,3.14E-06,0.02254625
,,,3.15E-06,0.022698125
,,,3.16E-06,0.0227225
,,,3.17E-06,0.0223975
,,,3.18E-06,0.0224975
,,,3.19E-06,0.022705
,,,3.2E-06,0.0226325
,,,3.21E-06,0.022499375
,,,3.22E-06,0.02246
,,,3.23E-06,0.0225025
,,,3.24E-06,0.02255625
,,,3.25E-06,0.02245375
,,,3.26E-06,0.02229
,,,3.27E-06,0.022570625
,,,3.28E-06,0.022575625
,,,3.29E-06,0.022743125
,,,3.3E-06,0.022631875
,,,3.31E-06,0.02243
,,,3.32E-06,0.022580625
,,,3.33E-06,0.022465625
,,,3.34E-06,0.022259375
,,,3.35E-06,0.02229875
,,,3.36E-06,0.02249125
,,,3.37E-06,0.02233
,,,3.38E-06,0.02253125
,,,3.39E-06,0.02245875
,,,3.4E-06,0.022688125
,,,3.41E-06,0.022593125
,,,3.42E-06,0.022676875
,,,3.43E-06,0.02239
,,,3.44E-06,0.022544375
,,,3.45E-06,0.0227625
,,,3.46E-06,0.022618125
,,,3.47E-06,0.022715
,,,3.48E-06,0.022659375
,,,3.49E-06,0.022428125
,,,3.5E-06,0.022500625
,,,3.51E-06,0.02229625
,,,3.52E-06,0.02245
,,,3.53E-06,0.022554375
,,,3.54E-06,0.02259875
,,,3.55E-06,0.022645
,,,3.56E-06,0.02234375
,,,3.57E-06,0.022365
