data/raw/Final_POL_Test_1/SOP084_Ch3.csv

"Record Length",1000,"Points",-5E-06,0.021005626
"Sample Interval",1E-08,s,-4.99E-06,0.020952501
"Trigger Point",500,"Samples",-4.98E-06,0.021022501
"Trigger Time",0,s,-4.97E-06,0.021047501
"",,,-4.96E-06,0.021202501
"Horizontal Offset",-5E-06,s,-4.95E-06,0.021410001
,,,-4.94E-06,0.021040001
,,,-4.93E-06,0.021215001
,,,-4.92E-06,0.021095001
,,,-4.91E-06,0.021153751
,,,-4.9E-06,0.021272501
,,,-4.89E-06,0.021418751
,,,-4.88E-06,0.021284376
,,,-4.87E-06,0.020861876
,,,-4.86E-06,0.021156251
,,,-4.85E-06,0.020990001
,,,-4.84E-06,0.020985001
,,,-4.83E-06,0.021047501
,,,-4.82E-06,0.021251251
,,,-4.81E-06,0.021355626
,,,-4.8E-06,0.021225626
,,,-4.79E-06,0.021044376
,,,-4.78E-06,0.021085626
,,,-4.77E-06,0.020843751
,,,-4.76E-06,0.021073751
,,,-4.75E-06,0.020891251
,,,-4.74E-06,0.020961876
,,,-4.73E-06,0.021205626
,,,-4.72E-06,0.021108126
,,,-4.71E-06,0.021303751
,,,-4.7E-06,0.021037501
,,,-4.69E-06,0.021003126
,,,-4.68E-06,0.021075626
,,,-4.67E-06,0.021242501
,,,-4.66E-06,0.021343126
,,,-4.65E-06,0.021119376
,,,-4.64E-06,0.020980626
,,,-4.63E-06,0.021231876
,,,-4.62E-06,0.021301876
,,,-4.61E-06,0.021026876
,,,-4.6E-06,0.021256251
,,,-4.59E-06,0.021059376
,,,-4.58E-06,0.020870626
,,,-4.57E-06,0.021150626
,,,-4.56E-06,0.021147501
,,,-4.55E-06,0.021067501
,,,-4.54E-06,0.021356251
,,,-4.53E-06,0.020995626
,,,-4.52E-06,0.021160001
,,,-4.51E-06,0.020957501
,,,-4.5E-06,0.021133751
,,,-4.49E-06,0.021134376
,,,-4.48E-06,0.021243751
,,,-4.47E-06,0.021304376
,,,-4.46E-06,0.021045001
,,,-4.45E-06,0.021321876
,,,-4.44E-06,0.020967501
,,,-4.43E-06,0.021228751
,,,-4.42E-06,0.021191876
,,,-4.41E-06,0.020833126
,,,-4.4E-06,0.020951876
,,,-4.39E-06,0.021468751
,,,-4.38E-06,0.020991251
,,,-4.37E-06,0.021051876
,,,-4.36E-06,0.021246876
,,,-4.35E-06,0.021105626
,,,-4.34E-06,0.020940001
,,,-4.33E-06,0.021212501
,,,-4.32E-06,0.021153126
,,,-4.31E-06,0.021286876
,,,-4.3E-06,0.021200001
,,,-4.29E-06,0.021388751
,,,-4.28E-06,0.021119376
,,,-4.27E-06,0.021088751
,,,-4.26E-06,0.021215001
,,,-4.25E-06,0.021262501
,,,-4.24E-06,0.021151251
,,,-4.23E-06,0.021287501
,,,-4.22E-06,0.021200626
,,,-4.21E-06,0.021485001
,,,-4.2E-06,0.021026876
,,,-4.19E-06,0.021028751
,,,-4.18E-06,0.021109376
,,,-4.17E-06,0.021256876
,,,-4.16E-06,0.021158126
,,,-4.15E-06,0.020883126
,,,-4.14E-06,0.021150001
,,,-4.13E-06,0.021235001
,,,-4.12E-06,0.021045001
,,,-4.11E-06,0.021043751
,,,-4.1E-06,0.021016876
,,,-4.09E-06,0.021109376
,,,-4.08E-06,0.021150001
,,,-4.07E-06,0.020965626
,,,-4.06E-06,0.021093126
,,,-4.05E-06,0.021196876
,,,-4.04E-06,0.021441876
,,,-4.03E-06,0.021285626
,,,-4.02E-06,0.021271251
,,,-4.01E-06,0.021358126
,,,-4E-06,0.021241876
,,,-3.99E-06,0.021082501
,,,-3.98E-06,0.021061251
,,,-3.97E-06,0.021228751
,,,-3.96E-06,0.021016876
,,,-3.95E-06,0.021242501
,,,-3.94E-06,0.021248126
,,,-3.93E-06,0.021215001
,,,-3.92E-06,0.021091251
,,,-3.91E-06,0.021133751
,,,-3.9E-06,0.021100001
,,,-3.89E-06,0.021317501
,,,-3.88E-06,0.021143126
,,,-3.87E-06,0.020919376
,,,-3.86E-06,0.021330001
,,,-3.85E-06,0.021161876
,,,-3.84E-06,0.021006876
,,,-3.83E-06,0.021127501
,,,-3.82E-06,0.021213751
,,,-3.81E-06,0.021171876
,,,-3.8E-06,0.021121251
,,,-3.79E-06,0.021306251
,,,-3.78E-06,0.021080626
,,,-3.77E-06,0.020871876
,,,-3.76E-06,0.021150626
,,,-3.75E-06,0.021136251
,,,-3.74E-06,0.021412501
,,,-3.73E-06,0.021256876
,,,-3.72E-06,0.020855001
,,,-3.71E-06,0.021332501
,,,-3.7E-06,0.021265626
,,,-3.69E-06,0.021188126
,,,-3.68E-06,0.021086251
,,,-3.67E-06,0.021086251
,,,-3.66E-06,0.021107501
,,,-3.65E-06,0.021296876
,,,-3.64E-06,0.021171876
,,,-3.63E-06,0.021311876
,,,-3.62E-06,0.020846876
,,,-3.61E-06,0.021155001
,,,-3.6E-06,0.021050626
,,,-3.59E-06,0.021067501
,,,-3.58E-06,0.021255626
,,,-3.57E-06,0.021256251
,,,-3.56E-06,0.020962501
,,,-3.55E-06,0.021330626
,,,-3.54E-06,0.021300626
,,,-3.53E-06,0.021156251
,,,-3.52E-06,0.020893126
,,,-3.51E-06,0.021108126
,,,-3.5E-06,0.021335626
,,,-3.49E-06,0.021245001
,,,-3.48E-06,0.021178751
,,,-3.47E-06,0.021178751
,,,-3.46E-06,0.021219376
,,,-3.45E-06,0.021027501
,,,-3.44E-06,0.021026876
,,,-3.43E-06,0.021078751
,,,-3.42E-06,0.021155001
,,,-3.41E-06,0.021161876
,,,-3.4E-06,0.021198126
,,,-3.39E-06,0.021200001
,,,-3.38E-06,0.021234376
,,,-3.37E-06,0.020868126
,,,-3.36E-06,0.021155001
,,,-3.35E-06,0.021255001
,,,-3.34E-06,0.021251876
,,,-3.33E-06,0.021011251
,,,-3.32E-06,0.021300626
,,,-3.31E-06,0.021015626
,,,-3.3E-06,0.021320001
,,,-3.29E-06,0.021004376
,,,-3.28E-06,0.021082501
,,,-3.27E-06,0.021104376
,,,-3.26E-06,0.021257501
,,,-3.25E-06,0.020941251
,,,-3.24E-06,0.021224376
,,,-3.23E-06,0.021131876
,,,-3.22E-06,0.020939376
,,,-3.21E-06,0.021110001
,,,-3.2E-06,0.020939376
,,,-3.19E-06,0.021074376
,,,-3.18E-06,0.021091876
,,,-3.17E-06,0.021190001
,,,-3.16E-06,0.020891876
,,,-3.15E-06,0.020893751
,,,-3.14E-06,0.021089376
,,,-3.13E-06,0.021166876
,,,-3.12E-06,0.021250626
,,,-3.11E-06,0.021105626
,,,-3.1E-06,0.021058751
,,,-3.09E-06,0.021082501
,,,-3.08E-06,0.020848126
,,,-3.07E-06,0.021553751
,,,-3.06E-06,0.021264376
,,,-3.05E-06,0.021060001
,,,-3.04E-06,0.020898126
,,,-3.03E-06,0.021164376
,,,-3.02E-06,0.021136251
,,,-3.01E-06,0.021254376
,,,-3E-06,0.021073751
,,,-2.99E-06,0.020993126
,,,-2.98E-06,0.021071876
,,,-2.97E-06,0.021118126
,,,-2.96E-06,0.021215626
,,,-2.95E-06,0.021231876
,,,-2.94E-06,0.020940001
,,,-2.93E-06,0.021175626
,,,-2.92E-06,0.021286876
,,,-2.91E-06,0.021158126
,,,-2.9E-06,0.021170626
,,,-2.89E-06,0.021131876
,,,-2.88E-06,0.021331251
,,,-2.87E-06,0.021221876
,,,-2.86E-06,0.020863126
,,,-2.85E-06,0.021204376
,,,-2.84E-06,0.020973126
,,,-2.83E-06,0.021124376
,,,-2.82E-06,0.021310001
,,,-2.81E-06,0.021160626
,,,-2.8E-06,0.020825001
,,,-2.79E-06,0.020981251
,,,-2.78E-06,0.021106251
,,,-2.77E-06,0.021231251
,,,-2.76E-06,0.021039376
,,,-2.75E-06,0.021030001
,,,-2.74E-06,0.021138126
,,,-2.73E-06,0.021110001
,,,-2.72E-06,0.021111876
,,,-2.71E-06,0.020990001
,,,-2.7E-06,0.021208751
,,,-2.69E-06,0.021300626
,,,-2.68E-06,0.021217501
,,,-2.67E-06,0.021158126
,,,-2.66E-06,0.021195626
,,,-2.65E-06,0.021048751
,,,-2.64E-06,0.021263126
,,,-2.63E-06,0.021177501
,,,-2.62E-06,0.021340001
,,,-2.61E-06,0.021200001
,,,-2.6E-06,0.020984376
,,,-2.59E-06,0.021006876
,,,-2.58E-06,0.021451876
,,,-2.57E-06,0.021272501
,,,-2.56E-06,0.021133126
,,,-2.55E-06,0.021480626
,,,-2.54E-06,0.021147501
,,,-2.53E-06,0.021101251
,,,-2.52E-06,0.021245001
,,,-2.51E-06,0.021208751
,,,-2.5E-06,0.021263751
,,,-2.49E-06,0.021095001
,,,-2.48E-06,0.021328751
,,,-2.47E-06,0.021020626
,,,-2.46E-06,0.021072501
,,,-2.45E-06,0.021114376
,,,-2.44E-06,0.021128751
,,,-2.43E-06,0.021096876
,,,-2.42E-06,0.021329376
,,,-2.41E-06,0.021271251
,,,-2.4E-06,0.021108126
,,,-2.39E-06,0.021140626
,,,-2.38E-06,0.020856251
,,,-2.37E-06,0.021050001
,,,-2.36E-06,0.021123751
,,,-2.35E-06,0.021135001
,,,-2.34E-06,0.021231251
,,,-2.33E-06,0.021346876
,,,-2.32E-06,0.021098126
,,,-2.31E-06,0.021018751
,,,-2.3E-06,0.021113126
,,,-2.29E-06,0.021091251
,,,-2.28E-06,0.020810001
,,,-2.27E-06,0.021323751
,,,-2.26E-06,0.021075626
,,,-2.25E-06,0.021206876
,,,-2.24E-06,0.021142501
,,,-2.23E-06,0.020946251
,,,-2.22E-06,0.021103126
,,,-2.21E-06,0.021341876
,,,-2.2E-06,0.021248751
,,,-2.19E-06,0.021190626
,,,-2.18E-06,0.021449376
,,,-2.17E-06,0.021092501
,,,-2.16E-06,0.021204376
,,,-2.15E-06,0.021261876
,,,-2.14E-06,0.021119376
,,,-2.13E-06,0.021240626
,,,-2.12E-06,0.021013126
,,,-2.11E-06,0.020856876
,,,-2.1E-06,0.021161876
,,,-2.09E-06,0.021011876
,,,-2.08E-06,0.020977501
,,,-2.07E-06,0.021147501
,,,-2.06E-06,0.021495001
,,,-2.05E-06,0.020956876
,,,-2.04E-06,0.020903751
,,,-2.03E-06,0.021131251
,,,-2.02E-06,0.021238126
,,,-2.01E-06,0.020984376
,,,-2E-06,0.021201876
,,,-1.99E-06,0.021130626
,,,-1.98E-06,0.020931876
,,,-1.97E-06,0.021114376
,,,-1.96E-06,0.021105001
,,,-1.95E-06,0.021478126
,,,-1.94E-06,0.021135001
,,,-1.93E-06,0.021065001
,,,-1.92E-06,0.021160626
,,,-1.91E-06,0.021310001
,,,-1.9E-06,0.021214376
,,,-1.89E-06,0.021060626
,,,-1.88E-06,0.021473751
,,,-1.87E-06,0.021354376
,,,-1.86E-06,0.021078751
,,,-1.85E-06,0.021200626
,,,-1.84E-06,0.020969376
,,,-1.83E-06,0.021141876
,,,-1.82E-06,0.020990001
,,,-1.81E-06,0.021071251
,,,-1.8E-06,0.021003751
,,,-1.79E-06,0.021093751
,,,-1.78E-06,0.021285626
,,,-1.77E-06,0.021424376
,,,-1.76E-06,0.021193751
,,,-1.75E-06,0.021315626
,,,-1.74E-06,0.020834376
,,,-1.73E-06,0.021156251
,,,-1.72E-06,0.021136876
,,,-1.71E-06,0.021264376
,,,-1.7E-06,0.021287501
,,,-1.69E-06,0.021325001
,,,-1.68E-06,0.020991876
,,,-1.67E-06,0.020990001
,,,-1.66E-06,0.021181251
,,,-1.65E-06,0.021460001
,,,-1.64E-06,0.021168751
,,,-1.63E-06,0.021296876
,,,-1.62E-06,0.021338126
,,,-1.61E-06,0.021112501
,,,-1.6E-06,0.021069376
,,,-1.59E-06,0.021289376
,,,-1.58E-06,0.021327501
,,,-1.57E-06,0.021171251
,,,-1.56E-06,0.021243126
,,,-1.55E-06,0.021170626
,,,-1.54E-06,0.020928126
,,,-1.53E-06,0.021219376
,,,-1.52E-06,0.021111876
,,,-1.51E-06,0.021195001
,,,-1.5E-06,0.021182501
,,,-1.49E-06,0.021133126
,,,-1.48E-06,0.020935626
,,,-1.47E-06,0.020986876
,,,-1.46E-06,0.021193751
,,,-1.45E-06,0.021233751
,,,-1.44E-06,0.021074376
,,,-1.43E-06,0.021112501
,,,-1.42E-06,0.021270001
,,,-1.41E-06,0.021145626
,,,-1.4E-06,0.021157501
,,,-1.39E-06,0.021167501
,,,-1.38E-06,0.021248751
,,,-1.37E-06,0.021334376
,,,-1.36E-06,0.021238126
,,,-1.35E-06,0.021159376
,,,-1.34E-06,0.021131251
,,,-1.33E-06,0.021288126
,,,-1.32E-06,0.021320001
,,,-1.31E-06,0.021030626
,,,-1.3E-06,0.020800626
,,,-1.29E-06,0.021220626
,,,-1.28E-06,0.021278126
,,,-1.27E-06,0.021060626
,,,-1.26E-06,0.021358126
,,,-1.25E-06,0.021476876
,,,-1.24E-06,0.021184376
,,,-1.23E-06,0.021236876
,,,-1.22E-06,0.021188126
,,,-1.21E-06,0.021093126
,,,-1.2E-06,0.020936876
,,,-1.19E-06,0.021416876
,,,-1.18E-06,0.021066251
,,,-1.17E-06,0.021153751
,,,-1.16E-06,0.021216876
,,,-1.15E-06,0.021361251
,,,-1.14E-06,0.020983751
,,,-1.13E-06,0.021346876
,,,-1.12E-06,0.021127501
,,,-1.11E-06,0.021107501
,,,-1.1E-06,0.021051251
,,,-1.09E-06,0.021281251
,,,-1.08E-06,0.021018126
,,,-1.07E-06,0.021188751
,,,-1.06E-06,0.021344376
,,,-1.05E-06,0.021154376
,,,-1.04E-06,0.021473126
,,,-1.03E-06,0.021240001
,,,-1.02E-06,0.021103751
,,,-1.01E-06,0.021358126
,,,-1E-06,0.021281876
,,,-9.9E-07,0.021261251
,,,-9.8E-07,0.020973126
,,,-9.7E-07,0.021195001
,,,-9.6E-07,0.021050001
,,,-9.5E-07,0.021210001
,,,-9.4E-07,0.021157501
,,,-9.3E-07,0.021031251
,,,-9.2E-07,0.021060001
,,,-9.1E-07,0.020895626
,,,-9E-07,0.021153751
,,,-8.9E-07,0.021204376
,,,-8.8E-07,0.021098751
,,,-8.7E-07,0.021138751
,,,-8.6E-07,0.021303751
,,,-8.5E-07,0.021133751
,,,-8.4E-07,0.021321251
,,,-8.3E-07,0.021338126
,,,-8.2E-07,0.021240626
,,,-8.1E-07,0.021083126
,,,-8E-07,0.021272501
,,,-7.9E-07,0.021243126
,,,-7.8E-07,0.021179376
,,,-7.7E-07,0.021039376
,,,-7.6E-07,0.021439376
,,,-7.5E-07,0.020788751
,,,-7.4E-07,0.021100626
,,,-7.3E-07,0.021022501
,,,-7.2E-07,0.021160001
,,,-7.1E-07,0.021269376
,,,-7E-07,0.021322501
,,,-6.9E-07,0.021163126
,,,-6.8E-07,0.021121251
,,,-6.7E-07,0.020981251
,,,-6.6E-07,0.021530626
,,,-6.5E-07,0.021138751
,,,-6.4E-07,0.021041251
,,,-6.3E-07,0.021466876
,,,-6.2E-07,0.021248751
,,,-6.1E-07,0.021033751
,,,-6E-07,0.021050001
,,,-5.9E-07,0.021245626
,,,-5.8E-07,0.021083751
,,,-5.7E-07,0.021226251
,,,-5.6E-07,0.021108126
,,,-5.5E-07,0.021178751
,,,-5.4E-07,0.021416251
,,,-5.3E-07,0.020939376
,,,-5.2E-07,0.020972501
,,,-5.1E-07,0.021206251
,,,-5E-07,0.020985001
,,,-4.9E-07,0.021137501
,,,-4.8E-07,0.021011876
,,,-4.7E-07,0.021026251
,,,-4.6E-07,0.020943751
,,,-4.5E-07,0.021073751
,,,-4.4E-07,0.021124376
,,,-4.3E-07,0.021360001
,,,-4.2E-07,0.020804376
,,,-4.1E-07,0.020971876
,,,-4E-07,0.021235626
,,,-3.9E-07,0.021290626
,,,-3.8E-07,0.021179376
,,,-3.7E-07,0.021070001
,,,-3.6E-07,0.021189376
,,,-3.5E-07,0.021030001
,,,-3.4E-07,0.020919376
,,,-3.3E-07,0.021345001
,,,-3.2E-07,0.021199376
,,,-3.1E-07,0.021145001
,,,-3E-07,0.021070001
,,,-2.9E-07,0.020878126
,,,-2.8E-07,0.021164376
,,,-2.7E-07,0.021151876
,,,-2.6E-07,0.021183126
,,,-2.5E-07,0.021338751
,,,-2.4E-07,0.021145001
,,,-2.3E-07,0.021017501
,,,-2.2E-07,0.021223751
,,,-2.1E-07,0.021170626
,,,-2E-07,0.021285001
,,,-1.9E-07,0.021021876
,,,-1.8E-07,0.021116876
,,,-1.7E-07,0.021108126
,,,-1.6E-07,0.021138126
,,,-1.5E-07,0.021106876
,,,-1.4E-07,0.021133751
,,,-1.3E-07,0.021177501
,,,-1.2E-07,0.021163126
,,,-1.1E-07,0.021285626
,,,-1E-07,0.021223751
,,,-9E-08,0.021197501
,,,-8E-08,0.021171876
,,,-7E-08,0.020911876
,,,-6E-08,0.021031876
,,,-5E-08,0.021386251
,,,-4E-08,0.022041876
,,,-3E-08,0.023255001
,,,-2E-08,0.019840001
,,,-1E-08,0.017792501
,,,0,0.017150001
,,,1E-08,0.023323751
,,,2E-08,0.025684376
,,,3E-08,0.025506876
,,,4E-08,0.021038751
,,,5E-08,0.018482501
,,,6E-08,0.017443126
,,,7E-08,0.019127501
,,,8E-08,0.021631251
,,,9E-08,0.023221876
,,,1E-07,0.023558751
,,,1.1E-07,0.021880001
,,,1.2E-07,0.020515001
,,,1.3E-07,0.019507501
,,,1.4E-07,0.020210001
,,,1.5E-07,0.021318751
,,,1.6E-07,0.021698751
,,,1.7E-07,0.021390001
,,,1.8E-07,0.021215001
,,,1.9E-07,0.021166876
,,,2E-07,0.021112501
,,,2.1E-07,0.020865001
,,,2.2E-07,0.020964376
,,,2.3E-07,0.021007501
,,,2.4E-07,0.021000001
,,,2.5E-07,0.021261876
,,,2.6E-07,0.021046251
,,,2.7E-07,0.021251251
,,,2.8E-07,0.021050626
,,,2.9E-07,0.020933751
,,,3E-07,0.021238751
,,,3.1E-07,0.020726251
,,,3.2E-07,0.021263126
,,,3.3E-07,0.021380001
,,,3.4E-07,0.021364376
,,,3.5E-07,0.021143126
,,,3.6E-07,0.021153751
,,,3.7E-07,0.021011876
,,,3.8E-07,0.021304376
,,,3.9E-07,0.020883126
,,,4E-07,0.020980001
,,,4.1E-07,0.021078126
,,,4.2E-07,0.021001876
,,,4.3E-07,0.021090626
,,,4.4E-07,0.021084376
,,,4.5E-07,0.021368126
,,,4.6E-07,0.021148126
,,,4.7E-07,0.021125001
,,,4.8E-07,0.021216876
,,,4.9E-07,0.020982501
,,,5E-07,0.021294376
,,,5.1E-07,0.021104376
,,,5.2E-07,0.021024376
,,,5.3E-07,0.021216251
,,,5.4E-07,0.021053126
,,,5.5E-07,0.021146251
,,,5.6E-07,0.021126251
,,,5.7E-07,0.021051876
,,,5.8E-07,0.021369376
,,,5.9E-07,0.020978126
,,,6E-07,0.021225001
,,,6.1E-07,0.021076251
,,,6.2E-07,0.021274376
,,,6.3E-07,0.021249376
,,,6.4E-07,0.021078126
,,,6.5E-07,0.021319376
,,,6.6E-07,0.021410001
,,,6.7E-07,0.021275626
,,,6.8E-07,0.021149376
,,,6.9E-07,0.021131876
,,,7E-07,0.021170001
,,,7.1E-07,0.021078126
,,,7.2E-07,0.020865626
,,,7.3E-07,0.021195626
,,,7.4E-07,0.021095626
,,,7.5E-07,0.021174376
,,,7.6E-07,0.021141876
,,,7.7E-07,0.021085001
,,,7.8E-07,0.021311251
,,,7.9E-07,0.021023126
,,,8E-07,0.020971251
,,,8.1E-07,0.021058126
,,,8.2E-07,0.021036251
,,,8.3E-07,0.021029376
,,,8.4E-07,0.021330626
,,,8.5E-07,0.021053126
,,,8.6E-07,0.021085001
,,,8.7E-07,0.021028126
,,,8.8E-07,0.021031876
,,,8.9E-07,0.021035001
,,,9E-07,0.021191876
,,,9.1E-07,0.021337501
,,,9.2E-07,0.021306876
,,,9.3E-07,0.021280001
,,,9.4E-07,0.021128126
,,,9.5E-07,0.021029376
,,,9.6E-07,0.021081251
,,,9.7E-07,0.021133751
,,,9.8E-07,0.021280001
,,,9.9E-07,0.021195626
,,,1E-06,0.021223126
,,,1.01E-06,0.021296876
,,,1.02E-06,0.021017501
,,,1.03E-06,0.021181251
,,,1.04E-06,0.020915001
,,,1.05E-06,0.021257501
,,,1.06E-06,0.021279376
,,,1.07E-06,0.021263751
,,,1.08E-06,0.021279376
,,,1.09E-06,0.021113751
,,,1.1E-06,0.021121251
,,,1.11E-06,0.021170626
,,,1.12E-06,0.021068751
,,,1.13E-06,0.021043126
,,,1.14E-06,0.021150626
,,,1.15E-06,0.021045626
,,,1.16E-06,0.020950001
,,,1.17E-06,0.021343751
,,,1.18E-06,0.021119376
,,,1.19E-06,0.021126876
,,,1.2E-06,0.021341876
,,,1.21E-06,0.021089376
,,,1.22E-06,0.021090001
,,,1.23E-06,0.021361251
,,,1.24E-06,0.021178751
,,,1.25E-06,0.021101876
,,,1.26E-06,0.021060001
,,,1.27E-06,0.020784376
,,,1.28E-06,0.021145001
,,,1.29E-06,0.021212501
,,,1.3E-06,0.021001876
,,,1.31E-06,0.021155001
,,,1.32E-06,0.021300001
,,,1.33E-06,0.021293751
,,,1.34E-06,0.021358751
,,,1.35E-06,0.021145001
,,,1.36E-06,0.021086876
,,,1.37E-06,0.021181876
,,,1.38E-06,0.021300626
,,,1.39E-06,0.021245626
,,,1.4E-06,0.021137501
,,,1.41E-06,0.021070001
,,,1.42E-06,0.020885626
,,,1.43E-06,0.021375001
,,,1.44E-06,0.021196251
,,,1.45E-06,0.021061876
,,,1.46E-06,0.021058751
,,,1.47E-06,0.020891876
,,,1.48E-06,0.021081876
,,,1.49E-06,0.021291251
,,,1.5E-06,0.021209376
,,,1.51E-06,0.021421876
,,,1.52E-06,0.020963126
,,,1.53E-06,0.021100626
,,,1.54E-06,0.021158751
,,,1.55E-06,0.021327501
,,,1.56E-06,0.021158751
,,,1.57E-06,0.021066251
,,,1.58E-06,0.021133126
,,,1.59E-06,0.021045001
,,,1.6E-06,0.020895001
,,,1.61E-06,0.020969376
,,,1.62E-06,0.021111876
,,,1.63E-06,0.021013751
,,,1.64E-06,0.020955001
,,,1.65E-06,0.021339376
,,,1.66E-06,0.021321876
,,,1.67E-06,0.021195626
,,,1.68E-06,0.021097501
,,,1.69E-06,0.021211876
,,,1.7E-06,0.021170001
,,,1.71E-06,0.021330626
,,,1.72E-06,0.021425626
,,,1.73E-06,0.021260001
,,,1.74E-06,0.021078126
,,,1.75E-06,0.021011876
,,,1.76E-06,0.021299376
,,,1.77E-06,0.021293751
,,,1.78E-06,0.020987501
,,,1.79E-06,0.021089376
,,,1.8E-06,0.021228126
,,,1.81E-06,0.021020001
,,,1.82E-06,0.021174376
,,,1.83E-06,0.021256251
,,,1.84E-06,0.021289376
,,,1.85E-06,0.020847501
,,,1.86E-06,0.021077501
,,,1.87E-06,0.021195001
,,,1.88E-06,0.021223751
,,,1.89E-06,0.021066876
,,,1.9E-06,0.021133751
,,,1.91E-06,0.021203751
,,,1.92E-06,0.021030001
,,,1.93E-06,0.021037501
,,,1.94E-06,0.021413751
,,,1.95E-06,0.021276876
,,,1.96E-06,0.021160626
,,,1.97E-06,0.021132501
,,,1.98E-06,0.021036251
,,,1.99E-06,0.021359376
,,,2E-06,0.021164376
,,,2.01E-06,0.021024376
,,,2.02E-06,0.021155626
,,,2.03E-06,0.021270626
,,,2.04E-06,0.021231251
,,,2.05E-06,0.021302501
,,,2.06E-06,0.021131876
,,,2.07E-06,0.021379376
,,,2.08E-06,0.020946251
,,,2.09E-06,0.020911876
,,,2.1E-06,0.021290626
,,,2.11E-06,0.021164376
,,,2.12E-06,0.021389376
,,,2.13E-06,0.020969376
,,,2.14E-06,0.021042501
,,,2.15E-06,0.021288751
,,,2.16E-06,0.021330626
,,,2.17E-06,0.021001251
,,,2.18E-06,0.021121876
,,,2.19E-06,0.020996876
,,,2.2E-06,0.021428751
,,,2.21E-06,0.021083751
,,,2.22E-06,0.021193751
,,,2.23E-06,0.021115001
,,,2.24E-06,0.021329376
,,,2.25E-06,0.021338751
,,,2.26E-06,0.021068751
,,,2.27E-06,0.021071251
,,,2.28E-06,0.020889376
,,,2.29E-06,0.021281251
,,,2.3E-06,0.021234376
,,,2.31E-06,0.021232501
,,,2.32E-06,0.021273126
,,,2.33E-06,0.021179376
,,,2.34E-06,0.021201876
,,,2.35E-06,0.021060626
,,,2.36E-06,0.021205001
,,,2.37E-06,0.021211251
,,,2.38E-06,0.021324376
,,,2.39E-06,0.021315626
,,,2.4E-06,0.021128751
,,,2.41E-06,0.021150626
,,,2.42E-06,0.021293751
,,,2.43E-06,0.021167501
,,,2.44E-06,0.021020626
,,,2.45E-06,0.020927501
,,,2.46E-06,0.021245626
,,,2.47E-06,0.021258751
,,,2.48E-06,0.021069376
,,,2.49E-06,0.020918751
,,,2.5E-06,0.020906876
,,,2.51E-06,0.021193126
,,,2.52E-06,0.021129376
,,,2.53E-06,0.020976251
,,,2.54E-06,0.021032501
,,,2.55E-06,0.021223126
,,,2.56E-06,0.021259376
,,,2.57E-06,0.021245001
,,,2.58E-06,0.021161876
,,,2.59E-06,0.021110626
,,,2.6E-06,0.021203126
,,,2.61E-06,0.021031251
,,,2.62E-06,0.021090626
,,,2.63E-06,0.021108751
,,,2.64E-06,0.021115001
,,,2.65E-06,0.021284376
,,,2.66E-06,0.021284376
,,,2.67E-06,0.020920626
,,,2.68E-06,0.020988751
,,,2.69E-06,0.020860626
,,,2.7E-06,0.021120626
,,,2.71E-06,0.021479376
,,,2.72E-06,0.021198126
,,,2.73E-06,0.021055001
,,,2.74E-06,0.021140001
,,,2.75E-06,0.021151251
,,,2.76E-06,0.021174376
,,,2.77E-06,0.020903126
,,,2.78E-06,0.021206876
,,,2.79E-06,0.020981876
,,,2.8E-06,0.021344376
,,,2.81E-06,0.021439376
,,,2.82E-06,0.021181251
,,,2.83E-06,0.021036876
,,,2.84E-06,0.021238751
,,,2.85E-06,0.021183126
,,,2.86E-06,0.020969376
,,,2.87E-06,0.021125626
,,,2.88E-06,0.021119376
,,,2.89E-06,0.021565001
,,,2.9E-06,0.021353126
,,,2.91E-06,0.021043126
,,,2.92E-06,0.021331876
,,,2.93E-06,0.021283751
,,,2.94E-06,0.021033751
,,,2.95E-06,0.021136876
,,,2.96E-06,0.021066251
,,,2.97E-06,0.021110001
,,,2.98E-06,0.021205001
,,,2.99E-06,0.021243751
,,,3E-06,0.021234376
,,,3.01E-06,0.021472501
,,,3.02E-06,0.021267501
,,,3.03E-06,0.020941251
,,,3.04E-06,0.021035626
,,,3.05E-06,0.021113126
,,,3.06E-06,0.021148751
,,,3.07E-06,0.021100001
,,,3.08E-06,0.021081251
,,,3.09E-06,0.021146876
,,,3.1E-06,0.021212501
,,,3.11E-06,0.021062501
,,,3.12E-06,0.021191876
,,,3.13E-06,0.020874376
,,,3.14E-06,0.021177501
,,,3.15E-06,0.021223751
,,,3.16E-06,0.021135001
,,,3.17E-06,0.020913751
,,,3.18E-06,0.021272501
,,,3.19E-06,0.020918126
,,,3.2E-06,0.021191251
,,,3.21E-06,0.021250001
