data/raw/Final_POL_Test_1/SOP009_Ch1.csv

"Record Length",1000,"Points",-5E-06,0.00643625
"Sample Interval",1E-08,s,-4.99E-06,0.006566875
"Trigger Point",500,"Samples",-4.98E-06,0.006608125
"Trigger Time",0,s,-4.97E-06,0.006435
"",,,-4.96E-06,0.006450625
"Horizontal Offset",-5E-06,s,-4.95E-06,0.006494375
,,,-4.94E-06,0.0064075
,,,-4.93E-06,0.006475
,,,-4.92E-06,0.006598125
,,,-4.91E-06,0.006649375
,,,-4.9E-06,0.006530625
,,,-4.89E-06,0.006684375
,,,-4.88E-06,0.006245
,,,-4.87E-06,0.006201875
,,,-4.86E-06,0.006381875
,,,-4.85E-06,0.0062925
,,,-4.84E-06,0.006273125
,,,-4.83E-06,0.006376875
,,,-4.82E-06,0.00655625
,,,-4.81E-06,0.0065375
,,,-4.8E-06,0.00633375
,,,-4.79E-06,0.00647875
,,,-4.78E-06,0.0063625
,,,-4.77E-06,0.006485
,,,-4.76E-06,0.0065875
,,,-4.75E-06,0.0062725
,,,-4.74E-06,0.00649375
,,,-4.73E-06,0.00646625
,,,-4.72E-06,0.0064575
,,,-4.71E-06,0.006490625
,,,-4.7E-06,0.006405625
,,,-4.69E-06,0.00666
,,,-4.68E-06,0.006531875
,,,-4.67E-06,0.006489375
,,,-4.66E-06,0.006225625
,,,-4.65E-06,0.006445
,,,-4.64E-06,0.006526875
,,,-4.63E-06,0.006443125
,,,-4.62E-06,0.0064925
,,,-4.61E-06,0.00649
,,,-4.6E-06,0.006236875
,,,-4.59E-06,0.00654875
,,,-4.58E-06,0.00629875
,,,-4.57E-06,0.006373125
,,,-4.56E-06,0.006454375
,,,-4.55E-06,0.0066475
,,,-4.54E-06,0.006565
,,,-4.53E-06,0.006624375
,,,-4.52E-06,0.00627125
,,,-4.51E-06,0.006451875
,,,-4.5E-06,0.006568125
,,,-4.49E-06,0.00648
,,,-4.48E-06,0.006299375
,,,-4.47E-06,0.006560625
,,,-4.46E-06,0.00634375
,,,-4.45E-06,0.006614375
,,,-4.44E-06,0.0064675
,,,-4.43E-06,0.006431875
,,,-4.42E-06,0.00660125
,,,-4.41E-06,0.006636875
,,,-4.4E-06,0.006371875
,,,-4.39E-06,0.00652
,,,-4.38E-06,0.006358125
,,,-4.37E-06,0.006688125
,,,-4.36E-06,0.006405
,,,-4.35E-06,0.00655
,,,-4.34E-06,0.006395
,,,-4.33E-06,0.00644
,,,-4.32E-06,0.006525
,,,-4.31E-06,0.00649375
,,,-4.3E-06,0.00648375
,,,-4.29E-06,0.00659
,,,-4.28E-06,0.00659125
,,,-4.27E-06,0.00641125
,,,-4.26E-06,0.006183125
,,,-4.25E-06,0.006321875
,,,-4.24E-06,0.006540625
,,,-4.23E-06,0.006556875
,,,-4.22E-06,0.0063025
,,,-4.21E-06,0.00660625
,,,-4.2E-06,0.006414375
,,,-4.19E-06,0.006563125
,,,-4.18E-06,0.00615875
,,,-4.17E-06,0.006274375
,,,-4.16E-06,0.00660375
,,,-4.15E-06,0.006596875
,,,-4.14E-06,0.006314375
,,,-4.13E-06,0.006233125
,,,-4.12E-06,0.00658
,,,-4.11E-06,0.006321875
,,,-4.1E-06,0.00642375
,,,-4.09E-06,0.00633125
,,,-4.08E-06,0.006305625
,,,-4.07E-06,0.00643125
,,,-4.06E-06,0.006600625
,,,-4.05E-06,0.00631875
,,,-4.04E-06,0.00637625
,,,-4.03E-06,0.0065325
,,,-4.02E-06,0.006306875
,,,-4.01E-06,0.00645125
,,,-4E-06,0.006449375
,,,-3.99E-06,0.006474375
,,,-3.98E-06,0.0063625
,,,-3.97E-06,0.00653875
,,,-3.96E-06,0.00652375
,,,-3.95E-06,0.006556875
,,,-3.94E-06,0.0065875
,,,-3.93E-06,0.006446875
,,,-3.92E-06,0.006239375
,,,-3.91E-06,0.006400625
,,,-3.9E-06,0.00629
,,,-3.89E-06,0.006214375
,,,-3.88E-06,0.006615
,,,-3.87E-06,0.006501875
,,,-3.86E-06,0.0063775
,,,-3.85E-06,0.006244375
,,,-3.84E-06,0.00653625
,,,-3.83E-06,0.006288125
,,,-3.82E-06,0.006341875
,,,-3.81E-06,0.006456875
,,,-3.8E-06,0.00666125
,,,-3.79E-06,0.006419375
,,,-3.78E-06,0.00641375
,,,-3.77E-06,0.00645125
,,,-3.76E-06,0.006385625
,,,-3.75E-06,0.006639375
,,,-3.74E-06,0.00651875
,,,-3.73E-06,0.006601875
,,,-3.72E-06,0.006525
,,,-3.71E-06,0.006439375
,,,-3.7E-06,0.006515625
,,,-3.69E-06,0.006301875
,,,-3.68E-06,0.00650625
,,,-3.67E-06,0.00661375
,,,-3.66E-06,0.00646875
,,,-3.65E-06,0.006464375
,,,-3.64E-06,0.006223125
,,,-3.63E-06,0.006348125
,,,-3.62E-06,0.006585625
,,,-3.61E-06,0.006254375
,,,-3.6E-06,0.006675625
,,,-3.59E-06,0.006460625
,,,-3.58E-06,0.006631875
,,,-3.57E-06,0.0064375
,,,-3.56E-06,0.0064375
,,,-3.55E-06,0.00657375
,,,-3.54E-06,0.00657375
,,,-3.53E-06,0.006485
,,,-3.52E-06,0.00654625
,,,-3.51E-06,0.0065075
,,,-3.5E-06,0.00636875
,,,-3.49E-06,0.006406875
,,,-3.48E-06,0.006496875
,,,-3.47E-06,0.006304375
,,,-3.46E-06,0.0067075
,,,-3.45E-06,0.00656375
,,,-3.44E-06,0.00632
,,,-3.43E-06,0.006416875
,,,-3.42E-06,0.00667875
,,,-3.41E-06,0.006471875
,,,-3.4E-06,0.006545
,,,-3.39E-06,0.0066375
,,,-3.38E-06,0.006325
,,,-3.37E-06,0.00643
,,,-3.36E-06,0.0063275
,,,-3.35E-06,0.006369375
,,,-3.34E-06,0.00646375
,,,-3.33E-06,0.00646875
,,,-3.32E-06,0.006633125
,,,-3.31E-06,0.00647875
,,,-3.3E-06,0.00637625
,,,-3.29E-06,0.00643625
,,,-3.28E-06,0.00630125
,,,-3.27E-06,0.006593125
,,,-3.26E-06,0.006440625
,,,-3.25E-06,0.006531875
,,,-3.24E-06,0.00647375
,,,-3.23E-06,0.0066225
,,,-3.22E-06,0.006205625
,,,-3.21E-06,0.00646375
,,,-3.2E-06,0.006445625
,,,-3.19E-06,0.006636875
,,,-3.18E-06,0.006385625
,,,-3.17E-06,0.006630625
,,,-3.16E-06,0.00656
,,,-3.15E-06,0.006580625
,,,-3.14E-06,0.006479375
,,,-3.13E-06,0.00651625
,,,-3.12E-06,0.00648875
,,,-3.11E-06,0.0062325
,,,-3.1E-06,0.006463125
,,,-3.09E-06,0.00635125
,,,-3.08E-06,0.006436875
,,,-3.07E-06,0.00664875
,,,-3.06E-06,0.00639
,,,-3.05E-06,0.00634625
,,,-3.04E-06,0.00657125
,,,-3.03E-06,0.0063525
,,,-3.02E-06,0.00623
,,,-3.01E-06,0.006473125
,,,-3E-06,0.006323125
,,,-2.99E-06,0.0065275
,,,-2.98E-06,0.0067475
,,,-2.97E-06,0.006610625
,,,-2.96E-06,0.006074375
,,,-2.95E-06,0.00653
,,,-2.94E-06,0.006165625
,,,-2.93E-06,0.00656875
,,,-2.92E-06,0.006429375
,,,-2.91E-06,0.0066725
,,,-2.9E-06,0.00642
,,,-2.89E-06,0.00642375
,,,-2.88E-06,0.006553125
,,,-2.87E-06,0.006338125
,,,-2.86E-06,0.006389375
,,,-2.85E-06,0.00657
,,,-2.84E-06,0.00634875
,,,-2.83E-06,0.00625375
,,,-2.82E-06,0.006305
,,,-2.81E-06,0.006255625
,,,-2.8E-06,0.00631875
,,,-2.79E-06,0.006395
,,,-2.78E-06,0.006428125
,,,-2.77E-06,0.00655
,,,-2.76E-06,0.006583125
,,,-2.75E-06,0.0064
,,,-2.74E-06,0.006481875
,,,-2.73E-06,0.0066225
,,,-2.72E-06,0.00617125
,,,-2.71E-06,0.00646375
,,,-2.7E-06,0.006575
,,,-2.69E-06,0.0067425
,,,-2.68E-06,0.00642
,,,-2.67E-06,0.00653
,,,-2.66E-06,0.0065275
,,,-2.65E-06,0.006658125
,,,-2.64E-06,0.00641
,,,-2.63E-06,0.00651625
,,,-2.62E-06,0.00647
,,,-2.61E-06,0.006436875
,,,-2.6E-06,0.006255
,,,-2.59E-06,0.006323125
,,,-2.58E-06,0.006390625
,,,-2.57E-06,0.00662875
,,,-2.56E-06,0.00646375
,,,-2.55E-06,0.006370625
,,,-2.54E-06,0.006355625
,,,-2.53E-06,0.00651625
,,,-2.52E-06,0.0065225
,,,-2.51E-06,0.006480625
,,,-2.5E-06,0.006434375
,,,-2.49E-06,0.006500625
,,,-2.48E-06,0.00640625
,,,-2.47E-06,0.006508125
,,,-2.46E-06,0.006230625
,,,-2.45E-06,0.006476875
,,,-2.44E-06,0.006425625
,,,-2.43E-06,0.006095625
,,,-2.42E-06,0.00647375
,,,-2.41E-06,0.006385
,,,-2.4E-06,0.00688625
,,,-2.39E-06,0.006550625
,,,-2.38E-06,0.006418125
,,,-2.37E-06,0.0062675
,,,-2.36E-06,0.0066825
,,,-2.35E-06,0.00657
,,,-2.34E-06,0.006445
,,,-2.33E-06,0.006469375
,,,-2.32E-06,0.006325625
,,,-2.31E-06,0.00642875
,,,-2.3E-06,0.00635125
,,,-2.29E-06,0.0064625
,,,-2.28E-06,0.0064275
,,,-2.27E-06,0.0062575
,,,-2.26E-06,0.00636625
,,,-2.25E-06,0.006559375
,,,-2.24E-06,0.006463125
,,,-2.23E-06,0.00623125
,,,-2.22E-06,0.006400625
,,,-2.21E-06,0.006334375
,,,-2.2E-06,0.006598125
,,,-2.19E-06,0.00641875
,,,-2.18E-06,0.0066575
,,,-2.17E-06,0.006429375
,,,-2.16E-06,0.006475625
,,,-2.15E-06,0.006351875
,,,-2.14E-06,0.006475625
,,,-2.13E-06,0.00665375
,,,-2.12E-06,0.00636375
,,,-2.11E-06,0.006446875
,,,-2.1E-06,0.006458125
,,,-2.09E-06,0.0065475
,,,-2.08E-06,0.00651
,,,-2.07E-06,0.006250625
,,,-2.06E-06,0.006678125
,,,-2.05E-06,0.006120625
,,,-2.04E-06,0.006593125
,,,-2.03E-06,0.0064075
,,,-2.02E-06,0.006525
,,,-2.01E-06,0.006463125
,,,-2E-06,0.006386875
,,,-1.99E-06,0.006495
,,,-1.98E-06,0.006295
,,,-1.97E-06,0.006753125
,,,-1.96E-06,0.00637
,,,-1.95E-06,0.00668
,,,-1.94E-06,0.00640875
,,,-1.93E-06,0.006384375
,,,-1.92E-06,0.006503125
,,,-1.91E-06,0.00650125
,,,-1.9E-06,0.00641375
,,,-1.89E-06,0.006526875
,,,-1.88E-06,0.00641125
,,,-1.87E-06,0.006566875
,,,-1.86E-06,0.006534375
,,,-1.85E-06,0.00643625
,,,-1.84E-06,0.00638125
,,,-1.83E-06,0.006668125
,,,-1.82E-06,0.006566875
,,,-1.81E-06,0.00667
,,,-1.8E-06,0.006381875
,,,-1.79E-06,0.006486875
,,,-1.78E-06,0.006558125
,,,-1.77E-06,0.00623375
,,,-1.76E-06,0.006334375
,,,-1.75E-06,0.00654875
,,,-1.74E-06,0.006356875
,,,-1.73E-06,0.0064025
,,,-1.72E-06,0.00637625
,,,-1.71E-06,0.00603125
,,,-1.7E-06,0.006404375
,,,-1.69E-06,0.006333125
,,,-1.68E-06,0.0064225
,,,-1.67E-06,0.006565625
,,,-1.66E-06,0.0064275
,,,-1.65E-06,0.006545
,,,-1.64E-06,0.006661875
,,,-1.63E-06,0.00643
,,,-1.62E-06,0.00619
,,,-1.61E-06,0.00646625
,,,-1.6E-06,0.006478125
,,,-1.59E-06,0.006601875
,,,-1.58E-06,0.0062825
,,,-1.57E-06,0.006390625
,,,-1.56E-06,0.006595
,,,-1.55E-06,0.006153125
,,,-1.54E-06,0.00647625
,,,-1.53E-06,0.0065425
,,,-1.52E-06,0.00628375
,,,-1.51E-06,0.00633
,,,-1.5E-06,0.006496875
,,,-1.49E-06,0.006331875
,,,-1.48E-06,0.00662625
,,,-1.47E-06,0.006396875
,,,-1.46E-06,0.006379375
,,,-1.45E-06,0.00630625
,,,-1.44E-06,0.00660125
,,,-1.43E-06,0.00642375
,,,-1.42E-06,0.00663625
,,,-1.41E-06,0.006756875
,,,-1.4E-06,0.00659875
,,,-1.39E-06,0.006128125
,,,-1.38E-06,0.006385625
,,,-1.37E-06,0.006481875
,,,-1.36E-06,0.0064275
,,,-1.35E-06,0.006395625
,,,-1.34E-06,0.00656
,,,-1.33E-06,0.00667625
,,,-1.32E-06,0.0062625
,,,-1.31E-06,0.0063975
,,,-1.3E-06,0.006648125
,,,-1.29E-06,0.006319375
,,,-1.28E-06,0.006551875
,,,-1.27E-06,0.00649875
,,,-1.26E-06,0.00650625
,,,-1.25E-06,0.006400625
,,,-1.24E-06,0.006673125
,,,-1.23E-06,0.006465
,,,-1.22E-06,0.006343125
,,,-1.21E-06,0.006493125
,,,-1.2E-06,0.006446875
,,,-1.19E-06,0.006400625
,,,-1.18E-06,0.006298125
,,,-1.17E-06,0.006629375
,,,-1.16E-06,0.00649875
,,,-1.15E-06,0.006531875
,,,-1.14E-06,0.00652
,,,-1.13E-06,0.006339375
,,,-1.12E-06,0.00662875
,,,-1.11E-06,0.0064225
,,,-1.1E-06,0.006290625
,,,-1.09E-06,0.006516875
,,,-1.08E-06,0.006435
,,,-1.07E-06,0.0063125
,,,-1.06E-06,0.006311875
,,,-1.05E-06,0.006350625
,,,-1.04E-06,0.00667875
,,,-1.03E-06,0.006113125
,,,-1.02E-06,0.00625625
,,,-1.01E-06,0.00616875
,,,-1E-06,0.00634125
,,,-9.9E-07,0.00647625
,,,-9.8E-07,0.006435625
,,,-9.7E-07,0.0063725
,,,-9.6E-07,0.00647875
,,,-9.5E-07,0.00631375
,,,-9.4E-07,0.006635
,,,-9.3E-07,0.006575625
,,,-9.2E-07,0.006449375
,,,-9.1E-07,0.0066325
,,,-9E-07,0.00669375
,,,-8.9E-07,0.006353125
,,,-8.8E-07,0.006431875
,,,-8.7E-07,0.00654
,,,-8.6E-07,0.00657875
,,,-8.5E-07,0.006558125
,,,-8.4E-07,0.0064525
,,,-8.3E-07,0.006543125
,,,-8.2E-07,0.006446875
,,,-8.1E-07,0.006518125
,,,-8E-07,0.00617125
,,,-7.9E-07,0.00619
,,,-7.8E-07,0.00647125
,,,-7.7E-07,0.006145625
,,,-7.6E-07,0.006461875
,,,-7.5E-07,0.006379375
,,,-7.4E-07,0.006740625
,,,-7.3E-07,0.006153125
,,,-7.2E-07,0.0061225
,,,-7.1E-07,0.006268125
,,,-7E-07,0.00630875
,,,-6.9E-07,0.006209375
,,,-6.8E-07,0.006683125
,,,-6.7E-07,0.006513125
,,,-6.6E-07,0.0065175
,,,-6.5E-07,0.00664
,,,-6.4E-07,0.0064475
,,,-6.3E-07,0.006023125
,,,-6.2E-07,0.00637875
,,,-6.1E-07,0.0064825
,,,-6E-07,0.00637375
,,,-5.9E-07,0.00631
,,,-5.8E-07,0.00651875
,,,-5.7E-07,0.006550625
,,,-5.6E-07,0.00653375
,,,-5.5E-07,0.006401875
,,,-5.4E-07,0.006331875
,,,-5.3E-07,0.00646125
,,,-5.2E-07,0.0065825
,,,-5.1E-07,0.0061075
,,,-5E-07,0.006528125
,,,-4.9E-07,0.006446875
,,,-4.8E-07,0.00653625
,,,-4.7E-07,0.00649375
,,,-4.6E-07,0.00647125
,,,-4.5E-07,0.006380625
,,,-4.4E-07,0.006390625
,,,-4.3E-07,0.006631875
,,,-4.2E-07,0.00652125
,,,-4.1E-07,0.0066025
,,,-4E-07,0.006175625
,,,-3.9E-07,0.0062125
,,,-3.8E-07,0.006579375
,,,-3.7E-07,0.00654875
,,,-3.6E-07,0.00635875
,,,-3.5E-07,0.0063525
,,,-3.4E-07,0.0065375
,,,-3.3E-07,0.0064975
,,,-3.2E-07,0.0063925
,,,-3.1E-07,0.006276875
,,,-3E-07,0.006543125
,,,-2.9E-07,0.006281875
,,,-2.8E-07,0.006311875
,,,-2.7E-07,0.00620625
,,,-2.6E-07,0.006664375
,,,-2.5E-07,0.00653
,,,-2.4E-07,0.006610625
,,,-2.3E-07,0.0062375
,,,-2.2E-07,0.00655375
,,,-2.1E-07,0.006409375
,,,-2E-07,0.006556875
,,,-1.9E-07,0.006689375
,,,-1.8E-07,0.00660125
,,,-1.7E-07,0.00643125
,,,-1.6E-07,0.006578125
,,,-1.5E-07,0.0063325
,,,-1.4E-07,0.006295625
,,,-1.3E-07,0.00649625
,,,-1.2E-07,0.006621875
,,,-1.1E-07,0.006306875
,,,-1E-07,0.006279375
,,,-9E-08,0.006574375
,,,-8E-08,0.006489375
,,,-7E-08,0.00623
,,,-6E-08,0.00630125
,,,-5E-08,0.00674
,,,-4E-08,0.006721875
,,,-3E-08,0.007769375
,,,-2E-08,0.005291875
,,,-1E-08,0.004658125
,,,0,0.003508125
,,,1E-08,0.008220625
,,,2E-08,0.008569375
,,,3E-08,0.009415
,,,4E-08,0.006344375
,,,5E-08,0.005081875
,,,6E-08,0.003973125
,,,7E-08,0.005319375
,,,8E-08,0.006484375
,,,9E-08,0.00781375
,,,1E-07,0.00806125
,,,1.1E-07,0.007173125
,,,1.2E-07,0.0058
,,,1.3E-07,0.005374375
,,,1.4E-07,0.0059075
,,,1.5E-07,0.00652125
,,,1.6E-07,0.00689375
,,,1.7E-07,0.0068225
,,,1.8E-07,0.006434375
,,,1.9E-07,0.0069025
,,,2E-07,0.006385
,,,2.1E-07,0.00641625
,,,2.2E-07,0.0059425
,,,2.3E-07,0.006244375
,,,2.4E-07,0.006481875
,,,2.5E-07,0.006295
,,,2.6E-07,0.006674375
,,,2.7E-07,0.006368125
,,,2.8E-07,0.006596875
,,,2.9E-07,0.006358125
,,,3E-07,0.006235
,,,3.1E-07,0.006259375
,,,3.2E-07,0.006431875
,,,3.3E-07,0.00639375
,,,3.4E-07,0.00635625
,,,3.5E-07,0.0065675
,,,3.6E-07,0.00641625
,,,3.7E-07,0.00638125
,,,3.8E-07,0.006335625
,,,3.9E-07,0.0065175
,,,4E-07,0.006639375
,,,4.1E-07,0.006440625
,,,4.2E-07,0.006579375
,,,4.3E-07,0.00653875
,,,4.4E-07,0.006589375
,,,4.5E-07,0.006523125
,,,4.6E-07,0.006303125
,,,4.7E-07,0.00642125
,,,4.8E-07,0.006535625
,,,4.9E-07,0.006405
,,,5E-07,0.006519375
,,,5.1E-07,0.006405625
,,,5.2E-07,0.00651875
,,,5.3E-07,0.00628125
,,,5.4E-07,0.00638375
,,,5.5E-07,0.006249375
,,,5.6E-07,0.006530625
,,,5.7E-07,0.006375
,,,5.8E-07,0.00646125
,,,5.9E-07,0.006435625
,,,6E-07,0.0064675
,,,6.1E-07,0.00606625
,,,6.2E-07,0.006543125
,,,6.3E-07,0.0065275
,,,6.4E-07,0.006473125
,,,6.5E-07,0.006671875
,,,6.6E-07,0.0062625
,,,6.7E-07,0.00645375
,,,6.8E-07,0.00658625
,,,6.9E-07,0.006398125
,,,7E-07,0.006513125
,,,7.1E-07,0.006798125
,,,7.2E-07,0.00674375
,,,7.3E-07,0.00627625
,,,7.4E-07,0.006925
,,,7.5E-07,0.00671
,,,7.6E-07,0.00623
,,,7.7E-07,0.00657875
,,,7.8E-07,0.006335625
,,,7.9E-07,0.006136875
,,,8E-07,0.006326875
,,,8.1E-07,0.006566875
,,,8.2E-07,0.00623
,,,8.3E-07,0.006374375
,,,8.4E-07,0.00634125
,,,8.5E-07,0.0064025
,,,8.6E-07,0.00639375
,,,8.7E-07,0.006390625
,,,8.8E-07,0.006118125
,,,8.9E-07,0.00650375
,,,9E-07,0.00634
,,,9.1E-07,0.0065325
,,,9.2E-07,0.006245625
,,,9.3E-07,0.006485625
,,,9.4E-07,0.00632625
,,,9.5E-07,0.006378125
,,,9.6E-07,0.006570625
,,,9.7E-07,0.006441875
,,,9.8E-07,0.006369375
,,,9.9E-07,0.006348125
,,,1E-06,0.0064275
,,,1.01E-06,0.006540625
,,,1.02E-06,0.0064825
,,,1.03E-06,0.00646875
,,,1.04E-06,0.006525
,,,1.05E-06,0.006634375
,,,1.06E-06,0.00659375
,,,1.07E-06,0.0064175
,,,1.08E-06,0.006689375
,,,1.09E-06,0.006374375
,,,1.1E-06,0.0063775
,,,1.11E-06,0.006080625
,,,1.12E-06,0.0063425
,,,1.13E-06,0.0066475
,,,1.14E-06,0.006419375
,,,1.15E-06,0.0065525
,,,1.16E-06,0.006545625
,,,1.17E-06,0.006505
,,,1.18E-06,0.0064275
,,,1.19E-06,0.006548125
,,,1.2E-06,0.00665
,,,1.21E-06,0.00631375
,,,1.22E-06,0.006479375
,,,1.23E-06,0.00654625
,,,1.24E-06,0.006715
,,,1.25E-06,0.006348125
,,,1.26E-06,0.006409375
,,,1.27E-06,0.006174375
,,,1.28E-06,0.006475
,,,1.29E-06,0.006544375
,,,1.3E-06,0.006358125
,,,1.31E-06,0.006605625
,,,1.32E-06,0.006591875
,,,1.33E-06,0.00630875
,,,1.34E-06,0.006539375
,,,1.35E-06,0.006636875
,,,1.36E-06,0.0066975
,,,1.37E-06,0.0065375
,,,1.38E-06,0.006361875
,,,1.39E-06,0.006405625
,,,1.4E-06,0.006440625
,,,1.41E-06,0.006655
,,,1.42E-06,0.00641
,,,1.43E-06,0.006376875
,,,1.44E-06,0.00639125
,,,1.45E-06,0.006196875
,,,1.46E-06,0.00673
,,,1.47E-06,0.006409375
,,,1.48E-06,0.00684375
,,,1.49E-06,0.006550625
,,,1.5E-06,0.00637625
,,,1.51E-06,0.006459375
,,,1.52E-06,0.006415
,,,1.53E-06,0.00648375
,,,1.54E-06,0.00637375
,,,1.55E-06,0.006750625
,,,1.56E-06,0.006659375
,,,1.57E-06,0.0065975
,,,1.58E-06,0.00644
,,,1.59E-06,0.006569375
,,,1.6E-06,0.006400625
,,,1.61E-06,0.006555
,,,1.62E-06,0.006409375
,,,1.63E-06,0.006540625
,,,1.64E-06,0.0063775
,,,1.65E-06,0.00642125
,,,1.66E-06,0.00666125
,,,1.67E-06,0.006358125
,,,1.68E-06,0.006370625
,,,1.69E-06,0.0064525
,,,1.7E-06,0.00653125
,,,1.71E-06,0.00628625
,,,1.72E-06,0.006445625
,,,1.73E-06,0.0065725
,,,1.74E-06,0.006429375
,,,1.75E-06,0.006305625
,,,1.76E-06,0.00642125
,,,1.77E-06,0.00647125
,,,1.78E-06,0.006326875
,,,1.79E-06,0.006578125
,,,1.8E-06,0.00637
,,,1.81E-06,0.0063525
,,,1.82E-06,0.00647875
,,,1.83E-06,0.00647375
,,,1.84E-06,0.00649625
,,,1.85E-06,0.00635375
,,,1.86E-06,0.006326875
,,,1.87E-06,0.006378125
,,,1.88E-06,0.006506875
,,,1.89E-06,0.00693625
,,,1.9E-06,0.0063
,,,1.91E-06,0.006511875
,,,1.92E-06,0.0067125
,,,1.93E-06,0.006500625
,,,1.94E-06,0.00641625
,,,1.95E-06,0.006490625
,,,1.96E-06,0.006251875
,,,1.97E-06,0.0064775
,,,1.98E-06,0.00663625
,,,1.99E-06,0.006518125
,,,2E-06,0.006475625
,,,2.01E-06,0.0067075
,,,2.02E-06,0.00663
,,,2.03E-06,0.006475
,,,2.04E-06,0.006470625
,,,2.05E-06,0.006613125
,,,2.06E-06,0.006506875
,,,2.07E-06,0.006584375
,,,2.08E-06,0.0064275
,,,2.09E-06,0.00622
,,,2.1E-06,0.00660125
,,,2.11E-06,0.006266875
,,,2.12E-06,0.006563125
,,,2.13E-06,0.00672125
,,,2.14E-06,0.00659875
,,,2.15E-06,0.00674625
,,,2.16E-06,0.00650625
,,,2.17E-06,0.006221875
,,,2.18E-06,0.006544375
,,,2.19E-06,0.00621125
,,,2.2E-06,0.006328125
,,,2.21E-06,0.006603125
,,,2.22E-06,0.006468125
,,,2.23E-06,0.006516875
,,,2.24E-06,0.006320625
,,,2.25E-06,0.00642875
,,,2.26E-06,0.006494375
,,,2.27E-06,0.00641125
,,,2.28E-06,0.0064075
,,,2.29E-06,0.0063825
,,,2.3E-06,0.006585
,,,2.31E-06,0.0066325
,,,2.32E-06,0.00648125
,,,2.33E-06,0.00629625
,,,2.34E-06,0.00626375
,,,2.35E-06,0.006375625
,,,2.36E-06,0.006754375
,,,2.37E-06,0.00647875
,,,2.38E-06,0.00655625
,,,2.39E-06,0.006516875
,,,2.4E-06,0.00640375
,,,2.41E-06,0.006421875
,,,2.42E-06,0.00644625
,,,2.43E-06,0.006250625
,,,2.44E-06,0.006490625
,,,2.45E-06,0.006830625
,,,2.46E-06,0.006275
,,,2.47E-06,0.0067075
,,,2.48E-06,0.00655125
,,,2.49E-06,0.0064775
,,,2.5E-06,0.00649375
,,,2.51E-06,0.00653
,,,2.52E-06,0.006275
,,,2.53E-06,0.0063275
,,,2.54E-06,0.006635
,,,2.55E-06,0.006435
,,,2.56E-06,0.00653125
,,,2.57E-06,0.006516875
,,,2.58E-06,0.00653625
,,,2.59E-06,0.006590625
,,,2.6E-06,0.0065325
,,,2.61E-06,0.006578125
,,,2.62E-06,0.006496875
,,,2.63E-06,0.006321875
,,,2.64E-06,0.006648125
,,,2.65E-06,0.006621875
,,,2.66E-06,0.006539375
,,,2.67E-06,0.006055625
,,,2.68E-06,0.006385625
,,,2.69E-06,0.006385625
,,,2.7E-06,0.006449375
,,,2.71E-06,0.0063625
,,,2.72E-06,0.006415625
,,,2.73E-06,0.006525
,,,2.74E-06,0.00648625
,,,2.75E-06,0.006381875
,,,2.76E-06,0.00621875
,,,2.77E-06,0.00642875
,,,2.78E-06,0.00630125
,,,2.79E-06,0.0066725
,,,2.8E-06,0.006325
,,,2.81E-06,0.006605
,,,2.82E-06,0.00658
,,,2.83E-06,0.0066575
,,,2.84E-06,0.00635
,,,2.85E-06,0.006195
,,,2.86E-06,0.006434375
,,,2.87E-06,0.006363125
,,,2.88E-06,0.00637875
,,,2.89E-06,0.006446875
,,,2.9E-06,0.006331875
,,,2.91E-06,0.00640875
,,,2.92E-06,0.006450625
,,,2.93E-06,0.00647
,,,2.94E-06,0.006338125
,,,2.95E-06,0.00632625
,,,2.96E-06,0.0065625
,,,2.97E-06,0.006591875
,,,2.98E-06,0.006503125
,,,2.99E-06,0.006333125
,,,3E-06,0.00649875
,,,3.01E-06,0.006484375
,,,3.02E-06,0.006231875
,,,3.03E-06,0.006165
,,,3.04E-06,0.006376875
,,,3.05E-06,0.0065025
,,,3.06E-06,0.0063275
,,,3.07E-06,0.0065325
,,,3.08E-06,0.00641375
,,,3.09E-06,0.006418125
,,,3.1E-06,0.006448125
,,,3.11E-06,0.00641
,,,3.12E-06,0.006585625
,,,3.13E-06,0.006388125
,,,3.14E-06,0.006661875
,,,3.15E-06,0.006735
,,,3.16E-06,0.006435625
,,,3.17E-06,0.00625125
,,,3.18E-06,0.006253125
,,,3.19E-06,0.00638
,,,3.2E-06,0.0064775
,,,3.21E-06,0.006561875
,,,3.22E-06,0.006571875
,,,3.23E-06,0.0065425
,,,3.24E-06,0.00632375
,,,3.25E-06,0.00626
,,,3.26E-06,0.006581875
,,,3.27E-06,0.006398125
,,,3.28E-06,0.006625625
,,,3.29E-06,0.00646
,,,3.3E-06,0.006716875
,,,3.31E-06,0.006445625
,,,3.32E-06,0.006566875
,,,3.33E-06,0.0065925
,,,3.34E-06,0.006305625
,,,3.35E-06,0.006313125
,,,3.36E-06,0.00645375
,,,3.37E-06,0.006750625
,,,3.38E-06,0.006535625
,,,3.39E-06,0.0063775
,,,3.4E-06,0.006218125
,,,3.41E-06,0.006351875
,,,3.42E-06,0.006355
,,,3.43E-06,0.006455625
,,,3.44E-06,0.006654375
,,,3.45E-06,0.00653875
,,,3.46E-06,0.00658
,,,3.47E-06,0.0068075
,,,3.48E-06,0.006536875
,,,3.49E-06,0.006443125
,,,3.5E-06,0.00653375
,,,3.51E-06,0.00615125
,,,3.52E-06,0.006525
,,,3.53E-06,0.0065
,,,3.54E-06,0.006391875
,,,3.55E-06,0.00672625
,,,3.56E-06,0.00649375
,,,3.57E-06,0.006321875
