data/raw/Final_POL_Test_1/SOP061_Ch3.csv

"Record Length",1000,"Points",-5E-06,0.021339376
"Sample Interval",1E-08,s,-4.99E-06,0.021453751
"Trigger Point",500,"Samples",-4.98E-06,0.021445626
"Trigger Time",0,s,-4.97E-06,0.021528126
"",,,-4.96E-06,0.021498751
"Horizontal Offset",-5E-06,s,-4.95E-06,0.021449376
,,,-4.94E-06,0.021410001
,,,-4.93E-06,0.021766251
,,,-4.92E-06,0.021261876
,,,-4.91E-06,0.021540001
,,,-4.9E-06,0.021563751
,,,-4.89E-06,0.021408751
,,,-4.88E-06,0.021558751
,,,-4.87E-06,0.021582501
,,,-4.86E-06,0.021363126
,,,-4.85E-06,0.021657501
,,,-4.84E-06,0.021600626
,,,-4.83E-06,0.021458751
,,,-4.82E-06,0.021530626
,,,-4.81E-06,0.021676251
,,,-4.8E-06,0.021589376
,,,-4.79E-06,0.021493126
,,,-4.78E-06,0.021571876
,,,-4.77E-06,0.021294376
,,,-4.76E-06,0.021515001
,,,-4.75E-06,0.021393126
,,,-4.74E-06,0.021472501
,,,-4.73E-06,0.021741251
,,,-4.72E-06,0.021745626
,,,-4.71E-06,0.021476251
,,,-4.7E-06,0.021418751
,,,-4.69E-06,0.021372501
,,,-4.68E-06,0.021383126
,,,-4.67E-06,0.021384376
,,,-4.66E-06,0.021596251
,,,-4.65E-06,0.021705626
,,,-4.64E-06,0.021456876
,,,-4.63E-06,0.021520001
,,,-4.62E-06,0.021585626
,,,-4.61E-06,0.021257501
,,,-4.6E-06,0.021527501
,,,-4.59E-06,0.021465626
,,,-4.58E-06,0.021336251
,,,-4.57E-06,0.021413126
,,,-4.56E-06,0.021473751
,,,-4.55E-06,0.021742501
,,,-4.54E-06,0.021432501
,,,-4.53E-06,0.021530626
,,,-4.52E-06,0.021381251
,,,-4.51E-06,0.021360001
,,,-4.5E-06,0.021489376
,,,-4.49E-06,0.021227501
,,,-4.48E-06,0.021602501
,,,-4.47E-06,0.021233126
,,,-4.46E-06,0.021312501
,,,-4.45E-06,0.021436876
,,,-4.44E-06,0.021698751
,,,-4.43E-06,0.021297501
,,,-4.42E-06,0.021349376
,,,-4.41E-06,0.021713751
,,,-4.4E-06,0.021330001
,,,-4.39E-06,0.021425626
,,,-4.38E-06,0.021207501
,,,-4.37E-06,0.021625001
,,,-4.36E-06,0.021522501
,,,-4.35E-06,0.021345001
,,,-4.34E-06,0.021331876
,,,-4.33E-06,0.021635001
,,,-4.32E-06,0.021457501
,,,-4.31E-06,0.021411251
,,,-4.3E-06,0.021458126
,,,-4.29E-06,0.021449376
,,,-4.28E-06,0.021403751
,,,-4.27E-06,0.021476876
,,,-4.26E-06,0.021508751
,,,-4.25E-06,0.021516876
,,,-4.24E-06,0.021460626
,,,-4.23E-06,0.021781251
,,,-4.22E-06,0.021580626
,,,-4.21E-06,0.021246251
,,,-4.2E-06,0.021456251
,,,-4.19E-06,0.021548751
,,,-4.18E-06,0.021233126
,,,-4.17E-06,0.021394376
,,,-4.16E-06,0.021543751
,,,-4.15E-06,0.021765001
,,,-4.14E-06,0.021541876
,,,-4.13E-06,0.021451876
,,,-4.12E-06,0.021426251
,,,-4.11E-06,0.021468126
,,,-4.1E-06,0.021369376
,,,-4.09E-06,0.021601251
,,,-4.08E-06,0.021382501
,,,-4.07E-06,0.021652501
,,,-4.06E-06,0.021465626
,,,-4.05E-06,0.021566251
,,,-4.04E-06,0.021648126
,,,-4.03E-06,0.021453751
,,,-4.02E-06,0.021307501
,,,-4.01E-06,0.021470626
,,,-4E-06,0.021532501
,,,-3.99E-06,0.021498126
,,,-3.98E-06,0.021394376
,,,-3.97E-06,0.021561251
,,,-3.96E-06,0.021641876
,,,-3.95E-06,0.021514376
,,,-3.94E-06,0.021271251
,,,-3.93E-06,0.021444376
,,,-3.92E-06,0.021420001
,,,-3.91E-06,0.021452501
,,,-3.9E-06,0.021243751
,,,-3.89E-06,0.021306251
,,,-3.88E-06,0.021597501
,,,-3.87E-06,0.021329376
,,,-3.86E-06,0.021548126
,,,-3.85E-06,0.021421251
,,,-3.84E-06,0.021516251
,,,-3.83E-06,0.021694376
,,,-3.82E-06,0.021516251
,,,-3.81E-06,0.021295001
,,,-3.8E-06,0.021495626
,,,-3.79E-06,0.021267501
,,,-3.78E-06,0.021561876
,,,-3.77E-06,0.021516876
,,,-3.76E-06,0.021195001
,,,-3.75E-06,0.021468751
,,,-3.74E-06,0.021665626
,,,-3.73E-06,0.021586251
,,,-3.72E-06,0.021601251
,,,-3.71E-06,0.021196251
,,,-3.7E-06,0.021307501
,,,-3.69E-06,0.021285001
,,,-3.68E-06,0.021353126
,,,-3.67E-06,0.021665001
,,,-3.66E-06,0.021448126
,,,-3.65E-06,0.021260001
,,,-3.64E-06,0.021334376
,,,-3.63E-06,0.021471876
,,,-3.62E-06,0.021416251
,,,-3.61E-06,0.021602501
,,,-3.6E-06,0.021297501
,,,-3.59E-06,0.021395001
,,,-3.58E-06,0.021511251
,,,-3.57E-06,0.021704376
,,,-3.56E-06,0.021321251
,,,-3.55E-06,0.021675626
,,,-3.54E-06,0.021065626
,,,-3.53E-06,0.021589376
,,,-3.52E-06,0.021502501
,,,-3.51E-06,0.021339376
,,,-3.5E-06,0.021548751
,,,-3.49E-06,0.021618126
,,,-3.48E-06,0.021460626
,,,-3.47E-06,0.021394376
,,,-3.46E-06,0.021493126
,,,-3.45E-06,0.021280001
,,,-3.44E-06,0.021193751
,,,-3.43E-06,0.021573126
,,,-3.42E-06,0.021423751
,,,-3.41E-06,0.021392501
,,,-3.4E-06,0.021478126
,,,-3.39E-06,0.021546876
,,,-3.38E-06,0.021285626
,,,-3.37E-06,0.021395001
,,,-3.36E-06,0.021406251
,,,-3.35E-06,0.021320626
,,,-3.34E-06,0.021406251
,,,-3.33E-06,0.021585001
,,,-3.32E-06,0.021492501
,,,-3.31E-06,0.021406251
,,,-3.3E-06,0.021317501
,,,-3.29E-06,0.021355001
,,,-3.28E-06,0.021377501
,,,-3.27E-06,0.021546876
,,,-3.26E-06,0.021708751
,,,-3.25E-06,0.021431251
,,,-3.24E-06,0.021580626
,,,-3.23E-06,0.021490626
,,,-3.22E-06,0.021628126
,,,-3.21E-06,0.021428126
,,,-3.2E-06,0.021385001
,,,-3.19E-06,0.021487501
,,,-3.18E-06,0.021534376
,,,-3.17E-06,0.021203751
,,,-3.16E-06,0.021423751
,,,-3.15E-06,0.021470001
,,,-3.14E-06,0.021349376
,,,-3.13E-06,0.021528751
,,,-3.12E-06,0.021280626
,,,-3.11E-06,0.021560626
,,,-3.1E-06,0.021345001
,,,-3.09E-06,0.021563126
,,,-3.08E-06,0.021578126
,,,-3.07E-06,0.021354376
,,,-3.06E-06,0.021468751
,,,-3.05E-06,0.021510626
,,,-3.04E-06,0.021303751
,,,-3.03E-06,0.021635626
,,,-3.02E-06,0.021618751
,,,-3.01E-06,0.021524376
,,,-3E-06,0.021296876
,,,-2.99E-06,0.021436251
,,,-2.98E-06,0.021478751
,,,-2.97E-06,0.021563751
,,,-2.96E-06,0.021538126
,,,-2.95E-06,0.021505626
,,,-2.94E-06,0.021443126
,,,-2.93E-06,0.021492501
,,,-2.92E-06,0.021303751
,,,-2.91E-06,0.021792501
,,,-2.9E-06,0.021710626
,,,-2.89E-06,0.021782501
,,,-2.88E-06,0.021280626
,,,-2.87E-06,0.021379376
,,,-2.86E-06,0.021583751
,,,-2.85E-06,0.021411251
,,,-2.84E-06,0.021714376
,,,-2.83E-06,0.021805626
,,,-2.82E-06,0.021428751
,,,-2.81E-06,0.021177501
,,,-2.8E-06,0.021375001
,,,-2.79E-06,0.021417501
,,,-2.78E-06,0.021465001
,,,-2.77E-06,0.021211876
,,,-2.76E-06,0.021354376
,,,-2.75E-06,0.021421876
,,,-2.74E-06,0.021603751
,,,-2.73E-06,0.021370001
,,,-2.72E-06,0.021405001
,,,-2.71E-06,0.021530001
,,,-2.7E-06,0.021575626
,,,-2.69E-06,0.021530001
,,,-2.68E-06,0.021565001
,,,-2.67E-06,0.021466251
,,,-2.66E-06,0.021550001
,,,-2.65E-06,0.021329376
,,,-2.64E-06,0.021330626
,,,-2.63E-06,0.021533126
,,,-2.62E-06,0.021366876
,,,-2.61E-06,0.021345626
,,,-2.6E-06,0.021470626
,,,-2.59E-06,0.021331876
,,,-2.58E-06,0.021645626
,,,-2.57E-06,0.021344376
,,,-2.56E-06,0.021444376
,,,-2.55E-06,0.021336876
,,,-2.54E-06,0.021512501
,,,-2.53E-06,0.021167501
,,,-2.52E-06,0.021523126
,,,-2.51E-06,0.021599376
,,,-2.5E-06,0.021421876
,,,-2.49E-06,0.021361251
,,,-2.48E-06,0.021496876
,,,-2.47E-06,0.021443126
,,,-2.46E-06,0.021340626
,,,-2.45E-06,0.021381251
,,,-2.44E-06,0.021622501
,,,-2.43E-06,0.021440001
,,,-2.42E-06,0.021365001
,,,-2.41E-06,0.021702501
,,,-2.4E-06,0.021440001
,,,-2.39E-06,0.021446876
,,,-2.38E-06,0.021598126
,,,-2.37E-06,0.021645626
,,,-2.36E-06,0.021614376
,,,-2.35E-06,0.021530626
,,,-2.34E-06,0.021323751
,,,-2.33E-06,0.021568126
,,,-2.32E-06,0.021263751
,,,-2.31E-06,0.021301876
,,,-2.3E-06,0.021353126
,,,-2.29E-06,0.021531251
,,,-2.28E-06,0.021517501
,,,-2.27E-06,0.021203751
,,,-2.26E-06,0.021508126
,,,-2.25E-06,0.021587501
,,,-2.24E-06,0.021723751
,,,-2.23E-06,0.021288126
,,,-2.22E-06,0.021411876
,,,-2.21E-06,0.021563126
,,,-2.2E-06,0.021487501
,,,-2.19E-06,0.021582501
,,,-2.18E-06,0.021540626
,,,-2.17E-06,0.021318126
,,,-2.16E-06,0.021440626
,,,-2.15E-06,0.021350626
,,,-2.14E-06,0.021446251
,,,-2.13E-06,0.021146876
,,,-2.12E-06,0.021506251
,,,-2.11E-06,0.021325626
,,,-2.1E-06,0.021365001
,,,-2.09E-06,0.021428126
,,,-2.08E-06,0.021591876
,,,-2.07E-06,0.021403126
,,,-2.06E-06,0.021320001
,,,-2.05E-06,0.021503126
,,,-2.04E-06,0.021541876
,,,-2.03E-06,0.021263126
,,,-2.02E-06,0.021513126
,,,-2.01E-06,0.021414376
,,,-2E-06,0.021348126
,,,-1.99E-06,0.021280001
,,,-1.98E-06,0.021461876
,,,-1.97E-06,0.021413751
,,,-1.96E-06,0.021490626
,,,-1.95E-06,0.021260001
,,,-1.94E-06,0.021485626
,,,-1.93E-06,0.021521251
,,,-1.92E-06,0.021514376
,,,-1.91E-06,0.021736251
,,,-1.9E-06,0.021613126
,,,-1.89E-06,0.021605001
,,,-1.88E-06,0.021425001
,,,-1.87E-06,0.021521876
,,,-1.86E-06,0.021671876
,,,-1.85E-06,0.021490001
,,,-1.84E-06,0.021471876
,,,-1.83E-06,0.021577501
,,,-1.82E-06,0.021183751
,,,-1.81E-06,0.021642501
,,,-1.8E-06,0.021573126
,,,-1.79E-06,0.021479376
,,,-1.78E-06,0.021497501
,,,-1.77E-06,0.021735001
,,,-1.76E-06,0.021343751
,,,-1.75E-06,0.021678126
,,,-1.74E-06,0.021596876
,,,-1.73E-06,0.021693126
,,,-1.72E-06,0.021450626
,,,-1.71E-06,0.021546251
,,,-1.7E-06,0.021399376
,,,-1.69E-06,0.021257501
,,,-1.68E-06,0.021606876
,,,-1.67E-06,0.021534376
,,,-1.66E-06,0.021438751
,,,-1.65E-06,0.021379376
,,,-1.64E-06,0.021331876
,,,-1.63E-06,0.021358751
,,,-1.62E-06,0.021220001
,,,-1.61E-06,0.021427501
,,,-1.6E-06,0.021525626
,,,-1.59E-06,0.021383126
,,,-1.58E-06,0.021727501
,,,-1.57E-06,0.021396876
,,,-1.56E-06,0.021393751
,,,-1.55E-06,0.021340001
,,,-1.54E-06,0.021228751
,,,-1.53E-06,0.021294376
,,,-1.52E-06,0.021738751
,,,-1.51E-06,0.021579376
,,,-1.5E-06,0.021477501
,,,-1.49E-06,0.021567501
,,,-1.48E-06,0.021432501
,,,-1.47E-06,0.021589376
,,,-1.46E-06,0.021584376
,,,-1.45E-06,0.021550626
,,,-1.44E-06,0.021606876
,,,-1.43E-06,0.021505626
,,,-1.42E-06,0.021448751
,,,-1.41E-06,0.021518751
,,,-1.4E-06,0.021657501
,,,-1.39E-06,0.021693126
,,,-1.38E-06,0.021586876
,,,-1.37E-06,0.021603126
,,,-1.36E-06,0.021460626
,,,-1.35E-06,0.021662501
,,,-1.34E-06,0.021647501
,,,-1.33E-06,0.021489376
,,,-1.32E-06,0.021409376
,,,-1.31E-06,0.021091251
,,,-1.3E-06,0.021509376
,,,-1.29E-06,0.021481876
,,,-1.28E-06,0.021372501
,,,-1.27E-06,0.021623751
,,,-1.26E-06,0.021258751
,,,-1.25E-06,0.021433126
,,,-1.24E-06,0.021563126
,,,-1.23E-06,0.021185001
,,,-1.22E-06,0.021245001
,,,-1.21E-06,0.021281251
,,,-1.2E-06,0.021359376
,,,-1.19E-06,0.021415001
,,,-1.18E-06,0.021431251
,,,-1.17E-06,0.021503751
,,,-1.16E-06,0.021321251
,,,-1.15E-06,0.021594376
,,,-1.14E-06,0.021723751
,,,-1.13E-06,0.021638751
,,,-1.12E-06,0.021528126
,,,-1.11E-06,0.021381876
,,,-1.1E-06,0.021358751
,,,-1.09E-06,0.021470626
,,,-1.08E-06,0.021565001
,,,-1.07E-06,0.021297501
,,,-1.06E-06,0.021384376
,,,-1.05E-06,0.021555626
,,,-1.04E-06,0.021494376
,,,-1.03E-06,0.021470626
,,,-1.02E-06,0.021506251
,,,-1.01E-06,0.021498126
,,,-1E-06,0.021319376
,,,-9.9E-07,0.021504376
,,,-9.8E-07,0.021343751
,,,-9.7E-07,0.021376876
,,,-9.6E-07,0.021323126
,,,-9.5E-07,0.021351251
,,,-9.4E-07,0.021725626
,,,-9.3E-07,0.021630626
,,,-9.2E-07,0.021300001
,,,-9.1E-07,0.021425626
,,,-9E-07,0.021231251
,,,-8.9E-07,0.021648126
,,,-8.8E-07,0.021501876
,,,-8.7E-07,0.021530001
,,,-8.6E-07,0.021288751
,,,-8.5E-07,0.021544376
,,,-8.4E-07,0.021330626
,,,-8.3E-07,0.021380001
,,,-8.2E-07,0.021775626
,,,-8.1E-07,0.021463126
,,,-8E-07,0.021391251
,,,-7.9E-07,0.021016876
,,,-7.8E-07,0.021561876
,,,-7.7E-07,0.021524376
,,,-7.6E-07,0.021592501
,,,-7.5E-07,0.021440626
,,,-7.4E-07,0.021560626
,,,-7.3E-07,0.021520001
,,,-7.2E-07,0.021713126
,,,-7.1E-07,0.021542501
,,,-7E-07,0.021476251
,,,-6.9E-07,0.021396251
,,,-6.8E-07,0.021445001
,,,-6.7E-07,0.021483751
,,,-6.6E-07,0.021522501
,,,-6.5E-07,0.021504376
,,,-6.4E-07,0.021511876
,,,-6.3E-07,0.021625001
,,,-6.2E-07,0.021576876
,,,-6.1E-07,0.021514376
,,,-6E-07,0.021433751
,,,-5.9E-07,0.021457501
,,,-5.8E-07,0.021325626
,,,-5.7E-07,0.021522501
,,,-5.6E-07,0.021272501
,,,-5.5E-07,0.021614376
,,,-5.4E-07,0.021416251
,,,-5.3E-07,0.021440001
,,,-5.2E-07,0.021244376
,,,-5.1E-07,0.021495001
,,,-5E-07,0.021450001
,,,-4.9E-07,0.021437501
,,,-4.8E-07,0.021650001
,,,-4.7E-07,0.021434376
,,,-4.6E-07,0.021338126
,,,-4.5E-07,0.021313751
,,,-4.4E-07,0.021523126
,,,-4.3E-07,0.021462501
,,,-4.2E-07,0.021675001
,,,-4.1E-07,0.021377501
,,,-4E-07,0.021425626
,,,-3.9E-07,0.021366251
,,,-3.8E-07,0.021357501
,,,-3.7E-07,0.021506876
,,,-3.6E-07,0.021540001
,,,-3.5E-07,0.021355626
,,,-3.4E-07,0.021304376
,,,-3.3E-07,0.021350626
,,,-3.2E-07,0.021333751
,,,-3.1E-07,0.021686251
,,,-3E-07,0.021466876
,,,-2.9E-07,0.021576876
,,,-2.8E-07,0.021446251
,,,-2.7E-07,0.021341876
,,,-2.6E-07,0.021572501
,,,-2.5E-07,0.021475001
,,,-2.4E-07,0.021502501
,,,-2.3E-07,0.021259376
,,,-2.2E-07,0.021646876
,,,-2.1E-07,0.021424376
,,,-2E-07,0.021394376
,,,-1.9E-07,0.021658751
,,,-1.8E-07,0.021437501
,,,-1.7E-07,0.021373751
,,,-1.6E-07,0.021483751
,,,-1.5E-07,0.021436251
,,,-1.4E-07,0.021467501
,,,-1.3E-07,0.021288751
,,,-1.2E-07,0.021602501
,,,-1.1E-07,0.021394376
,,,-1E-07,0.021533126
,,,-9E-08,0.021605001
,,,-8E-08,0.021494376
,,,-7E-08,0.021435001
,,,-6E-08,0.021498126
,,,-5E-08,0.021532501
,,,-4E-08,0.022113126
,,,-3E-08,0.023582501
,,,-2E-08,0.020005001
,,,-1E-08,0.018213751
,,,0,0.017461876
,,,1E-08,0.023850001
,,,2E-08,0.026197501
,,,3E-08,0.025995626
,,,4E-08,0.021218126
,,,5E-08,0.018696876
,,,6E-08,0.017650001
,,,7E-08,0.019968126
,,,8E-08,0.021880001
,,,9E-08,0.023601251
,,,1E-07,0.024072501
,,,1.1E-07,0.022304376
,,,1.2E-07,0.020435626
,,,1.3E-07,0.019710001
,,,1.4E-07,0.020156876
,,,1.5E-07,0.021653751
,,,1.6E-07,0.022329376
,,,1.7E-07,0.021982501
,,,1.8E-07,0.021708751
,,,1.9E-07,0.021637501
,,,2E-07,0.021431251
,,,2.1E-07,0.021225626
,,,2.2E-07,0.020794376
,,,2.3E-07,0.021323751
,,,2.4E-07,0.021581876
,,,2.5E-07,0.021314376
,,,2.6E-07,0.021625626
,,,2.7E-07,0.021239376
,,,2.8E-07,0.021355001
,,,2.9E-07,0.021516251
,,,3E-07,0.021600001
,,,3.1E-07,0.021400001
,,,3.2E-07,0.021334376
,,,3.3E-07,0.021608126
,,,3.4E-07,0.021449376
,,,3.5E-07,0.021452501
,,,3.6E-07,0.021388751
,,,3.7E-07,0.021325626
,,,3.8E-07,0.021445626
,,,3.9E-07,0.021596876
,,,4E-07,0.021479376
,,,4.1E-07,0.021531251
,,,4.2E-07,0.021183751
,,,4.3E-07,0.021416251
,,,4.4E-07,0.021571876
,,,4.5E-07,0.021469376
,,,4.6E-07,0.021578126
,,,4.7E-07,0.021288751
,,,4.8E-07,0.021511876
,,,4.9E-07,0.021598751
,,,5E-07,0.021386876
,,,5.1E-07,0.021801876
,,,5.2E-07,0.021444376
,,,5.3E-07,0.021400001
,,,5.4E-07,0.021295626
,,,5.5E-07,0.021446251
,,,5.6E-07,0.021532501
,,,5.7E-07,0.021490001
,,,5.8E-07,0.021729376
,,,5.9E-07,0.021328751
,,,6E-07,0.021430001
,,,6.1E-07,0.021444376
,,,6.2E-07,0.021511876
,,,6.3E-07,0.021498126
,,,6.4E-07,0.021543126
,,,6.5E-07,0.021438751
,,,6.6E-07,0.021445001
,,,6.7E-07,0.021515001
,,,6.8E-07,0.021438126
,,,6.9E-07,0.021240626
,,,7E-07,0.021280001
,,,7.1E-07,0.021707501
,,,7.2E-07,0.021361876
,,,7.3E-07,0.021373126
,,,7.4E-07,0.021495626
,,,7.5E-07,0.021241876
,,,7.6E-07,0.021524376
,,,7.7E-07,0.021513126
,,,7.8E-07,0.021433126
,,,7.9E-07,0.021355626
,,,8E-07,0.021261876
,,,8.1E-07,0.021340001
,,,8.2E-07,0.021625001
,,,8.3E-07,0.021436251
,,,8.4E-07,0.021770001
,,,8.5E-07,0.021502501
,,,8.6E-07,0.021500626
,,,8.7E-07,0.021266876
,,,8.8E-07,0.021519376
,,,8.9E-07,0.021414376
,,,9E-07,0.021441876
,,,9.1E-07,0.021608126
,,,9.2E-07,0.021550001
,,,9.3E-07,0.021367501
,,,9.4E-07,0.021445001
,,,9.5E-07,0.021711251
,,,9.6E-07,0.021526876
,,,9.7E-07,0.021410626
,,,9.8E-07,0.021895001
,,,9.9E-07,0.021790001
,,,1E-06,0.021310626
,,,1.01E-06,0.021178126
,,,1.02E-06,0.021461876
,,,1.03E-06,0.021586251
,,,1.04E-06,0.021384376
,,,1.05E-06,0.021433126
,,,1.06E-06,0.021355001
,,,1.07E-06,0.021686876
,,,1.08E-06,0.021536876
,,,1.09E-06,0.021495626
,,,1.1E-06,0.021640626
,,,1.11E-06,0.021415626
,,,1.12E-06,0.021572501
,,,1.13E-06,0.021480001
,,,1.14E-06,0.021468126
,,,1.15E-06,0.021327501
,,,1.16E-06,0.021384376
,,,1.17E-06,0.021622501
,,,1.18E-06,0.021531251
,,,1.19E-06,0.021462501
,,,1.2E-06,0.021638126
,,,1.21E-06,0.021292501
,,,1.22E-06,0.021507501
,,,1.23E-06,0.021577501
,,,1.24E-06,0.021610001
,,,1.25E-06,0.021565626
,,,1.26E-06,0.021637501
,,,1.27E-06,0.021483751
,,,1.28E-06,0.021716876
,,,1.29E-06,0.021523751
,,,1.3E-06,0.021499376
,,,1.31E-06,0.021537501
,,,1.32E-06,0.021527501
,,,1.33E-06,0.021345626
,,,1.34E-06,0.021381251
,,,1.35E-06,0.021458751
,,,1.36E-06,0.021475626
,,,1.37E-06,0.021411251
,,,1.38E-06,0.021435626
,,,1.39E-06,0.021481876
,,,1.4E-06,0.021510001
,,,1.41E-06,0.021603126
,,,1.42E-06,0.021383751
,,,1.43E-06,0.021523751
,,,1.44E-06,0.021566876
,,,1.45E-06,0.021609376
,,,1.46E-06,0.021590626
,,,1.47E-06,0.021550626
,,,1.48E-06,0.021312501
,,,1.49E-06,0.021633126
,,,1.5E-06,0.021685626
,,,1.51E-06,0.021596251
,,,1.52E-06,0.021298751
,,,1.53E-06,0.021180626
,,,1.54E-06,0.021408126
,,,1.55E-06,0.021391876
,,,1.56E-06,0.021319376
,,,1.57E-06,0.021729376
,,,1.58E-06,0.021525626
,,,1.59E-06,0.021439376
,,,1.6E-06,0.021506876
,,,1.61E-06,0.021478751
,,,1.62E-06,0.021691251
,,,1.63E-06,0.021483126
,,,1.64E-06,0.021656251
,,,1.65E-06,0.021501251
,,,1.66E-06,0.021691251
,,,1.67E-06,0.021455001
,,,1.68E-06,0.021358751
,,,1.69E-06,0.021231251
,,,1.7E-06,0.021401251
,,,1.71E-06,0.021256251
,,,1.72E-06,0.021653126
,,,1.73E-06,0.021435001
,,,1.74E-06,0.021537501
,,,1.75E-06,0.021866251
,,,1.76E-06,0.021665001
,,,1.77E-06,0.021693751
,,,1.78E-06,0.021548751
,,,1.79E-06,0.021577501
,,,1.8E-06,0.021429376
,,,1.81E-06,0.021586876
,,,1.82E-06,0.021338126
,,,1.83E-06,0.021518751
,,,1.84E-06,0.021501876
,,,1.85E-06,0.021540001
,,,1.86E-06,0.021294376
,,,1.87E-06,0.021420001
,,,1.88E-06,0.021638751
,,,1.89E-06,0.021316251
,,,1.9E-06,0.021816876
,,,1.91E-06,0.021098751
,,,1.92E-06,0.021695626
,,,1.93E-06,0.021569376
,,,1.94E-06,0.021496251
,,,1.95E-06,0.021471876
,,,1.96E-06,0.021495001
,,,1.97E-06,0.021511876
,,,1.98E-06,0.021511876
,,,1.99E-06,0.021490626
,,,2E-06,0.021502501
,,,2.01E-06,0.021373751
,,,2.02E-06,0.021653126
,,,2.03E-06,0.021576251
,,,2.04E-06,0.021343751
,,,2.05E-06,0.021255001
,,,2.06E-06,0.021636876
,,,2.07E-06,0.021573751
,,,2.08E-06,0.021565626
,,,2.09E-06,0.021484376
,,,2.1E-06,0.021422501
,,,2.11E-06,0.021386876
,,,2.12E-06,0.021421251
,,,2.13E-06,0.021608751
,,,2.14E-06,0.021683126
,,,2.15E-06,0.021576876
,,,2.16E-06,0.021602501
,,,2.17E-06,0.021181876
,,,2.18E-06,0.021391876
,,,2.19E-06,0.021452501
,,,2.2E-06,0.021358126
,,,2.21E-06,0.021212501
,,,2.22E-06,0.021414376
,,,2.23E-06,0.021432501
,,,2.24E-06,0.021541251
,,,2.25E-06,0.021464376
,,,2.26E-06,0.021258126
,,,2.27E-06,0.021330001
,,,2.28E-06,0.021603751
,,,2.29E-06,0.021399376
,,,2.3E-06,0.021722501
,,,2.31E-06,0.021530626
,,,2.32E-06,0.021615001
,,,2.33E-06,0.021515626
,,,2.34E-06,0.021522501
,,,2.35E-06,0.021442501
,,,2.36E-06,0.021404376
,,,2.37E-06,0.021495626
,,,2.38E-06,0.021615626
,,,2.39E-06,0.021469376
,,,2.4E-06,0.021435626
,,,2.41E-06,0.021600001
,,,2.42E-06,0.021490626
,,,2.43E-06,0.021421251
,,,2.44E-06,0.021688751
,,,2.45E-06,0.021457501
,,,2.46E-06,0.021533751
,,,2.47E-06,0.021416876
,,,2.48E-06,0.021457501
,,,2.49E-06,0.021581876
,,,2.5E-06,0.021468751
,,,2.51E-06,0.021273751
,,,2.52E-06,0.021534376
,,,2.53E-06,0.021441876
,,,2.54E-06,0.021383126
,,,2.55E-06,0.021541251
,,,2.56E-06,0.021529376
,,,2.57E-06,0.021456251
,,,2.58E-06,0.021433751
,,,2.59E-06,0.021386251
,,,2.6E-06,0.021653751
,,,2.61E-06,0.021563126
,,,2.62E-06,0.021543126
,,,2.63E-06,0.021504376
,,,2.64E-06,0.021615626
,,,2.65E-06,0.021668126
,,,2.66E-06,0.021455001
,,,2.67E-06,0.021468126
,,,2.68E-06,0.021206876
,,,2.69E-06,0.021452501
,,,2.7E-06,0.021532501
,,,2.71E-06,0.021531251
,,,2.72E-06,0.021572501
,,,2.73E-06,0.021720001
,,,2.74E-06,0.021403126
,,,2.75E-06,0.021508751
,,,2.76E-06,0.021703751
,,,2.77E-06,0.021232501
,,,2.78E-06,0.021435001
,,,2.79E-06,0.021325626
,,,2.8E-06,0.021796251
,,,2.81E-06,0.021519376
,,,2.82E-06,0.021585001
,,,2.83E-06,0.021650626
,,,2.84E-06,0.021603751
,,,2.85E-06,0.021523126
,,,2.86E-06,0.021288126
,,,2.87E-06,0.021314376
,,,2.88E-06,0.021518751
,,,2.89E-06,0.021725001
,,,2.9E-06,0.021487501
,,,2.91E-06,0.021353126
,,,2.92E-06,0.021335001
,,,2.93E-06,0.021583126
,,,2.94E-06,0.021622501
,,,2.95E-06,0.021371251
,,,2.96E-06,0.021473751
,,,2.97E-06,0.021438751
,,,2.98E-06,0.021545626
,,,2.99E-06,0.021268751
,,,3E-06,0.021341876
,,,3.01E-06,0.021351876
,,,3.02E-06,0.021106251
,,,3.03E-06,0.021535626
,,,3.04E-06,0.021595626
,,,3.05E-06,0.021312501
,,,3.06E-06,0.021646876
,,,3.07E-06,0.021545001
,,,3.08E-06,0.021435001
,,,3.09E-06,0.021191876
,,,3.1E-06,0.021216251
,,,3.11E-06,0.021563126
,,,3.12E-06,0.021291876
,,,3.13E-06,0.021493751
,,,3.14E-06,0.021505001
,,,3.15E-06,0.021528126
,,,3.16E-06,0.021506251
,,,3.17E-06,0.021522501
,,,3.18E-06,0.021701251
,,,3.19E-06,0.021573126
,,,3.2E-06,0.021340626
,,,3.21E-06,0.021363126
