data/raw/Final_POL_Test_1/SOP085_Ch2.csv

"Record Length",1000,"Points",-5E-06,0.02292125
"Sample Interval",1E-08,s,-4.99E-06,0.02284625
"Trigger Point",500,"Samples",-4.98E-06,0.023134375
"Trigger Time",0,s,-4.97E-06,0.022826875
"",,,-4.96E-06,0.0231725
"Horizontal Offset",-5E-06,s,-4.95E-06,0.02267625
,,,-4.94E-06,0.02322625
,,,-4.93E-06,0.022891875
,,,-4.92E-06,0.02293
,,,-4.91E-06,0.0228175
,,,-4.9E-06,0.023045
,,,-4.89E-06,0.02295
,,,-4.88E-06,0.022890625
,,,-4.87E-06,0.022853125
,,,-4.86E-06,0.022855625
,,,-4.85E-06,0.0228
,,,-4.84E-06,0.023005
,,,-4.83E-06,0.022870625
,,,-4.82E-06,0.02271625
,,,-4.81E-06,0.023075
,,,-4.8E-06,0.02284375
,,,-4.79E-06,0.022729375
,,,-4.78E-06,0.023021875
,,,-4.77E-06,0.02292875
,,,-4.76E-06,0.02286
,,,-4.75E-06,0.023126875
,,,-4.74E-06,0.02272
,,,-4.73E-06,0.02315
,,,-4.72E-06,0.02283875
,,,-4.71E-06,0.022964375
,,,-4.7E-06,0.02291875
,,,-4.69E-06,0.022870625
,,,-4.68E-06,0.02288375
,,,-4.67E-06,0.0227575
,,,-4.66E-06,0.022975625
,,,-4.65E-06,0.02305625
,,,-4.64E-06,0.022835625
,,,-4.63E-06,0.02244875
,,,-4.62E-06,0.022956875
,,,-4.61E-06,0.02287625
,,,-4.6E-06,0.02271
,,,-4.59E-06,0.022733125
,,,-4.58E-06,0.02281125
,,,-4.57E-06,0.022925625
,,,-4.56E-06,0.02316
,,,-4.55E-06,0.02293875
,,,-4.54E-06,0.022610625
,,,-4.53E-06,0.02274875
,,,-4.52E-06,0.022866875
,,,-4.51E-06,0.022781875
,,,-4.5E-06,0.0227625
,,,-4.49E-06,0.022939375
,,,-4.48E-06,0.0231125
,,,-4.47E-06,0.02273
,,,-4.46E-06,0.022773125
,,,-4.45E-06,0.02284
,,,-4.44E-06,0.02275875
,,,-4.43E-06,0.023125625
,,,-4.42E-06,0.02279625
,,,-4.41E-06,0.022921875
,,,-4.4E-06,0.023028125
,,,-4.39E-06,0.023130625
,,,-4.38E-06,0.02285875
,,,-4.37E-06,0.023041875
,,,-4.36E-06,0.022984375
,,,-4.35E-06,0.02310375
,,,-4.34E-06,0.02273125
,,,-4.33E-06,0.022880625
,,,-4.32E-06,0.022781875
,,,-4.31E-06,0.02274875
,,,-4.3E-06,0.0228625
,,,-4.29E-06,0.023179375
,,,-4.28E-06,0.022878125
,,,-4.27E-06,0.022999375
,,,-4.26E-06,0.022738125
,,,-4.25E-06,0.02300375
,,,-4.24E-06,0.02296875
,,,-4.23E-06,0.02311
,,,-4.22E-06,0.023064375
,,,-4.21E-06,0.02285
,,,-4.2E-06,0.023066875
,,,-4.19E-06,0.022653125
,,,-4.18E-06,0.0225475
,,,-4.17E-06,0.02311
,,,-4.16E-06,0.023088125
,,,-4.15E-06,0.022925625
,,,-4.14E-06,0.0229
,,,-4.13E-06,0.022924375
,,,-4.12E-06,0.0229075
,,,-4.11E-06,0.022735625
,,,-4.1E-06,0.0227475
,,,-4.09E-06,0.022886875
,,,-4.08E-06,0.02286625
,,,-4.07E-06,0.02285375
,,,-4.06E-06,0.0229275
,,,-4.05E-06,0.022825
,,,-4.04E-06,0.023026875
,,,-4.03E-06,0.022899375
,,,-4.02E-06,0.022685625
,,,-4.01E-06,0.023016875
,,,-4E-06,0.022776875
,,,-3.99E-06,0.02288625
,,,-3.98E-06,0.02307625
,,,-3.97E-06,0.022751875
,,,-3.96E-06,0.022673125
,,,-3.95E-06,0.022906875
,,,-3.94E-06,0.02296
,,,-3.93E-06,0.022651875
,,,-3.92E-06,0.022861875
,,,-3.91E-06,0.02332875
,,,-3.9E-06,0.023030625
,,,-3.89E-06,0.023084375
,,,-3.88E-06,0.02295
,,,-3.87E-06,0.022844375
,,,-3.86E-06,0.0227775
,,,-3.85E-06,0.0227425
,,,-3.84E-06,0.022986875
,,,-3.83E-06,0.02293375
,,,-3.82E-06,0.022960625
,,,-3.81E-06,0.0229525
,,,-3.8E-06,0.02280875
,,,-3.79E-06,0.02304
,,,-3.78E-06,0.02287375
,,,-3.77E-06,0.02269375
,,,-3.76E-06,0.0227925
,,,-3.75E-06,0.02298125
,,,-3.74E-06,0.02306625
,,,-3.73E-06,0.022945
,,,-3.72E-06,0.022966875
,,,-3.71E-06,0.02306625
,,,-3.7E-06,0.022871875
,,,-3.69E-06,0.0229975
,,,-3.68E-06,0.022435625
,,,-3.67E-06,0.022695
,,,-3.66E-06,0.0230275
,,,-3.65E-06,0.023128125
,,,-3.64E-06,0.02282
,,,-3.63E-06,0.02283875
,,,-3.62E-06,0.023034375
,,,-3.61E-06,0.022856875
,,,-3.6E-06,0.02275
,,,-3.59E-06,0.022974375
,,,-3.58E-06,0.0228775
,,,-3.57E-06,0.022904375
,,,-3.56E-06,0.022951875
,,,-3.55E-06,0.022796875
,,,-3.54E-06,0.02280125
,,,-3.53E-06,0.023048125
,,,-3.52E-06,0.022854375
,,,-3.51E-06,0.022875
,,,-3.5E-06,0.023
,,,-3.49E-06,0.022603125
,,,-3.48E-06,0.02287375
,,,-3.47E-06,0.022763125
,,,-3.46E-06,0.0227675
,,,-3.45E-06,0.02288875
,,,-3.44E-06,0.02288375
,,,-3.43E-06,0.022865
,,,-3.42E-06,0.022955
,,,-3.41E-06,0.02286875
,,,-3.4E-06,0.02290375
,,,-3.39E-06,0.023073125
,,,-3.38E-06,0.022578125
,,,-3.37E-06,0.022773125
,,,-3.36E-06,0.022870625
,,,-3.35E-06,0.022945
,,,-3.34E-06,0.0227175
,,,-3.33E-06,0.022908125
,,,-3.32E-06,0.0229475
,,,-3.31E-06,0.022696875
,,,-3.3E-06,0.023034375
,,,-3.29E-06,0.02288125
,,,-3.28E-06,0.0225975
,,,-3.27E-06,0.022780625
,,,-3.26E-06,0.022925625
,,,-3.25E-06,0.023091875
,,,-3.24E-06,0.022890625
,,,-3.23E-06,0.02305625
,,,-3.22E-06,0.02279375
,,,-3.21E-06,0.022758125
,,,-3.2E-06,0.022850625
,,,-3.19E-06,0.023093125
,,,-3.18E-06,0.023053125
,,,-3.17E-06,0.022740625
,,,-3.16E-06,0.02305
,,,-3.15E-06,0.02261375
,,,-3.14E-06,0.022916875
,,,-3.13E-06,0.02312125
,,,-3.12E-06,0.02276
,,,-3.11E-06,0.022974375
,,,-3.1E-06,0.0228325
,,,-3.09E-06,0.022756875
,,,-3.08E-06,0.022748125
,,,-3.07E-06,0.022953125
,,,-3.06E-06,0.023205
,,,-3.05E-06,0.0230075
,,,-3.04E-06,0.0227775
,,,-3.03E-06,0.0228325
,,,-3.02E-06,0.023238125
,,,-3.01E-06,0.02295875
,,,-3E-06,0.023064375
,,,-2.99E-06,0.02307125
,,,-2.98E-06,0.02296
,,,-2.97E-06,0.0228125
,,,-2.96E-06,0.022885625
,,,-2.95E-06,0.022801875
,,,-2.94E-06,0.022765
,,,-2.93E-06,0.022685
,,,-2.92E-06,0.02309375
,,,-2.91E-06,0.02284375
,,,-2.9E-06,0.023134375
,,,-2.89E-06,0.022973125
,,,-2.88E-06,0.0227625
,,,-2.87E-06,0.0228475
,,,-2.86E-06,0.02280875
,,,-2.85E-06,0.023020625
,,,-2.84E-06,0.022855
,,,-2.83E-06,0.022943125
,,,-2.82E-06,0.022980625
,,,-2.81E-06,0.023015
,,,-2.8E-06,0.0229125
,,,-2.79E-06,0.022839375
,,,-2.78E-06,0.022855
,,,-2.77E-06,0.022959375
,,,-2.76E-06,0.022841875
,,,-2.75E-06,0.022896875
,,,-2.74E-06,0.022695
,,,-2.73E-06,0.022869375
,,,-2.72E-06,0.023058125
,,,-2.71E-06,0.022806875
,,,-2.7E-06,0.022875
,,,-2.69E-06,0.023061875
,,,-2.68E-06,0.02293
,,,-2.67E-06,0.022985
,,,-2.66E-06,0.022925
,,,-2.65E-06,0.022813125
,,,-2.64E-06,0.022939375
,,,-2.63E-06,0.02305375
,,,-2.62E-06,0.022431875
,,,-2.61E-06,0.0227325
,,,-2.6E-06,0.022790625
,,,-2.59E-06,0.022845
,,,-2.58E-06,0.02313875
,,,-2.57E-06,0.0228025
,,,-2.56E-06,0.022686875
,,,-2.55E-06,0.022791875
,,,-2.54E-06,0.022819375
,,,-2.53E-06,0.023019375
,,,-2.52E-06,0.022835
,,,-2.51E-06,0.0230325
,,,-2.5E-06,0.022796875
,,,-2.49E-06,0.022891875
,,,-2.48E-06,0.022775625
,,,-2.47E-06,0.022963125
,,,-2.46E-06,0.02286375
,,,-2.45E-06,0.023103125
,,,-2.44E-06,0.022856875
,,,-2.43E-06,0.02282875
,,,-2.42E-06,0.022905
,,,-2.41E-06,0.0228975
,,,-2.4E-06,0.02295375
,,,-2.39E-06,0.022895
,,,-2.38E-06,0.022588125
,,,-2.37E-06,0.0228575
,,,-2.36E-06,0.022903125
,,,-2.35E-06,0.022943125
,,,-2.34E-06,0.023075
,,,-2.33E-06,0.0228625
,,,-2.32E-06,0.02278125
,,,-2.31E-06,0.022951875
,,,-2.3E-06,0.022991875
,,,-2.29E-06,0.023236875
,,,-2.28E-06,0.0227225
,,,-2.27E-06,0.0227675
,,,-2.26E-06,0.022764375
,,,-2.25E-06,0.02285125
,,,-2.24E-06,0.023124375
,,,-2.23E-06,0.022829375
,,,-2.22E-06,0.022938125
,,,-2.21E-06,0.0228
,,,-2.2E-06,0.0229775
,,,-2.19E-06,0.022944375
,,,-2.18E-06,0.02317
,,,-2.17E-06,0.022985
,,,-2.16E-06,0.0227175
,,,-2.15E-06,0.022825
,,,-2.14E-06,0.02273625
,,,-2.13E-06,0.022670625
,,,-2.12E-06,0.022869375
,,,-2.11E-06,0.02303625
,,,-2.1E-06,0.022839375
,,,-2.09E-06,0.022873125
,,,-2.08E-06,0.0230075
,,,-2.07E-06,0.02292375
,,,-2.06E-06,0.022901875
,,,-2.05E-06,0.0227125
,,,-2.04E-06,0.022879375
,,,-2.03E-06,0.02313
,,,-2.02E-06,0.02282625
,,,-2.01E-06,0.023001875
,,,-2E-06,0.02284625
,,,-1.99E-06,0.023035625
,,,-1.98E-06,0.022973125
,,,-1.97E-06,0.022684375
,,,-1.96E-06,0.022913125
,,,-1.95E-06,0.0229175
,,,-1.94E-06,0.022768125
,,,-1.93E-06,0.022785
,,,-1.92E-06,0.023025625
,,,-1.91E-06,0.02304125
,,,-1.9E-06,0.02295125
,,,-1.89E-06,0.0224925
,,,-1.88E-06,0.02287
,,,-1.87E-06,0.023053125
,,,-1.86E-06,0.022926875
,,,-1.85E-06,0.022850625
,,,-1.84E-06,0.023008125
,,,-1.83E-06,0.022711875
,,,-1.82E-06,0.022860625
,,,-1.81E-06,0.02301125
,,,-1.8E-06,0.022775625
,,,-1.79E-06,0.0229025
,,,-1.78E-06,0.022945
,,,-1.77E-06,0.022703125
,,,-1.76E-06,0.022825
,,,-1.75E-06,0.022920625
,,,-1.74E-06,0.02294625
,,,-1.73E-06,0.02257375
,,,-1.72E-06,0.022726875
,,,-1.71E-06,0.022581875
,,,-1.7E-06,0.023023125
,,,-1.69E-06,0.02293625
,,,-1.68E-06,0.022968125
,,,-1.67E-06,0.022929375
,,,-1.66E-06,0.022810625
,,,-1.65E-06,0.022988125
,,,-1.64E-06,0.022825
,,,-1.63E-06,0.0231225
,,,-1.62E-06,0.022766875
,,,-1.61E-06,0.023049375
,,,-1.6E-06,0.023109375
,,,-1.59E-06,0.02291875
,,,-1.58E-06,0.02288
,,,-1.57E-06,0.02271
,,,-1.56E-06,0.022579375
,,,-1.55E-06,0.02268375
,,,-1.54E-06,0.02272625
,,,-1.53E-06,0.022619375
,,,-1.52E-06,0.022890625
,,,-1.51E-06,0.023018125
,,,-1.5E-06,0.023000625
,,,-1.49E-06,0.023171875
,,,-1.48E-06,0.0227475
,,,-1.47E-06,0.022739375
,,,-1.46E-06,0.023023125
,,,-1.45E-06,0.02293
,,,-1.44E-06,0.02277375
,,,-1.43E-06,0.02287875
,,,-1.42E-06,0.023050625
,,,-1.41E-06,0.02294
,,,-1.4E-06,0.02298375
,,,-1.39E-06,0.02280875
,,,-1.38E-06,0.022765625
,,,-1.37E-06,0.02299125
,,,-1.36E-06,0.02280625
,,,-1.35E-06,0.022955
,,,-1.34E-06,0.0228675
,,,-1.33E-06,0.02277125
,,,-1.32E-06,0.02290875
,,,-1.31E-06,0.023013125
,,,-1.3E-06,0.022953125
,,,-1.29E-06,0.022716875
,,,-1.28E-06,0.022954375
,,,-1.27E-06,0.022983125
,,,-1.26E-06,0.02303125
,,,-1.25E-06,0.022929375
,,,-1.24E-06,0.02298375
,,,-1.23E-06,0.022655625
,,,-1.22E-06,0.02292375
,,,-1.21E-06,0.022825625
,,,-1.2E-06,0.02309
,,,-1.19E-06,0.022921875
,,,-1.18E-06,0.023205
,,,-1.17E-06,0.022834375
,,,-1.16E-06,0.022821875
,,,-1.15E-06,0.022993125
,,,-1.14E-06,0.022815625
,,,-1.13E-06,0.022811875
,,,-1.12E-06,0.022619375
,,,-1.11E-06,0.02289625
,,,-1.1E-06,0.02299625
,,,-1.09E-06,0.022991875
,,,-1.08E-06,0.023110625
,,,-1.07E-06,0.022974375
,,,-1.06E-06,0.023231875
,,,-1.05E-06,0.022868125
,,,-1.04E-06,0.02280125
,,,-1.03E-06,0.023216875
,,,-1.02E-06,0.0229575
,,,-1.01E-06,0.0226525
,,,-1E-06,0.02312125
,,,-9.9E-07,0.022926875
,,,-9.8E-07,0.023055
,,,-9.7E-07,0.022981875
,,,-9.6E-07,0.022933125
,,,-9.5E-07,0.02283375
,,,-9.4E-07,0.02287125
,,,-9.3E-07,0.022854375
,,,-9.2E-07,0.0231325
,,,-9.1E-07,0.023181875
,,,-9E-07,0.02281625
,,,-8.9E-07,0.0228225
,,,-8.8E-07,0.022920625
,,,-8.7E-07,0.02295
,,,-8.6E-07,0.0229425
,,,-8.5E-07,0.022910625
,,,-8.4E-07,0.02286375
,,,-8.3E-07,0.022664375
,,,-8.2E-07,0.022830625
,,,-8.1E-07,0.022886875
,,,-8E-07,0.023135625
,,,-7.9E-07,0.023193125
,,,-7.8E-07,0.02293125
,,,-7.7E-07,0.0229125
,,,-7.6E-07,0.02286125
,,,-7.5E-07,0.022863125
,,,-7.4E-07,0.022926875
,,,-7.3E-07,0.022744375
,,,-7.2E-07,0.02268
,,,-7.1E-07,0.022763125
,,,-7E-07,0.02304625
,,,-6.9E-07,0.022891875
,,,-6.8E-07,0.023031875
,,,-6.7E-07,0.02303375
,,,-6.6E-07,0.022885
,,,-6.5E-07,0.02288125
,,,-6.4E-07,0.02293625
,,,-6.3E-07,0.02288
,,,-6.2E-07,0.02299375
,,,-6.1E-07,0.022759375
,,,-6E-07,0.022899375
,,,-5.9E-07,0.023233125
,,,-5.8E-07,0.02281875
,,,-5.7E-07,0.022903125
,,,-5.6E-07,0.02298375
,,,-5.5E-07,0.02304375
,,,-5.4E-07,0.0225075
,,,-5.3E-07,0.02305125
,,,-5.2E-07,0.022959375
,,,-5.1E-07,0.022851875
,,,-5E-07,0.023044375
,,,-4.9E-07,0.022725
,,,-4.8E-07,0.0229425
,,,-4.7E-07,0.02287
,,,-4.6E-07,0.022745625
,,,-4.5E-07,0.02256375
,,,-4.4E-07,0.02306375
,,,-4.3E-07,0.02293375
,,,-4.2E-07,0.02282875
,,,-4.1E-07,0.0227975
,,,-4E-07,0.022921875
,,,-3.9E-07,0.02277375
,,,-3.8E-07,0.02259125
,,,-3.7E-07,0.023043125
,,,-3.6E-07,0.023258125
,,,-3.5E-07,0.022761875
,,,-3.4E-07,0.022839375
,,,-3.3E-07,0.022913125
,,,-3.2E-07,0.022905
,,,-3.1E-07,0.02290875
,,,-3E-07,0.022898125
,,,-2.9E-07,0.022533125
,,,-2.8E-07,0.0229325
,,,-2.7E-07,0.022735
,,,-2.6E-07,0.0230425
,,,-2.5E-07,0.022971875
,,,-2.4E-07,0.02298875
,,,-2.3E-07,0.022751875
,,,-2.2E-07,0.022883125
,,,-2.1E-07,0.022623125
,,,-2E-07,0.02293
,,,-1.9E-07,0.02272625
,,,-1.8E-07,0.023059375
,,,-1.7E-07,0.02291125
,,,-1.6E-07,0.022974375
,,,-1.5E-07,0.02288
,,,-1.4E-07,0.02279875
,,,-1.3E-07,0.02286
,,,-1.2E-07,0.022876875
,,,-1.1E-07,0.022695625
,,,-1E-07,0.02300625
,,,-9E-08,0.023091875
,,,-8E-08,0.0228575
,,,-7E-08,0.0229525
,,,-6E-08,0.022878125
,,,-5E-08,0.02294
,,,-4E-08,0.02324875
,,,-3E-08,0.02394625
,,,-2E-08,0.0220925
,,,-1E-08,0.0208
,,,0,0.019935625
,,,1E-08,0.02529375
,,,2E-08,0.0254775
,,,3E-08,0.026046875
,,,4E-08,0.0221675
,,,5E-08,0.021103125
,,,6E-08,0.0202425
,,,7E-08,0.0221075
,,,8E-08,0.02314875
,,,9E-08,0.02443125
,,,1E-07,0.024504375
,,,1.1E-07,0.023255625
,,,1.2E-07,0.02213375
,,,1.3E-07,0.02122625
,,,1.4E-07,0.0222875
,,,1.5E-07,0.0227225
,,,1.6E-07,0.02353125
,,,1.7E-07,0.02300625
,,,1.8E-07,0.023310625
,,,1.9E-07,0.022841875
,,,2E-07,0.0226475
,,,2.1E-07,0.02251625
,,,2.2E-07,0.0225575
,,,2.3E-07,0.022885
,,,2.4E-07,0.023035
,,,2.5E-07,0.023128125
,,,2.6E-07,0.022880625
,,,2.7E-07,0.02299875
,,,2.8E-07,0.022679375
,,,2.9E-07,0.022955
,,,3E-07,0.02283625
,,,3.1E-07,0.02307
,,,3.2E-07,0.02278
,,,3.3E-07,0.023075
,,,3.4E-07,0.022960625
,,,3.5E-07,0.022866875
,,,3.6E-07,0.02286875
,,,3.7E-07,0.022849375
,,,3.8E-07,0.02281875
,,,3.9E-07,0.0227225
,,,4E-07,0.022998125
,,,4.1E-07,0.02274
,,,4.2E-07,0.02300375
,,,4.3E-07,0.022863125
,,,4.4E-07,0.022856875
,,,4.5E-07,0.02292
,,,4.6E-07,0.02266375
,,,4.7E-07,0.022915625
,,,4.8E-07,0.022855
,,,4.9E-07,0.022784375
,,,5E-07,0.022825
,,,5.1E-07,0.022921875
,,,5.2E-07,0.023059375
,,,5.3E-07,0.022813125
,,,5.4E-07,0.023064375
,,,5.5E-07,0.022824375
,,,5.6E-07,0.022925
,,,5.7E-07,0.022925625
,,,5.8E-07,0.02296625
,,,5.9E-07,0.02295625
,,,6E-07,0.02272125
,,,6.1E-07,0.02287375
,,,6.2E-07,0.023014375
,,,6.3E-07,0.022921875
,,,6.4E-07,0.022856875
,,,6.5E-07,0.022975625
,,,6.6E-07,0.022951875
,,,6.7E-07,0.0227525
,,,6.8E-07,0.022786875
,,,6.9E-07,0.02294625
,,,7E-07,0.023069375
,,,7.1E-07,0.02287125
,,,7.2E-07,0.02293875
,,,7.3E-07,0.022816875
,,,7.4E-07,0.02289125
,,,7.5E-07,0.022971875
,,,7.6E-07,0.02299875
,,,7.7E-07,0.022995
,,,7.8E-07,0.022788125
,,,7.9E-07,0.02288
,,,8E-07,0.02301625
,,,8.1E-07,0.023186875
,,,8.2E-07,0.02280375
,,,8.3E-07,0.02282125
,,,8.4E-07,0.022765
,,,8.5E-07,0.0230325
,,,8.6E-07,0.022829375
,,,8.7E-07,0.022886875
,,,8.8E-07,0.022700625
,,,8.9E-07,0.022755
,,,9E-07,0.022840625
,,,9.1E-07,0.022853125
,,,9.2E-07,0.022979375
,,,9.3E-07,0.02271625
,,,9.4E-07,0.022785
,,,9.5E-07,0.02287125
,,,9.6E-07,0.02261
,,,9.7E-07,0.022904375
,,,9.8E-07,0.02279625
,,,9.9E-07,0.023106875
,,,1E-06,0.0228625
,,,1.01E-06,0.02277625
,,,1.02E-06,0.02290625
,,,1.03E-06,0.0229925
,,,1.04E-06,0.022875
,,,1.05E-06,0.02287125
,,,1.06E-06,0.022686875
,,,1.07E-06,0.0227525
,,,1.08E-06,0.022989375
,,,1.09E-06,0.0231625
,,,1.1E-06,0.022809375
,,,1.11E-06,0.0227225
,,,1.12E-06,0.023005625
,,,1.13E-06,0.022865625
,,,1.14E-06,0.02289375
,,,1.15E-06,0.02269
,,,1.16E-06,0.022893125
,,,1.17E-06,0.0229
,,,1.18E-06,0.022715
,,,1.19E-06,0.02273125
,,,1.2E-06,0.0227975
,,,1.21E-06,0.022794375
,,,1.22E-06,0.022856875
,,,1.23E-06,0.02286875
,,,1.24E-06,0.022879375
,,,1.25E-06,0.02283375
,,,1.26E-06,0.022828125
,,,1.27E-06,0.022849375
,,,1.28E-06,0.0230875
,,,1.29E-06,0.02268
,,,1.3E-06,0.0228625
,,,1.31E-06,0.022904375
,,,1.32E-06,0.0228925
,,,1.33E-06,0.023085
,,,1.34E-06,0.02314125
,,,1.35E-06,0.02295
,,,1.36E-06,0.02277375
,,,1.37E-06,0.022885625
,,,1.38E-06,0.0228925
,,,1.39E-06,0.02304875
,,,1.4E-06,0.023006875
,,,1.41E-06,0.023035
,,,1.42E-06,0.02275125
,,,1.43E-06,0.022648125
,,,1.44E-06,0.022805625
,,,1.45E-06,0.0231075
,,,1.46E-06,0.022860625
,,,1.47E-06,0.0228775
,,,1.48E-06,0.023111875
,,,1.49E-06,0.022913125
,,,1.5E-06,0.0229825
,,,1.51E-06,0.022969375
,,,1.52E-06,0.022791875
,,,1.53E-06,0.0227275
,,,1.54E-06,0.02283625
,,,1.55E-06,0.023035
,,,1.56E-06,0.022744375
,,,1.57E-06,0.022955625
,,,1.58E-06,0.022665
,,,1.59E-06,0.022658125
,,,1.6E-06,0.0226425
,,,1.61E-06,0.022893125
,,,1.62E-06,0.02284
,,,1.63E-06,0.02284625
,,,1.64E-06,0.022754375
,,,1.65E-06,0.02316125
,,,1.66E-06,0.02289625
,,,1.67E-06,0.02291
,,,1.68E-06,0.022854375
,,,1.69E-06,0.0230425
,,,1.7E-06,0.022936875
,,,1.71E-06,0.023088125
,,,1.72E-06,0.0229325
,,,1.73E-06,0.022921875
,,,1.74E-06,0.022980625
,,,1.75E-06,0.023063125
,,,1.76E-06,0.022671875
,,,1.77E-06,0.02296625
,,,1.78E-06,0.02230375
,,,1.79E-06,0.0232425
,,,1.8E-06,0.02280375
,,,1.81E-06,0.022815625
,,,1.82E-06,0.023095625
,,,1.83E-06,0.022950625
,,,1.84E-06,0.022791875
,,,1.85E-06,0.02287
,,,1.86E-06,0.0230875
,,,1.87E-06,0.022854375
,,,1.88E-06,0.023113125
,,,1.89E-06,0.02305
,,,1.9E-06,0.02297375
,,,1.91E-06,0.022861875
,,,1.92E-06,0.022964375
,,,1.93E-06,0.022894375
,,,1.94E-06,0.022945
,,,1.95E-06,0.0230575
,,,1.96E-06,0.022908125
,,,1.97E-06,0.02307625
,,,1.98E-06,0.02299
,,,1.99E-06,0.022903125
,,,2E-06,0.022790625
,,,2.01E-06,0.02307
,,,2.02E-06,0.0228825
,,,2.03E-06,0.022805
,,,2.04E-06,0.02261625
,,,2.05E-06,0.022923125
,,,2.06E-06,0.02311125
,,,2.07E-06,0.022771875
,,,2.08E-06,0.02273625
,,,2.09E-06,0.022905625
,,,2.1E-06,0.02317875
,,,2.11E-06,0.022923125
,,,2.12E-06,0.023095625
,,,2.13E-06,0.023031875
,,,2.14E-06,0.02294375
,,,2.15E-06,0.02293125
,,,2.16E-06,0.023035625
,,,2.17E-06,0.022915625
,,,2.18E-06,0.0226875
,,,2.19E-06,0.022895
,,,2.2E-06,0.022985
,,,2.21E-06,0.02299125
,,,2.22E-06,0.02292375
,,,2.23E-06,0.02293625
,,,2.24E-06,0.02289625
,,,2.25E-06,0.0228475
,,,2.26E-06,0.0227275
,,,2.27E-06,0.022758125
,,,2.28E-06,0.023066875
,,,2.29E-06,0.02276
,,,2.3E-06,0.0228925
,,,2.31E-06,0.02325
,,,2.32E-06,0.023154375
,,,2.33E-06,0.02293625
,,,2.34E-06,0.022941875
,,,2.35E-06,0.0228375
,,,2.36E-06,0.022825
,,,2.37E-06,0.02295
,,,2.38E-06,0.023279375
,,,2.39E-06,0.022754375
,,,2.4E-06,0.022910625
,,,2.41E-06,0.023010625
,,,2.42E-06,0.022871875
,,,2.43E-06,0.023069375
,,,2.44E-06,0.022929375
,,,2.45E-06,0.023009375
,,,2.46E-06,0.022839375
,,,2.47E-06,0.02291
,,,2.48E-06,0.022831875
,,,2.49E-06,0.023065
,,,2.5E-06,0.022700625
,,,2.51E-06,0.022846875
,,,2.52E-06,0.022920625
,,,2.53E-06,0.0231125
,,,2.54E-06,0.023100625
,,,2.55E-06,0.022991875
,,,2.56E-06,0.0230275
,,,2.57E-06,0.02296625
,,,2.58E-06,0.02299875
,,,2.59E-06,0.023029375
,,,2.6E-06,0.02292375
,,,2.61E-06,0.02284875
,,,2.62E-06,0.022831875
,,,2.63E-06,0.02301375
,,,2.64E-06,0.023159375
,,,2.65E-06,0.023010625
,,,2.66E-06,0.023033125
,,,2.67E-06,0.02294625
,,,2.68E-06,0.02272125
,,,2.69E-06,0.022628125
,,,2.7E-06,0.02283875
,,,2.71E-06,0.023068125
,,,2.72E-06,0.02289625
,,,2.73E-06,0.022716875
,,,2.74E-06,0.023071875
,,,2.75E-06,0.02267375
,,,2.76E-06,0.02255625
,,,2.77E-06,0.02301125
,,,2.78E-06,0.0230525
,,,2.79E-06,0.022751875
,,,2.8E-06,0.022963125
,,,2.81E-06,0.02307625
,,,2.82E-06,0.02304375
,,,2.83E-06,0.022638125
,,,2.84E-06,0.022819375
,,,2.85E-06,0.0228025
,,,2.86E-06,0.0227875
,,,2.87E-06,0.023035
,,,2.88E-06,0.022915625
,,,2.89E-06,0.022883125
,,,2.9E-06,0.0228975
,,,2.91E-06,0.02297375
,,,2.92E-06,0.022863125
,,,2.93E-06,0.02272875
,,,2.94E-06,0.022924375
,,,2.95E-06,0.022940625
,,,2.96E-06,0.02309875
,,,2.97E-06,0.022765
,,,2.98E-06,0.023075625
,,,2.99E-06,0.023085
,,,3E-06,0.02305125
,,,3.01E-06,0.0228125
,,,3.02E-06,0.022776875
,,,3.03E-06,0.022769375
,,,3.04E-06,0.0228525
,,,3.05E-06,0.022938125
,,,3.06E-06,0.023046875
,,,3.07E-06,0.022968125
,,,3.08E-06,0.022945625
,,,3.09E-06,0.02259125
,,,3.1E-06,0.02303
,,,3.11E-06,0.02253625
,,,3.12E-06,0.023064375
,,,3.13E-06,0.02266125
,,,3.14E-06,0.0228575
,,,3.15E-06,0.02295875
,,,3.16E-06,0.0228225
,,,3.17E-06,0.022638125
,,,3.18E-06,0.0227425
,,,3.19E-06,0.02297625
,,,3.2E-06,0.023238125
,,,3.21E-06,0.023019375
,,,3.22E-06,0.022955
,,,3.23E-06,0.02265375
,,,3.24E-06,0.0229125
,,,3.25E-06,0.022806875
,,,3.26E-06,0.022775
,,,3.27E-06,0.022739375
,,,3.28E-06,0.02293625
,,,3.29E-06,0.022823125
,,,3.3E-06,0.0229625
,,,3.31E-06,0.022869375
,,,3.32E-06,0.022859375
,,,3.33E-06,0.02266375
,,,3.34E-06,0.022554375
,,,3.35E-06,0.02287625
,,,3.36E-06,0.022995
,,,3.37E-06,0.022993125
,,,3.38E-06,0.022805
,,,3.39E-06,0.022838125
,,,3.4E-06,0.022929375
,,,3.41E-06,0.02297125
,,,3.42E-06,0.022885
,,,3.43E-06,0.02327875
,,,3.44E-06,0.022821875
,,,3.45E-06,0.023041875
,,,3.46E-06,0.02276
,,,3.47E-06,0.02294875
,,,3.48E-06,0.022935
,,,3.49E-06,0.02301
,,,3.5E-06,0.02285875
,,,3.51E-06,0.02299375
,,,3.52E-06,0.022923125
,,,3.53E-06,0.022875
,,,3.54E-06,0.022733125
,,,3.55E-06,0.022958125
,,,3.56E-06,0.022805625
,,,3.57E-06,0.022573125
,,,3.58E-06,0.022859375
,,,3.59E-06,0.02304
