data/raw/Final_POL_Test_1/SOP024_Ch1.csv

"Record Length",1000,"Points",-5E-06,0.008201875
"Sample Interval",1E-08,s,-4.99E-06,0.007806875
"Trigger Point",500,"Samples",-4.98E-06,0.00787
"Trigger Time",0,s,-4.97E-06,0.007805625
"",,,-4.96E-06,0.00791625
"Horizontal Offset",-5E-06,s,-4.95E-06,0.0077325
,,,-4.94E-06,0.00802625
,,,-4.93E-06,0.00800125
,,,-4.92E-06,0.00779
,,,-4.91E-06,0.008040625
,,,-4.9E-06,0.00777125
,,,-4.89E-06,0.007933125
,,,-4.88E-06,0.008015
,,,-4.87E-06,0.00807625
,,,-4.86E-06,0.007884375
,,,-4.85E-06,0.007619375
,,,-4.84E-06,0.0080325
,,,-4.83E-06,0.007905
,,,-4.82E-06,0.0078275
,,,-4.81E-06,0.00799875
,,,-4.8E-06,0.00801
,,,-4.79E-06,0.007935
,,,-4.78E-06,0.00810375
,,,-4.77E-06,0.0079825
,,,-4.76E-06,0.0078575
,,,-4.75E-06,0.007769375
,,,-4.74E-06,0.007949375
,,,-4.73E-06,0.00813125
,,,-4.72E-06,0.00811875
,,,-4.71E-06,0.00794625
,,,-4.7E-06,0.008109375
,,,-4.69E-06,0.007738125
,,,-4.68E-06,0.008065
,,,-4.67E-06,0.007933125
,,,-4.66E-06,0.007848125
,,,-4.65E-06,0.008051875
,,,-4.64E-06,0.007774375
,,,-4.63E-06,0.0080875
,,,-4.62E-06,0.0074675
,,,-4.61E-06,0.0081325
,,,-4.6E-06,0.00785625
,,,-4.59E-06,0.007918125
,,,-4.58E-06,0.007885
,,,-4.57E-06,0.007995
,,,-4.56E-06,0.007773125
,,,-4.55E-06,0.0079325
,,,-4.54E-06,0.007761875
,,,-4.53E-06,0.00798
,,,-4.52E-06,0.007755625
,,,-4.51E-06,0.00778625
,,,-4.5E-06,0.00783125
,,,-4.49E-06,0.00792875
,,,-4.48E-06,0.0080175
,,,-4.47E-06,0.007891875
,,,-4.46E-06,0.0078225
,,,-4.45E-06,0.007921875
,,,-4.44E-06,0.00774625
,,,-4.43E-06,0.007680625
,,,-4.42E-06,0.0080125
,,,-4.41E-06,0.008040625
,,,-4.4E-06,0.0077825
,,,-4.39E-06,0.00784375
,,,-4.38E-06,0.00797625
,,,-4.37E-06,0.008035
,,,-4.36E-06,0.00819
,,,-4.35E-06,0.00783625
,,,-4.34E-06,0.00789625
,,,-4.33E-06,0.0079125
,,,-4.32E-06,0.008076875
,,,-4.31E-06,0.008075
,,,-4.3E-06,0.0079175
,,,-4.29E-06,0.007903125
,,,-4.28E-06,0.007704375
,,,-4.27E-06,0.00781625
,,,-4.26E-06,0.007834375
,,,-4.25E-06,0.00767
,,,-4.24E-06,0.007870625
,,,-4.23E-06,0.008135
,,,-4.22E-06,0.008020625
,,,-4.21E-06,0.00793625
,,,-4.2E-06,0.007754375
,,,-4.19E-06,0.0077175
,,,-4.18E-06,0.0079225
,,,-4.17E-06,0.008081875
,,,-4.16E-06,0.008043125
,,,-4.15E-06,0.007820625
,,,-4.14E-06,0.008121875
,,,-4.13E-06,0.008031875
,,,-4.12E-06,0.007875625
,,,-4.11E-06,0.008015625
,,,-4.1E-06,0.00793
,,,-4.09E-06,0.00765
,,,-4.08E-06,0.00798
,,,-4.07E-06,0.0078975
,,,-4.06E-06,0.008205
,,,-4.05E-06,0.007981875
,,,-4.04E-06,0.007706875
,,,-4.03E-06,0.00799875
,,,-4.02E-06,0.0077375
,,,-4.01E-06,0.0078375
,,,-4E-06,0.007865
,,,-3.99E-06,0.007873125
,,,-3.98E-06,0.008053125
,,,-3.97E-06,0.00792375
,,,-3.96E-06,0.0078225
,,,-3.95E-06,0.00786
,,,-3.94E-06,0.007975
,,,-3.93E-06,0.0080425
,,,-3.92E-06,0.0079725
,,,-3.91E-06,0.007856875
,,,-3.9E-06,0.00789125
,,,-3.89E-06,0.008068125
,,,-3.88E-06,0.007954375
,,,-3.87E-06,0.007745625
,,,-3.86E-06,0.007924375
,,,-3.85E-06,0.008086875
,,,-3.84E-06,0.007764375
,,,-3.83E-06,0.007910625
,,,-3.82E-06,0.00814
,,,-3.81E-06,0.008014375
,,,-3.8E-06,0.008063125
,,,-3.79E-06,0.008064375
,,,-3.78E-06,0.007698125
,,,-3.77E-06,0.007965
,,,-3.76E-06,0.00786
,,,-3.75E-06,0.008115
,,,-3.74E-06,0.008194375
,,,-3.73E-06,0.008120625
,,,-3.72E-06,0.0080575
,,,-3.71E-06,0.007751875
,,,-3.7E-06,0.007751875
,,,-3.69E-06,0.00790625
,,,-3.68E-06,0.00807
,,,-3.67E-06,0.008125
,,,-3.66E-06,0.007768125
,,,-3.65E-06,0.0079
,,,-3.64E-06,0.008098125
,,,-3.63E-06,0.007831875
,,,-3.62E-06,0.007759375
,,,-3.61E-06,0.00779875
,,,-3.6E-06,0.0075075
,,,-3.59E-06,0.007969375
,,,-3.58E-06,0.0080975
,,,-3.57E-06,0.008031875
,,,-3.56E-06,0.00781625
,,,-3.55E-06,0.007635625
,,,-3.54E-06,0.007970625
,,,-3.53E-06,0.0077825
,,,-3.52E-06,0.0079525
,,,-3.51E-06,0.007923125
,,,-3.5E-06,0.007868125
,,,-3.49E-06,0.0077225
,,,-3.48E-06,0.008001875
,,,-3.47E-06,0.0079075
,,,-3.46E-06,0.007854375
,,,-3.45E-06,0.00791875
,,,-3.44E-06,0.0078125
,,,-3.43E-06,0.00801
,,,-3.42E-06,0.007796875
,,,-3.41E-06,0.00798
,,,-3.4E-06,0.008
,,,-3.39E-06,0.008011875
,,,-3.38E-06,0.007995
,,,-3.37E-06,0.008103125
,,,-3.36E-06,0.007786875
,,,-3.35E-06,0.007936875
,,,-3.34E-06,0.00810375
,,,-3.33E-06,0.00793125
,,,-3.32E-06,0.00786375
,,,-3.31E-06,0.008065625
,,,-3.3E-06,0.007839375
,,,-3.29E-06,0.007825625
,,,-3.28E-06,0.007830625
,,,-3.27E-06,0.007950625
,,,-3.26E-06,0.007786875
,,,-3.25E-06,0.007815
,,,-3.24E-06,0.007979375
,,,-3.23E-06,0.0082525
,,,-3.22E-06,0.007801875
,,,-3.21E-06,0.00794125
,,,-3.2E-06,0.007970625
,,,-3.19E-06,0.007985625
,,,-3.18E-06,0.007883125
,,,-3.17E-06,0.0081
,,,-3.16E-06,0.0079825
,,,-3.15E-06,0.008145
,,,-3.14E-06,0.0078825
,,,-3.13E-06,0.007751875
,,,-3.12E-06,0.0078575
,,,-3.11E-06,0.007843125
,,,-3.1E-06,0.00786375
,,,-3.09E-06,0.007800625
,,,-3.08E-06,0.007845
,,,-3.07E-06,0.0079175
,,,-3.06E-06,0.007998125
,,,-3.05E-06,0.008096875
,,,-3.04E-06,0.00772625
,,,-3.03E-06,0.00798
,,,-3.02E-06,0.0078875
,,,-3.01E-06,0.007850625
,,,-3E-06,0.007850625
,,,-2.99E-06,0.00816625
,,,-2.98E-06,0.007851875
,,,-2.97E-06,0.00818125
,,,-2.96E-06,0.007760625
,,,-2.95E-06,0.007951875
,,,-2.94E-06,0.00781375
,,,-2.93E-06,0.007805
,,,-2.92E-06,0.007760625
,,,-2.91E-06,0.007919375
,,,-2.9E-06,0.008069375
,,,-2.89E-06,0.00793875
,,,-2.88E-06,0.00778125
,,,-2.87E-06,0.00782875
,,,-2.86E-06,0.0077275
,,,-2.85E-06,0.0079025
,,,-2.84E-06,0.007998125
,,,-2.83E-06,0.008060625
,,,-2.82E-06,0.008120625
,,,-2.81E-06,0.007880625
,,,-2.8E-06,0.007921875
,,,-2.79E-06,0.007934375
,,,-2.78E-06,0.008008125
,,,-2.77E-06,0.00780375
,,,-2.76E-06,0.0078475
,,,-2.75E-06,0.007925625
,,,-2.74E-06,0.00808125
,,,-2.73E-06,0.008053125
,,,-2.72E-06,0.007948125
,,,-2.71E-06,0.007883125
,,,-2.7E-06,0.0079225
,,,-2.69E-06,0.007938125
,,,-2.68E-06,0.00791
,,,-2.67E-06,0.0078975
,,,-2.66E-06,0.00778125
,,,-2.65E-06,0.00796625
,,,-2.64E-06,0.007951875
,,,-2.63E-06,0.008041875
,,,-2.62E-06,0.00792875
,,,-2.61E-06,0.00786125
,,,-2.6E-06,0.007919375
,,,-2.59E-06,0.007794375
,,,-2.58E-06,0.00806875
,,,-2.57E-06,0.008008125
,,,-2.56E-06,0.00813875
,,,-2.55E-06,0.008173125
,,,-2.54E-06,0.00790125
,,,-2.53E-06,0.0079875
,,,-2.52E-06,0.00810875
,,,-2.51E-06,0.00817375
,,,-2.5E-06,0.007865
,,,-2.49E-06,0.007881875
,,,-2.48E-06,0.007949375
,,,-2.47E-06,0.007925625
,,,-2.46E-06,0.0078875
,,,-2.45E-06,0.008015
,,,-2.44E-06,0.008090625
,,,-2.43E-06,0.0079075
,,,-2.42E-06,0.00783625
,,,-2.41E-06,0.00796125
,,,-2.4E-06,0.00793
,,,-2.39E-06,0.00823
,,,-2.38E-06,0.008088125
,,,-2.37E-06,0.00772875
,,,-2.36E-06,0.00808875
,,,-2.35E-06,0.008091875
,,,-2.34E-06,0.007800625
,,,-2.33E-06,0.007788125
,,,-2.32E-06,0.0077725
,,,-2.31E-06,0.007854375
,,,-2.3E-06,0.00813125
,,,-2.29E-06,0.00792125
,,,-2.28E-06,0.0078825
,,,-2.27E-06,0.00803125
,,,-2.26E-06,0.008088125
,,,-2.25E-06,0.007969375
,,,-2.24E-06,0.0080075
,,,-2.23E-06,0.008003125
,,,-2.22E-06,0.0079425
,,,-2.21E-06,0.007644375
,,,-2.2E-06,0.007810625
,,,-2.19E-06,0.008009375
,,,-2.18E-06,0.0078775
,,,-2.17E-06,0.008375
,,,-2.16E-06,0.007970625
,,,-2.15E-06,0.008020625
,,,-2.14E-06,0.008070625
,,,-2.13E-06,0.00770375
,,,-2.12E-06,0.0076825
,,,-2.11E-06,0.00811375
,,,-2.1E-06,0.00796875
,,,-2.09E-06,0.0081875
,,,-2.08E-06,0.00788375
,,,-2.07E-06,0.00793375
,,,-2.06E-06,0.007805
,,,-2.05E-06,0.007884375
,,,-2.04E-06,0.007890625
,,,-2.03E-06,0.0077475
,,,-2.02E-06,0.0079875
,,,-2.01E-06,0.0079875
,,,-2E-06,0.00786875
,,,-1.99E-06,0.007754375
,,,-1.98E-06,0.0079725
,,,-1.97E-06,0.00773
,,,-1.96E-06,0.007869375
,,,-1.95E-06,0.00784
,,,-1.94E-06,0.0078975
,,,-1.93E-06,0.007816875
,,,-1.92E-06,0.007791875
,,,-1.91E-06,0.007801875
,,,-1.9E-06,0.007730625
,,,-1.89E-06,0.00795375
,,,-1.88E-06,0.007683125
,,,-1.87E-06,0.00789625
,,,-1.86E-06,0.007956875
,,,-1.85E-06,0.0078225
,,,-1.84E-06,0.00797875
,,,-1.83E-06,0.007930625
,,,-1.82E-06,0.008015
,,,-1.81E-06,0.007866875
,,,-1.8E-06,0.007761875
,,,-1.79E-06,0.00783625
,,,-1.78E-06,0.007905625
,,,-1.77E-06,0.007779375
,,,-1.76E-06,0.008175
,,,-1.75E-06,0.007743125
,,,-1.74E-06,0.007960625
,,,-1.73E-06,0.008049375
,,,-1.72E-06,0.007935
,,,-1.71E-06,0.007803125
,,,-1.7E-06,0.00787375
,,,-1.69E-06,0.008131875
,,,-1.68E-06,0.0082675
,,,-1.67E-06,0.007921875
,,,-1.66E-06,0.008003125
,,,-1.65E-06,0.007814375
,,,-1.64E-06,0.008010625
,,,-1.63E-06,0.0078575
,,,-1.62E-06,0.007799375
,,,-1.61E-06,0.007861875
,,,-1.6E-06,0.007900625
,,,-1.59E-06,0.00793625
,,,-1.58E-06,0.008071875
,,,-1.57E-06,0.007980625
,,,-1.56E-06,0.007689375
,,,-1.55E-06,0.00784375
,,,-1.54E-06,0.007874375
,,,-1.53E-06,0.008110625
,,,-1.52E-06,0.0082
,,,-1.51E-06,0.0079975
,,,-1.5E-06,0.00778
,,,-1.49E-06,0.007945
,,,-1.48E-06,0.00786625
,,,-1.47E-06,0.00783
,,,-1.46E-06,0.008105
,,,-1.45E-06,0.007914375
,,,-1.44E-06,0.007990625
,,,-1.43E-06,0.008038125
,,,-1.42E-06,0.008115
,,,-1.41E-06,0.0079825
,,,-1.4E-06,0.0079975
,,,-1.39E-06,0.0081
,,,-1.38E-06,0.007765
,,,-1.37E-06,0.007918125
,,,-1.36E-06,0.007975625
,,,-1.35E-06,0.007960625
,,,-1.34E-06,0.00808375
,,,-1.33E-06,0.007949375
,,,-1.32E-06,0.008065
,,,-1.31E-06,0.0079375
,,,-1.3E-06,0.008130625
,,,-1.29E-06,0.007628125
,,,-1.28E-06,0.007873125
,,,-1.27E-06,0.0079725
,,,-1.26E-06,0.008059375
,,,-1.25E-06,0.0078675
,,,-1.24E-06,0.00778625
,,,-1.23E-06,0.00801125
,,,-1.22E-06,0.00783375
,,,-1.21E-06,0.008110625
,,,-1.2E-06,0.007905625
,,,-1.19E-06,0.007806875
,,,-1.18E-06,0.008226875
,,,-1.17E-06,0.0079925
,,,-1.16E-06,0.00807375
,,,-1.15E-06,0.007925625
,,,-1.14E-06,0.007900625
,,,-1.13E-06,0.0081325
,,,-1.12E-06,0.008063125
,,,-1.11E-06,0.00785375
,,,-1.1E-06,0.0078175
,,,-1.09E-06,0.0078725
,,,-1.08E-06,0.00798
,,,-1.07E-06,0.00787
,,,-1.06E-06,0.007798125
,,,-1.05E-06,0.00764375
,,,-1.04E-06,0.00792875
,,,-1.03E-06,0.00780625
,,,-1.02E-06,0.00767
,,,-1.01E-06,0.008025
,,,-1E-06,0.00806
,,,-9.9E-07,0.00809375
,,,-9.8E-07,0.007736875
,,,-9.7E-07,0.00816125
,,,-9.6E-07,0.007913125
,,,-9.5E-07,0.0079575
,,,-9.4E-07,0.00791125
,,,-9.3E-07,0.00801375
,,,-9.2E-07,0.00808875
,,,-9.1E-07,0.007938125
,,,-9E-07,0.007793125
,,,-8.9E-07,0.007826875
,,,-8.8E-07,0.0078325
,,,-8.7E-07,0.007834375
,,,-8.6E-07,0.008078125
,,,-8.5E-07,0.007934375
,,,-8.4E-07,0.00787125
,,,-8.3E-07,0.00788375
,,,-8.2E-07,0.00804625
,,,-8.1E-07,0.007919375
,,,-8E-07,0.00783125
,,,-7.9E-07,0.00799125
,,,-7.8E-07,0.007919375
,,,-7.7E-07,0.008050625
,,,-7.6E-07,0.007970625
,,,-7.5E-07,0.008024375
,,,-7.4E-07,0.007889375
,,,-7.3E-07,0.007951875
,,,-7.2E-07,0.00815625
,,,-7.1E-07,0.007864375
,,,-7E-07,0.007865
,,,-6.9E-07,0.0080425
,,,-6.8E-07,0.008023125
,,,-6.7E-07,0.007964375
,,,-6.6E-07,0.0080325
,,,-6.5E-07,0.00801
,,,-6.4E-07,0.008081875
,,,-6.3E-07,0.0077325
,,,-6.2E-07,0.007765
,,,-6.1E-07,0.007878125
,,,-6E-07,0.0079825
,,,-5.9E-07,0.007885625
,,,-5.8E-07,0.008090625
,,,-5.7E-07,0.007925625
,,,-5.6E-07,0.0078675
,,,-5.5E-07,0.00774875
,,,-5.4E-07,0.00813125
,,,-5.3E-07,0.0079425
,,,-5.2E-07,0.008018125
,,,-5.1E-07,0.007919375
,,,-5E-07,0.007791875
,,,-4.9E-07,0.008038125
,,,-4.8E-07,0.00778125
,,,-4.7E-07,0.008029375
,,,-4.6E-07,0.00789625
,,,-4.5E-07,0.0078525
,,,-4.4E-07,0.0079525
,,,-4.3E-07,0.008053125
,,,-4.2E-07,0.0080825
,,,-4.1E-07,0.007930625
,,,-4E-07,0.008044375
,,,-3.9E-07,0.007599375
,,,-3.8E-07,0.007848125
,,,-3.7E-07,0.008010625
,,,-3.6E-07,0.00810375
,,,-3.5E-07,0.0078575
,,,-3.4E-07,0.00781375
,,,-3.3E-07,0.007815625
,,,-3.2E-07,0.00793625
,,,-3.1E-07,0.007878125
,,,-3E-07,0.0078025
,,,-2.9E-07,0.007698125
,,,-2.8E-07,0.00804625
,,,-2.7E-07,0.00788125
,,,-2.6E-07,0.00803875
,,,-2.5E-07,0.007950625
,,,-2.4E-07,0.00767625
,,,-2.3E-07,0.00786125
,,,-2.2E-07,0.007883125
,,,-2.1E-07,0.007866875
,,,-2E-07,0.00813
,,,-1.9E-07,0.008159375
,,,-1.8E-07,0.0080625
,,,-1.7E-07,0.0079175
,,,-1.6E-07,0.007909375
,,,-1.5E-07,0.0081675
,,,-1.4E-07,0.00804875
,,,-1.3E-07,0.00784125
,,,-1.2E-07,0.007925
,,,-1.1E-07,0.00792
,,,-1E-07,0.00795625
,,,-9E-08,0.00785625
,,,-8E-08,0.00813375
,,,-7E-08,0.007993125
,,,-6E-08,0.0078025
,,,-5E-08,0.008011875
,,,-4E-08,0.00868625
,,,-3E-08,0.00901625
,,,-2E-08,0.007383125
,,,-1E-08,0.00507
,,,0,0.003775
,,,1E-08,0.009716875
,,,2E-08,0.011801875
,,,3E-08,0.01263375
,,,4E-08,0.007755
,,,5E-08,0.005404375
,,,6E-08,0.004248125
,,,7E-08,0.006395
,,,8E-08,0.0083975
,,,9E-08,0.00960875
,,,1E-07,0.01025875
,,,1.1E-07,0.0091775
,,,1.2E-07,0.00720375
,,,1.3E-07,0.006248125
,,,1.4E-07,0.007086875
,,,1.5E-07,0.0077975
,,,1.6E-07,0.008465625
,,,1.7E-07,0.008525
,,,1.8E-07,0.008215
,,,1.9E-07,0.008116875
,,,2E-07,0.00794625
,,,2.1E-07,0.007785
,,,2.2E-07,0.0076625
,,,2.3E-07,0.008061875
,,,2.4E-07,0.0081475
,,,2.5E-07,0.008115625
,,,2.6E-07,0.0079375
,,,2.7E-07,0.008015625
,,,2.8E-07,0.008019375
,,,2.9E-07,0.0080275
,,,3E-07,0.007745
,,,3.1E-07,0.007720625
,,,3.2E-07,0.007925
,,,3.3E-07,0.007971875
,,,3.4E-07,0.007930625
,,,3.5E-07,0.0079925
,,,3.6E-07,0.007821875
,,,3.7E-07,0.007985
,,,3.8E-07,0.00793625
,,,3.9E-07,0.00791375
,,,4E-07,0.00789125
,,,4.1E-07,0.00813625
,,,4.2E-07,0.007825
,,,4.3E-07,0.008103125
,,,4.4E-07,0.007768125
,,,4.5E-07,0.00806375
,,,4.6E-07,0.008035
,,,4.7E-07,0.007914375
,,,4.8E-07,0.007860625
,,,4.9E-07,0.00786
,,,5E-07,0.008041875
,,,5.1E-07,0.007980625
,,,5.2E-07,0.00777625
,,,5.3E-07,0.00776625
,,,5.4E-07,0.007651875
,,,5.5E-07,0.007928125
,,,5.6E-07,0.007765
,,,5.7E-07,0.00816375
,,,5.8E-07,0.00796125
,,,5.9E-07,0.008049375
,,,6E-07,0.007953125
,,,6.1E-07,0.0080475
,,,6.2E-07,0.0077525
,,,6.3E-07,0.007765
,,,6.4E-07,0.007988125
,,,6.5E-07,0.008091875
,,,6.6E-07,0.008021875
,,,6.7E-07,0.007898125
,,,6.8E-07,0.007940625
,,,6.9E-07,0.00780125
,,,7E-07,0.0079725
,,,7.1E-07,0.007979375
,,,7.2E-07,0.007929375
,,,7.3E-07,0.007993125
,,,7.4E-07,0.007855625
,,,7.5E-07,0.00778
,,,7.6E-07,0.0079925
,,,7.7E-07,0.0077775
,,,7.8E-07,0.007854375
,,,7.9E-07,0.007909375
,,,8E-07,0.0079625
,,,8.1E-07,0.007849375
,,,8.2E-07,0.008110625
,,,8.3E-07,0.007835625
,,,8.4E-07,0.007925625
,,,8.5E-07,0.0078975
,,,8.6E-07,0.008004375
,,,8.7E-07,0.00811625
,,,8.8E-07,0.00783375
,,,8.9E-07,0.007965
,,,9E-07,0.008164375
,,,9.1E-07,0.00806875
,,,9.2E-07,0.00821125
,,,9.3E-07,0.00794
,,,9.4E-07,0.008056875
,,,9.5E-07,0.008106875
,,,9.6E-07,0.007645625
,,,9.7E-07,0.008005625
,,,9.8E-07,0.007999375
,,,9.9E-07,0.0079675
,,,1E-06,0.007826875
,,,1.01E-06,0.0077775
,,,1.02E-06,0.007880625
,,,1.03E-06,0.008065625
,,,1.04E-06,0.0079
,,,1.05E-06,0.007948125
,,,1.06E-06,0.007815625
,,,1.07E-06,0.007954375
,,,1.08E-06,0.007873125
,,,1.09E-06,0.0078275
,,,1.1E-06,0.007835
,,,1.11E-06,0.007854375
,,,1.12E-06,0.007716875
,,,1.13E-06,0.0078075
,,,1.14E-06,0.007835
,,,1.15E-06,0.00811875
,,,1.16E-06,0.008061875
,,,1.17E-06,0.007883125
,,,1.18E-06,0.00786625
,,,1.19E-06,0.007729375
,,,1.2E-06,0.007914375
,,,1.21E-06,0.007975
,,,1.22E-06,0.008105
,,,1.23E-06,0.00800625
,,,1.24E-06,0.007824375
,,,1.25E-06,0.008083125
,,,1.26E-06,0.0078025
,,,1.27E-06,0.00787875
,,,1.28E-06,0.007815
,,,1.29E-06,0.00806125
,,,1.3E-06,0.007750625
,,,1.31E-06,0.007919375
,,,1.32E-06,0.007898125
,,,1.33E-06,0.008141875
,,,1.34E-06,0.0077575
,,,1.35E-06,0.00792375
,,,1.36E-06,0.00784
,,,1.37E-06,0.007870625
,,,1.38E-06,0.00796
,,,1.39E-06,0.007883125
,,,1.4E-06,0.0078875
,,,1.41E-06,0.008066875
,,,1.42E-06,0.007866875
,,,1.43E-06,0.00779375
,,,1.44E-06,0.00793875
,,,1.45E-06,0.0078075
,,,1.46E-06,0.0079325
,,,1.47E-06,0.007995625
,,,1.48E-06,0.007816875
,,,1.49E-06,0.0081375
,,,1.5E-06,0.007916875
,,,1.51E-06,0.007898125
,,,1.52E-06,0.007756875
,,,1.53E-06,0.007778125
,,,1.54E-06,0.007815625
,,,1.55E-06,0.007943125
,,,1.56E-06,0.0080625
,,,1.57E-06,0.00781
,,,1.58E-06,0.007874375
,,,1.59E-06,0.00784
,,,1.6E-06,0.007888125
,,,1.61E-06,0.007829375
,,,1.62E-06,0.00813
,,,1.63E-06,0.007823125
,,,1.64E-06,0.00776375
,,,1.65E-06,0.00805625
,,,1.66E-06,0.008171875
,,,1.67E-06,0.007968125
,,,1.68E-06,0.00779875
,,,1.69E-06,0.00790375
,,,1.7E-06,0.007929375
,,,1.71E-06,0.007614375
,,,1.72E-06,0.00764125
,,,1.73E-06,0.008035
,,,1.74E-06,0.0078875
,,,1.75E-06,0.00771125
,,,1.76E-06,0.00792625
,,,1.77E-06,0.007881875
,,,1.78E-06,0.008135625
,,,1.79E-06,0.008028125
,,,1.8E-06,0.007791875
,,,1.81E-06,0.007850625
,,,1.82E-06,0.008055
,,,1.83E-06,0.00811875
,,,1.84E-06,0.00799875
,,,1.85E-06,0.00811
,,,1.86E-06,0.007823125
,,,1.87E-06,0.007968125
,,,1.88E-06,0.00787125
,,,1.89E-06,0.007854375
,,,1.9E-06,0.00802125
,,,1.91E-06,0.0079425
,,,1.92E-06,0.00791
,,,1.93E-06,0.00815
,,,1.94E-06,0.007954375
,,,1.95E-06,0.0078225
,,,1.96E-06,0.008009375
,,,1.97E-06,0.007870625
,,,1.98E-06,0.00783
,,,1.99E-06,0.007971875
,,,2E-06,0.007895
,,,2.01E-06,0.007606875
,,,2.02E-06,0.00798875
,,,2.03E-06,0.0081125
,,,2.04E-06,0.007823125
,,,2.05E-06,0.007999375
,,,2.06E-06,0.007968125
,,,2.07E-06,0.00780375
,,,2.08E-06,0.00811625
,,,2.09E-06,0.0079775
,,,2.1E-06,0.007891875
,,,2.11E-06,0.00782
,,,2.12E-06,0.008163125
,,,2.13E-06,0.007710625
,,,2.14E-06,0.008100625
,,,2.15E-06,0.007690625
,,,2.16E-06,0.008071875
,,,2.17E-06,0.007815625
,,,2.18E-06,0.00792
,,,2.19E-06,0.0078975
,,,2.2E-06,0.007968125
,,,2.21E-06,0.007915625
,,,2.22E-06,0.00790625
,,,2.23E-06,0.00805625
,,,2.24E-06,0.00813875
,,,2.25E-06,0.00785375
,,,2.26E-06,0.008156875
,,,2.27E-06,0.00782
,,,2.28E-06,0.00812
,,,2.29E-06,0.007909375
,,,2.3E-06,0.007956875
,,,2.31E-06,0.008185625
,,,2.32E-06,0.008000625
,,,2.33E-06,0.00800125
,,,2.34E-06,0.008018125
,,,2.35E-06,0.0078075
,,,2.36E-06,0.00782625
,,,2.37E-06,0.008061875
,,,2.38E-06,0.007838125
,,,2.39E-06,0.00813875
,,,2.4E-06,0.008074375
,,,2.41E-06,0.007814375
,,,2.42E-06,0.0079325
,,,2.43E-06,0.00777125
,,,2.44E-06,0.00794875
,,,2.45E-06,0.0082125
,,,2.46E-06,0.007923125
,,,2.47E-06,0.00815375
,,,2.48E-06,0.007860625
,,,2.49E-06,0.00825625
,,,2.5E-06,0.00801375
,,,2.51E-06,0.007944375
,,,2.52E-06,0.00812875
,,,2.53E-06,0.007895
,,,2.54E-06,0.0079925
,,,2.55E-06,0.007941875
,,,2.56E-06,0.00798125
,,,2.57E-06,0.008049375
,,,2.58E-06,0.007895625
,,,2.59E-06,0.0080075
,,,2.6E-06,0.0080525
,,,2.61E-06,0.00779
,,,2.62E-06,0.007806875
,,,2.63E-06,0.007735
,,,2.64E-06,0.007944375
,,,2.65E-06,0.008136875
,,,2.66E-06,0.007688125
,,,2.67E-06,0.007755625
,,,2.68E-06,0.007884375
,,,2.69E-06,0.007836875
,,,2.7E-06,0.007980625
,,,2.71E-06,0.00797375
,,,2.72E-06,0.0078625
,,,2.73E-06,0.007995625
,,,2.74E-06,0.007746875
,,,2.75E-06,0.007808125
,,,2.76E-06,0.007766875
,,,2.77E-06,0.0078475
,,,2.78E-06,0.008088125
,,,2.79E-06,0.007795
,,,2.8E-06,0.008304375
,,,2.81E-06,0.00805
,,,2.82E-06,0.007995625
,,,2.83E-06,0.008023125
,,,2.84E-06,0.00788125
,,,2.85E-06,0.0079125
,,,2.86E-06,0.00811125
,,,2.87E-06,0.008018125
,,,2.88E-06,0.007971875
,,,2.89E-06,0.00801625
,,,2.9E-06,0.008083125
,,,2.91E-06,0.00798375
,,,2.92E-06,0.00783625
,,,2.93E-06,0.008015
,,,2.94E-06,0.008018125
,,,2.95E-06,0.007779375
,,,2.96E-06,0.007879375
,,,2.97E-06,0.007714375
,,,2.98E-06,0.008095
,,,2.99E-06,0.007811875
,,,3E-06,0.00786375
,,,3.01E-06,0.0078425
,,,3.02E-06,0.007960625
,,,3.03E-06,0.007833125
,,,3.04E-06,0.00801375
,,,3.05E-06,0.007915
,,,3.06E-06,0.007864375
,,,3.07E-06,0.008158125
,,,3.08E-06,0.007799375
,,,3.09E-06,0.0080675
,,,3.1E-06,0.0080275
,,,3.11E-06,0.007943125
,,,3.12E-06,0.007669375
,,,3.13E-06,0.00793375
,,,3.14E-06,0.0078325
,,,3.15E-06,0.008168125
,,,3.16E-06,0.007996875
,,,3.17E-06,0.0080075
,,,3.18E-06,0.008219375
,,,3.19E-06,0.007825625
,,,3.2E-06,0.007715
,,,3.21E-06,0.0081625
,,,3.22E-06,0.00796375
,,,3.23E-06,0.008018125
,,,3.24E-06,0.0076
,,,3.25E-06,0.00788
,,,3.26E-06,0.007961875
,,,3.27E-06,0.00807125
,,,3.28E-06,0.00790625
,,,3.29E-06,0.00773375
,,,3.3E-06,0.00767625
,,,3.31E-06,0.007710625
,,,3.32E-06,0.0079
,,,3.33E-06,0.007885
,,,3.34E-06,0.00784
,,,3.35E-06,0.008015625
,,,3.36E-06,0.00809
,,,3.37E-06,0.007959375
,,,3.38E-06,0.007896875
,,,3.39E-06,0.00809875
,,,3.4E-06,0.008063125
,,,3.41E-06,0.007918125
,,,3.42E-06,0.007671875
,,,3.43E-06,0.007971875
,,,3.44E-06,0.007865
,,,3.45E-06,0.00809
,,,3.46E-06,0.007678125
,,,3.47E-06,0.008069375
,,,3.48E-06,0.007680625
,,,3.49E-06,0.0079775
,,,3.5E-06,0.007899375
,,,3.51E-06,0.00794375
,,,3.52E-06,0.00787875
,,,3.53E-06,0.00783875
,,,3.54E-06,0.007875625
,,,3.55E-06,0.007905
,,,3.56E-06,0.008186875
,,,3.57E-06,0.00789125
,,,3.58E-06,0.008
,,,3.59E-06,0.00785875
