data/raw/Final_POL_Test_1/SOP097_Ch4.csv

"Record Length",1000,"Points",-5E-06,0.01665625
"Sample Interval",1E-08,s,-4.99E-06,0.01653875
"Trigger Point",500,"Samples",-4.98E-06,0.016579375
"Trigger Time",0,s,-4.97E-06,0.016690625
"",,,-4.96E-06,0.0168425
"Horizontal Offset",-5E-06,s,-4.95E-06,0.016799375
,,,-4.94E-06,0.01675375
,,,-4.93E-06,0.016861875
,,,-4.92E-06,0.016620625
,,,-4.91E-06,0.016640625
,,,-4.9E-06,0.016761875
,,,-4.89E-06,0.01660625
,,,-4.88E-06,0.016831875
,,,-4.87E-06,0.016884375
,,,-4.86E-06,0.01677125
,,,-4.85E-06,0.01686375
,,,-4.84E-06,0.01680375
,,,-4.83E-06,0.016696875
,,,-4.82E-06,0.01656625
,,,-4.81E-06,0.01680125
,,,-4.8E-06,0.016951875
,,,-4.79E-06,0.01656125
,,,-4.78E-06,0.016739375
,,,-4.77E-06,0.0169175
,,,-4.76E-06,0.01677875
,,,-4.75E-06,0.016755
,,,-4.74E-06,0.016508125
,,,-4.73E-06,0.016830625
,,,-4.72E-06,0.0170225
,,,-4.71E-06,0.01647875
,,,-4.7E-06,0.01670625
,,,-4.69E-06,0.0165425
,,,-4.68E-06,0.016825
,,,-4.67E-06,0.01647875
,,,-4.66E-06,0.01683375
,,,-4.65E-06,0.016861875
,,,-4.64E-06,0.0170225
,,,-4.63E-06,0.016765
,,,-4.62E-06,0.01659625
,,,-4.61E-06,0.0168125
,,,-4.6E-06,0.016745
,,,-4.59E-06,0.017095
,,,-4.58E-06,0.016551875
,,,-4.57E-06,0.016719375
,,,-4.56E-06,0.016703125
,,,-4.55E-06,0.017018125
,,,-4.54E-06,0.016755625
,,,-4.53E-06,0.0166375
,,,-4.52E-06,0.016995
,,,-4.51E-06,0.01694375
,,,-4.5E-06,0.017006875
,,,-4.49E-06,0.01677
,,,-4.48E-06,0.016906875
,,,-4.47E-06,0.0166325
,,,-4.46E-06,0.016644375
,,,-4.45E-06,0.01692375
,,,-4.44E-06,0.01709125
,,,-4.43E-06,0.016635
,,,-4.42E-06,0.0166625
,,,-4.41E-06,0.016906875
,,,-4.4E-06,0.01708375
,,,-4.39E-06,0.016565
,,,-4.38E-06,0.016789375
,,,-4.37E-06,0.017123125
,,,-4.36E-06,0.016754375
,,,-4.35E-06,0.01690375
,,,-4.34E-06,0.01676875
,,,-4.33E-06,0.016665625
,,,-4.32E-06,0.01677375
,,,-4.31E-06,0.016886875
,,,-4.3E-06,0.016735625
,,,-4.29E-06,0.016570625
,,,-4.28E-06,0.0168325
,,,-4.27E-06,0.01675375
,,,-4.26E-06,0.01680625
,,,-4.25E-06,0.01673375
,,,-4.24E-06,0.017074375
,,,-4.23E-06,0.016920625
,,,-4.22E-06,0.016958125
,,,-4.21E-06,0.017146875
,,,-4.2E-06,0.016861875
,,,-4.19E-06,0.0167775
,,,-4.18E-06,0.0167075
,,,-4.17E-06,0.016838125
,,,-4.16E-06,0.0166725
,,,-4.15E-06,0.01673625
,,,-4.14E-06,0.016966875
,,,-4.13E-06,0.016714375
,,,-4.12E-06,0.0167175
,,,-4.11E-06,0.01710625
,,,-4.1E-06,0.01681625
,,,-4.09E-06,0.01651375
,,,-4.08E-06,0.016755
,,,-4.07E-06,0.016745
,,,-4.06E-06,0.016818125
,,,-4.05E-06,0.017100625
,,,-4.04E-06,0.01661
,,,-4.03E-06,0.016890625
,,,-4.02E-06,0.016695
,,,-4.01E-06,0.01659125
,,,-4E-06,0.016629375
,,,-3.99E-06,0.017011875
,,,-3.98E-06,0.01701125
,,,-3.97E-06,0.016713125
,,,-3.96E-06,0.0166625
,,,-3.95E-06,0.016554375
,,,-3.94E-06,0.016760625
,,,-3.93E-06,0.016714375
,,,-3.92E-06,0.01666875
,,,-3.91E-06,0.016825
,,,-3.9E-06,0.01688
,,,-3.89E-06,0.016764375
,,,-3.88E-06,0.016620625
,,,-3.87E-06,0.016868125
,,,-3.86E-06,0.016725625
,,,-3.85E-06,0.01652
,,,-3.84E-06,0.01693
,,,-3.83E-06,0.016675
,,,-3.82E-06,0.0169625
,,,-3.81E-06,0.0168225
,,,-3.8E-06,0.016788125
,,,-3.79E-06,0.016639375
,,,-3.78E-06,0.01672875
,,,-3.77E-06,0.016868125
,,,-3.76E-06,0.01677625
,,,-3.75E-06,0.016818125
,,,-3.74E-06,0.0167675
,,,-3.73E-06,0.0169025
,,,-3.72E-06,0.01676375
,,,-3.71E-06,0.016891875
,,,-3.7E-06,0.01666375
,,,-3.69E-06,0.016779375
,,,-3.68E-06,0.016479375
,,,-3.67E-06,0.01677125
,,,-3.66E-06,0.01693125
,,,-3.65E-06,0.016818125
,,,-3.64E-06,0.016833125
,,,-3.63E-06,0.016674375
,,,-3.62E-06,0.016753125
,,,-3.61E-06,0.016828125
,,,-3.6E-06,0.016565625
,,,-3.59E-06,0.01678
,,,-3.58E-06,0.016851875
,,,-3.57E-06,0.016955
,,,-3.56E-06,0.0168925
,,,-3.55E-06,0.016653125
,,,-3.54E-06,0.016761875
,,,-3.53E-06,0.016903125
,,,-3.52E-06,0.016813125
,,,-3.51E-06,0.016865
,,,-3.5E-06,0.0171175
,,,-3.49E-06,0.016766875
,,,-3.48E-06,0.01680625
,,,-3.47E-06,0.016598125
,,,-3.46E-06,0.0167175
,,,-3.45E-06,0.016696875
,,,-3.44E-06,0.016989375
,,,-3.43E-06,0.01675125
,,,-3.42E-06,0.016785625
,,,-3.41E-06,0.016721875
,,,-3.4E-06,0.016930625
,,,-3.39E-06,0.0165975
,,,-3.38E-06,0.016649375
,,,-3.37E-06,0.0165125
,,,-3.36E-06,0.0168725
,,,-3.35E-06,0.016875
,,,-3.34E-06,0.016778125
,,,-3.33E-06,0.0167775
,,,-3.32E-06,0.0166475
,,,-3.31E-06,0.016815
,,,-3.3E-06,0.016815
,,,-3.29E-06,0.016858125
,,,-3.28E-06,0.016635
,,,-3.27E-06,0.016450625
,,,-3.26E-06,0.0166825
,,,-3.25E-06,0.01690875
,,,-3.24E-06,0.016835
,,,-3.23E-06,0.0168025
,,,-3.22E-06,0.01670625
,,,-3.21E-06,0.0168
,,,-3.2E-06,0.016745
,,,-3.19E-06,0.016528125
,,,-3.18E-06,0.016671875
,,,-3.17E-06,0.0168375
,,,-3.16E-06,0.01698625
,,,-3.15E-06,0.016869375
,,,-3.14E-06,0.016853125
,,,-3.13E-06,0.0169575
,,,-3.12E-06,0.0168275
,,,-3.11E-06,0.01668125
,,,-3.1E-06,0.016789375
,,,-3.09E-06,0.016865625
,,,-3.08E-06,0.017011875
,,,-3.07E-06,0.016650625
,,,-3.06E-06,0.016628125
,,,-3.05E-06,0.016699375
,,,-3.04E-06,0.0166625
,,,-3.03E-06,0.016848125
,,,-3.02E-06,0.0166225
,,,-3.01E-06,0.016371875
,,,-3E-06,0.0169375
,,,-2.99E-06,0.016641875
,,,-2.98E-06,0.016819375
,,,-2.97E-06,0.0169475
,,,-2.96E-06,0.0167025
,,,-2.95E-06,0.016644375
,,,-2.94E-06,0.016734375
,,,-2.93E-06,0.016715625
,,,-2.92E-06,0.016825625
,,,-2.91E-06,0.01662125
,,,-2.9E-06,0.01688
,,,-2.89E-06,0.01668
,,,-2.88E-06,0.016680625
,,,-2.87E-06,0.016524375
,,,-2.86E-06,0.016718125
,,,-2.85E-06,0.016814375
,,,-2.84E-06,0.0169425
,,,-2.83E-06,0.016643125
,,,-2.82E-06,0.01669
,,,-2.81E-06,0.01694125
,,,-2.8E-06,0.016754375
,,,-2.79E-06,0.016725
,,,-2.78E-06,0.01678625
,,,-2.77E-06,0.016884375
,,,-2.76E-06,0.016574375
,,,-2.75E-06,0.016818125
,,,-2.74E-06,0.01684625
,,,-2.73E-06,0.01661625
,,,-2.72E-06,0.01674625
,,,-2.71E-06,0.0167725
,,,-2.7E-06,0.01666
,,,-2.69E-06,0.01691
,,,-2.68E-06,0.016874375
,,,-2.67E-06,0.0168075
,,,-2.66E-06,0.016905
,,,-2.65E-06,0.016741875
,,,-2.64E-06,0.01699875
,,,-2.63E-06,0.016335625
,,,-2.62E-06,0.01670625
,,,-2.61E-06,0.016756875
,,,-2.6E-06,0.01690125
,,,-2.59E-06,0.0166675
,,,-2.58E-06,0.016773125
,,,-2.57E-06,0.016810625
,,,-2.56E-06,0.0166625
,,,-2.55E-06,0.016505625
,,,-2.54E-06,0.01665
,,,-2.53E-06,0.016929375
,,,-2.52E-06,0.016745
,,,-2.51E-06,0.0168075
,,,-2.5E-06,0.016840625
,,,-2.49E-06,0.016945625
,,,-2.48E-06,0.016864375
,,,-2.47E-06,0.01697625
,,,-2.46E-06,0.01678125
,,,-2.45E-06,0.01668125
,,,-2.44E-06,0.016509375
,,,-2.43E-06,0.016706875
,,,-2.42E-06,0.016935
,,,-2.41E-06,0.01702375
,,,-2.4E-06,0.016841875
,,,-2.39E-06,0.016648125
,,,-2.38E-06,0.016694375
,,,-2.37E-06,0.01645375
,,,-2.36E-06,0.016805625
,,,-2.35E-06,0.01694875
,,,-2.34E-06,0.01683625
,,,-2.33E-06,0.016818125
,,,-2.32E-06,0.016814375
,,,-2.31E-06,0.016820625
,,,-2.3E-06,0.01678375
,,,-2.29E-06,0.016840625
,,,-2.28E-06,0.0167875
,,,-2.27E-06,0.016611875
,,,-2.26E-06,0.0168
,,,-2.25E-06,0.01668125
,,,-2.24E-06,0.016821875
,,,-2.23E-06,0.016698125
,,,-2.22E-06,0.016693125
,,,-2.21E-06,0.016785
,,,-2.2E-06,0.016713125
,,,-2.19E-06,0.016855
,,,-2.18E-06,0.01677
,,,-2.17E-06,0.016824375
,,,-2.16E-06,0.016803125
,,,-2.15E-06,0.01668625
,,,-2.14E-06,0.0167875
,,,-2.13E-06,0.01677875
,,,-2.12E-06,0.01682625
,,,-2.11E-06,0.016369375
,,,-2.1E-06,0.016830625
,,,-2.09E-06,0.01686875
,,,-2.08E-06,0.01696375
,,,-2.07E-06,0.016535
,,,-2.06E-06,0.016825
,,,-2.05E-06,0.016464375
,,,-2.04E-06,0.016581875
,,,-2.03E-06,0.01673375
,,,-2.02E-06,0.016751875
,,,-2.01E-06,0.0165625
,,,-2E-06,0.016854375
,,,-1.99E-06,0.016791875
,,,-1.98E-06,0.01675875
,,,-1.97E-06,0.016694375
,,,-1.96E-06,0.016833125
,,,-1.95E-06,0.016824375
,,,-1.94E-06,0.016741875
,,,-1.93E-06,0.016899375
,,,-1.92E-06,0.0168325
,,,-1.91E-06,0.016841875
,,,-1.9E-06,0.01686625
,,,-1.89E-06,0.016779375
,,,-1.88E-06,0.016733125
,,,-1.87E-06,0.01661125
,,,-1.86E-06,0.016701875
,,,-1.85E-06,0.01665875
,,,-1.84E-06,0.0166275
,,,-1.83E-06,0.01687375
,,,-1.82E-06,0.01667875
,,,-1.81E-06,0.0168475
,,,-1.8E-06,0.01677125
,,,-1.79E-06,0.01675125
,,,-1.78E-06,0.01675125
,,,-1.77E-06,0.016524375
,,,-1.76E-06,0.016935
,,,-1.75E-06,0.01678125
,,,-1.74E-06,0.016843125
,,,-1.73E-06,0.016794375
,,,-1.72E-06,0.01661875
,,,-1.71E-06,0.01689
,,,-1.7E-06,0.01686
,,,-1.69E-06,0.01671875
,,,-1.68E-06,0.0169425
,,,-1.67E-06,0.016858125
,,,-1.66E-06,0.016725625
,,,-1.65E-06,0.016760625
,,,-1.64E-06,0.0166575
,,,-1.63E-06,0.01653875
,,,-1.62E-06,0.016763125
,,,-1.61E-06,0.01655375
,,,-1.6E-06,0.01684875
,,,-1.59E-06,0.016861875
,,,-1.58E-06,0.016953125
,,,-1.57E-06,0.016814375
,,,-1.56E-06,0.0167275
,,,-1.55E-06,0.016800625
,,,-1.54E-06,0.01671
,,,-1.53E-06,0.016821875
,,,-1.52E-06,0.0166825
,,,-1.51E-06,0.01673375
,,,-1.5E-06,0.016739375
,,,-1.49E-06,0.016891875
,,,-1.48E-06,0.01675625
,,,-1.47E-06,0.016865625
,,,-1.46E-06,0.016911875
,,,-1.45E-06,0.016664375
,,,-1.44E-06,0.016735
,,,-1.43E-06,0.016841875
,,,-1.42E-06,0.016735
,,,-1.41E-06,0.01679375
,,,-1.4E-06,0.01683
,,,-1.39E-06,0.016659375
,,,-1.38E-06,0.016704375
,,,-1.37E-06,0.016930625
,,,-1.36E-06,0.016818125
,,,-1.35E-06,0.0168375
,,,-1.34E-06,0.016728125
,,,-1.33E-06,0.016686875
,,,-1.32E-06,0.016771875
,,,-1.31E-06,0.01664125
,,,-1.3E-06,0.01674875
,,,-1.29E-06,0.016594375
,,,-1.28E-06,0.0166875
,,,-1.27E-06,0.01661125
,,,-1.26E-06,0.016846875
,,,-1.25E-06,0.016921875
,,,-1.24E-06,0.01684
,,,-1.23E-06,0.016750625
,,,-1.22E-06,0.016586875
,,,-1.21E-06,0.0167825
,,,-1.2E-06,0.016610625
,,,-1.19E-06,0.01691125
,,,-1.18E-06,0.01678
,,,-1.17E-06,0.01687125
,,,-1.16E-06,0.016771875
,,,-1.15E-06,0.01687625
,,,-1.14E-06,0.01683875
,,,-1.13E-06,0.01678375
,,,-1.12E-06,0.01677125
,,,-1.11E-06,0.0167875
,,,-1.1E-06,0.016836875
,,,-1.09E-06,0.016608125
,,,-1.08E-06,0.01670125
,,,-1.07E-06,0.016611875
,,,-1.06E-06,0.016831875
,,,-1.05E-06,0.01663
,,,-1.04E-06,0.0167525
,,,-1.03E-06,0.01678
,,,-1.02E-06,0.016660625
,,,-1.01E-06,0.01668625
,,,-1E-06,0.01675375
,,,-9.9E-07,0.01679
,,,-9.8E-07,0.016935
,,,-9.7E-07,0.016768125
,,,-9.6E-07,0.016734375
,,,-9.5E-07,0.016476875
,,,-9.4E-07,0.01660125
,,,-9.3E-07,0.01691
,,,-9.2E-07,0.016748125
,,,-9.1E-07,0.016864375
,,,-9E-07,0.016805
,,,-8.9E-07,0.016765
,,,-8.8E-07,0.016865625
,,,-8.7E-07,0.01675875
,,,-8.6E-07,0.016781875
,,,-8.5E-07,0.01681125
,,,-8.4E-07,0.016884375
,,,-8.3E-07,0.0168375
,,,-8.2E-07,0.0168725
,,,-8.1E-07,0.0166525
,,,-8E-07,0.01678
,,,-7.9E-07,0.016835625
,,,-7.8E-07,0.016935
,,,-7.7E-07,0.016788125
,,,-7.6E-07,0.01676375
,,,-7.5E-07,0.01671375
,,,-7.4E-07,0.016509375
,,,-7.3E-07,0.01660625
,,,-7.2E-07,0.016641875
,,,-7.1E-07,0.016740625
,,,-7E-07,0.0170575
,,,-6.9E-07,0.01666
,,,-6.8E-07,0.017
,,,-6.7E-07,0.016865
,,,-6.6E-07,0.016595
,,,-6.5E-07,0.016804375
,,,-6.4E-07,0.016785
,,,-6.3E-07,0.01670625
,,,-6.2E-07,0.016745
,,,-6.1E-07,0.016715625
,,,-6E-07,0.01713125
,,,-5.9E-07,0.01681625
,,,-5.8E-07,0.0167725
,,,-5.7E-07,0.016486875
,,,-5.6E-07,0.016896875
,,,-5.5E-07,0.0167875
,,,-5.4E-07,0.0166325
,,,-5.3E-07,0.016931875
,,,-5.2E-07,0.016778125
,,,-5.1E-07,0.016935625
,,,-5E-07,0.01679
,,,-4.9E-07,0.01676625
,,,-4.8E-07,0.016688125
,,,-4.7E-07,0.01640125
,,,-4.6E-07,0.01668125
,,,-4.5E-07,0.01679
,,,-4.4E-07,0.01669625
,,,-4.3E-07,0.016808125
,,,-4.2E-07,0.0170925
,,,-4.1E-07,0.016721875
,,,-4E-07,0.016429375
,,,-3.9E-07,0.016699375
,,,-3.8E-07,0.0168875
,,,-3.7E-07,0.01685625
,,,-3.6E-07,0.0166675
,,,-3.5E-07,0.01663
,,,-3.4E-07,0.01684375
,,,-3.3E-07,0.016845625
,,,-3.2E-07,0.016735
,,,-3.1E-07,0.016796875
,,,-3E-07,0.01643875
,,,-2.9E-07,0.016696875
,,,-2.8E-07,0.01650625
,,,-2.7E-07,0.016761875
,,,-2.6E-07,0.01678375
,,,-2.5E-07,0.016581875
,,,-2.4E-07,0.016635
,,,-2.3E-07,0.016835
,,,-2.2E-07,0.016713125
,,,-2.1E-07,0.016805625
,,,-2E-07,0.016769375
,,,-1.9E-07,0.016729375
,,,-1.8E-07,0.016694375
,,,-1.7E-07,0.016596875
,,,-1.6E-07,0.016509375
,,,-1.5E-07,0.01661875
,,,-1.4E-07,0.016796875
,,,-1.3E-07,0.016785
,,,-1.2E-07,0.016696875
,,,-1.1E-07,0.017053125
,,,-1E-07,0.017071875
,,,-9E-08,0.01689625
,,,-8E-08,0.01698375
,,,-7E-08,0.01643875
,,,-6E-08,0.0167575
,,,-5E-08,0.01690875
,,,-4E-08,0.01743875
,,,-3E-08,0.01812375
,,,-2E-08,0.0156925
,,,-1E-08,0.013604375
,,,0,0.014090625
,,,1E-08,0.018805
,,,2E-08,0.02089625
,,,3E-08,0.019945
,,,4E-08,0.015921875
,,,5E-08,0.0140075
,,,6E-08,0.013645
,,,7E-08,0.01547375
,,,8E-08,0.01725875
,,,9E-08,0.018753125
,,,1E-07,0.018734375
,,,1.1E-07,0.01743875
,,,1.2E-07,0.0156175
,,,1.3E-07,0.015069375
,,,1.4E-07,0.0160375
,,,1.5E-07,0.017175625
,,,1.6E-07,0.017335
,,,1.7E-07,0.017056875
,,,1.8E-07,0.016654375
,,,1.9E-07,0.016874375
,,,2E-07,0.016566875
,,,2.1E-07,0.016541875
,,,2.2E-07,0.01624625
,,,2.3E-07,0.016820625
,,,2.4E-07,0.01687
,,,2.5E-07,0.016778125
,,,2.6E-07,0.016628125
,,,2.7E-07,0.01696
,,,2.8E-07,0.016875625
,,,2.9E-07,0.016686875
,,,3E-07,0.016684375
,,,3.1E-07,0.01696
,,,3.2E-07,0.01672625
,,,3.3E-07,0.0170575
,,,3.4E-07,0.01698
,,,3.5E-07,0.016859375
,,,3.6E-07,0.01681125
,,,3.7E-07,0.016634375
,,,3.8E-07,0.016890625
,,,3.9E-07,0.016815
,,,4E-07,0.016781875
,,,4.1E-07,0.016576875
,,,4.2E-07,0.01676375
,,,4.3E-07,0.016680625
,,,4.4E-07,0.016875
,,,4.5E-07,0.016675
,,,4.6E-07,0.0169725
,,,4.7E-07,0.016610625
,,,4.8E-07,0.016731875
,,,4.9E-07,0.01664875
,,,5E-07,0.016924375
,,,5.1E-07,0.016826875
,,,5.2E-07,0.01692375
,,,5.3E-07,0.016745
,,,5.4E-07,0.01686125
,,,5.5E-07,0.01646
,,,5.6E-07,0.016778125
,,,5.7E-07,0.016743125
,,,5.8E-07,0.016860625
,,,5.9E-07,0.0169
,,,6E-07,0.016793125
,,,6.1E-07,0.0166675
,,,6.2E-07,0.017065
,,,6.3E-07,0.01674875
,,,6.4E-07,0.016760625
,,,6.5E-07,0.016798125
,,,6.6E-07,0.01693375
,,,6.7E-07,0.016584375
,,,6.8E-07,0.016795625
,,,6.9E-07,0.0166175
,,,7E-07,0.016598125
,,,7.1E-07,0.016741875
,,,7.2E-07,0.016658125
,,,7.3E-07,0.01677375
,,,7.4E-07,0.016628125
,,,7.5E-07,0.016758125
,,,7.6E-07,0.016885
,,,7.7E-07,0.016825625
,,,7.8E-07,0.016928125
,,,7.9E-07,0.016674375
,,,8E-07,0.0167825
,,,8.1E-07,0.016801875
,,,8.2E-07,0.016701875
,,,8.3E-07,0.016861875
,,,8.4E-07,0.017040625
,,,8.5E-07,0.01712
,,,8.6E-07,0.0166425
,,,8.7E-07,0.016841875
,,,8.8E-07,0.016498125
,,,8.9E-07,0.0168825
,,,9E-07,0.016865
,,,9.1E-07,0.016799375
,,,9.2E-07,0.016856875
,,,9.3E-07,0.016801875
,,,9.4E-07,0.016673125
,,,9.5E-07,0.01644625
,,,9.6E-07,0.016785
,,,9.7E-07,0.016699375
,,,9.8E-07,0.016835625
,,,9.9E-07,0.0171
,,,1E-06,0.0168775
,,,1.01E-06,0.016749375
,,,1.02E-06,0.0168275
,,,1.03E-06,0.01671
,,,1.04E-06,0.01668375
,,,1.05E-06,0.016571875
,,,1.06E-06,0.01686375
,,,1.07E-06,0.016835625
,,,1.08E-06,0.01691
,,,1.09E-06,0.0168275
,,,1.1E-06,0.01675125
,,,1.11E-06,0.016800625
,,,1.12E-06,0.016894375
,,,1.13E-06,0.0169775
,,,1.14E-06,0.016784375
,,,1.15E-06,0.016870625
,,,1.16E-06,0.017113125
,,,1.17E-06,0.01653125
,,,1.18E-06,0.016691875
,,,1.19E-06,0.016574375
,,,1.2E-06,0.016721875
,,,1.21E-06,0.016740625
,,,1.22E-06,0.016735625
,,,1.23E-06,0.0166775
,,,1.24E-06,0.016736875
,,,1.25E-06,0.01675875
,,,1.26E-06,0.016795625
,,,1.27E-06,0.016740625
,,,1.28E-06,0.016661875
,,,1.29E-06,0.0167175
,,,1.3E-06,0.01678
,,,1.31E-06,0.016639375
,,,1.32E-06,0.01675
,,,1.33E-06,0.016863125
,,,1.34E-06,0.016619375
,,,1.35E-06,0.016645625
,,,1.36E-06,0.016668125
,,,1.37E-06,0.016621875
,,,1.38E-06,0.016848125
,,,1.39E-06,0.016660625
,,,1.4E-06,0.016646875
,,,1.41E-06,0.0166425
,,,1.42E-06,0.016530625
,,,1.43E-06,0.016653125
,,,1.44E-06,0.01679375
,,,1.45E-06,0.016826875
,,,1.46E-06,0.016661875
,,,1.47E-06,0.01666
,,,1.48E-06,0.016524375
,,,1.49E-06,0.01661125
,,,1.5E-06,0.01718125
,,,1.51E-06,0.016734375
,,,1.52E-06,0.016795
,,,1.53E-06,0.016814375
,,,1.54E-06,0.01658875
,,,1.55E-06,0.016795625
,,,1.56E-06,0.016649375
,,,1.57E-06,0.016765
,,,1.58E-06,0.016668125
,,,1.59E-06,0.016689375
,,,1.6E-06,0.01675
,,,1.61E-06,0.016726875
,,,1.62E-06,0.016615
,,,1.63E-06,0.01693125
,,,1.64E-06,0.0168975
,,,1.65E-06,0.016738125
,,,1.66E-06,0.01681625
,,,1.67E-06,0.01665125
,,,1.68E-06,0.016886875
,,,1.69E-06,0.01669375
,,,1.7E-06,0.01682875
,,,1.71E-06,0.016768125
,,,1.72E-06,0.016848125
,,,1.73E-06,0.0167275
,,,1.74E-06,0.016749375
,,,1.75E-06,0.01678125
,,,1.76E-06,0.0167775
,,,1.77E-06,0.0169075
,,,1.78E-06,0.0166525
,,,1.79E-06,0.016733125
,,,1.8E-06,0.01692375
,,,1.81E-06,0.016730625
,,,1.82E-06,0.016821875
,,,1.83E-06,0.01684625
,,,1.84E-06,0.0168525
,,,1.85E-06,0.016759375
,,,1.86E-06,0.016848125
,,,1.87E-06,0.01663875
,,,1.88E-06,0.016686875
,,,1.89E-06,0.01688125
,,,1.9E-06,0.016614375
,,,1.91E-06,0.016745625
,,,1.92E-06,0.016723125
,,,1.93E-06,0.016671875
,,,1.94E-06,0.016755
,,,1.95E-06,0.01696625
,,,1.96E-06,0.016795
,,,1.97E-06,0.01679
,,,1.98E-06,0.01699625
,,,1.99E-06,0.01697
,,,2E-06,0.016698125
,,,2.01E-06,0.016609375
,,,2.02E-06,0.016808125
,,,2.03E-06,0.016750625
,,,2.04E-06,0.016679375
,,,2.05E-06,0.0170025
,,,2.06E-06,0.016791875
,,,2.07E-06,0.016975
,,,2.08E-06,0.0165575
,,,2.09E-06,0.0167075
,,,2.1E-06,0.016754375
,,,2.11E-06,0.01678625
,,,2.12E-06,0.01670875
,,,2.13E-06,0.016755625
,,,2.14E-06,0.01688
,,,2.15E-06,0.016665625
,,,2.16E-06,0.016975
,,,2.17E-06,0.016926875
,,,2.18E-06,0.016508125
,,,2.19E-06,0.016655
,,,2.2E-06,0.016558125
,,,2.21E-06,0.0167625
,,,2.22E-06,0.01653
,,,2.23E-06,0.01678875
,,,2.24E-06,0.016648125
,,,2.25E-06,0.01671375
,,,2.26E-06,0.0167375
,,,2.27E-06,0.016536875
,,,2.28E-06,0.01684625
,,,2.29E-06,0.0169525
,,,2.3E-06,0.016621875
,,,2.31E-06,0.01684375
,,,2.32E-06,0.0167725
,,,2.33E-06,0.016644375
,,,2.34E-06,0.017001875
,,,2.35E-06,0.01679375
,,,2.36E-06,0.016591875
,,,2.37E-06,0.01677875
,,,2.38E-06,0.01672875
,,,2.39E-06,0.01683375
,,,2.4E-06,0.016978125
,,,2.41E-06,0.01698125
,,,2.42E-06,0.01668875
,,,2.43E-06,0.01681
,,,2.44E-06,0.0167725
,,,2.45E-06,0.016836875
,,,2.46E-06,0.016615625
,,,2.47E-06,0.0166225
,,,2.48E-06,0.016920625
,,,2.49E-06,0.01683625
,,,2.5E-06,0.016541875
,,,2.51E-06,0.01678
,,,2.52E-06,0.016806875
,,,2.53E-06,0.016521875
,,,2.54E-06,0.01695125
,,,2.55E-06,0.016759375
,,,2.56E-06,0.01712125
,,,2.57E-06,0.0169875
,,,2.58E-06,0.016870625
,,,2.59E-06,0.01668875
,,,2.6E-06,0.01701625
,,,2.61E-06,0.0169875
,,,2.62E-06,0.016798125
,,,2.63E-06,0.016664375
,,,2.64E-06,0.016724375
,,,2.65E-06,0.01697375
,,,2.66E-06,0.0169825
,,,2.67E-06,0.0165425
,,,2.68E-06,0.01704
,,,2.69E-06,0.016688125
,,,2.7E-06,0.0166375
,,,2.71E-06,0.016845
,,,2.72E-06,0.0168925
,,,2.73E-06,0.01677875
,,,2.74E-06,0.016656875
,,,2.75E-06,0.0165175
,,,2.76E-06,0.0168375
,,,2.77E-06,0.01705125
,,,2.78E-06,0.01706375
,,,2.79E-06,0.01674875
,,,2.8E-06,0.016934375
,,,2.81E-06,0.01656
,,,2.82E-06,0.016936875
,,,2.83E-06,0.016846875
,,,2.84E-06,0.016654375
,,,2.85E-06,0.0166975
,,,2.86E-06,0.016633125
,,,2.87E-06,0.01689875
,,,2.88E-06,0.0166725
,,,2.89E-06,0.016811875
,,,2.9E-06,0.016726875
,,,2.91E-06,0.016795
,,,2.92E-06,0.016621875
,,,2.93E-06,0.01667375
,,,2.94E-06,0.0168875
,,,2.95E-06,0.01674875
,,,2.96E-06,0.01662125
,,,2.97E-06,0.016784375
,,,2.98E-06,0.01669375
,,,2.99E-06,0.016755
,,,3E-06,0.0166925
,,,3.01E-06,0.0165625
,,,3.02E-06,0.0171025
,,,3.03E-06,0.016764375
,,,3.04E-06,0.0166
,,,3.05E-06,0.016871875
,,,3.06E-06,0.01685
,,,3.07E-06,0.0167225
,,,3.08E-06,0.016565
,,,3.09E-06,0.016635625
,,,3.1E-06,0.016979375
,,,3.11E-06,0.016691875
,,,3.12E-06,0.016589375
,,,3.13E-06,0.016861875
,,,3.14E-06,0.01678
,,,3.15E-06,0.016586875
,,,3.16E-06,0.017039375
,,,3.17E-06,0.016736875
,,,3.18E-06,0.016834375
,,,3.19E-06,0.016915
,,,3.2E-06,0.016549375
,,,3.21E-06,0.016759375
,,,3.22E-06,0.016856875
,,,3.23E-06,0.016781875
,,,3.24E-06,0.01669125
,,,3.25E-06,0.01663375
,,,3.26E-06,0.0166425
,,,3.27E-06,0.01683
,,,3.28E-06,0.016736875
,,,3.29E-06,0.01682125
,,,3.3E-06,0.01690375
,,,3.31E-06,0.016706875
,,,3.32E-06,0.016839375
,,,3.33E-06,0.0168
,,,3.34E-06,0.01672625
,,,3.35E-06,0.01657
,,,3.36E-06,0.0167125
,,,3.37E-06,0.016659375
,,,3.38E-06,0.01674
,,,3.39E-06,0.017
,,,3.4E-06,0.016785
,,,3.41E-06,0.01650125
,,,3.42E-06,0.016689375
,,,3.43E-06,0.0165925
,,,3.44E-06,0.017054375
,,,3.45E-06,0.016689375
,,,3.46E-06,0.01675375
,,,3.47E-06,0.016726875
,,,3.48E-06,0.016939375
,,,3.49E-06,0.016864375
,,,3.5E-06,0.01670125
,,,3.51E-06,0.016796875
,,,3.52E-06,0.016708125
,,,3.53E-06,0.016980625
,,,3.54E-06,0.01678125
,,,3.55E-06,0.01711375
,,,3.56E-06,0.01682625
,,,3.57E-06,0.016870625
,,,3.58E-06,0.016983125
,,,3.59E-06,0.016753125
