data/raw/Final_POL_Test_1/SOP001_Ch3.csv

"Record Length",1000,"Points",-5E-06,0.022158751
"Sample Interval",1E-08,s,-4.99E-06,0.021971251
"Trigger Point",500,"Samples",-4.98E-06,0.022008126
"Trigger Time",0,s,-4.97E-06,0.022204376
"",,,-4.96E-06,0.022165626
"Horizontal Offset",-5E-06,s,-4.95E-06,0.022339376
,,,-4.94E-06,0.022395001
,,,-4.93E-06,0.022217501
,,,-4.92E-06,0.021970001
,,,-4.91E-06,0.022151251
,,,-4.9E-06,0.021993126
,,,-4.89E-06,0.022075626
,,,-4.88E-06,0.022335626
,,,-4.87E-06,0.022005626
,,,-4.86E-06,0.021848751
,,,-4.85E-06,0.022110001
,,,-4.84E-06,0.022098751
,,,-4.83E-06,0.022185001
,,,-4.82E-06,0.022265626
,,,-4.81E-06,0.022118751
,,,-4.8E-06,0.021990001
,,,-4.79E-06,0.022146251
,,,-4.78E-06,0.022465626
,,,-4.77E-06,0.021977501
,,,-4.76E-06,0.022041876
,,,-4.75E-06,0.022290001
,,,-4.74E-06,0.022021251
,,,-4.73E-06,0.022169376
,,,-4.72E-06,0.022392501
,,,-4.71E-06,0.021937501
,,,-4.7E-06,0.022108751
,,,-4.69E-06,0.022353751
,,,-4.68E-06,0.022022501
,,,-4.67E-06,0.021922501
,,,-4.66E-06,0.022245001
,,,-4.65E-06,0.022257501
,,,-4.64E-06,0.022106876
,,,-4.63E-06,0.022249376
,,,-4.62E-06,0.022281251
,,,-4.61E-06,0.022033751
,,,-4.6E-06,0.021971251
,,,-4.59E-06,0.022083751
,,,-4.58E-06,0.022203751
,,,-4.57E-06,0.022182501
,,,-4.56E-06,0.022193751
,,,-4.55E-06,0.021928751
,,,-4.54E-06,0.022154376
,,,-4.53E-06,0.021823126
,,,-4.52E-06,0.022147501
,,,-4.51E-06,0.021983751
,,,-4.5E-06,0.022280001
,,,-4.49E-06,0.021940626
,,,-4.48E-06,0.021998126
,,,-4.47E-06,0.021908126
,,,-4.46E-06,0.022011876
,,,-4.45E-06,0.022110626
,,,-4.44E-06,0.022212501
,,,-4.43E-06,0.021983126
,,,-4.42E-06,0.022052501
,,,-4.41E-06,0.022221251
,,,-4.4E-06,0.022073126
,,,-4.39E-06,0.022085626
,,,-4.38E-06,0.022181876
,,,-4.37E-06,0.022155001
,,,-4.36E-06,0.022046876
,,,-4.35E-06,0.022128126
,,,-4.34E-06,0.022143751
,,,-4.33E-06,0.021988126
,,,-4.32E-06,0.022117501
,,,-4.31E-06,0.022138126
,,,-4.3E-06,0.022081251
,,,-4.29E-06,0.022369376
,,,-4.28E-06,0.022087501
,,,-4.27E-06,0.022066251
,,,-4.26E-06,0.022280626
,,,-4.25E-06,0.021881876
,,,-4.24E-06,0.022126251
,,,-4.23E-06,0.022238751
,,,-4.22E-06,0.022258751
,,,-4.21E-06,0.022102501
,,,-4.2E-06,0.022103751
,,,-4.19E-06,0.022333126
,,,-4.18E-06,0.021720001
,,,-4.17E-06,0.022105626
,,,-4.16E-06,0.022204376
,,,-4.15E-06,0.022090001
,,,-4.14E-06,0.022054376
,,,-4.13E-06,0.022071876
,,,-4.12E-06,0.022178126
,,,-4.11E-06,0.021954376
,,,-4.1E-06,0.022108126
,,,-4.09E-06,0.022081251
,,,-4.08E-06,0.022144376
,,,-4.07E-06,0.022260001
,,,-4.06E-06,0.022390626
,,,-4.05E-06,0.022216251
,,,-4.04E-06,0.022245001
,,,-4.03E-06,0.022037501
,,,-4.02E-06,0.022210001
,,,-4.01E-06,0.022098751
,,,-4E-06,0.022231251
,,,-3.99E-06,0.022126876
,,,-3.98E-06,0.022203126
,,,-3.97E-06,0.022145001
,,,-3.96E-06,0.021911251
,,,-3.95E-06,0.021995626
,,,-3.94E-06,0.021990626
,,,-3.93E-06,0.021906251
,,,-3.92E-06,0.021961876
,,,-3.91E-06,0.022131251
,,,-3.9E-06,0.022248751
,,,-3.89E-06,0.022061876
,,,-3.88E-06,0.022280001
,,,-3.87E-06,0.022030001
,,,-3.86E-06,0.021888751
,,,-3.85E-06,0.022092501
,,,-3.84E-06,0.022216251
,,,-3.83E-06,0.022045001
,,,-3.82E-06,0.021991251
,,,-3.81E-06,0.022023751
,,,-3.8E-06,0.022153751
,,,-3.79E-06,0.022035626
,,,-3.78E-06,0.022248751
,,,-3.77E-06,0.022201876
,,,-3.76E-06,0.021970626
,,,-3.75E-06,0.022339376
,,,-3.74E-06,0.022180001
,,,-3.73E-06,0.022235001
,,,-3.72E-06,0.022155001
,,,-3.71E-06,0.022206876
,,,-3.7E-06,0.022011251
,,,-3.69E-06,0.022089376
,,,-3.68E-06,0.022028751
,,,-3.67E-06,0.022350001
,,,-3.66E-06,0.022078751
,,,-3.65E-06,0.022253126
,,,-3.64E-06,0.022118751
,,,-3.63E-06,0.022222501
,,,-3.62E-06,0.022288751
,,,-3.61E-06,0.022118751
,,,-3.6E-06,0.022321876
,,,-3.59E-06,0.022231876
,,,-3.58E-06,0.021940626
,,,-3.57E-06,0.022308126
,,,-3.56E-06,0.022413751
,,,-3.55E-06,0.021896876
,,,-3.54E-06,0.022029376
,,,-3.53E-06,0.022168751
,,,-3.52E-06,0.022111876
,,,-3.51E-06,0.022105626
,,,-3.5E-06,0.022298751
,,,-3.49E-06,0.022322501
,,,-3.48E-06,0.022000001
,,,-3.47E-06,0.022355001
,,,-3.46E-06,0.022042501
,,,-3.45E-06,0.022055001
,,,-3.44E-06,0.022275626
,,,-3.43E-06,0.022023126
,,,-3.42E-06,0.022066251
,,,-3.41E-06,0.022230001
,,,-3.4E-06,0.022397501
,,,-3.39E-06,0.022071251
,,,-3.38E-06,0.022098126
,,,-3.37E-06,0.022032501
,,,-3.36E-06,0.021941876
,,,-3.35E-06,0.022185001
,,,-3.34E-06,0.022337501
,,,-3.33E-06,0.022003751
,,,-3.32E-06,0.022143751
,,,-3.31E-06,0.022121251
,,,-3.3E-06,0.022072501
,,,-3.29E-06,0.022290001
,,,-3.28E-06,0.021947501
,,,-3.27E-06,0.022074376
,,,-3.26E-06,0.021993751
,,,-3.25E-06,0.022268751
,,,-3.24E-06,0.022033126
,,,-3.23E-06,0.022008751
,,,-3.22E-06,0.022137501
,,,-3.21E-06,0.022091251
,,,-3.2E-06,0.022008751
,,,-3.19E-06,0.022071251
,,,-3.18E-06,0.021782501
,,,-3.17E-06,0.021871251
,,,-3.16E-06,0.022181251
,,,-3.15E-06,0.022258751
,,,-3.14E-06,0.022095626
,,,-3.13E-06,0.021988126
,,,-3.12E-06,0.021956876
,,,-3.11E-06,0.022001876
,,,-3.1E-06,0.022033126
,,,-3.09E-06,0.021938751
,,,-3.08E-06,0.021990626
,,,-3.07E-06,0.022042501
,,,-3.06E-06,0.022008751
,,,-3.05E-06,0.022176876
,,,-3.04E-06,0.021880626
,,,-3.03E-06,0.022288126
,,,-3.02E-06,0.021913126
,,,-3.01E-06,0.022109376
,,,-3E-06,0.022151876
,,,-2.99E-06,0.022049376
,,,-2.98E-06,0.021809376
,,,-2.97E-06,0.022351876
,,,-2.96E-06,0.022298126
,,,-2.95E-06,0.022278126
,,,-2.94E-06,0.022050626
,,,-2.93E-06,0.022305626
,,,-2.92E-06,0.021977501
,,,-2.91E-06,0.022298751
,,,-2.9E-06,0.022165001
,,,-2.89E-06,0.022037501
,,,-2.88E-06,0.021896251
,,,-2.87E-06,0.022177501
,,,-2.86E-06,0.022001876
,,,-2.85E-06,0.022260001
,,,-2.84E-06,0.022222501
,,,-2.83E-06,0.022220626
,,,-2.82E-06,0.022178751
,,,-2.81E-06,0.021995626
,,,-2.8E-06,0.021886876
,,,-2.79E-06,0.022078126
,,,-2.78E-06,0.022106876
,,,-2.77E-06,0.021744376
,,,-2.76E-06,0.022266251
,,,-2.75E-06,0.022457501
,,,-2.74E-06,0.022131876
,,,-2.73E-06,0.021960001
,,,-2.72E-06,0.022248126
,,,-2.71E-06,0.021892501
,,,-2.7E-06,0.021988751
,,,-2.69E-06,0.021920626
,,,-2.68E-06,0.022023751
,,,-2.67E-06,0.022152501
,,,-2.66E-06,0.022345001
,,,-2.65E-06,0.022028751
,,,-2.64E-06,0.021688751
,,,-2.63E-06,0.022001251
,,,-2.62E-06,0.022224376
,,,-2.61E-06,0.021762501
,,,-2.6E-06,0.022189376
,,,-2.59E-06,0.021993751
,,,-2.58E-06,0.022031251
,,,-2.57E-06,0.022356876
,,,-2.56E-06,0.022291876
,,,-2.55E-06,0.022153751
,,,-2.54E-06,0.022216251
,,,-2.53E-06,0.022045626
,,,-2.52E-06,0.022103751
,,,-2.51E-06,0.022017501
,,,-2.5E-06,0.022126876
,,,-2.49E-06,0.022053751
,,,-2.48E-06,0.022227501
,,,-2.47E-06,0.022213751
,,,-2.46E-06,0.022047501
,,,-2.45E-06,0.022140001
,,,-2.44E-06,0.022228751
,,,-2.43E-06,0.022142501
,,,-2.42E-06,0.022108126
,,,-2.41E-06,0.022269376
,,,-2.4E-06,0.022363751
,,,-2.39E-06,0.022242501
,,,-2.38E-06,0.022011251
,,,-2.37E-06,0.022178751
,,,-2.36E-06,0.022180001
,,,-2.35E-06,0.022383751
,,,-2.34E-06,0.022469376
,,,-2.33E-06,0.022306876
,,,-2.32E-06,0.021858751
,,,-2.31E-06,0.022106876
,,,-2.3E-06,0.022108126
,,,-2.29E-06,0.021820626
,,,-2.28E-06,0.022197501
,,,-2.27E-06,0.022082501
,,,-2.26E-06,0.022011876
,,,-2.25E-06,0.021973751
,,,-2.24E-06,0.022367501
,,,-2.23E-06,0.021898751
,,,-2.22E-06,0.022216251
,,,-2.21E-06,0.022145001
,,,-2.2E-06,0.022126876
,,,-2.19E-06,0.022154376
,,,-2.18E-06,0.022140001
,,,-2.17E-06,0.022036251
,,,-2.16E-06,0.021888126
,,,-2.15E-06,0.022058126
,,,-2.14E-06,0.022068751
,,,-2.13E-06,0.021889376
,,,-2.12E-06,0.022210626
,,,-2.11E-06,0.021954376
,,,-2.1E-06,0.022143126
,,,-2.09E-06,0.022125001
,,,-2.08E-06,0.022125001
,,,-2.07E-06,0.022172501
,,,-2.06E-06,0.022323751
,,,-2.05E-06,0.022010001
,,,-2.04E-06,0.022043751
,,,-2.03E-06,0.022080001
,,,-2.02E-06,0.022099376
,,,-2.01E-06,0.022023751
,,,-2E-06,0.021989376
,,,-1.99E-06,0.022246251
,,,-1.98E-06,0.021902501
,,,-1.97E-06,0.022370626
,,,-1.96E-06,0.022038751
,,,-1.95E-06,0.021898126
,,,-1.94E-06,0.022216251
,,,-1.93E-06,0.022268751
,,,-1.92E-06,0.021917501
,,,-1.91E-06,0.022104376
,,,-1.9E-06,0.022160001
,,,-1.89E-06,0.021973126
,,,-1.88E-06,0.021973751
,,,-1.87E-06,0.022293126
,,,-1.86E-06,0.022187501
,,,-1.85E-06,0.022263751
,,,-1.84E-06,0.022068126
,,,-1.83E-06,0.022078126
,,,-1.82E-06,0.022138126
,,,-1.81E-06,0.022240001
,,,-1.8E-06,0.022115001
,,,-1.79E-06,0.022041251
,,,-1.78E-06,0.022303126
,,,-1.77E-06,0.022099376
,,,-1.76E-06,0.021953751
,,,-1.75E-06,0.022255626
,,,-1.74E-06,0.022307501
,,,-1.73E-06,0.022045626
,,,-1.72E-06,0.022057501
,,,-1.71E-06,0.021790626
,,,-1.7E-06,0.021835626
,,,-1.69E-06,0.021880626
,,,-1.68E-06,0.022218751
,,,-1.67E-06,0.022220626
,,,-1.66E-06,0.022236876
,,,-1.65E-06,0.022125001
,,,-1.64E-06,0.022099376
,,,-1.63E-06,0.022248751
,,,-1.62E-06,0.022143751
,,,-1.61E-06,0.021926876
,,,-1.6E-06,0.022301876
,,,-1.59E-06,0.022333751
,,,-1.58E-06,0.021855626
,,,-1.57E-06,0.022145626
,,,-1.56E-06,0.022088751
,,,-1.55E-06,0.021934376
,,,-1.54E-06,0.021946251
,,,-1.53E-06,0.022231876
,,,-1.52E-06,0.022048126
,,,-1.51E-06,0.022026876
,,,-1.5E-06,0.022141251
,,,-1.49E-06,0.022116251
,,,-1.48E-06,0.021888751
,,,-1.47E-06,0.022093751
,,,-1.46E-06,0.022150626
,,,-1.45E-06,0.021874376
,,,-1.44E-06,0.022044376
,,,-1.43E-06,0.021968751
,,,-1.42E-06,0.021940626
,,,-1.41E-06,0.022215626
,,,-1.4E-06,0.022130001
,,,-1.39E-06,0.022005626
,,,-1.38E-06,0.022230001
,,,-1.37E-06,0.022190626
,,,-1.36E-06,0.022350626
,,,-1.35E-06,0.022154376
,,,-1.34E-06,0.022079376
,,,-1.33E-06,0.022301251
,,,-1.32E-06,0.022265001
,,,-1.31E-06,0.022152501
,,,-1.3E-06,0.021943126
,,,-1.29E-06,0.021975626
,,,-1.28E-06,0.022173751
,,,-1.27E-06,0.022106876
,,,-1.26E-06,0.022101876
,,,-1.25E-06,0.022305001
,,,-1.24E-06,0.022138126
,,,-1.23E-06,0.022050626
,,,-1.22E-06,0.021976251
,,,-1.21E-06,0.021928751
,,,-1.2E-06,0.022224376
,,,-1.19E-06,0.022054376
,,,-1.18E-06,0.022281876
,,,-1.17E-06,0.022192501
,,,-1.16E-06,0.021960626
,,,-1.15E-06,0.022416251
,,,-1.14E-06,0.021856876
,,,-1.13E-06,0.022239376
,,,-1.12E-06,0.022011876
,,,-1.11E-06,0.022121876
,,,-1.1E-06,0.022143751
,,,-1.09E-06,0.022060001
,,,-1.08E-06,0.022253126
,,,-1.07E-06,0.021737501
,,,-1.06E-06,0.022010001
,,,-1.05E-06,0.022063126
,,,-1.04E-06,0.021957501
,,,-1.03E-06,0.022031876
,,,-1.02E-06,0.022016251
,,,-1.01E-06,0.021913126
,,,-1E-06,0.022255001
,,,-9.9E-07,0.022142501
,,,-9.8E-07,0.022005626
,,,-9.7E-07,0.021966251
,,,-9.6E-07,0.022246251
,,,-9.5E-07,0.022228126
,,,-9.4E-07,0.022140001
,,,-9.3E-07,0.022201876
,,,-9.2E-07,0.021936251
,,,-9.1E-07,0.022203126
,,,-9E-07,0.022451251
,,,-8.9E-07,0.021926251
,,,-8.8E-07,0.021956876
,,,-8.7E-07,0.022158751
,,,-8.6E-07,0.021967501
,,,-8.5E-07,0.022209376
,,,-8.4E-07,0.022528126
,,,-8.3E-07,0.022277501
,,,-8.2E-07,0.021981876
,,,-8.1E-07,0.022122501
,,,-8E-07,0.022255626
,,,-7.9E-07,0.021697501
,,,-7.8E-07,0.022096251
,,,-7.7E-07,0.022202501
,,,-7.6E-07,0.022269376
,,,-7.5E-07,0.022111876
,,,-7.4E-07,0.022188751
,,,-7.3E-07,0.022018126
,,,-7.2E-07,0.022122501
,,,-7.1E-07,0.022053751
,,,-7E-07,0.022067501
,,,-6.9E-07,0.022076251
,,,-6.8E-07,0.022280626
,,,-6.7E-07,0.021785001
,,,-6.6E-07,0.022111876
,,,-6.5E-07,0.021903751
,,,-6.4E-07,0.022076251
,,,-6.3E-07,0.022212501
,,,-6.2E-07,0.022045001
,,,-6.1E-07,0.021991876
,,,-6E-07,0.022175626
,,,-5.9E-07,0.022077501
,,,-5.8E-07,0.022178126
,,,-5.7E-07,0.022000001
,,,-5.6E-07,0.021851876
,,,-5.5E-07,0.022046251
,,,-5.4E-07,0.022062501
,,,-5.3E-07,0.022116876
,,,-5.2E-07,0.022018751
,,,-5.1E-07,0.022003751
,,,-5E-07,0.021862501
,,,-4.9E-07,0.022221876
,,,-4.8E-07,0.021990001
,,,-4.7E-07,0.022261876
,,,-4.6E-07,0.022095626
,,,-4.5E-07,0.022207501
,,,-4.4E-07,0.022066251
,,,-4.3E-07,0.022328751
,,,-4.2E-07,0.022053751
,,,-4.1E-07,0.022101876
,,,-4E-07,0.022105626
,,,-3.9E-07,0.022084376
,,,-3.8E-07,0.022146876
,,,-3.7E-07,0.022103126
,,,-3.6E-07,0.022287501
,,,-3.5E-07,0.021767501
,,,-3.4E-07,0.021990626
,,,-3.3E-07,0.021994376
,,,-3.2E-07,0.022138751
,,,-3.1E-07,0.022197501
,,,-3E-07,0.022028126
,,,-2.9E-07,0.021837501
,,,-2.8E-07,0.021967501
,,,-2.7E-07,0.022256251
,,,-2.6E-07,0.022112501
,,,-2.5E-07,0.022288126
,,,-2.4E-07,0.021988126
,,,-2.3E-07,0.022177501
,,,-2.2E-07,0.022085001
,,,-2.1E-07,0.022333751
,,,-2E-07,0.022111876
,,,-1.9E-07,0.022029376
,,,-1.8E-07,0.022168126
,,,-1.7E-07,0.022235001
,,,-1.6E-07,0.022003126
,,,-1.5E-07,0.022282501
,,,-1.4E-07,0.021762501
,,,-1.3E-07,0.022008751
,,,-1.2E-07,0.022124376
,,,-1.1E-07,0.022130001
,,,-1E-07,0.022085626
,,,-9E-08,0.022266876
,,,-8E-08,0.022020001
,,,-7E-08,0.021903126
,,,-6E-08,0.022117501
,,,-5E-08,0.022155001
,,,-4E-08,0.022602501
,,,-3E-08,0.023705626
,,,-2E-08,0.021069376
,,,-1E-08,0.019386251
,,,0,0.017960626
,,,1E-08,0.024509376
,,,2E-08,0.026091876
,,,3E-08,0.025991876
,,,4E-08,0.021730626
,,,5E-08,0.019669376
,,,6E-08,0.018625626
,,,7E-08,0.020852501
,,,8E-08,0.022859376
,,,9E-08,0.024306251
,,,1E-07,0.024468126
,,,1.1E-07,0.023068126
,,,1.2E-07,0.021408126
,,,1.3E-07,0.020474376
,,,1.4E-07,0.021401876
,,,1.5E-07,0.022271251
,,,1.6E-07,0.022963751
,,,1.7E-07,0.022537501
,,,1.8E-07,0.022167501
,,,1.9E-07,0.022309376
,,,2E-07,0.022428126
,,,2.1E-07,0.021517501
,,,2.2E-07,0.021797501
,,,2.3E-07,0.022347501
,,,2.4E-07,0.022227501
,,,2.5E-07,0.022371251
,,,2.6E-07,0.022194376
,,,2.7E-07,0.022000001
,,,2.8E-07,0.021976876
,,,2.9E-07,0.022359376
,,,3E-07,0.022146251
,,,3.1E-07,0.022157501
,,,3.2E-07,0.022412501
,,,3.3E-07,0.022107501
,,,3.4E-07,0.022197501
,,,3.5E-07,0.022238126
,,,3.6E-07,0.021976876
,,,3.7E-07,0.021967501
,,,3.8E-07,0.022026876
,,,3.9E-07,0.022233126
,,,4E-07,0.022103126
,,,4.1E-07,0.022282501
,,,4.2E-07,0.022181251
,,,4.3E-07,0.021981251
,,,4.4E-07,0.022311251
,,,4.5E-07,0.022201251
,,,4.6E-07,0.021679376
,,,4.7E-07,0.022170001
,,,4.8E-07,0.022288751
,,,4.9E-07,0.022076876
,,,5E-07,0.022076251
,,,5.1E-07,0.022095001
,,,5.2E-07,0.022142501
,,,5.3E-07,0.022108126
,,,5.4E-07,0.022231876
,,,5.5E-07,0.022206251
,,,5.6E-07,0.022165626
,,,5.7E-07,0.022305626
,,,5.8E-07,0.022326876
,,,5.9E-07,0.022202501
,,,6E-07,0.022250001
,,,6.1E-07,0.022177501
,,,6.2E-07,0.021967501
,,,6.3E-07,0.021994376
,,,6.4E-07,0.022103126
,,,6.5E-07,0.022106876
,,,6.6E-07,0.022226251
,,,6.7E-07,0.022040001
,,,6.8E-07,0.021992501
,,,6.9E-07,0.021881876
,,,7E-07,0.022220001
,,,7.1E-07,0.022057501
,,,7.2E-07,0.022219376
,,,7.3E-07,0.022130626
,,,7.4E-07,0.022200001
,,,7.5E-07,0.021981876
,,,7.6E-07,0.022218126
,,,7.7E-07,0.021775001
,,,7.8E-07,0.021861876
,,,7.9E-07,0.022130626
,,,8E-07,0.022110626
,,,8.1E-07,0.022060626
,,,8.2E-07,0.022193751
,,,8.3E-07,0.022040626
,,,8.4E-07,0.022056876
,,,8.5E-07,0.022105626
,,,8.6E-07,0.022098126
,,,8.7E-07,0.021928751
,,,8.8E-07,0.022020626
,,,8.9E-07,0.022431251
,,,9E-07,0.022133126
,,,9.1E-07,0.022215626
,,,9.2E-07,0.022274376
,,,9.3E-07,0.022050001
,,,9.4E-07,0.022187501
,,,9.5E-07,0.022088126
,,,9.6E-07,0.021970626
,,,9.7E-07,0.022252501
,,,9.8E-07,0.022303126
,,,9.9E-07,0.022088126
,,,1E-06,0.022134376
,,,1.01E-06,0.022188751
,,,1.02E-06,0.021964376
,,,1.03E-06,0.021842501
,,,1.04E-06,0.022207501
,,,1.05E-06,0.022000001
,,,1.06E-06,0.022380001
,,,1.07E-06,0.022038126
,,,1.08E-06,0.022074376
,,,1.09E-06,0.021957501
,,,1.1E-06,0.022192501
,,,1.11E-06,0.022000001
,,,1.12E-06,0.021977501
,,,1.13E-06,0.022114376
,,,1.14E-06,0.022108126
,,,1.15E-06,0.022033126
,,,1.16E-06,0.022290001
,,,1.17E-06,0.022147501
,,,1.18E-06,0.022045001
,,,1.19E-06,0.022299376
,,,1.2E-06,0.021788751
,,,1.21E-06,0.022011251
,,,1.22E-06,0.022010626
,,,1.23E-06,0.022183126
,,,1.24E-06,0.022204376
,,,1.25E-06,0.022120626
,,,1.26E-06,0.021966251
,,,1.27E-06,0.022275001
,,,1.28E-06,0.022292501
,,,1.29E-06,0.022120001
,,,1.3E-06,0.022108126
,,,1.31E-06,0.021901876
,,,1.32E-06,0.022125626
,,,1.33E-06,0.022014376
,,,1.34E-06,0.021981251
,,,1.35E-06,0.022023751
,,,1.36E-06,0.022138751
,,,1.37E-06,0.021906251
,,,1.38E-06,0.022348751
,,,1.39E-06,0.022391251
,,,1.4E-06,0.022013126
,,,1.41E-06,0.022070001
,,,1.42E-06,0.022366251
,,,1.43E-06,0.022146251
,,,1.44E-06,0.022062501
,,,1.45E-06,0.022173751
,,,1.46E-06,0.022285001
,,,1.47E-06,0.022163751
,,,1.48E-06,0.022145001
,,,1.49E-06,0.022053126
,,,1.5E-06,0.021992501
,,,1.51E-06,0.022539376
,,,1.52E-06,0.022268751
,,,1.53E-06,0.022184376
,,,1.54E-06,0.022389376
,,,1.55E-06,0.022197501
,,,1.56E-06,0.022076251
,,,1.57E-06,0.022246876
,,,1.58E-06,0.021994376
,,,1.59E-06,0.022135001
,,,1.6E-06,0.022100001
,,,1.61E-06,0.022386876
,,,1.62E-06,0.022137501
,,,1.63E-06,0.021945001
,,,1.64E-06,0.022300626
,,,1.65E-06,0.022055001
,,,1.66E-06,0.021803751
,,,1.67E-06,0.022126251
,,,1.68E-06,0.022113751
,,,1.69E-06,0.022185001
,,,1.7E-06,0.021954376
,,,1.71E-06,0.022103126
,,,1.72E-06,0.021797501
,,,1.73E-06,0.022288751
,,,1.74E-06,0.022065626
,,,1.75E-06,0.021959376
,,,1.76E-06,0.022180001
,,,1.77E-06,0.022272501
,,,1.78E-06,0.022085001
,,,1.79E-06,0.022095626
,,,1.8E-06,0.021984376
,,,1.81E-06,0.022012501
,,,1.82E-06,0.022143126
,,,1.83E-06,0.022202501
,,,1.84E-06,0.021984376
,,,1.85E-06,0.022334376
,,,1.86E-06,0.021996876
,,,1.87E-06,0.022118751
,,,1.88E-06,0.022167501
,,,1.89E-06,0.022225626
,,,1.9E-06,0.022400626
,,,1.91E-06,0.022133126
,,,1.92E-06,0.022077501
,,,1.93E-06,0.021898126
,,,1.94E-06,0.022171876
,,,1.95E-06,0.021956876
,,,1.96E-06,0.022108751
,,,1.97E-06,0.022020001
,,,1.98E-06,0.022376876
,,,1.99E-06,0.022206876
,,,2E-06,0.022030001
,,,2.01E-06,0.022374376
,,,2.02E-06,0.022034376
,,,2.03E-06,0.021967501
,,,2.04E-06,0.022068126
,,,2.05E-06,0.022119376
,,,2.06E-06,0.021870626
,,,2.07E-06,0.021939376
,,,2.08E-06,0.022209376
,,,2.09E-06,0.022063751
,,,2.1E-06,0.022101251
,,,2.11E-06,0.022095001
,,,2.12E-06,0.021843126
,,,2.13E-06,0.022120001
,,,2.14E-06,0.022109376
,,,2.15E-06,0.022282501
,,,2.16E-06,0.022061876
,,,2.17E-06,0.021987501
,,,2.18E-06,0.022275626
,,,2.19E-06,0.022058751
,,,2.2E-06,0.022305626
,,,2.21E-06,0.022130626
,,,2.22E-06,0.022012501
,,,2.23E-06,0.022063126
,,,2.24E-06,0.022298751
,,,2.25E-06,0.022180626
,,,2.26E-06,0.022035626
,,,2.27E-06,0.022161876
,,,2.28E-06,0.022095001
,,,2.29E-06,0.022081876
,,,2.3E-06,0.022161876
,,,2.31E-06,0.022111251
,,,2.32E-06,0.021955001
,,,2.33E-06,0.022134376
,,,2.34E-06,0.022030626
,,,2.35E-06,0.021995001
,,,2.36E-06,0.022055001
,,,2.37E-06,0.022005001
,,,2.38E-06,0.022255626
,,,2.39E-06,0.022251876
,,,2.4E-06,0.021805001
,,,2.41E-06,0.021940001
,,,2.42E-06,0.022133126
,,,2.43E-06,0.022050001
,,,2.44E-06,0.022054376
,,,2.45E-06,0.022182501
,,,2.46E-06,0.022032501
,,,2.47E-06,0.022385001
,,,2.48E-06,0.022177501
,,,2.49E-06,0.022237501
,,,2.5E-06,0.021831876
,,,2.51E-06,0.022141251
,,,2.52E-06,0.022139376
,,,2.53E-06,0.021868126
,,,2.54E-06,0.022146876
,,,2.55E-06,0.022308126
,,,2.56E-06,0.021881251
,,,2.57E-06,0.022153751
,,,2.58E-06,0.022341876
,,,2.59E-06,0.021959376
,,,2.6E-06,0.021980626
,,,2.61E-06,0.022168126
,,,2.62E-06,0.021643751
,,,2.63E-06,0.022023126
,,,2.64E-06,0.022266876
,,,2.65E-06,0.022101251
,,,2.66E-06,0.022094376
,,,2.67E-06,0.022268751
,,,2.68E-06,0.021918751
,,,2.69E-06,0.021849376
,,,2.7E-06,0.022136251
,,,2.71E-06,0.021863751
,,,2.72E-06,0.021895626
,,,2.73E-06,0.022215001
,,,2.74E-06,0.021958126
,,,2.75E-06,0.022155001
,,,2.76E-06,0.022251876
,,,2.77E-06,0.022127501
,,,2.78E-06,0.022027501
,,,2.79E-06,0.021956876
,,,2.8E-06,0.022250001
,,,2.81E-06,0.022306251
,,,2.82E-06,0.022156876
,,,2.83E-06,0.022106876
,,,2.84E-06,0.021968126
,,,2.85E-06,0.021796251
,,,2.86E-06,0.022271876
,,,2.87E-06,0.022246251
,,,2.88E-06,0.022185626
,,,2.89E-06,0.022168126
,,,2.9E-06,0.022068126
,,,2.91E-06,0.021801251
,,,2.92E-06,0.022154376
,,,2.93E-06,0.021906251
,,,2.94E-06,0.022043126
,,,2.95E-06,0.021942501
,,,2.96E-06,0.022125626
,,,2.97E-06,0.022056876
,,,2.98E-06,0.022220626
,,,2.99E-06,0.022143126
,,,3E-06,0.022068126
,,,3.01E-06,0.022246251
,,,3.02E-06,0.022243751
,,,3.03E-06,0.021763126
,,,3.04E-06,0.022140001
,,,3.05E-06,0.022133126
,,,3.06E-06,0.022213126
,,,3.07E-06,0.022198751
,,,3.08E-06,0.022028751
,,,3.09E-06,0.021908126
,,,3.1E-06,0.022171251
,,,3.11E-06,0.021983751
,,,3.12E-06,0.022164376
,,,3.13E-06,0.022015001
,,,3.14E-06,0.022062501
,,,3.15E-06,0.022201876
,,,3.16E-06,0.021860001
,,,3.17E-06,0.022265001
,,,3.18E-06,0.022005001
,,,3.19E-06,0.022152501
,,,3.2E-06,0.021861251
,,,3.21E-06,0.022384376
