data/raw/Final_POL_Test_1/SOP013_Ch2.csv

"Record Length",1000,"Points",-5E-06,0.0224425
"Sample Interval",1E-08,s,-4.99E-06,0.022036875
"Trigger Point",500,"Samples",-4.98E-06,0.022308125
"Trigger Time",0,s,-4.97E-06,0.022119375
"",,,-4.96E-06,0.02206625
"Horizontal Offset",-5E-06,s,-4.95E-06,0.02207
,,,-4.94E-06,0.02220125
,,,-4.93E-06,0.02248
,,,-4.92E-06,0.022210625
,,,-4.91E-06,0.022175
,,,-4.9E-06,0.021834375
,,,-4.89E-06,0.022114375
,,,-4.88E-06,0.022333125
,,,-4.87E-06,0.022293125
,,,-4.86E-06,0.0221175
,,,-4.85E-06,0.022118125
,,,-4.84E-06,0.022345
,,,-4.83E-06,0.02224375
,,,-4.82E-06,0.022394375
,,,-4.81E-06,0.0223525
,,,-4.8E-06,0.022156875
,,,-4.79E-06,0.022005625
,,,-4.78E-06,0.0221175
,,,-4.77E-06,0.022273125
,,,-4.76E-06,0.02244625
,,,-4.75E-06,0.022079375
,,,-4.74E-06,0.02241625
,,,-4.73E-06,0.0221525
,,,-4.72E-06,0.022285
,,,-4.71E-06,0.0222325
,,,-4.7E-06,0.0220775
,,,-4.69E-06,0.022224375
,,,-4.68E-06,0.02229375
,,,-4.67E-06,0.022256875
,,,-4.66E-06,0.022185
,,,-4.65E-06,0.022096875
,,,-4.64E-06,0.0220875
,,,-4.63E-06,0.022095625
,,,-4.62E-06,0.0222675
,,,-4.61E-06,0.02204375
,,,-4.6E-06,0.022303125
,,,-4.59E-06,0.0220375
,,,-4.58E-06,0.0222525
,,,-4.57E-06,0.02233125
,,,-4.56E-06,0.022211875
,,,-4.55E-06,0.02241125
,,,-4.54E-06,0.022420625
,,,-4.53E-06,0.022501875
,,,-4.52E-06,0.022245
,,,-4.51E-06,0.022225
,,,-4.5E-06,0.022215
,,,-4.49E-06,0.022091875
,,,-4.48E-06,0.022303125
,,,-4.47E-06,0.02233125
,,,-4.46E-06,0.02217625
,,,-4.45E-06,0.022268125
,,,-4.44E-06,0.022441875
,,,-4.43E-06,0.022499375
,,,-4.42E-06,0.0222825
,,,-4.41E-06,0.02221875
,,,-4.4E-06,0.02232625
,,,-4.39E-06,0.022056875
,,,-4.38E-06,0.022170625
,,,-4.37E-06,0.022241875
,,,-4.36E-06,0.022145625
,,,-4.35E-06,0.0222025
,,,-4.34E-06,0.0222675
,,,-4.33E-06,0.022369375
,,,-4.32E-06,0.02227875
,,,-4.31E-06,0.022148125
,,,-4.3E-06,0.022165625
,,,-4.29E-06,0.0219925
,,,-4.28E-06,0.022360625
,,,-4.27E-06,0.022384375
,,,-4.26E-06,0.022430625
,,,-4.25E-06,0.022225
,,,-4.24E-06,0.02229625
,,,-4.23E-06,0.022348125
,,,-4.22E-06,0.022198125
,,,-4.21E-06,0.02247875
,,,-4.2E-06,0.022126875
,,,-4.19E-06,0.02241125
,,,-4.18E-06,0.02230875
,,,-4.17E-06,0.02216375
,,,-4.16E-06,0.02215375
,,,-4.15E-06,0.02209125
,,,-4.14E-06,0.022205625
,,,-4.13E-06,0.022221875
,,,-4.12E-06,0.021981875
,,,-4.11E-06,0.0221175
,,,-4.1E-06,0.022040625
,,,-4.09E-06,0.022408125
,,,-4.08E-06,0.022099375
,,,-4.07E-06,0.022244375
,,,-4.06E-06,0.02223875
,,,-4.05E-06,0.022095625
,,,-4.04E-06,0.022058125
,,,-4.03E-06,0.022436875
,,,-4.02E-06,0.0223475
,,,-4.01E-06,0.02243125
,,,-4E-06,0.022214375
,,,-3.99E-06,0.0223825
,,,-3.98E-06,0.022050625
,,,-3.97E-06,0.022133125
,,,-3.96E-06,0.022149375
,,,-3.95E-06,0.022433125
,,,-3.94E-06,0.022123125
,,,-3.93E-06,0.022211875
,,,-3.92E-06,0.0224
,,,-3.91E-06,0.022288125
,,,-3.9E-06,0.022369375
,,,-3.89E-06,0.022085625
,,,-3.88E-06,0.022123125
,,,-3.87E-06,0.0223225
,,,-3.86E-06,0.022126875
,,,-3.85E-06,0.022075
,,,-3.84E-06,0.022293125
,,,-3.83E-06,0.022274375
,,,-3.82E-06,0.022305
,,,-3.81E-06,0.0219975
,,,-3.8E-06,0.022165
,,,-3.79E-06,0.022091875
,,,-3.78E-06,0.022275
,,,-3.77E-06,0.022405
,,,-3.76E-06,0.022558125
,,,-3.75E-06,0.022055
,,,-3.74E-06,0.022304375
,,,-3.73E-06,0.02196875
,,,-3.72E-06,0.022276875
,,,-3.71E-06,0.022079375
,,,-3.7E-06,0.02212875
,,,-3.69E-06,0.02232125
,,,-3.68E-06,0.02236125
,,,-3.67E-06,0.02236875
,,,-3.66E-06,0.022214375
,,,-3.65E-06,0.0222425
,,,-3.64E-06,0.022350625
,,,-3.63E-06,0.022390625
,,,-3.62E-06,0.022110625
,,,-3.61E-06,0.02212375
,,,-3.6E-06,0.022245
,,,-3.59E-06,0.022249375
,,,-3.58E-06,0.022155625
,,,-3.57E-06,0.022148125
,,,-3.56E-06,0.02196
,,,-3.55E-06,0.02235375
,,,-3.54E-06,0.0220825
,,,-3.53E-06,0.0221925
,,,-3.52E-06,0.0221525
,,,-3.51E-06,0.02202625
,,,-3.5E-06,0.02238625
,,,-3.49E-06,0.022375625
,,,-3.48E-06,0.022183125
,,,-3.47E-06,0.022130625
,,,-3.46E-06,0.022391875
,,,-3.45E-06,0.02221125
,,,-3.44E-06,0.02239875
,,,-3.43E-06,0.02219
,,,-3.42E-06,0.022398125
,,,-3.41E-06,0.022311875
,,,-3.4E-06,0.022361875
,,,-3.39E-06,0.02213375
,,,-3.38E-06,0.02228
,,,-3.37E-06,0.02223
,,,-3.36E-06,0.022385
,,,-3.35E-06,0.022391875
,,,-3.34E-06,0.022411875
,,,-3.33E-06,0.022268125
,,,-3.32E-06,0.022225625
,,,-3.31E-06,0.022133125
,,,-3.3E-06,0.02219875
,,,-3.29E-06,0.022293125
,,,-3.28E-06,0.022370625
,,,-3.27E-06,0.022195625
,,,-3.26E-06,0.021985
,,,-3.25E-06,0.02215375
,,,-3.24E-06,0.022301875
,,,-3.23E-06,0.02238
,,,-3.22E-06,0.0224775
,,,-3.21E-06,0.022390625
,,,-3.2E-06,0.022221875
,,,-3.19E-06,0.0222025
,,,-3.18E-06,0.02226
,,,-3.17E-06,0.022169375
,,,-3.16E-06,0.022304375
,,,-3.15E-06,0.02205125
,,,-3.14E-06,0.021964375
,,,-3.13E-06,0.02214375
,,,-3.12E-06,0.0221125
,,,-3.11E-06,0.022035
,,,-3.1E-06,0.022025625
,,,-3.09E-06,0.022578125
,,,-3.08E-06,0.022295
,,,-3.07E-06,0.022443125
,,,-3.06E-06,0.022275
,,,-3.05E-06,0.02225125
,,,-3.04E-06,0.02202875
,,,-3.03E-06,0.02254375
,,,-3.02E-06,0.0222225
,,,-3.01E-06,0.022325
,,,-3E-06,0.022134375
,,,-2.99E-06,0.022313125
,,,-2.98E-06,0.02211375
,,,-2.97E-06,0.02233875
,,,-2.96E-06,0.02228125
,,,-2.95E-06,0.02231625
,,,-2.94E-06,0.02214
,,,-2.93E-06,0.02222
,,,-2.92E-06,0.022184375
,,,-2.91E-06,0.022198125
,,,-2.9E-06,0.022571875
,,,-2.89E-06,0.022443125
,,,-2.88E-06,0.022339375
,,,-2.87E-06,0.022284375
,,,-2.86E-06,0.022318125
,,,-2.85E-06,0.0223425
,,,-2.84E-06,0.02234125
,,,-2.83E-06,0.0224175
,,,-2.82E-06,0.022310625
,,,-2.81E-06,0.022231875
,,,-2.8E-06,0.022056875
,,,-2.79E-06,0.022215625
,,,-2.78E-06,0.022291875
,,,-2.77E-06,0.0221375
,,,-2.76E-06,0.02206
,,,-2.75E-06,0.022146875
,,,-2.74E-06,0.022115
,,,-2.73E-06,0.0223625
,,,-2.72E-06,0.022283125
,,,-2.71E-06,0.022319375
,,,-2.7E-06,0.021973125
,,,-2.69E-06,0.02226375
,,,-2.68E-06,0.02216
,,,-2.67E-06,0.022206875
,,,-2.66E-06,0.022255625
,,,-2.65E-06,0.022055
,,,-2.64E-06,0.02206625
,,,-2.63E-06,0.022305625
,,,-2.62E-06,0.0221325
,,,-2.61E-06,0.022203125
,,,-2.6E-06,0.02207125
,,,-2.59E-06,0.022215
,,,-2.58E-06,0.022368125
,,,-2.57E-06,0.022155625
,,,-2.56E-06,0.022201875
,,,-2.55E-06,0.022185
,,,-2.54E-06,0.02232875
,,,-2.53E-06,0.02219
,,,-2.52E-06,0.02220125
,,,-2.51E-06,0.02245
,,,-2.5E-06,0.0220325
,,,-2.49E-06,0.022284375
,,,-2.48E-06,0.022375625
,,,-2.47E-06,0.022105
,,,-2.46E-06,0.022015625
,,,-2.45E-06,0.02198625
,,,-2.44E-06,0.02242625
,,,-2.43E-06,0.022246875
,,,-2.42E-06,0.022299375
,,,-2.41E-06,0.02196875
,,,-2.4E-06,0.022164375
,,,-2.39E-06,0.0220825
,,,-2.38E-06,0.02187625
,,,-2.37E-06,0.022333125
,,,-2.36E-06,0.0221725
,,,-2.35E-06,0.022278125
,,,-2.34E-06,0.0221725
,,,-2.33E-06,0.022065
,,,-2.32E-06,0.022245625
,,,-2.31E-06,0.022433125
,,,-2.3E-06,0.022448125
,,,-2.29E-06,0.022468125
,,,-2.28E-06,0.02225
,,,-2.27E-06,0.022341875
,,,-2.26E-06,0.02225
,,,-2.25E-06,0.022018125
,,,-2.24E-06,0.0220725
,,,-2.23E-06,0.02230125
,,,-2.22E-06,0.022590625
,,,-2.21E-06,0.02239625
,,,-2.2E-06,0.022150625
,,,-2.19E-06,0.02229875
,,,-2.18E-06,0.022039375
,,,-2.17E-06,0.022071875
,,,-2.16E-06,0.022203125
,,,-2.15E-06,0.02250125
,,,-2.14E-06,0.02201375
,,,-2.13E-06,0.022161875
,,,-2.12E-06,0.02239
,,,-2.11E-06,0.022224375
,,,-2.1E-06,0.022175625
,,,-2.09E-06,0.0222375
,,,-2.08E-06,0.02224375
,,,-2.07E-06,0.022355
,,,-2.06E-06,0.022155
,,,-2.05E-06,0.022
,,,-2.04E-06,0.022378125
,,,-2.03E-06,0.0221925
,,,-2.02E-06,0.022389375
,,,-2.01E-06,0.02236
,,,-2E-06,0.022241875
,,,-1.99E-06,0.02221
,,,-1.98E-06,0.02218375
,,,-1.97E-06,0.022049375
,,,-1.96E-06,0.022284375
,,,-1.95E-06,0.0223125
,,,-1.94E-06,0.02234625
,,,-1.93E-06,0.02238125
,,,-1.92E-06,0.02225125
,,,-1.91E-06,0.02215875
,,,-1.9E-06,0.02229875
,,,-1.89E-06,0.022391875
,,,-1.88E-06,0.022061875
,,,-1.87E-06,0.022285
,,,-1.86E-06,0.022283125
,,,-1.85E-06,0.0222375
,,,-1.84E-06,0.02228875
,,,-1.83E-06,0.022326875
,,,-1.82E-06,0.022249375
,,,-1.81E-06,0.0220125
,,,-1.8E-06,0.022331875
,,,-1.79E-06,0.022071875
,,,-1.78E-06,0.022295625
,,,-1.77E-06,0.02221625
,,,-1.76E-06,0.02238375
,,,-1.75E-06,0.02226625
,,,-1.74E-06,0.022126875
,,,-1.73E-06,0.022284375
,,,-1.72E-06,0.021883125
,,,-1.71E-06,0.022305625
,,,-1.7E-06,0.02194
,,,-1.69E-06,0.022605625
,,,-1.68E-06,0.02213375
,,,-1.67E-06,0.022386875
,,,-1.66E-06,0.022285
,,,-1.65E-06,0.02219125
,,,-1.64E-06,0.022320625
,,,-1.63E-06,0.022365
,,,-1.62E-06,0.022156875
,,,-1.61E-06,0.022219375
,,,-1.6E-06,0.022315
,,,-1.59E-06,0.022445
,,,-1.58E-06,0.022095625
,,,-1.57E-06,0.022250625
,,,-1.56E-06,0.0222725
,,,-1.55E-06,0.02209
,,,-1.54E-06,0.022149375
,,,-1.53E-06,0.022470625
,,,-1.52E-06,0.022174375
,,,-1.51E-06,0.022269375
,,,-1.5E-06,0.0218925
,,,-1.49E-06,0.022245625
,,,-1.48E-06,0.022314375
,,,-1.47E-06,0.022065
,,,-1.46E-06,0.02214125
,,,-1.45E-06,0.02225875
,,,-1.44E-06,0.02234
,,,-1.43E-06,0.022519375
,,,-1.42E-06,0.022089375
,,,-1.41E-06,0.02230625
,,,-1.4E-06,0.02243
,,,-1.39E-06,0.022066875
,,,-1.38E-06,0.02204625
,,,-1.37E-06,0.0221975
,,,-1.36E-06,0.02266875
,,,-1.35E-06,0.022331875
,,,-1.34E-06,0.022316875
,,,-1.33E-06,0.0223175
,,,-1.32E-06,0.022135
,,,-1.31E-06,0.02239125
,,,-1.3E-06,0.022333125
,,,-1.29E-06,0.022074375
,,,-1.28E-06,0.022060625
,,,-1.27E-06,0.022249375
,,,-1.26E-06,0.022148125
,,,-1.25E-06,0.022291875
,,,-1.24E-06,0.022556875
,,,-1.23E-06,0.022325625
,,,-1.22E-06,0.022204375
,,,-1.21E-06,0.02214
,,,-1.2E-06,0.0220675
,,,-1.19E-06,0.022458125
,,,-1.18E-06,0.022365625
,,,-1.17E-06,0.02229375
,,,-1.16E-06,0.022263125
,,,-1.15E-06,0.022105
,,,-1.14E-06,0.02210875
,,,-1.13E-06,0.02227625
,,,-1.12E-06,0.022036875
,,,-1.11E-06,0.022310625
,,,-1.1E-06,0.022319375
,,,-1.09E-06,0.022238125
,,,-1.08E-06,0.02218875
,,,-1.07E-06,0.022386875
,,,-1.06E-06,0.022005625
,,,-1.05E-06,0.022224375
,,,-1.04E-06,0.0219275
,,,-1.03E-06,0.022163125
,,,-1.02E-06,0.02201
,,,-1.01E-06,0.022285
,,,-1E-06,0.022118125
,,,-9.9E-07,0.022316875
,,,-9.8E-07,0.022155
,,,-9.7E-07,0.022078125
,,,-9.6E-07,0.022569375
,,,-9.5E-07,0.0222225
,,,-9.4E-07,0.022259375
,,,-9.3E-07,0.0222775
,,,-9.2E-07,0.022350625
,,,-9.1E-07,0.0221175
,,,-9E-07,0.022099375
,,,-8.9E-07,0.022085
,,,-8.8E-07,0.02236375
,,,-8.7E-07,0.022288125
,,,-8.6E-07,0.022259375
,,,-8.5E-07,0.02209625
,,,-8.4E-07,0.02238125
,,,-8.3E-07,0.022348125
,,,-8.2E-07,0.022210625
,,,-8.1E-07,0.022488125
,,,-8E-07,0.0221175
,,,-7.9E-07,0.022381875
,,,-7.8E-07,0.022330625
,,,-7.7E-07,0.022069375
,,,-7.6E-07,0.022334375
,,,-7.5E-07,0.022185
,,,-7.4E-07,0.022246875
,,,-7.3E-07,0.022375625
,,,-7.2E-07,0.022169375
,,,-7.1E-07,0.0221525
,,,-7E-07,0.021924375
,,,-6.9E-07,0.022248125
,,,-6.8E-07,0.022141875
,,,-6.7E-07,0.02273375
,,,-6.6E-07,0.022289375
,,,-6.5E-07,0.022078125
,,,-6.4E-07,0.022201875
,,,-6.3E-07,0.02196125
,,,-6.2E-07,0.022174375
,,,-6.1E-07,0.022105625
,,,-6E-07,0.02213625
,,,-5.9E-07,0.022378125
,,,-5.8E-07,0.022136875
,,,-5.7E-07,0.022418125
,,,-5.6E-07,0.02199625
,,,-5.5E-07,0.022195625
,,,-5.4E-07,0.02217875
,,,-5.3E-07,0.02237625
,,,-5.2E-07,0.022384375
,,,-5.1E-07,0.022310625
,,,-5E-07,0.022279375
,,,-4.9E-07,0.022263125
,,,-4.8E-07,0.022160625
,,,-4.7E-07,0.022408125
,,,-4.6E-07,0.02232
,,,-4.5E-07,0.02235375
,,,-4.4E-07,0.02224625
,,,-4.3E-07,0.02216
,,,-4.2E-07,0.02228625
,,,-4.1E-07,0.022051875
,,,-4E-07,0.022369375
,,,-3.9E-07,0.022099375
,,,-3.8E-07,0.022104375
,,,-3.7E-07,0.02232125
,,,-3.6E-07,0.02235375
,,,-3.5E-07,0.02224625
,,,-3.4E-07,0.0220725
,,,-3.3E-07,0.0221275
,,,-3.2E-07,0.0223
,,,-3.1E-07,0.02215375
,,,-3E-07,0.0220525
,,,-2.9E-07,0.022139375
,,,-2.8E-07,0.02226125
,,,-2.7E-07,0.022199375
,,,-2.6E-07,0.022144375
,,,-2.5E-07,0.02242375
,,,-2.4E-07,0.022315
,,,-2.3E-07,0.02227875
,,,-2.2E-07,0.022313125
,,,-2.1E-07,0.0222825
,,,-2E-07,0.022425
,,,-1.9E-07,0.022130625
,,,-1.8E-07,0.022203125
,,,-1.7E-07,0.02240875
,,,-1.6E-07,0.022298125
,,,-1.5E-07,0.022149375
,,,-1.4E-07,0.0222675
,,,-1.3E-07,0.0220775
,,,-1.2E-07,0.0223725
,,,-1.1E-07,0.02213125
,,,-1E-07,0.022095
,,,-9E-08,0.022350625
,,,-8E-08,0.022155625
,,,-7E-08,0.021609375
,,,-6E-08,0.02231375
,,,-5E-08,0.022516875
,,,-4E-08,0.023500625
,,,-3E-08,0.022429375
,,,-2E-08,0.020376875
,,,-1E-08,0.01985375
,,,0,0.021769375
,,,1E-08,0.02473125
,,,2E-08,0.025134375
,,,3E-08,0.02326
,,,4E-08,0.0211375
,,,5E-08,0.020091875
,,,6E-08,0.020404375
,,,7E-08,0.021978125
,,,8E-08,0.022995625
,,,9E-08,0.02379375
,,,1E-07,0.023360625
,,,1.1E-07,0.02219
,,,1.2E-07,0.02121375
,,,1.3E-07,0.021693125
,,,1.4E-07,0.022154375
,,,1.5E-07,0.0224225
,,,1.6E-07,0.0224725
,,,1.7E-07,0.0224225
,,,1.8E-07,0.022410625
,,,1.9E-07,0.022284375
,,,2E-07,0.022235625
,,,2.1E-07,0.022101875
,,,2.2E-07,0.0222175
,,,2.3E-07,0.022474375
,,,2.4E-07,0.0222175
,,,2.5E-07,0.022250625
,,,2.6E-07,0.022035625
,,,2.7E-07,0.02218375
,,,2.8E-07,0.022134375
,,,2.9E-07,0.02224125
,,,3E-07,0.02219125
,,,3.1E-07,0.0222225
,,,3.2E-07,0.022335
,,,3.3E-07,0.0222875
,,,3.4E-07,0.02221
,,,3.5E-07,0.02223625
,,,3.6E-07,0.02214375
,,,3.7E-07,0.022185
,,,3.8E-07,0.02240125
,,,3.9E-07,0.022323125
,,,4E-07,0.0221775
,,,4.1E-07,0.02241875
,,,4.2E-07,0.022125625
,,,4.3E-07,0.022295625
,,,4.4E-07,0.022165625
,,,4.5E-07,0.0223775
,,,4.6E-07,0.0224675
,,,4.7E-07,0.022296875
,,,4.8E-07,0.022026875
,,,4.9E-07,0.021846875
,,,5E-07,0.022371875
,,,5.1E-07,0.022304375
,,,5.2E-07,0.022301875
,,,5.3E-07,0.022120625
,,,5.4E-07,0.0220775
,,,5.5E-07,0.02240625
,,,5.6E-07,0.022455
,,,5.7E-07,0.022393125
,,,5.8E-07,0.02258
,,,5.9E-07,0.022196875
,,,6E-07,0.022133125
,,,6.1E-07,0.0223625
,,,6.2E-07,0.022259375
,,,6.3E-07,0.022170625
,,,6.4E-07,0.0221
,,,6.5E-07,0.022151875
,,,6.6E-07,0.022251875
,,,6.7E-07,0.0222225
,,,6.8E-07,0.02247875
,,,6.9E-07,0.0223875
,,,7E-07,0.022454375
,,,7.1E-07,0.02212
,,,7.2E-07,0.02223125
,,,7.3E-07,0.02213875
,,,7.4E-07,0.0222675
,,,7.5E-07,0.022375625
,,,7.6E-07,0.022324375
,,,7.7E-07,0.02208
,,,7.8E-07,0.022223125
,,,7.9E-07,0.022264375
,,,8E-07,0.022290625
,,,8.1E-07,0.02257375
,,,8.2E-07,0.02217875
,,,8.3E-07,0.022124375
,,,8.4E-07,0.022120625
,,,8.5E-07,0.0221075
,,,8.6E-07,0.02208375
,,,8.7E-07,0.02215625
,,,8.8E-07,0.02219875
,,,8.9E-07,0.022305625
,,,9E-07,0.022300625
,,,9.1E-07,0.022626875
,,,9.2E-07,0.02205875
,,,9.3E-07,0.0224325
,,,9.4E-07,0.022214375
,,,9.5E-07,0.022269375
,,,9.6E-07,0.02243875
,,,9.7E-07,0.0222675
,,,9.8E-07,0.022036875
,,,9.9E-07,0.02212125
,,,1E-06,0.022266875
,,,1.01E-06,0.02217375
,,,1.02E-06,0.02233625
,,,1.03E-06,0.02232125
,,,1.04E-06,0.02240375
,,,1.05E-06,0.0223425
,,,1.06E-06,0.02227375
,,,1.07E-06,0.02224125
,,,1.08E-06,0.022271875
,,,1.09E-06,0.02224
,,,1.1E-06,0.022335
,,,1.11E-06,0.022429375
,,,1.12E-06,0.02225125
,,,1.13E-06,0.02235125
,,,1.14E-06,0.022155625
,,,1.15E-06,0.022246875
,,,1.16E-06,0.022393125
,,,1.17E-06,0.022351875
,,,1.18E-06,0.02238125
,,,1.19E-06,0.02235375
,,,1.2E-06,0.022273125
,,,1.21E-06,0.022309375
,,,1.22E-06,0.022163125
,,,1.23E-06,0.02200625
,,,1.24E-06,0.022466875
,,,1.25E-06,0.02227375
,,,1.26E-06,0.0224175
,,,1.27E-06,0.0221075
,,,1.28E-06,0.022465
,,,1.29E-06,0.022345
,,,1.3E-06,0.0221075
,,,1.31E-06,0.022149375
,,,1.32E-06,0.022329375
,,,1.33E-06,0.02221375
,,,1.34E-06,0.0220225
,,,1.35E-06,0.022253125
,,,1.36E-06,0.0222425
,,,1.37E-06,0.022041875
,,,1.38E-06,0.022031875
,,,1.39E-06,0.021959375
,,,1.4E-06,0.022268125
,,,1.41E-06,0.022115
,,,1.42E-06,0.02223125
,,,1.43E-06,0.02224875
,,,1.44E-06,0.0221975
,,,1.45E-06,0.022244375
,,,1.46E-06,0.022214375
,,,1.47E-06,0.02218125
,,,1.48E-06,0.0221725
,,,1.49E-06,0.022084375
,,,1.5E-06,0.02225375
,,,1.51E-06,0.022176875
,,,1.52E-06,0.02223
,,,1.53E-06,0.02234625
,,,1.54E-06,0.0219825
,,,1.55E-06,0.02206875
,,,1.56E-06,0.02242125
,,,1.57E-06,0.0221725
,,,1.58E-06,0.022280625
,,,1.59E-06,0.022215625
,,,1.6E-06,0.02216625
,,,1.61E-06,0.02202375
,,,1.62E-06,0.022099375
,,,1.63E-06,0.02217625
,,,1.64E-06,0.0221975
,,,1.65E-06,0.022300625
,,,1.66E-06,0.02236
,,,1.67E-06,0.022540625
,,,1.68E-06,0.022195
,,,1.69E-06,0.02232
,,,1.7E-06,0.02189375
,,,1.71E-06,0.022305
,,,1.72E-06,0.02223625
,,,1.73E-06,0.022145625
,,,1.74E-06,0.022104375
,,,1.75E-06,0.022114375
,,,1.76E-06,0.02221375
,,,1.77E-06,0.02229375
,,,1.78E-06,0.022234375
,,,1.79E-06,0.022249375
,,,1.8E-06,0.022225
,,,1.81E-06,0.022293125
,,,1.82E-06,0.022154375
,,,1.83E-06,0.02247375
,,,1.84E-06,0.022361875
,,,1.85E-06,0.0224
,,,1.86E-06,0.022294375
,,,1.87E-06,0.021975625
,,,1.88E-06,0.022133125
,,,1.89E-06,0.02227125
,,,1.9E-06,0.022405
,,,1.91E-06,0.02217625
,,,1.92E-06,0.022115
,,,1.93E-06,0.022025625
,,,1.94E-06,0.022120625
,,,1.95E-06,0.0222075
,,,1.96E-06,0.0220325
,,,1.97E-06,0.02218625
,,,1.98E-06,0.022316875
,,,1.99E-06,0.02229875
,,,2E-06,0.02232
,,,2.01E-06,0.02214625
,,,2.02E-06,0.021884375
,,,2.03E-06,0.02241625
,,,2.04E-06,0.022330625
,,,2.05E-06,0.0222525
,,,2.06E-06,0.02233625
,,,2.07E-06,0.02236125
,,,2.08E-06,0.0219825
,,,2.09E-06,0.022075
,,,2.1E-06,0.0223575
,,,2.11E-06,0.02223375
,,,2.12E-06,0.02217625
,,,2.13E-06,0.02218375
,,,2.14E-06,0.022184375
,,,2.15E-06,0.022175
,,,2.16E-06,0.02212875
,,,2.17E-06,0.021994375
,,,2.18E-06,0.02233875
,,,2.19E-06,0.022481875
,,,2.2E-06,0.021995625
,,,2.21E-06,0.022310625
,,,2.22E-06,0.02239125
,,,2.23E-06,0.02255
,,,2.24E-06,0.0222225
,,,2.25E-06,0.022389375
,,,2.26E-06,0.02227375
,,,2.27E-06,0.022173125
,,,2.28E-06,0.02220125
,,,2.29E-06,0.02196875
,,,2.3E-06,0.022503125
,,,2.31E-06,0.022245
,,,2.32E-06,0.022081875
,,,2.33E-06,0.02220375
,,,2.34E-06,0.0220575
,,,2.35E-06,0.022123125
,,,2.36E-06,0.022106875
,,,2.37E-06,0.02223
,,,2.38E-06,0.021901875
,,,2.39E-06,0.02234
,,,2.4E-06,0.02223
,,,2.41E-06,0.02221625
,,,2.42E-06,0.022286875
,,,2.43E-06,0.022091875
,,,2.44E-06,0.0221
,,,2.45E-06,0.02217875
,,,2.46E-06,0.022148125
,,,2.47E-06,0.0222775
,,,2.48E-06,0.022229375
,,,2.49E-06,0.02230125
,,,2.5E-06,0.022031875
,,,2.51E-06,0.0221925
,,,2.52E-06,0.02215125
,,,2.53E-06,0.02220375
,,,2.54E-06,0.02226375
,,,2.55E-06,0.0223475
,,,2.56E-06,0.02202875
,,,2.57E-06,0.02219625
,,,2.58E-06,0.022385625
,,,2.59E-06,0.02229625
,,,2.6E-06,0.022146875
,,,2.61E-06,0.02209375
,,,2.62E-06,0.022224375
,,,2.63E-06,0.02229125
,,,2.64E-06,0.022168125
,,,2.65E-06,0.022200625
,,,2.66E-06,0.02221625
,,,2.67E-06,0.022098125
,,,2.68E-06,0.0221875
,,,2.69E-06,0.0222775
,,,2.7E-06,0.0219825
,,,2.71E-06,0.02233125
,,,2.72E-06,0.02228875
,,,2.73E-06,0.02222875
,,,2.74E-06,0.022104375
,,,2.75E-06,0.02199875
,,,2.76E-06,0.022356875
,,,2.77E-06,0.02233
,,,2.78E-06,0.021960625
,,,2.79E-06,0.0220525
,,,2.8E-06,0.022360625
,,,2.81E-06,0.022309375
,,,2.82E-06,0.022170625
,,,2.83E-06,0.022116875
,,,2.84E-06,0.022218125
,,,2.85E-06,0.0221175
,,,2.86E-06,0.02239875
,,,2.87E-06,0.022089375
,,,2.88E-06,0.0223
,,,2.89E-06,0.0223475
,,,2.9E-06,0.0223275
,,,2.91E-06,0.02227
,,,2.92E-06,0.0220375
,,,2.93E-06,0.02232125
,,,2.94E-06,0.022325625
,,,2.95E-06,0.022235
,,,2.96E-06,0.022281875
,,,2.97E-06,0.0223575
,,,2.98E-06,0.02228
,,,2.99E-06,0.02194375
,,,3E-06,0.022294375
,,,3.01E-06,0.02229625
,,,3.02E-06,0.0219475
,,,3.03E-06,0.022140625
,,,3.04E-06,0.022135625
,,,3.05E-06,0.0220075
,,,3.06E-06,0.02233
,,,3.07E-06,0.022139375
,,,3.08E-06,0.022368125
,,,3.09E-06,0.022416875
,,,3.1E-06,0.022129375
,,,3.11E-06,0.02218625
,,,3.12E-06,0.022450625
,,,3.13E-06,0.02216625
,,,3.14E-06,0.022193125
,,,3.15E-06,0.02243
,,,3.16E-06,0.022204375
,,,3.17E-06,0.022271875
,,,3.18E-06,0.022146875
,,,3.19E-06,0.022081875
,,,3.2E-06,0.022244375
,,,3.21E-06,0.022183125
,,,3.22E-06,0.0225625
,,,3.23E-06,0.022181875
,,,3.24E-06,0.02225375
,,,3.25E-06,0.02211375
,,,3.26E-06,0.022158125
,,,3.27E-06,0.02231625
,,,3.28E-06,0.022323125
,,,3.29E-06,0.0223575
,,,3.3E-06,0.022166875
,,,3.31E-06,0.022161875
,,,3.32E-06,0.0222875
,,,3.33E-06,0.022299375
,,,3.34E-06,0.022225625
,,,3.35E-06,0.022099375
,,,3.36E-06,0.02211
,,,3.37E-06,0.022234375
,,,3.38E-06,0.022175625
,,,3.39E-06,0.022134375
,,,3.4E-06,0.02209375
,,,3.41E-06,0.022258125
,,,3.42E-06,0.022425625
,,,3.43E-06,0.022119375
,,,3.44E-06,0.022045
,,,3.45E-06,0.022205625
,,,3.46E-06,0.022135
,,,3.47E-06,0.02228875
,,,3.48E-06,0.022291875
,,,3.49E-06,0.0221025
,,,3.5E-06,0.02232875
,,,3.51E-06,0.02215125
,,,3.52E-06,0.022503125
,,,3.53E-06,0.02224
,,,3.54E-06,0.022114375
,,,3.55E-06,0.022408125
,,,3.56E-06,0.022226875
,,,3.57E-06,0.022094375
