data/raw/Final_POL_Test_1/SOP028_Ch3.csv

"Record Length",1000,"Points",-5E-06,0.015796251
"Sample Interval",1E-08,s,-4.99E-06,0.015930001
"Trigger Point",500,"Samples",-4.98E-06,0.015714376
"Trigger Time",0,s,-4.97E-06,0.015496251
"",,,-4.96E-06,0.015841876
"Horizontal Offset",-5E-06,s,-4.95E-06,0.015737501
,,,-4.94E-06,0.015298126
,,,-4.93E-06,0.015645001
,,,-4.92E-06,0.015770626
,,,-4.91E-06,0.015543126
,,,-4.9E-06,0.015996251
,,,-4.89E-06,0.015643126
,,,-4.88E-06,0.015900001
,,,-4.87E-06,0.015671251
,,,-4.86E-06,0.015796251
,,,-4.85E-06,0.015581251
,,,-4.84E-06,0.015724376
,,,-4.83E-06,0.015793126
,,,-4.82E-06,0.015546251
,,,-4.81E-06,0.015803751
,,,-4.8E-06,0.015766251
,,,-4.79E-06,0.015907501
,,,-4.78E-06,0.015718751
,,,-4.77E-06,0.016002501
,,,-4.76E-06,0.015661876
,,,-4.75E-06,0.015770001
,,,-4.74E-06,0.015641876
,,,-4.73E-06,0.015831251
,,,-4.72E-06,0.015843751
,,,-4.71E-06,0.015895626
,,,-4.7E-06,0.015596251
,,,-4.69E-06,0.015736876
,,,-4.68E-06,0.015698751
,,,-4.67E-06,0.015508751
,,,-4.66E-06,0.015747501
,,,-4.65E-06,0.015610001
,,,-4.64E-06,0.015547501
,,,-4.63E-06,0.015799376
,,,-4.62E-06,0.015914376
,,,-4.61E-06,0.015641251
,,,-4.6E-06,0.015726251
,,,-4.59E-06,0.015791251
,,,-4.58E-06,0.015745626
,,,-4.57E-06,0.015836876
,,,-4.56E-06,0.015985626
,,,-4.55E-06,0.015543126
,,,-4.54E-06,0.015910001
,,,-4.53E-06,0.015776251
,,,-4.52E-06,0.015480001
,,,-4.51E-06,0.015690001
,,,-4.5E-06,0.015646876
,,,-4.49E-06,0.015677501
,,,-4.48E-06,0.015592501
,,,-4.47E-06,0.015830001
,,,-4.46E-06,0.015770626
,,,-4.45E-06,0.015755626
,,,-4.44E-06,0.015944376
,,,-4.43E-06,0.015575001
,,,-4.42E-06,0.015568751
,,,-4.41E-06,0.015763126
,,,-4.4E-06,0.015861251
,,,-4.39E-06,0.015655001
,,,-4.38E-06,0.015881876
,,,-4.37E-06,0.015665001
,,,-4.36E-06,0.015587501
,,,-4.35E-06,0.015669376
,,,-4.34E-06,0.015748126
,,,-4.33E-06,0.015690001
,,,-4.32E-06,0.015760626
,,,-4.31E-06,0.015877501
,,,-4.3E-06,0.015886876
,,,-4.29E-06,0.015768126
,,,-4.28E-06,0.015747501
,,,-4.27E-06,0.016098751
,,,-4.26E-06,0.015774376
,,,-4.25E-06,0.015625626
,,,-4.24E-06,0.015526876
,,,-4.23E-06,0.015780626
,,,-4.22E-06,0.015738751
,,,-4.21E-06,0.015592501
,,,-4.2E-06,0.015759376
,,,-4.19E-06,0.015705001
,,,-4.18E-06,0.015632501
,,,-4.17E-06,0.015805001
,,,-4.16E-06,0.015872501
,,,-4.15E-06,0.015945001
,,,-4.14E-06,0.015733126
,,,-4.13E-06,0.015990626
,,,-4.12E-06,0.015773751
,,,-4.11E-06,0.015841251
,,,-4.1E-06,0.015394376
,,,-4.09E-06,0.015623751
,,,-4.08E-06,0.015745626
,,,-4.07E-06,0.016008751
,,,-4.06E-06,0.015801251
,,,-4.05E-06,0.015678751
,,,-4.04E-06,0.015506251
,,,-4.03E-06,0.015682501
,,,-4.02E-06,0.015775001
,,,-4.01E-06,0.015710001
,,,-4E-06,0.015740001
,,,-3.99E-06,0.015763751
,,,-3.98E-06,0.016020626
,,,-3.97E-06,0.015681876
,,,-3.96E-06,0.015636251
,,,-3.95E-06,0.015771876
,,,-3.94E-06,0.015633126
,,,-3.93E-06,0.015610626
,,,-3.92E-06,0.015820001
,,,-3.91E-06,0.015655001
,,,-3.9E-06,0.015639376
,,,-3.89E-06,0.015838126
,,,-3.88E-06,0.015498751
,,,-3.87E-06,0.015542501
,,,-3.86E-06,0.015821251
,,,-3.85E-06,0.015630626
,,,-3.84E-06,0.015659376
,,,-3.83E-06,0.015905001
,,,-3.82E-06,0.015730001
,,,-3.81E-06,0.015681251
,,,-3.8E-06,0.015531251
,,,-3.79E-06,0.015733126
,,,-3.78E-06,0.015622501
,,,-3.77E-06,0.015591876
,,,-3.76E-06,0.015750001
,,,-3.75E-06,0.015724376
,,,-3.74E-06,0.015943126
,,,-3.73E-06,0.015618126
,,,-3.72E-06,0.015741876
,,,-3.71E-06,0.015735001
,,,-3.7E-06,0.015606251
,,,-3.69E-06,0.015575626
,,,-3.68E-06,0.015912501
,,,-3.67E-06,0.015540626
,,,-3.66E-06,0.015877501
,,,-3.65E-06,0.015800626
,,,-3.64E-06,0.015520001
,,,-3.63E-06,0.015821251
,,,-3.62E-06,0.015790001
,,,-3.61E-06,0.015731251
,,,-3.6E-06,0.015588126
,,,-3.59E-06,0.016027501
,,,-3.58E-06,0.015768126
,,,-3.57E-06,0.015376251
,,,-3.56E-06,0.015928126
,,,-3.55E-06,0.015460626
,,,-3.54E-06,0.015543751
,,,-3.53E-06,0.015578751
,,,-3.52E-06,0.015876876
,,,-3.51E-06,0.015653751
,,,-3.5E-06,0.015596876
,,,-3.49E-06,0.015765001
,,,-3.48E-06,0.015856876
,,,-3.47E-06,0.015904376
,,,-3.46E-06,0.015663126
,,,-3.45E-06,0.015683751
,,,-3.44E-06,0.015767501
,,,-3.43E-06,0.015682501
,,,-3.42E-06,0.015896876
,,,-3.41E-06,0.015873126
,,,-3.4E-06,0.015630001
,,,-3.39E-06,0.015883126
,,,-3.38E-06,0.015791876
,,,-3.37E-06,0.015796251
,,,-3.36E-06,0.015586251
,,,-3.35E-06,0.016027501
,,,-3.34E-06,0.015757501
,,,-3.33E-06,0.015860001
,,,-3.32E-06,0.015670001
,,,-3.31E-06,0.015692501
,,,-3.3E-06,0.015632501
,,,-3.29E-06,0.015603751
,,,-3.28E-06,0.015587501
,,,-3.27E-06,0.015577501
,,,-3.26E-06,0.015641876
,,,-3.25E-06,0.015745001
,,,-3.24E-06,0.015812501
,,,-3.23E-06,0.015899376
,,,-3.22E-06,0.015820626
,,,-3.21E-06,0.015440001
,,,-3.2E-06,0.015653126
,,,-3.19E-06,0.015584376
,,,-3.18E-06,0.015997501
,,,-3.17E-06,0.015568126
,,,-3.16E-06,0.016048751
,,,-3.15E-06,0.015675626
,,,-3.14E-06,0.015535626
,,,-3.13E-06,0.015913751
,,,-3.12E-06,0.015908126
,,,-3.11E-06,0.015615001
,,,-3.1E-06,0.015717501
,,,-3.09E-06,0.015637501
,,,-3.08E-06,0.015595626
,,,-3.07E-06,0.015850626
,,,-3.06E-06,0.015725001
,,,-3.05E-06,0.015644376
,,,-3.04E-06,0.015679376
,,,-3.03E-06,0.015811876
,,,-3.02E-06,0.015655626
,,,-3.01E-06,0.015705001
,,,-3E-06,0.015705626
,,,-2.99E-06,0.015838126
,,,-2.98E-06,0.015929376
,,,-2.97E-06,0.015565001
,,,-2.96E-06,0.015713751
,,,-2.95E-06,0.015772501
,,,-2.94E-06,0.015685001
,,,-2.93E-06,0.015780626
,,,-2.92E-06,0.015933126
,,,-2.91E-06,0.015862501
,,,-2.9E-06,0.015692501
,,,-2.89E-06,0.015730001
,,,-2.88E-06,0.015820001
,,,-2.87E-06,0.015637501
,,,-2.86E-06,0.015973751
,,,-2.85E-06,0.015831251
,,,-2.84E-06,0.015668751
,,,-2.83E-06,0.015513126
,,,-2.82E-06,0.015718126
,,,-2.81E-06,0.015702501
,,,-2.8E-06,0.015770626
,,,-2.79E-06,0.015856251
,,,-2.78E-06,0.015850626
,,,-2.77E-06,0.015455001
,,,-2.76E-06,0.015940001
,,,-2.75E-06,0.015555626
,,,-2.74E-06,0.015929376
,,,-2.73E-06,0.016079376
,,,-2.72E-06,0.015966876
,,,-2.71E-06,0.015932501
,,,-2.7E-06,0.015715001
,,,-2.69E-06,0.015615626
,,,-2.68E-06,0.015608126
,,,-2.67E-06,0.015679376
,,,-2.66E-06,0.015896876
,,,-2.65E-06,0.015635001
,,,-2.64E-06,0.015888751
,,,-2.63E-06,0.015647501
,,,-2.62E-06,0.015667501
,,,-2.61E-06,0.015810626
,,,-2.6E-06,0.015790001
,,,-2.59E-06,0.016026251
,,,-2.58E-06,0.015902501
,,,-2.57E-06,0.015628126
,,,-2.56E-06,0.015982501
,,,-2.55E-06,0.015820626
,,,-2.54E-06,0.015791876
,,,-2.53E-06,0.015706876
,,,-2.52E-06,0.015718126
,,,-2.51E-06,0.015867501
,,,-2.5E-06,0.015758126
,,,-2.49E-06,0.015675626
,,,-2.48E-06,0.015737501
,,,-2.47E-06,0.015566251
,,,-2.46E-06,0.015720001
,,,-2.45E-06,0.015645001
,,,-2.44E-06,0.015600001
,,,-2.43E-06,0.015613751
,,,-2.42E-06,0.015595626
,,,-2.41E-06,0.015812501
,,,-2.4E-06,0.015752501
,,,-2.39E-06,0.015409376
,,,-2.38E-06,0.015564376
,,,-2.37E-06,0.015901876
,,,-2.36E-06,0.015881876
,,,-2.35E-06,0.015980001
,,,-2.34E-06,0.015778751
,,,-2.33E-06,0.015578126
,,,-2.32E-06,0.015825001
,,,-2.31E-06,0.015855001
,,,-2.3E-06,0.015915626
,,,-2.29E-06,0.015878126
,,,-2.28E-06,0.015573126
,,,-2.27E-06,0.015933126
,,,-2.26E-06,0.015750001
,,,-2.25E-06,0.016061251
,,,-2.24E-06,0.015687501
,,,-2.23E-06,0.015837501
,,,-2.22E-06,0.015695001
,,,-2.21E-06,0.015802501
,,,-2.2E-06,0.015608126
,,,-2.19E-06,0.015596876
,,,-2.18E-06,0.015841876
,,,-2.17E-06,0.015738126
,,,-2.16E-06,0.015820001
,,,-2.15E-06,0.015913126
,,,-2.14E-06,0.015858751
,,,-2.13E-06,0.015854376
,,,-2.12E-06,0.015628126
,,,-2.11E-06,0.015558751
,,,-2.1E-06,0.015724376
,,,-2.09E-06,0.015667501
,,,-2.08E-06,0.015502501
,,,-2.07E-06,0.015696251
,,,-2.06E-06,0.015680001
,,,-2.05E-06,0.015609376
,,,-2.04E-06,0.015833751
,,,-2.03E-06,0.015845001
,,,-2.02E-06,0.015727501
,,,-2.01E-06,0.015625626
,,,-2E-06,0.015783126
,,,-1.99E-06,0.015556251
,,,-1.98E-06,0.015830001
,,,-1.97E-06,0.015727501
,,,-1.96E-06,0.015690626
,,,-1.95E-06,0.015503126
,,,-1.94E-06,0.015615001
,,,-1.93E-06,0.015731876
,,,-1.92E-06,0.015731876
,,,-1.91E-06,0.015711251
,,,-1.9E-06,0.015775001
,,,-1.89E-06,0.015547501
,,,-1.88E-06,0.015665001
,,,-1.87E-06,0.015718751
,,,-1.86E-06,0.015700001
,,,-1.85E-06,0.015918751
,,,-1.84E-06,0.015785001
,,,-1.83E-06,0.015484376
,,,-1.82E-06,0.015634376
,,,-1.81E-06,0.015828751
,,,-1.8E-06,0.016005626
,,,-1.79E-06,0.015578751
,,,-1.78E-06,0.015380626
,,,-1.77E-06,0.015618126
,,,-1.76E-06,0.015543751
,,,-1.75E-06,0.015768126
,,,-1.74E-06,0.015790001
,,,-1.73E-06,0.015758126
,,,-1.72E-06,0.015977501
,,,-1.71E-06,0.015646876
,,,-1.7E-06,0.016033751
,,,-1.69E-06,0.015923751
,,,-1.68E-06,0.015723751
,,,-1.67E-06,0.015801876
,,,-1.66E-06,0.015656251
,,,-1.65E-06,0.015690001
,,,-1.64E-06,0.015607501
,,,-1.63E-06,0.015750001
,,,-1.62E-06,0.015676876
,,,-1.61E-06,0.015784376
,,,-1.6E-06,0.015740626
,,,-1.59E-06,0.015532501
,,,-1.58E-06,0.015671251
,,,-1.57E-06,0.015870001
,,,-1.56E-06,0.015497501
,,,-1.55E-06,0.015715001
,,,-1.54E-06,0.015882501
,,,-1.53E-06,0.015646876
,,,-1.52E-06,0.015735001
,,,-1.51E-06,0.015725626
,,,-1.5E-06,0.015709376
,,,-1.49E-06,0.015731251
,,,-1.48E-06,0.015651876
,,,-1.47E-06,0.015626876
,,,-1.46E-06,0.015809376
,,,-1.45E-06,0.015773751
,,,-1.44E-06,0.015784376
,,,-1.43E-06,0.015763126
,,,-1.42E-06,0.015652501
,,,-1.41E-06,0.015692501
,,,-1.4E-06,0.015703126
,,,-1.39E-06,0.015705626
,,,-1.38E-06,0.015811876
,,,-1.37E-06,0.015942501
,,,-1.36E-06,0.015635001
,,,-1.35E-06,0.015708126
,,,-1.34E-06,0.015685001
,,,-1.33E-06,0.015919376
,,,-1.32E-06,0.015514376
,,,-1.31E-06,0.015893126
,,,-1.3E-06,0.015719376
,,,-1.29E-06,0.015600626
,,,-1.28E-06,0.015645001
,,,-1.27E-06,0.015673751
,,,-1.26E-06,0.015513751
,,,-1.25E-06,0.015750626
,,,-1.24E-06,0.015911876
,,,-1.23E-06,0.015770626
,,,-1.22E-06,0.015411876
,,,-1.21E-06,0.015729376
,,,-1.2E-06,0.015605626
,,,-1.19E-06,0.015782501
,,,-1.18E-06,0.015780626
,,,-1.17E-06,0.015758751
,,,-1.16E-06,0.015746251
,,,-1.15E-06,0.015525001
,,,-1.14E-06,0.015754376
,,,-1.13E-06,0.015647501
,,,-1.12E-06,0.015860001
,,,-1.11E-06,0.015633126
,,,-1.1E-06,0.015907501
,,,-1.09E-06,0.015865626
,,,-1.08E-06,0.015601876
,,,-1.07E-06,0.015634376
,,,-1.06E-06,0.015702501
,,,-1.05E-06,0.015707501
,,,-1.04E-06,0.015616876
,,,-1.03E-06,0.015885001
,,,-1.02E-06,0.015851876
,,,-1.01E-06,0.015372501
,,,-1E-06,0.015770626
,,,-9.9E-07,0.015846876
,,,-9.8E-07,0.015668126
,,,-9.7E-07,0.015705626
,,,-9.6E-07,0.015986251
,,,-9.5E-07,0.015560626
,,,-9.4E-07,0.015897501
,,,-9.3E-07,0.015946876
,,,-9.2E-07,0.015771876
,,,-9.1E-07,0.016170001
,,,-9E-07,0.015755001
,,,-8.9E-07,0.015658126
,,,-8.8E-07,0.015559376
,,,-8.7E-07,0.015603126
,,,-8.6E-07,0.015604376
,,,-8.5E-07,0.015594376
,,,-8.4E-07,0.015895626
,,,-8.3E-07,0.015631876
,,,-8.2E-07,0.015554376
,,,-8.1E-07,0.015910626
,,,-8E-07,0.015630001
,,,-7.9E-07,0.015736876
,,,-7.8E-07,0.015726251
,,,-7.7E-07,0.015948126
,,,-7.6E-07,0.015653751
,,,-7.5E-07,0.015857501
,,,-7.4E-07,0.015473751
,,,-7.3E-07,0.015511251
,,,-7.2E-07,0.015662501
,,,-7.1E-07,0.015747501
,,,-7E-07,0.015766251
,,,-6.9E-07,0.016010626
,,,-6.8E-07,0.015923751
,,,-6.7E-07,0.015771876
,,,-6.6E-07,0.015967501
,,,-6.5E-07,0.015665626
,,,-6.4E-07,0.015827501
,,,-6.3E-07,0.015525626
,,,-6.2E-07,0.015816876
,,,-6.1E-07,0.015520001
,,,-6E-07,0.015876251
,,,-5.9E-07,0.015811876
,,,-5.8E-07,0.015846876
,,,-5.7E-07,0.015728751
,,,-5.6E-07,0.015716251
,,,-5.5E-07,0.015591876
,,,-5.4E-07,0.015857501
,,,-5.3E-07,0.016008126
,,,-5.2E-07,0.015818751
,,,-5.1E-07,0.015651251
,,,-5E-07,0.015817501
,,,-4.9E-07,0.015840001
,,,-4.8E-07,0.015820626
,,,-4.7E-07,0.015628126
,,,-4.6E-07,0.015620001
,,,-4.5E-07,0.015541251
,,,-4.4E-07,0.015763126
,,,-4.3E-07,0.015863751
,,,-4.2E-07,0.016015626
,,,-4.1E-07,0.015817501
,,,-4E-07,0.015629376
,,,-3.9E-07,0.015736251
,,,-3.8E-07,0.015677501
,,,-3.7E-07,0.015599376
,,,-3.6E-07,0.015634376
,,,-3.5E-07,0.015549376
,,,-3.4E-07,0.015674376
,,,-3.3E-07,0.015856251
,,,-3.2E-07,0.015625626
,,,-3.1E-07,0.015797501
,,,-3E-07,0.015572501
,,,-2.9E-07,0.015645001
,,,-2.8E-07,0.015575001
,,,-2.7E-07,0.015743126
,,,-2.6E-07,0.015656876
,,,-2.5E-07,0.015826251
,,,-2.4E-07,0.015651251
,,,-2.3E-07,0.015716876
,,,-2.2E-07,0.015578126
,,,-2.1E-07,0.015538751
,,,-2E-07,0.015726876
,,,-1.9E-07,0.015566876
,,,-1.8E-07,0.015430001
,,,-1.7E-07,0.015955001
,,,-1.6E-07,0.015585001
,,,-1.5E-07,0.015646876
,,,-1.4E-07,0.015565626
,,,-1.3E-07,0.015563126
,,,-1.2E-07,0.015929376
,,,-1.1E-07,0.015787501
,,,-1E-07,0.015737501
,,,-9E-08,0.015779376
,,,-8E-08,0.015944376
,,,-7E-08,0.015769376
,,,-6E-08,0.015570001
,,,-5E-08,0.015880001
,,,-4E-08,0.016964376
,,,-3E-08,0.016783751
,,,-2E-08,0.013887501
,,,-1E-08,0.011570001
,,,0,0.013418126
,,,1E-08,0.019102501
,,,2E-08,0.020723126
,,,3E-08,0.018643126
,,,4E-08,0.014495626
,,,5E-08,0.012146876
,,,6E-08,0.012570001
,,,7E-08,0.014860001
,,,8E-08,0.016683126
,,,9E-08,0.018251876
,,,1E-07,0.017948126
,,,1.1E-07,0.015930001
,,,1.2E-07,0.014304376
,,,1.3E-07,0.014202501
,,,1.4E-07,0.015115001
,,,1.5E-07,0.016098126
,,,1.6E-07,0.016256876
,,,1.7E-07,0.015910626
,,,1.8E-07,0.015951251
,,,1.9E-07,0.015970626
,,,2E-07,0.015622501
,,,2.1E-07,0.015501876
,,,2.2E-07,0.015331876
,,,2.3E-07,0.015948751
,,,2.4E-07,0.016080001
,,,2.5E-07,0.015759376
,,,2.6E-07,0.015685626
,,,2.7E-07,0.015932501
,,,2.8E-07,0.015692501
,,,2.9E-07,0.016057501
,,,3E-07,0.015622501
,,,3.1E-07,0.015852501
,,,3.2E-07,0.015593126
,,,3.3E-07,0.015791876
,,,3.4E-07,0.015822501
,,,3.5E-07,0.015433126
,,,3.6E-07,0.015720626
,,,3.7E-07,0.015558751
,,,3.8E-07,0.015837501
,,,3.9E-07,0.015421876
,,,4E-07,0.015981251
,,,4.1E-07,0.015722501
,,,4.2E-07,0.015453751
,,,4.3E-07,0.015666251
,,,4.4E-07,0.015540001
,,,4.5E-07,0.015763126
,,,4.6E-07,0.015925626
,,,4.7E-07,0.015706251
,,,4.8E-07,0.015622501
,,,4.9E-07,0.015511876
,,,5E-07,0.015993751
,,,5.1E-07,0.015865001
,,,5.2E-07,0.015915626
,,,5.3E-07,0.015605001
,,,5.4E-07,0.015522501
,,,5.5E-07,0.015323126
,,,5.6E-07,0.015920001
,,,5.7E-07,0.015851876
,,,5.8E-07,0.015507501
,,,5.9E-07,0.015830626
,,,6E-07,0.015627501
,,,6.1E-07,0.015772501
,,,6.2E-07,0.015957501
,,,6.3E-07,0.015620001
,,,6.4E-07,0.015860001
,,,6.5E-07,0.015536876
,,,6.6E-07,0.015965001
,,,6.7E-07,0.015648751
,,,6.8E-07,0.015848126
,,,6.9E-07,0.015558126
,,,7E-07,0.015486251
,,,7.1E-07,0.015931876
,,,7.2E-07,0.015755626
,,,7.3E-07,0.015625001
,,,7.4E-07,0.015756876
,,,7.5E-07,0.015548751
,,,7.6E-07,0.015953751
,,,7.7E-07,0.015989376
,,,7.8E-07,0.015892501
,,,7.9E-07,0.015773126
,,,8E-07,0.015955001
,,,8.1E-07,0.015848126
,,,8.2E-07,0.015390001
,,,8.3E-07,0.015840626
,,,8.4E-07,0.015559376
,,,8.5E-07,0.015808126
,,,8.6E-07,0.015849376
,,,8.7E-07,0.015492501
,,,8.8E-07,0.015737501
,,,8.9E-07,0.015908126
,,,9E-07,0.015854376
,,,9.1E-07,0.015644376
,,,9.2E-07,0.015755626
,,,9.3E-07,0.015783751
,,,9.4E-07,0.015596251
,,,9.5E-07,0.015828126
,,,9.6E-07,0.015688751
,,,9.7E-07,0.015700001
,,,9.8E-07,0.015645626
,,,9.9E-07,0.015701251
,,,1E-06,0.015546251
,,,1.01E-06,0.015837501
,,,1.02E-06,0.015683126
,,,1.03E-06,0.015786876
,,,1.04E-06,0.015491251
,,,1.05E-06,0.015813126
,,,1.06E-06,0.015968751
,,,1.07E-06,0.015588751
,,,1.08E-06,0.015773126
,,,1.09E-06,0.015856251
,,,1.1E-06,0.015688751
,,,1.11E-06,0.015775001
,,,1.12E-06,0.015597501
,,,1.13E-06,0.015457501
,,,1.14E-06,0.015758751
,,,1.15E-06,0.015853126
,,,1.16E-06,0.015569376
,,,1.17E-06,0.015688751
,,,1.18E-06,0.015843751
,,,1.19E-06,0.015761251
,,,1.2E-06,0.015616876
,,,1.21E-06,0.015829376
,,,1.22E-06,0.015938751
,,,1.23E-06,0.015830001
,,,1.24E-06,0.015751876
,,,1.25E-06,0.015941876
,,,1.26E-06,0.015880001
,,,1.27E-06,0.015626251
,,,1.28E-06,0.015852501
,,,1.29E-06,0.015688126
,,,1.3E-06,0.015951876
,,,1.31E-06,0.015788126
,,,1.32E-06,0.015997501
,,,1.33E-06,0.016183751
,,,1.34E-06,0.015762501
,,,1.35E-06,0.015523126
,,,1.36E-06,0.015630626
,,,1.37E-06,0.015461876
,,,1.38E-06,0.015856251
,,,1.39E-06,0.015743751
,,,1.4E-06,0.015760001
,,,1.41E-06,0.015900001
,,,1.42E-06,0.015481251
,,,1.43E-06,0.015746251
,,,1.44E-06,0.015682501
,,,1.45E-06,0.015638751
,,,1.46E-06,0.015951251
,,,1.47E-06,0.015836876
,,,1.48E-06,0.015699376
,,,1.49E-06,0.015454376
,,,1.5E-06,0.015743126
,,,1.51E-06,0.015837501
,,,1.52E-06,0.015555626
,,,1.53E-06,0.015586876
,,,1.54E-06,0.015655626
,,,1.55E-06,0.015435626
,,,1.56E-06,0.015643751
,,,1.57E-06,0.015831876
,,,1.58E-06,0.015524376
,,,1.59E-06,0.015422501
,,,1.6E-06,0.015872501
,,,1.61E-06,0.015910626
,,,1.62E-06,0.015546876
,,,1.63E-06,0.015637501
,,,1.64E-06,0.015820001
,,,1.65E-06,0.015785001
,,,1.66E-06,0.015737501
,,,1.67E-06,0.015859376
,,,1.68E-06,0.015595626
,,,1.69E-06,0.015712501
,,,1.7E-06,0.015720001
,,,1.71E-06,0.015937501
,,,1.72E-06,0.015746251
,,,1.73E-06,0.015753751
,,,1.74E-06,0.015750001
,,,1.75E-06,0.015630626
,,,1.76E-06,0.015863126
,,,1.77E-06,0.015882501
,,,1.78E-06,0.015548126
,,,1.79E-06,0.015696251
,,,1.8E-06,0.015722501
,,,1.81E-06,0.015690626
,,,1.82E-06,0.015797501
,,,1.83E-06,0.016048751
,,,1.84E-06,0.015798126
,,,1.85E-06,0.015808126
,,,1.86E-06,0.015770001
,,,1.87E-06,0.015639376
,,,1.88E-06,0.016087501
,,,1.89E-06,0.015618751
,,,1.9E-06,0.015904376
,,,1.91E-06,0.015694376
,,,1.92E-06,0.015568126
,,,1.93E-06,0.015597501
,,,1.94E-06,0.015723126
,,,1.95E-06,0.015852501
,,,1.96E-06,0.015555001
,,,1.97E-06,0.015808751
,,,1.98E-06,0.015624376
,,,1.99E-06,0.015745001
,,,2E-06,0.015716251
,,,2.01E-06,0.015722501
,,,2.02E-06,0.015704376
,,,2.03E-06,0.015730001
,,,2.04E-06,0.015495626
,,,2.05E-06,0.015820626
,,,2.06E-06,0.015424376
,,,2.07E-06,0.015605001
,,,2.08E-06,0.015663126
,,,2.09E-06,0.015615626
,,,2.1E-06,0.015499376
,,,2.11E-06,0.015637501
,,,2.12E-06,0.015710626
,,,2.13E-06,0.015836251
,,,2.14E-06,0.015855626
,,,2.15E-06,0.015604376
,,,2.16E-06,0.015756876
,,,2.17E-06,0.015594376
,,,2.18E-06,0.015638751
,,,2.19E-06,0.015448751
,,,2.2E-06,0.015652501
,,,2.21E-06,0.015700001
,,,2.22E-06,0.015760626
,,,2.23E-06,0.015700626
,,,2.24E-06,0.015621251
,,,2.25E-06,0.015741876
,,,2.26E-06,0.015521876
,,,2.27E-06,0.015859376
,,,2.28E-06,0.015703126
,,,2.29E-06,0.015638751
,,,2.3E-06,0.015739376
,,,2.31E-06,0.015660626
,,,2.32E-06,0.015712501
,,,2.33E-06,0.015687501
,,,2.34E-06,0.015903126
,,,2.35E-06,0.015594376
,,,2.36E-06,0.015710626
,,,2.37E-06,0.015924376
,,,2.38E-06,0.015832501
,,,2.39E-06,0.015765626
,,,2.4E-06,0.015716251
,,,2.41E-06,0.015801251
,,,2.42E-06,0.015419376
,,,2.43E-06,0.015659376
,,,2.44E-06,0.015863751
,,,2.45E-06,0.015722501
,,,2.46E-06,0.015831876
,,,2.47E-06,0.015727501
,,,2.48E-06,0.015890626
,,,2.49E-06,0.015630001
,,,2.5E-06,0.015855001
,,,2.51E-06,0.015587501
,,,2.52E-06,0.015657501
,,,2.53E-06,0.015877501
,,,2.54E-06,0.015808751
,,,2.55E-06,0.015691251
,,,2.56E-06,0.015684376
,,,2.57E-06,0.015929376
,,,2.58E-06,0.015740626
,,,2.59E-06,0.015617501
,,,2.6E-06,0.015985626
,,,2.61E-06,0.015711876
,,,2.62E-06,0.015675001
,,,2.63E-06,0.015630626
,,,2.64E-06,0.015816876
,,,2.65E-06,0.015910626
,,,2.66E-06,0.015771876
,,,2.67E-06,0.015836876
,,,2.68E-06,0.015646251
,,,2.69E-06,0.015520626
,,,2.7E-06,0.015915001
,,,2.71E-06,0.015726876
,,,2.72E-06,0.015903126
,,,2.73E-06,0.015786876
,,,2.74E-06,0.015727501
,,,2.75E-06,0.015811251
,,,2.76E-06,0.015683751
,,,2.77E-06,0.015921251
,,,2.78E-06,0.015734376
,,,2.79E-06,0.015610626
,,,2.8E-06,0.015628126
,,,2.81E-06,0.015846251
,,,2.82E-06,0.015956876
,,,2.83E-06,0.015783751
,,,2.84E-06,0.015697501
,,,2.85E-06,0.015750626
,,,2.86E-06,0.015777501
,,,2.87E-06,0.015695626
,,,2.88E-06,0.015485001
,,,2.89E-06,0.015683126
,,,2.9E-06,0.015819376
,,,2.91E-06,0.015800001
,,,2.92E-06,0.015574376
,,,2.93E-06,0.016005626
,,,2.94E-06,0.015918126
,,,2.95E-06,0.015830001
,,,2.96E-06,0.015687501
,,,2.97E-06,0.015986876
,,,2.98E-06,0.015613126
,,,2.99E-06,0.015670001
,,,3E-06,0.015471876
,,,3.01E-06,0.015623751
,,,3.02E-06,0.015652501
,,,3.03E-06,0.015811251
,,,3.04E-06,0.015675626
,,,3.05E-06,0.015779376
,,,3.06E-06,0.015907501
,,,3.07E-06,0.015620626
,,,3.08E-06,0.015539376
,,,3.09E-06,0.015653751
,,,3.1E-06,0.015814376
,,,3.11E-06,0.015727501
,,,3.12E-06,0.015680001
,,,3.13E-06,0.015725626
,,,3.14E-06,0.015935001
,,,3.15E-06,0.015721251
,,,3.16E-06,0.015778751
,,,3.17E-06,0.015677501
,,,3.18E-06,0.015776251
,,,3.19E-06,0.015890001
,,,3.2E-06,0.015725001
,,,3.21E-06,0.015635001
