data/raw/Final_POL_Test_1/SOP093_Ch4.csv

"Record Length",1000,"Points",-5E-06,0.020586875
"Sample Interval",1E-08,s,-4.99E-06,0.021020625
"Trigger Point",500,"Samples",-4.98E-06,0.020443125
"Trigger Time",0,s,-4.97E-06,0.0206425
"",,,-4.96E-06,0.0205325
"Horizontal Offset",-5E-06,s,-4.95E-06,0.020466875
,,,-4.94E-06,0.020570625
,,,-4.93E-06,0.02042625
,,,-4.92E-06,0.02084625
,,,-4.91E-06,0.020624375
,,,-4.9E-06,0.020761875
,,,-4.89E-06,0.020570625
,,,-4.88E-06,0.020489375
,,,-4.87E-06,0.020353125
,,,-4.86E-06,0.0205575
,,,-4.85E-06,0.02055375
,,,-4.84E-06,0.020694375
,,,-4.83E-06,0.02070125
,,,-4.82E-06,0.02067375
,,,-4.81E-06,0.020539375
,,,-4.8E-06,0.0204975
,,,-4.79E-06,0.02033375
,,,-4.78E-06,0.02054
,,,-4.77E-06,0.020480625
,,,-4.76E-06,0.02089625
,,,-4.75E-06,0.0205175
,,,-4.74E-06,0.020674375
,,,-4.73E-06,0.020599375
,,,-4.72E-06,0.02055875
,,,-4.71E-06,0.020610625
,,,-4.7E-06,0.0205275
,,,-4.69E-06,0.020545625
,,,-4.68E-06,0.020649375
,,,-4.67E-06,0.02058625
,,,-4.66E-06,0.020738125
,,,-4.65E-06,0.020654375
,,,-4.64E-06,0.020741875
,,,-4.63E-06,0.020689375
,,,-4.62E-06,0.0204
,,,-4.61E-06,0.02060125
,,,-4.6E-06,0.020684375
,,,-4.59E-06,0.0206025
,,,-4.58E-06,0.02108375
,,,-4.57E-06,0.02059375
,,,-4.56E-06,0.020435
,,,-4.55E-06,0.02099
,,,-4.54E-06,0.020409375
,,,-4.53E-06,0.02068625
,,,-4.52E-06,0.0208075
,,,-4.51E-06,0.02071375
,,,-4.5E-06,0.02074375
,,,-4.49E-06,0.0206025
,,,-4.48E-06,0.0205
,,,-4.47E-06,0.020710625
,,,-4.46E-06,0.02047625
,,,-4.45E-06,0.020543125
,,,-4.44E-06,0.02051875
,,,-4.43E-06,0.02075375
,,,-4.42E-06,0.0206725
,,,-4.41E-06,0.02077125
,,,-4.4E-06,0.02069875
,,,-4.39E-06,0.0208
,,,-4.38E-06,0.020495
,,,-4.37E-06,0.0206375
,,,-4.36E-06,0.0209
,,,-4.35E-06,0.02060875
,,,-4.34E-06,0.020503125
,,,-4.33E-06,0.020693125
,,,-4.32E-06,0.020544375
,,,-4.31E-06,0.02074375
,,,-4.3E-06,0.020710625
,,,-4.29E-06,0.020599375
,,,-4.28E-06,0.020526875
,,,-4.27E-06,0.020656875
,,,-4.26E-06,0.020733125
,,,-4.25E-06,0.02085875
,,,-4.24E-06,0.020755
,,,-4.23E-06,0.020525625
,,,-4.22E-06,0.02038125
,,,-4.21E-06,0.0206375
,,,-4.2E-06,0.020508125
,,,-4.19E-06,0.02063625
,,,-4.18E-06,0.02080625
,,,-4.17E-06,0.02050625
,,,-4.16E-06,0.0207675
,,,-4.15E-06,0.02056625
,,,-4.14E-06,0.020738125
,,,-4.13E-06,0.0207975
,,,-4.12E-06,0.020525625
,,,-4.11E-06,0.020393125
,,,-4.1E-06,0.02069375
,,,-4.09E-06,0.02062
,,,-4.08E-06,0.020698125
,,,-4.07E-06,0.020575
,,,-4.06E-06,0.020504375
,,,-4.05E-06,0.02073
,,,-4.04E-06,0.020723125
,,,-4.03E-06,0.020643125
,,,-4.02E-06,0.020875
,,,-4.01E-06,0.0207925
,,,-4E-06,0.0209675
,,,-3.99E-06,0.020768125
,,,-3.98E-06,0.0206325
,,,-3.97E-06,0.0205875
,,,-3.96E-06,0.02075375
,,,-3.95E-06,0.0207725
,,,-3.94E-06,0.02077625
,,,-3.93E-06,0.02106375
,,,-3.92E-06,0.020765
,,,-3.91E-06,0.020878125
,,,-3.9E-06,0.020615
,,,-3.89E-06,0.020435625
,,,-3.88E-06,0.020915
,,,-3.87E-06,0.02083125
,,,-3.86E-06,0.020544375
,,,-3.85E-06,0.020593125
,,,-3.84E-06,0.020951875
,,,-3.83E-06,0.02067
,,,-3.82E-06,0.02081875
,,,-3.81E-06,0.0205075
,,,-3.8E-06,0.020898125
,,,-3.79E-06,0.020561875
,,,-3.78E-06,0.020769375
,,,-3.77E-06,0.020725
,,,-3.76E-06,0.020760625
,,,-3.75E-06,0.020579375
,,,-3.74E-06,0.020833125
,,,-3.73E-06,0.020861875
,,,-3.72E-06,0.020815625
,,,-3.71E-06,0.0206625
,,,-3.7E-06,0.0205725
,,,-3.69E-06,0.020864375
,,,-3.68E-06,0.02057
,,,-3.67E-06,0.020755
,,,-3.66E-06,0.02052
,,,-3.65E-06,0.020651875
,,,-3.64E-06,0.020725
,,,-3.63E-06,0.020719375
,,,-3.62E-06,0.0205
,,,-3.61E-06,0.020364375
,,,-3.6E-06,0.02085125
,,,-3.59E-06,0.020726875
,,,-3.58E-06,0.020520625
,,,-3.57E-06,0.020686875
,,,-3.56E-06,0.0206
,,,-3.55E-06,0.0206025
,,,-3.54E-06,0.020620625
,,,-3.53E-06,0.020824375
,,,-3.52E-06,0.020705625
,,,-3.51E-06,0.02043625
,,,-3.5E-06,0.020688125
,,,-3.49E-06,0.02066875
,,,-3.48E-06,0.0206175
,,,-3.47E-06,0.020670625
,,,-3.46E-06,0.020449375
,,,-3.45E-06,0.020639375
,,,-3.44E-06,0.02071875
,,,-3.43E-06,0.02055125
,,,-3.42E-06,0.020775
,,,-3.41E-06,0.0207175
,,,-3.4E-06,0.02051625
,,,-3.39E-06,0.020648125
,,,-3.38E-06,0.020681875
,,,-3.37E-06,0.02049625
,,,-3.36E-06,0.020695625
,,,-3.35E-06,0.020665
,,,-3.34E-06,0.020464375
,,,-3.33E-06,0.020641875
,,,-3.32E-06,0.020755
,,,-3.31E-06,0.0207125
,,,-3.3E-06,0.0207425
,,,-3.29E-06,0.02051875
,,,-3.28E-06,0.02071875
,,,-3.27E-06,0.0206975
,,,-3.26E-06,0.02057875
,,,-3.25E-06,0.020794375
,,,-3.24E-06,0.0207475
,,,-3.23E-06,0.02062625
,,,-3.22E-06,0.02082
,,,-3.21E-06,0.02066
,,,-3.2E-06,0.02061375
,,,-3.19E-06,0.020718125
,,,-3.18E-06,0.0208125
,,,-3.17E-06,0.02074
,,,-3.16E-06,0.020703125
,,,-3.15E-06,0.02060875
,,,-3.14E-06,0.02059625
,,,-3.13E-06,0.02046875
,,,-3.12E-06,0.020746875
,,,-3.11E-06,0.020741875
,,,-3.1E-06,0.0206775
,,,-3.09E-06,0.020875
,,,-3.08E-06,0.020443125
,,,-3.07E-06,0.020785
,,,-3.06E-06,0.020798125
,,,-3.05E-06,0.02056375
,,,-3.04E-06,0.020478125
,,,-3.03E-06,0.020789375
,,,-3.02E-06,0.020801875
,,,-3.01E-06,0.020518125
,,,-3E-06,0.02076625
,,,-2.99E-06,0.020536875
,,,-2.98E-06,0.02029
,,,-2.97E-06,0.02048
,,,-2.96E-06,0.02024375
,,,-2.95E-06,0.020595
,,,-2.94E-06,0.020781875
,,,-2.93E-06,0.020745
,,,-2.92E-06,0.020608125
,,,-2.91E-06,0.020609375
,,,-2.9E-06,0.02063875
,,,-2.89E-06,0.0206275
,,,-2.88E-06,0.020440625
,,,-2.87E-06,0.020290625
,,,-2.86E-06,0.0207925
,,,-2.85E-06,0.020565625
,,,-2.84E-06,0.020839375
,,,-2.83E-06,0.020825
,,,-2.82E-06,0.020859375
,,,-2.81E-06,0.020588125
,,,-2.8E-06,0.020420625
,,,-2.79E-06,0.02066875
,,,-2.78E-06,0.020759375
,,,-2.77E-06,0.02039625
,,,-2.76E-06,0.02053875
,,,-2.75E-06,0.02055625
,,,-2.74E-06,0.02071
,,,-2.73E-06,0.02072125
,,,-2.72E-06,0.020700625
,,,-2.71E-06,0.02051375
,,,-2.7E-06,0.020604375
,,,-2.69E-06,0.0206725
,,,-2.68E-06,0.02056
,,,-2.67E-06,0.02073875
,,,-2.66E-06,0.020826875
,,,-2.65E-06,0.020816875
,,,-2.64E-06,0.0205925
,,,-2.63E-06,0.02067625
,,,-2.62E-06,0.0206275
,,,-2.61E-06,0.020728125
,,,-2.6E-06,0.02081875
,,,-2.59E-06,0.02045625
,,,-2.58E-06,0.020713125
,,,-2.57E-06,0.020585625
,,,-2.56E-06,0.020575
,,,-2.55E-06,0.02069875
,,,-2.54E-06,0.020679375
,,,-2.53E-06,0.020794375
,,,-2.52E-06,0.020438125
,,,-2.51E-06,0.020636875
,,,-2.5E-06,0.020579375
,,,-2.49E-06,0.020718125
,,,-2.48E-06,0.0207025
,,,-2.47E-06,0.020823125
,,,-2.46E-06,0.02051
,,,-2.45E-06,0.020790625
,,,-2.44E-06,0.02057625
,,,-2.43E-06,0.02083375
,,,-2.42E-06,0.020815625
,,,-2.41E-06,0.020570625
,,,-2.4E-06,0.020388125
,,,-2.39E-06,0.020663125
,,,-2.38E-06,0.0205525
,,,-2.37E-06,0.020785
,,,-2.36E-06,0.020629375
,,,-2.35E-06,0.02081125
,,,-2.34E-06,0.020696875
,,,-2.33E-06,0.020980625
,,,-2.32E-06,0.020650625
,,,-2.31E-06,0.020449375
,,,-2.3E-06,0.020755625
,,,-2.29E-06,0.020598125
,,,-2.28E-06,0.020906875
,,,-2.27E-06,0.02062875
,,,-2.26E-06,0.0206025
,,,-2.25E-06,0.020499375
,,,-2.24E-06,0.02069
,,,-2.23E-06,0.020973125
,,,-2.22E-06,0.02052125
,,,-2.21E-06,0.0206425
,,,-2.2E-06,0.02051
,,,-2.19E-06,0.0205675
,,,-2.18E-06,0.020693125
,,,-2.17E-06,0.020529375
,,,-2.16E-06,0.020579375
,,,-2.15E-06,0.020605
,,,-2.14E-06,0.020624375
,,,-2.13E-06,0.020416875
,,,-2.12E-06,0.02081875
,,,-2.11E-06,0.02064
,,,-2.1E-06,0.02056
,,,-2.09E-06,0.02064125
,,,-2.08E-06,0.020765
,,,-2.07E-06,0.020398125
,,,-2.06E-06,0.02069
,,,-2.05E-06,0.020504375
,,,-2.04E-06,0.020855
,,,-2.03E-06,0.020644375
,,,-2.02E-06,0.02053125
,,,-2.01E-06,0.020836875
,,,-2E-06,0.02063125
,,,-1.99E-06,0.020549375
,,,-1.98E-06,0.020596875
,,,-1.97E-06,0.020373125
,,,-1.96E-06,0.020536875
,,,-1.95E-06,0.020798125
,,,-1.94E-06,0.020759375
,,,-1.93E-06,0.020711875
,,,-1.92E-06,0.020718125
,,,-1.91E-06,0.020608125
,,,-1.9E-06,0.0206825
,,,-1.89E-06,0.02057
,,,-1.88E-06,0.02067
,,,-1.87E-06,0.02068
,,,-1.86E-06,0.020785625
,,,-1.85E-06,0.020786875
,,,-1.84E-06,0.0205575
,,,-1.83E-06,0.02073375
,,,-1.82E-06,0.020424375
,,,-1.81E-06,0.0206575
,,,-1.8E-06,0.0207825
,,,-1.79E-06,0.0209525
,,,-1.78E-06,0.02065125
,,,-1.77E-06,0.020646875
,,,-1.76E-06,0.0205175
,,,-1.75E-06,0.020304375
,,,-1.74E-06,0.020520625
,,,-1.73E-06,0.0207275
,,,-1.72E-06,0.02086875
,,,-1.71E-06,0.02079875
,,,-1.7E-06,0.020719375
,,,-1.69E-06,0.02053125
,,,-1.68E-06,0.020555625
,,,-1.67E-06,0.0205375
,,,-1.66E-06,0.02051875
,,,-1.65E-06,0.02095375
,,,-1.64E-06,0.02057875
,,,-1.63E-06,0.020874375
,,,-1.62E-06,0.02058
,,,-1.61E-06,0.020670625
,,,-1.6E-06,0.02074
,,,-1.59E-06,0.02054125
,,,-1.58E-06,0.020796875
,,,-1.57E-06,0.02035125
,,,-1.56E-06,0.02072875
,,,-1.55E-06,0.020553125
,,,-1.54E-06,0.020794375
,,,-1.53E-06,0.020350625
,,,-1.52E-06,0.020645625
,,,-1.51E-06,0.020438125
,,,-1.5E-06,0.020611875
,,,-1.49E-06,0.020595
,,,-1.48E-06,0.02080125
,,,-1.47E-06,0.020738125
,,,-1.46E-06,0.020761875
,,,-1.45E-06,0.020660625
,,,-1.44E-06,0.0207625
,,,-1.43E-06,0.020561875
,,,-1.42E-06,0.020386875
,,,-1.41E-06,0.02057125
,,,-1.4E-06,0.0204325
,,,-1.39E-06,0.0208875
,,,-1.38E-06,0.02051375
,,,-1.37E-06,0.02079375
,,,-1.36E-06,0.020600625
,,,-1.35E-06,0.02084375
,,,-1.34E-06,0.02087375
,,,-1.33E-06,0.02084
,,,-1.32E-06,0.020693125
,,,-1.31E-06,0.020409375
,,,-1.3E-06,0.020564375
,,,-1.29E-06,0.020720625
,,,-1.28E-06,0.020685625
,,,-1.27E-06,0.0206475
,,,-1.26E-06,0.020818125
,,,-1.25E-06,0.020588125
,,,-1.24E-06,0.0204025
,,,-1.23E-06,0.020520625
,,,-1.22E-06,0.020635625
,,,-1.21E-06,0.02088
,,,-1.2E-06,0.02066125
,,,-1.19E-06,0.02084125
,,,-1.18E-06,0.02050125
,,,-1.17E-06,0.02063625
,,,-1.16E-06,0.020605
,,,-1.15E-06,0.0204925
,,,-1.14E-06,0.020504375
,,,-1.13E-06,0.02081
,,,-1.12E-06,0.0209
,,,-1.11E-06,0.020724375
,,,-1.1E-06,0.02059375
,,,-1.09E-06,0.02069375
,,,-1.08E-06,0.02026875
,,,-1.07E-06,0.020803125
,,,-1.06E-06,0.020685
,,,-1.05E-06,0.020535
,,,-1.04E-06,0.0207775
,,,-1.03E-06,0.020585
,,,-1.02E-06,0.020798125
,,,-1.01E-06,0.020785
,,,-1E-06,0.0206475
,,,-9.9E-07,0.0205525
,,,-9.8E-07,0.020509375
,,,-9.7E-07,0.020583125
,,,-9.6E-07,0.020543125
,,,-9.5E-07,0.02092
,,,-9.4E-07,0.020601875
,,,-9.3E-07,0.020685
,,,-9.2E-07,0.020525
,,,-9.1E-07,0.02060625
,,,-9E-07,0.02064375
,,,-8.9E-07,0.0209625
,,,-8.8E-07,0.02086875
,,,-8.7E-07,0.0207325
,,,-8.6E-07,0.020570625
,,,-8.5E-07,0.020599375
,,,-8.4E-07,0.020629375
,,,-8.3E-07,0.0205225
,,,-8.2E-07,0.0204775
,,,-8.1E-07,0.02056
,,,-8E-07,0.020610625
,,,-7.9E-07,0.02065125
,,,-7.8E-07,0.020753125
,,,-7.7E-07,0.020628125
,,,-7.6E-07,0.0207225
,,,-7.5E-07,0.02031875
,,,-7.4E-07,0.020785625
,,,-7.3E-07,0.020918125
,,,-7.2E-07,0.020721875
,,,-7.1E-07,0.020729375
,,,-7E-07,0.020606875
,,,-6.9E-07,0.02071125
,,,-6.8E-07,0.02076875
,,,-6.7E-07,0.020325
,,,-6.6E-07,0.020724375
,,,-6.5E-07,0.020660625
,,,-6.4E-07,0.020764375
,,,-6.3E-07,0.020655625
,,,-6.2E-07,0.020755
,,,-6.1E-07,0.02073
,,,-6E-07,0.020779375
,,,-5.9E-07,0.0205825
,,,-5.8E-07,0.020705625
,,,-5.7E-07,0.0206475
,,,-5.6E-07,0.020594375
,,,-5.5E-07,0.02066
,,,-5.4E-07,0.020870625
,,,-5.3E-07,0.020685625
,,,-5.2E-07,0.020351875
,,,-5.1E-07,0.020806875
,,,-5E-07,0.02043
,,,-4.9E-07,0.020785625
,,,-4.8E-07,0.020698125
,,,-4.7E-07,0.020798125
,,,-4.6E-07,0.020776875
,,,-4.5E-07,0.020629375
,,,-4.4E-07,0.0206675
,,,-4.3E-07,0.02075875
,,,-4.2E-07,0.02069625
,,,-4.1E-07,0.02058375
,,,-4E-07,0.0207175
,,,-3.9E-07,0.020479375
,,,-3.8E-07,0.020765625
,,,-3.7E-07,0.020475625
,,,-3.6E-07,0.020545
,,,-3.5E-07,0.020725
,,,-3.4E-07,0.020720625
,,,-3.3E-07,0.0206175
,,,-3.2E-07,0.02048875
,,,-3.1E-07,0.020529375
,,,-3E-07,0.020414375
,,,-2.9E-07,0.02033
,,,-2.8E-07,0.020585625
,,,-2.7E-07,0.020594375
,,,-2.6E-07,0.021000625
,,,-2.5E-07,0.02037375
,,,-2.4E-07,0.020466875
,,,-2.3E-07,0.020871875
,,,-2.2E-07,0.0205675
,,,-2.1E-07,0.020546875
,,,-2E-07,0.02054625
,,,-1.9E-07,0.020539375
,,,-1.8E-07,0.02083
,,,-1.7E-07,0.020701875
,,,-1.6E-07,0.02090625
,,,-1.5E-07,0.020495
,,,-1.4E-07,0.02059375
,,,-1.3E-07,0.0205425
,,,-1.2E-07,0.020798125
,,,-1.1E-07,0.020479375
,,,-1E-07,0.020640625
,,,-9E-08,0.02072
,,,-8E-08,0.020629375
,,,-7E-08,0.020205625
,,,-6E-08,0.0209725
,,,-5E-08,0.0212275
,,,-4E-08,0.02244125
,,,-3E-08,0.01961
,,,-2E-08,0.019793125
,,,-1E-08,0.018873125
,,,0,0.02098375
,,,1E-08,0.02157125
,,,2E-08,0.0224025
,,,3E-08,0.02108
,,,4E-08,0.020233125
,,,5E-08,0.0196525
,,,6E-08,0.01952
,,,7E-08,0.0204775
,,,8E-08,0.0209775
,,,9E-08,0.021494375
,,,1E-07,0.021235
,,,1.1E-07,0.020591875
,,,1.2E-07,0.02017625
,,,1.3E-07,0.0204575
,,,1.4E-07,0.02068625
,,,1.5E-07,0.02065625
,,,1.6E-07,0.02083875
,,,1.7E-07,0.020906875
,,,1.8E-07,0.02082875
,,,1.9E-07,0.02097625
,,,2E-07,0.02049
,,,2.1E-07,0.0206425
,,,2.2E-07,0.020655
,,,2.3E-07,0.020478125
,,,2.4E-07,0.020724375
,,,2.5E-07,0.0206725
,,,2.6E-07,0.020771875
,,,2.7E-07,0.020490625
,,,2.8E-07,0.020821875
,,,2.9E-07,0.020805625
,,,3E-07,0.02048375
,,,3.1E-07,0.02079125
,,,3.2E-07,0.02063875
,,,3.3E-07,0.0206025
,,,3.4E-07,0.02068
,,,3.5E-07,0.020443125
,,,3.6E-07,0.02074375
,,,3.7E-07,0.020730625
,,,3.8E-07,0.02090375
,,,3.9E-07,0.020679375
,,,4E-07,0.02085125
,,,4.1E-07,0.02064625
,,,4.2E-07,0.020525625
,,,4.3E-07,0.020723125
,,,4.4E-07,0.020659375
,,,4.5E-07,0.0205075
,,,4.6E-07,0.020584375
,,,4.7E-07,0.020535625
,,,4.8E-07,0.020776875
,,,4.9E-07,0.02074125
,,,5E-07,0.020716875
,,,5.1E-07,0.020688125
,,,5.2E-07,0.020715
,,,5.3E-07,0.020656875
,,,5.4E-07,0.020689375
,,,5.5E-07,0.0203525
,,,5.6E-07,0.02057625
,,,5.7E-07,0.020574375
,,,5.8E-07,0.020728125
,,,5.9E-07,0.02068125
,,,6E-07,0.020648125
,,,6.1E-07,0.020668125
,,,6.2E-07,0.020504375
,,,6.3E-07,0.020585625
,,,6.4E-07,0.020654375
,,,6.5E-07,0.020716875
,,,6.6E-07,0.020723125
,,,6.7E-07,0.020675625
,,,6.8E-07,0.02078125
,,,6.9E-07,0.0205825
,,,7E-07,0.02067875
,,,7.1E-07,0.020545
,,,7.2E-07,0.020294375
,,,7.3E-07,0.0206625
,,,7.4E-07,0.020863125
,,,7.5E-07,0.020674375
,,,7.6E-07,0.020735
,,,7.7E-07,0.020790625
,,,7.8E-07,0.020729375
,,,7.9E-07,0.02061125
,,,8E-07,0.020795
,,,8.1E-07,0.02079
,,,8.2E-07,0.0206225
,,,8.3E-07,0.020616875
,,,8.4E-07,0.020615625
,,,8.5E-07,0.021111875
,,,8.6E-07,0.020661875
,,,8.7E-07,0.0205725
,,,8.8E-07,0.020415625
,,,8.9E-07,0.020430625
,,,9E-07,0.020665625
,,,9.1E-07,0.02064125
,,,9.2E-07,0.020759375
,,,9.3E-07,0.020708125
,,,9.4E-07,0.020585
,,,9.5E-07,0.02061
,,,9.6E-07,0.0205725
,,,9.7E-07,0.02050875
,,,9.8E-07,0.020531875
,,,9.9E-07,0.020459375
,,,1E-06,0.020774375
,,,1.01E-06,0.020645
,,,1.02E-06,0.02090625
,,,1.03E-06,0.020645
,,,1.04E-06,0.020846875
,,,1.05E-06,0.020560625
,,,1.06E-06,0.0204
,,,1.07E-06,0.020738125
,,,1.08E-06,0.020874375
,,,1.09E-06,0.020765625
,,,1.1E-06,0.0206175
,,,1.11E-06,0.0206075
,,,1.12E-06,0.0204425
,,,1.13E-06,0.020675625
,,,1.14E-06,0.020671875
,,,1.15E-06,0.020701875
,,,1.16E-06,0.020720625
,,,1.17E-06,0.020775625
,,,1.18E-06,0.0209825
,,,1.19E-06,0.020600625
,,,1.2E-06,0.02076375
,,,1.21E-06,0.0207525
,,,1.22E-06,0.020560625
,,,1.23E-06,0.020931875
,,,1.24E-06,0.02070625
,,,1.25E-06,0.02063125
,,,1.26E-06,0.020605625
,,,1.27E-06,0.020685
,,,1.28E-06,0.020856875
,,,1.29E-06,0.020661875
,,,1.3E-06,0.020533125
,,,1.31E-06,0.02061625
,,,1.32E-06,0.02078875
,,,1.33E-06,0.020605
,,,1.34E-06,0.020403125
,,,1.35E-06,0.020645625
,,,1.36E-06,0.02063125
,,,1.37E-06,0.020570625
,,,1.38E-06,0.0207125
,,,1.39E-06,0.0209475
,,,1.4E-06,0.020655
,,,1.41E-06,0.02073375
,,,1.42E-06,0.020601875
,,,1.43E-06,0.020954375
,,,1.44E-06,0.02054
,,,1.45E-06,0.020631875
,,,1.46E-06,0.02051875
,,,1.47E-06,0.02072125
,,,1.48E-06,0.0207575
,,,1.49E-06,0.0206825
,,,1.5E-06,0.020664375
,,,1.51E-06,0.020515
,,,1.52E-06,0.02082
,,,1.53E-06,0.0206125
,,,1.54E-06,0.020675
,,,1.55E-06,0.0204975
,,,1.56E-06,0.02078
,,,1.57E-06,0.020844375
,,,1.58E-06,0.020418125
,,,1.59E-06,0.0206
,,,1.6E-06,0.02061
,,,1.61E-06,0.020865
,,,1.62E-06,0.02089625
,,,1.63E-06,0.02056625
,,,1.64E-06,0.020605
,,,1.65E-06,0.02081625
,,,1.66E-06,0.02074375
,,,1.67E-06,0.02051
,,,1.68E-06,0.020638125
,,,1.69E-06,0.02049625
,,,1.7E-06,0.020759375
,,,1.71E-06,0.020605
,,,1.72E-06,0.02072625
,,,1.73E-06,0.02089375
,,,1.74E-06,0.02062375
,,,1.75E-06,0.020573125
,,,1.76E-06,0.020695
,,,1.77E-06,0.02034375
,,,1.78E-06,0.020875625
,,,1.79E-06,0.02063625
,,,1.8E-06,0.02076375
,,,1.81E-06,0.02054875
,,,1.82E-06,0.020709375
,,,1.83E-06,0.0208675
,,,1.84E-06,0.020814375
,,,1.85E-06,0.0207275
,,,1.86E-06,0.02053875
,,,1.87E-06,0.02059
,,,1.88E-06,0.020604375
,,,1.89E-06,0.020720625
,,,1.9E-06,0.0207225
,,,1.91E-06,0.020469375
,,,1.92E-06,0.020238125
,,,1.93E-06,0.020819375
,,,1.94E-06,0.020785
,,,1.95E-06,0.0207325
,,,1.96E-06,0.020770625
,,,1.97E-06,0.020815
,,,1.98E-06,0.020761875
,,,1.99E-06,0.020473125
,,,2E-06,0.0205525
,,,2.01E-06,0.020716875
,,,2.02E-06,0.02049875
,,,2.03E-06,0.020775
,,,2.04E-06,0.020433125
,,,2.05E-06,0.020761875
,,,2.06E-06,0.020629375
,,,2.07E-06,0.020693125
,,,2.08E-06,0.02057125
,,,2.09E-06,0.02079375
,,,2.1E-06,0.021154375
,,,2.11E-06,0.020670625
,,,2.12E-06,0.020564375
,,,2.13E-06,0.020673125
,,,2.14E-06,0.020410625
,,,2.15E-06,0.020618125
,,,2.16E-06,0.020790625
,,,2.17E-06,0.020636875
,,,2.18E-06,0.020721875
,,,2.19E-06,0.02083
,,,2.2E-06,0.020588125
,,,2.21E-06,0.020454375
,,,2.22E-06,0.020918125
,,,2.23E-06,0.020783125
,,,2.24E-06,0.02105375
,,,2.25E-06,0.020593125
,,,2.26E-06,0.020713125
,,,2.27E-06,0.02074625
,,,2.28E-06,0.020663125
,,,2.29E-06,0.020461875
,,,2.3E-06,0.020741875
,,,2.31E-06,0.02062125
,,,2.32E-06,0.0206075
,,,2.33E-06,0.020705
,,,2.34E-06,0.020541875
,,,2.35E-06,0.020551875
,,,2.36E-06,0.020884375
,,,2.37E-06,0.020566875
,,,2.38E-06,0.02061125
,,,2.39E-06,0.020708125
,,,2.4E-06,0.02058375
,,,2.41E-06,0.0206125
,,,2.42E-06,0.02082
,,,2.43E-06,0.020819375
,,,2.44E-06,0.020483125
,,,2.45E-06,0.020515625
,,,2.46E-06,0.02055
,,,2.47E-06,0.020469375
,,,2.48E-06,0.020488125
,,,2.49E-06,0.020741875
,,,2.5E-06,0.02066375
,,,2.51E-06,0.02094375
,,,2.52E-06,0.020855625
,,,2.53E-06,0.020969375
,,,2.54E-06,0.020643125
,,,2.55E-06,0.02093
,,,2.56E-06,0.020748125
,,,2.57E-06,0.02071375
,,,2.58E-06,0.020609375
,,,2.59E-06,0.02109125
,,,2.6E-06,0.0207325
,,,2.61E-06,0.0206425
,,,2.62E-06,0.020651875
,,,2.63E-06,0.020503125
,,,2.64E-06,0.020589375
,,,2.65E-06,0.02043375
,,,2.66E-06,0.020449375
,,,2.67E-06,0.020725
,,,2.68E-06,0.02058125
,,,2.69E-06,0.020849375
,,,2.7E-06,0.02057
,,,2.71E-06,0.020579375
,,,2.72E-06,0.02050875
,,,2.73E-06,0.02053625
,,,2.74E-06,0.0206575
,,,2.75E-06,0.020710625
,,,2.76E-06,0.020855625
,,,2.77E-06,0.021019375
,,,2.78E-06,0.02056125
,,,2.79E-06,0.020671875
,,,2.8E-06,0.0207925
,,,2.81E-06,0.020665
,,,2.82E-06,0.020826875
,,,2.83E-06,0.020879375
,,,2.84E-06,0.02096375
,,,2.85E-06,0.02072875
,,,2.86E-06,0.020783125
,,,2.87E-06,0.020669375
,,,2.88E-06,0.020716875
,,,2.89E-06,0.02059
,,,2.9E-06,0.020631875
,,,2.91E-06,0.02032875
,,,2.92E-06,0.020683125
,,,2.93E-06,0.02065125
,,,2.94E-06,0.02055875
,,,2.95E-06,0.02045
,,,2.96E-06,0.02078625
,,,2.97E-06,0.020665
,,,2.98E-06,0.0205525
,,,2.99E-06,0.0206
,,,3E-06,0.020648125
,,,3.01E-06,0.020859375
,,,3.02E-06,0.0207525
,,,3.03E-06,0.020425625
,,,3.04E-06,0.020521875
,,,3.05E-06,0.02091875
,,,3.06E-06,0.02061625
,,,3.07E-06,0.02064625
,,,3.08E-06,0.02077625
,,,3.09E-06,0.020740625
,,,3.1E-06,0.020714375
,,,3.11E-06,0.020555
,,,3.12E-06,0.02072375
,,,3.13E-06,0.020588125
,,,3.14E-06,0.0204825
,,,3.15E-06,0.020771875
,,,3.16E-06,0.020665
,,,3.17E-06,0.02088375
,,,3.18E-06,0.0208725
,,,3.19E-06,0.020789375
,,,3.2E-06,0.02068375
,,,3.21E-06,0.020548125
,,,3.22E-06,0.02073625
,,,3.23E-06,0.020859375
,,,3.24E-06,0.02089
,,,3.25E-06,0.02081875
,,,3.26E-06,0.0206125
,,,3.27E-06,0.0205875
,,,3.28E-06,0.020616875
,,,3.29E-06,0.02066
,,,3.3E-06,0.020559375
,,,3.31E-06,0.02063375
,,,3.32E-06,0.020764375
,,,3.33E-06,0.020939375
,,,3.34E-06,0.02075375
,,,3.35E-06,0.02089875
,,,3.36E-06,0.020714375
,,,3.37E-06,0.020358125
,,,3.38E-06,0.02079375
,,,3.39E-06,0.02071125
,,,3.4E-06,0.020723125
,,,3.41E-06,0.020445
,,,3.42E-06,0.0204525
,,,3.43E-06,0.02071625
,,,3.44E-06,0.020500625
,,,3.45E-06,0.0202625
,,,3.46E-06,0.02052875
,,,3.47E-06,0.020258125
,,,3.48E-06,0.02038875
,,,3.49E-06,0.020433125
,,,3.5E-06,0.02062375
,,,3.51E-06,0.020846875
,,,3.52E-06,0.020575625
,,,3.53E-06,0.02059
,,,3.54E-06,0.02056875
,,,3.55E-06,0.0206275
,,,3.56E-06,0.021024375
,,,3.57E-06,0.020894375
,,,3.58E-06,0.020775
,,,3.59E-06,0.020506875
