data/raw/Final_POL_Test_1/SOP082_Ch3.csv

"Record Length",1000,"Points",-5E-06,0.019099376
"Sample Interval",1E-08,s,-4.99E-06,0.019520001
"Trigger Point",500,"Samples",-4.98E-06,0.019254376
"Trigger Time",0,s,-4.97E-06,0.019200001
"",,,-4.96E-06,0.019383751
"Horizontal Offset",-5E-06,s,-4.95E-06,0.018977501
,,,-4.94E-06,0.019240626
,,,-4.93E-06,0.019336251
,,,-4.92E-06,0.019323126
,,,-4.91E-06,0.019314376
,,,-4.9E-06,0.019437501
,,,-4.89E-06,0.019427501
,,,-4.88E-06,0.019276251
,,,-4.87E-06,0.019416251
,,,-4.86E-06,0.019178751
,,,-4.85E-06,0.019241251
,,,-4.84E-06,0.019184376
,,,-4.83E-06,0.019397501
,,,-4.82E-06,0.019208751
,,,-4.81E-06,0.019006876
,,,-4.8E-06,0.019366876
,,,-4.79E-06,0.019208126
,,,-4.78E-06,0.019353751
,,,-4.77E-06,0.019394376
,,,-4.76E-06,0.019240626
,,,-4.75E-06,0.019169376
,,,-4.74E-06,0.019236251
,,,-4.73E-06,0.019265001
,,,-4.72E-06,0.019120626
,,,-4.71E-06,0.019245001
,,,-4.7E-06,0.019259376
,,,-4.69E-06,0.019271876
,,,-4.68E-06,0.019518126
,,,-4.67E-06,0.019353751
,,,-4.66E-06,0.019259376
,,,-4.65E-06,0.019262501
,,,-4.64E-06,0.019379376
,,,-4.63E-06,0.019307501
,,,-4.62E-06,0.019241251
,,,-4.61E-06,0.019219376
,,,-4.6E-06,0.019365626
,,,-4.59E-06,0.019331251
,,,-4.58E-06,0.019173751
,,,-4.57E-06,0.019295001
,,,-4.56E-06,0.019106251
,,,-4.55E-06,0.019271876
,,,-4.54E-06,0.019227501
,,,-4.53E-06,0.019425626
,,,-4.52E-06,0.019425626
,,,-4.51E-06,0.019637501
,,,-4.5E-06,0.019144376
,,,-4.49E-06,0.019172501
,,,-4.48E-06,0.019248126
,,,-4.47E-06,0.019323751
,,,-4.46E-06,0.019222501
,,,-4.45E-06,0.019356876
,,,-4.44E-06,0.019202501
,,,-4.43E-06,0.019271876
,,,-4.42E-06,0.019190626
,,,-4.41E-06,0.019340626
,,,-4.4E-06,0.019330626
,,,-4.39E-06,0.019382501
,,,-4.38E-06,0.019312501
,,,-4.37E-06,0.019219376
,,,-4.36E-06,0.019311876
,,,-4.35E-06,0.019633751
,,,-4.34E-06,0.019598126
,,,-4.33E-06,0.019451251
,,,-4.32E-06,0.019497501
,,,-4.31E-06,0.019295626
,,,-4.3E-06,0.019403751
,,,-4.29E-06,0.019228126
,,,-4.28E-06,0.019205626
,,,-4.27E-06,0.019165001
,,,-4.26E-06,0.019431251
,,,-4.25E-06,0.019163751
,,,-4.24E-06,0.019165001
,,,-4.23E-06,0.019207501
,,,-4.22E-06,0.019166876
,,,-4.21E-06,0.019256876
,,,-4.2E-06,0.019368126
,,,-4.19E-06,0.019474376
,,,-4.18E-06,0.018913751
,,,-4.17E-06,0.019395626
,,,-4.16E-06,0.019131876
,,,-4.15E-06,0.019328751
,,,-4.14E-06,0.019258751
,,,-4.13E-06,0.019432501
,,,-4.12E-06,0.019213751
,,,-4.11E-06,0.019143126
,,,-4.1E-06,0.019389376
,,,-4.09E-06,0.019343751
,,,-4.08E-06,0.019245001
,,,-4.07E-06,0.019131876
,,,-4.06E-06,0.019404376
,,,-4.05E-06,0.019404376
,,,-4.04E-06,0.019079376
,,,-4.03E-06,0.019238751
,,,-4.02E-06,0.019273751
,,,-4.01E-06,0.019255001
,,,-4E-06,0.019260626
,,,-3.99E-06,0.019112501
,,,-3.98E-06,0.019058751
,,,-3.97E-06,0.019088126
,,,-3.96E-06,0.019394376
,,,-3.95E-06,0.019335001
,,,-3.94E-06,0.019280626
,,,-3.93E-06,0.019318126
,,,-3.92E-06,0.019180626
,,,-3.91E-06,0.019135626
,,,-3.9E-06,0.019295626
,,,-3.89E-06,0.019397501
,,,-3.88E-06,0.019334376
,,,-3.87E-06,0.019150001
,,,-3.86E-06,0.019031876
,,,-3.85E-06,0.019192501
,,,-3.84E-06,0.019323751
,,,-3.83E-06,0.019337501
,,,-3.82E-06,0.019376251
,,,-3.81E-06,0.019235001
,,,-3.8E-06,0.019118751
,,,-3.79E-06,0.019334376
,,,-3.78E-06,0.019369376
,,,-3.77E-06,0.019058751
,,,-3.76E-06,0.019176251
,,,-3.75E-06,0.019177501
,,,-3.74E-06,0.019078751
,,,-3.73E-06,0.019302501
,,,-3.72E-06,0.019167501
,,,-3.71E-06,0.019328751
,,,-3.7E-06,0.019193751
,,,-3.69E-06,0.019351251
,,,-3.68E-06,0.019285001
,,,-3.67E-06,0.019275001
,,,-3.66E-06,0.019594376
,,,-3.65E-06,0.019479376
,,,-3.64E-06,0.019364376
,,,-3.63E-06,0.019439376
,,,-3.62E-06,0.019248126
,,,-3.61E-06,0.019241251
,,,-3.6E-06,0.019394376
,,,-3.59E-06,0.019414376
,,,-3.58E-06,0.019325626
,,,-3.57E-06,0.019260626
,,,-3.56E-06,0.019335626
,,,-3.55E-06,0.019371876
,,,-3.54E-06,0.019474376
,,,-3.53E-06,0.019361876
,,,-3.52E-06,0.019108751
,,,-3.51E-06,0.019202501
,,,-3.5E-06,0.019256876
,,,-3.49E-06,0.019330626
,,,-3.48E-06,0.019312501
,,,-3.47E-06,0.019250626
,,,-3.46E-06,0.019304376
,,,-3.45E-06,0.019340626
,,,-3.44E-06,0.019256251
,,,-3.43E-06,0.019218751
,,,-3.42E-06,0.019628751
,,,-3.41E-06,0.019375001
,,,-3.4E-06,0.019019376
,,,-3.39E-06,0.019261876
,,,-3.38E-06,0.019351876
,,,-3.37E-06,0.019421876
,,,-3.36E-06,0.019227501
,,,-3.35E-06,0.019612501
,,,-3.34E-06,0.019095001
,,,-3.33E-06,0.019318126
,,,-3.32E-06,0.019585001
,,,-3.31E-06,0.019276876
,,,-3.3E-06,0.019160626
,,,-3.29E-06,0.019128751
,,,-3.28E-06,0.019082501
,,,-3.27E-06,0.019121251
,,,-3.26E-06,0.019311251
,,,-3.25E-06,0.019213126
,,,-3.24E-06,0.019302501
,,,-3.23E-06,0.019252501
,,,-3.22E-06,0.019508126
,,,-3.21E-06,0.019353751
,,,-3.2E-06,0.019308126
,,,-3.19E-06,0.019197501
,,,-3.18E-06,0.019408126
,,,-3.17E-06,0.019296251
,,,-3.16E-06,0.019358751
,,,-3.15E-06,0.019268751
,,,-3.14E-06,0.019348126
,,,-3.13E-06,0.019436876
,,,-3.12E-06,0.019195626
,,,-3.11E-06,0.019027501
,,,-3.1E-06,0.019288126
,,,-3.09E-06,0.019182501
,,,-3.08E-06,0.019435626
,,,-3.07E-06,0.019166251
,,,-3.06E-06,0.019375001
,,,-3.05E-06,0.019416876
,,,-3.04E-06,0.019355001
,,,-3.03E-06,0.019413126
,,,-3.02E-06,0.018966251
,,,-3.01E-06,0.019227501
,,,-3E-06,0.019446251
,,,-2.99E-06,0.019217501
,,,-2.98E-06,0.019218126
,,,-2.97E-06,0.019241876
,,,-2.96E-06,0.019217501
,,,-2.95E-06,0.019076251
,,,-2.94E-06,0.019395001
,,,-2.93E-06,0.019106251
,,,-2.92E-06,0.019293126
,,,-2.91E-06,0.019243751
,,,-2.9E-06,0.019281876
,,,-2.89E-06,0.019406251
,,,-2.88E-06,0.019321251
,,,-2.87E-06,0.019385626
,,,-2.86E-06,0.019133126
,,,-2.85E-06,0.019306251
,,,-2.84E-06,0.019247501
,,,-2.83E-06,0.019375626
,,,-2.82E-06,0.019157501
,,,-2.81E-06,0.019153126
,,,-2.8E-06,0.019134376
,,,-2.79E-06,0.019302501
,,,-2.78E-06,0.018921251
,,,-2.77E-06,0.019281876
,,,-2.76E-06,0.019247501
,,,-2.75E-06,0.019125001
,,,-2.74E-06,0.019210001
,,,-2.73E-06,0.019188751
,,,-2.72E-06,0.019208751
,,,-2.71E-06,0.019476876
,,,-2.7E-06,0.019255626
,,,-2.69E-06,0.019267501
,,,-2.68E-06,0.019323126
,,,-2.67E-06,0.019278751
,,,-2.66E-06,0.019153751
,,,-2.65E-06,0.019417501
,,,-2.64E-06,0.019335626
,,,-2.63E-06,0.019325001
,,,-2.62E-06,0.019436251
,,,-2.61E-06,0.018938126
,,,-2.6E-06,0.019333751
,,,-2.59E-06,0.019413751
,,,-2.58E-06,0.019276876
,,,-2.57E-06,0.019310626
,,,-2.56E-06,0.019375626
,,,-2.55E-06,0.019341251
,,,-2.54E-06,0.019301251
,,,-2.53E-06,0.019460626
,,,-2.52E-06,0.019333126
,,,-2.51E-06,0.019125001
,,,-2.5E-06,0.019430001
,,,-2.49E-06,0.019316251
,,,-2.48E-06,0.019205626
,,,-2.47E-06,0.019203126
,,,-2.46E-06,0.019078751
,,,-2.45E-06,0.019199376
,,,-2.44E-06,0.019308751
,,,-2.43E-06,0.019282501
,,,-2.42E-06,0.019326876
,,,-2.41E-06,0.019352501
,,,-2.4E-06,0.019290626
,,,-2.39E-06,0.019303751
,,,-2.38E-06,0.019261251
,,,-2.37E-06,0.019245001
,,,-2.36E-06,0.019464376
,,,-2.35E-06,0.019205001
,,,-2.34E-06,0.019255626
,,,-2.33E-06,0.019086251
,,,-2.32E-06,0.019371251
,,,-2.31E-06,0.019226251
,,,-2.3E-06,0.019278751
,,,-2.29E-06,0.019175001
,,,-2.28E-06,0.019111251
,,,-2.27E-06,0.019260626
,,,-2.26E-06,0.019393751
,,,-2.25E-06,0.019366251
,,,-2.24E-06,0.019332501
,,,-2.23E-06,0.019523126
,,,-2.22E-06,0.019167501
,,,-2.21E-06,0.019208126
,,,-2.2E-06,0.019298126
,,,-2.19E-06,0.019368751
,,,-2.18E-06,0.019197501
,,,-2.17E-06,0.019430001
,,,-2.16E-06,0.019250001
,,,-2.15E-06,0.019530001
,,,-2.14E-06,0.019035626
,,,-2.13E-06,0.019273126
,,,-2.12E-06,0.019308751
,,,-2.11E-06,0.019362501
,,,-2.1E-06,0.019253126
,,,-2.09E-06,0.019263751
,,,-2.08E-06,0.019433126
,,,-2.07E-06,0.019423751
,,,-2.06E-06,0.019157501
,,,-2.05E-06,0.019234376
,,,-2.04E-06,0.019290001
,,,-2.03E-06,0.019096251
,,,-2.02E-06,0.019398126
,,,-2.01E-06,0.019376251
,,,-2E-06,0.019216251
,,,-1.99E-06,0.019231876
,,,-1.98E-06,0.018990626
,,,-1.97E-06,0.019246876
,,,-1.96E-06,0.019417501
,,,-1.95E-06,0.019092501
,,,-1.94E-06,0.019218751
,,,-1.93E-06,0.019175626
,,,-1.92E-06,0.019197501
,,,-1.91E-06,0.019306251
,,,-1.9E-06,0.019276251
,,,-1.89E-06,0.019106876
,,,-1.88E-06,0.019014376
,,,-1.87E-06,0.019424376
,,,-1.86E-06,0.019218751
,,,-1.85E-06,0.019256251
,,,-1.84E-06,0.019362501
,,,-1.83E-06,0.019315626
,,,-1.82E-06,0.019305001
,,,-1.81E-06,0.019277501
,,,-1.8E-06,0.019118126
,,,-1.79E-06,0.019294376
,,,-1.78E-06,0.019490001
,,,-1.77E-06,0.019287501
,,,-1.76E-06,0.019220001
,,,-1.75E-06,0.019302501
,,,-1.74E-06,0.019147501
,,,-1.73E-06,0.019388126
,,,-1.72E-06,0.019346876
,,,-1.71E-06,0.019254376
,,,-1.7E-06,0.019328126
,,,-1.69E-06,0.019348126
,,,-1.68E-06,0.019430626
,,,-1.67E-06,0.019223126
,,,-1.66E-06,0.019288751
,,,-1.65E-06,0.019286876
,,,-1.64E-06,0.019400001
,,,-1.63E-06,0.019092501
,,,-1.62E-06,0.019436251
,,,-1.61E-06,0.019112501
,,,-1.6E-06,0.019158751
,,,-1.59E-06,0.019256251
,,,-1.58E-06,0.019275626
,,,-1.57E-06,0.019262501
,,,-1.56E-06,0.019169376
,,,-1.55E-06,0.019411251
,,,-1.54E-06,0.019154376
,,,-1.53E-06,0.019137501
,,,-1.52E-06,0.019350626
,,,-1.51E-06,0.019263751
,,,-1.5E-06,0.019237501
,,,-1.49E-06,0.019333126
,,,-1.48E-06,0.019327501
,,,-1.47E-06,0.019296251
,,,-1.46E-06,0.019221251
,,,-1.45E-06,0.019328126
,,,-1.44E-06,0.019668126
,,,-1.43E-06,0.019291876
,,,-1.42E-06,0.019320001
,,,-1.41E-06,0.019176251
,,,-1.4E-06,0.019265626
,,,-1.39E-06,0.019403126
,,,-1.38E-06,0.019138126
,,,-1.37E-06,0.019123126
,,,-1.36E-06,0.019193126
,,,-1.35E-06,0.019170001
,,,-1.34E-06,0.019359376
,,,-1.33E-06,0.019249376
,,,-1.32E-06,0.019098751
,,,-1.31E-06,0.019255001
,,,-1.3E-06,0.019177501
,,,-1.29E-06,0.019191251
,,,-1.28E-06,0.019111251
,,,-1.27E-06,0.019272501
,,,-1.26E-06,0.019275001
,,,-1.25E-06,0.019165001
,,,-1.24E-06,0.019383751
,,,-1.23E-06,0.019241251
,,,-1.22E-06,0.019308126
,,,-1.21E-06,0.019336876
,,,-1.2E-06,0.019255001
,,,-1.19E-06,0.019527501
,,,-1.18E-06,0.019339376
,,,-1.17E-06,0.019206251
,,,-1.16E-06,0.019201251
,,,-1.15E-06,0.019556876
,,,-1.14E-06,0.019262501
,,,-1.13E-06,0.019158751
,,,-1.12E-06,0.019259376
,,,-1.11E-06,0.019075626
,,,-1.1E-06,0.018992501
,,,-1.09E-06,0.019381251
,,,-1.08E-06,0.019372501
,,,-1.07E-06,0.019328126
,,,-1.06E-06,0.019205001
,,,-1.05E-06,0.019160626
,,,-1.04E-06,0.019295626
,,,-1.03E-06,0.019490626
,,,-1.02E-06,0.019016251
,,,-1.01E-06,0.019226251
,,,-1E-06,0.019316876
,,,-9.9E-07,0.019179376
,,,-9.8E-07,0.019242501
,,,-9.7E-07,0.019343751
,,,-9.6E-07,0.019336876
,,,-9.5E-07,0.019501251
,,,-9.4E-07,0.019330626
,,,-9.3E-07,0.019173126
,,,-9.2E-07,0.019170626
,,,-9.1E-07,0.018986251
,,,-9E-07,0.019051876
,,,-8.9E-07,0.019171251
,,,-8.8E-07,0.019473126
,,,-8.7E-07,0.019193751
,,,-8.6E-07,0.019151876
,,,-8.5E-07,0.019283126
,,,-8.4E-07,0.019186876
,,,-8.3E-07,0.019333751
,,,-8.2E-07,0.019271876
,,,-8.1E-07,0.019422501
,,,-8E-07,0.019161876
,,,-7.9E-07,0.019095626
,,,-7.8E-07,0.019250001
,,,-7.7E-07,0.019081251
,,,-7.6E-07,0.019186251
,,,-7.5E-07,0.019358751
,,,-7.4E-07,0.019078751
,,,-7.3E-07,0.019096876
,,,-7.2E-07,0.019445001
,,,-7.1E-07,0.019255626
,,,-7E-07,0.019210626
,,,-6.9E-07,0.019130626
,,,-6.8E-07,0.019278126
,,,-6.7E-07,0.019288126
,,,-6.6E-07,0.019242501
,,,-6.5E-07,0.019209376
,,,-6.4E-07,0.019198126
,,,-6.3E-07,0.019321251
,,,-6.2E-07,0.019381251
,,,-6.1E-07,0.019404376
,,,-6E-07,0.019219376
,,,-5.9E-07,0.019466251
,,,-5.8E-07,0.019142501
,,,-5.7E-07,0.019429376
,,,-5.6E-07,0.019328126
,,,-5.5E-07,0.019229376
,,,-5.4E-07,0.019378126
,,,-5.3E-07,0.019502501
,,,-5.2E-07,0.019344376
,,,-5.1E-07,0.019363126
,,,-5E-07,0.019498126
,,,-4.9E-07,0.019203751
,,,-4.8E-07,0.019176251
,,,-4.7E-07,0.019217501
,,,-4.6E-07,0.019333751
,,,-4.5E-07,0.019348126
,,,-4.4E-07,0.019161251
,,,-4.3E-07,0.019308751
,,,-4.2E-07,0.019405626
,,,-4.1E-07,0.019342501
,,,-4E-07,0.019183126
,,,-3.9E-07,0.018929376
,,,-3.8E-07,0.019204376
,,,-3.7E-07,0.018976876
,,,-3.6E-07,0.019287501
,,,-3.5E-07,0.019168126
,,,-3.4E-07,0.019128751
,,,-3.3E-07,0.019028126
,,,-3.2E-07,0.019217501
,,,-3.1E-07,0.019243126
,,,-3E-07,0.019207501
,,,-2.9E-07,0.019256251
,,,-2.8E-07,0.019130001
,,,-2.7E-07,0.019321251
,,,-2.6E-07,0.019100001
,,,-2.5E-07,0.019226251
,,,-2.4E-07,0.019184376
,,,-2.3E-07,0.019301876
,,,-2.2E-07,0.019342501
,,,-2.1E-07,0.019488751
,,,-2E-07,0.019236876
,,,-1.9E-07,0.019398126
,,,-1.8E-07,0.019550626
,,,-1.7E-07,0.019231876
,,,-1.6E-07,0.019418751
,,,-1.5E-07,0.019322501
,,,-1.4E-07,0.019058126
,,,-1.3E-07,0.019501251
,,,-1.2E-07,0.019320626
,,,-1.1E-07,0.019394376
,,,-1E-07,0.019163126
,,,-9E-08,0.019470001
,,,-8E-08,0.019062501
,,,-7E-08,0.019242501
,,,-6E-08,0.019387501
,,,-5E-08,0.019478126
,,,-4E-08,0.019775626
,,,-3E-08,0.017881876
,,,-2E-08,0.018974376
,,,-1E-08,0.018730001
,,,0,0.020846251
,,,1E-08,0.019946876
,,,2E-08,0.020044376
,,,3E-08,0.018284376
,,,4E-08,0.018618126
,,,5E-08,0.018544376
,,,6E-08,0.019108751
,,,7E-08,0.019801251
,,,8E-08,0.019883751
,,,9E-08,0.019318126
,,,1E-07,0.019176876
,,,1.1E-07,0.018878751
,,,1.2E-07,0.019151876
,,,1.3E-07,0.019360626
,,,1.4E-07,0.019443751
,,,1.5E-07,0.019313751
,,,1.6E-07,0.019080001
,,,1.7E-07,0.019130626
,,,1.8E-07,0.019147501
,,,1.9E-07,0.019526876
,,,2E-07,0.019313751
,,,2.1E-07,0.019312501
,,,2.2E-07,0.019088751
,,,2.3E-07,0.019019376
,,,2.4E-07,0.019435626
,,,2.5E-07,0.019333751
,,,2.6E-07,0.019421251
,,,2.7E-07,0.019313751
,,,2.8E-07,0.019290001
,,,2.9E-07,0.019303126
,,,3E-07,0.019221876
,,,3.1E-07,0.019320001
,,,3.2E-07,0.019328126
,,,3.3E-07,0.019395626
,,,3.4E-07,0.019464376
,,,3.5E-07,0.019153126
,,,3.6E-07,0.019491876
,,,3.7E-07,0.019416251
,,,3.8E-07,0.019320626
,,,3.9E-07,0.019281251
,,,4E-07,0.019383751
,,,4.1E-07,0.019198751
,,,4.2E-07,0.019135626
,,,4.3E-07,0.019186876
,,,4.4E-07,0.019317501
,,,4.5E-07,0.019420626
,,,4.6E-07,0.019448126
,,,4.7E-07,0.019173751
,,,4.8E-07,0.019380001
,,,4.9E-07,0.019527501
,,,5E-07,0.019070001
,,,5.1E-07,0.019206251
,,,5.2E-07,0.019570626
,,,5.3E-07,0.019346876
,,,5.4E-07,0.019363751
,,,5.5E-07,0.019253751
,,,5.6E-07,0.019186251
,,,5.7E-07,0.019244376
,,,5.8E-07,0.019375626
,,,5.9E-07,0.019504376
,,,6E-07,0.019310626
,,,6.1E-07,0.019355001
,,,6.2E-07,0.019146876
,,,6.3E-07,0.019268751
,,,6.4E-07,0.019413126
,,,6.5E-07,0.019251251
,,,6.6E-07,0.019258751
,,,6.7E-07,0.019489376
,,,6.8E-07,0.019313751
,,,6.9E-07,0.019197501
,,,7E-07,0.019182501
,,,7.1E-07,0.019263751
,,,7.2E-07,0.019468751
,,,7.3E-07,0.019285626
,,,7.4E-07,0.019021876
,,,7.5E-07,0.019227501
,,,7.6E-07,0.019326876
,,,7.7E-07,0.019218126
,,,7.8E-07,0.019400626
,,,7.9E-07,0.019176251
,,,8E-07,0.019308126
,,,8.1E-07,0.019154376
,,,8.2E-07,0.019250626
,,,8.3E-07,0.019469376
,,,8.4E-07,0.019323126
,,,8.5E-07,0.019295001
,,,8.6E-07,0.019492501
,,,8.7E-07,0.019137501
,,,8.8E-07,0.019225001
,,,8.9E-07,0.019312501
,,,9E-07,0.019165001
,,,9.1E-07,0.019160626
,,,9.2E-07,0.019347501
,,,9.3E-07,0.019469376
,,,9.4E-07,0.019294376
,,,9.5E-07,0.019458126
,,,9.6E-07,0.019407501
,,,9.7E-07,0.019080626
,,,9.8E-07,0.019146251
,,,9.9E-07,0.019380626
,,,1E-06,0.019232501
,,,1.01E-06,0.019295626
,,,1.02E-06,0.019189376
,,,1.03E-06,0.019381876
,,,1.04E-06,0.019505001
,,,1.05E-06,0.019381876
,,,1.06E-06,0.019270626
,,,1.07E-06,0.019335001
,,,1.08E-06,0.019398126
,,,1.09E-06,0.019243751
,,,1.1E-06,0.019206876
,,,1.11E-06,0.019361251
,,,1.12E-06,0.019061251
,,,1.13E-06,0.019396876
,,,1.14E-06,0.018976876
,,,1.15E-06,0.019128126
,,,1.16E-06,0.019480001
,,,1.17E-06,0.019525001
,,,1.18E-06,0.019249376
,,,1.19E-06,0.019353126
,,,1.2E-06,0.019291876
,,,1.21E-06,0.019242501
,,,1.22E-06,0.019167501
,,,1.23E-06,0.019403751
,,,1.24E-06,0.019261876
,,,1.25E-06,0.019184376
,,,1.26E-06,0.019135001
,,,1.27E-06,0.019315001
,,,1.28E-06,0.019129376
,,,1.29E-06,0.019376251
,,,1.3E-06,0.019366251
,,,1.31E-06,0.019330626
,,,1.32E-06,0.019313751
,,,1.33E-06,0.019262501
,,,1.34E-06,0.019128126
,,,1.35E-06,0.019539376
,,,1.36E-06,0.019386876
,,,1.37E-06,0.019310001
,,,1.38E-06,0.019129376
,,,1.39E-06,0.019211251
,,,1.4E-06,0.019310001
,,,1.41E-06,0.019242501
,,,1.42E-06,0.019396251
,,,1.43E-06,0.019010001
,,,1.44E-06,0.019420626
,,,1.45E-06,0.019333126
,,,1.46E-06,0.019286251
,,,1.47E-06,0.019252501
,,,1.48E-06,0.019361876
,,,1.49E-06,0.019011251
,,,1.5E-06,0.019545626
,,,1.51E-06,0.019388751
,,,1.52E-06,0.019172501
,,,1.53E-06,0.019552501
,,,1.54E-06,0.019250001
,,,1.55E-06,0.019339376
,,,1.56E-06,0.019385001
,,,1.57E-06,0.019114376
,,,1.58E-06,0.019495626
,,,1.59E-06,0.019362501
,,,1.6E-06,0.019271876
,,,1.61E-06,0.019146876
,,,1.62E-06,0.019376876
,,,1.63E-06,0.019090626
,,,1.64E-06,0.019342501
,,,1.65E-06,0.019385001
,,,1.66E-06,0.019121876
,,,1.67E-06,0.019268126
,,,1.68E-06,0.019146876
,,,1.69E-06,0.019113126
,,,1.7E-06,0.019298126
,,,1.71E-06,0.019204376
,,,1.72E-06,0.019261876
,,,1.73E-06,0.019280626
,,,1.74E-06,0.019423751
,,,1.75E-06,0.019223126
,,,1.76E-06,0.019156876
,,,1.77E-06,0.019305626
,,,1.78E-06,0.019359376
,,,1.79E-06,0.019364376
,,,1.8E-06,0.019218751
,,,1.81E-06,0.019451876
,,,1.82E-06,0.019369376
,,,1.83E-06,0.019233751
,,,1.84E-06,0.019198126
,,,1.85E-06,0.019466876
,,,1.86E-06,0.019350001
,,,1.87E-06,0.019469376
,,,1.88E-06,0.019260001
,,,1.89E-06,0.019413751
,,,1.9E-06,0.019281876
,,,1.91E-06,0.019170626
,,,1.92E-06,0.019431251
,,,1.93E-06,0.019450626
,,,1.94E-06,0.019428126
,,,1.95E-06,0.019350626
,,,1.96E-06,0.019148751
,,,1.97E-06,0.019370001
,,,1.98E-06,0.019292501
,,,1.99E-06,0.019140001
,,,2E-06,0.019302501
,,,2.01E-06,0.019156251
,,,2.02E-06,0.019160626
,,,2.03E-06,0.019536251
,,,2.04E-06,0.019571876
,,,2.05E-06,0.019235001
,,,2.06E-06,0.019177501
,,,2.07E-06,0.019240626
,,,2.08E-06,0.019294376
,,,2.09E-06,0.019197501
,,,2.1E-06,0.019235626
,,,2.11E-06,0.019194376
,,,2.12E-06,0.019336251
,,,2.13E-06,0.019408126
,,,2.14E-06,0.019293126
,,,2.15E-06,0.019213126
,,,2.16E-06,0.018986251
,,,2.17E-06,0.019228126
,,,2.18E-06,0.019105001
,,,2.19E-06,0.019171876
,,,2.2E-06,0.019461251
,,,2.21E-06,0.019371251
,,,2.22E-06,0.019460001
,,,2.23E-06,0.019208126
,,,2.24E-06,0.019566876
,,,2.25E-06,0.019060001
,,,2.26E-06,0.019270626
,,,2.27E-06,0.019496251
,,,2.28E-06,0.019183126
,,,2.29E-06,0.019180001
,,,2.3E-06,0.019344376
,,,2.31E-06,0.019328751
,,,2.32E-06,0.019415001
,,,2.33E-06,0.019275001
,,,2.34E-06,0.019280001
,,,2.35E-06,0.019385626
,,,2.36E-06,0.019351251
,,,2.37E-06,0.019191251
,,,2.38E-06,0.019476251
,,,2.39E-06,0.019392501
,,,2.4E-06,0.019113126
,,,2.41E-06,0.019111251
,,,2.42E-06,0.019313751
,,,2.43E-06,0.019140626
,,,2.44E-06,0.019403751
,,,2.45E-06,0.019413126
,,,2.46E-06,0.019472501
,,,2.47E-06,0.019320001
,,,2.48E-06,0.019141251
,,,2.49E-06,0.019387501
,,,2.5E-06,0.019109376
,,,2.51E-06,0.019321876
,,,2.52E-06,0.019073751
,,,2.53E-06,0.019270626
,,,2.54E-06,0.019117501
,,,2.55E-06,0.019305626
,,,2.56E-06,0.019153751
,,,2.57E-06,0.019291251
,,,2.58E-06,0.019360626
,,,2.59E-06,0.019395626
,,,2.6E-06,0.019208126
,,,2.61E-06,0.019240001
,,,2.62E-06,0.019198751
,,,2.63E-06,0.019510626
,,,2.64E-06,0.019185626
,,,2.65E-06,0.019416876
,,,2.66E-06,0.019261876
,,,2.67E-06,0.019101251
,,,2.68E-06,0.019458126
,,,2.69E-06,0.019209376
,,,2.7E-06,0.019135626
,,,2.71E-06,0.019356876
,,,2.72E-06,0.019173751
,,,2.73E-06,0.019185001
,,,2.74E-06,0.019358126
,,,2.75E-06,0.019364376
,,,2.76E-06,0.019275626
,,,2.77E-06,0.019276876
,,,2.78E-06,0.019270626
,,,2.79E-06,0.019086251
,,,2.8E-06,0.019360001
,,,2.81E-06,0.019363751
,,,2.82E-06,0.019382501
,,,2.83E-06,0.019322501
,,,2.84E-06,0.019098126
,,,2.85E-06,0.019321251
,,,2.86E-06,0.019356876
,,,2.87E-06,0.019216251
,,,2.88E-06,0.019188751
,,,2.89E-06,0.019273126
,,,2.9E-06,0.019246876
,,,2.91E-06,0.019284376
,,,2.92E-06,0.019516876
,,,2.93E-06,0.019403751
,,,2.94E-06,0.019211251
,,,2.95E-06,0.019247501
,,,2.96E-06,0.019293751
,,,2.97E-06,0.019427501
,,,2.98E-06,0.019375001
,,,2.99E-06,0.019305626
,,,3E-06,0.019238751
,,,3.01E-06,0.019248126
,,,3.02E-06,0.019401876
,,,3.03E-06,0.019454376
,,,3.04E-06,0.019320001
,,,3.05E-06,0.019282501
,,,3.06E-06,0.019420001
,,,3.07E-06,0.019249376
,,,3.08E-06,0.019217501
,,,3.09E-06,0.019355001
,,,3.1E-06,0.019302501
,,,3.11E-06,0.019301251
,,,3.12E-06,0.019230001
,,,3.13E-06,0.019348751
,,,3.14E-06,0.019308751
,,,3.15E-06,0.019531876
,,,3.16E-06,0.019299376
,,,3.17E-06,0.019131876
,,,3.18E-06,0.019059376
,,,3.19E-06,0.019138126
,,,3.2E-06,0.019319376
,,,3.21E-06,0.019479376
