data/raw/Final_POL_Test_1/SOP096_Ch1.csv

"Record Length",1000,"Points",-5E-06,0.0076625
"Sample Interval",1E-08,s,-4.99E-06,0.007908125
"Trigger Point",500,"Samples",-4.98E-06,0.0078325
"Trigger Time",0,s,-4.97E-06,0.007850625
"",,,-4.96E-06,0.007466875
"Horizontal Offset",-5E-06,s,-4.95E-06,0.007666875
,,,-4.94E-06,0.00764125
,,,-4.93E-06,0.007630625
,,,-4.92E-06,0.0074625
,,,-4.91E-06,0.0076525
,,,-4.9E-06,0.007545
,,,-4.89E-06,0.007444375
,,,-4.88E-06,0.0078125
,,,-4.87E-06,0.007315
,,,-4.86E-06,0.007664375
,,,-4.85E-06,0.007594375
,,,-4.84E-06,0.007575
,,,-4.83E-06,0.0075975
,,,-4.82E-06,0.007620625
,,,-4.81E-06,0.00762625
,,,-4.8E-06,0.007631875
,,,-4.79E-06,0.00746
,,,-4.78E-06,0.00758375
,,,-4.77E-06,0.007518125
,,,-4.76E-06,0.0075825
,,,-4.75E-06,0.00738125
,,,-4.74E-06,0.007525625
,,,-4.73E-06,0.00754625
,,,-4.72E-06,0.007649375
,,,-4.71E-06,0.0076125
,,,-4.7E-06,0.007461875
,,,-4.69E-06,0.00769625
,,,-4.68E-06,0.007599375
,,,-4.67E-06,0.0074825
,,,-4.66E-06,0.007751875
,,,-4.65E-06,0.00749625
,,,-4.64E-06,0.00766875
,,,-4.63E-06,0.007500625
,,,-4.62E-06,0.007608125
,,,-4.61E-06,0.00768125
,,,-4.6E-06,0.00742875
,,,-4.59E-06,0.00754375
,,,-4.58E-06,0.0076675
,,,-4.57E-06,0.0077075
,,,-4.56E-06,0.00765375
,,,-4.55E-06,0.007853125
,,,-4.54E-06,0.007788125
,,,-4.53E-06,0.007405625
,,,-4.52E-06,0.007435625
,,,-4.51E-06,0.00756
,,,-4.5E-06,0.0075675
,,,-4.49E-06,0.0075725
,,,-4.48E-06,0.00764625
,,,-4.47E-06,0.007664375
,,,-4.46E-06,0.00761375
,,,-4.45E-06,0.00774625
,,,-4.44E-06,0.007726875
,,,-4.43E-06,0.007465
,,,-4.42E-06,0.0075325
,,,-4.41E-06,0.007578125
,,,-4.4E-06,0.007623125
,,,-4.39E-06,0.007716875
,,,-4.38E-06,0.007808125
,,,-4.37E-06,0.00760875
,,,-4.36E-06,0.0075225
,,,-4.35E-06,0.007345
,,,-4.34E-06,0.007640625
,,,-4.33E-06,0.00760875
,,,-4.32E-06,0.007593125
,,,-4.31E-06,0.007669375
,,,-4.3E-06,0.007799375
,,,-4.29E-06,0.007711875
,,,-4.28E-06,0.007726875
,,,-4.27E-06,0.007485
,,,-4.26E-06,0.007670625
,,,-4.25E-06,0.007486875
,,,-4.24E-06,0.007579375
,,,-4.23E-06,0.00775125
,,,-4.22E-06,0.007625625
,,,-4.21E-06,0.007456875
,,,-4.2E-06,0.007433125
,,,-4.19E-06,0.007664375
,,,-4.18E-06,0.007788125
,,,-4.17E-06,0.00762875
,,,-4.16E-06,0.007591875
,,,-4.15E-06,0.007459375
,,,-4.14E-06,0.00754875
,,,-4.13E-06,0.0077125
,,,-4.12E-06,0.007714375
,,,-4.11E-06,0.00743125
,,,-4.1E-06,0.007796875
,,,-4.09E-06,0.00755
,,,-4.08E-06,0.00758125
,,,-4.07E-06,0.00761375
,,,-4.06E-06,0.007401875
,,,-4.05E-06,0.007740625
,,,-4.04E-06,0.007504375
,,,-4.03E-06,0.00732375
,,,-4.02E-06,0.007421875
,,,-4.01E-06,0.00752
,,,-4E-06,0.0079425
,,,-3.99E-06,0.007535625
,,,-3.98E-06,0.00764
,,,-3.97E-06,0.007613125
,,,-3.96E-06,0.007603125
,,,-3.95E-06,0.007701875
,,,-3.94E-06,0.007449375
,,,-3.93E-06,0.007494375
,,,-3.92E-06,0.00754125
,,,-3.91E-06,0.007596875
,,,-3.9E-06,0.0078425
,,,-3.89E-06,0.0077225
,,,-3.88E-06,0.007506875
,,,-3.87E-06,0.007610625
,,,-3.86E-06,0.007619375
,,,-3.85E-06,0.007605625
,,,-3.84E-06,0.00793
,,,-3.83E-06,0.007625625
,,,-3.82E-06,0.007759375
,,,-3.81E-06,0.007705625
,,,-3.8E-06,0.007678125
,,,-3.79E-06,0.00761375
,,,-3.78E-06,0.0075875
,,,-3.77E-06,0.007575
,,,-3.76E-06,0.0077475
,,,-3.75E-06,0.007901875
,,,-3.74E-06,0.007803125
,,,-3.73E-06,0.007685
,,,-3.72E-06,0.007684375
,,,-3.71E-06,0.007660625
,,,-3.7E-06,0.007653125
,,,-3.69E-06,0.007479375
,,,-3.68E-06,0.007510625
,,,-3.67E-06,0.007796875
,,,-3.66E-06,0.0076225
,,,-3.65E-06,0.00751
,,,-3.64E-06,0.00760375
,,,-3.63E-06,0.00776
,,,-3.62E-06,0.00758
,,,-3.61E-06,0.00738125
,,,-3.6E-06,0.0076025
,,,-3.59E-06,0.0075525
,,,-3.58E-06,0.0076975
,,,-3.57E-06,0.007583125
,,,-3.56E-06,0.007513125
,,,-3.55E-06,0.0074375
,,,-3.54E-06,0.00738875
,,,-3.53E-06,0.00747125
,,,-3.52E-06,0.00759625
,,,-3.51E-06,0.007705
,,,-3.5E-06,0.007665
,,,-3.49E-06,0.00745625
,,,-3.48E-06,0.007833125
,,,-3.47E-06,0.0076275
,,,-3.46E-06,0.0075875
,,,-3.45E-06,0.0076175
,,,-3.44E-06,0.00765625
,,,-3.43E-06,0.007499375
,,,-3.42E-06,0.007584375
,,,-3.41E-06,0.007635625
,,,-3.4E-06,0.007681875
,,,-3.39E-06,0.00767625
,,,-3.38E-06,0.007633125
,,,-3.37E-06,0.007569375
,,,-3.36E-06,0.00752125
,,,-3.35E-06,0.00769875
,,,-3.34E-06,0.007691875
,,,-3.33E-06,0.007748125
,,,-3.32E-06,0.00751
,,,-3.31E-06,0.007381875
,,,-3.3E-06,0.0075925
,,,-3.29E-06,0.007423125
,,,-3.28E-06,0.0076275
,,,-3.27E-06,0.0074175
,,,-3.26E-06,0.00761375
,,,-3.25E-06,0.00785625
,,,-3.24E-06,0.00766875
,,,-3.23E-06,0.007561875
,,,-3.22E-06,0.007511875
,,,-3.21E-06,0.0077625
,,,-3.2E-06,0.007665
,,,-3.19E-06,0.00748
,,,-3.18E-06,0.007568125
,,,-3.17E-06,0.0076975
,,,-3.16E-06,0.007640625
,,,-3.15E-06,0.00730875
,,,-3.14E-06,0.007519375
,,,-3.13E-06,0.0074925
,,,-3.12E-06,0.00762
,,,-3.11E-06,0.00766125
,,,-3.1E-06,0.007595625
,,,-3.09E-06,0.007656875
,,,-3.08E-06,0.007694375
,,,-3.07E-06,0.007675
,,,-3.06E-06,0.0076525
,,,-3.05E-06,0.0075225
,,,-3.04E-06,0.0074925
,,,-3.03E-06,0.007556875
,,,-3.02E-06,0.007671875
,,,-3.01E-06,0.007601875
,,,-3E-06,0.007453125
,,,-2.99E-06,0.007545
,,,-2.98E-06,0.00764375
,,,-2.97E-06,0.007388125
,,,-2.96E-06,0.0073625
,,,-2.95E-06,0.00767
,,,-2.94E-06,0.00764875
,,,-2.93E-06,0.00771875
,,,-2.92E-06,0.007619375
,,,-2.91E-06,0.007795
,,,-2.9E-06,0.007668125
,,,-2.89E-06,0.007445625
,,,-2.88E-06,0.007484375
,,,-2.87E-06,0.007655625
,,,-2.86E-06,0.007599375
,,,-2.85E-06,0.007540625
,,,-2.84E-06,0.0078675
,,,-2.83E-06,0.00756
,,,-2.82E-06,0.0075775
,,,-2.81E-06,0.007755
,,,-2.8E-06,0.007596875
,,,-2.79E-06,0.00767875
,,,-2.78E-06,0.00758
,,,-2.77E-06,0.007789375
,,,-2.76E-06,0.007380625
,,,-2.75E-06,0.007691875
,,,-2.74E-06,0.007603125
,,,-2.73E-06,0.00774625
,,,-2.72E-06,0.0076175
,,,-2.71E-06,0.007433125
,,,-2.7E-06,0.007519375
,,,-2.69E-06,0.007415
,,,-2.68E-06,0.00756625
,,,-2.67E-06,0.007533125
,,,-2.66E-06,0.00781625
,,,-2.65E-06,0.007674375
,,,-2.64E-06,0.007695625
,,,-2.63E-06,0.0075575
,,,-2.62E-06,0.007470625
,,,-2.61E-06,0.00744875
,,,-2.6E-06,0.007665625
,,,-2.59E-06,0.007591875
,,,-2.58E-06,0.007699375
,,,-2.57E-06,0.007598125
,,,-2.56E-06,0.007660625
,,,-2.55E-06,0.00761
,,,-2.54E-06,0.007565625
,,,-2.53E-06,0.00770375
,,,-2.52E-06,0.00767125
,,,-2.51E-06,0.00779375
,,,-2.5E-06,0.007525
,,,-2.49E-06,0.0076325
,,,-2.48E-06,0.007545625
,,,-2.47E-06,0.007594375
,,,-2.46E-06,0.00750875
,,,-2.45E-06,0.0076025
,,,-2.44E-06,0.007541875
,,,-2.43E-06,0.0075175
,,,-2.42E-06,0.0074575
,,,-2.41E-06,0.007709375
,,,-2.4E-06,0.007748125
,,,-2.39E-06,0.0074475
,,,-2.38E-06,0.00729625
,,,-2.37E-06,0.007624375
,,,-2.36E-06,0.00756
,,,-2.35E-06,0.00741125
,,,-2.34E-06,0.007565
,,,-2.33E-06,0.007704375
,,,-2.32E-06,0.00761125
,,,-2.31E-06,0.0077675
,,,-2.3E-06,0.007600625
,,,-2.29E-06,0.00757375
,,,-2.28E-06,0.007643125
,,,-2.27E-06,0.007588125
,,,-2.26E-06,0.007541875
,,,-2.25E-06,0.007659375
,,,-2.24E-06,0.00772625
,,,-2.23E-06,0.007455625
,,,-2.22E-06,0.007758125
,,,-2.21E-06,0.007595625
,,,-2.2E-06,0.007733125
,,,-2.19E-06,0.00754125
,,,-2.18E-06,0.00764875
,,,-2.17E-06,0.00761875
,,,-2.16E-06,0.00741625
,,,-2.15E-06,0.00759
,,,-2.14E-06,0.0077725
,,,-2.13E-06,0.00759125
,,,-2.12E-06,0.007545
,,,-2.11E-06,0.00758125
,,,-2.1E-06,0.0076475
,,,-2.09E-06,0.00765625
,,,-2.08E-06,0.00764375
,,,-2.07E-06,0.00772125
,,,-2.06E-06,0.00753625
,,,-2.05E-06,0.007498125
,,,-2.04E-06,0.007979375
,,,-2.03E-06,0.007588125
,,,-2.02E-06,0.007664375
,,,-2.01E-06,0.007443125
,,,-2E-06,0.007686875
,,,-1.99E-06,0.007608125
,,,-1.98E-06,0.007499375
,,,-1.97E-06,0.00757
,,,-1.96E-06,0.0075975
,,,-1.95E-06,0.007510625
,,,-1.94E-06,0.007749375
,,,-1.93E-06,0.007645625
,,,-1.92E-06,0.00769625
,,,-1.91E-06,0.007800625
,,,-1.9E-06,0.007556875
,,,-1.89E-06,0.007656875
,,,-1.88E-06,0.007443125
,,,-1.87E-06,0.00745125
,,,-1.86E-06,0.00745875
,,,-1.85E-06,0.007623125
,,,-1.84E-06,0.00760375
,,,-1.83E-06,0.007760625
,,,-1.82E-06,0.007365625
,,,-1.81E-06,0.0075125
,,,-1.8E-06,0.007470625
,,,-1.79E-06,0.007714375
,,,-1.78E-06,0.00750875
,,,-1.77E-06,0.007613125
,,,-1.76E-06,0.00763
,,,-1.75E-06,0.007776875
,,,-1.74E-06,0.007831875
,,,-1.73E-06,0.00755625
,,,-1.72E-06,0.00758
,,,-1.71E-06,0.007363125
,,,-1.7E-06,0.007465625
,,,-1.69E-06,0.00772
,,,-1.68E-06,0.007648125
,,,-1.67E-06,0.00757125
,,,-1.66E-06,0.0076875
,,,-1.65E-06,0.00779875
,,,-1.64E-06,0.00748375
,,,-1.63E-06,0.007285625
,,,-1.62E-06,0.00766125
,,,-1.61E-06,0.007523125
,,,-1.6E-06,0.007730625
,,,-1.59E-06,0.007745
,,,-1.58E-06,0.007598125
,,,-1.57E-06,0.00749375
,,,-1.56E-06,0.007488125
,,,-1.55E-06,0.0075475
,,,-1.54E-06,0.007745
,,,-1.53E-06,0.007515
,,,-1.52E-06,0.007640625
,,,-1.51E-06,0.00756375
,,,-1.5E-06,0.007453125
,,,-1.49E-06,0.007584375
,,,-1.48E-06,0.007804375
,,,-1.47E-06,0.007695
,,,-1.46E-06,0.007694375
,,,-1.45E-06,0.00777625
,,,-1.44E-06,0.007705625
,,,-1.43E-06,0.007549375
,,,-1.42E-06,0.007746875
,,,-1.41E-06,0.00778375
,,,-1.4E-06,0.00754
,,,-1.39E-06,0.00758375
,,,-1.38E-06,0.007373125
,,,-1.37E-06,0.007425
,,,-1.36E-06,0.00753875
,,,-1.35E-06,0.007678125
,,,-1.34E-06,0.00764375
,,,-1.33E-06,0.0078575
,,,-1.32E-06,0.00771125
,,,-1.31E-06,0.00776625
,,,-1.3E-06,0.00769
,,,-1.29E-06,0.007715
,,,-1.28E-06,0.00794
,,,-1.27E-06,0.007639375
,,,-1.26E-06,0.00764875
,,,-1.25E-06,0.007818125
,,,-1.24E-06,0.00748
,,,-1.23E-06,0.0074675
,,,-1.22E-06,0.007380625
,,,-1.21E-06,0.007711875
,,,-1.2E-06,0.007499375
,,,-1.19E-06,0.00772
,,,-1.18E-06,0.007716875
,,,-1.17E-06,0.007588125
,,,-1.16E-06,0.00758625
,,,-1.15E-06,0.00763
,,,-1.14E-06,0.0076075
,,,-1.13E-06,0.0077925
,,,-1.12E-06,0.00751375
,,,-1.11E-06,0.00764375
,,,-1.1E-06,0.00757875
,,,-1.09E-06,0.00783375
,,,-1.08E-06,0.007626875
,,,-1.07E-06,0.0073675
,,,-1.06E-06,0.00774375
,,,-1.05E-06,0.0077175
,,,-1.04E-06,0.0076475
,,,-1.03E-06,0.00761125
,,,-1.02E-06,0.00784125
,,,-1.01E-06,0.00759625
,,,-1E-06,0.007585
,,,-9.9E-07,0.00743
,,,-9.8E-07,0.00777375
,,,-9.7E-07,0.00768875
,,,-9.6E-07,0.007711875
,,,-9.5E-07,0.007728125
,,,-9.4E-07,0.00756
,,,-9.3E-07,0.0076175
,,,-9.2E-07,0.007656875
,,,-9.1E-07,0.007690625
,,,-9E-07,0.00753125
,,,-8.9E-07,0.007685
,,,-8.8E-07,0.00778125
,,,-8.7E-07,0.007903125
,,,-8.6E-07,0.007364375
,,,-8.5E-07,0.007468125
,,,-8.4E-07,0.0073625
,,,-8.3E-07,0.007561875
,,,-8.2E-07,0.007658125
,,,-8.1E-07,0.007433125
,,,-8E-07,0.007670625
,,,-7.9E-07,0.007635625
,,,-7.8E-07,0.007403125
,,,-7.7E-07,0.007715
,,,-7.6E-07,0.007700625
,,,-7.5E-07,0.00764125
,,,-7.4E-07,0.00774
,,,-7.3E-07,0.007558125
,,,-7.2E-07,0.007541875
,,,-7.1E-07,0.007505625
,,,-7E-07,0.00733
,,,-6.9E-07,0.007504375
,,,-6.8E-07,0.0075975
,,,-6.7E-07,0.007485625
,,,-6.6E-07,0.007774375
,,,-6.5E-07,0.00774125
,,,-6.4E-07,0.00775375
,,,-6.3E-07,0.007516875
,,,-6.2E-07,0.00754125
,,,-6.1E-07,0.0075375
,,,-6E-07,0.007673125
,,,-5.9E-07,0.00782625
,,,-5.8E-07,0.00755375
,,,-5.7E-07,0.00741875
,,,-5.6E-07,0.00756375
,,,-5.5E-07,0.007556875
,,,-5.4E-07,0.007708125
,,,-5.3E-07,0.007659375
,,,-5.2E-07,0.007745625
,,,-5.1E-07,0.00754875
,,,-5E-07,0.007690625
,,,-4.9E-07,0.007696875
,,,-4.8E-07,0.00760125
,,,-4.7E-07,0.00774375
,,,-4.6E-07,0.007465625
,,,-4.5E-07,0.0076325
,,,-4.4E-07,0.00755625
,,,-4.3E-07,0.00773375
,,,-4.2E-07,0.00765625
,,,-4.1E-07,0.007704375
,,,-4E-07,0.007591875
,,,-3.9E-07,0.007625
,,,-3.8E-07,0.00743875
,,,-3.7E-07,0.007655625
,,,-3.6E-07,0.0075625
,,,-3.5E-07,0.007525625
,,,-3.4E-07,0.007765625
,,,-3.3E-07,0.007445
,,,-3.2E-07,0.007590625
,,,-3.1E-07,0.00760125
,,,-3E-07,0.007575
,,,-2.9E-07,0.007590625
,,,-2.8E-07,0.007806875
,,,-2.7E-07,0.0078075
,,,-2.6E-07,0.007781875
,,,-2.5E-07,0.007536875
,,,-2.4E-07,0.007474375
,,,-2.3E-07,0.007725
,,,-2.2E-07,0.007596875
,,,-2.1E-07,0.007623125
,,,-2E-07,0.007753125
,,,-1.9E-07,0.007840625
,,,-1.8E-07,0.007545625
,,,-1.7E-07,0.007539375
,,,-1.6E-07,0.0077075
,,,-1.5E-07,0.0076725
,,,-1.4E-07,0.00759
,,,-1.3E-07,0.00762875
,,,-1.2E-07,0.007474375
,,,-1.1E-07,0.007463125
,,,-1E-07,0.007443125
,,,-9E-08,0.007605625
,,,-8E-08,0.0076275
,,,-7E-08,0.007541875
,,,-6E-08,0.0073175
,,,-5E-08,0.00780875
,,,-4E-08,0.008523125
,,,-3E-08,0.008825625
,,,-2E-08,0.005590625
,,,-1E-08,0.003696875
,,,0,0.005331875
,,,1E-08,0.010613125
,,,2E-08,0.012095
,,,3E-08,0.010760625
,,,4E-08,0.006748125
,,,5E-08,0.004496875
,,,6E-08,0.004415
,,,7E-08,0.006474375
,,,8E-08,0.008468125
,,,9E-08,0.00994625
,,,1E-07,0.009603125
,,,1.1E-07,0.007758125
,,,1.2E-07,0.006588125
,,,1.3E-07,0.006151875
,,,1.4E-07,0.006971875
,,,1.5E-07,0.008128125
,,,1.6E-07,0.008076875
,,,1.7E-07,0.00799875
,,,1.8E-07,0.007839375
,,,1.9E-07,0.00738875
,,,2E-07,0.00762875
,,,2.1E-07,0.00725625
,,,2.2E-07,0.007404375
,,,2.3E-07,0.007480625
,,,2.4E-07,0.00743
,,,2.5E-07,0.007685
,,,2.6E-07,0.00756125
,,,2.7E-07,0.00760375
,,,2.8E-07,0.007788125
,,,2.9E-07,0.007635625
,,,3E-07,0.007614375
,,,3.1E-07,0.007554375
,,,3.2E-07,0.007594375
,,,3.3E-07,0.007723125
,,,3.4E-07,0.007675
,,,3.5E-07,0.007475
,,,3.6E-07,0.007671875
,,,3.7E-07,0.007565
,,,3.8E-07,0.00787375
,,,3.9E-07,0.007489375
,,,4E-07,0.007655
,,,4.1E-07,0.00760375
,,,4.2E-07,0.00767125
,,,4.3E-07,0.007560625
,,,4.4E-07,0.0076925
,,,4.5E-07,0.0077175
,,,4.6E-07,0.00770875
,,,4.7E-07,0.00764125
,,,4.8E-07,0.007735625
,,,4.9E-07,0.007541875
,,,5E-07,0.00785875
,,,5.1E-07,0.00791125
,,,5.2E-07,0.00764125
,,,5.3E-07,0.00773
,,,5.4E-07,0.00751375
,,,5.5E-07,0.00753
,,,5.6E-07,0.007639375
,,,5.7E-07,0.007708125
,,,5.8E-07,0.007908125
,,,5.9E-07,0.007546875
,,,6E-07,0.007815625
,,,6.1E-07,0.007665625
,,,6.2E-07,0.00745875
,,,6.3E-07,0.007491875
,,,6.4E-07,0.007536875
,,,6.5E-07,0.007663125
,,,6.6E-07,0.007728125
,,,6.7E-07,0.007508125
,,,6.8E-07,0.007448125
,,,6.9E-07,0.007549375
,,,7E-07,0.00783375
,,,7.1E-07,0.007699375
,,,7.2E-07,0.0074775
,,,7.3E-07,0.00760625
,,,7.4E-07,0.007520625
,,,7.5E-07,0.007496875
,,,7.6E-07,0.007346875
,,,7.7E-07,0.0076525
,,,7.8E-07,0.007405625
,,,7.9E-07,0.0076125
,,,8E-07,0.007631875
,,,8.1E-07,0.007931875
,,,8.2E-07,0.00772125
,,,8.3E-07,0.007688125
,,,8.4E-07,0.00763875
,,,8.5E-07,0.007714375
,,,8.6E-07,0.007559375
,,,8.7E-07,0.00758625
,,,8.8E-07,0.00779875
,,,8.9E-07,0.007510625
,,,9E-07,0.00768125
,,,9.1E-07,0.00748875
,,,9.2E-07,0.007483125
,,,9.3E-07,0.007735
,,,9.4E-07,0.0075125
,,,9.5E-07,0.007479375
,,,9.6E-07,0.007510625
,,,9.7E-07,0.0074375
,,,9.8E-07,0.007643125
,,,9.9E-07,0.00738125
,,,1E-06,0.007839375
,,,1.01E-06,0.00746
,,,1.02E-06,0.00729
,,,1.03E-06,0.0075
,,,1.04E-06,0.00757375
,,,1.05E-06,0.007754375
,,,1.06E-06,0.0079275
,,,1.07E-06,0.00769
,,,1.08E-06,0.0074725
,,,1.09E-06,0.007689375
,,,1.1E-06,0.00737375
,,,1.11E-06,0.0075525
,,,1.12E-06,0.0076375
,,,1.13E-06,0.00746875
,,,1.14E-06,0.007580625
,,,1.15E-06,0.00791125
,,,1.16E-06,0.007911875
,,,1.17E-06,0.00755125
,,,1.18E-06,0.00761875
,,,1.19E-06,0.007393125
,,,1.2E-06,0.007531875
,,,1.21E-06,0.00766125
,,,1.22E-06,0.007755625
,,,1.23E-06,0.00737375
,,,1.24E-06,0.007808125
,,,1.25E-06,0.007706875
,,,1.26E-06,0.00772375
,,,1.27E-06,0.007510625
,,,1.28E-06,0.007746875
,,,1.29E-06,0.00764375
,,,1.3E-06,0.00741625
,,,1.31E-06,0.00752625
,,,1.32E-06,0.007456875
,,,1.33E-06,0.007545
,,,1.34E-06,0.0076575
,,,1.35E-06,0.0075825
,,,1.36E-06,0.00767
,,,1.37E-06,0.007494375
,,,1.38E-06,0.00757125
,,,1.39E-06,0.00746875
,,,1.4E-06,0.0076775
,,,1.41E-06,0.007519375
,,,1.42E-06,0.007515625
,,,1.43E-06,0.007585
,,,1.44E-06,0.00748
,,,1.45E-06,0.007665625
,,,1.46E-06,0.007571875
,,,1.47E-06,0.0075825
,,,1.48E-06,0.00775125
,,,1.49E-06,0.0075575
,,,1.5E-06,0.00759125
,,,1.51E-06,0.00749375
,,,1.52E-06,0.007703125
,,,1.53E-06,0.00761
,,,1.54E-06,0.007546875
,,,1.55E-06,0.007374375
,,,1.56E-06,0.007738125
,,,1.57E-06,0.007760625
,,,1.58E-06,0.007355
,,,1.59E-06,0.00765125
,,,1.6E-06,0.007628125
,,,1.61E-06,0.007571875
,,,1.62E-06,0.00769625
,,,1.63E-06,0.00764625
,,,1.64E-06,0.00743125
,,,1.65E-06,0.007755
,,,1.66E-06,0.007588125
,,,1.67E-06,0.007828125
,,,1.68E-06,0.007783125
,,,1.69E-06,0.007579375
,,,1.7E-06,0.007663125
,,,1.71E-06,0.007799375
,,,1.72E-06,0.007305
,,,1.73E-06,0.0075575
,,,1.74E-06,0.00786125
,,,1.75E-06,0.007528125
,,,1.76E-06,0.007599375
,,,1.77E-06,0.00749125
,,,1.78E-06,0.00774375
,,,1.79E-06,0.007525625
,,,1.8E-06,0.00754375
,,,1.81E-06,0.007618125
,,,1.82E-06,0.007971875
,,,1.83E-06,0.007550625
,,,1.84E-06,0.007561875
,,,1.85E-06,0.00763
,,,1.86E-06,0.00745
,,,1.87E-06,0.00751375
,,,1.88E-06,0.007844375
,,,1.89E-06,0.007640625
,,,1.9E-06,0.007690625
,,,1.91E-06,0.0076425
,,,1.92E-06,0.00767375
,,,1.93E-06,0.00759875
,,,1.94E-06,0.007790625
,,,1.95E-06,0.0075975
,,,1.96E-06,0.007665625
,,,1.97E-06,0.007453125
,,,1.98E-06,0.007680625
,,,1.99E-06,0.00753125
,,,2E-06,0.00761
,,,2.01E-06,0.00760875
,,,2.02E-06,0.007331875
,,,2.03E-06,0.00750625
,,,2.04E-06,0.007623125
,,,2.05E-06,0.00762625
,,,2.06E-06,0.007730625
,,,2.07E-06,0.00778125
,,,2.08E-06,0.007694375
,,,2.09E-06,0.007655625
,,,2.1E-06,0.007634375
,,,2.11E-06,0.007720625
,,,2.12E-06,0.00775
,,,2.13E-06,0.00747375
,,,2.14E-06,0.007698125
,,,2.15E-06,0.00783625
,,,2.16E-06,0.0076475
,,,2.17E-06,0.007785625
,,,2.18E-06,0.007385
,,,2.19E-06,0.00784625
,,,2.2E-06,0.007628125
,,,2.21E-06,0.007650625
,,,2.22E-06,0.007786875
,,,2.23E-06,0.007608125
,,,2.24E-06,0.00774625
,,,2.25E-06,0.00766375
,,,2.26E-06,0.0078575
,,,2.27E-06,0.0075775
,,,2.28E-06,0.007721875
,,,2.29E-06,0.007486875
,,,2.3E-06,0.00753625
,,,2.31E-06,0.0074675
,,,2.32E-06,0.007496875
,,,2.33E-06,0.007678125
,,,2.34E-06,0.007531875
,,,2.35E-06,0.0076325
,,,2.36E-06,0.007493125
,,,2.37E-06,0.007645625
,,,2.38E-06,0.007464375
,,,2.39E-06,0.007795625
,,,2.4E-06,0.007556875
,,,2.41E-06,0.0074775
,,,2.42E-06,0.007626875
,,,2.43E-06,0.007603125
,,,2.44E-06,0.00766625
,,,2.45E-06,0.0074275
,,,2.46E-06,0.0073625
,,,2.47E-06,0.007385625
,,,2.48E-06,0.007274375
,,,2.49E-06,0.007614375
,,,2.5E-06,0.007753125
,,,2.51E-06,0.00761625
,,,2.52E-06,0.00762125
,,,2.53E-06,0.007785625
,,,2.54E-06,0.007661875
,,,2.55E-06,0.007590625
,,,2.56E-06,0.00746625
,,,2.57E-06,0.0077175
,,,2.58E-06,0.007493125
,,,2.59E-06,0.0078825
,,,2.6E-06,0.007589375
,,,2.61E-06,0.0075075
,,,2.62E-06,0.007705625
,,,2.63E-06,0.007699375
,,,2.64E-06,0.007435
,,,2.65E-06,0.00756
,,,2.66E-06,0.00754375
,,,2.67E-06,0.00748375
,,,2.68E-06,0.007641875
,,,2.69E-06,0.00754375
,,,2.7E-06,0.007883125
,,,2.71E-06,0.007556875
,,,2.72E-06,0.007650625
,,,2.73E-06,0.007805625
,,,2.74E-06,0.00774375
,,,2.75E-06,0.007561875
,,,2.76E-06,0.007806875
,,,2.77E-06,0.007395625
,,,2.78E-06,0.0076175
,,,2.79E-06,0.007561875
,,,2.8E-06,0.00750375
,,,2.81E-06,0.0075725
,,,2.82E-06,0.00763625
,,,2.83E-06,0.00758
,,,2.84E-06,0.00741125
,,,2.85E-06,0.007354375
,,,2.86E-06,0.0076725
,,,2.87E-06,0.007548125
,,,2.88E-06,0.007565625
,,,2.89E-06,0.007791875
,,,2.9E-06,0.007705625
,,,2.91E-06,0.00761875
,,,2.92E-06,0.007474375
,,,2.93E-06,0.007585
,,,2.94E-06,0.00749875
,,,2.95E-06,0.007425
,,,2.96E-06,0.007868125
,,,2.97E-06,0.007610625
,,,2.98E-06,0.0076775
,,,2.99E-06,0.00745625
,,,3E-06,0.007561875
,,,3.01E-06,0.007668125
,,,3.02E-06,0.0074475
,,,3.03E-06,0.007560625
,,,3.04E-06,0.00773
,,,3.05E-06,0.00759875
,,,3.06E-06,0.007729375
,,,3.07E-06,0.007481875
,,,3.08E-06,0.007671875
,,,3.09E-06,0.007483125
,,,3.1E-06,0.00739375
,,,3.11E-06,0.007576875
,,,3.12E-06,0.007535
,,,3.13E-06,0.00741625
,,,3.14E-06,0.007768125
,,,3.15E-06,0.00801
,,,3.16E-06,0.007518125
,,,3.17E-06,0.007576875
,,,3.18E-06,0.00768125
,,,3.19E-06,0.00752
,,,3.2E-06,0.00769625
,,,3.21E-06,0.00771625
,,,3.22E-06,0.007538125
,,,3.23E-06,0.007329375
,,,3.24E-06,0.007689375
,,,3.25E-06,0.007573125
,,,3.26E-06,0.00777375
,,,3.27E-06,0.00755
,,,3.28E-06,0.00771375
,,,3.29E-06,0.007656875
,,,3.3E-06,0.007516875
,,,3.31E-06,0.007614375
,,,3.32E-06,0.007735
,,,3.33E-06,0.0076525
,,,3.34E-06,0.007456875
,,,3.35E-06,0.007458125
,,,3.36E-06,0.00756875
,,,3.37E-06,0.00756125
,,,3.38E-06,0.007644375
,,,3.39E-06,0.007705
,,,3.4E-06,0.0077075
,,,3.41E-06,0.00748
,,,3.42E-06,0.00741
,,,3.43E-06,0.007648125
,,,3.44E-06,0.00777
,,,3.45E-06,0.0074325
,,,3.46E-06,0.0075125
,,,3.47E-06,0.00757625
,,,3.48E-06,0.0075375
,,,3.49E-06,0.007620625
,,,3.5E-06,0.0078975
,,,3.51E-06,0.007346875
,,,3.52E-06,0.00767
,,,3.53E-06,0.007856875
,,,3.54E-06,0.00762
,,,3.55E-06,0.007735
,,,3.56E-06,0.00779625
