data/raw/Final_POL_Test_1/SOP086_Ch1.csv

"Record Length",1000,"Points",-5E-06,0.006850625
"Sample Interval",1E-08,s,-4.99E-06,0.007056875
"Trigger Point",500,"Samples",-4.98E-06,0.00666625
"Trigger Time",0,s,-4.97E-06,0.006868125
"",,,-4.96E-06,0.007130625
"Horizontal Offset",-5E-06,s,-4.95E-06,0.00676625
,,,-4.94E-06,0.00674625
,,,-4.93E-06,0.007011875
,,,-4.92E-06,0.006955625
,,,-4.91E-06,0.006939375
,,,-4.9E-06,0.00683875
,,,-4.89E-06,0.006938125
,,,-4.88E-06,0.0067425
,,,-4.87E-06,0.0067425
,,,-4.86E-06,0.0068975
,,,-4.85E-06,0.0071275
,,,-4.84E-06,0.00672625
,,,-4.83E-06,0.006861875
,,,-4.82E-06,0.006876875
,,,-4.81E-06,0.00697125
,,,-4.8E-06,0.007120625
,,,-4.79E-06,0.006865
,,,-4.78E-06,0.00685625
,,,-4.77E-06,0.006805625
,,,-4.76E-06,0.0069975
,,,-4.75E-06,0.006715
,,,-4.74E-06,0.006953125
,,,-4.73E-06,0.006966875
,,,-4.72E-06,0.006928125
,,,-4.71E-06,0.007038125
,,,-4.7E-06,0.006955625
,,,-4.69E-06,0.006873125
,,,-4.68E-06,0.0067975
,,,-4.67E-06,0.006894375
,,,-4.66E-06,0.00686375
,,,-4.65E-06,0.006774375
,,,-4.64E-06,0.007306875
,,,-4.63E-06,0.006865
,,,-4.62E-06,0.006958125
,,,-4.61E-06,0.006825
,,,-4.6E-06,0.00675
,,,-4.59E-06,0.006665
,,,-4.58E-06,0.006845625
,,,-4.57E-06,0.007155625
,,,-4.56E-06,0.0068725
,,,-4.55E-06,0.0066875
,,,-4.54E-06,0.006729375
,,,-4.53E-06,0.006775
,,,-4.52E-06,0.006835
,,,-4.51E-06,0.007041875
,,,-4.5E-06,0.006854375
,,,-4.49E-06,0.00688125
,,,-4.48E-06,0.0069425
,,,-4.47E-06,0.00688
,,,-4.46E-06,0.006865
,,,-4.45E-06,0.006915625
,,,-4.44E-06,0.00690125
,,,-4.43E-06,0.0068375
,,,-4.42E-06,0.006929375
,,,-4.41E-06,0.007038125
,,,-4.4E-06,0.00690875
,,,-4.39E-06,0.006875625
,,,-4.38E-06,0.006885625
,,,-4.37E-06,0.006818125
,,,-4.36E-06,0.00675625
,,,-4.35E-06,0.0069975
,,,-4.34E-06,0.006936875
,,,-4.33E-06,0.006979375
,,,-4.32E-06,0.006711875
,,,-4.31E-06,0.0067475
,,,-4.3E-06,0.006685625
,,,-4.29E-06,0.00692625
,,,-4.28E-06,0.006694375
,,,-4.27E-06,0.006908125
,,,-4.26E-06,0.00685
,,,-4.25E-06,0.006985625
,,,-4.24E-06,0.006800625
,,,-4.23E-06,0.0068325
,,,-4.22E-06,0.00682125
,,,-4.21E-06,0.0068975
,,,-4.2E-06,0.006798125
,,,-4.19E-06,0.006745625
,,,-4.18E-06,0.006974375
,,,-4.17E-06,0.00675875
,,,-4.16E-06,0.006770625
,,,-4.15E-06,0.007041875
,,,-4.14E-06,0.0070775
,,,-4.13E-06,0.00691
,,,-4.12E-06,0.00702625
,,,-4.11E-06,0.0068725
,,,-4.1E-06,0.007028125
,,,-4.09E-06,0.00686125
,,,-4.08E-06,0.0069775
,,,-4.07E-06,0.00671
,,,-4.06E-06,0.0067975
,,,-4.05E-06,0.007024375
,,,-4.04E-06,0.0069075
,,,-4.03E-06,0.006961875
,,,-4.02E-06,0.00687
,,,-4.01E-06,0.006740625
,,,-4E-06,0.00692625
,,,-3.99E-06,0.00675875
,,,-3.98E-06,0.00668625
,,,-3.97E-06,0.00688375
,,,-3.96E-06,0.006734375
,,,-3.95E-06,0.0072375
,,,-3.94E-06,0.00685375
,,,-3.93E-06,0.00685625
,,,-3.92E-06,0.006893125
,,,-3.91E-06,0.006886875
,,,-3.9E-06,0.0071725
,,,-3.89E-06,0.00699875
,,,-3.88E-06,0.007095625
,,,-3.87E-06,0.00666
,,,-3.86E-06,0.00691875
,,,-3.85E-06,0.006796875
,,,-3.84E-06,0.00693625
,,,-3.83E-06,0.0070325
,,,-3.82E-06,0.006878125
,,,-3.81E-06,0.007076875
,,,-3.8E-06,0.00691875
,,,-3.79E-06,0.006761875
,,,-3.78E-06,0.00698125
,,,-3.77E-06,0.006960625
,,,-3.76E-06,0.006806875
,,,-3.75E-06,0.006731875
,,,-3.74E-06,0.00672625
,,,-3.73E-06,0.00692125
,,,-3.72E-06,0.006964375
,,,-3.71E-06,0.006959375
,,,-3.7E-06,0.006749375
,,,-3.69E-06,0.006880625
,,,-3.68E-06,0.00696
,,,-3.67E-06,0.0067975
,,,-3.66E-06,0.0071
,,,-3.65E-06,0.00707875
,,,-3.64E-06,0.006795625
,,,-3.63E-06,0.00683
,,,-3.62E-06,0.007076875
,,,-3.61E-06,0.006964375
,,,-3.6E-06,0.00685
,,,-3.59E-06,0.0067925
,,,-3.58E-06,0.00702125
,,,-3.57E-06,0.006991875
,,,-3.56E-06,0.00700375
,,,-3.55E-06,0.007004375
,,,-3.54E-06,0.0068825
,,,-3.53E-06,0.006778125
,,,-3.52E-06,0.00692
,,,-3.51E-06,0.00699625
,,,-3.5E-06,0.007044375
,,,-3.49E-06,0.0071375
,,,-3.48E-06,0.00690125
,,,-3.47E-06,0.006878125
,,,-3.46E-06,0.00688375
,,,-3.45E-06,0.0067725
,,,-3.44E-06,0.006750625
,,,-3.43E-06,0.006885
,,,-3.42E-06,0.00686625
,,,-3.41E-06,0.00687125
,,,-3.4E-06,0.007124375
,,,-3.39E-06,0.00680625
,,,-3.38E-06,0.0070575
,,,-3.37E-06,0.006899375
,,,-3.36E-06,0.006734375
,,,-3.35E-06,0.006786875
,,,-3.34E-06,0.0067975
,,,-3.33E-06,0.006923125
,,,-3.32E-06,0.006725
,,,-3.31E-06,0.006909375
,,,-3.3E-06,0.00684
,,,-3.29E-06,0.00681125
,,,-3.28E-06,0.0069325
,,,-3.27E-06,0.006793125
,,,-3.26E-06,0.0066775
,,,-3.25E-06,0.00705875
,,,-3.24E-06,0.007079375
,,,-3.23E-06,0.007036875
,,,-3.22E-06,0.00687125
,,,-3.21E-06,0.006816875
,,,-3.2E-06,0.0067725
,,,-3.19E-06,0.006944375
,,,-3.18E-06,0.006835
,,,-3.17E-06,0.006955
,,,-3.16E-06,0.006939375
,,,-3.15E-06,0.00682875
,,,-3.14E-06,0.006853125
,,,-3.13E-06,0.006805625
,,,-3.12E-06,0.00696625
,,,-3.11E-06,0.006771875
,,,-3.1E-06,0.006905625
,,,-3.09E-06,0.00696625
,,,-3.08E-06,0.00674875
,,,-3.07E-06,0.006663125
,,,-3.06E-06,0.00703125
,,,-3.05E-06,0.00708375
,,,-3.04E-06,0.0067325
,,,-3.03E-06,0.00699
,,,-3.02E-06,0.0069
,,,-3.01E-06,0.007023125
,,,-3E-06,0.006774375
,,,-2.99E-06,0.006988125
,,,-2.98E-06,0.007061875
,,,-2.97E-06,0.006839375
,,,-2.96E-06,0.00668375
,,,-2.95E-06,0.0068225
,,,-2.94E-06,0.00682375
,,,-2.93E-06,0.006986875
,,,-2.92E-06,0.006976875
,,,-2.91E-06,0.006953125
,,,-2.9E-06,0.006735625
,,,-2.89E-06,0.006828125
,,,-2.88E-06,0.0071025
,,,-2.87E-06,0.00703125
,,,-2.86E-06,0.00676875
,,,-2.85E-06,0.007005625
,,,-2.84E-06,0.00702
,,,-2.83E-06,0.00725125
,,,-2.82E-06,0.006984375
,,,-2.81E-06,0.00681625
,,,-2.8E-06,0.006865
,,,-2.79E-06,0.006880625
,,,-2.78E-06,0.006919375
,,,-2.77E-06,0.0070225
,,,-2.76E-06,0.0072225
,,,-2.75E-06,0.007208125
,,,-2.74E-06,0.007020625
,,,-2.73E-06,0.006914375
,,,-2.72E-06,0.007026875
,,,-2.71E-06,0.006925625
,,,-2.7E-06,0.00669875
,,,-2.69E-06,0.00683625
,,,-2.68E-06,0.006941875
,,,-2.67E-06,0.006851875
,,,-2.66E-06,0.006813125
,,,-2.65E-06,0.006900625
,,,-2.64E-06,0.007060625
,,,-2.63E-06,0.006763125
,,,-2.62E-06,0.00702375
,,,-2.61E-06,0.00685375
,,,-2.6E-06,0.0070175
,,,-2.59E-06,0.00696875
,,,-2.58E-06,0.006989375
,,,-2.57E-06,0.006810625
,,,-2.56E-06,0.0068275
,,,-2.55E-06,0.006921875
,,,-2.54E-06,0.006988125
,,,-2.53E-06,0.006855625
,,,-2.52E-06,0.00713625
,,,-2.51E-06,0.00686375
,,,-2.5E-06,0.006979375
,,,-2.49E-06,0.006841875
,,,-2.48E-06,0.00699375
,,,-2.47E-06,0.006983125
,,,-2.46E-06,0.00705375
,,,-2.45E-06,0.00678375
,,,-2.44E-06,0.006946875
,,,-2.43E-06,0.006949375
,,,-2.42E-06,0.0067875
,,,-2.41E-06,0.006900625
,,,-2.4E-06,0.0068625
,,,-2.39E-06,0.006868125
,,,-2.38E-06,0.00684
,,,-2.37E-06,0.006875
,,,-2.36E-06,0.00727
,,,-2.35E-06,0.006926875
,,,-2.34E-06,0.006945
,,,-2.33E-06,0.006955
,,,-2.32E-06,0.0070675
,,,-2.31E-06,0.006943125
,,,-2.3E-06,0.006959375
,,,-2.29E-06,0.006750625
,,,-2.28E-06,0.006855625
,,,-2.27E-06,0.007
,,,-2.26E-06,0.006865625
,,,-2.25E-06,0.00711875
,,,-2.24E-06,0.007020625
,,,-2.23E-06,0.00686875
,,,-2.22E-06,0.006811875
,,,-2.21E-06,0.006498125
,,,-2.2E-06,0.00672
,,,-2.19E-06,0.00698375
,,,-2.18E-06,0.006889375
,,,-2.17E-06,0.006713125
,,,-2.16E-06,0.006886875
,,,-2.15E-06,0.0069875
,,,-2.14E-06,0.006894375
,,,-2.13E-06,0.006921875
,,,-2.12E-06,0.00688625
,,,-2.11E-06,0.00679
,,,-2.1E-06,0.00692625
,,,-2.09E-06,0.0070075
,,,-2.08E-06,0.00696875
,,,-2.07E-06,0.006949375
,,,-2.06E-06,0.006976875
,,,-2.05E-06,0.0068425
,,,-2.04E-06,0.006820625
,,,-2.03E-06,0.006949375
,,,-2.02E-06,0.006968125
,,,-2.01E-06,0.006884375
,,,-2E-06,0.007040625
,,,-1.99E-06,0.00699375
,,,-1.98E-06,0.00690375
,,,-1.97E-06,0.00666625
,,,-1.96E-06,0.00703375
,,,-1.95E-06,0.006945
,,,-1.94E-06,0.00695625
,,,-1.93E-06,0.006885625
,,,-1.92E-06,0.007038125
,,,-1.91E-06,0.007075625
,,,-1.9E-06,0.006950625
,,,-1.89E-06,0.006861875
,,,-1.88E-06,0.0068025
,,,-1.87E-06,0.00666375
,,,-1.86E-06,0.006775
,,,-1.85E-06,0.00681375
,,,-1.84E-06,0.006985625
,,,-1.83E-06,0.00696625
,,,-1.82E-06,0.006720625
,,,-1.81E-06,0.006640625
,,,-1.8E-06,0.006764375
,,,-1.79E-06,0.006885
,,,-1.78E-06,0.0069575
,,,-1.77E-06,0.007116875
,,,-1.76E-06,0.006990625
,,,-1.75E-06,0.006934375
,,,-1.74E-06,0.00699
,,,-1.73E-06,0.006930625
,,,-1.72E-06,0.00672
,,,-1.71E-06,0.00678625
,,,-1.7E-06,0.00684
,,,-1.69E-06,0.006949375
,,,-1.68E-06,0.007073125
,,,-1.67E-06,0.007108125
,,,-1.66E-06,0.006915625
,,,-1.65E-06,0.00700125
,,,-1.64E-06,0.006661875
,,,-1.63E-06,0.006985
,,,-1.62E-06,0.00666125
,,,-1.61E-06,0.00700875
,,,-1.6E-06,0.007005
,,,-1.59E-06,0.006971875
,,,-1.58E-06,0.006955
,,,-1.57E-06,0.00695
,,,-1.56E-06,0.006860625
,,,-1.55E-06,0.006751875
,,,-1.54E-06,0.006681875
,,,-1.53E-06,0.00686625
,,,-1.52E-06,0.006911875
,,,-1.51E-06,0.00694875
,,,-1.5E-06,0.00707625
,,,-1.49E-06,0.00695375
,,,-1.48E-06,0.006710625
,,,-1.47E-06,0.006961875
,,,-1.46E-06,0.0068925
,,,-1.45E-06,0.006756875
,,,-1.44E-06,0.006901875
,,,-1.43E-06,0.007003125
,,,-1.42E-06,0.006779375
,,,-1.41E-06,0.006704375
,,,-1.4E-06,0.00697
,,,-1.39E-06,0.00671
,,,-1.38E-06,0.006866875
,,,-1.37E-06,0.00688875
,,,-1.36E-06,0.00691
,,,-1.35E-06,0.00685625
,,,-1.34E-06,0.00686875
,,,-1.33E-06,0.006809375
,,,-1.32E-06,0.00702125
,,,-1.31E-06,0.006686875
,,,-1.3E-06,0.006710625
,,,-1.29E-06,0.006785625
,,,-1.28E-06,0.0070675
,,,-1.27E-06,0.006939375
,,,-1.26E-06,0.006864375
,,,-1.25E-06,0.006898125
,,,-1.24E-06,0.0069425
,,,-1.23E-06,0.006963125
,,,-1.22E-06,0.0068025
,,,-1.21E-06,0.00677875
,,,-1.2E-06,0.0068925
,,,-1.19E-06,0.006875625
,,,-1.18E-06,0.006750625
,,,-1.17E-06,0.007100625
,,,-1.16E-06,0.0069225
,,,-1.15E-06,0.006995
,,,-1.14E-06,0.00680375
,,,-1.13E-06,0.006846875
,,,-1.12E-06,0.006879375
,,,-1.11E-06,0.00685375
,,,-1.1E-06,0.007098125
,,,-1.09E-06,0.00687
,,,-1.08E-06,0.006906875
,,,-1.07E-06,0.006724375
,,,-1.06E-06,0.006660625
,,,-1.05E-06,0.006691875
,,,-1.04E-06,0.00698375
,,,-1.03E-06,0.007104375
,,,-1.02E-06,0.00716125
,,,-1.01E-06,0.006935625
,,,-1E-06,0.0069175
,,,-9.9E-07,0.006798125
,,,-9.8E-07,0.0070275
,,,-9.7E-07,0.006836875
,,,-9.6E-07,0.0069225
,,,-9.5E-07,0.00677375
,,,-9.4E-07,0.00704375
,,,-9.3E-07,0.00684
,,,-9.2E-07,0.006931875
,,,-9.1E-07,0.006895625
,,,-9E-07,0.0069
,,,-8.9E-07,0.0069175
,,,-8.8E-07,0.006981875
,,,-8.7E-07,0.00694625
,,,-8.6E-07,0.006914375
,,,-8.5E-07,0.006901875
,,,-8.4E-07,0.00697875
,,,-8.3E-07,0.007086875
,,,-8.2E-07,0.006953125
,,,-8.1E-07,0.00713625
,,,-8E-07,0.006804375
,,,-7.9E-07,0.006855625
,,,-7.8E-07,0.007135625
,,,-7.7E-07,0.00708625
,,,-7.6E-07,0.00714125
,,,-7.5E-07,0.00706
,,,-7.4E-07,0.00682625
,,,-7.3E-07,0.0067625
,,,-7.2E-07,0.00696375
,,,-7.1E-07,0.0068025
,,,-7E-07,0.007095
,,,-6.9E-07,0.00703625
,,,-6.8E-07,0.0068425
,,,-6.7E-07,0.006690625
,,,-6.6E-07,0.006945625
,,,-6.5E-07,0.006975625
,,,-6.4E-07,0.006843125
,,,-6.3E-07,0.00700375
,,,-6.2E-07,0.0068675
,,,-6.1E-07,0.007005625
,,,-6E-07,0.007005625
,,,-5.9E-07,0.006778125
,,,-5.8E-07,0.006951875
,,,-5.7E-07,0.0069025
,,,-5.6E-07,0.006940625
,,,-5.5E-07,0.006815
,,,-5.4E-07,0.00674
,,,-5.3E-07,0.0068525
,,,-5.2E-07,0.00699375
,,,-5.1E-07,0.00698
,,,-5E-07,0.007008125
,,,-4.9E-07,0.006844375
,,,-4.8E-07,0.0068625
,,,-4.7E-07,0.0070025
,,,-4.6E-07,0.00690375
,,,-4.5E-07,0.006749375
,,,-4.4E-07,0.006893125
,,,-4.3E-07,0.007008125
,,,-4.2E-07,0.006888125
,,,-4.1E-07,0.0069775
,,,-4E-07,0.00709625
,,,-3.9E-07,0.00696125
,,,-3.8E-07,0.00701
,,,-3.7E-07,0.00665
,,,-3.6E-07,0.006645
,,,-3.5E-07,0.006838125
,,,-3.4E-07,0.006901875
,,,-3.3E-07,0.0068025
,,,-3.2E-07,0.006821875
,,,-3.1E-07,0.00679
,,,-3E-07,0.00688
,,,-2.9E-07,0.007139375
,,,-2.8E-07,0.006914375
,,,-2.7E-07,0.00696375
,,,-2.6E-07,0.007038125
,,,-2.5E-07,0.007101875
,,,-2.4E-07,0.006650625
,,,-2.3E-07,0.006730625
,,,-2.2E-07,0.00702
,,,-2.1E-07,0.006831875
,,,-2E-07,0.006823125
,,,-1.9E-07,0.00696375
,,,-1.8E-07,0.00686625
,,,-1.7E-07,0.006775
,,,-1.6E-07,0.006733125
,,,-1.5E-07,0.006746875
,,,-1.4E-07,0.006793125
,,,-1.3E-07,0.00700125
,,,-1.2E-07,0.0069675
,,,-1.1E-07,0.0069
,,,-1E-07,0.007123125
,,,-9E-08,0.00687625
,,,-8E-08,0.00689375
,,,-7E-08,0.0069775
,,,-6E-08,0.006981875
,,,-5E-08,0.007359375
,,,-4E-08,0.0080325
,,,-3E-08,0.007849375
,,,-2E-08,0.005445625
,,,-1E-08,0.0037375
,,,0,0.004439375
,,,1E-08,0.008935625
,,,2E-08,0.010886875
,,,3E-08,0.009975
,,,4E-08,0.006215
,,,5E-08,0.004546875
,,,6E-08,0.00374125
,,,7E-08,0.00572125
,,,8E-08,0.007480625
,,,9E-08,0.008691875
,,,1E-07,0.008865
,,,1.1E-07,0.0076075
,,,1.2E-07,0.006026875
,,,1.3E-07,0.00536375
,,,1.4E-07,0.006369375
,,,1.5E-07,0.00703125
,,,1.6E-07,0.0075375
,,,1.7E-07,0.00708875
,,,1.8E-07,0.007039375
,,,1.9E-07,0.0070275
,,,2E-07,0.0069275
,,,2.1E-07,0.00670125
,,,2.2E-07,0.00667
,,,2.3E-07,0.00667875
,,,2.4E-07,0.006994375
,,,2.5E-07,0.0069575
,,,2.6E-07,0.00691625
,,,2.7E-07,0.006795625
,,,2.8E-07,0.007003125
,,,2.9E-07,0.006788125
,,,3E-07,0.006950625
,,,3.1E-07,0.00678625
,,,3.2E-07,0.007046875
,,,3.3E-07,0.00705875
,,,3.4E-07,0.00713375
,,,3.5E-07,0.0069875
,,,3.6E-07,0.006720625
,,,3.7E-07,0.006815
,,,3.8E-07,0.0069675
,,,3.9E-07,0.00711625
,,,4E-07,0.0069375
,,,4.1E-07,0.007091875
,,,4.2E-07,0.00681625
,,,4.3E-07,0.006903125
,,,4.4E-07,0.007095625
,,,4.5E-07,0.006829375
,,,4.6E-07,0.006875625
,,,4.7E-07,0.006681875
,,,4.8E-07,0.007081875
,,,4.9E-07,0.007016875
,,,5E-07,0.0069825
,,,5.1E-07,0.006890625
,,,5.2E-07,0.006849375
,,,5.3E-07,0.0070975
,,,5.4E-07,0.00673375
,,,5.5E-07,0.0066525
,,,5.6E-07,0.006924375
,,,5.7E-07,0.006950625
,,,5.8E-07,0.006945
,,,5.9E-07,0.00707
,,,6E-07,0.006775625
,,,6.1E-07,0.006824375
,,,6.2E-07,0.0068225
,,,6.3E-07,0.00693125
,,,6.4E-07,0.0069775
,,,6.5E-07,0.006980625
,,,6.6E-07,0.006855
,,,6.7E-07,0.007138125
,,,6.8E-07,0.00702375
,,,6.9E-07,0.0070525
,,,7E-07,0.00696
,,,7.1E-07,0.00668375
,,,7.2E-07,0.00679
,,,7.3E-07,0.006773125
,,,7.4E-07,0.006840625
,,,7.5E-07,0.007181875
,,,7.6E-07,0.0070975
,,,7.7E-07,0.00675125
,,,7.8E-07,0.00677625
,,,7.9E-07,0.006906875
,,,8E-07,0.006980625
,,,8.1E-07,0.0069625
,,,8.2E-07,0.006956875
,,,8.3E-07,0.00694375
,,,8.4E-07,0.00696125
,,,8.5E-07,0.006901875
,,,8.6E-07,0.006710625
,,,8.7E-07,0.006805
,,,8.8E-07,0.00685125
,,,8.9E-07,0.006746875
,,,9E-07,0.0072
,,,9.1E-07,0.0071925
,,,9.2E-07,0.00701375
,,,9.3E-07,0.0069025
,,,9.4E-07,0.0071075
,,,9.5E-07,0.007101875
,,,9.6E-07,0.007030625
,,,9.7E-07,0.0067425
,,,9.8E-07,0.006704375
,,,9.9E-07,0.0067925
,,,1E-06,0.006846875
,,,1.01E-06,0.0068425
,,,1.02E-06,0.007085625
,,,1.03E-06,0.007043125
,,,1.04E-06,0.00676375
,,,1.05E-06,0.0069725
,,,1.06E-06,0.0069125
,,,1.07E-06,0.0069125
,,,1.08E-06,0.007003125
,,,1.09E-06,0.006894375
,,,1.1E-06,0.006925
,,,1.11E-06,0.00688875
,,,1.12E-06,0.00697375
,,,1.13E-06,0.006694375
,,,1.14E-06,0.0069375
,,,1.15E-06,0.006790625
,,,1.16E-06,0.006971875
,,,1.17E-06,0.006780625
,,,1.18E-06,0.006949375
,,,1.19E-06,0.0066175
,,,1.2E-06,0.006933125
,,,1.21E-06,0.00673125
,,,1.22E-06,0.00686
,,,1.23E-06,0.00691
,,,1.24E-06,0.006896875
,,,1.25E-06,0.00697125
,,,1.26E-06,0.006826875
,,,1.27E-06,0.006801875
,,,1.28E-06,0.0068775
,,,1.29E-06,0.00699
,,,1.3E-06,0.00661375
,,,1.31E-06,0.006675625
,,,1.32E-06,0.007038125
,,,1.33E-06,0.007051875
,,,1.34E-06,0.006779375
,,,1.35E-06,0.006874375
,,,1.36E-06,0.00684125
,,,1.37E-06,0.006965625
,,,1.38E-06,0.00708875
,,,1.39E-06,0.0070025
,,,1.4E-06,0.007000625
,,,1.41E-06,0.00712
,,,1.42E-06,0.006825
,,,1.43E-06,0.0069625
,,,1.44E-06,0.0067625
,,,1.45E-06,0.00678375
,,,1.46E-06,0.007011875
,,,1.47E-06,0.00694625
,,,1.48E-06,0.006696875
,,,1.49E-06,0.0067675
,,,1.5E-06,0.00658125
,,,1.51E-06,0.006915625
,,,1.52E-06,0.0068125
,,,1.53E-06,0.00669
,,,1.54E-06,0.0068375
,,,1.55E-06,0.006588125
,,,1.56E-06,0.00695125
,,,1.57E-06,0.006945625
,,,1.58E-06,0.00717625
,,,1.59E-06,0.007058125
,,,1.6E-06,0.0068
,,,1.61E-06,0.0069325
,,,1.62E-06,0.006925
,,,1.63E-06,0.006915
,,,1.64E-06,0.006948125
,,,1.65E-06,0.006971875
,,,1.66E-06,0.00677875
,,,1.67E-06,0.006930625
,,,1.68E-06,0.006895
,,,1.69E-06,0.006895
,,,1.7E-06,0.006846875
,,,1.71E-06,0.006831875
,,,1.72E-06,0.00667375
,,,1.73E-06,0.00686
,,,1.74E-06,0.006923125
,,,1.75E-06,0.00706125
,,,1.76E-06,0.006725
,,,1.77E-06,0.00709
,,,1.78E-06,0.00691625
,,,1.79E-06,0.00679625
,,,1.8E-06,0.00689125
,,,1.81E-06,0.006684375
,,,1.82E-06,0.007006875
,,,1.83E-06,0.006996875
,,,1.84E-06,0.00674
,,,1.85E-06,0.00692125
,,,1.86E-06,0.006879375
,,,1.87E-06,0.006881875
,,,1.88E-06,0.006855625
,,,1.89E-06,0.00700125
,,,1.9E-06,0.006723125
,,,1.91E-06,0.006926875
,,,1.92E-06,0.0070825
,,,1.93E-06,0.006949375
,,,1.94E-06,0.00705375
,,,1.95E-06,0.007009375
,,,1.96E-06,0.00701
,,,1.97E-06,0.00697375
,,,1.98E-06,0.00689625
,,,1.99E-06,0.006811875
,,,2E-06,0.006805
,,,2.01E-06,0.00697875
,,,2.02E-06,0.00705875
,,,2.03E-06,0.0068225
,,,2.04E-06,0.00696
,,,2.05E-06,0.00702125
,,,2.06E-06,0.00687625
,,,2.07E-06,0.006878125
,,,2.08E-06,0.00678375
,,,2.09E-06,0.007
,,,2.1E-06,0.006824375
,,,2.11E-06,0.006853125
,,,2.12E-06,0.00705
,,,2.13E-06,0.0067225
,,,2.14E-06,0.006826875
,,,2.15E-06,0.00709
,,,2.16E-06,0.006965
,,,2.17E-06,0.00687375
,,,2.18E-06,0.006784375
,,,2.19E-06,0.007061875
,,,2.2E-06,0.006855
,,,2.21E-06,0.006939375
,,,2.22E-06,0.00700625
,,,2.23E-06,0.007030625
,,,2.24E-06,0.006643125
,,,2.25E-06,0.0070525
,,,2.26E-06,0.006853125
,,,2.27E-06,0.00697375
,,,2.28E-06,0.0068825
,,,2.29E-06,0.006738125
,,,2.3E-06,0.0069875
,,,2.31E-06,0.006879375
,,,2.32E-06,0.0068925
,,,2.33E-06,0.0070375
,,,2.34E-06,0.006955
,,,2.35E-06,0.006901875
,,,2.36E-06,0.006819375
,,,2.37E-06,0.007255
,,,2.38E-06,0.006919375
,,,2.39E-06,0.006891875
,,,2.4E-06,0.006976875
,,,2.41E-06,0.006845
,,,2.42E-06,0.00687375
,,,2.43E-06,0.0069975
,,,2.44E-06,0.00707625
,,,2.45E-06,0.006933125
,,,2.46E-06,0.006895625
,,,2.47E-06,0.007001875
,,,2.48E-06,0.00702125
,,,2.49E-06,0.00702875
,,,2.5E-06,0.006990625
,,,2.51E-06,0.007000625
,,,2.52E-06,0.006931875
,,,2.53E-06,0.0068675
,,,2.54E-06,0.007108125
,,,2.55E-06,0.00682875
,,,2.56E-06,0.007005625
,,,2.57E-06,0.006810625
,,,2.58E-06,0.006644375
,,,2.59E-06,0.006966875
,,,2.6E-06,0.006735625
,,,2.61E-06,0.006828125
,,,2.62E-06,0.006694375
,,,2.63E-06,0.007090625
,,,2.64E-06,0.007006875
,,,2.65E-06,0.006869375
,,,2.66E-06,0.0068925
,,,2.67E-06,0.00693
,,,2.68E-06,0.0069125
,,,2.69E-06,0.006770625
,,,2.7E-06,0.006851875
,,,2.71E-06,0.006866875
,,,2.72E-06,0.006785625
,,,2.73E-06,0.006839375
,,,2.74E-06,0.0068875
,,,2.75E-06,0.00695625
,,,2.76E-06,0.00675125
,,,2.77E-06,0.0068075
,,,2.78E-06,0.0068525
,,,2.79E-06,0.0068225
,,,2.8E-06,0.00683375
,,,2.81E-06,0.006915
,,,2.82E-06,0.00720125
,,,2.83E-06,0.007246875
,,,2.84E-06,0.006916875
,,,2.85E-06,0.00698125
,,,2.86E-06,0.006893125
,,,2.87E-06,0.006670625
,,,2.88E-06,0.006933125
,,,2.89E-06,0.007109375
,,,2.9E-06,0.00686125
,,,2.91E-06,0.006799375
,,,2.92E-06,0.0070575
,,,2.93E-06,0.006900625
,,,2.94E-06,0.006955
,,,2.95E-06,0.00698
,,,2.96E-06,0.00678625
,,,2.97E-06,0.006874375
,,,2.98E-06,0.00709375
,,,2.99E-06,0.006908125
,,,3E-06,0.00682375
,,,3.01E-06,0.00672375
,,,3.02E-06,0.006994375
,,,3.03E-06,0.00686
,,,3.04E-06,0.007099375
,,,3.05E-06,0.006765
,,,3.06E-06,0.0069225
,,,3.07E-06,0.006924375
,,,3.08E-06,0.006829375
,,,3.09E-06,0.00676125
,,,3.1E-06,0.00685875
,,,3.11E-06,0.00687
,,,3.12E-06,0.00688125
,,,3.13E-06,0.00683
,,,3.14E-06,0.006870625
,,,3.15E-06,0.0070675
,,,3.16E-06,0.006923125
,,,3.17E-06,0.006930625
,,,3.18E-06,0.00688875
,,,3.19E-06,0.00683875
,,,3.2E-06,0.006988125
,,,3.21E-06,0.006960625
,,,3.22E-06,0.006805
,,,3.23E-06,0.007049375
,,,3.24E-06,0.006655
,,,3.25E-06,0.006915625
,,,3.26E-06,0.006885
,,,3.27E-06,0.0069275
,,,3.28E-06,0.00695125
,,,3.29E-06,0.0068725
,,,3.3E-06,0.00686625
,,,3.31E-06,0.0070175
,,,3.32E-06,0.0069325
,,,3.33E-06,0.006804375
,,,3.34E-06,0.0068125
,,,3.35E-06,0.006645625
,,,3.36E-06,0.006814375
,,,3.37E-06,0.006754375
,,,3.38E-06,0.0068625
,,,3.39E-06,0.007068125
,,,3.4E-06,0.006951875
,,,3.41E-06,0.007078125
,,,3.42E-06,0.00696125
,,,3.43E-06,0.006798125
,,,3.44E-06,0.006928125
,,,3.45E-06,0.0068075
,,,3.46E-06,0.006916875
,,,3.47E-06,0.00673375
,,,3.48E-06,0.006920625
,,,3.49E-06,0.007015625
,,,3.5E-06,0.0068875
,,,3.51E-06,0.00691
,,,3.52E-06,0.00688625
,,,3.53E-06,0.006830625
,,,3.54E-06,0.006948125
,,,3.55E-06,0.007114375
,,,3.56E-06,0.00663875
,,,3.57E-06,0.00692375
,,,3.58E-06,0.0069425
