data/raw/Final_POL_Test_1/SOP048_Ch2.csv

"Record Length",1000,"Points",-5E-06,0.0195925
"Sample Interval",1E-08,s,-4.99E-06,0.019728125
"Trigger Point",500,"Samples",-4.98E-06,0.0196875
"Trigger Time",0,s,-4.97E-06,0.019583125
"",,,-4.96E-06,0.019768125
"Horizontal Offset",-5E-06,s,-4.95E-06,0.01961375
,,,-4.94E-06,0.01965875
,,,-4.93E-06,0.0197025
,,,-4.92E-06,0.019755625
,,,-4.91E-06,0.01975875
,,,-4.9E-06,0.01974375
,,,-4.89E-06,0.01973125
,,,-4.88E-06,0.019730625
,,,-4.87E-06,0.01964375
,,,-4.86E-06,0.019595625
,,,-4.85E-06,0.01969875
,,,-4.84E-06,0.019734375
,,,-4.83E-06,0.019870625
,,,-4.82E-06,0.019635
,,,-4.81E-06,0.019671875
,,,-4.8E-06,0.01958
,,,-4.79E-06,0.01962625
,,,-4.78E-06,0.019551875
,,,-4.77E-06,0.019516875
,,,-4.76E-06,0.019615625
,,,-4.75E-06,0.019491875
,,,-4.74E-06,0.019878125
,,,-4.73E-06,0.019624375
,,,-4.72E-06,0.019645
,,,-4.71E-06,0.019456875
,,,-4.7E-06,0.019460625
,,,-4.69E-06,0.0197
,,,-4.68E-06,0.019810625
,,,-4.67E-06,0.019549375
,,,-4.66E-06,0.01990875
,,,-4.65E-06,0.019595625
,,,-4.64E-06,0.0196975
,,,-4.63E-06,0.019710625
,,,-4.62E-06,0.019664375
,,,-4.61E-06,0.019451875
,,,-4.6E-06,0.019515625
,,,-4.59E-06,0.019610625
,,,-4.58E-06,0.019789375
,,,-4.57E-06,0.019584375
,,,-4.56E-06,0.0198025
,,,-4.55E-06,0.019430625
,,,-4.54E-06,0.01965
,,,-4.53E-06,0.01941
,,,-4.52E-06,0.01952375
,,,-4.51E-06,0.0197575
,,,-4.5E-06,0.01943125
,,,-4.49E-06,0.019858125
,,,-4.48E-06,0.0196475
,,,-4.47E-06,0.019633125
,,,-4.46E-06,0.01964
,,,-4.45E-06,0.0199175
,,,-4.44E-06,0.0197175
,,,-4.43E-06,0.01950375
,,,-4.42E-06,0.01952
,,,-4.41E-06,0.01965625
,,,-4.4E-06,0.019815625
,,,-4.39E-06,0.019893125
,,,-4.38E-06,0.019601875
,,,-4.37E-06,0.019473125
,,,-4.36E-06,0.01958
,,,-4.35E-06,0.019823125
,,,-4.34E-06,0.019618125
,,,-4.33E-06,0.01983125
,,,-4.32E-06,0.01967875
,,,-4.31E-06,0.019575
,,,-4.3E-06,0.019653125
,,,-4.29E-06,0.019618125
,,,-4.28E-06,0.01964625
,,,-4.27E-06,0.0197125
,,,-4.26E-06,0.019596875
,,,-4.25E-06,0.0196
,,,-4.24E-06,0.01935
,,,-4.23E-06,0.019575
,,,-4.22E-06,0.0197
,,,-4.21E-06,0.019755
,,,-4.2E-06,0.019646875
,,,-4.19E-06,0.019671875
,,,-4.18E-06,0.01959375
,,,-4.17E-06,0.019660625
,,,-4.16E-06,0.019766875
,,,-4.15E-06,0.019545625
,,,-4.14E-06,0.01963375
,,,-4.13E-06,0.019410625
,,,-4.12E-06,0.0195675
,,,-4.11E-06,0.019755
,,,-4.1E-06,0.019608125
,,,-4.09E-06,0.01975875
,,,-4.08E-06,0.0195575
,,,-4.07E-06,0.019805625
,,,-4.06E-06,0.01975125
,,,-4.05E-06,0.0195925
,,,-4.04E-06,0.0197025
,,,-4.03E-06,0.019781875
,,,-4.02E-06,0.01947875
,,,-4.01E-06,0.019654375
,,,-4E-06,0.019665
,,,-3.99E-06,0.0195725
,,,-3.98E-06,0.019903125
,,,-3.97E-06,0.01955375
,,,-3.96E-06,0.019900625
,,,-3.95E-06,0.019656875
,,,-3.94E-06,0.019535
,,,-3.93E-06,0.0196525
,,,-3.92E-06,0.01949875
,,,-3.91E-06,0.019589375
,,,-3.9E-06,0.01972
,,,-3.89E-06,0.019803125
,,,-3.88E-06,0.019756875
,,,-3.87E-06,0.0197275
,,,-3.86E-06,0.019731875
,,,-3.85E-06,0.019699375
,,,-3.84E-06,0.0195525
,,,-3.83E-06,0.019908125
,,,-3.82E-06,0.019624375
,,,-3.81E-06,0.019734375
,,,-3.8E-06,0.019665
,,,-3.79E-06,0.019656875
,,,-3.78E-06,0.019673125
,,,-3.77E-06,0.01974875
,,,-3.76E-06,0.01948625
,,,-3.75E-06,0.0199325
,,,-3.74E-06,0.01978875
,,,-3.73E-06,0.01964
,,,-3.72E-06,0.019725
,,,-3.71E-06,0.019648125
,,,-3.7E-06,0.019573125
,,,-3.69E-06,0.01951375
,,,-3.68E-06,0.01976
,,,-3.67E-06,0.019585625
,,,-3.66E-06,0.0197375
,,,-3.65E-06,0.019830625
,,,-3.64E-06,0.019761875
,,,-3.63E-06,0.0197225
,,,-3.62E-06,0.0196075
,,,-3.61E-06,0.01961
,,,-3.6E-06,0.0197125
,,,-3.59E-06,0.019758125
,,,-3.58E-06,0.019706875
,,,-3.57E-06,0.019671875
,,,-3.56E-06,0.019653125
,,,-3.55E-06,0.01981
,,,-3.54E-06,0.0196225
,,,-3.53E-06,0.01967625
,,,-3.52E-06,0.01969875
,,,-3.51E-06,0.019535
,,,-3.5E-06,0.019759375
,,,-3.49E-06,0.019673125
,,,-3.48E-06,0.01967
,,,-3.47E-06,0.019815
,,,-3.46E-06,0.0194275
,,,-3.45E-06,0.019695625
,,,-3.44E-06,0.019509375
,,,-3.43E-06,0.01969375
,,,-3.42E-06,0.019721875
,,,-3.41E-06,0.019929375
,,,-3.4E-06,0.0198975
,,,-3.39E-06,0.019555625
,,,-3.38E-06,0.019539375
,,,-3.37E-06,0.019718125
,,,-3.36E-06,0.019545625
,,,-3.35E-06,0.01963125
,,,-3.34E-06,0.0197125
,,,-3.33E-06,0.0195575
,,,-3.32E-06,0.019575625
,,,-3.31E-06,0.019530625
,,,-3.3E-06,0.019960625
,,,-3.29E-06,0.01964
,,,-3.28E-06,0.0196225
,,,-3.27E-06,0.019808125
,,,-3.26E-06,0.019655625
,,,-3.25E-06,0.019668125
,,,-3.24E-06,0.019884375
,,,-3.23E-06,0.0197675
,,,-3.22E-06,0.01968625
,,,-3.21E-06,0.01946
,,,-3.2E-06,0.01955875
,,,-3.19E-06,0.019646875
,,,-3.18E-06,0.019664375
,,,-3.17E-06,0.019645625
,,,-3.16E-06,0.019740625
,,,-3.15E-06,0.019811875
,,,-3.14E-06,0.019761875
,,,-3.13E-06,0.019729375
,,,-3.12E-06,0.01965875
,,,-3.11E-06,0.019635625
,,,-3.1E-06,0.01940875
,,,-3.09E-06,0.0197325
,,,-3.08E-06,0.019580625
,,,-3.07E-06,0.019620625
,,,-3.06E-06,0.019718125
,,,-3.05E-06,0.01966
,,,-3.04E-06,0.019761875
,,,-3.03E-06,0.01968875
,,,-3.02E-06,0.019595
,,,-3.01E-06,0.019460625
,,,-3E-06,0.0196175
,,,-2.99E-06,0.01983625
,,,-2.98E-06,0.01973875
,,,-2.97E-06,0.02005
,,,-2.96E-06,0.019813125
,,,-2.95E-06,0.019749375
,,,-2.94E-06,0.0197
,,,-2.93E-06,0.019628125
,,,-2.92E-06,0.01985625
,,,-2.91E-06,0.01955875
,,,-2.9E-06,0.0196775
,,,-2.89E-06,0.019724375
,,,-2.88E-06,0.01937
,,,-2.87E-06,0.01979
,,,-2.86E-06,0.0196875
,,,-2.85E-06,0.0196175
,,,-2.84E-06,0.01945875
,,,-2.83E-06,0.019925625
,,,-2.82E-06,0.01953625
,,,-2.81E-06,0.019719375
,,,-2.8E-06,0.0196575
,,,-2.79E-06,0.0197875
,,,-2.78E-06,0.0196825
,,,-2.77E-06,0.01963375
,,,-2.76E-06,0.01962875
,,,-2.75E-06,0.01953125
,,,-2.74E-06,0.019484375
,,,-2.73E-06,0.02000875
,,,-2.72E-06,0.01935375
,,,-2.71E-06,0.019493125
,,,-2.7E-06,0.019730625
,,,-2.69E-06,0.019828125
,,,-2.68E-06,0.0197125
,,,-2.67E-06,0.019798125
,,,-2.66E-06,0.019781875
,,,-2.65E-06,0.020054375
,,,-2.64E-06,0.019711875
,,,-2.63E-06,0.019421875
,,,-2.62E-06,0.019494375
,,,-2.61E-06,0.019653125
,,,-2.6E-06,0.01986
,,,-2.59E-06,0.0194875
,,,-2.58E-06,0.019575
,,,-2.57E-06,0.019699375
,,,-2.56E-06,0.019763125
,,,-2.55E-06,0.019570625
,,,-2.54E-06,0.019666875
,,,-2.53E-06,0.01964
,,,-2.52E-06,0.019676875
,,,-2.51E-06,0.019919375
,,,-2.5E-06,0.019631875
,,,-2.49E-06,0.01984125
,,,-2.48E-06,0.019730625
,,,-2.47E-06,0.019748125
,,,-2.46E-06,0.019746875
,,,-2.45E-06,0.019495625
,,,-2.44E-06,0.019820625
,,,-2.43E-06,0.01955375
,,,-2.42E-06,0.0197425
,,,-2.41E-06,0.019861875
,,,-2.4E-06,0.019803125
,,,-2.39E-06,0.019681875
,,,-2.38E-06,0.019920625
,,,-2.37E-06,0.01946625
,,,-2.36E-06,0.019696875
,,,-2.35E-06,0.019735
,,,-2.34E-06,0.019583125
,,,-2.33E-06,0.01948375
,,,-2.32E-06,0.019630625
,,,-2.31E-06,0.01973375
,,,-2.3E-06,0.01948
,,,-2.29E-06,0.019611875
,,,-2.28E-06,0.01975
,,,-2.27E-06,0.01995375
,,,-2.26E-06,0.019878125
,,,-2.25E-06,0.019894375
,,,-2.24E-06,0.01963
,,,-2.23E-06,0.01964
,,,-2.22E-06,0.019894375
,,,-2.21E-06,0.019816875
,,,-2.2E-06,0.0196
,,,-2.19E-06,0.0195625
,,,-2.18E-06,0.01958625
,,,-2.17E-06,0.019841875
,,,-2.16E-06,0.019771875
,,,-2.15E-06,0.019521875
,,,-2.14E-06,0.019693125
,,,-2.13E-06,0.01967875
,,,-2.12E-06,0.019825
,,,-2.11E-06,0.019791875
,,,-2.1E-06,0.019550625
,,,-2.09E-06,0.01965625
,,,-2.08E-06,0.01978875
,,,-2.07E-06,0.019641875
,,,-2.06E-06,0.019690625
,,,-2.05E-06,0.0196625
,,,-2.04E-06,0.019371875
,,,-2.03E-06,0.019653125
,,,-2.02E-06,0.01977625
,,,-2.01E-06,0.01951625
,,,-2E-06,0.019818125
,,,-1.99E-06,0.019635625
,,,-1.98E-06,0.01966
,,,-1.97E-06,0.019739375
,,,-1.96E-06,0.019599375
,,,-1.95E-06,0.019635
,,,-1.94E-06,0.01964875
,,,-1.93E-06,0.01974625
,,,-1.92E-06,0.0194125
,,,-1.91E-06,0.0196225
,,,-1.9E-06,0.01972
,,,-1.89E-06,0.019579375
,,,-1.88E-06,0.01964625
,,,-1.87E-06,0.019895625
,,,-1.86E-06,0.019713125
,,,-1.85E-06,0.019565625
,,,-1.84E-06,0.01960375
,,,-1.83E-06,0.019780625
,,,-1.82E-06,0.019808125
,,,-1.81E-06,0.01984
,,,-1.8E-06,0.019796875
,,,-1.79E-06,0.019588125
,,,-1.78E-06,0.01955
,,,-1.77E-06,0.0195975
,,,-1.76E-06,0.019765
,,,-1.75E-06,0.01973
,,,-1.74E-06,0.019749375
,,,-1.73E-06,0.0197525
,,,-1.72E-06,0.0195825
,,,-1.71E-06,0.019509375
,,,-1.7E-06,0.01957125
,,,-1.69E-06,0.01965875
,,,-1.68E-06,0.0197
,,,-1.67E-06,0.01946
,,,-1.66E-06,0.01979625
,,,-1.65E-06,0.019623125
,,,-1.64E-06,0.019946875
,,,-1.63E-06,0.01957125
,,,-1.62E-06,0.01955125
,,,-1.61E-06,0.01959375
,,,-1.6E-06,0.0196975
,,,-1.59E-06,0.0199075
,,,-1.58E-06,0.0199525
,,,-1.57E-06,0.019579375
,,,-1.56E-06,0.019589375
,,,-1.55E-06,0.019625625
,,,-1.54E-06,0.019645625
,,,-1.53E-06,0.019466875
,,,-1.52E-06,0.019555
,,,-1.51E-06,0.019791875
,,,-1.5E-06,0.019968125
,,,-1.49E-06,0.01964875
,,,-1.48E-06,0.019605
,,,-1.47E-06,0.01952
,,,-1.46E-06,0.019458125
,,,-1.45E-06,0.019633125
,,,-1.44E-06,0.019623125
,,,-1.43E-06,0.01961875
,,,-1.42E-06,0.01951625
,,,-1.41E-06,0.019501875
,,,-1.4E-06,0.0194775
,,,-1.39E-06,0.01981625
,,,-1.38E-06,0.01947125
,,,-1.37E-06,0.01972875
,,,-1.36E-06,0.019521875
,,,-1.35E-06,0.0197725
,,,-1.34E-06,0.019549375
,,,-1.33E-06,0.019840625
,,,-1.32E-06,0.01964125
,,,-1.31E-06,0.019778125
,,,-1.3E-06,0.01960875
,,,-1.29E-06,0.01953875
,,,-1.28E-06,0.01969
,,,-1.27E-06,0.019855625
,,,-1.26E-06,0.019709375
,,,-1.25E-06,0.019589375
,,,-1.24E-06,0.019529375
,,,-1.23E-06,0.019731875
,,,-1.22E-06,0.019723125
,,,-1.21E-06,0.019670625
,,,-1.2E-06,0.019743125
,,,-1.19E-06,0.019890625
,,,-1.18E-06,0.019618125
,,,-1.17E-06,0.01955
,,,-1.16E-06,0.019619375
,,,-1.15E-06,0.019775
,,,-1.14E-06,0.019630625
,,,-1.13E-06,0.019610625
,,,-1.12E-06,0.0197125
,,,-1.11E-06,0.019591875
,,,-1.1E-06,0.01974375
,,,-1.09E-06,0.01981
,,,-1.08E-06,0.019851875
,,,-1.07E-06,0.01965
,,,-1.06E-06,0.019500625
,,,-1.05E-06,0.0197275
,,,-1.04E-06,0.01973125
,,,-1.03E-06,0.01981875
,,,-1.02E-06,0.01967125
,,,-1.01E-06,0.019666875
,,,-1E-06,0.019741875
,,,-9.9E-07,0.019624375
,,,-9.8E-07,0.01969875
,,,-9.7E-07,0.019826875
,,,-9.6E-07,0.01961
,,,-9.5E-07,0.019883125
,,,-9.4E-07,0.01978
,,,-9.3E-07,0.0196775
,,,-9.2E-07,0.0196775
,,,-9.1E-07,0.019596875
,,,-9E-07,0.019578125
,,,-8.9E-07,0.0195025
,,,-8.8E-07,0.0195775
,,,-8.7E-07,0.019680625
,,,-8.6E-07,0.019568125
,,,-8.5E-07,0.01977375
,,,-8.4E-07,0.01969625
,,,-8.3E-07,0.0199925
,,,-8.2E-07,0.0197475
,,,-8.1E-07,0.01972125
,,,-8E-07,0.01963375
,,,-7.9E-07,0.01946625
,,,-7.8E-07,0.01968
,,,-7.7E-07,0.019519375
,,,-7.6E-07,0.01990875
,,,-7.5E-07,0.01950875
,,,-7.4E-07,0.01959125
,,,-7.3E-07,0.0197875
,,,-7.2E-07,0.0195975
,,,-7.1E-07,0.01954875
,,,-7E-07,0.019655
,,,-6.9E-07,0.019720625
,,,-6.8E-07,0.01975125
,,,-6.7E-07,0.01967
,,,-6.6E-07,0.019600625
,,,-6.5E-07,0.019604375
,,,-6.4E-07,0.0197925
,,,-6.3E-07,0.019476875
,,,-6.2E-07,0.01957125
,,,-6.1E-07,0.0196
,,,-6E-07,0.01962375
,,,-5.9E-07,0.019501875
,,,-5.8E-07,0.01984125
,,,-5.7E-07,0.019745625
,,,-5.6E-07,0.0195925
,,,-5.5E-07,0.019655
,,,-5.4E-07,0.019660625
,,,-5.3E-07,0.019720625
,,,-5.2E-07,0.01959875
,,,-5.1E-07,0.02005875
,,,-5E-07,0.019686875
,,,-4.9E-07,0.019685
,,,-4.8E-07,0.01973125
,,,-4.7E-07,0.019603125
,,,-4.6E-07,0.019588125
,,,-4.5E-07,0.019525625
,,,-4.4E-07,0.019591875
,,,-4.3E-07,0.019658125
,,,-4.2E-07,0.019505
,,,-4.1E-07,0.019819375
,,,-4E-07,0.0197425
,,,-3.9E-07,0.01957125
,,,-3.8E-07,0.01988375
,,,-3.7E-07,0.019754375
,,,-3.6E-07,0.019855625
,,,-3.5E-07,0.019574375
,,,-3.4E-07,0.01982125
,,,-3.3E-07,0.019444375
,,,-3.2E-07,0.019675
,,,-3.1E-07,0.019795
,,,-3E-07,0.019575
,,,-2.9E-07,0.0197025
,,,-2.8E-07,0.019715
,,,-2.7E-07,0.01968125
,,,-2.6E-07,0.019890625
,,,-2.5E-07,0.01947
,,,-2.4E-07,0.0198275
,,,-2.3E-07,0.0194225
,,,-2.2E-07,0.01978125
,,,-2.1E-07,0.019705
,,,-2E-07,0.019688125
,,,-1.9E-07,0.0196525
,,,-1.8E-07,0.01973125
,,,-1.7E-07,0.01977125
,,,-1.6E-07,0.019658125
,,,-1.5E-07,0.019753125
,,,-1.4E-07,0.0195
,,,-1.3E-07,0.01968
,,,-1.2E-07,0.019528125
,,,-1.1E-07,0.019750625
,,,-1E-07,0.019855
,,,-9E-08,0.019661875
,,,-8E-08,0.020035625
,,,-7E-08,0.01955125
,,,-6E-08,0.019558125
,,,-5E-08,0.0194075
,,,-4E-08,0.02021875
,,,-3E-08,0.019891875
,,,-2E-08,0.0192025
,,,-1E-08,0.018510625
,,,0,0.01930375
,,,1E-08,0.020660625
,,,2E-08,0.020949375
,,,3E-08,0.0202825
,,,4E-08,0.019253125
,,,5E-08,0.018634375
,,,6E-08,0.0189325
,,,7E-08,0.019326875
,,,8E-08,0.019985
,,,9E-08,0.020175
,,,1E-07,0.019943125
,,,1.1E-07,0.019529375
,,,1.2E-07,0.019325625
,,,1.3E-07,0.01915
,,,1.4E-07,0.019649375
,,,1.5E-07,0.019839375
,,,1.6E-07,0.019789375
,,,1.7E-07,0.020024375
,,,1.8E-07,0.01971625
,,,1.9E-07,0.019755625
,,,2E-07,0.01963625
,,,2.1E-07,0.019610625
,,,2.2E-07,0.019555
,,,2.3E-07,0.0199525
,,,2.4E-07,0.01967
,,,2.5E-07,0.01931375
,,,2.6E-07,0.019734375
,,,2.7E-07,0.019829375
,,,2.8E-07,0.019554375
,,,2.9E-07,0.0196125
,,,3E-07,0.019616875
,,,3.1E-07,0.0196625
,,,3.2E-07,0.01957625
,,,3.3E-07,0.019913125
,,,3.4E-07,0.019688125
,,,3.5E-07,0.019505
,,,3.6E-07,0.0195225
,,,3.7E-07,0.019930625
,,,3.8E-07,0.019321875
,,,3.9E-07,0.019666875
,,,4E-07,0.01969125
,,,4.1E-07,0.019999375
,,,4.2E-07,0.01955125
,,,4.3E-07,0.01991125
,,,4.4E-07,0.019773125
,,,4.5E-07,0.019781875
,,,4.6E-07,0.01939625
,,,4.7E-07,0.019796875
,,,4.8E-07,0.019564375
,,,4.9E-07,0.019514375
,,,5E-07,0.019746875
,,,5.1E-07,0.019653125
,,,5.2E-07,0.019800625
,,,5.3E-07,0.0198175
,,,5.4E-07,0.01965
,,,5.5E-07,0.01971
,,,5.6E-07,0.019813125
,,,5.7E-07,0.019601875
,,,5.8E-07,0.0196675
,,,5.9E-07,0.019459375
,,,6E-07,0.01960375
,,,6.1E-07,0.01967875
,,,6.2E-07,0.019664375
,,,6.3E-07,0.01947875
,,,6.4E-07,0.019819375
,,,6.5E-07,0.019533125
,,,6.6E-07,0.01977
,,,6.7E-07,0.019786875
,,,6.8E-07,0.01968875
,,,6.9E-07,0.019714375
,,,7E-07,0.019428125
,,,7.1E-07,0.01961
,,,7.2E-07,0.019865625
,,,7.3E-07,0.0194675
,,,7.4E-07,0.019644375
,,,7.5E-07,0.01969875
,,,7.6E-07,0.019685625
,,,7.7E-07,0.019465625
,,,7.8E-07,0.01985
,,,7.9E-07,0.01951875
,,,8E-07,0.019675625
,,,8.1E-07,0.01960375
,,,8.2E-07,0.019725625
,,,8.3E-07,0.019724375
,,,8.4E-07,0.01957625
,,,8.5E-07,0.01961625
,,,8.6E-07,0.0196225
,,,8.7E-07,0.019563125
,,,8.8E-07,0.0197625
,,,8.9E-07,0.01963375
,,,9E-07,0.01944
,,,9.1E-07,0.019760625
,,,9.2E-07,0.0196325
,,,9.3E-07,0.019641875
,,,9.4E-07,0.019766875
,,,9.5E-07,0.019645625
,,,9.6E-07,0.01967
,,,9.7E-07,0.0198125
,,,9.8E-07,0.019689375
,,,9.9E-07,0.019798125
,,,1E-06,0.019520625
,,,1.01E-06,0.019636875
,,,1.02E-06,0.019593125
,,,1.03E-06,0.019608125
,,,1.04E-06,0.0194825
,,,1.05E-06,0.01962375
,,,1.06E-06,0.019749375
,,,1.07E-06,0.019590625
,,,1.08E-06,0.019651875
,,,1.09E-06,0.01965375
,,,1.1E-06,0.01949
,,,1.11E-06,0.019706875
,,,1.12E-06,0.019655
,,,1.13E-06,0.01962625
,,,1.14E-06,0.01967375
,,,1.15E-06,0.0197
,,,1.16E-06,0.019683125
,,,1.17E-06,0.019923125
,,,1.18E-06,0.0194975
,,,1.19E-06,0.0198725
,,,1.2E-06,0.019839375
,,,1.21E-06,0.01958125
,,,1.22E-06,0.0197475
,,,1.23E-06,0.0196425
,,,1.24E-06,0.019683125
,,,1.25E-06,0.019554375
,,,1.26E-06,0.0196
,,,1.27E-06,0.01970875
,,,1.28E-06,0.01956625
,,,1.29E-06,0.01964125
,,,1.3E-06,0.019691875
,,,1.31E-06,0.01982375
,,,1.32E-06,0.019580625
,,,1.33E-06,0.019815625
,,,1.34E-06,0.01975
,,,1.35E-06,0.019690625
,,,1.36E-06,0.0195375
,,,1.37E-06,0.019695625
,,,1.38E-06,0.019788125
,,,1.39E-06,0.01967
,,,1.4E-06,0.01975
,,,1.41E-06,0.01964
,,,1.42E-06,0.020024375
,,,1.43E-06,0.019719375
,,,1.44E-06,0.019631875
,,,1.45E-06,0.01956375
,,,1.46E-06,0.019421875
,,,1.47E-06,0.019580625
,,,1.48E-06,0.020033125
,,,1.49E-06,0.01993625
,,,1.5E-06,0.019656875
,,,1.51E-06,0.019651875
,,,1.52E-06,0.01976625
,,,1.53E-06,0.01979125
,,,1.54E-06,0.019834375
,,,1.55E-06,0.019771875
,,,1.56E-06,0.019548125
,,,1.57E-06,0.019693125
,,,1.58E-06,0.01958875
,,,1.59E-06,0.019655
,,,1.6E-06,0.019846875
,,,1.61E-06,0.019845
,,,1.62E-06,0.019619375
,,,1.63E-06,0.019798125
,,,1.64E-06,0.01977125
,,,1.65E-06,0.01973875
,,,1.66E-06,0.01951875
,,,1.67E-06,0.019699375
,,,1.68E-06,0.01959
,,,1.69E-06,0.01958
,,,1.7E-06,0.019641875
,,,1.71E-06,0.019823125
,,,1.72E-06,0.019698125
,,,1.73E-06,0.019636875
,,,1.74E-06,0.01974875
,,,1.75E-06,0.01969625
,,,1.76E-06,0.019635
,,,1.77E-06,0.0199075
,,,1.78E-06,0.019784375
,,,1.79E-06,0.019585625
,,,1.8E-06,0.019736875
,,,1.81E-06,0.019555625
,,,1.82E-06,0.019665625
,,,1.83E-06,0.01963875
,,,1.84E-06,0.0195625
,,,1.85E-06,0.01962375
,,,1.86E-06,0.019484375
,,,1.87E-06,0.019656875
,,,1.88E-06,0.019645
,,,1.89E-06,0.01954375
,,,1.9E-06,0.019689375
,,,1.91E-06,0.019360625
,,,1.92E-06,0.0198075
,,,1.93E-06,0.01959
,,,1.94E-06,0.01985625
,,,1.95E-06,0.019775
,,,1.96E-06,0.01961375
,,,1.97E-06,0.019595
,,,1.98E-06,0.0197175
,,,1.99E-06,0.01991125
,,,2E-06,0.01981125
,,,2.01E-06,0.019746875
,,,2.02E-06,0.0197725
,,,2.03E-06,0.019410625
,,,2.04E-06,0.0199625
,,,2.05E-06,0.019678125
,,,2.06E-06,0.019755
,,,2.07E-06,0.019336875
,,,2.08E-06,0.0198475
,,,2.09E-06,0.0197925
,,,2.1E-06,0.01968125
,,,2.11E-06,0.019755625
,,,2.12E-06,0.0196275
,,,2.13E-06,0.019529375
,,,2.14E-06,0.01959375
,,,2.15E-06,0.01977625
,,,2.16E-06,0.019591875
,,,2.17E-06,0.0195475
,,,2.18E-06,0.019460625
,,,2.19E-06,0.01964875
,,,2.2E-06,0.0195775
,,,2.21E-06,0.019735625
,,,2.22E-06,0.0193175
,,,2.23E-06,0.01957875
,,,2.24E-06,0.019780625
,,,2.25E-06,0.019788125
,,,2.26E-06,0.019675
,,,2.27E-06,0.01955875
,,,2.28E-06,0.019600625
,,,2.29E-06,0.019688125
,,,2.3E-06,0.01954375
,,,2.31E-06,0.01939375
,,,2.32E-06,0.01961125
,,,2.33E-06,0.019761875
,,,2.34E-06,0.01958625
,,,2.35E-06,0.019785625
,,,2.36E-06,0.01967
,,,2.37E-06,0.019726875
,,,2.38E-06,0.019795625
,,,2.39E-06,0.019518125
,,,2.4E-06,0.019985625
,,,2.41E-06,0.01970125
,,,2.42E-06,0.019365
,,,2.43E-06,0.019685625
,,,2.44E-06,0.019509375
,,,2.45E-06,0.019638125
,,,2.46E-06,0.01978625
,,,2.47E-06,0.019519375
,,,2.48E-06,0.019746875
,,,2.49E-06,0.019544375
,,,2.5E-06,0.019595625
,,,2.51E-06,0.019664375
,,,2.52E-06,0.019801875
,,,2.53E-06,0.01949125
,,,2.54E-06,0.019475625
,,,2.55E-06,0.019509375
,,,2.56E-06,0.019538125
,,,2.57E-06,0.019950625
,,,2.58E-06,0.019863125
,,,2.59E-06,0.019576875
,,,2.6E-06,0.019529375
,,,2.61E-06,0.019769375
,,,2.62E-06,0.01953125
,,,2.63E-06,0.0197175
,,,2.64E-06,0.019761875
,,,2.65E-06,0.01971875
,,,2.66E-06,0.0195325
,,,2.67E-06,0.019664375
,,,2.68E-06,0.01960125
,,,2.69E-06,0.01965125
,,,2.7E-06,0.019720625
,,,2.71E-06,0.01986125
,,,2.72E-06,0.01972625
,,,2.73E-06,0.01962125
,,,2.74E-06,0.019574375
,,,2.75E-06,0.01966
,,,2.76E-06,0.019349375
,,,2.77E-06,0.01962625
,,,2.78E-06,0.01955625
,,,2.79E-06,0.0196
,,,2.8E-06,0.019795
,,,2.81E-06,0.0197525
,,,2.82E-06,0.019769375
,,,2.83E-06,0.01965875
,,,2.84E-06,0.0195925
,,,2.85E-06,0.019415625
,,,2.86E-06,0.019576875
,,,2.87E-06,0.0195725
,,,2.88E-06,0.01991375
,,,2.89E-06,0.019788125
,,,2.9E-06,0.01999375
,,,2.91E-06,0.019698125
,,,2.92E-06,0.01979125
,,,2.93E-06,0.019849375
,,,2.94E-06,0.0196825
,,,2.95E-06,0.01964375
,,,2.96E-06,0.01971875
,,,2.97E-06,0.0196075
,,,2.98E-06,0.019896875
,,,2.99E-06,0.01973
,,,3E-06,0.019739375
,,,3.01E-06,0.0196525
,,,3.02E-06,0.019696875
,,,3.03E-06,0.019899375
,,,3.04E-06,0.0198125
,,,3.05E-06,0.019683125
,,,3.06E-06,0.019553125
,,,3.07E-06,0.019804375
,,,3.08E-06,0.019648125
,,,3.09E-06,0.01971625
,,,3.1E-06,0.01943625
,,,3.11E-06,0.01975625
,,,3.12E-06,0.0197325
,,,3.13E-06,0.019595
,,,3.14E-06,0.019893125
,,,3.15E-06,0.019716875
,,,3.16E-06,0.019406875
,,,3.17E-06,0.019531875
,,,3.18E-06,0.019646875
,,,3.19E-06,0.01979375
,,,3.2E-06,0.019740625
,,,3.21E-06,0.019765625
,,,3.22E-06,0.019524375
,,,3.23E-06,0.019715
,,,3.24E-06,0.019695
,,,3.25E-06,0.01972875
,,,3.26E-06,0.019778125
,,,3.27E-06,0.019680625
,,,3.28E-06,0.0194225
,,,3.29E-06,0.019485
,,,3.3E-06,0.019715
,,,3.31E-06,0.019830625
,,,3.32E-06,0.019854375
,,,3.33E-06,0.019458125
,,,3.34E-06,0.019670625
,,,3.35E-06,0.019885
,,,3.36E-06,0.019668125
,,,3.37E-06,0.019745625
,,,3.38E-06,0.019970625
,,,3.39E-06,0.019616875
,,,3.4E-06,0.0196275
,,,3.41E-06,0.019515
,,,3.42E-06,0.019728125
,,,3.43E-06,0.019660625
,,,3.44E-06,0.019774375
,,,3.45E-06,0.01955
,,,3.46E-06,0.019829375
,,,3.47E-06,0.0197525
,,,3.48E-06,0.019585
,,,3.49E-06,0.01967875
,,,3.5E-06,0.01983375
,,,3.51E-06,0.01955
,,,3.52E-06,0.019398125
,,,3.53E-06,0.019861875
,,,3.54E-06,0.019738125
,,,3.55E-06,0.01971875
,,,3.56E-06,0.019725
,,,3.57E-06,0.019828125
,,,3.58E-06,0.019425625
