data/raw/Final_POL_Test_1/SOP067_Ch2.csv

"Record Length",1000,"Points",-5E-06,0.02006375
"Sample Interval",1E-08,s,-4.99E-06,0.01999
"Trigger Point",500,"Samples",-4.98E-06,0.0199225
"Trigger Time",0,s,-4.97E-06,0.02001625
"",,,-4.96E-06,0.01998375
"Horizontal Offset",-5E-06,s,-4.95E-06,0.019951875
,,,-4.94E-06,0.019795625
,,,-4.93E-06,0.019795625
,,,-4.92E-06,0.01994125
,,,-4.91E-06,0.019969375
,,,-4.9E-06,0.019999375
,,,-4.89E-06,0.020133125
,,,-4.88E-06,0.02002375
,,,-4.87E-06,0.01979
,,,-4.86E-06,0.019771875
,,,-4.85E-06,0.019799375
,,,-4.84E-06,0.01976625
,,,-4.83E-06,0.019980625
,,,-4.82E-06,0.019895
,,,-4.81E-06,0.020039375
,,,-4.8E-06,0.019733125
,,,-4.79E-06,0.0199625
,,,-4.78E-06,0.01995125
,,,-4.77E-06,0.0198025
,,,-4.76E-06,0.019974375
,,,-4.75E-06,0.019905
,,,-4.74E-06,0.0198975
,,,-4.73E-06,0.020074375
,,,-4.72E-06,0.02000125
,,,-4.71E-06,0.01984625
,,,-4.7E-06,0.01975
,,,-4.69E-06,0.0197925
,,,-4.68E-06,0.0197475
,,,-4.67E-06,0.01997625
,,,-4.66E-06,0.019960625
,,,-4.65E-06,0.019809375
,,,-4.64E-06,0.01992
,,,-4.63E-06,0.020095625
,,,-4.62E-06,0.01983
,,,-4.61E-06,0.01997
,,,-4.6E-06,0.019949375
,,,-4.59E-06,0.020083125
,,,-4.58E-06,0.0198875
,,,-4.57E-06,0.020001875
,,,-4.56E-06,0.019989375
,,,-4.55E-06,0.01978125
,,,-4.54E-06,0.019795
,,,-4.53E-06,0.01972625
,,,-4.52E-06,0.01991375
,,,-4.51E-06,0.0199175
,,,-4.5E-06,0.019741875
,,,-4.49E-06,0.020015625
,,,-4.48E-06,0.020134375
,,,-4.47E-06,0.019914375
,,,-4.46E-06,0.019838125
,,,-4.45E-06,0.0195575
,,,-4.44E-06,0.01980625
,,,-4.43E-06,0.01980875
,,,-4.42E-06,0.01972125
,,,-4.41E-06,0.01985125
,,,-4.4E-06,0.01989875
,,,-4.39E-06,0.01999375
,,,-4.38E-06,0.01995875
,,,-4.37E-06,0.019864375
,,,-4.36E-06,0.019920625
,,,-4.35E-06,0.019933125
,,,-4.34E-06,0.020016875
,,,-4.33E-06,0.01996125
,,,-4.32E-06,0.019978125
,,,-4.31E-06,0.0199475
,,,-4.3E-06,0.020110625
,,,-4.29E-06,0.019908125
,,,-4.28E-06,0.0201025
,,,-4.27E-06,0.019849375
,,,-4.26E-06,0.01972
,,,-4.25E-06,0.01994875
,,,-4.24E-06,0.019813125
,,,-4.23E-06,0.01985625
,,,-4.22E-06,0.019750625
,,,-4.21E-06,0.01972875
,,,-4.2E-06,0.020045
,,,-4.19E-06,0.019880625
,,,-4.18E-06,0.019994375
,,,-4.17E-06,0.019776875
,,,-4.16E-06,0.019835
,,,-4.15E-06,0.01964
,,,-4.14E-06,0.01956
,,,-4.13E-06,0.01998375
,,,-4.12E-06,0.0200275
,,,-4.11E-06,0.020126875
,,,-4.1E-06,0.020093125
,,,-4.09E-06,0.01974375
,,,-4.08E-06,0.020033125
,,,-4.07E-06,0.019871875
,,,-4.06E-06,0.02
,,,-4.05E-06,0.019821875
,,,-4.04E-06,0.019813125
,,,-4.03E-06,0.0200525
,,,-4.02E-06,0.01986625
,,,-4.01E-06,0.019831875
,,,-4E-06,0.01994
,,,-3.99E-06,0.01970125
,,,-3.98E-06,0.02006625
,,,-3.97E-06,0.020144375
,,,-3.96E-06,0.01981
,,,-3.95E-06,0.0197375
,,,-3.94E-06,0.0198475
,,,-3.93E-06,0.019900625
,,,-3.92E-06,0.020021875
,,,-3.91E-06,0.020121875
,,,-3.9E-06,0.0199125
,,,-3.89E-06,0.019903125
,,,-3.88E-06,0.019880625
,,,-3.87E-06,0.020034375
,,,-3.86E-06,0.01950375
,,,-3.85E-06,0.01966375
,,,-3.84E-06,0.020051875
,,,-3.83E-06,0.019840625
,,,-3.82E-06,0.019969375
,,,-3.81E-06,0.02013
,,,-3.8E-06,0.019889375
,,,-3.79E-06,0.019771875
,,,-3.78E-06,0.02007875
,,,-3.77E-06,0.01978875
,,,-3.76E-06,0.02000375
,,,-3.75E-06,0.0199475
,,,-3.74E-06,0.01997875
,,,-3.73E-06,0.020166875
,,,-3.72E-06,0.01997875
,,,-3.71E-06,0.020074375
,,,-3.7E-06,0.019788125
,,,-3.69E-06,0.02002375
,,,-3.68E-06,0.01986875
,,,-3.67E-06,0.020195
,,,-3.66E-06,0.01983125
,,,-3.65E-06,0.01996625
,,,-3.64E-06,0.020164375
,,,-3.63E-06,0.01977
,,,-3.62E-06,0.019911875
,,,-3.61E-06,0.019790625
,,,-3.6E-06,0.019659375
,,,-3.59E-06,0.020023125
,,,-3.58E-06,0.0198875
,,,-3.57E-06,0.019971875
,,,-3.56E-06,0.019578125
,,,-3.55E-06,0.020261875
,,,-3.54E-06,0.020163125
,,,-3.53E-06,0.0198675
,,,-3.52E-06,0.019885
,,,-3.51E-06,0.01995375
,,,-3.5E-06,0.01999875
,,,-3.49E-06,0.0198725
,,,-3.48E-06,0.02006375
,,,-3.47E-06,0.020299375
,,,-3.46E-06,0.019863125
,,,-3.45E-06,0.019800625
,,,-3.44E-06,0.01995
,,,-3.43E-06,0.019945
,,,-3.42E-06,0.019828125
,,,-3.41E-06,0.019793125
,,,-3.4E-06,0.019860625
,,,-3.39E-06,0.01986875
,,,-3.38E-06,0.019918125
,,,-3.37E-06,0.019881875
,,,-3.36E-06,0.01969875
,,,-3.35E-06,0.01995875
,,,-3.34E-06,0.019845
,,,-3.33E-06,0.02004125
,,,-3.32E-06,0.01979125
,,,-3.31E-06,0.02008625
,,,-3.3E-06,0.02014375
,,,-3.29E-06,0.0198175
,,,-3.28E-06,0.01986125
,,,-3.27E-06,0.0197525
,,,-3.26E-06,0.0198625
,,,-3.25E-06,0.0200175
,,,-3.24E-06,0.019941875
,,,-3.23E-06,0.019911875
,,,-3.22E-06,0.019760625
,,,-3.21E-06,0.019965
,,,-3.2E-06,0.01986625
,,,-3.19E-06,0.0199975
,,,-3.18E-06,0.02008125
,,,-3.17E-06,0.02016
,,,-3.16E-06,0.0195975
,,,-3.15E-06,0.02021625
,,,-3.14E-06,0.020108125
,,,-3.13E-06,0.019954375
,,,-3.12E-06,0.01992
,,,-3.11E-06,0.019883125
,,,-3.1E-06,0.0198
,,,-3.09E-06,0.0199175
,,,-3.08E-06,0.020175
,,,-3.07E-06,0.01999
,,,-3.06E-06,0.020165
,,,-3.05E-06,0.01968375
,,,-3.04E-06,0.019801875
,,,-3.03E-06,0.01979875
,,,-3.02E-06,0.019991875
,,,-3.01E-06,0.019955625
,,,-3E-06,0.01989125
,,,-2.99E-06,0.020095625
,,,-2.98E-06,0.0201
,,,-2.97E-06,0.02003875
,,,-2.96E-06,0.019925625
,,,-2.95E-06,0.02001375
,,,-2.94E-06,0.01988875
,,,-2.93E-06,0.019866875
,,,-2.92E-06,0.019830625
,,,-2.91E-06,0.02001
,,,-2.9E-06,0.020085625
,,,-2.89E-06,0.0198475
,,,-2.88E-06,0.01994875
,,,-2.87E-06,0.01985125
,,,-2.86E-06,0.01964625
,,,-2.85E-06,0.01994125
,,,-2.84E-06,0.01998
,,,-2.83E-06,0.0199225
,,,-2.82E-06,0.019933125
,,,-2.81E-06,0.019968125
,,,-2.8E-06,0.019939375
,,,-2.79E-06,0.02003625
,,,-2.78E-06,0.020036875
,,,-2.77E-06,0.01994
,,,-2.76E-06,0.019968125
,,,-2.75E-06,0.019820625
,,,-2.74E-06,0.019926875
,,,-2.73E-06,0.020075
,,,-2.72E-06,0.019959375
,,,-2.71E-06,0.019931875
,,,-2.7E-06,0.01977125
,,,-2.69E-06,0.0200425
,,,-2.68E-06,0.019964375
,,,-2.67E-06,0.0200075
,,,-2.66E-06,0.01976875
,,,-2.65E-06,0.020105625
,,,-2.64E-06,0.02012125
,,,-2.63E-06,0.019975625
,,,-2.62E-06,0.020063125
,,,-2.61E-06,0.01979125
,,,-2.6E-06,0.020095
,,,-2.59E-06,0.02003875
,,,-2.58E-06,0.020189375
,,,-2.57E-06,0.019905
,,,-2.56E-06,0.019965625
,,,-2.55E-06,0.019798125
,,,-2.54E-06,0.019950625
,,,-2.53E-06,0.01984875
,,,-2.52E-06,0.019998125
,,,-2.51E-06,0.01993625
,,,-2.5E-06,0.01995
,,,-2.49E-06,0.019943125
,,,-2.48E-06,0.01981375
,,,-2.47E-06,0.01980625
,,,-2.46E-06,0.0201225
,,,-2.45E-06,0.01984625
,,,-2.44E-06,0.019548125
,,,-2.43E-06,0.020153125
,,,-2.42E-06,0.019985
,,,-2.41E-06,0.019904375
,,,-2.4E-06,0.019865
,,,-2.39E-06,0.019959375
,,,-2.38E-06,0.019848125
,,,-2.37E-06,0.019848125
,,,-2.36E-06,0.0197875
,,,-2.35E-06,0.01996625
,,,-2.34E-06,0.02005
,,,-2.33E-06,0.02002375
,,,-2.32E-06,0.0201575
,,,-2.31E-06,0.020070625
,,,-2.3E-06,0.020173125
,,,-2.29E-06,0.019929375
,,,-2.28E-06,0.01999125
,,,-2.27E-06,0.0197675
,,,-2.26E-06,0.01970625
,,,-2.25E-06,0.02011875
,,,-2.24E-06,0.0198975
,,,-2.23E-06,0.019961875
,,,-2.22E-06,0.019783125
,,,-2.21E-06,0.019733125
,,,-2.2E-06,0.0201775
,,,-2.19E-06,0.019613125
,,,-2.18E-06,0.0198575
,,,-2.17E-06,0.01997375
,,,-2.16E-06,0.02011125
,,,-2.15E-06,0.0201
,,,-2.14E-06,0.02009875
,,,-2.13E-06,0.02008875
,,,-2.12E-06,0.019995625
,,,-2.11E-06,0.01965
,,,-2.1E-06,0.02010375
,,,-2.09E-06,0.019930625
,,,-2.08E-06,0.019919375
,,,-2.07E-06,0.02003125
,,,-2.06E-06,0.020035
,,,-2.05E-06,0.019740625
,,,-2.04E-06,0.02008125
,,,-2.03E-06,0.0199
,,,-2.02E-06,0.020206875
,,,-2.01E-06,0.019951875
,,,-2E-06,0.01978625
,,,-1.99E-06,0.019678125
,,,-1.98E-06,0.019966875
,,,-1.97E-06,0.02019125
,,,-1.96E-06,0.02016125
,,,-1.95E-06,0.019880625
,,,-1.94E-06,0.01981625
,,,-1.93E-06,0.01983
,,,-1.92E-06,0.020013125
,,,-1.91E-06,0.020041875
,,,-1.9E-06,0.02017875
,,,-1.89E-06,0.019785
,,,-1.88E-06,0.01982
,,,-1.87E-06,0.019853125
,,,-1.86E-06,0.020023125
,,,-1.85E-06,0.019985
,,,-1.84E-06,0.019901875
,,,-1.83E-06,0.01973125
,,,-1.82E-06,0.020088125
,,,-1.81E-06,0.01988
,,,-1.8E-06,0.02016375
,,,-1.79E-06,0.020030625
,,,-1.78E-06,0.019906875
,,,-1.77E-06,0.019688125
,,,-1.76E-06,0.02001
,,,-1.75E-06,0.0199475
,,,-1.74E-06,0.020015
,,,-1.73E-06,0.019776875
,,,-1.72E-06,0.019815625
,,,-1.71E-06,0.019915
,,,-1.7E-06,0.02003125
,,,-1.69E-06,0.01988875
,,,-1.68E-06,0.020074375
,,,-1.67E-06,0.019983125
,,,-1.66E-06,0.0201025
,,,-1.65E-06,0.019855625
,,,-1.64E-06,0.019788125
,,,-1.63E-06,0.019875625
,,,-1.62E-06,0.019893125
,,,-1.61E-06,0.019833125
,,,-1.6E-06,0.01985625
,,,-1.59E-06,0.01998875
,,,-1.58E-06,0.02002625
,,,-1.57E-06,0.0199025
,,,-1.56E-06,0.01978
,,,-1.55E-06,0.019994375
,,,-1.54E-06,0.019954375
,,,-1.53E-06,0.01995625
,,,-1.52E-06,0.0199125
,,,-1.51E-06,0.02013625
,,,-1.5E-06,0.02000125
,,,-1.49E-06,0.01988375
,,,-1.48E-06,0.01996125
,,,-1.47E-06,0.020144375
,,,-1.46E-06,0.01999875
,,,-1.45E-06,0.020033125
,,,-1.44E-06,0.01967875
,,,-1.43E-06,0.019808125
,,,-1.42E-06,0.01991
,,,-1.41E-06,0.019893125
,,,-1.4E-06,0.01994125
,,,-1.39E-06,0.0199575
,,,-1.38E-06,0.019780625
,,,-1.37E-06,0.019955
,,,-1.36E-06,0.02023
,,,-1.35E-06,0.020171875
,,,-1.34E-06,0.02000125
,,,-1.33E-06,0.020036875
,,,-1.32E-06,0.020071875
,,,-1.31E-06,0.019708125
,,,-1.3E-06,0.019923125
,,,-1.29E-06,0.01989625
,,,-1.28E-06,0.01997625
,,,-1.27E-06,0.020124375
,,,-1.26E-06,0.019975
,,,-1.25E-06,0.019805625
,,,-1.24E-06,0.0198925
,,,-1.23E-06,0.01986125
,,,-1.22E-06,0.019751875
,,,-1.21E-06,0.02007625
,,,-1.2E-06,0.019845
,,,-1.19E-06,0.019876875
,,,-1.18E-06,0.02001375
,,,-1.17E-06,0.01989875
,,,-1.16E-06,0.020209375
,,,-1.15E-06,0.020013125
,,,-1.14E-06,0.02021
,,,-1.13E-06,0.019644375
,,,-1.12E-06,0.019755
,,,-1.11E-06,0.0199525
,,,-1.1E-06,0.0196
,,,-1.09E-06,0.019973125
,,,-1.08E-06,0.019861875
,,,-1.07E-06,0.01989625
,,,-1.06E-06,0.020061875
,,,-1.05E-06,0.01977125
,,,-1.04E-06,0.020084375
,,,-1.03E-06,0.019764375
,,,-1.02E-06,0.02001875
,,,-1.01E-06,0.019823125
,,,-1E-06,0.0200075
,,,-9.9E-07,0.0199275
,,,-9.8E-07,0.01985625
,,,-9.7E-07,0.0198725
,,,-9.6E-07,0.01991
,,,-9.5E-07,0.01973625
,,,-9.4E-07,0.0202475
,,,-9.3E-07,0.019895625
,,,-9.2E-07,0.0200025
,,,-9.1E-07,0.020081875
,,,-9E-07,0.0198575
,,,-8.9E-07,0.019799375
,,,-8.8E-07,0.02003875
,,,-8.7E-07,0.019953125
,,,-8.6E-07,0.02000125
,,,-8.5E-07,0.019829375
,,,-8.4E-07,0.020088125
,,,-8.3E-07,0.01999375
,,,-8.2E-07,0.01984625
,,,-8.1E-07,0.01995625
,,,-8E-07,0.01983125
,,,-7.9E-07,0.020041875
,,,-7.8E-07,0.019828125
,,,-7.7E-07,0.019938125
,,,-7.6E-07,0.019921875
,,,-7.5E-07,0.01987625
,,,-7.4E-07,0.019783125
,,,-7.3E-07,0.02009625
,,,-7.2E-07,0.019753125
,,,-7.1E-07,0.019924375
,,,-7E-07,0.019763125
,,,-6.9E-07,0.0199375
,,,-6.8E-07,0.020025625
,,,-6.7E-07,0.019921875
,,,-6.6E-07,0.020005
,,,-6.5E-07,0.019799375
,,,-6.4E-07,0.019780625
,,,-6.3E-07,0.0201125
,,,-6.2E-07,0.02004125
,,,-6.1E-07,0.01999375
,,,-6E-07,0.019895
,,,-5.9E-07,0.019863125
,,,-5.8E-07,0.019933125
,,,-5.7E-07,0.01963125
,,,-5.6E-07,0.019974375
,,,-5.5E-07,0.01992
,,,-5.4E-07,0.020215
,,,-5.3E-07,0.019731875
,,,-5.2E-07,0.01996
,,,-5.1E-07,0.02
,,,-5E-07,0.020099375
,,,-4.9E-07,0.019805625
,,,-4.8E-07,0.020176875
,,,-4.7E-07,0.020004375
,,,-4.6E-07,0.019789375
,,,-4.5E-07,0.019845
,,,-4.4E-07,0.01978375
,,,-4.3E-07,0.02038375
,,,-4.2E-07,0.02000125
,,,-4.1E-07,0.019769375
,,,-4E-07,0.01966
,,,-3.9E-07,0.019775625
,,,-3.8E-07,0.020055
,,,-3.7E-07,0.0200425
,,,-3.6E-07,0.0201025
,,,-3.5E-07,0.020019375
,,,-3.4E-07,0.02028375
,,,-3.3E-07,0.02005375
,,,-3.2E-07,0.019898125
,,,-3.1E-07,0.019881875
,,,-3E-07,0.0199325
,,,-2.9E-07,0.019758125
,,,-2.8E-07,0.020075
,,,-2.7E-07,0.020044375
,,,-2.6E-07,0.01979375
,,,-2.5E-07,0.020036875
,,,-2.4E-07,0.01997375
,,,-2.3E-07,0.019899375
,,,-2.2E-07,0.020115625
,,,-2.1E-07,0.020170625
,,,-2E-07,0.019999375
,,,-1.9E-07,0.02009375
,,,-1.8E-07,0.02007625
,,,-1.7E-07,0.01994375
,,,-1.6E-07,0.019875625
,,,-1.5E-07,0.020049375
,,,-1.4E-07,0.020093125
,,,-1.3E-07,0.019995625
,,,-1.2E-07,0.019924375
,,,-1.1E-07,0.01992
,,,-1E-07,0.019991875
,,,-9E-08,0.02000125
,,,-8E-08,0.01971
,,,-7E-08,0.019906875
,,,-6E-08,0.020035
,,,-5E-08,0.02025
,,,-4E-08,0.02134875
,,,-3E-08,0.02116
,,,-2E-08,0.01721625
,,,-1E-08,0.015428749
,,,0,0.01879125
,,,1E-08,0.024138125
,,,2E-08,0.0250875
,,,3E-08,0.02166375
,,,4E-08,0.01812625
,,,5E-08,0.016058124
,,,6E-08,0.01709875
,,,7E-08,0.019454375
,,,8E-08,0.021725
,,,9E-08,0.02275375
,,,1E-07,0.0215875
,,,1.1E-07,0.019760625
,,,1.2E-07,0.0180225
,,,1.3E-07,0.018521875
,,,1.4E-07,0.01940125
,,,1.5E-07,0.02073875
,,,1.6E-07,0.02067375
,,,1.7E-07,0.02039875
,,,1.8E-07,0.019775625
,,,1.9E-07,0.020150625
,,,2E-07,0.019716875
,,,2.1E-07,0.019468125
,,,2.2E-07,0.01982375
,,,2.3E-07,0.020086875
,,,2.4E-07,0.02008625
,,,2.5E-07,0.020109375
,,,2.6E-07,0.019688125
,,,2.7E-07,0.020064375
,,,2.8E-07,0.02013
,,,2.9E-07,0.019824375
,,,3E-07,0.019823125
,,,3.1E-07,0.019999375
,,,3.2E-07,0.020183125
,,,3.3E-07,0.020168125
,,,3.4E-07,0.019988125
,,,3.5E-07,0.019949375
,,,3.6E-07,0.019776875
,,,3.7E-07,0.01986125
,,,3.8E-07,0.019976875
,,,3.9E-07,0.019815
,,,4E-07,0.019983125
,,,4.1E-07,0.019945625
,,,4.2E-07,0.0201975
,,,4.3E-07,0.019775625
,,,4.4E-07,0.019716875
,,,4.5E-07,0.020020625
,,,4.6E-07,0.01993
,,,4.7E-07,0.019844375
,,,4.8E-07,0.01986
,,,4.9E-07,0.0200025
,,,5E-07,0.0199175
,,,5.1E-07,0.02009
,,,5.2E-07,0.02
,,,5.3E-07,0.01974
,,,5.4E-07,0.02007125
,,,5.5E-07,0.020058125
,,,5.6E-07,0.01998
,,,5.7E-07,0.019851875
,,,5.8E-07,0.019968125
,,,5.9E-07,0.01986
,,,6E-07,0.019845
,,,6.1E-07,0.019741875
,,,6.2E-07,0.019894375
,,,6.3E-07,0.01994625
,,,6.4E-07,0.0199125
,,,6.5E-07,0.020005625
,,,6.6E-07,0.01985625
,,,6.7E-07,0.020093125
,,,6.8E-07,0.0197875
,,,6.9E-07,0.019831875
,,,7E-07,0.0200575
,,,7.1E-07,0.019885
,,,7.2E-07,0.020165
,,,7.3E-07,0.020130625
,,,7.4E-07,0.01990875
,,,7.5E-07,0.019831875
,,,7.6E-07,0.01975375
,,,7.7E-07,0.019975
,,,7.8E-07,0.019980625
,,,7.9E-07,0.019909375
,,,8E-07,0.019904375
,,,8.1E-07,0.019530625
,,,8.2E-07,0.0198375
,,,8.3E-07,0.019685
,,,8.4E-07,0.020075
,,,8.5E-07,0.01999625
,,,8.6E-07,0.019981875
,,,8.7E-07,0.01986
,,,8.8E-07,0.019975625
,,,8.9E-07,0.019673125
,,,9E-07,0.01984125
,,,9.1E-07,0.019829375
,,,9.2E-07,0.01987375
,,,9.3E-07,0.019709375
,,,9.4E-07,0.02020375
,,,9.5E-07,0.020065625
,,,9.6E-07,0.0196075
,,,9.7E-07,0.019915625
,,,9.8E-07,0.02009
,,,9.9E-07,0.019875
,,,1E-06,0.020100625
,,,1.01E-06,0.020034375
,,,1.02E-06,0.01992375
,,,1.03E-06,0.019883125
,,,1.04E-06,0.020090625
,,,1.05E-06,0.01998375
,,,1.06E-06,0.01992125
,,,1.07E-06,0.020053125
,,,1.08E-06,0.01978375
,,,1.09E-06,0.019754375
,,,1.1E-06,0.019566875
,,,1.11E-06,0.01991875
,,,1.12E-06,0.020045625
,,,1.13E-06,0.01982
,,,1.14E-06,0.0199725
,,,1.15E-06,0.01998125
,,,1.16E-06,0.01997625
,,,1.17E-06,0.02017625
,,,1.18E-06,0.0197475
,,,1.19E-06,0.019909375
,,,1.2E-06,0.019936875
,,,1.21E-06,0.019881875
,,,1.22E-06,0.0200075
,,,1.23E-06,0.020159375
,,,1.24E-06,0.020054375
,,,1.25E-06,0.019754375
,,,1.26E-06,0.019825625
,,,1.27E-06,0.019880625
,,,1.28E-06,0.019640625
,,,1.29E-06,0.019966875
,,,1.3E-06,0.020121875
,,,1.31E-06,0.0201475
,,,1.32E-06,0.0198225
,,,1.33E-06,0.019768125
,,,1.34E-06,0.01959
,,,1.35E-06,0.019833125
,,,1.36E-06,0.019925
,,,1.37E-06,0.019831875
,,,1.38E-06,0.01986125
,,,1.39E-06,0.019931875
,,,1.4E-06,0.019969375
,,,1.41E-06,0.01984375
,,,1.42E-06,0.019886875
,,,1.43E-06,0.019719375
,,,1.44E-06,0.0198425
,,,1.45E-06,0.01997625
,,,1.46E-06,0.01995
,,,1.47E-06,0.01981
,,,1.48E-06,0.0199675
,,,1.49E-06,0.019939375
,,,1.5E-06,0.0199
,,,1.51E-06,0.0197975
,,,1.52E-06,0.01970875
,,,1.53E-06,0.01969375
,,,1.54E-06,0.01981
,,,1.55E-06,0.01996
,,,1.56E-06,0.020016875
,,,1.57E-06,0.01997125
,,,1.58E-06,0.019860625
,,,1.59E-06,0.019800625
,,,1.6E-06,0.019965625
,,,1.61E-06,0.01989875
,,,1.62E-06,0.020038125
,,,1.63E-06,0.0198425
,,,1.64E-06,0.0197525
,,,1.65E-06,0.019946875
,,,1.66E-06,0.02007125
,,,1.67E-06,0.020120625
,,,1.68E-06,0.020108125
,,,1.69E-06,0.0197025
,,,1.7E-06,0.01989125
,,,1.71E-06,0.02015625
,,,1.72E-06,0.01997
,,,1.73E-06,0.019953125
,,,1.74E-06,0.020053125
,,,1.75E-06,0.019821875
,,,1.76E-06,0.019760625
,,,1.77E-06,0.01967875
,,,1.78E-06,0.019884375
,,,1.79E-06,0.019935625
,,,1.8E-06,0.01976
,,,1.81E-06,0.01996625
,,,1.82E-06,0.020246875
,,,1.83E-06,0.019828125
,,,1.84E-06,0.019925
,,,1.85E-06,0.019881875
,,,1.86E-06,0.019818125
,,,1.87E-06,0.019825
,,,1.88E-06,0.02034125
,,,1.89E-06,0.019819375
,,,1.9E-06,0.02017125
,,,1.91E-06,0.01988
,,,1.92E-06,0.019875625
,,,1.93E-06,0.01975625
,,,1.94E-06,0.0199425
,,,1.95E-06,0.020005
,,,1.96E-06,0.01999
,,,1.97E-06,0.019873125
,,,1.98E-06,0.020349375
,,,1.99E-06,0.019915625
,,,2E-06,0.020094375
,,,2.01E-06,0.019774375
,,,2.02E-06,0.01996
,,,2.03E-06,0.019930625
,,,2.04E-06,0.02010625
,,,2.05E-06,0.0199075
,,,2.06E-06,0.0200625
,,,2.07E-06,0.020036875
,,,2.08E-06,0.019928125
,,,2.09E-06,0.01984375
,,,2.1E-06,0.02019375
,,,2.11E-06,0.019835
,,,2.12E-06,0.019959375
,,,2.13E-06,0.019913125
,,,2.14E-06,0.01989125
,,,2.15E-06,0.019671875
,,,2.16E-06,0.02009375
,,,2.17E-06,0.0200225
,,,2.18E-06,0.019611875
,,,2.19E-06,0.020009375
,,,2.2E-06,0.01982375
,,,2.21E-06,0.019940625
,,,2.22E-06,0.019903125
,,,2.23E-06,0.01983125
,,,2.24E-06,0.02004
,,,2.25E-06,0.020056875
,,,2.26E-06,0.019724375
,,,2.27E-06,0.02001875
,,,2.28E-06,0.01984125
,,,2.29E-06,0.019955625
,,,2.3E-06,0.01974375
,,,2.31E-06,0.020220625
,,,2.32E-06,0.019948125
,,,2.33E-06,0.019811875
,,,2.34E-06,0.020024375
,,,2.35E-06,0.019833125
,,,2.36E-06,0.01969
,,,2.37E-06,0.019989375
,,,2.38E-06,0.0200425
,,,2.39E-06,0.01992375
,,,2.4E-06,0.019779375
,,,2.41E-06,0.0199325
,,,2.42E-06,0.019900625
,,,2.43E-06,0.019886875
,,,2.44E-06,0.0198225
,,,2.45E-06,0.019823125
,,,2.46E-06,0.019870625
,,,2.47E-06,0.020121875
,,,2.48E-06,0.019998125
,,,2.49E-06,0.01962625
,,,2.5E-06,0.019915
,,,2.51E-06,0.019564375
,,,2.52E-06,0.0199825
,,,2.53E-06,0.02007
,,,2.54E-06,0.01996
,,,2.55E-06,0.02022
,,,2.56E-06,0.020035
,,,2.57E-06,0.019688125
,,,2.58E-06,0.019646875
,,,2.59E-06,0.019809375
,,,2.6E-06,0.019935
,,,2.61E-06,0.019803125
,,,2.62E-06,0.019880625
,,,2.63E-06,0.019934375
,,,2.64E-06,0.0199675
,,,2.65E-06,0.020023125
,,,2.66E-06,0.019905625
,,,2.67E-06,0.019791875
,,,2.68E-06,0.01987625
,,,2.69E-06,0.019855625
,,,2.7E-06,0.019895
,,,2.71E-06,0.019836875
,,,2.72E-06,0.019875625
,,,2.73E-06,0.01985875
,,,2.74E-06,0.020029375
,,,2.75E-06,0.01991375
,,,2.76E-06,0.019883125
,,,2.77E-06,0.01996375
,,,2.78E-06,0.019905
,,,2.79E-06,0.0200375
,,,2.8E-06,0.019740625
,,,2.81E-06,0.019925625
,,,2.82E-06,0.02021875
,,,2.83E-06,0.019839375
,,,2.84E-06,0.020101875
,,,2.85E-06,0.019839375
,,,2.86E-06,0.020008125
,,,2.87E-06,0.019744375
,,,2.88E-06,0.019864375
,,,2.89E-06,0.0200775
,,,2.9E-06,0.019815
,,,2.91E-06,0.019476875
,,,2.92E-06,0.0200075
,,,2.93E-06,0.019869375
,,,2.94E-06,0.02001625
,,,2.95E-06,0.01972375
,,,2.96E-06,0.019824375
,,,2.97E-06,0.019759375
,,,2.98E-06,0.020169375
,,,2.99E-06,0.0201675
,,,3E-06,0.0199125
,,,3.01E-06,0.019878125
,,,3.02E-06,0.019729375
,,,3.03E-06,0.019903125
,,,3.04E-06,0.0198425
,,,3.05E-06,0.02001125
,,,3.06E-06,0.0198375
,,,3.07E-06,0.01996125
,,,3.08E-06,0.019910625
,,,3.09E-06,0.0199175
,,,3.1E-06,0.020048125
,,,3.11E-06,0.020033125
,,,3.12E-06,0.019949375
,,,3.13E-06,0.01982125
,,,3.14E-06,0.019945625
,,,3.15E-06,0.0199225
,,,3.16E-06,0.01969125
,,,3.17E-06,0.0200525
,,,3.18E-06,0.019858125
,,,3.19E-06,0.019965625
,,,3.2E-06,0.020254375
,,,3.21E-06,0.019635
,,,3.22E-06,0.019844375
,,,3.23E-06,0.019845625
,,,3.24E-06,0.01977125
,,,3.25E-06,0.019741875
,,,3.26E-06,0.019913125
,,,3.27E-06,0.01974375
,,,3.28E-06,0.020095625
,,,3.29E-06,0.019889375
,,,3.3E-06,0.019906875
,,,3.31E-06,0.019875625
,,,3.32E-06,0.01991
,,,3.33E-06,0.019955625
,,,3.34E-06,0.01976875
,,,3.35E-06,0.019758125
,,,3.36E-06,0.01973125
,,,3.37E-06,0.020129375
,,,3.38E-06,0.019848125
,,,3.39E-06,0.019875
,,,3.4E-06,0.019695
,,,3.41E-06,0.0195775
,,,3.42E-06,0.020024375
,,,3.43E-06,0.019711875
,,,3.44E-06,0.019995
,,,3.45E-06,0.0198075
,,,3.46E-06,0.02000375
,,,3.47E-06,0.02010375
,,,3.48E-06,0.01988625
,,,3.49E-06,0.020035625
,,,3.5E-06,0.019784375
,,,3.51E-06,0.019705
,,,3.52E-06,0.0199125
,,,3.53E-06,0.01979875
,,,3.54E-06,0.019883125
,,,3.55E-06,0.02022625
,,,3.56E-06,0.019860625
,,,3.57E-06,0.019775625
,,,3.58E-06,0.02004375
,,,3.59E-06,0.019869375
