data/raw/Final_POL_Test_1/SOP098_Ch2.csv

"Record Length",1000,"Points",-5E-06,0.019025625
"Sample Interval",1E-08,s,-4.99E-06,0.019164375
"Trigger Point",500,"Samples",-4.98E-06,0.0191125
"Trigger Time",0,s,-4.97E-06,0.018923125
"",,,-4.96E-06,0.019143125
"Horizontal Offset",-5E-06,s,-4.95E-06,0.0191725
,,,-4.94E-06,0.01903125
,,,-4.93E-06,0.018993125
,,,-4.92E-06,0.01895
,,,-4.91E-06,0.01910875
,,,-4.9E-06,0.0190975
,,,-4.89E-06,0.019105625
,,,-4.88E-06,0.01908125
,,,-4.87E-06,0.0191625
,,,-4.86E-06,0.01909875
,,,-4.85E-06,0.019076875
,,,-4.84E-06,0.019045625
,,,-4.83E-06,0.018883125
,,,-4.82E-06,0.018975625
,,,-4.81E-06,0.018950625
,,,-4.8E-06,0.01896375
,,,-4.79E-06,0.019329375
,,,-4.78E-06,0.0191025
,,,-4.77E-06,0.019293125
,,,-4.76E-06,0.018948125
,,,-4.75E-06,0.018989375
,,,-4.74E-06,0.018926875
,,,-4.73E-06,0.01917875
,,,-4.72E-06,0.019148125
,,,-4.71E-06,0.0191775
,,,-4.7E-06,0.01887875
,,,-4.69E-06,0.019083125
,,,-4.68E-06,0.019181875
,,,-4.67E-06,0.019244375
,,,-4.66E-06,0.018911875
,,,-4.65E-06,0.01904125
,,,-4.64E-06,0.019298125
,,,-4.63E-06,0.019213125
,,,-4.62E-06,0.0190475
,,,-4.61E-06,0.01897
,,,-4.6E-06,0.01889125
,,,-4.59E-06,0.0190775
,,,-4.58E-06,0.019226875
,,,-4.57E-06,0.018915
,,,-4.56E-06,0.0190125
,,,-4.55E-06,0.01892375
,,,-4.54E-06,0.019130625
,,,-4.53E-06,0.019194375
,,,-4.52E-06,0.019228125
,,,-4.51E-06,0.019069375
,,,-4.5E-06,0.01923375
,,,-4.49E-06,0.018766875
,,,-4.48E-06,0.019115
,,,-4.47E-06,0.018935625
,,,-4.46E-06,0.019101875
,,,-4.45E-06,0.01904
,,,-4.44E-06,0.01905375
,,,-4.43E-06,0.018834375
,,,-4.42E-06,0.019025
,,,-4.41E-06,0.0189975
,,,-4.4E-06,0.0193475
,,,-4.39E-06,0.019350625
,,,-4.38E-06,0.018823125
,,,-4.37E-06,0.01929375
,,,-4.36E-06,0.019050625
,,,-4.35E-06,0.018840625
,,,-4.34E-06,0.019245
,,,-4.33E-06,0.0186875
,,,-4.32E-06,0.019100625
,,,-4.31E-06,0.019296875
,,,-4.3E-06,0.01903
,,,-4.29E-06,0.018929375
,,,-4.28E-06,0.019043125
,,,-4.27E-06,0.019200625
,,,-4.26E-06,0.019203125
,,,-4.25E-06,0.01900125
,,,-4.24E-06,0.018964375
,,,-4.23E-06,0.01885125
,,,-4.22E-06,0.018963125
,,,-4.21E-06,0.019045
,,,-4.2E-06,0.01873875
,,,-4.19E-06,0.01885
,,,-4.18E-06,0.019125625
,,,-4.17E-06,0.01916375
,,,-4.16E-06,0.0188825
,,,-4.15E-06,0.019216875
,,,-4.14E-06,0.019096875
,,,-4.13E-06,0.01905
,,,-4.12E-06,0.019156875
,,,-4.11E-06,0.018836875
,,,-4.1E-06,0.019175625
,,,-4.09E-06,0.0191775
,,,-4.08E-06,0.01928
,,,-4.07E-06,0.019083125
,,,-4.06E-06,0.019045
,,,-4.05E-06,0.018814375
,,,-4.04E-06,0.019109375
,,,-4.03E-06,0.019285
,,,-4.02E-06,0.0189625
,,,-4.01E-06,0.018986875
,,,-4E-06,0.019120625
,,,-3.99E-06,0.019226875
,,,-3.98E-06,0.018885
,,,-3.97E-06,0.019015625
,,,-3.96E-06,0.01931
,,,-3.95E-06,0.019296875
,,,-3.94E-06,0.0190625
,,,-3.93E-06,0.018961875
,,,-3.92E-06,0.01913875
,,,-3.91E-06,0.0190275
,,,-3.9E-06,0.0192525
,,,-3.89E-06,0.0191275
,,,-3.88E-06,0.019051875
,,,-3.87E-06,0.01886875
,,,-3.86E-06,0.0187775
,,,-3.85E-06,0.018739375
,,,-3.84E-06,0.019126875
,,,-3.83E-06,0.019148125
,,,-3.82E-06,0.01910875
,,,-3.81E-06,0.019194375
,,,-3.8E-06,0.0194175
,,,-3.79E-06,0.01910375
,,,-3.78E-06,0.01891125
,,,-3.77E-06,0.019221875
,,,-3.76E-06,0.018864375
,,,-3.75E-06,0.01904875
,,,-3.74E-06,0.019069375
,,,-3.73E-06,0.01906375
,,,-3.72E-06,0.01925375
,,,-3.71E-06,0.0189225
,,,-3.7E-06,0.018981875
,,,-3.69E-06,0.01909875
,,,-3.68E-06,0.0191425
,,,-3.67E-06,0.0191275
,,,-3.66E-06,0.019025
,,,-3.65E-06,0.01910875
,,,-3.64E-06,0.018998125
,,,-3.63E-06,0.019063125
,,,-3.62E-06,0.019038125
,,,-3.61E-06,0.018914375
,,,-3.6E-06,0.018914375
,,,-3.59E-06,0.019164375
,,,-3.58E-06,0.019275
,,,-3.57E-06,0.019291875
,,,-3.56E-06,0.019045625
,,,-3.55E-06,0.0191325
,,,-3.54E-06,0.018979375
,,,-3.53E-06,0.019010625
,,,-3.52E-06,0.0192975
,,,-3.51E-06,0.019075625
,,,-3.5E-06,0.019151875
,,,-3.49E-06,0.01899375
,,,-3.48E-06,0.019034375
,,,-3.47E-06,0.0192175
,,,-3.46E-06,0.019365625
,,,-3.45E-06,0.019025
,,,-3.44E-06,0.01904
,,,-3.43E-06,0.0188175
,,,-3.42E-06,0.0189925
,,,-3.41E-06,0.018899375
,,,-3.4E-06,0.01933125
,,,-3.39E-06,0.0191575
,,,-3.38E-06,0.0191175
,,,-3.37E-06,0.01907875
,,,-3.36E-06,0.01914875
,,,-3.35E-06,0.018964375
,,,-3.34E-06,0.019065
,,,-3.33E-06,0.01907875
,,,-3.32E-06,0.0188825
,,,-3.31E-06,0.01925
,,,-3.3E-06,0.019128125
,,,-3.29E-06,0.019081875
,,,-3.28E-06,0.019008125
,,,-3.27E-06,0.01906375
,,,-3.26E-06,0.019140625
,,,-3.25E-06,0.01915875
,,,-3.24E-06,0.019114375
,,,-3.23E-06,0.019073125
,,,-3.22E-06,0.01938
,,,-3.21E-06,0.0189875
,,,-3.2E-06,0.019281875
,,,-3.19E-06,0.018883125
,,,-3.18E-06,0.01918625
,,,-3.17E-06,0.019021875
,,,-3.16E-06,0.01912
,,,-3.15E-06,0.01911875
,,,-3.14E-06,0.0189075
,,,-3.13E-06,0.01905375
,,,-3.12E-06,0.018960625
,,,-3.11E-06,0.019008125
,,,-3.1E-06,0.018936875
,,,-3.09E-06,0.018978125
,,,-3.08E-06,0.018939375
,,,-3.07E-06,0.018969375
,,,-3.06E-06,0.01906375
,,,-3.05E-06,0.018975625
,,,-3.04E-06,0.01896375
,,,-3.03E-06,0.01913
,,,-3.02E-06,0.019130625
,,,-3.01E-06,0.019183125
,,,-3E-06,0.018955
,,,-2.99E-06,0.01915
,,,-2.98E-06,0.0189475
,,,-2.97E-06,0.01904875
,,,-2.96E-06,0.01909625
,,,-2.95E-06,0.019218125
,,,-2.94E-06,0.019000625
,,,-2.93E-06,0.019129375
,,,-2.92E-06,0.01912
,,,-2.91E-06,0.019058125
,,,-2.9E-06,0.01916375
,,,-2.89E-06,0.01902625
,,,-2.88E-06,0.019073125
,,,-2.87E-06,0.0189925
,,,-2.86E-06,0.01916875
,,,-2.85E-06,0.019184375
,,,-2.84E-06,0.019190625
,,,-2.83E-06,0.019089375
,,,-2.82E-06,0.01902
,,,-2.81E-06,0.01911375
,,,-2.8E-06,0.019223125
,,,-2.79E-06,0.01909875
,,,-2.78E-06,0.018960625
,,,-2.77E-06,0.01902125
,,,-2.76E-06,0.01901125
,,,-2.75E-06,0.0191725
,,,-2.74E-06,0.019215625
,,,-2.73E-06,0.018880625
,,,-2.72E-06,0.0190375
,,,-2.71E-06,0.018966875
,,,-2.7E-06,0.01885125
,,,-2.69E-06,0.018910625
,,,-2.68E-06,0.01909
,,,-2.67E-06,0.01916
,,,-2.66E-06,0.019065
,,,-2.65E-06,0.018968125
,,,-2.64E-06,0.019171875
,,,-2.63E-06,0.01890625
,,,-2.62E-06,0.0190625
,,,-2.61E-06,0.019109375
,,,-2.6E-06,0.01907125
,,,-2.59E-06,0.01886
,,,-2.58E-06,0.019215
,,,-2.57E-06,0.018835625
,,,-2.56E-06,0.019273125
,,,-2.55E-06,0.01877375
,,,-2.54E-06,0.019179375
,,,-2.53E-06,0.019110625
,,,-2.52E-06,0.01906125
,,,-2.51E-06,0.0189775
,,,-2.5E-06,0.018861875
,,,-2.49E-06,0.01914
,,,-2.48E-06,0.019155625
,,,-2.47E-06,0.0188825
,,,-2.46E-06,0.018890625
,,,-2.45E-06,0.018785
,,,-2.44E-06,0.01898625
,,,-2.43E-06,0.019013125
,,,-2.42E-06,0.01897
,,,-2.41E-06,0.01917375
,,,-2.4E-06,0.019104375
,,,-2.39E-06,0.01903375
,,,-2.38E-06,0.01903375
,,,-2.37E-06,0.0190375
,,,-2.36E-06,0.01890375
,,,-2.35E-06,0.01905625
,,,-2.34E-06,0.01897375
,,,-2.33E-06,0.018920625
,,,-2.32E-06,0.018920625
,,,-2.31E-06,0.019413125
,,,-2.3E-06,0.018770625
,,,-2.29E-06,0.01914875
,,,-2.28E-06,0.019073125
,,,-2.27E-06,0.019103125
,,,-2.26E-06,0.019039375
,,,-2.25E-06,0.0193875
,,,-2.24E-06,0.018884375
,,,-2.23E-06,0.019234375
,,,-2.22E-06,0.0190475
,,,-2.21E-06,0.019050625
,,,-2.2E-06,0.01898875
,,,-2.19E-06,0.018970625
,,,-2.18E-06,0.019055625
,,,-2.17E-06,0.018888125
,,,-2.16E-06,0.018981875
,,,-2.15E-06,0.019419375
,,,-2.14E-06,0.018785625
,,,-2.13E-06,0.019105
,,,-2.12E-06,0.01917625
,,,-2.11E-06,0.019090625
,,,-2.1E-06,0.019025625
,,,-2.09E-06,0.01909375
,,,-2.08E-06,0.01891875
,,,-2.07E-06,0.01927125
,,,-2.06E-06,0.019373125
,,,-2.05E-06,0.01904125
,,,-2.04E-06,0.0192575
,,,-2.03E-06,0.019158125
,,,-2.02E-06,0.018939375
,,,-2.01E-06,0.019083125
,,,-2E-06,0.01909125
,,,-1.99E-06,0.01922125
,,,-1.98E-06,0.01901
,,,-1.97E-06,0.018845
,,,-1.96E-06,0.0187375
,,,-1.95E-06,0.018821875
,,,-1.94E-06,0.018936875
,,,-1.93E-06,0.01914375
,,,-1.92E-06,0.01907875
,,,-1.91E-06,0.019258125
,,,-1.9E-06,0.019204375
,,,-1.89E-06,0.0188375
,,,-1.88E-06,0.0188675
,,,-1.87E-06,0.018915
,,,-1.86E-06,0.01902875
,,,-1.85E-06,0.019161875
,,,-1.84E-06,0.018740625
,,,-1.83E-06,0.019229375
,,,-1.82E-06,0.01885625
,,,-1.81E-06,0.019085
,,,-1.8E-06,0.01933125
,,,-1.79E-06,0.018895625
,,,-1.78E-06,0.0189525
,,,-1.77E-06,0.019085
,,,-1.76E-06,0.019135
,,,-1.75E-06,0.019184375
,,,-1.74E-06,0.019335625
,,,-1.73E-06,0.01921125
,,,-1.72E-06,0.019105
,,,-1.71E-06,0.01915875
,,,-1.7E-06,0.01893
,,,-1.69E-06,0.01913375
,,,-1.68E-06,0.0192075
,,,-1.67E-06,0.0191375
,,,-1.66E-06,0.019041875
,,,-1.65E-06,0.019101875
,,,-1.64E-06,0.019028125
,,,-1.63E-06,0.018984375
,,,-1.62E-06,0.01895875
,,,-1.61E-06,0.01903625
,,,-1.6E-06,0.01909
,,,-1.59E-06,0.019076875
,,,-1.58E-06,0.019195
,,,-1.57E-06,0.019078125
,,,-1.56E-06,0.019113125
,,,-1.55E-06,0.01901
,,,-1.54E-06,0.01898125
,,,-1.53E-06,0.01878
,,,-1.52E-06,0.019113125
,,,-1.51E-06,0.01890875
,,,-1.5E-06,0.01918875
,,,-1.49E-06,0.019201875
,,,-1.48E-06,0.019025
,,,-1.47E-06,0.019145625
,,,-1.46E-06,0.01923
,,,-1.45E-06,0.019089375
,,,-1.44E-06,0.0191875
,,,-1.43E-06,0.01924
,,,-1.42E-06,0.019406875
,,,-1.41E-06,0.018938125
,,,-1.4E-06,0.018995
,,,-1.39E-06,0.0188475
,,,-1.38E-06,0.019240625
,,,-1.37E-06,0.01892375
,,,-1.36E-06,0.019155
,,,-1.35E-06,0.019244375
,,,-1.34E-06,0.01898125
,,,-1.33E-06,0.018876875
,,,-1.32E-06,0.019124375
,,,-1.31E-06,0.01893375
,,,-1.3E-06,0.0191875
,,,-1.29E-06,0.01922625
,,,-1.28E-06,0.01928625
,,,-1.27E-06,0.01896875
,,,-1.26E-06,0.0192075
,,,-1.25E-06,0.018985625
,,,-1.24E-06,0.01909375
,,,-1.23E-06,0.01885875
,,,-1.22E-06,0.019090625
,,,-1.21E-06,0.019135625
,,,-1.2E-06,0.01889875
,,,-1.19E-06,0.019039375
,,,-1.18E-06,0.018796875
,,,-1.17E-06,0.01884875
,,,-1.16E-06,0.019193125
,,,-1.15E-06,0.019204375
,,,-1.14E-06,0.01896375
,,,-1.13E-06,0.019046875
,,,-1.12E-06,0.01908125
,,,-1.11E-06,0.01898
,,,-1.1E-06,0.0190275
,,,-1.09E-06,0.018846875
,,,-1.08E-06,0.01914625
,,,-1.07E-06,0.019055625
,,,-1.06E-06,0.01911875
,,,-1.05E-06,0.019006875
,,,-1.04E-06,0.018935
,,,-1.03E-06,0.018928125
,,,-1.02E-06,0.019095625
,,,-1.01E-06,0.01907875
,,,-1E-06,0.0190825
,,,-9.9E-07,0.01905625
,,,-9.8E-07,0.01913
,,,-9.7E-07,0.019040625
,,,-9.6E-07,0.018885625
,,,-9.5E-07,0.019015
,,,-9.4E-07,0.019115
,,,-9.3E-07,0.019056875
,,,-9.2E-07,0.0190975
,,,-9.1E-07,0.019213125
,,,-9E-07,0.019141875
,,,-8.9E-07,0.01908875
,,,-8.8E-07,0.019118125
,,,-8.7E-07,0.019123125
,,,-8.6E-07,0.01898125
,,,-8.5E-07,0.018654375
,,,-8.4E-07,0.0189975
,,,-8.3E-07,0.018633125
,,,-8.2E-07,0.0190625
,,,-8.1E-07,0.0189875
,,,-8E-07,0.018933125
,,,-7.9E-07,0.0191075
,,,-7.8E-07,0.019125625
,,,-7.7E-07,0.019119375
,,,-7.6E-07,0.01896125
,,,-7.5E-07,0.019021875
,,,-7.4E-07,0.019080625
,,,-7.3E-07,0.019160625
,,,-7.2E-07,0.01903125
,,,-7.1E-07,0.019075
,,,-7E-07,0.019236875
,,,-6.9E-07,0.01899375
,,,-6.8E-07,0.019076875
,,,-6.7E-07,0.01888
,,,-6.6E-07,0.01905625
,,,-6.5E-07,0.0189875
,,,-6.4E-07,0.01901875
,,,-6.3E-07,0.019084375
,,,-6.2E-07,0.01889375
,,,-6.1E-07,0.01909625
,,,-6E-07,0.01903375
,,,-5.9E-07,0.018940625
,,,-5.8E-07,0.01919375
,,,-5.7E-07,0.019104375
,,,-5.6E-07,0.019014375
,,,-5.5E-07,0.019020625
,,,-5.4E-07,0.019186875
,,,-5.3E-07,0.019034375
,,,-5.2E-07,0.018773125
,,,-5.1E-07,0.0189225
,,,-5E-07,0.018916875
,,,-4.9E-07,0.01900125
,,,-4.8E-07,0.019129375
,,,-4.7E-07,0.01882875
,,,-4.6E-07,0.01897625
,,,-4.5E-07,0.019060625
,,,-4.4E-07,0.018915
,,,-4.3E-07,0.01901375
,,,-4.2E-07,0.0191125
,,,-4.1E-07,0.018718125
,,,-4E-07,0.0188375
,,,-3.9E-07,0.019226875
,,,-3.8E-07,0.01895
,,,-3.7E-07,0.01916
,,,-3.6E-07,0.01893875
,,,-3.5E-07,0.01879
,,,-3.4E-07,0.01917625
,,,-3.3E-07,0.019254375
,,,-3.2E-07,0.01908875
,,,-3.1E-07,0.018896875
,,,-3E-07,0.0188875
,,,-2.9E-07,0.018945625
,,,-2.8E-07,0.01906
,,,-2.7E-07,0.01901125
,,,-2.6E-07,0.018951875
,,,-2.5E-07,0.0191075
,,,-2.4E-07,0.019115
,,,-2.3E-07,0.019070625
,,,-2.2E-07,0.018943125
,,,-2.1E-07,0.018971875
,,,-2E-07,0.019175
,,,-1.9E-07,0.01892625
,,,-1.8E-07,0.018910625
,,,-1.7E-07,0.019183125
,,,-1.6E-07,0.01911875
,,,-1.5E-07,0.018871875
,,,-1.4E-07,0.01888
,,,-1.3E-07,0.018848125
,,,-1.2E-07,0.01906375
,,,-1.1E-07,0.019325
,,,-1E-07,0.01964375
,,,-9E-08,0.019711875
,,,-8E-08,0.018169375
,,,-7E-08,0.017295
,,,-6E-08,0.01795125
,,,-5E-08,0.020235625
,,,-4E-08,0.022004375
,,,-3E-08,0.02152
,,,-2E-08,0.01735875
,,,-1E-08,0.014968749
,,,0,0.015901249
,,,1E-08,0.021145625
,,,2E-08,0.022775625
,,,3E-08,0.022171875
,,,4E-08,0.019041875
,,,5E-08,0.016726874
,,,6E-08,0.016166249
,,,7E-08,0.01786625
,,,8E-08,0.01983
,,,9E-08,0.020835
,,,1E-07,0.0207225
,,,1.1E-07,0.01947375
,,,1.2E-07,0.018220625
,,,1.3E-07,0.017885
,,,1.4E-07,0.0188775
,,,1.5E-07,0.01920625
,,,1.6E-07,0.019491875
,,,1.7E-07,0.019558125
,,,1.8E-07,0.019008125
,,,1.9E-07,0.019084375
,,,2E-07,0.018841875
,,,2.1E-07,0.018724375
,,,2.2E-07,0.018775625
,,,2.3E-07,0.018718125
,,,2.4E-07,0.019114375
,,,2.5E-07,0.018965
,,,2.6E-07,0.01924625
,,,2.7E-07,0.019175
,,,2.8E-07,0.0189725
,,,2.9E-07,0.0190625
,,,3E-07,0.018843125
,,,3.1E-07,0.018939375
,,,3.2E-07,0.01914375
,,,3.3E-07,0.019029375
,,,3.4E-07,0.0193175
,,,3.5E-07,0.018768125
,,,3.6E-07,0.01898125
,,,3.7E-07,0.019033125
,,,3.8E-07,0.019085625
,,,3.9E-07,0.018783125
,,,4E-07,0.019133125
,,,4.1E-07,0.019036875
,,,4.2E-07,0.0188525
,,,4.3E-07,0.018965
,,,4.4E-07,0.01898625
,,,4.5E-07,0.01906
,,,4.6E-07,0.0189075
,,,4.7E-07,0.01906625
,,,4.8E-07,0.018943125
,,,4.9E-07,0.01906875
,,,5E-07,0.01899375
,,,5.1E-07,0.0191375
,,,5.2E-07,0.0190275
,,,5.3E-07,0.01918875
,,,5.4E-07,0.01915125
,,,5.5E-07,0.018935625
,,,5.6E-07,0.0192175
,,,5.7E-07,0.01898625
,,,5.8E-07,0.0192525
,,,5.9E-07,0.01902
,,,6E-07,0.018839375
,,,6.1E-07,0.018983125
,,,6.2E-07,0.019155
,,,6.3E-07,0.01893
,,,6.4E-07,0.01894875
,,,6.5E-07,0.019214375
,,,6.6E-07,0.019225625
,,,6.7E-07,0.01870125
,,,6.8E-07,0.01904875
,,,6.9E-07,0.019056875
,,,7E-07,0.019065625
,,,7.1E-07,0.019098125
,,,7.2E-07,0.01919875
,,,7.3E-07,0.0190525
,,,7.4E-07,0.01902625
,,,7.5E-07,0.019051875
,,,7.6E-07,0.019093125
,,,7.7E-07,0.018953125
,,,7.8E-07,0.01934125
,,,7.9E-07,0.0192125
,,,8E-07,0.019210625
,,,8.1E-07,0.0190325
,,,8.2E-07,0.01901875
,,,8.3E-07,0.019025
,,,8.4E-07,0.01912125
,,,8.5E-07,0.019034375
,,,8.6E-07,0.019101875
,,,8.7E-07,0.01900125
,,,8.8E-07,0.019085625
,,,8.9E-07,0.01914375
,,,9E-07,0.0188975
,,,9.1E-07,0.019104375
,,,9.2E-07,0.019098125
,,,9.3E-07,0.01892375
,,,9.4E-07,0.01900375
,,,9.5E-07,0.0189875
,,,9.6E-07,0.019069375
,,,9.7E-07,0.01880375
,,,9.8E-07,0.0189275
,,,9.9E-07,0.018929375
,,,1E-06,0.019284375
,,,1.01E-06,0.01886875
,,,1.02E-06,0.018965
,,,1.03E-06,0.0189175
,,,1.04E-06,0.019150625
,,,1.05E-06,0.019105
,,,1.06E-06,0.019015625
,,,1.07E-06,0.019060625
,,,1.08E-06,0.019096875
,,,1.09E-06,0.019013125
,,,1.1E-06,0.019021875
,,,1.11E-06,0.019343125
,,,1.12E-06,0.01932375
,,,1.13E-06,0.018885
,,,1.14E-06,0.019103125
,,,1.15E-06,0.0190375
,,,1.16E-06,0.0190325
,,,1.17E-06,0.019085
,,,1.18E-06,0.0191275
,,,1.19E-06,0.019120625
,,,1.2E-06,0.019021875
,,,1.21E-06,0.01898375
,,,1.22E-06,0.01891
,,,1.23E-06,0.01911625
,,,1.24E-06,0.01916625
,,,1.25E-06,0.019019375
,,,1.26E-06,0.018976875
,,,1.27E-06,0.01913375
,,,1.28E-06,0.018825
,,,1.29E-06,0.018994375
,,,1.3E-06,0.018838125
,,,1.31E-06,0.019195625
,,,1.32E-06,0.018980625
,,,1.33E-06,0.0192075
,,,1.34E-06,0.019219375
,,,1.35E-06,0.019183125
,,,1.36E-06,0.019280625
,,,1.37E-06,0.018889375
,,,1.38E-06,0.0192425
,,,1.39E-06,0.01901375
,,,1.4E-06,0.019011875
,,,1.41E-06,0.019025
,,,1.42E-06,0.019150625
,,,1.43E-06,0.018949375
,,,1.44E-06,0.019040625
,,,1.45E-06,0.018850625
,,,1.46E-06,0.019043125
,,,1.47E-06,0.01910875
,,,1.48E-06,0.019399375
,,,1.49E-06,0.019245625
,,,1.5E-06,0.019083125
,,,1.51E-06,0.01903625
,,,1.52E-06,0.01910125
,,,1.53E-06,0.0187925
,,,1.54E-06,0.019168125
,,,1.55E-06,0.019084375
,,,1.56E-06,0.019138125
,,,1.57E-06,0.019244375
,,,1.58E-06,0.019030625
,,,1.59E-06,0.01891875
,,,1.6E-06,0.019048125
,,,1.61E-06,0.01903125
,,,1.62E-06,0.01918625
,,,1.63E-06,0.019010625
,,,1.64E-06,0.01893125
,,,1.65E-06,0.019185
,,,1.66E-06,0.01917375
,,,1.67E-06,0.01887625
,,,1.68E-06,0.018971875
,,,1.69E-06,0.019115
,,,1.7E-06,0.018875
,,,1.71E-06,0.019075625
,,,1.72E-06,0.019114375
,,,1.73E-06,0.0189675
,,,1.74E-06,0.01924875
,,,1.75E-06,0.018875
,,,1.76E-06,0.01889125
,,,1.77E-06,0.01899
,,,1.78E-06,0.0191875
,,,1.79E-06,0.01901
,,,1.8E-06,0.019324375
,,,1.81E-06,0.019183125
,,,1.82E-06,0.019171875
,,,1.83E-06,0.018895
,,,1.84E-06,0.0189175
,,,1.85E-06,0.019006875
,,,1.86E-06,0.01905125
,,,1.87E-06,0.01880125
,,,1.88E-06,0.019224375
,,,1.89E-06,0.018990625
,,,1.9E-06,0.018786875
,,,1.91E-06,0.01889
,,,1.92E-06,0.019024375
,,,1.93E-06,0.01923375
,,,1.94E-06,0.0191525
,,,1.95E-06,0.01891625
,,,1.96E-06,0.01914625
,,,1.97E-06,0.01902125
,,,1.98E-06,0.019056875
,,,1.99E-06,0.019015
,,,2E-06,0.019116875
,,,2.01E-06,0.019001875
,,,2.02E-06,0.01889
,,,2.03E-06,0.01894625
,,,2.04E-06,0.01915
,,,2.05E-06,0.0189875
,,,2.06E-06,0.019005
,,,2.07E-06,0.018943125
,,,2.08E-06,0.0191875
,,,2.09E-06,0.019224375
,,,2.1E-06,0.018935
,,,2.11E-06,0.01914125
,,,2.12E-06,0.018986875
,,,2.13E-06,0.018958125
,,,2.14E-06,0.018963125
,,,2.15E-06,0.0192
,,,2.16E-06,0.01884875
,,,2.17E-06,0.019076875
,,,2.18E-06,0.01885625
,,,2.19E-06,0.0190525
,,,2.2E-06,0.01904375
,,,2.21E-06,0.0190975
,,,2.22E-06,0.01874375
,,,2.23E-06,0.01922125
,,,2.24E-06,0.019211875
,,,2.25E-06,0.019060625
,,,2.26E-06,0.01905375
,,,2.27E-06,0.01919625
,,,2.28E-06,0.019165625
,,,2.29E-06,0.0190825
,,,2.3E-06,0.01892
,,,2.31E-06,0.01916625
,,,2.32E-06,0.018971875
,,,2.33E-06,0.019180625
,,,2.34E-06,0.019195
,,,2.35E-06,0.01918125
,,,2.36E-06,0.018928125
,,,2.37E-06,0.019076875
,,,2.38E-06,0.01935875
,,,2.39E-06,0.019021875
,,,2.4E-06,0.019009375
,,,2.41E-06,0.0190875
,,,2.42E-06,0.01877375
,,,2.43E-06,0.019213125
,,,2.44E-06,0.01913
,,,2.45E-06,0.018618125
,,,2.46E-06,0.019190625
,,,2.47E-06,0.019105625
,,,2.48E-06,0.01895625
,,,2.49E-06,0.018990625
,,,2.5E-06,0.01913875
,,,2.51E-06,0.0192
,,,2.52E-06,0.019128125
,,,2.53E-06,0.0190825
,,,2.54E-06,0.0190025
,,,2.55E-06,0.019264375
,,,2.56E-06,0.0191825
,,,2.57E-06,0.01910125
,,,2.58E-06,0.018936875
,,,2.59E-06,0.01895875
,,,2.6E-06,0.018786875
,,,2.61E-06,0.019038125
,,,2.62E-06,0.01916625
,,,2.63E-06,0.01897625
,,,2.64E-06,0.0190125
,,,2.65E-06,0.01904
,,,2.66E-06,0.0190325
,,,2.67E-06,0.0190075
,,,2.68E-06,0.019159375
,,,2.69E-06,0.019255625
,,,2.7E-06,0.01908875
,,,2.71E-06,0.01908125
,,,2.72E-06,0.019230625
,,,2.73E-06,0.019115
,,,2.74E-06,0.01908375
,,,2.75E-06,0.019060625
,,,2.76E-06,0.019029375
,,,2.77E-06,0.01918125
,,,2.78E-06,0.019115625
,,,2.79E-06,0.019285
,,,2.8E-06,0.018975
,,,2.81E-06,0.01915125
,,,2.82E-06,0.019203125
,,,2.83E-06,0.019341875
,,,2.84E-06,0.018784375
,,,2.85E-06,0.018969375
,,,2.86E-06,0.019053125
,,,2.87E-06,0.01908875
,,,2.88E-06,0.0190925
,,,2.89E-06,0.0189725
,,,2.9E-06,0.019234375
,,,2.91E-06,0.01901375
,,,2.92E-06,0.019295
,,,2.93E-06,0.01902125
,,,2.94E-06,0.01892875
,,,2.95E-06,0.018869375
,,,2.96E-06,0.019060625
,,,2.97E-06,0.019079375
,,,2.98E-06,0.018966875
,,,2.99E-06,0.019344375
,,,3E-06,0.019068125
,,,3.01E-06,0.018768125
,,,3.02E-06,0.018834375
,,,3.03E-06,0.019041875
,,,3.04E-06,0.019100625
,,,3.05E-06,0.018898125
,,,3.06E-06,0.018815
,,,3.07E-06,0.019055
,,,3.08E-06,0.018978125
,,,3.09E-06,0.019028125
,,,3.1E-06,0.01900125
,,,3.11E-06,0.018941875
,,,3.12E-06,0.018865625
,,,3.13E-06,0.018978125
,,,3.14E-06,0.0192875
,,,3.15E-06,0.01922
,,,3.16E-06,0.01917375
,,,3.17E-06,0.01942125
,,,3.18E-06,0.019038125
,,,3.19E-06,0.01916625
,,,3.2E-06,0.019175625
,,,3.21E-06,0.019105625
,,,3.22E-06,0.018981875
,,,3.23E-06,0.019066875
,,,3.24E-06,0.019129375
,,,3.25E-06,0.01899625
,,,3.26E-06,0.018953125
,,,3.27E-06,0.01906125
,,,3.28E-06,0.019089375
,,,3.29E-06,0.019265625
,,,3.3E-06,0.019184375
,,,3.31E-06,0.019154375
,,,3.32E-06,0.01914125
,,,3.33E-06,0.019
,,,3.34E-06,0.019234375
,,,3.35E-06,0.0189
,,,3.36E-06,0.019001875
,,,3.37E-06,0.0193625
,,,3.38E-06,0.019126875
,,,3.39E-06,0.019325
,,,3.4E-06,0.0191675
,,,3.41E-06,0.01913
,,,3.42E-06,0.018951875
,,,3.43E-06,0.018955625
,,,3.44E-06,0.018858125
,,,3.45E-06,0.019050625
,,,3.46E-06,0.019279375
,,,3.47E-06,0.019218125
,,,3.48E-06,0.019225625
,,,3.49E-06,0.019086875
,,,3.5E-06,0.018926875
,,,3.51E-06,0.019089375
,,,3.52E-06,0.01885625
,,,3.53E-06,0.018964375
,,,3.54E-06,0.019304375
,,,3.55E-06,0.019240625
,,,3.56E-06,0.019239375
,,,3.57E-06,0.018954375
