data/raw/Final_POL_Test_1/SOP030_Ch3.csv

"Record Length",1000,"Points",-5E-06,0.021381876
"Sample Interval",1E-08,s,-4.99E-06,0.021311876
"Trigger Point",500,"Samples",-4.98E-06,0.021325001
"Trigger Time",0,s,-4.97E-06,0.021281251
"",,,-4.96E-06,0.021039376
"Horizontal Offset",-5E-06,s,-4.95E-06,0.021472501
,,,-4.94E-06,0.021437501
,,,-4.93E-06,0.021200001
,,,-4.92E-06,0.021223751
,,,-4.91E-06,0.021344376
,,,-4.9E-06,0.021173126
,,,-4.89E-06,0.021276876
,,,-4.88E-06,0.021300626
,,,-4.87E-06,0.021449376
,,,-4.86E-06,0.021182501
,,,-4.85E-06,0.021097501
,,,-4.84E-06,0.021386251
,,,-4.83E-06,0.021348751
,,,-4.82E-06,0.021143126
,,,-4.81E-06,0.021210626
,,,-4.8E-06,0.021404376
,,,-4.79E-06,0.021275001
,,,-4.78E-06,0.021499376
,,,-4.77E-06,0.021222501
,,,-4.76E-06,0.021428751
,,,-4.75E-06,0.021153126
,,,-4.74E-06,0.021356251
,,,-4.73E-06,0.021254376
,,,-4.72E-06,0.021475001
,,,-4.71E-06,0.021595001
,,,-4.7E-06,0.021337501
,,,-4.69E-06,0.021146876
,,,-4.68E-06,0.021159376
,,,-4.67E-06,0.021415626
,,,-4.66E-06,0.021359376
,,,-4.65E-06,0.021416876
,,,-4.64E-06,0.021493751
,,,-4.63E-06,0.021201251
,,,-4.62E-06,0.021503126
,,,-4.61E-06,0.021336251
,,,-4.6E-06,0.021176876
,,,-4.59E-06,0.021318126
,,,-4.58E-06,0.021158751
,,,-4.57E-06,0.021439376
,,,-4.56E-06,0.021366876
,,,-4.55E-06,0.021457501
,,,-4.54E-06,0.021346876
,,,-4.53E-06,0.021220626
,,,-4.52E-06,0.021209376
,,,-4.51E-06,0.021360626
,,,-4.5E-06,0.021542501
,,,-4.49E-06,0.021299376
,,,-4.48E-06,0.021063126
,,,-4.47E-06,0.021294376
,,,-4.46E-06,0.021159376
,,,-4.45E-06,0.021519376
,,,-4.44E-06,0.021065001
,,,-4.43E-06,0.021132501
,,,-4.42E-06,0.021512501
,,,-4.41E-06,0.021150001
,,,-4.4E-06,0.021515001
,,,-4.39E-06,0.021303751
,,,-4.38E-06,0.021206251
,,,-4.37E-06,0.021171876
,,,-4.36E-06,0.021483126
,,,-4.35E-06,0.021377501
,,,-4.34E-06,0.021542501
,,,-4.33E-06,0.021342501
,,,-4.32E-06,0.021288751
,,,-4.31E-06,0.021120001
,,,-4.3E-06,0.021345001
,,,-4.29E-06,0.021275001
,,,-4.28E-06,0.021240001
,,,-4.27E-06,0.021186251
,,,-4.26E-06,0.021097501
,,,-4.25E-06,0.021622501
,,,-4.24E-06,0.021180001
,,,-4.23E-06,0.021186876
,,,-4.22E-06,0.021410626
,,,-4.21E-06,0.021180001
,,,-4.2E-06,0.021301876
,,,-4.19E-06,0.021181251
,,,-4.18E-06,0.021627501
,,,-4.17E-06,0.021134376
,,,-4.16E-06,0.021395001
,,,-4.15E-06,0.021541251
,,,-4.14E-06,0.021392501
,,,-4.13E-06,0.021246876
,,,-4.12E-06,0.021629376
,,,-4.11E-06,0.021056251
,,,-4.1E-06,0.021200001
,,,-4.09E-06,0.021255626
,,,-4.08E-06,0.021244376
,,,-4.07E-06,0.021316876
,,,-4.06E-06,0.021342501
,,,-4.05E-06,0.021192501
,,,-4.04E-06,0.021091876
,,,-4.03E-06,0.021026876
,,,-4.02E-06,0.021237501
,,,-4.01E-06,0.021306251
,,,-4E-06,0.021425001
,,,-3.99E-06,0.021296876
,,,-3.98E-06,0.021171251
,,,-3.97E-06,0.021398126
,,,-3.96E-06,0.021197501
,,,-3.95E-06,0.021339376
,,,-3.94E-06,0.021231251
,,,-3.93E-06,0.021308126
,,,-3.92E-06,0.021225001
,,,-3.91E-06,0.021096876
,,,-3.9E-06,0.021563751
,,,-3.89E-06,0.021209376
,,,-3.88E-06,0.021477501
,,,-3.87E-06,0.021262501
,,,-3.86E-06,0.021175626
,,,-3.85E-06,0.021074376
,,,-3.84E-06,0.021543126
,,,-3.83E-06,0.021373751
,,,-3.82E-06,0.021300626
,,,-3.81E-06,0.021380001
,,,-3.8E-06,0.021218126
,,,-3.79E-06,0.021380626
,,,-3.78E-06,0.021306251
,,,-3.77E-06,0.021159376
,,,-3.76E-06,0.021337501
,,,-3.75E-06,0.021420001
,,,-3.74E-06,0.021314376
,,,-3.73E-06,0.021363751
,,,-3.72E-06,0.021172501
,,,-3.71E-06,0.021274376
,,,-3.7E-06,0.021445626
,,,-3.69E-06,0.021025626
,,,-3.68E-06,0.021258126
,,,-3.67E-06,0.021543751
,,,-3.66E-06,0.021060626
,,,-3.65E-06,0.021414376
,,,-3.64E-06,0.021360001
,,,-3.63E-06,0.021415001
,,,-3.62E-06,0.021373751
,,,-3.61E-06,0.021368126
,,,-3.6E-06,0.021213751
,,,-3.59E-06,0.021205001
,,,-3.58E-06,0.021445001
,,,-3.57E-06,0.021475001
,,,-3.56E-06,0.021427501
,,,-3.55E-06,0.021472501
,,,-3.54E-06,0.021426876
,,,-3.53E-06,0.021437501
,,,-3.52E-06,0.021175001
,,,-3.51E-06,0.021280001
,,,-3.5E-06,0.021138126
,,,-3.49E-06,0.021362501
,,,-3.48E-06,0.021428126
,,,-3.47E-06,0.021594376
,,,-3.46E-06,0.021330001
,,,-3.45E-06,0.021140626
,,,-3.44E-06,0.021336251
,,,-3.43E-06,0.021268126
,,,-3.42E-06,0.021356876
,,,-3.41E-06,0.021396251
,,,-3.4E-06,0.021458751
,,,-3.39E-06,0.021247501
,,,-3.38E-06,0.021529376
,,,-3.37E-06,0.021401251
,,,-3.36E-06,0.021208126
,,,-3.35E-06,0.021173751
,,,-3.34E-06,0.021308126
,,,-3.33E-06,0.021408751
,,,-3.32E-06,0.021313751
,,,-3.31E-06,0.021370001
,,,-3.3E-06,0.021455001
,,,-3.29E-06,0.021187501
,,,-3.28E-06,0.021405626
,,,-3.27E-06,0.021126876
,,,-3.26E-06,0.021329376
,,,-3.25E-06,0.021522501
,,,-3.24E-06,0.021206251
,,,-3.23E-06,0.021260001
,,,-3.22E-06,0.021216876
,,,-3.21E-06,0.021035001
,,,-3.2E-06,0.021320626
,,,-3.19E-06,0.021137501
,,,-3.18E-06,0.021508751
,,,-3.17E-06,0.021463126
,,,-3.16E-06,0.021251876
,,,-3.15E-06,0.021085626
,,,-3.14E-06,0.021298126
,,,-3.13E-06,0.021387501
,,,-3.12E-06,0.021400001
,,,-3.11E-06,0.021361251
,,,-3.1E-06,0.021153126
,,,-3.09E-06,0.021233751
,,,-3.08E-06,0.021246876
,,,-3.07E-06,0.021400001
,,,-3.06E-06,0.021157501
,,,-3.05E-06,0.021313126
,,,-3.04E-06,0.021248751
,,,-3.03E-06,0.021351251
,,,-3.02E-06,0.021248126
,,,-3.01E-06,0.021008126
,,,-3E-06,0.021366251
,,,-2.99E-06,0.021522501
,,,-2.98E-06,0.021349376
,,,-2.97E-06,0.021420626
,,,-2.96E-06,0.021330001
,,,-2.95E-06,0.021422501
,,,-2.94E-06,0.021193126
,,,-2.93E-06,0.021255626
,,,-2.92E-06,0.021284376
,,,-2.91E-06,0.021143751
,,,-2.9E-06,0.021186876
,,,-2.89E-06,0.021486251
,,,-2.88E-06,0.021364376
,,,-2.87E-06,0.021291876
,,,-2.86E-06,0.021306876
,,,-2.85E-06,0.021653751
,,,-2.84E-06,0.021378751
,,,-2.83E-06,0.021363751
,,,-2.82E-06,0.021247501
,,,-2.81E-06,0.021329376
,,,-2.8E-06,0.021326251
,,,-2.79E-06,0.021170001
,,,-2.78E-06,0.021512501
,,,-2.77E-06,0.021028126
,,,-2.76E-06,0.021439376
,,,-2.75E-06,0.021469376
,,,-2.74E-06,0.021454376
,,,-2.73E-06,0.021376876
,,,-2.72E-06,0.021200626
,,,-2.71E-06,0.021062501
,,,-2.7E-06,0.021261876
,,,-2.69E-06,0.021330001
,,,-2.68E-06,0.021240626
,,,-2.67E-06,0.021383126
,,,-2.66E-06,0.021309376
,,,-2.65E-06,0.021466876
,,,-2.64E-06,0.021308126
,,,-2.63E-06,0.021215626
,,,-2.62E-06,0.021160626
,,,-2.61E-06,0.021257501
,,,-2.6E-06,0.021145626
,,,-2.59E-06,0.021333751
,,,-2.58E-06,0.021390626
,,,-2.57E-06,0.021164376
,,,-2.56E-06,0.021484376
,,,-2.55E-06,0.021275626
,,,-2.54E-06,0.021265626
,,,-2.53E-06,0.021293751
,,,-2.52E-06,0.021346251
,,,-2.51E-06,0.021180626
,,,-2.5E-06,0.021438751
,,,-2.49E-06,0.021545001
,,,-2.48E-06,0.021611251
,,,-2.47E-06,0.021260001
,,,-2.46E-06,0.021248126
,,,-2.45E-06,0.021321251
,,,-2.44E-06,0.021148751
,,,-2.43E-06,0.021270001
,,,-2.42E-06,0.021211876
,,,-2.41E-06,0.021406251
,,,-2.4E-06,0.021478126
,,,-2.39E-06,0.021272501
,,,-2.38E-06,0.021385626
,,,-2.37E-06,0.021280001
,,,-2.36E-06,0.021170626
,,,-2.35E-06,0.021319376
,,,-2.34E-06,0.021238751
,,,-2.33E-06,0.021391251
,,,-2.32E-06,0.021217501
,,,-2.31E-06,0.021228126
,,,-2.3E-06,0.021410001
,,,-2.29E-06,0.021275001
,,,-2.28E-06,0.021213126
,,,-2.27E-06,0.021123751
,,,-2.26E-06,0.021180626
,,,-2.25E-06,0.021365626
,,,-2.24E-06,0.021351876
,,,-2.23E-06,0.021360001
,,,-2.22E-06,0.021516251
,,,-2.21E-06,0.021228126
,,,-2.2E-06,0.021131251
,,,-2.19E-06,0.021204376
,,,-2.18E-06,0.021501251
,,,-2.17E-06,0.021341251
,,,-2.16E-06,0.021420001
,,,-2.15E-06,0.021390626
,,,-2.14E-06,0.021162501
,,,-2.13E-06,0.021378126
,,,-2.12E-06,0.021406251
,,,-2.11E-06,0.021253751
,,,-2.1E-06,0.021308751
,,,-2.09E-06,0.021381876
,,,-2.08E-06,0.021280626
,,,-2.07E-06,0.021166251
,,,-2.06E-06,0.021458751
,,,-2.05E-06,0.021200001
,,,-2.04E-06,0.021580001
,,,-2.03E-06,0.021218126
,,,-2.02E-06,0.021356876
,,,-2.01E-06,0.021455626
,,,-2E-06,0.021551876
,,,-1.99E-06,0.021176876
,,,-1.98E-06,0.021305001
,,,-1.97E-06,0.021370626
,,,-1.96E-06,0.021280001
,,,-1.95E-06,0.021289376
,,,-1.94E-06,0.021315001
,,,-1.93E-06,0.021504376
,,,-1.92E-06,0.021354376
,,,-1.91E-06,0.021286251
,,,-1.9E-06,0.021391876
,,,-1.89E-06,0.021443751
,,,-1.88E-06,0.021311251
,,,-1.87E-06,0.021288751
,,,-1.86E-06,0.021262501
,,,-1.85E-06,0.021305001
,,,-1.84E-06,0.021236876
,,,-1.83E-06,0.021271251
,,,-1.82E-06,0.021382501
,,,-1.81E-06,0.021276876
,,,-1.8E-06,0.021547501
,,,-1.79E-06,0.021296251
,,,-1.78E-06,0.021141251
,,,-1.77E-06,0.021218751
,,,-1.76E-06,0.021366876
,,,-1.75E-06,0.021452501
,,,-1.74E-06,0.021278751
,,,-1.73E-06,0.021290626
,,,-1.72E-06,0.021310626
,,,-1.71E-06,0.021320626
,,,-1.7E-06,0.021366251
,,,-1.69E-06,0.021288126
,,,-1.68E-06,0.021379376
,,,-1.67E-06,0.021283751
,,,-1.66E-06,0.021427501
,,,-1.65E-06,0.021501251
,,,-1.64E-06,0.021280001
,,,-1.63E-06,0.021325001
,,,-1.62E-06,0.021220001
,,,-1.61E-06,0.021677501
,,,-1.6E-06,0.021301251
,,,-1.59E-06,0.021454376
,,,-1.58E-06,0.021578126
,,,-1.57E-06,0.021406251
,,,-1.56E-06,0.021548126
,,,-1.55E-06,0.021219376
,,,-1.54E-06,0.021039376
,,,-1.53E-06,0.021362501
,,,-1.52E-06,0.021410626
,,,-1.51E-06,0.021181876
,,,-1.5E-06,0.021448751
,,,-1.49E-06,0.021385001
,,,-1.48E-06,0.021387501
,,,-1.47E-06,0.021421876
,,,-1.46E-06,0.021376876
,,,-1.45E-06,0.021301251
,,,-1.44E-06,0.021407501
,,,-1.43E-06,0.021321251
,,,-1.42E-06,0.021519376
,,,-1.41E-06,0.021385626
,,,-1.4E-06,0.021453126
,,,-1.39E-06,0.021395001
,,,-1.38E-06,0.021008126
,,,-1.37E-06,0.021393751
,,,-1.36E-06,0.021145626
,,,-1.35E-06,0.021258751
,,,-1.34E-06,0.021256251
,,,-1.33E-06,0.021295626
,,,-1.32E-06,0.021304376
,,,-1.31E-06,0.021248751
,,,-1.3E-06,0.021061251
,,,-1.29E-06,0.021433126
,,,-1.28E-06,0.021261251
,,,-1.27E-06,0.021369376
,,,-1.26E-06,0.021128751
,,,-1.25E-06,0.021275001
,,,-1.24E-06,0.021119376
,,,-1.23E-06,0.021220001
,,,-1.22E-06,0.021041251
,,,-1.21E-06,0.021358751
,,,-1.2E-06,0.021103751
,,,-1.19E-06,0.021181876
,,,-1.18E-06,0.021435626
,,,-1.17E-06,0.021333751
,,,-1.16E-06,0.021223751
,,,-1.15E-06,0.021270001
,,,-1.14E-06,0.021413126
,,,-1.13E-06,0.021265001
,,,-1.12E-06,0.021435626
,,,-1.11E-06,0.021583126
,,,-1.1E-06,0.021381251
,,,-1.09E-06,0.021271876
,,,-1.08E-06,0.021193751
,,,-1.07E-06,0.021271876
,,,-1.06E-06,0.021274376
,,,-1.05E-06,0.021356876
,,,-1.04E-06,0.021073126
,,,-1.03E-06,0.021320001
,,,-1.02E-06,0.021425626
,,,-1.01E-06,0.021245001
,,,-1E-06,0.021180626
,,,-9.9E-07,0.021320626
,,,-9.8E-07,0.021443126
,,,-9.7E-07,0.021385626
,,,-9.6E-07,0.021561251
,,,-9.5E-07,0.021528126
,,,-9.4E-07,0.021293126
,,,-9.3E-07,0.021287501
,,,-9.2E-07,0.021436251
,,,-9.1E-07,0.021513751
,,,-9E-07,0.021390001
,,,-8.9E-07,0.021183126
,,,-8.8E-07,0.021436876
,,,-8.7E-07,0.021143751
,,,-8.6E-07,0.021315626
,,,-8.5E-07,0.021471876
,,,-8.4E-07,0.021107501
,,,-8.3E-07,0.021166251
,,,-8.2E-07,0.021216251
,,,-8.1E-07,0.021538751
,,,-8E-07,0.021248126
,,,-7.9E-07,0.021203126
,,,-7.8E-07,0.021242501
,,,-7.7E-07,0.021399376
,,,-7.6E-07,0.021303751
,,,-7.5E-07,0.021377501
,,,-7.4E-07,0.021533126
,,,-7.3E-07,0.021142501
,,,-7.2E-07,0.021352501
,,,-7.1E-07,0.021528751
,,,-7E-07,0.021328751
,,,-6.9E-07,0.021275001
,,,-6.8E-07,0.021226251
,,,-6.7E-07,0.021423751
,,,-6.6E-07,0.021300001
,,,-6.5E-07,0.021255001
,,,-6.4E-07,0.021285001
,,,-6.3E-07,0.021288126
,,,-6.2E-07,0.021136876
,,,-6.1E-07,0.021035001
,,,-6E-07,0.021334376
,,,-5.9E-07,0.021845626
,,,-5.8E-07,0.021285626
,,,-5.7E-07,0.021264376
,,,-5.6E-07,0.021050001
,,,-5.5E-07,0.021364376
,,,-5.4E-07,0.021221876
,,,-5.3E-07,0.021382501
,,,-5.2E-07,0.021343751
,,,-5.1E-07,0.021298751
,,,-5E-07,0.021271876
,,,-4.9E-07,0.021143126
,,,-4.8E-07,0.021088751
,,,-4.7E-07,0.021435001
,,,-4.6E-07,0.021668751
,,,-4.5E-07,0.021338126
,,,-4.4E-07,0.021125001
,,,-4.3E-07,0.021300626
,,,-4.2E-07,0.021424376
,,,-4.1E-07,0.021353126
,,,-4E-07,0.021292501
,,,-3.9E-07,0.021115626
,,,-3.8E-07,0.021329376
,,,-3.7E-07,0.021186251
,,,-3.6E-07,0.021363126
,,,-3.5E-07,0.021290001
,,,-3.4E-07,0.021183751
,,,-3.3E-07,0.021623751
,,,-3.2E-07,0.021352501
,,,-3.1E-07,0.021104376
,,,-3E-07,0.021386251
,,,-2.9E-07,0.021188751
,,,-2.8E-07,0.021417501
,,,-2.7E-07,0.021382501
,,,-2.6E-07,0.021228751
,,,-2.5E-07,0.021347501
,,,-2.4E-07,0.021387501
,,,-2.3E-07,0.021518751
,,,-2.2E-07,0.021226876
,,,-2.1E-07,0.021211876
,,,-2E-07,0.021118751
,,,-1.9E-07,0.021326251
,,,-1.8E-07,0.021160001
,,,-1.7E-07,0.021147501
,,,-1.6E-07,0.021492501
,,,-1.5E-07,0.021295001
,,,-1.4E-07,0.021294376
,,,-1.3E-07,0.021298126
,,,-1.2E-07,0.021166876
,,,-1.1E-07,0.021325626
,,,-1E-07,0.021541876
,,,-9E-08,0.021216251
,,,-8E-08,0.021335001
,,,-7E-08,0.021543126
,,,-6E-08,0.021358751
,,,-5E-08,0.021311251
,,,-4E-08,0.021485001
,,,-3E-08,0.020985626
,,,-2E-08,0.021161251
,,,-1E-08,0.020906876
,,,0,0.021801876
,,,1E-08,0.021015626
,,,2E-08,0.021781251
,,,3E-08,0.020911876
,,,4E-08,0.021152501
,,,5E-08,0.021063126
,,,6E-08,0.021391876
,,,7E-08,0.021299376
,,,8E-08,0.021388126
,,,9E-08,0.021200001
,,,1E-07,0.021342501
,,,1.1E-07,0.021430001
,,,1.2E-07,0.021302501
,,,1.3E-07,0.021725001
,,,1.4E-07,0.021322501
,,,1.5E-07,0.021390001
,,,1.6E-07,0.021225626
,,,1.7E-07,0.021366251
,,,1.8E-07,0.021441876
,,,1.9E-07,0.021290626
,,,2E-07,0.021328126
,,,2.1E-07,0.021101876
,,,2.2E-07,0.021371876
,,,2.3E-07,0.021213126
,,,2.4E-07,0.021508126
,,,2.5E-07,0.021270626
,,,2.6E-07,0.021313126
,,,2.7E-07,0.021100001
,,,2.8E-07,0.021318751
,,,2.9E-07,0.021321876
,,,3E-07,0.021488126
,,,3.1E-07,0.021192501
,,,3.2E-07,0.021226876
,,,3.3E-07,0.020957501
,,,3.4E-07,0.021367501
,,,3.5E-07,0.021321876
,,,3.6E-07,0.021060626
,,,3.7E-07,0.021155001
,,,3.8E-07,0.021478751
,,,3.9E-07,0.021381876
,,,4E-07,0.021323751
,,,4.1E-07,0.021496251
,,,4.2E-07,0.021309376
,,,4.3E-07,0.021223751
,,,4.4E-07,0.021137501
,,,4.5E-07,0.021323126
,,,4.6E-07,0.021401876
,,,4.7E-07,0.021341876
,,,4.8E-07,0.021213751
,,,4.9E-07,0.021129376
,,,5E-07,0.021243126
,,,5.1E-07,0.021338126
,,,5.2E-07,0.021476251
,,,5.3E-07,0.021308126
,,,5.4E-07,0.021437501
,,,5.5E-07,0.021366251
,,,5.6E-07,0.021420001
,,,5.7E-07,0.021315626
,,,5.8E-07,0.021211876
,,,5.9E-07,0.021186251
,,,6E-07,0.021318751
,,,6.1E-07,0.021243751
,,,6.2E-07,0.021598751
,,,6.3E-07,0.021231876
,,,6.4E-07,0.021497501
,,,6.5E-07,0.021420626
,,,6.6E-07,0.021318751
,,,6.7E-07,0.021363751
,,,6.8E-07,0.021203751
,,,6.9E-07,0.021100626
,,,7E-07,0.021535626
,,,7.1E-07,0.021109376
,,,7.2E-07,0.021406251
,,,7.3E-07,0.021558751
,,,7.4E-07,0.021314376
,,,7.5E-07,0.021326876
,,,7.6E-07,0.021337501
,,,7.7E-07,0.021331251
,,,7.8E-07,0.021114376
,,,7.9E-07,0.021281876
,,,8E-07,0.021251876
,,,8.1E-07,0.021510001
,,,8.2E-07,0.021515001
,,,8.3E-07,0.021465001
,,,8.4E-07,0.021065626
,,,8.5E-07,0.021279376
,,,8.6E-07,0.021187501
,,,8.7E-07,0.021360001
,,,8.8E-07,0.021014376
,,,8.9E-07,0.021515626
,,,9E-07,0.021460001
,,,9.1E-07,0.021410626
,,,9.2E-07,0.021312501
,,,9.3E-07,0.021420626
,,,9.4E-07,0.021235626
,,,9.5E-07,0.021334376
,,,9.6E-07,0.021380001
,,,9.7E-07,0.021216876
,,,9.8E-07,0.021298126
,,,9.9E-07,0.021326876
,,,1E-06,0.021275626
,,,1.01E-06,0.021281251
,,,1.02E-06,0.021371876
,,,1.03E-06,0.021383751
,,,1.04E-06,0.021520001
,,,1.05E-06,0.021397501
,,,1.06E-06,0.021375626
,,,1.07E-06,0.021276876
,,,1.08E-06,0.021347501
,,,1.09E-06,0.021433126
,,,1.1E-06,0.021475001
,,,1.11E-06,0.021152501
,,,1.12E-06,0.021181251
,,,1.13E-06,0.021550626
,,,1.14E-06,0.021160001
,,,1.15E-06,0.021404376
,,,1.16E-06,0.021386876
,,,1.17E-06,0.021478751
,,,1.18E-06,0.021165001
,,,1.19E-06,0.021251876
,,,1.2E-06,0.021115626
,,,1.21E-06,0.021144376
,,,1.22E-06,0.021185626
,,,1.23E-06,0.021340001
,,,1.24E-06,0.021265001
,,,1.25E-06,0.021438126
,,,1.26E-06,0.021156876
,,,1.27E-06,0.021145626
,,,1.28E-06,0.021436251
,,,1.29E-06,0.021265626
,,,1.3E-06,0.021240626
,,,1.31E-06,0.021361876
,,,1.32E-06,0.021316251
,,,1.33E-06,0.021349376
,,,1.34E-06,0.021174376
,,,1.35E-06,0.021325626
,,,1.36E-06,0.021044376
,,,1.37E-06,0.021270001
,,,1.38E-06,0.021526876
,,,1.39E-06,0.021363751
,,,1.4E-06,0.021455001
,,,1.41E-06,0.021245626
,,,1.42E-06,0.021378751
,,,1.43E-06,0.021403751
,,,1.44E-06,0.021342501
,,,1.45E-06,0.021415626
,,,1.46E-06,0.021418751
,,,1.47E-06,0.021150001
,,,1.48E-06,0.021412501
,,,1.49E-06,0.021191876
,,,1.5E-06,0.021573126
,,,1.51E-06,0.021581876
,,,1.52E-06,0.021120001
,,,1.53E-06,0.021323751
,,,1.54E-06,0.021122501
,,,1.55E-06,0.021297501
,,,1.56E-06,0.021106251
,,,1.57E-06,0.021343751
,,,1.58E-06,0.021241251
,,,1.59E-06,0.021245626
,,,1.6E-06,0.021356251
,,,1.61E-06,0.021321876
,,,1.62E-06,0.021347501
,,,1.63E-06,0.021404376
,,,1.64E-06,0.021506251
,,,1.65E-06,0.021227501
,,,1.66E-06,0.021765001
,,,1.67E-06,0.021345001
,,,1.68E-06,0.021124376
,,,1.69E-06,0.021167501
,,,1.7E-06,0.021279376
,,,1.71E-06,0.021147501
,,,1.72E-06,0.021593126
,,,1.73E-06,0.021442501
,,,1.74E-06,0.021477501
,,,1.75E-06,0.021206251
,,,1.76E-06,0.021303126
,,,1.77E-06,0.021433126
,,,1.78E-06,0.021382501
,,,1.79E-06,0.021354376
,,,1.8E-06,0.021271876
,,,1.81E-06,0.021395001
,,,1.82E-06,0.021457501
,,,1.83E-06,0.021330001
,,,1.84E-06,0.021111251
,,,1.85E-06,0.021226876
,,,1.86E-06,0.021446876
,,,1.87E-06,0.021253126
,,,1.88E-06,0.021490001
,,,1.89E-06,0.021383751
,,,1.9E-06,0.021766251
,,,1.91E-06,0.021418126
,,,1.92E-06,0.021095626
,,,1.93E-06,0.021324376
,,,1.94E-06,0.021353751
,,,1.95E-06,0.021515001
,,,1.96E-06,0.021221876
,,,1.97E-06,0.021458751
,,,1.98E-06,0.021230001
,,,1.99E-06,0.021262501
,,,2E-06,0.020996251
,,,2.01E-06,0.021404376
,,,2.02E-06,0.021457501
,,,2.03E-06,0.021300001
,,,2.04E-06,0.021110626
,,,2.05E-06,0.021251876
,,,2.06E-06,0.021261876
,,,2.07E-06,0.021389376
,,,2.08E-06,0.021321251
,,,2.09E-06,0.021310001
,,,2.1E-06,0.021233751
,,,2.11E-06,0.021483126
,,,2.12E-06,0.021463751
,,,2.13E-06,0.021387501
,,,2.14E-06,0.021286876
,,,2.15E-06,0.021336251
,,,2.16E-06,0.021398126
,,,2.17E-06,0.021323126
,,,2.18E-06,0.021326251
,,,2.19E-06,0.021213126
,,,2.2E-06,0.021249376
,,,2.21E-06,0.021256251
,,,2.22E-06,0.021517501
,,,2.23E-06,0.021235001
,,,2.24E-06,0.021105001
,,,2.25E-06,0.021249376
,,,2.26E-06,0.021147501
,,,2.27E-06,0.021172501
,,,2.28E-06,0.021470001
,,,2.29E-06,0.021381251
,,,2.3E-06,0.021542501
,,,2.31E-06,0.021283751
,,,2.32E-06,0.021511876
,,,2.33E-06,0.021140001
,,,2.34E-06,0.021102501
,,,2.35E-06,0.021325001
,,,2.36E-06,0.021290626
,,,2.37E-06,0.021260001
,,,2.38E-06,0.021213126
,,,2.39E-06,0.021463751
,,,2.4E-06,0.021198126
,,,2.41E-06,0.021251876
,,,2.42E-06,0.021514376
,,,2.43E-06,0.021059376
,,,2.44E-06,0.021183126
,,,2.45E-06,0.021352501
,,,2.46E-06,0.021422501
,,,2.47E-06,0.021168126
,,,2.48E-06,0.021398126
,,,2.49E-06,0.021044376
,,,2.5E-06,0.021121251
,,,2.51E-06,0.021457501
,,,2.52E-06,0.021270626
,,,2.53E-06,0.021143751
,,,2.54E-06,0.021326251
,,,2.55E-06,0.021335001
,,,2.56E-06,0.021441876
,,,2.57E-06,0.021173751
,,,2.58E-06,0.021351876
,,,2.59E-06,0.021352501
,,,2.6E-06,0.021361251
,,,2.61E-06,0.021273751
,,,2.62E-06,0.021425001
,,,2.63E-06,0.021332501
,,,2.64E-06,0.021447501
,,,2.65E-06,0.021187501
,,,2.66E-06,0.021435001
,,,2.67E-06,0.021313126
,,,2.68E-06,0.021249376
,,,2.69E-06,0.021296876
,,,2.7E-06,0.021248126
,,,2.71E-06,0.021597501
,,,2.72E-06,0.021405001
,,,2.73E-06,0.021013126
,,,2.74E-06,0.021217501
,,,2.75E-06,0.021449376
,,,2.76E-06,0.021297501
,,,2.77E-06,0.021320001
,,,2.78E-06,0.021202501
,,,2.79E-06,0.021319376
,,,2.8E-06,0.021371251
,,,2.81E-06,0.021313126
,,,2.82E-06,0.021165626
,,,2.83E-06,0.021250626
,,,2.84E-06,0.021638751
,,,2.85E-06,0.021193751
,,,2.86E-06,0.021472501
,,,2.87E-06,0.021437501
,,,2.88E-06,0.021440626
,,,2.89E-06,0.021245626
,,,2.9E-06,0.021191251
,,,2.91E-06,0.021256251
,,,2.92E-06,0.021476251
,,,2.93E-06,0.021441876
,,,2.94E-06,0.021165626
,,,2.95E-06,0.020853126
,,,2.96E-06,0.021176876
,,,2.97E-06,0.021443751
,,,2.98E-06,0.021339376
,,,2.99E-06,0.021376876
,,,3E-06,0.021283126
,,,3.01E-06,0.021091251
,,,3.02E-06,0.021305001
,,,3.03E-06,0.021533751
,,,3.04E-06,0.021231251
,,,3.05E-06,0.021423126
,,,3.06E-06,0.021480626
,,,3.07E-06,0.021509376
,,,3.08E-06,0.021218751
,,,3.09E-06,0.021616251
,,,3.1E-06,0.021030626
,,,3.11E-06,0.021127501
,,,3.12E-06,0.021633126
,,,3.13E-06,0.021490626
,,,3.14E-06,0.021039376
,,,3.15E-06,0.021434376
,,,3.16E-06,0.021390001
,,,3.17E-06,0.021137501
,,,3.18E-06,0.021302501
,,,3.19E-06,0.021350626
,,,3.2E-06,0.021456876
,,,3.21E-06,0.021538751
