data/raw/Final_POL_Test_1/SOP065_Ch4.csv

"Record Length",1000,"Points",-5E-06,0.02150375
"Sample Interval",1E-08,s,-4.99E-06,0.02172875
"Trigger Point",500,"Samples",-4.98E-06,0.0216475
"Trigger Time",0,s,-4.97E-06,0.021611875
"",,,-4.96E-06,0.02156125
"Horizontal Offset",-5E-06,s,-4.95E-06,0.021378125
,,,-4.94E-06,0.021435
,,,-4.93E-06,0.0216675
,,,-4.92E-06,0.021445
,,,-4.91E-06,0.02165875
,,,-4.9E-06,0.021534375
,,,-4.89E-06,0.021793125
,,,-4.88E-06,0.02147875
,,,-4.87E-06,0.0217875
,,,-4.86E-06,0.021775
,,,-4.85E-06,0.02179375
,,,-4.84E-06,0.021521875
,,,-4.83E-06,0.021605
,,,-4.82E-06,0.02183
,,,-4.81E-06,0.0216
,,,-4.8E-06,0.021624375
,,,-4.79E-06,0.0217675
,,,-4.78E-06,0.021545
,,,-4.77E-06,0.021508125
,,,-4.76E-06,0.02141625
,,,-4.75E-06,0.02157375
,,,-4.74E-06,0.021740625
,,,-4.73E-06,0.021569375
,,,-4.72E-06,0.021778125
,,,-4.71E-06,0.02174875
,,,-4.7E-06,0.021544375
,,,-4.69E-06,0.021628125
,,,-4.68E-06,0.02165875
,,,-4.67E-06,0.02164375
,,,-4.66E-06,0.021574375
,,,-4.65E-06,0.02178
,,,-4.64E-06,0.021725625
,,,-4.63E-06,0.021569375
,,,-4.62E-06,0.021518125
,,,-4.61E-06,0.02142625
,,,-4.6E-06,0.02187875
,,,-4.59E-06,0.02167375
,,,-4.58E-06,0.021735
,,,-4.57E-06,0.021586875
,,,-4.56E-06,0.021675625
,,,-4.55E-06,0.02178125
,,,-4.54E-06,0.02165
,,,-4.53E-06,0.02154
,,,-4.52E-06,0.021649375
,,,-4.51E-06,0.021708125
,,,-4.5E-06,0.02187
,,,-4.49E-06,0.021714375
,,,-4.48E-06,0.02126875
,,,-4.47E-06,0.021605625
,,,-4.46E-06,0.021636875
,,,-4.45E-06,0.021559375
,,,-4.44E-06,0.02151
,,,-4.43E-06,0.0216575
,,,-4.42E-06,0.0215675
,,,-4.41E-06,0.0215775
,,,-4.4E-06,0.0215975
,,,-4.39E-06,0.02188125
,,,-4.38E-06,0.021356875
,,,-4.37E-06,0.02153625
,,,-4.36E-06,0.02160875
,,,-4.35E-06,0.021309375
,,,-4.34E-06,0.0215325
,,,-4.33E-06,0.021744375
,,,-4.32E-06,0.02162
,,,-4.31E-06,0.021850625
,,,-4.3E-06,0.021756875
,,,-4.29E-06,0.021698125
,,,-4.28E-06,0.021630625
,,,-4.27E-06,0.021558125
,,,-4.26E-06,0.02149875
,,,-4.25E-06,0.02146
,,,-4.24E-06,0.02177375
,,,-4.23E-06,0.02164875
,,,-4.22E-06,0.02171625
,,,-4.21E-06,0.021806875
,,,-4.2E-06,0.021609375
,,,-4.19E-06,0.02155125
,,,-4.18E-06,0.021455
,,,-4.17E-06,0.02166
,,,-4.16E-06,0.02159875
,,,-4.15E-06,0.021450625
,,,-4.14E-06,0.021446875
,,,-4.13E-06,0.021690625
,,,-4.12E-06,0.021711875
,,,-4.11E-06,0.0214775
,,,-4.1E-06,0.0214775
,,,-4.09E-06,0.021514375
,,,-4.08E-06,0.0213975
,,,-4.07E-06,0.021559375
,,,-4.06E-06,0.021736875
,,,-4.05E-06,0.02165625
,,,-4.04E-06,0.021480625
,,,-4.03E-06,0.021636875
,,,-4.02E-06,0.021555625
,,,-4.01E-06,0.02153625
,,,-4E-06,0.02170375
,,,-3.99E-06,0.02157375
,,,-3.98E-06,0.02150625
,,,-3.97E-06,0.0216325
,,,-3.96E-06,0.02175375
,,,-3.95E-06,0.021566875
,,,-3.94E-06,0.021426875
,,,-3.93E-06,0.0214875
,,,-3.92E-06,0.021695625
,,,-3.91E-06,0.021589375
,,,-3.9E-06,0.02163
,,,-3.89E-06,0.021556875
,,,-3.88E-06,0.021843125
,,,-3.87E-06,0.02159
,,,-3.86E-06,0.02161625
,,,-3.85E-06,0.021525
,,,-3.84E-06,0.021775625
,,,-3.83E-06,0.0214675
,,,-3.82E-06,0.021603125
,,,-3.81E-06,0.02158125
,,,-3.8E-06,0.021479375
,,,-3.79E-06,0.021688125
,,,-3.78E-06,0.0214675
,,,-3.77E-06,0.021515
,,,-3.76E-06,0.02156375
,,,-3.75E-06,0.021684375
,,,-3.74E-06,0.021586875
,,,-3.73E-06,0.02178875
,,,-3.72E-06,0.0216
,,,-3.71E-06,0.02160125
,,,-3.7E-06,0.02135375
,,,-3.69E-06,0.02146875
,,,-3.68E-06,0.02162875
,,,-3.67E-06,0.0215925
,,,-3.66E-06,0.021909375
,,,-3.65E-06,0.02149375
,,,-3.64E-06,0.021766875
,,,-3.63E-06,0.02166875
,,,-3.62E-06,0.02152875
,,,-3.61E-06,0.0212475
,,,-3.6E-06,0.021706875
,,,-3.59E-06,0.02168
,,,-3.58E-06,0.02172125
,,,-3.57E-06,0.021655
,,,-3.56E-06,0.021996875
,,,-3.55E-06,0.021468125
,,,-3.54E-06,0.0216975
,,,-3.53E-06,0.021629375
,,,-3.52E-06,0.021484375
,,,-3.51E-06,0.021694375
,,,-3.5E-06,0.02157625
,,,-3.49E-06,0.021448125
,,,-3.48E-06,0.02177875
,,,-3.47E-06,0.021620625
,,,-3.46E-06,0.021618125
,,,-3.45E-06,0.021521875
,,,-3.44E-06,0.021658125
,,,-3.43E-06,0.021564375
,,,-3.42E-06,0.021490625
,,,-3.41E-06,0.021601875
,,,-3.4E-06,0.02172625
,,,-3.39E-06,0.0216025
,,,-3.38E-06,0.021441875
,,,-3.37E-06,0.021424375
,,,-3.36E-06,0.021536875
,,,-3.35E-06,0.02164125
,,,-3.34E-06,0.0215875
,,,-3.33E-06,0.0219375
,,,-3.32E-06,0.02153
,,,-3.31E-06,0.02135875
,,,-3.3E-06,0.021459375
,,,-3.29E-06,0.02163
,,,-3.28E-06,0.02157625
,,,-3.27E-06,0.021588125
,,,-3.26E-06,0.02143125
,,,-3.25E-06,0.021618125
,,,-3.24E-06,0.021645625
,,,-3.23E-06,0.02155875
,,,-3.22E-06,0.021734375
,,,-3.21E-06,0.021459375
,,,-3.2E-06,0.021565
,,,-3.19E-06,0.021524375
,,,-3.18E-06,0.02158625
,,,-3.17E-06,0.021634375
,,,-3.16E-06,0.021670625
,,,-3.15E-06,0.021789375
,,,-3.14E-06,0.021428125
,,,-3.13E-06,0.02175375
,,,-3.12E-06,0.02167125
,,,-3.11E-06,0.021591875
,,,-3.1E-06,0.02160125
,,,-3.09E-06,0.02190375
,,,-3.08E-06,0.0216425
,,,-3.07E-06,0.0216925
,,,-3.06E-06,0.0212825
,,,-3.05E-06,0.02140125
,,,-3.04E-06,0.021375
,,,-3.03E-06,0.02132375
,,,-3.02E-06,0.021653125
,,,-3.01E-06,0.021644375
,,,-3E-06,0.02139625
,,,-2.99E-06,0.02154125
,,,-2.98E-06,0.0216725
,,,-2.97E-06,0.021540625
,,,-2.96E-06,0.021429375
,,,-2.95E-06,0.02159375
,,,-2.94E-06,0.0214975
,,,-2.93E-06,0.02159625
,,,-2.92E-06,0.021736875
,,,-2.91E-06,0.02153375
,,,-2.9E-06,0.021586875
,,,-2.89E-06,0.021455
,,,-2.88E-06,0.02160375
,,,-2.87E-06,0.0215775
,,,-2.86E-06,0.021635625
,,,-2.85E-06,0.021548125
,,,-2.84E-06,0.0217825
,,,-2.83E-06,0.02132875
,,,-2.82E-06,0.021650625
,,,-2.81E-06,0.021344375
,,,-2.8E-06,0.021666875
,,,-2.79E-06,0.02150625
,,,-2.78E-06,0.021645625
,,,-2.77E-06,0.0217325
,,,-2.76E-06,0.021735
,,,-2.75E-06,0.02168
,,,-2.74E-06,0.021836875
,,,-2.73E-06,0.021410625
,,,-2.72E-06,0.021445
,,,-2.71E-06,0.02150625
,,,-2.7E-06,0.02152625
,,,-2.69E-06,0.021775625
,,,-2.68E-06,0.021604375
,,,-2.67E-06,0.02155375
,,,-2.66E-06,0.021613125
,,,-2.65E-06,0.021293125
,,,-2.64E-06,0.02160625
,,,-2.63E-06,0.021375625
,,,-2.62E-06,0.021768125
,,,-2.61E-06,0.02146875
,,,-2.6E-06,0.02149125
,,,-2.59E-06,0.0217675
,,,-2.58E-06,0.02173
,,,-2.57E-06,0.02163125
,,,-2.56E-06,0.02171
,,,-2.55E-06,0.02166375
,,,-2.54E-06,0.0215425
,,,-2.53E-06,0.02165375
,,,-2.52E-06,0.021503125
,,,-2.51E-06,0.021788125
,,,-2.5E-06,0.021591875
,,,-2.49E-06,0.02157375
,,,-2.48E-06,0.021559375
,,,-2.47E-06,0.0219825
,,,-2.46E-06,0.02159
,,,-2.45E-06,0.021646875
,,,-2.44E-06,0.021563125
,,,-2.43E-06,0.021676875
,,,-2.42E-06,0.021625625
,,,-2.41E-06,0.0215
,,,-2.4E-06,0.021185625
,,,-2.39E-06,0.021431875
,,,-2.38E-06,0.021395625
,,,-2.37E-06,0.021655
,,,-2.36E-06,0.021591875
,,,-2.35E-06,0.021646875
,,,-2.34E-06,0.02180875
,,,-2.33E-06,0.0216975
,,,-2.32E-06,0.021525
,,,-2.31E-06,0.02166625
,,,-2.3E-06,0.02171375
,,,-2.29E-06,0.021534375
,,,-2.28E-06,0.0214775
,,,-2.27E-06,0.021545625
,,,-2.26E-06,0.021526875
,,,-2.25E-06,0.0217825
,,,-2.24E-06,0.02161875
,,,-2.23E-06,0.02173875
,,,-2.22E-06,0.021685
,,,-2.21E-06,0.021480625
,,,-2.2E-06,0.021365
,,,-2.19E-06,0.02159625
,,,-2.18E-06,0.021770625
,,,-2.17E-06,0.02142875
,,,-2.16E-06,0.02174
,,,-2.15E-06,0.021585
,,,-2.14E-06,0.02141875
,,,-2.13E-06,0.0216875
,,,-2.12E-06,0.02161
,,,-2.11E-06,0.021624375
,,,-2.1E-06,0.021666875
,,,-2.09E-06,0.021604375
,,,-2.08E-06,0.0215725
,,,-2.07E-06,0.02165875
,,,-2.06E-06,0.021365
,,,-2.05E-06,0.021454375
,,,-2.04E-06,0.021626875
,,,-2.03E-06,0.02162625
,,,-2.02E-06,0.02164875
,,,-2.01E-06,0.021629375
,,,-2E-06,0.021655
,,,-1.99E-06,0.021803125
,,,-1.98E-06,0.021620625
,,,-1.97E-06,0.02176875
,,,-1.96E-06,0.0214825
,,,-1.95E-06,0.0218225
,,,-1.94E-06,0.0216425
,,,-1.93E-06,0.021439375
,,,-1.92E-06,0.02177
,,,-1.91E-06,0.021745625
,,,-1.9E-06,0.021436875
,,,-1.89E-06,0.021500625
,,,-1.88E-06,0.021463125
,,,-1.87E-06,0.021525625
,,,-1.86E-06,0.0216225
,,,-1.85E-06,0.021551875
,,,-1.84E-06,0.02152875
,,,-1.83E-06,0.021313125
,,,-1.82E-06,0.021650625
,,,-1.81E-06,0.02166625
,,,-1.8E-06,0.021405625
,,,-1.79E-06,0.021454375
,,,-1.78E-06,0.02150375
,,,-1.77E-06,0.021499375
,,,-1.76E-06,0.021525
,,,-1.75E-06,0.021589375
,,,-1.74E-06,0.0218525
,,,-1.73E-06,0.021555625
,,,-1.72E-06,0.02148875
,,,-1.71E-06,0.021635625
,,,-1.7E-06,0.021734375
,,,-1.69E-06,0.0222175
,,,-1.68E-06,0.02168625
,,,-1.67E-06,0.021699375
,,,-1.66E-06,0.02165
,,,-1.65E-06,0.0215425
,,,-1.64E-06,0.021790625
,,,-1.63E-06,0.021729375
,,,-1.62E-06,0.0215
,,,-1.61E-06,0.021573125
,,,-1.6E-06,0.021534375
,,,-1.59E-06,0.021600625
,,,-1.58E-06,0.0214225
,,,-1.57E-06,0.02146
,,,-1.56E-06,0.021505625
,,,-1.55E-06,0.021488125
,,,-1.54E-06,0.0213875
,,,-1.53E-06,0.021661875
,,,-1.52E-06,0.021516875
,,,-1.51E-06,0.021726875
,,,-1.5E-06,0.021858125
,,,-1.49E-06,0.02171625
,,,-1.48E-06,0.02180125
,,,-1.47E-06,0.0213975
,,,-1.46E-06,0.021603125
,,,-1.45E-06,0.021505625
,,,-1.44E-06,0.021613125
,,,-1.43E-06,0.021438125
,,,-1.42E-06,0.021565
,,,-1.41E-06,0.021544375
,,,-1.4E-06,0.021564375
,,,-1.39E-06,0.0214475
,,,-1.38E-06,0.021755
,,,-1.37E-06,0.02169
,,,-1.36E-06,0.02179375
,,,-1.35E-06,0.021916875
,,,-1.34E-06,0.021608125
,,,-1.33E-06,0.021628125
,,,-1.32E-06,0.021679375
,,,-1.31E-06,0.021748125
,,,-1.3E-06,0.021690625
,,,-1.29E-06,0.021523125
,,,-1.28E-06,0.021525625
,,,-1.27E-06,0.021745625
,,,-1.26E-06,0.02143
,,,-1.25E-06,0.021599375
,,,-1.24E-06,0.021688125
,,,-1.23E-06,0.02155
,,,-1.22E-06,0.021615625
,,,-1.21E-06,0.02168875
,,,-1.2E-06,0.021873125
,,,-1.19E-06,0.021613125
,,,-1.18E-06,0.021569375
,,,-1.17E-06,0.02151625
,,,-1.16E-06,0.0217125
,,,-1.15E-06,0.021645625
,,,-1.14E-06,0.02152875
,,,-1.13E-06,0.021609375
,,,-1.12E-06,0.021448125
,,,-1.11E-06,0.02160875
,,,-1.1E-06,0.02174125
,,,-1.09E-06,0.02165625
,,,-1.08E-06,0.021439375
,,,-1.07E-06,0.02142625
,,,-1.06E-06,0.021549375
,,,-1.05E-06,0.021513125
,,,-1.04E-06,0.021563125
,,,-1.03E-06,0.021726875
,,,-1.02E-06,0.022085
,,,-1.01E-06,0.02191625
,,,-1E-06,0.021570625
,,,-9.9E-07,0.021455625
,,,-9.8E-07,0.02158
,,,-9.7E-07,0.021890625
,,,-9.6E-07,0.021336875
,,,-9.5E-07,0.021711875
,,,-9.4E-07,0.021685625
,,,-9.3E-07,0.021659375
,,,-9.2E-07,0.0217525
,,,-9.1E-07,0.021715
,,,-9E-07,0.021475
,,,-8.9E-07,0.02129625
,,,-8.8E-07,0.021460625
,,,-8.7E-07,0.02181625
,,,-8.6E-07,0.02170625
,,,-8.5E-07,0.021703125
,,,-8.4E-07,0.0215225
,,,-8.3E-07,0.021625
,,,-8.2E-07,0.02152125
,,,-8.1E-07,0.021669375
,,,-8E-07,0.021764375
,,,-7.9E-07,0.0212725
,,,-7.8E-07,0.021525625
,,,-7.7E-07,0.021883125
,,,-7.6E-07,0.021559375
,,,-7.5E-07,0.02161125
,,,-7.4E-07,0.021610625
,,,-7.3E-07,0.02178375
,,,-7.2E-07,0.0216375
,,,-7.1E-07,0.0215825
,,,-7E-07,0.0214
,,,-6.9E-07,0.021540625
,,,-6.8E-07,0.021659375
,,,-6.7E-07,0.02158875
,,,-6.6E-07,0.021495
,,,-6.5E-07,0.021579375
,,,-6.4E-07,0.0217625
,,,-6.3E-07,0.021715
,,,-6.2E-07,0.0215275
,,,-6.1E-07,0.0219475
,,,-6E-07,0.021839375
,,,-5.9E-07,0.021623125
,,,-5.8E-07,0.02153
,,,-5.7E-07,0.02133
,,,-5.6E-07,0.021646875
,,,-5.5E-07,0.021375
,,,-5.4E-07,0.0217825
,,,-5.3E-07,0.021309375
,,,-5.2E-07,0.021648125
,,,-5.1E-07,0.02145125
,,,-5E-07,0.02133625
,,,-4.9E-07,0.021685
,,,-4.8E-07,0.021731875
,,,-4.7E-07,0.021578125
,,,-4.6E-07,0.0216
,,,-4.5E-07,0.02167125
,,,-4.4E-07,0.021643125
,,,-4.3E-07,0.021759375
,,,-4.2E-07,0.021885
,,,-4.1E-07,0.021290625
,,,-4E-07,0.0216375
,,,-3.9E-07,0.021593125
,,,-3.8E-07,0.021581875
,,,-3.7E-07,0.0217825
,,,-3.6E-07,0.02150625
,,,-3.5E-07,0.021808125
,,,-3.4E-07,0.021599375
,,,-3.3E-07,0.021595625
,,,-3.2E-07,0.0218275
,,,-3.1E-07,0.02151875
,,,-3E-07,0.021594375
,,,-2.9E-07,0.0216275
,,,-2.8E-07,0.021655
,,,-2.7E-07,0.02184125
,,,-2.6E-07,0.021606875
,,,-2.5E-07,0.021576875
,,,-2.4E-07,0.021525625
,,,-2.3E-07,0.021515
,,,-2.2E-07,0.021494375
,,,-2.1E-07,0.021790625
,,,-2E-07,0.0219325
,,,-1.9E-07,0.02160875
,,,-1.8E-07,0.021533125
,,,-1.7E-07,0.021449375
,,,-1.6E-07,0.02163875
,,,-1.5E-07,0.02180875
,,,-1.4E-07,0.02161125
,,,-1.3E-07,0.0213
,,,-1.2E-07,0.02186
,,,-1.1E-07,0.021661875
,,,-1E-07,0.021754375
,,,-9E-08,0.021586875
,,,-8E-08,0.0219125
,,,-7E-08,0.021624375
,,,-6E-08,0.021461875
,,,-5E-08,0.0218
,,,-4E-08,0.0225075
,,,-3E-08,0.0227025
,,,-2E-08,0.020004375
,,,-1E-08,0.0181225
,,,0,0.019329375
,,,1E-08,0.02429875
,,,2E-08,0.025688125
,,,3E-08,0.02461125
,,,4E-08,0.020588125
,,,5E-08,0.018831875
,,,6E-08,0.01879125
,,,7E-08,0.02065625
,,,8E-08,0.02268
,,,9E-08,0.023564375
,,,1E-07,0.023424375
,,,1.1E-07,0.022449375
,,,1.2E-07,0.02067625
,,,1.3E-07,0.019700625
,,,1.4E-07,0.02117
,,,1.5E-07,0.0217575
,,,1.6E-07,0.022274375
,,,1.7E-07,0.02197625
,,,1.8E-07,0.0217425
,,,1.9E-07,0.021624375
,,,2E-07,0.0216525
,,,2.1E-07,0.0213325
,,,2.2E-07,0.0215625
,,,2.3E-07,0.0216425
,,,2.4E-07,0.021800625
,,,2.5E-07,0.021624375
,,,2.6E-07,0.0214825
,,,2.7E-07,0.0215475
,,,2.8E-07,0.021478125
,,,2.9E-07,0.02155625
,,,3E-07,0.021504375
,,,3.1E-07,0.02150375
,,,3.2E-07,0.02179625
,,,3.3E-07,0.02162125
,,,3.4E-07,0.0218025
,,,3.5E-07,0.021511875
,,,3.6E-07,0.02161375
,,,3.7E-07,0.021696875
,,,3.8E-07,0.021563125
,,,3.9E-07,0.02160875
,,,4E-07,0.021885
,,,4.1E-07,0.021471875
,,,4.2E-07,0.021678125
,,,4.3E-07,0.021550625
,,,4.4E-07,0.021445
,,,4.5E-07,0.02161625
,,,4.6E-07,0.0216825
,,,4.7E-07,0.02144875
,,,4.8E-07,0.02138875
,,,4.9E-07,0.02184375
,,,5E-07,0.02158625
,,,5.1E-07,0.02157
,,,5.2E-07,0.0214725
,,,5.3E-07,0.021565625
,,,5.4E-07,0.021368125
,,,5.5E-07,0.0215025
,,,5.6E-07,0.021534375
,,,5.7E-07,0.02175125
,,,5.8E-07,0.02165625
,,,5.9E-07,0.021446875
,,,6E-07,0.021584375
,,,6.1E-07,0.02136
,,,6.2E-07,0.0213475
,,,6.3E-07,0.021665
,,,6.4E-07,0.021691875
,,,6.5E-07,0.021664375
,,,6.6E-07,0.0212875
,,,6.7E-07,0.02153375
,,,6.8E-07,0.021539375
,,,6.9E-07,0.0217625
,,,7E-07,0.021670625
,,,7.1E-07,0.021506875
,,,7.2E-07,0.02155125
,,,7.3E-07,0.021546875
,,,7.4E-07,0.0215375
,,,7.5E-07,0.0217675
,,,7.6E-07,0.021733125
,,,7.7E-07,0.021718125
,,,7.8E-07,0.021475625
,,,7.9E-07,0.021470625
,,,8E-07,0.021500625
,,,8.1E-07,0.021589375
,,,8.2E-07,0.0213725
,,,8.3E-07,0.02159125
,,,8.4E-07,0.0216225
,,,8.5E-07,0.021410625
,,,8.6E-07,0.02167375
,,,8.7E-07,0.02173625
,,,8.8E-07,0.02148125
,,,8.9E-07,0.021565
,,,9E-07,0.021674375
,,,9.1E-07,0.02167125
,,,9.2E-07,0.02149125
,,,9.3E-07,0.021635
,,,9.4E-07,0.02155875
,,,9.5E-07,0.02157125
,,,9.6E-07,0.021683125
,,,9.7E-07,0.021659375
,,,9.8E-07,0.0217875
,,,9.9E-07,0.022001875
,,,1E-06,0.021700625
,,,1.01E-06,0.021573125
,,,1.02E-06,0.021834375
,,,1.03E-06,0.021428125
,,,1.04E-06,0.021691875
,,,1.05E-06,0.02157
,,,1.06E-06,0.021846875
,,,1.07E-06,0.021725625
,,,1.08E-06,0.02198
,,,1.09E-06,0.021813125
,,,1.1E-06,0.02157625
,,,1.11E-06,0.02160375
,,,1.12E-06,0.02148875
,,,1.13E-06,0.02142875
,,,1.14E-06,0.021696875
,,,1.15E-06,0.02179375
,,,1.16E-06,0.021853125
,,,1.17E-06,0.02175
,,,1.18E-06,0.02192875
,,,1.19E-06,0.021384375
,,,1.2E-06,0.02141
,,,1.21E-06,0.021575625
,,,1.22E-06,0.021656875
,,,1.23E-06,0.02155375
,,,1.24E-06,0.021670625
,,,1.25E-06,0.021594375
,,,1.26E-06,0.021779375
,,,1.27E-06,0.021476875
,,,1.28E-06,0.0214425
,,,1.29E-06,0.0217025
,,,1.3E-06,0.021415
,,,1.31E-06,0.0216575
,,,1.32E-06,0.021773125
,,,1.33E-06,0.021686875
,,,1.34E-06,0.021685
,,,1.35E-06,0.021834375
,,,1.36E-06,0.021470625
,,,1.37E-06,0.0217375
,,,1.38E-06,0.02156625
,,,1.39E-06,0.02150875
,,,1.4E-06,0.021790625
,,,1.41E-06,0.021566875
,,,1.42E-06,0.021495625
,,,1.43E-06,0.021689375
,,,1.44E-06,0.021726875
,,,1.45E-06,0.021680625
,,,1.46E-06,0.021560625
,,,1.47E-06,0.021679375
,,,1.48E-06,0.0217075
,,,1.49E-06,0.0216425
,,,1.5E-06,0.021519375
,,,1.51E-06,0.02150625
,,,1.52E-06,0.021554375
,,,1.53E-06,0.021474375
,,,1.54E-06,0.021575625
,,,1.55E-06,0.02157125
,,,1.56E-06,0.02158125
,,,1.57E-06,0.021791875
,,,1.58E-06,0.021385625
,,,1.59E-06,0.021604375
,,,1.6E-06,0.021293125
,,,1.61E-06,0.021635
,,,1.62E-06,0.02149375
,,,1.63E-06,0.021785625
,,,1.64E-06,0.021618125
,,,1.65E-06,0.021685625
,,,1.66E-06,0.021589375
,,,1.67E-06,0.02176375
,,,1.68E-06,0.021615625
,,,1.69E-06,0.0217375
,,,1.7E-06,0.0216
,,,1.71E-06,0.0215325
,,,1.72E-06,0.0217675
,,,1.73E-06,0.02135625
,,,1.74E-06,0.021488125
,,,1.75E-06,0.021555625
,,,1.76E-06,0.021700625
,,,1.77E-06,0.021895
,,,1.78E-06,0.02156875
,,,1.79E-06,0.021801875
,,,1.8E-06,0.021644375
,,,1.81E-06,0.02155125
,,,1.82E-06,0.02151625
,,,1.83E-06,0.02199875
,,,1.84E-06,0.021681875
,,,1.85E-06,0.0216
,,,1.86E-06,0.021501875
,,,1.87E-06,0.021520625
,,,1.88E-06,0.021531875
,,,1.89E-06,0.02159625
,,,1.9E-06,0.02177
,,,1.91E-06,0.021613125
,,,1.92E-06,0.021413125
,,,1.93E-06,0.021635
,,,1.94E-06,0.021560625
,,,1.95E-06,0.021563125
,,,1.96E-06,0.02158375
,,,1.97E-06,0.021566875
,,,1.98E-06,0.0217
,,,1.99E-06,0.021543125
,,,2E-06,0.02152
,,,2.01E-06,0.02154875
,,,2.02E-06,0.021468125
,,,2.03E-06,0.02154
,,,2.04E-06,0.021725625
,,,2.05E-06,0.021844375
,,,2.06E-06,0.021778125
,,,2.07E-06,0.0212375
,,,2.08E-06,0.021625
,,,2.09E-06,0.0216
,,,2.1E-06,0.02159
,,,2.11E-06,0.02156375
,,,2.12E-06,0.02165375
,,,2.13E-06,0.0217
,,,2.14E-06,0.021481875
,,,2.15E-06,0.021688125
,,,2.16E-06,0.021674375
,,,2.17E-06,0.021503125
,,,2.18E-06,0.0212525
,,,2.19E-06,0.021670625
,,,2.2E-06,0.021459375
,,,2.21E-06,0.02151
,,,2.22E-06,0.0214875
,,,2.23E-06,0.021833125
,,,2.24E-06,0.021664375
,,,2.25E-06,0.021565
,,,2.26E-06,0.02144
,,,2.27E-06,0.0215
,,,2.28E-06,0.021630625
,,,2.29E-06,0.02173125
,,,2.3E-06,0.021619375
,,,2.31E-06,0.021628125
,,,2.32E-06,0.02169625
,,,2.33E-06,0.0217825
,,,2.34E-06,0.021584375
,,,2.35E-06,0.021385
,,,2.36E-06,0.02164
,,,2.37E-06,0.0215525
,,,2.38E-06,0.021520625
,,,2.39E-06,0.021429375
,,,2.4E-06,0.021870625
,,,2.41E-06,0.02178125
,,,2.42E-06,0.021671875
,,,2.43E-06,0.02131875
,,,2.44E-06,0.021669375
,,,2.45E-06,0.021790625
,,,2.46E-06,0.021645
,,,2.47E-06,0.02163875
,,,2.48E-06,0.021765625
,,,2.49E-06,0.021835625
,,,2.5E-06,0.021409375
,,,2.51E-06,0.0217175
,,,2.52E-06,0.02151125
,,,2.53E-06,0.02139
,,,2.54E-06,0.021488125
,,,2.55E-06,0.02165625
,,,2.56E-06,0.021601875
,,,2.57E-06,0.021738125
,,,2.58E-06,0.021578125
,,,2.59E-06,0.0218175
,,,2.6E-06,0.021538125
,,,2.61E-06,0.0216175
,,,2.62E-06,0.02149625
,,,2.63E-06,0.021553125
,,,2.64E-06,0.02163875
,,,2.65E-06,0.021710625
,,,2.66E-06,0.02154875
,,,2.67E-06,0.02133875
,,,2.68E-06,0.021611875
,,,2.69E-06,0.021590625
,,,2.7E-06,0.0217475
,,,2.71E-06,0.02163
,,,2.72E-06,0.02183
,,,2.73E-06,0.021595
,,,2.74E-06,0.0215575
,,,2.75E-06,0.02154375
,,,2.76E-06,0.021688125
,,,2.77E-06,0.0216425
,,,2.78E-06,0.02170125
,,,2.79E-06,0.021486875
,,,2.8E-06,0.02155125
,,,2.81E-06,0.0214875
,,,2.82E-06,0.021625
,,,2.83E-06,0.021740625
,,,2.84E-06,0.021315
,,,2.85E-06,0.021604375
,,,2.86E-06,0.02165125
,,,2.87E-06,0.021588125
,,,2.88E-06,0.02167375
,,,2.89E-06,0.021708125
,,,2.9E-06,0.021495
,,,2.91E-06,0.02168125
,,,2.92E-06,0.02163
,,,2.93E-06,0.021525
,,,2.94E-06,0.021646875
,,,2.95E-06,0.02149875
,,,2.96E-06,0.021635625
,,,2.97E-06,0.021633125
,,,2.98E-06,0.021580625
,,,2.99E-06,0.02178125
,,,3E-06,0.021575
,,,3.01E-06,0.02184875
,,,3.02E-06,0.0216375
,,,3.03E-06,0.02166125
,,,3.04E-06,0.021526875
,,,3.05E-06,0.021688125
,,,3.06E-06,0.02164125
,,,3.07E-06,0.02180375
,,,3.08E-06,0.021631875
,,,3.09E-06,0.0216625
,,,3.1E-06,0.02184875
,,,3.11E-06,0.02147875
,,,3.12E-06,0.021595625
,,,3.13E-06,0.0216025
,,,3.14E-06,0.02167625
,,,3.15E-06,0.021508125
,,,3.16E-06,0.021459375
,,,3.17E-06,0.02161375
,,,3.18E-06,0.0216925
,,,3.19E-06,0.02157625
,,,3.2E-06,0.02173875
,,,3.21E-06,0.021588125
,,,3.22E-06,0.02167625
,,,3.23E-06,0.02146625
,,,3.24E-06,0.02157625
,,,3.25E-06,0.021585625
,,,3.26E-06,0.021516875
,,,3.27E-06,0.02149125
,,,3.28E-06,0.021608125
,,,3.29E-06,0.021769375
,,,3.3E-06,0.02143125
,,,3.31E-06,0.021970625
,,,3.32E-06,0.021748125
,,,3.33E-06,0.021605
,,,3.34E-06,0.021489375
,,,3.35E-06,0.021395
,,,3.36E-06,0.02161625
,,,3.37E-06,0.021675625
,,,3.38E-06,0.021660625
,,,3.39E-06,0.021683125
,,,3.4E-06,0.021773125
,,,3.41E-06,0.02181
,,,3.42E-06,0.0217475
,,,3.43E-06,0.021526875
,,,3.44E-06,0.02147625
,,,3.45E-06,0.021646875
,,,3.46E-06,0.021743125
,,,3.47E-06,0.02164625
,,,3.48E-06,0.02166375
,,,3.49E-06,0.021601875
,,,3.5E-06,0.021254375
,,,3.51E-06,0.021581875
,,,3.52E-06,0.021671875
,,,3.53E-06,0.0216325
,,,3.54E-06,0.021665
,,,3.55E-06,0.021723125
,,,3.56E-06,0.021629375
,,,3.57E-06,0.02162375
,,,3.58E-06,0.02135875
