data/raw/Final_POL_Test_1/SOP055_Ch3.csv

"Record Length",1000,"Points",-5E-06,0.017377501
"Sample Interval",1E-08,s,-4.99E-06,0.017244376
"Trigger Point",500,"Samples",-4.98E-06,0.017068751
"Trigger Time",0,s,-4.97E-06,0.017178126
"",,,-4.96E-06,0.017205626
"Horizontal Offset",-5E-06,s,-4.95E-06,0.017188126
,,,-4.94E-06,0.017183751
,,,-4.93E-06,0.017048751
,,,-4.92E-06,0.016888751
,,,-4.91E-06,0.016926251
,,,-4.9E-06,0.017149376
,,,-4.89E-06,0.016995626
,,,-4.88E-06,0.017143751
,,,-4.87E-06,0.017355626
,,,-4.86E-06,0.017179376
,,,-4.85E-06,0.017160626
,,,-4.84E-06,0.017244376
,,,-4.83E-06,0.016888126
,,,-4.82E-06,0.016971876
,,,-4.81E-06,0.017078126
,,,-4.8E-06,0.017116251
,,,-4.79E-06,0.017058126
,,,-4.78E-06,0.016870001
,,,-4.77E-06,0.017013751
,,,-4.76E-06,0.017088126
,,,-4.75E-06,0.017098126
,,,-4.74E-06,0.017020001
,,,-4.73E-06,0.017161251
,,,-4.72E-06,0.017047501
,,,-4.71E-06,0.016964376
,,,-4.7E-06,0.017026876
,,,-4.69E-06,0.017053751
,,,-4.68E-06,0.017268126
,,,-4.67E-06,0.017138751
,,,-4.66E-06,0.016798751
,,,-4.65E-06,0.017081876
,,,-4.64E-06,0.017128126
,,,-4.63E-06,0.016988126
,,,-4.62E-06,0.017155001
,,,-4.61E-06,0.017062501
,,,-4.6E-06,0.016907501
,,,-4.59E-06,0.017311251
,,,-4.58E-06,0.017281876
,,,-4.57E-06,0.017039376
,,,-4.56E-06,0.017005001
,,,-4.55E-06,0.016985001
,,,-4.54E-06,0.016972501
,,,-4.53E-06,0.017256251
,,,-4.52E-06,0.017078126
,,,-4.51E-06,0.017010001
,,,-4.5E-06,0.017205001
,,,-4.49E-06,0.017187501
,,,-4.48E-06,0.017210001
,,,-4.47E-06,0.016920001
,,,-4.46E-06,0.017267501
,,,-4.45E-06,0.017241876
,,,-4.44E-06,0.016950626
,,,-4.43E-06,0.016925626
,,,-4.42E-06,0.017291876
,,,-4.41E-06,0.017190001
,,,-4.4E-06,0.017190626
,,,-4.39E-06,0.016965001
,,,-4.38E-06,0.016944376
,,,-4.37E-06,0.017185001
,,,-4.36E-06,0.017036876
,,,-4.35E-06,0.017141876
,,,-4.34E-06,0.016887501
,,,-4.33E-06,0.017343751
,,,-4.32E-06,0.017067501
,,,-4.31E-06,0.017025001
,,,-4.3E-06,0.017017501
,,,-4.29E-06,0.016985626
,,,-4.28E-06,0.017177501
,,,-4.27E-06,0.017207501
,,,-4.26E-06,0.016993126
,,,-4.25E-06,0.017028751
,,,-4.24E-06,0.017262501
,,,-4.23E-06,0.016901876
,,,-4.22E-06,0.017127501
,,,-4.21E-06,0.017152501
,,,-4.2E-06,0.017071876
,,,-4.19E-06,0.016955626
,,,-4.18E-06,0.017132501
,,,-4.17E-06,0.017330001
,,,-4.16E-06,0.017191876
,,,-4.15E-06,0.017151876
,,,-4.14E-06,0.016926251
,,,-4.13E-06,0.017018126
,,,-4.12E-06,0.017273751
,,,-4.11E-06,0.016968126
,,,-4.1E-06,0.017077501
,,,-4.09E-06,0.016814376
,,,-4.08E-06,0.017080001
,,,-4.07E-06,0.017215626
,,,-4.06E-06,0.017092501
,,,-4.05E-06,0.017288751
,,,-4.04E-06,0.017336876
,,,-4.03E-06,0.017095001
,,,-4.02E-06,0.017122501
,,,-4.01E-06,0.016824376
,,,-4E-06,0.017124376
,,,-3.99E-06,0.017024376
,,,-3.98E-06,0.016916251
,,,-3.97E-06,0.017231876
,,,-3.96E-06,0.016911251
,,,-3.95E-06,0.017165001
,,,-3.94E-06,0.017363126
,,,-3.93E-06,0.017177501
,,,-3.92E-06,0.017116251
,,,-3.91E-06,0.017009376
,,,-3.9E-06,0.017173751
,,,-3.89E-06,0.016920626
,,,-3.88E-06,0.017266251
,,,-3.87E-06,0.016992501
,,,-3.86E-06,0.017155626
,,,-3.85E-06,0.017125001
,,,-3.84E-06,0.017103751
,,,-3.83E-06,0.017050626
,,,-3.82E-06,0.017158126
,,,-3.81E-06,0.016970001
,,,-3.8E-06,0.017365001
,,,-3.79E-06,0.017100626
,,,-3.78E-06,0.017146876
,,,-3.77E-06,0.017169376
,,,-3.76E-06,0.017083126
,,,-3.75E-06,0.016888126
,,,-3.74E-06,0.016942501
,,,-3.73E-06,0.017123751
,,,-3.72E-06,0.016930001
,,,-3.71E-06,0.017278126
,,,-3.7E-06,0.016938126
,,,-3.69E-06,0.017209376
,,,-3.68E-06,0.017121876
,,,-3.67E-06,0.017343126
,,,-3.66E-06,0.017044376
,,,-3.65E-06,0.017081876
,,,-3.64E-06,0.017340626
,,,-3.63E-06,0.016971251
,,,-3.62E-06,0.016812501
,,,-3.61E-06,0.016963751
,,,-3.6E-06,0.016821251
,,,-3.59E-06,0.017089376
,,,-3.58E-06,0.016890626
,,,-3.57E-06,0.017012501
,,,-3.56E-06,0.017133126
,,,-3.55E-06,0.017338126
,,,-3.54E-06,0.016972501
,,,-3.53E-06,0.017226251
,,,-3.52E-06,0.017080001
,,,-3.51E-06,0.017064376
,,,-3.5E-06,0.017195626
,,,-3.49E-06,0.016971876
,,,-3.48E-06,0.017045001
,,,-3.47E-06,0.017328751
,,,-3.46E-06,0.017023126
,,,-3.45E-06,0.016968751
,,,-3.44E-06,0.016843751
,,,-3.43E-06,0.017138751
,,,-3.42E-06,0.017316251
,,,-3.41E-06,0.017286876
,,,-3.4E-06,0.017023751
,,,-3.39E-06,0.017198126
,,,-3.38E-06,0.017008126
,,,-3.37E-06,0.016836251
,,,-3.36E-06,0.016921876
,,,-3.35E-06,0.017144376
,,,-3.34E-06,0.016793751
,,,-3.33E-06,0.017255626
,,,-3.32E-06,0.017205001
,,,-3.31E-06,0.017180001
,,,-3.3E-06,0.016888126
,,,-3.29E-06,0.017046876
,,,-3.28E-06,0.017110626
,,,-3.27E-06,0.017188751
,,,-3.26E-06,0.017220626
,,,-3.25E-06,0.017002501
,,,-3.24E-06,0.017231876
,,,-3.23E-06,0.017067501
,,,-3.22E-06,0.017063126
,,,-3.21E-06,0.016908126
,,,-3.2E-06,0.017195001
,,,-3.19E-06,0.017244376
,,,-3.18E-06,0.017183751
,,,-3.17E-06,0.017108751
,,,-3.16E-06,0.017113126
,,,-3.15E-06,0.017199376
,,,-3.14E-06,0.017228751
,,,-3.13E-06,0.017238751
,,,-3.12E-06,0.017285001
,,,-3.11E-06,0.017097501
,,,-3.1E-06,0.017121251
,,,-3.09E-06,0.017171876
,,,-3.08E-06,0.017280001
,,,-3.07E-06,0.016966251
,,,-3.06E-06,0.017013751
,,,-3.05E-06,0.016967501
,,,-3.04E-06,0.017080626
,,,-3.03E-06,0.017158751
,,,-3.02E-06,0.017171876
,,,-3.01E-06,0.017303126
,,,-3E-06,0.016786251
,,,-2.99E-06,0.016920001
,,,-2.98E-06,0.017435001
,,,-2.97E-06,0.016968751
,,,-2.96E-06,0.017098751
,,,-2.95E-06,0.017103751
,,,-2.94E-06,0.017141251
,,,-2.93E-06,0.017110626
,,,-2.92E-06,0.017386876
,,,-2.91E-06,0.016740001
,,,-2.9E-06,0.016935001
,,,-2.89E-06,0.016783126
,,,-2.88E-06,0.017204376
,,,-2.87E-06,0.017035626
,,,-2.86E-06,0.016945001
,,,-2.85E-06,0.016918126
,,,-2.84E-06,0.017152501
,,,-2.83E-06,0.017158126
,,,-2.82E-06,0.016990001
,,,-2.81E-06,0.017057501
,,,-2.8E-06,0.016891876
,,,-2.79E-06,0.017043126
,,,-2.78E-06,0.017181876
,,,-2.77E-06,0.016981251
,,,-2.76E-06,0.017084376
,,,-2.75E-06,0.017305001
,,,-2.74E-06,0.017254376
,,,-2.73E-06,0.017212501
,,,-2.72E-06,0.017106876
,,,-2.71E-06,0.016922501
,,,-2.7E-06,0.017200626
,,,-2.69E-06,0.017212501
,,,-2.68E-06,0.016917501
,,,-2.67E-06,0.017191876
,,,-2.66E-06,0.017103126
,,,-2.65E-06,0.017112501
,,,-2.64E-06,0.016941251
,,,-2.63E-06,0.017178126
,,,-2.62E-06,0.017386876
,,,-2.61E-06,0.017061251
,,,-2.6E-06,0.017090001
,,,-2.59E-06,0.017166876
,,,-2.58E-06,0.017251876
,,,-2.57E-06,0.017053126
,,,-2.56E-06,0.017202501
,,,-2.55E-06,0.016954376
,,,-2.54E-06,0.017128751
,,,-2.53E-06,0.016888126
,,,-2.52E-06,0.017106251
,,,-2.51E-06,0.016947501
,,,-2.5E-06,0.017150626
,,,-2.49E-06,0.017292501
,,,-2.48E-06,0.017083126
,,,-2.47E-06,0.016881876
,,,-2.46E-06,0.017155001
,,,-2.45E-06,0.017007501
,,,-2.44E-06,0.017073751
,,,-2.43E-06,0.017061251
,,,-2.42E-06,0.017062501
,,,-2.41E-06,0.016985001
,,,-2.4E-06,0.017192501
,,,-2.39E-06,0.017069376
,,,-2.38E-06,0.016904376
,,,-2.37E-06,0.017115001
,,,-2.36E-06,0.017020626
,,,-2.35E-06,0.017011251
,,,-2.34E-06,0.016981876
,,,-2.33E-06,0.017021251
,,,-2.32E-06,0.016988126
,,,-2.31E-06,0.016935626
,,,-2.3E-06,0.017075626
,,,-2.29E-06,0.016941876
,,,-2.28E-06,0.017178126
,,,-2.27E-06,0.017151876
,,,-2.26E-06,0.017131876
,,,-2.25E-06,0.017006876
,,,-2.24E-06,0.016938126
,,,-2.23E-06,0.017006251
,,,-2.22E-06,0.017031876
,,,-2.21E-06,0.017125626
,,,-2.2E-06,0.017255001
,,,-2.19E-06,0.017090001
,,,-2.18E-06,0.017139376
,,,-2.17E-06,0.016977501
,,,-2.16E-06,0.017052501
,,,-2.15E-06,0.017100001
,,,-2.14E-06,0.016968751
,,,-2.13E-06,0.017151251
,,,-2.12E-06,0.017213751
,,,-2.11E-06,0.016865626
,,,-2.1E-06,0.016937501
,,,-2.09E-06,0.017352501
,,,-2.08E-06,0.017175626
,,,-2.07E-06,0.017243751
,,,-2.06E-06,0.016890001
,,,-2.05E-06,0.017213751
,,,-2.04E-06,0.016963751
,,,-2.03E-06,0.017241251
,,,-2.02E-06,0.017357501
,,,-2.01E-06,0.017161876
,,,-2E-06,0.017040626
,,,-1.99E-06,0.017173751
,,,-1.98E-06,0.017143751
,,,-1.97E-06,0.016917501
,,,-1.96E-06,0.017132501
,,,-1.95E-06,0.016892501
,,,-1.94E-06,0.016895001
,,,-1.93E-06,0.017039376
,,,-1.92E-06,0.016992501
,,,-1.91E-06,0.017025001
,,,-1.9E-06,0.017028126
,,,-1.89E-06,0.017210626
,,,-1.88E-06,0.017121876
,,,-1.87E-06,0.016807501
,,,-1.86E-06,0.016990001
,,,-1.85E-06,0.017180001
,,,-1.84E-06,0.017145001
,,,-1.83E-06,0.016867501
,,,-1.82E-06,0.017166251
,,,-1.81E-06,0.017021251
,,,-1.8E-06,0.017142501
,,,-1.79E-06,0.017181876
,,,-1.78E-06,0.017235626
,,,-1.77E-06,0.017025626
,,,-1.76E-06,0.017272501
,,,-1.75E-06,0.017234376
,,,-1.74E-06,0.017109376
,,,-1.73E-06,0.017055626
,,,-1.72E-06,0.017070001
,,,-1.71E-06,0.017205001
,,,-1.7E-06,0.016953751
,,,-1.69E-06,0.017011251
,,,-1.68E-06,0.016828751
,,,-1.67E-06,0.017136251
,,,-1.66E-06,0.017046251
,,,-1.65E-06,0.017003751
,,,-1.64E-06,0.017083751
,,,-1.63E-06,0.016866251
,,,-1.62E-06,0.016995001
,,,-1.61E-06,0.016962501
,,,-1.6E-06,0.016917501
,,,-1.59E-06,0.017045001
,,,-1.58E-06,0.017277501
,,,-1.57E-06,0.017006251
,,,-1.56E-06,0.017031876
,,,-1.55E-06,0.017116251
,,,-1.54E-06,0.017012501
,,,-1.53E-06,0.017163126
,,,-1.52E-06,0.017176876
,,,-1.51E-06,0.016938126
,,,-1.5E-06,0.016943126
,,,-1.49E-06,0.017398751
,,,-1.48E-06,0.017235626
,,,-1.47E-06,0.016982501
,,,-1.46E-06,0.017152501
,,,-1.45E-06,0.017183126
,,,-1.44E-06,0.016831876
,,,-1.43E-06,0.017130001
,,,-1.42E-06,0.017321251
,,,-1.41E-06,0.016992501
,,,-1.4E-06,0.016890626
,,,-1.39E-06,0.017183126
,,,-1.38E-06,0.017046876
,,,-1.37E-06,0.017089376
,,,-1.36E-06,0.017032501
,,,-1.35E-06,0.017151251
,,,-1.34E-06,0.017201251
,,,-1.33E-06,0.017138126
,,,-1.32E-06,0.017045626
,,,-1.31E-06,0.017035001
,,,-1.3E-06,0.017352501
,,,-1.29E-06,0.017040626
,,,-1.28E-06,0.017261876
,,,-1.27E-06,0.016801251
,,,-1.26E-06,0.017026251
,,,-1.25E-06,0.017320626
,,,-1.24E-06,0.016939376
,,,-1.23E-06,0.017045001
,,,-1.22E-06,0.017191251
,,,-1.21E-06,0.016841876
,,,-1.2E-06,0.016911876
,,,-1.19E-06,0.017179376
,,,-1.18E-06,0.017100001
,,,-1.17E-06,0.017178751
,,,-1.16E-06,0.017061876
,,,-1.15E-06,0.016940626
,,,-1.14E-06,0.016884376
,,,-1.13E-06,0.016940626
,,,-1.12E-06,0.016988126
,,,-1.11E-06,0.017133126
,,,-1.1E-06,0.017003751
,,,-1.09E-06,0.017240001
,,,-1.08E-06,0.017085626
,,,-1.07E-06,0.016963751
,,,-1.06E-06,0.017055626
,,,-1.05E-06,0.017186251
,,,-1.04E-06,0.017091876
,,,-1.03E-06,0.017188126
,,,-1.02E-06,0.017196251
,,,-1.01E-06,0.017054376
,,,-1E-06,0.017003751
,,,-9.9E-07,0.017031876
,,,-9.8E-07,0.017141251
,,,-9.7E-07,0.017106251
,,,-9.6E-07,0.017155001
,,,-9.5E-07,0.016873751
,,,-9.4E-07,0.016886876
,,,-9.3E-07,0.017130626
,,,-9.2E-07,0.017224376
,,,-9.1E-07,0.017059376
,,,-9E-07,0.016980626
,,,-8.9E-07,0.017143751
,,,-8.8E-07,0.017038126
,,,-8.7E-07,0.017250001
,,,-8.6E-07,0.017220001
,,,-8.5E-07,0.017112501
,,,-8.4E-07,0.017272501
,,,-8.3E-07,0.016928751
,,,-8.2E-07,0.017130626
,,,-8.1E-07,0.017114376
,,,-8E-07,0.016925001
,,,-7.9E-07,0.017018751
,,,-7.8E-07,0.017131251
,,,-7.7E-07,0.017131251
,,,-7.6E-07,0.017076251
,,,-7.5E-07,0.016853126
,,,-7.4E-07,0.016843751
,,,-7.3E-07,0.017021876
,,,-7.2E-07,0.017143751
,,,-7.1E-07,0.017158751
,,,-7E-07,0.016990001
,,,-6.9E-07,0.017247501
,,,-6.8E-07,0.016708126
,,,-6.7E-07,0.017216251
,,,-6.6E-07,0.017048126
,,,-6.5E-07,0.017125001
,,,-6.4E-07,0.017330001
,,,-6.3E-07,0.017056251
,,,-6.2E-07,0.017031876
,,,-6.1E-07,0.017256251
,,,-6E-07,0.017206251
,,,-5.9E-07,0.017268126
,,,-5.8E-07,0.017153751
,,,-5.7E-07,0.017065001
,,,-5.6E-07,0.016925626
,,,-5.5E-07,0.017253126
,,,-5.4E-07,0.016964376
,,,-5.3E-07,0.017051876
,,,-5.2E-07,0.017056251
,,,-5.1E-07,0.017111251
,,,-5E-07,0.017028751
,,,-4.9E-07,0.017085001
,,,-4.8E-07,0.017286251
,,,-4.7E-07,0.017137501
,,,-4.6E-07,0.017153126
,,,-4.5E-07,0.017264376
,,,-4.4E-07,0.017061876
,,,-4.3E-07,0.017092501
,,,-4.2E-07,0.017147501
,,,-4.1E-07,0.017141251
,,,-4E-07,0.017235001
,,,-3.9E-07,0.017064376
,,,-3.8E-07,0.017250001
,,,-3.7E-07,0.017117501
,,,-3.6E-07,0.017115001
,,,-3.5E-07,0.017067501
,,,-3.4E-07,0.017157501
,,,-3.3E-07,0.017247501
,,,-3.2E-07,0.017115001
,,,-3.1E-07,0.017202501
,,,-3E-07,0.017108126
,,,-2.9E-07,0.017403751
,,,-2.8E-07,0.017075626
,,,-2.7E-07,0.017150626
,,,-2.6E-07,0.016941876
,,,-2.5E-07,0.017198126
,,,-2.4E-07,0.017082501
,,,-2.3E-07,0.016960626
,,,-2.2E-07,0.017063751
,,,-2.1E-07,0.016886876
,,,-2E-07,0.017173751
,,,-1.9E-07,0.017223751
,,,-1.8E-07,0.017238751
,,,-1.7E-07,0.017068751
,,,-1.6E-07,0.016996876
,,,-1.5E-07,0.016937501
,,,-1.4E-07,0.017128751
,,,-1.3E-07,0.016972501
,,,-1.2E-07,0.017033126
,,,-1.1E-07,0.017123126
,,,-1E-07,0.017203751
,,,-9E-08,0.017335626
,,,-8E-08,0.016996876
,,,-7E-08,0.017166251
,,,-6E-08,0.017079376
,,,-5E-08,0.017366876
,,,-4E-08,0.017684376
,,,-3E-08,0.016940626
,,,-2E-08,0.016534376
,,,-1E-08,0.015690001
,,,0,0.017588751
,,,1E-08,0.017854376
,,,2E-08,0.018336876
,,,3E-08,0.017263126
,,,4E-08,0.016096876
,,,5E-08,0.016046251
,,,6E-08,0.016412501
,,,7E-08,0.017103126
,,,8E-08,0.017374376
,,,9E-08,0.017753126
,,,1E-07,0.017100626
,,,1.1E-07,0.017018126
,,,1.2E-07,0.016617501
,,,1.3E-07,0.016650626
,,,1.4E-07,0.017427501
,,,1.5E-07,0.017155626
,,,1.6E-07,0.017374376
,,,1.7E-07,0.017040626
,,,1.8E-07,0.016877501
,,,1.9E-07,0.017151876
,,,2E-07,0.016827501
,,,2.1E-07,0.016968126
,,,2.2E-07,0.017236876
,,,2.3E-07,0.017174376
,,,2.4E-07,0.016996251
,,,2.5E-07,0.017078126
,,,2.6E-07,0.017198751
,,,2.7E-07,0.016949376
,,,2.8E-07,0.017055001
,,,2.9E-07,0.016906251
,,,3E-07,0.016937501
,,,3.1E-07,0.016971876
,,,3.2E-07,0.017288751
,,,3.3E-07,0.017296251
,,,3.4E-07,0.017126876
,,,3.5E-07,0.017150626
,,,3.6E-07,0.017097501
,,,3.7E-07,0.017034376
,,,3.8E-07,0.017081251
,,,3.9E-07,0.016979376
,,,4E-07,0.017237501
,,,4.1E-07,0.016908126
,,,4.2E-07,0.016830001
,,,4.3E-07,0.017000001
,,,4.4E-07,0.017128126
,,,4.5E-07,0.016765001
,,,4.6E-07,0.017178751
,,,4.7E-07,0.017160001
,,,4.8E-07,0.017142501
,,,4.9E-07,0.017014376
,,,5E-07,0.017080626
,,,5.1E-07,0.017005001
,,,5.2E-07,0.017173126
,,,5.3E-07,0.016885001
,,,5.4E-07,0.017019376
,,,5.5E-07,0.016928126
,,,5.6E-07,0.017033126
,,,5.7E-07,0.017180001
,,,5.8E-07,0.016998751
,,,5.9E-07,0.016653751
,,,6E-07,0.017259376
,,,6.1E-07,0.016834376
,,,6.2E-07,0.017101251
,,,6.3E-07,0.017158126
,,,6.4E-07,0.017113126
,,,6.5E-07,0.017347501
,,,6.6E-07,0.017058126
,,,6.7E-07,0.016982501
,,,6.8E-07,0.017161876
,,,6.9E-07,0.017024376
,,,7E-07,0.017018126
,,,7.1E-07,0.017142501
,,,7.2E-07,0.017143126
,,,7.3E-07,0.016999376
,,,7.4E-07,0.017187501
,,,7.5E-07,0.016816876
,,,7.6E-07,0.017063126
,,,7.7E-07,0.017005001
,,,7.8E-07,0.017041876
,,,7.9E-07,0.017066876
,,,8E-07,0.017091876
,,,8.1E-07,0.017207501
,,,8.2E-07,0.017131876
,,,8.3E-07,0.016858126
,,,8.4E-07,0.017144376
,,,8.5E-07,0.016987501
,,,8.6E-07,0.017164376
,,,8.7E-07,0.016930001
,,,8.8E-07,0.017130001
,,,8.9E-07,0.017046251
,,,9E-07,0.017170626
,,,9.1E-07,0.017141251
,,,9.2E-07,0.017330001
,,,9.3E-07,0.016874376
,,,9.4E-07,0.017019376
,,,9.5E-07,0.017068126
,,,9.6E-07,0.016913126
,,,9.7E-07,0.017030001
,,,9.8E-07,0.017367501
,,,9.9E-07,0.017183126
,,,1E-06,0.017219376
,,,1.01E-06,0.017243751
,,,1.02E-06,0.017201251
,,,1.03E-06,0.017048751
,,,1.04E-06,0.017028751
,,,1.05E-06,0.017265626
,,,1.06E-06,0.017050626
,,,1.07E-06,0.017192501
,,,1.08E-06,0.017189376
,,,1.09E-06,0.017255001
,,,1.1E-06,0.017206251
,,,1.11E-06,0.017107501
,,,1.12E-06,0.017046876
,,,1.13E-06,0.017008126
,,,1.14E-06,0.017258751
,,,1.15E-06,0.017095001
,,,1.16E-06,0.017011876
,,,1.17E-06,0.017016876
,,,1.18E-06,0.017150001
,,,1.19E-06,0.017150626
,,,1.2E-06,0.017207501
,,,1.21E-06,0.017031876
,,,1.22E-06,0.017013126
,,,1.23E-06,0.017351876
,,,1.24E-06,0.017255001
,,,1.25E-06,0.017176876
,,,1.26E-06,0.016853126
,,,1.27E-06,0.017233751
,,,1.28E-06,0.016929376
,,,1.29E-06,0.017083126
,,,1.3E-06,0.016887501
,,,1.31E-06,0.017111251
,,,1.32E-06,0.016971876
,,,1.33E-06,0.017149376
,,,1.34E-06,0.017007501
,,,1.35E-06,0.017346251
,,,1.36E-06,0.017053126
,,,1.37E-06,0.016786251
,,,1.38E-06,0.017088751
,,,1.39E-06,0.017229376
,,,1.4E-06,0.016883751
,,,1.41E-06,0.017230001
,,,1.42E-06,0.017105626
,,,1.43E-06,0.017216876
,,,1.44E-06,0.017183751
,,,1.45E-06,0.016974376
,,,1.46E-06,0.017016251
,,,1.47E-06,0.017168751
,,,1.48E-06,0.017271251
,,,1.49E-06,0.016828126
,,,1.5E-06,0.016886251
,,,1.51E-06,0.017081251
,,,1.52E-06,0.017153126
,,,1.53E-06,0.017331876
,,,1.54E-06,0.017209376
,,,1.55E-06,0.017051876
,,,1.56E-06,0.017151876
,,,1.57E-06,0.017266876
,,,1.58E-06,0.017136251
,,,1.59E-06,0.017095001
,,,1.6E-06,0.017146251
,,,1.61E-06,0.017170001
,,,1.62E-06,0.017246876
,,,1.63E-06,0.017112501
,,,1.64E-06,0.017026251
,,,1.65E-06,0.017098751
,,,1.66E-06,0.017043126
,,,1.67E-06,0.017071251
,,,1.68E-06,0.016993126
,,,1.69E-06,0.017090626
,,,1.7E-06,0.017107501
,,,1.71E-06,0.017032501
,,,1.72E-06,0.017285001
,,,1.73E-06,0.017228126
,,,1.74E-06,0.017043126
,,,1.75E-06,0.016971251
,,,1.76E-06,0.016912501
,,,1.77E-06,0.016969376
,,,1.78E-06,0.017078126
,,,1.79E-06,0.017100626
,,,1.8E-06,0.016968126
,,,1.81E-06,0.016941251
,,,1.82E-06,0.017073126
,,,1.83E-06,0.017081876
,,,1.84E-06,0.017160001
,,,1.85E-06,0.017310626
,,,1.86E-06,0.017085626
,,,1.87E-06,0.016998751
,,,1.88E-06,0.016895001
,,,1.89E-06,0.017385001
,,,1.9E-06,0.016985001
,,,1.91E-06,0.017141251
,,,1.92E-06,0.017186251
,,,1.93E-06,0.016900626
,,,1.94E-06,0.017301251
,,,1.95E-06,0.017145626
,,,1.96E-06,0.017164376
,,,1.97E-06,0.017369376
,,,1.98E-06,0.016916251
,,,1.99E-06,0.017286876
,,,2E-06,0.017049376
,,,2.01E-06,0.017234376
,,,2.02E-06,0.017126876
,,,2.03E-06,0.016966876
,,,2.04E-06,0.017241876
,,,2.05E-06,0.016980626
,,,2.06E-06,0.017113126
,,,2.07E-06,0.016990626
,,,2.08E-06,0.017236876
,,,2.09E-06,0.017132501
,,,2.1E-06,0.016895626
,,,2.11E-06,0.016734376
,,,2.12E-06,0.017124376
,,,2.13E-06,0.016881876
,,,2.14E-06,0.017211251
,,,2.15E-06,0.017084376
,,,2.16E-06,0.017089376
,,,2.17E-06,0.017091251
,,,2.18E-06,0.016975626
,,,2.19E-06,0.016943751
,,,2.2E-06,0.016945001
,,,2.21E-06,0.016989376
,,,2.22E-06,0.017048751
,,,2.23E-06,0.017295626
,,,2.24E-06,0.016971876
,,,2.25E-06,0.017175001
,,,2.26E-06,0.017026251
,,,2.27E-06,0.016951251
,,,2.28E-06,0.017018126
,,,2.29E-06,0.017136876
,,,2.3E-06,0.017013751
,,,2.31E-06,0.017083126
,,,2.32E-06,0.017126876
,,,2.33E-06,0.017242501
,,,2.34E-06,0.017131876
,,,2.35E-06,0.017157501
,,,2.36E-06,0.017128751
,,,2.37E-06,0.017025626
,,,2.38E-06,0.016861251
,,,2.39E-06,0.017096876
,,,2.4E-06,0.017052501
,,,2.41E-06,0.016816876
,,,2.42E-06,0.017116876
,,,2.43E-06,0.016920001
,,,2.44E-06,0.016906251
,,,2.45E-06,0.017216251
,,,2.46E-06,0.017340626
,,,2.47E-06,0.017140626
,,,2.48E-06,0.017182501
,,,2.49E-06,0.016990001
,,,2.5E-06,0.016983751
,,,2.51E-06,0.016925626
,,,2.52E-06,0.017172501
,,,2.53E-06,0.017141876
,,,2.54E-06,0.017074376
,,,2.55E-06,0.017073751
,,,2.56E-06,0.017027501
,,,2.57E-06,0.017010001
,,,2.58E-06,0.017066876
,,,2.59E-06,0.017083126
,,,2.6E-06,0.016962501
,,,2.61E-06,0.017030001
,,,2.62E-06,0.017202501
,,,2.63E-06,0.017131251
,,,2.64E-06,0.017014376
,,,2.65E-06,0.017034376
,,,2.66E-06,0.017071876
,,,2.67E-06,0.017043751
,,,2.68E-06,0.016894376
,,,2.69E-06,0.017158751
,,,2.7E-06,0.016834376
,,,2.71E-06,0.017190626
,,,2.72E-06,0.017106251
,,,2.73E-06,0.017166251
,,,2.74E-06,0.017127501
,,,2.75E-06,0.016980001
,,,2.76E-06,0.017183751
,,,2.77E-06,0.016980626
,,,2.78E-06,0.016963751
,,,2.79E-06,0.017250001
,,,2.8E-06,0.017036876
,,,2.81E-06,0.017166876
,,,2.82E-06,0.017074376
,,,2.83E-06,0.016917501
,,,2.84E-06,0.016956876
,,,2.85E-06,0.017040001
,,,2.86E-06,0.017263751
,,,2.87E-06,0.017283751
,,,2.88E-06,0.017300626
,,,2.89E-06,0.017087501
,,,2.9E-06,0.017134376
,,,2.91E-06,0.016909376
,,,2.92E-06,0.017035001
,,,2.93E-06,0.016873126
,,,2.94E-06,0.017166876
,,,2.95E-06,0.016896876
,,,2.96E-06,0.016935626
,,,2.97E-06,0.017056251
,,,2.98E-06,0.017340001
,,,2.99E-06,0.017093126
,,,3E-06,0.016889376
,,,3.01E-06,0.017172501
,,,3.02E-06,0.017081876
,,,3.03E-06,0.017082501
,,,3.04E-06,0.017090626
,,,3.05E-06,0.017105001
,,,3.06E-06,0.016975626
,,,3.07E-06,0.017075626
,,,3.08E-06,0.017434376
,,,3.09E-06,0.017151876
,,,3.1E-06,0.017000001
,,,3.11E-06,0.017096876
,,,3.12E-06,0.017002501
,,,3.13E-06,0.017021251
,,,3.14E-06,0.017050001
,,,3.15E-06,0.016866876
,,,3.16E-06,0.016952501
,,,3.17E-06,0.017082501
,,,3.18E-06,0.016755001
,,,3.19E-06,0.017107501
,,,3.2E-06,0.016917501
,,,3.21E-06,0.017135626
