data/raw/Final_POL_Test_1/SOP056_Ch1.csv

"Record Length",1000,"Points",-5E-06,0.007801875
"Sample Interval",1E-08,s,-4.99E-06,0.008254375
"Trigger Point",500,"Samples",-4.98E-06,0.007768125
"Trigger Time",0,s,-4.97E-06,0.007976875
"",,,-4.96E-06,0.008023125
"Horizontal Offset",-5E-06,s,-4.95E-06,0.008046875
,,,-4.94E-06,0.00804375
,,,-4.93E-06,0.0078475
,,,-4.92E-06,0.00798
,,,-4.91E-06,0.0079225
,,,-4.9E-06,0.00805625
,,,-4.89E-06,0.00791625
,,,-4.88E-06,0.00792375
,,,-4.87E-06,0.00793
,,,-4.86E-06,0.00807875
,,,-4.85E-06,0.008079375
,,,-4.84E-06,0.0080825
,,,-4.83E-06,0.008174375
,,,-4.82E-06,0.00813375
,,,-4.81E-06,0.007935625
,,,-4.8E-06,0.00815
,,,-4.79E-06,0.00795
,,,-4.78E-06,0.00784375
,,,-4.77E-06,0.007918125
,,,-4.76E-06,0.008038125
,,,-4.75E-06,0.00789375
,,,-4.74E-06,0.00799875
,,,-4.73E-06,0.0078625
,,,-4.72E-06,0.007934375
,,,-4.71E-06,0.00802
,,,-4.7E-06,0.00796875
,,,-4.69E-06,0.007865625
,,,-4.68E-06,0.007960625
,,,-4.67E-06,0.007926875
,,,-4.66E-06,0.007903125
,,,-4.65E-06,0.007916875
,,,-4.64E-06,0.007795
,,,-4.63E-06,0.0079025
,,,-4.62E-06,0.0078625
,,,-4.61E-06,0.007781875
,,,-4.6E-06,0.00792625
,,,-4.59E-06,0.00799375
,,,-4.58E-06,0.007866875
,,,-4.57E-06,0.0079675
,,,-4.56E-06,0.008055
,,,-4.55E-06,0.008041875
,,,-4.54E-06,0.00797125
,,,-4.53E-06,0.00793625
,,,-4.52E-06,0.007919375
,,,-4.51E-06,0.008050625
,,,-4.5E-06,0.00779
,,,-4.49E-06,0.007945
,,,-4.48E-06,0.00803
,,,-4.47E-06,0.008001875
,,,-4.46E-06,0.00808875
,,,-4.45E-06,0.007960625
,,,-4.44E-06,0.008173125
,,,-4.43E-06,0.0079625
,,,-4.42E-06,0.00810875
,,,-4.41E-06,0.00784875
,,,-4.4E-06,0.0081475
,,,-4.39E-06,0.008075
,,,-4.38E-06,0.0080775
,,,-4.37E-06,0.007681875
,,,-4.36E-06,0.007985
,,,-4.35E-06,0.007894375
,,,-4.34E-06,0.00799125
,,,-4.33E-06,0.0080325
,,,-4.32E-06,0.008038125
,,,-4.31E-06,0.008135625
,,,-4.3E-06,0.00790125
,,,-4.29E-06,0.007995625
,,,-4.28E-06,0.00802875
,,,-4.27E-06,0.00785375
,,,-4.26E-06,0.00796875
,,,-4.25E-06,0.007648125
,,,-4.24E-06,0.00789
,,,-4.23E-06,0.00798625
,,,-4.22E-06,0.008165
,,,-4.21E-06,0.008069375
,,,-4.2E-06,0.007879375
,,,-4.19E-06,0.0079225
,,,-4.18E-06,0.0078925
,,,-4.17E-06,0.00787625
,,,-4.16E-06,0.007711875
,,,-4.15E-06,0.00808375
,,,-4.14E-06,0.007915625
,,,-4.13E-06,0.00778375
,,,-4.12E-06,0.007710625
,,,-4.11E-06,0.00801
,,,-4.1E-06,0.007935
,,,-4.09E-06,0.00802375
,,,-4.08E-06,0.00801625
,,,-4.07E-06,0.007676875
,,,-4.06E-06,0.007789375
,,,-4.05E-06,0.007984375
,,,-4.04E-06,0.007841875
,,,-4.03E-06,0.007931875
,,,-4.02E-06,0.007840625
,,,-4.01E-06,0.007845625
,,,-4E-06,0.008075625
,,,-3.99E-06,0.007928125
,,,-3.98E-06,0.007961875
,,,-3.97E-06,0.00781
,,,-3.96E-06,0.007915625
,,,-3.95E-06,0.008020625
,,,-3.94E-06,0.00787375
,,,-3.93E-06,0.008045
,,,-3.92E-06,0.007890625
,,,-3.91E-06,0.00799125
,,,-3.9E-06,0.007970625
,,,-3.89E-06,0.00811625
,,,-3.88E-06,0.007775625
,,,-3.87E-06,0.0078525
,,,-3.86E-06,0.0080625
,,,-3.85E-06,0.007708125
,,,-3.84E-06,0.007863125
,,,-3.83E-06,0.00795375
,,,-3.82E-06,0.00785625
,,,-3.81E-06,0.00790625
,,,-3.8E-06,0.00769375
,,,-3.79E-06,0.00798
,,,-3.78E-06,0.008059375
,,,-3.77E-06,0.008099375
,,,-3.76E-06,0.007844375
,,,-3.75E-06,0.008114375
,,,-3.74E-06,0.007860625
,,,-3.73E-06,0.008155625
,,,-3.72E-06,0.007815
,,,-3.71E-06,0.00785
,,,-3.7E-06,0.008110625
,,,-3.69E-06,0.008178125
,,,-3.68E-06,0.008004375
,,,-3.67E-06,0.00797375
,,,-3.66E-06,0.0080175
,,,-3.65E-06,0.00793375
,,,-3.64E-06,0.007578125
,,,-3.63E-06,0.00820875
,,,-3.62E-06,0.007919375
,,,-3.61E-06,0.008115625
,,,-3.6E-06,0.007811875
,,,-3.59E-06,0.0076875
,,,-3.58E-06,0.0080375
,,,-3.57E-06,0.008050625
,,,-3.56E-06,0.008015
,,,-3.55E-06,0.0078875
,,,-3.54E-06,0.008214375
,,,-3.53E-06,0.007835625
,,,-3.52E-06,0.00789125
,,,-3.51E-06,0.007903125
,,,-3.5E-06,0.00793375
,,,-3.49E-06,0.008106875
,,,-3.48E-06,0.008081875
,,,-3.47E-06,0.007929375
,,,-3.46E-06,0.008195625
,,,-3.45E-06,0.00787625
,,,-3.44E-06,0.008049375
,,,-3.43E-06,0.007855
,,,-3.42E-06,0.0076425
,,,-3.41E-06,0.008006875
,,,-3.4E-06,0.00803125
,,,-3.39E-06,0.008164375
,,,-3.38E-06,0.008114375
,,,-3.37E-06,0.007525
,,,-3.36E-06,0.008010625
,,,-3.35E-06,0.007774375
,,,-3.34E-06,0.0080925
,,,-3.33E-06,0.00796125
,,,-3.32E-06,0.008005625
,,,-3.31E-06,0.007891875
,,,-3.3E-06,0.008001875
,,,-3.29E-06,0.008108125
,,,-3.28E-06,0.0080025
,,,-3.27E-06,0.00756
,,,-3.26E-06,0.008015625
,,,-3.25E-06,0.007921875
,,,-3.24E-06,0.00808625
,,,-3.23E-06,0.00805375
,,,-3.22E-06,0.007938125
,,,-3.21E-06,0.007895625
,,,-3.2E-06,0.007773125
,,,-3.19E-06,0.0077825
,,,-3.18E-06,0.007715
,,,-3.17E-06,0.00786375
,,,-3.16E-06,0.007735
,,,-3.15E-06,0.007839375
,,,-3.14E-06,0.007840625
,,,-3.13E-06,0.008070625
,,,-3.12E-06,0.007991875
,,,-3.11E-06,0.007909375
,,,-3.1E-06,0.0078525
,,,-3.09E-06,0.007841875
,,,-3.08E-06,0.007939375
,,,-3.07E-06,0.007925
,,,-3.06E-06,0.00777625
,,,-3.05E-06,0.00809875
,,,-3.04E-06,0.00791875
,,,-3.03E-06,0.00799125
,,,-3.02E-06,0.007700625
,,,-3.01E-06,0.00805375
,,,-3E-06,0.00774625
,,,-2.99E-06,0.00783375
,,,-2.98E-06,0.007955
,,,-2.97E-06,0.00791375
,,,-2.96E-06,0.00807125
,,,-2.95E-06,0.0080875
,,,-2.94E-06,0.00804
,,,-2.93E-06,0.00789875
,,,-2.92E-06,0.008078125
,,,-2.91E-06,0.00805625
,,,-2.9E-06,0.00801125
,,,-2.89E-06,0.00773375
,,,-2.88E-06,0.007818125
,,,-2.87E-06,0.008044375
,,,-2.86E-06,0.0079075
,,,-2.85E-06,0.007971875
,,,-2.84E-06,0.007956875
,,,-2.83E-06,0.008023125
,,,-2.82E-06,0.007785625
,,,-2.81E-06,0.0079325
,,,-2.8E-06,0.007866875
,,,-2.79E-06,0.008176875
,,,-2.78E-06,0.008035
,,,-2.77E-06,0.00789
,,,-2.76E-06,0.00785375
,,,-2.75E-06,0.007816875
,,,-2.74E-06,0.007901875
,,,-2.73E-06,0.007955
,,,-2.72E-06,0.008081875
,,,-2.71E-06,0.00788125
,,,-2.7E-06,0.0078575
,,,-2.69E-06,0.00814625
,,,-2.68E-06,0.007978125
,,,-2.67E-06,0.00808625
,,,-2.66E-06,0.007959375
,,,-2.65E-06,0.008101875
,,,-2.64E-06,0.0080175
,,,-2.63E-06,0.007931875
,,,-2.62E-06,0.007839375
,,,-2.61E-06,0.007805
,,,-2.6E-06,0.0081875
,,,-2.59E-06,0.007905
,,,-2.58E-06,0.007805625
,,,-2.57E-06,0.008023125
,,,-2.56E-06,0.008011875
,,,-2.55E-06,0.007965625
,,,-2.54E-06,0.007986875
,,,-2.53E-06,0.007789375
,,,-2.52E-06,0.008175625
,,,-2.51E-06,0.00815125
,,,-2.5E-06,0.008149375
,,,-2.49E-06,0.00789625
,,,-2.48E-06,0.008015625
,,,-2.47E-06,0.0077475
,,,-2.46E-06,0.007988125
,,,-2.45E-06,0.007994375
,,,-2.44E-06,0.007874375
,,,-2.43E-06,0.00801625
,,,-2.42E-06,0.007666875
,,,-2.41E-06,0.008098125
,,,-2.4E-06,0.0078625
,,,-2.39E-06,0.007995
,,,-2.38E-06,0.0080425
,,,-2.37E-06,0.007995625
,,,-2.36E-06,0.007939375
,,,-2.35E-06,0.007971875
,,,-2.34E-06,0.008100625
,,,-2.33E-06,0.00802875
,,,-2.32E-06,0.007855
,,,-2.31E-06,0.00793875
,,,-2.3E-06,0.007953125
,,,-2.29E-06,0.007895
,,,-2.28E-06,0.007843125
,,,-2.27E-06,0.007913125
,,,-2.26E-06,0.007784375
,,,-2.25E-06,0.00812875
,,,-2.24E-06,0.00787
,,,-2.23E-06,0.00780125
,,,-2.22E-06,0.00776625
,,,-2.21E-06,0.0078925
,,,-2.2E-06,0.00775375
,,,-2.19E-06,0.008070625
,,,-2.18E-06,0.008100625
,,,-2.17E-06,0.0079025
,,,-2.16E-06,0.007784375
,,,-2.15E-06,0.008019375
,,,-2.14E-06,0.00814125
,,,-2.13E-06,0.0079825
,,,-2.12E-06,0.0079025
,,,-2.11E-06,0.008064375
,,,-2.1E-06,0.007913125
,,,-2.09E-06,0.00794875
,,,-2.08E-06,0.008126875
,,,-2.07E-06,0.00791125
,,,-2.06E-06,0.008095625
,,,-2.05E-06,0.007971875
,,,-2.04E-06,0.008098125
,,,-2.03E-06,0.007975
,,,-2.02E-06,0.0080375
,,,-2.01E-06,0.00807625
,,,-2E-06,0.00795875
,,,-1.99E-06,0.007895
,,,-1.98E-06,0.007780625
,,,-1.97E-06,0.00813375
,,,-1.96E-06,0.007838125
,,,-1.95E-06,0.0079225
,,,-1.94E-06,0.0079125
,,,-1.93E-06,0.008095
,,,-1.92E-06,0.00812875
,,,-1.91E-06,0.007809375
,,,-1.9E-06,0.007816875
,,,-1.89E-06,0.007825
,,,-1.88E-06,0.0079
,,,-1.87E-06,0.007901875
,,,-1.86E-06,0.00790625
,,,-1.85E-06,0.007789375
,,,-1.84E-06,0.00800375
,,,-1.83E-06,0.008145
,,,-1.82E-06,0.0078375
,,,-1.81E-06,0.007893125
,,,-1.8E-06,0.008153125
,,,-1.79E-06,0.007820625
,,,-1.78E-06,0.008033125
,,,-1.77E-06,0.008065625
,,,-1.76E-06,0.00817875
,,,-1.75E-06,0.008043125
,,,-1.74E-06,0.00772
,,,-1.73E-06,0.007843125
,,,-1.72E-06,0.007845625
,,,-1.71E-06,0.007778125
,,,-1.7E-06,0.008133125
,,,-1.69E-06,0.00791875
,,,-1.68E-06,0.008193125
,,,-1.67E-06,0.00802375
,,,-1.66E-06,0.008060625
,,,-1.65E-06,0.00798875
,,,-1.64E-06,0.00787875
,,,-1.63E-06,0.00794
,,,-1.62E-06,0.007795
,,,-1.61E-06,0.007729375
,,,-1.6E-06,0.008141875
,,,-1.59E-06,0.007984375
,,,-1.58E-06,0.00800375
,,,-1.57E-06,0.00783375
,,,-1.56E-06,0.00790875
,,,-1.55E-06,0.008178125
,,,-1.54E-06,0.00775125
,,,-1.53E-06,0.0078425
,,,-1.52E-06,0.007874375
,,,-1.51E-06,0.008029375
,,,-1.5E-06,0.00791
,,,-1.49E-06,0.00784125
,,,-1.48E-06,0.0081975
,,,-1.47E-06,0.007875625
,,,-1.46E-06,0.007726875
,,,-1.45E-06,0.007995625
,,,-1.44E-06,0.00801375
,,,-1.43E-06,0.0077875
,,,-1.42E-06,0.008181875
,,,-1.41E-06,0.008090625
,,,-1.4E-06,0.008039375
,,,-1.39E-06,0.008179375
,,,-1.38E-06,0.008006875
,,,-1.37E-06,0.007850625
,,,-1.36E-06,0.008020625
,,,-1.35E-06,0.007985
,,,-1.34E-06,0.0079725
,,,-1.33E-06,0.007945625
,,,-1.32E-06,0.007924375
,,,-1.31E-06,0.00793875
,,,-1.3E-06,0.007871875
,,,-1.29E-06,0.007899375
,,,-1.28E-06,0.00787375
,,,-1.27E-06,0.00794875
,,,-1.26E-06,0.008
,,,-1.25E-06,0.007895625
,,,-1.24E-06,0.0079775
,,,-1.23E-06,0.007959375
,,,-1.22E-06,0.007921875
,,,-1.21E-06,0.0078875
,,,-1.2E-06,0.007968125
,,,-1.19E-06,0.008085
,,,-1.18E-06,0.00809625
,,,-1.17E-06,0.007973125
,,,-1.16E-06,0.008145
,,,-1.15E-06,0.008041875
,,,-1.14E-06,0.008050625
,,,-1.13E-06,0.00792
,,,-1.12E-06,0.00807875
,,,-1.11E-06,0.007843125
,,,-1.1E-06,0.00799
,,,-1.09E-06,0.00806875
,,,-1.08E-06,0.007871875
,,,-1.07E-06,0.00814
,,,-1.06E-06,0.008165
,,,-1.05E-06,0.008043125
,,,-1.04E-06,0.008110625
,,,-1.03E-06,0.007928125
,,,-1.02E-06,0.007973125
,,,-1.01E-06,0.0077775
,,,-1E-06,0.0079725
,,,-9.9E-07,0.007703125
,,,-9.8E-07,0.00805625
,,,-9.7E-07,0.00790375
,,,-9.6E-07,0.00798125
,,,-9.5E-07,0.007721875
,,,-9.4E-07,0.00802875
,,,-9.3E-07,0.007849375
,,,-9.2E-07,0.00771625
,,,-9.1E-07,0.008018125
,,,-9E-07,0.007715
,,,-8.9E-07,0.007905
,,,-8.8E-07,0.00784375
,,,-8.7E-07,0.008009375
,,,-8.6E-07,0.00793
,,,-8.5E-07,0.008058125
,,,-8.4E-07,0.007875625
,,,-8.3E-07,0.007916875
,,,-8.2E-07,0.008204375
,,,-8.1E-07,0.00795
,,,-8E-07,0.007958125
,,,-7.9E-07,0.0080475
,,,-7.8E-07,0.00790625
,,,-7.7E-07,0.00804125
,,,-7.6E-07,0.008016875
,,,-7.5E-07,0.0082275
,,,-7.4E-07,0.007885
,,,-7.3E-07,0.0080025
,,,-7.2E-07,0.00798125
,,,-7.1E-07,0.007903125
,,,-7E-07,0.008199375
,,,-6.9E-07,0.008090625
,,,-6.8E-07,0.00802375
,,,-6.7E-07,0.00807
,,,-6.6E-07,0.008045
,,,-6.5E-07,0.007919375
,,,-6.4E-07,0.007875625
,,,-6.3E-07,0.007891875
,,,-6.2E-07,0.0080575
,,,-6.1E-07,0.00805375
,,,-6E-07,0.007933125
,,,-5.9E-07,0.008075625
,,,-5.8E-07,0.0078925
,,,-5.7E-07,0.0079225
,,,-5.6E-07,0.007950625
,,,-5.5E-07,0.007701875
,,,-5.4E-07,0.0077675
,,,-5.3E-07,0.007994375
,,,-5.2E-07,0.008210625
,,,-5.1E-07,0.00791375
,,,-5E-07,0.008058125
,,,-4.9E-07,0.008153125
,,,-4.8E-07,0.0078525
,,,-4.7E-07,0.00791
,,,-4.6E-07,0.007895625
,,,-4.5E-07,0.007914375
,,,-4.4E-07,0.008115625
,,,-4.3E-07,0.008148125
,,,-4.2E-07,0.00788625
,,,-4.1E-07,0.008024375
,,,-4E-07,0.007894375
,,,-3.9E-07,0.008170625
,,,-3.8E-07,0.007894375
,,,-3.7E-07,0.008033125
,,,-3.6E-07,0.00783
,,,-3.5E-07,0.0082125
,,,-3.4E-07,0.007975625
,,,-3.3E-07,0.007881875
,,,-3.2E-07,0.00790875
,,,-3.1E-07,0.00777625
,,,-3E-07,0.0078175
,,,-2.9E-07,0.007665625
,,,-2.8E-07,0.007864375
,,,-2.7E-07,0.008025
,,,-2.6E-07,0.007864375
,,,-2.5E-07,0.008108125
,,,-2.4E-07,0.007874375
,,,-2.3E-07,0.008029375
,,,-2.2E-07,0.008223125
,,,-2.1E-07,0.007868125
,,,-2E-07,0.007810625
,,,-1.9E-07,0.00791375
,,,-1.8E-07,0.00786625
,,,-1.7E-07,0.007899375
,,,-1.6E-07,0.008076875
,,,-1.5E-07,0.007815625
,,,-1.4E-07,0.008044375
,,,-1.3E-07,0.007750625
,,,-1.2E-07,0.00785875
,,,-1.1E-07,0.007970625
,,,-1E-07,0.008411875
,,,-9E-08,0.00789125
,,,-8E-08,0.007448125
,,,-7E-08,0.007441875
,,,-6E-08,0.008535625
,,,-5E-08,0.008791875
,,,-4E-08,0.009081875
,,,-3E-08,0.009118125
,,,-2E-08,0.00693
,,,-1E-08,0.004626875
,,,0,0.003733125
,,,1E-08,0.008913125
,,,2E-08,0.011924375
,,,3E-08,0.0126075
,,,4E-08,0.008893125
,,,5E-08,0.00565375
,,,6E-08,0.00422375
,,,7E-08,0.00572375
,,,8E-08,0.007876875
,,,9E-08,0.00966
,,,1E-07,0.01039
,,,1.1E-07,0.00903625
,,,1.2E-07,0.007555625
,,,1.3E-07,0.00619125
,,,1.4E-07,0.006875
,,,1.5E-07,0.00761375
,,,1.6E-07,0.008785
,,,1.7E-07,0.008655
,,,1.8E-07,0.008226875
,,,1.9E-07,0.00798125
,,,2E-07,0.007824375
,,,2.1E-07,0.0079725
,,,2.2E-07,0.007556875
,,,2.3E-07,0.007871875
,,,2.4E-07,0.0081375
,,,2.5E-07,0.008295625
,,,2.6E-07,0.0080325
,,,2.7E-07,0.00833875
,,,2.8E-07,0.0078925
,,,2.9E-07,0.00771875
,,,3E-07,0.008041875
,,,3.1E-07,0.007849375
,,,3.2E-07,0.008130625
,,,3.3E-07,0.0080075
,,,3.4E-07,0.007985625
,,,3.5E-07,0.00792875
,,,3.6E-07,0.00816625
,,,3.7E-07,0.00774125
,,,3.8E-07,0.008165
,,,3.9E-07,0.007895625
,,,4E-07,0.00781
,,,4.1E-07,0.007965
,,,4.2E-07,0.008070625
,,,4.3E-07,0.007964375
,,,4.4E-07,0.008079375
,,,4.5E-07,0.008278125
,,,4.6E-07,0.0080125
,,,4.7E-07,0.007896875
,,,4.8E-07,0.007654375
,,,4.9E-07,0.0080075
,,,5E-07,0.007900625
,,,5.1E-07,0.007968125
,,,5.2E-07,0.007963125
,,,5.3E-07,0.008044375
,,,5.4E-07,0.007821875
,,,5.5E-07,0.0077825
,,,5.6E-07,0.00778
,,,5.7E-07,0.008168125
,,,5.8E-07,0.008120625
,,,5.9E-07,0.007925
,,,6E-07,0.00799375
,,,6.1E-07,0.0077825
,,,6.2E-07,0.008065625
,,,6.3E-07,0.007818125
,,,6.4E-07,0.007840625
,,,6.5E-07,0.00808625
,,,6.6E-07,0.00815
,,,6.7E-07,0.008296875
,,,6.8E-07,0.007869375
,,,6.9E-07,0.0080475
,,,7E-07,0.007900625
,,,7.1E-07,0.00782
,,,7.2E-07,0.0077475
,,,7.3E-07,0.00793875
,,,7.4E-07,0.00783625
,,,7.5E-07,0.00815125
,,,7.6E-07,0.00797125
,,,7.7E-07,0.007803125
,,,7.8E-07,0.00794375
,,,7.9E-07,0.008003125
,,,8E-07,0.00786375
,,,8.1E-07,0.00773125
,,,8.2E-07,0.007855625
,,,8.3E-07,0.0080325
,,,8.4E-07,0.00806875
,,,8.5E-07,0.00784375
,,,8.6E-07,0.008144375
,,,8.7E-07,0.0079175
,,,8.8E-07,0.0082025
,,,8.9E-07,0.007848125
,,,9E-07,0.007966875
,,,9.1E-07,0.007821875
,,,9.2E-07,0.00802
,,,9.3E-07,0.0079075
,,,9.4E-07,0.007809375
,,,9.5E-07,0.007958125
,,,9.6E-07,0.007885
,,,9.7E-07,0.007875625
,,,9.8E-07,0.00802625
,,,9.9E-07,0.00803375
,,,1E-06,0.00784
,,,1.01E-06,0.007804375
,,,1.02E-06,0.0079
,,,1.03E-06,0.00782125
,,,1.04E-06,0.007895625
,,,1.05E-06,0.00790625
,,,1.06E-06,0.008069375
,,,1.07E-06,0.007980625
,,,1.08E-06,0.008078125
,,,1.09E-06,0.0079775
,,,1.1E-06,0.008076875
,,,1.11E-06,0.00782375
,,,1.12E-06,0.007793125
,,,1.13E-06,0.007925
,,,1.14E-06,0.007880625
,,,1.15E-06,0.00816875
,,,1.16E-06,0.00795
,,,1.17E-06,0.007960625
,,,1.18E-06,0.00789875
,,,1.19E-06,0.007898125
,,,1.2E-06,0.00793
,,,1.21E-06,0.00786125
,,,1.22E-06,0.007975
,,,1.23E-06,0.007939375
,,,1.24E-06,0.00803875
,,,1.25E-06,0.007990625
,,,1.26E-06,0.00805125
,,,1.27E-06,0.007883125
,,,1.28E-06,0.007803125
,,,1.29E-06,0.00795625
,,,1.3E-06,0.007774375
,,,1.31E-06,0.00805125
,,,1.32E-06,0.00791125
,,,1.33E-06,0.00812
,,,1.34E-06,0.0084025
,,,1.35E-06,0.0082725
,,,1.36E-06,0.007938125
,,,1.37E-06,0.0079075
,,,1.38E-06,0.00789125
,,,1.39E-06,0.007943125
,,,1.4E-06,0.008054375
,,,1.41E-06,0.00792375
,,,1.42E-06,0.007988125
,,,1.43E-06,0.00778375
,,,1.44E-06,0.007993125
,,,1.45E-06,0.0080425
,,,1.46E-06,0.007799375
,,,1.47E-06,0.007746875
,,,1.48E-06,0.007949375
,,,1.49E-06,0.0079625
,,,1.5E-06,0.00810375
,,,1.51E-06,0.00795875
,,,1.52E-06,0.007875
,,,1.53E-06,0.007925625
,,,1.54E-06,0.007941875
,,,1.55E-06,0.008056875
,,,1.56E-06,0.007870625
,,,1.57E-06,0.008180625
,,,1.58E-06,0.007808125
,,,1.59E-06,0.00771875
,,,1.6E-06,0.008139375
,,,1.61E-06,0.008094375
,,,1.62E-06,0.008034375
,,,1.63E-06,0.007875625
,,,1.64E-06,0.00795
,,,1.65E-06,0.008061875
,,,1.66E-06,0.00808
,,,1.67E-06,0.007998125
,,,1.68E-06,0.008015
,,,1.69E-06,0.007778125
,,,1.7E-06,0.0078825
,,,1.71E-06,0.008
,,,1.72E-06,0.008001875
,,,1.73E-06,0.007864375
,,,1.74E-06,0.00799
,,,1.75E-06,0.007884375
,,,1.76E-06,0.00789875
,,,1.77E-06,0.00741125
,,,1.78E-06,0.007889375
,,,1.79E-06,0.007955625
,,,1.8E-06,0.0079825
,,,1.81E-06,0.00761875
,,,1.82E-06,0.007979375
,,,1.83E-06,0.00783625
,,,1.84E-06,0.007868125
,,,1.85E-06,0.00799625
,,,1.86E-06,0.0080875
,,,1.87E-06,0.0080825
,,,1.88E-06,0.00794875
,,,1.89E-06,0.00799625
,,,1.9E-06,0.0080975
,,,1.91E-06,0.0080575
,,,1.92E-06,0.007965
,,,1.93E-06,0.008145
,,,1.94E-06,0.007821875
,,,1.95E-06,0.008203125
,,,1.96E-06,0.007915625
,,,1.97E-06,0.007916875
,,,1.98E-06,0.007976875
,,,1.99E-06,0.0077075
,,,2E-06,0.007890625
,,,2.01E-06,0.007960625
,,,2.02E-06,0.008041875
,,,2.03E-06,0.00792125
,,,2.04E-06,0.00792
,,,2.05E-06,0.007895625
,,,2.06E-06,0.007978125
,,,2.07E-06,0.007805
,,,2.08E-06,0.00797125
,,,2.09E-06,0.007989375
,,,2.1E-06,0.00798875
,,,2.11E-06,0.007990625
,,,2.12E-06,0.008086875
,,,2.13E-06,0.0080375
,,,2.14E-06,0.007866875
,,,2.15E-06,0.007988125
,,,2.16E-06,0.008051875
,,,2.17E-06,0.008106875
,,,2.18E-06,0.008006875
,,,2.19E-06,0.008041875
,,,2.2E-06,0.008111875
,,,2.21E-06,0.007754375
,,,2.22E-06,0.007785625
,,,2.23E-06,0.008114375
,,,2.24E-06,0.00812625
,,,2.25E-06,0.007975
,,,2.26E-06,0.00788375
,,,2.27E-06,0.008065
,,,2.28E-06,0.007748125
,,,2.29E-06,0.008001875
,,,2.3E-06,0.00779375
,,,2.31E-06,0.007861875
,,,2.32E-06,0.008125625
,,,2.33E-06,0.00804
,,,2.34E-06,0.007985
,,,2.35E-06,0.0077425
,,,2.36E-06,0.00763875
,,,2.37E-06,0.00790625
,,,2.38E-06,0.007964375
,,,2.39E-06,0.007846875
,,,2.4E-06,0.0078325
,,,2.41E-06,0.007998125
,,,2.42E-06,0.0078025
,,,2.43E-06,0.007905625
,,,2.44E-06,0.0080475
,,,2.45E-06,0.00798375
,,,2.46E-06,0.008111875
,,,2.47E-06,0.00803125
,,,2.48E-06,0.008100625
,,,2.49E-06,0.008010625
,,,2.5E-06,0.007905
,,,2.51E-06,0.007954375
,,,2.52E-06,0.007861875
,,,2.53E-06,0.00787
,,,2.54E-06,0.007888125
,,,2.55E-06,0.00801
,,,2.56E-06,0.008130625
,,,2.57E-06,0.008175
,,,2.58E-06,0.007968125
,,,2.59E-06,0.007770625
,,,2.6E-06,0.008073125
,,,2.61E-06,0.00799
,,,2.62E-06,0.007708125
,,,2.63E-06,0.0080075
,,,2.64E-06,0.0079475
,,,2.65E-06,0.008066875
,,,2.66E-06,0.00793625
,,,2.67E-06,0.00791375
,,,2.68E-06,0.007871875
,,,2.69E-06,0.007980625
,,,2.7E-06,0.00817375
,,,2.71E-06,0.00783125
,,,2.72E-06,0.00772125
,,,2.73E-06,0.00793875
,,,2.74E-06,0.007873125
,,,2.75E-06,0.007825
,,,2.76E-06,0.00801625
,,,2.77E-06,0.0079475
,,,2.78E-06,0.008115
,,,2.79E-06,0.007995
,,,2.8E-06,0.00812875
,,,2.81E-06,0.007856875
,,,2.82E-06,0.008044375
,,,2.83E-06,0.007799375
,,,2.84E-06,0.0078725
,,,2.85E-06,0.00807625
,,,2.86E-06,0.0079825
,,,2.87E-06,0.0079075
,,,2.88E-06,0.008033125
,,,2.89E-06,0.008121875
,,,2.9E-06,0.0080625
,,,2.91E-06,0.007965625
,,,2.92E-06,0.008039375
,,,2.93E-06,0.007965
,,,2.94E-06,0.00776375
,,,2.95E-06,0.008098125
,,,2.96E-06,0.00762625
,,,2.97E-06,0.007929375
,,,2.98E-06,0.00802
,,,2.99E-06,0.007955625
,,,3E-06,0.00793625
,,,3.01E-06,0.008034375
,,,3.02E-06,0.00775875
,,,3.03E-06,0.0078725
,,,3.04E-06,0.007981875
,,,3.05E-06,0.007975625
,,,3.06E-06,0.0079525
,,,3.07E-06,0.00802
,,,3.08E-06,0.007968125
,,,3.09E-06,0.007881875
,,,3.1E-06,0.008099375
,,,3.11E-06,0.00784625
,,,3.12E-06,0.007988125
,,,3.13E-06,0.00783625
,,,3.14E-06,0.00810625
,,,3.15E-06,0.00779625
,,,3.16E-06,0.007963125
,,,3.17E-06,0.00828
,,,3.18E-06,0.007961875
,,,3.19E-06,0.0080675
,,,3.2E-06,0.00811
,,,3.21E-06,0.008269375
,,,3.22E-06,0.007741875
,,,3.23E-06,0.008044375
,,,3.24E-06,0.0078425
,,,3.25E-06,0.00792625
,,,3.26E-06,0.007758125
,,,3.27E-06,0.00788375
,,,3.28E-06,0.008006875
,,,3.29E-06,0.007979375
,,,3.3E-06,0.00792
,,,3.31E-06,0.00823875
,,,3.32E-06,0.00807125
,,,3.33E-06,0.007865
,,,3.34E-06,0.0078725
,,,3.35E-06,0.00793375
,,,3.36E-06,0.00764375
,,,3.37E-06,0.00806625
,,,3.38E-06,0.00789625
,,,3.39E-06,0.007989375
,,,3.4E-06,0.007998125
,,,3.41E-06,0.008023125
,,,3.42E-06,0.008113125
,,,3.43E-06,0.007864375
,,,3.44E-06,0.007844375
,,,3.45E-06,0.007928125
,,,3.46E-06,0.00813625
,,,3.47E-06,0.0079325
,,,3.48E-06,0.007939375
,,,3.49E-06,0.0079525
,,,3.5E-06,0.00809125
,,,3.51E-06,0.008053125
,,,3.52E-06,0.00795125
,,,3.53E-06,0.007978125
,,,3.54E-06,0.00785
,,,3.55E-06,0.007996875
,,,3.56E-06,0.007925
