data/raw/Final_POL_Test_1/SOP015_Ch3.csv

"Record Length",1000,"Points",-5E-06,0.018729376
"Sample Interval",1E-08,s,-4.99E-06,0.019025626
"Trigger Point",500,"Samples",-4.98E-06,0.019058751
"Trigger Time",0,s,-4.97E-06,0.018685626
"",,,-4.96E-06,0.018775001
"Horizontal Offset",-5E-06,s,-4.95E-06,0.018906251
,,,-4.94E-06,0.018785001
,,,-4.93E-06,0.018982501
,,,-4.92E-06,0.019000001
,,,-4.91E-06,0.018652501
,,,-4.9E-06,0.018683126
,,,-4.89E-06,0.018980626
,,,-4.88E-06,0.018818751
,,,-4.87E-06,0.018835001
,,,-4.86E-06,0.018823126
,,,-4.85E-06,0.018719376
,,,-4.84E-06,0.018821876
,,,-4.83E-06,0.019020001
,,,-4.82E-06,0.018922501
,,,-4.81E-06,0.018852501
,,,-4.8E-06,0.018689376
,,,-4.79E-06,0.018916876
,,,-4.78E-06,0.018664376
,,,-4.77E-06,0.018768126
,,,-4.76E-06,0.018834376
,,,-4.75E-06,0.019126251
,,,-4.74E-06,0.018957501
,,,-4.73E-06,0.018816251
,,,-4.72E-06,0.018910626
,,,-4.71E-06,0.018799376
,,,-4.7E-06,0.018931251
,,,-4.69E-06,0.018864376
,,,-4.68E-06,0.019141876
,,,-4.67E-06,0.018775001
,,,-4.66E-06,0.018684376
,,,-4.65E-06,0.018989376
,,,-4.64E-06,0.019025001
,,,-4.63E-06,0.019021251
,,,-4.62E-06,0.018875626
,,,-4.61E-06,0.018788751
,,,-4.6E-06,0.018848751
,,,-4.59E-06,0.018865001
,,,-4.58E-06,0.018871876
,,,-4.57E-06,0.018829376
,,,-4.56E-06,0.018785626
,,,-4.55E-06,0.018856876
,,,-4.54E-06,0.018943126
,,,-4.53E-06,0.018813126
,,,-4.52E-06,0.018955626
,,,-4.51E-06,0.018843751
,,,-4.5E-06,0.018848126
,,,-4.49E-06,0.018833751
,,,-4.48E-06,0.019077501
,,,-4.47E-06,0.018922501
,,,-4.46E-06,0.019042501
,,,-4.45E-06,0.018786251
,,,-4.44E-06,0.018801251
,,,-4.43E-06,0.018783751
,,,-4.42E-06,0.018841251
,,,-4.41E-06,0.018835001
,,,-4.4E-06,0.018891876
,,,-4.39E-06,0.018962501
,,,-4.38E-06,0.019128751
,,,-4.37E-06,0.018906251
,,,-4.36E-06,0.018866876
,,,-4.35E-06,0.018740001
,,,-4.34E-06,0.018793751
,,,-4.33E-06,0.018909376
,,,-4.32E-06,0.019011876
,,,-4.31E-06,0.018984376
,,,-4.3E-06,0.018826251
,,,-4.29E-06,0.018920001
,,,-4.28E-06,0.019069376
,,,-4.27E-06,0.019035001
,,,-4.26E-06,0.019067501
,,,-4.25E-06,0.018780001
,,,-4.24E-06,0.018969376
,,,-4.23E-06,0.018900001
,,,-4.22E-06,0.018793751
,,,-4.21E-06,0.018971251
,,,-4.2E-06,0.018627501
,,,-4.19E-06,0.018670001
,,,-4.18E-06,0.018823126
,,,-4.17E-06,0.018776876
,,,-4.16E-06,0.018728751
,,,-4.15E-06,0.019006251
,,,-4.14E-06,0.018991251
,,,-4.13E-06,0.019058126
,,,-4.12E-06,0.019002501
,,,-4.11E-06,0.019070626
,,,-4.1E-06,0.018978126
,,,-4.09E-06,0.019136251
,,,-4.08E-06,0.018835001
,,,-4.07E-06,0.018881876
,,,-4.06E-06,0.018867501
,,,-4.05E-06,0.018913126
,,,-4.04E-06,0.018790001
,,,-4.03E-06,0.018953751
,,,-4.02E-06,0.018898126
,,,-4.01E-06,0.018805001
,,,-4E-06,0.018915626
,,,-3.99E-06,0.018841251
,,,-3.98E-06,0.018950626
,,,-3.97E-06,0.019018126
,,,-3.96E-06,0.018743751
,,,-3.95E-06,0.018819376
,,,-3.94E-06,0.019040626
,,,-3.93E-06,0.018796251
,,,-3.92E-06,0.018798751
,,,-3.91E-06,0.018964376
,,,-3.9E-06,0.018825001
,,,-3.89E-06,0.019031251
,,,-3.88E-06,0.018804376
,,,-3.87E-06,0.018819376
,,,-3.86E-06,0.018992501
,,,-3.85E-06,0.018760001
,,,-3.84E-06,0.019163751
,,,-3.83E-06,0.018978126
,,,-3.82E-06,0.019026876
,,,-3.81E-06,0.018780626
,,,-3.8E-06,0.019017501
,,,-3.79E-06,0.018740626
,,,-3.78E-06,0.018749376
,,,-3.77E-06,0.018776876
,,,-3.76E-06,0.019096251
,,,-3.75E-06,0.018796876
,,,-3.74E-06,0.018970001
,,,-3.73E-06,0.018668126
,,,-3.72E-06,0.018864376
,,,-3.71E-06,0.019049376
,,,-3.7E-06,0.018929376
,,,-3.69E-06,0.018940626
,,,-3.68E-06,0.018797501
,,,-3.67E-06,0.018775001
,,,-3.66E-06,0.018817501
,,,-3.65E-06,0.018769376
,,,-3.64E-06,0.018805626
,,,-3.63E-06,0.018816876
,,,-3.62E-06,0.018809376
,,,-3.61E-06,0.018691876
,,,-3.6E-06,0.018874376
,,,-3.59E-06,0.018924376
,,,-3.58E-06,0.019231876
,,,-3.57E-06,0.018907501
,,,-3.56E-06,0.019133751
,,,-3.55E-06,0.018832501
,,,-3.54E-06,0.018844376
,,,-3.53E-06,0.019001251
,,,-3.52E-06,0.018859376
,,,-3.51E-06,0.019020001
,,,-3.5E-06,0.018733126
,,,-3.49E-06,0.018846251
,,,-3.48E-06,0.018687501
,,,-3.47E-06,0.019048126
,,,-3.46E-06,0.019080001
,,,-3.45E-06,0.018804376
,,,-3.44E-06,0.018828751
,,,-3.43E-06,0.018845001
,,,-3.42E-06,0.019033126
,,,-3.41E-06,0.018915001
,,,-3.4E-06,0.018985626
,,,-3.39E-06,0.018863751
,,,-3.38E-06,0.018862501
,,,-3.37E-06,0.018873126
,,,-3.36E-06,0.018731876
,,,-3.35E-06,0.019068126
,,,-3.34E-06,0.018748126
,,,-3.33E-06,0.018901251
,,,-3.32E-06,0.018848126
,,,-3.31E-06,0.018961876
,,,-3.3E-06,0.018851876
,,,-3.29E-06,0.018870001
,,,-3.28E-06,0.018909376
,,,-3.27E-06,0.018960626
,,,-3.26E-06,0.018914376
,,,-3.25E-06,0.018769376
,,,-3.24E-06,0.019094376
,,,-3.23E-06,0.019003751
,,,-3.22E-06,0.018990001
,,,-3.21E-06,0.018903126
,,,-3.2E-06,0.018861251
,,,-3.19E-06,0.018683126
,,,-3.18E-06,0.018931251
,,,-3.17E-06,0.018888751
,,,-3.16E-06,0.018970001
,,,-3.15E-06,0.018806251
,,,-3.14E-06,0.019041876
,,,-3.13E-06,0.018836876
,,,-3.12E-06,0.018690001
,,,-3.11E-06,0.018923751
,,,-3.1E-06,0.019003126
,,,-3.09E-06,0.018903751
,,,-3.08E-06,0.019025626
,,,-3.07E-06,0.018939376
,,,-3.06E-06,0.018886251
,,,-3.05E-06,0.018899376
,,,-3.04E-06,0.018976251
,,,-3.03E-06,0.018690626
,,,-3.02E-06,0.019110626
,,,-3.01E-06,0.019027501
,,,-3E-06,0.018863751
,,,-2.99E-06,0.019141251
,,,-2.98E-06,0.019052501
,,,-2.97E-06,0.018940001
,,,-2.96E-06,0.018959376
,,,-2.95E-06,0.018875626
,,,-2.94E-06,0.018903126
,,,-2.93E-06,0.018844376
,,,-2.92E-06,0.018706251
,,,-2.91E-06,0.019111251
,,,-2.9E-06,0.018982501
,,,-2.89E-06,0.018731876
,,,-2.88E-06,0.018871876
,,,-2.87E-06,0.018996251
,,,-2.86E-06,0.018897501
,,,-2.85E-06,0.019014376
,,,-2.84E-06,0.018650001
,,,-2.83E-06,0.018895001
,,,-2.82E-06,0.018788126
,,,-2.81E-06,0.018956251
,,,-2.8E-06,0.018945001
,,,-2.79E-06,0.018740626
,,,-2.78E-06,0.018901876
,,,-2.77E-06,0.018973751
,,,-2.76E-06,0.018910001
,,,-2.75E-06,0.018668126
,,,-2.74E-06,0.018883126
,,,-2.73E-06,0.019062501
,,,-2.72E-06,0.018892501
,,,-2.71E-06,0.019153751
,,,-2.7E-06,0.018727501
,,,-2.69E-06,0.018920626
,,,-2.68E-06,0.018914376
,,,-2.67E-06,0.019104376
,,,-2.66E-06,0.019015626
,,,-2.65E-06,0.018540626
,,,-2.64E-06,0.018694376
,,,-2.63E-06,0.018965626
,,,-2.62E-06,0.018645626
,,,-2.61E-06,0.018583751
,,,-2.6E-06,0.018794376
,,,-2.59E-06,0.018978126
,,,-2.58E-06,0.018932501
,,,-2.57E-06,0.018808751
,,,-2.56E-06,0.018956251
,,,-2.55E-06,0.018978751
,,,-2.54E-06,0.018963126
,,,-2.53E-06,0.018743126
,,,-2.52E-06,0.019022501
,,,-2.51E-06,0.019126251
,,,-2.5E-06,0.019130001
,,,-2.49E-06,0.018611876
,,,-2.48E-06,0.018845626
,,,-2.47E-06,0.018918126
,,,-2.46E-06,0.018929376
,,,-2.45E-06,0.018896251
,,,-2.44E-06,0.019077501
,,,-2.43E-06,0.018773126
,,,-2.42E-06,0.018953126
,,,-2.41E-06,0.018951876
,,,-2.4E-06,0.019022501
,,,-2.39E-06,0.019113751
,,,-2.38E-06,0.019001251
,,,-2.37E-06,0.018829376
,,,-2.36E-06,0.018839376
,,,-2.35E-06,0.018985626
,,,-2.34E-06,0.018838126
,,,-2.33E-06,0.018999376
,,,-2.32E-06,0.018962501
,,,-2.31E-06,0.018820626
,,,-2.3E-06,0.019056251
,,,-2.29E-06,0.018893751
,,,-2.28E-06,0.018866251
,,,-2.27E-06,0.018735626
,,,-2.26E-06,0.018938126
,,,-2.25E-06,0.019001876
,,,-2.24E-06,0.019015626
,,,-2.23E-06,0.019076251
,,,-2.22E-06,0.018913126
,,,-2.21E-06,0.019053126
,,,-2.2E-06,0.018935001
,,,-2.19E-06,0.018781876
,,,-2.18E-06,0.019005001
,,,-2.17E-06,0.018979376
,,,-2.16E-06,0.018927501
,,,-2.15E-06,0.018652501
,,,-2.14E-06,0.019043751
,,,-2.13E-06,0.018949376
,,,-2.12E-06,0.018822501
,,,-2.11E-06,0.018948751
,,,-2.1E-06,0.018867501
,,,-2.09E-06,0.018623751
,,,-2.08E-06,0.019024376
,,,-2.07E-06,0.018860001
,,,-2.06E-06,0.018963126
,,,-2.05E-06,0.019093751
,,,-2.04E-06,0.018535001
,,,-2.03E-06,0.018994376
,,,-2.02E-06,0.018921251
,,,-2.01E-06,0.018856876
,,,-2E-06,0.018961876
,,,-1.99E-06,0.018933751
,,,-1.98E-06,0.018942501
,,,-1.97E-06,0.019054376
,,,-1.96E-06,0.019069376
,,,-1.95E-06,0.018740001
,,,-1.94E-06,0.018960001
,,,-1.93E-06,0.018942501
,,,-1.92E-06,0.019084376
,,,-1.91E-06,0.018733751
,,,-1.9E-06,0.018888751
,,,-1.89E-06,0.018804376
,,,-1.88E-06,0.018695626
,,,-1.87E-06,0.018955626
,,,-1.86E-06,0.018977501
,,,-1.85E-06,0.018955626
,,,-1.84E-06,0.019002501
,,,-1.83E-06,0.018772501
,,,-1.82E-06,0.018933126
,,,-1.81E-06,0.018971876
,,,-1.8E-06,0.018959376
,,,-1.79E-06,0.018778751
,,,-1.78E-06,0.018674376
,,,-1.77E-06,0.018895001
,,,-1.76E-06,0.018929376
,,,-1.75E-06,0.018955001
,,,-1.74E-06,0.018878751
,,,-1.73E-06,0.018962501
,,,-1.72E-06,0.018897501
,,,-1.71E-06,0.018881876
,,,-1.7E-06,0.018830001
,,,-1.69E-06,0.019094376
,,,-1.68E-06,0.018907501
,,,-1.67E-06,0.018751251
,,,-1.66E-06,0.018648126
,,,-1.65E-06,0.018936876
,,,-1.64E-06,0.018831251
,,,-1.63E-06,0.018694376
,,,-1.62E-06,0.019112501
,,,-1.61E-06,0.018877501
,,,-1.6E-06,0.018990001
,,,-1.59E-06,0.018895001
,,,-1.58E-06,0.018802501
,,,-1.57E-06,0.018945001
,,,-1.56E-06,0.019003126
,,,-1.55E-06,0.018981251
,,,-1.54E-06,0.018815626
,,,-1.53E-06,0.019106251
,,,-1.52E-06,0.018900626
,,,-1.51E-06,0.018845626
,,,-1.5E-06,0.018793126
,,,-1.49E-06,0.018943751
,,,-1.48E-06,0.018738751
,,,-1.47E-06,0.019027501
,,,-1.46E-06,0.018851251
,,,-1.45E-06,0.018587501
,,,-1.44E-06,0.018811876
,,,-1.43E-06,0.018880626
,,,-1.42E-06,0.018887501
,,,-1.41E-06,0.018817501
,,,-1.4E-06,0.018799376
,,,-1.39E-06,0.018688751
,,,-1.38E-06,0.018931251
,,,-1.37E-06,0.018926876
,,,-1.36E-06,0.019005001
,,,-1.35E-06,0.018838751
,,,-1.34E-06,0.019063751
,,,-1.33E-06,0.018940001
,,,-1.32E-06,0.018871876
,,,-1.31E-06,0.019063751
,,,-1.3E-06,0.018855626
,,,-1.29E-06,0.018718126
,,,-1.28E-06,0.019022501
,,,-1.27E-06,0.018790626
,,,-1.26E-06,0.018829376
,,,-1.25E-06,0.018883126
,,,-1.24E-06,0.018989376
,,,-1.23E-06,0.018837501
,,,-1.22E-06,0.018913751
,,,-1.21E-06,0.018685001
,,,-1.2E-06,0.018991251
,,,-1.19E-06,0.019050001
,,,-1.18E-06,0.018751876
,,,-1.17E-06,0.018696251
,,,-1.16E-06,0.019001876
,,,-1.15E-06,0.019070001
,,,-1.14E-06,0.018996251
,,,-1.13E-06,0.018898126
,,,-1.12E-06,0.018948126
,,,-1.11E-06,0.019110626
,,,-1.1E-06,0.018840626
,,,-1.09E-06,0.018877501
,,,-1.08E-06,0.018903751
,,,-1.07E-06,0.018982501
,,,-1.06E-06,0.019058751
,,,-1.05E-06,0.018841251
,,,-1.04E-06,0.018809376
,,,-1.03E-06,0.018835001
,,,-1.02E-06,0.018914376
,,,-1.01E-06,0.018913126
,,,-1E-06,0.019003751
,,,-9.9E-07,0.018983126
,,,-9.8E-07,0.019024376
,,,-9.7E-07,0.018790626
,,,-9.6E-07,0.018874376
,,,-9.5E-07,0.018583751
,,,-9.4E-07,0.018964376
,,,-9.3E-07,0.018987501
,,,-9.2E-07,0.019201251
,,,-9.1E-07,0.018923126
,,,-9E-07,0.018994376
,,,-8.9E-07,0.018852501
,,,-8.8E-07,0.019112501
,,,-8.7E-07,0.018840626
,,,-8.6E-07,0.018916251
,,,-8.5E-07,0.018905626
,,,-8.4E-07,0.018969376
,,,-8.3E-07,0.018946876
,,,-8.2E-07,0.018785626
,,,-8.1E-07,0.018860001
,,,-8E-07,0.018920001
,,,-7.9E-07,0.018813751
,,,-7.8E-07,0.018687501
,,,-7.7E-07,0.018584376
,,,-7.6E-07,0.019097501
,,,-7.5E-07,0.018888126
,,,-7.4E-07,0.018775626
,,,-7.3E-07,0.018948126
,,,-7.2E-07,0.018973126
,,,-7.1E-07,0.018987501
,,,-7E-07,0.018908751
,,,-6.9E-07,0.019028126
,,,-6.8E-07,0.019101876
,,,-6.7E-07,0.019005001
,,,-6.6E-07,0.018861876
,,,-6.5E-07,0.018899376
,,,-6.4E-07,0.019005626
,,,-6.3E-07,0.018859376
,,,-6.2E-07,0.018995626
,,,-6.1E-07,0.018972501
,,,-6E-07,0.019180001
,,,-5.9E-07,0.018747501
,,,-5.8E-07,0.018901876
,,,-5.7E-07,0.018905001
,,,-5.6E-07,0.018680001
,,,-5.5E-07,0.019082501
,,,-5.4E-07,0.019000626
,,,-5.3E-07,0.018883751
,,,-5.2E-07,0.018880626
,,,-5.1E-07,0.018922501
,,,-5E-07,0.018800626
,,,-4.9E-07,0.018598126
,,,-4.8E-07,0.018951876
,,,-4.7E-07,0.018851251
,,,-4.6E-07,0.018591876
,,,-4.5E-07,0.018976876
,,,-4.4E-07,0.018966251
,,,-4.3E-07,0.019007501
,,,-4.2E-07,0.019070001
,,,-4.1E-07,0.018881876
,,,-4E-07,0.018875626
,,,-3.9E-07,0.018646251
,,,-3.8E-07,0.019000626
,,,-3.7E-07,0.018902501
,,,-3.6E-07,0.019073751
,,,-3.5E-07,0.019076251
,,,-3.4E-07,0.018818126
,,,-3.3E-07,0.018874376
,,,-3.2E-07,0.018970001
,,,-3.1E-07,0.018851876
,,,-3E-07,0.018995626
,,,-2.9E-07,0.018917501
,,,-2.8E-07,0.018770626
,,,-2.7E-07,0.018823751
,,,-2.6E-07,0.018843751
,,,-2.5E-07,0.018778126
,,,-2.4E-07,0.018963126
,,,-2.3E-07,0.019092501
,,,-2.2E-07,0.018909376
,,,-2.1E-07,0.018882501
,,,-2E-07,0.018876876
,,,-1.9E-07,0.018945626
,,,-1.8E-07,0.018825626
,,,-1.7E-07,0.018919376
,,,-1.6E-07,0.019137501
,,,-1.5E-07,0.018855001
,,,-1.4E-07,0.018943126
,,,-1.3E-07,0.018918126
,,,-1.2E-07,0.018916251
,,,-1.1E-07,0.018986251
,,,-1E-07,0.019036876
,,,-9E-08,0.018858126
,,,-8E-08,0.018902501
,,,-7E-08,0.018877501
,,,-6E-08,0.018943126
,,,-5E-08,0.018796876
,,,-4E-08,0.019082501
,,,-3E-08,0.019189376
,,,-2E-08,0.018428126
,,,-1E-08,0.018655001
,,,0,0.018570001
,,,1E-08,0.019551876
,,,2E-08,0.019398751
,,,3E-08,0.018909376
,,,4E-08,0.018807501
,,,5E-08,0.018540001
,,,6E-08,0.018501876
,,,7E-08,0.018732501
,,,8E-08,0.019161251
,,,9E-08,0.019333126
,,,1E-07,0.019208126
,,,1.1E-07,0.018895001
,,,1.2E-07,0.018895001
,,,1.3E-07,0.018608126
,,,1.4E-07,0.018930001
,,,1.5E-07,0.018565626
,,,1.6E-07,0.018996251
,,,1.7E-07,0.018786876
,,,1.8E-07,0.018895001
,,,1.9E-07,0.018637501
,,,2E-07,0.018672501
,,,2.1E-07,0.018836251
,,,2.2E-07,0.018623751
,,,2.3E-07,0.019197501
,,,2.4E-07,0.018996251
,,,2.5E-07,0.018959376
,,,2.6E-07,0.019021251
,,,2.7E-07,0.018732501
,,,2.8E-07,0.018798126
,,,2.9E-07,0.019080626
,,,3E-07,0.018798751
,,,3.1E-07,0.018914376
,,,3.2E-07,0.018840001
,,,3.3E-07,0.018972501
,,,3.4E-07,0.018976876
,,,3.5E-07,0.019087501
,,,3.6E-07,0.018998751
,,,3.7E-07,0.018958751
,,,3.8E-07,0.019033126
,,,3.9E-07,0.019186876
,,,4E-07,0.018854376
,,,4.1E-07,0.018816251
,,,4.2E-07,0.018854376
,,,4.3E-07,0.018635626
,,,4.4E-07,0.018911876
,,,4.5E-07,0.018882501
,,,4.6E-07,0.019047501
,,,4.7E-07,0.018987501
,,,4.8E-07,0.018816876
,,,4.9E-07,0.019120626
,,,5E-07,0.018914376
,,,5.1E-07,0.018935001
,,,5.2E-07,0.018550626
,,,5.3E-07,0.018899376
,,,5.4E-07,0.018954376
,,,5.5E-07,0.018681876
,,,5.6E-07,0.018762501
,,,5.7E-07,0.018845626
,,,5.8E-07,0.018844376
,,,5.9E-07,0.018741251
,,,6E-07,0.019005626
,,,6.1E-07,0.018875626
,,,6.2E-07,0.019015001
,,,6.3E-07,0.018899376
,,,6.4E-07,0.018830001
,,,6.5E-07,0.018876876
,,,6.6E-07,0.018826876
,,,6.7E-07,0.018823751
,,,6.8E-07,0.018863751
,,,6.9E-07,0.019061876
,,,7E-07,0.018918751
,,,7.1E-07,0.018911876
,,,7.2E-07,0.019012501
,,,7.3E-07,0.018836876
,,,7.4E-07,0.018833126
,,,7.5E-07,0.018786876
,,,7.6E-07,0.018665001
,,,7.7E-07,0.018886251
,,,7.8E-07,0.019130626
,,,7.9E-07,0.018816251
,,,8E-07,0.018990626
,,,8.1E-07,0.018750001
,,,8.2E-07,0.018889376
,,,8.3E-07,0.018978751
,,,8.4E-07,0.019031251
,,,8.5E-07,0.018971876
,,,8.6E-07,0.019021251
,,,8.7E-07,0.019011251
,,,8.8E-07,0.018881876
,,,8.9E-07,0.018805001
,,,9E-07,0.018931251
,,,9.1E-07,0.019078126
,,,9.2E-07,0.018695001
,,,9.3E-07,0.018922501
,,,9.4E-07,0.018971876
,,,9.5E-07,0.018988751
,,,9.6E-07,0.019006876
,,,9.7E-07,0.018901876
,,,9.8E-07,0.018930626
,,,9.9E-07,0.019025001
,,,1E-06,0.018729376
,,,1.01E-06,0.018873126
,,,1.02E-06,0.018961876
,,,1.03E-06,0.018989376
,,,1.04E-06,0.019033751
,,,1.05E-06,0.019034376
,,,1.06E-06,0.018757501
,,,1.07E-06,0.018975001
,,,1.08E-06,0.019045001
,,,1.09E-06,0.018881876
,,,1.1E-06,0.018673126
,,,1.11E-06,0.018926876
,,,1.12E-06,0.018797501
,,,1.13E-06,0.018737501
,,,1.14E-06,0.018972501
,,,1.15E-06,0.019064376
,,,1.16E-06,0.018834376
,,,1.17E-06,0.018850001
,,,1.18E-06,0.018809376
,,,1.19E-06,0.018905626
,,,1.2E-06,0.018987501
,,,1.21E-06,0.018963126
,,,1.22E-06,0.019029376
,,,1.23E-06,0.018850001
,,,1.24E-06,0.018928751
,,,1.25E-06,0.018883751
,,,1.26E-06,0.018730001
,,,1.27E-06,0.018953751
,,,1.28E-06,0.019000001
,,,1.29E-06,0.018474376
,,,1.3E-06,0.018758126
,,,1.31E-06,0.018968126
,,,1.32E-06,0.018702501
,,,1.33E-06,0.019080001
,,,1.34E-06,0.019013126
,,,1.35E-06,0.018753751
,,,1.36E-06,0.018820626
,,,1.37E-06,0.018811876
,,,1.38E-06,0.019091876
,,,1.39E-06,0.018903751
,,,1.4E-06,0.019053751
,,,1.41E-06,0.018985626
,,,1.42E-06,0.018935626
,,,1.43E-06,0.018793126
,,,1.44E-06,0.019045626
,,,1.45E-06,0.019030626
,,,1.46E-06,0.018968751
,,,1.47E-06,0.018926251
,,,1.48E-06,0.018978751
,,,1.49E-06,0.018871876
,,,1.5E-06,0.018814376
,,,1.51E-06,0.018886251
,,,1.52E-06,0.018871876
,,,1.53E-06,0.019156876
,,,1.54E-06,0.018743751
,,,1.55E-06,0.018668126
,,,1.56E-06,0.019108126
,,,1.57E-06,0.018906876
,,,1.58E-06,0.019144376
,,,1.59E-06,0.018765001
,,,1.6E-06,0.019009376
,,,1.61E-06,0.018948126
,,,1.62E-06,0.018896876
,,,1.63E-06,0.019007501
,,,1.64E-06,0.019021251
,,,1.65E-06,0.018895001
,,,1.66E-06,0.018977501
,,,1.67E-06,0.019083751
,,,1.68E-06,0.018851251
,,,1.69E-06,0.018899376
,,,1.7E-06,0.018985001
,,,1.71E-06,0.019002501
,,,1.72E-06,0.018980001
,,,1.73E-06,0.018989376
,,,1.74E-06,0.018765626
,,,1.75E-06,0.019106876
,,,1.76E-06,0.019173126
,,,1.77E-06,0.018890626
,,,1.78E-06,0.018891251
,,,1.79E-06,0.018696251
,,,1.8E-06,0.018731876
,,,1.81E-06,0.019040626
,,,1.82E-06,0.018953126
,,,1.83E-06,0.018721251
,,,1.84E-06,0.018868751
,,,1.85E-06,0.019027501
,,,1.86E-06,0.018686251
,,,1.87E-06,0.019258751
,,,1.88E-06,0.019047501
,,,1.89E-06,0.018799376
,,,1.9E-06,0.018975626
,,,1.91E-06,0.018920001
,,,1.92E-06,0.018939376
,,,1.93E-06,0.019091876
,,,1.94E-06,0.018953751
,,,1.95E-06,0.018863751
,,,1.96E-06,0.018733126
,,,1.97E-06,0.018790626
,,,1.98E-06,0.018888126
,,,1.99E-06,0.018975626
,,,2E-06,0.019173751
,,,2.01E-06,0.019007501
,,,2.02E-06,0.018839376
,,,2.03E-06,0.018790001
,,,2.04E-06,0.018559376
,,,2.05E-06,0.018951876
,,,2.06E-06,0.018928751
,,,2.07E-06,0.018993751
,,,2.08E-06,0.018442501
,,,2.09E-06,0.018941251
,,,2.1E-06,0.018778751
,,,2.11E-06,0.018965626
,,,2.12E-06,0.018979376
,,,2.13E-06,0.018808126
,,,2.14E-06,0.019238126
,,,2.15E-06,0.019015626
,,,2.16E-06,0.018981876
,,,2.17E-06,0.018924376
,,,2.18E-06,0.019156251
,,,2.19E-06,0.018676251
,,,2.2E-06,0.018828751
,,,2.21E-06,0.019100001
,,,2.22E-06,0.019077501
,,,2.23E-06,0.018648126
,,,2.24E-06,0.018796251
,,,2.25E-06,0.018641876
,,,2.26E-06,0.018813126
,,,2.27E-06,0.018898126
,,,2.28E-06,0.019023126
,,,2.29E-06,0.018804376
,,,2.3E-06,0.018946251
,,,2.31E-06,0.018740001
,,,2.32E-06,0.019010001
,,,2.33E-06,0.018945001
,,,2.34E-06,0.018795001
,,,2.35E-06,0.018975001
,,,2.36E-06,0.018768126
,,,2.37E-06,0.018785626
,,,2.38E-06,0.019171251
,,,2.39E-06,0.019008751
,,,2.4E-06,0.018883126
,,,2.41E-06,0.018954376
,,,2.42E-06,0.018953751
,,,2.43E-06,0.019039376
,,,2.44E-06,0.018636251
,,,2.45E-06,0.018901251
,,,2.46E-06,0.018818751
,,,2.47E-06,0.018860626
,,,2.48E-06,0.019095626
,,,2.49E-06,0.018833126
,,,2.5E-06,0.018884376
,,,2.51E-06,0.019096876
,,,2.52E-06,0.018916876
,,,2.53E-06,0.018955001
,,,2.54E-06,0.018938126
,,,2.55E-06,0.018856876
,,,2.56E-06,0.018656251
,,,2.57E-06,0.019083751
,,,2.58E-06,0.018936876
,,,2.59E-06,0.019010626
,,,2.6E-06,0.018827501
,,,2.61E-06,0.019061251
,,,2.62E-06,0.018551876
,,,2.63E-06,0.019033751
,,,2.64E-06,0.018823751
,,,2.65E-06,0.018883126
,,,2.66E-06,0.019060626
,,,2.67E-06,0.019033126
,,,2.68E-06,0.019049376
,,,2.69E-06,0.018915001
,,,2.7E-06,0.019041876
,,,2.71E-06,0.018858126
,,,2.72E-06,0.018794376
,,,2.73E-06,0.019056251
,,,2.74E-06,0.019306876
,,,2.75E-06,0.018885001
,,,2.76E-06,0.018944376
,,,2.77E-06,0.018893126
,,,2.78E-06,0.018927501
,,,2.79E-06,0.018843751
,,,2.8E-06,0.018880626
,,,2.81E-06,0.018808751
,,,2.82E-06,0.018895626
,,,2.83E-06,0.018752501
,,,2.84E-06,0.018808751
,,,2.85E-06,0.018831876
,,,2.86E-06,0.018731876
,,,2.87E-06,0.018925001
,,,2.88E-06,0.018925626
,,,2.89E-06,0.018831876
,,,2.9E-06,0.018900001
,,,2.91E-06,0.019032501
,,,2.92E-06,0.018931251
,,,2.93E-06,0.019173751
,,,2.94E-06,0.018931876
,,,2.95E-06,0.018930626
,,,2.96E-06,0.018804376
,,,2.97E-06,0.018888751
,,,2.98E-06,0.018773751
,,,2.99E-06,0.019159376
,,,3E-06,0.018835626
,,,3.01E-06,0.018842501
,,,3.02E-06,0.018903751
,,,3.03E-06,0.018848126
,,,3.04E-06,0.018861876
,,,3.05E-06,0.019208126
,,,3.06E-06,0.019042501
,,,3.07E-06,0.018867501
,,,3.08E-06,0.018887501
,,,3.09E-06,0.018851876
,,,3.1E-06,0.019068751
,,,3.11E-06,0.018863126
,,,3.12E-06,0.018793751
,,,3.13E-06,0.018666876
,,,3.14E-06,0.018825626
,,,3.15E-06,0.018806876
,,,3.16E-06,0.018920626
,,,3.17E-06,0.018793126
,,,3.18E-06,0.019063751
,,,3.19E-06,0.018752501
,,,3.2E-06,0.018916876
,,,3.21E-06,0.018974376
