data/raw/Final_POL_Test_1/SOP018_Ch3.csv

"Record Length",1000,"Points",-5E-06,0.017741251
"Sample Interval",1E-08,s,-4.99E-06,0.017087501
"Trigger Point",500,"Samples",-4.98E-06,0.017591876
"Trigger Time",0,s,-4.97E-06,0.017825626
"",,,-4.96E-06,0.017641251
"Horizontal Offset",-5E-06,s,-4.95E-06,0.017610001
,,,-4.94E-06,0.017465626
,,,-4.93E-06,0.017783751
,,,-4.92E-06,0.017314376
,,,-4.91E-06,0.017731876
,,,-4.9E-06,0.017456251
,,,-4.89E-06,0.017238126
,,,-4.88E-06,0.017453751
,,,-4.87E-06,0.017283126
,,,-4.86E-06,0.017423751
,,,-4.85E-06,0.017483751
,,,-4.84E-06,0.017642501
,,,-4.83E-06,0.017673751
,,,-4.82E-06,0.017475626
,,,-4.81E-06,0.017435001
,,,-4.8E-06,0.017637501
,,,-4.79E-06,0.017545001
,,,-4.78E-06,0.017481876
,,,-4.77E-06,0.017363751
,,,-4.76E-06,0.017501876
,,,-4.75E-06,0.017166251
,,,-4.74E-06,0.017462501
,,,-4.73E-06,0.017486876
,,,-4.72E-06,0.017620626
,,,-4.71E-06,0.017675626
,,,-4.7E-06,0.017331876
,,,-4.69E-06,0.017576251
,,,-4.68E-06,0.017546876
,,,-4.67E-06,0.017481251
,,,-4.66E-06,0.017524376
,,,-4.65E-06,0.017606876
,,,-4.64E-06,0.017539376
,,,-4.63E-06,0.017564376
,,,-4.62E-06,0.017627501
,,,-4.61E-06,0.017701876
,,,-4.6E-06,0.017600626
,,,-4.59E-06,0.017658751
,,,-4.58E-06,0.017804376
,,,-4.57E-06,0.017710001
,,,-4.56E-06,0.017608126
,,,-4.55E-06,0.017498126
,,,-4.54E-06,0.017700001
,,,-4.53E-06,0.017423751
,,,-4.52E-06,0.017606876
,,,-4.51E-06,0.017802501
,,,-4.5E-06,0.017496876
,,,-4.49E-06,0.017356876
,,,-4.48E-06,0.017368126
,,,-4.47E-06,0.017757501
,,,-4.46E-06,0.017581876
,,,-4.45E-06,0.017684376
,,,-4.44E-06,0.017840001
,,,-4.43E-06,0.017610001
,,,-4.42E-06,0.017820626
,,,-4.41E-06,0.017543126
,,,-4.4E-06,0.017452501
,,,-4.39E-06,0.017576251
,,,-4.38E-06,0.017656876
,,,-4.37E-06,0.017486251
,,,-4.36E-06,0.017606251
,,,-4.35E-06,0.017416876
,,,-4.34E-06,0.017680626
,,,-4.33E-06,0.017772501
,,,-4.32E-06,0.017476876
,,,-4.31E-06,0.017548751
,,,-4.3E-06,0.017688126
,,,-4.29E-06,0.017443126
,,,-4.28E-06,0.017728751
,,,-4.27E-06,0.017253126
,,,-4.26E-06,0.017511876
,,,-4.25E-06,0.017523126
,,,-4.24E-06,0.017579376
,,,-4.23E-06,0.017747501
,,,-4.22E-06,0.017241251
,,,-4.21E-06,0.017414376
,,,-4.2E-06,0.017531251
,,,-4.19E-06,0.017653751
,,,-4.18E-06,0.017622501
,,,-4.17E-06,0.017615001
,,,-4.16E-06,0.017538751
,,,-4.15E-06,0.017561876
,,,-4.14E-06,0.017714376
,,,-4.13E-06,0.017498126
,,,-4.12E-06,0.017734376
,,,-4.11E-06,0.017628126
,,,-4.1E-06,0.017826876
,,,-4.09E-06,0.017284376
,,,-4.08E-06,0.017532501
,,,-4.07E-06,0.017618751
,,,-4.06E-06,0.017658126
,,,-4.05E-06,0.017693751
,,,-4.04E-06,0.017521876
,,,-4.03E-06,0.017677501
,,,-4.02E-06,0.017654376
,,,-4.01E-06,0.017479376
,,,-4E-06,0.017488751
,,,-3.99E-06,0.017680001
,,,-3.98E-06,0.017768126
,,,-3.97E-06,0.017495626
,,,-3.96E-06,0.017561251
,,,-3.95E-06,0.017711251
,,,-3.94E-06,0.017380001
,,,-3.93E-06,0.017638126
,,,-3.92E-06,0.017541251
,,,-3.91E-06,0.017476251
,,,-3.9E-06,0.017381251
,,,-3.89E-06,0.017221876
,,,-3.88E-06,0.017389376
,,,-3.87E-06,0.017700001
,,,-3.86E-06,0.017535001
,,,-3.85E-06,0.017519376
,,,-3.84E-06,0.017585626
,,,-3.83E-06,0.017720001
,,,-3.82E-06,0.017703126
,,,-3.81E-06,0.017361876
,,,-3.8E-06,0.017536876
,,,-3.79E-06,0.017475626
,,,-3.78E-06,0.017581876
,,,-3.77E-06,0.017675626
,,,-3.76E-06,0.017446251
,,,-3.75E-06,0.017660626
,,,-3.74E-06,0.017593126
,,,-3.73E-06,0.017533126
,,,-3.72E-06,0.017965001
,,,-3.71E-06,0.017477501
,,,-3.7E-06,0.017743126
,,,-3.69E-06,0.017381876
,,,-3.68E-06,0.017425001
,,,-3.67E-06,0.017315001
,,,-3.66E-06,0.017480001
,,,-3.65E-06,0.017525626
,,,-3.64E-06,0.017569376
,,,-3.63E-06,0.017632501
,,,-3.62E-06,0.017680626
,,,-3.61E-06,0.017450626
,,,-3.6E-06,0.017397501
,,,-3.59E-06,0.017816251
,,,-3.58E-06,0.017483126
,,,-3.57E-06,0.017387501
,,,-3.56E-06,0.017731876
,,,-3.55E-06,0.017466876
,,,-3.54E-06,0.017471251
,,,-3.53E-06,0.017539376
,,,-3.52E-06,0.017574376
,,,-3.51E-06,0.017606251
,,,-3.5E-06,0.017611876
,,,-3.49E-06,0.017412501
,,,-3.48E-06,0.017369376
,,,-3.47E-06,0.017583126
,,,-3.46E-06,0.017541251
,,,-3.45E-06,0.017492501
,,,-3.44E-06,0.017580626
,,,-3.43E-06,0.017597501
,,,-3.42E-06,0.017298126
,,,-3.41E-06,0.017488751
,,,-3.4E-06,0.017496251
,,,-3.39E-06,0.017668751
,,,-3.38E-06,0.017459376
,,,-3.37E-06,0.017718126
,,,-3.36E-06,0.017534376
,,,-3.35E-06,0.017659376
,,,-3.34E-06,0.017623126
,,,-3.33E-06,0.017281251
,,,-3.32E-06,0.017687501
,,,-3.31E-06,0.017728126
,,,-3.3E-06,0.017475626
,,,-3.29E-06,0.017547501
,,,-3.28E-06,0.017108126
,,,-3.27E-06,0.017331876
,,,-3.26E-06,0.017581876
,,,-3.25E-06,0.017528751
,,,-3.24E-06,0.017690001
,,,-3.23E-06,0.017512501
,,,-3.22E-06,0.017506876
,,,-3.21E-06,0.017740626
,,,-3.2E-06,0.017660626
,,,-3.19E-06,0.017545001
,,,-3.18E-06,0.017741876
,,,-3.17E-06,0.017445626
,,,-3.16E-06,0.017781251
,,,-3.15E-06,0.017405626
,,,-3.14E-06,0.017705001
,,,-3.13E-06,0.017643751
,,,-3.12E-06,0.017356251
,,,-3.11E-06,0.017738751
,,,-3.1E-06,0.017628126
,,,-3.09E-06,0.017428751
,,,-3.08E-06,0.017616876
,,,-3.07E-06,0.017248751
,,,-3.06E-06,0.017646876
,,,-3.05E-06,0.017354376
,,,-3.04E-06,0.017665001
,,,-3.03E-06,0.017606876
,,,-3.02E-06,0.017606251
,,,-3.01E-06,0.017525001
,,,-3E-06,0.017553751
,,,-2.99E-06,0.017478126
,,,-2.98E-06,0.017340626
,,,-2.97E-06,0.017661876
,,,-2.96E-06,0.017561876
,,,-2.95E-06,0.017457501
,,,-2.94E-06,0.017553751
,,,-2.93E-06,0.017686876
,,,-2.92E-06,0.017495001
,,,-2.91E-06,0.017495001
,,,-2.9E-06,0.017507501
,,,-2.89E-06,0.017531251
,,,-2.88E-06,0.017408126
,,,-2.87E-06,0.017556876
,,,-2.86E-06,0.017538751
,,,-2.85E-06,0.017763126
,,,-2.84E-06,0.017417501
,,,-2.83E-06,0.017651251
,,,-2.82E-06,0.017564376
,,,-2.81E-06,0.017536251
,,,-2.8E-06,0.017441251
,,,-2.79E-06,0.017696876
,,,-2.78E-06,0.017489376
,,,-2.77E-06,0.017696876
,,,-2.76E-06,0.017760626
,,,-2.75E-06,0.017662501
,,,-2.74E-06,0.017642501
,,,-2.73E-06,0.017533751
,,,-2.72E-06,0.017654376
,,,-2.71E-06,0.017540626
,,,-2.7E-06,0.017409376
,,,-2.69E-06,0.017378126
,,,-2.68E-06,0.017683751
,,,-2.67E-06,0.017466876
,,,-2.66E-06,0.017415001
,,,-2.65E-06,0.017620626
,,,-2.64E-06,0.017380001
,,,-2.63E-06,0.017564376
,,,-2.62E-06,0.017402501
,,,-2.61E-06,0.017500001
,,,-2.6E-06,0.017538751
,,,-2.59E-06,0.017466876
,,,-2.58E-06,0.017634376
,,,-2.57E-06,0.017573751
,,,-2.56E-06,0.017365001
,,,-2.55E-06,0.017693126
,,,-2.54E-06,0.017518126
,,,-2.53E-06,0.017511251
,,,-2.52E-06,0.017633126
,,,-2.51E-06,0.017780001
,,,-2.5E-06,0.017821876
,,,-2.49E-06,0.017479376
,,,-2.48E-06,0.017653126
,,,-2.47E-06,0.017719376
,,,-2.46E-06,0.017558126
,,,-2.45E-06,0.017502501
,,,-2.44E-06,0.017476251
,,,-2.43E-06,0.017420626
,,,-2.42E-06,0.017528126
,,,-2.41E-06,0.017509376
,,,-2.4E-06,0.017733751
,,,-2.39E-06,0.017604376
,,,-2.38E-06,0.017637501
,,,-2.37E-06,0.017643751
,,,-2.36E-06,0.017531251
,,,-2.35E-06,0.017676251
,,,-2.34E-06,0.017386251
,,,-2.33E-06,0.017623126
,,,-2.32E-06,0.017526251
,,,-2.31E-06,0.017563126
,,,-2.3E-06,0.017297501
,,,-2.29E-06,0.017589376
,,,-2.28E-06,0.017518126
,,,-2.27E-06,0.017575626
,,,-2.26E-06,0.017633126
,,,-2.25E-06,0.017511251
,,,-2.24E-06,0.017386251
,,,-2.23E-06,0.017378126
,,,-2.22E-06,0.017514376
,,,-2.21E-06,0.017461876
,,,-2.2E-06,0.017513126
,,,-2.19E-06,0.017543126
,,,-2.18E-06,0.017641251
,,,-2.17E-06,0.017682501
,,,-2.16E-06,0.017481251
,,,-2.15E-06,0.017675001
,,,-2.14E-06,0.017677501
,,,-2.13E-06,0.017555001
,,,-2.12E-06,0.017743126
,,,-2.11E-06,0.017496251
,,,-2.1E-06,0.017421876
,,,-2.09E-06,0.017493751
,,,-2.08E-06,0.017662501
,,,-2.07E-06,0.017416876
,,,-2.06E-06,0.017600626
,,,-2.05E-06,0.017675626
,,,-2.04E-06,0.017545001
,,,-2.03E-06,0.017635001
,,,-2.02E-06,0.017635626
,,,-2.01E-06,0.017473126
,,,-2E-06,0.017535001
,,,-1.99E-06,0.017511876
,,,-1.98E-06,0.017610001
,,,-1.97E-06,0.017648126
,,,-1.96E-06,0.017646876
,,,-1.95E-06,0.017579376
,,,-1.94E-06,0.017458126
,,,-1.93E-06,0.017236251
,,,-1.92E-06,0.017393126
,,,-1.91E-06,0.017437501
,,,-1.9E-06,0.017667501
,,,-1.89E-06,0.017390626
,,,-1.88E-06,0.017635001
,,,-1.87E-06,0.017683126
,,,-1.86E-06,0.017713126
,,,-1.85E-06,0.017491876
,,,-1.84E-06,0.017660001
,,,-1.83E-06,0.017616876
,,,-1.82E-06,0.017726876
,,,-1.81E-06,0.017542501
,,,-1.8E-06,0.017561251
,,,-1.79E-06,0.017551251
,,,-1.78E-06,0.017481251
,,,-1.77E-06,0.017460626
,,,-1.76E-06,0.017611876
,,,-1.75E-06,0.017393751
,,,-1.74E-06,0.017524376
,,,-1.73E-06,0.017620626
,,,-1.72E-06,0.017653126
,,,-1.71E-06,0.017508751
,,,-1.7E-06,0.017863751
,,,-1.69E-06,0.017366876
,,,-1.68E-06,0.017781876
,,,-1.67E-06,0.017521876
,,,-1.66E-06,0.017653751
,,,-1.65E-06,0.017551876
,,,-1.64E-06,0.017523751
,,,-1.63E-06,0.017393751
,,,-1.62E-06,0.017546251
,,,-1.61E-06,0.017685001
,,,-1.6E-06,0.017533126
,,,-1.59E-06,0.017578751
,,,-1.58E-06,0.017632501
,,,-1.57E-06,0.017695001
,,,-1.56E-06,0.017512501
,,,-1.55E-06,0.017470626
,,,-1.54E-06,0.017330626
,,,-1.53E-06,0.017630626
,,,-1.52E-06,0.017843751
,,,-1.51E-06,0.017480626
,,,-1.5E-06,0.017472501
,,,-1.49E-06,0.017233751
,,,-1.48E-06,0.017561251
,,,-1.47E-06,0.017561251
,,,-1.46E-06,0.017968126
,,,-1.45E-06,0.017675626
,,,-1.44E-06,0.017423126
,,,-1.43E-06,0.017501251
,,,-1.42E-06,0.017303751
,,,-1.41E-06,0.017742501
,,,-1.4E-06,0.017613751
,,,-1.39E-06,0.017540626
,,,-1.38E-06,0.017440626
,,,-1.37E-06,0.017628751
,,,-1.36E-06,0.017415626
,,,-1.35E-06,0.017716251
,,,-1.34E-06,0.017721876
,,,-1.33E-06,0.017422501
,,,-1.32E-06,0.017630626
,,,-1.31E-06,0.017556251
,,,-1.3E-06,0.017430626
,,,-1.29E-06,0.017308126
,,,-1.28E-06,0.017798126
,,,-1.27E-06,0.017636876
,,,-1.26E-06,0.017575626
,,,-1.25E-06,0.017904376
,,,-1.24E-06,0.017505626
,,,-1.23E-06,0.017628126
,,,-1.22E-06,0.017549376
,,,-1.21E-06,0.017824376
,,,-1.2E-06,0.017612501
,,,-1.19E-06,0.017539376
,,,-1.18E-06,0.017676251
,,,-1.17E-06,0.017618751
,,,-1.16E-06,0.017638126
,,,-1.15E-06,0.017507501
,,,-1.14E-06,0.017617501
,,,-1.13E-06,0.017706251
,,,-1.12E-06,0.017707501
,,,-1.11E-06,0.017633126
,,,-1.1E-06,0.017738751
,,,-1.09E-06,0.017487501
,,,-1.08E-06,0.017665001
,,,-1.07E-06,0.017563751
,,,-1.06E-06,0.017501251
,,,-1.05E-06,0.017570001
,,,-1.04E-06,0.017570001
,,,-1.03E-06,0.017565626
,,,-1.02E-06,0.017378751
,,,-1.01E-06,0.017660626
,,,-1E-06,0.017473126
,,,-9.9E-07,0.017401876
,,,-9.8E-07,0.017588751
,,,-9.7E-07,0.017751251
,,,-9.6E-07,0.017490001
,,,-9.5E-07,0.017654376
,,,-9.4E-07,0.017563751
,,,-9.3E-07,0.017501251
,,,-9.2E-07,0.017568751
,,,-9.1E-07,0.017560001
,,,-9E-07,0.017438751
,,,-8.9E-07,0.017487501
,,,-8.8E-07,0.017564376
,,,-8.7E-07,0.017608126
,,,-8.6E-07,0.017661876
,,,-8.5E-07,0.017505626
,,,-8.4E-07,0.017636876
,,,-8.3E-07,0.017580626
,,,-8.2E-07,0.017596876
,,,-8.1E-07,0.017681251
,,,-8E-07,0.017433751
,,,-7.9E-07,0.017763751
,,,-7.8E-07,0.017439376
,,,-7.7E-07,0.017500626
,,,-7.6E-07,0.017581876
,,,-7.5E-07,0.017436251
,,,-7.4E-07,0.017378126
,,,-7.3E-07,0.017555001
,,,-7.2E-07,0.017653126
,,,-7.1E-07,0.017608126
,,,-7E-07,0.017611251
,,,-6.9E-07,0.017680626
,,,-6.8E-07,0.017486876
,,,-6.7E-07,0.017535001
,,,-6.6E-07,0.017646876
,,,-6.5E-07,0.017562501
,,,-6.4E-07,0.017716251
,,,-6.3E-07,0.017386251
,,,-6.2E-07,0.017475001
,,,-6.1E-07,0.017658126
,,,-6E-07,0.017635626
,,,-5.9E-07,0.017486251
,,,-5.8E-07,0.017408751
,,,-5.7E-07,0.017603126
,,,-5.6E-07,0.017464376
,,,-5.5E-07,0.017571876
,,,-5.4E-07,0.017601876
,,,-5.3E-07,0.017476876
,,,-5.2E-07,0.017485626
,,,-5.1E-07,0.017593126
,,,-5E-07,0.017392501
,,,-4.9E-07,0.017463751
,,,-4.8E-07,0.017390001
,,,-4.7E-07,0.017340001
,,,-4.6E-07,0.017560001
,,,-4.5E-07,0.017580626
,,,-4.4E-07,0.017560001
,,,-4.3E-07,0.017598751
,,,-4.2E-07,0.017566251
,,,-4.1E-07,0.017327501
,,,-4E-07,0.017508126
,,,-3.9E-07,0.017573126
,,,-3.8E-07,0.017753751
,,,-3.7E-07,0.017516876
,,,-3.6E-07,0.017801876
,,,-3.5E-07,0.017748751
,,,-3.4E-07,0.017541251
,,,-3.3E-07,0.017448126
,,,-3.2E-07,0.017266251
,,,-3.1E-07,0.017636876
,,,-3E-07,0.017448126
,,,-2.9E-07,0.017418126
,,,-2.8E-07,0.017724376
,,,-2.7E-07,0.017730626
,,,-2.6E-07,0.017351251
,,,-2.5E-07,0.017548126
,,,-2.4E-07,0.017457501
,,,-2.3E-07,0.017555626
,,,-2.2E-07,0.017646251
,,,-2.1E-07,0.017603126
,,,-2E-07,0.017553126
,,,-1.9E-07,0.017731876
,,,-1.8E-07,0.017610626
,,,-1.7E-07,0.017620626
,,,-1.6E-07,0.017509376
,,,-1.5E-07,0.017507501
,,,-1.4E-07,0.017315001
,,,-1.3E-07,0.017533751
,,,-1.2E-07,0.017619376
,,,-1.1E-07,0.017307501
,,,-1E-07,0.017503751
,,,-9E-08,0.017678751
,,,-8E-08,0.017476251
,,,-7E-08,0.017580626
,,,-6E-08,0.017374376
,,,-5E-08,0.017657501
,,,-4E-08,0.017553751
,,,-3E-08,0.017656876
,,,-2E-08,0.017618126
,,,-1E-08,0.017516876
,,,0,0.017562501
,,,1E-08,0.018101251
,,,2E-08,0.017381876
,,,3E-08,0.017649376
,,,4E-08,0.017298751
,,,5E-08,0.017690001
,,,6E-08,0.017643126
,,,7E-08,0.017786251
,,,8E-08,0.017468126
,,,9E-08,0.017440001
,,,1E-07,0.017699376
,,,1.1E-07,0.017336251
,,,1.2E-07,0.017371876
,,,1.3E-07,0.017695626
,,,1.4E-07,0.017710001
,,,1.5E-07,0.017618126
,,,1.6E-07,0.017621251
,,,1.7E-07,0.017601876
,,,1.8E-07,0.017101876
,,,1.9E-07,0.017501251
,,,2E-07,0.017486251
,,,2.1E-07,0.017656876
,,,2.2E-07,0.017802501
,,,2.3E-07,0.017599376
,,,2.4E-07,0.017410626
,,,2.5E-07,0.017609376
,,,2.6E-07,0.017465626
,,,2.7E-07,0.017784376
,,,2.8E-07,0.017366251
,,,2.9E-07,0.017523751
,,,3E-07,0.017696251
,,,3.1E-07,0.017410001
,,,3.2E-07,0.017738126
,,,3.3E-07,0.017571876
,,,3.4E-07,0.017653126
,,,3.5E-07,0.017562501
,,,3.6E-07,0.017710626
,,,3.7E-07,0.017676251
,,,3.8E-07,0.017268126
,,,3.9E-07,0.017596251
,,,4E-07,0.017533126
,,,4.1E-07,0.017308751
,,,4.2E-07,0.017471876
,,,4.3E-07,0.017531876
,,,4.4E-07,0.017584376
,,,4.5E-07,0.017590001
,,,4.6E-07,0.017720001
,,,4.7E-07,0.017451251
,,,4.8E-07,0.017656251
,,,4.9E-07,0.017565001
,,,5E-07,0.017548751
,,,5.1E-07,0.017395001
,,,5.2E-07,0.017560001
,,,5.3E-07,0.017410001
,,,5.4E-07,0.017625001
,,,5.5E-07,0.017677501
,,,5.6E-07,0.017570626
,,,5.7E-07,0.017567501
,,,5.8E-07,0.017563751
,,,5.9E-07,0.017475626
,,,6E-07,0.017690626
,,,6.1E-07,0.017495001
,,,6.2E-07,0.017360001
,,,6.3E-07,0.017576251
,,,6.4E-07,0.017471251
,,,6.5E-07,0.017513126
,,,6.6E-07,0.017627501
,,,6.7E-07,0.017725001
,,,6.8E-07,0.017825001
,,,6.9E-07,0.017446251
,,,7E-07,0.017444376
,,,7.1E-07,0.017605626
,,,7.2E-07,0.017577501
,,,7.3E-07,0.017735626
,,,7.4E-07,0.017551251
,,,7.5E-07,0.017606876
,,,7.6E-07,0.017410001
,,,7.7E-07,0.017692501
,,,7.8E-07,0.017575626
,,,7.9E-07,0.017623126
,,,8E-07,0.017683751
,,,8.1E-07,0.017418126
,,,8.2E-07,0.017450001
,,,8.3E-07,0.017131876
,,,8.4E-07,0.017412501
,,,8.5E-07,0.017553126
,,,8.6E-07,0.017483751
,,,8.7E-07,0.017441251
,,,8.8E-07,0.017731251
,,,8.9E-07,0.017516251
,,,9E-07,0.017368126
,,,9.1E-07,0.017510001
,,,9.2E-07,0.017781876
,,,9.3E-07,0.017370001
,,,9.4E-07,0.017491876
,,,9.5E-07,0.017501251
,,,9.6E-07,0.017360626
,,,9.7E-07,0.017845626
,,,9.8E-07,0.017561251
,,,9.9E-07,0.017726251
,,,1E-06,0.017507501
,,,1.01E-06,0.017466251
,,,1.02E-06,0.017500001
,,,1.03E-06,0.017456251
,,,1.04E-06,0.017545001
,,,1.05E-06,0.017692501
,,,1.06E-06,0.017646876
,,,1.07E-06,0.017445001
,,,1.08E-06,0.017255626
,,,1.09E-06,0.017451251
,,,1.1E-06,0.017370001
,,,1.11E-06,0.017725626
,,,1.12E-06,0.017268126
,,,1.13E-06,0.017621876
,,,1.14E-06,0.017296251
,,,1.15E-06,0.017633751
,,,1.16E-06,0.017453126
,,,1.17E-06,0.017449376
,,,1.18E-06,0.017454376
,,,1.19E-06,0.017568751
,,,1.2E-06,0.017431876
,,,1.21E-06,0.017411251
,,,1.22E-06,0.017679376
,,,1.23E-06,0.017670001
,,,1.24E-06,0.017619376
,,,1.25E-06,0.017400626
,,,1.26E-06,0.017488751
,,,1.27E-06,0.017496876
,,,1.28E-06,0.017211876
,,,1.29E-06,0.017656251
,,,1.3E-06,0.017588751
,,,1.31E-06,0.017515626
,,,1.32E-06,0.017172501
,,,1.33E-06,0.017392501
,,,1.34E-06,0.017480001
,,,1.35E-06,0.017339376
,,,1.36E-06,0.017458751
,,,1.37E-06,0.017573751
,,,1.38E-06,0.017597501
,,,1.39E-06,0.017456251
,,,1.4E-06,0.017471251
,,,1.41E-06,0.017376251
,,,1.42E-06,0.017831876
,,,1.43E-06,0.017446251
,,,1.44E-06,0.017482501
,,,1.45E-06,0.017444376
,,,1.46E-06,0.017604376
,,,1.47E-06,0.017460626
,,,1.48E-06,0.017518126
,,,1.49E-06,0.017704376
,,,1.5E-06,0.017432501
,,,1.51E-06,0.017511251
,,,1.52E-06,0.017742501
,,,1.53E-06,0.017493751
,,,1.54E-06,0.017688126
,,,1.55E-06,0.017541876
,,,1.56E-06,0.017470001
,,,1.57E-06,0.017454376
,,,1.58E-06,0.017453126
,,,1.59E-06,0.017603126
,,,1.6E-06,0.017418126
,,,1.61E-06,0.017493126
,,,1.62E-06,0.017598126
,,,1.63E-06,0.017533126
,,,1.64E-06,0.017442501
,,,1.65E-06,0.017492501
,,,1.66E-06,0.017647501
,,,1.67E-06,0.017457501
,,,1.68E-06,0.017443126
,,,1.69E-06,0.017683126
,,,1.7E-06,0.017358126
,,,1.71E-06,0.017401251
,,,1.72E-06,0.017331251
,,,1.73E-06,0.017572501
,,,1.74E-06,0.017701251
,,,1.75E-06,0.017416251
,,,1.76E-06,0.017483126
,,,1.77E-06,0.017652501
,,,1.78E-06,0.017458751
,,,1.79E-06,0.017563126
,,,1.8E-06,0.017634376
,,,1.81E-06,0.017325001
,,,1.82E-06,0.017481876
,,,1.83E-06,0.017490001
,,,1.84E-06,0.017487501
,,,1.85E-06,0.017635626
,,,1.86E-06,0.017500001
,,,1.87E-06,0.017695001
,,,1.88E-06,0.017395001
,,,1.89E-06,0.017494376
,,,1.9E-06,0.017625626
,,,1.91E-06,0.017504376
,,,1.92E-06,0.017733751
,,,1.93E-06,0.017478751
,,,1.94E-06,0.017477501
,,,1.95E-06,0.017443126
,,,1.96E-06,0.017550626
,,,1.97E-06,0.017506251
,,,1.98E-06,0.017366251
,,,1.99E-06,0.017482501
,,,2E-06,0.017625001
,,,2.01E-06,0.017625001
,,,2.02E-06,0.017435626
,,,2.03E-06,0.017407501
,,,2.04E-06,0.017435001
,,,2.05E-06,0.017675001
,,,2.06E-06,0.017661876
,,,2.07E-06,0.017728126
,,,2.08E-06,0.017645626
,,,2.09E-06,0.017605001
,,,2.1E-06,0.017545001
,,,2.11E-06,0.017681251
,,,2.12E-06,0.017619376
,,,2.13E-06,0.017337501
,,,2.14E-06,0.017445001
,,,2.15E-06,0.017347501
,,,2.16E-06,0.017226876
,,,2.17E-06,0.017515626
,,,2.18E-06,0.017393126
,,,2.19E-06,0.017711251
,,,2.2E-06,0.017461876
,,,2.21E-06,0.017438751
,,,2.22E-06,0.017751876
,,,2.23E-06,0.017566251
,,,2.24E-06,0.017461251
,,,2.25E-06,0.017445001
,,,2.26E-06,0.017646876
,,,2.27E-06,0.017290626
,,,2.28E-06,0.017397501
,,,2.29E-06,0.017525001
,,,2.3E-06,0.017637501
,,,2.31E-06,0.017530001
,,,2.32E-06,0.017595001
,,,2.33E-06,0.017488126
,,,2.34E-06,0.017325626
,,,2.35E-06,0.017456251
,,,2.36E-06,0.017425626
,,,2.37E-06,0.017563751
,,,2.38E-06,0.017865001
,,,2.39E-06,0.017840626
,,,2.4E-06,0.017560626
,,,2.41E-06,0.017433126
,,,2.42E-06,0.017431876
,,,2.43E-06,0.017451876
,,,2.44E-06,0.017412501
,,,2.45E-06,0.017281251
,,,2.46E-06,0.017393751
,,,2.47E-06,0.017651876
,,,2.48E-06,0.017645001
,,,2.49E-06,0.017395626
,,,2.5E-06,0.017584376
,,,2.51E-06,0.017553751
,,,2.52E-06,0.017571876
,,,2.53E-06,0.017659376
,,,2.54E-06,0.017284376
,,,2.55E-06,0.017457501
,,,2.56E-06,0.017207501
,,,2.57E-06,0.017896251
,,,2.58E-06,0.017562501
,,,2.59E-06,0.017686251
,,,2.6E-06,0.017561251
,,,2.61E-06,0.017829376
,,,2.62E-06,0.017743751
,,,2.63E-06,0.017424376
,,,2.64E-06,0.017586251
,,,2.65E-06,0.017634376
,,,2.66E-06,0.017758751
,,,2.67E-06,0.017555626
,,,2.68E-06,0.017439376
,,,2.69E-06,0.017500001
,,,2.7E-06,0.017425001
,,,2.71E-06,0.017554376
,,,2.72E-06,0.017551251
,,,2.73E-06,0.017359376
,,,2.74E-06,0.017712501
,,,2.75E-06,0.017425001
,,,2.76E-06,0.017684376
,,,2.77E-06,0.017443751
,,,2.78E-06,0.017699376
,,,2.79E-06,0.017538126
,,,2.8E-06,0.017609376
,,,2.81E-06,0.017448126
,,,2.82E-06,0.017713751
,,,2.83E-06,0.017528126
,,,2.84E-06,0.017578126
,,,2.85E-06,0.017580626
,,,2.86E-06,0.017208126
,,,2.87E-06,0.017601876
,,,2.88E-06,0.017729376
,,,2.89E-06,0.017570626
,,,2.9E-06,0.017395626
,,,2.91E-06,0.017821251
,,,2.92E-06,0.017718126
,,,2.93E-06,0.017511876
,,,2.94E-06,0.017336876
,,,2.95E-06,0.017534376
,,,2.96E-06,0.017700001
,,,2.97E-06,0.017448751
,,,2.98E-06,0.017405626
,,,2.99E-06,0.017430626
,,,3E-06,0.017724376
,,,3.01E-06,0.017441876
,,,3.02E-06,0.017353126
,,,3.03E-06,0.017470626
,,,3.04E-06,0.017658126
,,,3.05E-06,0.017210626
,,,3.06E-06,0.017461251
,,,3.07E-06,0.017590001
,,,3.08E-06,0.017638126
,,,3.09E-06,0.017536876
,,,3.1E-06,0.017415626
,,,3.11E-06,0.017608126
,,,3.12E-06,0.017540001
,,,3.13E-06,0.017323126
,,,3.14E-06,0.017521251
,,,3.15E-06,0.017667501
,,,3.16E-06,0.017563126
,,,3.17E-06,0.017507501
,,,3.18E-06,0.017628126
,,,3.19E-06,0.017875626
,,,3.2E-06,0.017575626
,,,3.21E-06,0.017443126
