data/raw/Final_POL_Test_1/SOP043_Ch1.csv

"Record Length",1000,"Points",-5E-06,0.008451875
"Sample Interval",1E-08,s,-4.99E-06,0.008505
"Trigger Point",500,"Samples",-4.98E-06,0.008591875
"Trigger Time",0,s,-4.97E-06,0.00829625
"",,,-4.96E-06,0.008431875
"Horizontal Offset",-5E-06,s,-4.95E-06,0.008545625
,,,-4.94E-06,0.008256875
,,,-4.93E-06,0.00835
,,,-4.92E-06,0.0083475
,,,-4.91E-06,0.008598125
,,,-4.9E-06,0.008189375
,,,-4.89E-06,0.00836625
,,,-4.88E-06,0.008649375
,,,-4.87E-06,0.008161875
,,,-4.86E-06,0.008125
,,,-4.85E-06,0.00819
,,,-4.84E-06,0.008350625
,,,-4.83E-06,0.0083925
,,,-4.82E-06,0.008639375
,,,-4.81E-06,0.0086025
,,,-4.8E-06,0.008181875
,,,-4.79E-06,0.00847625
,,,-4.78E-06,0.008134375
,,,-4.77E-06,0.008173125
,,,-4.76E-06,0.008134375
,,,-4.75E-06,0.008428125
,,,-4.74E-06,0.008306875
,,,-4.73E-06,0.00842875
,,,-4.72E-06,0.008489375
,,,-4.71E-06,0.008795
,,,-4.7E-06,0.0084025
,,,-4.69E-06,0.008359375
,,,-4.68E-06,0.0081925
,,,-4.67E-06,0.008251875
,,,-4.66E-06,0.008545625
,,,-4.65E-06,0.00830125
,,,-4.64E-06,0.00850375
,,,-4.63E-06,0.008265625
,,,-4.62E-06,0.00830125
,,,-4.61E-06,0.00824625
,,,-4.6E-06,0.0086
,,,-4.59E-06,0.008315
,,,-4.58E-06,0.008459375
,,,-4.57E-06,0.008413125
,,,-4.56E-06,0.008664375
,,,-4.55E-06,0.00840875
,,,-4.54E-06,0.0083275
,,,-4.53E-06,0.008551875
,,,-4.52E-06,0.008451875
,,,-4.51E-06,0.0084
,,,-4.5E-06,0.008356875
,,,-4.49E-06,0.00817875
,,,-4.48E-06,0.00829875
,,,-4.47E-06,0.00849875
,,,-4.46E-06,0.008334375
,,,-4.45E-06,0.008511875
,,,-4.44E-06,0.00819125
,,,-4.43E-06,0.008049375
,,,-4.42E-06,0.00844
,,,-4.41E-06,0.008470625
,,,-4.4E-06,0.00832
,,,-4.39E-06,0.0087175
,,,-4.38E-06,0.00857875
,,,-4.37E-06,0.008340625
,,,-4.36E-06,0.00821125
,,,-4.35E-06,0.00838125
,,,-4.34E-06,0.008469375
,,,-4.33E-06,0.00862125
,,,-4.32E-06,0.008295625
,,,-4.31E-06,0.008489375
,,,-4.3E-06,0.0086425
,,,-4.29E-06,0.008395625
,,,-4.28E-06,0.008448125
,,,-4.27E-06,0.008498125
,,,-4.26E-06,0.008456875
,,,-4.25E-06,0.00843125
,,,-4.24E-06,0.008351875
,,,-4.23E-06,0.008516875
,,,-4.22E-06,0.00819625
,,,-4.21E-06,0.0083625
,,,-4.2E-06,0.008188125
,,,-4.19E-06,0.00824125
,,,-4.18E-06,0.008665
,,,-4.17E-06,0.008425625
,,,-4.16E-06,0.00863
,,,-4.15E-06,0.00849
,,,-4.14E-06,0.00849
,,,-4.13E-06,0.0083875
,,,-4.12E-06,0.008266875
,,,-4.11E-06,0.00845
,,,-4.1E-06,0.008260625
,,,-4.09E-06,0.0083125
,,,-4.08E-06,0.008371875
,,,-4.07E-06,0.00826375
,,,-4.06E-06,0.00852625
,,,-4.05E-06,0.00841875
,,,-4.04E-06,0.00834125
,,,-4.03E-06,0.00836125
,,,-4.02E-06,0.008415
,,,-4.01E-06,0.008391875
,,,-4E-06,0.008453125
,,,-3.99E-06,0.008254375
,,,-3.98E-06,0.008483125
,,,-3.97E-06,0.008448125
,,,-3.96E-06,0.008365625
,,,-3.95E-06,0.008265
,,,-3.94E-06,0.00809375
,,,-3.93E-06,0.008291875
,,,-3.92E-06,0.008431875
,,,-3.91E-06,0.008520625
,,,-3.9E-06,0.00845375
,,,-3.89E-06,0.00816625
,,,-3.88E-06,0.00811
,,,-3.87E-06,0.008100625
,,,-3.86E-06,0.00820375
,,,-3.85E-06,0.008269375
,,,-3.84E-06,0.00826
,,,-3.83E-06,0.00838875
,,,-3.82E-06,0.008508125
,,,-3.81E-06,0.00832375
,,,-3.8E-06,0.0083925
,,,-3.79E-06,0.008785
,,,-3.78E-06,0.008146875
,,,-3.77E-06,0.00850375
,,,-3.76E-06,0.00815
,,,-3.75E-06,0.008505625
,,,-3.74E-06,0.008498125
,,,-3.73E-06,0.008266875
,,,-3.72E-06,0.008646875
,,,-3.71E-06,0.008483125
,,,-3.7E-06,0.008463125
,,,-3.69E-06,0.0084175
,,,-3.68E-06,0.00821875
,,,-3.67E-06,0.008391875
,,,-3.66E-06,0.008425625
,,,-3.65E-06,0.008450625
,,,-3.64E-06,0.00855375
,,,-3.63E-06,0.00821375
,,,-3.62E-06,0.008515
,,,-3.61E-06,0.008379375
,,,-3.6E-06,0.008470625
,,,-3.59E-06,0.008263125
,,,-3.58E-06,0.008226875
,,,-3.57E-06,0.008248125
,,,-3.56E-06,0.0084275
,,,-3.55E-06,0.00848625
,,,-3.54E-06,0.008655
,,,-3.53E-06,0.008460625
,,,-3.52E-06,0.008336875
,,,-3.51E-06,0.008474375
,,,-3.5E-06,0.008214375
,,,-3.49E-06,0.0083575
,,,-3.48E-06,0.0081775
,,,-3.47E-06,0.008375
,,,-3.46E-06,0.00828
,,,-3.45E-06,0.008320625
,,,-3.44E-06,0.0082425
,,,-3.43E-06,0.00829375
,,,-3.42E-06,0.008320625
,,,-3.41E-06,0.00831
,,,-3.4E-06,0.00832125
,,,-3.39E-06,0.00834625
,,,-3.38E-06,0.00839375
,,,-3.37E-06,0.008265
,,,-3.36E-06,0.008465625
,,,-3.35E-06,0.008411875
,,,-3.34E-06,0.008321875
,,,-3.33E-06,0.008635625
,,,-3.32E-06,0.008255
,,,-3.31E-06,0.0082575
,,,-3.3E-06,0.008309375
,,,-3.29E-06,0.008429375
,,,-3.28E-06,0.008125
,,,-3.27E-06,0.00816125
,,,-3.26E-06,0.008246875
,,,-3.25E-06,0.008479375
,,,-3.24E-06,0.008515
,,,-3.23E-06,0.008436875
,,,-3.22E-06,0.008308125
,,,-3.21E-06,0.00821625
,,,-3.2E-06,0.008229375
,,,-3.19E-06,0.008350625
,,,-3.18E-06,0.008344375
,,,-3.17E-06,0.00862625
,,,-3.16E-06,0.008528125
,,,-3.15E-06,0.008495
,,,-3.14E-06,0.008873125
,,,-3.13E-06,0.00829375
,,,-3.12E-06,0.008358125
,,,-3.11E-06,0.008458125
,,,-3.1E-06,0.00834625
,,,-3.09E-06,0.00835125
,,,-3.08E-06,0.008356875
,,,-3.07E-06,0.0084725
,,,-3.06E-06,0.008639375
,,,-3.05E-06,0.008306875
,,,-3.04E-06,0.008183125
,,,-3.03E-06,0.00825625
,,,-3.02E-06,0.00817625
,,,-3.01E-06,0.008400625
,,,-3E-06,0.008546875
,,,-2.99E-06,0.008369375
,,,-2.98E-06,0.008529375
,,,-2.97E-06,0.00849375
,,,-2.96E-06,0.00842125
,,,-2.95E-06,0.00833125
,,,-2.94E-06,0.008203125
,,,-2.93E-06,0.008271875
,,,-2.92E-06,0.00848625
,,,-2.91E-06,0.008384375
,,,-2.9E-06,0.008290625
,,,-2.89E-06,0.00853125
,,,-2.88E-06,0.00828625
,,,-2.87E-06,0.00838
,,,-2.86E-06,0.00845125
,,,-2.85E-06,0.008324375
,,,-2.84E-06,0.008420625
,,,-2.83E-06,0.00854625
,,,-2.82E-06,0.008375
,,,-2.81E-06,0.00836
,,,-2.8E-06,0.008411875
,,,-2.79E-06,0.008255625
,,,-2.78E-06,0.0082325
,,,-2.77E-06,0.0083
,,,-2.76E-06,0.008258125
,,,-2.75E-06,0.008335
,,,-2.74E-06,0.008393125
,,,-2.73E-06,0.00853
,,,-2.72E-06,0.00846625
,,,-2.71E-06,0.0083075
,,,-2.7E-06,0.00815625
,,,-2.69E-06,0.008459375
,,,-2.68E-06,0.008171875
,,,-2.67E-06,0.008303125
,,,-2.66E-06,0.0085375
,,,-2.65E-06,0.008454375
,,,-2.64E-06,0.008289375
,,,-2.63E-06,0.0083325
,,,-2.62E-06,0.008338125
,,,-2.61E-06,0.008560625
,,,-2.6E-06,0.00857625
,,,-2.59E-06,0.0081525
,,,-2.58E-06,0.008266875
,,,-2.57E-06,0.008414375
,,,-2.56E-06,0.008244375
,,,-2.55E-06,0.00822625
,,,-2.54E-06,0.008305625
,,,-2.53E-06,0.008115625
,,,-2.52E-06,0.0083825
,,,-2.51E-06,0.0084125
,,,-2.5E-06,0.008550625
,,,-2.49E-06,0.008576875
,,,-2.48E-06,0.00843125
,,,-2.47E-06,0.008661875
,,,-2.46E-06,0.008234375
,,,-2.45E-06,0.00822375
,,,-2.44E-06,0.0084575
,,,-2.43E-06,0.00855
,,,-2.42E-06,0.008306875
,,,-2.41E-06,0.008565625
,,,-2.4E-06,0.00830875
,,,-2.39E-06,0.00855
,,,-2.38E-06,0.008193125
,,,-2.37E-06,0.008309375
,,,-2.36E-06,0.00825875
,,,-2.35E-06,0.00824
,,,-2.34E-06,0.008545
,,,-2.33E-06,0.008329375
,,,-2.32E-06,0.00853
,,,-2.31E-06,0.008256875
,,,-2.3E-06,0.00826625
,,,-2.29E-06,0.008395625
,,,-2.28E-06,0.00830625
,,,-2.27E-06,0.0084075
,,,-2.26E-06,0.0084175
,,,-2.25E-06,0.008418125
,,,-2.24E-06,0.008161875
,,,-2.23E-06,0.008398125
,,,-2.22E-06,0.008459375
,,,-2.21E-06,0.00823375
,,,-2.2E-06,0.00829625
,,,-2.19E-06,0.008309375
,,,-2.18E-06,0.008088125
,,,-2.17E-06,0.008235
,,,-2.16E-06,0.00852
,,,-2.15E-06,0.008405625
,,,-2.14E-06,0.00852
,,,-2.13E-06,0.008299375
,,,-2.12E-06,0.008475625
,,,-2.11E-06,0.008354375
,,,-2.1E-06,0.00861
,,,-2.09E-06,0.008194375
,,,-2.08E-06,0.008576875
,,,-2.07E-06,0.0081925
,,,-2.06E-06,0.008376875
,,,-2.05E-06,0.0084275
,,,-2.04E-06,0.00827
,,,-2.03E-06,0.00852125
,,,-2.02E-06,0.00844125
,,,-2.01E-06,0.008394375
,,,-2E-06,0.008610625
,,,-1.99E-06,0.008349375
,,,-1.98E-06,0.0083225
,,,-1.97E-06,0.008141875
,,,-1.96E-06,0.00836375
,,,-1.95E-06,0.0080675
,,,-1.94E-06,0.008281875
,,,-1.93E-06,0.008306875
,,,-1.92E-06,0.0082875
,,,-1.91E-06,0.00847125
,,,-1.9E-06,0.008188125
,,,-1.89E-06,0.008206875
,,,-1.88E-06,0.008368125
,,,-1.87E-06,0.008086875
,,,-1.86E-06,0.008425625
,,,-1.85E-06,0.008371875
,,,-1.84E-06,0.00825375
,,,-1.83E-06,0.00827625
,,,-1.82E-06,0.00834875
,,,-1.81E-06,0.00853125
,,,-1.8E-06,0.008416875
,,,-1.79E-06,0.008505
,,,-1.78E-06,0.0081625
,,,-1.77E-06,0.008048125
,,,-1.76E-06,0.00822875
,,,-1.75E-06,0.0084325
,,,-1.74E-06,0.008298125
,,,-1.73E-06,0.0083875
,,,-1.72E-06,0.008405
,,,-1.71E-06,0.008366875
,,,-1.7E-06,0.0083425
,,,-1.69E-06,0.0082725
,,,-1.68E-06,0.008511875
,,,-1.67E-06,0.008549375
,,,-1.66E-06,0.008329375
,,,-1.65E-06,0.008510625
,,,-1.64E-06,0.008113125
,,,-1.63E-06,0.00866125
,,,-1.62E-06,0.00829125
,,,-1.61E-06,0.0082825
,,,-1.6E-06,0.008355625
,,,-1.59E-06,0.00846875
,,,-1.58E-06,0.00864
,,,-1.57E-06,0.00843
,,,-1.56E-06,0.00831125
,,,-1.55E-06,0.008105625
,,,-1.54E-06,0.008089375
,,,-1.53E-06,0.0082625
,,,-1.52E-06,0.008506875
,,,-1.51E-06,0.00829
,,,-1.5E-06,0.00868
,,,-1.49E-06,0.008338125
,,,-1.48E-06,0.0082925
,,,-1.47E-06,0.00847375
,,,-1.46E-06,0.008524375
,,,-1.45E-06,0.00833375
,,,-1.44E-06,0.00862625
,,,-1.43E-06,0.008478125
,,,-1.42E-06,0.008389375
,,,-1.41E-06,0.00857
,,,-1.4E-06,0.008170625
,,,-1.39E-06,0.0083975
,,,-1.38E-06,0.0083125
,,,-1.37E-06,0.008434375
,,,-1.36E-06,0.008510625
,,,-1.35E-06,0.008456875
,,,-1.34E-06,0.008304375
,,,-1.33E-06,0.008241875
,,,-1.32E-06,0.008631875
,,,-1.31E-06,0.008275
,,,-1.3E-06,0.0083125
,,,-1.29E-06,0.008293125
,,,-1.28E-06,0.008153125
,,,-1.27E-06,0.008200625
,,,-1.26E-06,0.00886875
,,,-1.25E-06,0.008535625
,,,-1.24E-06,0.008126875
,,,-1.23E-06,0.008351875
,,,-1.22E-06,0.0083675
,,,-1.21E-06,0.008473125
,,,-1.2E-06,0.008383125
,,,-1.19E-06,0.008445625
,,,-1.18E-06,0.008364375
,,,-1.17E-06,0.00840625
,,,-1.16E-06,0.008270625
,,,-1.15E-06,0.008233125
,,,-1.14E-06,0.008151875
,,,-1.13E-06,0.008373125
,,,-1.12E-06,0.008155
,,,-1.11E-06,0.008269375
,,,-1.1E-06,0.00839375
,,,-1.09E-06,0.00827
,,,-1.08E-06,0.0081375
,,,-1.07E-06,0.00851625
,,,-1.06E-06,0.00824875
,,,-1.05E-06,0.008323125
,,,-1.04E-06,0.008443125
,,,-1.03E-06,0.008405625
,,,-1.02E-06,0.008621875
,,,-1.01E-06,0.00843
,,,-1E-06,0.008149375
,,,-9.9E-07,0.00821875
,,,-9.8E-07,0.008436875
,,,-9.7E-07,0.0083075
,,,-9.6E-07,0.008425625
,,,-9.5E-07,0.00826375
,,,-9.4E-07,0.008395625
,,,-9.3E-07,0.00847625
,,,-9.2E-07,0.008666875
,,,-9.1E-07,0.00826
,,,-9E-07,0.008324375
,,,-8.9E-07,0.00830875
,,,-8.8E-07,0.008336875
,,,-8.7E-07,0.008524375
,,,-8.6E-07,0.008351875
,,,-8.5E-07,0.00853875
,,,-8.4E-07,0.008608125
,,,-8.3E-07,0.008571875
,,,-8.2E-07,0.00831
,,,-8.1E-07,0.008398125
,,,-8E-07,0.008114375
,,,-7.9E-07,0.0084025
,,,-7.8E-07,0.008440625
,,,-7.7E-07,0.00826375
,,,-7.6E-07,0.0083825
,,,-7.5E-07,0.00847
,,,-7.4E-07,0.008185
,,,-7.3E-07,0.008500625
,,,-7.2E-07,0.00857
,,,-7.1E-07,0.008488125
,,,-7E-07,0.008544375
,,,-6.9E-07,0.0083625
,,,-6.8E-07,0.0085775
,,,-6.7E-07,0.0083
,,,-6.6E-07,0.00831875
,,,-6.5E-07,0.00838
,,,-6.4E-07,0.008450625
,,,-6.3E-07,0.008108125
,,,-6.2E-07,0.0084625
,,,-6.1E-07,0.00841875
,,,-6E-07,0.008429375
,,,-5.9E-07,0.008500625
,,,-5.8E-07,0.00862
,,,-5.7E-07,0.00823875
,,,-5.6E-07,0.0082275
,,,-5.5E-07,0.00817875
,,,-5.4E-07,0.00840375
,,,-5.3E-07,0.00847875
,,,-5.2E-07,0.00855125
,,,-5.1E-07,0.00837
,,,-5E-07,0.008465625
,,,-4.9E-07,0.00842125
,,,-4.8E-07,0.0083925
,,,-4.7E-07,0.008315
,,,-4.6E-07,0.00833125
,,,-4.5E-07,0.008379375
,,,-4.4E-07,0.008245
,,,-4.3E-07,0.008368125
,,,-4.2E-07,0.008626875
,,,-4.1E-07,0.00839375
,,,-4E-07,0.00849
,,,-3.9E-07,0.0082975
,,,-3.8E-07,0.00848625
,,,-3.7E-07,0.008273125
,,,-3.6E-07,0.00861125
,,,-3.5E-07,0.00844125
,,,-3.4E-07,0.008795625
,,,-3.3E-07,0.008360625
,,,-3.2E-07,0.0085
,,,-3.1E-07,0.008350625
,,,-3E-07,0.00855
,,,-2.9E-07,0.0083725
,,,-2.8E-07,0.008354375
,,,-2.7E-07,0.008416875
,,,-2.6E-07,0.008558125
,,,-2.5E-07,0.008268125
,,,-2.4E-07,0.0083275
,,,-2.3E-07,0.008279375
,,,-2.2E-07,0.0085425
,,,-2.1E-07,0.008490625
,,,-2E-07,0.0081975
,,,-1.9E-07,0.008646875
,,,-1.8E-07,0.00829875
,,,-1.7E-07,0.0084975
,,,-1.6E-07,0.008414375
,,,-1.5E-07,0.008293125
,,,-1.4E-07,0.008454375
,,,-1.3E-07,0.00861875
,,,-1.2E-07,0.00855375
,,,-1.1E-07,0.008429375
,,,-1E-07,0.00825375
,,,-9E-08,0.008416875
,,,-8E-08,0.008481875
,,,-7E-08,0.00812125
,,,-6E-08,0.008546875
,,,-5E-08,0.008484375
,,,-4E-08,0.009480625
,,,-3E-08,0.009393125
,,,-2E-08,0.00680125
,,,-1E-08,0.004735
,,,0,0.00526875
,,,1E-08,0.011054375
,,,2E-08,0.01306125
,,,3E-08,0.01255375
,,,4E-08,0.00802
,,,5E-08,0.005298125
,,,6E-08,0.00474625
,,,7E-08,0.006885625
,,,8E-08,0.009085
,,,9E-08,0.010718125
,,,1E-07,0.010750625
,,,1.1E-07,0.00937625
,,,1.2E-07,0.0076525
,,,1.3E-07,0.006660625
,,,1.4E-07,0.007330625
,,,1.5E-07,0.008656875
,,,1.6E-07,0.009046875
,,,1.7E-07,0.008780625
,,,1.8E-07,0.008478125
,,,1.9E-07,0.008648125
,,,2E-07,0.00846625
,,,2.1E-07,0.00820125
,,,2.2E-07,0.008178125
,,,2.3E-07,0.008256875
,,,2.4E-07,0.008565
,,,2.5E-07,0.008830625
,,,2.6E-07,0.008294375
,,,2.7E-07,0.00831125
,,,2.8E-07,0.008399375
,,,2.9E-07,0.00838625
,,,3E-07,0.00845375
,,,3.1E-07,0.00837
,,,3.2E-07,0.008378125
,,,3.3E-07,0.008390625
,,,3.4E-07,0.008186875
,,,3.5E-07,0.00842
,,,3.6E-07,0.00833875
,,,3.7E-07,0.00843375
,,,3.8E-07,0.008645
,,,3.9E-07,0.008471875
,,,4E-07,0.00853625
,,,4.1E-07,0.008121875
,,,4.2E-07,0.008204375
,,,4.3E-07,0.00865625
,,,4.4E-07,0.008518125
,,,4.5E-07,0.00822125
,,,4.6E-07,0.008328125
,,,4.7E-07,0.00828125
,,,4.8E-07,0.008320625
,,,4.9E-07,0.0081225
,,,5E-07,0.00853
,,,5.1E-07,0.008415625
,,,5.2E-07,0.00849125
,,,5.3E-07,0.007959375
,,,5.4E-07,0.008325625
,,,5.5E-07,0.00827375
,,,5.6E-07,0.008439375
,,,5.7E-07,0.00849125
,,,5.8E-07,0.00836125
,,,5.9E-07,0.008134375
,,,6E-07,0.00803375
,,,6.1E-07,0.008164375
,,,6.2E-07,0.0084775
,,,6.3E-07,0.0083175
,,,6.4E-07,0.00821625
,,,6.5E-07,0.008320625
,,,6.6E-07,0.008286875
,,,6.7E-07,0.008460625
,,,6.8E-07,0.008348125
,,,6.9E-07,0.008354375
,,,7E-07,0.008451875
,,,7.1E-07,0.00855625
,,,7.2E-07,0.008451875
,,,7.3E-07,0.0084
,,,7.4E-07,0.008384375
,,,7.5E-07,0.00832625
,,,7.6E-07,0.008320625
,,,7.7E-07,0.008613125
,,,7.8E-07,0.00843875
,,,7.9E-07,0.00819625
,,,8E-07,0.008229375
,,,8.1E-07,0.008434375
,,,8.2E-07,0.0082775
,,,8.3E-07,0.008081875
,,,8.4E-07,0.008425
,,,8.5E-07,0.008326875
,,,8.6E-07,0.00840875
,,,8.7E-07,0.008370625
,,,8.8E-07,0.00826875
,,,8.9E-07,0.00823875
,,,9E-07,0.00833875
,,,9.1E-07,0.008410625
,,,9.2E-07,0.008208125
,,,9.3E-07,0.008295
,,,9.4E-07,0.00843625
,,,9.5E-07,0.00824625
,,,9.6E-07,0.008445
,,,9.7E-07,0.00826
,,,9.8E-07,0.0081375
,,,9.9E-07,0.0084075
,,,1E-06,0.008391875
,,,1.01E-06,0.008341875
,,,1.02E-06,0.008256875
,,,1.03E-06,0.00833125
,,,1.04E-06,0.008218125
,,,1.05E-06,0.00828125
,,,1.06E-06,0.008515625
,,,1.07E-06,0.008335625
,,,1.08E-06,0.008293125
,,,1.09E-06,0.00849125
,,,1.1E-06,0.008384375
,,,1.11E-06,0.008473125
,,,1.12E-06,0.00840875
,,,1.13E-06,0.008585625
,,,1.14E-06,0.008570625
,,,1.15E-06,0.00844
,,,1.16E-06,0.00859875
,,,1.17E-06,0.008238125
,,,1.18E-06,0.00828
,,,1.19E-06,0.0086425
,,,1.2E-06,0.008420625
,,,1.21E-06,0.008121875
,,,1.22E-06,0.00849
,,,1.23E-06,0.008414375
,,,1.24E-06,0.008421875
,,,1.25E-06,0.00820625
,,,1.26E-06,0.008509375
,,,1.27E-06,0.0082325
,,,1.28E-06,0.00828625
,,,1.29E-06,0.008296875
,,,1.3E-06,0.008399375
,,,1.31E-06,0.008485625
,,,1.32E-06,0.0081875
,,,1.33E-06,0.00845
,,,1.34E-06,0.00829375
,,,1.35E-06,0.008473125
,,,1.36E-06,0.008195625
,,,1.37E-06,0.00836125
,,,1.38E-06,0.008269375
,,,1.39E-06,0.008425625
,,,1.4E-06,0.008454375
,,,1.41E-06,0.008389375
,,,1.42E-06,0.008341875
,,,1.43E-06,0.008225625
,,,1.44E-06,0.00829125
,,,1.45E-06,0.008319375
,,,1.46E-06,0.0083525
,,,1.47E-06,0.0083775
,,,1.48E-06,0.00841875
,,,1.49E-06,0.008528125
,,,1.5E-06,0.008319375
,,,1.51E-06,0.008215
,,,1.52E-06,0.00846375
,,,1.53E-06,0.008186875
,,,1.54E-06,0.00824875
,,,1.55E-06,0.008435625
,,,1.56E-06,0.00836
,,,1.57E-06,0.008670625
,,,1.58E-06,0.00842375
,,,1.59E-06,0.008430625
,,,1.6E-06,0.008243125
,,,1.61E-06,0.008263125
,,,1.62E-06,0.008376875
,,,1.63E-06,0.0081825
,,,1.64E-06,0.00830625
,,,1.65E-06,0.00822875
,,,1.66E-06,0.00854125
,,,1.67E-06,0.00835375
,,,1.68E-06,0.0085875
,,,1.69E-06,0.00832375
,,,1.7E-06,0.008298125
,,,1.71E-06,0.008556875
,,,1.72E-06,0.008343125
,,,1.73E-06,0.008615
,,,1.74E-06,0.00829125
,,,1.75E-06,0.00829625
,,,1.76E-06,0.00831625
,,,1.77E-06,0.008406875
,,,1.78E-06,0.008291875
,,,1.79E-06,0.008115625
,,,1.8E-06,0.00836
,,,1.81E-06,0.00837125
,,,1.82E-06,0.008523125
,,,1.83E-06,0.00805375
,,,1.84E-06,0.008581875
,,,1.85E-06,0.00841
,,,1.86E-06,0.00823
,,,1.87E-06,0.008261875
,,,1.88E-06,0.008318125
,,,1.89E-06,0.008390625
,,,1.9E-06,0.00846375
,,,1.91E-06,0.008550625
,,,1.92E-06,0.008566875
,,,1.93E-06,0.008143125
,,,1.94E-06,0.00824
,,,1.95E-06,0.0084275
,,,1.96E-06,0.008595
,,,1.97E-06,0.008431875
,,,1.98E-06,0.008205625
,,,1.99E-06,0.008249375
,,,2E-06,0.00843125
,,,2.01E-06,0.008470625
,,,2.02E-06,0.008148125
,,,2.03E-06,0.008388125
,,,2.04E-06,0.00858375
,,,2.05E-06,0.00853625
,,,2.06E-06,0.0084025
,,,2.07E-06,0.0084725
,,,2.08E-06,0.0082525
,,,2.09E-06,0.008413125
,,,2.1E-06,0.00816375
,,,2.11E-06,0.008349375
,,,2.12E-06,0.008415
,,,2.13E-06,0.00843875
,,,2.14E-06,0.008334375
,,,2.15E-06,0.00864875
,,,2.16E-06,0.008310625
,,,2.17E-06,0.008465625
,,,2.18E-06,0.008488125
,,,2.19E-06,0.008495625
,,,2.2E-06,0.008440625
,,,2.21E-06,0.0081925
,,,2.22E-06,0.00832125
,,,2.23E-06,0.008388125
,,,2.24E-06,0.0084275
,,,2.25E-06,0.0083825
,,,2.26E-06,0.00833125
,,,2.27E-06,0.00856
,,,2.28E-06,0.00843125
,,,2.29E-06,0.008468125
,,,2.3E-06,0.008366875
,,,2.31E-06,0.0084425
,,,2.32E-06,0.00845625
,,,2.33E-06,0.00841
,,,2.34E-06,0.00833875
,,,2.35E-06,0.008184375
,,,2.36E-06,0.008263125
,,,2.37E-06,0.008555
,,,2.38E-06,0.008345625
,,,2.39E-06,0.008520625
,,,2.4E-06,0.008369375
,,,2.41E-06,0.00836375
,,,2.42E-06,0.008384375
,,,2.43E-06,0.008105
,,,2.44E-06,0.0083825
,,,2.45E-06,0.008350625
,,,2.46E-06,0.008299375
,,,2.47E-06,0.00806375
,,,2.48E-06,0.00840625
,,,2.49E-06,0.00825125
,,,2.5E-06,0.008395625
,,,2.51E-06,0.008219375
,,,2.52E-06,0.00834
,,,2.53E-06,0.00822125
,,,2.54E-06,0.008375
,,,2.55E-06,0.00845875
,,,2.56E-06,0.00808875
,,,2.57E-06,0.008593125
,,,2.58E-06,0.008225625
,,,2.59E-06,0.008339375
,,,2.6E-06,0.008550625
,,,2.61E-06,0.008355
,,,2.62E-06,0.008309375
,,,2.63E-06,0.008380625
,,,2.64E-06,0.00818375
,,,2.65E-06,0.0083875
,,,2.66E-06,0.00834875
,,,2.67E-06,0.008355
,,,2.68E-06,0.008255
,,,2.69E-06,0.008440625
,,,2.7E-06,0.00828875
,,,2.71E-06,0.0083325
,,,2.72E-06,0.008504375
,,,2.73E-06,0.008281875
,,,2.74E-06,0.008279375
,,,2.75E-06,0.008186875
,,,2.76E-06,0.008308125
,,,2.77E-06,0.008553125
,,,2.78E-06,0.008098125
,,,2.79E-06,0.008761875
,,,2.8E-06,0.008344375
,,,2.81E-06,0.008438125
,,,2.82E-06,0.008498125
,,,2.83E-06,0.008441875
,,,2.84E-06,0.00847
,,,2.85E-06,0.008006875
,,,2.86E-06,0.008290625
,,,2.87E-06,0.00828875
,,,2.88E-06,0.00836625
,,,2.89E-06,0.008529375
,,,2.9E-06,0.008464375
,,,2.91E-06,0.008209375
,,,2.92E-06,0.008271875
,,,2.93E-06,0.00817
,,,2.94E-06,0.0081925
,,,2.95E-06,0.0081175
,,,2.96E-06,0.0082125
,,,2.97E-06,0.0083125
,,,2.98E-06,0.00847875
,,,2.99E-06,0.00837375
,,,3E-06,0.00838
,,,3.01E-06,0.0082475
,,,3.02E-06,0.008591875
,,,3.03E-06,0.008305625
,,,3.04E-06,0.008451875
,,,3.05E-06,0.008360625
,,,3.06E-06,0.00858
,,,3.07E-06,0.008385
,,,3.08E-06,0.008241875
,,,3.09E-06,0.0082075
,,,3.1E-06,0.008294375
,,,3.11E-06,0.008384375
,,,3.12E-06,0.008303125
,,,3.13E-06,0.008121875
,,,3.14E-06,0.008548125
,,,3.15E-06,0.0083925
,,,3.16E-06,0.0082925
,,,3.17E-06,0.0085875
,,,3.18E-06,0.00845875
,,,3.19E-06,0.008510625
,,,3.2E-06,0.00847875
,,,3.21E-06,0.0084575
,,,3.22E-06,0.008458125
,,,3.23E-06,0.008280625
,,,3.24E-06,0.00843125
,,,3.25E-06,0.00865875
,,,3.26E-06,0.00855375
,,,3.27E-06,0.008226875
,,,3.28E-06,0.00826125
,,,3.29E-06,0.008398125
,,,3.3E-06,0.008550625
,,,3.31E-06,0.0083125
,,,3.32E-06,0.008285
,,,3.33E-06,0.00827125
,,,3.34E-06,0.008443125
,,,3.35E-06,0.008155
,,,3.36E-06,0.008185
,,,3.37E-06,0.008081875
,,,3.38E-06,0.0079925
,,,3.39E-06,0.008435
,,,3.4E-06,0.008268125
,,,3.41E-06,0.008254375
,,,3.42E-06,0.008114375
,,,3.43E-06,0.00854125
,,,3.44E-06,0.008329375
,,,3.45E-06,0.008169375
,,,3.46E-06,0.00819125
,,,3.47E-06,0.008629375
,,,3.48E-06,0.0084825
,,,3.49E-06,0.008430625
,,,3.5E-06,0.0083
,,,3.51E-06,0.008385625
,,,3.52E-06,0.008141875
,,,3.53E-06,0.00816875
,,,3.54E-06,0.00842125
,,,3.55E-06,0.0082175
,,,3.56E-06,0.008415625
