data/raw/Final_POL_Test_1/SOP044_Ch1.csv

"Record Length",1000,"Points",-5E-06,0.005708125
"Sample Interval",1E-08,s,-4.99E-06,0.005553125
"Trigger Point",500,"Samples",-4.98E-06,0.00557625
"Trigger Time",0,s,-4.97E-06,0.00556875
"",,,-4.96E-06,0.00544125
"Horizontal Offset",-5E-06,s,-4.95E-06,0.00551875
,,,-4.94E-06,0.00566
,,,-4.93E-06,0.0057725
,,,-4.92E-06,0.0055675
,,,-4.91E-06,0.005493125
,,,-4.9E-06,0.005409375
,,,-4.89E-06,0.00569125
,,,-4.88E-06,0.005600625
,,,-4.87E-06,0.005683125
,,,-4.86E-06,0.005429375
,,,-4.85E-06,0.005606875
,,,-4.84E-06,0.005445
,,,-4.83E-06,0.005538125
,,,-4.82E-06,0.005674375
,,,-4.81E-06,0.00581875
,,,-4.8E-06,0.005518125
,,,-4.79E-06,0.005658125
,,,-4.78E-06,0.00549625
,,,-4.77E-06,0.00564875
,,,-4.76E-06,0.00549375
,,,-4.75E-06,0.0055825
,,,-4.74E-06,0.005611875
,,,-4.73E-06,0.00560625
,,,-4.72E-06,0.005613125
,,,-4.71E-06,0.0054675
,,,-4.7E-06,0.00539375
,,,-4.69E-06,0.00566375
,,,-4.68E-06,0.005551875
,,,-4.67E-06,0.005803125
,,,-4.66E-06,0.005680625
,,,-4.65E-06,0.005558125
,,,-4.64E-06,0.005685
,,,-4.63E-06,0.005641875
,,,-4.62E-06,0.0057225
,,,-4.61E-06,0.005471875
,,,-4.6E-06,0.00559375
,,,-4.59E-06,0.005430625
,,,-4.58E-06,0.005469375
,,,-4.57E-06,0.00564375
,,,-4.56E-06,0.005576875
,,,-4.55E-06,0.005645
,,,-4.54E-06,0.0055975
,,,-4.53E-06,0.005345625
,,,-4.52E-06,0.00554
,,,-4.51E-06,0.00578
,,,-4.5E-06,0.0056125
,,,-4.49E-06,0.005468125
,,,-4.48E-06,0.00546
,,,-4.47E-06,0.005683125
,,,-4.46E-06,0.00552875
,,,-4.45E-06,0.0056075
,,,-4.44E-06,0.005854375
,,,-4.43E-06,0.005678125
,,,-4.42E-06,0.00568125
,,,-4.41E-06,0.005515
,,,-4.4E-06,0.005634375
,,,-4.39E-06,0.0057825
,,,-4.38E-06,0.005413125
,,,-4.37E-06,0.00579875
,,,-4.36E-06,0.005425
,,,-4.35E-06,0.00562625
,,,-4.34E-06,0.005688125
,,,-4.33E-06,0.00537875
,,,-4.32E-06,0.00547125
,,,-4.31E-06,0.005784375
,,,-4.3E-06,0.00548875
,,,-4.29E-06,0.005689375
,,,-4.28E-06,0.005520625
,,,-4.27E-06,0.00563375
,,,-4.26E-06,0.005316875
,,,-4.25E-06,0.0056175
,,,-4.24E-06,0.00564625
,,,-4.23E-06,0.005489375
,,,-4.22E-06,0.005515625
,,,-4.21E-06,0.0056075
,,,-4.2E-06,0.005849375
,,,-4.19E-06,0.00545875
,,,-4.18E-06,0.005635
,,,-4.17E-06,0.005725
,,,-4.16E-06,0.005598125
,,,-4.15E-06,0.00553
,,,-4.14E-06,0.005684375
,,,-4.13E-06,0.005655
,,,-4.12E-06,0.005679375
,,,-4.11E-06,0.00554625
,,,-4.1E-06,0.0057725
,,,-4.09E-06,0.005386875
,,,-4.08E-06,0.005576875
,,,-4.07E-06,0.00551125
,,,-4.06E-06,0.0053675
,,,-4.05E-06,0.005599375
,,,-4.04E-06,0.005525625
,,,-4.03E-06,0.005401875
,,,-4.02E-06,0.00536625
,,,-4.01E-06,0.005574375
,,,-4E-06,0.005503125
,,,-3.99E-06,0.005609375
,,,-3.98E-06,0.005795625
,,,-3.97E-06,0.0056175
,,,-3.96E-06,0.00540625
,,,-3.95E-06,0.005500625
,,,-3.94E-06,0.00574
,,,-3.93E-06,0.005416875
,,,-3.92E-06,0.005503125
,,,-3.91E-06,0.005814375
,,,-3.9E-06,0.005565
,,,-3.89E-06,0.005514375
,,,-3.88E-06,0.00558375
,,,-3.87E-06,0.0055375
,,,-3.86E-06,0.005335625
,,,-3.85E-06,0.005599375
,,,-3.84E-06,0.005489375
,,,-3.83E-06,0.00570375
,,,-3.82E-06,0.00533375
,,,-3.81E-06,0.005784375
,,,-3.8E-06,0.005866875
,,,-3.79E-06,0.005623125
,,,-3.78E-06,0.005386875
,,,-3.77E-06,0.0055275
,,,-3.76E-06,0.00557875
,,,-3.75E-06,0.005791875
,,,-3.74E-06,0.005865
,,,-3.73E-06,0.005633125
,,,-3.72E-06,0.005788125
,,,-3.71E-06,0.005668125
,,,-3.7E-06,0.005378125
,,,-3.69E-06,0.005541875
,,,-3.68E-06,0.00530125
,,,-3.67E-06,0.005705
,,,-3.66E-06,0.005356875
,,,-3.65E-06,0.00561875
,,,-3.64E-06,0.005504375
,,,-3.63E-06,0.00557875
,,,-3.62E-06,0.005699375
,,,-3.61E-06,0.005690625
,,,-3.6E-06,0.005420625
,,,-3.59E-06,0.005300625
,,,-3.58E-06,0.005501875
,,,-3.57E-06,0.00557125
,,,-3.56E-06,0.0052825
,,,-3.55E-06,0.00564125
,,,-3.54E-06,0.00540875
,,,-3.53E-06,0.005309375
,,,-3.52E-06,0.00566
,,,-3.51E-06,0.005664375
,,,-3.5E-06,0.005634375
,,,-3.49E-06,0.0054725
,,,-3.48E-06,0.005511875
,,,-3.47E-06,0.005821875
,,,-3.46E-06,0.005555625
,,,-3.45E-06,0.0057225
,,,-3.44E-06,0.0054325
,,,-3.43E-06,0.005500625
,,,-3.42E-06,0.005334375
,,,-3.41E-06,0.005425
,,,-3.4E-06,0.005574375
,,,-3.39E-06,0.00563625
,,,-3.38E-06,0.005555
,,,-3.37E-06,0.00544875
,,,-3.36E-06,0.0054425
,,,-3.35E-06,0.00584375
,,,-3.34E-06,0.00543125
,,,-3.33E-06,0.00558125
,,,-3.32E-06,0.005675625
,,,-3.31E-06,0.005874375
,,,-3.3E-06,0.00563625
,,,-3.29E-06,0.00552625
,,,-3.28E-06,0.00541
,,,-3.27E-06,0.00559875
,,,-3.26E-06,0.00541625
,,,-3.25E-06,0.005669375
,,,-3.24E-06,0.005739375
,,,-3.23E-06,0.005674375
,,,-3.22E-06,0.00547875
,,,-3.21E-06,0.00567375
,,,-3.2E-06,0.00545
,,,-3.19E-06,0.00570875
,,,-3.18E-06,0.0054775
,,,-3.17E-06,0.005970625
,,,-3.16E-06,0.005455
,,,-3.15E-06,0.005470625
,,,-3.14E-06,0.005628125
,,,-3.13E-06,0.005563125
,,,-3.12E-06,0.00559875
,,,-3.11E-06,0.005548125
,,,-3.1E-06,0.0056125
,,,-3.09E-06,0.005726875
,,,-3.08E-06,0.0058125
,,,-3.07E-06,0.005569375
,,,-3.06E-06,0.005420625
,,,-3.05E-06,0.005838125
,,,-3.04E-06,0.005718125
,,,-3.03E-06,0.005295
,,,-3.02E-06,0.005615625
,,,-3.01E-06,0.0057475
,,,-3E-06,0.006004375
,,,-2.99E-06,0.00563875
,,,-2.98E-06,0.005499375
,,,-2.97E-06,0.00559125
,,,-2.96E-06,0.00560125
,,,-2.95E-06,0.00587375
,,,-2.94E-06,0.005640625
,,,-2.93E-06,0.00549875
,,,-2.92E-06,0.00544625
,,,-2.91E-06,0.005306875
,,,-2.9E-06,0.005551875
,,,-2.89E-06,0.00547
,,,-2.88E-06,0.00545125
,,,-2.87E-06,0.005463125
,,,-2.86E-06,0.00562875
,,,-2.85E-06,0.005630625
,,,-2.84E-06,0.00575375
,,,-2.83E-06,0.005465625
,,,-2.82E-06,0.0051525
,,,-2.81E-06,0.005409375
,,,-2.8E-06,0.005593125
,,,-2.79E-06,0.005834375
,,,-2.78E-06,0.005508125
,,,-2.77E-06,0.00540875
,,,-2.76E-06,0.00553875
,,,-2.75E-06,0.00583
,,,-2.74E-06,0.005661875
,,,-2.73E-06,0.005429375
,,,-2.72E-06,0.005669375
,,,-2.71E-06,0.005470625
,,,-2.7E-06,0.005440625
,,,-2.69E-06,0.005241875
,,,-2.68E-06,0.00554125
,,,-2.67E-06,0.005525625
,,,-2.66E-06,0.005614375
,,,-2.65E-06,0.005495
,,,-2.64E-06,0.0058
,,,-2.63E-06,0.005606875
,,,-2.62E-06,0.0055725
,,,-2.61E-06,0.005485
,,,-2.6E-06,0.00545625
,,,-2.59E-06,0.0053325
,,,-2.58E-06,0.00567125
,,,-2.57E-06,0.005435
,,,-2.56E-06,0.005455
,,,-2.55E-06,0.0056075
,,,-2.54E-06,0.005593125
,,,-2.53E-06,0.005566875
,,,-2.52E-06,0.005595
,,,-2.51E-06,0.005485
,,,-2.5E-06,0.00565
,,,-2.49E-06,0.005435
,,,-2.48E-06,0.005411875
,,,-2.47E-06,0.005675
,,,-2.46E-06,0.00571625
,,,-2.45E-06,0.00546625
,,,-2.44E-06,0.005764375
,,,-2.43E-06,0.00529125
,,,-2.42E-06,0.005525
,,,-2.41E-06,0.00544125
,,,-2.4E-06,0.00550375
,,,-2.39E-06,0.005580625
,,,-2.38E-06,0.005479375
,,,-2.37E-06,0.00548375
,,,-2.36E-06,0.005621875
,,,-2.35E-06,0.0057375
,,,-2.34E-06,0.00555
,,,-2.33E-06,0.005555625
,,,-2.32E-06,0.0055775
,,,-2.31E-06,0.0055975
,,,-2.3E-06,0.00559
,,,-2.29E-06,0.0054525
,,,-2.28E-06,0.005675625
,,,-2.27E-06,0.005400625
,,,-2.26E-06,0.00546625
,,,-2.25E-06,0.005435625
,,,-2.24E-06,0.005598125
,,,-2.23E-06,0.005575625
,,,-2.22E-06,0.005584375
,,,-2.21E-06,0.00561875
,,,-2.2E-06,0.005631875
,,,-2.19E-06,0.0053425
,,,-2.18E-06,0.005739375
,,,-2.17E-06,0.005393125
,,,-2.16E-06,0.005465
,,,-2.15E-06,0.00544375
,,,-2.14E-06,0.005776875
,,,-2.13E-06,0.005494375
,,,-2.12E-06,0.0053
,,,-2.11E-06,0.00553625
,,,-2.1E-06,0.005463125
,,,-2.09E-06,0.005504375
,,,-2.08E-06,0.00581
,,,-2.07E-06,0.0057325
,,,-2.06E-06,0.00554
,,,-2.05E-06,0.00544375
,,,-2.04E-06,0.00549875
,,,-2.03E-06,0.005388125
,,,-2.02E-06,0.005706875
,,,-2.01E-06,0.00554875
,,,-2E-06,0.0054275
,,,-1.99E-06,0.00565375
,,,-1.98E-06,0.005538125
,,,-1.97E-06,0.005678125
,,,-1.96E-06,0.005545
,,,-1.95E-06,0.0054975
,,,-1.94E-06,0.005471875
,,,-1.93E-06,0.005536875
,,,-1.92E-06,0.0054725
,,,-1.91E-06,0.00565875
,,,-1.9E-06,0.005455
,,,-1.89E-06,0.00571625
,,,-1.88E-06,0.005370625
,,,-1.87E-06,0.005516875
,,,-1.86E-06,0.005731875
,,,-1.85E-06,0.005598125
,,,-1.84E-06,0.005556875
,,,-1.83E-06,0.005594375
,,,-1.82E-06,0.00525875
,,,-1.81E-06,0.00534375
,,,-1.8E-06,0.0054525
,,,-1.79E-06,0.005536875
,,,-1.78E-06,0.005585
,,,-1.77E-06,0.005641875
,,,-1.76E-06,0.005511875
,,,-1.75E-06,0.00572
,,,-1.74E-06,0.00555125
,,,-1.73E-06,0.0056175
,,,-1.72E-06,0.0055275
,,,-1.71E-06,0.005675
,,,-1.7E-06,0.00574875
,,,-1.69E-06,0.005495625
,,,-1.68E-06,0.005809375
,,,-1.67E-06,0.0055275
,,,-1.66E-06,0.005449375
,,,-1.65E-06,0.005613125
,,,-1.64E-06,0.005346875
,,,-1.63E-06,0.00549875
,,,-1.62E-06,0.005589375
,,,-1.61E-06,0.00573
,,,-1.6E-06,0.00567
,,,-1.59E-06,0.005755
,,,-1.58E-06,0.005563125
,,,-1.57E-06,0.005288125
,,,-1.56E-06,0.005493125
,,,-1.55E-06,0.00527625
,,,-1.54E-06,0.0054625
,,,-1.53E-06,0.005549375
,,,-1.52E-06,0.005544375
,,,-1.51E-06,0.005671875
,,,-1.5E-06,0.005635625
,,,-1.49E-06,0.005555625
,,,-1.48E-06,0.00559125
,,,-1.47E-06,0.00548625
,,,-1.46E-06,0.0056375
,,,-1.45E-06,0.005555
,,,-1.44E-06,0.00559
,,,-1.43E-06,0.005589375
,,,-1.42E-06,0.005888125
,,,-1.41E-06,0.0060125
,,,-1.4E-06,0.00568
,,,-1.39E-06,0.005658125
,,,-1.38E-06,0.0053325
,,,-1.37E-06,0.005726875
,,,-1.36E-06,0.005670625
,,,-1.35E-06,0.00557
,,,-1.34E-06,0.00553125
,,,-1.33E-06,0.0056775
,,,-1.32E-06,0.00571625
,,,-1.31E-06,0.005536875
,,,-1.3E-06,0.00575625
,,,-1.29E-06,0.0056375
,,,-1.28E-06,0.005559375
,,,-1.27E-06,0.005743125
,,,-1.26E-06,0.005641875
,,,-1.25E-06,0.005438125
,,,-1.24E-06,0.0056
,,,-1.23E-06,0.005535625
,,,-1.22E-06,0.00556875
,,,-1.21E-06,0.005265625
,,,-1.2E-06,0.00566
,,,-1.19E-06,0.00566
,,,-1.18E-06,0.0055175
,,,-1.17E-06,0.005345
,,,-1.16E-06,0.0055225
,,,-1.15E-06,0.00543125
,,,-1.14E-06,0.00536375
,,,-1.13E-06,0.005396875
,,,-1.12E-06,0.00528375
,,,-1.11E-06,0.00584875
,,,-1.1E-06,0.005688125
,,,-1.09E-06,0.00566375
,,,-1.08E-06,0.005319375
,,,-1.07E-06,0.00567875
,,,-1.06E-06,0.005674375
,,,-1.05E-06,0.005390625
,,,-1.04E-06,0.00536875
,,,-1.03E-06,0.0055025
,,,-1.02E-06,0.005631875
,,,-1.01E-06,0.005656875
,,,-1E-06,0.005645625
,,,-9.9E-07,0.0053825
,,,-9.8E-07,0.005774375
,,,-9.7E-07,0.00583625
,,,-9.6E-07,0.005570625
,,,-9.5E-07,0.00558
,,,-9.4E-07,0.00569375
,,,-9.3E-07,0.005514375
,,,-9.2E-07,0.005346875
,,,-9.1E-07,0.00567
,,,-9E-07,0.00567625
,,,-8.9E-07,0.005360625
,,,-8.8E-07,0.005549375
,,,-8.7E-07,0.0054275
,,,-8.6E-07,0.005431875
,,,-8.5E-07,0.00561
,,,-8.4E-07,0.005570625
,,,-8.3E-07,0.005218125
,,,-8.2E-07,0.00558
,,,-8.1E-07,0.0054725
,,,-8E-07,0.005681875
,,,-7.9E-07,0.005541875
,,,-7.8E-07,0.00561125
,,,-7.7E-07,0.005706875
,,,-7.6E-07,0.005740625
,,,-7.5E-07,0.005525
,,,-7.4E-07,0.00586875
,,,-7.3E-07,0.00576875
,,,-7.2E-07,0.005684375
,,,-7.1E-07,0.00574875
,,,-7E-07,0.00543875
,,,-6.9E-07,0.00546625
,,,-6.8E-07,0.00565875
,,,-6.7E-07,0.005499375
,,,-6.6E-07,0.005566875
,,,-6.5E-07,0.00550125
,,,-6.4E-07,0.005540625
,,,-6.3E-07,0.005776875
,,,-6.2E-07,0.005429375
,,,-6.1E-07,0.00544375
,,,-6E-07,0.00536375
,,,-5.9E-07,0.0056225
,,,-5.8E-07,0.0055475
,,,-5.7E-07,0.005534375
,,,-5.6E-07,0.0053875
,,,-5.5E-07,0.005660625
,,,-5.4E-07,0.0054175
,,,-5.3E-07,0.005605625
,,,-5.2E-07,0.005354375
,,,-5.1E-07,0.00564875
,,,-5E-07,0.005661875
,,,-4.9E-07,0.005715625
,,,-4.8E-07,0.00557375
,,,-4.7E-07,0.005495
,,,-4.6E-07,0.00532625
,,,-4.5E-07,0.00575875
,,,-4.4E-07,0.00567125
,,,-4.3E-07,0.005790625
,,,-4.2E-07,0.005529375
,,,-4.1E-07,0.005645
,,,-4E-07,0.0054675
,,,-3.9E-07,0.00558
,,,-3.8E-07,0.0055875
,,,-3.7E-07,0.00545625
,,,-3.6E-07,0.005451875
,,,-3.5E-07,0.0054475
,,,-3.4E-07,0.00552375
,,,-3.3E-07,0.005609375
,,,-3.2E-07,0.00556375
,,,-3.1E-07,0.0055575
,,,-3E-07,0.005603125
,,,-2.9E-07,0.005549375
,,,-2.8E-07,0.005541875
,,,-2.7E-07,0.005551875
,,,-2.6E-07,0.005905625
,,,-2.5E-07,0.005299375
,,,-2.4E-07,0.0056375
,,,-2.3E-07,0.005211875
,,,-2.2E-07,0.005614375
,,,-2.1E-07,0.0057
,,,-2E-07,0.0057825
,,,-1.9E-07,0.00548375
,,,-1.8E-07,0.005749375
,,,-1.7E-07,0.005428125
,,,-1.6E-07,0.005796875
,,,-1.5E-07,0.00561
,,,-1.4E-07,0.005674375
,,,-1.3E-07,0.005455625
,,,-1.2E-07,0.00579
,,,-1.1E-07,0.005460625
,,,-1E-07,0.005485
,,,-9E-08,0.005664375
,,,-8E-08,0.00543875
,,,-7E-08,0.005628125
,,,-6E-08,0.00517
,,,-5E-08,0.005633125
,,,-4E-08,0.00612125
,,,-3E-08,0.0060425
,,,-2E-08,0.00463
,,,-1E-08,0.0033425
,,,0,0.00450875
,,,1E-08,0.00686
,,,2E-08,0.008283125
,,,3E-08,0.0072175
,,,4E-08,0.005200625
,,,5E-08,0.0037875
,,,6E-08,0.004061875
,,,7E-08,0.004696875
,,,8E-08,0.0060575
,,,9E-08,0.006714375
,,,1E-07,0.006466875
,,,1.1E-07,0.005754375
,,,1.2E-07,0.00485125
,,,1.3E-07,0.00491375
,,,1.4E-07,0.005496875
,,,1.5E-07,0.00583625
,,,1.6E-07,0.005865
,,,1.7E-07,0.005624375
,,,1.8E-07,0.00552375
,,,1.9E-07,0.00551125
,,,2E-07,0.00557125
,,,2.1E-07,0.005555625
,,,2.2E-07,0.005444375
,,,2.3E-07,0.005375625
,,,2.4E-07,0.005529375
,,,2.5E-07,0.0056725
,,,2.6E-07,0.005593125
,,,2.7E-07,0.005644375
,,,2.8E-07,0.00572625
,,,2.9E-07,0.005615
,,,3E-07,0.0056075
,,,3.1E-07,0.005466875
,,,3.2E-07,0.005493125
,,,3.3E-07,0.00569625
,,,3.4E-07,0.0056925
,,,3.5E-07,0.005491875
,,,3.6E-07,0.005636875
,,,3.7E-07,0.005755
,,,3.8E-07,0.005434375
,,,3.9E-07,0.00592
,,,4E-07,0.005581875
,,,4.1E-07,0.005439375
,,,4.2E-07,0.00564
,,,4.3E-07,0.005761875
,,,4.4E-07,0.00554625
,,,4.5E-07,0.005903125
,,,4.6E-07,0.005594375
,,,4.7E-07,0.0054
,,,4.8E-07,0.005454375
,,,4.9E-07,0.005449375
,,,5E-07,0.005655
,,,5.1E-07,0.005525625
,,,5.2E-07,0.00556375
,,,5.3E-07,0.00552375
,,,5.4E-07,0.005673125
,,,5.5E-07,0.005329375
,,,5.6E-07,0.0056575
,,,5.7E-07,0.005411875
,,,5.8E-07,0.005541875
,,,5.9E-07,0.005653125
,,,6E-07,0.00566625
,,,6.1E-07,0.00544
,,,6.2E-07,0.0054675
,,,6.3E-07,0.005459375
,,,6.4E-07,0.00578375
,,,6.5E-07,0.005703125
,,,6.6E-07,0.005748125
,,,6.7E-07,0.00540875
,,,6.8E-07,0.005674375
,,,6.9E-07,0.0055225
,,,7E-07,0.00560125
,,,7.1E-07,0.005413125
,,,7.2E-07,0.005396875
,,,7.3E-07,0.005764375
,,,7.4E-07,0.005483125
,,,7.5E-07,0.005301875
,,,7.6E-07,0.005429375
,,,7.7E-07,0.0055125
,,,7.8E-07,0.0053675
,,,7.9E-07,0.005344375
,,,8E-07,0.005701875
,,,8.1E-07,0.005505625
,,,8.2E-07,0.005493125
,,,8.3E-07,0.005690625
,,,8.4E-07,0.005496875
,,,8.5E-07,0.0055475
,,,8.6E-07,0.0054875
,,,8.7E-07,0.00539125
,,,8.8E-07,0.005606875
,,,8.9E-07,0.005380625
,,,9E-07,0.0055875
,,,9.1E-07,0.005701875
,,,9.2E-07,0.00561125
,,,9.3E-07,0.005571875
,,,9.4E-07,0.005476875
,,,9.5E-07,0.0054825
,,,9.6E-07,0.00554625
,,,9.7E-07,0.0055575
,,,9.8E-07,0.005705625
,,,9.9E-07,0.005578125
,,,1E-06,0.005666875
,,,1.01E-06,0.00573875
,,,1.02E-06,0.0055475
,,,1.03E-06,0.005386875
,,,1.04E-06,0.005488125
,,,1.05E-06,0.005648125
,,,1.06E-06,0.00554
,,,1.07E-06,0.005824375
,,,1.08E-06,0.005856875
,,,1.09E-06,0.00559
,,,1.1E-06,0.005381875
,,,1.11E-06,0.00559125
,,,1.12E-06,0.00551375
,,,1.13E-06,0.005218125
,,,1.14E-06,0.00555
,,,1.15E-06,0.00556
,,,1.16E-06,0.0055
,,,1.17E-06,0.00566375
,,,1.18E-06,0.005515
,,,1.19E-06,0.005434375
,,,1.2E-06,0.0056325
,,,1.21E-06,0.005716875
,,,1.22E-06,0.00539375
,,,1.23E-06,0.005636875
,,,1.24E-06,0.005690625
,,,1.25E-06,0.005569375
,,,1.26E-06,0.0055625
,,,1.27E-06,0.00540125
,,,1.28E-06,0.005613125
,,,1.29E-06,0.005674375
,,,1.3E-06,0.005356875
,,,1.31E-06,0.0056975
,,,1.32E-06,0.005474375
,,,1.33E-06,0.005524375
,,,1.34E-06,0.005385
,,,1.35E-06,0.005755
,,,1.36E-06,0.005463125
,,,1.37E-06,0.005745625
,,,1.38E-06,0.00557875
,,,1.39E-06,0.005524375
,,,1.4E-06,0.005574375
,,,1.41E-06,0.005666875
,,,1.42E-06,0.0055975
,,,1.43E-06,0.00555375
,,,1.44E-06,0.00547875
,,,1.45E-06,0.00555625
,,,1.46E-06,0.005385625
,,,1.47E-06,0.005765625
,,,1.48E-06,0.0056225
,,,1.49E-06,0.005353125
,,,1.5E-06,0.00583625
,,,1.51E-06,0.005480625
,,,1.52E-06,0.005640625
,,,1.53E-06,0.00565125
,,,1.54E-06,0.005575625
,,,1.55E-06,0.00589625
,,,1.56E-06,0.005438125
,,,1.57E-06,0.005644375
,,,1.58E-06,0.005349375
,,,1.59E-06,0.005386875
,,,1.6E-06,0.005455625
,,,1.61E-06,0.0056425
,,,1.62E-06,0.0056425
,,,1.63E-06,0.005621875
,,,1.64E-06,0.00538875
,,,1.65E-06,0.005675625
,,,1.66E-06,0.00556125
,,,1.67E-06,0.005661875
,,,1.68E-06,0.00570375
,,,1.69E-06,0.005339375
,,,1.7E-06,0.00563875
,,,1.71E-06,0.005406875
,,,1.72E-06,0.00563625
,,,1.73E-06,0.0056275
,,,1.74E-06,0.005605
,,,1.75E-06,0.00570625
,,,1.76E-06,0.005458125
,,,1.77E-06,0.005498125
,,,1.78E-06,0.005340625
,,,1.79E-06,0.00548375
,,,1.8E-06,0.0056225
,,,1.81E-06,0.005565
,,,1.82E-06,0.00552875
,,,1.83E-06,0.00547
,,,1.84E-06,0.005554375
,,,1.85E-06,0.005531875
,,,1.86E-06,0.00531
,,,1.87E-06,0.005539375
,,,1.88E-06,0.005735625
,,,1.89E-06,0.00551
,,,1.9E-06,0.00569625
,,,1.91E-06,0.005653125
,,,1.92E-06,0.005530625
,,,1.93E-06,0.005848125
,,,1.94E-06,0.006214375
,,,1.95E-06,0.00563375
,,,1.96E-06,0.0057375
,,,1.97E-06,0.0056875
,,,1.98E-06,0.00561125
,,,1.99E-06,0.005655625
,,,2E-06,0.00545375
,,,2.01E-06,0.00546625
,,,2.02E-06,0.005366875
,,,2.03E-06,0.005580625
,,,2.04E-06,0.005400625
,,,2.05E-06,0.00555
,,,2.06E-06,0.00557625
,,,2.07E-06,0.0054875
,,,2.08E-06,0.005471875
,,,2.09E-06,0.0054025
,,,2.1E-06,0.0054875
,,,2.11E-06,0.005729375
,,,2.12E-06,0.00556625
,,,2.13E-06,0.005715
,,,2.14E-06,0.00549
,,,2.15E-06,0.0055425
,,,2.16E-06,0.00566
,,,2.17E-06,0.005571875
,,,2.18E-06,0.0056625
,,,2.19E-06,0.005619375
,,,2.2E-06,0.005665
,,,2.21E-06,0.0054275
,,,2.22E-06,0.005728125
,,,2.23E-06,0.00539375
,,,2.24E-06,0.00569875
,,,2.25E-06,0.005728125
,,,2.26E-06,0.005579375
,,,2.27E-06,0.005579375
,,,2.28E-06,0.005541875
,,,2.29E-06,0.00558375
,,,2.3E-06,0.005473125
,,,2.31E-06,0.00542375
,,,2.32E-06,0.005413125
,,,2.33E-06,0.00552
,,,2.34E-06,0.005465625
,,,2.35E-06,0.00537375
,,,2.36E-06,0.005641875
,,,2.37E-06,0.0054625
,,,2.38E-06,0.00568125
,,,2.39E-06,0.0057525
,,,2.4E-06,0.00561625
,,,2.41E-06,0.00547125
,,,2.42E-06,0.005549375
,,,2.43E-06,0.005651875
,,,2.44E-06,0.00570875
,,,2.45E-06,0.0056325
,,,2.46E-06,0.005530625
,,,2.47E-06,0.0057225
,,,2.48E-06,0.005643125
,,,2.49E-06,0.00567
,,,2.5E-06,0.005515625
,,,2.51E-06,0.00571
,,,2.52E-06,0.005525625
,,,2.53E-06,0.005535625
,,,2.54E-06,0.005475625
,,,2.55E-06,0.005694375
,,,2.56E-06,0.00577625
,,,2.57E-06,0.005585625
,,,2.58E-06,0.005460625
,,,2.59E-06,0.005481875
,,,2.6E-06,0.005815625
,,,2.61E-06,0.00566625
,,,2.62E-06,0.00557375
,,,2.63E-06,0.005435
,,,2.64E-06,0.005441875
,,,2.65E-06,0.00578625
,,,2.66E-06,0.005531875
,,,2.67E-06,0.00563875
,,,2.68E-06,0.00561375
,,,2.69E-06,0.00561125
,,,2.7E-06,0.005508125
,,,2.71E-06,0.005665625
,,,2.72E-06,0.005704375
,,,2.73E-06,0.005644375
,,,2.74E-06,0.005504375
,,,2.75E-06,0.005540625
,,,2.76E-06,0.005619375
,,,2.77E-06,0.0055875
,,,2.78E-06,0.00552625
,,,2.79E-06,0.00544125
,,,2.8E-06,0.005675
,,,2.81E-06,0.005566875
,,,2.82E-06,0.005529375
,,,2.83E-06,0.00562125
,,,2.84E-06,0.005433125
,,,2.85E-06,0.00554875
,,,2.86E-06,0.005700625
,,,2.87E-06,0.005625
,,,2.88E-06,0.00583375
,,,2.89E-06,0.00559125
,,,2.9E-06,0.0054475
,,,2.91E-06,0.005496875
,,,2.92E-06,0.00555125
,,,2.93E-06,0.00543
,,,2.94E-06,0.005548125
,,,2.95E-06,0.00565375
,,,2.96E-06,0.005643125
,,,2.97E-06,0.005531875
,,,2.98E-06,0.00554
,,,2.99E-06,0.00551625
,,,3E-06,0.005550625
,,,3.01E-06,0.005533125
,,,3.02E-06,0.00531625
,,,3.03E-06,0.005365
,,,3.04E-06,0.00554
,,,3.05E-06,0.00554375
,,,3.06E-06,0.005995
,,,3.07E-06,0.005439375
,,,3.08E-06,0.005551875
,,,3.09E-06,0.005468125
,,,3.1E-06,0.005645625
,,,3.11E-06,0.005603125
,,,3.12E-06,0.005576875
,,,3.13E-06,0.005640625
,,,3.14E-06,0.005558125
,,,3.15E-06,0.005598125
,,,3.16E-06,0.005545625
,,,3.17E-06,0.00531125
,,,3.18E-06,0.00533375
,,,3.19E-06,0.005605
,,,3.2E-06,0.0056125
,,,3.21E-06,0.0056325
,,,3.22E-06,0.0058225
,,,3.23E-06,0.00568
,,,3.24E-06,0.00553
,,,3.25E-06,0.005478125
,,,3.26E-06,0.0052925
,,,3.27E-06,0.005688125
,,,3.28E-06,0.005769375
,,,3.29E-06,0.005615
,,,3.3E-06,0.005650625
,,,3.31E-06,0.005645625
,,,3.32E-06,0.00562375
,,,3.33E-06,0.005831875
,,,3.34E-06,0.0056275
,,,3.35E-06,0.005609375
,,,3.36E-06,0.00559
,,,3.37E-06,0.005598125
,,,3.38E-06,0.00571875
,,,3.39E-06,0.00560625
,,,3.4E-06,0.005363125
,,,3.41E-06,0.005645625
,,,3.42E-06,0.005538125
,,,3.43E-06,0.005490625
,,,3.44E-06,0.005588125
,,,3.45E-06,0.005581875
,,,3.46E-06,0.00564125
,,,3.47E-06,0.0055575
,,,3.48E-06,0.0054925
,,,3.49E-06,0.005605625
,,,3.5E-06,0.005775
,,,3.51E-06,0.0055425
,,,3.52E-06,0.005564375
,,,3.53E-06,0.005205625
,,,3.54E-06,0.00585375
,,,3.55E-06,0.005625625
,,,3.56E-06,0.005833125
