data/raw/Final_POL_Test_1/SOP016_Ch4.csv

"Record Length",1000,"Points",-5E-06,0.019290625
"Sample Interval",1E-08,s,-4.99E-06,0.019225
"Trigger Point",500,"Samples",-4.98E-06,0.01948
"Trigger Time",0,s,-4.97E-06,0.01945125
"",,,-4.96E-06,0.019355625
"Horizontal Offset",-5E-06,s,-4.95E-06,0.019271875
,,,-4.94E-06,0.019121875
,,,-4.93E-06,0.019328125
,,,-4.92E-06,0.019480625
,,,-4.91E-06,0.019605
,,,-4.9E-06,0.01913125
,,,-4.89E-06,0.01936
,,,-4.88E-06,0.01929125
,,,-4.87E-06,0.019491875
,,,-4.86E-06,0.019240625
,,,-4.85E-06,0.0194425
,,,-4.84E-06,0.019414375
,,,-4.83E-06,0.019251875
,,,-4.82E-06,0.019253125
,,,-4.81E-06,0.0194975
,,,-4.8E-06,0.01940875
,,,-4.79E-06,0.01934625
,,,-4.78E-06,0.019416875
,,,-4.77E-06,0.019405
,,,-4.76E-06,0.019545625
,,,-4.75E-06,0.0193975
,,,-4.74E-06,0.019419375
,,,-4.73E-06,0.0196025
,,,-4.72E-06,0.019038125
,,,-4.71E-06,0.019236875
,,,-4.7E-06,0.0193425
,,,-4.69E-06,0.019364375
,,,-4.68E-06,0.01924375
,,,-4.67E-06,0.019440625
,,,-4.66E-06,0.01948875
,,,-4.65E-06,0.019345
,,,-4.64E-06,0.019293125
,,,-4.63E-06,0.019090625
,,,-4.62E-06,0.019055625
,,,-4.61E-06,0.01947
,,,-4.6E-06,0.019351875
,,,-4.59E-06,0.019330625
,,,-4.58E-06,0.019455
,,,-4.57E-06,0.01917
,,,-4.56E-06,0.019430625
,,,-4.55E-06,0.019114375
,,,-4.54E-06,0.019440625
,,,-4.53E-06,0.01912375
,,,-4.52E-06,0.01942
,,,-4.51E-06,0.019705
,,,-4.5E-06,0.019265
,,,-4.49E-06,0.019128125
,,,-4.48E-06,0.01933375
,,,-4.47E-06,0.01916
,,,-4.46E-06,0.01938125
,,,-4.45E-06,0.01936875
,,,-4.44E-06,0.01922875
,,,-4.43E-06,0.01935875
,,,-4.42E-06,0.019550625
,,,-4.41E-06,0.019451875
,,,-4.4E-06,0.0192525
,,,-4.39E-06,0.019486875
,,,-4.38E-06,0.019203125
,,,-4.37E-06,0.0193125
,,,-4.36E-06,0.0191625
,,,-4.35E-06,0.019269375
,,,-4.34E-06,0.0193425
,,,-4.33E-06,0.0195475
,,,-4.32E-06,0.01946375
,,,-4.31E-06,0.01938125
,,,-4.3E-06,0.01933
,,,-4.29E-06,0.0193775
,,,-4.28E-06,0.01922
,,,-4.27E-06,0.019378125
,,,-4.26E-06,0.01914875
,,,-4.25E-06,0.01938125
,,,-4.24E-06,0.019469375
,,,-4.23E-06,0.019299375
,,,-4.22E-06,0.019345625
,,,-4.21E-06,0.018959375
,,,-4.2E-06,0.019356875
,,,-4.19E-06,0.019378125
,,,-4.18E-06,0.0194875
,,,-4.17E-06,0.0192475
,,,-4.16E-06,0.0194
,,,-4.15E-06,0.01919125
,,,-4.14E-06,0.01940625
,,,-4.13E-06,0.01933375
,,,-4.12E-06,0.019500625
,,,-4.11E-06,0.01934375
,,,-4.1E-06,0.019495
,,,-4.09E-06,0.01915625
,,,-4.08E-06,0.01911625
,,,-4.07E-06,0.01944375
,,,-4.06E-06,0.019350625
,,,-4.05E-06,0.0193825
,,,-4.04E-06,0.019383125
,,,-4.03E-06,0.019210625
,,,-4.02E-06,0.0195425
,,,-4.01E-06,0.01946625
,,,-4E-06,0.01926375
,,,-3.99E-06,0.01933125
,,,-3.98E-06,0.019238125
,,,-3.97E-06,0.019300625
,,,-3.96E-06,0.01930875
,,,-3.95E-06,0.019575625
,,,-3.94E-06,0.0194375
,,,-3.93E-06,0.01934375
,,,-3.92E-06,0.019255
,,,-3.91E-06,0.01931625
,,,-3.9E-06,0.019215625
,,,-3.89E-06,0.019629375
,,,-3.88E-06,0.019194375
,,,-3.87E-06,0.019330625
,,,-3.86E-06,0.01928875
,,,-3.85E-06,0.01934875
,,,-3.84E-06,0.01924125
,,,-3.83E-06,0.0192
,,,-3.82E-06,0.01943125
,,,-3.81E-06,0.019396875
,,,-3.8E-06,0.01949875
,,,-3.79E-06,0.01935625
,,,-3.78E-06,0.019495625
,,,-3.77E-06,0.019581875
,,,-3.76E-06,0.019365
,,,-3.75E-06,0.019236875
,,,-3.74E-06,0.019310625
,,,-3.73E-06,0.019455
,,,-3.72E-06,0.019405
,,,-3.71E-06,0.019185
,,,-3.7E-06,0.01924875
,,,-3.69E-06,0.01932875
,,,-3.68E-06,0.019186875
,,,-3.67E-06,0.019253125
,,,-3.66E-06,0.019459375
,,,-3.65E-06,0.01934875
,,,-3.64E-06,0.01941625
,,,-3.63E-06,0.0194575
,,,-3.62E-06,0.0194325
,,,-3.61E-06,0.0192075
,,,-3.6E-06,0.0194975
,,,-3.59E-06,0.019394375
,,,-3.58E-06,0.0193125
,,,-3.57E-06,0.019465
,,,-3.56E-06,0.019505
,,,-3.55E-06,0.0192675
,,,-3.54E-06,0.0194675
,,,-3.53E-06,0.019523125
,,,-3.52E-06,0.019230625
,,,-3.51E-06,0.01935125
,,,-3.5E-06,0.019321875
,,,-3.49E-06,0.019461875
,,,-3.48E-06,0.0194625
,,,-3.47E-06,0.019473125
,,,-3.46E-06,0.019410625
,,,-3.45E-06,0.01923125
,,,-3.44E-06,0.019270625
,,,-3.43E-06,0.019468125
,,,-3.42E-06,0.0194275
,,,-3.41E-06,0.01958625
,,,-3.4E-06,0.01936
,,,-3.39E-06,0.01942
,,,-3.38E-06,0.019310625
,,,-3.37E-06,0.01961
,,,-3.36E-06,0.01947
,,,-3.35E-06,0.01953125
,,,-3.34E-06,0.019241875
,,,-3.33E-06,0.019325625
,,,-3.32E-06,0.019351875
,,,-3.31E-06,0.019350625
,,,-3.3E-06,0.0194625
,,,-3.29E-06,0.019545625
,,,-3.28E-06,0.019209375
,,,-3.27E-06,0.019393125
,,,-3.26E-06,0.01926875
,,,-3.25E-06,0.01939875
,,,-3.24E-06,0.0192175
,,,-3.23E-06,0.019214375
,,,-3.22E-06,0.0191025
,,,-3.21E-06,0.01924375
,,,-3.2E-06,0.01925875
,,,-3.19E-06,0.019463125
,,,-3.18E-06,0.019408125
,,,-3.17E-06,0.019455
,,,-3.16E-06,0.019376875
,,,-3.15E-06,0.019429375
,,,-3.14E-06,0.019421875
,,,-3.13E-06,0.019494375
,,,-3.12E-06,0.019325625
,,,-3.11E-06,0.01939625
,,,-3.1E-06,0.019285625
,,,-3.09E-06,0.019439375
,,,-3.08E-06,0.0193625
,,,-3.07E-06,0.019428125
,,,-3.06E-06,0.0193025
,,,-3.05E-06,0.01917875
,,,-3.04E-06,0.019260625
,,,-3.03E-06,0.0194875
,,,-3.02E-06,0.019370625
,,,-3.01E-06,0.0194375
,,,-3E-06,0.019396875
,,,-2.99E-06,0.01930875
,,,-2.98E-06,0.01935875
,,,-2.97E-06,0.019450625
,,,-2.96E-06,0.0194225
,,,-2.95E-06,0.01949
,,,-2.94E-06,0.01932
,,,-2.93E-06,0.019319375
,,,-2.92E-06,0.019180625
,,,-2.91E-06,0.01958875
,,,-2.9E-06,0.01925125
,,,-2.89E-06,0.019256875
,,,-2.88E-06,0.01919375
,,,-2.87E-06,0.01931875
,,,-2.86E-06,0.01915875
,,,-2.85E-06,0.019266875
,,,-2.84E-06,0.01937875
,,,-2.83E-06,0.019529375
,,,-2.82E-06,0.01933625
,,,-2.81E-06,0.01940625
,,,-2.8E-06,0.019535625
,,,-2.79E-06,0.019471875
,,,-2.78E-06,0.019408125
,,,-2.77E-06,0.019180625
,,,-2.76E-06,0.019201875
,,,-2.75E-06,0.019294375
,,,-2.74E-06,0.019295
,,,-2.73E-06,0.01926875
,,,-2.72E-06,0.019186875
,,,-2.71E-06,0.01939375
,,,-2.7E-06,0.019180625
,,,-2.69E-06,0.019451875
,,,-2.68E-06,0.01948625
,,,-2.67E-06,0.019266875
,,,-2.66E-06,0.019515
,,,-2.65E-06,0.019299375
,,,-2.64E-06,0.019285
,,,-2.63E-06,0.019499375
,,,-2.62E-06,0.019628125
,,,-2.61E-06,0.0194325
,,,-2.6E-06,0.019265
,,,-2.59E-06,0.019195
,,,-2.58E-06,0.019515625
,,,-2.57E-06,0.019451875
,,,-2.56E-06,0.019478125
,,,-2.55E-06,0.019408125
,,,-2.54E-06,0.01939875
,,,-2.53E-06,0.01927
,,,-2.52E-06,0.019326875
,,,-2.51E-06,0.019481875
,,,-2.5E-06,0.01917375
,,,-2.49E-06,0.019325625
,,,-2.48E-06,0.01950375
,,,-2.47E-06,0.019494375
,,,-2.46E-06,0.019518125
,,,-2.45E-06,0.0192225
,,,-2.44E-06,0.01943375
,,,-2.43E-06,0.019205
,,,-2.42E-06,0.019313125
,,,-2.41E-06,0.019096875
,,,-2.4E-06,0.019418125
,,,-2.39E-06,0.01964875
,,,-2.38E-06,0.01908625
,,,-2.37E-06,0.01949875
,,,-2.36E-06,0.019119375
,,,-2.35E-06,0.019318125
,,,-2.34E-06,0.01926375
,,,-2.33E-06,0.01932125
,,,-2.32E-06,0.019350625
,,,-2.31E-06,0.019465625
,,,-2.3E-06,0.0192575
,,,-2.29E-06,0.019408125
,,,-2.28E-06,0.0193025
,,,-2.27E-06,0.019309375
,,,-2.26E-06,0.019491875
,,,-2.25E-06,0.019354375
,,,-2.24E-06,0.0193575
,,,-2.23E-06,0.019308125
,,,-2.22E-06,0.01921
,,,-2.21E-06,0.019250625
,,,-2.2E-06,0.019401875
,,,-2.19E-06,0.0190425
,,,-2.18E-06,0.019599375
,,,-2.17E-06,0.019519375
,,,-2.16E-06,0.019295625
,,,-2.15E-06,0.019425
,,,-2.14E-06,0.019483125
,,,-2.13E-06,0.019534375
,,,-2.12E-06,0.0192275
,,,-2.11E-06,0.019615
,,,-2.1E-06,0.019411875
,,,-2.09E-06,0.019615625
,,,-2.08E-06,0.01926125
,,,-2.07E-06,0.019504375
,,,-2.06E-06,0.019215625
,,,-2.05E-06,0.01932375
,,,-2.04E-06,0.019334375
,,,-2.03E-06,0.0195025
,,,-2.02E-06,0.01909625
,,,-2.01E-06,0.01926375
,,,-2E-06,0.019125
,,,-1.99E-06,0.0193125
,,,-1.98E-06,0.01925375
,,,-1.97E-06,0.019536875
,,,-1.96E-06,0.01946125
,,,-1.95E-06,0.0191475
,,,-1.94E-06,0.01929125
,,,-1.93E-06,0.0194175
,,,-1.92E-06,0.01931375
,,,-1.91E-06,0.0191825
,,,-1.9E-06,0.019430625
,,,-1.89E-06,0.019131875
,,,-1.88E-06,0.01945
,,,-1.87E-06,0.019321875
,,,-1.86E-06,0.01927625
,,,-1.85E-06,0.019365
,,,-1.84E-06,0.01943
,,,-1.83E-06,0.0192775
,,,-1.82E-06,0.01946875
,,,-1.81E-06,0.01964125
,,,-1.8E-06,0.019345
,,,-1.79E-06,0.019315
,,,-1.78E-06,0.019421875
,,,-1.77E-06,0.019344375
,,,-1.76E-06,0.019405625
,,,-1.75E-06,0.01902875
,,,-1.74E-06,0.019475
,,,-1.73E-06,0.0194475
,,,-1.72E-06,0.019328125
,,,-1.71E-06,0.0194525
,,,-1.7E-06,0.019271875
,,,-1.69E-06,0.019123125
,,,-1.68E-06,0.01960625
,,,-1.67E-06,0.019325
,,,-1.66E-06,0.019415
,,,-1.65E-06,0.019061875
,,,-1.64E-06,0.019374375
,,,-1.63E-06,0.019470625
,,,-1.62E-06,0.0193675
,,,-1.61E-06,0.019721875
,,,-1.6E-06,0.019483125
,,,-1.59E-06,0.019405625
,,,-1.58E-06,0.019309375
,,,-1.57E-06,0.019440625
,,,-1.56E-06,0.0191375
,,,-1.55E-06,0.01953
,,,-1.54E-06,0.019268125
,,,-1.53E-06,0.01942375
,,,-1.52E-06,0.019220625
,,,-1.51E-06,0.019304375
,,,-1.5E-06,0.019291875
,,,-1.49E-06,0.019195625
,,,-1.48E-06,0.0195075
,,,-1.47E-06,0.019291875
,,,-1.46E-06,0.01916125
,,,-1.45E-06,0.0191325
,,,-1.44E-06,0.01930625
,,,-1.43E-06,0.019234375
,,,-1.42E-06,0.019331875
,,,-1.41E-06,0.01927625
,,,-1.4E-06,0.019276875
,,,-1.39E-06,0.0191175
,,,-1.38E-06,0.0190875
,,,-1.37E-06,0.019280625
,,,-1.36E-06,0.019373125
,,,-1.35E-06,0.019258125
,,,-1.34E-06,0.019313125
,,,-1.33E-06,0.01952
,,,-1.32E-06,0.019238125
,,,-1.31E-06,0.0192075
,,,-1.3E-06,0.019445625
,,,-1.29E-06,0.019146875
,,,-1.28E-06,0.01910125
,,,-1.27E-06,0.01937125
,,,-1.26E-06,0.019603125
,,,-1.25E-06,0.01929875
,,,-1.24E-06,0.0193025
,,,-1.23E-06,0.01952375
,,,-1.22E-06,0.0193925
,,,-1.21E-06,0.019394375
,,,-1.2E-06,0.01952625
,,,-1.19E-06,0.019364375
,,,-1.18E-06,0.019215625
,,,-1.17E-06,0.019275
,,,-1.16E-06,0.0193525
,,,-1.15E-06,0.01939
,,,-1.14E-06,0.0192475
,,,-1.13E-06,0.01936
,,,-1.12E-06,0.019130625
,,,-1.11E-06,0.01920375
,,,-1.1E-06,0.01947375
,,,-1.09E-06,0.019271875
,,,-1.08E-06,0.019354375
,,,-1.07E-06,0.019383125
,,,-1.06E-06,0.019136875
,,,-1.05E-06,0.01929
,,,-1.04E-06,0.01948625
,,,-1.03E-06,0.019265625
,,,-1.02E-06,0.0193125
,,,-1.01E-06,0.019414375
,,,-1E-06,0.019325625
,,,-9.9E-07,0.019356875
,,,-9.8E-07,0.019455625
,,,-9.7E-07,0.0192025
,,,-9.6E-07,0.01938
,,,-9.5E-07,0.019373125
,,,-9.4E-07,0.019289375
,,,-9.3E-07,0.019415
,,,-9.2E-07,0.019146875
,,,-9.1E-07,0.01924875
,,,-9E-07,0.019451875
,,,-8.9E-07,0.019404375
,,,-8.8E-07,0.019333125
,,,-8.7E-07,0.0195275
,,,-8.6E-07,0.019266875
,,,-8.5E-07,0.01929
,,,-8.4E-07,0.01940375
,,,-8.3E-07,0.01944375
,,,-8.2E-07,0.019200625
,,,-8.1E-07,0.019171875
,,,-8E-07,0.019296875
,,,-7.9E-07,0.019176875
,,,-7.8E-07,0.019489375
,,,-7.7E-07,0.019399375
,,,-7.6E-07,0.0194125
,,,-7.5E-07,0.019198125
,,,-7.4E-07,0.01929
,,,-7.3E-07,0.019080625
,,,-7.2E-07,0.019436875
,,,-7.1E-07,0.019230625
,,,-7E-07,0.01955625
,,,-6.9E-07,0.019259375
,,,-6.8E-07,0.019216875
,,,-6.7E-07,0.019243125
,,,-6.6E-07,0.019546875
,,,-6.5E-07,0.0193125
,,,-6.4E-07,0.019519375
,,,-6.3E-07,0.019196875
,,,-6.2E-07,0.0193875
,,,-6.1E-07,0.01940375
,,,-6E-07,0.01926
,,,-5.9E-07,0.019420625
,,,-5.8E-07,0.019373125
,,,-5.7E-07,0.019331875
,,,-5.6E-07,0.01938625
,,,-5.5E-07,0.01951125
,,,-5.4E-07,0.01949375
,,,-5.3E-07,0.019188125
,,,-5.2E-07,0.019136875
,,,-5.1E-07,0.019279375
,,,-5E-07,0.0194125
,,,-4.9E-07,0.019285625
,,,-4.8E-07,0.019429375
,,,-4.7E-07,0.01946
,,,-4.6E-07,0.019229375
,,,-4.5E-07,0.01941375
,,,-4.4E-07,0.019373125
,,,-4.3E-07,0.01941875
,,,-4.2E-07,0.01915125
,,,-4.1E-07,0.01941875
,,,-4E-07,0.01934625
,,,-3.9E-07,0.019625625
,,,-3.8E-07,0.019554375
,,,-3.7E-07,0.019254375
,,,-3.6E-07,0.019424375
,,,-3.5E-07,0.0191625
,,,-3.4E-07,0.01969375
,,,-3.3E-07,0.019574375
,,,-3.2E-07,0.019281875
,,,-3.1E-07,0.019399375
,,,-3E-07,0.01937125
,,,-2.9E-07,0.01921
,,,-2.8E-07,0.019276875
,,,-2.7E-07,0.01954625
,,,-2.6E-07,0.019368125
,,,-2.5E-07,0.0191975
,,,-2.4E-07,0.019289375
,,,-2.3E-07,0.0195375
,,,-2.2E-07,0.01945375
,,,-2.1E-07,0.01919875
,,,-2E-07,0.01922625
,,,-1.9E-07,0.01908625
,,,-1.8E-07,0.019474375
,,,-1.7E-07,0.0192925
,,,-1.6E-07,0.01898875
,,,-1.5E-07,0.01954375
,,,-1.4E-07,0.019265
,,,-1.3E-07,0.01933875
,,,-1.2E-07,0.019338125
,,,-1.1E-07,0.01921
,,,-1E-07,0.019295625
,,,-9E-08,0.0193775
,,,-8E-08,0.0192925
,,,-7E-08,0.0191675
,,,-6E-08,0.019164375
,,,-5E-08,0.019418125
,,,-4E-08,0.01977
,,,-3E-08,0.019343125
,,,-2E-08,0.01838375
,,,-1E-08,0.0176875
,,,0,0.01955125
,,,1E-08,0.02061625
,,,2E-08,0.02097125
,,,3E-08,0.020066875
,,,4E-08,0.018096875
,,,5E-08,0.018901875
,,,6E-08,0.0179025
,,,7E-08,0.019458125
,,,8E-08,0.01997
,,,9E-08,0.020575625
,,,1E-07,0.019779375
,,,1.1E-07,0.019484375
,,,1.2E-07,0.018383125
,,,1.3E-07,0.018525625
,,,1.4E-07,0.01942125
,,,1.5E-07,0.019533125
,,,1.6E-07,0.01961625
,,,1.7E-07,0.0191575
,,,1.8E-07,0.01951
,,,1.9E-07,0.01932
,,,2E-07,0.0191425
,,,2.1E-07,0.0189875
,,,2.2E-07,0.019383125
,,,2.3E-07,0.019399375
,,,2.4E-07,0.01947375
,,,2.5E-07,0.019351875
,,,2.6E-07,0.019389375
,,,2.7E-07,0.01938375
,,,2.8E-07,0.019378125
,,,2.9E-07,0.0190725
,,,3E-07,0.019255625
,,,3.1E-07,0.019128125
,,,3.2E-07,0.019245
,,,3.3E-07,0.01935625
,,,3.4E-07,0.01916
,,,3.5E-07,0.0194625
,,,3.6E-07,0.0194
,,,3.7E-07,0.01930625
,,,3.8E-07,0.01937875
,,,3.9E-07,0.01945375
,,,4E-07,0.019374375
,,,4.1E-07,0.01916
,,,4.2E-07,0.0195025
,,,4.3E-07,0.019371875
,,,4.4E-07,0.01915875
,,,4.5E-07,0.019178125
,,,4.6E-07,0.019065625
,,,4.7E-07,0.01949875
,,,4.8E-07,0.01938375
,,,4.9E-07,0.019084375
,,,5E-07,0.01938
,,,5.1E-07,0.0195225
,,,5.2E-07,0.01923
,,,5.3E-07,0.019228125
,,,5.4E-07,0.01930875
,,,5.5E-07,0.019465
,,,5.6E-07,0.019280625
,,,5.7E-07,0.019426875
,,,5.8E-07,0.019465625
,,,5.9E-07,0.019286875
,,,6E-07,0.01917625
,,,6.1E-07,0.019358125
,,,6.2E-07,0.019425625
,,,6.3E-07,0.01952375
,,,6.4E-07,0.0193025
,,,6.5E-07,0.01938
,,,6.6E-07,0.01918125
,,,6.7E-07,0.019374375
,,,6.8E-07,0.019509375
,,,6.9E-07,0.019273125
,,,7E-07,0.019208125
,,,7.1E-07,0.01969
,,,7.2E-07,0.019426875
,,,7.3E-07,0.019250625
,,,7.4E-07,0.019173125
,,,7.5E-07,0.019391875
,,,7.6E-07,0.019266875
,,,7.7E-07,0.019236875
,,,7.8E-07,0.019118125
,,,7.9E-07,0.01944125
,,,8E-07,0.019334375
,,,8.1E-07,0.01925875
,,,8.2E-07,0.01932
,,,8.3E-07,0.01926375
,,,8.4E-07,0.019319375
,,,8.5E-07,0.019331875
,,,8.6E-07,0.01919875
,,,8.7E-07,0.01929125
,,,8.8E-07,0.019363125
,,,8.9E-07,0.019479375
,,,9E-07,0.01943125
,,,9.1E-07,0.0191025
,,,9.2E-07,0.019534375
,,,9.3E-07,0.01912125
,,,9.4E-07,0.01937375
,,,9.5E-07,0.0193425
,,,9.6E-07,0.019466875
,,,9.7E-07,0.019486875
,,,9.8E-07,0.019095
,,,9.9E-07,0.0192275
,,,1E-06,0.019285
,,,1.01E-06,0.01963875
,,,1.02E-06,0.01931875
,,,1.03E-06,0.01908625
,,,1.04E-06,0.0192575
,,,1.05E-06,0.019318125
,,,1.06E-06,0.01923125
,,,1.07E-06,0.019314375
,,,1.08E-06,0.01910625
,,,1.09E-06,0.019135625
,,,1.1E-06,0.019305
,,,1.11E-06,0.0194625
,,,1.12E-06,0.01927125
,,,1.13E-06,0.019425625
,,,1.14E-06,0.019023125
,,,1.15E-06,0.019485
,,,1.16E-06,0.019536875
,,,1.17E-06,0.01928375
,,,1.18E-06,0.019501875
,,,1.19E-06,0.01921875
,,,1.2E-06,0.019235625
,,,1.21E-06,0.019425
,,,1.22E-06,0.01932375
,,,1.23E-06,0.019296875
,,,1.24E-06,0.019524375
,,,1.25E-06,0.019549375
,,,1.26E-06,0.0193275
,,,1.27E-06,0.019350625
,,,1.28E-06,0.0192325
,,,1.29E-06,0.019203125
,,,1.3E-06,0.019331875
,,,1.31E-06,0.019688125
,,,1.32E-06,0.019301875
,,,1.33E-06,0.019601875
,,,1.34E-06,0.019563125
,,,1.35E-06,0.019271875
,,,1.36E-06,0.0191825
,,,1.37E-06,0.01902875
,,,1.38E-06,0.01942125
,,,1.39E-06,0.0193075
,,,1.4E-06,0.019419375
,,,1.41E-06,0.0194325
,,,1.42E-06,0.019465625
,,,1.43E-06,0.01964875
,,,1.44E-06,0.019488125
,,,1.45E-06,0.0192475
,,,1.46E-06,0.01939
,,,1.47E-06,0.019233125
,,,1.48E-06,0.0194375
,,,1.49E-06,0.0194925
,,,1.5E-06,0.01929
,,,1.51E-06,0.01952375
,,,1.52E-06,0.0190975
,,,1.53E-06,0.019435
,,,1.54E-06,0.019423125
,,,1.55E-06,0.019681875
,,,1.56E-06,0.01928875
,,,1.57E-06,0.01927875
,,,1.58E-06,0.01951875
,,,1.59E-06,0.01927875
,,,1.6E-06,0.019393125
,,,1.61E-06,0.01940125
,,,1.62E-06,0.01933
,,,1.63E-06,0.019564375
,,,1.64E-06,0.019365625
,,,1.65E-06,0.019398125
,,,1.66E-06,0.0193725
,,,1.67E-06,0.019254375
,,,1.68E-06,0.019345
,,,1.69E-06,0.0192875
,,,1.7E-06,0.019451875
,,,1.71E-06,0.0193425
,,,1.72E-06,0.019525625
,,,1.73E-06,0.019535
,,,1.74E-06,0.019566875
,,,1.75E-06,0.0194975
,,,1.76E-06,0.01919
,,,1.77E-06,0.0193225
,,,1.78E-06,0.019396875
,,,1.79E-06,0.01918375
,,,1.8E-06,0.019179375
,,,1.81E-06,0.01945625
,,,1.82E-06,0.01931375
,,,1.83E-06,0.019275
,,,1.84E-06,0.01930375
,,,1.85E-06,0.019108125
,,,1.86E-06,0.01946875
,,,1.87E-06,0.01929375
,,,1.88E-06,0.019175
,,,1.89E-06,0.019333125
,,,1.9E-06,0.019773125
,,,1.91E-06,0.019178125
,,,1.92E-06,0.0192525
,,,1.93E-06,0.0196525
,,,1.94E-06,0.0193625
,,,1.95E-06,0.019419375
,,,1.96E-06,0.0192425
,,,1.97E-06,0.019510625
,,,1.98E-06,0.0192225
,,,1.99E-06,0.01957375
,,,2E-06,0.01942375
,,,2.01E-06,0.019316875
,,,2.02E-06,0.01905
,,,2.03E-06,0.0193275
,,,2.04E-06,0.0193925
,,,2.05E-06,0.019473125
,,,2.06E-06,0.019359375
,,,2.07E-06,0.01920875
,,,2.08E-06,0.01926
,,,2.09E-06,0.01924375
,,,2.1E-06,0.01930625
,,,2.11E-06,0.019075625
,,,2.12E-06,0.01931375
,,,2.13E-06,0.0192875
,,,2.14E-06,0.019495625
,,,2.15E-06,0.01931125
,,,2.16E-06,0.01954625
,,,2.17E-06,0.01918375
,,,2.18E-06,0.01924375
,,,2.19E-06,0.0193425
,,,2.2E-06,0.019284375
,,,2.21E-06,0.01941875
,,,2.22E-06,0.01926375
,,,2.23E-06,0.01930375
,,,2.24E-06,0.0194475
,,,2.25E-06,0.019479375
,,,2.26E-06,0.0193575
,,,2.27E-06,0.019321875
,,,2.28E-06,0.0194325
,,,2.29E-06,0.01918875
,,,2.3E-06,0.019254375
,,,2.31E-06,0.019296875
,,,2.32E-06,0.01934875
,,,2.33E-06,0.019351875
,,,2.34E-06,0.019240625
,,,2.35E-06,0.019559375
,,,2.36E-06,0.019185625
,,,2.37E-06,0.019026875
,,,2.38E-06,0.01937125
,,,2.39E-06,0.01945125
,,,2.4E-06,0.019154375
,,,2.41E-06,0.01957
,,,2.42E-06,0.019344375
,,,2.43E-06,0.0194025
,,,2.44E-06,0.019316875
,,,2.45E-06,0.0194475
,,,2.46E-06,0.01937625
,,,2.47E-06,0.01947625
,,,2.48E-06,0.019426875
,,,2.49E-06,0.01946875
,,,2.5E-06,0.019395625
,,,2.51E-06,0.01925625
,,,2.52E-06,0.019201875
,,,2.53E-06,0.01966
,,,2.54E-06,0.019408125
,,,2.55E-06,0.019405
,,,2.56E-06,0.019495
,,,2.57E-06,0.0193325
,,,2.58E-06,0.019289375
,,,2.59E-06,0.019518125
,,,2.6E-06,0.019178125
,,,2.61E-06,0.01934375
,,,2.62E-06,0.0194225
,,,2.63E-06,0.01953
,,,2.64E-06,0.0191825
,,,2.65E-06,0.0192775
,,,2.66E-06,0.019305
,,,2.67E-06,0.01908
,,,2.68E-06,0.019308125
,,,2.69E-06,0.019474375
,,,2.7E-06,0.019378125
,,,2.71E-06,0.019554375
,,,2.72E-06,0.0191625
,,,2.73E-06,0.01954625
,,,2.74E-06,0.019361875
,,,2.75E-06,0.01935
,,,2.76E-06,0.019196875
,,,2.77E-06,0.019251875
,,,2.78E-06,0.01934375
,,,2.79E-06,0.0194175
,,,2.8E-06,0.019426875
,,,2.81E-06,0.019343125
,,,2.82E-06,0.019263125
,,,2.83E-06,0.019299375
,,,2.84E-06,0.01925875
,,,2.85E-06,0.019183125
,,,2.86E-06,0.01931125
,,,2.87E-06,0.019113125
,,,2.88E-06,0.019108125
,,,2.89E-06,0.019468125
,,,2.9E-06,0.019276875
,,,2.91E-06,0.01915375
,,,2.92E-06,0.01918125
,,,2.93E-06,0.01934375
,,,2.94E-06,0.0196575
,,,2.95E-06,0.019031875
,,,2.96E-06,0.0194175
,,,2.97E-06,0.019135625
,,,2.98E-06,0.01931
,,,2.99E-06,0.019456875
,,,3E-06,0.0195425
,,,3.01E-06,0.019315625
,,,3.02E-06,0.019396875
,,,3.03E-06,0.019473125
,,,3.04E-06,0.019131875
,,,3.05E-06,0.01947
,,,3.06E-06,0.01929
,,,3.07E-06,0.019374375
,,,3.08E-06,0.019291875
,,,3.09E-06,0.019311875
,,,3.1E-06,0.019399375
,,,3.11E-06,0.01952625
,,,3.12E-06,0.01925625
,,,3.13E-06,0.019394375
,,,3.14E-06,0.01930875
,,,3.15E-06,0.019295625
,,,3.16E-06,0.01916125
,,,3.17E-06,0.019249375
,,,3.18E-06,0.019415
,,,3.19E-06,0.01946125
,,,3.2E-06,0.019196875
,,,3.21E-06,0.019320625
,,,3.22E-06,0.0192175
,,,3.23E-06,0.019203125
,,,3.24E-06,0.019409375
,,,3.25E-06,0.019359375
,,,3.26E-06,0.01945625
,,,3.27E-06,0.01928625
,,,3.28E-06,0.019231875
,,,3.29E-06,0.019259375
,,,3.3E-06,0.019446875
,,,3.31E-06,0.0195225
,,,3.32E-06,0.01926625
,,,3.33E-06,0.01940125
,,,3.34E-06,0.0191
,,,3.35E-06,0.01918125
,,,3.36E-06,0.019268125
,,,3.37E-06,0.019160625
,,,3.38E-06,0.019355
,,,3.39E-06,0.01933125
,,,3.4E-06,0.0192925
,,,3.41E-06,0.01910625
,,,3.42E-06,0.019025625
,,,3.43E-06,0.01943625
,,,3.44E-06,0.019263125
,,,3.45E-06,0.01933125
,,,3.46E-06,0.01943625
,,,3.47E-06,0.019441875
,,,3.48E-06,0.019365
,,,3.49E-06,0.0193475
,,,3.5E-06,0.0195
,,,3.51E-06,0.01929875
,,,3.52E-06,0.01942625
,,,3.53E-06,0.0192025
,,,3.54E-06,0.019443125
,,,3.55E-06,0.019316875
,,,3.56E-06,0.01932125
,,,3.57E-06,0.019410625
,,,3.58E-06,0.01929
