data/raw/Final_POL_Test_1/SOP028_Ch1.csv

"Record Length",1000,"Points",-5E-06,0.00763375
"Sample Interval",1E-08,s,-4.99E-06,0.007585
"Trigger Point",500,"Samples",-4.98E-06,0.007883125
"Trigger Time",0,s,-4.97E-06,0.0078675
"",,,-4.96E-06,0.007869375
"Horizontal Offset",-5E-06,s,-4.95E-06,0.007679375
,,,-4.94E-06,0.008101875
,,,-4.93E-06,0.0075875
,,,-4.92E-06,0.007690625
,,,-4.91E-06,0.007998125
,,,-4.9E-06,0.00785375
,,,-4.89E-06,0.007606875
,,,-4.88E-06,0.007713125
,,,-4.87E-06,0.007650625
,,,-4.86E-06,0.007803125
,,,-4.85E-06,0.007695625
,,,-4.84E-06,0.007786875
,,,-4.83E-06,0.00773
,,,-4.82E-06,0.0075025
,,,-4.81E-06,0.00764125
,,,-4.8E-06,0.0079325
,,,-4.79E-06,0.007620625
,,,-4.78E-06,0.007828125
,,,-4.77E-06,0.007539375
,,,-4.76E-06,0.00762625
,,,-4.75E-06,0.0076475
,,,-4.74E-06,0.00765875
,,,-4.73E-06,0.007819375
,,,-4.72E-06,0.00781625
,,,-4.71E-06,0.007726875
,,,-4.7E-06,0.007823125
,,,-4.69E-06,0.007839375
,,,-4.68E-06,0.007941875
,,,-4.67E-06,0.00787125
,,,-4.66E-06,0.0075825
,,,-4.65E-06,0.007418125
,,,-4.64E-06,0.00772875
,,,-4.63E-06,0.007845625
,,,-4.62E-06,0.00766625
,,,-4.61E-06,0.0076825
,,,-4.6E-06,0.007830625
,,,-4.59E-06,0.007888125
,,,-4.58E-06,0.007725625
,,,-4.57E-06,0.0077975
,,,-4.56E-06,0.00802875
,,,-4.55E-06,0.007625
,,,-4.54E-06,0.007933125
,,,-4.53E-06,0.007515625
,,,-4.52E-06,0.007675
,,,-4.51E-06,0.007664375
,,,-4.5E-06,0.007581875
,,,-4.49E-06,0.007523125
,,,-4.48E-06,0.007675625
,,,-4.47E-06,0.007689375
,,,-4.46E-06,0.007674375
,,,-4.45E-06,0.00771875
,,,-4.44E-06,0.00758375
,,,-4.43E-06,0.0077275
,,,-4.42E-06,0.0077125
,,,-4.41E-06,0.007871875
,,,-4.4E-06,0.00760375
,,,-4.39E-06,0.007610625
,,,-4.38E-06,0.00772125
,,,-4.37E-06,0.007536875
,,,-4.36E-06,0.0076175
,,,-4.35E-06,0.00794
,,,-4.34E-06,0.007571875
,,,-4.33E-06,0.0075825
,,,-4.32E-06,0.007809375
,,,-4.31E-06,0.007725625
,,,-4.3E-06,0.007783125
,,,-4.29E-06,0.0078525
,,,-4.28E-06,0.007496875
,,,-4.27E-06,0.00767125
,,,-4.26E-06,0.0074825
,,,-4.25E-06,0.0075575
,,,-4.24E-06,0.007665625
,,,-4.23E-06,0.007424375
,,,-4.22E-06,0.00768875
,,,-4.21E-06,0.007721875
,,,-4.2E-06,0.00772625
,,,-4.19E-06,0.007489375
,,,-4.18E-06,0.00785625
,,,-4.17E-06,0.0078525
,,,-4.16E-06,0.007765
,,,-4.15E-06,0.0076625
,,,-4.14E-06,0.00777
,,,-4.13E-06,0.00775875
,,,-4.12E-06,0.007753125
,,,-4.11E-06,0.007594375
,,,-4.1E-06,0.007653125
,,,-4.09E-06,0.0076425
,,,-4.08E-06,0.0077225
,,,-4.07E-06,0.007689375
,,,-4.06E-06,0.00796375
,,,-4.05E-06,0.007765625
,,,-4.04E-06,0.007555
,,,-4.03E-06,0.007499375
,,,-4.02E-06,0.00768625
,,,-4.01E-06,0.007768125
,,,-4E-06,0.00776625
,,,-3.99E-06,0.0076525
,,,-3.98E-06,0.00777625
,,,-3.97E-06,0.007653125
,,,-3.96E-06,0.007583125
,,,-3.95E-06,0.0076525
,,,-3.94E-06,0.00739625
,,,-3.93E-06,0.007665
,,,-3.92E-06,0.007769375
,,,-3.91E-06,0.007711875
,,,-3.9E-06,0.007645
,,,-3.89E-06,0.00764
,,,-3.88E-06,0.00757125
,,,-3.87E-06,0.007649375
,,,-3.86E-06,0.00755625
,,,-3.85E-06,0.0076775
,,,-3.84E-06,0.007718125
,,,-3.83E-06,0.007628125
,,,-3.82E-06,0.0081
,,,-3.81E-06,0.007664375
,,,-3.8E-06,0.007513125
,,,-3.79E-06,0.007605625
,,,-3.78E-06,0.00764875
,,,-3.77E-06,0.007851875
,,,-3.76E-06,0.00765375
,,,-3.75E-06,0.00764
,,,-3.74E-06,0.007584375
,,,-3.73E-06,0.007545
,,,-3.72E-06,0.00776
,,,-3.71E-06,0.00788375
,,,-3.7E-06,0.0075725
,,,-3.69E-06,0.00781375
,,,-3.68E-06,0.00799
,,,-3.67E-06,0.007874375
,,,-3.66E-06,0.007645625
,,,-3.65E-06,0.007813125
,,,-3.64E-06,0.007680625
,,,-3.63E-06,0.007760625
,,,-3.62E-06,0.00757
,,,-3.61E-06,0.007460625
,,,-3.6E-06,0.007614375
,,,-3.59E-06,0.007585625
,,,-3.58E-06,0.00777625
,,,-3.57E-06,0.00786875
,,,-3.56E-06,0.00776875
,,,-3.55E-06,0.007635625
,,,-3.54E-06,0.00761
,,,-3.53E-06,0.007764375
,,,-3.52E-06,0.007934375
,,,-3.51E-06,0.00776
,,,-3.5E-06,0.00772
,,,-3.49E-06,0.0077225
,,,-3.48E-06,0.007651875
,,,-3.47E-06,0.0077075
,,,-3.46E-06,0.00794
,,,-3.45E-06,0.0077125
,,,-3.44E-06,0.00774625
,,,-3.43E-06,0.007756875
,,,-3.42E-06,0.00773125
,,,-3.41E-06,0.007509375
,,,-3.4E-06,0.00769
,,,-3.39E-06,0.007516875
,,,-3.38E-06,0.007806875
,,,-3.37E-06,0.007489375
,,,-3.36E-06,0.0079175
,,,-3.35E-06,0.007694375
,,,-3.34E-06,0.0079525
,,,-3.33E-06,0.007818125
,,,-3.32E-06,0.007525
,,,-3.31E-06,0.007703125
,,,-3.3E-06,0.007619375
,,,-3.29E-06,0.00746875
,,,-3.28E-06,0.007610625
,,,-3.27E-06,0.00773875
,,,-3.26E-06,0.007700625
,,,-3.25E-06,0.0075425
,,,-3.24E-06,0.007741875
,,,-3.23E-06,0.00775375
,,,-3.22E-06,0.00771125
,,,-3.21E-06,0.007529375
,,,-3.2E-06,0.007621875
,,,-3.19E-06,0.00773125
,,,-3.18E-06,0.007701875
,,,-3.17E-06,0.0075425
,,,-3.16E-06,0.0076875
,,,-3.15E-06,0.007590625
,,,-3.14E-06,0.007695625
,,,-3.13E-06,0.00780625
,,,-3.12E-06,0.0078075
,,,-3.11E-06,0.00758625
,,,-3.1E-06,0.007725625
,,,-3.09E-06,0.0076625
,,,-3.08E-06,0.007736875
,,,-3.07E-06,0.0078075
,,,-3.06E-06,0.007590625
,,,-3.05E-06,0.007769375
,,,-3.04E-06,0.007886875
,,,-3.03E-06,0.0075725
,,,-3.02E-06,0.007833125
,,,-3.01E-06,0.007719375
,,,-3E-06,0.007601875
,,,-2.99E-06,0.00753625
,,,-2.98E-06,0.00769
,,,-2.97E-06,0.007751875
,,,-2.96E-06,0.007680625
,,,-2.95E-06,0.007778125
,,,-2.94E-06,0.007734375
,,,-2.93E-06,0.00775875
,,,-2.92E-06,0.007830625
,,,-2.91E-06,0.00784375
,,,-2.9E-06,0.007675625
,,,-2.89E-06,0.00781625
,,,-2.88E-06,0.00763625
,,,-2.87E-06,0.00756125
,,,-2.86E-06,0.00755625
,,,-2.85E-06,0.00771375
,,,-2.84E-06,0.007696875
,,,-2.83E-06,0.00767125
,,,-2.82E-06,0.00781
,,,-2.81E-06,0.007754375
,,,-2.8E-06,0.007685625
,,,-2.79E-06,0.007675625
,,,-2.78E-06,0.00763875
,,,-2.77E-06,0.007696875
,,,-2.76E-06,0.007780625
,,,-2.75E-06,0.007975
,,,-2.74E-06,0.00779
,,,-2.73E-06,0.0075175
,,,-2.72E-06,0.0078625
,,,-2.71E-06,0.00768375
,,,-2.7E-06,0.007619375
,,,-2.69E-06,0.007695
,,,-2.68E-06,0.0077775
,,,-2.67E-06,0.007670625
,,,-2.66E-06,0.007636875
,,,-2.65E-06,0.00760875
,,,-2.64E-06,0.007755625
,,,-2.63E-06,0.00789125
,,,-2.62E-06,0.007643125
,,,-2.61E-06,0.00770125
,,,-2.6E-06,0.007611875
,,,-2.59E-06,0.007498125
,,,-2.58E-06,0.0075775
,,,-2.57E-06,0.00765875
,,,-2.56E-06,0.00781875
,,,-2.55E-06,0.0076675
,,,-2.54E-06,0.007726875
,,,-2.53E-06,0.00781625
,,,-2.52E-06,0.007688125
,,,-2.51E-06,0.00776125
,,,-2.5E-06,0.00762
,,,-2.49E-06,0.007625625
,,,-2.48E-06,0.007536875
,,,-2.47E-06,0.007945625
,,,-2.46E-06,0.007698125
,,,-2.45E-06,0.0077675
,,,-2.44E-06,0.007735625
,,,-2.43E-06,0.0075025
,,,-2.42E-06,0.007526875
,,,-2.41E-06,0.008094375
,,,-2.4E-06,0.0077225
,,,-2.39E-06,0.00749625
,,,-2.38E-06,0.00747625
,,,-2.37E-06,0.007705
,,,-2.36E-06,0.0077575
,,,-2.35E-06,0.007900625
,,,-2.34E-06,0.0078675
,,,-2.33E-06,0.0076825
,,,-2.32E-06,0.007823125
,,,-2.31E-06,0.00778375
,,,-2.3E-06,0.007775625
,,,-2.29E-06,0.007625625
,,,-2.28E-06,0.007605
,,,-2.27E-06,0.007726875
,,,-2.26E-06,0.007776875
,,,-2.25E-06,0.0076225
,,,-2.24E-06,0.007914375
,,,-2.23E-06,0.00762
,,,-2.22E-06,0.00775875
,,,-2.21E-06,0.0079275
,,,-2.2E-06,0.007560625
,,,-2.19E-06,0.00776875
,,,-2.18E-06,0.00797875
,,,-2.17E-06,0.007559375
,,,-2.16E-06,0.00765
,,,-2.15E-06,0.007878125
,,,-2.14E-06,0.00787625
,,,-2.13E-06,0.007650625
,,,-2.12E-06,0.00763875
,,,-2.11E-06,0.007723125
,,,-2.1E-06,0.007660625
,,,-2.09E-06,0.007701875
,,,-2.08E-06,0.00778375
,,,-2.07E-06,0.007799375
,,,-2.06E-06,0.0076325
,,,-2.05E-06,0.007680625
,,,-2.04E-06,0.007503125
,,,-2.03E-06,0.00770375
,,,-2.02E-06,0.007839375
,,,-2.01E-06,0.00778
,,,-2E-06,0.007623125
,,,-1.99E-06,0.00757
,,,-1.98E-06,0.0076275
,,,-1.97E-06,0.007653125
,,,-1.96E-06,0.007578125
,,,-1.95E-06,0.007554375
,,,-1.94E-06,0.007731875
,,,-1.93E-06,0.00749
,,,-1.92E-06,0.007750625
,,,-1.91E-06,0.00755125
,,,-1.9E-06,0.007736875
,,,-1.89E-06,0.007848125
,,,-1.88E-06,0.0075325
,,,-1.87E-06,0.00763
,,,-1.86E-06,0.007623125
,,,-1.85E-06,0.00759375
,,,-1.84E-06,0.00772
,,,-1.83E-06,0.00765375
,,,-1.82E-06,0.00762875
,,,-1.81E-06,0.0077625
,,,-1.8E-06,0.00786
,,,-1.79E-06,0.007780625
,,,-1.78E-06,0.00746875
,,,-1.77E-06,0.007925625
,,,-1.76E-06,0.00773125
,,,-1.75E-06,0.00787875
,,,-1.74E-06,0.0075075
,,,-1.73E-06,0.00759125
,,,-1.72E-06,0.00772125
,,,-1.71E-06,0.00772625
,,,-1.7E-06,0.007471875
,,,-1.69E-06,0.007728125
,,,-1.68E-06,0.0074825
,,,-1.67E-06,0.00782875
,,,-1.66E-06,0.007895
,,,-1.65E-06,0.007580625
,,,-1.64E-06,0.007421875
,,,-1.63E-06,0.007593125
,,,-1.62E-06,0.0073975
,,,-1.61E-06,0.00759125
,,,-1.6E-06,0.007838125
,,,-1.59E-06,0.007908125
,,,-1.58E-06,0.007729375
,,,-1.57E-06,0.00774375
,,,-1.56E-06,0.00772375
,,,-1.55E-06,0.00785375
,,,-1.54E-06,0.0075575
,,,-1.53E-06,0.00757875
,,,-1.52E-06,0.00780375
,,,-1.51E-06,0.00768875
,,,-1.5E-06,0.007725625
,,,-1.49E-06,0.00761125
,,,-1.48E-06,0.007908125
,,,-1.47E-06,0.007693125
,,,-1.46E-06,0.00775
,,,-1.45E-06,0.007640625
,,,-1.44E-06,0.007488125
,,,-1.43E-06,0.007696875
,,,-1.42E-06,0.007805
,,,-1.41E-06,0.00759125
,,,-1.4E-06,0.007698125
,,,-1.39E-06,0.007640625
,,,-1.38E-06,0.007471875
,,,-1.37E-06,0.007550625
,,,-1.36E-06,0.007840625
,,,-1.35E-06,0.007600625
,,,-1.34E-06,0.0076225
,,,-1.33E-06,0.007886875
,,,-1.32E-06,0.007665625
,,,-1.31E-06,0.007430625
,,,-1.3E-06,0.00764375
,,,-1.29E-06,0.00766375
,,,-1.28E-06,0.0077375
,,,-1.27E-06,0.007821875
,,,-1.26E-06,0.007931875
,,,-1.25E-06,0.007575
,,,-1.24E-06,0.007591875
,,,-1.23E-06,0.007730625
,,,-1.22E-06,0.007605
,,,-1.21E-06,0.0078075
,,,-1.2E-06,0.007895625
,,,-1.19E-06,0.007730625
,,,-1.18E-06,0.00768625
,,,-1.17E-06,0.0079
,,,-1.16E-06,0.007769375
,,,-1.15E-06,0.0075275
,,,-1.14E-06,0.007564375
,,,-1.13E-06,0.007835
,,,-1.12E-06,0.00766625
,,,-1.11E-06,0.007811875
,,,-1.1E-06,0.00778625
,,,-1.09E-06,0.007950625
,,,-1.08E-06,0.007730625
,,,-1.07E-06,0.007929375
,,,-1.06E-06,0.007620625
,,,-1.05E-06,0.00741625
,,,-1.04E-06,0.00770375
,,,-1.03E-06,0.007766875
,,,-1.02E-06,0.007936875
,,,-1.01E-06,0.007825
,,,-1E-06,0.007650625
,,,-9.9E-07,0.0077775
,,,-9.8E-07,0.007820625
,,,-9.7E-07,0.00784375
,,,-9.6E-07,0.007470625
,,,-9.5E-07,0.00765875
,,,-9.4E-07,0.007768125
,,,-9.3E-07,0.0077425
,,,-9.2E-07,0.007739375
,,,-9.1E-07,0.0078725
,,,-9E-07,0.007630625
,,,-8.9E-07,0.00755125
,,,-8.8E-07,0.007595
,,,-8.7E-07,0.007676875
,,,-8.6E-07,0.007855625
,,,-8.5E-07,0.007900625
,,,-8.4E-07,0.00767375
,,,-8.3E-07,0.007606875
,,,-8.2E-07,0.007773125
,,,-8.1E-07,0.00765125
,,,-8E-07,0.007601875
,,,-7.9E-07,0.00783375
,,,-7.8E-07,0.007580625
,,,-7.7E-07,0.007794375
,,,-7.6E-07,0.0074725
,,,-7.5E-07,0.007779375
,,,-7.4E-07,0.007855625
,,,-7.3E-07,0.007760625
,,,-7.2E-07,0.00799125
,,,-7.1E-07,0.007795
,,,-7E-07,0.00750125
,,,-6.9E-07,0.00765875
,,,-6.8E-07,0.007699375
,,,-6.7E-07,0.0076875
,,,-6.6E-07,0.00792375
,,,-6.5E-07,0.00759625
,,,-6.4E-07,0.007724375
,,,-6.3E-07,0.00755375
,,,-6.2E-07,0.007785
,,,-6.1E-07,0.00749125
,,,-6E-07,0.007451875
,,,-5.9E-07,0.007923125
,,,-5.8E-07,0.007644375
,,,-5.7E-07,0.007725625
,,,-5.6E-07,0.007494375
,,,-5.5E-07,0.007581875
,,,-5.4E-07,0.0076
,,,-5.3E-07,0.00763875
,,,-5.2E-07,0.007469375
,,,-5.1E-07,0.007755625
,,,-5E-07,0.007836875
,,,-4.9E-07,0.00769625
,,,-4.8E-07,0.00757375
,,,-4.7E-07,0.007864375
,,,-4.6E-07,0.00762625
,,,-4.5E-07,0.00782625
,,,-4.4E-07,0.00770125
,,,-4.3E-07,0.007785625
,,,-4.2E-07,0.007835
,,,-4.1E-07,0.00771125
,,,-4E-07,0.00765625
,,,-3.9E-07,0.00728625
,,,-3.8E-07,0.007823125
,,,-3.7E-07,0.00776
,,,-3.6E-07,0.007773125
,,,-3.5E-07,0.007620625
,,,-3.4E-07,0.007418125
,,,-3.3E-07,0.007418125
,,,-3.2E-07,0.007726875
,,,-3.1E-07,0.007451875
,,,-3E-07,0.007878125
,,,-2.9E-07,0.007748125
,,,-2.8E-07,0.00785875
,,,-2.7E-07,0.007745625
,,,-2.6E-07,0.00777
,,,-2.5E-07,0.0077425
,,,-2.4E-07,0.007526875
,,,-2.3E-07,0.007766875
,,,-2.2E-07,0.00754875
,,,-2.1E-07,0.007868125
,,,-2E-07,0.00783
,,,-1.9E-07,0.0074875
,,,-1.8E-07,0.00782125
,,,-1.7E-07,0.007770625
,,,-1.6E-07,0.007768125
,,,-1.5E-07,0.007941875
,,,-1.4E-07,0.007783125
,,,-1.3E-07,0.007459375
,,,-1.2E-07,0.007656875
,,,-1.1E-07,0.00761625
,,,-1E-07,0.00774875
,,,-9E-08,0.007649375
,,,-8E-08,0.007514375
,,,-7E-08,0.007376875
,,,-6E-08,0.007388125
,,,-5E-08,0.007805
,,,-4E-08,0.008508125
,,,-3E-08,0.008946875
,,,-2E-08,0.006791875
,,,-1E-08,0.0046775
,,,0,0.0035625
,,,1E-08,0.009469375
,,,2E-08,0.01207875
,,,3E-08,0.01228375
,,,4E-08,0.00790875
,,,5E-08,0.00554375
,,,6E-08,0.00417625
,,,7E-08,0.00577375
,,,8E-08,0.008185625
,,,9E-08,0.009623125
,,,1E-07,0.010239375
,,,1.1E-07,0.008534375
,,,1.2E-07,0.00700375
,,,1.3E-07,0.005865
,,,1.4E-07,0.00686875
,,,1.5E-07,0.0078375
,,,1.6E-07,0.008301875
,,,1.7E-07,0.0082075
,,,1.8E-07,0.007945625
,,,1.9E-07,0.0081725
,,,2E-07,0.007768125
,,,2.1E-07,0.00744375
,,,2.2E-07,0.00729125
,,,2.3E-07,0.007580625
,,,2.4E-07,0.00783875
,,,2.5E-07,0.00808875
,,,2.6E-07,0.007594375
,,,2.7E-07,0.007754375
,,,2.8E-07,0.007725625
,,,2.9E-07,0.007638125
,,,3E-07,0.007626875
,,,3.1E-07,0.007745625
,,,3.2E-07,0.007871875
,,,3.3E-07,0.007843125
,,,3.4E-07,0.007579375
,,,3.5E-07,0.007675625
,,,3.6E-07,0.00750625
,,,3.7E-07,0.00764
,,,3.8E-07,0.0076525
,,,3.9E-07,0.007440625
,,,4E-07,0.00781375
,,,4.1E-07,0.007375625
,,,4.2E-07,0.007629375
,,,4.3E-07,0.00770125
,,,4.4E-07,0.00773375
,,,4.5E-07,0.007825
,,,4.6E-07,0.007725
,,,4.7E-07,0.007834375
,,,4.8E-07,0.00775
,,,4.9E-07,0.0076975
,,,5E-07,0.007635625
,,,5.1E-07,0.007969375
,,,5.2E-07,0.007795
,,,5.3E-07,0.00761375
,,,5.4E-07,0.00761875
,,,5.5E-07,0.0077375
,,,5.6E-07,0.0075475
,,,5.7E-07,0.007784375
,,,5.8E-07,0.007455
,,,5.9E-07,0.00778125
,,,6E-07,0.007810625
,,,6.1E-07,0.00774875
,,,6.2E-07,0.0078175
,,,6.3E-07,0.0077225
,,,6.4E-07,0.007908125
,,,6.5E-07,0.007660625
,,,6.6E-07,0.00785625
,,,6.7E-07,0.0077775
,,,6.8E-07,0.007816875
,,,6.9E-07,0.00778875
,,,7E-07,0.00756875
,,,7.1E-07,0.0076675
,,,7.2E-07,0.007618125
,,,7.3E-07,0.00773375
,,,7.4E-07,0.00761625
,,,7.5E-07,0.0075975
,,,7.6E-07,0.00764875
,,,7.7E-07,0.007820625
,,,7.8E-07,0.007801875
,,,7.9E-07,0.007803125
,,,8E-07,0.00767125
,,,8.1E-07,0.007719375
,,,8.2E-07,0.0077225
,,,8.3E-07,0.00786125
,,,8.4E-07,0.007881875
,,,8.5E-07,0.007665625
,,,8.6E-07,0.007725
,,,8.7E-07,0.007663125
,,,8.8E-07,0.00753625
,,,8.9E-07,0.007659375
,,,9E-07,0.007909375
,,,9.1E-07,0.00771125
,,,9.2E-07,0.0076575
,,,9.3E-07,0.00756
,,,9.4E-07,0.007789375
,,,9.5E-07,0.00752
,,,9.6E-07,0.007436875
,,,9.7E-07,0.007533125
,,,9.8E-07,0.00752625
,,,9.9E-07,0.00759
,,,1E-06,0.007811875
,,,1.01E-06,0.007644375
,,,1.02E-06,0.00737
,,,1.03E-06,0.0078575
,,,1.04E-06,0.007505625
,,,1.05E-06,0.007755
,,,1.06E-06,0.007696875
,,,1.07E-06,0.007830625
,,,1.08E-06,0.00753125
,,,1.09E-06,0.007481875
,,,1.1E-06,0.007728125
,,,1.11E-06,0.007690625
,,,1.12E-06,0.00781125
,,,1.13E-06,0.007701875
,,,1.14E-06,0.00769
,,,1.15E-06,0.007733125
,,,1.16E-06,0.0075275
,,,1.17E-06,0.00752
,,,1.18E-06,0.00788125
,,,1.19E-06,0.00768
,,,1.2E-06,0.00793875
,,,1.21E-06,0.00765625
,,,1.22E-06,0.007693125
,,,1.23E-06,0.007688125
,,,1.24E-06,0.007846875
,,,1.25E-06,0.007848125
,,,1.26E-06,0.00780125
,,,1.27E-06,0.0078725
,,,1.28E-06,0.007795625
,,,1.29E-06,0.00755625
,,,1.3E-06,0.007643125
,,,1.31E-06,0.007706875
,,,1.32E-06,0.00762875
,,,1.33E-06,0.007718125
,,,1.34E-06,0.007849375
,,,1.35E-06,0.00767375
,,,1.36E-06,0.007430625
,,,1.37E-06,0.0075475
,,,1.38E-06,0.00767625
,,,1.39E-06,0.00756125
,,,1.4E-06,0.007635
,,,1.41E-06,0.0077075
,,,1.42E-06,0.007676875
,,,1.43E-06,0.007726875
,,,1.44E-06,0.007831875
,,,1.45E-06,0.00753875
,,,1.46E-06,0.007735625
,,,1.47E-06,0.0076125
,,,1.48E-06,0.00759375
,,,1.49E-06,0.007649375
,,,1.5E-06,0.00773625
,,,1.51E-06,0.007788125
,,,1.52E-06,0.0077875
,,,1.53E-06,0.007663125
,,,1.54E-06,0.00753875
,,,1.55E-06,0.00755375
,,,1.56E-06,0.007855
,,,1.57E-06,0.007813125
,,,1.58E-06,0.00766
,,,1.59E-06,0.007945625
,,,1.6E-06,0.00777625
,,,1.61E-06,0.007636875
,,,1.62E-06,0.007705
,,,1.63E-06,0.007926875
,,,1.64E-06,0.007751875
,,,1.65E-06,0.0077925
,,,1.66E-06,0.007730625
,,,1.67E-06,0.00772375
,,,1.68E-06,0.0076475
,,,1.69E-06,0.0077075
,,,1.7E-06,0.007530625
,,,1.71E-06,0.007685
,,,1.72E-06,0.007781875
,,,1.73E-06,0.007704375
,,,1.74E-06,0.007898125
,,,1.75E-06,0.007515625
,,,1.76E-06,0.00768625
,,,1.77E-06,0.0076175
,,,1.78E-06,0.00783625
,,,1.79E-06,0.007648125
,,,1.8E-06,0.007695
,,,1.81E-06,0.007844375
,,,1.82E-06,0.00766625
,,,1.83E-06,0.00781375
,,,1.84E-06,0.0077125
,,,1.85E-06,0.00754
,,,1.86E-06,0.0075975
,,,1.87E-06,0.007886875
,,,1.88E-06,0.007625
,,,1.89E-06,0.00766625
,,,1.9E-06,0.00779375
,,,1.91E-06,0.007776875
,,,1.92E-06,0.007950625
,,,1.93E-06,0.00757375
,,,1.94E-06,0.007733125
,,,1.95E-06,0.00751625
,,,1.96E-06,0.0078325
,,,1.97E-06,0.007673125
,,,1.98E-06,0.007634375
,,,1.99E-06,0.00796125
,,,2E-06,0.00779625
,,,2.01E-06,0.007465625
,,,2.02E-06,0.007689375
,,,2.03E-06,0.007675
,,,2.04E-06,0.00775
,,,2.05E-06,0.00795375
,,,2.06E-06,0.00774
,,,2.07E-06,0.007635
,,,2.08E-06,0.0077125
,,,2.09E-06,0.007644375
,,,2.1E-06,0.007579375
,,,2.11E-06,0.007500625
,,,2.12E-06,0.007965625
,,,2.13E-06,0.00775
,,,2.14E-06,0.00769625
,,,2.15E-06,0.007765
,,,2.16E-06,0.00773875
,,,2.17E-06,0.00769875
,,,2.18E-06,0.007474375
,,,2.19E-06,0.0078025
,,,2.2E-06,0.00772375
,,,2.21E-06,0.007675
,,,2.22E-06,0.0077975
,,,2.23E-06,0.00773375
,,,2.24E-06,0.007769375
,,,2.25E-06,0.007973125
,,,2.26E-06,0.0073825
,,,2.27E-06,0.007574375
,,,2.28E-06,0.007720625
,,,2.29E-06,0.007811875
,,,2.3E-06,0.007633125
,,,2.31E-06,0.008041875
,,,2.32E-06,0.007848125
,,,2.33E-06,0.007886875
,,,2.34E-06,0.007504375
,,,2.35E-06,0.007688125
,,,2.36E-06,0.0075225
,,,2.37E-06,0.007679375
,,,2.38E-06,0.00773125
,,,2.39E-06,0.00745375
,,,2.4E-06,0.007639375
,,,2.41E-06,0.0080975
,,,2.42E-06,0.007925625
,,,2.43E-06,0.007633125
,,,2.44E-06,0.007636875
,,,2.45E-06,0.007683125
,,,2.46E-06,0.007613125
,,,2.47E-06,0.00780875
,,,2.48E-06,0.007499375
,,,2.49E-06,0.007733125
,,,2.5E-06,0.007595625
,,,2.51E-06,0.00792625
,,,2.52E-06,0.007491875
,,,2.53E-06,0.007803125
,,,2.54E-06,0.007764375
,,,2.55E-06,0.00789875
,,,2.56E-06,0.0076475
,,,2.57E-06,0.00753875
,,,2.58E-06,0.00771125
,,,2.59E-06,0.007715625
,,,2.6E-06,0.00771125
,,,2.61E-06,0.007705
,,,2.62E-06,0.00771375
,,,2.63E-06,0.007798125
,,,2.64E-06,0.007785625
,,,2.65E-06,0.007675625
,,,2.66E-06,0.007801875
,,,2.67E-06,0.00772625
,,,2.68E-06,0.007761875
,,,2.69E-06,0.007823125
,,,2.7E-06,0.00773625
,,,2.71E-06,0.007744375
,,,2.72E-06,0.00783375
,,,2.73E-06,0.00788875
,,,2.74E-06,0.0077075
,,,2.75E-06,0.007690625
,,,2.76E-06,0.00751875
,,,2.77E-06,0.0078225
,,,2.78E-06,0.007934375
,,,2.79E-06,0.007596875
,,,2.8E-06,0.00770375
,,,2.81E-06,0.007765
,,,2.82E-06,0.007613125
,,,2.83E-06,0.007743125
,,,2.84E-06,0.007826875
,,,2.85E-06,0.00782375
,,,2.86E-06,0.00762125
,,,2.87E-06,0.007916875
,,,2.88E-06,0.00784875
,,,2.89E-06,0.0078775
,,,2.9E-06,0.007739375
,,,2.91E-06,0.007669375
,,,2.92E-06,0.00776125
,,,2.93E-06,0.007703125
,,,2.94E-06,0.007926875
,,,2.95E-06,0.007710625
,,,2.96E-06,0.007481875
,,,2.97E-06,0.007549375
,,,2.98E-06,0.00774625
,,,2.99E-06,0.00777125
,,,3E-06,0.007580625
,,,3.01E-06,0.008045625
,,,3.02E-06,0.007866875
,,,3.03E-06,0.00760625
,,,3.04E-06,0.007783125
,,,3.05E-06,0.0078
,,,3.06E-06,0.00769375
,,,3.07E-06,0.007630625
,,,3.08E-06,0.0076375
,,,3.09E-06,0.00780125
,,,3.1E-06,0.007743125
,,,3.11E-06,0.0077825
,,,3.12E-06,0.00768
,,,3.13E-06,0.007745
,,,3.14E-06,0.00786
,,,3.15E-06,0.007948125
,,,3.16E-06,0.007800625
,,,3.17E-06,0.007776875
,,,3.18E-06,0.00764875
,,,3.19E-06,0.00760125
,,,3.2E-06,0.007599375
,,,3.21E-06,0.007791875
,,,3.22E-06,0.00761
,,,3.23E-06,0.00784
,,,3.24E-06,0.007535625
,,,3.25E-06,0.00760625
,,,3.26E-06,0.00768375
,,,3.27E-06,0.007653125
,,,3.28E-06,0.007565625
,,,3.29E-06,0.007521875
,,,3.3E-06,0.007645625
,,,3.31E-06,0.0077625
,,,3.32E-06,0.007833125
,,,3.33E-06,0.007623125
,,,3.34E-06,0.0077125
,,,3.35E-06,0.00750875
,,,3.36E-06,0.007704375
,,,3.37E-06,0.00772
,,,3.38E-06,0.007864375
,,,3.39E-06,0.007643125
,,,3.4E-06,0.0076375
,,,3.41E-06,0.007654375
,,,3.42E-06,0.00752875
,,,3.43E-06,0.0078225
,,,3.44E-06,0.007608125
,,,3.45E-06,0.0076125
,,,3.46E-06,0.0076475
,,,3.47E-06,0.007864375
,,,3.48E-06,0.007795625
,,,3.49E-06,0.007589375
,,,3.5E-06,0.007718125
,,,3.51E-06,0.00777875
,,,3.52E-06,0.007491875
,,,3.53E-06,0.007624375
,,,3.54E-06,0.00772875
