data/raw/Final_POL_Test_1/SOP004_Ch3.csv

"Record Length",1000,"Points",-5E-06,0.019551876
"Sample Interval",1E-08,s,-4.99E-06,0.019674376
"Trigger Point",500,"Samples",-4.98E-06,0.019755001
"Trigger Time",0,s,-4.97E-06,0.019995001
"",,,-4.96E-06,0.019795626
"Horizontal Offset",-5E-06,s,-4.95E-06,0.019701876
,,,-4.94E-06,0.019694376
,,,-4.93E-06,0.019745626
,,,-4.92E-06,0.019873126
,,,-4.91E-06,0.019968126
,,,-4.9E-06,0.019753751
,,,-4.89E-06,0.019980001
,,,-4.88E-06,0.019698126
,,,-4.87E-06,0.019979376
,,,-4.86E-06,0.019893126
,,,-4.85E-06,0.019991251
,,,-4.84E-06,0.019878751
,,,-4.83E-06,0.020000001
,,,-4.82E-06,0.020075626
,,,-4.81E-06,0.019710626
,,,-4.8E-06,0.019794376
,,,-4.79E-06,0.020030001
,,,-4.78E-06,0.020047501
,,,-4.77E-06,0.020055626
,,,-4.76E-06,0.019785001
,,,-4.75E-06,0.019721876
,,,-4.74E-06,0.020002501
,,,-4.73E-06,0.020050001
,,,-4.72E-06,0.019713126
,,,-4.71E-06,0.019840001
,,,-4.7E-06,0.019753126
,,,-4.69E-06,0.019914376
,,,-4.68E-06,0.019937501
,,,-4.67E-06,0.019842501
,,,-4.66E-06,0.019880001
,,,-4.65E-06,0.019686251
,,,-4.64E-06,0.020073751
,,,-4.63E-06,0.019863126
,,,-4.62E-06,0.019906876
,,,-4.61E-06,0.019879376
,,,-4.6E-06,0.019731251
,,,-4.59E-06,0.019823751
,,,-4.58E-06,0.019853751
,,,-4.57E-06,0.019950626
,,,-4.56E-06,0.019896251
,,,-4.55E-06,0.019941876
,,,-4.54E-06,0.019948751
,,,-4.53E-06,0.020086876
,,,-4.52E-06,0.019820626
,,,-4.51E-06,0.019611876
,,,-4.5E-06,0.019901251
,,,-4.49E-06,0.019836876
,,,-4.48E-06,0.019910626
,,,-4.47E-06,0.019880001
,,,-4.46E-06,0.019896251
,,,-4.45E-06,0.020051251
,,,-4.44E-06,0.020074376
,,,-4.43E-06,0.019853751
,,,-4.42E-06,0.019935626
,,,-4.41E-06,0.019895626
,,,-4.4E-06,0.019903751
,,,-4.39E-06,0.020111876
,,,-4.38E-06,0.019933126
,,,-4.37E-06,0.019968751
,,,-4.36E-06,0.019584376
,,,-4.35E-06,0.019972501
,,,-4.34E-06,0.019888751
,,,-4.33E-06,0.019911251
,,,-4.32E-06,0.019840001
,,,-4.31E-06,0.019755001
,,,-4.3E-06,0.019838751
,,,-4.29E-06,0.020036251
,,,-4.28E-06,0.019957501
,,,-4.27E-06,0.019850001
,,,-4.26E-06,0.020064376
,,,-4.25E-06,0.019661251
,,,-4.24E-06,0.020066251
,,,-4.23E-06,0.019821251
,,,-4.22E-06,0.019810001
,,,-4.21E-06,0.020005001
,,,-4.2E-06,0.019842501
,,,-4.19E-06,0.019963126
,,,-4.18E-06,0.019681251
,,,-4.17E-06,0.019962501
,,,-4.16E-06,0.019866876
,,,-4.15E-06,0.019648126
,,,-4.14E-06,0.019887501
,,,-4.13E-06,0.019956251
,,,-4.12E-06,0.020085001
,,,-4.11E-06,0.019907501
,,,-4.1E-06,0.019843126
,,,-4.09E-06,0.019868126
,,,-4.08E-06,0.019820626
,,,-4.07E-06,0.019896876
,,,-4.06E-06,0.019824376
,,,-4.05E-06,0.019762501
,,,-4.04E-06,0.019772501
,,,-4.03E-06,0.020126251
,,,-4.02E-06,0.019649376
,,,-4.01E-06,0.020067501
,,,-4E-06,0.019765001
,,,-3.99E-06,0.019749376
,,,-3.98E-06,0.019861876
,,,-3.97E-06,0.019841251
,,,-3.96E-06,0.019763751
,,,-3.95E-06,0.019916876
,,,-3.94E-06,0.019902501
,,,-3.93E-06,0.019791251
,,,-3.92E-06,0.019908126
,,,-3.91E-06,0.019915626
,,,-3.9E-06,0.019726251
,,,-3.89E-06,0.020205001
,,,-3.88E-06,0.019559376
,,,-3.87E-06,0.019780001
,,,-3.86E-06,0.019897501
,,,-3.85E-06,0.019780001
,,,-3.84E-06,0.019948751
,,,-3.83E-06,0.020023751
,,,-3.82E-06,0.020142501
,,,-3.81E-06,0.019807501
,,,-3.8E-06,0.019720626
,,,-3.79E-06,0.019891876
,,,-3.78E-06,0.019913751
,,,-3.77E-06,0.019823126
,,,-3.76E-06,0.019742501
,,,-3.75E-06,0.019828126
,,,-3.74E-06,0.019966876
,,,-3.73E-06,0.019738126
,,,-3.72E-06,0.020033751
,,,-3.71E-06,0.019920626
,,,-3.7E-06,0.019891876
,,,-3.69E-06,0.019691876
,,,-3.68E-06,0.019606251
,,,-3.67E-06,0.019826876
,,,-3.66E-06,0.020098751
,,,-3.65E-06,0.019875001
,,,-3.64E-06,0.019785626
,,,-3.63E-06,0.019755626
,,,-3.62E-06,0.019747501
,,,-3.61E-06,0.019748126
,,,-3.6E-06,0.019946251
,,,-3.59E-06,0.019969376
,,,-3.58E-06,0.019777501
,,,-3.57E-06,0.019937501
,,,-3.56E-06,0.019844376
,,,-3.55E-06,0.020022501
,,,-3.54E-06,0.019863126
,,,-3.53E-06,0.019874376
,,,-3.52E-06,0.019806251
,,,-3.51E-06,0.020043751
,,,-3.5E-06,0.019896251
,,,-3.49E-06,0.019793126
,,,-3.48E-06,0.019953751
,,,-3.47E-06,0.019964376
,,,-3.46E-06,0.019668751
,,,-3.45E-06,0.020101251
,,,-3.44E-06,0.019838126
,,,-3.43E-06,0.019757501
,,,-3.42E-06,0.019873126
,,,-3.41E-06,0.019726876
,,,-3.4E-06,0.019733751
,,,-3.39E-06,0.019754376
,,,-3.38E-06,0.019782501
,,,-3.37E-06,0.019932501
,,,-3.36E-06,0.019995001
,,,-3.35E-06,0.020067501
,,,-3.34E-06,0.019704376
,,,-3.33E-06,0.019894376
,,,-3.32E-06,0.020033126
,,,-3.31E-06,0.019693126
,,,-3.3E-06,0.019738751
,,,-3.29E-06,0.019724376
,,,-3.28E-06,0.019868751
,,,-3.27E-06,0.019801251
,,,-3.26E-06,0.019954376
,,,-3.25E-06,0.020323751
,,,-3.24E-06,0.019850001
,,,-3.23E-06,0.019733751
,,,-3.22E-06,0.019971251
,,,-3.21E-06,0.020101251
,,,-3.2E-06,0.019954376
,,,-3.19E-06,0.019862501
,,,-3.18E-06,0.020063751
,,,-3.17E-06,0.019747501
,,,-3.16E-06,0.019964376
,,,-3.15E-06,0.019761876
,,,-3.14E-06,0.019967501
,,,-3.13E-06,0.019767501
,,,-3.12E-06,0.019777501
,,,-3.11E-06,0.019848126
,,,-3.1E-06,0.019967501
,,,-3.09E-06,0.019671251
,,,-3.08E-06,0.019946876
,,,-3.07E-06,0.019938751
,,,-3.06E-06,0.020155001
,,,-3.05E-06,0.020165626
,,,-3.04E-06,0.019850001
,,,-3.03E-06,0.019695626
,,,-3.02E-06,0.020017501
,,,-3.01E-06,0.019830001
,,,-3E-06,0.019886251
,,,-2.99E-06,0.020036251
,,,-2.98E-06,0.019993126
,,,-2.97E-06,0.019703751
,,,-2.96E-06,0.020181251
,,,-2.95E-06,0.019669376
,,,-2.94E-06,0.020029376
,,,-2.93E-06,0.020126251
,,,-2.92E-06,0.019959376
,,,-2.91E-06,0.020028126
,,,-2.9E-06,0.019928126
,,,-2.89E-06,0.019908751
,,,-2.88E-06,0.019883751
,,,-2.87E-06,0.019976251
,,,-2.86E-06,0.019865626
,,,-2.85E-06,0.020006876
,,,-2.84E-06,0.019854376
,,,-2.83E-06,0.019883751
,,,-2.82E-06,0.019771876
,,,-2.81E-06,0.020003126
,,,-2.8E-06,0.020048751
,,,-2.79E-06,0.020009376
,,,-2.78E-06,0.019711876
,,,-2.77E-06,0.019936251
,,,-2.76E-06,0.019740626
,,,-2.75E-06,0.019978751
,,,-2.74E-06,0.019847501
,,,-2.73E-06,0.019713126
,,,-2.72E-06,0.019879376
,,,-2.71E-06,0.019830626
,,,-2.7E-06,0.019471251
,,,-2.69E-06,0.020036251
,,,-2.68E-06,0.019982501
,,,-2.67E-06,0.019727501
,,,-2.66E-06,0.020030626
,,,-2.65E-06,0.020025626
,,,-2.64E-06,0.019735626
,,,-2.63E-06,0.019941251
,,,-2.62E-06,0.020012501
,,,-2.61E-06,0.019864376
,,,-2.6E-06,0.019817501
,,,-2.59E-06,0.020083126
,,,-2.58E-06,0.020076876
,,,-2.57E-06,0.019741876
,,,-2.56E-06,0.019881876
,,,-2.55E-06,0.019794376
,,,-2.54E-06,0.019795626
,,,-2.53E-06,0.020013751
,,,-2.52E-06,0.019930001
,,,-2.51E-06,0.019906251
,,,-2.5E-06,0.019878126
,,,-2.49E-06,0.020093126
,,,-2.48E-06,0.020044376
,,,-2.47E-06,0.019877501
,,,-2.46E-06,0.019676876
,,,-2.45E-06,0.019811876
,,,-2.44E-06,0.019608751
,,,-2.43E-06,0.020031876
,,,-2.42E-06,0.020018751
,,,-2.41E-06,0.020008751
,,,-2.4E-06,0.019766251
,,,-2.39E-06,0.019958126
,,,-2.38E-06,0.019861876
,,,-2.37E-06,0.019925001
,,,-2.36E-06,0.019810001
,,,-2.35E-06,0.019866251
,,,-2.34E-06,0.019786251
,,,-2.33E-06,0.019920626
,,,-2.32E-06,0.020020001
,,,-2.31E-06,0.019992501
,,,-2.3E-06,0.019807501
,,,-2.29E-06,0.019936251
,,,-2.28E-06,0.019941876
,,,-2.27E-06,0.019990001
,,,-2.26E-06,0.019870626
,,,-2.25E-06,0.019795626
,,,-2.24E-06,0.020034376
,,,-2.23E-06,0.019866876
,,,-2.22E-06,0.019766251
,,,-2.21E-06,0.019910626
,,,-2.2E-06,0.019978126
,,,-2.19E-06,0.020023126
,,,-2.18E-06,0.020144376
,,,-2.17E-06,0.019710001
,,,-2.16E-06,0.019979376
,,,-2.15E-06,0.019838751
,,,-2.14E-06,0.019899376
,,,-2.13E-06,0.019693126
,,,-2.12E-06,0.020172501
,,,-2.11E-06,0.019741251
,,,-2.1E-06,0.020030626
,,,-2.09E-06,0.019902501
,,,-2.08E-06,0.019733751
,,,-2.07E-06,0.019988126
,,,-2.06E-06,0.019864376
,,,-2.05E-06,0.019966251
,,,-2.04E-06,0.019671251
,,,-2.03E-06,0.019970001
,,,-2.02E-06,0.019619376
,,,-2.01E-06,0.019983751
,,,-2E-06,0.020101876
,,,-1.99E-06,0.020014376
,,,-1.98E-06,0.019912501
,,,-1.97E-06,0.020043126
,,,-1.96E-06,0.019915626
,,,-1.95E-06,0.019753126
,,,-1.94E-06,0.020256251
,,,-1.93E-06,0.019920626
,,,-1.92E-06,0.020135001
,,,-1.91E-06,0.019970001
,,,-1.9E-06,0.019948751
,,,-1.89E-06,0.019750626
,,,-1.88E-06,0.019893751
,,,-1.87E-06,0.019851876
,,,-1.86E-06,0.019892501
,,,-1.85E-06,0.019785626
,,,-1.84E-06,0.020018126
,,,-1.83E-06,0.019785626
,,,-1.82E-06,0.019958126
,,,-1.81E-06,0.020156251
,,,-1.8E-06,0.019870001
,,,-1.79E-06,0.019853126
,,,-1.78E-06,0.019838751
,,,-1.77E-06,0.020044376
,,,-1.76E-06,0.019938126
,,,-1.75E-06,0.019774376
,,,-1.74E-06,0.019973126
,,,-1.73E-06,0.019858126
,,,-1.72E-06,0.020174376
,,,-1.71E-06,0.019752501
,,,-1.7E-06,0.019811876
,,,-1.69E-06,0.019766876
,,,-1.68E-06,0.019660626
,,,-1.67E-06,0.019614376
,,,-1.66E-06,0.019870001
,,,-1.65E-06,0.019992501
,,,-1.64E-06,0.019915001
,,,-1.63E-06,0.020074376
,,,-1.62E-06,0.019996251
,,,-1.61E-06,0.019924376
,,,-1.6E-06,0.019940626
,,,-1.59E-06,0.019836251
,,,-1.58E-06,0.020028126
,,,-1.57E-06,0.019760001
,,,-1.56E-06,0.019978751
,,,-1.55E-06,0.019933126
,,,-1.54E-06,0.019796251
,,,-1.53E-06,0.019796251
,,,-1.52E-06,0.019991876
,,,-1.51E-06,0.019711251
,,,-1.5E-06,0.019654376
,,,-1.49E-06,0.019883126
,,,-1.48E-06,0.019656251
,,,-1.47E-06,0.020035001
,,,-1.46E-06,0.019763751
,,,-1.45E-06,0.020031251
,,,-1.44E-06,0.020005626
,,,-1.43E-06,0.019816251
,,,-1.42E-06,0.019850001
,,,-1.41E-06,0.019646876
,,,-1.4E-06,0.019926876
,,,-1.39E-06,0.019765001
,,,-1.38E-06,0.019695626
,,,-1.37E-06,0.019781251
,,,-1.36E-06,0.019737501
,,,-1.35E-06,0.019897501
,,,-1.34E-06,0.019737501
,,,-1.33E-06,0.020102501
,,,-1.32E-06,0.019708126
,,,-1.31E-06,0.019837501
,,,-1.3E-06,0.019915626
,,,-1.29E-06,0.019900626
,,,-1.28E-06,0.019870001
,,,-1.27E-06,0.020100626
,,,-1.26E-06,0.019882501
,,,-1.25E-06,0.019901251
,,,-1.24E-06,0.020078126
,,,-1.23E-06,0.019896876
,,,-1.22E-06,0.019942501
,,,-1.21E-06,0.019935001
,,,-1.2E-06,0.019811876
,,,-1.19E-06,0.019858751
,,,-1.18E-06,0.019842501
,,,-1.17E-06,0.019831251
,,,-1.16E-06,0.019586876
,,,-1.15E-06,0.019825001
,,,-1.14E-06,0.019746876
,,,-1.13E-06,0.019930626
,,,-1.12E-06,0.020010626
,,,-1.11E-06,0.019837501
,,,-1.1E-06,0.019781876
,,,-1.09E-06,0.019985626
,,,-1.08E-06,0.019694376
,,,-1.07E-06,0.019853751
,,,-1.06E-06,0.019830001
,,,-1.05E-06,0.019749376
,,,-1.04E-06,0.020065001
,,,-1.03E-06,0.019822501
,,,-1.02E-06,0.019896251
,,,-1.01E-06,0.019882501
,,,-1E-06,0.019971876
,,,-9.9E-07,0.019935001
,,,-9.8E-07,0.019898751
,,,-9.7E-07,0.019901251
,,,-9.6E-07,0.019779376
,,,-9.5E-07,0.020005001
,,,-9.4E-07,0.019872501
,,,-9.3E-07,0.019593751
,,,-9.2E-07,0.019914376
,,,-9.1E-07,0.019748126
,,,-9E-07,0.019703126
,,,-8.9E-07,0.019970626
,,,-8.8E-07,0.020075626
,,,-8.7E-07,0.019805626
,,,-8.6E-07,0.020066251
,,,-8.5E-07,0.019919376
,,,-8.4E-07,0.019935001
,,,-8.3E-07,0.020080001
,,,-8.2E-07,0.020006876
,,,-8.1E-07,0.019895626
,,,-8E-07,0.020043126
,,,-7.9E-07,0.019589376
,,,-7.8E-07,0.019684376
,,,-7.7E-07,0.019833751
,,,-7.6E-07,0.019870626
,,,-7.5E-07,0.019962501
,,,-7.4E-07,0.019799376
,,,-7.3E-07,0.019732501
,,,-7.2E-07,0.020055001
,,,-7.1E-07,0.019741876
,,,-7E-07,0.019950626
,,,-6.9E-07,0.019813751
,,,-6.8E-07,0.020113751
,,,-6.7E-07,0.019917501
,,,-6.6E-07,0.019664376
,,,-6.5E-07,0.019715626
,,,-6.4E-07,0.019995626
,,,-6.3E-07,0.019884376
,,,-6.2E-07,0.020245001
,,,-6.1E-07,0.019823126
,,,-6E-07,0.019855626
,,,-5.9E-07,0.019866876
,,,-5.8E-07,0.019877501
,,,-5.7E-07,0.020048126
,,,-5.6E-07,0.019892501
,,,-5.5E-07,0.019762501
,,,-5.4E-07,0.019827501
,,,-5.3E-07,0.019934376
,,,-5.2E-07,0.020100626
,,,-5.1E-07,0.019701251
,,,-5E-07,0.019910001
,,,-4.9E-07,0.019996876
,,,-4.8E-07,0.019959376
,,,-4.7E-07,0.020004376
,,,-4.6E-07,0.019868751
,,,-4.5E-07,0.019867501
,,,-4.4E-07,0.020090001
,,,-4.3E-07,0.019871876
,,,-4.2E-07,0.019768751
,,,-4.1E-07,0.019686876
,,,-4E-07,0.019886876
,,,-3.9E-07,0.019723751
,,,-3.8E-07,0.019958126
,,,-3.7E-07,0.019936876
,,,-3.6E-07,0.020183126
,,,-3.5E-07,0.019776251
,,,-3.4E-07,0.020013751
,,,-3.3E-07,0.019919376
,,,-3.2E-07,0.019938751
,,,-3.1E-07,0.019808751
,,,-3E-07,0.020140001
,,,-2.9E-07,0.019800001
,,,-2.8E-07,0.019843751
,,,-2.7E-07,0.019888126
,,,-2.6E-07,0.019867501
,,,-2.5E-07,0.020063751
,,,-2.4E-07,0.019770001
,,,-2.3E-07,0.019795001
,,,-2.2E-07,0.019910001
,,,-2.1E-07,0.019664376
,,,-2E-07,0.020017501
,,,-1.9E-07,0.020021251
,,,-1.8E-07,0.019763751
,,,-1.7E-07,0.019812501
,,,-1.6E-07,0.020160001
,,,-1.5E-07,0.020121876
,,,-1.4E-07,0.019710626
,,,-1.3E-07,0.019713126
,,,-1.2E-07,0.019881876
,,,-1.1E-07,0.019884376
,,,-1E-07,0.019880626
,,,-9E-08,0.019701251
,,,-8E-08,0.019822501
,,,-7E-08,0.019891876
,,,-6E-08,0.019761251
,,,-5E-08,0.019938126
,,,-4E-08,0.019972501
,,,-3E-08,0.019845001
,,,-2E-08,0.019774376
,,,-1E-08,0.019820626
,,,0,0.019986251
,,,1E-08,0.020235626
,,,2E-08,0.019399376
,,,3E-08,0.019575001
,,,4E-08,0.019678126
,,,5E-08,0.020036251
,,,6E-08,0.020067501
,,,7E-08,0.020187501
,,,8E-08,0.020259376
,,,9E-08,0.019853126
,,,1E-07,0.019647501
,,,1.1E-07,0.019770626
,,,1.2E-07,0.019751876
,,,1.3E-07,0.020110001
,,,1.4E-07,0.019960626
,,,1.5E-07,0.020000001
,,,1.6E-07,0.019814376
,,,1.7E-07,0.019855626
,,,1.8E-07,0.019730626
,,,1.9E-07,0.019700001
,,,2E-07,0.019725626
,,,2.1E-07,0.020051251
,,,2.2E-07,0.019929376
,,,2.3E-07,0.019981251
,,,2.4E-07,0.019945001
,,,2.5E-07,0.019708751
,,,2.6E-07,0.019870626
,,,2.7E-07,0.019998751
,,,2.8E-07,0.019767501
,,,2.9E-07,0.019651876
,,,3E-07,0.020102501
,,,3.1E-07,0.020106251
,,,3.2E-07,0.019919376
,,,3.3E-07,0.019620001
,,,3.4E-07,0.019786876
,,,3.5E-07,0.019791876
,,,3.6E-07,0.019978751
,,,3.7E-07,0.019747501
,,,3.8E-07,0.019715626
,,,3.9E-07,0.019920001
,,,4E-07,0.019945626
,,,4.1E-07,0.019773126
,,,4.2E-07,0.019786251
,,,4.3E-07,0.019926251
,,,4.4E-07,0.019591876
,,,4.5E-07,0.019785626
,,,4.6E-07,0.019948126
,,,4.7E-07,0.019943751
,,,4.8E-07,0.019838126
,,,4.9E-07,0.019915001
,,,5E-07,0.020245001
,,,5.1E-07,0.019643751
,,,5.2E-07,0.019978751
,,,5.3E-07,0.019865001
,,,5.4E-07,0.019765626
,,,5.5E-07,0.020119376
,,,5.6E-07,0.019994376
,,,5.7E-07,0.020006251
,,,5.8E-07,0.019795001
,,,5.9E-07,0.019703751
,,,6E-07,0.019710626
,,,6.1E-07,0.020020001
,,,6.2E-07,0.019899376
,,,6.3E-07,0.020113126
,,,6.4E-07,0.019986251
,,,6.5E-07,0.019914376
,,,6.6E-07,0.019891251
,,,6.7E-07,0.019880001
,,,6.8E-07,0.020083126
,,,6.9E-07,0.019693751
,,,7E-07,0.019883126
,,,7.1E-07,0.019840001
,,,7.2E-07,0.019746876
,,,7.3E-07,0.019783751
,,,7.4E-07,0.019921251
,,,7.5E-07,0.019630626
,,,7.6E-07,0.019881251
,,,7.7E-07,0.019793751
,,,7.8E-07,0.019804376
,,,7.9E-07,0.020017501
,,,8E-07,0.019767501
,,,8.1E-07,0.019887501
,,,8.2E-07,0.019876251
,,,8.3E-07,0.020051876
,,,8.4E-07,0.019921251
,,,8.5E-07,0.019786876
,,,8.6E-07,0.019870001
,,,8.7E-07,0.019866876
,,,8.8E-07,0.020061251
,,,8.9E-07,0.019851251
,,,9E-07,0.019829376
,,,9.1E-07,0.019900001
,,,9.2E-07,0.020026251
,,,9.3E-07,0.019811876
,,,9.4E-07,0.019756251
,,,9.5E-07,0.019858126
,,,9.6E-07,0.019813751
,,,9.7E-07,0.019940626
,,,9.8E-07,0.020020001
,,,9.9E-07,0.019916251
,,,1E-06,0.019849376
,,,1.01E-06,0.019904376
,,,1.02E-06,0.020022501
,,,1.03E-06,0.019981876
,,,1.04E-06,0.019980626
,,,1.05E-06,0.019790001
,,,1.06E-06,0.020178751
,,,1.07E-06,0.019764376
,,,1.08E-06,0.019835001
,,,1.09E-06,0.019817501
,,,1.1E-06,0.019905626
,,,1.11E-06,0.019958751
,,,1.12E-06,0.019668751
,,,1.13E-06,0.020199376
,,,1.14E-06,0.019682501
,,,1.15E-06,0.019963126
,,,1.16E-06,0.019912501
,,,1.17E-06,0.019655001
,,,1.18E-06,0.019630001
,,,1.19E-06,0.020010001
,,,1.2E-06,0.019631251
,,,1.21E-06,0.019895001
,,,1.22E-06,0.019737501
,,,1.23E-06,0.019876251
,,,1.24E-06,0.019849376
,,,1.25E-06,0.019786876
,,,1.26E-06,0.019708126
,,,1.27E-06,0.019673126
,,,1.28E-06,0.019931876
,,,1.29E-06,0.019920001
,,,1.3E-06,0.019964376
,,,1.31E-06,0.020020626
,,,1.32E-06,0.020019376
,,,1.33E-06,0.019817501
,,,1.34E-06,0.019868751
,,,1.35E-06,0.019886251
,,,1.36E-06,0.019845626
,,,1.37E-06,0.019991876
,,,1.38E-06,0.019728751
,,,1.39E-06,0.020140626
,,,1.4E-06,0.019953751
,,,1.41E-06,0.019540626
,,,1.42E-06,0.019846251
,,,1.43E-06,0.019826876
,,,1.44E-06,0.020173751
,,,1.45E-06,0.019776251
,,,1.46E-06,0.020021251
,,,1.47E-06,0.019900001
,,,1.48E-06,0.020170001
,,,1.49E-06,0.020020001
,,,1.5E-06,0.019780626
,,,1.51E-06,0.019734376
,,,1.52E-06,0.019921251
,,,1.53E-06,0.019766251
,,,1.54E-06,0.019856251
,,,1.55E-06,0.019845001
,,,1.56E-06,0.019930001
,,,1.57E-06,0.019985001
,,,1.58E-06,0.020099376
,,,1.59E-06,0.019815001
,,,1.6E-06,0.019821251
,,,1.61E-06,0.019740626
,,,1.62E-06,0.019956251
,,,1.63E-06,0.019682501
,,,1.64E-06,0.019822501
,,,1.65E-06,0.019876876
,,,1.66E-06,0.019911251
,,,1.67E-06,0.019921251
,,,1.68E-06,0.019891876
,,,1.69E-06,0.019870001
,,,1.7E-06,0.019844376
,,,1.71E-06,0.019718126
,,,1.72E-06,0.019951876
,,,1.73E-06,0.019907501
,,,1.74E-06,0.020140001
,,,1.75E-06,0.019885001
,,,1.76E-06,0.020008126
,,,1.77E-06,0.020029376
,,,1.78E-06,0.019921876
,,,1.79E-06,0.019681251
,,,1.8E-06,0.019841876
,,,1.81E-06,0.020140001
,,,1.82E-06,0.019767501
,,,1.83E-06,0.020048751
,,,1.84E-06,0.020069376
,,,1.85E-06,0.019798126
,,,1.86E-06,0.019727501
,,,1.87E-06,0.019863126
,,,1.88E-06,0.019854376
,,,1.89E-06,0.019890626
,,,1.9E-06,0.019836876
,,,1.91E-06,0.019751251
,,,1.92E-06,0.019956251
,,,1.93E-06,0.019917501
,,,1.94E-06,0.019762501
,,,1.95E-06,0.019955001
,,,1.96E-06,0.019836876
,,,1.97E-06,0.019808751
,,,1.98E-06,0.020051251
,,,1.99E-06,0.019921876
,,,2E-06,0.019965001
,,,2.01E-06,0.019808126
,,,2.02E-06,0.019786251
,,,2.03E-06,0.019905001
,,,2.04E-06,0.020137501
,,,2.05E-06,0.019936876
,,,2.06E-06,0.019873751
,,,2.07E-06,0.020050626
,,,2.08E-06,0.020150001
,,,2.09E-06,0.019801876
,,,2.1E-06,0.019968126
,,,2.11E-06,0.019707501
,,,2.12E-06,0.019845001
,,,2.13E-06,0.019823126
,,,2.14E-06,0.019955001
,,,2.15E-06,0.019849376
,,,2.16E-06,0.020032501
,,,2.17E-06,0.020120001
,,,2.18E-06,0.019869376
,,,2.19E-06,0.019947501
,,,2.2E-06,0.019940001
,,,2.21E-06,0.019908751
,,,2.22E-06,0.020078751
,,,2.23E-06,0.020170626
,,,2.24E-06,0.019868126
,,,2.25E-06,0.019907501
,,,2.26E-06,0.019910001
,,,2.27E-06,0.019880001
,,,2.28E-06,0.019772501
,,,2.29E-06,0.019913126
,,,2.3E-06,0.019769376
,,,2.31E-06,0.020079376
,,,2.32E-06,0.019813751
,,,2.33E-06,0.019937501
,,,2.34E-06,0.019820626
,,,2.35E-06,0.019879376
,,,2.36E-06,0.019772501
,,,2.37E-06,0.019950626
,,,2.38E-06,0.019968126
,,,2.39E-06,0.019874376
,,,2.4E-06,0.019745001
,,,2.41E-06,0.019993126
,,,2.42E-06,0.019930001
,,,2.43E-06,0.020021876
,,,2.44E-06,0.019920626
,,,2.45E-06,0.019869376
,,,2.46E-06,0.019693126
,,,2.47E-06,0.019926876
,,,2.48E-06,0.019843751
,,,2.49E-06,0.019740001
,,,2.5E-06,0.020025626
,,,2.51E-06,0.019838751
,,,2.52E-06,0.019657501
,,,2.53E-06,0.019887501
,,,2.54E-06,0.019880626
,,,2.55E-06,0.020066876
,,,2.56E-06,0.019965626
,,,2.57E-06,0.019870001
,,,2.58E-06,0.019897501
,,,2.59E-06,0.020049376
,,,2.6E-06,0.019738126
,,,2.61E-06,0.019971876
,,,2.62E-06,0.019886251
,,,2.63E-06,0.019921251
,,,2.64E-06,0.020023126
,,,2.65E-06,0.019758126
,,,2.66E-06,0.019900001
,,,2.67E-06,0.019854376
,,,2.68E-06,0.019940001
,,,2.69E-06,0.019843126
,,,2.7E-06,0.019860001
,,,2.71E-06,0.019926876
,,,2.72E-06,0.019932501
,,,2.73E-06,0.020025626
,,,2.74E-06,0.019851876
,,,2.75E-06,0.019828126
,,,2.76E-06,0.019872501
,,,2.77E-06,0.020003126
,,,2.78E-06,0.019705001
,,,2.79E-06,0.020019376
,,,2.8E-06,0.020110001
,,,2.81E-06,0.019855001
,,,2.82E-06,0.019990626
,,,2.83E-06,0.019814376
,,,2.84E-06,0.019556251
,,,2.85E-06,0.019681251
,,,2.86E-06,0.019935001
,,,2.87E-06,0.019835001
,,,2.88E-06,0.020068751
,,,2.89E-06,0.020081876
,,,2.9E-06,0.019779376
,,,2.91E-06,0.019845001
,,,2.92E-06,0.019809376
,,,2.93E-06,0.019791876
,,,2.94E-06,0.020022501
,,,2.95E-06,0.019820626
,,,2.96E-06,0.019669376
,,,2.97E-06,0.019830001
,,,2.98E-06,0.019858751
,,,2.99E-06,0.019778751
,,,3E-06,0.020070626
,,,3.01E-06,0.019859376
,,,3.02E-06,0.020013126
,,,3.03E-06,0.019961251
,,,3.04E-06,0.019859376
,,,3.05E-06,0.019946876
,,,3.06E-06,0.019645001
,,,3.07E-06,0.019909376
,,,3.08E-06,0.019947501
,,,3.09E-06,0.019827501
,,,3.1E-06,0.019858126
,,,3.11E-06,0.020016251
,,,3.12E-06,0.019925001
,,,3.13E-06,0.020031876
,,,3.14E-06,0.019915626
,,,3.15E-06,0.019737501
,,,3.16E-06,0.019893126
,,,3.17E-06,0.019838751
,,,3.18E-06,0.019683751
,,,3.19E-06,0.019738126
,,,3.2E-06,0.019824376
,,,3.21E-06,0.019769376
