data/raw/Final_POL_Test_1/SOP061_Ch2.csv

"Record Length",1000,"Points",-5E-06,0.0226075
"Sample Interval",1E-08,s,-4.99E-06,0.0225625
"Trigger Point",500,"Samples",-4.98E-06,0.02281
"Trigger Time",0,s,-4.97E-06,0.02294625
"",,,-4.96E-06,0.02256375
"Horizontal Offset",-5E-06,s,-4.95E-06,0.022655625
,,,-4.94E-06,0.022431875
,,,-4.93E-06,0.022746875
,,,-4.92E-06,0.02262375
,,,-4.91E-06,0.02283875
,,,-4.9E-06,0.022613125
,,,-4.89E-06,0.02277875
,,,-4.88E-06,0.022819375
,,,-4.87E-06,0.022675
,,,-4.86E-06,0.0228275
,,,-4.85E-06,0.022620625
,,,-4.84E-06,0.022983125
,,,-4.83E-06,0.02263
,,,-4.82E-06,0.02259
,,,-4.81E-06,0.02272625
,,,-4.8E-06,0.02282125
,,,-4.79E-06,0.022976875
,,,-4.78E-06,0.022585625
,,,-4.77E-06,0.022656875
,,,-4.76E-06,0.022629375
,,,-4.75E-06,0.023003125
,,,-4.74E-06,0.022863125
,,,-4.73E-06,0.022889375
,,,-4.72E-06,0.022661875
,,,-4.71E-06,0.022630625
,,,-4.7E-06,0.022561875
,,,-4.69E-06,0.0226375
,,,-4.68E-06,0.0228175
,,,-4.67E-06,0.02268
,,,-4.66E-06,0.022720625
,,,-4.65E-06,0.022794375
,,,-4.64E-06,0.022811875
,,,-4.63E-06,0.0228125
,,,-4.62E-06,0.02280625
,,,-4.61E-06,0.02279375
,,,-4.6E-06,0.02255625
,,,-4.59E-06,0.02279
,,,-4.58E-06,0.02253875
,,,-4.57E-06,0.022575
,,,-4.56E-06,0.022795
,,,-4.55E-06,0.022861875
,,,-4.54E-06,0.0226575
,,,-4.53E-06,0.022585625
,,,-4.52E-06,0.022605625
,,,-4.51E-06,0.022775
,,,-4.5E-06,0.022919375
,,,-4.49E-06,0.02257375
,,,-4.48E-06,0.022609375
,,,-4.47E-06,0.022685625
,,,-4.46E-06,0.02287125
,,,-4.45E-06,0.02255875
,,,-4.44E-06,0.02253375
,,,-4.43E-06,0.022570625
,,,-4.42E-06,0.02252875
,,,-4.41E-06,0.022711875
,,,-4.4E-06,0.022760625
,,,-4.39E-06,0.02276875
,,,-4.38E-06,0.022635625
,,,-4.37E-06,0.02261875
,,,-4.36E-06,0.02264
,,,-4.35E-06,0.022876875
,,,-4.34E-06,0.02268125
,,,-4.33E-06,0.0224825
,,,-4.32E-06,0.023
,,,-4.31E-06,0.02278625
,,,-4.3E-06,0.02261125
,,,-4.29E-06,0.02291
,,,-4.28E-06,0.02273
,,,-4.27E-06,0.022791875
,,,-4.26E-06,0.02279875
,,,-4.25E-06,0.022399375
,,,-4.24E-06,0.022809375
,,,-4.23E-06,0.02248125
,,,-4.22E-06,0.022768125
,,,-4.21E-06,0.02271125
,,,-4.2E-06,0.02233375
,,,-4.19E-06,0.022728125
,,,-4.18E-06,0.02254375
,,,-4.17E-06,0.02266125
,,,-4.16E-06,0.02269
,,,-4.15E-06,0.022575625
,,,-4.14E-06,0.022563125
,,,-4.13E-06,0.02258875
,,,-4.12E-06,0.02265875
,,,-4.11E-06,0.02283625
,,,-4.1E-06,0.022775
,,,-4.09E-06,0.02270625
,,,-4.08E-06,0.02284
,,,-4.07E-06,0.02293625
,,,-4.06E-06,0.022509375
,,,-4.05E-06,0.023040625
,,,-4.04E-06,0.022630625
,,,-4.03E-06,0.02239125
,,,-4.02E-06,0.022595625
,,,-4.01E-06,0.022475625
,,,-4E-06,0.022698125
,,,-3.99E-06,0.022745625
,,,-3.98E-06,0.022624375
,,,-3.97E-06,0.022614375
,,,-3.96E-06,0.022855625
,,,-3.95E-06,0.02228
,,,-3.94E-06,0.02270625
,,,-3.93E-06,0.022539375
,,,-3.92E-06,0.022596875
,,,-3.91E-06,0.022641875
,,,-3.9E-06,0.02276875
,,,-3.89E-06,0.022481875
,,,-3.88E-06,0.022746875
,,,-3.87E-06,0.022701875
,,,-3.86E-06,0.022645
,,,-3.85E-06,0.022738125
,,,-3.84E-06,0.02256
,,,-3.83E-06,0.022743125
,,,-3.82E-06,0.02272
,,,-3.81E-06,0.0227125
,,,-3.8E-06,0.022674375
,,,-3.79E-06,0.022805
,,,-3.78E-06,0.022666875
,,,-3.77E-06,0.02281
,,,-3.76E-06,0.02263
,,,-3.75E-06,0.022840625
,,,-3.74E-06,0.02277375
,,,-3.73E-06,0.0227875
,,,-3.72E-06,0.02280125
,,,-3.71E-06,0.022559375
,,,-3.7E-06,0.02276125
,,,-3.69E-06,0.02261
,,,-3.68E-06,0.02268125
,,,-3.67E-06,0.02275
,,,-3.66E-06,0.023095625
,,,-3.65E-06,0.022524375
,,,-3.64E-06,0.0225775
,,,-3.63E-06,0.022761875
,,,-3.62E-06,0.02287375
,,,-3.61E-06,0.02250375
,,,-3.6E-06,0.022393125
,,,-3.59E-06,0.022498125
,,,-3.58E-06,0.022556875
,,,-3.57E-06,0.022548125
,,,-3.56E-06,0.02262875
,,,-3.55E-06,0.022615
,,,-3.54E-06,0.022165625
,,,-3.53E-06,0.02274375
,,,-3.52E-06,0.0229375
,,,-3.51E-06,0.0225625
,,,-3.5E-06,0.02250375
,,,-3.49E-06,0.02286125
,,,-3.48E-06,0.02261875
,,,-3.47E-06,0.022660625
,,,-3.46E-06,0.022474375
,,,-3.45E-06,0.02293625
,,,-3.44E-06,0.0229325
,,,-3.43E-06,0.02268
,,,-3.42E-06,0.022731875
,,,-3.41E-06,0.0229075
,,,-3.4E-06,0.02255875
,,,-3.39E-06,0.022610625
,,,-3.38E-06,0.0226
,,,-3.37E-06,0.022560625
,,,-3.36E-06,0.022558125
,,,-3.35E-06,0.022711875
,,,-3.34E-06,0.022564375
,,,-3.33E-06,0.022653125
,,,-3.32E-06,0.022638125
,,,-3.31E-06,0.02287625
,,,-3.3E-06,0.022761875
,,,-3.29E-06,0.022425625
,,,-3.28E-06,0.022626875
,,,-3.27E-06,0.022883125
,,,-3.26E-06,0.022851875
,,,-3.25E-06,0.022835625
,,,-3.24E-06,0.02276
,,,-3.23E-06,0.0227975
,,,-3.22E-06,0.022730625
,,,-3.21E-06,0.02256375
,,,-3.2E-06,0.022494375
,,,-3.19E-06,0.022546875
,,,-3.18E-06,0.022943125
,,,-3.17E-06,0.022934375
,,,-3.16E-06,0.02257625
,,,-3.15E-06,0.022705
,,,-3.14E-06,0.02257125
,,,-3.13E-06,0.0228425
,,,-3.12E-06,0.022871875
,,,-3.11E-06,0.02238625
,,,-3.1E-06,0.022654375
,,,-3.09E-06,0.022731875
,,,-3.08E-06,0.0229325
,,,-3.07E-06,0.022674375
,,,-3.06E-06,0.022769375
,,,-3.05E-06,0.022570625
,,,-3.04E-06,0.02253625
,,,-3.03E-06,0.022575625
,,,-3.02E-06,0.022671875
,,,-3.01E-06,0.022871875
,,,-3E-06,0.022908125
,,,-2.99E-06,0.022823125
,,,-2.98E-06,0.022796875
,,,-2.97E-06,0.02281375
,,,-2.96E-06,0.022675
,,,-2.95E-06,0.022439375
,,,-2.94E-06,0.022625
,,,-2.93E-06,0.02278
,,,-2.92E-06,0.0226125
,,,-2.91E-06,0.022829375
,,,-2.9E-06,0.022728125
,,,-2.89E-06,0.022835625
,,,-2.88E-06,0.02257875
,,,-2.87E-06,0.0226875
,,,-2.86E-06,0.02266625
,,,-2.85E-06,0.022583125
,,,-2.84E-06,0.02237625
,,,-2.83E-06,0.02272875
,,,-2.82E-06,0.022665
,,,-2.81E-06,0.022629375
,,,-2.8E-06,0.022833125
,,,-2.79E-06,0.022755625
,,,-2.78E-06,0.022705
,,,-2.77E-06,0.022704375
,,,-2.76E-06,0.022631875
,,,-2.75E-06,0.022615
,,,-2.74E-06,0.02234875
,,,-2.73E-06,0.02251625
,,,-2.72E-06,0.0228725
,,,-2.71E-06,0.022701875
,,,-2.7E-06,0.022469375
,,,-2.69E-06,0.022675625
,,,-2.68E-06,0.022823125
,,,-2.67E-06,0.02298125
,,,-2.66E-06,0.022810625
,,,-2.65E-06,0.022820625
,,,-2.64E-06,0.02260625
,,,-2.63E-06,0.0225075
,,,-2.62E-06,0.022825625
,,,-2.61E-06,0.022683125
,,,-2.6E-06,0.022675
,,,-2.59E-06,0.022429375
,,,-2.58E-06,0.022535625
,,,-2.57E-06,0.022800625
,,,-2.56E-06,0.022934375
,,,-2.55E-06,0.022746875
,,,-2.54E-06,0.022719375
,,,-2.53E-06,0.022793125
,,,-2.52E-06,0.022660625
,,,-2.51E-06,0.022535
,,,-2.5E-06,0.02286875
,,,-2.49E-06,0.022694375
,,,-2.48E-06,0.0229375
,,,-2.47E-06,0.022884375
,,,-2.46E-06,0.022620625
,,,-2.45E-06,0.022785
,,,-2.44E-06,0.022636875
,,,-2.43E-06,0.022723125
,,,-2.42E-06,0.022633125
,,,-2.41E-06,0.022784375
,,,-2.4E-06,0.023018125
,,,-2.39E-06,0.0227625
,,,-2.38E-06,0.022461875
,,,-2.37E-06,0.02251375
,,,-2.36E-06,0.022653125
,,,-2.35E-06,0.0227225
,,,-2.34E-06,0.022811875
,,,-2.33E-06,0.022553125
,,,-2.32E-06,0.022565
,,,-2.31E-06,0.022695625
,,,-2.3E-06,0.02277375
,,,-2.29E-06,0.0226025
,,,-2.28E-06,0.022545625
,,,-2.27E-06,0.02252625
,,,-2.26E-06,0.022553125
,,,-2.25E-06,0.022859375
,,,-2.24E-06,0.02270125
,,,-2.23E-06,0.022601875
,,,-2.22E-06,0.02276875
,,,-2.21E-06,0.0224725
,,,-2.2E-06,0.02233875
,,,-2.19E-06,0.02260375
,,,-2.18E-06,0.02282625
,,,-2.17E-06,0.022595625
,,,-2.16E-06,0.022783125
,,,-2.15E-06,0.0228975
,,,-2.14E-06,0.022688125
,,,-2.13E-06,0.0227625
,,,-2.12E-06,0.022773125
,,,-2.11E-06,0.022631875
,,,-2.1E-06,0.0226525
,,,-2.09E-06,0.022706875
,,,-2.08E-06,0.022965
,,,-2.07E-06,0.022700625
,,,-2.06E-06,0.022656875
,,,-2.05E-06,0.022551875
,,,-2.04E-06,0.022880625
,,,-2.03E-06,0.022565
,,,-2.02E-06,0.0226575
,,,-2.01E-06,0.022625
,,,-2E-06,0.02277125
,,,-1.99E-06,0.022905625
,,,-1.98E-06,0.0225725
,,,-1.97E-06,0.022665625
,,,-1.96E-06,0.022466875
,,,-1.95E-06,0.0226625
,,,-1.94E-06,0.02272125
,,,-1.93E-06,0.02280625
,,,-1.92E-06,0.02261
,,,-1.91E-06,0.02269
,,,-1.9E-06,0.022531875
,,,-1.89E-06,0.022611875
,,,-1.88E-06,0.02259125
,,,-1.87E-06,0.022508125
,,,-1.86E-06,0.02265875
,,,-1.85E-06,0.02277125
,,,-1.84E-06,0.02258125
,,,-1.83E-06,0.02269
,,,-1.82E-06,0.0226575
,,,-1.81E-06,0.022830625
,,,-1.8E-06,0.022785625
,,,-1.79E-06,0.0228425
,,,-1.78E-06,0.022550625
,,,-1.77E-06,0.02268
,,,-1.76E-06,0.02264
,,,-1.75E-06,0.022871875
,,,-1.74E-06,0.022960625
,,,-1.73E-06,0.02288125
,,,-1.72E-06,0.022456875
,,,-1.71E-06,0.022630625
,,,-1.7E-06,0.022745
,,,-1.69E-06,0.02255625
,,,-1.68E-06,0.022694375
,,,-1.67E-06,0.022535
,,,-1.66E-06,0.022578125
,,,-1.65E-06,0.022968125
,,,-1.64E-06,0.022588125
,,,-1.63E-06,0.022660625
,,,-1.62E-06,0.022359375
,,,-1.61E-06,0.022636875
,,,-1.6E-06,0.022613125
,,,-1.59E-06,0.022746875
,,,-1.58E-06,0.022840625
,,,-1.57E-06,0.02275875
,,,-1.56E-06,0.022515
,,,-1.55E-06,0.02260875
,,,-1.54E-06,0.0227175
,,,-1.53E-06,0.0227725
,,,-1.52E-06,0.02264125
,,,-1.51E-06,0.022829375
,,,-1.5E-06,0.02303375
,,,-1.49E-06,0.022434375
,,,-1.48E-06,0.0228925
,,,-1.47E-06,0.022743125
,,,-1.46E-06,0.0227575
,,,-1.45E-06,0.0227925
,,,-1.44E-06,0.0227175
,,,-1.43E-06,0.0227025
,,,-1.42E-06,0.02277375
,,,-1.41E-06,0.022515625
,,,-1.4E-06,0.022578125
,,,-1.39E-06,0.022629375
,,,-1.38E-06,0.022641875
,,,-1.37E-06,0.022644375
,,,-1.36E-06,0.02258625
,,,-1.35E-06,0.0227375
,,,-1.34E-06,0.022738125
,,,-1.33E-06,0.022805625
,,,-1.32E-06,0.02261625
,,,-1.31E-06,0.0225475
,,,-1.3E-06,0.022641875
,,,-1.29E-06,0.022699375
,,,-1.28E-06,0.022735
,,,-1.27E-06,0.022806875
,,,-1.26E-06,0.022745
,,,-1.25E-06,0.02275375
,,,-1.24E-06,0.022725
,,,-1.23E-06,0.0225925
,,,-1.22E-06,0.022625
,,,-1.21E-06,0.022695
,,,-1.2E-06,0.0228825
,,,-1.19E-06,0.02274625
,,,-1.18E-06,0.02290625
,,,-1.17E-06,0.022674375
,,,-1.16E-06,0.02267
,,,-1.15E-06,0.022796875
,,,-1.14E-06,0.022700625
,,,-1.13E-06,0.02250375
,,,-1.12E-06,0.02254875
,,,-1.11E-06,0.022845
,,,-1.1E-06,0.02267125
,,,-1.09E-06,0.023014375
,,,-1.08E-06,0.0225775
,,,-1.07E-06,0.02275875
,,,-1.06E-06,0.022445
,,,-1.05E-06,0.022868125
,,,-1.04E-06,0.022899375
,,,-1.03E-06,0.02255625
,,,-1.02E-06,0.0228975
,,,-1.01E-06,0.02281
,,,-1E-06,0.022535
,,,-9.9E-07,0.02254125
,,,-9.8E-07,0.02288
,,,-9.7E-07,0.022539375
,,,-9.6E-07,0.022530625
,,,-9.5E-07,0.022453125
,,,-9.4E-07,0.02260125
,,,-9.3E-07,0.022803125
,,,-9.2E-07,0.0227225
,,,-9.1E-07,0.022558125
,,,-9E-07,0.02251875
,,,-8.9E-07,0.02249125
,,,-8.8E-07,0.02274
,,,-8.7E-07,0.022763125
,,,-8.6E-07,0.022753125
,,,-8.5E-07,0.022925625
,,,-8.4E-07,0.022853125
,,,-8.3E-07,0.022856875
,,,-8.2E-07,0.02278
,,,-8.1E-07,0.02259125
,,,-8E-07,0.02265125
,,,-7.9E-07,0.02233125
,,,-7.8E-07,0.022606875
,,,-7.7E-07,0.022526875
,,,-7.6E-07,0.022803125
,,,-7.5E-07,0.022594375
,,,-7.4E-07,0.022666875
,,,-7.3E-07,0.02295125
,,,-7.2E-07,0.022776875
,,,-7.1E-07,0.02264625
,,,-7E-07,0.02301
,,,-6.9E-07,0.02281125
,,,-6.8E-07,0.022758125
,,,-6.7E-07,0.02255625
,,,-6.6E-07,0.022778125
,,,-6.5E-07,0.0228575
,,,-6.4E-07,0.022455
,,,-6.3E-07,0.0226575
,,,-6.2E-07,0.022634375
,,,-6.1E-07,0.022715625
,,,-6E-07,0.02255125
,,,-5.9E-07,0.022531875
,,,-5.8E-07,0.022805
,,,-5.7E-07,0.02278625
,,,-5.6E-07,0.02249875
,,,-5.5E-07,0.02260375
,,,-5.4E-07,0.0227725
,,,-5.3E-07,0.02256
,,,-5.2E-07,0.02281125
,,,-5.1E-07,0.02284375
,,,-5E-07,0.02283
,,,-4.9E-07,0.02271
,,,-4.8E-07,0.0226275
,,,-4.7E-07,0.022574375
,,,-4.6E-07,0.022745
,,,-4.5E-07,0.022545625
,,,-4.4E-07,0.022834375
,,,-4.3E-07,0.023089375
,,,-4.2E-07,0.022793125
,,,-4.1E-07,0.02250125
,,,-4E-07,0.02237375
,,,-3.9E-07,0.02270375
,,,-3.8E-07,0.022750625
,,,-3.7E-07,0.022464375
,,,-3.6E-07,0.022958125
,,,-3.5E-07,0.02291125
,,,-3.4E-07,0.02280625
,,,-3.3E-07,0.022745
,,,-3.2E-07,0.0227425
,,,-3.1E-07,0.022719375
,,,-3E-07,0.02241
,,,-2.9E-07,0.02238
,,,-2.8E-07,0.02281125
,,,-2.7E-07,0.02285125
,,,-2.6E-07,0.022868125
,,,-2.5E-07,0.02267375
,,,-2.4E-07,0.02270375
,,,-2.3E-07,0.02283
,,,-2.2E-07,0.022745
,,,-2.1E-07,0.02268125
,,,-2E-07,0.022804375
,,,-1.9E-07,0.02280625
,,,-1.8E-07,0.022608125
,,,-1.7E-07,0.022633125
,,,-1.6E-07,0.022800625
,,,-1.5E-07,0.0226725
,,,-1.4E-07,0.0224325
,,,-1.3E-07,0.022496875
,,,-1.2E-07,0.02284875
,,,-1.1E-07,0.0226425
,,,-1E-07,0.022726875
,,,-9E-08,0.0226775
,,,-8E-08,0.022686875
,,,-7E-08,0.022365625
,,,-6E-08,0.0225575
,,,-5E-08,0.02263875
,,,-4E-08,0.023118125
,,,-3E-08,0.024815
,,,-2E-08,0.0210125
,,,-1E-08,0.019489375
,,,0,0.019093125
,,,1E-08,0.025835
,,,2E-08,0.0275425
,,,3E-08,0.02695125
,,,4E-08,0.02203625
,,,5E-08,0.01943625
,,,6E-08,0.018989375
,,,7E-08,0.02134
,,,8E-08,0.024001875
,,,9E-08,0.02509625
,,,1E-07,0.02519875
,,,1.1E-07,0.02323875
,,,1.2E-07,0.021515
,,,1.3E-07,0.02095
,,,1.4E-07,0.021913125
,,,1.5E-07,0.02306
,,,1.6E-07,0.02350625
,,,1.7E-07,0.0230825
,,,1.8E-07,0.02282375
,,,1.9E-07,0.02254375
,,,2E-07,0.022615
,,,2.1E-07,0.02256375
,,,2.2E-07,0.02221
,,,2.3E-07,0.022806875
,,,2.4E-07,0.022889375
,,,2.5E-07,0.02290875
,,,2.6E-07,0.022624375
,,,2.7E-07,0.02272375
,,,2.8E-07,0.0227025
,,,2.9E-07,0.022835625
,,,3E-07,0.022753125
,,,3.1E-07,0.02255
,,,3.2E-07,0.0227925
,,,3.3E-07,0.02298
,,,3.4E-07,0.022979375
,,,3.5E-07,0.02276375
,,,3.6E-07,0.022678125
,,,3.7E-07,0.022600625
,,,3.8E-07,0.022734375
,,,3.9E-07,0.022470625
,,,4E-07,0.022831875
,,,4.1E-07,0.02244875
,,,4.2E-07,0.02289375
,,,4.3E-07,0.022685
,,,4.4E-07,0.02260125
,,,4.5E-07,0.02296875
,,,4.6E-07,0.02302
,,,4.7E-07,0.0226375
,,,4.8E-07,0.02239
,,,4.9E-07,0.022631875
,,,5E-07,0.022654375
,,,5.1E-07,0.02297875
,,,5.2E-07,0.022643125
,,,5.3E-07,0.022685
,,,5.4E-07,0.02228
,,,5.5E-07,0.022826875
,,,5.6E-07,0.022801875
,,,5.7E-07,0.022463125
,,,5.8E-07,0.022771875
,,,5.9E-07,0.022779375
,,,6E-07,0.022764375
,,,6.1E-07,0.022803125
,,,6.2E-07,0.0227825
,,,6.3E-07,0.0226125
,,,6.4E-07,0.02274625
,,,6.5E-07,0.02260875
,,,6.6E-07,0.022928125
,,,6.7E-07,0.0226525
,,,6.8E-07,0.022559375
,,,6.9E-07,0.0225675
,,,7E-07,0.022570625
,,,7.1E-07,0.022869375
,,,7.2E-07,0.022649375
,,,7.3E-07,0.022650625
,,,7.4E-07,0.02271375
,,,7.5E-07,0.02283625
,,,7.6E-07,0.02277625
,,,7.7E-07,0.02270875
,,,7.8E-07,0.0224925
,,,7.9E-07,0.02259875
,,,8E-07,0.022525625
,,,8.1E-07,0.02266125
,,,8.2E-07,0.022331875
,,,8.3E-07,0.0226675
,,,8.4E-07,0.022465
,,,8.5E-07,0.02276875
,,,8.6E-07,0.02297875
,,,8.7E-07,0.0229725
,,,8.8E-07,0.02249375
,,,8.9E-07,0.0228425
,,,9E-07,0.022899375
,,,9.1E-07,0.02265375
,,,9.2E-07,0.022575
,,,9.3E-07,0.02274625
,,,9.4E-07,0.022580625
,,,9.5E-07,0.022609375
,,,9.6E-07,0.022529375
,,,9.7E-07,0.022680625
,,,9.8E-07,0.022709375
,,,9.9E-07,0.0225075
,,,1E-06,0.022685625
,,,1.01E-06,0.02257875
,,,1.02E-06,0.022685625
,,,1.03E-06,0.0227875
,,,1.04E-06,0.02287625
,,,1.05E-06,0.022808125
,,,1.06E-06,0.02299125
,,,1.07E-06,0.022601875
,,,1.08E-06,0.022805
,,,1.09E-06,0.022756875
,,,1.1E-06,0.02253375
,,,1.11E-06,0.02259125
,,,1.12E-06,0.022501875
,,,1.13E-06,0.022564375
,,,1.14E-06,0.0229125
,,,1.15E-06,0.022585
,,,1.16E-06,0.02292875
,,,1.17E-06,0.022751875
,,,1.18E-06,0.022725625
,,,1.19E-06,0.022688125
,,,1.2E-06,0.02284125
,,,1.21E-06,0.022603125
,,,1.22E-06,0.02266125
,,,1.23E-06,0.022771875
,,,1.24E-06,0.022728125
,,,1.25E-06,0.0225375
,,,1.26E-06,0.022416875
,,,1.27E-06,0.022911875
,,,1.28E-06,0.023033125
,,,1.29E-06,0.022655625
,,,1.3E-06,0.022713125
,,,1.31E-06,0.02271125
,,,1.32E-06,0.022578125
,,,1.33E-06,0.0229025
,,,1.34E-06,0.02272125
,,,1.35E-06,0.022741875
,,,1.36E-06,0.0228425
,,,1.37E-06,0.02293875
,,,1.38E-06,0.022634375
,,,1.39E-06,0.022675625
,,,1.4E-06,0.02259625
,,,1.41E-06,0.0228
,,,1.42E-06,0.022779375
,,,1.43E-06,0.022781875
,,,1.44E-06,0.022598125
,,,1.45E-06,0.0224025
,,,1.46E-06,0.0228175
,,,1.47E-06,0.02273875
,,,1.48E-06,0.02265375
,,,1.49E-06,0.0227575
,,,1.5E-06,0.022743125
,,,1.51E-06,0.022565625
,,,1.52E-06,0.022536875
,,,1.53E-06,0.02246875
,,,1.54E-06,0.02262
,,,1.55E-06,0.022583125
,,,1.56E-06,0.02276375
,,,1.57E-06,0.022691875
,,,1.58E-06,0.022834375
,,,1.59E-06,0.022838125
,,,1.6E-06,0.0226375
,,,1.61E-06,0.022669375
,,,1.62E-06,0.022543125
,,,1.63E-06,0.02268
,,,1.64E-06,0.022589375
,,,1.65E-06,0.022694375
,,,1.66E-06,0.02239875
,,,1.67E-06,0.02277125
,,,1.68E-06,0.022650625
,,,1.69E-06,0.022540625
,,,1.7E-06,0.022819375
,,,1.71E-06,0.02265
,,,1.72E-06,0.02295625
,,,1.73E-06,0.022576875
,,,1.74E-06,0.02270625
,,,1.75E-06,0.02271875
,,,1.76E-06,0.02295625
,,,1.77E-06,0.022498125
,,,1.78E-06,0.022871875
,,,1.79E-06,0.022904375
,,,1.8E-06,0.022733125
,,,1.81E-06,0.02271375
,,,1.82E-06,0.022915
,,,1.83E-06,0.02298375
,,,1.84E-06,0.022986875
,,,1.85E-06,0.0226925
,,,1.86E-06,0.0227725
,,,1.87E-06,0.02261
,,,1.88E-06,0.02281375
,,,1.89E-06,0.022606875
,,,1.9E-06,0.023004375
,,,1.91E-06,0.0223775
,,,1.92E-06,0.02274
,,,1.93E-06,0.022941875
,,,1.94E-06,0.022400625
,,,1.95E-06,0.022894375
,,,1.96E-06,0.022965
,,,1.97E-06,0.02267625
,,,1.98E-06,0.022535
,,,1.99E-06,0.02282625
,,,2E-06,0.022653125
,,,2.01E-06,0.022965625
,,,2.02E-06,0.022633125
,,,2.03E-06,0.022588125
,,,2.04E-06,0.02256375
,,,2.05E-06,0.022793125
,,,2.06E-06,0.022739375
,,,2.07E-06,0.02270625
,,,2.08E-06,0.02249625
,,,2.09E-06,0.022698125
,,,2.1E-06,0.0226725
,,,2.11E-06,0.02255125
,,,2.12E-06,0.022666875
,,,2.13E-06,0.022763125
,,,2.14E-06,0.022855
,,,2.15E-06,0.0226
,,,2.16E-06,0.022606875
,,,2.17E-06,0.022678125
,,,2.18E-06,0.022683125
,,,2.19E-06,0.022663125
,,,2.2E-06,0.022691875
,,,2.21E-06,0.0226825
,,,2.22E-06,0.022775
,,,2.23E-06,0.022933125
,,,2.24E-06,0.02257625
,,,2.25E-06,0.022824375
,,,2.26E-06,0.022578125
,,,2.27E-06,0.0226125
,,,2.28E-06,0.0225175
,,,2.29E-06,0.022485
,,,2.3E-06,0.02259125
,,,2.31E-06,0.02261375
,,,2.32E-06,0.022621875
,,,2.33E-06,0.022983125
,,,2.34E-06,0.022625
,,,2.35E-06,0.022685625
,,,2.36E-06,0.022451875
,,,2.37E-06,0.0226475
,,,2.38E-06,0.0231925
,,,2.39E-06,0.022976875
,,,2.4E-06,0.02275625
,,,2.41E-06,0.022825625
,,,2.42E-06,0.02269625
,,,2.43E-06,0.022961875
,,,2.44E-06,0.0226825
,,,2.45E-06,0.022739375
,,,2.46E-06,0.02242625
,,,2.47E-06,0.02281125
,,,2.48E-06,0.0228
,,,2.49E-06,0.022856875
,,,2.5E-06,0.022761875
,,,2.51E-06,0.02269375
,,,2.52E-06,0.022565
,,,2.53E-06,0.02242
,,,2.54E-06,0.022800625
,,,2.55E-06,0.022853125
,,,2.56E-06,0.02281375
,,,2.57E-06,0.022879375
,,,2.58E-06,0.02275
,,,2.59E-06,0.02277875
,,,2.6E-06,0.02239375
,,,2.61E-06,0.0229725
,,,2.62E-06,0.022575
,,,2.63E-06,0.0228375
,,,2.64E-06,0.0226575
,,,2.65E-06,0.022704375
,,,2.66E-06,0.02280625
,,,2.67E-06,0.02267375
,,,2.68E-06,0.022549375
,,,2.69E-06,0.02265125
,,,2.7E-06,0.022871875
,,,2.71E-06,0.022766875
,,,2.72E-06,0.02273375
,,,2.73E-06,0.0226625
,,,2.74E-06,0.0228175
,,,2.75E-06,0.0227875
,,,2.76E-06,0.022873125
,,,2.77E-06,0.0224825
,,,2.78E-06,0.0226175
,,,2.79E-06,0.022883125
,,,2.8E-06,0.022665625
,,,2.81E-06,0.022954375
,,,2.82E-06,0.02279
,,,2.83E-06,0.02274
,,,2.84E-06,0.022521875
,,,2.85E-06,0.022669375
,,,2.86E-06,0.02266125
,,,2.87E-06,0.02269625
,,,2.88E-06,0.02279625
,,,2.89E-06,0.022644375
,,,2.9E-06,0.022925
,,,2.91E-06,0.02293875
,,,2.92E-06,0.022885625
,,,2.93E-06,0.02279375
,,,2.94E-06,0.022560625
,,,2.95E-06,0.022863125
,,,2.96E-06,0.022745
,,,2.97E-06,0.02258125
,,,2.98E-06,0.0227825
,,,2.99E-06,0.022749375
,,,3E-06,0.022501875
,,,3.01E-06,0.022718125
,,,3.02E-06,0.022734375
,,,3.03E-06,0.0228975
,,,3.04E-06,0.022716875
,,,3.05E-06,0.0226025
,,,3.06E-06,0.022669375
,,,3.07E-06,0.022660625
,,,3.08E-06,0.0226375
,,,3.09E-06,0.02279
,,,3.1E-06,0.0225725
,,,3.11E-06,0.02255875
,,,3.12E-06,0.022756875
,,,3.13E-06,0.022926875
,,,3.14E-06,0.022769375
,,,3.15E-06,0.022693125
,,,3.16E-06,0.022706875
,,,3.17E-06,0.022679375
,,,3.18E-06,0.022485
,,,3.19E-06,0.022985625
,,,3.2E-06,0.0224675
,,,3.21E-06,0.02249875
,,,3.22E-06,0.0228775
,,,3.23E-06,0.022855
,,,3.24E-06,0.02254875
,,,3.25E-06,0.022424375
,,,3.26E-06,0.022650625
,,,3.27E-06,0.022631875
,,,3.28E-06,0.022585625
,,,3.29E-06,0.022555625
,,,3.3E-06,0.022773125
,,,3.31E-06,0.02275125
,,,3.32E-06,0.022505625
,,,3.33E-06,0.022684375
,,,3.34E-06,0.022465
,,,3.35E-06,0.022646875
,,,3.36E-06,0.0226225
,,,3.37E-06,0.0227825
,,,3.38E-06,0.02298125
,,,3.39E-06,0.0226175
,,,3.4E-06,0.02258
,,,3.41E-06,0.022885
,,,3.42E-06,0.022791875
,,,3.43E-06,0.02251
,,,3.44E-06,0.02279
,,,3.45E-06,0.022765
,,,3.46E-06,0.022820625
,,,3.47E-06,0.022755
,,,3.48E-06,0.022665
,,,3.49E-06,0.022885625
,,,3.5E-06,0.022760625
,,,3.51E-06,0.022575
,,,3.52E-06,0.022750625
,,,3.53E-06,0.022773125
,,,3.54E-06,0.022583125
,,,3.55E-06,0.022778125
,,,3.56E-06,0.0228
,,,3.57E-06,0.022705625
,,,3.58E-06,0.022666875
,,,3.59E-06,0.022893125
