data/raw/Final_POL_Test_1/SOP082_Ch1.csv

"Record Length",1000,"Points",-5E-06,0.00737
"Sample Interval",1E-08,s,-4.99E-06,0.00758125
"Trigger Point",500,"Samples",-4.98E-06,0.007285625
"Trigger Time",0,s,-4.97E-06,0.007450625
"",,,-4.96E-06,0.00745625
"Horizontal Offset",-5E-06,s,-4.95E-06,0.0075675
,,,-4.94E-06,0.007285
,,,-4.93E-06,0.007364375
,,,-4.92E-06,0.007249375
,,,-4.91E-06,0.00738375
,,,-4.9E-06,0.007500625
,,,-4.89E-06,0.00741875
,,,-4.88E-06,0.00722625
,,,-4.87E-06,0.0073625
,,,-4.86E-06,0.007455
,,,-4.85E-06,0.007316875
,,,-4.84E-06,0.0072575
,,,-4.83E-06,0.007536875
,,,-4.82E-06,0.007289375
,,,-4.81E-06,0.007565
,,,-4.8E-06,0.007574375
,,,-4.79E-06,0.007156875
,,,-4.78E-06,0.007583125
,,,-4.77E-06,0.00735
,,,-4.76E-06,0.00741875
,,,-4.75E-06,0.007244375
,,,-4.74E-06,0.007708125
,,,-4.73E-06,0.007329375
,,,-4.72E-06,0.00759375
,,,-4.71E-06,0.007494375
,,,-4.7E-06,0.007246875
,,,-4.69E-06,0.007186875
,,,-4.68E-06,0.0075
,,,-4.67E-06,0.007229375
,,,-4.66E-06,0.007515
,,,-4.65E-06,0.007465
,,,-4.64E-06,0.0074275
,,,-4.63E-06,0.007170625
,,,-4.62E-06,0.00755
,,,-4.61E-06,0.0075425
,,,-4.6E-06,0.007218125
,,,-4.59E-06,0.007465625
,,,-4.58E-06,0.0073425
,,,-4.57E-06,0.00749125
,,,-4.56E-06,0.007338125
,,,-4.55E-06,0.007398125
,,,-4.54E-06,0.007189375
,,,-4.53E-06,0.00732375
,,,-4.52E-06,0.007104375
,,,-4.51E-06,0.00753125
,,,-4.5E-06,0.00739875
,,,-4.49E-06,0.007495625
,,,-4.48E-06,0.00732375
,,,-4.47E-06,0.007561875
,,,-4.46E-06,0.0072725
,,,-4.45E-06,0.007150625
,,,-4.44E-06,0.00728625
,,,-4.43E-06,0.007301875
,,,-4.42E-06,0.007535625
,,,-4.41E-06,0.007359375
,,,-4.4E-06,0.007526875
,,,-4.39E-06,0.0074025
,,,-4.38E-06,0.007355625
,,,-4.37E-06,0.00743
,,,-4.36E-06,0.007441875
,,,-4.35E-06,0.007395
,,,-4.34E-06,0.007484375
,,,-4.33E-06,0.0076375
,,,-4.32E-06,0.00728875
,,,-4.31E-06,0.007626875
,,,-4.3E-06,0.0077075
,,,-4.29E-06,0.0071925
,,,-4.28E-06,0.0075425
,,,-4.27E-06,0.007498125
,,,-4.26E-06,0.00733625
,,,-4.25E-06,0.007519375
,,,-4.24E-06,0.0074475
,,,-4.23E-06,0.0075425
,,,-4.22E-06,0.007369375
,,,-4.21E-06,0.00751
,,,-4.2E-06,0.007496875
,,,-4.19E-06,0.007529375
,,,-4.18E-06,0.007399375
,,,-4.17E-06,0.00725875
,,,-4.16E-06,0.007386875
,,,-4.15E-06,0.0072975
,,,-4.14E-06,0.007509375
,,,-4.13E-06,0.007353125
,,,-4.12E-06,0.00729
,,,-4.11E-06,0.007398125
,,,-4.1E-06,0.007365
,,,-4.09E-06,0.0070825
,,,-4.08E-06,0.00753
,,,-4.07E-06,0.007644375
,,,-4.06E-06,0.007595
,,,-4.05E-06,0.0071525
,,,-4.04E-06,0.00745
,,,-4.03E-06,0.007496875
,,,-4.02E-06,0.007434375
,,,-4.01E-06,0.0071775
,,,-4E-06,0.00744
,,,-3.99E-06,0.007360625
,,,-3.98E-06,0.007504375
,,,-3.97E-06,0.007311875
,,,-3.96E-06,0.0074975
,,,-3.95E-06,0.007713125
,,,-3.94E-06,0.007505625
,,,-3.93E-06,0.007658125
,,,-3.92E-06,0.007155625
,,,-3.91E-06,0.007725
,,,-3.9E-06,0.00738625
,,,-3.89E-06,0.00737625
,,,-3.88E-06,0.007446875
,,,-3.87E-06,0.0073575
,,,-3.86E-06,0.007269375
,,,-3.85E-06,0.00729
,,,-3.84E-06,0.007469375
,,,-3.83E-06,0.00724625
,,,-3.82E-06,0.007375625
,,,-3.81E-06,0.00737875
,,,-3.8E-06,0.00736625
,,,-3.79E-06,0.007493125
,,,-3.78E-06,0.00763875
,,,-3.77E-06,0.007140625
,,,-3.76E-06,0.007484375
,,,-3.75E-06,0.007394375
,,,-3.74E-06,0.007384375
,,,-3.73E-06,0.007330625
,,,-3.72E-06,0.007701875
,,,-3.71E-06,0.007294375
,,,-3.7E-06,0.00739875
,,,-3.69E-06,0.007358125
,,,-3.68E-06,0.0074
,,,-3.67E-06,0.00757
,,,-3.66E-06,0.007409375
,,,-3.65E-06,0.0074675
,,,-3.64E-06,0.0075325
,,,-3.63E-06,0.007404375
,,,-3.62E-06,0.007165
,,,-3.61E-06,0.007484375
,,,-3.6E-06,0.00747875
,,,-3.59E-06,0.00730375
,,,-3.58E-06,0.007286875
,,,-3.57E-06,0.007618125
,,,-3.56E-06,0.007619375
,,,-3.55E-06,0.007229375
,,,-3.54E-06,0.007148125
,,,-3.53E-06,0.007110625
,,,-3.52E-06,0.007245
,,,-3.51E-06,0.007324375
,,,-3.5E-06,0.00743125
,,,-3.49E-06,0.00717375
,,,-3.48E-06,0.007495
,,,-3.47E-06,0.007511875
,,,-3.46E-06,0.007500625
,,,-3.45E-06,0.007329375
,,,-3.44E-06,0.007311875
,,,-3.43E-06,0.007365625
,,,-3.42E-06,0.007654375
,,,-3.41E-06,0.007533125
,,,-3.4E-06,0.00779375
,,,-3.39E-06,0.007676875
,,,-3.38E-06,0.0075825
,,,-3.37E-06,0.007166875
,,,-3.36E-06,0.007124375
,,,-3.35E-06,0.007280625
,,,-3.34E-06,0.007446875
,,,-3.33E-06,0.007416875
,,,-3.32E-06,0.007403125
,,,-3.31E-06,0.007323125
,,,-3.3E-06,0.00742375
,,,-3.29E-06,0.007339375
,,,-3.28E-06,0.00748375
,,,-3.27E-06,0.0075025
,,,-3.26E-06,0.0074375
,,,-3.25E-06,0.007318125
,,,-3.24E-06,0.007519375
,,,-3.23E-06,0.0073925
,,,-3.22E-06,0.007555
,,,-3.21E-06,0.007441875
,,,-3.2E-06,0.00762
,,,-3.19E-06,0.00775375
,,,-3.18E-06,0.007255
,,,-3.17E-06,0.0073425
,,,-3.16E-06,0.0074775
,,,-3.15E-06,0.007324375
,,,-3.14E-06,0.00752375
,,,-3.13E-06,0.00740625
,,,-3.12E-06,0.007289375
,,,-3.11E-06,0.007409375
,,,-3.1E-06,0.00746875
,,,-3.09E-06,0.00742375
,,,-3.08E-06,0.007408125
,,,-3.07E-06,0.00744375
,,,-3.06E-06,0.00772125
,,,-3.05E-06,0.00740875
,,,-3.04E-06,0.007071875
,,,-3.03E-06,0.007308125
,,,-3.02E-06,0.0072225
,,,-3.01E-06,0.00743875
,,,-3E-06,0.00743
,,,-2.99E-06,0.007299375
,,,-2.98E-06,0.00754625
,,,-2.97E-06,0.007428125
,,,-2.96E-06,0.007335
,,,-2.95E-06,0.007411875
,,,-2.94E-06,0.007451875
,,,-2.93E-06,0.00728
,,,-2.92E-06,0.007355625
,,,-2.91E-06,0.007166875
,,,-2.9E-06,0.007249375
,,,-2.89E-06,0.00749125
,,,-2.88E-06,0.00715
,,,-2.87E-06,0.007460625
,,,-2.86E-06,0.007575
,,,-2.85E-06,0.007428125
,,,-2.84E-06,0.007651875
,,,-2.83E-06,0.007135
,,,-2.82E-06,0.00743125
,,,-2.81E-06,0.007280625
,,,-2.8E-06,0.00757
,,,-2.79E-06,0.007178125
,,,-2.78E-06,0.0072925
,,,-2.77E-06,0.00750125
,,,-2.76E-06,0.00725625
,,,-2.75E-06,0.007490625
,,,-2.74E-06,0.007453125
,,,-2.73E-06,0.00764125
,,,-2.72E-06,0.00710125
,,,-2.71E-06,0.007283125
,,,-2.7E-06,0.007571875
,,,-2.69E-06,0.007480625
,,,-2.68E-06,0.00714875
,,,-2.67E-06,0.007319375
,,,-2.66E-06,0.007144375
,,,-2.65E-06,0.0073325
,,,-2.64E-06,0.007433125
,,,-2.63E-06,0.007329375
,,,-2.62E-06,0.007154375
,,,-2.61E-06,0.007415
,,,-2.6E-06,0.007010625
,,,-2.59E-06,0.007328125
,,,-2.58E-06,0.007318125
,,,-2.57E-06,0.00744125
,,,-2.56E-06,0.007380625
,,,-2.55E-06,0.00756875
,,,-2.54E-06,0.007340625
,,,-2.53E-06,0.007325625
,,,-2.52E-06,0.007479375
,,,-2.51E-06,0.00733375
,,,-2.5E-06,0.00710625
,,,-2.49E-06,0.007431875
,,,-2.48E-06,0.0075575
,,,-2.47E-06,0.0075175
,,,-2.46E-06,0.007345625
,,,-2.45E-06,0.007325
,,,-2.44E-06,0.007345625
,,,-2.43E-06,0.007669375
,,,-2.42E-06,0.007441875
,,,-2.41E-06,0.007341875
,,,-2.4E-06,0.007355
,,,-2.39E-06,0.0074775
,,,-2.38E-06,0.007281875
,,,-2.37E-06,0.007828125
,,,-2.36E-06,0.00752625
,,,-2.35E-06,0.0071875
,,,-2.34E-06,0.007585
,,,-2.33E-06,0.007335
,,,-2.32E-06,0.007228125
,,,-2.31E-06,0.007703125
,,,-2.3E-06,0.0075
,,,-2.29E-06,0.007335
,,,-2.28E-06,0.00726625
,,,-2.27E-06,0.007423125
,,,-2.26E-06,0.007611875
,,,-2.25E-06,0.00728625
,,,-2.24E-06,0.00739125
,,,-2.23E-06,0.007456875
,,,-2.22E-06,0.0074725
,,,-2.21E-06,0.00735125
,,,-2.2E-06,0.007645625
,,,-2.19E-06,0.007511875
,,,-2.18E-06,0.007286875
,,,-2.17E-06,0.007423125
,,,-2.16E-06,0.00724875
,,,-2.15E-06,0.007184375
,,,-2.14E-06,0.007613125
,,,-2.13E-06,0.0072825
,,,-2.12E-06,0.00756
,,,-2.11E-06,0.00728625
,,,-2.1E-06,0.007248125
,,,-2.09E-06,0.00751625
,,,-2.08E-06,0.00736
,,,-2.07E-06,0.0074
,,,-2.06E-06,0.00747875
,,,-2.05E-06,0.00730875
,,,-2.04E-06,0.007505
,,,-2.03E-06,0.00749375
,,,-2.02E-06,0.007416875
,,,-2.01E-06,0.007186875
,,,-2E-06,0.00733
,,,-1.99E-06,0.007195625
,,,-1.98E-06,0.00745875
,,,-1.97E-06,0.007424375
,,,-1.96E-06,0.00739375
,,,-1.95E-06,0.0074125
,,,-1.94E-06,0.007281875
,,,-1.93E-06,0.0074275
,,,-1.92E-06,0.00757875
,,,-1.91E-06,0.0073725
,,,-1.9E-06,0.00764625
,,,-1.89E-06,0.00732875
,,,-1.88E-06,0.0076125
,,,-1.87E-06,0.007485
,,,-1.86E-06,0.00740375
,,,-1.85E-06,0.007369375
,,,-1.84E-06,0.007520625
,,,-1.83E-06,0.007305625
,,,-1.82E-06,0.007191875
,,,-1.81E-06,0.007406875
,,,-1.8E-06,0.00744
,,,-1.79E-06,0.007524375
,,,-1.78E-06,0.0074325
,,,-1.77E-06,0.007304375
,,,-1.76E-06,0.007441875
,,,-1.75E-06,0.0075675
,,,-1.74E-06,0.00766625
,,,-1.73E-06,0.007433125
,,,-1.72E-06,0.007178125
,,,-1.71E-06,0.007296875
,,,-1.7E-06,0.007565625
,,,-1.69E-06,0.00733625
,,,-1.68E-06,0.007463125
,,,-1.67E-06,0.00742125
,,,-1.66E-06,0.007425625
,,,-1.65E-06,0.007529375
,,,-1.64E-06,0.007603125
,,,-1.63E-06,0.007520625
,,,-1.62E-06,0.007358125
,,,-1.61E-06,0.007349375
,,,-1.6E-06,0.007370625
,,,-1.59E-06,0.007356875
,,,-1.58E-06,0.00765
,,,-1.57E-06,0.007436875
,,,-1.56E-06,0.007175
,,,-1.55E-06,0.007084375
,,,-1.54E-06,0.007164375
,,,-1.53E-06,0.0074
,,,-1.52E-06,0.0076825
,,,-1.51E-06,0.00747875
,,,-1.5E-06,0.00737875
,,,-1.49E-06,0.00727375
,,,-1.48E-06,0.0074175
,,,-1.47E-06,0.0075325
,,,-1.46E-06,0.007534375
,,,-1.45E-06,0.007364375
,,,-1.44E-06,0.007395625
,,,-1.43E-06,0.007429375
,,,-1.42E-06,0.007321875
,,,-1.41E-06,0.0074225
,,,-1.4E-06,0.0072625
,,,-1.39E-06,0.007308125
,,,-1.38E-06,0.00731125
,,,-1.37E-06,0.007391875
,,,-1.36E-06,0.007646875
,,,-1.35E-06,0.00759125
,,,-1.34E-06,0.007428125
,,,-1.33E-06,0.007290625
,,,-1.32E-06,0.007599375
,,,-1.31E-06,0.007134375
,,,-1.3E-06,0.007215625
,,,-1.29E-06,0.007700625
,,,-1.28E-06,0.00754375
,,,-1.27E-06,0.007446875
,,,-1.26E-06,0.007746875
,,,-1.25E-06,0.007689375
,,,-1.24E-06,0.007224375
,,,-1.23E-06,0.007450625
,,,-1.22E-06,0.00733875
,,,-1.21E-06,0.007589375
,,,-1.2E-06,0.007489375
,,,-1.19E-06,0.00740875
,,,-1.18E-06,0.006875625
,,,-1.17E-06,0.00737625
,,,-1.16E-06,0.007709375
,,,-1.15E-06,0.00757
,,,-1.14E-06,0.007365625
,,,-1.13E-06,0.007444375
,,,-1.12E-06,0.00735375
,,,-1.11E-06,0.0074575
,,,-1.1E-06,0.00714625
,,,-1.09E-06,0.00776
,,,-1.08E-06,0.007390625
,,,-1.07E-06,0.007518125
,,,-1.06E-06,0.007234375
,,,-1.05E-06,0.007350625
,,,-1.04E-06,0.007086875
,,,-1.03E-06,0.007405625
,,,-1.02E-06,0.007179375
,,,-1.01E-06,0.00736375
,,,-1E-06,0.0075125
,,,-9.9E-07,0.007340625
,,,-9.8E-07,0.00735375
,,,-9.7E-07,0.007265625
,,,-9.6E-07,0.007261875
,,,-9.5E-07,0.00722
,,,-9.4E-07,0.007309375
,,,-9.3E-07,0.00725875
,,,-9.2E-07,0.00748875
,,,-9.1E-07,0.007285625
,,,-9E-07,0.007061875
,,,-8.9E-07,0.007334375
,,,-8.8E-07,0.00741
,,,-8.7E-07,0.007246875
,,,-8.6E-07,0.007295
,,,-8.5E-07,0.00740375
,,,-8.4E-07,0.007339375
,,,-8.3E-07,0.007330625
,,,-8.2E-07,0.00744
,,,-8.1E-07,0.0075125
,,,-8E-07,0.007329375
,,,-7.9E-07,0.00756
,,,-7.8E-07,0.0073225
,,,-7.7E-07,0.007404375
,,,-7.6E-07,0.007403125
,,,-7.5E-07,0.007655
,,,-7.4E-07,0.00746625
,,,-7.3E-07,0.007503125
,,,-7.2E-07,0.00721625
,,,-7.1E-07,0.00713375
,,,-7E-07,0.007518125
,,,-6.9E-07,0.007316875
,,,-6.8E-07,0.00704875
,,,-6.7E-07,0.00750375
,,,-6.6E-07,0.0075
,,,-6.5E-07,0.007289375
,,,-6.4E-07,0.00733
,,,-6.3E-07,0.0073
,,,-6.2E-07,0.007396875
,,,-6.1E-07,0.007231875
,,,-6E-07,0.0075525
,,,-5.9E-07,0.0074725
,,,-5.8E-07,0.007488125
,,,-5.7E-07,0.00714
,,,-5.6E-07,0.0073475
,,,-5.5E-07,0.00734125
,,,-5.4E-07,0.00733625
,,,-5.3E-07,0.007323125
,,,-5.2E-07,0.00738875
,,,-5.1E-07,0.00765375
,,,-5E-07,0.007429375
,,,-4.9E-07,0.00737625
,,,-4.8E-07,0.007495625
,,,-4.7E-07,0.00756
,,,-4.6E-07,0.007429375
,,,-4.5E-07,0.00745625
,,,-4.4E-07,0.00718625
,,,-4.3E-07,0.007341875
,,,-4.2E-07,0.00741
,,,-4.1E-07,0.00756625
,,,-4E-07,0.007479375
,,,-3.9E-07,0.007459375
,,,-3.8E-07,0.007291875
,,,-3.7E-07,0.007410625
,,,-3.6E-07,0.0074475
,,,-3.5E-07,0.0072925
,,,-3.4E-07,0.007265
,,,-3.3E-07,0.007514375
,,,-3.2E-07,0.0073075
,,,-3.1E-07,0.00735875
,,,-3E-07,0.00728125
,,,-2.9E-07,0.0072325
,,,-2.8E-07,0.00734625
,,,-2.7E-07,0.00743875
,,,-2.6E-07,0.007349375
,,,-2.5E-07,0.007391875
,,,-2.4E-07,0.007436875
,,,-2.3E-07,0.007475
,,,-2.2E-07,0.007156875
,,,-2.1E-07,0.0073725
,,,-2E-07,0.007671875
,,,-1.9E-07,0.007665625
,,,-1.8E-07,0.00738625
,,,-1.7E-07,0.00745
,,,-1.6E-07,0.007194375
,,,-1.5E-07,0.00740375
,,,-1.4E-07,0.007285625
,,,-1.3E-07,0.00729125
,,,-1.2E-07,0.00728
,,,-1.1E-07,0.007395625
,,,-1E-07,0.007408125
,,,-9E-08,0.007224375
,,,-8E-08,0.007334375
,,,-7E-08,0.007251875
,,,-6E-08,0.007281875
,,,-5E-08,0.00767375
,,,-4E-08,0.00842125
,,,-3E-08,0.008775625
,,,-2E-08,0.0063575
,,,-1E-08,0.004804375
,,,0,0.00360625
,,,1E-08,0.00944
,,,2E-08,0.011155
,,,3E-08,0.011428125
,,,4E-08,0.00743625
,,,5E-08,0.00509875
,,,6E-08,0.00402875
,,,7E-08,0.00550875
,,,8E-08,0.0077475
,,,9E-08,0.009234375
,,,1E-07,0.009518125
,,,1.1E-07,0.008298125
,,,1.2E-07,0.00679375
,,,1.3E-07,0.0059225
,,,1.4E-07,0.006854375
,,,1.5E-07,0.00741375
,,,1.6E-07,0.007733125
,,,1.7E-07,0.007625625
,,,1.8E-07,0.007441875
,,,1.9E-07,0.007603125
,,,2E-07,0.00723625
,,,2.1E-07,0.007251875
,,,2.2E-07,0.00698375
,,,2.3E-07,0.00732875
,,,2.4E-07,0.0075
,,,2.5E-07,0.007421875
,,,2.6E-07,0.0072975
,,,2.7E-07,0.007391875
,,,2.8E-07,0.00737625
,,,2.9E-07,0.007375625
,,,3E-07,0.00731625
,,,3.1E-07,0.00718125
,,,3.2E-07,0.007391875
,,,3.3E-07,0.007313125
,,,3.4E-07,0.007331875
,,,3.5E-07,0.007561875
,,,3.6E-07,0.007276875
,,,3.7E-07,0.0071875
,,,3.8E-07,0.00745
,,,3.9E-07,0.007419375
,,,4E-07,0.007318125
,,,4.1E-07,0.0073775
,,,4.2E-07,0.00722
,,,4.3E-07,0.007368125
,,,4.4E-07,0.007238125
,,,4.5E-07,0.007419375
,,,4.6E-07,0.0073325
,,,4.7E-07,0.00749375
,,,4.8E-07,0.007231875
,,,4.9E-07,0.00728875
,,,5E-07,0.007308125
,,,5.1E-07,0.00751875
,,,5.2E-07,0.007439375
,,,5.3E-07,0.007308125
,,,5.4E-07,0.0073825
,,,5.5E-07,0.00760125
,,,5.6E-07,0.007339375
,,,5.7E-07,0.007323125
,,,5.8E-07,0.007365625
,,,5.9E-07,0.00771875
,,,6E-07,0.007271875
,,,6.1E-07,0.007291875
,,,6.2E-07,0.007344375
,,,6.3E-07,0.007639375
,,,6.4E-07,0.007430625
,,,6.5E-07,0.007406875
,,,6.6E-07,0.007454375
,,,6.7E-07,0.00755625
,,,6.8E-07,0.007570625
,,,6.9E-07,0.0073875
,,,7E-07,0.00741625
,,,7.1E-07,0.0073675
,,,7.2E-07,0.007399375
,,,7.3E-07,0.007391875
,,,7.4E-07,0.007569375
,,,7.5E-07,0.00724875
,,,7.6E-07,0.00737125
,,,7.7E-07,0.0073875
,,,7.8E-07,0.00754875
,,,7.9E-07,0.007435
,,,8E-07,0.0074275
,,,8.1E-07,0.007165625
,,,8.2E-07,0.0076175
,,,8.3E-07,0.007343125
,,,8.4E-07,0.0072675
,,,8.5E-07,0.00746875
,,,8.6E-07,0.00728625
,,,8.7E-07,0.00719875
,,,8.8E-07,0.007228125
,,,8.9E-07,0.0074975
,,,9E-07,0.007559375
,,,9.1E-07,0.00753625
,,,9.2E-07,0.00745375
,,,9.3E-07,0.007348125
,,,9.4E-07,0.007265625
,,,9.5E-07,0.007230625
,,,9.6E-07,0.00747375
,,,9.7E-07,0.0072725
,,,9.8E-07,0.00739
,,,9.9E-07,0.00744875
,,,1E-06,0.007596875
,,,1.01E-06,0.00748375
,,,1.02E-06,0.007609375
,,,1.03E-06,0.00727125
,,,1.04E-06,0.007245625
,,,1.05E-06,0.00742125
,,,1.06E-06,0.007500625
,,,1.07E-06,0.00708375
,,,1.08E-06,0.007329375
,,,1.09E-06,0.00727125
,,,1.1E-06,0.007464375
,,,1.11E-06,0.00741625
,,,1.12E-06,0.00723625
,,,1.13E-06,0.007305
,,,1.14E-06,0.0074325
,,,1.15E-06,0.00729
,,,1.16E-06,0.007441875
,,,1.17E-06,0.0074475
,,,1.18E-06,0.00737125
,,,1.19E-06,0.00739625
,,,1.2E-06,0.00748875
,,,1.21E-06,0.0074775
,,,1.22E-06,0.00750375
,,,1.23E-06,0.00741875
,,,1.24E-06,0.007316875
,,,1.25E-06,0.007380625
,,,1.26E-06,0.00726375
,,,1.27E-06,0.00751125
,,,1.28E-06,0.007190625
,,,1.29E-06,0.00773625
,,,1.3E-06,0.007438125
,,,1.31E-06,0.00761875
,,,1.32E-06,0.00727125
,,,1.33E-06,0.007588125
,,,1.34E-06,0.007663125
,,,1.35E-06,0.007575
,,,1.36E-06,0.007519375
,,,1.37E-06,0.007596875
,,,1.38E-06,0.007433125
,,,1.39E-06,0.00755375
,,,1.4E-06,0.00744125
,,,1.41E-06,0.00765375
,,,1.42E-06,0.007595625
,,,1.43E-06,0.007319375
,,,1.44E-06,0.007495
,,,1.45E-06,0.007206875
,,,1.46E-06,0.00721125
,,,1.47E-06,0.007390625
,,,1.48E-06,0.0074325
,,,1.49E-06,0.0074925
,,,1.5E-06,0.007191875
,,,1.51E-06,0.00727
,,,1.52E-06,0.00714
,,,1.53E-06,0.007374375
,,,1.54E-06,0.007453125
,,,1.55E-06,0.00733375
,,,1.56E-06,0.0073
,,,1.57E-06,0.007544375
,,,1.58E-06,0.007415625
,,,1.59E-06,0.007446875
,,,1.6E-06,0.007305
,,,1.61E-06,0.007405
,,,1.62E-06,0.007534375
,,,1.63E-06,0.007556875
,,,1.64E-06,0.00761
,,,1.65E-06,0.007404375
,,,1.66E-06,0.007371875
,,,1.67E-06,0.007333125
,,,1.68E-06,0.0074825
,,,1.69E-06,0.00726
,,,1.7E-06,0.00725375
,,,1.71E-06,0.00738625
,,,1.72E-06,0.007414375
,,,1.73E-06,0.007163125
,,,1.74E-06,0.007468125
,,,1.75E-06,0.00756
,,,1.76E-06,0.007534375
,,,1.77E-06,0.007376875
,,,1.78E-06,0.007455625
,,,1.79E-06,0.007370625
,,,1.8E-06,0.007456875
,,,1.81E-06,0.007241875
,,,1.82E-06,0.0074
,,,1.83E-06,0.00742375
,,,1.84E-06,0.007305
,,,1.85E-06,0.00744375
,,,1.86E-06,0.007563125
,,,1.87E-06,0.00721875
,,,1.88E-06,0.007308125
,,,1.89E-06,0.0073675
,,,1.9E-06,0.0076875
,,,1.91E-06,0.00751
,,,1.92E-06,0.007131875
,,,1.93E-06,0.007473125
,,,1.94E-06,0.0071775
,,,1.95E-06,0.00728375
,,,1.96E-06,0.007285625
,,,1.97E-06,0.00731125
,,,1.98E-06,0.007395625
,,,1.99E-06,0.007343125
,,,2E-06,0.007178125
,,,2.01E-06,0.00746375
,,,2.02E-06,0.00726
,,,2.03E-06,0.007000625
,,,2.04E-06,0.0074225
,,,2.05E-06,0.007518125
,,,2.06E-06,0.007393125
,,,2.07E-06,0.007405
,,,2.08E-06,0.0072025
,,,2.09E-06,0.007449375
,,,2.1E-06,0.007259375
,,,2.11E-06,0.00729
,,,2.12E-06,0.007218125
,,,2.13E-06,0.00740125
,,,2.14E-06,0.007133125
,,,2.15E-06,0.00739875
,,,2.16E-06,0.007568125
,,,2.17E-06,0.0071375
,,,2.18E-06,0.00721
,,,2.19E-06,0.00723
,,,2.2E-06,0.00735125
,,,2.21E-06,0.007464375
,,,2.22E-06,0.007528125
,,,2.23E-06,0.0073975
,,,2.24E-06,0.007458125
,,,2.25E-06,0.007381875
,,,2.26E-06,0.007375625
,,,2.27E-06,0.007279375
,,,2.28E-06,0.00739
,,,2.29E-06,0.007355
,,,2.3E-06,0.007404375
,,,2.31E-06,0.007488125
,,,2.32E-06,0.007544375
,,,2.33E-06,0.007178125
,,,2.34E-06,0.00737875
,,,2.35E-06,0.007485625
,,,2.36E-06,0.007109375
,,,2.37E-06,0.0071675
,,,2.38E-06,0.00737375
,,,2.39E-06,0.00767875
,,,2.4E-06,0.0071425
,,,2.41E-06,0.00744875
,,,2.42E-06,0.0074325
,,,2.43E-06,0.0075275
,,,2.44E-06,0.007496875
,,,2.45E-06,0.00722
,,,2.46E-06,0.00738125
,,,2.47E-06,0.007385625
,,,2.48E-06,0.00739125
,,,2.49E-06,0.00718125
,,,2.5E-06,0.00716875
,,,2.51E-06,0.00714375
,,,2.52E-06,0.00723125
,,,2.53E-06,0.00763125
,,,2.54E-06,0.007825625
,,,2.55E-06,0.00723625
,,,2.56E-06,0.007495
,,,2.57E-06,0.007428125
,,,2.58E-06,0.007313125
,,,2.59E-06,0.007111875
,,,2.6E-06,0.0072875
,,,2.61E-06,0.007393125
,,,2.62E-06,0.007285
,,,2.63E-06,0.007340625
,,,2.64E-06,0.007559375
,,,2.65E-06,0.00749625
,,,2.66E-06,0.007420625
,,,2.67E-06,0.0074
,,,2.68E-06,0.00708125
,,,2.69E-06,0.00730375
,,,2.7E-06,0.007499375
,,,2.71E-06,0.00755
,,,2.72E-06,0.007501875
,,,2.73E-06,0.007449375
,,,2.74E-06,0.00735
,,,2.75E-06,0.007426875
,,,2.76E-06,0.00767875
,,,2.77E-06,0.00752625
,,,2.78E-06,0.0074875
,,,2.79E-06,0.007319375
,,,2.8E-06,0.007513125
,,,2.81E-06,0.007519375
,,,2.82E-06,0.007325625
,,,2.83E-06,0.0073625
,,,2.84E-06,0.007240625
,,,2.85E-06,0.00729
,,,2.86E-06,0.00745875
,,,2.87E-06,0.00736625
,,,2.88E-06,0.007409375
,,,2.89E-06,0.007319375
,,,2.9E-06,0.007501875
,,,2.91E-06,0.0072
,,,2.92E-06,0.00747
,,,2.93E-06,0.00747375
,,,2.94E-06,0.007385625
,,,2.95E-06,0.00717
,,,2.96E-06,0.007359375
,,,2.97E-06,0.00713375
,,,2.98E-06,0.007318125
,,,2.99E-06,0.007363125
,,,3E-06,0.007536875
,,,3.01E-06,0.007329375
,,,3.02E-06,0.007245
,,,3.03E-06,0.007289375
,,,3.04E-06,0.007341875
,,,3.05E-06,0.00741125
,,,3.06E-06,0.00746875
,,,3.07E-06,0.007389375
,,,3.08E-06,0.007348125
,,,3.09E-06,0.007275625
,,,3.1E-06,0.00738375
,,,3.11E-06,0.007444375
,,,3.12E-06,0.007185
,,,3.13E-06,0.007404375
,,,3.14E-06,0.00719375
,,,3.15E-06,0.007540625
,,,3.16E-06,0.007129375
,,,3.17E-06,0.00762
,,,3.18E-06,0.00748375
,,,3.19E-06,0.0072275
,,,3.2E-06,0.007316875
,,,3.21E-06,0.007299375
,,,3.22E-06,0.00724375
,,,3.23E-06,0.007385625
,,,3.24E-06,0.007276875
,,,3.25E-06,0.007293125
,,,3.26E-06,0.007445
,,,3.27E-06,0.00755125
,,,3.28E-06,0.007536875
,,,3.29E-06,0.007388125
,,,3.3E-06,0.007536875
,,,3.31E-06,0.0074375
,,,3.32E-06,0.007679375
,,,3.33E-06,0.00737875
,,,3.34E-06,0.007375
,,,3.35E-06,0.00739625
,,,3.36E-06,0.00724125
,,,3.37E-06,0.00748375
,,,3.38E-06,0.007271875
,,,3.39E-06,0.0072625
,,,3.4E-06,0.00738125
,,,3.41E-06,0.007271875
,,,3.42E-06,0.0076375
,,,3.43E-06,0.00746375
,,,3.44E-06,0.0072725
,,,3.45E-06,0.007348125
,,,3.46E-06,0.007383125
,,,3.47E-06,0.007678125
,,,3.48E-06,0.007330625
,,,3.49E-06,0.007396875
,,,3.5E-06,0.00735
,,,3.51E-06,0.00723
,,,3.52E-06,0.007305
,,,3.53E-06,0.007370625
,,,3.54E-06,0.007400625
,,,3.55E-06,0.007223125
,,,3.56E-06,0.00752625
