data/raw/Final_POL_Test_1/SOP045_Ch4.csv

"Record Length",1000,"Points",-5E-06,0.016300625
"Sample Interval",1E-08,s,-4.99E-06,0.016495
"Trigger Point",500,"Samples",-4.98E-06,0.016475
"Trigger Time",0,s,-4.97E-06,0.016196875
"",,,-4.96E-06,0.0162375
"Horizontal Offset",-5E-06,s,-4.95E-06,0.01615625
,,,-4.94E-06,0.0162925
,,,-4.93E-06,0.016350625
,,,-4.92E-06,0.01621375
,,,-4.91E-06,0.01624375
,,,-4.9E-06,0.016451875
,,,-4.89E-06,0.016469375
,,,-4.88E-06,0.01626625
,,,-4.87E-06,0.01631625
,,,-4.86E-06,0.016340625
,,,-4.85E-06,0.0162625
,,,-4.84E-06,0.01639375
,,,-4.83E-06,0.016495
,,,-4.82E-06,0.016504375
,,,-4.81E-06,0.01624125
,,,-4.8E-06,0.016283125
,,,-4.79E-06,0.0163675
,,,-4.78E-06,0.0164625
,,,-4.77E-06,0.01612625
,,,-4.76E-06,0.016195625
,,,-4.75E-06,0.01652375
,,,-4.74E-06,0.016298125
,,,-4.73E-06,0.016405625
,,,-4.72E-06,0.01638625
,,,-4.71E-06,0.016425625
,,,-4.7E-06,0.016320625
,,,-4.69E-06,0.016199375
,,,-4.68E-06,0.01624625
,,,-4.67E-06,0.016345
,,,-4.66E-06,0.016363125
,,,-4.65E-06,0.01645125
,,,-4.64E-06,0.0161
,,,-4.63E-06,0.016514375
,,,-4.62E-06,0.01608
,,,-4.61E-06,0.016193125
,,,-4.6E-06,0.016476875
,,,-4.59E-06,0.016333125
,,,-4.58E-06,0.016429375
,,,-4.57E-06,0.016401875
,,,-4.56E-06,0.01642375
,,,-4.55E-06,0.016414375
,,,-4.54E-06,0.016403125
,,,-4.53E-06,0.016291875
,,,-4.52E-06,0.0162875
,,,-4.51E-06,0.0164125
,,,-4.5E-06,0.016324375
,,,-4.49E-06,0.01624375
,,,-4.48E-06,0.01628375
,,,-4.47E-06,0.0161975
,,,-4.46E-06,0.016575
,,,-4.45E-06,0.016269375
,,,-4.44E-06,0.016454375
,,,-4.43E-06,0.01622625
,,,-4.42E-06,0.016185
,,,-4.41E-06,0.01627
,,,-4.4E-06,0.01650875
,,,-4.39E-06,0.016595625
,,,-4.38E-06,0.016545625
,,,-4.37E-06,0.016325
,,,-4.36E-06,0.0160175
,,,-4.35E-06,0.01634
,,,-4.34E-06,0.01641875
,,,-4.33E-06,0.016301875
,,,-4.32E-06,0.016071875
,,,-4.31E-06,0.01652875
,,,-4.3E-06,0.016240625
,,,-4.29E-06,0.01644125
,,,-4.28E-06,0.016214375
,,,-4.27E-06,0.0159625
,,,-4.26E-06,0.016588125
,,,-4.25E-06,0.01639875
,,,-4.24E-06,0.01656125
,,,-4.23E-06,0.016345625
,,,-4.22E-06,0.016398125
,,,-4.21E-06,0.016274375
,,,-4.2E-06,0.01623875
,,,-4.19E-06,0.01613875
,,,-4.18E-06,0.016328125
,,,-4.17E-06,0.016153125
,,,-4.16E-06,0.016421875
,,,-4.15E-06,0.016300625
,,,-4.14E-06,0.01636
,,,-4.13E-06,0.0163575
,,,-4.12E-06,0.01637625
,,,-4.11E-06,0.016353125
,,,-4.1E-06,0.01646875
,,,-4.09E-06,0.01621375
,,,-4.08E-06,0.01651625
,,,-4.07E-06,0.01658625
,,,-4.06E-06,0.016316875
,,,-4.05E-06,0.016478125
,,,-4.04E-06,0.016330625
,,,-4.03E-06,0.01612
,,,-4.02E-06,0.016135625
,,,-4.01E-06,0.016228125
,,,-4E-06,0.016275
,,,-3.99E-06,0.016464375
,,,-3.98E-06,0.016324375
,,,-3.97E-06,0.016411875
,,,-3.96E-06,0.016305
,,,-3.95E-06,0.016463125
,,,-3.94E-06,0.0164175
,,,-3.93E-06,0.01628375
,,,-3.92E-06,0.016136875
,,,-3.91E-06,0.01634
,,,-3.9E-06,0.015935
,,,-3.89E-06,0.01646125
,,,-3.88E-06,0.016374375
,,,-3.87E-06,0.016383125
,,,-3.86E-06,0.016366875
,,,-3.85E-06,0.016143125
,,,-3.84E-06,0.01626875
,,,-3.83E-06,0.016348125
,,,-3.82E-06,0.0163375
,,,-3.81E-06,0.0165475
,,,-3.8E-06,0.016334375
,,,-3.79E-06,0.0163925
,,,-3.78E-06,0.01654625
,,,-3.77E-06,0.016465
,,,-3.76E-06,0.016280625
,,,-3.75E-06,0.01630625
,,,-3.74E-06,0.01652
,,,-3.73E-06,0.016275
,,,-3.72E-06,0.016371875
,,,-3.71E-06,0.016448125
,,,-3.7E-06,0.016145
,,,-3.69E-06,0.01636
,,,-3.68E-06,0.01639125
,,,-3.67E-06,0.016245
,,,-3.66E-06,0.016365625
,,,-3.65E-06,0.016525
,,,-3.64E-06,0.0164675
,,,-3.63E-06,0.01638625
,,,-3.62E-06,0.016215
,,,-3.61E-06,0.016545
,,,-3.6E-06,0.016460625
,,,-3.59E-06,0.016405625
,,,-3.58E-06,0.0164275
,,,-3.57E-06,0.016645625
,,,-3.56E-06,0.016465625
,,,-3.55E-06,0.016148125
,,,-3.54E-06,0.016318125
,,,-3.53E-06,0.016194375
,,,-3.52E-06,0.01629375
,,,-3.51E-06,0.01650625
,,,-3.5E-06,0.01635625
,,,-3.49E-06,0.016566875
,,,-3.48E-06,0.0162975
,,,-3.47E-06,0.016225625
,,,-3.46E-06,0.016291875
,,,-3.45E-06,0.01636
,,,-3.44E-06,0.01622625
,,,-3.43E-06,0.01633375
,,,-3.42E-06,0.016338125
,,,-3.41E-06,0.01631375
,,,-3.4E-06,0.016340625
,,,-3.39E-06,0.016280625
,,,-3.38E-06,0.01633125
,,,-3.37E-06,0.016195625
,,,-3.36E-06,0.01588625
,,,-3.35E-06,0.0163575
,,,-3.34E-06,0.016223125
,,,-3.33E-06,0.016393125
,,,-3.32E-06,0.016278125
,,,-3.31E-06,0.01634875
,,,-3.3E-06,0.016465
,,,-3.29E-06,0.016365625
,,,-3.28E-06,0.01626125
,,,-3.27E-06,0.016299375
,,,-3.26E-06,0.016230625
,,,-3.25E-06,0.016571875
,,,-3.24E-06,0.0165925
,,,-3.23E-06,0.01614125
,,,-3.22E-06,0.016299375
,,,-3.21E-06,0.01644625
,,,-3.2E-06,0.016298125
,,,-3.19E-06,0.01639625
,,,-3.18E-06,0.01629
,,,-3.17E-06,0.0165375
,,,-3.16E-06,0.016225
,,,-3.15E-06,0.01634625
,,,-3.14E-06,0.016096875
,,,-3.13E-06,0.0162725
,,,-3.12E-06,0.016223125
,,,-3.11E-06,0.016279375
,,,-3.1E-06,0.016150625
,,,-3.09E-06,0.01653375
,,,-3.08E-06,0.016315
,,,-3.07E-06,0.01654125
,,,-3.06E-06,0.016268125
,,,-3.05E-06,0.0163075
,,,-3.04E-06,0.01641
,,,-3.03E-06,0.01627125
,,,-3.02E-06,0.016173125
,,,-3.01E-06,0.016358125
,,,-3E-06,0.0164675
,,,-2.99E-06,0.01631
,,,-2.98E-06,0.01640375
,,,-2.97E-06,0.01631625
,,,-2.96E-06,0.01620375
,,,-2.95E-06,0.016335625
,,,-2.94E-06,0.01630625
,,,-2.93E-06,0.016149375
,,,-2.92E-06,0.01621
,,,-2.91E-06,0.016326875
,,,-2.9E-06,0.016325
,,,-2.89E-06,0.016090625
,,,-2.88E-06,0.016349375
,,,-2.87E-06,0.016281875
,,,-2.86E-06,0.01638875
,,,-2.85E-06,0.0161925
,,,-2.84E-06,0.016311875
,,,-2.83E-06,0.016286875
,,,-2.82E-06,0.016413125
,,,-2.81E-06,0.01626875
,,,-2.8E-06,0.0162475
,,,-2.79E-06,0.016544375
,,,-2.78E-06,0.016293125
,,,-2.77E-06,0.016228125
,,,-2.76E-06,0.016398125
,,,-2.75E-06,0.016339375
,,,-2.74E-06,0.01638375
,,,-2.73E-06,0.01644625
,,,-2.72E-06,0.01616125
,,,-2.71E-06,0.01645
,,,-2.7E-06,0.016383125
,,,-2.69E-06,0.016175625
,,,-2.68E-06,0.01605875
,,,-2.67E-06,0.01611125
,,,-2.66E-06,0.01607375
,,,-2.65E-06,0.016546875
,,,-2.64E-06,0.016260625
,,,-2.63E-06,0.01611125
,,,-2.62E-06,0.01608375
,,,-2.61E-06,0.015973125
,,,-2.6E-06,0.0163875
,,,-2.59E-06,0.016385
,,,-2.58E-06,0.01654875
,,,-2.57E-06,0.01631
,,,-2.56E-06,0.016343125
,,,-2.55E-06,0.01627625
,,,-2.54E-06,0.01651375
,,,-2.53E-06,0.01629375
,,,-2.52E-06,0.016274375
,,,-2.51E-06,0.01645375
,,,-2.5E-06,0.016413125
,,,-2.49E-06,0.01658125
,,,-2.48E-06,0.016364375
,,,-2.47E-06,0.01635375
,,,-2.46E-06,0.0163375
,,,-2.45E-06,0.016216875
,,,-2.44E-06,0.01630875
,,,-2.43E-06,0.016244375
,,,-2.42E-06,0.01639
,,,-2.41E-06,0.016454375
,,,-2.4E-06,0.0163725
,,,-2.39E-06,0.01643
,,,-2.38E-06,0.016213125
,,,-2.37E-06,0.016259375
,,,-2.36E-06,0.016348125
,,,-2.35E-06,0.01625125
,,,-2.34E-06,0.016299375
,,,-2.33E-06,0.016304375
,,,-2.32E-06,0.016279375
,,,-2.31E-06,0.01634
,,,-2.3E-06,0.016254375
,,,-2.29E-06,0.016295625
,,,-2.28E-06,0.01614875
,,,-2.27E-06,0.0161925
,,,-2.26E-06,0.016345
,,,-2.25E-06,0.016449375
,,,-2.24E-06,0.0164625
,,,-2.23E-06,0.01661
,,,-2.22E-06,0.01633125
,,,-2.21E-06,0.01625625
,,,-2.2E-06,0.016065
,,,-2.19E-06,0.016403125
,,,-2.18E-06,0.01651625
,,,-2.17E-06,0.0163875
,,,-2.16E-06,0.01630625
,,,-2.15E-06,0.016115
,,,-2.14E-06,0.016223125
,,,-2.13E-06,0.016155625
,,,-2.12E-06,0.016258125
,,,-2.11E-06,0.01607
,,,-2.1E-06,0.01627625
,,,-2.09E-06,0.016321875
,,,-2.08E-06,0.016401875
,,,-2.07E-06,0.016354375
,,,-2.06E-06,0.016435625
,,,-2.05E-06,0.01620625
,,,-2.04E-06,0.016433125
,,,-2.03E-06,0.016496875
,,,-2.02E-06,0.01619375
,,,-2.01E-06,0.016236875
,,,-2E-06,0.016231875
,,,-1.99E-06,0.016318125
,,,-1.98E-06,0.0163225
,,,-1.97E-06,0.01626
,,,-1.96E-06,0.0161925
,,,-1.95E-06,0.0162975
,,,-1.94E-06,0.016196875
,,,-1.93E-06,0.016300625
,,,-1.92E-06,0.016345
,,,-1.91E-06,0.01641375
,,,-1.9E-06,0.016465
,,,-1.89E-06,0.016453125
,,,-1.88E-06,0.01614375
,,,-1.87E-06,0.016368125
,,,-1.86E-06,0.01606875
,,,-1.85E-06,0.01639375
,,,-1.84E-06,0.016339375
,,,-1.83E-06,0.01622625
,,,-1.82E-06,0.016245625
,,,-1.81E-06,0.016204375
,,,-1.8E-06,0.016541875
,,,-1.79E-06,0.01629875
,,,-1.78E-06,0.0161325
,,,-1.77E-06,0.016466875
,,,-1.76E-06,0.01631625
,,,-1.75E-06,0.016446875
,,,-1.74E-06,0.016241875
,,,-1.73E-06,0.01653875
,,,-1.72E-06,0.01645125
,,,-1.71E-06,0.016393125
,,,-1.7E-06,0.0163375
,,,-1.69E-06,0.01625125
,,,-1.68E-06,0.016235625
,,,-1.67E-06,0.016461875
,,,-1.66E-06,0.0163925
,,,-1.65E-06,0.0164525
,,,-1.64E-06,0.016365625
,,,-1.63E-06,0.016550625
,,,-1.62E-06,0.016109375
,,,-1.61E-06,0.016158125
,,,-1.6E-06,0.01638125
,,,-1.59E-06,0.016383125
,,,-1.58E-06,0.01640875
,,,-1.57E-06,0.01641625
,,,-1.56E-06,0.0163225
,,,-1.55E-06,0.0161625
,,,-1.54E-06,0.01624
,,,-1.53E-06,0.0164375
,,,-1.52E-06,0.016505625
,,,-1.51E-06,0.01629625
,,,-1.5E-06,0.0164
,,,-1.49E-06,0.016095
,,,-1.48E-06,0.016330625
,,,-1.47E-06,0.016294375
,,,-1.46E-06,0.016255625
,,,-1.45E-06,0.016294375
,,,-1.44E-06,0.0162675
,,,-1.43E-06,0.016196875
,,,-1.42E-06,0.0164925
,,,-1.41E-06,0.016105
,,,-1.4E-06,0.016516875
,,,-1.39E-06,0.01654625
,,,-1.38E-06,0.01654125
,,,-1.37E-06,0.01649375
,,,-1.36E-06,0.0165075
,,,-1.35E-06,0.016065
,,,-1.34E-06,0.01631625
,,,-1.33E-06,0.016353125
,,,-1.32E-06,0.016285
,,,-1.31E-06,0.01632625
,,,-1.3E-06,0.01630625
,,,-1.29E-06,0.016318125
,,,-1.28E-06,0.01624
,,,-1.27E-06,0.016365625
,,,-1.26E-06,0.016384375
,,,-1.25E-06,0.016299375
,,,-1.24E-06,0.016589375
,,,-1.23E-06,0.01624625
,,,-1.22E-06,0.016215
,,,-1.21E-06,0.016026875
,,,-1.2E-06,0.01645875
,,,-1.19E-06,0.01646875
,,,-1.18E-06,0.0162375
,,,-1.17E-06,0.016403125
,,,-1.16E-06,0.016160625
,,,-1.15E-06,0.016301875
,,,-1.14E-06,0.016560625
,,,-1.13E-06,0.01627
,,,-1.12E-06,0.016278125
,,,-1.11E-06,0.0165275
,,,-1.1E-06,0.01625625
,,,-1.09E-06,0.016479375
,,,-1.08E-06,0.01628625
,,,-1.07E-06,0.016278125
,,,-1.06E-06,0.016109375
,,,-1.05E-06,0.01639125
,,,-1.04E-06,0.016455625
,,,-1.03E-06,0.01647125
,,,-1.02E-06,0.016229375
,,,-1.01E-06,0.016374375
,,,-1E-06,0.016504375
,,,-9.9E-07,0.016330625
,,,-9.8E-07,0.01635
,,,-9.7E-07,0.016343125
,,,-9.6E-07,0.01656625
,,,-9.5E-07,0.016315
,,,-9.4E-07,0.016365625
,,,-9.3E-07,0.016419375
,,,-9.2E-07,0.01642
,,,-9.1E-07,0.0163475
,,,-9E-07,0.016455
,,,-8.9E-07,0.016335
,,,-8.8E-07,0.016388125
,,,-8.7E-07,0.01651
,,,-8.6E-07,0.016053125
,,,-8.5E-07,0.0163225
,,,-8.4E-07,0.01624875
,,,-8.3E-07,0.0165475
,,,-8.2E-07,0.0163025
,,,-8.1E-07,0.0163075
,,,-8E-07,0.016431875
,,,-7.9E-07,0.016358125
,,,-7.8E-07,0.016564375
,,,-7.7E-07,0.01647
,,,-7.6E-07,0.01643
,,,-7.5E-07,0.016228125
,,,-7.4E-07,0.01641
,,,-7.3E-07,0.01638
,,,-7.2E-07,0.016064375
,,,-7.1E-07,0.016130625
,,,-7E-07,0.0162425
,,,-6.9E-07,0.01627
,,,-6.8E-07,0.016274375
,,,-6.7E-07,0.016449375
,,,-6.6E-07,0.01631625
,,,-6.5E-07,0.0163075
,,,-6.4E-07,0.016425625
,,,-6.3E-07,0.016445
,,,-6.2E-07,0.01641125
,,,-6.1E-07,0.0163325
,,,-6E-07,0.01628625
,,,-5.9E-07,0.016478125
,,,-5.8E-07,0.016319375
,,,-5.7E-07,0.01638125
,,,-5.6E-07,0.016535
,,,-5.5E-07,0.016471875
,,,-5.4E-07,0.01657875
,,,-5.3E-07,0.01628625
,,,-5.2E-07,0.016143125
,,,-5.1E-07,0.0161425
,,,-5E-07,0.015978125
,,,-4.9E-07,0.016391875
,,,-4.8E-07,0.01616875
,,,-4.7E-07,0.01638625
,,,-4.6E-07,0.016129375
,,,-4.5E-07,0.01646625
,,,-4.4E-07,0.016408125
,,,-4.3E-07,0.01645875
,,,-4.2E-07,0.016375625
,,,-4.1E-07,0.01616875
,,,-4E-07,0.016198125
,,,-3.9E-07,0.016166875
,,,-3.8E-07,0.016363125
,,,-3.7E-07,0.016436875
,,,-3.6E-07,0.0162325
,,,-3.5E-07,0.016478125
,,,-3.4E-07,0.016254375
,,,-3.3E-07,0.0161825
,,,-3.2E-07,0.0164225
,,,-3.1E-07,0.01636625
,,,-3E-07,0.016779375
,,,-2.9E-07,0.016611875
,,,-2.8E-07,0.0163875
,,,-2.7E-07,0.01631
,,,-2.6E-07,0.016610625
,,,-2.5E-07,0.016245625
,,,-2.4E-07,0.0162625
,,,-2.3E-07,0.0163375
,,,-2.2E-07,0.01632
,,,-2.1E-07,0.01621875
,,,-2E-07,0.01605375
,,,-1.9E-07,0.016380625
,,,-1.8E-07,0.016226875
,,,-1.7E-07,0.0162225
,,,-1.6E-07,0.016186875
,,,-1.5E-07,0.01595125
,,,-1.4E-07,0.016138125
,,,-1.3E-07,0.016223125
,,,-1.2E-07,0.016378125
,,,-1.1E-07,0.016481875
,,,-1E-07,0.016428125
,,,-9E-08,0.016445625
,,,-8E-08,0.01638875
,,,-7E-08,0.016369375
,,,-6E-08,0.01636375
,,,-5E-08,0.01639
,,,-4E-08,0.01697875
,,,-3E-08,0.018299375
,,,-2E-08,0.01497875
,,,-1E-08,0.012728125
,,,0,0.01298625
,,,1E-08,0.018260625
,,,2E-08,0.020971875
,,,3E-08,0.0203575
,,,4E-08,0.01599375
,,,5E-08,0.01323625
,,,6E-08,0.012548125
,,,7E-08,0.01485875
,,,8E-08,0.017031875
,,,9E-08,0.018449375
,,,1E-07,0.018544375
,,,1.1E-07,0.017251875
,,,1.2E-07,0.015271875
,,,1.3E-07,0.0146125
,,,1.4E-07,0.015418125
,,,1.5E-07,0.0164525
,,,1.6E-07,0.017029375
,,,1.7E-07,0.017001875
,,,1.8E-07,0.01639125
,,,1.9E-07,0.016545
,,,2E-07,0.0164175
,,,2.1E-07,0.01607
,,,2.2E-07,0.015975625
,,,2.3E-07,0.016101875
,,,2.4E-07,0.01640375
,,,2.5E-07,0.01646875
,,,2.6E-07,0.0159325
,,,2.7E-07,0.016484375
,,,2.8E-07,0.016290625
,,,2.9E-07,0.01656625
,,,3E-07,0.016226875
,,,3.1E-07,0.016165625
,,,3.2E-07,0.016279375
,,,3.3E-07,0.01643375
,,,3.4E-07,0.016481875
,,,3.5E-07,0.016348125
,,,3.6E-07,0.016188125
,,,3.7E-07,0.01618625
,,,3.8E-07,0.01652375
,,,3.9E-07,0.01644875
,,,4E-07,0.016510625
,,,4.1E-07,0.0165425
,,,4.2E-07,0.016595
,,,4.3E-07,0.016353125
,,,4.4E-07,0.0161675
,,,4.5E-07,0.016233125
,,,4.6E-07,0.016511875
,,,4.7E-07,0.01620125
,,,4.8E-07,0.01639875
,,,4.9E-07,0.0166075
,,,5E-07,0.016201875
,,,5.1E-07,0.016575625
,,,5.2E-07,0.016296875
,,,5.3E-07,0.0162725
,,,5.4E-07,0.0161925
,,,5.5E-07,0.015953125
,,,5.6E-07,0.016584375
,,,5.7E-07,0.0164175
,,,5.8E-07,0.016264375
,,,5.9E-07,0.016108125
,,,6E-07,0.01660375
,,,6.1E-07,0.01643625
,,,6.2E-07,0.016581875
,,,6.3E-07,0.01624625
,,,6.4E-07,0.01631
,,,6.5E-07,0.016274375
,,,6.6E-07,0.016285
,,,6.7E-07,0.0164525
,,,6.8E-07,0.016591875
,,,6.9E-07,0.016398125
,,,7E-07,0.016185625
,,,7.1E-07,0.01633875
,,,7.2E-07,0.016461875
,,,7.3E-07,0.0165025
,,,7.4E-07,0.016064375
,,,7.5E-07,0.016536875
,,,7.6E-07,0.01614625
,,,7.7E-07,0.016511875
,,,7.8E-07,0.016391875
,,,7.9E-07,0.0164175
,,,8E-07,0.0161775
,,,8.1E-07,0.01625625
,,,8.2E-07,0.01640125
,,,8.3E-07,0.0160825
,,,8.4E-07,0.0162425
,,,8.5E-07,0.0162825
,,,8.6E-07,0.016359375
,,,8.7E-07,0.0163125
,,,8.8E-07,0.0162725
,,,8.9E-07,0.016379375
,,,9E-07,0.01642
,,,9.1E-07,0.016388125
,,,9.2E-07,0.01624
,,,9.3E-07,0.016208125
,,,9.4E-07,0.01622125
,,,9.5E-07,0.0162225
,,,9.6E-07,0.016084375
,,,9.7E-07,0.01636875
,,,9.8E-07,0.01635625
,,,9.9E-07,0.016428125
,,,1E-06,0.016300625
,,,1.01E-06,0.016275
,,,1.02E-06,0.016094375
,,,1.03E-06,0.016236875
,,,1.04E-06,0.01652875
,,,1.05E-06,0.0162475
,,,1.06E-06,0.01605125
,,,1.07E-06,0.0165475
,,,1.08E-06,0.01636625
,,,1.09E-06,0.016325
,,,1.1E-06,0.016391875
,,,1.11E-06,0.016213125
,,,1.12E-06,0.016493125
,,,1.13E-06,0.0161825
,,,1.14E-06,0.01633625
,,,1.15E-06,0.016100625
,,,1.16E-06,0.016475
,,,1.17E-06,0.016366875
,,,1.18E-06,0.016315
,,,1.19E-06,0.016176875
,,,1.2E-06,0.016359375
,,,1.21E-06,0.01605125
,,,1.22E-06,0.0163325
,,,1.23E-06,0.016454375
,,,1.24E-06,0.016425625
,,,1.25E-06,0.0165425
,,,1.26E-06,0.0164925
,,,1.27E-06,0.016398125
,,,1.28E-06,0.016313125
,,,1.29E-06,0.016118125
,,,1.3E-06,0.016434375
,,,1.31E-06,0.016365
,,,1.32E-06,0.0164575
,,,1.33E-06,0.016254375
,,,1.34E-06,0.01628
,,,1.35E-06,0.0161175
,,,1.36E-06,0.016325625
,,,1.37E-06,0.01650875
,,,1.38E-06,0.01633125
,,,1.39E-06,0.016565
,,,1.4E-06,0.016395625
,,,1.41E-06,0.016479375
,,,1.42E-06,0.016548125
,,,1.43E-06,0.0163425
,,,1.44E-06,0.016155
,,,1.45E-06,0.016228125
,,,1.46E-06,0.01602375
,,,1.47E-06,0.016461875
,,,1.48E-06,0.016125
,,,1.49E-06,0.016643125
,,,1.5E-06,0.0162775
,,,1.51E-06,0.016339375
,,,1.52E-06,0.01633875
,,,1.53E-06,0.016214375
,,,1.54E-06,0.01635875
,,,1.55E-06,0.016245625
,,,1.56E-06,0.016389375
,,,1.57E-06,0.016383125
,,,1.58E-06,0.016319375
,,,1.59E-06,0.016543125
,,,1.6E-06,0.016379375
,,,1.61E-06,0.01637125
,,,1.62E-06,0.0161375
,,,1.63E-06,0.016196875
,,,1.64E-06,0.016314375
,,,1.65E-06,0.016244375
,,,1.66E-06,0.01649375
,,,1.67E-06,0.016288125
,,,1.68E-06,0.015970625
,,,1.69E-06,0.016345625
,,,1.7E-06,0.016325
,,,1.71E-06,0.016326875
,,,1.72E-06,0.016494375
,,,1.73E-06,0.01626
,,,1.74E-06,0.01631625
,,,1.75E-06,0.01624625
,,,1.76E-06,0.01634625
,,,1.77E-06,0.016518125
,,,1.78E-06,0.01641375
,,,1.79E-06,0.01632375
,,,1.8E-06,0.016336875
,,,1.81E-06,0.01631
,,,1.82E-06,0.016194375
,,,1.83E-06,0.016106875
,,,1.84E-06,0.016323125
,,,1.85E-06,0.016104375
,,,1.86E-06,0.016180625
,,,1.87E-06,0.0161825
,,,1.88E-06,0.0162425
,,,1.89E-06,0.01625125
,,,1.9E-06,0.016201875
,,,1.91E-06,0.01639625
,,,1.92E-06,0.016459375
,,,1.93E-06,0.0164175
,,,1.94E-06,0.016454375
,,,1.95E-06,0.0163925
,,,1.96E-06,0.016258125
,,,1.97E-06,0.01625125
,,,1.98E-06,0.016416875
,,,1.99E-06,0.0164075
,,,2E-06,0.01650125
,,,2.01E-06,0.01607
,,,2.02E-06,0.016196875
,,,2.03E-06,0.016231875
,,,2.04E-06,0.0162025
,,,2.05E-06,0.01653875
,,,2.06E-06,0.0164225
,,,2.07E-06,0.01612
,,,2.08E-06,0.016336875
,,,2.09E-06,0.016439375
,,,2.1E-06,0.01634
,,,2.11E-06,0.0162275
,,,2.12E-06,0.01628
,,,2.13E-06,0.01638625
,,,2.14E-06,0.01615875
,,,2.15E-06,0.01656125
,,,2.16E-06,0.0163225
,,,2.17E-06,0.01607625
,,,2.18E-06,0.0163925
,,,2.19E-06,0.016375625
,,,2.2E-06,0.01624875
,,,2.21E-06,0.01651625
,,,2.22E-06,0.016346875
,,,2.23E-06,0.01617125
,,,2.24E-06,0.016295625
,,,2.25E-06,0.016140625
,,,2.26E-06,0.01633
,,,2.27E-06,0.016300625
,,,2.28E-06,0.016335
,,,2.29E-06,0.01625
,,,2.3E-06,0.016541875
,,,2.31E-06,0.01630625
,,,2.32E-06,0.01648125
,,,2.33E-06,0.016329375
,,,2.34E-06,0.016100625
,,,2.35E-06,0.016195
,,,2.36E-06,0.016064375
,,,2.37E-06,0.01658125
,,,2.38E-06,0.016385625
,,,2.39E-06,0.016598125
,,,2.4E-06,0.016489375
,,,2.41E-06,0.016284375
,,,2.42E-06,0.016086875
,,,2.43E-06,0.01645
,,,2.44E-06,0.01619625
,,,2.45E-06,0.0163725
,,,2.46E-06,0.0164625
,,,2.47E-06,0.01646125
,,,2.48E-06,0.016374375
,,,2.49E-06,0.01630875
,,,2.5E-06,0.01626625
,,,2.51E-06,0.016615625
,,,2.52E-06,0.016385625
,,,2.53E-06,0.01615625
,,,2.54E-06,0.0162075
,,,2.55E-06,0.016146875
,,,2.56E-06,0.01611875
,,,2.57E-06,0.01600875
,,,2.58E-06,0.0164075
,,,2.59E-06,0.016271875
,,,2.6E-06,0.01625125
,,,2.61E-06,0.01647875
,,,2.62E-06,0.016461875
,,,2.63E-06,0.01650625
,,,2.64E-06,0.01626875
,,,2.65E-06,0.01639
,,,2.66E-06,0.016165
,,,2.67E-06,0.0164675
,,,2.68E-06,0.016426875
,,,2.69E-06,0.016633125
,,,2.7E-06,0.016345625
,,,2.71E-06,0.016584375
,,,2.72E-06,0.016295625
,,,2.73E-06,0.016055625
,,,2.74E-06,0.016065625
,,,2.75E-06,0.0163475
,,,2.76E-06,0.016318125
,,,2.77E-06,0.016305625
,,,2.78E-06,0.016254375
,,,2.79E-06,0.016364375
,,,2.8E-06,0.016291875
,,,2.81E-06,0.016370625
,,,2.82E-06,0.016506875
,,,2.83E-06,0.016365625
,,,2.84E-06,0.0163125
,,,2.85E-06,0.0162475
,,,2.86E-06,0.01617625
,,,2.87E-06,0.01638375
,,,2.88E-06,0.016254375
,,,2.89E-06,0.016430625
,,,2.9E-06,0.016624375
,,,2.91E-06,0.016396875
,,,2.92E-06,0.01631375
,,,2.93E-06,0.016403125
,,,2.94E-06,0.0165975
,,,2.95E-06,0.016351875
,,,2.96E-06,0.016273125
,,,2.97E-06,0.01640625
,,,2.98E-06,0.016405625
,,,2.99E-06,0.016168125
,,,3E-06,0.016255625
,,,3.01E-06,0.016080625
,,,3.02E-06,0.01630125
,,,3.03E-06,0.016014375
,,,3.04E-06,0.016351875
,,,3.05E-06,0.01651
,,,3.06E-06,0.0164825
,,,3.07E-06,0.016436875
,,,3.08E-06,0.016196875
,,,3.09E-06,0.016284375
,,,3.1E-06,0.01611
,,,3.11E-06,0.016309375
,,,3.12E-06,0.01637
,,,3.13E-06,0.01613
,,,3.14E-06,0.016294375
,,,3.15E-06,0.0161525
,,,3.16E-06,0.016393125
,,,3.17E-06,0.01637375
,,,3.18E-06,0.01646625
,,,3.19E-06,0.016419375
,,,3.2E-06,0.01645
,,,3.21E-06,0.016493125
,,,3.22E-06,0.0167575
,,,3.23E-06,0.016325625
,,,3.24E-06,0.0163175
,,,3.25E-06,0.016395
,,,3.26E-06,0.01636875
,,,3.27E-06,0.0162875
,,,3.28E-06,0.016173125
,,,3.29E-06,0.01615125
,,,3.3E-06,0.01636375
,,,3.31E-06,0.016338125
,,,3.32E-06,0.0165125
,,,3.33E-06,0.016058125
,,,3.34E-06,0.016210625
,,,3.35E-06,0.01644625
,,,3.36E-06,0.01637375
,,,3.37E-06,0.016429375
,,,3.38E-06,0.016438125
,,,3.39E-06,0.01635875
,,,3.4E-06,0.01636625
,,,3.41E-06,0.0163075
,,,3.42E-06,0.01625
,,,3.43E-06,0.0163825
,,,3.44E-06,0.016315
,,,3.45E-06,0.016105
,,,3.46E-06,0.0160325
,,,3.47E-06,0.01658625
,,,3.48E-06,0.01646625
,,,3.49E-06,0.016475
,,,3.5E-06,0.016256875
,,,3.51E-06,0.01636125
,,,3.52E-06,0.0162675
,,,3.53E-06,0.016468125
,,,3.54E-06,0.0161975
,,,3.55E-06,0.016478125
,,,3.56E-06,0.01649375
,,,3.57E-06,0.01642125
