data/raw/Final_POL_Test_1/SOP071_Ch1.csv

"Record Length",1000,"Points",-5E-06,0.00763125
"Sample Interval",1E-08,s,-4.99E-06,0.007361875
"Trigger Point",500,"Samples",-4.98E-06,0.007460625
"Trigger Time",0,s,-4.97E-06,0.00726125
"",,,-4.96E-06,0.007343125
"Horizontal Offset",-5E-06,s,-4.95E-06,0.007276875
,,,-4.94E-06,0.00757875
,,,-4.93E-06,0.00747125
,,,-4.92E-06,0.007394375
,,,-4.91E-06,0.007293125
,,,-4.9E-06,0.00745625
,,,-4.89E-06,0.00749625
,,,-4.88E-06,0.007499375
,,,-4.87E-06,0.00736625
,,,-4.86E-06,0.00713875
,,,-4.85E-06,0.00714
,,,-4.84E-06,0.007286875
,,,-4.83E-06,0.0074275
,,,-4.82E-06,0.00756
,,,-4.81E-06,0.007275
,,,-4.8E-06,0.00755125
,,,-4.79E-06,0.00737125
,,,-4.78E-06,0.007525625
,,,-4.77E-06,0.007673125
,,,-4.76E-06,0.007291875
,,,-4.75E-06,0.007511875
,,,-4.74E-06,0.0074125
,,,-4.73E-06,0.007336875
,,,-4.72E-06,0.007506875
,,,-4.71E-06,0.007371875
,,,-4.7E-06,0.0072575
,,,-4.69E-06,0.00727
,,,-4.68E-06,0.007584375
,,,-4.67E-06,0.007456875
,,,-4.66E-06,0.0073575
,,,-4.65E-06,0.00753
,,,-4.64E-06,0.00730375
,,,-4.63E-06,0.007395
,,,-4.62E-06,0.007539375
,,,-4.61E-06,0.00735625
,,,-4.6E-06,0.007625625
,,,-4.59E-06,0.007309375
,,,-4.58E-06,0.00756125
,,,-4.57E-06,0.00739625
,,,-4.56E-06,0.007605
,,,-4.55E-06,0.007601875
,,,-4.54E-06,0.007474375
,,,-4.53E-06,0.007384375
,,,-4.52E-06,0.00762
,,,-4.51E-06,0.007315625
,,,-4.5E-06,0.0074525
,,,-4.49E-06,0.00736
,,,-4.48E-06,0.007395
,,,-4.47E-06,0.00752
,,,-4.46E-06,0.007244375
,,,-4.45E-06,0.007275625
,,,-4.44E-06,0.00726625
,,,-4.43E-06,0.00756125
,,,-4.42E-06,0.007325
,,,-4.41E-06,0.0074775
,,,-4.4E-06,0.0077175
,,,-4.39E-06,0.007719375
,,,-4.38E-06,0.00733625
,,,-4.37E-06,0.00739
,,,-4.36E-06,0.007253125
,,,-4.35E-06,0.007363125
,,,-4.34E-06,0.007521875
,,,-4.33E-06,0.007313125
,,,-4.32E-06,0.00744
,,,-4.31E-06,0.0075725
,,,-4.3E-06,0.007224375
,,,-4.29E-06,0.007573125
,,,-4.28E-06,0.007521875
,,,-4.27E-06,0.00742
,,,-4.26E-06,0.007579375
,,,-4.25E-06,0.007409375
,,,-4.24E-06,0.007444375
,,,-4.23E-06,0.007321875
,,,-4.22E-06,0.007379375
,,,-4.21E-06,0.007564375
,,,-4.2E-06,0.007668125
,,,-4.19E-06,0.007578125
,,,-4.18E-06,0.007385
,,,-4.17E-06,0.00720375
,,,-4.16E-06,0.00755625
,,,-4.15E-06,0.0076775
,,,-4.14E-06,0.007525
,,,-4.13E-06,0.007521875
,,,-4.12E-06,0.00746625
,,,-4.11E-06,0.007445
,,,-4.1E-06,0.007615625
,,,-4.09E-06,0.00740625
,,,-4.08E-06,0.007545625
,,,-4.07E-06,0.0074575
,,,-4.06E-06,0.0074875
,,,-4.05E-06,0.00743
,,,-4.04E-06,0.007400625
,,,-4.03E-06,0.007126875
,,,-4.02E-06,0.007581875
,,,-4.01E-06,0.0075325
,,,-4E-06,0.00742875
,,,-3.99E-06,0.007384375
,,,-3.98E-06,0.00741
,,,-3.97E-06,0.007464375
,,,-3.96E-06,0.00723
,,,-3.95E-06,0.007485625
,,,-3.94E-06,0.0074025
,,,-3.93E-06,0.007311875
,,,-3.92E-06,0.0074475
,,,-3.91E-06,0.007590625
,,,-3.9E-06,0.007676875
,,,-3.89E-06,0.00749625
,,,-3.88E-06,0.0073925
,,,-3.87E-06,0.007586875
,,,-3.86E-06,0.00739
,,,-3.85E-06,0.0074925
,,,-3.84E-06,0.007624375
,,,-3.83E-06,0.007466875
,,,-3.82E-06,0.007346875
,,,-3.81E-06,0.007515
,,,-3.8E-06,0.007188125
,,,-3.79E-06,0.007483125
,,,-3.78E-06,0.00728875
,,,-3.77E-06,0.00751
,,,-3.76E-06,0.0073775
,,,-3.75E-06,0.0075225
,,,-3.74E-06,0.00740625
,,,-3.73E-06,0.007703125
,,,-3.72E-06,0.007435
,,,-3.71E-06,0.007345625
,,,-3.7E-06,0.007081875
,,,-3.69E-06,0.00734
,,,-3.68E-06,0.00737375
,,,-3.67E-06,0.00727875
,,,-3.66E-06,0.0071925
,,,-3.65E-06,0.00715375
,,,-3.64E-06,0.007325625
,,,-3.63E-06,0.00750625
,,,-3.62E-06,0.00730875
,,,-3.61E-06,0.007403125
,,,-3.6E-06,0.007296875
,,,-3.59E-06,0.007525625
,,,-3.58E-06,0.007445625
,,,-3.57E-06,0.00734125
,,,-3.56E-06,0.007314375
,,,-3.55E-06,0.00756
,,,-3.54E-06,0.007489375
,,,-3.53E-06,0.007313125
,,,-3.52E-06,0.007249375
,,,-3.51E-06,0.007390625
,,,-3.5E-06,0.007815625
,,,-3.49E-06,0.007628125
,,,-3.48E-06,0.00719
,,,-3.47E-06,0.007400625
,,,-3.46E-06,0.007424375
,,,-3.45E-06,0.00753
,,,-3.44E-06,0.00762875
,,,-3.43E-06,0.007401875
,,,-3.42E-06,0.007189375
,,,-3.41E-06,0.007433125
,,,-3.4E-06,0.007530625
,,,-3.39E-06,0.007346875
,,,-3.38E-06,0.007258125
,,,-3.37E-06,0.007216875
,,,-3.36E-06,0.007411875
,,,-3.35E-06,0.00748625
,,,-3.34E-06,0.007498125
,,,-3.33E-06,0.00750875
,,,-3.32E-06,0.00752
,,,-3.31E-06,0.007503125
,,,-3.3E-06,0.00746625
,,,-3.29E-06,0.0075275
,,,-3.28E-06,0.0076625
,,,-3.27E-06,0.007434375
,,,-3.26E-06,0.0075625
,,,-3.25E-06,0.007475
,,,-3.24E-06,0.007544375
,,,-3.23E-06,0.007661875
,,,-3.22E-06,0.007459375
,,,-3.21E-06,0.00736875
,,,-3.2E-06,0.007218125
,,,-3.19E-06,0.007739375
,,,-3.18E-06,0.00741875
,,,-3.17E-06,0.007376875
,,,-3.16E-06,0.00732
,,,-3.15E-06,0.0074975
,,,-3.14E-06,0.00746
,,,-3.13E-06,0.007508125
,,,-3.12E-06,0.007400625
,,,-3.11E-06,0.007635
,,,-3.1E-06,0.00700625
,,,-3.09E-06,0.00722
,,,-3.08E-06,0.00744625
,,,-3.07E-06,0.007515
,,,-3.06E-06,0.00736
,,,-3.05E-06,0.00752
,,,-3.04E-06,0.007526875
,,,-3.03E-06,0.0074075
,,,-3.02E-06,0.007531875
,,,-3.01E-06,0.00754375
,,,-3E-06,0.0076825
,,,-2.99E-06,0.007556875
,,,-2.98E-06,0.0075125
,,,-2.97E-06,0.007369375
,,,-2.96E-06,0.007403125
,,,-2.95E-06,0.00762375
,,,-2.94E-06,0.007329375
,,,-2.93E-06,0.00743125
,,,-2.92E-06,0.00755875
,,,-2.91E-06,0.00739125
,,,-2.9E-06,0.00764
,,,-2.89E-06,0.007388125
,,,-2.88E-06,0.007323125
,,,-2.87E-06,0.00732375
,,,-2.86E-06,0.00749875
,,,-2.85E-06,0.007368125
,,,-2.84E-06,0.007605625
,,,-2.83E-06,0.00737
,,,-2.82E-06,0.00747625
,,,-2.81E-06,0.00731875
,,,-2.8E-06,0.00746875
,,,-2.79E-06,0.007416875
,,,-2.78E-06,0.00723125
,,,-2.77E-06,0.007399375
,,,-2.76E-06,0.007395625
,,,-2.75E-06,0.007591875
,,,-2.74E-06,0.00771375
,,,-2.73E-06,0.007515
,,,-2.72E-06,0.0071775
,,,-2.71E-06,0.0073575
,,,-2.7E-06,0.007431875
,,,-2.69E-06,0.007630625
,,,-2.68E-06,0.007375
,,,-2.67E-06,0.007250625
,,,-2.66E-06,0.007495
,,,-2.65E-06,0.007675
,,,-2.64E-06,0.0073625
,,,-2.63E-06,0.007489375
,,,-2.62E-06,0.007228125
,,,-2.61E-06,0.007320625
,,,-2.6E-06,0.007313125
,,,-2.59E-06,0.00753375
,,,-2.58E-06,0.007529375
,,,-2.57E-06,0.007505
,,,-2.56E-06,0.007600625
,,,-2.55E-06,0.00737375
,,,-2.54E-06,0.00753
,,,-2.53E-06,0.007498125
,,,-2.52E-06,0.0073525
,,,-2.51E-06,0.007388125
,,,-2.5E-06,0.007305625
,,,-2.49E-06,0.007505
,,,-2.48E-06,0.0074425
,,,-2.47E-06,0.007549375
,,,-2.46E-06,0.007565625
,,,-2.45E-06,0.007523125
,,,-2.44E-06,0.007338125
,,,-2.43E-06,0.00721625
,,,-2.42E-06,0.007641875
,,,-2.41E-06,0.00743875
,,,-2.4E-06,0.007346875
,,,-2.39E-06,0.007305625
,,,-2.38E-06,0.00727125
,,,-2.37E-06,0.007478125
,,,-2.36E-06,0.007334375
,,,-2.35E-06,0.007300625
,,,-2.34E-06,0.007414375
,,,-2.33E-06,0.0076275
,,,-2.32E-06,0.00745
,,,-2.31E-06,0.007404375
,,,-2.3E-06,0.007434375
,,,-2.29E-06,0.00752125
,,,-2.28E-06,0.007274375
,,,-2.27E-06,0.007391875
,,,-2.26E-06,0.007583125
,,,-2.25E-06,0.007819375
,,,-2.24E-06,0.00765625
,,,-2.23E-06,0.007468125
,,,-2.22E-06,0.007296875
,,,-2.21E-06,0.00737875
,,,-2.2E-06,0.007565
,,,-2.19E-06,0.0074125
,,,-2.18E-06,0.007649375
,,,-2.17E-06,0.00734125
,,,-2.16E-06,0.007653125
,,,-2.15E-06,0.0072875
,,,-2.14E-06,0.007455
,,,-2.13E-06,0.007835625
,,,-2.12E-06,0.007308125
,,,-2.11E-06,0.007380625
,,,-2.1E-06,0.00745875
,,,-2.09E-06,0.007753125
,,,-2.08E-06,0.007479375
,,,-2.07E-06,0.00743875
,,,-2.06E-06,0.007524375
,,,-2.05E-06,0.007428125
,,,-2.04E-06,0.00719125
,,,-2.03E-06,0.007530625
,,,-2.02E-06,0.00755875
,,,-2.01E-06,0.0074425
,,,-2E-06,0.007499375
,,,-1.99E-06,0.0075525
,,,-1.98E-06,0.007556875
,,,-1.97E-06,0.007380625
,,,-1.96E-06,0.007520625
,,,-1.95E-06,0.007525
,,,-1.94E-06,0.0074675
,,,-1.93E-06,0.007795
,,,-1.92E-06,0.007613125
,,,-1.91E-06,0.007288125
,,,-1.9E-06,0.0071575
,,,-1.89E-06,0.0074175
,,,-1.88E-06,0.00722875
,,,-1.87E-06,0.007154375
,,,-1.86E-06,0.00748375
,,,-1.85E-06,0.007509375
,,,-1.84E-06,0.007438125
,,,-1.83E-06,0.007395
,,,-1.82E-06,0.00752
,,,-1.81E-06,0.00744625
,,,-1.8E-06,0.007535
,,,-1.79E-06,0.007289375
,,,-1.78E-06,0.007421875
,,,-1.77E-06,0.00724
,,,-1.76E-06,0.007349375
,,,-1.75E-06,0.00753
,,,-1.74E-06,0.00765
,,,-1.73E-06,0.007498125
,,,-1.72E-06,0.007290625
,,,-1.71E-06,0.007393125
,,,-1.7E-06,0.0072675
,,,-1.69E-06,0.007455
,,,-1.68E-06,0.007360625
,,,-1.67E-06,0.007218125
,,,-1.66E-06,0.007465
,,,-1.65E-06,0.007314375
,,,-1.64E-06,0.007504375
,,,-1.63E-06,0.0073375
,,,-1.62E-06,0.007275
,,,-1.61E-06,0.007296875
,,,-1.6E-06,0.007373125
,,,-1.59E-06,0.00758
,,,-1.58E-06,0.007483125
,,,-1.57E-06,0.00727375
,,,-1.56E-06,0.00745
,,,-1.55E-06,0.00768
,,,-1.54E-06,0.00742
,,,-1.53E-06,0.007509375
,,,-1.52E-06,0.007639375
,,,-1.51E-06,0.00729
,,,-1.5E-06,0.007376875
,,,-1.49E-06,0.007231875
,,,-1.48E-06,0.0075075
,,,-1.47E-06,0.007445625
,,,-1.46E-06,0.00762875
,,,-1.45E-06,0.00762625
,,,-1.44E-06,0.007399375
,,,-1.43E-06,0.00740625
,,,-1.42E-06,0.007503125
,,,-1.41E-06,0.007416875
,,,-1.4E-06,0.00742375
,,,-1.39E-06,0.0074725
,,,-1.38E-06,0.007513125
,,,-1.37E-06,0.007473125
,,,-1.36E-06,0.007584375
,,,-1.35E-06,0.0075
,,,-1.34E-06,0.007496875
,,,-1.33E-06,0.007448125
,,,-1.32E-06,0.00743875
,,,-1.31E-06,0.00750875
,,,-1.3E-06,0.007459375
,,,-1.29E-06,0.007464375
,,,-1.28E-06,0.0070275
,,,-1.27E-06,0.007355
,,,-1.26E-06,0.007375
,,,-1.25E-06,0.007649375
,,,-1.24E-06,0.00752375
,,,-1.23E-06,0.007326875
,,,-1.22E-06,0.007274375
,,,-1.21E-06,0.007495
,,,-1.2E-06,0.007565625
,,,-1.19E-06,0.0073825
,,,-1.18E-06,0.007485625
,,,-1.17E-06,0.007441875
,,,-1.16E-06,0.007415
,,,-1.15E-06,0.00754375
,,,-1.14E-06,0.00766625
,,,-1.13E-06,0.007355625
,,,-1.12E-06,0.00748125
,,,-1.11E-06,0.007461875
,,,-1.1E-06,0.00772875
,,,-1.09E-06,0.00749375
,,,-1.08E-06,0.007540625
,,,-1.07E-06,0.007656875
,,,-1.06E-06,0.00737
,,,-1.05E-06,0.00733875
,,,-1.04E-06,0.007513125
,,,-1.03E-06,0.007501875
,,,-1.02E-06,0.007469375
,,,-1.01E-06,0.007441875
,,,-1E-06,0.007099375
,,,-9.9E-07,0.00734625
,,,-9.8E-07,0.007426875
,,,-9.7E-07,0.007200625
,,,-9.6E-07,0.00746125
,,,-9.5E-07,0.00747125
,,,-9.4E-07,0.00769875
,,,-9.3E-07,0.0074775
,,,-9.2E-07,0.007343125
,,,-9.1E-07,0.007418125
,,,-9E-07,0.007528125
,,,-8.9E-07,0.00752625
,,,-8.8E-07,0.007375
,,,-8.7E-07,0.007470625
,,,-8.6E-07,0.007235
,,,-8.5E-07,0.007463125
,,,-8.4E-07,0.00742625
,,,-8.3E-07,0.007449375
,,,-8.2E-07,0.007509375
,,,-8.1E-07,0.007516875
,,,-8E-07,0.0076525
,,,-7.9E-07,0.00753875
,,,-7.8E-07,0.007420625
,,,-7.7E-07,0.007375625
,,,-7.6E-07,0.007451875
,,,-7.5E-07,0.0074175
,,,-7.4E-07,0.00737
,,,-7.3E-07,0.007555625
,,,-7.2E-07,0.007344375
,,,-7.1E-07,0.00727
,,,-7E-07,0.00732875
,,,-6.9E-07,0.007540625
,,,-6.8E-07,0.007361875
,,,-6.7E-07,0.00758
,,,-6.6E-07,0.007378125
,,,-6.5E-07,0.007293125
,,,-6.4E-07,0.007310625
,,,-6.3E-07,0.00743125
,,,-6.2E-07,0.007281875
,,,-6.1E-07,0.007568125
,,,-6E-07,0.007478125
,,,-5.9E-07,0.007721875
,,,-5.8E-07,0.007215625
,,,-5.7E-07,0.00727
,,,-5.6E-07,0.0070325
,,,-5.5E-07,0.007573125
,,,-5.4E-07,0.007438125
,,,-5.3E-07,0.00733125
,,,-5.2E-07,0.00737375
,,,-5.1E-07,0.007571875
,,,-5E-07,0.007585625
,,,-4.9E-07,0.007475
,,,-4.8E-07,0.007119375
,,,-4.7E-07,0.0074975
,,,-4.6E-07,0.007265625
,,,-4.5E-07,0.007584375
,,,-4.4E-07,0.00762625
,,,-4.3E-07,0.0075625
,,,-4.2E-07,0.00745625
,,,-4.1E-07,0.007324375
,,,-4E-07,0.007395
,,,-3.9E-07,0.00756
,,,-3.8E-07,0.007359375
,,,-3.7E-07,0.00760875
,,,-3.6E-07,0.00730125
,,,-3.5E-07,0.007280625
,,,-3.4E-07,0.007488125
,,,-3.3E-07,0.007441875
,,,-3.2E-07,0.007495625
,,,-3.1E-07,0.007303125
,,,-3E-07,0.007383125
,,,-2.9E-07,0.00738625
,,,-2.8E-07,0.007526875
,,,-2.7E-07,0.007459375
,,,-2.6E-07,0.007524375
,,,-2.5E-07,0.00739
,,,-2.4E-07,0.00732875
,,,-2.3E-07,0.0074175
,,,-2.2E-07,0.007491875
,,,-2.1E-07,0.007398125
,,,-2E-07,0.00739625
,,,-1.9E-07,0.00743625
,,,-1.8E-07,0.007283125
,,,-1.7E-07,0.00771625
,,,-1.6E-07,0.0075075
,,,-1.5E-07,0.007578125
,,,-1.4E-07,0.007328125
,,,-1.3E-07,0.00737125
,,,-1.2E-07,0.00732375
,,,-1.1E-07,0.00746125
,,,-1E-07,0.007553125
,,,-9E-08,0.007581875
,,,-8E-08,0.00745375
,,,-7E-08,0.007283125
,,,-6E-08,0.00727125
,,,-5E-08,0.007524375
,,,-4E-08,0.008070625
,,,-3E-08,0.00844125
,,,-2E-08,0.006390625
,,,-1E-08,0.004391875
,,,0,0.00461
,,,1E-08,0.0093725
,,,2E-08,0.01155875
,,,3E-08,0.010958125
,,,4E-08,0.007355
,,,5E-08,0.004818125
,,,6E-08,0.004321875
,,,7E-08,0.005825625
,,,8E-08,0.007860625
,,,9E-08,0.009325
,,,1E-07,0.00955375
,,,1.1E-07,0.008184375
,,,1.2E-07,0.00693125
,,,1.3E-07,0.005999375
,,,1.4E-07,0.006535
,,,1.5E-07,0.0073175
,,,1.6E-07,0.007796875
,,,1.7E-07,0.00777875
,,,1.8E-07,0.00763375
,,,1.9E-07,0.0075275
,,,2E-07,0.007275
,,,2.1E-07,0.0070925
,,,2.2E-07,0.006935
,,,2.3E-07,0.0072275
,,,2.4E-07,0.0075275
,,,2.5E-07,0.007694375
,,,2.6E-07,0.007466875
,,,2.7E-07,0.007276875
,,,2.8E-07,0.007415625
,,,2.9E-07,0.00747375
,,,3E-07,0.007229375
,,,3.1E-07,0.00751625
,,,3.2E-07,0.00774375
,,,3.3E-07,0.0074225
,,,3.4E-07,0.00745625
,,,3.5E-07,0.00734375
,,,3.6E-07,0.007336875
,,,3.7E-07,0.00759625
,,,3.8E-07,0.00764125
,,,3.9E-07,0.00752125
,,,4E-07,0.007474375
,,,4.1E-07,0.007449375
,,,4.2E-07,0.007224375
,,,4.3E-07,0.0073775
,,,4.4E-07,0.007605
,,,4.5E-07,0.00742875
,,,4.6E-07,0.00754125
,,,4.7E-07,0.00749
,,,4.8E-07,0.00735
,,,4.9E-07,0.0074375
,,,5E-07,0.0075475
,,,5.1E-07,0.007321875
,,,5.2E-07,0.007394375
,,,5.3E-07,0.00731
,,,5.4E-07,0.0073825
,,,5.5E-07,0.007465
,,,5.6E-07,0.0073975
,,,5.7E-07,0.007493125
,,,5.8E-07,0.0077775
,,,5.9E-07,0.00749
,,,6E-07,0.0075925
,,,6.1E-07,0.0071825
,,,6.2E-07,0.0072775
,,,6.3E-07,0.007285625
,,,6.4E-07,0.007313125
,,,6.5E-07,0.0072775
,,,6.6E-07,0.00726625
,,,6.7E-07,0.0074175
,,,6.8E-07,0.007516875
,,,6.9E-07,0.00772
,,,7E-07,0.007335625
,,,7.1E-07,0.0073475
,,,7.2E-07,0.00731
,,,7.3E-07,0.0073
,,,7.4E-07,0.007440625
,,,7.5E-07,0.00771875
,,,7.6E-07,0.007496875
,,,7.7E-07,0.007645625
,,,7.8E-07,0.007385
,,,7.9E-07,0.00747
,,,8E-07,0.007366875
,,,8.1E-07,0.0074375
,,,8.2E-07,0.00737875
,,,8.3E-07,0.00757125
,,,8.4E-07,0.007704375
,,,8.5E-07,0.007438125
,,,8.6E-07,0.0075275
,,,8.7E-07,0.007371875
,,,8.8E-07,0.00741375
,,,8.9E-07,0.00738625
,,,9E-07,0.00732
,,,9.1E-07,0.0073975
,,,9.2E-07,0.007254375
,,,9.3E-07,0.007455
,,,9.4E-07,0.00766625
,,,9.5E-07,0.00729125
,,,9.6E-07,0.007261875
,,,9.7E-07,0.007329375
,,,9.8E-07,0.007286875
,,,9.9E-07,0.007576875
,,,1E-06,0.007529375
,,,1.01E-06,0.007215625
,,,1.02E-06,0.00732625
,,,1.03E-06,0.007318125
,,,1.04E-06,0.007549375
,,,1.05E-06,0.007475
,,,1.06E-06,0.00743375
,,,1.07E-06,0.00724125
,,,1.08E-06,0.007261875
,,,1.09E-06,0.007575
,,,1.1E-06,0.00753625
,,,1.11E-06,0.0074925
,,,1.12E-06,0.007516875
,,,1.13E-06,0.00731625
,,,1.14E-06,0.0071875
,,,1.15E-06,0.0074375
,,,1.16E-06,0.007685625
,,,1.17E-06,0.007631875
,,,1.18E-06,0.00734
,,,1.19E-06,0.007545625
,,,1.2E-06,0.0075175
,,,1.21E-06,0.00729625
,,,1.22E-06,0.00759125
,,,1.23E-06,0.007470625
,,,1.24E-06,0.007519375
,,,1.25E-06,0.007496875
,,,1.26E-06,0.00758
,,,1.27E-06,0.00719125
,,,1.28E-06,0.0073025
,,,1.29E-06,0.00739375
,,,1.3E-06,0.007754375
,,,1.31E-06,0.007395
,,,1.32E-06,0.007576875
,,,1.33E-06,0.007690625
,,,1.34E-06,0.0074825
,,,1.35E-06,0.007145625
,,,1.36E-06,0.007456875
,,,1.37E-06,0.0073
,,,1.38E-06,0.007403125
,,,1.39E-06,0.007515
,,,1.4E-06,0.007391875
,,,1.41E-06,0.007620625
,,,1.42E-06,0.007525
,,,1.43E-06,0.0073425
,,,1.44E-06,0.007326875
,,,1.45E-06,0.00746125
,,,1.46E-06,0.007485625
,,,1.47E-06,0.007424375
,,,1.48E-06,0.007398125
,,,1.49E-06,0.007551875
,,,1.5E-06,0.007480625
,,,1.51E-06,0.007459375
,,,1.52E-06,0.0072125
,,,1.53E-06,0.007421875
,,,1.54E-06,0.0075225
,,,1.55E-06,0.007219375
,,,1.56E-06,0.007298125
,,,1.57E-06,0.00771
,,,1.58E-06,0.007806875
,,,1.59E-06,0.00741
,,,1.6E-06,0.007605
,,,1.61E-06,0.007564375
,,,1.62E-06,0.00724
,,,1.63E-06,0.007429375
,,,1.64E-06,0.007348125
,,,1.65E-06,0.00746375
,,,1.66E-06,0.00750125
,,,1.67E-06,0.00753625
,,,1.68E-06,0.00764375
,,,1.69E-06,0.007368125
,,,1.7E-06,0.00727625
,,,1.71E-06,0.0074325
,,,1.72E-06,0.0072525
,,,1.73E-06,0.007401875
,,,1.74E-06,0.007398125
,,,1.75E-06,0.0076775
,,,1.76E-06,0.00732
,,,1.77E-06,0.007393125
,,,1.78E-06,0.007531875
,,,1.79E-06,0.007498125
,,,1.8E-06,0.007565625
,,,1.81E-06,0.0072925
,,,1.82E-06,0.007429375
,,,1.83E-06,0.00753
,,,1.84E-06,0.00739
,,,1.85E-06,0.00730375
,,,1.86E-06,0.0074725
,,,1.87E-06,0.007421875
,,,1.88E-06,0.00746
,,,1.89E-06,0.007296875
,,,1.9E-06,0.007424375
,,,1.91E-06,0.0073975
,,,1.92E-06,0.007405625
,,,1.93E-06,0.00742625
,,,1.94E-06,0.00750875
,,,1.95E-06,0.007205625
,,,1.96E-06,0.007199375
,,,1.97E-06,0.007365
,,,1.98E-06,0.007388125
,,,1.99E-06,0.00736125
,,,2E-06,0.007664375
,,,2.01E-06,0.007474375
,,,2.02E-06,0.007446875
,,,2.03E-06,0.00746375
,,,2.04E-06,0.007450625
,,,2.05E-06,0.007460625
,,,2.06E-06,0.0074175
,,,2.07E-06,0.007458125
,,,2.08E-06,0.00736875
,,,2.09E-06,0.007480625
,,,2.1E-06,0.007423125
,,,2.11E-06,0.007470625
,,,2.12E-06,0.007258125
,,,2.13E-06,0.00751
,,,2.14E-06,0.007655
,,,2.15E-06,0.007474375
,,,2.16E-06,0.007455
,,,2.17E-06,0.007695
,,,2.18E-06,0.007519375
,,,2.19E-06,0.007293125
,,,2.2E-06,0.007278125
,,,2.21E-06,0.007111875
,,,2.22E-06,0.007246875
,,,2.23E-06,0.00742
,,,2.24E-06,0.00725125
,,,2.25E-06,0.007301875
,,,2.26E-06,0.007436875
,,,2.27E-06,0.007361875
,,,2.28E-06,0.007603125
,,,2.29E-06,0.00733
,,,2.3E-06,0.00723625
,,,2.31E-06,0.00730375
,,,2.32E-06,0.007496875
,,,2.33E-06,0.007274375
,,,2.34E-06,0.00714375
,,,2.35E-06,0.007174375
,,,2.36E-06,0.007488125
,,,2.37E-06,0.00746125
,,,2.38E-06,0.007348125
,,,2.39E-06,0.007641875
,,,2.4E-06,0.00746625
,,,2.41E-06,0.007605625
,,,2.42E-06,0.0075225
,,,2.43E-06,0.007328125
,,,2.44E-06,0.00741875
,,,2.45E-06,0.007548125
,,,2.46E-06,0.007474375
,,,2.47E-06,0.007514375
,,,2.48E-06,0.00746875
,,,2.49E-06,0.0073575
,,,2.5E-06,0.00731125
,,,2.51E-06,0.0074825
,,,2.52E-06,0.007713125
,,,2.53E-06,0.007335625
,,,2.54E-06,0.0072975
,,,2.55E-06,0.00752
,,,2.56E-06,0.00736125
,,,2.57E-06,0.007225625
,,,2.58E-06,0.007393125
,,,2.59E-06,0.00741
,,,2.6E-06,0.007511875
,,,2.61E-06,0.0075775
,,,2.62E-06,0.007118125
,,,2.63E-06,0.00711125
,,,2.64E-06,0.00762125
,,,2.65E-06,0.00739875
,,,2.66E-06,0.00742875
,,,2.67E-06,0.007559375
,,,2.68E-06,0.007049375
,,,2.69E-06,0.0075225
,,,2.7E-06,0.007633125
,,,2.71E-06,0.00746
,,,2.72E-06,0.00754
,,,2.73E-06,0.007336875
,,,2.74E-06,0.00751625
,,,2.75E-06,0.00745
,,,2.76E-06,0.0076725
,,,2.77E-06,0.0074675
,,,2.78E-06,0.00747375
,,,2.79E-06,0.0074
,,,2.8E-06,0.0073675
,,,2.81E-06,0.00729625
,,,2.82E-06,0.0072725
,,,2.83E-06,0.0071175
,,,2.84E-06,0.007385625
,,,2.85E-06,0.00737625
,,,2.86E-06,0.00731375
,,,2.87E-06,0.00752875
,,,2.88E-06,0.007319375
,,,2.89E-06,0.007545625
,,,2.9E-06,0.0075025
,,,2.91E-06,0.00733
,,,2.92E-06,0.007341875
,,,2.93E-06,0.00742875
,,,2.94E-06,0.007540625
,,,2.95E-06,0.007613125
,,,2.96E-06,0.007394375
,,,2.97E-06,0.007380625
,,,2.98E-06,0.0075625
,,,2.99E-06,0.007395
,,,3E-06,0.007264375
,,,3.01E-06,0.00736375
,,,3.02E-06,0.00734625
,,,3.03E-06,0.00751
,,,3.04E-06,0.007556875
,,,3.05E-06,0.00746125
,,,3.06E-06,0.00765625
,,,3.07E-06,0.007370625
,,,3.08E-06,0.00737625
,,,3.09E-06,0.007345625
,,,3.1E-06,0.00758625
,,,3.11E-06,0.0075775
,,,3.12E-06,0.00743375
,,,3.13E-06,0.0073375
,,,3.14E-06,0.007301875
,,,3.15E-06,0.007298125
,,,3.16E-06,0.007261875
,,,3.17E-06,0.007255
,,,3.18E-06,0.007501875
,,,3.19E-06,0.00741625
,,,3.2E-06,0.007395625
,,,3.21E-06,0.007393125
,,,3.22E-06,0.007541875
,,,3.23E-06,0.00762625
,,,3.24E-06,0.0077725
,,,3.25E-06,0.007456875
,,,3.26E-06,0.00729125
,,,3.27E-06,0.007375625
,,,3.28E-06,0.00745875
,,,3.29E-06,0.007374375
,,,3.3E-06,0.007678125
,,,3.31E-06,0.007294375
,,,3.32E-06,0.007635
,,,3.33E-06,0.0075125
,,,3.34E-06,0.007446875
,,,3.35E-06,0.007340625
,,,3.36E-06,0.007369375
,,,3.37E-06,0.0073725
,,,3.38E-06,0.00753
,,,3.39E-06,0.00762125
,,,3.4E-06,0.007391875
,,,3.41E-06,0.007331875
,,,3.42E-06,0.00727125
,,,3.43E-06,0.007533125
,,,3.44E-06,0.0074075
,,,3.45E-06,0.007525625
,,,3.46E-06,0.007356875
,,,3.47E-06,0.007443125
,,,3.48E-06,0.00739375
,,,3.49E-06,0.007378125
,,,3.5E-06,0.0075075
,,,3.51E-06,0.007334375
,,,3.52E-06,0.007499375
,,,3.53E-06,0.007385625
,,,3.54E-06,0.0073925
,,,3.55E-06,0.007450625
,,,3.56E-06,0.007591875
,,,3.57E-06,0.007390625
,,,3.58E-06,0.007405
,,,3.59E-06,0.007555
