data/raw/Final_POL_Test_1/SOP051_Ch4.csv

"Record Length",1000,"Points",-5E-06,0.01474
"Sample Interval",1E-08,s,-4.99E-06,0.01504875
"Trigger Point",500,"Samples",-4.98E-06,0.014843125
"Trigger Time",0,s,-4.97E-06,0.015030625
"",,,-4.96E-06,0.015135625
"Horizontal Offset",-5E-06,s,-4.95E-06,0.015116875
,,,-4.94E-06,0.01493
,,,-4.93E-06,0.014776875
,,,-4.92E-06,0.01498625
,,,-4.91E-06,0.0148575
,,,-4.9E-06,0.014835
,,,-4.89E-06,0.01490125
,,,-4.88E-06,0.015003125
,,,-4.87E-06,0.014620625
,,,-4.86E-06,0.01493
,,,-4.85E-06,0.014918125
,,,-4.84E-06,0.0146925
,,,-4.83E-06,0.014991875
,,,-4.82E-06,0.01489
,,,-4.81E-06,0.014705625
,,,-4.8E-06,0.0147825
,,,-4.79E-06,0.014613125
,,,-4.78E-06,0.014943125
,,,-4.77E-06,0.01498375
,,,-4.76E-06,0.014875625
,,,-4.75E-06,0.014814375
,,,-4.74E-06,0.0149925
,,,-4.73E-06,0.014945625
,,,-4.72E-06,0.0149375
,,,-4.71E-06,0.015041875
,,,-4.7E-06,0.014718125
,,,-4.69E-06,0.014666875
,,,-4.68E-06,0.01487125
,,,-4.67E-06,0.01489125
,,,-4.66E-06,0.014964375
,,,-4.65E-06,0.01477875
,,,-4.64E-06,0.014820625
,,,-4.63E-06,0.01483875
,,,-4.62E-06,0.01481875
,,,-4.61E-06,0.014745625
,,,-4.6E-06,0.01506625
,,,-4.59E-06,0.014855625
,,,-4.58E-06,0.014973125
,,,-4.57E-06,0.01523875
,,,-4.56E-06,0.015024375
,,,-4.55E-06,0.014879375
,,,-4.54E-06,0.01516625
,,,-4.53E-06,0.014745625
,,,-4.52E-06,0.0147975
,,,-4.51E-06,0.0148775
,,,-4.5E-06,0.014958125
,,,-4.49E-06,0.015063125
,,,-4.48E-06,0.014890625
,,,-4.47E-06,0.0149
,,,-4.46E-06,0.01506875
,,,-4.45E-06,0.0148975
,,,-4.44E-06,0.014976875
,,,-4.43E-06,0.01497875
,,,-4.42E-06,0.01486125
,,,-4.41E-06,0.01500875
,,,-4.4E-06,0.0149475
,,,-4.39E-06,0.0150425
,,,-4.38E-06,0.014640625
,,,-4.37E-06,0.014858125
,,,-4.36E-06,0.014931875
,,,-4.35E-06,0.01448875
,,,-4.34E-06,0.014851875
,,,-4.33E-06,0.01494625
,,,-4.32E-06,0.01482625
,,,-4.31E-06,0.0149975
,,,-4.3E-06,0.014918125
,,,-4.29E-06,0.014861875
,,,-4.28E-06,0.014969375
,,,-4.27E-06,0.014691875
,,,-4.26E-06,0.015170625
,,,-4.25E-06,0.014933125
,,,-4.24E-06,0.014926875
,,,-4.23E-06,0.014996875
,,,-4.22E-06,0.015085
,,,-4.21E-06,0.01450875
,,,-4.2E-06,0.014895625
,,,-4.19E-06,0.01468125
,,,-4.18E-06,0.01482
,,,-4.17E-06,0.014940625
,,,-4.16E-06,0.01504125
,,,-4.15E-06,0.0149125
,,,-4.14E-06,0.01489125
,,,-4.13E-06,0.015195
,,,-4.12E-06,0.014870625
,,,-4.11E-06,0.014705
,,,-4.1E-06,0.01486375
,,,-4.09E-06,0.01522875
,,,-4.08E-06,0.0150575
,,,-4.07E-06,0.015060625
,,,-4.06E-06,0.015013125
,,,-4.05E-06,0.014871875
,,,-4.04E-06,0.015018125
,,,-4.03E-06,0.01476625
,,,-4.02E-06,0.014815
,,,-4.01E-06,0.014848125
,,,-4E-06,0.0149225
,,,-3.99E-06,0.014873125
,,,-3.98E-06,0.01490375
,,,-3.97E-06,0.014700625
,,,-3.96E-06,0.015133125
,,,-3.95E-06,0.014759375
,,,-3.94E-06,0.014798125
,,,-3.93E-06,0.01494625
,,,-3.92E-06,0.014870625
,,,-3.91E-06,0.014996875
,,,-3.9E-06,0.015059375
,,,-3.89E-06,0.014730625
,,,-3.88E-06,0.015045625
,,,-3.87E-06,0.01476125
,,,-3.86E-06,0.014819375
,,,-3.85E-06,0.014674375
,,,-3.84E-06,0.014846875
,,,-3.83E-06,0.015140625
,,,-3.82E-06,0.015083125
,,,-3.81E-06,0.0149575
,,,-3.8E-06,0.01482375
,,,-3.79E-06,0.01488625
,,,-3.78E-06,0.014686875
,,,-3.77E-06,0.0151875
,,,-3.76E-06,0.015343125
,,,-3.75E-06,0.01517
,,,-3.74E-06,0.01483375
,,,-3.73E-06,0.0148625
,,,-3.72E-06,0.014763125
,,,-3.71E-06,0.014939375
,,,-3.7E-06,0.014955
,,,-3.69E-06,0.0148875
,,,-3.68E-06,0.015159375
,,,-3.67E-06,0.015060625
,,,-3.66E-06,0.015055
,,,-3.65E-06,0.014750625
,,,-3.64E-06,0.014736875
,,,-3.63E-06,0.0151525
,,,-3.62E-06,0.014945
,,,-3.61E-06,0.014806875
,,,-3.6E-06,0.01485625
,,,-3.59E-06,0.014924375
,,,-3.58E-06,0.014830625
,,,-3.57E-06,0.01507
,,,-3.56E-06,0.01513375
,,,-3.55E-06,0.014985625
,,,-3.54E-06,0.01483625
,,,-3.53E-06,0.014798125
,,,-3.52E-06,0.014766875
,,,-3.51E-06,0.0149375
,,,-3.5E-06,0.014889375
,,,-3.49E-06,0.015076875
,,,-3.48E-06,0.01504375
,,,-3.47E-06,0.014845625
,,,-3.46E-06,0.014871875
,,,-3.45E-06,0.015104375
,,,-3.44E-06,0.01477125
,,,-3.43E-06,0.014671875
,,,-3.42E-06,0.014940625
,,,-3.41E-06,0.0151175
,,,-3.4E-06,0.01503125
,,,-3.39E-06,0.01494375
,,,-3.38E-06,0.014780625
,,,-3.37E-06,0.014895
,,,-3.36E-06,0.014848125
,,,-3.35E-06,0.01494875
,,,-3.34E-06,0.014954375
,,,-3.33E-06,0.014829375
,,,-3.32E-06,0.014643125
,,,-3.31E-06,0.01494375
,,,-3.3E-06,0.015001875
,,,-3.29E-06,0.014900625
,,,-3.28E-06,0.01507375
,,,-3.27E-06,0.01472375
,,,-3.26E-06,0.0150275
,,,-3.25E-06,0.0151025
,,,-3.24E-06,0.01489875
,,,-3.23E-06,0.0148125
,,,-3.22E-06,0.014875
,,,-3.21E-06,0.014524375
,,,-3.2E-06,0.01478875
,,,-3.19E-06,0.014815625
,,,-3.18E-06,0.014874375
,,,-3.17E-06,0.0147775
,,,-3.16E-06,0.01472375
,,,-3.15E-06,0.01485
,,,-3.14E-06,0.014835625
,,,-3.13E-06,0.01492
,,,-3.12E-06,0.014888125
,,,-3.11E-06,0.014761875
,,,-3.1E-06,0.01505
,,,-3.09E-06,0.015203125
,,,-3.08E-06,0.01489125
,,,-3.07E-06,0.01475875
,,,-3.06E-06,0.014886875
,,,-3.05E-06,0.015134375
,,,-3.04E-06,0.01473125
,,,-3.03E-06,0.01492
,,,-3.02E-06,0.01471625
,,,-3.01E-06,0.01495625
,,,-3E-06,0.0147925
,,,-2.99E-06,0.01476
,,,-2.98E-06,0.014911875
,,,-2.97E-06,0.0149525
,,,-2.96E-06,0.014809375
,,,-2.95E-06,0.014955625
,,,-2.94E-06,0.01500125
,,,-2.93E-06,0.01490375
,,,-2.92E-06,0.01484875
,,,-2.91E-06,0.01480625
,,,-2.9E-06,0.014899375
,,,-2.89E-06,0.015018125
,,,-2.88E-06,0.01498875
,,,-2.87E-06,0.0148375
,,,-2.86E-06,0.0149
,,,-2.85E-06,0.014595
,,,-2.84E-06,0.014718125
,,,-2.83E-06,0.015049375
,,,-2.82E-06,0.014838125
,,,-2.81E-06,0.015205625
,,,-2.8E-06,0.0148375
,,,-2.79E-06,0.0147975
,,,-2.78E-06,0.01482
,,,-2.77E-06,0.015169375
,,,-2.76E-06,0.014685
,,,-2.75E-06,0.014783125
,,,-2.74E-06,0.015055625
,,,-2.73E-06,0.01495375
,,,-2.72E-06,0.01485375
,,,-2.71E-06,0.014691875
,,,-2.7E-06,0.0148075
,,,-2.69E-06,0.01502625
,,,-2.68E-06,0.014964375
,,,-2.67E-06,0.015021875
,,,-2.66E-06,0.0149075
,,,-2.65E-06,0.01480625
,,,-2.64E-06,0.01483375
,,,-2.63E-06,0.014691875
,,,-2.62E-06,0.01471
,,,-2.61E-06,0.01469375
,,,-2.6E-06,0.0149175
,,,-2.59E-06,0.014668125
,,,-2.58E-06,0.01514375
,,,-2.57E-06,0.014960625
,,,-2.56E-06,0.0151675
,,,-2.55E-06,0.014898125
,,,-2.54E-06,0.01480875
,,,-2.53E-06,0.014819375
,,,-2.52E-06,0.014959375
,,,-2.51E-06,0.014881875
,,,-2.5E-06,0.01469625
,,,-2.49E-06,0.014846875
,,,-2.48E-06,0.014995
,,,-2.47E-06,0.014823125
,,,-2.46E-06,0.0150325
,,,-2.45E-06,0.0150475
,,,-2.44E-06,0.014755
,,,-2.43E-06,0.0149375
,,,-2.42E-06,0.014825625
,,,-2.41E-06,0.0152
,,,-2.4E-06,0.014796875
,,,-2.39E-06,0.0148625
,,,-2.38E-06,0.01445375
,,,-2.37E-06,0.014589375
,,,-2.36E-06,0.01491875
,,,-2.35E-06,0.014881875
,,,-2.34E-06,0.014844375
,,,-2.33E-06,0.0147375
,,,-2.32E-06,0.014800625
,,,-2.31E-06,0.014794375
,,,-2.3E-06,0.014661875
,,,-2.29E-06,0.014828125
,,,-2.28E-06,0.014981875
,,,-2.27E-06,0.014899375
,,,-2.26E-06,0.014841875
,,,-2.25E-06,0.014703125
,,,-2.24E-06,0.014746875
,,,-2.23E-06,0.01488625
,,,-2.22E-06,0.014860625
,,,-2.21E-06,0.014850625
,,,-2.2E-06,0.01505
,,,-2.19E-06,0.01498125
,,,-2.18E-06,0.014951875
,,,-2.17E-06,0.015159375
,,,-2.16E-06,0.01498625
,,,-2.15E-06,0.01466125
,,,-2.14E-06,0.0151775
,,,-2.13E-06,0.014889375
,,,-2.12E-06,0.014751875
,,,-2.11E-06,0.01479125
,,,-2.1E-06,0.014745625
,,,-2.09E-06,0.015238125
,,,-2.08E-06,0.01483875
,,,-2.07E-06,0.01485625
,,,-2.06E-06,0.014833125
,,,-2.05E-06,0.01469625
,,,-2.04E-06,0.01481625
,,,-2.03E-06,0.01503625
,,,-2.02E-06,0.015084375
,,,-2.01E-06,0.01504625
,,,-2E-06,0.0150125
,,,-1.99E-06,0.014786875
,,,-1.98E-06,0.015093125
,,,-1.97E-06,0.01488
,,,-1.96E-06,0.01485375
,,,-1.95E-06,0.015005625
,,,-1.94E-06,0.014728125
,,,-1.93E-06,0.01506125
,,,-1.92E-06,0.015246875
,,,-1.91E-06,0.014874375
,,,-1.9E-06,0.014913125
,,,-1.89E-06,0.014971875
,,,-1.88E-06,0.0151075
,,,-1.87E-06,0.014684375
,,,-1.86E-06,0.014936875
,,,-1.85E-06,0.014831875
,,,-1.84E-06,0.015023125
,,,-1.83E-06,0.01467625
,,,-1.82E-06,0.01494
,,,-1.81E-06,0.014928125
,,,-1.8E-06,0.0148925
,,,-1.79E-06,0.01519
,,,-1.78E-06,0.014693125
,,,-1.77E-06,0.0148075
,,,-1.76E-06,0.014759375
,,,-1.75E-06,0.014918125
,,,-1.74E-06,0.015005
,,,-1.73E-06,0.01496875
,,,-1.72E-06,0.014771875
,,,-1.71E-06,0.014811875
,,,-1.7E-06,0.014785
,,,-1.69E-06,0.01491125
,,,-1.68E-06,0.014938125
,,,-1.67E-06,0.015025
,,,-1.66E-06,0.014656875
,,,-1.65E-06,0.0148425
,,,-1.64E-06,0.014984375
,,,-1.63E-06,0.01480625
,,,-1.62E-06,0.01484625
,,,-1.61E-06,0.014691875
,,,-1.6E-06,0.01501625
,,,-1.59E-06,0.01507
,,,-1.58E-06,0.014789375
,,,-1.57E-06,0.01476125
,,,-1.56E-06,0.014779375
,,,-1.55E-06,0.014808125
,,,-1.54E-06,0.0147675
,,,-1.53E-06,0.014915625
,,,-1.52E-06,0.014699375
,,,-1.51E-06,0.014808125
,,,-1.5E-06,0.014921875
,,,-1.49E-06,0.014996875
,,,-1.48E-06,0.0150475
,,,-1.47E-06,0.01472
,,,-1.46E-06,0.01488125
,,,-1.45E-06,0.015096875
,,,-1.44E-06,0.015019375
,,,-1.43E-06,0.01492875
,,,-1.42E-06,0.01498875
,,,-1.41E-06,0.01506125
,,,-1.4E-06,0.014908125
,,,-1.39E-06,0.01477625
,,,-1.38E-06,0.01498625
,,,-1.37E-06,0.01487625
,,,-1.36E-06,0.014945625
,,,-1.35E-06,0.0149775
,,,-1.34E-06,0.01492375
,,,-1.33E-06,0.014845
,,,-1.32E-06,0.014738125
,,,-1.31E-06,0.01470625
,,,-1.3E-06,0.014838125
,,,-1.29E-06,0.014979375
,,,-1.28E-06,0.01477625
,,,-1.27E-06,0.014796875
,,,-1.26E-06,0.014949375
,,,-1.25E-06,0.0149275
,,,-1.24E-06,0.014875
,,,-1.23E-06,0.01492
,,,-1.22E-06,0.014943125
,,,-1.21E-06,0.01494125
,,,-1.2E-06,0.01492
,,,-1.19E-06,0.01486
,,,-1.18E-06,0.014953125
,,,-1.17E-06,0.0148675
,,,-1.16E-06,0.014868125
,,,-1.15E-06,0.0147825
,,,-1.14E-06,0.01467125
,,,-1.13E-06,0.014923125
,,,-1.12E-06,0.014628125
,,,-1.11E-06,0.0148675
,,,-1.1E-06,0.015093125
,,,-1.09E-06,0.014975625
,,,-1.08E-06,0.015073125
,,,-1.07E-06,0.014765625
,,,-1.06E-06,0.0151575
,,,-1.05E-06,0.01493125
,,,-1.04E-06,0.01486
,,,-1.03E-06,0.014856875
,,,-1.02E-06,0.014968125
,,,-1.01E-06,0.014838125
,,,-1E-06,0.01481625
,,,-9.9E-07,0.014883125
,,,-9.8E-07,0.014874375
,,,-9.7E-07,0.014780625
,,,-9.6E-07,0.014916875
,,,-9.5E-07,0.014830625
,,,-9.4E-07,0.01463
,,,-9.3E-07,0.014825
,,,-9.2E-07,0.0149925
,,,-9.1E-07,0.014944375
,,,-9E-07,0.014760625
,,,-8.9E-07,0.01495
,,,-8.8E-07,0.014839375
,,,-8.7E-07,0.01510125
,,,-8.6E-07,0.01492125
,,,-8.5E-07,0.014635625
,,,-8.4E-07,0.014754375
,,,-8.3E-07,0.014878125
,,,-8.2E-07,0.015006875
,,,-8.1E-07,0.01488875
,,,-8E-07,0.014775
,,,-7.9E-07,0.0148375
,,,-7.8E-07,0.01483125
,,,-7.7E-07,0.0150125
,,,-7.6E-07,0.014839375
,,,-7.5E-07,0.014773125
,,,-7.4E-07,0.014944375
,,,-7.3E-07,0.0149425
,,,-7.2E-07,0.014495625
,,,-7.1E-07,0.01463125
,,,-7E-07,0.01478375
,,,-6.9E-07,0.015075
,,,-6.8E-07,0.0148875
,,,-6.7E-07,0.014804375
,,,-6.6E-07,0.014955
,,,-6.5E-07,0.014890625
,,,-6.4E-07,0.01499875
,,,-6.3E-07,0.01488875
,,,-6.2E-07,0.01488875
,,,-6.1E-07,0.0148225
,,,-6E-07,0.014890625
,,,-5.9E-07,0.014915625
,,,-5.8E-07,0.014840625
,,,-5.7E-07,0.0149725
,,,-5.6E-07,0.01467625
,,,-5.5E-07,0.014895625
,,,-5.4E-07,0.01497
,,,-5.3E-07,0.014794375
,,,-5.2E-07,0.014795
,,,-5.1E-07,0.01499625
,,,-5E-07,0.01484625
,,,-4.9E-07,0.014839375
,,,-4.8E-07,0.014893125
,,,-4.7E-07,0.01496125
,,,-4.6E-07,0.014730625
,,,-4.5E-07,0.0147525
,,,-4.4E-07,0.01507
,,,-4.3E-07,0.01494125
,,,-4.2E-07,0.014854375
,,,-4.1E-07,0.014710625
,,,-4E-07,0.014740625
,,,-3.9E-07,0.014895625
,,,-3.8E-07,0.01498125
,,,-3.7E-07,0.015125625
,,,-3.6E-07,0.0152575
,,,-3.5E-07,0.0149175
,,,-3.4E-07,0.014724375
,,,-3.3E-07,0.015094375
,,,-3.2E-07,0.01473
,,,-3.1E-07,0.0149225
,,,-3E-07,0.01485
,,,-2.9E-07,0.01518125
,,,-2.8E-07,0.014751875
,,,-2.7E-07,0.014949375
,,,-2.6E-07,0.01499625
,,,-2.5E-07,0.014996875
,,,-2.4E-07,0.014610625
,,,-2.3E-07,0.015019375
,,,-2.2E-07,0.014761875
,,,-2.1E-07,0.014901875
,,,-2E-07,0.014741875
,,,-1.9E-07,0.014936875
,,,-1.8E-07,0.014878125
,,,-1.7E-07,0.01484125
,,,-1.6E-07,0.014808125
,,,-1.5E-07,0.01484125
,,,-1.4E-07,0.01485875
,,,-1.3E-07,0.014805625
,,,-1.2E-07,0.014815
,,,-1.1E-07,0.014704375
,,,-1E-07,0.015183125
,,,-9E-08,0.0149675
,,,-8E-08,0.014833125
,,,-7E-08,0.01477625
,,,-6E-08,0.01465375
,,,-5E-08,0.0150425
,,,-4E-08,0.0156825
,,,-3E-08,0.016840625
,,,-2E-08,0.013115625
,,,-1E-08,0.010991875
,,,0,0.011748125
,,,1E-08,0.01767875
,,,2E-08,0.019723125
,,,3E-08,0.018660625
,,,4E-08,0.01427
,,,5E-08,0.012083125
,,,6E-08,0.011438125
,,,7E-08,0.0134475
,,,8E-08,0.0156825
,,,9E-08,0.01745375
,,,1E-07,0.017076875
,,,1.1E-07,0.015788125
,,,1.2E-07,0.0139075
,,,1.3E-07,0.013144375
,,,1.4E-07,0.0139475
,,,1.5E-07,0.015090625
,,,1.6E-07,0.015708125
,,,1.7E-07,0.015420625
,,,1.8E-07,0.01510625
,,,1.9E-07,0.0150075
,,,2E-07,0.014930625
,,,2.1E-07,0.0147875
,,,2.2E-07,0.014599375
,,,2.3E-07,0.014925
,,,2.4E-07,0.01517
,,,2.5E-07,0.01499
,,,2.6E-07,0.01481125
,,,2.7E-07,0.014726875
,,,2.8E-07,0.01485875
,,,2.9E-07,0.015060625
,,,3E-07,0.0147775
,,,3.1E-07,0.014681875
,,,3.2E-07,0.01491375
,,,3.3E-07,0.0150425
,,,3.4E-07,0.01480625
,,,3.5E-07,0.01488125
,,,3.6E-07,0.01484875
,,,3.7E-07,0.014706875
,,,3.8E-07,0.0152575
,,,3.9E-07,0.014936875
,,,4E-07,0.014965625
,,,4.1E-07,0.01498375
,,,4.2E-07,0.014920625
,,,4.3E-07,0.015035
,,,4.4E-07,0.01483
,,,4.5E-07,0.01479625
,,,4.6E-07,0.014741875
,,,4.7E-07,0.01485375
,,,4.8E-07,0.014940625
,,,4.9E-07,0.01488625
,,,5E-07,0.014739375
,,,5.1E-07,0.015115625
,,,5.2E-07,0.0150025
,,,5.3E-07,0.0148675
,,,5.4E-07,0.0148375
,,,5.5E-07,0.0148
,,,5.6E-07,0.014954375
,,,5.7E-07,0.01464375
,,,5.8E-07,0.0148425
,,,5.9E-07,0.01498375
,,,6E-07,0.01506125
,,,6.1E-07,0.014883125
,,,6.2E-07,0.01495125
,,,6.3E-07,0.014820625
,,,6.4E-07,0.014964375
,,,6.5E-07,0.014836875
,,,6.6E-07,0.014825625
,,,6.7E-07,0.0150475
,,,6.8E-07,0.01505375
,,,6.9E-07,0.014918125
,,,7E-07,0.01461625
,,,7.1E-07,0.0148925
,,,7.2E-07,0.015051875
,,,7.3E-07,0.015118125
,,,7.4E-07,0.01479875
,,,7.5E-07,0.01487
,,,7.6E-07,0.01494875
,,,7.7E-07,0.014981875
,,,7.8E-07,0.01456375
,,,7.9E-07,0.014993125
,,,8E-07,0.014791875
,,,8.1E-07,0.014785625
,,,8.2E-07,0.014833125
,,,8.3E-07,0.014919375
,,,8.4E-07,0.014841875
,,,8.5E-07,0.014769375
,,,8.6E-07,0.01464625
,,,8.7E-07,0.01496125
,,,8.8E-07,0.01502
,,,8.9E-07,0.015038125
,,,9E-07,0.014876875
,,,9.1E-07,0.015101875
,,,9.2E-07,0.014721875
,,,9.3E-07,0.014965
,,,9.4E-07,0.01481875
,,,9.5E-07,0.014704375
,,,9.6E-07,0.014881875
,,,9.7E-07,0.0150025
,,,9.8E-07,0.014960625
,,,9.9E-07,0.01488875
,,,1E-06,0.01506875
,,,1.01E-06,0.01486125
,,,1.02E-06,0.0149975
,,,1.03E-06,0.014893125
,,,1.04E-06,0.0148225
,,,1.05E-06,0.01477
,,,1.06E-06,0.015094375
,,,1.07E-06,0.014869375
,,,1.08E-06,0.014964375
,,,1.09E-06,0.014859375
,,,1.1E-06,0.014949375
,,,1.11E-06,0.014959375
,,,1.12E-06,0.015105
,,,1.13E-06,0.014905
,,,1.14E-06,0.014750625
,,,1.15E-06,0.0148075
,,,1.16E-06,0.01482
,,,1.17E-06,0.01485625
,,,1.18E-06,0.01489125
,,,1.19E-06,0.01474625
,,,1.2E-06,0.014863125
,,,1.21E-06,0.014911875
,,,1.22E-06,0.015188125
,,,1.23E-06,0.01495
,,,1.24E-06,0.0149375
,,,1.25E-06,0.015116875
,,,1.26E-06,0.014858125
,,,1.27E-06,0.014641875
,,,1.28E-06,0.014806875
,,,1.29E-06,0.0148275
,,,1.3E-06,0.014491875
,,,1.31E-06,0.014915625
,,,1.32E-06,0.01484
,,,1.33E-06,0.014828125
,,,1.34E-06,0.015118125
,,,1.35E-06,0.014838125
,,,1.36E-06,0.0148575
,,,1.37E-06,0.01462125
,,,1.38E-06,0.014981875
,,,1.39E-06,0.01488375
,,,1.4E-06,0.015014375
,,,1.41E-06,0.0148525
,,,1.42E-06,0.0146625
,,,1.43E-06,0.0146675
,,,1.44E-06,0.0148
,,,1.45E-06,0.015080625
,,,1.46E-06,0.014961875
,,,1.47E-06,0.014759375
,,,1.48E-06,0.015118125
,,,1.49E-06,0.015039375
,,,1.5E-06,0.014953125
,,,1.51E-06,0.014865625
,,,1.52E-06,0.01478625
,,,1.53E-06,0.014894375
,,,1.54E-06,0.01497
,,,1.55E-06,0.014785
,,,1.56E-06,0.015139375
,,,1.57E-06,0.015065625
,,,1.58E-06,0.014895625
,,,1.59E-06,0.01480375
,,,1.6E-06,0.0150575
,,,1.61E-06,0.0149125
,,,1.62E-06,0.01497125
,,,1.63E-06,0.015078125
,,,1.64E-06,0.01441375
,,,1.65E-06,0.01515625
,,,1.66E-06,0.014966875
,,,1.67E-06,0.014910625
,,,1.68E-06,0.014690625
,,,1.69E-06,0.01495375
,,,1.7E-06,0.014871875
,,,1.71E-06,0.01463125
,,,1.72E-06,0.01463375
,,,1.73E-06,0.014896875
,,,1.74E-06,0.01497125
,,,1.75E-06,0.014711875
,,,1.76E-06,0.01460875
,,,1.77E-06,0.0148775
,,,1.78E-06,0.014965625
,,,1.79E-06,0.014845
,,,1.8E-06,0.01455
,,,1.81E-06,0.01486625
,,,1.82E-06,0.0147975
,,,1.83E-06,0.014946875
,,,1.84E-06,0.01487375
,,,1.85E-06,0.01486
,,,1.86E-06,0.014878125
,,,1.87E-06,0.01495125
,,,1.88E-06,0.0153075
,,,1.89E-06,0.01487125
,,,1.9E-06,0.014906875
,,,1.91E-06,0.01484125
,,,1.92E-06,0.015013125
,,,1.93E-06,0.014803125
,,,1.94E-06,0.0149975
,,,1.95E-06,0.01463625
,,,1.96E-06,0.015055625
,,,1.97E-06,0.0146475
,,,1.98E-06,0.014735625
,,,1.99E-06,0.014816875
,,,2E-06,0.014990625
,,,2.01E-06,0.01492625
,,,2.02E-06,0.014778125
,,,2.03E-06,0.01482
,,,2.04E-06,0.014910625
,,,2.05E-06,0.015036875
,,,2.06E-06,0.014904375
,,,2.07E-06,0.015060625
,,,2.08E-06,0.014734375
,,,2.09E-06,0.014569375
,,,2.1E-06,0.01478
,,,2.11E-06,0.014974375
,,,2.12E-06,0.014831875
,,,2.13E-06,0.014838125
,,,2.14E-06,0.0145525
,,,2.15E-06,0.014968125
,,,2.16E-06,0.01495125
,,,2.17E-06,0.01497375
,,,2.18E-06,0.01459125
,,,2.19E-06,0.015095625
,,,2.2E-06,0.014785625
,,,2.21E-06,0.014556875
,,,2.22E-06,0.015133125
,,,2.23E-06,0.0151475
,,,2.24E-06,0.0149475
,,,2.25E-06,0.014824375
,,,2.26E-06,0.014940625
,,,2.27E-06,0.014801875
,,,2.28E-06,0.015045625
,,,2.29E-06,0.0149075
,,,2.3E-06,0.01489875
,,,2.31E-06,0.01489625
,,,2.32E-06,0.0151625
,,,2.33E-06,0.014981875
,,,2.34E-06,0.01494375
,,,2.35E-06,0.014824375
,,,2.36E-06,0.014979375
,,,2.37E-06,0.01492
,,,2.38E-06,0.014926875
,,,2.39E-06,0.01490625
,,,2.4E-06,0.01474625
,,,2.41E-06,0.014939375
,,,2.42E-06,0.01490625
,,,2.43E-06,0.014829375
,,,2.44E-06,0.0151675
,,,2.45E-06,0.01484375
,,,2.46E-06,0.015186875
,,,2.47E-06,0.01496625
,,,2.48E-06,0.014850625
,,,2.49E-06,0.0149075
,,,2.5E-06,0.014995
,,,2.51E-06,0.014995625
,,,2.52E-06,0.014670625
,,,2.53E-06,0.014843125
,,,2.54E-06,0.015043125
,,,2.55E-06,0.014833125
,,,2.56E-06,0.014958125
,,,2.57E-06,0.015098125
,,,2.58E-06,0.0151875
,,,2.59E-06,0.01480875
,,,2.6E-06,0.014781875
,,,2.61E-06,0.014789375
,,,2.62E-06,0.01477625
,,,2.63E-06,0.0148875
,,,2.64E-06,0.01506
,,,2.65E-06,0.015010625
,,,2.66E-06,0.01483875
,,,2.67E-06,0.014773125
,,,2.68E-06,0.0146775
,,,2.69E-06,0.014986875
,,,2.7E-06,0.015105
,,,2.71E-06,0.014865
,,,2.72E-06,0.014771875
,,,2.73E-06,0.015009375
,,,2.74E-06,0.015109375
,,,2.75E-06,0.01497125
,,,2.76E-06,0.015106875
,,,2.77E-06,0.014751875
,,,2.78E-06,0.014718125
,,,2.79E-06,0.014865
,,,2.8E-06,0.014806875
,,,2.81E-06,0.014796875
,,,2.82E-06,0.014914375
,,,2.83E-06,0.0148425
,,,2.84E-06,0.014819375
,,,2.85E-06,0.01463625
,,,2.86E-06,0.014945
,,,2.87E-06,0.0146475
,,,2.88E-06,0.0150975
,,,2.89E-06,0.0149175
,,,2.9E-06,0.01458125
,,,2.91E-06,0.014898125
,,,2.92E-06,0.01499125
,,,2.93E-06,0.01472875
,,,2.94E-06,0.01492625
,,,2.95E-06,0.01506875
,,,2.96E-06,0.014534375
,,,2.97E-06,0.01487375
,,,2.98E-06,0.014873125
,,,2.99E-06,0.014840625
,,,3E-06,0.0148625
,,,3.01E-06,0.0150275
,,,3.02E-06,0.0150975
,,,3.03E-06,0.014810625
,,,3.04E-06,0.014971875
,,,3.05E-06,0.014755
,,,3.06E-06,0.0148
,,,3.07E-06,0.01483875
,,,3.08E-06,0.01485375
,,,3.09E-06,0.01468125
,,,3.1E-06,0.01496
,,,3.11E-06,0.014854375
,,,3.12E-06,0.0148575
,,,3.13E-06,0.01490625
,,,3.14E-06,0.014934375
,,,3.15E-06,0.01482125
,,,3.16E-06,0.01514875
,,,3.17E-06,0.014731875
,,,3.18E-06,0.014834375
,,,3.19E-06,0.014850625
,,,3.2E-06,0.01493625
,,,3.21E-06,0.014709375
,,,3.22E-06,0.015094375
,,,3.23E-06,0.01501
,,,3.24E-06,0.015091875
,,,3.25E-06,0.01475375
,,,3.26E-06,0.01470875
,,,3.27E-06,0.014865625
,,,3.28E-06,0.014968125
,,,3.29E-06,0.014915
,,,3.3E-06,0.015249375
,,,3.31E-06,0.014886875
,,,3.32E-06,0.015076875
,,,3.33E-06,0.014931875
,,,3.34E-06,0.014885625
,,,3.35E-06,0.01496875
,,,3.36E-06,0.01471625
,,,3.37E-06,0.014581875
,,,3.38E-06,0.01505375
,,,3.39E-06,0.014838125
,,,3.4E-06,0.01493
,,,3.41E-06,0.0149275
,,,3.42E-06,0.01491375
,,,3.43E-06,0.014973125
,,,3.44E-06,0.0149775
,,,3.45E-06,0.014909375
,,,3.46E-06,0.014879375
,,,3.47E-06,0.015023125
,,,3.48E-06,0.01499625
,,,3.49E-06,0.0149575
,,,3.5E-06,0.01489875
,,,3.51E-06,0.014816875
,,,3.52E-06,0.01473875
,,,3.53E-06,0.015123125
,,,3.54E-06,0.0149425
