data/raw/Final_POL_Test_1/SOP004_Ch2.csv

"Record Length",1000,"Points",-5E-06,0.020704375
"Sample Interval",1E-08,s,-4.99E-06,0.02056625
"Trigger Point",500,"Samples",-4.98E-06,0.02054375
"Trigger Time",0,s,-4.97E-06,0.020566875
"",,,-4.96E-06,0.02060125
"Horizontal Offset",-5E-06,s,-4.95E-06,0.0203925
,,,-4.94E-06,0.0206125
,,,-4.93E-06,0.020580625
,,,-4.92E-06,0.020548125
,,,-4.91E-06,0.020420625
,,,-4.9E-06,0.0205475
,,,-4.89E-06,0.020401875
,,,-4.88E-06,0.020409375
,,,-4.87E-06,0.02051
,,,-4.86E-06,0.020518125
,,,-4.85E-06,0.02062875
,,,-4.84E-06,0.02053375
,,,-4.83E-06,0.020428125
,,,-4.82E-06,0.02076
,,,-4.81E-06,0.0205275
,,,-4.8E-06,0.020546875
,,,-4.79E-06,0.02064875
,,,-4.78E-06,0.02051375
,,,-4.77E-06,0.0203775
,,,-4.76E-06,0.0204025
,,,-4.75E-06,0.02040125
,,,-4.74E-06,0.020511875
,,,-4.73E-06,0.020505
,,,-4.72E-06,0.0205575
,,,-4.71E-06,0.0205425
,,,-4.7E-06,0.020315
,,,-4.69E-06,0.020405625
,,,-4.68E-06,0.02067125
,,,-4.67E-06,0.020550625
,,,-4.66E-06,0.02049875
,,,-4.65E-06,0.0204075
,,,-4.64E-06,0.0205875
,,,-4.63E-06,0.02061875
,,,-4.62E-06,0.020565625
,,,-4.61E-06,0.0204925
,,,-4.6E-06,0.02044
,,,-4.59E-06,0.020535
,,,-4.58E-06,0.020750625
,,,-4.57E-06,0.0205575
,,,-4.56E-06,0.02036
,,,-4.55E-06,0.020303125
,,,-4.54E-06,0.0204375
,,,-4.53E-06,0.0205525
,,,-4.52E-06,0.020421875
,,,-4.51E-06,0.02061
,,,-4.5E-06,0.0206
,,,-4.49E-06,0.020605
,,,-4.48E-06,0.020508125
,,,-4.47E-06,0.020543125
,,,-4.46E-06,0.02046375
,,,-4.45E-06,0.02050875
,,,-4.44E-06,0.020611875
,,,-4.43E-06,0.020588125
,,,-4.42E-06,0.0205025
,,,-4.41E-06,0.020259375
,,,-4.4E-06,0.020394375
,,,-4.39E-06,0.020455
,,,-4.38E-06,0.02060625
,,,-4.37E-06,0.02031125
,,,-4.36E-06,0.020416875
,,,-4.35E-06,0.02060125
,,,-4.34E-06,0.020716875
,,,-4.33E-06,0.020421875
,,,-4.32E-06,0.020360625
,,,-4.31E-06,0.0203725
,,,-4.3E-06,0.02073875
,,,-4.29E-06,0.020531875
,,,-4.28E-06,0.020606875
,,,-4.27E-06,0.020325625
,,,-4.26E-06,0.020558125
,,,-4.25E-06,0.020583125
,,,-4.24E-06,0.020683125
,,,-4.23E-06,0.02053625
,,,-4.22E-06,0.020359375
,,,-4.21E-06,0.020401875
,,,-4.2E-06,0.02037625
,,,-4.19E-06,0.020443125
,,,-4.18E-06,0.020545625
,,,-4.17E-06,0.020408125
,,,-4.16E-06,0.02081625
,,,-4.15E-06,0.02072375
,,,-4.14E-06,0.020808125
,,,-4.13E-06,0.020440625
,,,-4.12E-06,0.02032625
,,,-4.11E-06,0.0203875
,,,-4.1E-06,0.020558125
,,,-4.09E-06,0.020711875
,,,-4.08E-06,0.020559375
,,,-4.07E-06,0.02073375
,,,-4.06E-06,0.02053125
,,,-4.05E-06,0.02023375
,,,-4.04E-06,0.020464375
,,,-4.03E-06,0.02045125
,,,-4.02E-06,0.0204825
,,,-4.01E-06,0.020369375
,,,-4E-06,0.020485625
,,,-3.99E-06,0.020565
,,,-3.98E-06,0.0203625
,,,-3.97E-06,0.020515625
,,,-3.96E-06,0.020739375
,,,-3.95E-06,0.020711875
,,,-3.94E-06,0.020493125
,,,-3.93E-06,0.02058125
,,,-3.92E-06,0.02040875
,,,-3.91E-06,0.020565
,,,-3.9E-06,0.0204425
,,,-3.89E-06,0.02064875
,,,-3.88E-06,0.020636875
,,,-3.87E-06,0.0208
,,,-3.86E-06,0.020515625
,,,-3.85E-06,0.020431875
,,,-3.84E-06,0.020368125
,,,-3.83E-06,0.020485
,,,-3.82E-06,0.0202925
,,,-3.81E-06,0.020435625
,,,-3.8E-06,0.020428125
,,,-3.79E-06,0.02057375
,,,-3.78E-06,0.020468125
,,,-3.77E-06,0.02045125
,,,-3.76E-06,0.020441875
,,,-3.75E-06,0.020741875
,,,-3.74E-06,0.020563125
,,,-3.73E-06,0.020570625
,,,-3.72E-06,0.02064
,,,-3.71E-06,0.02047625
,,,-3.7E-06,0.020555625
,,,-3.69E-06,0.020531875
,,,-3.68E-06,0.020265625
,,,-3.67E-06,0.02038125
,,,-3.66E-06,0.02053125
,,,-3.65E-06,0.0205625
,,,-3.64E-06,0.020613125
,,,-3.63E-06,0.020401875
,,,-3.62E-06,0.020451875
,,,-3.61E-06,0.020588125
,,,-3.6E-06,0.0206
,,,-3.59E-06,0.020693125
,,,-3.58E-06,0.02043125
,,,-3.57E-06,0.0205825
,,,-3.56E-06,0.0203125
,,,-3.55E-06,0.020615
,,,-3.54E-06,0.0206175
,,,-3.53E-06,0.020493125
,,,-3.52E-06,0.020555625
,,,-3.51E-06,0.02069125
,,,-3.5E-06,0.020528125
,,,-3.49E-06,0.020505
,,,-3.48E-06,0.0205625
,,,-3.47E-06,0.020659375
,,,-3.46E-06,0.0205625
,,,-3.45E-06,0.02036875
,,,-3.44E-06,0.02030125
,,,-3.43E-06,0.0204475
,,,-3.42E-06,0.020483125
,,,-3.41E-06,0.02062125
,,,-3.4E-06,0.020340625
,,,-3.39E-06,0.0205675
,,,-3.38E-06,0.02061125
,,,-3.37E-06,0.020583125
,,,-3.36E-06,0.02039875
,,,-3.35E-06,0.0205175
,,,-3.34E-06,0.020530625
,,,-3.33E-06,0.020585625
,,,-3.32E-06,0.020511875
,,,-3.31E-06,0.02032125
,,,-3.3E-06,0.02055125
,,,-3.29E-06,0.02034625
,,,-3.28E-06,0.02049125
,,,-3.27E-06,0.020575625
,,,-3.26E-06,0.020449375
,,,-3.25E-06,0.020541875
,,,-3.24E-06,0.02042375
,,,-3.23E-06,0.020595625
,,,-3.22E-06,0.020699375
,,,-3.21E-06,0.02051625
,,,-3.2E-06,0.02052625
,,,-3.19E-06,0.020464375
,,,-3.18E-06,0.02059125
,,,-3.17E-06,0.020416875
,,,-3.16E-06,0.020666875
,,,-3.15E-06,0.020435
,,,-3.14E-06,0.02047125
,,,-3.13E-06,0.0208225
,,,-3.12E-06,0.020505
,,,-3.11E-06,0.02072375
,,,-3.1E-06,0.020625625
,,,-3.09E-06,0.020361875
,,,-3.08E-06,0.02067125
,,,-3.07E-06,0.020520625
,,,-3.06E-06,0.02053
,,,-3.05E-06,0.0206425
,,,-3.04E-06,0.020454375
,,,-3.03E-06,0.020635
,,,-3.02E-06,0.020360625
,,,-3.01E-06,0.020489375
,,,-3E-06,0.02080875
,,,-2.99E-06,0.020565625
,,,-2.98E-06,0.020596875
,,,-2.97E-06,0.020533125
,,,-2.96E-06,0.020566875
,,,-2.95E-06,0.0204075
,,,-2.94E-06,0.020266875
,,,-2.93E-06,0.020465
,,,-2.92E-06,0.0206375
,,,-2.91E-06,0.02012625
,,,-2.9E-06,0.020490625
,,,-2.89E-06,0.020480625
,,,-2.88E-06,0.020296875
,,,-2.87E-06,0.0203175
,,,-2.86E-06,0.0207575
,,,-2.85E-06,0.02031125
,,,-2.84E-06,0.020583125
,,,-2.83E-06,0.020400625
,,,-2.82E-06,0.02074625
,,,-2.81E-06,0.02036625
,,,-2.8E-06,0.02047875
,,,-2.79E-06,0.020509375
,,,-2.78E-06,0.020614375
,,,-2.77E-06,0.0204225
,,,-2.76E-06,0.020418125
,,,-2.75E-06,0.020343125
,,,-2.74E-06,0.020506875
,,,-2.73E-06,0.02055625
,,,-2.72E-06,0.0207675
,,,-2.71E-06,0.02046625
,,,-2.7E-06,0.02056
,,,-2.69E-06,0.02053125
,,,-2.68E-06,0.02061
,,,-2.67E-06,0.020506875
,,,-2.66E-06,0.0203425
,,,-2.65E-06,0.02061125
,,,-2.64E-06,0.02059875
,,,-2.63E-06,0.020225625
,,,-2.62E-06,0.02061875
,,,-2.61E-06,0.020631875
,,,-2.6E-06,0.02065625
,,,-2.59E-06,0.02040375
,,,-2.58E-06,0.020394375
,,,-2.57E-06,0.020573125
,,,-2.56E-06,0.020178125
,,,-2.55E-06,0.020770625
,,,-2.54E-06,0.020748125
,,,-2.53E-06,0.0207525
,,,-2.52E-06,0.02035625
,,,-2.51E-06,0.020379375
,,,-2.5E-06,0.0205775
,,,-2.49E-06,0.020390625
,,,-2.48E-06,0.0208
,,,-2.47E-06,0.02063
,,,-2.46E-06,0.020438125
,,,-2.45E-06,0.02080375
,,,-2.44E-06,0.02052125
,,,-2.43E-06,0.02061375
,,,-2.42E-06,0.0204775
,,,-2.41E-06,0.020365
,,,-2.4E-06,0.02041625
,,,-2.39E-06,0.020421875
,,,-2.38E-06,0.0203875
,,,-2.37E-06,0.020190625
,,,-2.36E-06,0.0203925
,,,-2.35E-06,0.02045875
,,,-2.34E-06,0.020698125
,,,-2.33E-06,0.02056375
,,,-2.32E-06,0.020446875
,,,-2.31E-06,0.0204575
,,,-2.3E-06,0.02062125
,,,-2.29E-06,0.02077625
,,,-2.28E-06,0.020508125
,,,-2.27E-06,0.020559375
,,,-2.26E-06,0.020650625
,,,-2.25E-06,0.020459375
,,,-2.24E-06,0.020381875
,,,-2.23E-06,0.020391875
,,,-2.22E-06,0.020399375
,,,-2.21E-06,0.020675625
,,,-2.2E-06,0.020723125
,,,-2.19E-06,0.02039375
,,,-2.18E-06,0.02087375
,,,-2.17E-06,0.02053375
,,,-2.16E-06,0.020678125
,,,-2.15E-06,0.0203
,,,-2.14E-06,0.020454375
,,,-2.13E-06,0.020511875
,,,-2.12E-06,0.020398125
,,,-2.11E-06,0.02037625
,,,-2.1E-06,0.020538125
,,,-2.09E-06,0.02054125
,,,-2.08E-06,0.0206225
,,,-2.07E-06,0.02029875
,,,-2.06E-06,0.020349375
,,,-2.05E-06,0.0205325
,,,-2.04E-06,0.0206425
,,,-2.03E-06,0.0205275
,,,-2.02E-06,0.02050625
,,,-2.01E-06,0.02058125
,,,-2E-06,0.02069375
,,,-1.99E-06,0.020481875
,,,-1.98E-06,0.02038875
,,,-1.97E-06,0.02054375
,,,-1.96E-06,0.020375
,,,-1.95E-06,0.0204125
,,,-1.94E-06,0.020423125
,,,-1.93E-06,0.020675
,,,-1.92E-06,0.020513125
,,,-1.91E-06,0.020405
,,,-1.9E-06,0.02047625
,,,-1.89E-06,0.02051625
,,,-1.88E-06,0.02041375
,,,-1.87E-06,0.02037
,,,-1.86E-06,0.020500625
,,,-1.85E-06,0.020831875
,,,-1.84E-06,0.020698125
,,,-1.83E-06,0.02063375
,,,-1.82E-06,0.02053125
,,,-1.81E-06,0.020415625
,,,-1.8E-06,0.02063
,,,-1.79E-06,0.0204575
,,,-1.78E-06,0.02051
,,,-1.77E-06,0.020510625
,,,-1.76E-06,0.020561875
,,,-1.75E-06,0.02071375
,,,-1.74E-06,0.020434375
,,,-1.73E-06,0.020400625
,,,-1.72E-06,0.020579375
,,,-1.71E-06,0.02071125
,,,-1.7E-06,0.020499375
,,,-1.69E-06,0.02036375
,,,-1.68E-06,0.02035625
,,,-1.67E-06,0.0206725
,,,-1.66E-06,0.02045875
,,,-1.65E-06,0.020565
,,,-1.64E-06,0.02055375
,,,-1.63E-06,0.0208325
,,,-1.62E-06,0.0204025
,,,-1.61E-06,0.02053375
,,,-1.6E-06,0.0204275
,,,-1.59E-06,0.02043
,,,-1.58E-06,0.020520625
,,,-1.57E-06,0.020331875
,,,-1.56E-06,0.02045625
,,,-1.55E-06,0.020263125
,,,-1.54E-06,0.020550625
,,,-1.53E-06,0.0205325
,,,-1.52E-06,0.02066625
,,,-1.51E-06,0.02041875
,,,-1.5E-06,0.020448125
,,,-1.49E-06,0.020545625
,,,-1.48E-06,0.02038125
,,,-1.47E-06,0.02032375
,,,-1.46E-06,0.020461875
,,,-1.45E-06,0.020605
,,,-1.44E-06,0.0203775
,,,-1.43E-06,0.020481875
,,,-1.42E-06,0.020515625
,,,-1.41E-06,0.020659375
,,,-1.4E-06,0.020903125
,,,-1.39E-06,0.020243125
,,,-1.38E-06,0.02056
,,,-1.37E-06,0.020305
,,,-1.36E-06,0.020579375
,,,-1.35E-06,0.020586875
,,,-1.34E-06,0.02071125
,,,-1.33E-06,0.0205225
,,,-1.32E-06,0.020559375
,,,-1.31E-06,0.020350625
,,,-1.3E-06,0.020555
,,,-1.29E-06,0.0207
,,,-1.28E-06,0.020605625
,,,-1.27E-06,0.020378125
,,,-1.26E-06,0.02046125
,,,-1.25E-06,0.020206875
,,,-1.24E-06,0.02041
,,,-1.23E-06,0.020438125
,,,-1.22E-06,0.02034
,,,-1.21E-06,0.020360625
,,,-1.2E-06,0.02054
,,,-1.19E-06,0.020578125
,,,-1.18E-06,0.0206
,,,-1.17E-06,0.02065
,,,-1.16E-06,0.02037
,,,-1.15E-06,0.020494375
,,,-1.14E-06,0.0206225
,,,-1.13E-06,0.020505625
,,,-1.12E-06,0.0206125
,,,-1.11E-06,0.020386875
,,,-1.1E-06,0.020336875
,,,-1.09E-06,0.020509375
,,,-1.08E-06,0.020495
,,,-1.07E-06,0.020566875
,,,-1.06E-06,0.020444375
,,,-1.05E-06,0.02029375
,,,-1.04E-06,0.02063375
,,,-1.03E-06,0.02049875
,,,-1.02E-06,0.020569375
,,,-1.01E-06,0.02036625
,,,-1E-06,0.020550625
,,,-9.9E-07,0.020593125
,,,-9.8E-07,0.020343125
,,,-9.7E-07,0.020549375
,,,-9.6E-07,0.02042875
,,,-9.5E-07,0.02035125
,,,-9.4E-07,0.02059125
,,,-9.3E-07,0.020548125
,,,-9.2E-07,0.0204275
,,,-9.1E-07,0.020593125
,,,-9E-07,0.020389375
,,,-8.9E-07,0.0203975
,,,-8.8E-07,0.02085875
,,,-8.7E-07,0.02037375
,,,-8.6E-07,0.02070625
,,,-8.5E-07,0.020594375
,,,-8.4E-07,0.0204525
,,,-8.3E-07,0.020500625
,,,-8.2E-07,0.020646875
,,,-8.1E-07,0.020545
,,,-8E-07,0.020435
,,,-7.9E-07,0.020396875
,,,-7.8E-07,0.02039625
,,,-7.7E-07,0.020401875
,,,-7.6E-07,0.020441875
,,,-7.5E-07,0.020218125
,,,-7.4E-07,0.020448125
,,,-7.3E-07,0.0204925
,,,-7.2E-07,0.02058375
,,,-7.1E-07,0.020551875
,,,-7E-07,0.020568125
,,,-6.9E-07,0.02063
,,,-6.8E-07,0.02049
,,,-6.7E-07,0.0204325
,,,-6.6E-07,0.02032625
,,,-6.5E-07,0.02055625
,,,-6.4E-07,0.020380625
,,,-6.3E-07,0.020404375
,,,-6.2E-07,0.02063375
,,,-6.1E-07,0.02038375
,,,-6E-07,0.020294375
,,,-5.9E-07,0.020478125
,,,-5.8E-07,0.020325625
,,,-5.7E-07,0.020486875
,,,-5.6E-07,0.020345625
,,,-5.5E-07,0.02067875
,,,-5.4E-07,0.02032125
,,,-5.3E-07,0.020475
,,,-5.2E-07,0.02037125
,,,-5.1E-07,0.02068875
,,,-5E-07,0.020581875
,,,-4.9E-07,0.020600625
,,,-4.8E-07,0.02061625
,,,-4.7E-07,0.020366875
,,,-4.6E-07,0.020366875
,,,-4.5E-07,0.02073875
,,,-4.4E-07,0.020463125
,,,-4.3E-07,0.020578125
,,,-4.2E-07,0.020641875
,,,-4.1E-07,0.020420625
,,,-4E-07,0.020175625
,,,-3.9E-07,0.020631875
,,,-3.8E-07,0.02046375
,,,-3.7E-07,0.02049375
,,,-3.6E-07,0.0204125
,,,-3.5E-07,0.020558125
,,,-3.4E-07,0.020543125
,,,-3.3E-07,0.020615
,,,-3.2E-07,0.0204
,,,-3.1E-07,0.02036875
,,,-3E-07,0.020395625
,,,-2.9E-07,0.020556875
,,,-2.8E-07,0.02040125
,,,-2.7E-07,0.020335625
,,,-2.6E-07,0.020388125
,,,-2.5E-07,0.0204025
,,,-2.4E-07,0.020474375
,,,-2.3E-07,0.0204925
,,,-2.2E-07,0.020605625
,,,-2.1E-07,0.02038125
,,,-2E-07,0.02058625
,,,-1.9E-07,0.020554375
,,,-1.8E-07,0.020419375
,,,-1.7E-07,0.02043375
,,,-1.6E-07,0.020538125
,,,-1.5E-07,0.02020625
,,,-1.4E-07,0.020609375
,,,-1.3E-07,0.02056625
,,,-1.2E-07,0.02046
,,,-1.1E-07,0.02069625
,,,-1E-07,0.020553125
,,,-9E-08,0.0205025
,,,-8E-08,0.020519375
,,,-7E-08,0.020625
,,,-6E-08,0.02067
,,,-5E-08,0.02058625
,,,-4E-08,0.020958125
,,,-3E-08,0.020871875
,,,-2E-08,0.019728125
,,,-1E-08,0.019275
,,,0,0.019985625
,,,1E-08,0.021125625
,,,2E-08,0.021725
,,,3E-08,0.020844375
,,,4E-08,0.020045625
,,,5E-08,0.0196925
,,,6E-08,0.01983125
,,,7E-08,0.02015625
,,,8E-08,0.02066625
,,,9E-08,0.02107875
,,,1E-07,0.020975625
,,,1.1E-07,0.020536875
,,,1.2E-07,0.020395
,,,1.3E-07,0.02015125
,,,1.4E-07,0.02032625
,,,1.5E-07,0.02069875
,,,1.6E-07,0.020759375
,,,1.7E-07,0.020448125
,,,1.8E-07,0.020591875
,,,1.9E-07,0.020400625
,,,2E-07,0.0203975
,,,2.1E-07,0.020625
,,,2.2E-07,0.020530625
,,,2.3E-07,0.02056
,,,2.4E-07,0.02034875
,,,2.5E-07,0.02060625
,,,2.6E-07,0.020518125
,,,2.7E-07,0.020521875
,,,2.8E-07,0.0205825
,,,2.9E-07,0.020704375
,,,3E-07,0.020303125
,,,3.1E-07,0.0207675
,,,3.2E-07,0.02064125
,,,3.3E-07,0.020756875
,,,3.4E-07,0.020418125
,,,3.5E-07,0.0205375
,,,3.6E-07,0.02051375
,,,3.7E-07,0.020515
,,,3.8E-07,0.020413125
,,,3.9E-07,0.0207275
,,,4E-07,0.02049
,,,4.1E-07,0.020378125
,,,4.2E-07,0.0204975
,,,4.3E-07,0.0203675
,,,4.4E-07,0.0205875
,,,4.5E-07,0.0205275
,,,4.6E-07,0.020375625
,,,4.7E-07,0.02050375
,,,4.8E-07,0.020733125
,,,4.9E-07,0.02044875
,,,5E-07,0.0205175
,,,5.1E-07,0.02041
,,,5.2E-07,0.02047625
,,,5.3E-07,0.02041625
,,,5.4E-07,0.020624375
,,,5.5E-07,0.020515
,,,5.6E-07,0.020556875
,,,5.7E-07,0.0204125
,,,5.8E-07,0.02072125
,,,5.9E-07,0.0204275
,,,6E-07,0.020414375
,,,6.1E-07,0.020538125
,,,6.2E-07,0.02041625
,,,6.3E-07,0.02066875
,,,6.4E-07,0.020319375
,,,6.5E-07,0.020270625
,,,6.6E-07,0.0205675
,,,6.7E-07,0.020651875
,,,6.8E-07,0.0206075
,,,6.9E-07,0.02040125
,,,7E-07,0.020378125
,,,7.1E-07,0.020441875
,,,7.2E-07,0.02071125
,,,7.3E-07,0.020591875
,,,7.4E-07,0.02050125
,,,7.5E-07,0.020220625
,,,7.6E-07,0.020165625
,,,7.7E-07,0.020469375
,,,7.8E-07,0.020478125
,,,7.9E-07,0.020538125
,,,8E-07,0.02050125
,,,8.1E-07,0.020535
,,,8.2E-07,0.020464375
,,,8.3E-07,0.020491875
,,,8.4E-07,0.02074625
,,,8.5E-07,0.02057625
,,,8.6E-07,0.020333125
,,,8.7E-07,0.02026875
,,,8.8E-07,0.020403125
,,,8.9E-07,0.020360625
,,,9E-07,0.02059625
,,,9.1E-07,0.02045375
,,,9.2E-07,0.0205525
,,,9.3E-07,0.020515625
,,,9.4E-07,0.02054875
,,,9.5E-07,0.020405625
,,,9.6E-07,0.020478125
,,,9.7E-07,0.020205
,,,9.8E-07,0.02034
,,,9.9E-07,0.020598125
,,,1E-06,0.020438125
,,,1.01E-06,0.020391875
,,,1.02E-06,0.020318125
,,,1.03E-06,0.02039875
,,,1.04E-06,0.02040875
,,,1.05E-06,0.020544375
,,,1.06E-06,0.02036125
,,,1.07E-06,0.020495625
,,,1.08E-06,0.02066375
,,,1.09E-06,0.020455
,,,1.1E-06,0.0202725
,,,1.11E-06,0.020575
,,,1.12E-06,0.020319375
,,,1.13E-06,0.02047375
,,,1.14E-06,0.02058
,,,1.15E-06,0.02041125
,,,1.16E-06,0.0203325
,,,1.17E-06,0.020470625
,,,1.18E-06,0.020475625
,,,1.19E-06,0.0203275
,,,1.2E-06,0.0207175
,,,1.21E-06,0.020630625
,,,1.22E-06,0.0202525
,,,1.23E-06,0.020475625
,,,1.24E-06,0.020454375
,,,1.25E-06,0.02054
,,,1.26E-06,0.020404375
,,,1.27E-06,0.020588125
,,,1.28E-06,0.0203875
,,,1.29E-06,0.020630625
,,,1.3E-06,0.02055625
,,,1.31E-06,0.02036
,,,1.32E-06,0.02033625
,,,1.33E-06,0.0206325
,,,1.34E-06,0.020520625
,,,1.35E-06,0.020259375
,,,1.36E-06,0.02052
,,,1.37E-06,0.0204575
,,,1.38E-06,0.02081375
,,,1.39E-06,0.020580625
,,,1.4E-06,0.02052625
,,,1.41E-06,0.0205025
,,,1.42E-06,0.02056625
,,,1.43E-06,0.02053375
,,,1.44E-06,0.020429375
,,,1.45E-06,0.020393125
,,,1.46E-06,0.020394375
,,,1.47E-06,0.02048875
,,,1.48E-06,0.0204175
,,,1.49E-06,0.02043
,,,1.5E-06,0.02046375
,,,1.51E-06,0.02061125
,,,1.52E-06,0.02041625
,,,1.53E-06,0.020530625
,,,1.54E-06,0.020478125
,,,1.55E-06,0.020421875
,,,1.56E-06,0.020586875
,,,1.57E-06,0.02053125
,,,1.58E-06,0.020558125
,,,1.59E-06,0.02048125
,,,1.6E-06,0.02043125
,,,1.61E-06,0.020515625
,,,1.62E-06,0.020550625
,,,1.63E-06,0.020461875
,,,1.64E-06,0.020433125
,,,1.65E-06,0.02049375
,,,1.66E-06,0.020368125
,,,1.67E-06,0.0204375
,,,1.68E-06,0.020503125
,,,1.69E-06,0.0206925
,,,1.7E-06,0.020325
,,,1.71E-06,0.0206625
,,,1.72E-06,0.020415
,,,1.73E-06,0.0205925
,,,1.74E-06,0.02048375
,,,1.75E-06,0.02080125
,,,1.76E-06,0.020495625
,,,1.77E-06,0.020439375
,,,1.78E-06,0.02039625
,,,1.79E-06,0.020258125
,,,1.8E-06,0.02027125
,,,1.81E-06,0.02064
,,,1.82E-06,0.020545
,,,1.83E-06,0.0205825
,,,1.84E-06,0.02050375
,,,1.85E-06,0.02026875
,,,1.86E-06,0.0202425
,,,1.87E-06,0.02062875
,,,1.88E-06,0.02038875
,,,1.89E-06,0.02040625
,,,1.9E-06,0.020560625
,,,1.91E-06,0.02058
,,,1.92E-06,0.02055125
,,,1.93E-06,0.020585625
,,,1.94E-06,0.020450625
,,,1.95E-06,0.020501875
,,,1.96E-06,0.020383125
,,,1.97E-06,0.020595
,,,1.98E-06,0.020533125
,,,1.99E-06,0.02041875
,,,2E-06,0.020448125
,,,2.01E-06,0.0205425
,,,2.02E-06,0.020721875
,,,2.03E-06,0.020503125
,,,2.04E-06,0.02047
,,,2.05E-06,0.020690625
,,,2.06E-06,0.02060875
,,,2.07E-06,0.02050375
,,,2.08E-06,0.020648125
,,,2.09E-06,0.020269375
,,,2.1E-06,0.020536875
,,,2.11E-06,0.0205625
,,,2.12E-06,0.020338125
,,,2.13E-06,0.02042
,,,2.14E-06,0.02055
,,,2.15E-06,0.0206275
,,,2.16E-06,0.020725625
,,,2.17E-06,0.020430625
,,,2.18E-06,0.02051625
,,,2.19E-06,0.02043625
,,,2.2E-06,0.0204975
,,,2.21E-06,0.020399375
,,,2.22E-06,0.0204325
,,,2.23E-06,0.02026625
,,,2.24E-06,0.020630625
,,,2.25E-06,0.020240625
,,,2.26E-06,0.0205525
,,,2.27E-06,0.0202775
,,,2.28E-06,0.0203825
,,,2.29E-06,0.020585
,,,2.3E-06,0.020265625
,,,2.31E-06,0.020736875
,,,2.32E-06,0.020311875
,,,2.33E-06,0.020425
,,,2.34E-06,0.0205325
,,,2.35E-06,0.020721875
,,,2.36E-06,0.020580625
,,,2.37E-06,0.02040375
,,,2.38E-06,0.020223125
,,,2.39E-06,0.020780625
,,,2.4E-06,0.020524375
,,,2.41E-06,0.02047
,,,2.42E-06,0.0203325
,,,2.43E-06,0.02069125
,,,2.44E-06,0.0206675
,,,2.45E-06,0.020538125
,,,2.46E-06,0.02033625
,,,2.47E-06,0.02053
,,,2.48E-06,0.02035375
,,,2.49E-06,0.020354375
,,,2.5E-06,0.020551875
,,,2.51E-06,0.020506875
,,,2.52E-06,0.02044875
,,,2.53E-06,0.0204775
,,,2.54E-06,0.020245
,,,2.55E-06,0.020555
,,,2.56E-06,0.0203175
,,,2.57E-06,0.02028125
,,,2.58E-06,0.020540625
,,,2.59E-06,0.02048125
,,,2.6E-06,0.0203625
,,,2.61E-06,0.020654375
,,,2.62E-06,0.02058375
,,,2.63E-06,0.020594375
,,,2.64E-06,0.020596875
,,,2.65E-06,0.020601875
,,,2.66E-06,0.020419375
,,,2.67E-06,0.020288125
,,,2.68E-06,0.020326875
,,,2.69E-06,0.020585
,,,2.7E-06,0.02076
,,,2.71E-06,0.020303125
,,,2.72E-06,0.020664375
,,,2.73E-06,0.020519375
,,,2.74E-06,0.02050125
,,,2.75E-06,0.02041125
,,,2.76E-06,0.020430625
,,,2.77E-06,0.020425
,,,2.78E-06,0.0205475
,,,2.79E-06,0.020325
,,,2.8E-06,0.020531875
,,,2.81E-06,0.020550625
,,,2.82E-06,0.020359375
,,,2.83E-06,0.020551875
,,,2.84E-06,0.0205375
,,,2.85E-06,0.02082875
,,,2.86E-06,0.020355
,,,2.87E-06,0.02049375
,,,2.88E-06,0.02043125
,,,2.89E-06,0.020606875
,,,2.9E-06,0.02056875
,,,2.91E-06,0.020533125
,,,2.92E-06,0.020633125
,,,2.93E-06,0.020475
,,,2.94E-06,0.020504375
,,,2.95E-06,0.02050375
,,,2.96E-06,0.02040875
,,,2.97E-06,0.020458125
,,,2.98E-06,0.020568125
,,,2.99E-06,0.02051875
,,,3E-06,0.020633125
,,,3.01E-06,0.020631875
,,,3.02E-06,0.0203875
,,,3.03E-06,0.020384375
,,,3.04E-06,0.020659375
,,,3.05E-06,0.020533125
,,,3.06E-06,0.0205525
,,,3.07E-06,0.0203525
,,,3.08E-06,0.0205775
,,,3.09E-06,0.020446875
,,,3.1E-06,0.02047375
,,,3.11E-06,0.020500625
,,,3.12E-06,0.020481875
,,,3.13E-06,0.020485
,,,3.14E-06,0.020595
,,,3.15E-06,0.020664375
,,,3.16E-06,0.02066
,,,3.17E-06,0.02044375
,,,3.18E-06,0.0205
,,,3.19E-06,0.020375625
,,,3.2E-06,0.020613125
,,,3.21E-06,0.02054625
,,,3.22E-06,0.02064
,,,3.23E-06,0.0204225
,,,3.24E-06,0.020576875
,,,3.25E-06,0.020615
,,,3.26E-06,0.0204725
,,,3.27E-06,0.020635
,,,3.28E-06,0.020516875
,,,3.29E-06,0.020499375
,,,3.3E-06,0.02045875
,,,3.31E-06,0.02036625
,,,3.32E-06,0.0207325
,,,3.33E-06,0.020548125
,,,3.34E-06,0.02047625
,,,3.35E-06,0.020618125
,,,3.36E-06,0.020308125
,,,3.37E-06,0.020866875
,,,3.38E-06,0.02044375
,,,3.39E-06,0.0208175
,,,3.4E-06,0.02048
,,,3.41E-06,0.0204925
,,,3.42E-06,0.020595625
,,,3.43E-06,0.0206975
,,,3.44E-06,0.020535
,,,3.45E-06,0.02055625
,,,3.46E-06,0.020368125
,,,3.47E-06,0.020638125
,,,3.48E-06,0.020305625
,,,3.49E-06,0.0203375
,,,3.5E-06,0.02032125
,,,3.51E-06,0.020638125
,,,3.52E-06,0.020561875
,,,3.53E-06,0.020461875
,,,3.54E-06,0.02043875
,,,3.55E-06,0.020629375
,,,3.56E-06,0.020441875
,,,3.57E-06,0.02053
,,,3.58E-06,0.02059375
