data/raw/Final_POL_Test_1/SOP087_Ch1.csv

"Record Length",1000,"Points",-5E-06,0.004629375
"Sample Interval",1E-08,s,-4.99E-06,0.004650625
"Trigger Point",500,"Samples",-4.98E-06,0.004795
"Trigger Time",0,s,-4.97E-06,0.0047625
"",,,-4.96E-06,0.004670625
"Horizontal Offset",-5E-06,s,-4.95E-06,0.004825
,,,-4.94E-06,0.00463875
,,,-4.93E-06,0.004501875
,,,-4.92E-06,0.004455625
,,,-4.91E-06,0.004335625
,,,-4.9E-06,0.00472625
,,,-4.89E-06,0.0049675
,,,-4.88E-06,0.004645
,,,-4.87E-06,0.004703125
,,,-4.86E-06,0.004960625
,,,-4.85E-06,0.00456125
,,,-4.84E-06,0.004590625
,,,-4.83E-06,0.00437625
,,,-4.82E-06,0.00483375
,,,-4.81E-06,0.004593125
,,,-4.8E-06,0.00481
,,,-4.79E-06,0.004735625
,,,-4.78E-06,0.004791875
,,,-4.77E-06,0.0047425
,,,-4.76E-06,0.00440625
,,,-4.75E-06,0.00472
,,,-4.74E-06,0.00459875
,,,-4.73E-06,0.00491125
,,,-4.72E-06,0.004611875
,,,-4.71E-06,0.00458375
,,,-4.7E-06,0.0048625
,,,-4.69E-06,0.00486875
,,,-4.68E-06,0.004756875
,,,-4.67E-06,0.00476375
,,,-4.66E-06,0.004776875
,,,-4.65E-06,0.004674375
,,,-4.64E-06,0.004495
,,,-4.63E-06,0.004809375
,,,-4.62E-06,0.00492625
,,,-4.61E-06,0.004504375
,,,-4.6E-06,0.00466375
,,,-4.59E-06,0.0048775
,,,-4.58E-06,0.00444625
,,,-4.57E-06,0.00454625
,,,-4.56E-06,0.00443375
,,,-4.55E-06,0.00468375
,,,-4.54E-06,0.004481875
,,,-4.53E-06,0.00471125
,,,-4.52E-06,0.0047425
,,,-4.51E-06,0.00473375
,,,-4.5E-06,0.00477
,,,-4.49E-06,0.00482375
,,,-4.48E-06,0.0049025
,,,-4.47E-06,0.004741875
,,,-4.46E-06,0.00496125
,,,-4.45E-06,0.004876875
,,,-4.44E-06,0.00474375
,,,-4.43E-06,0.004541875
,,,-4.42E-06,0.00451
,,,-4.41E-06,0.00461875
,,,-4.4E-06,0.00485375
,,,-4.39E-06,0.004809375
,,,-4.38E-06,0.004915625
,,,-4.37E-06,0.004608125
,,,-4.36E-06,0.004816875
,,,-4.35E-06,0.004604375
,,,-4.34E-06,0.004750625
,,,-4.33E-06,0.00453625
,,,-4.32E-06,0.0047075
,,,-4.31E-06,0.004584375
,,,-4.3E-06,0.00456
,,,-4.29E-06,0.0046775
,,,-4.28E-06,0.00474625
,,,-4.27E-06,0.004754375
,,,-4.26E-06,0.00465375
,,,-4.25E-06,0.00463625
,,,-4.24E-06,0.00497375
,,,-4.23E-06,0.004659375
,,,-4.22E-06,0.004700625
,,,-4.21E-06,0.0048325
,,,-4.2E-06,0.004725
,,,-4.19E-06,0.00468125
,,,-4.18E-06,0.004786875
,,,-4.17E-06,0.004583125
,,,-4.16E-06,0.004866875
,,,-4.15E-06,0.0047925
,,,-4.14E-06,0.004754375
,,,-4.13E-06,0.004755
,,,-4.12E-06,0.004678125
,,,-4.11E-06,0.00456
,,,-4.1E-06,0.004715625
,,,-4.09E-06,0.0047325
,,,-4.08E-06,0.004735
,,,-4.07E-06,0.004671875
,,,-4.06E-06,0.0044525
,,,-4.05E-06,0.0048275
,,,-4.04E-06,0.004544375
,,,-4.03E-06,0.004665625
,,,-4.02E-06,0.004624375
,,,-4.01E-06,0.004383125
,,,-4E-06,0.00472625
,,,-3.99E-06,0.004525
,,,-3.98E-06,0.004520625
,,,-3.97E-06,0.00468375
,,,-3.96E-06,0.004701875
,,,-3.95E-06,0.004725625
,,,-3.94E-06,0.004899375
,,,-3.93E-06,0.0046175
,,,-3.92E-06,0.004831875
,,,-3.91E-06,0.004516875
,,,-3.9E-06,0.004839375
,,,-3.89E-06,0.004666875
,,,-3.88E-06,0.004745625
,,,-3.87E-06,0.004630625
,,,-3.86E-06,0.0046625
,,,-3.85E-06,0.00464875
,,,-3.84E-06,0.004835
,,,-3.83E-06,0.004541875
,,,-3.82E-06,0.004816875
,,,-3.81E-06,0.00439375
,,,-3.8E-06,0.004571875
,,,-3.79E-06,0.00495
,,,-3.78E-06,0.004581875
,,,-3.77E-06,0.004655
,,,-3.76E-06,0.00455125
,,,-3.75E-06,0.004816875
,,,-3.74E-06,0.004535625
,,,-3.73E-06,0.00461125
,,,-3.72E-06,0.004651875
,,,-3.71E-06,0.0047575
,,,-3.7E-06,0.004836875
,,,-3.69E-06,0.004570625
,,,-3.68E-06,0.004655
,,,-3.67E-06,0.0045325
,,,-3.66E-06,0.00469375
,,,-3.65E-06,0.00454625
,,,-3.64E-06,0.00458625
,,,-3.63E-06,0.004621875
,,,-3.62E-06,0.004731875
,,,-3.61E-06,0.004641875
,,,-3.6E-06,0.004955
,,,-3.59E-06,0.00470875
,,,-3.58E-06,0.004788125
,,,-3.57E-06,0.004691875
,,,-3.56E-06,0.00449
,,,-3.55E-06,0.00441
,,,-3.54E-06,0.004651875
,,,-3.53E-06,0.004269375
,,,-3.52E-06,0.004856875
,,,-3.51E-06,0.004635
,,,-3.5E-06,0.004655
,,,-3.49E-06,0.004793125
,,,-3.48E-06,0.004645
,,,-3.47E-06,0.00448625
,,,-3.46E-06,0.00443125
,,,-3.45E-06,0.0045775
,,,-3.44E-06,0.004749375
,,,-3.43E-06,0.00472375
,,,-3.42E-06,0.004578125
,,,-3.41E-06,0.004773125
,,,-3.4E-06,0.00470375
,,,-3.39E-06,0.00459
,,,-3.38E-06,0.004675
,,,-3.37E-06,0.00463
,,,-3.36E-06,0.004770625
,,,-3.35E-06,0.004735
,,,-3.34E-06,0.0048925
,,,-3.33E-06,0.00467375
,,,-3.32E-06,0.0046
,,,-3.31E-06,0.0046325
,,,-3.3E-06,0.004705625
,,,-3.29E-06,0.0046525
,,,-3.28E-06,0.004706875
,,,-3.27E-06,0.004723125
,,,-3.26E-06,0.004821875
,,,-3.25E-06,0.00474125
,,,-3.24E-06,0.005026875
,,,-3.23E-06,0.00462875
,,,-3.22E-06,0.004815625
,,,-3.21E-06,0.004696875
,,,-3.2E-06,0.004671875
,,,-3.19E-06,0.00454375
,,,-3.18E-06,0.004574375
,,,-3.17E-06,0.00458
,,,-3.16E-06,0.0045
,,,-3.15E-06,0.004790625
,,,-3.14E-06,0.004345625
,,,-3.13E-06,0.004595
,,,-3.12E-06,0.004665
,,,-3.11E-06,0.0045625
,,,-3.1E-06,0.004618125
,,,-3.09E-06,0.004806875
,,,-3.08E-06,0.0046075
,,,-3.07E-06,0.004850625
,,,-3.06E-06,0.004640625
,,,-3.05E-06,0.004376875
,,,-3.04E-06,0.00467
,,,-3.03E-06,0.00474625
,,,-3.02E-06,0.00468875
,,,-3.01E-06,0.004745
,,,-3E-06,0.0047675
,,,-2.99E-06,0.004505
,,,-2.98E-06,0.0045725
,,,-2.97E-06,0.004436875
,,,-2.96E-06,0.00480875
,,,-2.95E-06,0.00466
,,,-2.94E-06,0.004749375
,,,-2.93E-06,0.004726875
,,,-2.92E-06,0.00481125
,,,-2.91E-06,0.004631875
,,,-2.9E-06,0.00452125
,,,-2.89E-06,0.00494625
,,,-2.88E-06,0.004594375
,,,-2.87E-06,0.004651875
,,,-2.86E-06,0.0048975
,,,-2.85E-06,0.00448375
,,,-2.84E-06,0.00477375
,,,-2.83E-06,0.00454875
,,,-2.82E-06,0.004379375
,,,-2.81E-06,0.0046075
,,,-2.8E-06,0.0049675
,,,-2.79E-06,0.004685625
,,,-2.78E-06,0.004504375
,,,-2.77E-06,0.004619375
,,,-2.76E-06,0.004533125
,,,-2.75E-06,0.00477375
,,,-2.74E-06,0.00474125
,,,-2.73E-06,0.004681875
,,,-2.72E-06,0.00475
,,,-2.71E-06,0.004698125
,,,-2.7E-06,0.004726875
,,,-2.69E-06,0.0047175
,,,-2.68E-06,0.004983125
,,,-2.67E-06,0.00484875
,,,-2.66E-06,0.00498125
,,,-2.65E-06,0.004378125
,,,-2.64E-06,0.005060625
,,,-2.63E-06,0.004679375
,,,-2.62E-06,0.004710625
,,,-2.61E-06,0.004718125
,,,-2.6E-06,0.004711875
,,,-2.59E-06,0.004645
,,,-2.58E-06,0.004651875
,,,-2.57E-06,0.004705
,,,-2.56E-06,0.00482625
,,,-2.55E-06,0.004540625
,,,-2.54E-06,0.00465625
,,,-2.53E-06,0.004495625
,,,-2.52E-06,0.004575
,,,-2.51E-06,0.004705625
,,,-2.5E-06,0.004859375
,,,-2.49E-06,0.004801875
,,,-2.48E-06,0.00470875
,,,-2.47E-06,0.004703125
,,,-2.46E-06,0.004489375
,,,-2.45E-06,0.004579375
,,,-2.44E-06,0.004464375
,,,-2.43E-06,0.00479625
,,,-2.42E-06,0.004658125
,,,-2.41E-06,0.00470625
,,,-2.4E-06,0.004580625
,,,-2.39E-06,0.004635
,,,-2.38E-06,0.0047925
,,,-2.37E-06,0.004518125
,,,-2.36E-06,0.00454375
,,,-2.35E-06,0.00471875
,,,-2.34E-06,0.004415
,,,-2.33E-06,0.00467625
,,,-2.32E-06,0.004876875
,,,-2.31E-06,0.00489875
,,,-2.3E-06,0.004695
,,,-2.29E-06,0.00467375
,,,-2.28E-06,0.004556875
,,,-2.27E-06,0.004648125
,,,-2.26E-06,0.004833125
,,,-2.25E-06,0.00448125
,,,-2.24E-06,0.00459375
,,,-2.23E-06,0.0048725
,,,-2.22E-06,0.004695625
,,,-2.21E-06,0.004796875
,,,-2.2E-06,0.004835625
,,,-2.19E-06,0.004728125
,,,-2.18E-06,0.004658125
,,,-2.17E-06,0.004633125
,,,-2.16E-06,0.00476625
,,,-2.15E-06,0.00474125
,,,-2.14E-06,0.004749375
,,,-2.13E-06,0.004710625
,,,-2.12E-06,0.004575
,,,-2.11E-06,0.004415
,,,-2.1E-06,0.00466875
,,,-2.09E-06,0.004595625
,,,-2.08E-06,0.004945625
,,,-2.07E-06,0.00463375
,,,-2.06E-06,0.0045375
,,,-2.05E-06,0.00483125
,,,-2.04E-06,0.004955
,,,-2.03E-06,0.004600625
,,,-2.02E-06,0.004525
,,,-2.01E-06,0.0046525
,,,-2E-06,0.004829375
,,,-1.99E-06,0.0046725
,,,-1.98E-06,0.004596875
,,,-1.97E-06,0.004669375
,,,-1.96E-06,0.004933125
,,,-1.95E-06,0.004403125
,,,-1.94E-06,0.00464875
,,,-1.93E-06,0.004499375
,,,-1.92E-06,0.00474
,,,-1.91E-06,0.004685
,,,-1.9E-06,0.004648125
,,,-1.89E-06,0.00470625
,,,-1.88E-06,0.00467
,,,-1.87E-06,0.004750625
,,,-1.86E-06,0.004923125
,,,-1.85E-06,0.004754375
,,,-1.84E-06,0.004808125
,,,-1.83E-06,0.004748125
,,,-1.82E-06,0.004818125
,,,-1.81E-06,0.004551875
,,,-1.8E-06,0.00472125
,,,-1.79E-06,0.004705
,,,-1.78E-06,0.00453375
,,,-1.77E-06,0.00460125
,,,-1.76E-06,0.004425
,,,-1.75E-06,0.00471
,,,-1.74E-06,0.0047975
,,,-1.73E-06,0.004490625
,,,-1.72E-06,0.0050275
,,,-1.71E-06,0.004884375
,,,-1.7E-06,0.004878125
,,,-1.69E-06,0.004635625
,,,-1.68E-06,0.004590625
,,,-1.67E-06,0.00460375
,,,-1.66E-06,0.004690625
,,,-1.65E-06,0.00471375
,,,-1.64E-06,0.00461
,,,-1.63E-06,0.004644375
,,,-1.62E-06,0.00468875
,,,-1.61E-06,0.004830625
,,,-1.6E-06,0.004795625
,,,-1.59E-06,0.00490625
,,,-1.58E-06,0.004833125
,,,-1.57E-06,0.004959375
,,,-1.56E-06,0.0045125
,,,-1.55E-06,0.00474
,,,-1.54E-06,0.0046775
,,,-1.53E-06,0.004621875
,,,-1.52E-06,0.00460375
,,,-1.51E-06,0.0047675
,,,-1.5E-06,0.004640625
,,,-1.49E-06,0.00473
,,,-1.48E-06,0.0044925
,,,-1.47E-06,0.00487875
,,,-1.46E-06,0.004794375
,,,-1.45E-06,0.004515
,,,-1.44E-06,0.00467625
,,,-1.43E-06,0.00447
,,,-1.42E-06,0.00464125
,,,-1.41E-06,0.004866875
,,,-1.4E-06,0.00448625
,,,-1.39E-06,0.004526875
,,,-1.38E-06,0.00471875
,,,-1.37E-06,0.00459625
,,,-1.36E-06,0.004843125
,,,-1.35E-06,0.004895
,,,-1.34E-06,0.004659375
,,,-1.33E-06,0.0044625
,,,-1.32E-06,0.004704375
,,,-1.31E-06,0.004883125
,,,-1.3E-06,0.004488125
,,,-1.29E-06,0.0046575
,,,-1.28E-06,0.004831875
,,,-1.27E-06,0.004675625
,,,-1.26E-06,0.004638125
,,,-1.25E-06,0.004943125
,,,-1.24E-06,0.004595
,,,-1.23E-06,0.004571875
,,,-1.22E-06,0.004666875
,,,-1.21E-06,0.004620625
,,,-1.2E-06,0.00458875
,,,-1.19E-06,0.004535625
,,,-1.18E-06,0.00473375
,,,-1.17E-06,0.0048
,,,-1.16E-06,0.004719375
,,,-1.15E-06,0.004888125
,,,-1.14E-06,0.00474
,,,-1.13E-06,0.004794375
,,,-1.12E-06,0.00463125
,,,-1.11E-06,0.00502875
,,,-1.1E-06,0.004614375
,,,-1.09E-06,0.004771875
,,,-1.08E-06,0.004905625
,,,-1.07E-06,0.004669375
,,,-1.06E-06,0.004675625
,,,-1.05E-06,0.004785
,,,-1.04E-06,0.004590625
,,,-1.03E-06,0.004459375
,,,-1.02E-06,0.004795
,,,-1.01E-06,0.00447625
,,,-1E-06,0.00473125
,,,-9.9E-07,0.004576875
,,,-9.8E-07,0.004855625
,,,-9.7E-07,0.004720625
,,,-9.6E-07,0.00476
,,,-9.5E-07,0.004655
,,,-9.4E-07,0.00496125
,,,-9.3E-07,0.00467875
,,,-9.2E-07,0.00478125
,,,-9.1E-07,0.00495375
,,,-9E-07,0.004883125
,,,-8.9E-07,0.005005
,,,-8.8E-07,0.004701875
,,,-8.7E-07,0.0049875
,,,-8.6E-07,0.004618125
,,,-8.5E-07,0.0045975
,,,-8.4E-07,0.00459125
,,,-8.3E-07,0.00473875
,,,-8.2E-07,0.0046825
,,,-8.1E-07,0.00476875
,,,-8E-07,0.00454125
,,,-7.9E-07,0.004575625
,,,-7.8E-07,0.0047675
,,,-7.7E-07,0.004686875
,,,-7.6E-07,0.00472625
,,,-7.5E-07,0.00456
,,,-7.4E-07,0.00474625
,,,-7.3E-07,0.004908125
,,,-7.2E-07,0.0047175
,,,-7.1E-07,0.00480875
,,,-7E-07,0.0049
,,,-6.9E-07,0.004561875
,,,-6.8E-07,0.00477625
,,,-6.7E-07,0.004828125
,,,-6.6E-07,0.004835
,,,-6.5E-07,0.0050325
,,,-6.4E-07,0.00469375
,,,-6.3E-07,0.004753125
,,,-6.2E-07,0.004371875
,,,-6.1E-07,0.004625625
,,,-6E-07,0.0048825
,,,-5.9E-07,0.004853125
,,,-5.8E-07,0.00479875
,,,-5.7E-07,0.00447375
,,,-5.6E-07,0.004868125
,,,-5.5E-07,0.00475625
,,,-5.4E-07,0.004775
,,,-5.3E-07,0.0047
,,,-5.2E-07,0.00474
,,,-5.1E-07,0.004820625
,,,-5E-07,0.00464625
,,,-4.9E-07,0.00465125
,,,-4.8E-07,0.004525625
,,,-4.7E-07,0.004586875
,,,-4.6E-07,0.004688125
,,,-4.5E-07,0.004844375
,,,-4.4E-07,0.00454
,,,-4.3E-07,0.004748125
,,,-4.2E-07,0.004730625
,,,-4.1E-07,0.00470875
,,,-4E-07,0.004611875
,,,-3.9E-07,0.00463125
,,,-3.8E-07,0.004855625
,,,-3.7E-07,0.00469375
,,,-3.6E-07,0.00501125
,,,-3.5E-07,0.004946875
,,,-3.4E-07,0.004445
,,,-3.3E-07,0.004741875
,,,-3.2E-07,0.004743125
,,,-3.1E-07,0.004738125
,,,-3E-07,0.00480875
,,,-2.9E-07,0.00475625
,,,-2.8E-07,0.004518125
,,,-2.7E-07,0.004615
,,,-2.6E-07,0.004760625
,,,-2.5E-07,0.00486625
,,,-2.4E-07,0.00456125
,,,-2.3E-07,0.004644375
,,,-2.2E-07,0.004625625
,,,-2.1E-07,0.004635625
,,,-2E-07,0.004648125
,,,-1.9E-07,0.00464875
,,,-1.8E-07,0.00469625
,,,-1.7E-07,0.004569375
,,,-1.6E-07,0.00444
,,,-1.5E-07,0.0047525
,,,-1.4E-07,0.004833125
,,,-1.3E-07,0.0046725
,,,-1.2E-07,0.00487875
,,,-1.1E-07,0.004438125
,,,-1E-07,0.0048125
,,,-9E-08,0.004754375
,,,-8E-08,0.00462375
,,,-7E-08,0.0046375
,,,-6E-08,0.004594375
,,,-5E-08,0.004635
,,,-4E-08,0.00485875
,,,-3E-08,0.00487125
,,,-2E-08,0.0039725
,,,-1E-08,0.00326
,,,0,0.00457625
,,,1E-08,0.005536875
,,,2E-08,0.00605375
,,,3E-08,0.00562
,,,4E-08,0.00438125
,,,5E-08,0.0035975
,,,6E-08,0.00403875
,,,7E-08,0.00456
,,,8E-08,0.00499625
,,,9E-08,0.0053775
,,,1E-07,0.005125625
,,,1.1E-07,0.00480375
,,,1.2E-07,0.004046875
,,,1.3E-07,0.004319375
,,,1.4E-07,0.0044975
,,,1.5E-07,0.004824375
,,,1.6E-07,0.004724375
,,,1.7E-07,0.00489875
,,,1.8E-07,0.004816875
,,,1.9E-07,0.00467625
,,,2E-07,0.00468625
,,,2.1E-07,0.00471125
,,,2.2E-07,0.004463125
,,,2.3E-07,0.004669375
,,,2.4E-07,0.00487375
,,,2.5E-07,0.00497375
,,,2.6E-07,0.004395625
,,,2.7E-07,0.00477
,,,2.8E-07,0.00476
,,,2.9E-07,0.00479
,,,3E-07,0.00449
,,,3.1E-07,0.00499125
,,,3.2E-07,0.00474125
,,,3.3E-07,0.004965625
,,,3.4E-07,0.004839375
,,,3.5E-07,0.0045375
,,,3.6E-07,0.0047725
,,,3.7E-07,0.004411875
,,,3.8E-07,0.00475375
,,,3.9E-07,0.004465625
,,,4E-07,0.0045275
,,,4.1E-07,0.004768125
,,,4.2E-07,0.004363125
,,,4.3E-07,0.00412375
,,,4.4E-07,0.004524375
,,,4.5E-07,0.004728125
,,,4.6E-07,0.0047225
,,,4.7E-07,0.0047525
,,,4.8E-07,0.004694375
,,,4.9E-07,0.00490125
,,,5E-07,0.004620625
,,,5.1E-07,0.004615625
,,,5.2E-07,0.00477375
,,,5.3E-07,0.004566875
,,,5.4E-07,0.004354375
,,,5.5E-07,0.004768125
,,,5.6E-07,0.004770625
,,,5.7E-07,0.004655
,,,5.8E-07,0.00471
,,,5.9E-07,0.004735625
,,,6E-07,0.004868125
,,,6.1E-07,0.004654375
,,,6.2E-07,0.004639375
,,,6.3E-07,0.00470875
,,,6.4E-07,0.004599375
,,,6.5E-07,0.00484125
,,,6.6E-07,0.0047075
,,,6.7E-07,0.004535625
,,,6.8E-07,0.004780625
,,,6.9E-07,0.004518125
,,,7E-07,0.004774375
,,,7.1E-07,0.004655625
,,,7.2E-07,0.004645625
,,,7.3E-07,0.004829375
,,,7.4E-07,0.0047875
,,,7.5E-07,0.0045825
,,,7.6E-07,0.004814375
,,,7.7E-07,0.0045725
,,,7.8E-07,0.00457125
,,,7.9E-07,0.0045575
,,,8E-07,0.004955
,,,8.1E-07,0.004625625
,,,8.2E-07,0.004801875
,,,8.3E-07,0.0048525
,,,8.4E-07,0.00477375
,,,8.5E-07,0.004793125
,,,8.6E-07,0.004710625
,,,8.7E-07,0.0049125
,,,8.8E-07,0.00445375
,,,8.9E-07,0.00485875
,,,9E-07,0.004898125
,,,9.1E-07,0.004605
,,,9.2E-07,0.004830625
,,,9.3E-07,0.004718125
,,,9.4E-07,0.00469625
,,,9.5E-07,0.004595
,,,9.6E-07,0.00443625
,,,9.7E-07,0.004681875
,,,9.8E-07,0.00465
,,,9.9E-07,0.0049175
,,,1E-06,0.00478
,,,1.01E-06,0.004838125
,,,1.02E-06,0.00488625
,,,1.03E-06,0.004800625
,,,1.04E-06,0.00456125
,,,1.05E-06,0.00482625
,,,1.06E-06,0.004756875
,,,1.07E-06,0.00471375
,,,1.08E-06,0.00445
,,,1.09E-06,0.00472875
,,,1.1E-06,0.00476875
,,,1.11E-06,0.0047475
,,,1.12E-06,0.00448625
,,,1.13E-06,0.00422
,,,1.14E-06,0.004554375
,,,1.15E-06,0.004951875
,,,1.16E-06,0.004515625
,,,1.17E-06,0.004903125
,,,1.18E-06,0.004815
,,,1.19E-06,0.00462
,,,1.2E-06,0.0046325
,,,1.21E-06,0.004591875
,,,1.22E-06,0.004916875
,,,1.23E-06,0.004690625
,,,1.24E-06,0.004715625
,,,1.25E-06,0.00465
,,,1.26E-06,0.00469875
,,,1.27E-06,0.004829375
,,,1.28E-06,0.00472375
,,,1.29E-06,0.004763125
,,,1.3E-06,0.004638125
,,,1.31E-06,0.0046825
,,,1.32E-06,0.00483
,,,1.33E-06,0.004688125
,,,1.34E-06,0.00453125
,,,1.35E-06,0.00452
,,,1.36E-06,0.00473625
,,,1.37E-06,0.004551875
,,,1.38E-06,0.004719375
,,,1.39E-06,0.004713125
,,,1.4E-06,0.00486375
,,,1.41E-06,0.00443
,,,1.42E-06,0.00485875
,,,1.43E-06,0.004205
,,,1.44E-06,0.0047525
,,,1.45E-06,0.00466375
,,,1.46E-06,0.0048825
,,,1.47E-06,0.004773125
,,,1.48E-06,0.00485
,,,1.49E-06,0.004464375
,,,1.5E-06,0.00482125
,,,1.51E-06,0.004693125
,,,1.52E-06,0.004635
,,,1.53E-06,0.004498125
,,,1.54E-06,0.00446375
,,,1.55E-06,0.0046425
,,,1.56E-06,0.00489375
,,,1.57E-06,0.004583125
,,,1.58E-06,0.004699375
,,,1.59E-06,0.004454375
,,,1.6E-06,0.004918125
,,,1.61E-06,0.00493625
,,,1.62E-06,0.004745625
,,,1.63E-06,0.00474
,,,1.64E-06,0.00479125
,,,1.65E-06,0.004554375
,,,1.66E-06,0.00476875
,,,1.67E-06,0.00480875
,,,1.68E-06,0.00501375
,,,1.69E-06,0.00485
,,,1.7E-06,0.0047875
,,,1.71E-06,0.004653125
,,,1.72E-06,0.004953125
,,,1.73E-06,0.004675
,,,1.74E-06,0.00464625
,,,1.75E-06,0.00472375
,,,1.76E-06,0.004715625
,,,1.77E-06,0.004668125
,,,1.78E-06,0.00486375
,,,1.79E-06,0.004689375
,,,1.8E-06,0.004755
,,,1.81E-06,0.00484875
,,,1.82E-06,0.00470375
,,,1.83E-06,0.00475375
,,,1.84E-06,0.00470625
,,,1.85E-06,0.00479125
,,,1.86E-06,0.004808125
,,,1.87E-06,0.00469625
,,,1.88E-06,0.004865
,,,1.89E-06,0.004698125
,,,1.9E-06,0.004725625
,,,1.91E-06,0.004615625
,,,1.92E-06,0.004764375
,,,1.93E-06,0.004768125
,,,1.94E-06,0.004719375
,,,1.95E-06,0.004889375
,,,1.96E-06,0.0048975
,,,1.97E-06,0.00464625
,,,1.98E-06,0.004644375
,,,1.99E-06,0.004740625
,,,2E-06,0.0048275
,,,2.01E-06,0.0045025
,,,2.02E-06,0.0045
,,,2.03E-06,0.004505
,,,2.04E-06,0.004630625
,,,2.05E-06,0.0048225
,,,2.06E-06,0.004850625
,,,2.07E-06,0.004629375
,,,2.08E-06,0.004675
,,,2.09E-06,0.004623125
,,,2.1E-06,0.004761875
,,,2.11E-06,0.0046225
,,,2.12E-06,0.004668125
,,,2.13E-06,0.0045875
,,,2.14E-06,0.0048
,,,2.15E-06,0.0048325
,,,2.16E-06,0.00468625
,,,2.17E-06,0.00471375
,,,2.18E-06,0.0044375
,,,2.19E-06,0.00492125
,,,2.2E-06,0.004673125
,,,2.21E-06,0.00467875
,,,2.22E-06,0.004696875
,,,2.23E-06,0.00485125
,,,2.24E-06,0.004664375
,,,2.25E-06,0.004825
,,,2.26E-06,0.0046975
,,,2.27E-06,0.004581875
,,,2.28E-06,0.004954375
,,,2.29E-06,0.00485375
,,,2.3E-06,0.00465875
,,,2.31E-06,0.004693125
,,,2.32E-06,0.004574375
,,,2.33E-06,0.004658125
,,,2.34E-06,0.004391875
,,,2.35E-06,0.004708125
,,,2.36E-06,0.00464
,,,2.37E-06,0.0047275
,,,2.38E-06,0.004494375
,,,2.39E-06,0.004540625
,,,2.4E-06,0.004438125
,,,2.41E-06,0.00464375
,,,2.42E-06,0.00468875
,,,2.43E-06,0.004744375
,,,2.44E-06,0.004378125
,,,2.45E-06,0.004689375
,,,2.46E-06,0.00461875
,,,2.47E-06,0.004785625
,,,2.48E-06,0.004585
,,,2.49E-06,0.00447125
,,,2.5E-06,0.004641875
,,,2.51E-06,0.004334375
,,,2.52E-06,0.00473375
,,,2.53E-06,0.00446625
,,,2.54E-06,0.004616875
,,,2.55E-06,0.004810625
,,,2.56E-06,0.00445
,,,2.57E-06,0.004590625
,,,2.58E-06,0.004683125
,,,2.59E-06,0.004686875
,,,2.6E-06,0.004890625
,,,2.61E-06,0.004706875
,,,2.62E-06,0.0048075
,,,2.63E-06,0.004534375
,,,2.64E-06,0.004674375
,,,2.65E-06,0.0046575
,,,2.66E-06,0.0046425
,,,2.67E-06,0.004725
,,,2.68E-06,0.004770625
,,,2.69E-06,0.0046125
,,,2.7E-06,0.0045825
,,,2.71E-06,0.004624375
,,,2.72E-06,0.004609375
,,,2.73E-06,0.00474125
,,,2.74E-06,0.0046925
,,,2.75E-06,0.004806875
,,,2.76E-06,0.00448125
,,,2.77E-06,0.00467625
,,,2.78E-06,0.00455125
,,,2.79E-06,0.00442875
,,,2.8E-06,0.0045775
,,,2.81E-06,0.00474875
,,,2.82E-06,0.0045425
,,,2.83E-06,0.004518125
,,,2.84E-06,0.004703125
,,,2.85E-06,0.004438125
,,,2.86E-06,0.004959375
,,,2.87E-06,0.00472
,,,2.88E-06,0.004731875
,,,2.89E-06,0.0046025
,,,2.9E-06,0.004578125
,,,2.91E-06,0.004649375
,,,2.92E-06,0.0044425
,,,2.93E-06,0.00469625
,,,2.94E-06,0.004875
,,,2.95E-06,0.004510625
,,,2.96E-06,0.00479
,,,2.97E-06,0.004520625
,,,2.98E-06,0.004619375
,,,2.99E-06,0.00452875
,,,3E-06,0.00484875
,,,3.01E-06,0.004654375
,,,3.02E-06,0.004770625
,,,3.03E-06,0.004480625
,,,3.04E-06,0.00445875
,,,3.05E-06,0.004720625
,,,3.06E-06,0.0047625
,,,3.07E-06,0.0042725
,,,3.08E-06,0.004718125
,,,3.09E-06,0.00455875
,,,3.1E-06,0.004715625
,,,3.11E-06,0.004725625
,,,3.12E-06,0.004509375
,,,3.13E-06,0.004600625
,,,3.14E-06,0.004850625
,,,3.15E-06,0.00478125
,,,3.16E-06,0.004583125
,,,3.17E-06,0.004703125
,,,3.18E-06,0.00471375
,,,3.19E-06,0.0045125
,,,3.2E-06,0.00479875
,,,3.21E-06,0.004609375
,,,3.22E-06,0.0048375
,,,3.23E-06,0.004610625
,,,3.24E-06,0.0044675
,,,3.25E-06,0.004993125
,,,3.26E-06,0.00460625
,,,3.27E-06,0.00449375
,,,3.28E-06,0.004491875
,,,3.29E-06,0.004343125
,,,3.3E-06,0.004711875
,,,3.31E-06,0.00476375
,,,3.32E-06,0.004486875
,,,3.33E-06,0.00457
,,,3.34E-06,0.00467
,,,3.35E-06,0.0047325
,,,3.36E-06,0.004665
,,,3.37E-06,0.004940625
,,,3.38E-06,0.004881875
,,,3.39E-06,0.0044925
,,,3.4E-06,0.00449625
,,,3.41E-06,0.004714375
,,,3.42E-06,0.00471375
,,,3.43E-06,0.004691875
,,,3.44E-06,0.004765
,,,3.45E-06,0.0048075
,,,3.46E-06,0.0047875
,,,3.47E-06,0.005015
,,,3.48E-06,0.00454875
,,,3.49E-06,0.00442125
,,,3.5E-06,0.00478875
,,,3.51E-06,0.004553125
,,,3.52E-06,0.004718125
,,,3.53E-06,0.004960625
,,,3.54E-06,0.004585
,,,3.55E-06,0.004875625
,,,3.56E-06,0.004455625
,,,3.57E-06,0.00454875
,,,3.58E-06,0.00473375
