data/raw/Final_POL_Test_1/SOP040_Ch4.csv

"Record Length",1000,"Points",-5E-06,0.02087875
"Sample Interval",1E-08,s,-4.99E-06,0.0210225
"Trigger Point",500,"Samples",-4.98E-06,0.021114375
"Trigger Time",0,s,-4.97E-06,0.021
"",,,-4.96E-06,0.020899375
"Horizontal Offset",-5E-06,s,-4.95E-06,0.021108125
,,,-4.94E-06,0.020818125
,,,-4.93E-06,0.0209925
,,,-4.92E-06,0.020973125
,,,-4.91E-06,0.021163125
,,,-4.9E-06,0.021026875
,,,-4.89E-06,0.021069375
,,,-4.88E-06,0.02079375
,,,-4.87E-06,0.02088125
,,,-4.86E-06,0.0209275
,,,-4.85E-06,0.021020625
,,,-4.84E-06,0.020911875
,,,-4.83E-06,0.020914375
,,,-4.82E-06,0.02090125
,,,-4.81E-06,0.021103125
,,,-4.8E-06,0.020896875
,,,-4.79E-06,0.021010625
,,,-4.78E-06,0.020891875
,,,-4.77E-06,0.0207475
,,,-4.76E-06,0.020755625
,,,-4.75E-06,0.020851875
,,,-4.74E-06,0.021100625
,,,-4.73E-06,0.02072
,,,-4.72E-06,0.020906875
,,,-4.71E-06,0.02108
,,,-4.7E-06,0.02082125
,,,-4.69E-06,0.02074875
,,,-4.68E-06,0.0208275
,,,-4.67E-06,0.020833125
,,,-4.66E-06,0.02094
,,,-4.65E-06,0.020668125
,,,-4.64E-06,0.021135625
,,,-4.63E-06,0.020943125
,,,-4.62E-06,0.020929375
,,,-4.61E-06,0.02082875
,,,-4.6E-06,0.020738125
,,,-4.59E-06,0.020908125
,,,-4.58E-06,0.020885
,,,-4.57E-06,0.0208975
,,,-4.56E-06,0.02098375
,,,-4.55E-06,0.020910625
,,,-4.54E-06,0.021083125
,,,-4.53E-06,0.0209625
,,,-4.52E-06,0.02071125
,,,-4.51E-06,0.02107
,,,-4.5E-06,0.021055
,,,-4.49E-06,0.02113875
,,,-4.48E-06,0.020880625
,,,-4.47E-06,0.020865
,,,-4.46E-06,0.02091
,,,-4.45E-06,0.0204925
,,,-4.44E-06,0.0209675
,,,-4.43E-06,0.02096875
,,,-4.42E-06,0.02097
,,,-4.41E-06,0.0210175
,,,-4.4E-06,0.02080125
,,,-4.39E-06,0.02093375
,,,-4.38E-06,0.020686875
,,,-4.37E-06,0.021096875
,,,-4.36E-06,0.02076375
,,,-4.35E-06,0.0207975
,,,-4.34E-06,0.020865
,,,-4.33E-06,0.02096875
,,,-4.32E-06,0.02115625
,,,-4.31E-06,0.02077625
,,,-4.3E-06,0.02119125
,,,-4.29E-06,0.020933125
,,,-4.28E-06,0.020836875
,,,-4.27E-06,0.0210275
,,,-4.26E-06,0.021019375
,,,-4.25E-06,0.0207625
,,,-4.24E-06,0.0207775
,,,-4.23E-06,0.021141875
,,,-4.22E-06,0.02107
,,,-4.21E-06,0.0205775
,,,-4.2E-06,0.020955
,,,-4.19E-06,0.020711875
,,,-4.18E-06,0.0209
,,,-4.17E-06,0.021018125
,,,-4.16E-06,0.021215
,,,-4.15E-06,0.021148125
,,,-4.14E-06,0.020831875
,,,-4.13E-06,0.020855
,,,-4.12E-06,0.020925
,,,-4.11E-06,0.020856875
,,,-4.1E-06,0.020693125
,,,-4.09E-06,0.020918125
,,,-4.08E-06,0.02089625
,,,-4.07E-06,0.020876875
,,,-4.06E-06,0.020915
,,,-4.05E-06,0.02088875
,,,-4.04E-06,0.020971875
,,,-4.03E-06,0.02086375
,,,-4.02E-06,0.020854375
,,,-4.01E-06,0.020879375
,,,-4E-06,0.020796875
,,,-3.99E-06,0.020985
,,,-3.98E-06,0.02072625
,,,-3.97E-06,0.021155
,,,-3.96E-06,0.0210575
,,,-3.95E-06,0.020883125
,,,-3.94E-06,0.020686875
,,,-3.93E-06,0.02086375
,,,-3.92E-06,0.020574375
,,,-3.91E-06,0.02097625
,,,-3.9E-06,0.021049375
,,,-3.89E-06,0.0210075
,,,-3.88E-06,0.0208325
,,,-3.87E-06,0.0208575
,,,-3.86E-06,0.02083
,,,-3.85E-06,0.0210575
,,,-3.84E-06,0.020808125
,,,-3.83E-06,0.020841875
,,,-3.82E-06,0.02089875
,,,-3.81E-06,0.020714375
,,,-3.8E-06,0.0206825
,,,-3.79E-06,0.02100375
,,,-3.78E-06,0.02108125
,,,-3.77E-06,0.020831875
,,,-3.76E-06,0.020935
,,,-3.75E-06,0.02077375
,,,-3.74E-06,0.020926875
,,,-3.73E-06,0.0211575
,,,-3.72E-06,0.02084
,,,-3.71E-06,0.02097375
,,,-3.7E-06,0.02071125
,,,-3.69E-06,0.020905625
,,,-3.68E-06,0.02093
,,,-3.67E-06,0.021164375
,,,-3.66E-06,0.02097125
,,,-3.65E-06,0.0209325
,,,-3.64E-06,0.020846875
,,,-3.63E-06,0.020816875
,,,-3.62E-06,0.02075125
,,,-3.61E-06,0.020901875
,,,-3.6E-06,0.02067375
,,,-3.59E-06,0.0208775
,,,-3.58E-06,0.020933125
,,,-3.57E-06,0.020965625
,,,-3.56E-06,0.02094875
,,,-3.55E-06,0.02096875
,,,-3.54E-06,0.020956875
,,,-3.53E-06,0.02081625
,,,-3.52E-06,0.020935625
,,,-3.51E-06,0.020885625
,,,-3.5E-06,0.020900625
,,,-3.49E-06,0.020798125
,,,-3.48E-06,0.02100625
,,,-3.47E-06,0.02078875
,,,-3.46E-06,0.020884375
,,,-3.45E-06,0.020914375
,,,-3.44E-06,0.02089625
,,,-3.43E-06,0.0208675
,,,-3.42E-06,0.021006875
,,,-3.41E-06,0.0209025
,,,-3.4E-06,0.020996875
,,,-3.39E-06,0.02074
,,,-3.38E-06,0.020775625
,,,-3.37E-06,0.021000625
,,,-3.36E-06,0.0207875
,,,-3.35E-06,0.020878125
,,,-3.34E-06,0.020875625
,,,-3.33E-06,0.020923125
,,,-3.32E-06,0.02103875
,,,-3.31E-06,0.02094375
,,,-3.3E-06,0.02085125
,,,-3.29E-06,0.02079
,,,-3.28E-06,0.02093875
,,,-3.27E-06,0.020888125
,,,-3.26E-06,0.020884375
,,,-3.25E-06,0.02094125
,,,-3.24E-06,0.020775
,,,-3.23E-06,0.02103
,,,-3.22E-06,0.020945
,,,-3.21E-06,0.02068125
,,,-3.2E-06,0.02076625
,,,-3.19E-06,0.020925
,,,-3.18E-06,0.02052625
,,,-3.17E-06,0.0210125
,,,-3.16E-06,0.021035
,,,-3.15E-06,0.020895
,,,-3.14E-06,0.02116875
,,,-3.13E-06,0.0210775
,,,-3.12E-06,0.02077875
,,,-3.11E-06,0.02094375
,,,-3.1E-06,0.020845
,,,-3.09E-06,0.02068
,,,-3.08E-06,0.02074875
,,,-3.07E-06,0.021256875
,,,-3.06E-06,0.021019375
,,,-3.05E-06,0.02080375
,,,-3.04E-06,0.020871875
,,,-3.03E-06,0.0208875
,,,-3.02E-06,0.020734375
,,,-3.01E-06,0.020795
,,,-3E-06,0.020806875
,,,-2.99E-06,0.0207125
,,,-2.98E-06,0.020933125
,,,-2.97E-06,0.020986875
,,,-2.96E-06,0.02083125
,,,-2.95E-06,0.02078625
,,,-2.94E-06,0.02085125
,,,-2.93E-06,0.02102875
,,,-2.92E-06,0.021035625
,,,-2.91E-06,0.02084625
,,,-2.9E-06,0.02076625
,,,-2.89E-06,0.020925625
,,,-2.88E-06,0.0208025
,,,-2.87E-06,0.02093375
,,,-2.86E-06,0.020888125
,,,-2.85E-06,0.0211075
,,,-2.84E-06,0.021118125
,,,-2.83E-06,0.020859375
,,,-2.82E-06,0.021204375
,,,-2.81E-06,0.020805625
,,,-2.8E-06,0.021044375
,,,-2.79E-06,0.02097375
,,,-2.78E-06,0.0208
,,,-2.77E-06,0.020896875
,,,-2.76E-06,0.0210075
,,,-2.75E-06,0.020756875
,,,-2.74E-06,0.021318125
,,,-2.73E-06,0.0209875
,,,-2.72E-06,0.020828125
,,,-2.71E-06,0.020893125
,,,-2.7E-06,0.020653125
,,,-2.69E-06,0.0208575
,,,-2.68E-06,0.021003125
,,,-2.67E-06,0.0209325
,,,-2.66E-06,0.020661875
,,,-2.65E-06,0.02092125
,,,-2.64E-06,0.02088875
,,,-2.63E-06,0.020836875
,,,-2.62E-06,0.0209825
,,,-2.61E-06,0.020670625
,,,-2.6E-06,0.0207925
,,,-2.59E-06,0.02100625
,,,-2.58E-06,0.0209525
,,,-2.57E-06,0.02126625
,,,-2.56E-06,0.02098
,,,-2.55E-06,0.020928125
,,,-2.54E-06,0.02071
,,,-2.53E-06,0.020870625
,,,-2.52E-06,0.020796875
,,,-2.51E-06,0.021016875
,,,-2.5E-06,0.020945
,,,-2.49E-06,0.020963125
,,,-2.48E-06,0.02086875
,,,-2.47E-06,0.021043125
,,,-2.46E-06,0.020803125
,,,-2.45E-06,0.020900625
,,,-2.44E-06,0.020815625
,,,-2.43E-06,0.02106
,,,-2.42E-06,0.02087625
,,,-2.41E-06,0.021189375
,,,-2.4E-06,0.0210275
,,,-2.39E-06,0.020848125
,,,-2.38E-06,0.020600625
,,,-2.37E-06,0.020810625
,,,-2.36E-06,0.02080375
,,,-2.35E-06,0.021029375
,,,-2.34E-06,0.02097125
,,,-2.33E-06,0.02078875
,,,-2.32E-06,0.020825625
,,,-2.31E-06,0.020896875
,,,-2.3E-06,0.020775
,,,-2.29E-06,0.0209175
,,,-2.28E-06,0.0207475
,,,-2.27E-06,0.0208175
,,,-2.26E-06,0.02121125
,,,-2.25E-06,0.021008125
,,,-2.24E-06,0.021068125
,,,-2.23E-06,0.021263125
,,,-2.22E-06,0.021156875
,,,-2.21E-06,0.020870625
,,,-2.2E-06,0.020855625
,,,-2.19E-06,0.020733125
,,,-2.18E-06,0.0207225
,,,-2.17E-06,0.02076125
,,,-2.16E-06,0.020901875
,,,-2.15E-06,0.020941875
,,,-2.14E-06,0.02108125
,,,-2.13E-06,0.02109875
,,,-2.12E-06,0.020898125
,,,-2.11E-06,0.020993125
,,,-2.1E-06,0.0207975
,,,-2.09E-06,0.020806875
,,,-2.08E-06,0.020880625
,,,-2.07E-06,0.020929375
,,,-2.06E-06,0.020861875
,,,-2.05E-06,0.020830625
,,,-2.04E-06,0.02091625
,,,-2.03E-06,0.02098875
,,,-2.02E-06,0.02116
,,,-2.01E-06,0.02087375
,,,-2E-06,0.020905
,,,-1.99E-06,0.02075875
,,,-1.98E-06,0.02095375
,,,-1.97E-06,0.021028125
,,,-1.96E-06,0.020804375
,,,-1.95E-06,0.021040625
,,,-1.94E-06,0.02096375
,,,-1.93E-06,0.020918125
,,,-1.92E-06,0.02103
,,,-1.91E-06,0.020861875
,,,-1.9E-06,0.020934375
,,,-1.89E-06,0.020971875
,,,-1.88E-06,0.0205975
,,,-1.87E-06,0.020865
,,,-1.86E-06,0.020809375
,,,-1.85E-06,0.0209475
,,,-1.84E-06,0.020840625
,,,-1.83E-06,0.02090375
,,,-1.82E-06,0.02089375
,,,-1.81E-06,0.020753125
,,,-1.8E-06,0.02090125
,,,-1.79E-06,0.020929375
,,,-1.78E-06,0.020933125
,,,-1.77E-06,0.020780625
,,,-1.76E-06,0.0208225
,,,-1.75E-06,0.0210875
,,,-1.74E-06,0.0211875
,,,-1.73E-06,0.021050625
,,,-1.72E-06,0.020706875
,,,-1.71E-06,0.02081
,,,-1.7E-06,0.02095375
,,,-1.69E-06,0.020761875
,,,-1.68E-06,0.020970625
,,,-1.67E-06,0.02107125
,,,-1.66E-06,0.02087
,,,-1.65E-06,0.02108875
,,,-1.64E-06,0.0211725
,,,-1.63E-06,0.02089125
,,,-1.62E-06,0.020695625
,,,-1.61E-06,0.020981875
,,,-1.6E-06,0.02096
,,,-1.59E-06,0.020908125
,,,-1.58E-06,0.020951875
,,,-1.57E-06,0.02098
,,,-1.56E-06,0.020771875
,,,-1.55E-06,0.0209625
,,,-1.54E-06,0.020890625
,,,-1.53E-06,0.02096875
,,,-1.52E-06,0.021140625
,,,-1.51E-06,0.021090625
,,,-1.5E-06,0.02088125
,,,-1.49E-06,0.020975
,,,-1.48E-06,0.02089625
,,,-1.47E-06,0.020635
,,,-1.46E-06,0.02062
,,,-1.45E-06,0.02072125
,,,-1.44E-06,0.021108125
,,,-1.43E-06,0.02101125
,,,-1.42E-06,0.021058125
,,,-1.41E-06,0.020951875
,,,-1.4E-06,0.020958125
,,,-1.39E-06,0.0206525
,,,-1.38E-06,0.02068125
,,,-1.37E-06,0.02079375
,,,-1.36E-06,0.021006875
,,,-1.35E-06,0.020809375
,,,-1.34E-06,0.02099625
,,,-1.33E-06,0.020925
,,,-1.32E-06,0.020960625
,,,-1.31E-06,0.020958125
,,,-1.3E-06,0.02081125
,,,-1.29E-06,0.021028125
,,,-1.28E-06,0.02101
,,,-1.27E-06,0.020956875
,,,-1.26E-06,0.020948125
,,,-1.25E-06,0.02093375
,,,-1.24E-06,0.02100125
,,,-1.23E-06,0.020838125
,,,-1.22E-06,0.0206625
,,,-1.21E-06,0.020784375
,,,-1.2E-06,0.0208225
,,,-1.19E-06,0.0207275
,,,-1.18E-06,0.02094375
,,,-1.17E-06,0.02105125
,,,-1.16E-06,0.020764375
,,,-1.15E-06,0.02093625
,,,-1.14E-06,0.021110625
,,,-1.13E-06,0.021014375
,,,-1.12E-06,0.020929375
,,,-1.11E-06,0.02085
,,,-1.1E-06,0.02101875
,,,-1.09E-06,0.021025
,,,-1.08E-06,0.02088625
,,,-1.07E-06,0.020841875
,,,-1.06E-06,0.020875625
,,,-1.05E-06,0.020835625
,,,-1.04E-06,0.0208475
,,,-1.03E-06,0.0210025
,,,-1.02E-06,0.02100375
,,,-1.01E-06,0.020780625
,,,-1E-06,0.020685625
,,,-9.9E-07,0.02109375
,,,-9.8E-07,0.020910625
,,,-9.7E-07,0.020744375
,,,-9.6E-07,0.020879375
,,,-9.5E-07,0.0208125
,,,-9.4E-07,0.021135625
,,,-9.3E-07,0.021146875
,,,-9.2E-07,0.02083125
,,,-9.1E-07,0.020966875
,,,-9E-07,0.0208225
,,,-8.9E-07,0.020679375
,,,-8.8E-07,0.020971875
,,,-8.7E-07,0.02068
,,,-8.6E-07,0.021
,,,-8.5E-07,0.020894375
,,,-8.4E-07,0.02081375
,,,-8.3E-07,0.02084875
,,,-8.2E-07,0.0211725
,,,-8.1E-07,0.020775
,,,-8E-07,0.020680625
,,,-7.9E-07,0.020756875
,,,-7.8E-07,0.0209725
,,,-7.7E-07,0.02081
,,,-7.6E-07,0.0208375
,,,-7.5E-07,0.020934375
,,,-7.4E-07,0.020885
,,,-7.3E-07,0.02094
,,,-7.2E-07,0.020796875
,,,-7.1E-07,0.02081625
,,,-7E-07,0.0209725
,,,-6.9E-07,0.02079
,,,-6.8E-07,0.020890625
,,,-6.7E-07,0.021024375
,,,-6.6E-07,0.0207075
,,,-6.5E-07,0.0207
,,,-6.4E-07,0.020935625
,,,-6.3E-07,0.020689375
,,,-6.2E-07,0.020954375
,,,-6.1E-07,0.02087625
,,,-6E-07,0.021074375
,,,-5.9E-07,0.02090375
,,,-5.8E-07,0.0210775
,,,-5.7E-07,0.02086375
,,,-5.6E-07,0.0208975
,,,-5.5E-07,0.02085375
,,,-5.4E-07,0.020970625
,,,-5.3E-07,0.02092375
,,,-5.2E-07,0.020929375
,,,-5.1E-07,0.020940625
,,,-5E-07,0.0207675
,,,-4.9E-07,0.021036875
,,,-4.8E-07,0.020744375
,,,-4.7E-07,0.020825625
,,,-4.6E-07,0.02091625
,,,-4.5E-07,0.02071375
,,,-4.4E-07,0.020629375
,,,-4.3E-07,0.021056875
,,,-4.2E-07,0.02107125
,,,-4.1E-07,0.02062875
,,,-4E-07,0.020886875
,,,-3.9E-07,0.02089
,,,-3.8E-07,0.021003125
,,,-3.7E-07,0.02091875
,,,-3.6E-07,0.02113625
,,,-3.5E-07,0.02103625
,,,-3.4E-07,0.02093625
,,,-3.3E-07,0.02106625
,,,-3.2E-07,0.020840625
,,,-3.1E-07,0.020923125
,,,-3E-07,0.02086375
,,,-2.9E-07,0.02082
,,,-2.8E-07,0.020843125
,,,-2.7E-07,0.020891875
,,,-2.6E-07,0.0208725
,,,-2.5E-07,0.02105875
,,,-2.4E-07,0.020758125
,,,-2.3E-07,0.02085
,,,-2.2E-07,0.0208725
,,,-2.1E-07,0.020913125
,,,-2E-07,0.0207725
,,,-1.9E-07,0.0204975
,,,-1.8E-07,0.0211775
,,,-1.7E-07,0.020719375
,,,-1.6E-07,0.02087625
,,,-1.5E-07,0.021026875
,,,-1.4E-07,0.020945
,,,-1.3E-07,0.0207375
,,,-1.2E-07,0.02097
,,,-1.1E-07,0.02066625
,,,-1E-07,0.020934375
,,,-9E-08,0.02100125
,,,-8E-08,0.020818125
,,,-7E-08,0.020811875
,,,-6E-08,0.020789375
,,,-5E-08,0.020674375
,,,-4E-08,0.021431875
,,,-3E-08,0.022641875
,,,-2E-08,0.019853125
,,,-1E-08,0.0171575
,,,0,0.017359375
,,,1E-08,0.022970625
,,,2E-08,0.025605
,,,3E-08,0.024966875
,,,4E-08,0.020556875
,,,5E-08,0.018070625
,,,6E-08,0.01750625
,,,7E-08,0.01915625
,,,8E-08,0.021580625
,,,9E-08,0.023103125
,,,1E-07,0.02352125
,,,1.1E-07,0.02189375
,,,1.2E-07,0.019916875
,,,1.3E-07,0.018961875
,,,1.4E-07,0.01983625
,,,1.5E-07,0.0210275
,,,1.6E-07,0.021531875
,,,1.7E-07,0.02136875
,,,1.8E-07,0.021073125
,,,1.9E-07,0.0209525
,,,2E-07,0.020879375
,,,2.1E-07,0.02053875
,,,2.2E-07,0.020655625
,,,2.3E-07,0.020953125
,,,2.4E-07,0.02077625
,,,2.5E-07,0.020975
,,,2.6E-07,0.02093
,,,2.7E-07,0.02089625
,,,2.8E-07,0.02083125
,,,2.9E-07,0.02081
,,,3E-07,0.020830625
,,,3.1E-07,0.02093125
,,,3.2E-07,0.0209
,,,3.3E-07,0.0211725
,,,3.4E-07,0.020665
,,,3.5E-07,0.020865
,,,3.6E-07,0.02073375
,,,3.7E-07,0.020758125
,,,3.8E-07,0.02098
,,,3.9E-07,0.021110625
,,,4E-07,0.020935
,,,4.1E-07,0.020926875
,,,4.2E-07,0.020843125
,,,4.3E-07,0.020935
,,,4.4E-07,0.0208625
,,,4.5E-07,0.020805
,,,4.6E-07,0.020825
,,,4.7E-07,0.021014375
,,,4.8E-07,0.020781875
,,,4.9E-07,0.020865625
,,,5E-07,0.02088125
,,,5.1E-07,0.021169375
,,,5.2E-07,0.020810625
,,,5.3E-07,0.020945
,,,5.4E-07,0.020734375
,,,5.5E-07,0.0208125
,,,5.6E-07,0.021119375
,,,5.7E-07,0.02095875
,,,5.8E-07,0.020791875
,,,5.9E-07,0.0210525
,,,6E-07,0.021035625
,,,6.1E-07,0.020793125
,,,6.2E-07,0.020918125
,,,6.3E-07,0.020764375
,,,6.4E-07,0.020945625
,,,6.5E-07,0.0212075
,,,6.6E-07,0.020943125
,,,6.7E-07,0.0209625
,,,6.8E-07,0.0210625
,,,6.9E-07,0.02075875
,,,7E-07,0.0207
,,,7.1E-07,0.02101875
,,,7.2E-07,0.02106
,,,7.3E-07,0.020624375
,,,7.4E-07,0.02088
,,,7.5E-07,0.02106125
,,,7.6E-07,0.020955
,,,7.7E-07,0.021109375
,,,7.8E-07,0.020958125
,,,7.9E-07,0.0207375
,,,8E-07,0.02080875
,,,8.1E-07,0.0207775
,,,8.2E-07,0.020793125
,,,8.3E-07,0.020955
,,,8.4E-07,0.02097125
,,,8.5E-07,0.020985
,,,8.6E-07,0.02080625
,,,8.7E-07,0.0208775
,,,8.8E-07,0.02073
,,,8.9E-07,0.020891875
,,,9E-07,0.020928125
,,,9.1E-07,0.02086375
,,,9.2E-07,0.020758125
,,,9.3E-07,0.020941875
,,,9.4E-07,0.02086125
,,,9.5E-07,0.0209925
,,,9.6E-07,0.0210725
,,,9.7E-07,0.020741875
,,,9.8E-07,0.020994375
,,,9.9E-07,0.02103875
,,,1E-06,0.02097375
,,,1.01E-06,0.02104375
,,,1.02E-06,0.02093
,,,1.03E-06,0.02075
,,,1.04E-06,0.02095625
,,,1.05E-06,0.021183125
,,,1.06E-06,0.021119375
,,,1.07E-06,0.02082125
,,,1.08E-06,0.0207525
,,,1.09E-06,0.02093625
,,,1.1E-06,0.02069625
,,,1.11E-06,0.02075
,,,1.12E-06,0.020945625
,,,1.13E-06,0.020636875
,,,1.14E-06,0.02084875
,,,1.15E-06,0.02088125
,,,1.16E-06,0.021031875
,,,1.17E-06,0.02100625
,,,1.18E-06,0.020848125
,,,1.19E-06,0.02095
,,,1.2E-06,0.020878125
,,,1.21E-06,0.0207975
,,,1.22E-06,0.0209225
,,,1.23E-06,0.020949375
,,,1.24E-06,0.020664375
,,,1.25E-06,0.0210675
,,,1.26E-06,0.020938125
,,,1.27E-06,0.021046875
,,,1.28E-06,0.020575625
,,,1.29E-06,0.0208675
,,,1.3E-06,0.020918125
,,,1.31E-06,0.020861875
,,,1.32E-06,0.0207625
,,,1.33E-06,0.020805
,,,1.34E-06,0.021156875
,,,1.35E-06,0.0207875
,,,1.36E-06,0.020989375
,,,1.37E-06,0.0207125
,,,1.38E-06,0.020915
,,,1.39E-06,0.020866875
,,,1.4E-06,0.02078125
,,,1.41E-06,0.020909375
,,,1.42E-06,0.020710625
,,,1.43E-06,0.020863125
,,,1.44E-06,0.02091375
,,,1.45E-06,0.020995625
,,,1.46E-06,0.021029375
,,,1.47E-06,0.020775
,,,1.48E-06,0.020745
,,,1.49E-06,0.020815
,,,1.5E-06,0.0207975
,,,1.51E-06,0.021095
,,,1.52E-06,0.02069375
,,,1.53E-06,0.02093125
,,,1.54E-06,0.020926875
,,,1.55E-06,0.02068
,,,1.56E-06,0.021026875
,,,1.57E-06,0.0211225
,,,1.58E-06,0.0208
,,,1.59E-06,0.020811875
,,,1.6E-06,0.020821875
,,,1.61E-06,0.020911875
,,,1.62E-06,0.021038125
,,,1.63E-06,0.020959375
,,,1.64E-06,0.02096625
,,,1.65E-06,0.02084375
,,,1.66E-06,0.02079375
,,,1.67E-06,0.020831875
,,,1.68E-06,0.02090375
,,,1.69E-06,0.020898125
,,,1.7E-06,0.02114
,,,1.71E-06,0.02106
,,,1.72E-06,0.020749375
,,,1.73E-06,0.020788125
,,,1.74E-06,0.020914375
,,,1.75E-06,0.02081875
,,,1.76E-06,0.020826875
,,,1.77E-06,0.02063
,,,1.78E-06,0.02073
,,,1.79E-06,0.020905625
,,,1.8E-06,0.020834375
,,,1.81E-06,0.0210575
,,,1.82E-06,0.020905
,,,1.83E-06,0.021043125
,,,1.84E-06,0.020669375
,,,1.85E-06,0.0207425
,,,1.86E-06,0.020724375
,,,1.87E-06,0.02084875
,,,1.88E-06,0.020860625
,,,1.89E-06,0.02088
,,,1.9E-06,0.02099
,,,1.91E-06,0.02094625
,,,1.92E-06,0.0209575
,,,1.93E-06,0.02102
,,,1.94E-06,0.020960625
,,,1.95E-06,0.0208675
,,,1.96E-06,0.020916875
,,,1.97E-06,0.020756875
,,,1.98E-06,0.020911875
,,,1.99E-06,0.02082125
,,,2E-06,0.02076
,,,2.01E-06,0.0210925
,,,2.02E-06,0.021028125
,,,2.03E-06,0.02076875
,,,2.04E-06,0.02090375
,,,2.05E-06,0.02092875
,,,2.06E-06,0.020909375
,,,2.07E-06,0.021198125
,,,2.08E-06,0.020766875
,,,2.09E-06,0.020769375
,,,2.1E-06,0.021031875
,,,2.11E-06,0.0208175
,,,2.12E-06,0.02095375
,,,2.13E-06,0.021260625
,,,2.14E-06,0.020823125
,,,2.15E-06,0.020759375
,,,2.16E-06,0.020689375
,,,2.17E-06,0.020718125
,,,2.18E-06,0.02098125
,,,2.19E-06,0.02096625
,,,2.2E-06,0.020665625
,,,2.21E-06,0.020854375
,,,2.22E-06,0.02092
,,,2.23E-06,0.0209625
,,,2.24E-06,0.020805
,,,2.25E-06,0.02104125
,,,2.26E-06,0.020828125
,,,2.27E-06,0.02091875
,,,2.28E-06,0.020789375
,,,2.29E-06,0.020531875
,,,2.3E-06,0.020775625
,,,2.31E-06,0.02083125
,,,2.32E-06,0.02105875
,,,2.33E-06,0.020795
,,,2.34E-06,0.020885
,,,2.35E-06,0.02074
,,,2.36E-06,0.0207475
,,,2.37E-06,0.020534375
,,,2.38E-06,0.021060625
,,,2.39E-06,0.02070125
,,,2.4E-06,0.02077375
,,,2.41E-06,0.0207825
,,,2.42E-06,0.02088
,,,2.43E-06,0.02085375
,,,2.44E-06,0.020955
,,,2.45E-06,0.02098125
,,,2.46E-06,0.0208575
,,,2.47E-06,0.020868125
,,,2.48E-06,0.02089
,,,2.49E-06,0.02103625
,,,2.5E-06,0.020975625
,,,2.51E-06,0.02098
,,,2.52E-06,0.0209725
,,,2.53E-06,0.020881875
,,,2.54E-06,0.021099375
,,,2.55E-06,0.0207925
,,,2.56E-06,0.02097125
,,,2.57E-06,0.020995
,,,2.58E-06,0.02085375
,,,2.59E-06,0.020656875
,,,2.6E-06,0.02090125
,,,2.61E-06,0.02102375
,,,2.62E-06,0.02093
,,,2.63E-06,0.020878125
,,,2.64E-06,0.02065875
,,,2.65E-06,0.021005
,,,2.66E-06,0.0209025
,,,2.67E-06,0.0209775
,,,2.68E-06,0.02094875
,,,2.69E-06,0.020793125
,,,2.7E-06,0.020785
,,,2.71E-06,0.020909375
,,,2.72E-06,0.02093625
,,,2.73E-06,0.02099125
,,,2.74E-06,0.020936875
,,,2.75E-06,0.020755625
,,,2.76E-06,0.02080625
,,,2.77E-06,0.020871875
,,,2.78E-06,0.020825
,,,2.79E-06,0.020865
,,,2.8E-06,0.020698125
,,,2.81E-06,0.020766875
,,,2.82E-06,0.02095625
,,,2.83E-06,0.021094375
,,,2.84E-06,0.021085
,,,2.85E-06,0.0210925
,,,2.86E-06,0.020703125
,,,2.87E-06,0.020895625
,,,2.88E-06,0.02082875
,,,2.89E-06,0.02085625
,,,2.9E-06,0.02092625
,,,2.91E-06,0.0208175
,,,2.92E-06,0.020935
,,,2.93E-06,0.020940625
,,,2.94E-06,0.02095625
,,,2.95E-06,0.02084125
,,,2.96E-06,0.020924375
,,,2.97E-06,0.021133125
,,,2.98E-06,0.020835625
,,,2.99E-06,0.021011875
,,,3E-06,0.020939375
,,,3.01E-06,0.020884375
,,,3.02E-06,0.0207875
,,,3.03E-06,0.020845
,,,3.04E-06,0.0209225
,,,3.05E-06,0.020825625
,,,3.06E-06,0.020828125
,,,3.07E-06,0.020938125
,,,3.08E-06,0.020998125
,,,3.09E-06,0.020855625
,,,3.1E-06,0.020788125
,,,3.11E-06,0.02085375
,,,3.12E-06,0.0209175
,,,3.13E-06,0.0209025
,,,3.14E-06,0.021045625
,,,3.15E-06,0.020986875
,,,3.16E-06,0.0205425
,,,3.17E-06,0.02095125
,,,3.18E-06,0.0210025
,,,3.19E-06,0.0206975
,,,3.2E-06,0.021054375
,,,3.21E-06,0.020991875
,,,3.22E-06,0.02071125
,,,3.23E-06,0.02088125
,,,3.24E-06,0.021065
,,,3.25E-06,0.02077
,,,3.26E-06,0.021018125
,,,3.27E-06,0.02085375
,,,3.28E-06,0.020905625
,,,3.29E-06,0.0208175
,,,3.3E-06,0.02061125
,,,3.31E-06,0.020838125
,,,3.32E-06,0.020718125
,,,3.33E-06,0.02104
,,,3.34E-06,0.020936875
,,,3.35E-06,0.02087
,,,3.36E-06,0.02079
,,,3.37E-06,0.0209425
,,,3.38E-06,0.021124375
,,,3.39E-06,0.020791875
,,,3.4E-06,0.020751875
,,,3.41E-06,0.021245625
,,,3.42E-06,0.02093875
,,,3.43E-06,0.020715625
,,,3.44E-06,0.0210025
,,,3.45E-06,0.020738125
,,,3.46E-06,0.020746875
,,,3.47E-06,0.021075
,,,3.48E-06,0.020958125
,,,3.49E-06,0.02090625
,,,3.5E-06,0.02098
,,,3.51E-06,0.020638125
,,,3.52E-06,0.021026875
,,,3.53E-06,0.021000625
,,,3.54E-06,0.0212075
,,,3.55E-06,0.02085
,,,3.56E-06,0.02087
,,,3.57E-06,0.0208025
,,,3.58E-06,0.020718125
,,,3.59E-06,0.020925
,,,3.6E-06,0.020788125
,,,3.61E-06,0.020713125
