data/raw/Final_POL_Test_1/SOP011_Ch3.csv

"Record Length",1000,"Points",-5E-06,0.022789376
"Sample Interval",1E-08,s,-4.99E-06,0.022556876
"Trigger Point",500,"Samples",-4.98E-06,0.023023751
"Trigger Time",0,s,-4.97E-06,0.022541876
"",,,-4.96E-06,0.022563126
"Horizontal Offset",-5E-06,s,-4.95E-06,0.022695001
,,,-4.94E-06,0.022626876
,,,-4.93E-06,0.022690626
,,,-4.92E-06,0.022772501
,,,-4.91E-06,0.022585626
,,,-4.9E-06,0.022884376
,,,-4.89E-06,0.022871876
,,,-4.88E-06,0.022789376
,,,-4.87E-06,0.022645626
,,,-4.86E-06,0.022584376
,,,-4.85E-06,0.022568126
,,,-4.84E-06,0.022628751
,,,-4.83E-06,0.022494376
,,,-4.82E-06,0.022662501
,,,-4.81E-06,0.022780001
,,,-4.8E-06,0.022779376
,,,-4.79E-06,0.022772501
,,,-4.78E-06,0.022389376
,,,-4.77E-06,0.022708126
,,,-4.76E-06,0.022600001
,,,-4.75E-06,0.022513751
,,,-4.74E-06,0.022742501
,,,-4.73E-06,0.022968126
,,,-4.72E-06,0.022850001
,,,-4.71E-06,0.022738751
,,,-4.7E-06,0.022585001
,,,-4.69E-06,0.022490626
,,,-4.68E-06,0.022771251
,,,-4.67E-06,0.022808751
,,,-4.66E-06,0.022653751
,,,-4.65E-06,0.022475626
,,,-4.64E-06,0.022875001
,,,-4.63E-06,0.022566876
,,,-4.62E-06,0.022461876
,,,-4.61E-06,0.022591251
,,,-4.6E-06,0.022763751
,,,-4.59E-06,0.022741251
,,,-4.58E-06,0.022687501
,,,-4.57E-06,0.022732501
,,,-4.56E-06,0.022543751
,,,-4.55E-06,0.022493126
,,,-4.54E-06,0.022896876
,,,-4.53E-06,0.022388751
,,,-4.52E-06,0.022606251
,,,-4.51E-06,0.022693126
,,,-4.5E-06,0.022777501
,,,-4.49E-06,0.022827501
,,,-4.48E-06,0.022825001
,,,-4.47E-06,0.022835626
,,,-4.46E-06,0.022830001
,,,-4.45E-06,0.022826251
,,,-4.44E-06,0.022798126
,,,-4.43E-06,0.022543126
,,,-4.42E-06,0.022718126
,,,-4.41E-06,0.022749376
,,,-4.4E-06,0.022578751
,,,-4.39E-06,0.022798751
,,,-4.38E-06,0.022741876
,,,-4.37E-06,0.022725626
,,,-4.36E-06,0.022680001
,,,-4.35E-06,0.022690001
,,,-4.34E-06,0.022396251
,,,-4.33E-06,0.022741876
,,,-4.32E-06,0.022841876
,,,-4.31E-06,0.022864376
,,,-4.3E-06,0.022638126
,,,-4.29E-06,0.022502501
,,,-4.28E-06,0.022781251
,,,-4.27E-06,0.022868751
,,,-4.26E-06,0.022585001
,,,-4.25E-06,0.022595626
,,,-4.24E-06,0.022811876
,,,-4.23E-06,0.022748126
,,,-4.22E-06,0.022842501
,,,-4.21E-06,0.022848751
,,,-4.2E-06,0.022701251
,,,-4.19E-06,0.022841876
,,,-4.18E-06,0.022501876
,,,-4.17E-06,0.022715626
,,,-4.16E-06,0.022883126
,,,-4.15E-06,0.022839376
,,,-4.14E-06,0.022696876
,,,-4.13E-06,0.022600001
,,,-4.12E-06,0.022665001
,,,-4.11E-06,0.022546251
,,,-4.1E-06,0.022686876
,,,-4.09E-06,0.022821251
,,,-4.08E-06,0.022812501
,,,-4.07E-06,0.022723126
,,,-4.06E-06,0.022988751
,,,-4.05E-06,0.022625001
,,,-4.04E-06,0.022840001
,,,-4.03E-06,0.022556876
,,,-4.02E-06,0.022717501
,,,-4.01E-06,0.022770001
,,,-4E-06,0.022623751
,,,-3.99E-06,0.022706251
,,,-3.98E-06,0.022738126
,,,-3.97E-06,0.022621876
,,,-3.96E-06,0.022630001
,,,-3.95E-06,0.022911251
,,,-3.94E-06,0.022644376
,,,-3.93E-06,0.022682501
,,,-3.92E-06,0.023018126
,,,-3.91E-06,0.022631876
,,,-3.9E-06,0.023033126
,,,-3.89E-06,0.022696876
,,,-3.88E-06,0.022835001
,,,-3.87E-06,0.022595626
,,,-3.86E-06,0.022541876
,,,-3.85E-06,0.022537501
,,,-3.84E-06,0.022694376
,,,-3.83E-06,0.022886876
,,,-3.82E-06,0.022733126
,,,-3.81E-06,0.022853126
,,,-3.8E-06,0.022931251
,,,-3.79E-06,0.022745626
,,,-3.78E-06,0.022687501
,,,-3.77E-06,0.022645001
,,,-3.76E-06,0.022795626
,,,-3.75E-06,0.022669376
,,,-3.74E-06,0.022861876
,,,-3.73E-06,0.022842501
,,,-3.72E-06,0.022508126
,,,-3.71E-06,0.022752501
,,,-3.7E-06,0.022617501
,,,-3.69E-06,0.022701251
,,,-3.68E-06,0.022730001
,,,-3.67E-06,0.022758751
,,,-3.66E-06,0.022689376
,,,-3.65E-06,0.022685001
,,,-3.64E-06,0.022565626
,,,-3.63E-06,0.022781251
,,,-3.62E-06,0.022507501
,,,-3.61E-06,0.022538751
,,,-3.6E-06,0.022633751
,,,-3.59E-06,0.022818126
,,,-3.58E-06,0.022695001
,,,-3.57E-06,0.023051251
,,,-3.56E-06,0.022991251
,,,-3.55E-06,0.022991251
,,,-3.54E-06,0.022516876
,,,-3.53E-06,0.022742501
,,,-3.52E-06,0.022777501
,,,-3.51E-06,0.022638751
,,,-3.5E-06,0.022759376
,,,-3.49E-06,0.022798126
,,,-3.48E-06,0.022879376
,,,-3.47E-06,0.022671876
,,,-3.46E-06,0.022608126
,,,-3.45E-06,0.022698751
,,,-3.44E-06,0.022810001
,,,-3.43E-06,0.022628126
,,,-3.42E-06,0.022985626
,,,-3.41E-06,0.022676251
,,,-3.4E-06,0.022690626
,,,-3.39E-06,0.022800626
,,,-3.38E-06,0.022415626
,,,-3.37E-06,0.022608126
,,,-3.36E-06,0.022931251
,,,-3.35E-06,0.022510001
,,,-3.34E-06,0.022695626
,,,-3.33E-06,0.022728751
,,,-3.32E-06,0.022551876
,,,-3.31E-06,0.022652501
,,,-3.3E-06,0.022678751
,,,-3.29E-06,0.022510626
,,,-3.28E-06,0.022703751
,,,-3.27E-06,0.022770001
,,,-3.26E-06,0.022743751
,,,-3.25E-06,0.022831876
,,,-3.24E-06,0.022729376
,,,-3.23E-06,0.022870001
,,,-3.22E-06,0.022636251
,,,-3.21E-06,0.022480001
,,,-3.2E-06,0.022666251
,,,-3.19E-06,0.022667501
,,,-3.18E-06,0.022410001
,,,-3.17E-06,0.022833126
,,,-3.16E-06,0.022621876
,,,-3.15E-06,0.022703751
,,,-3.14E-06,0.022841251
,,,-3.13E-06,0.022656251
,,,-3.12E-06,0.022718751
,,,-3.11E-06,0.022796251
,,,-3.1E-06,0.022880626
,,,-3.09E-06,0.022578751
,,,-3.08E-06,0.022696251
,,,-3.07E-06,0.022764376
,,,-3.06E-06,0.022464376
,,,-3.05E-06,0.022669376
,,,-3.04E-06,0.022630001
,,,-3.03E-06,0.022875626
,,,-3.02E-06,0.022725001
,,,-3.01E-06,0.022806876
,,,-3E-06,0.022824376
,,,-2.99E-06,0.022780626
,,,-2.98E-06,0.022772501
,,,-2.97E-06,0.022760001
,,,-2.96E-06,0.022766251
,,,-2.95E-06,0.022676251
,,,-2.94E-06,0.022524376
,,,-2.93E-06,0.022548126
,,,-2.92E-06,0.022475626
,,,-2.91E-06,0.022609376
,,,-2.9E-06,0.022968126
,,,-2.89E-06,0.022838126
,,,-2.88E-06,0.022433751
,,,-2.87E-06,0.022505626
,,,-2.86E-06,0.022689376
,,,-2.85E-06,0.022871251
,,,-2.84E-06,0.022654376
,,,-2.83E-06,0.022418126
,,,-2.82E-06,0.022681876
,,,-2.81E-06,0.022754376
,,,-2.8E-06,0.022591251
,,,-2.79E-06,0.022640001
,,,-2.78E-06,0.022716876
,,,-2.77E-06,0.022661876
,,,-2.76E-06,0.022736876
,,,-2.75E-06,0.022696251
,,,-2.74E-06,0.022768751
,,,-2.73E-06,0.022815626
,,,-2.72E-06,0.022671876
,,,-2.71E-06,0.022710626
,,,-2.7E-06,0.022755001
,,,-2.69E-06,0.022512501
,,,-2.68E-06,0.022842501
,,,-2.67E-06,0.022712501
,,,-2.66E-06,0.022720001
,,,-2.65E-06,0.022601876
,,,-2.64E-06,0.022776876
,,,-2.63E-06,0.022805001
,,,-2.62E-06,0.022562501
,,,-2.61E-06,0.022664376
,,,-2.6E-06,0.022706251
,,,-2.59E-06,0.022715001
,,,-2.58E-06,0.022811876
,,,-2.57E-06,0.022584376
,,,-2.56E-06,0.022622501
,,,-2.55E-06,0.022545626
,,,-2.54E-06,0.023098751
,,,-2.53E-06,0.022575001
,,,-2.52E-06,0.022630626
,,,-2.51E-06,0.023029376
,,,-2.5E-06,0.022627501
,,,-2.49E-06,0.022528126
,,,-2.48E-06,0.022581876
,,,-2.47E-06,0.022734376
,,,-2.46E-06,0.022873126
,,,-2.45E-06,0.022812501
,,,-2.44E-06,0.022967501
,,,-2.43E-06,0.022695001
,,,-2.42E-06,0.022713751
,,,-2.41E-06,0.022655001
,,,-2.4E-06,0.022733751
,,,-2.39E-06,0.022734376
,,,-2.38E-06,0.022773751
,,,-2.37E-06,0.022636876
,,,-2.36E-06,0.022638751
,,,-2.35E-06,0.022359376
,,,-2.34E-06,0.022765626
,,,-2.33E-06,0.022858751
,,,-2.32E-06,0.022705001
,,,-2.31E-06,0.022652501
,,,-2.3E-06,0.022675001
,,,-2.29E-06,0.022733751
,,,-2.28E-06,0.022664376
,,,-2.27E-06,0.022563126
,,,-2.26E-06,0.022800001
,,,-2.25E-06,0.022811251
,,,-2.24E-06,0.022590626
,,,-2.23E-06,0.022765626
,,,-2.22E-06,0.022632501
,,,-2.21E-06,0.022613751
,,,-2.2E-06,0.022685001
,,,-2.19E-06,0.022795001
,,,-2.18E-06,0.022720001
,,,-2.17E-06,0.022570001
,,,-2.16E-06,0.022795001
,,,-2.15E-06,0.022647501
,,,-2.14E-06,0.023013126
,,,-2.13E-06,0.022726876
,,,-2.12E-06,0.022675001
,,,-2.11E-06,0.022682501
,,,-2.1E-06,0.022903751
,,,-2.09E-06,0.022799376
,,,-2.08E-06,0.022731251
,,,-2.07E-06,0.022945001
,,,-2.06E-06,0.022702501
,,,-2.05E-06,0.022750001
,,,-2.04E-06,0.022719376
,,,-2.03E-06,0.022581876
,,,-2.02E-06,0.022666251
,,,-2.01E-06,0.022695001
,,,-2E-06,0.022633126
,,,-1.99E-06,0.022755626
,,,-1.98E-06,0.022885001
,,,-1.97E-06,0.022506876
,,,-1.96E-06,0.022643751
,,,-1.95E-06,0.022777501
,,,-1.94E-06,0.022728126
,,,-1.93E-06,0.022720001
,,,-1.92E-06,0.022633126
,,,-1.91E-06,0.022703126
,,,-1.9E-06,0.022830626
,,,-1.89E-06,0.022579376
,,,-1.88E-06,0.022747501
,,,-1.87E-06,0.022369376
,,,-1.86E-06,0.022725001
,,,-1.85E-06,0.022847501
,,,-1.84E-06,0.022856876
,,,-1.83E-06,0.022901251
,,,-1.82E-06,0.022613126
,,,-1.81E-06,0.022755626
,,,-1.8E-06,0.022690001
,,,-1.79E-06,0.022483126
,,,-1.78E-06,0.022698751
,,,-1.77E-06,0.022801876
,,,-1.76E-06,0.022509376
,,,-1.75E-06,0.022777501
,,,-1.74E-06,0.022887501
,,,-1.73E-06,0.022687501
,,,-1.72E-06,0.022634376
,,,-1.71E-06,0.022850001
,,,-1.7E-06,0.022705626
,,,-1.69E-06,0.022928751
,,,-1.68E-06,0.022721876
,,,-1.67E-06,0.022627501
,,,-1.66E-06,0.022619376
,,,-1.65E-06,0.022755626
,,,-1.64E-06,0.022924376
,,,-1.63E-06,0.022614376
,,,-1.62E-06,0.022497501
,,,-1.61E-06,0.022666876
,,,-1.6E-06,0.022696876
,,,-1.59E-06,0.022768751
,,,-1.58E-06,0.022973126
,,,-1.57E-06,0.022433751
,,,-1.56E-06,0.022911876
,,,-1.55E-06,0.022569376
,,,-1.54E-06,0.022600001
,,,-1.53E-06,0.023083751
,,,-1.52E-06,0.022623751
,,,-1.51E-06,0.022570001
,,,-1.5E-06,0.022792501
,,,-1.49E-06,0.022552501
,,,-1.48E-06,0.022891251
,,,-1.47E-06,0.022726876
,,,-1.46E-06,0.022833126
,,,-1.45E-06,0.022568126
,,,-1.44E-06,0.022564376
,,,-1.43E-06,0.022869376
,,,-1.42E-06,0.022730001
,,,-1.41E-06,0.022637501
,,,-1.4E-06,0.022710626
,,,-1.39E-06,0.022556876
,,,-1.38E-06,0.022802501
,,,-1.37E-06,0.022735001
,,,-1.36E-06,0.022715626
,,,-1.35E-06,0.022590001
,,,-1.34E-06,0.022821876
,,,-1.33E-06,0.022641876
,,,-1.32E-06,0.022945001
,,,-1.31E-06,0.022466876
,,,-1.3E-06,0.022675001
,,,-1.29E-06,0.022810001
,,,-1.28E-06,0.022615001
,,,-1.27E-06,0.022770626
,,,-1.26E-06,0.022896251
,,,-1.25E-06,0.022864376
,,,-1.24E-06,0.022435626
,,,-1.23E-06,0.022520001
,,,-1.22E-06,0.022705001
,,,-1.21E-06,0.022658751
,,,-1.2E-06,0.022701251
,,,-1.19E-06,0.022561251
,,,-1.18E-06,0.022745001
,,,-1.17E-06,0.022935001
,,,-1.16E-06,0.023041876
,,,-1.15E-06,0.022870001
,,,-1.14E-06,0.022689376
,,,-1.13E-06,0.022381251
,,,-1.12E-06,0.022750001
,,,-1.11E-06,0.022596251
,,,-1.1E-06,0.022665001
,,,-1.09E-06,0.022695626
,,,-1.08E-06,0.022556251
,,,-1.07E-06,0.022785001
,,,-1.06E-06,0.022770001
,,,-1.05E-06,0.022806251
,,,-1.04E-06,0.022395626
,,,-1.03E-06,0.022790626
,,,-1.02E-06,0.022534376
,,,-1.01E-06,0.022682501
,,,-1E-06,0.022862501
,,,-9.9E-07,0.022722501
,,,-9.8E-07,0.022893751
,,,-9.7E-07,0.022706876
,,,-9.6E-07,0.022902501
,,,-9.5E-07,0.022588126
,,,-9.4E-07,0.022784376
,,,-9.3E-07,0.022785001
,,,-9.2E-07,0.022753126
,,,-9.1E-07,0.022609376
,,,-9E-07,0.022527501
,,,-8.9E-07,0.022607501
,,,-8.8E-07,0.022787501
,,,-8.7E-07,0.022826876
,,,-8.6E-07,0.022787501
,,,-8.5E-07,0.022673126
,,,-8.4E-07,0.022885626
,,,-8.3E-07,0.022698126
,,,-8.2E-07,0.022863751
,,,-8.1E-07,0.022534376
,,,-8E-07,0.022773751
,,,-7.9E-07,0.022589376
,,,-7.8E-07,0.022531876
,,,-7.7E-07,0.022578751
,,,-7.6E-07,0.022928126
,,,-7.5E-07,0.022978126
,,,-7.4E-07,0.022772501
,,,-7.3E-07,0.022695001
,,,-7.2E-07,0.022540001
,,,-7.1E-07,0.022625001
,,,-7E-07,0.022850001
,,,-6.9E-07,0.022725001
,,,-6.8E-07,0.022607501
,,,-6.7E-07,0.022798751
,,,-6.6E-07,0.022798126
,,,-6.5E-07,0.022551251
,,,-6.4E-07,0.022741876
,,,-6.3E-07,0.022473751
,,,-6.2E-07,0.022693751
,,,-6.1E-07,0.022765001
,,,-6E-07,0.022891876
,,,-5.9E-07,0.022748126
,,,-5.8E-07,0.022552501
,,,-5.7E-07,0.022473751
,,,-5.6E-07,0.022711876
,,,-5.5E-07,0.022653751
,,,-5.4E-07,0.022506251
,,,-5.3E-07,0.022658126
,,,-5.2E-07,0.022929376
,,,-5.1E-07,0.022890626
,,,-5E-07,0.022808751
,,,-4.9E-07,0.022723751
,,,-4.8E-07,0.022689376
,,,-4.7E-07,0.022898126
,,,-4.6E-07,0.022726876
,,,-4.5E-07,0.022655001
,,,-4.4E-07,0.022836876
,,,-4.3E-07,0.022806876
,,,-4.2E-07,0.022736251
,,,-4.1E-07,0.022558751
,,,-4E-07,0.022473126
,,,-3.9E-07,0.022807501
,,,-3.8E-07,0.022805626
,,,-3.7E-07,0.022633751
,,,-3.6E-07,0.022861876
,,,-3.5E-07,0.022616251
,,,-3.4E-07,0.022393126
,,,-3.3E-07,0.022971876
,,,-3.2E-07,0.022850001
,,,-3.1E-07,0.022612501
,,,-3E-07,0.022473126
,,,-2.9E-07,0.022850001
,,,-2.8E-07,0.022551876
,,,-2.7E-07,0.022790626
,,,-2.6E-07,0.022689376
,,,-2.5E-07,0.022702501
,,,-2.4E-07,0.022556876
,,,-2.3E-07,0.022658126
,,,-2.2E-07,0.022669376
,,,-2.1E-07,0.022661251
,,,-2E-07,0.022768126
,,,-1.9E-07,0.022630626
,,,-1.8E-07,0.023041251
,,,-1.7E-07,0.022488126
,,,-1.6E-07,0.022948126
,,,-1.5E-07,0.022435001
,,,-1.4E-07,0.022686876
,,,-1.3E-07,0.022670626
,,,-1.2E-07,0.022670001
,,,-1.1E-07,0.022729376
,,,-1E-07,0.022749376
,,,-9E-08,0.022718751
,,,-8E-08,0.022942501
,,,-7E-08,0.022634376
,,,-6E-08,0.022891876
,,,-5E-08,0.022938751
,,,-4E-08,0.023210626
,,,-3E-08,0.025030626
,,,-2E-08,0.021279376
,,,-1E-08,0.018890626
,,,0,0.018281251
,,,1E-08,0.024869376
,,,2E-08,0.027739376
,,,3E-08,0.027522501
,,,4E-08,0.022749376
,,,5E-08,0.019851876
,,,6E-08,0.018846251
,,,7E-08,0.020914376
,,,8E-08,0.023346251
,,,9E-08,0.024968751
,,,1E-07,0.025496251
,,,1.1E-07,0.023560001
,,,1.2E-07,0.022036251
,,,1.3E-07,0.020469376
,,,1.4E-07,0.021668751
,,,1.5E-07,0.022629376
,,,1.6E-07,0.023453126
,,,1.7E-07,0.023186251
,,,1.8E-07,0.022871251
,,,1.9E-07,0.023083751
,,,2E-07,0.022957501
,,,2.1E-07,0.022357501
,,,2.2E-07,0.022162501
,,,2.3E-07,0.022508751
,,,2.4E-07,0.022816876
,,,2.5E-07,0.022940001
,,,2.6E-07,0.022631876
,,,2.7E-07,0.022804376
,,,2.8E-07,0.022848751
,,,2.9E-07,0.022614376
,,,3E-07,0.022433751
,,,3.1E-07,0.022373751
,,,3.2E-07,0.022810001
,,,3.3E-07,0.022718751
,,,3.4E-07,0.022907501
,,,3.5E-07,0.022700626
,,,3.6E-07,0.022633751
,,,3.7E-07,0.022930626
,,,3.8E-07,0.022880001
,,,3.9E-07,0.022826251
,,,4E-07,0.022918751
,,,4.1E-07,0.022796251
,,,4.2E-07,0.022728126
,,,4.3E-07,0.022499376
,,,4.4E-07,0.022587501
,,,4.5E-07,0.022692501
,,,4.6E-07,0.022917501
,,,4.7E-07,0.022520001
,,,4.8E-07,0.022600626
,,,4.9E-07,0.022681876
,,,5E-07,0.022622501
,,,5.1E-07,0.022757501
,,,5.2E-07,0.022603126
,,,5.3E-07,0.022923751
,,,5.4E-07,0.022685626
,,,5.5E-07,0.022713751
,,,5.6E-07,0.022570001
,,,5.7E-07,0.022885001
,,,5.8E-07,0.022641251
,,,5.9E-07,0.022842501
,,,6E-07,0.022371876
,,,6.1E-07,0.022322501
,,,6.2E-07,0.022605626
,,,6.3E-07,0.022438751
,,,6.4E-07,0.022636251
,,,6.5E-07,0.022712501
,,,6.6E-07,0.022858126
,,,6.7E-07,0.022565626
,,,6.8E-07,0.022673751
,,,6.9E-07,0.022717501
,,,7E-07,0.022559376
,,,7.1E-07,0.022520626
,,,7.2E-07,0.022865001
,,,7.3E-07,0.022950626
,,,7.4E-07,0.022798751
,,,7.5E-07,0.022796876
,,,7.6E-07,0.022518751
,,,7.7E-07,0.022465001
,,,7.8E-07,0.022359376
,,,7.9E-07,0.022591876
,,,8E-07,0.022701251
,,,8.1E-07,0.022831251
,,,8.2E-07,0.022646876
,,,8.3E-07,0.022795626
,,,8.4E-07,0.022597501
,,,8.5E-07,0.022741876
,,,8.6E-07,0.022478751
,,,8.7E-07,0.022408126
,,,8.8E-07,0.022368751
,,,8.9E-07,0.022759376
,,,9E-07,0.022790626
,,,9.1E-07,0.022941251
,,,9.2E-07,0.022807501
,,,9.3E-07,0.022541251
,,,9.4E-07,0.022883751
,,,9.5E-07,0.022880001
,,,9.6E-07,0.022792501
,,,9.7E-07,0.022585626
,,,9.8E-07,0.022824376
,,,9.9E-07,0.022767501
,,,1E-06,0.022732501
,,,1.01E-06,0.022611876
,,,1.02E-06,0.022700626
,,,1.03E-06,0.022802501
,,,1.04E-06,0.022583751
,,,1.05E-06,0.022688126
,,,1.06E-06,0.022790626
,,,1.07E-06,0.022738126
,,,1.08E-06,0.022713751
,,,1.09E-06,0.022888751
,,,1.1E-06,0.022669376
,,,1.11E-06,0.022583751
,,,1.12E-06,0.022834376
,,,1.13E-06,0.022804376
,,,1.14E-06,0.022793751
,,,1.15E-06,0.022693126
,,,1.16E-06,0.022848126
,,,1.17E-06,0.022737501
,,,1.18E-06,0.022834376
,,,1.19E-06,0.022573126
,,,1.2E-06,0.022606876
,,,1.21E-06,0.022457501
,,,1.22E-06,0.022822501
,,,1.23E-06,0.022586251
,,,1.24E-06,0.022739376
,,,1.25E-06,0.022636251
,,,1.26E-06,0.022628126
,,,1.27E-06,0.022763126
,,,1.28E-06,0.022624376
,,,1.29E-06,0.022838126
,,,1.3E-06,0.022541876
,,,1.31E-06,0.022600626
,,,1.32E-06,0.022749376
,,,1.33E-06,0.022754376
,,,1.34E-06,0.022543126
,,,1.35E-06,0.022665626
,,,1.36E-06,0.022609376
,,,1.37E-06,0.023028126
,,,1.38E-06,0.022768126
,,,1.39E-06,0.022849376
,,,1.4E-06,0.022904376
,,,1.41E-06,0.022681876
,,,1.42E-06,0.022805001
,,,1.43E-06,0.022625626
,,,1.44E-06,0.022968126
,,,1.45E-06,0.022765626
,,,1.46E-06,0.022776876
,,,1.47E-06,0.022683126
,,,1.48E-06,0.022686251
,,,1.49E-06,0.022638751
,,,1.5E-06,0.022856876
,,,1.51E-06,0.022634376
,,,1.52E-06,0.022631251
,,,1.53E-06,0.022746876
,,,1.54E-06,0.022867501
,,,1.55E-06,0.022895001
,,,1.56E-06,0.022733751
,,,1.57E-06,0.022725001
,,,1.58E-06,0.022698751
,,,1.59E-06,0.022770001
,,,1.6E-06,0.022607501
,,,1.61E-06,0.022456876
,,,1.62E-06,0.022725626
,,,1.63E-06,0.022765001
,,,1.64E-06,0.022560001
,,,1.65E-06,0.022657501
,,,1.66E-06,0.022795001
,,,1.67E-06,0.022581876
,,,1.68E-06,0.022910626
,,,1.69E-06,0.022672501
,,,1.7E-06,0.022806876
,,,1.71E-06,0.022690626
,,,1.72E-06,0.022585001
,,,1.73E-06,0.022729376
,,,1.74E-06,0.022728126
,,,1.75E-06,0.022815001
,,,1.76E-06,0.022595626
,,,1.77E-06,0.022709376
,,,1.78E-06,0.022793126
,,,1.79E-06,0.022861876
,,,1.8E-06,0.022775001
,,,1.81E-06,0.022767501
,,,1.82E-06,0.022828751
,,,1.83E-06,0.022803751
,,,1.84E-06,0.022746876
,,,1.85E-06,0.022407501
,,,1.86E-06,0.022955626
,,,1.87E-06,0.022776251
,,,1.88E-06,0.022701876
,,,1.89E-06,0.022690001
,,,1.9E-06,0.022924376
,,,1.91E-06,0.022845001
,,,1.92E-06,0.022568126
,,,1.93E-06,0.022674376
,,,1.94E-06,0.022595626
,,,1.95E-06,0.022549376
,,,1.96E-06,0.022820001
,,,1.97E-06,0.022791251
,,,1.98E-06,0.022536251
,,,1.99E-06,0.022978751
,,,2E-06,0.022536876
,,,2.01E-06,0.022761876
,,,2.02E-06,0.022735626
,,,2.03E-06,0.022722501
,,,2.04E-06,0.022479376
,,,2.05E-06,0.022715626
,,,2.06E-06,0.022750626
,,,2.07E-06,0.022860626
,,,2.08E-06,0.022579376
,,,2.09E-06,0.022585626
,,,2.1E-06,0.022648126
,,,2.11E-06,0.022587501
,,,2.12E-06,0.022717501
,,,2.13E-06,0.022521876
,,,2.14E-06,0.022650626
,,,2.15E-06,0.022895001
,,,2.16E-06,0.022583751
,,,2.17E-06,0.022956876
,,,2.18E-06,0.022636251
,,,2.19E-06,0.022648751
,,,2.2E-06,0.022746876
,,,2.21E-06,0.022911251
,,,2.22E-06,0.022599376
,,,2.23E-06,0.022749376
,,,2.24E-06,0.022965626
,,,2.25E-06,0.023008751
,,,2.26E-06,0.022666251
,,,2.27E-06,0.022347501
,,,2.28E-06,0.022552501
,,,2.29E-06,0.022676876
,,,2.3E-06,0.022778751
,,,2.31E-06,0.022766876
,,,2.32E-06,0.022734376
,,,2.33E-06,0.022753126
,,,2.34E-06,0.022816251
,,,2.35E-06,0.022533126
,,,2.36E-06,0.022784376
,,,2.37E-06,0.022823126
,,,2.38E-06,0.022800001
,,,2.39E-06,0.022478126
,,,2.4E-06,0.022784376
,,,2.41E-06,0.022603751
,,,2.42E-06,0.022676251
,,,2.43E-06,0.022888126
,,,2.44E-06,0.022658126
,,,2.45E-06,0.022615626
,,,2.46E-06,0.022628126
,,,2.47E-06,0.022683751
,,,2.48E-06,0.022978751
,,,2.49E-06,0.022870626
,,,2.5E-06,0.022647501
,,,2.51E-06,0.022486876
,,,2.52E-06,0.022806251
,,,2.53E-06,0.022794376
,,,2.54E-06,0.022476251
,,,2.55E-06,0.022838126
,,,2.56E-06,0.022697501
,,,2.57E-06,0.022377501
,,,2.58E-06,0.022666251
,,,2.59E-06,0.022798751
,,,2.6E-06,0.022662501
,,,2.61E-06,0.022578126
,,,2.62E-06,0.022691876
,,,2.63E-06,0.022843126
,,,2.64E-06,0.022530626
,,,2.65E-06,0.022582501
,,,2.66E-06,0.022711251
,,,2.67E-06,0.022820001
,,,2.68E-06,0.022710001
,,,2.69E-06,0.022837501
,,,2.7E-06,0.022755001
,,,2.71E-06,0.022762501
,,,2.72E-06,0.022717501
,,,2.73E-06,0.022896251
,,,2.74E-06,0.022766251
,,,2.75E-06,0.022680001
,,,2.76E-06,0.022818751
,,,2.77E-06,0.022700626
,,,2.78E-06,0.022657501
,,,2.79E-06,0.022513751
,,,2.8E-06,0.022510001
,,,2.81E-06,0.023105001
,,,2.82E-06,0.022351876
,,,2.83E-06,0.022596251
,,,2.84E-06,0.022936876
,,,2.85E-06,0.022703126
,,,2.86E-06,0.022808126
,,,2.87E-06,0.022798751
,,,2.88E-06,0.022890001
,,,2.89E-06,0.022794376
,,,2.9E-06,0.022774376
,,,2.91E-06,0.022643751
,,,2.92E-06,0.022810626
,,,2.93E-06,0.022661251
,,,2.94E-06,0.022811251
,,,2.95E-06,0.022539376
,,,2.96E-06,0.022718126
,,,2.97E-06,0.022866251
,,,2.98E-06,0.022921251
,,,2.99E-06,0.022658751
,,,3E-06,0.022545001
,,,3.01E-06,0.022814376
,,,3.02E-06,0.022400626
,,,3.03E-06,0.022789376
,,,3.04E-06,0.022693126
,,,3.05E-06,0.022995001
,,,3.06E-06,0.022540626
,,,3.07E-06,0.022690626
,,,3.08E-06,0.022605626
,,,3.09E-06,0.022760626
,,,3.1E-06,0.022561876
,,,3.11E-06,0.022748126
,,,3.12E-06,0.022617501
,,,3.13E-06,0.022877501
,,,3.14E-06,0.022962501
,,,3.15E-06,0.022564376
,,,3.16E-06,0.022800001
,,,3.17E-06,0.022705626
,,,3.18E-06,0.022598751
,,,3.19E-06,0.022575626
,,,3.2E-06,0.022821876
,,,3.21E-06,0.022658751
