data/raw/Final_POL_Test_1/SOP094_Ch1.csv

"Record Length",1000,"Points",-5E-06,0.00694
"Sample Interval",1E-08,s,-4.99E-06,0.0068125
"Trigger Point",500,"Samples",-4.98E-06,0.00717
"Trigger Time",0,s,-4.97E-06,0.0069775
"",,,-4.96E-06,0.006981875
"Horizontal Offset",-5E-06,s,-4.95E-06,0.007115
,,,-4.94E-06,0.0070225
,,,-4.93E-06,0.006950625
,,,-4.92E-06,0.007050625
,,,-4.91E-06,0.006891875
,,,-4.9E-06,0.00724625
,,,-4.89E-06,0.0070625
,,,-4.88E-06,0.007174375
,,,-4.87E-06,0.00705
,,,-4.86E-06,0.0067775
,,,-4.85E-06,0.0067925
,,,-4.84E-06,0.0068325
,,,-4.83E-06,0.00695
,,,-4.82E-06,0.007209375
,,,-4.81E-06,0.007066875
,,,-4.8E-06,0.006889375
,,,-4.79E-06,0.00706375
,,,-4.78E-06,0.007015625
,,,-4.77E-06,0.006926875
,,,-4.76E-06,0.006948125
,,,-4.75E-06,0.00699875
,,,-4.74E-06,0.00698
,,,-4.73E-06,0.007175625
,,,-4.72E-06,0.00720125
,,,-4.71E-06,0.007023125
,,,-4.7E-06,0.007020625
,,,-4.69E-06,0.007005
,,,-4.68E-06,0.007033125
,,,-4.67E-06,0.007068125
,,,-4.66E-06,0.006924375
,,,-4.65E-06,0.007065625
,,,-4.64E-06,0.006879375
,,,-4.63E-06,0.00695125
,,,-4.62E-06,0.007244375
,,,-4.61E-06,0.00672625
,,,-4.6E-06,0.0070475
,,,-4.59E-06,0.007138125
,,,-4.58E-06,0.006715
,,,-4.57E-06,0.0070225
,,,-4.56E-06,0.007185
,,,-4.55E-06,0.00679375
,,,-4.54E-06,0.00711125
,,,-4.53E-06,0.007238125
,,,-4.52E-06,0.007033125
,,,-4.51E-06,0.006816875
,,,-4.5E-06,0.00711125
,,,-4.49E-06,0.006975
,,,-4.48E-06,0.007018125
,,,-4.47E-06,0.006793125
,,,-4.46E-06,0.0070275
,,,-4.45E-06,0.007109375
,,,-4.44E-06,0.007016875
,,,-4.43E-06,0.006746875
,,,-4.42E-06,0.007116875
,,,-4.41E-06,0.006923125
,,,-4.4E-06,0.00706
,,,-4.39E-06,0.00680125
,,,-4.38E-06,0.006943125
,,,-4.37E-06,0.007141875
,,,-4.36E-06,0.007014375
,,,-4.35E-06,0.007045625
,,,-4.34E-06,0.006931875
,,,-4.33E-06,0.0069525
,,,-4.32E-06,0.007028125
,,,-4.31E-06,0.007173125
,,,-4.3E-06,0.006858125
,,,-4.29E-06,0.00672875
,,,-4.28E-06,0.007025625
,,,-4.27E-06,0.00668
,,,-4.26E-06,0.006769375
,,,-4.25E-06,0.006884375
,,,-4.24E-06,0.006849375
,,,-4.23E-06,0.007005
,,,-4.22E-06,0.00721625
,,,-4.21E-06,0.0068725
,,,-4.2E-06,0.0071575
,,,-4.19E-06,0.00689125
,,,-4.18E-06,0.00684
,,,-4.17E-06,0.00693
,,,-4.16E-06,0.00707625
,,,-4.15E-06,0.00702625
,,,-4.14E-06,0.006980625
,,,-4.13E-06,0.00686875
,,,-4.12E-06,0.007124375
,,,-4.11E-06,0.006993125
,,,-4.1E-06,0.007008125
,,,-4.09E-06,0.00685625
,,,-4.08E-06,0.00682125
,,,-4.07E-06,0.00705375
,,,-4.06E-06,0.006893125
,,,-4.05E-06,0.00693125
,,,-4.04E-06,0.007059375
,,,-4.03E-06,0.00697875
,,,-4.02E-06,0.006773125
,,,-4.01E-06,0.007085625
,,,-4E-06,0.006915625
,,,-3.99E-06,0.006644375
,,,-3.98E-06,0.00699
,,,-3.97E-06,0.00674
,,,-3.96E-06,0.007075
,,,-3.95E-06,0.007108125
,,,-3.94E-06,0.007175
,,,-3.93E-06,0.00688625
,,,-3.92E-06,0.00694
,,,-3.91E-06,0.0069425
,,,-3.9E-06,0.00696
,,,-3.89E-06,0.0070225
,,,-3.88E-06,0.006984375
,,,-3.87E-06,0.006748125
,,,-3.86E-06,0.0068175
,,,-3.85E-06,0.007174375
,,,-3.84E-06,0.0070025
,,,-3.83E-06,0.006894375
,,,-3.82E-06,0.0069225
,,,-3.81E-06,0.00712
,,,-3.8E-06,0.006815
,,,-3.79E-06,0.007074375
,,,-3.78E-06,0.007035
,,,-3.77E-06,0.00705875
,,,-3.76E-06,0.006860625
,,,-3.75E-06,0.0069
,,,-3.74E-06,0.007098125
,,,-3.73E-06,0.00736875
,,,-3.72E-06,0.00716125
,,,-3.71E-06,0.006719375
,,,-3.7E-06,0.006786875
,,,-3.69E-06,0.006805
,,,-3.68E-06,0.007003125
,,,-3.67E-06,0.006928125
,,,-3.66E-06,0.00695375
,,,-3.65E-06,0.007331875
,,,-3.64E-06,0.0069575
,,,-3.63E-06,0.0068825
,,,-3.62E-06,0.007055
,,,-3.61E-06,0.007
,,,-3.6E-06,0.007081875
,,,-3.59E-06,0.006940625
,,,-3.58E-06,0.0072325
,,,-3.57E-06,0.00691
,,,-3.56E-06,0.007164375
,,,-3.55E-06,0.007084375
,,,-3.54E-06,0.0069225
,,,-3.53E-06,0.006993125
,,,-3.52E-06,0.00695375
,,,-3.51E-06,0.0072425
,,,-3.5E-06,0.0070075
,,,-3.49E-06,0.006901875
,,,-3.48E-06,0.007228125
,,,-3.47E-06,0.006845
,,,-3.46E-06,0.006851875
,,,-3.45E-06,0.007025625
,,,-3.44E-06,0.00696
,,,-3.43E-06,0.00684
,,,-3.42E-06,0.006728125
,,,-3.41E-06,0.00688375
,,,-3.4E-06,0.007179375
,,,-3.39E-06,0.007049375
,,,-3.38E-06,0.00710375
,,,-3.37E-06,0.006926875
,,,-3.36E-06,0.006875
,,,-3.35E-06,0.006781875
,,,-3.34E-06,0.00700625
,,,-3.33E-06,0.00699
,,,-3.32E-06,0.007285625
,,,-3.31E-06,0.007110625
,,,-3.3E-06,0.0070175
,,,-3.29E-06,0.0069
,,,-3.28E-06,0.0070875
,,,-3.27E-06,0.006960625
,,,-3.26E-06,0.007123125
,,,-3.25E-06,0.0069875
,,,-3.24E-06,0.006920625
,,,-3.23E-06,0.007155625
,,,-3.22E-06,0.00698625
,,,-3.21E-06,0.007093125
,,,-3.2E-06,0.00683125
,,,-3.19E-06,0.006778125
,,,-3.18E-06,0.006944375
,,,-3.17E-06,0.00709
,,,-3.16E-06,0.007114375
,,,-3.15E-06,0.006838125
,,,-3.14E-06,0.007075
,,,-3.13E-06,0.006839375
,,,-3.12E-06,0.0069825
,,,-3.11E-06,0.00688
,,,-3.1E-06,0.006989375
,,,-3.09E-06,0.006808125
,,,-3.08E-06,0.007075625
,,,-3.07E-06,0.00725625
,,,-3.06E-06,0.006885
,,,-3.05E-06,0.007159375
,,,-3.04E-06,0.007235625
,,,-3.03E-06,0.006790625
,,,-3.02E-06,0.006909375
,,,-3.01E-06,0.0072825
,,,-3E-06,0.006965
,,,-2.99E-06,0.00721125
,,,-2.98E-06,0.0072025
,,,-2.97E-06,0.007100625
,,,-2.96E-06,0.006825
,,,-2.95E-06,0.006984375
,,,-2.94E-06,0.007114375
,,,-2.93E-06,0.0070675
,,,-2.92E-06,0.006974375
,,,-2.91E-06,0.007163125
,,,-2.9E-06,0.00721
,,,-2.89E-06,0.006973125
,,,-2.88E-06,0.0067875
,,,-2.87E-06,0.00682125
,,,-2.86E-06,0.006935625
,,,-2.85E-06,0.006944375
,,,-2.84E-06,0.0071675
,,,-2.83E-06,0.006905625
,,,-2.82E-06,0.0069725
,,,-2.81E-06,0.007225625
,,,-2.8E-06,0.00690625
,,,-2.79E-06,0.006855625
,,,-2.78E-06,0.00702875
,,,-2.77E-06,0.006885
,,,-2.76E-06,0.006976875
,,,-2.75E-06,0.006885
,,,-2.74E-06,0.006921875
,,,-2.73E-06,0.007028125
,,,-2.72E-06,0.007046875
,,,-2.71E-06,0.0069975
,,,-2.7E-06,0.0071525
,,,-2.69E-06,0.006975
,,,-2.68E-06,0.00685125
,,,-2.67E-06,0.00697875
,,,-2.66E-06,0.006729375
,,,-2.65E-06,0.007065
,,,-2.64E-06,0.0069425
,,,-2.63E-06,0.006904375
,,,-2.62E-06,0.007113125
,,,-2.61E-06,0.007106875
,,,-2.6E-06,0.006941875
,,,-2.59E-06,0.0068125
,,,-2.58E-06,0.0068225
,,,-2.57E-06,0.007196875
,,,-2.56E-06,0.006855625
,,,-2.55E-06,0.00691625
,,,-2.54E-06,0.006950625
,,,-2.53E-06,0.006784375
,,,-2.52E-06,0.007215625
,,,-2.51E-06,0.006993125
,,,-2.5E-06,0.007036875
,,,-2.49E-06,0.006891875
,,,-2.48E-06,0.00692875
,,,-2.47E-06,0.007086875
,,,-2.46E-06,0.007051875
,,,-2.45E-06,0.00713625
,,,-2.44E-06,0.00698625
,,,-2.43E-06,0.00694875
,,,-2.42E-06,0.007068125
,,,-2.41E-06,0.0072525
,,,-2.4E-06,0.007116875
,,,-2.39E-06,0.0068175
,,,-2.38E-06,0.006860625
,,,-2.37E-06,0.007090625
,,,-2.36E-06,0.00690125
,,,-2.35E-06,0.006895625
,,,-2.34E-06,0.007124375
,,,-2.33E-06,0.007078125
,,,-2.32E-06,0.00684125
,,,-2.31E-06,0.006993125
,,,-2.3E-06,0.006809375
,,,-2.29E-06,0.007153125
,,,-2.28E-06,0.00704625
,,,-2.27E-06,0.00699
,,,-2.26E-06,0.006985
,,,-2.25E-06,0.00724625
,,,-2.24E-06,0.00678
,,,-2.23E-06,0.00695125
,,,-2.22E-06,0.006885625
,,,-2.21E-06,0.00676875
,,,-2.2E-06,0.007175625
,,,-2.19E-06,0.007263125
,,,-2.18E-06,0.006804375
,,,-2.17E-06,0.006998125
,,,-2.16E-06,0.007035
,,,-2.15E-06,0.00682125
,,,-2.14E-06,0.006974375
,,,-2.13E-06,0.006855
,,,-2.12E-06,0.006969375
,,,-2.11E-06,0.006793125
,,,-2.1E-06,0.0070475
,,,-2.09E-06,0.00668625
,,,-2.08E-06,0.007171875
,,,-2.07E-06,0.006873125
,,,-2.06E-06,0.006966875
,,,-2.05E-06,0.006856875
,,,-2.04E-06,0.00723875
,,,-2.03E-06,0.007009375
,,,-2.02E-06,0.007165625
,,,-2.01E-06,0.006996875
,,,-2E-06,0.00712
,,,-1.99E-06,0.00692625
,,,-1.98E-06,0.006896875
,,,-1.97E-06,0.00694625
,,,-1.96E-06,0.00696
,,,-1.95E-06,0.006884375
,,,-1.94E-06,0.006913125
,,,-1.93E-06,0.00734375
,,,-1.92E-06,0.00693875
,,,-1.91E-06,0.00696
,,,-1.9E-06,0.007219375
,,,-1.89E-06,0.00690375
,,,-1.88E-06,0.006871875
,,,-1.87E-06,0.006966875
,,,-1.86E-06,0.006846875
,,,-1.85E-06,0.0070425
,,,-1.84E-06,0.007024375
,,,-1.83E-06,0.007346875
,,,-1.82E-06,0.007155625
,,,-1.81E-06,0.007188125
,,,-1.8E-06,0.00694875
,,,-1.79E-06,0.00708625
,,,-1.78E-06,0.007013125
,,,-1.77E-06,0.007153125
,,,-1.76E-06,0.006989375
,,,-1.75E-06,0.006953125
,,,-1.74E-06,0.006935
,,,-1.73E-06,0.007215
,,,-1.72E-06,0.00688875
,,,-1.71E-06,0.006794375
,,,-1.7E-06,0.00693125
,,,-1.69E-06,0.0072
,,,-1.68E-06,0.006903125
,,,-1.67E-06,0.0068175
,,,-1.66E-06,0.00690625
,,,-1.65E-06,0.007053125
,,,-1.64E-06,0.00716125
,,,-1.63E-06,0.00708375
,,,-1.62E-06,0.00677875
,,,-1.61E-06,0.0069675
,,,-1.6E-06,0.006998125
,,,-1.59E-06,0.007111875
,,,-1.58E-06,0.006868125
,,,-1.57E-06,0.00691625
,,,-1.56E-06,0.00701125
,,,-1.55E-06,0.006868125
,,,-1.54E-06,0.006848125
,,,-1.53E-06,0.006966875
,,,-1.52E-06,0.0069025
,,,-1.51E-06,0.006935
,,,-1.5E-06,0.007045
,,,-1.49E-06,0.0070075
,,,-1.48E-06,0.006855
,,,-1.47E-06,0.0070675
,,,-1.46E-06,0.007123125
,,,-1.45E-06,0.00696125
,,,-1.44E-06,0.0069875
,,,-1.43E-06,0.00687125
,,,-1.42E-06,0.00707875
,,,-1.41E-06,0.006984375
,,,-1.4E-06,0.00667625
,,,-1.39E-06,0.0067675
,,,-1.38E-06,0.0067825
,,,-1.37E-06,0.006890625
,,,-1.36E-06,0.00708375
,,,-1.35E-06,0.00721875
,,,-1.34E-06,0.00679625
,,,-1.33E-06,0.007098125
,,,-1.32E-06,0.006935625
,,,-1.31E-06,0.00711625
,,,-1.3E-06,0.006921875
,,,-1.29E-06,0.00695125
,,,-1.28E-06,0.0070225
,,,-1.27E-06,0.00720875
,,,-1.26E-06,0.006804375
,,,-1.25E-06,0.007060625
,,,-1.24E-06,0.006825
,,,-1.23E-06,0.0068775
,,,-1.22E-06,0.007130625
,,,-1.21E-06,0.00697
,,,-1.2E-06,0.007064375
,,,-1.19E-06,0.006918125
,,,-1.18E-06,0.007014375
,,,-1.17E-06,0.00724375
,,,-1.16E-06,0.00673875
,,,-1.15E-06,0.0068775
,,,-1.14E-06,0.006915
,,,-1.13E-06,0.007010625
,,,-1.12E-06,0.007104375
,,,-1.11E-06,0.006691875
,,,-1.1E-06,0.007001875
,,,-1.09E-06,0.00691875
,,,-1.08E-06,0.00729625
,,,-1.07E-06,0.006834375
,,,-1.06E-06,0.006835625
,,,-1.05E-06,0.006871875
,,,-1.04E-06,0.00717875
,,,-1.03E-06,0.00723625
,,,-1.02E-06,0.007036875
,,,-1.01E-06,0.007049375
,,,-1E-06,0.0069225
,,,-9.9E-07,0.007138125
,,,-9.8E-07,0.00690875
,,,-9.7E-07,0.0072
,,,-9.6E-07,0.007258125
,,,-9.5E-07,0.007145625
,,,-9.4E-07,0.006885625
,,,-9.3E-07,0.007105
,,,-9.2E-07,0.00698
,,,-9.1E-07,0.006926875
,,,-9E-07,0.006871875
,,,-8.9E-07,0.006904375
,,,-8.8E-07,0.0070175
,,,-8.7E-07,0.00695
,,,-8.6E-07,0.00721125
,,,-8.5E-07,0.00701625
,,,-8.4E-07,0.006893125
,,,-8.3E-07,0.006869375
,,,-8.2E-07,0.00700375
,,,-8.1E-07,0.006950625
,,,-8E-07,0.007021875
,,,-7.9E-07,0.0069325
,,,-7.8E-07,0.00684
,,,-7.7E-07,0.00683875
,,,-7.6E-07,0.007055625
,,,-7.5E-07,0.006876875
,,,-7.4E-07,0.007070625
,,,-7.3E-07,0.00677
,,,-7.2E-07,0.006943125
,,,-7.1E-07,0.006949375
,,,-7E-07,0.006948125
,,,-6.9E-07,0.0073575
,,,-6.8E-07,0.00706375
,,,-6.7E-07,0.006981875
,,,-6.6E-07,0.006980625
,,,-6.5E-07,0.00706375
,,,-6.4E-07,0.006945
,,,-6.3E-07,0.00727375
,,,-6.2E-07,0.007206875
,,,-6.1E-07,0.007081875
,,,-6E-07,0.007159375
,,,-5.9E-07,0.007001875
,,,-5.8E-07,0.007001875
,,,-5.7E-07,0.006845625
,,,-5.6E-07,0.006954375
,,,-5.5E-07,0.00685375
,,,-5.4E-07,0.00708625
,,,-5.3E-07,0.006961875
,,,-5.2E-07,0.00721
,,,-5.1E-07,0.00704125
,,,-5E-07,0.007229375
,,,-4.9E-07,0.007133125
,,,-4.8E-07,0.00698125
,,,-4.7E-07,0.007035
,,,-4.6E-07,0.007025
,,,-4.5E-07,0.006991875
,,,-4.4E-07,0.006951875
,,,-4.3E-07,0.007031875
,,,-4.2E-07,0.00674375
,,,-4.1E-07,0.0068775
,,,-4E-07,0.006945625
,,,-3.9E-07,0.007268125
,,,-3.8E-07,0.007216875
,,,-3.7E-07,0.0069425
,,,-3.6E-07,0.00711625
,,,-3.5E-07,0.00713125
,,,-3.4E-07,0.00698875
,,,-3.3E-07,0.0069725
,,,-3.2E-07,0.006820625
,,,-3.1E-07,0.00679375
,,,-3E-07,0.00695625
,,,-2.9E-07,0.006935
,,,-2.8E-07,0.007436875
,,,-2.7E-07,0.0068775
,,,-2.6E-07,0.0068675
,,,-2.5E-07,0.0068925
,,,-2.4E-07,0.007085
,,,-2.3E-07,0.00689
,,,-2.2E-07,0.006985
,,,-2.1E-07,0.007006875
,,,-2E-07,0.006961875
,,,-1.9E-07,0.00702
,,,-1.8E-07,0.00705
,,,-1.7E-07,0.00711
,,,-1.6E-07,0.00711375
,,,-1.5E-07,0.0068875
,,,-1.4E-07,0.0070725
,,,-1.3E-07,0.006838125
,,,-1.2E-07,0.007013125
,,,-1.1E-07,0.00687375
,,,-1E-07,0.006848125
,,,-9E-08,0.007165
,,,-8E-08,0.00698
,,,-7E-08,0.006806875
,,,-6E-08,0.00690125
,,,-5E-08,0.0071575
,,,-4E-08,0.007381875
,,,-3E-08,0.008484375
,,,-2E-08,0.0059675
,,,-1E-08,0.00456625
,,,0,0.003171875
,,,1E-08,0.00879
,,,2E-08,0.01067125
,,,3E-08,0.011210625
,,,4E-08,0.007260625
,,,5E-08,0.00481375
,,,6E-08,0.003626875
,,,7E-08,0.0054175
,,,8E-08,0.007404375
,,,9E-08,0.008646875
,,,1E-07,0.009070625
,,,1.1E-07,0.00799375
,,,1.2E-07,0.006621875
,,,1.3E-07,0.005456875
,,,1.4E-07,0.005796875
,,,1.5E-07,0.00705
,,,1.6E-07,0.007366875
,,,1.7E-07,0.0072125
,,,1.8E-07,0.0069475
,,,1.9E-07,0.00708625
,,,2E-07,0.00691875
,,,2.1E-07,0.007044375
,,,2.2E-07,0.0067125
,,,2.3E-07,0.006896875
,,,2.4E-07,0.00713875
,,,2.5E-07,0.007083125
,,,2.6E-07,0.006785625
,,,2.7E-07,0.007170625
,,,2.8E-07,0.007036875
,,,2.9E-07,0.007055625
,,,3E-07,0.006791875
,,,3.1E-07,0.006959375
,,,3.2E-07,0.00722
,,,3.3E-07,0.007066875
,,,3.4E-07,0.00693875
,,,3.5E-07,0.006953125
,,,3.6E-07,0.006884375
,,,3.7E-07,0.00706625
,,,3.8E-07,0.007059375
,,,3.9E-07,0.00710375
,,,4E-07,0.006908125
,,,4.1E-07,0.00698875
,,,4.2E-07,0.006845625
,,,4.3E-07,0.006805
,,,4.4E-07,0.00686375
,,,4.5E-07,0.006939375
,,,4.6E-07,0.006915
,,,4.7E-07,0.006831875
,,,4.8E-07,0.006985
,,,4.9E-07,0.00706875
,,,5E-07,0.00688125
,,,5.1E-07,0.00699375
,,,5.2E-07,0.006989375
,,,5.3E-07,0.0070625
,,,5.4E-07,0.00683125
,,,5.5E-07,0.00689
,,,5.6E-07,0.006848125
,,,5.7E-07,0.006904375
,,,5.8E-07,0.007100625
,,,5.9E-07,0.007149375
,,,6E-07,0.006839375
,,,6.1E-07,0.006870625
,,,6.2E-07,0.0069775
,,,6.3E-07,0.00703
,,,6.4E-07,0.0068875
,,,6.5E-07,0.007264375
,,,6.6E-07,0.00724375
,,,6.7E-07,0.006979375
,,,6.8E-07,0.006750625
,,,6.9E-07,0.006955
,,,7E-07,0.00678375
,,,7.1E-07,0.007038125
,,,7.2E-07,0.00709125
,,,7.3E-07,0.006903125
,,,7.4E-07,0.00713625
,,,7.5E-07,0.006901875
,,,7.6E-07,0.007016875
,,,7.7E-07,0.0070525
,,,7.8E-07,0.007075
,,,7.9E-07,0.006955
,,,8E-07,0.007021875
,,,8.1E-07,0.0069975
,,,8.2E-07,0.0068925
,,,8.3E-07,0.006994375
,,,8.4E-07,0.006968125
,,,8.5E-07,0.0072075
,,,8.6E-07,0.00696
,,,8.7E-07,0.007054375
,,,8.8E-07,0.006906875
,,,8.9E-07,0.0069825
,,,9E-07,0.006876875
,,,9.1E-07,0.0069375
,,,9.2E-07,0.006995
,,,9.3E-07,0.00682375
,,,9.4E-07,0.006825
,,,9.5E-07,0.006851875
,,,9.6E-07,0.006826875
,,,9.7E-07,0.00703
,,,9.8E-07,0.007089375
,,,9.9E-07,0.007008125
,,,1E-06,0.007039375
,,,1.01E-06,0.0069725
,,,1.02E-06,0.006758125
,,,1.03E-06,0.007045
,,,1.04E-06,0.006881875
,,,1.05E-06,0.006958125
,,,1.06E-06,0.007071875
,,,1.07E-06,0.007040625
,,,1.08E-06,0.00727625
,,,1.09E-06,0.006905
,,,1.1E-06,0.00682625
,,,1.11E-06,0.00706875
,,,1.12E-06,0.00686625
,,,1.13E-06,0.006839375
,,,1.14E-06,0.00683
,,,1.15E-06,0.006926875
,,,1.16E-06,0.0069575
,,,1.17E-06,0.007225625
,,,1.18E-06,0.00721375
,,,1.19E-06,0.006856875
,,,1.2E-06,0.006896875
,,,1.21E-06,0.006969375
,,,1.22E-06,0.00706375
,,,1.23E-06,0.0070575
,,,1.24E-06,0.006835
,,,1.25E-06,0.007025625
,,,1.26E-06,0.00675625
,,,1.27E-06,0.006719375
,,,1.28E-06,0.006855
,,,1.29E-06,0.00698125
,,,1.3E-06,0.00696125
,,,1.31E-06,0.007093125
,,,1.32E-06,0.006971875
,,,1.33E-06,0.007204375
,,,1.34E-06,0.00697375
,,,1.35E-06,0.006919375
,,,1.36E-06,0.007044375
,,,1.37E-06,0.00707125
,,,1.38E-06,0.00697
,,,1.39E-06,0.007116875
,,,1.4E-06,0.007013125
,,,1.41E-06,0.007019375
,,,1.42E-06,0.00722375
,,,1.43E-06,0.00685625
,,,1.44E-06,0.006823125
,,,1.45E-06,0.00692875
,,,1.46E-06,0.00701125
,,,1.47E-06,0.006799375
,,,1.48E-06,0.007030625
,,,1.49E-06,0.00698
,,,1.5E-06,0.007145625
,,,1.51E-06,0.00670625
,,,1.52E-06,0.006989375
,,,1.53E-06,0.00696875
,,,1.54E-06,0.00691375
,,,1.55E-06,0.00721
,,,1.56E-06,0.0070575
,,,1.57E-06,0.00680375
,,,1.58E-06,0.0069125
,,,1.59E-06,0.006965625
,,,1.6E-06,0.00692125
,,,1.61E-06,0.00680875
,,,1.62E-06,0.00684
,,,1.63E-06,0.007035625
,,,1.64E-06,0.006808125
,,,1.65E-06,0.00713625
,,,1.66E-06,0.00710125
,,,1.67E-06,0.007173125
,,,1.68E-06,0.00690625
,,,1.69E-06,0.00693875
,,,1.7E-06,0.00704125
,,,1.71E-06,0.006945625
,,,1.72E-06,0.007056875
,,,1.73E-06,0.006840625
,,,1.74E-06,0.007185
,,,1.75E-06,0.007076875
,,,1.76E-06,0.007075625
,,,1.77E-06,0.0068075
,,,1.78E-06,0.006924375
,,,1.79E-06,0.00704
,,,1.8E-06,0.00707625
,,,1.81E-06,0.007060625
,,,1.82E-06,0.00703125
,,,1.83E-06,0.007255
,,,1.84E-06,0.0066275
,,,1.85E-06,0.0070925
,,,1.86E-06,0.00693
,,,1.87E-06,0.00706
,,,1.88E-06,0.00713375
,,,1.89E-06,0.006951875
,,,1.9E-06,0.006978125
,,,1.91E-06,0.006859375
,,,1.92E-06,0.006964375
,,,1.93E-06,0.0068775
,,,1.94E-06,0.00702125
,,,1.95E-06,0.006991875
,,,1.96E-06,0.007013125
,,,1.97E-06,0.006931875
,,,1.98E-06,0.0069475
,,,1.99E-06,0.00687125
,,,2E-06,0.00692125
,,,2.01E-06,0.00703875
,,,2.02E-06,0.00671625
,,,2.03E-06,0.006894375
,,,2.04E-06,0.00680875
,,,2.05E-06,0.007029375
,,,2.06E-06,0.00691
,,,2.07E-06,0.00712
,,,2.08E-06,0.006870625
,,,2.09E-06,0.006879375
,,,2.1E-06,0.006986875
,,,2.11E-06,0.006899375
,,,2.12E-06,0.00711375
,,,2.13E-06,0.007203125
,,,2.14E-06,0.006924375
,,,2.15E-06,0.007103125
,,,2.16E-06,0.007178125
,,,2.17E-06,0.007185
,,,2.18E-06,0.006983125
,,,2.19E-06,0.007145625
,,,2.2E-06,0.0069625
,,,2.21E-06,0.006899375
,,,2.22E-06,0.00693
,,,2.23E-06,0.00692
,,,2.24E-06,0.0070925
,,,2.25E-06,0.00699875
,,,2.26E-06,0.00693375
,,,2.27E-06,0.007111875
,,,2.28E-06,0.00701125
,,,2.29E-06,0.00677625
,,,2.3E-06,0.007178125
,,,2.31E-06,0.00716
,,,2.32E-06,0.006876875
,,,2.33E-06,0.0070425
,,,2.34E-06,0.006984375
,,,2.35E-06,0.00693375
,,,2.36E-06,0.006764375
,,,2.37E-06,0.0069125
,,,2.38E-06,0.006995625
,,,2.39E-06,0.0068725
,,,2.4E-06,0.007016875
,,,2.41E-06,0.006846875
,,,2.42E-06,0.007061875
,,,2.43E-06,0.00676625
,,,2.44E-06,0.006971875
,,,2.45E-06,0.007034375
,,,2.46E-06,0.00685
,,,2.47E-06,0.006964375
,,,2.48E-06,0.0070625
,,,2.49E-06,0.007119375
,,,2.5E-06,0.0069125
,,,2.51E-06,0.00686375
,,,2.52E-06,0.006904375
,,,2.53E-06,0.007154375
,,,2.54E-06,0.006626875
,,,2.55E-06,0.00687
,,,2.56E-06,0.007084375
,,,2.57E-06,0.006948125
,,,2.58E-06,0.0069525
,,,2.59E-06,0.00726625
,,,2.6E-06,0.006753125
,,,2.61E-06,0.007081875
,,,2.62E-06,0.00719875
,,,2.63E-06,0.006829375
,,,2.64E-06,0.007114375
,,,2.65E-06,0.0070525
,,,2.66E-06,0.0070625
,,,2.67E-06,0.00705
,,,2.68E-06,0.006919375
,,,2.69E-06,0.006915625
,,,2.7E-06,0.00670125
,,,2.71E-06,0.00699875
,,,2.72E-06,0.00692375
,,,2.73E-06,0.006995625
,,,2.74E-06,0.0070025
,,,2.75E-06,0.007133125
,,,2.76E-06,0.007
,,,2.77E-06,0.006813125
,,,2.78E-06,0.00701
,,,2.79E-06,0.00674875
,,,2.8E-06,0.006905
,,,2.81E-06,0.00691375
,,,2.82E-06,0.006923125
,,,2.83E-06,0.006771875
,,,2.84E-06,0.00693625
,,,2.85E-06,0.00690125
,,,2.86E-06,0.0070375
,,,2.87E-06,0.006899375
,,,2.88E-06,0.006895
,,,2.89E-06,0.00705
,,,2.9E-06,0.006829375
,,,2.91E-06,0.0069175
,,,2.92E-06,0.007075
,,,2.93E-06,0.006866875
,,,2.94E-06,0.0067175
,,,2.95E-06,0.006855625
,,,2.96E-06,0.00692625
,,,2.97E-06,0.00695625
,,,2.98E-06,0.00689875
,,,2.99E-06,0.007058125
,,,3E-06,0.007074375
,,,3.01E-06,0.007235
,,,3.02E-06,0.006921875
,,,3.03E-06,0.006999375
,,,3.04E-06,0.007216875
,,,3.05E-06,0.00695625
,,,3.06E-06,0.007050625
,,,3.07E-06,0.00718875
,,,3.08E-06,0.0070125
,,,3.09E-06,0.0069775
,,,3.1E-06,0.007171875
,,,3.11E-06,0.0072075
,,,3.12E-06,0.007046875
,,,3.13E-06,0.007064375
,,,3.14E-06,0.00716375
,,,3.15E-06,0.007003125
,,,3.16E-06,0.006836875
,,,3.17E-06,0.0068875
,,,3.18E-06,0.0069275
,,,3.19E-06,0.006975
,,,3.2E-06,0.007063125
,,,3.21E-06,0.00691625
,,,3.22E-06,0.007156875
,,,3.23E-06,0.007198125
,,,3.24E-06,0.007009375
,,,3.25E-06,0.00684
,,,3.26E-06,0.007023125
,,,3.27E-06,0.006885625
,,,3.28E-06,0.00684125
,,,3.29E-06,0.007071875
,,,3.3E-06,0.007056875
,,,3.31E-06,0.007180625
,,,3.32E-06,0.00699375
,,,3.33E-06,0.006910625
,,,3.34E-06,0.006940625
,,,3.35E-06,0.006831875
,,,3.36E-06,0.006704375
,,,3.37E-06,0.00727625
,,,3.38E-06,0.00703375
,,,3.39E-06,0.007063125
,,,3.4E-06,0.00698875
,,,3.41E-06,0.00709375
,,,3.42E-06,0.00697625
,,,3.43E-06,0.00688
,,,3.44E-06,0.006705
,,,3.45E-06,0.0069925
,,,3.46E-06,0.00696125
,,,3.47E-06,0.0070875
,,,3.48E-06,0.007044375
,,,3.49E-06,0.00717625
,,,3.5E-06,0.007036875
,,,3.51E-06,0.006891875
,,,3.52E-06,0.007035625
,,,3.53E-06,0.006985625
,,,3.54E-06,0.00689875
,,,3.55E-06,0.00688125
,,,3.56E-06,0.006928125
,,,3.57E-06,0.006883125
,,,3.58E-06,0.0067975
