data/raw/Final_POL_Test_1/SOP089_Ch4.csv

"Record Length",1000,"Points",-5E-06,0.018076875
"Sample Interval",1E-08,s,-4.99E-06,0.018311875
"Trigger Point",500,"Samples",-4.98E-06,0.018108125
"Trigger Time",0,s,-4.97E-06,0.017998125
"",,,-4.96E-06,0.0181375
"Horizontal Offset",-5E-06,s,-4.95E-06,0.017980625
,,,-4.94E-06,0.0180975
,,,-4.93E-06,0.018109375
,,,-4.92E-06,0.01809125
,,,-4.91E-06,0.018261875
,,,-4.9E-06,0.018139375
,,,-4.89E-06,0.0181275
,,,-4.88E-06,0.01833125
,,,-4.87E-06,0.01810625
,,,-4.86E-06,0.0182075
,,,-4.85E-06,0.018248125
,,,-4.84E-06,0.0179675
,,,-4.83E-06,0.018118125
,,,-4.82E-06,0.01804875
,,,-4.81E-06,0.017605
,,,-4.8E-06,0.017775
,,,-4.79E-06,0.01791
,,,-4.78E-06,0.0178475
,,,-4.77E-06,0.0180875
,,,-4.76E-06,0.01820125
,,,-4.75E-06,0.018124375
,,,-4.74E-06,0.017974375
,,,-4.73E-06,0.01790125
,,,-4.72E-06,0.01786375
,,,-4.71E-06,0.018280625
,,,-4.7E-06,0.018155625
,,,-4.69E-06,0.01821125
,,,-4.68E-06,0.0179075
,,,-4.67E-06,0.0180825
,,,-4.66E-06,0.018093125
,,,-4.65E-06,0.01827
,,,-4.64E-06,0.018025625
,,,-4.63E-06,0.01808125
,,,-4.62E-06,0.01807
,,,-4.61E-06,0.0180975
,,,-4.6E-06,0.017965
,,,-4.59E-06,0.018005
,,,-4.58E-06,0.018265
,,,-4.57E-06,0.01809375
,,,-4.56E-06,0.01818375
,,,-4.55E-06,0.018053125
,,,-4.54E-06,0.01807625
,,,-4.53E-06,0.018163125
,,,-4.52E-06,0.01789125
,,,-4.51E-06,0.018355
,,,-4.5E-06,0.01793125
,,,-4.49E-06,0.0180975
,,,-4.48E-06,0.018233125
,,,-4.47E-06,0.018111875
,,,-4.46E-06,0.01798375
,,,-4.45E-06,0.018146875
,,,-4.44E-06,0.017961875
,,,-4.43E-06,0.018425
,,,-4.42E-06,0.01819375
,,,-4.41E-06,0.0184025
,,,-4.4E-06,0.01812
,,,-4.39E-06,0.018263125
,,,-4.38E-06,0.018209375
,,,-4.37E-06,0.018003125
,,,-4.36E-06,0.0180625
,,,-4.35E-06,0.017995
,,,-4.34E-06,0.0181725
,,,-4.33E-06,0.0180525
,,,-4.32E-06,0.017909375
,,,-4.31E-06,0.017986875
,,,-4.3E-06,0.018071875
,,,-4.29E-06,0.018015625
,,,-4.28E-06,0.01815625
,,,-4.27E-06,0.01829
,,,-4.26E-06,0.018240625
,,,-4.25E-06,0.018049375
,,,-4.24E-06,0.017993125
,,,-4.23E-06,0.018164375
,,,-4.22E-06,0.018075625
,,,-4.21E-06,0.017895625
,,,-4.2E-06,0.01818375
,,,-4.19E-06,0.01813125
,,,-4.18E-06,0.01798375
,,,-4.17E-06,0.0181
,,,-4.16E-06,0.0182275
,,,-4.15E-06,0.0182425
,,,-4.14E-06,0.018095
,,,-4.13E-06,0.017971875
,,,-4.12E-06,0.018061875
,,,-4.11E-06,0.017985625
,,,-4.1E-06,0.018098125
,,,-4.09E-06,0.018235625
,,,-4.08E-06,0.01814125
,,,-4.07E-06,0.018296875
,,,-4.06E-06,0.018229375
,,,-4.05E-06,0.0182275
,,,-4.04E-06,0.017989375
,,,-4.03E-06,0.0183825
,,,-4.02E-06,0.0180875
,,,-4.01E-06,0.01827625
,,,-4E-06,0.018315625
,,,-3.99E-06,0.017948125
,,,-3.98E-06,0.01804
,,,-3.97E-06,0.018078125
,,,-3.96E-06,0.018235625
,,,-3.95E-06,0.01790375
,,,-3.94E-06,0.0182175
,,,-3.93E-06,0.018206875
,,,-3.92E-06,0.01799875
,,,-3.91E-06,0.0179325
,,,-3.9E-06,0.018069375
,,,-3.89E-06,0.01804875
,,,-3.88E-06,0.018231875
,,,-3.87E-06,0.0179275
,,,-3.86E-06,0.01804125
,,,-3.85E-06,0.017971875
,,,-3.84E-06,0.017919375
,,,-3.83E-06,0.0181775
,,,-3.82E-06,0.018325
,,,-3.81E-06,0.017776875
,,,-3.8E-06,0.0180325
,,,-3.79E-06,0.01806875
,,,-3.78E-06,0.018014375
,,,-3.77E-06,0.018071875
,,,-3.76E-06,0.01827625
,,,-3.75E-06,0.01813125
,,,-3.74E-06,0.018118125
,,,-3.73E-06,0.018126875
,,,-3.72E-06,0.01800875
,,,-3.71E-06,0.0180025
,,,-3.7E-06,0.018261875
,,,-3.69E-06,0.017945625
,,,-3.68E-06,0.018055
,,,-3.67E-06,0.01800375
,,,-3.66E-06,0.0182725
,,,-3.65E-06,0.018155625
,,,-3.64E-06,0.01809
,,,-3.63E-06,0.018099375
,,,-3.62E-06,0.01768125
,,,-3.61E-06,0.018165
,,,-3.6E-06,0.018268125
,,,-3.59E-06,0.018098125
,,,-3.58E-06,0.01816
,,,-3.57E-06,0.018028125
,,,-3.56E-06,0.01792375
,,,-3.55E-06,0.01822875
,,,-3.54E-06,0.018135
,,,-3.53E-06,0.0178825
,,,-3.52E-06,0.0179625
,,,-3.51E-06,0.018175
,,,-3.5E-06,0.017910625
,,,-3.49E-06,0.01809
,,,-3.48E-06,0.0180975
,,,-3.47E-06,0.0181825
,,,-3.46E-06,0.017954375
,,,-3.45E-06,0.01804875
,,,-3.44E-06,0.017955
,,,-3.43E-06,0.0181025
,,,-3.42E-06,0.01802875
,,,-3.41E-06,0.01808125
,,,-3.4E-06,0.01778875
,,,-3.39E-06,0.0182725
,,,-3.38E-06,0.01798375
,,,-3.37E-06,0.018036875
,,,-3.36E-06,0.01823875
,,,-3.35E-06,0.017888125
,,,-3.34E-06,0.0180525
,,,-3.33E-06,0.018150625
,,,-3.32E-06,0.018116875
,,,-3.31E-06,0.018166875
,,,-3.3E-06,0.018090625
,,,-3.29E-06,0.018319375
,,,-3.28E-06,0.01812625
,,,-3.27E-06,0.01811875
,,,-3.26E-06,0.01788875
,,,-3.25E-06,0.017858125
,,,-3.24E-06,0.01813125
,,,-3.23E-06,0.018066875
,,,-3.22E-06,0.01824
,,,-3.21E-06,0.01784625
,,,-3.2E-06,0.01822875
,,,-3.19E-06,0.017908125
,,,-3.18E-06,0.018310625
,,,-3.17E-06,0.018320625
,,,-3.16E-06,0.01791125
,,,-3.15E-06,0.017840625
,,,-3.14E-06,0.01807875
,,,-3.13E-06,0.01815625
,,,-3.12E-06,0.01811875
,,,-3.11E-06,0.01797
,,,-3.1E-06,0.01826375
,,,-3.09E-06,0.01815125
,,,-3.08E-06,0.0179675
,,,-3.07E-06,0.018093125
,,,-3.06E-06,0.018135
,,,-3.05E-06,0.018095625
,,,-3.04E-06,0.0182375
,,,-3.03E-06,0.01797625
,,,-3.02E-06,0.0179675
,,,-3.01E-06,0.018239375
,,,-3E-06,0.01786125
,,,-2.99E-06,0.01807
,,,-2.98E-06,0.01828375
,,,-2.97E-06,0.018173125
,,,-2.96E-06,0.018005625
,,,-2.95E-06,0.0179875
,,,-2.94E-06,0.018008125
,,,-2.93E-06,0.018181875
,,,-2.92E-06,0.017895
,,,-2.91E-06,0.018145
,,,-2.9E-06,0.017861875
,,,-2.89E-06,0.01819625
,,,-2.88E-06,0.01805
,,,-2.87E-06,0.018141875
,,,-2.86E-06,0.018013125
,,,-2.85E-06,0.018126875
,,,-2.84E-06,0.0181
,,,-2.83E-06,0.018165
,,,-2.82E-06,0.01808125
,,,-2.81E-06,0.018185
,,,-2.8E-06,0.01823875
,,,-2.79E-06,0.01789375
,,,-2.78E-06,0.0180575
,,,-2.77E-06,0.01789
,,,-2.76E-06,0.018015625
,,,-2.75E-06,0.01825625
,,,-2.74E-06,0.01822375
,,,-2.73E-06,0.0181325
,,,-2.72E-06,0.0179625
,,,-2.71E-06,0.01804
,,,-2.7E-06,0.018105625
,,,-2.69E-06,0.018026875
,,,-2.68E-06,0.018165
,,,-2.67E-06,0.0180975
,,,-2.66E-06,0.018125625
,,,-2.65E-06,0.018075625
,,,-2.64E-06,0.01814
,,,-2.63E-06,0.01812875
,,,-2.62E-06,0.018011875
,,,-2.61E-06,0.018088125
,,,-2.6E-06,0.0180725
,,,-2.59E-06,0.0180525
,,,-2.58E-06,0.01788125
,,,-2.57E-06,0.01790125
,,,-2.56E-06,0.018156875
,,,-2.55E-06,0.01835
,,,-2.54E-06,0.018081875
,,,-2.53E-06,0.018090625
,,,-2.52E-06,0.01801875
,,,-2.51E-06,0.018164375
,,,-2.5E-06,0.01830625
,,,-2.49E-06,0.018175625
,,,-2.48E-06,0.01786625
,,,-2.47E-06,0.01794375
,,,-2.46E-06,0.018283125
,,,-2.45E-06,0.017923125
,,,-2.44E-06,0.018150625
,,,-2.43E-06,0.017975625
,,,-2.42E-06,0.018205625
,,,-2.41E-06,0.0179825
,,,-2.4E-06,0.018165
,,,-2.39E-06,0.01812625
,,,-2.38E-06,0.0182825
,,,-2.37E-06,0.018201875
,,,-2.36E-06,0.01790375
,,,-2.35E-06,0.018101875
,,,-2.34E-06,0.017974375
,,,-2.33E-06,0.018063125
,,,-2.32E-06,0.018066875
,,,-2.31E-06,0.01798
,,,-2.3E-06,0.017935625
,,,-2.29E-06,0.01822375
,,,-2.28E-06,0.01824875
,,,-2.27E-06,0.018129375
,,,-2.26E-06,0.018164375
,,,-2.25E-06,0.018275
,,,-2.24E-06,0.01817125
,,,-2.23E-06,0.01826125
,,,-2.22E-06,0.01801
,,,-2.21E-06,0.017963125
,,,-2.2E-06,0.018116875
,,,-2.19E-06,0.01786
,,,-2.18E-06,0.017980625
,,,-2.17E-06,0.0180325
,,,-2.16E-06,0.018109375
,,,-2.15E-06,0.018103125
,,,-2.14E-06,0.01822
,,,-2.13E-06,0.018239375
,,,-2.12E-06,0.017899375
,,,-2.11E-06,0.018254375
,,,-2.1E-06,0.01796375
,,,-2.09E-06,0.0181375
,,,-2.08E-06,0.018323125
,,,-2.07E-06,0.01836375
,,,-2.06E-06,0.017968125
,,,-2.05E-06,0.018268125
,,,-2.04E-06,0.018055625
,,,-2.03E-06,0.0181225
,,,-2.02E-06,0.01837125
,,,-2.01E-06,0.018130625
,,,-2E-06,0.018069375
,,,-1.99E-06,0.01797875
,,,-1.98E-06,0.018161875
,,,-1.97E-06,0.018079375
,,,-1.96E-06,0.018120625
,,,-1.95E-06,0.018104375
,,,-1.94E-06,0.017955
,,,-1.93E-06,0.01829375
,,,-1.92E-06,0.01827625
,,,-1.91E-06,0.01799
,,,-1.9E-06,0.018091875
,,,-1.89E-06,0.018080625
,,,-1.88E-06,0.018085
,,,-1.87E-06,0.0182325
,,,-1.86E-06,0.018240625
,,,-1.85E-06,0.017795
,,,-1.84E-06,0.01793
,,,-1.83E-06,0.01816625
,,,-1.82E-06,0.018068125
,,,-1.81E-06,0.018101875
,,,-1.8E-06,0.01781625
,,,-1.79E-06,0.018164375
,,,-1.78E-06,0.018285
,,,-1.77E-06,0.017945
,,,-1.76E-06,0.0180975
,,,-1.75E-06,0.018155
,,,-1.74E-06,0.01809
,,,-1.73E-06,0.017885625
,,,-1.72E-06,0.018166875
,,,-1.71E-06,0.01831625
,,,-1.7E-06,0.01817125
,,,-1.69E-06,0.017856875
,,,-1.68E-06,0.01814875
,,,-1.67E-06,0.018189375
,,,-1.66E-06,0.018100625
,,,-1.65E-06,0.01803375
,,,-1.64E-06,0.01791625
,,,-1.63E-06,0.018194375
,,,-1.62E-06,0.0180925
,,,-1.61E-06,0.0181175
,,,-1.6E-06,0.018168125
,,,-1.59E-06,0.018201875
,,,-1.58E-06,0.017984375
,,,-1.57E-06,0.018073125
,,,-1.56E-06,0.0180475
,,,-1.55E-06,0.01809875
,,,-1.54E-06,0.017955
,,,-1.53E-06,0.018134375
,,,-1.52E-06,0.018078125
,,,-1.51E-06,0.0181375
,,,-1.5E-06,0.017891875
,,,-1.49E-06,0.018125625
,,,-1.48E-06,0.01815375
,,,-1.47E-06,0.018076875
,,,-1.46E-06,0.018196875
,,,-1.45E-06,0.018103125
,,,-1.44E-06,0.01813125
,,,-1.43E-06,0.018156875
,,,-1.42E-06,0.018013125
,,,-1.41E-06,0.018120625
,,,-1.4E-06,0.01806875
,,,-1.39E-06,0.0180525
,,,-1.38E-06,0.017955
,,,-1.37E-06,0.017931875
,,,-1.36E-06,0.018091875
,,,-1.35E-06,0.01804875
,,,-1.34E-06,0.0183425
,,,-1.33E-06,0.017905
,,,-1.32E-06,0.01815125
,,,-1.31E-06,0.01796375
,,,-1.3E-06,0.018090625
,,,-1.29E-06,0.01803125
,,,-1.28E-06,0.01817375
,,,-1.27E-06,0.01795875
,,,-1.26E-06,0.017900625
,,,-1.25E-06,0.01811875
,,,-1.24E-06,0.018096875
,,,-1.23E-06,0.018193125
,,,-1.22E-06,0.0180425
,,,-1.21E-06,0.018089375
,,,-1.2E-06,0.017663125
,,,-1.19E-06,0.018188125
,,,-1.18E-06,0.0181525
,,,-1.17E-06,0.018303125
,,,-1.16E-06,0.017885
,,,-1.15E-06,0.01807625
,,,-1.14E-06,0.01819125
,,,-1.13E-06,0.018125
,,,-1.12E-06,0.018036875
,,,-1.11E-06,0.017993125
,,,-1.1E-06,0.018090625
,,,-1.09E-06,0.018390625
,,,-1.08E-06,0.018168125
,,,-1.07E-06,0.018106875
,,,-1.06E-06,0.01806125
,,,-1.05E-06,0.0179675
,,,-1.04E-06,0.0181125
,,,-1.03E-06,0.0180575
,,,-1.02E-06,0.01803875
,,,-1.01E-06,0.0181775
,,,-1E-06,0.01796625
,,,-9.9E-07,0.01810375
,,,-9.8E-07,0.01804375
,,,-9.7E-07,0.01804625
,,,-9.6E-07,0.01807875
,,,-9.5E-07,0.018091875
,,,-9.4E-07,0.01815375
,,,-9.3E-07,0.018065
,,,-9.2E-07,0.018071875
,,,-9.1E-07,0.01838625
,,,-9E-07,0.018208125
,,,-8.9E-07,0.018018125
,,,-8.8E-07,0.01792125
,,,-8.7E-07,0.017886875
,,,-8.6E-07,0.018164375
,,,-8.5E-07,0.01810875
,,,-8.4E-07,0.0180925
,,,-8.3E-07,0.01811875
,,,-8.2E-07,0.018165625
,,,-8.1E-07,0.0178175
,,,-8E-07,0.018025
,,,-7.9E-07,0.017875
,,,-7.8E-07,0.018288125
,,,-7.7E-07,0.018105
,,,-7.6E-07,0.0182475
,,,-7.5E-07,0.017940625
,,,-7.4E-07,0.01797625
,,,-7.3E-07,0.018151875
,,,-7.2E-07,0.0179775
,,,-7.1E-07,0.018115
,,,-7E-07,0.018128125
,,,-6.9E-07,0.018265
,,,-6.8E-07,0.018035625
,,,-6.7E-07,0.018115
,,,-6.6E-07,0.018219375
,,,-6.5E-07,0.017926875
,,,-6.4E-07,0.018163125
,,,-6.3E-07,0.018216875
,,,-6.2E-07,0.0179425
,,,-6.1E-07,0.017970625
,,,-6E-07,0.01822
,,,-5.9E-07,0.018245625
,,,-5.8E-07,0.01833625
,,,-5.7E-07,0.018105
,,,-5.6E-07,0.0181625
,,,-5.5E-07,0.018190625
,,,-5.4E-07,0.0180875
,,,-5.3E-07,0.018205625
,,,-5.2E-07,0.017931875
,,,-5.1E-07,0.018075625
,,,-5E-07,0.01795625
,,,-4.9E-07,0.018010625
,,,-4.8E-07,0.01821
,,,-4.7E-07,0.01801625
,,,-4.6E-07,0.0180825
,,,-4.5E-07,0.01792125
,,,-4.4E-07,0.0181325
,,,-4.3E-07,0.018165
,,,-4.2E-07,0.018250625
,,,-4.1E-07,0.018194375
,,,-4E-07,0.01796125
,,,-3.9E-07,0.01776875
,,,-3.8E-07,0.018065
,,,-3.7E-07,0.01812875
,,,-3.6E-07,0.01803625
,,,-3.5E-07,0.01807875
,,,-3.4E-07,0.01811375
,,,-3.3E-07,0.018095
,,,-3.2E-07,0.017998125
,,,-3.1E-07,0.0181675
,,,-3E-07,0.017863125
,,,-2.9E-07,0.018185625
,,,-2.8E-07,0.017940625
,,,-2.7E-07,0.018105625
,,,-2.6E-07,0.01811375
,,,-2.5E-07,0.018263125
,,,-2.4E-07,0.018085
,,,-2.3E-07,0.01812875
,,,-2.2E-07,0.01820625
,,,-2.1E-07,0.01812
,,,-2E-07,0.018185
,,,-1.9E-07,0.018075625
,,,-1.8E-07,0.01820625
,,,-1.7E-07,0.018013125
,,,-1.6E-07,0.018116875
,,,-1.5E-07,0.018123125
,,,-1.4E-07,0.01804
,,,-1.3E-07,0.01797875
,,,-1.2E-07,0.01802125
,,,-1.1E-07,0.0180475
,,,-1E-07,0.01800875
,,,-9E-08,0.01821625
,,,-8E-08,0.01815
,,,-7E-08,0.018104375
,,,-6E-08,0.018134375
,,,-5E-08,0.0181175
,,,-4E-08,0.01799625
,,,-3E-08,0.0172875
,,,-2E-08,0.017421875
,,,-1E-08,0.018634375
,,,0,0.018800625
,,,1E-08,0.018745625
,,,2E-08,0.0171175
,,,3E-08,0.0174225
,,,4E-08,0.017235625
,,,5E-08,0.01853375
,,,6E-08,0.018171875
,,,7E-08,0.018550625
,,,8E-08,0.018556875
,,,9E-08,0.017835
,,,1E-07,0.017645
,,,1.1E-07,0.01779375
,,,1.2E-07,0.018075
,,,1.3E-07,0.018058125
,,,1.4E-07,0.018471875
,,,1.5E-07,0.018115625
,,,1.6E-07,0.018269375
,,,1.7E-07,0.017706875
,,,1.8E-07,0.018018125
,,,1.9E-07,0.018089375
,,,2E-07,0.017808125
,,,2.1E-07,0.017970625
,,,2.2E-07,0.01810875
,,,2.3E-07,0.018180625
,,,2.4E-07,0.01795125
,,,2.5E-07,0.0180125
,,,2.6E-07,0.01770875
,,,2.7E-07,0.017926875
,,,2.8E-07,0.0179625
,,,2.9E-07,0.017955
,,,3E-07,0.01826875
,,,3.1E-07,0.018171875
,,,3.2E-07,0.018205
,,,3.3E-07,0.017969375
,,,3.4E-07,0.0181075
,,,3.5E-07,0.0181475
,,,3.6E-07,0.018058125
,,,3.7E-07,0.01801125
,,,3.8E-07,0.01815875
,,,3.9E-07,0.017979375
,,,4E-07,0.018358125
,,,4.1E-07,0.018103125
,,,4.2E-07,0.018301875
,,,4.3E-07,0.01825125
,,,4.4E-07,0.01821
,,,4.5E-07,0.01817
,,,4.6E-07,0.01810125
,,,4.7E-07,0.0181025
,,,4.8E-07,0.018035625
,,,4.9E-07,0.018034375
,,,5E-07,0.0180425
,,,5.1E-07,0.0180475
,,,5.2E-07,0.018040625
,,,5.3E-07,0.018160625
,,,5.4E-07,0.018024375
,,,5.5E-07,0.01812
,,,5.6E-07,0.0181175
,,,5.7E-07,0.01795125
,,,5.8E-07,0.01809
,,,5.9E-07,0.017895625
,,,6E-07,0.0181
,,,6.1E-07,0.017978125
,,,6.2E-07,0.017984375
,,,6.3E-07,0.018008125
,,,6.4E-07,0.0182125
,,,6.5E-07,0.018014375
,,,6.6E-07,0.01820125
,,,6.7E-07,0.01815
,,,6.8E-07,0.018115
,,,6.9E-07,0.01793875
,,,7E-07,0.018
,,,7.1E-07,0.018098125
,,,7.2E-07,0.018003125
,,,7.3E-07,0.018179375
,,,7.4E-07,0.018376875
,,,7.5E-07,0.0180175
,,,7.6E-07,0.0181325
,,,7.7E-07,0.017965
,,,7.8E-07,0.0181675
,,,7.9E-07,0.0181525
,,,8E-07,0.01792
,,,8.1E-07,0.018086875
,,,8.2E-07,0.018378125
,,,8.3E-07,0.018179375
,,,8.4E-07,0.018023125
,,,8.5E-07,0.018225
,,,8.6E-07,0.018176875
,,,8.7E-07,0.018165625
,,,8.8E-07,0.018115
,,,8.9E-07,0.0179975
,,,9E-07,0.018066875
,,,9.1E-07,0.018183125
,,,9.2E-07,0.018058125
,,,9.3E-07,0.018083125
,,,9.4E-07,0.01800875
,,,9.5E-07,0.018266875
,,,9.6E-07,0.01810375
,,,9.7E-07,0.017966875
,,,9.8E-07,0.0181575
,,,9.9E-07,0.0179575
,,,1E-06,0.018055625
,,,1.01E-06,0.017879375
,,,1.02E-06,0.01800125
,,,1.03E-06,0.017975625
,,,1.04E-06,0.018241875
,,,1.05E-06,0.018133125
,,,1.06E-06,0.018074375
,,,1.07E-06,0.01809625
,,,1.08E-06,0.0181275
,,,1.09E-06,0.01802625
,,,1.1E-06,0.01819875
,,,1.11E-06,0.0180525
,,,1.12E-06,0.01821375
,,,1.13E-06,0.01806375
,,,1.14E-06,0.018155625
,,,1.15E-06,0.018099375
,,,1.16E-06,0.0181675
,,,1.17E-06,0.0181775
,,,1.18E-06,0.018053125
,,,1.19E-06,0.01809125
,,,1.2E-06,0.01832125
,,,1.21E-06,0.018039375
,,,1.22E-06,0.018035
,,,1.23E-06,0.018204375
,,,1.24E-06,0.01815
,,,1.25E-06,0.018123125
,,,1.26E-06,0.018044375
,,,1.27E-06,0.017931875
,,,1.28E-06,0.018225625
,,,1.29E-06,0.018065625
,,,1.3E-06,0.0180625
,,,1.31E-06,0.01819375
,,,1.32E-06,0.017935625
,,,1.33E-06,0.01811625
,,,1.34E-06,0.018058125
,,,1.35E-06,0.0182975
,,,1.36E-06,0.01785625
,,,1.37E-06,0.018089375
,,,1.38E-06,0.018193125
,,,1.39E-06,0.018185625
,,,1.4E-06,0.018143125
,,,1.41E-06,0.01826875
,,,1.42E-06,0.01797625
,,,1.43E-06,0.017959375
,,,1.44E-06,0.018048125
,,,1.45E-06,0.018155625
,,,1.46E-06,0.01838875
,,,1.47E-06,0.01812375
,,,1.48E-06,0.0180275
,,,1.49E-06,0.01795625
,,,1.5E-06,0.018138125
,,,1.51E-06,0.018251875
,,,1.52E-06,0.018375625
,,,1.53E-06,0.0180125
,,,1.54E-06,0.01830375
,,,1.55E-06,0.018033125
,,,1.56E-06,0.018111875
,,,1.57E-06,0.01807125
,,,1.58E-06,0.017988125
,,,1.59E-06,0.017975
,,,1.6E-06,0.017826875
,,,1.61E-06,0.018054375
,,,1.62E-06,0.018326875
,,,1.63E-06,0.018214375
,,,1.64E-06,0.0181825
,,,1.65E-06,0.01826
,,,1.66E-06,0.018063125
,,,1.67E-06,0.018205
,,,1.68E-06,0.01793
,,,1.69E-06,0.018083125
,,,1.7E-06,0.01822375
,,,1.71E-06,0.018045
,,,1.72E-06,0.01835375
,,,1.73E-06,0.018179375
,,,1.74E-06,0.018230625
,,,1.75E-06,0.018049375
,,,1.76E-06,0.0179475
,,,1.77E-06,0.018285
,,,1.78E-06,0.018226875
,,,1.79E-06,0.01810875
,,,1.8E-06,0.0181725
,,,1.81E-06,0.018064375
,,,1.82E-06,0.018075
,,,1.83E-06,0.017805
,,,1.84E-06,0.01803
,,,1.85E-06,0.017798125
,,,1.86E-06,0.0180325
,,,1.87E-06,0.018006875
,,,1.88E-06,0.01803
,,,1.89E-06,0.017885
,,,1.9E-06,0.018203125
,,,1.91E-06,0.018178125
,,,1.92E-06,0.018163125
,,,1.93E-06,0.01796875
,,,1.94E-06,0.01808375
,,,1.95E-06,0.018113125
,,,1.96E-06,0.0182375
,,,1.97E-06,0.017885625
,,,1.98E-06,0.018289375
,,,1.99E-06,0.01816125
,,,2E-06,0.018169375
,,,2.01E-06,0.018125625
,,,2.02E-06,0.018030625
,,,2.03E-06,0.0181775
,,,2.04E-06,0.0181525
,,,2.05E-06,0.01816125
,,,2.06E-06,0.0180225
,,,2.07E-06,0.01810875
,,,2.08E-06,0.01808625
,,,2.09E-06,0.01787
,,,2.1E-06,0.018109375
,,,2.11E-06,0.01827375
,,,2.12E-06,0.018060625
,,,2.13E-06,0.018111875
,,,2.14E-06,0.018204375
,,,2.15E-06,0.0180025
,,,2.16E-06,0.018254375
,,,2.17E-06,0.017945625
,,,2.18E-06,0.01822125
,,,2.19E-06,0.01764125
,,,2.2E-06,0.018204375
,,,2.21E-06,0.018258125
,,,2.22E-06,0.018005625
,,,2.23E-06,0.01819375
,,,2.24E-06,0.017965
,,,2.25E-06,0.018190625
,,,2.26E-06,0.01813875
,,,2.27E-06,0.017956875
,,,2.28E-06,0.01822125
,,,2.29E-06,0.018098125
,,,2.3E-06,0.0180675
,,,2.31E-06,0.01772
,,,2.32E-06,0.018170625
,,,2.33E-06,0.018170625
,,,2.34E-06,0.01810875
,,,2.35E-06,0.018144375
,,,2.36E-06,0.017955
,,,2.37E-06,0.0180425
,,,2.38E-06,0.018189375
,,,2.39E-06,0.01814625
,,,2.4E-06,0.0180375
,,,2.41E-06,0.018165625
,,,2.42E-06,0.018109375
,,,2.43E-06,0.01803625
,,,2.44E-06,0.018413125
,,,2.45E-06,0.018065
,,,2.46E-06,0.0183475
,,,2.47E-06,0.018116875
,,,2.48E-06,0.017938125
,,,2.49E-06,0.017926875
,,,2.5E-06,0.018223125
,,,2.51E-06,0.0180025
,,,2.52E-06,0.017878125
,,,2.53E-06,0.018084375
,,,2.54E-06,0.0180975
,,,2.55E-06,0.017974375
,,,2.56E-06,0.01799875
,,,2.57E-06,0.017951875
,,,2.58E-06,0.018154375
,,,2.59E-06,0.01811875
,,,2.6E-06,0.01811
,,,2.61E-06,0.0183425
,,,2.62E-06,0.01785
,,,2.63E-06,0.01812
,,,2.64E-06,0.017948125
,,,2.65E-06,0.01795625
,,,2.66E-06,0.01775
,,,2.67E-06,0.01817
,,,2.68E-06,0.018089375
,,,2.69E-06,0.01785875
,,,2.7E-06,0.017976875
,,,2.71E-06,0.017840625
,,,2.72E-06,0.017798125
,,,2.73E-06,0.017964375
,,,2.74E-06,0.0180825
,,,2.75E-06,0.0180675
,,,2.76E-06,0.01792125
,,,2.77E-06,0.01802
,,,2.78E-06,0.018160625
,,,2.79E-06,0.01783875
,,,2.8E-06,0.01786625
,,,2.81E-06,0.018316875
,,,2.82E-06,0.01772625
,,,2.83E-06,0.018219375
,,,2.84E-06,0.018023125
,,,2.85E-06,0.018050625
,,,2.86E-06,0.01802375
,,,2.87E-06,0.018008125
,,,2.88E-06,0.018203125
,,,2.89E-06,0.018169375
,,,2.9E-06,0.0179325
,,,2.91E-06,0.018345625
,,,2.92E-06,0.018123125
,,,2.93E-06,0.01811625
,,,2.94E-06,0.017985
,,,2.95E-06,0.018185625
,,,2.96E-06,0.018159375
,,,2.97E-06,0.01808625
,,,2.98E-06,0.0179175
,,,2.99E-06,0.018176875
,,,3E-06,0.017990625
,,,3.01E-06,0.018135
,,,3.02E-06,0.018175
,,,3.03E-06,0.018126875
,,,3.04E-06,0.018320625
,,,3.05E-06,0.01821125
,,,3.06E-06,0.01812375
,,,3.07E-06,0.017990625
,,,3.08E-06,0.018136875
,,,3.09E-06,0.018193125
,,,3.1E-06,0.018183125
,,,3.11E-06,0.01834875
,,,3.12E-06,0.018271875
,,,3.13E-06,0.018009375
,,,3.14E-06,0.018165
,,,3.15E-06,0.017865625
,,,3.16E-06,0.018266875
,,,3.17E-06,0.0181925
,,,3.18E-06,0.0181025
,,,3.19E-06,0.018205
,,,3.2E-06,0.018145
,,,3.21E-06,0.01809375
,,,3.22E-06,0.01808
,,,3.23E-06,0.018293125
,,,3.24E-06,0.017905625
,,,3.25E-06,0.01789375
,,,3.26E-06,0.01817625
,,,3.27E-06,0.017754375
,,,3.28E-06,0.018319375
,,,3.29E-06,0.01813625
,,,3.3E-06,0.01829375
,,,3.31E-06,0.01816625
,,,3.32E-06,0.01807375
,,,3.33E-06,0.01808875
,,,3.34E-06,0.018175
,,,3.35E-06,0.017905625
,,,3.36E-06,0.018010625
,,,3.37E-06,0.018218125
,,,3.38E-06,0.01803
,,,3.39E-06,0.017993125
,,,3.4E-06,0.017944375
,,,3.41E-06,0.0180425
,,,3.42E-06,0.017769375
,,,3.43E-06,0.01805625
,,,3.44E-06,0.0179425
,,,3.45E-06,0.018115
,,,3.46E-06,0.01817125
,,,3.47E-06,0.018231875
,,,3.48E-06,0.018266875
,,,3.49E-06,0.018028125
,,,3.5E-06,0.018054375
,,,3.51E-06,0.018130625
,,,3.52E-06,0.017941875
,,,3.53E-06,0.018248125
,,,3.54E-06,0.018291875
,,,3.55E-06,0.0181775
,,,3.56E-06,0.018115
,,,3.57E-06,0.0179325
,,,3.58E-06,0.018206875
,,,3.59E-06,0.018018125
