data/raw/Final_POL_Test_1/SOP060_Ch2.csv

"Record Length",1000,"Points",-5E-06,0.0201925
"Sample Interval",1E-08,s,-4.99E-06,0.02023875
"Trigger Point",500,"Samples",-4.98E-06,0.02006625
"Trigger Time",0,s,-4.97E-06,0.0203225
"",,,-4.96E-06,0.0201175
"Horizontal Offset",-5E-06,s,-4.95E-06,0.020148125
,,,-4.94E-06,0.0202025
,,,-4.93E-06,0.020075
,,,-4.92E-06,0.0202275
,,,-4.91E-06,0.020213125
,,,-4.9E-06,0.02020375
,,,-4.89E-06,0.020074375
,,,-4.88E-06,0.020254375
,,,-4.87E-06,0.02002375
,,,-4.86E-06,0.020105625
,,,-4.85E-06,0.020195625
,,,-4.84E-06,0.020175625
,,,-4.83E-06,0.02040625
,,,-4.82E-06,0.0204675
,,,-4.81E-06,0.020175625
,,,-4.8E-06,0.020305
,,,-4.79E-06,0.02011
,,,-4.78E-06,0.020216875
,,,-4.77E-06,0.020209375
,,,-4.76E-06,0.0201925
,,,-4.75E-06,0.020104375
,,,-4.74E-06,0.019944375
,,,-4.73E-06,0.020240625
,,,-4.72E-06,0.020124375
,,,-4.71E-06,0.020168125
,,,-4.7E-06,0.019936875
,,,-4.69E-06,0.020013125
,,,-4.68E-06,0.02018875
,,,-4.67E-06,0.020115625
,,,-4.66E-06,0.02019625
,,,-4.65E-06,0.0200075
,,,-4.64E-06,0.02019875
,,,-4.63E-06,0.02015625
,,,-4.62E-06,0.020265
,,,-4.61E-06,0.020303125
,,,-4.6E-06,0.02010875
,,,-4.59E-06,0.020183125
,,,-4.58E-06,0.0200325
,,,-4.57E-06,0.02015375
,,,-4.56E-06,0.020296875
,,,-4.55E-06,0.0201775
,,,-4.54E-06,0.020096875
,,,-4.53E-06,0.02025875
,,,-4.52E-06,0.02007875
,,,-4.51E-06,0.02038375
,,,-4.5E-06,0.0201725
,,,-4.49E-06,0.0201775
,,,-4.48E-06,0.02027125
,,,-4.47E-06,0.02017625
,,,-4.46E-06,0.01994625
,,,-4.45E-06,0.02005625
,,,-4.44E-06,0.020028125
,,,-4.43E-06,0.02031
,,,-4.42E-06,0.01998
,,,-4.41E-06,0.019874375
,,,-4.4E-06,0.0200325
,,,-4.39E-06,0.020081875
,,,-4.38E-06,0.020266875
,,,-4.37E-06,0.020318125
,,,-4.36E-06,0.020109375
,,,-4.35E-06,0.02009875
,,,-4.34E-06,0.020075625
,,,-4.33E-06,0.01992375
,,,-4.32E-06,0.020073125
,,,-4.31E-06,0.020205
,,,-4.3E-06,0.020095
,,,-4.29E-06,0.0201975
,,,-4.28E-06,0.020200625
,,,-4.27E-06,0.0201425
,,,-4.26E-06,0.020176875
,,,-4.25E-06,0.020128125
,,,-4.24E-06,0.02015375
,,,-4.23E-06,0.020295
,,,-4.22E-06,0.02014
,,,-4.21E-06,0.02019875
,,,-4.2E-06,0.02021
,,,-4.19E-06,0.020035625
,,,-4.18E-06,0.0203725
,,,-4.17E-06,0.02020875
,,,-4.16E-06,0.020051875
,,,-4.15E-06,0.02009125
,,,-4.14E-06,0.02028
,,,-4.13E-06,0.020123125
,,,-4.12E-06,0.020091875
,,,-4.11E-06,0.020095625
,,,-4.1E-06,0.020073125
,,,-4.09E-06,0.02022125
,,,-4.08E-06,0.020320625
,,,-4.07E-06,0.020335625
,,,-4.06E-06,0.02023875
,,,-4.05E-06,0.0202025
,,,-4.04E-06,0.02014875
,,,-4.03E-06,0.019888125
,,,-4.02E-06,0.020080625
,,,-4.01E-06,0.020140625
,,,-4E-06,0.02031
,,,-3.99E-06,0.020114375
,,,-3.98E-06,0.020173125
,,,-3.97E-06,0.0203175
,,,-3.96E-06,0.020354375
,,,-3.95E-06,0.02016375
,,,-3.94E-06,0.0201875
,,,-3.93E-06,0.02001
,,,-3.92E-06,0.02012125
,,,-3.91E-06,0.020233125
,,,-3.9E-06,0.0201825
,,,-3.89E-06,0.020221875
,,,-3.88E-06,0.020290625
,,,-3.87E-06,0.020245625
,,,-3.86E-06,0.02005125
,,,-3.85E-06,0.020145
,,,-3.84E-06,0.0201425
,,,-3.83E-06,0.0201925
,,,-3.82E-06,0.020088125
,,,-3.81E-06,0.0200825
,,,-3.8E-06,0.020071875
,,,-3.79E-06,0.0203425
,,,-3.78E-06,0.020105
,,,-3.77E-06,0.020275625
,,,-3.76E-06,0.02012125
,,,-3.75E-06,0.0200825
,,,-3.74E-06,0.020188125
,,,-3.73E-06,0.02017625
,,,-3.72E-06,0.0203025
,,,-3.71E-06,0.02025375
,,,-3.7E-06,0.020301875
,,,-3.69E-06,0.01988125
,,,-3.68E-06,0.02011125
,,,-3.67E-06,0.0201625
,,,-3.66E-06,0.02011875
,,,-3.65E-06,0.01991875
,,,-3.64E-06,0.020169375
,,,-3.63E-06,0.0201175
,,,-3.62E-06,0.0201825
,,,-3.61E-06,0.01993125
,,,-3.6E-06,0.02000875
,,,-3.59E-06,0.020096875
,,,-3.58E-06,0.02001875
,,,-3.57E-06,0.020114375
,,,-3.56E-06,0.020095
,,,-3.55E-06,0.02022375
,,,-3.54E-06,0.02012625
,,,-3.53E-06,0.02006625
,,,-3.52E-06,0.020196875
,,,-3.51E-06,0.02023
,,,-3.5E-06,0.020195
,,,-3.49E-06,0.020300625
,,,-3.48E-06,0.020099375
,,,-3.47E-06,0.02002375
,,,-3.46E-06,0.020331875
,,,-3.45E-06,0.020019375
,,,-3.44E-06,0.0202975
,,,-3.43E-06,0.020140625
,,,-3.42E-06,0.020215
,,,-3.41E-06,0.020065
,,,-3.4E-06,0.020355625
,,,-3.39E-06,0.020133125
,,,-3.38E-06,0.02000875
,,,-3.37E-06,0.020036875
,,,-3.36E-06,0.019898125
,,,-3.35E-06,0.020410625
,,,-3.34E-06,0.019983125
,,,-3.33E-06,0.020118125
,,,-3.32E-06,0.020195625
,,,-3.31E-06,0.019919375
,,,-3.3E-06,0.02012625
,,,-3.29E-06,0.020115
,,,-3.28E-06,0.020291875
,,,-3.27E-06,0.0201
,,,-3.26E-06,0.020156875
,,,-3.25E-06,0.020163125
,,,-3.24E-06,0.02007125
,,,-3.23E-06,0.0203025
,,,-3.22E-06,0.02001875
,,,-3.21E-06,0.02009125
,,,-3.2E-06,0.020184375
,,,-3.19E-06,0.0200825
,,,-3.18E-06,0.020316875
,,,-3.17E-06,0.02020375
,,,-3.16E-06,0.020113125
,,,-3.15E-06,0.020098125
,,,-3.14E-06,0.020220625
,,,-3.13E-06,0.02002625
,,,-3.12E-06,0.01993625
,,,-3.11E-06,0.020059375
,,,-3.1E-06,0.020244375
,,,-3.09E-06,0.020185
,,,-3.08E-06,0.0201825
,,,-3.07E-06,0.020256875
,,,-3.06E-06,0.020221875
,,,-3.05E-06,0.020256875
,,,-3.04E-06,0.020233125
,,,-3.03E-06,0.020264375
,,,-3.02E-06,0.020200625
,,,-3.01E-06,0.020235625
,,,-3E-06,0.0201725
,,,-2.99E-06,0.020166875
,,,-2.98E-06,0.020008125
,,,-2.97E-06,0.020120625
,,,-2.96E-06,0.0199375
,,,-2.95E-06,0.02010125
,,,-2.94E-06,0.02024125
,,,-2.93E-06,0.020076875
,,,-2.92E-06,0.02018
,,,-2.91E-06,0.020105625
,,,-2.9E-06,0.020166875
,,,-2.89E-06,0.02010125
,,,-2.88E-06,0.02002875
,,,-2.87E-06,0.020374375
,,,-2.86E-06,0.020155625
,,,-2.85E-06,0.0200675
,,,-2.84E-06,0.020125
,,,-2.83E-06,0.02020375
,,,-2.82E-06,0.02037875
,,,-2.81E-06,0.0201675
,,,-2.8E-06,0.020245625
,,,-2.79E-06,0.020296875
,,,-2.78E-06,0.0199775
,,,-2.77E-06,0.0200525
,,,-2.76E-06,0.020240625
,,,-2.75E-06,0.0202475
,,,-2.74E-06,0.02026
,,,-2.73E-06,0.019918125
,,,-2.72E-06,0.020168125
,,,-2.71E-06,0.02013625
,,,-2.7E-06,0.020249375
,,,-2.69E-06,0.02001
,,,-2.68E-06,0.02019875
,,,-2.67E-06,0.020338125
,,,-2.66E-06,0.0203225
,,,-2.65E-06,0.020225
,,,-2.64E-06,0.020153125
,,,-2.63E-06,0.020383125
,,,-2.62E-06,0.020006875
,,,-2.61E-06,0.020161875
,,,-2.6E-06,0.020070625
,,,-2.59E-06,0.020218125
,,,-2.58E-06,0.020114375
,,,-2.57E-06,0.020160625
,,,-2.56E-06,0.02004625
,,,-2.55E-06,0.0201925
,,,-2.54E-06,0.01974
,,,-2.53E-06,0.02025125
,,,-2.52E-06,0.020198125
,,,-2.51E-06,0.020248125
,,,-2.5E-06,0.020371875
,,,-2.49E-06,0.02016375
,,,-2.48E-06,0.01995625
,,,-2.47E-06,0.020148125
,,,-2.46E-06,0.02015375
,,,-2.45E-06,0.020106875
,,,-2.44E-06,0.019964375
,,,-2.43E-06,0.020365625
,,,-2.42E-06,0.020301875
,,,-2.41E-06,0.020235
,,,-2.4E-06,0.020134375
,,,-2.39E-06,0.020116875
,,,-2.38E-06,0.019979375
,,,-2.37E-06,0.019925
,,,-2.36E-06,0.019909375
,,,-2.35E-06,0.0199975
,,,-2.34E-06,0.02022125
,,,-2.33E-06,0.02026375
,,,-2.32E-06,0.020276875
,,,-2.31E-06,0.02040625
,,,-2.3E-06,0.020115
,,,-2.29E-06,0.02027125
,,,-2.28E-06,0.020133125
,,,-2.27E-06,0.020163125
,,,-2.26E-06,0.020326875
,,,-2.25E-06,0.020279375
,,,-2.24E-06,0.02032125
,,,-2.23E-06,0.020258125
,,,-2.22E-06,0.019999375
,,,-2.21E-06,0.020038125
,,,-2.2E-06,0.020028125
,,,-2.19E-06,0.02020375
,,,-2.18E-06,0.02021
,,,-2.17E-06,0.020079375
,,,-2.16E-06,0.020354375
,,,-2.15E-06,0.020175
,,,-2.14E-06,0.020293125
,,,-2.13E-06,0.020173125
,,,-2.12E-06,0.020153125
,,,-2.11E-06,0.0201425
,,,-2.1E-06,0.020014375
,,,-2.09E-06,0.020308125
,,,-2.08E-06,0.02041
,,,-2.07E-06,0.020118125
,,,-2.06E-06,0.0199375
,,,-2.05E-06,0.020095
,,,-2.04E-06,0.020243125
,,,-2.03E-06,0.0198425
,,,-2.02E-06,0.020580625
,,,-2.01E-06,0.019999375
,,,-2E-06,0.02016875
,,,-1.99E-06,0.020475625
,,,-1.98E-06,0.02002375
,,,-1.97E-06,0.0201075
,,,-1.96E-06,0.020388125
,,,-1.95E-06,0.0201375
,,,-1.94E-06,0.02008375
,,,-1.93E-06,0.020158125
,,,-1.92E-06,0.020156875
,,,-1.91E-06,0.02028625
,,,-1.9E-06,0.02030375
,,,-1.89E-06,0.020133125
,,,-1.88E-06,0.020111875
,,,-1.87E-06,0.020383125
,,,-1.86E-06,0.019950625
,,,-1.85E-06,0.020015
,,,-1.84E-06,0.0201325
,,,-1.83E-06,0.02027875
,,,-1.82E-06,0.02007875
,,,-1.81E-06,0.0199925
,,,-1.8E-06,0.0200875
,,,-1.79E-06,0.02026
,,,-1.78E-06,0.020036875
,,,-1.77E-06,0.02012125
,,,-1.76E-06,0.020026875
,,,-1.75E-06,0.02031875
,,,-1.74E-06,0.0200975
,,,-1.73E-06,0.020108125
,,,-1.72E-06,0.020171875
,,,-1.71E-06,0.020154375
,,,-1.7E-06,0.0203225
,,,-1.69E-06,0.020175
,,,-1.68E-06,0.0201425
,,,-1.67E-06,0.019905
,,,-1.66E-06,0.02008
,,,-1.65E-06,0.02021125
,,,-1.64E-06,0.02011375
,,,-1.63E-06,0.020306875
,,,-1.62E-06,0.02017875
,,,-1.61E-06,0.0202375
,,,-1.6E-06,0.0203275
,,,-1.59E-06,0.020291875
,,,-1.58E-06,0.020276875
,,,-1.57E-06,0.02001
,,,-1.56E-06,0.02000875
,,,-1.55E-06,0.019998125
,,,-1.54E-06,0.020045625
,,,-1.53E-06,0.020258125
,,,-1.52E-06,0.020226875
,,,-1.51E-06,0.0201725
,,,-1.5E-06,0.02007625
,,,-1.49E-06,0.0200975
,,,-1.48E-06,0.019921875
,,,-1.47E-06,0.02022
,,,-1.46E-06,0.01985875
,,,-1.45E-06,0.020221875
,,,-1.44E-06,0.0199225
,,,-1.43E-06,0.0200775
,,,-1.42E-06,0.020323125
,,,-1.41E-06,0.020220625
,,,-1.4E-06,0.020109375
,,,-1.39E-06,0.019934375
,,,-1.38E-06,0.020240625
,,,-1.37E-06,0.020151875
,,,-1.36E-06,0.020344375
,,,-1.35E-06,0.020094375
,,,-1.34E-06,0.02035375
,,,-1.33E-06,0.019941875
,,,-1.32E-06,0.0201525
,,,-1.31E-06,0.0201075
,,,-1.3E-06,0.02035125
,,,-1.29E-06,0.02026625
,,,-1.28E-06,0.020254375
,,,-1.27E-06,0.02017375
,,,-1.26E-06,0.020040625
,,,-1.25E-06,0.02026
,,,-1.24E-06,0.02004375
,,,-1.23E-06,0.020191875
,,,-1.22E-06,0.020224375
,,,-1.21E-06,0.0203775
,,,-1.2E-06,0.02010625
,,,-1.19E-06,0.020124375
,,,-1.18E-06,0.02002125
,,,-1.17E-06,0.020106875
,,,-1.16E-06,0.020056875
,,,-1.15E-06,0.02003375
,,,-1.14E-06,0.02021625
,,,-1.13E-06,0.0201675
,,,-1.12E-06,0.019995625
,,,-1.11E-06,0.02031625
,,,-1.1E-06,0.020323125
,,,-1.09E-06,0.020295
,,,-1.08E-06,0.019966875
,,,-1.07E-06,0.020316875
,,,-1.06E-06,0.0202775
,,,-1.05E-06,0.01990125
,,,-1.04E-06,0.0202275
,,,-1.03E-06,0.020284375
,,,-1.02E-06,0.020436875
,,,-1.01E-06,0.01997375
,,,-1E-06,0.02007375
,,,-9.9E-07,0.019815625
,,,-9.8E-07,0.020190625
,,,-9.7E-07,0.0200875
,,,-9.6E-07,0.02019375
,,,-9.5E-07,0.020173125
,,,-9.4E-07,0.02026625
,,,-9.3E-07,0.020160625
,,,-9.2E-07,0.02024
,,,-9.1E-07,0.02021625
,,,-9E-07,0.020055
,,,-8.9E-07,0.020191875
,,,-8.8E-07,0.020276875
,,,-8.7E-07,0.020246875
,,,-8.6E-07,0.02005
,,,-8.5E-07,0.020084375
,,,-8.4E-07,0.02015375
,,,-8.3E-07,0.02014125
,,,-8.2E-07,0.020214375
,,,-8.1E-07,0.020269375
,,,-8E-07,0.01987
,,,-7.9E-07,0.020046875
,,,-7.8E-07,0.020325
,,,-7.7E-07,0.019939375
,,,-7.6E-07,0.020350625
,,,-7.5E-07,0.020236875
,,,-7.4E-07,0.019973125
,,,-7.3E-07,0.0203125
,,,-7.2E-07,0.020265
,,,-7.1E-07,0.020024375
,,,-7E-07,0.02022375
,,,-6.9E-07,0.02010625
,,,-6.8E-07,0.02025125
,,,-6.7E-07,0.019930625
,,,-6.6E-07,0.020174375
,,,-6.5E-07,0.020066875
,,,-6.4E-07,0.020085
,,,-6.3E-07,0.0201025
,,,-6.2E-07,0.02006375
,,,-6.1E-07,0.020380625
,,,-6E-07,0.020418125
,,,-5.9E-07,0.02016
,,,-5.8E-07,0.0200125
,,,-5.7E-07,0.02018375
,,,-5.6E-07,0.019875625
,,,-5.5E-07,0.01984375
,,,-5.4E-07,0.020101875
,,,-5.3E-07,0.02036625
,,,-5.2E-07,0.020119375
,,,-5.1E-07,0.02006
,,,-5E-07,0.020231875
,,,-4.9E-07,0.0200975
,,,-4.8E-07,0.020168125
,,,-4.7E-07,0.020311875
,,,-4.6E-07,0.020196875
,,,-4.5E-07,0.020314375
,,,-4.4E-07,0.02017375
,,,-4.3E-07,0.020143125
,,,-4.2E-07,0.020391875
,,,-4.1E-07,0.020256875
,,,-4E-07,0.02021
,,,-3.9E-07,0.020304375
,,,-3.8E-07,0.020290625
,,,-3.7E-07,0.020273125
,,,-3.6E-07,0.0200525
,,,-3.5E-07,0.020050625
,,,-3.4E-07,0.020205625
,,,-3.3E-07,0.02008375
,,,-3.2E-07,0.020103125
,,,-3.1E-07,0.020128125
,,,-3E-07,0.020296875
,,,-2.9E-07,0.020196875
,,,-2.8E-07,0.020343125
,,,-2.7E-07,0.020310625
,,,-2.6E-07,0.020406875
,,,-2.5E-07,0.020129375
,,,-2.4E-07,0.01992875
,,,-2.3E-07,0.019873125
,,,-2.2E-07,0.0202375
,,,-2.1E-07,0.02011375
,,,-2E-07,0.02016625
,,,-1.9E-07,0.020101875
,,,-1.8E-07,0.0201675
,,,-1.7E-07,0.02014875
,,,-1.6E-07,0.0200175
,,,-1.5E-07,0.02011375
,,,-1.4E-07,0.020394375
,,,-1.3E-07,0.019956875
,,,-1.2E-07,0.020125625
,,,-1.1E-07,0.02009625
,,,-1E-07,0.02022125
,,,-9E-08,0.019999375
,,,-8E-08,0.020258125
,,,-7E-08,0.020220625
,,,-6E-08,0.02021125
,,,-5E-08,0.020184375
,,,-4E-08,0.02065125
,,,-3E-08,0.021395
,,,-2E-08,0.019546875
,,,-1E-08,0.0172125
,,,0,0.01694625
,,,1E-08,0.02169875
,,,2E-08,0.023555
,,,3E-08,0.023406875
,,,4E-08,0.020018125
,,,5E-08,0.017809375
,,,6E-08,0.017215
,,,7E-08,0.01864625
,,,8E-08,0.020748125
,,,9E-08,0.0217
,,,1E-07,0.021909375
,,,1.1E-07,0.020759375
,,,1.2E-07,0.019691875
,,,1.3E-07,0.0183475
,,,1.4E-07,0.0199075
,,,1.5E-07,0.020398125
,,,1.6E-07,0.020719375
,,,1.7E-07,0.02053
,,,1.8E-07,0.02032125
,,,1.9E-07,0.02036375
,,,2E-07,0.0199075
,,,2.1E-07,0.019798125
,,,2.2E-07,0.019903125
,,,2.3E-07,0.0200825
,,,2.4E-07,0.020356875
,,,2.5E-07,0.02043875
,,,2.6E-07,0.02039625
,,,2.7E-07,0.020273125
,,,2.8E-07,0.020063125
,,,2.9E-07,0.020281875
,,,3E-07,0.019998125
,,,3.1E-07,0.02003625
,,,3.2E-07,0.020191875
,,,3.3E-07,0.020239375
,,,3.4E-07,0.02021875
,,,3.5E-07,0.0200925
,,,3.6E-07,0.020114375
,,,3.7E-07,0.019921875
,,,3.8E-07,0.020199375
,,,3.9E-07,0.020361875
,,,4E-07,0.020345625
,,,4.1E-07,0.02018125
,,,4.2E-07,0.02017625
,,,4.3E-07,0.02002375
,,,4.4E-07,0.020283125
,,,4.5E-07,0.020205625
,,,4.6E-07,0.02029375
,,,4.7E-07,0.019940625
,,,4.8E-07,0.02010375
,,,4.9E-07,0.0201275
,,,5E-07,0.0201025
,,,5.1E-07,0.020049375
,,,5.2E-07,0.02033125
,,,5.3E-07,0.0200475
,,,5.4E-07,0.0200125
,,,5.5E-07,0.020245
,,,5.6E-07,0.020148125
,,,5.7E-07,0.020173125
,,,5.8E-07,0.02024375
,,,5.9E-07,0.020236875
,,,6E-07,0.019993125
,,,6.1E-07,0.020225625
,,,6.2E-07,0.020098125
,,,6.3E-07,0.0201975
,,,6.4E-07,0.020133125
,,,6.5E-07,0.020095625
,,,6.6E-07,0.020206875
,,,6.7E-07,0.020163125
,,,6.8E-07,0.020224375
,,,6.9E-07,0.0200625
,,,7E-07,0.01992
,,,7.1E-07,0.020291875
,,,7.2E-07,0.0202625
,,,7.3E-07,0.020031875
,,,7.4E-07,0.019964375
,,,7.5E-07,0.02009125
,,,7.6E-07,0.020165625
,,,7.7E-07,0.02010625
,,,7.8E-07,0.020356875
,,,7.9E-07,0.020255
,,,8E-07,0.02006375
,,,8.1E-07,0.020100625
,,,8.2E-07,0.019969375
,,,8.3E-07,0.0201125
,,,8.4E-07,0.020141875
,,,8.5E-07,0.019999375
,,,8.6E-07,0.020209375
,,,8.7E-07,0.01997
,,,8.8E-07,0.020158125
,,,8.9E-07,0.020229375
,,,9E-07,0.02002625
,,,9.1E-07,0.02025625
,,,9.2E-07,0.020151875
,,,9.3E-07,0.020064375
,,,9.4E-07,0.020164375
,,,9.5E-07,0.02003375
,,,9.6E-07,0.019865
,,,9.7E-07,0.020128125
,,,9.8E-07,0.02007375
,,,9.9E-07,0.020176875
,,,1E-06,0.020176875
,,,1.01E-06,0.020454375
,,,1.02E-06,0.02025
,,,1.03E-06,0.020245625
,,,1.04E-06,0.020189375
,,,1.05E-06,0.020175625
,,,1.06E-06,0.020238125
,,,1.07E-06,0.0200925
,,,1.08E-06,0.020114375
,,,1.09E-06,0.019994375
,,,1.1E-06,0.020040625
,,,1.11E-06,0.01987875
,,,1.12E-06,0.02027375
,,,1.13E-06,0.020310625
,,,1.14E-06,0.01997875
,,,1.15E-06,0.020208125
,,,1.16E-06,0.02001625
,,,1.17E-06,0.02008625
,,,1.18E-06,0.020149375
,,,1.19E-06,0.020043125
,,,1.2E-06,0.020119375
,,,1.21E-06,0.0200325
,,,1.22E-06,0.02019
,,,1.23E-06,0.0199925
,,,1.24E-06,0.020579375
,,,1.25E-06,0.01997875
,,,1.26E-06,0.02012875
,,,1.27E-06,0.02019875
,,,1.28E-06,0.020123125
,,,1.29E-06,0.02014
,,,1.3E-06,0.02026
,,,1.31E-06,0.020070625
,,,1.32E-06,0.020035625
,,,1.33E-06,0.02025375
,,,1.34E-06,0.020243125
,,,1.35E-06,0.020004375
,,,1.36E-06,0.02017875
,,,1.37E-06,0.02007875
,,,1.38E-06,0.020056875
,,,1.39E-06,0.020226875
,,,1.4E-06,0.020305
,,,1.41E-06,0.02027
,,,1.42E-06,0.02014875
,,,1.43E-06,0.02044625
,,,1.44E-06,0.020065
,,,1.45E-06,0.020225
,,,1.46E-06,0.020060625
,,,1.47E-06,0.02018375
,,,1.48E-06,0.020124375
,,,1.49E-06,0.02031375
,,,1.5E-06,0.020228125
,,,1.51E-06,0.02050875
,,,1.52E-06,0.020035625
,,,1.53E-06,0.020158125
,,,1.54E-06,0.02003
,,,1.55E-06,0.020080625
,,,1.56E-06,0.02004375
,,,1.57E-06,0.02027
,,,1.58E-06,0.020178125
,,,1.59E-06,0.020236875
,,,1.6E-06,0.020165
,,,1.61E-06,0.020140625
,,,1.62E-06,0.019996875
,,,1.63E-06,0.020105625
,,,1.64E-06,0.020175
,,,1.65E-06,0.020036875
,,,1.66E-06,0.020189375
,,,1.67E-06,0.02041125
,,,1.68E-06,0.020168125
,,,1.69E-06,0.019955625
,,,1.7E-06,0.02022125
,,,1.71E-06,0.0201825
,,,1.72E-06,0.0204075
,,,1.73E-06,0.020330625
,,,1.74E-06,0.020175
,,,1.75E-06,0.020415625
,,,1.76E-06,0.02000875
,,,1.77E-06,0.020249375
,,,1.78E-06,0.020170625
,,,1.79E-06,0.020035625
,,,1.8E-06,0.020188125
,,,1.81E-06,0.020033125
,,,1.82E-06,0.0202975
,,,1.83E-06,0.02029875
,,,1.84E-06,0.0201625
,,,1.85E-06,0.0200525
,,,1.86E-06,0.02013125
,,,1.87E-06,0.0200375
,,,1.88E-06,0.020053125
,,,1.89E-06,0.020045625
,,,1.9E-06,0.020256875
,,,1.91E-06,0.02036
,,,1.92E-06,0.02009125
,,,1.93E-06,0.01990625
,,,1.94E-06,0.02007875
,,,1.95E-06,0.02012
,,,1.96E-06,0.020266875
,,,1.97E-06,0.0200325
,,,1.98E-06,0.0202025
,,,1.99E-06,0.02025
,,,2E-06,0.020275625
,,,2.01E-06,0.02013625
,,,2.02E-06,0.02002625
,,,2.03E-06,0.020148125
,,,2.04E-06,0.02019
,,,2.05E-06,0.0202925
,,,2.06E-06,0.020180625
,,,2.07E-06,0.020381875
,,,2.08E-06,0.02014
,,,2.09E-06,0.01976375
,,,2.1E-06,0.020251875
,,,2.11E-06,0.02013125
,,,2.12E-06,0.019916875
,,,2.13E-06,0.020010625
,,,2.14E-06,0.020165
,,,2.15E-06,0.020376875
,,,2.16E-06,0.0199875
,,,2.17E-06,0.020198125
,,,2.18E-06,0.020109375
,,,2.19E-06,0.020128125
,,,2.2E-06,0.02027
,,,2.21E-06,0.02018
,,,2.22E-06,0.020004375
,,,2.23E-06,0.020036875
,,,2.24E-06,0.020116875
,,,2.25E-06,0.02022125
,,,2.26E-06,0.020111875
,,,2.27E-06,0.020166875
,,,2.28E-06,0.02024
,,,2.29E-06,0.02030875
,,,2.3E-06,0.020285625
,,,2.31E-06,0.02017625
,,,2.32E-06,0.02037
,,,2.33E-06,0.0200775
,,,2.34E-06,0.0203425
,,,2.35E-06,0.020280625
,,,2.36E-06,0.020178125
,,,2.37E-06,0.02015875
,,,2.38E-06,0.02024125
,,,2.39E-06,0.020225625
,,,2.4E-06,0.020025
,,,2.41E-06,0.020094375
,,,2.42E-06,0.0202025
,,,2.43E-06,0.02003625
,,,2.44E-06,0.0200925
,,,2.45E-06,0.020080625
,,,2.46E-06,0.019943125
,,,2.47E-06,0.020063125
,,,2.48E-06,0.02006125
,,,2.49E-06,0.02030875
,,,2.5E-06,0.020290625
,,,2.51E-06,0.02013875
,,,2.52E-06,0.0200925
,,,2.53E-06,0.02004875
,,,2.54E-06,0.0202025
,,,2.55E-06,0.02023875
,,,2.56E-06,0.020194375
,,,2.57E-06,0.02022875
,,,2.58E-06,0.02013125
,,,2.59E-06,0.019921875
,,,2.6E-06,0.020028125
,,,2.61E-06,0.02025375
,,,2.62E-06,0.020363125
,,,2.63E-06,0.02023
,,,2.64E-06,0.020193125
,,,2.65E-06,0.020115
,,,2.66E-06,0.020081875
,,,2.67E-06,0.0202225
,,,2.68E-06,0.019949375
,,,2.69E-06,0.02007875
,,,2.7E-06,0.0203375
,,,2.71E-06,0.019970625
,,,2.72E-06,0.020376875
,,,2.73E-06,0.0200575
,,,2.74E-06,0.020315
,,,2.75E-06,0.020233125
,,,2.76E-06,0.020156875
,,,2.77E-06,0.020140625
,,,2.78E-06,0.02001875
,,,2.79E-06,0.019966875
,,,2.8E-06,0.02011625
,,,2.81E-06,0.020515625
,,,2.82E-06,0.020248125
,,,2.83E-06,0.020103125
,,,2.84E-06,0.020096875
,,,2.85E-06,0.020244375
,,,2.86E-06,0.020166875
,,,2.87E-06,0.02030375
,,,2.88E-06,0.020074375
,,,2.89E-06,0.020311875
,,,2.9E-06,0.02029375
,,,2.91E-06,0.020090625
,,,2.92E-06,0.02044625
,,,2.93E-06,0.020408125
,,,2.94E-06,0.020333125
,,,2.95E-06,0.020213125
,,,2.96E-06,0.0199775
,,,2.97E-06,0.02008
,,,2.98E-06,0.020205625
,,,2.99E-06,0.02007375
,,,3E-06,0.020191875
,,,3.01E-06,0.020091875
,,,3.02E-06,0.020105
,,,3.03E-06,0.0201525
,,,3.04E-06,0.0202475
,,,3.05E-06,0.02044625
,,,3.06E-06,0.02028625
,,,3.07E-06,0.02025625
,,,3.08E-06,0.0202425
,,,3.09E-06,0.02016125
,,,3.1E-06,0.020298125
,,,3.11E-06,0.0203725
,,,3.12E-06,0.02033
,,,3.13E-06,0.020421875
,,,3.14E-06,0.020181875
,,,3.15E-06,0.020194375
,,,3.16E-06,0.02017
,,,3.17E-06,0.02004125
,,,3.18E-06,0.0203125
,,,3.19E-06,0.02
,,,3.2E-06,0.020225625
,,,3.21E-06,0.02016375
,,,3.22E-06,0.020258125
,,,3.23E-06,0.02016375
,,,3.24E-06,0.020049375
,,,3.25E-06,0.020154375
,,,3.26E-06,0.020060625
,,,3.27E-06,0.020135
,,,3.28E-06,0.0202025
,,,3.29E-06,0.020143125
,,,3.3E-06,0.020360625
,,,3.31E-06,0.020270625
,,,3.32E-06,0.020255
,,,3.33E-06,0.020334375
,,,3.34E-06,0.020296875
,,,3.35E-06,0.020175
,,,3.36E-06,0.0202825
,,,3.37E-06,0.020300625
,,,3.38E-06,0.0201625
,,,3.39E-06,0.020169375
,,,3.4E-06,0.020090625
,,,3.41E-06,0.020149375
,,,3.42E-06,0.01983625
,,,3.43E-06,0.019974375
,,,3.44E-06,0.020359375
,,,3.45E-06,0.020090625
,,,3.46E-06,0.020308125
,,,3.47E-06,0.02019
,,,3.48E-06,0.020063125
,,,3.49E-06,0.020078125
,,,3.5E-06,0.02040375
,,,3.51E-06,0.02018375
,,,3.52E-06,0.020101875
,,,3.53E-06,0.02009875
,,,3.54E-06,0.020194375
,,,3.55E-06,0.020456875
