data/raw/Final_POL_Test_1/SOP020_Ch4.csv

"Record Length",1000,"Points",-5E-06,0.016566875
"Sample Interval",1E-08,s,-4.99E-06,0.01684625
"Trigger Point",500,"Samples",-4.98E-06,0.016771875
"Trigger Time",0,s,-4.97E-06,0.016765625
"",,,-4.96E-06,0.017035
"Horizontal Offset",-5E-06,s,-4.95E-06,0.016858125
,,,-4.94E-06,0.016783125
,,,-4.93E-06,0.0166275
,,,-4.92E-06,0.01703375
,,,-4.91E-06,0.016570625
,,,-4.9E-06,0.016805
,,,-4.89E-06,0.016875625
,,,-4.88E-06,0.016939375
,,,-4.87E-06,0.017269375
,,,-4.86E-06,0.016465
,,,-4.85E-06,0.016943125
,,,-4.84E-06,0.0167025
,,,-4.83E-06,0.016811875
,,,-4.82E-06,0.016806875
,,,-4.81E-06,0.016921875
,,,-4.8E-06,0.016743125
,,,-4.79E-06,0.017038125
,,,-4.78E-06,0.016976875
,,,-4.77E-06,0.01675125
,,,-4.76E-06,0.017128125
,,,-4.75E-06,0.017013125
,,,-4.74E-06,0.016651875
,,,-4.73E-06,0.01668
,,,-4.72E-06,0.01707
,,,-4.71E-06,0.016838125
,,,-4.7E-06,0.017026875
,,,-4.69E-06,0.017020625
,,,-4.68E-06,0.01684
,,,-4.67E-06,0.016920625
,,,-4.66E-06,0.017060625
,,,-4.65E-06,0.01709875
,,,-4.64E-06,0.016963125
,,,-4.63E-06,0.01694375
,,,-4.62E-06,0.01704
,,,-4.61E-06,0.0169025
,,,-4.6E-06,0.016898125
,,,-4.59E-06,0.01682
,,,-4.58E-06,0.016799375
,,,-4.57E-06,0.016830625
,,,-4.56E-06,0.016943125
,,,-4.55E-06,0.016748125
,,,-4.54E-06,0.01688125
,,,-4.53E-06,0.016836875
,,,-4.52E-06,0.0168375
,,,-4.51E-06,0.01686375
,,,-4.5E-06,0.017074375
,,,-4.49E-06,0.016815625
,,,-4.48E-06,0.016845625
,,,-4.47E-06,0.01700375
,,,-4.46E-06,0.0169525
,,,-4.45E-06,0.01693875
,,,-4.44E-06,0.017028125
,,,-4.43E-06,0.01678375
,,,-4.42E-06,0.01676625
,,,-4.41E-06,0.016870625
,,,-4.4E-06,0.017093125
,,,-4.39E-06,0.0168675
,,,-4.38E-06,0.016800625
,,,-4.37E-06,0.017124375
,,,-4.36E-06,0.0168625
,,,-4.35E-06,0.016861875
,,,-4.34E-06,0.0169575
,,,-4.33E-06,0.017034375
,,,-4.32E-06,0.016825
,,,-4.31E-06,0.016865625
,,,-4.3E-06,0.017004375
,,,-4.29E-06,0.016905625
,,,-4.28E-06,0.016934375
,,,-4.27E-06,0.016691875
,,,-4.26E-06,0.01673875
,,,-4.25E-06,0.01684875
,,,-4.24E-06,0.01674625
,,,-4.23E-06,0.016944375
,,,-4.22E-06,0.016953125
,,,-4.21E-06,0.016981875
,,,-4.2E-06,0.016704375
,,,-4.19E-06,0.016848125
,,,-4.18E-06,0.016781875
,,,-4.17E-06,0.016995
,,,-4.16E-06,0.0169925
,,,-4.15E-06,0.016948125
,,,-4.14E-06,0.01707625
,,,-4.13E-06,0.01693875
,,,-4.12E-06,0.01682125
,,,-4.11E-06,0.016765
,,,-4.1E-06,0.016838125
,,,-4.09E-06,0.016805
,,,-4.08E-06,0.01689625
,,,-4.07E-06,0.01682625
,,,-4.06E-06,0.01691375
,,,-4.05E-06,0.016774375
,,,-4.04E-06,0.01670625
,,,-4.03E-06,0.0170075
,,,-4.02E-06,0.016623125
,,,-4.01E-06,0.017035625
,,,-4E-06,0.016974375
,,,-3.99E-06,0.017050625
,,,-3.98E-06,0.016809375
,,,-3.97E-06,0.016733125
,,,-3.96E-06,0.016853125
,,,-3.95E-06,0.017033125
,,,-3.94E-06,0.016911875
,,,-3.93E-06,0.0170575
,,,-3.92E-06,0.01697875
,,,-3.91E-06,0.016715625
,,,-3.9E-06,0.017111875
,,,-3.89E-06,0.017044375
,,,-3.88E-06,0.016835
,,,-3.87E-06,0.0168525
,,,-3.86E-06,0.016995625
,,,-3.85E-06,0.016771875
,,,-3.84E-06,0.01692
,,,-3.83E-06,0.016873125
,,,-3.82E-06,0.0168375
,,,-3.81E-06,0.017049375
,,,-3.8E-06,0.01688
,,,-3.79E-06,0.01701125
,,,-3.78E-06,0.016791875
,,,-3.77E-06,0.01689625
,,,-3.76E-06,0.0169275
,,,-3.75E-06,0.017048125
,,,-3.74E-06,0.01707125
,,,-3.73E-06,0.016925625
,,,-3.72E-06,0.01695375
,,,-3.71E-06,0.016850625
,,,-3.7E-06,0.016744375
,,,-3.69E-06,0.016863125
,,,-3.68E-06,0.01682
,,,-3.67E-06,0.016971875
,,,-3.66E-06,0.016795
,,,-3.65E-06,0.016820625
,,,-3.64E-06,0.01685875
,,,-3.63E-06,0.01687
,,,-3.62E-06,0.016955625
,,,-3.61E-06,0.016665
,,,-3.6E-06,0.01687625
,,,-3.59E-06,0.016780625
,,,-3.58E-06,0.0169
,,,-3.57E-06,0.016863125
,,,-3.56E-06,0.016735625
,,,-3.55E-06,0.01655875
,,,-3.54E-06,0.0168675
,,,-3.53E-06,0.01702375
,,,-3.52E-06,0.016858125
,,,-3.51E-06,0.016908125
,,,-3.5E-06,0.01678125
,,,-3.49E-06,0.01661
,,,-3.48E-06,0.0169225
,,,-3.47E-06,0.0167325
,,,-3.46E-06,0.0167225
,,,-3.45E-06,0.016865
,,,-3.44E-06,0.016666875
,,,-3.43E-06,0.0167225
,,,-3.42E-06,0.01682625
,,,-3.41E-06,0.0169025
,,,-3.4E-06,0.01715875
,,,-3.39E-06,0.016905625
,,,-3.38E-06,0.01688
,,,-3.37E-06,0.016939375
,,,-3.36E-06,0.017060625
,,,-3.35E-06,0.016876875
,,,-3.34E-06,0.01692625
,,,-3.33E-06,0.016928125
,,,-3.32E-06,0.016753125
,,,-3.31E-06,0.0169625
,,,-3.3E-06,0.0167725
,,,-3.29E-06,0.017009375
,,,-3.28E-06,0.016989375
,,,-3.27E-06,0.016915625
,,,-3.26E-06,0.01679625
,,,-3.25E-06,0.016835
,,,-3.24E-06,0.016796875
,,,-3.23E-06,0.016973125
,,,-3.22E-06,0.0168175
,,,-3.21E-06,0.016741875
,,,-3.2E-06,0.016865625
,,,-3.19E-06,0.01680625
,,,-3.18E-06,0.01680625
,,,-3.17E-06,0.0168775
,,,-3.16E-06,0.01691
,,,-3.15E-06,0.01699125
,,,-3.14E-06,0.016825625
,,,-3.13E-06,0.0170525
,,,-3.12E-06,0.01695875
,,,-3.11E-06,0.016920625
,,,-3.1E-06,0.01699875
,,,-3.09E-06,0.016689375
,,,-3.08E-06,0.016826875
,,,-3.07E-06,0.01710125
,,,-3.06E-06,0.01698
,,,-3.05E-06,0.0168775
,,,-3.04E-06,0.01669875
,,,-3.03E-06,0.016721875
,,,-3.02E-06,0.016785625
,,,-3.01E-06,0.017164375
,,,-3E-06,0.01693875
,,,-2.99E-06,0.016795625
,,,-2.98E-06,0.016800625
,,,-2.97E-06,0.016984375
,,,-2.96E-06,0.016805
,,,-2.95E-06,0.016950625
,,,-2.94E-06,0.0168425
,,,-2.93E-06,0.016926875
,,,-2.92E-06,0.016811875
,,,-2.91E-06,0.016938125
,,,-2.9E-06,0.017030625
,,,-2.89E-06,0.017023125
,,,-2.88E-06,0.016820625
,,,-2.87E-06,0.016823125
,,,-2.86E-06,0.01674
,,,-2.85E-06,0.0168725
,,,-2.84E-06,0.016930625
,,,-2.83E-06,0.01671625
,,,-2.82E-06,0.017075
,,,-2.81E-06,0.01666375
,,,-2.8E-06,0.016749375
,,,-2.79E-06,0.016701875
,,,-2.78E-06,0.017011875
,,,-2.77E-06,0.0168925
,,,-2.76E-06,0.016644375
,,,-2.75E-06,0.0169025
,,,-2.74E-06,0.017025625
,,,-2.73E-06,0.017120625
,,,-2.72E-06,0.01650125
,,,-2.71E-06,0.01701875
,,,-2.7E-06,0.01690875
,,,-2.69E-06,0.016884375
,,,-2.68E-06,0.01701
,,,-2.67E-06,0.0171075
,,,-2.66E-06,0.01666625
,,,-2.65E-06,0.01709
,,,-2.64E-06,0.017104375
,,,-2.63E-06,0.016811875
,,,-2.62E-06,0.016994375
,,,-2.61E-06,0.016985625
,,,-2.6E-06,0.016843125
,,,-2.59E-06,0.016664375
,,,-2.58E-06,0.016871875
,,,-2.57E-06,0.016875
,,,-2.56E-06,0.016955625
,,,-2.55E-06,0.016776875
,,,-2.54E-06,0.016753125
,,,-2.53E-06,0.016950625
,,,-2.52E-06,0.016925625
,,,-2.51E-06,0.017056875
,,,-2.5E-06,0.016855625
,,,-2.49E-06,0.016706875
,,,-2.48E-06,0.016815
,,,-2.47E-06,0.017
,,,-2.46E-06,0.017005
,,,-2.45E-06,0.016955625
,,,-2.44E-06,0.016739375
,,,-2.43E-06,0.017
,,,-2.42E-06,0.016905625
,,,-2.41E-06,0.01719375
,,,-2.4E-06,0.01681
,,,-2.39E-06,0.01695
,,,-2.38E-06,0.016843125
,,,-2.37E-06,0.016851875
,,,-2.36E-06,0.0165825
,,,-2.35E-06,0.016674375
,,,-2.34E-06,0.0169675
,,,-2.33E-06,0.01706375
,,,-2.32E-06,0.016958125
,,,-2.31E-06,0.016968125
,,,-2.3E-06,0.017128125
,,,-2.29E-06,0.017006875
,,,-2.28E-06,0.0166425
,,,-2.27E-06,0.016981875
,,,-2.26E-06,0.01714375
,,,-2.25E-06,0.0167925
,,,-2.24E-06,0.01674
,,,-2.23E-06,0.01701625
,,,-2.22E-06,0.017045
,,,-2.21E-06,0.016735625
,,,-2.2E-06,0.016576875
,,,-2.19E-06,0.016905
,,,-2.18E-06,0.01695375
,,,-2.17E-06,0.0167925
,,,-2.16E-06,0.016885
,,,-2.15E-06,0.016814375
,,,-2.14E-06,0.016874375
,,,-2.13E-06,0.0170075
,,,-2.12E-06,0.0169275
,,,-2.11E-06,0.01676125
,,,-2.1E-06,0.016786875
,,,-2.09E-06,0.01714625
,,,-2.08E-06,0.01710375
,,,-2.07E-06,0.016728125
,,,-2.06E-06,0.016880625
,,,-2.05E-06,0.016515625
,,,-2.04E-06,0.016770625
,,,-2.03E-06,0.01681
,,,-2.02E-06,0.016881875
,,,-2.01E-06,0.016953125
,,,-2E-06,0.0173425
,,,-1.99E-06,0.01695
,,,-1.98E-06,0.01692875
,,,-1.97E-06,0.016745
,,,-1.96E-06,0.016886875
,,,-1.95E-06,0.01670125
,,,-1.94E-06,0.016725
,,,-1.93E-06,0.0167525
,,,-1.92E-06,0.016940625
,,,-1.91E-06,0.016915
,,,-1.9E-06,0.0168225
,,,-1.89E-06,0.01694875
,,,-1.88E-06,0.016715
,,,-1.87E-06,0.0167825
,,,-1.86E-06,0.016693125
,,,-1.85E-06,0.016815625
,,,-1.84E-06,0.016775
,,,-1.83E-06,0.01693875
,,,-1.82E-06,0.0168775
,,,-1.81E-06,0.016820625
,,,-1.8E-06,0.0168025
,,,-1.79E-06,0.01704125
,,,-1.78E-06,0.016994375
,,,-1.77E-06,0.0168375
,,,-1.76E-06,0.01683875
,,,-1.75E-06,0.016955
,,,-1.74E-06,0.01671875
,,,-1.73E-06,0.017035
,,,-1.72E-06,0.01672
,,,-1.71E-06,0.016808125
,,,-1.7E-06,0.0169075
,,,-1.69E-06,0.017175
,,,-1.68E-06,0.01678125
,,,-1.67E-06,0.01708
,,,-1.66E-06,0.0167525
,,,-1.65E-06,0.01696375
,,,-1.64E-06,0.01687875
,,,-1.63E-06,0.01682
,,,-1.62E-06,0.016711875
,,,-1.61E-06,0.01699
,,,-1.6E-06,0.01706
,,,-1.59E-06,0.01673375
,,,-1.58E-06,0.01702875
,,,-1.57E-06,0.016731875
,,,-1.56E-06,0.016729375
,,,-1.55E-06,0.01685875
,,,-1.54E-06,0.01687875
,,,-1.53E-06,0.016975625
,,,-1.52E-06,0.01697875
,,,-1.51E-06,0.01676125
,,,-1.5E-06,0.0168
,,,-1.49E-06,0.017000625
,,,-1.48E-06,0.01711125
,,,-1.47E-06,0.016803125
,,,-1.46E-06,0.01685
,,,-1.45E-06,0.01690875
,,,-1.44E-06,0.01669875
,,,-1.43E-06,0.016851875
,,,-1.42E-06,0.016966875
,,,-1.41E-06,0.0169
,,,-1.4E-06,0.017120625
,,,-1.39E-06,0.016984375
,,,-1.38E-06,0.0169325
,,,-1.37E-06,0.016840625
,,,-1.36E-06,0.017011875
,,,-1.35E-06,0.01686
,,,-1.34E-06,0.016769375
,,,-1.33E-06,0.0168875
,,,-1.32E-06,0.016885625
,,,-1.31E-06,0.017024375
,,,-1.3E-06,0.016841875
,,,-1.29E-06,0.016730625
,,,-1.28E-06,0.01710375
,,,-1.27E-06,0.016839375
,,,-1.26E-06,0.01692375
,,,-1.25E-06,0.016984375
,,,-1.24E-06,0.017015625
,,,-1.23E-06,0.016603125
,,,-1.22E-06,0.016665
,,,-1.21E-06,0.01668125
,,,-1.2E-06,0.017005
,,,-1.19E-06,0.01692
,,,-1.18E-06,0.01699625
,,,-1.17E-06,0.0168225
,,,-1.16E-06,0.016671875
,,,-1.15E-06,0.016900625
,,,-1.14E-06,0.01686375
,,,-1.13E-06,0.01688375
,,,-1.12E-06,0.016873125
,,,-1.11E-06,0.01701625
,,,-1.1E-06,0.016580625
,,,-1.09E-06,0.0169525
,,,-1.08E-06,0.01671625
,,,-1.07E-06,0.01712625
,,,-1.06E-06,0.01695625
,,,-1.05E-06,0.016899375
,,,-1.04E-06,0.0168675
,,,-1.03E-06,0.017011875
,,,-1.02E-06,0.017020625
,,,-1.01E-06,0.016939375
,,,-1E-06,0.01662375
,,,-9.9E-07,0.017043125
,,,-9.8E-07,0.0168675
,,,-9.7E-07,0.0170275
,,,-9.6E-07,0.016696875
,,,-9.5E-07,0.016921875
,,,-9.4E-07,0.016920625
,,,-9.3E-07,0.016925
,,,-9.2E-07,0.01681
,,,-9.1E-07,0.016851875
,,,-9E-07,0.01677375
,,,-8.9E-07,0.01693
,,,-8.8E-07,0.016798125
,,,-8.7E-07,0.01693
,,,-8.6E-07,0.016935625
,,,-8.5E-07,0.01698625
,,,-8.4E-07,0.017124375
,,,-8.3E-07,0.016464375
,,,-8.2E-07,0.016740625
,,,-8.1E-07,0.01711875
,,,-8E-07,0.0166725
,,,-7.9E-07,0.01689125
,,,-7.8E-07,0.016993125
,,,-7.7E-07,0.016866875
,,,-7.6E-07,0.016975
,,,-7.5E-07,0.016798125
,,,-7.4E-07,0.016905
,,,-7.3E-07,0.0165425
,,,-7.2E-07,0.01666125
,,,-7.1E-07,0.01686625
,,,-7E-07,0.0171325
,,,-6.9E-07,0.01690375
,,,-6.8E-07,0.017115
,,,-6.7E-07,0.0167925
,,,-6.6E-07,0.01685125
,,,-6.5E-07,0.016899375
,,,-6.4E-07,0.017028125
,,,-6.3E-07,0.016805
,,,-6.2E-07,0.01664125
,,,-6.1E-07,0.016848125
,,,-6E-07,0.0167825
,,,-5.9E-07,0.01689875
,,,-5.8E-07,0.016796875
,,,-5.7E-07,0.01691625
,,,-5.6E-07,0.016830625
,,,-5.5E-07,0.016925
,,,-5.4E-07,0.016946875
,,,-5.3E-07,0.017128125
,,,-5.2E-07,0.016813125
,,,-5.1E-07,0.017103125
,,,-5E-07,0.017014375
,,,-4.9E-07,0.016970625
,,,-4.8E-07,0.016849375
,,,-4.7E-07,0.01691
,,,-4.6E-07,0.016609375
,,,-4.5E-07,0.016830625
,,,-4.4E-07,0.016759375
,,,-4.3E-07,0.016701875
,,,-4.2E-07,0.01711625
,,,-4.1E-07,0.016915625
,,,-4E-07,0.01702125
,,,-3.9E-07,0.017069375
,,,-3.8E-07,0.016850625
,,,-3.7E-07,0.016894375
,,,-3.6E-07,0.01675
,,,-3.5E-07,0.016554375
,,,-3.4E-07,0.01680875
,,,-3.3E-07,0.01690625
,,,-3.2E-07,0.0167275
,,,-3.1E-07,0.01697625
,,,-3E-07,0.01692375
,,,-2.9E-07,0.016899375
,,,-2.8E-07,0.016654375
,,,-2.7E-07,0.0171125
,,,-2.6E-07,0.016940625
,,,-2.5E-07,0.01692125
,,,-2.4E-07,0.016845
,,,-2.3E-07,0.01673125
,,,-2.2E-07,0.016805
,,,-2.1E-07,0.01686375
,,,-2E-07,0.01687375
,,,-1.9E-07,0.01681
,,,-1.8E-07,0.016809375
,,,-1.7E-07,0.01658
,,,-1.6E-07,0.016955
,,,-1.5E-07,0.016744375
,,,-1.4E-07,0.017079375
,,,-1.3E-07,0.016884375
,,,-1.2E-07,0.016915
,,,-1.1E-07,0.016790625
,,,-1E-07,0.01692
,,,-9E-08,0.016946875
,,,-8E-08,0.016740625
,,,-7E-08,0.016756875
,,,-6E-08,0.016825625
,,,-5E-08,0.01693875
,,,-4E-08,0.01706125
,,,-3E-08,0.018379375
,,,-2E-08,0.0164675
,,,-1E-08,0.0141125
,,,0,0.012453125
,,,1E-08,0.0183675
,,,2E-08,0.020651875
,,,3E-08,0.02102875
,,,4E-08,0.016854375
,,,5E-08,0.014440625
,,,6E-08,0.013341875
,,,7E-08,0.015116875
,,,8E-08,0.01720625
,,,9E-08,0.018950625
,,,1E-07,0.019253125
,,,1.1E-07,0.017845625
,,,1.2E-07,0.016218125
,,,1.3E-07,0.01502
,,,1.4E-07,0.01601625
,,,1.5E-07,0.0168025
,,,1.6E-07,0.017504375
,,,1.7E-07,0.017544375
,,,1.8E-07,0.01727875
,,,1.9E-07,0.016916875
,,,2E-07,0.01690375
,,,2.1E-07,0.0165075
,,,2.2E-07,0.0166375
,,,2.3E-07,0.016420625
,,,2.4E-07,0.016838125
,,,2.5E-07,0.0171975
,,,2.6E-07,0.017155625
,,,2.7E-07,0.016945
,,,2.8E-07,0.017010625
,,,2.9E-07,0.01683
,,,3E-07,0.0168425
,,,3.1E-07,0.01700375
,,,3.2E-07,0.016838125
,,,3.3E-07,0.016909375
,,,3.4E-07,0.017061875
,,,3.5E-07,0.016895625
,,,3.6E-07,0.01679625
,,,3.7E-07,0.0167525
,,,3.8E-07,0.01708375
,,,3.9E-07,0.016818125
,,,4E-07,0.016958125
,,,4.1E-07,0.016819375
,,,4.2E-07,0.016820625
,,,4.3E-07,0.016548125
,,,4.4E-07,0.01678125
,,,4.5E-07,0.01689125
,,,4.6E-07,0.01694
,,,4.7E-07,0.017088125
,,,4.8E-07,0.016535625
,,,4.9E-07,0.017048125
,,,5E-07,0.016748125
,,,5.1E-07,0.0171725
,,,5.2E-07,0.017031875
,,,5.3E-07,0.0169075
,,,5.4E-07,0.01672375
,,,5.5E-07,0.016598125
,,,5.6E-07,0.0168925
,,,5.7E-07,0.01701875
,,,5.8E-07,0.01692875
,,,5.9E-07,0.01676875
,,,6E-07,0.016774375
,,,6.1E-07,0.016905625
,,,6.2E-07,0.016779375
,,,6.3E-07,0.01682
,,,6.4E-07,0.01681375
,,,6.5E-07,0.016905
,,,6.6E-07,0.01698875
,,,6.7E-07,0.017001875
,,,6.8E-07,0.01705625
,,,6.9E-07,0.016685625
,,,7E-07,0.0167
,,,7.1E-07,0.016869375
,,,7.2E-07,0.016685
,,,7.3E-07,0.01682
,,,7.4E-07,0.0171275
,,,7.5E-07,0.016665
,,,7.6E-07,0.016778125
,,,7.7E-07,0.016709375
,,,7.8E-07,0.016778125
,,,7.9E-07,0.016725
,,,8E-07,0.016890625
,,,8.1E-07,0.016800625
,,,8.2E-07,0.0166425
,,,8.3E-07,0.01688
,,,8.4E-07,0.01685375
,,,8.5E-07,0.01704375
,,,8.6E-07,0.01679
,,,8.7E-07,0.016716875
,,,8.8E-07,0.016746875
,,,8.9E-07,0.016913125
,,,9E-07,0.0169325
,,,9.1E-07,0.016943125
,,,9.2E-07,0.017143125
,,,9.3E-07,0.016996875
,,,9.4E-07,0.016865
,,,9.5E-07,0.01681875
,,,9.6E-07,0.016799375
,,,9.7E-07,0.016745625
,,,9.8E-07,0.01706375
,,,9.9E-07,0.01674125
,,,1E-06,0.01687625
,,,1.01E-06,0.016978125
,,,1.02E-06,0.016661875
,,,1.03E-06,0.016698125
,,,1.04E-06,0.01692875
,,,1.05E-06,0.01670875
,,,1.06E-06,0.016895625
,,,1.07E-06,0.01693625
,,,1.08E-06,0.016911875
,,,1.09E-06,0.017005625
,,,1.1E-06,0.016950625
,,,1.11E-06,0.016990625
,,,1.12E-06,0.016674375
,,,1.13E-06,0.017064375
,,,1.14E-06,0.01662875
,,,1.15E-06,0.01694875
,,,1.16E-06,0.016971875
,,,1.17E-06,0.0168125
,,,1.18E-06,0.016975
,,,1.19E-06,0.01684
,,,1.2E-06,0.0168
,,,1.21E-06,0.016996875
,,,1.22E-06,0.016965
,,,1.23E-06,0.016790625
,,,1.24E-06,0.01685375
,,,1.25E-06,0.016825625
,,,1.26E-06,0.01680625
,,,1.27E-06,0.016839375
,,,1.28E-06,0.01664
,,,1.29E-06,0.01703
,,,1.3E-06,0.01699
,,,1.31E-06,0.0170125
,,,1.32E-06,0.01687875
,,,1.33E-06,0.0171075
,,,1.34E-06,0.01690125
,,,1.35E-06,0.01676375
,,,1.36E-06,0.016958125
,,,1.37E-06,0.0166275
,,,1.38E-06,0.016879375
,,,1.39E-06,0.017384375
,,,1.4E-06,0.01693375
,,,1.41E-06,0.01696125
,,,1.42E-06,0.0168025
,,,1.43E-06,0.01675375
,,,1.44E-06,0.01690875
,,,1.45E-06,0.016881875
,,,1.46E-06,0.017079375
,,,1.47E-06,0.016896875
,,,1.48E-06,0.016998125
,,,1.49E-06,0.0170675
,,,1.5E-06,0.0170375
,,,1.51E-06,0.016981875
,,,1.52E-06,0.016895
,,,1.53E-06,0.0168225
,,,1.54E-06,0.016885625
,,,1.55E-06,0.01682625
,,,1.56E-06,0.016813125
,,,1.57E-06,0.01715
,,,1.58E-06,0.017023125
,,,1.59E-06,0.0168025
,,,1.6E-06,0.01668125
,,,1.61E-06,0.016809375
,,,1.62E-06,0.01687
,,,1.63E-06,0.016963125
,,,1.64E-06,0.0169
,,,1.65E-06,0.0167925
,,,1.66E-06,0.016903125
,,,1.67E-06,0.016984375
,,,1.68E-06,0.01680625
,,,1.69E-06,0.01671375
,,,1.7E-06,0.016861875
,,,1.71E-06,0.01692
,,,1.72E-06,0.01704625
,,,1.73E-06,0.017139375
,,,1.74E-06,0.016774375
,,,1.75E-06,0.016789375
,,,1.76E-06,0.01715875
,,,1.77E-06,0.01692125
,,,1.78E-06,0.0171325
,,,1.79E-06,0.0166125
,,,1.8E-06,0.016866875
,,,1.81E-06,0.01685
,,,1.82E-06,0.016965625
,,,1.83E-06,0.016808125
,,,1.84E-06,0.016733125
,,,1.85E-06,0.0166625
,,,1.86E-06,0.016825
,,,1.87E-06,0.0170275
,,,1.88E-06,0.016929375
,,,1.89E-06,0.016618125
,,,1.9E-06,0.0167625
,,,1.91E-06,0.016969375
,,,1.92E-06,0.016901875
,,,1.93E-06,0.01675625
,,,1.94E-06,0.016943125
,,,1.95E-06,0.01683875
,,,1.96E-06,0.0168875
,,,1.97E-06,0.016989375
,,,1.98E-06,0.017138125
,,,1.99E-06,0.017139375
,,,2E-06,0.01688875
,,,2.01E-06,0.0166675
,,,2.02E-06,0.016855625
,,,2.03E-06,0.016740625
,,,2.04E-06,0.016925
,,,2.05E-06,0.0170625
,,,2.06E-06,0.016878125
,,,2.07E-06,0.017070625
,,,2.08E-06,0.017265625
,,,2.09E-06,0.01697625
,,,2.1E-06,0.01701375
,,,2.11E-06,0.016884375
,,,2.12E-06,0.0168525
,,,2.13E-06,0.016748125
,,,2.14E-06,0.0167675
,,,2.15E-06,0.016854375
,,,2.16E-06,0.01668125
,,,2.17E-06,0.017199375
,,,2.18E-06,0.016936875
,,,2.19E-06,0.01692875
,,,2.2E-06,0.016950625
,,,2.21E-06,0.016821875
,,,2.22E-06,0.016876875
,,,2.23E-06,0.016939375
,,,2.24E-06,0.016845625
,,,2.25E-06,0.017138125
,,,2.26E-06,0.016675
,,,2.27E-06,0.016875
,,,2.28E-06,0.016834375
,,,2.29E-06,0.016811875
,,,2.3E-06,0.01709875
,,,2.31E-06,0.016895
,,,2.32E-06,0.0167975
,,,2.33E-06,0.0168675
,,,2.34E-06,0.017050625
,,,2.35E-06,0.016725625
,,,2.36E-06,0.01717625
,,,2.37E-06,0.0169375
,,,2.38E-06,0.016885625
,,,2.39E-06,0.01674625
,,,2.4E-06,0.01716
,,,2.41E-06,0.01674125
,,,2.42E-06,0.017095625
,,,2.43E-06,0.017009375
,,,2.44E-06,0.016883125
,,,2.45E-06,0.016815
,,,2.46E-06,0.016825625
,,,2.47E-06,0.017023125
,,,2.48E-06,0.01712875
,,,2.49E-06,0.016976875
,,,2.5E-06,0.016973125
,,,2.51E-06,0.016999375
,,,2.52E-06,0.016931875
,,,2.53E-06,0.017015
,,,2.54E-06,0.016918125
,,,2.55E-06,0.016725
,,,2.56E-06,0.016814375
,,,2.57E-06,0.016865
,,,2.58E-06,0.016951875
,,,2.59E-06,0.017055625
,,,2.6E-06,0.016996875
,,,2.61E-06,0.01695875
,,,2.62E-06,0.016431875
,,,2.63E-06,0.01686
,,,2.64E-06,0.016764375
,,,2.65E-06,0.016963125
,,,2.66E-06,0.016775
,,,2.67E-06,0.016689375
,,,2.68E-06,0.016765
,,,2.69E-06,0.01649625
,,,2.7E-06,0.01678625
,,,2.71E-06,0.0170575
,,,2.72E-06,0.01681375
,,,2.73E-06,0.017005625
,,,2.74E-06,0.016909375
,,,2.75E-06,0.016975
,,,2.76E-06,0.016745
,,,2.77E-06,0.0168625
,,,2.78E-06,0.017015
,,,2.79E-06,0.0170325
,,,2.8E-06,0.01682
,,,2.81E-06,0.01683875
,,,2.82E-06,0.01696375
,,,2.83E-06,0.01708625
,,,2.84E-06,0.016881875
,,,2.85E-06,0.0169425
,,,2.86E-06,0.01667125
,,,2.87E-06,0.0166225
,,,2.88E-06,0.01687125
,,,2.89E-06,0.017008125
,,,2.9E-06,0.0169175
,,,2.91E-06,0.0169425
,,,2.92E-06,0.01675875
,,,2.93E-06,0.01716125
,,,2.94E-06,0.01714625
,,,2.95E-06,0.01679875
,,,2.96E-06,0.01683125
,,,2.97E-06,0.01705875
,,,2.98E-06,0.016825
,,,2.99E-06,0.016806875
,,,3E-06,0.016643125
,,,3.01E-06,0.016874375
,,,3.02E-06,0.016944375
,,,3.03E-06,0.016515
,,,3.04E-06,0.01698125
,,,3.05E-06,0.016830625
,,,3.06E-06,0.016771875
,,,3.07E-06,0.016860625
,,,3.08E-06,0.016948125
,,,3.09E-06,0.0167775
,,,3.1E-06,0.0166675
,,,3.11E-06,0.01691375
,,,3.12E-06,0.016624375
,,,3.13E-06,0.016899375
,,,3.14E-06,0.017134375
,,,3.15E-06,0.0169425
,,,3.16E-06,0.0169025
,,,3.17E-06,0.016828125
,,,3.18E-06,0.0166725
,,,3.19E-06,0.01680875
,,,3.2E-06,0.0167575
,,,3.21E-06,0.0170175
,,,3.22E-06,0.016923125
,,,3.23E-06,0.01709625
,,,3.24E-06,0.016820625
,,,3.25E-06,0.0170025
,,,3.26E-06,0.016951875
,,,3.27E-06,0.0168875
,,,3.28E-06,0.0167575
,,,3.29E-06,0.01707625
,,,3.3E-06,0.01669125
,,,3.31E-06,0.0170525
,,,3.32E-06,0.016975625
,,,3.33E-06,0.017128125
,,,3.34E-06,0.016765
,,,3.35E-06,0.0165275
,,,3.36E-06,0.016843125
,,,3.37E-06,0.01698125
,,,3.38E-06,0.016860625
,,,3.39E-06,0.016826875
,,,3.4E-06,0.016785625
,,,3.41E-06,0.0167475
,,,3.42E-06,0.016814375
,,,3.43E-06,0.0167525
,,,3.44E-06,0.016795
,,,3.45E-06,0.016961875
,,,3.46E-06,0.016808125
,,,3.47E-06,0.0170425
,,,3.48E-06,0.016733125
,,,3.49E-06,0.01696125
,,,3.5E-06,0.016840625
,,,3.51E-06,0.01699
,,,3.52E-06,0.016851875
,,,3.53E-06,0.01672625
,,,3.54E-06,0.0167225
,,,3.55E-06,0.017120625
,,,3.56E-06,0.01698
,,,3.57E-06,0.01676875
,,,3.58E-06,0.0167625
,,,3.59E-06,0.016998125
