data/raw/Final_POL_Test_1/SOP036_Ch3.csv

"Record Length",1000,"Points",-5E-06,0.019250626
"Sample Interval",1E-08,s,-4.99E-06,0.019377501
"Trigger Point",500,"Samples",-4.98E-06,0.019288751
"Trigger Time",0,s,-4.97E-06,0.019101251
"",,,-4.96E-06,0.019296876
"Horizontal Offset",-5E-06,s,-4.95E-06,0.019408126
,,,-4.94E-06,0.019266251
,,,-4.93E-06,0.019273751
,,,-4.92E-06,0.019328126
,,,-4.91E-06,0.019351876
,,,-4.9E-06,0.019465626
,,,-4.89E-06,0.019370626
,,,-4.88E-06,0.019315626
,,,-4.87E-06,0.019377501
,,,-4.86E-06,0.019246876
,,,-4.85E-06,0.019341251
,,,-4.84E-06,0.019360001
,,,-4.83E-06,0.019342501
,,,-4.82E-06,0.019386251
,,,-4.81E-06,0.019171251
,,,-4.8E-06,0.019605001
,,,-4.79E-06,0.019345626
,,,-4.78E-06,0.019488126
,,,-4.77E-06,0.019218751
,,,-4.76E-06,0.019374376
,,,-4.75E-06,0.019391876
,,,-4.74E-06,0.019365001
,,,-4.73E-06,0.019351876
,,,-4.72E-06,0.019460001
,,,-4.71E-06,0.019367501
,,,-4.7E-06,0.019517501
,,,-4.69E-06,0.019386876
,,,-4.68E-06,0.019430626
,,,-4.67E-06,0.019430001
,,,-4.66E-06,0.019345626
,,,-4.65E-06,0.019447501
,,,-4.64E-06,0.019282501
,,,-4.63E-06,0.019396251
,,,-4.62E-06,0.019561251
,,,-4.61E-06,0.019275626
,,,-4.6E-06,0.019308751
,,,-4.59E-06,0.019207501
,,,-4.58E-06,0.019415001
,,,-4.57E-06,0.019520001
,,,-4.56E-06,0.019272501
,,,-4.55E-06,0.019237501
,,,-4.54E-06,0.019552501
,,,-4.53E-06,0.019395626
,,,-4.52E-06,0.019337501
,,,-4.51E-06,0.019410001
,,,-4.5E-06,0.019416251
,,,-4.49E-06,0.019528751
,,,-4.48E-06,0.019271876
,,,-4.47E-06,0.019511876
,,,-4.46E-06,0.019051251
,,,-4.45E-06,0.019281876
,,,-4.44E-06,0.019337501
,,,-4.43E-06,0.019450001
,,,-4.42E-06,0.019190001
,,,-4.41E-06,0.019028751
,,,-4.4E-06,0.019446251
,,,-4.39E-06,0.019276876
,,,-4.38E-06,0.019408126
,,,-4.37E-06,0.019372501
,,,-4.36E-06,0.019256251
,,,-4.35E-06,0.019313751
,,,-4.34E-06,0.019142501
,,,-4.33E-06,0.019191876
,,,-4.32E-06,0.019200001
,,,-4.31E-06,0.019173126
,,,-4.3E-06,0.019335626
,,,-4.29E-06,0.019199376
,,,-4.28E-06,0.019346876
,,,-4.27E-06,0.019481251
,,,-4.26E-06,0.019398126
,,,-4.25E-06,0.019455001
,,,-4.24E-06,0.019092501
,,,-4.23E-06,0.019088751
,,,-4.22E-06,0.019608751
,,,-4.21E-06,0.019368126
,,,-4.2E-06,0.019208126
,,,-4.19E-06,0.019356876
,,,-4.18E-06,0.019341251
,,,-4.17E-06,0.019105001
,,,-4.16E-06,0.019331876
,,,-4.15E-06,0.018846876
,,,-4.14E-06,0.019439376
,,,-4.13E-06,0.019174376
,,,-4.12E-06,0.019299376
,,,-4.11E-06,0.019340626
,,,-4.1E-06,0.019453126
,,,-4.09E-06,0.019185626
,,,-4.08E-06,0.019268751
,,,-4.07E-06,0.019220001
,,,-4.06E-06,0.019575001
,,,-4.05E-06,0.019246251
,,,-4.04E-06,0.019336876
,,,-4.03E-06,0.019501876
,,,-4.02E-06,0.019329376
,,,-4.01E-06,0.019186251
,,,-4E-06,0.019484376
,,,-3.99E-06,0.019163751
,,,-3.98E-06,0.019529376
,,,-3.97E-06,0.019453751
,,,-3.96E-06,0.019462501
,,,-3.95E-06,0.019525626
,,,-3.94E-06,0.019516251
,,,-3.93E-06,0.019491251
,,,-3.92E-06,0.019055001
,,,-3.91E-06,0.019518126
,,,-3.9E-06,0.019306876
,,,-3.89E-06,0.019171251
,,,-3.88E-06,0.019438126
,,,-3.87E-06,0.019380001
,,,-3.86E-06,0.019270001
,,,-3.85E-06,0.019218126
,,,-3.84E-06,0.019574376
,,,-3.83E-06,0.019403751
,,,-3.82E-06,0.019498126
,,,-3.81E-06,0.019400001
,,,-3.8E-06,0.019302501
,,,-3.79E-06,0.019417501
,,,-3.78E-06,0.019219376
,,,-3.77E-06,0.019458126
,,,-3.76E-06,0.019310001
,,,-3.75E-06,0.019428126
,,,-3.74E-06,0.019301876
,,,-3.73E-06,0.019166251
,,,-3.72E-06,0.019185626
,,,-3.71E-06,0.019000001
,,,-3.7E-06,0.019280626
,,,-3.69E-06,0.019284376
,,,-3.68E-06,0.019441251
,,,-3.67E-06,0.019276876
,,,-3.66E-06,0.019316251
,,,-3.65E-06,0.019471251
,,,-3.64E-06,0.019316251
,,,-3.63E-06,0.019409376
,,,-3.62E-06,0.019268126
,,,-3.61E-06,0.019411251
,,,-3.6E-06,0.019526251
,,,-3.59E-06,0.019185001
,,,-3.58E-06,0.019181251
,,,-3.57E-06,0.019480626
,,,-3.56E-06,0.019314376
,,,-3.55E-06,0.019247501
,,,-3.54E-06,0.019340001
,,,-3.53E-06,0.019168126
,,,-3.52E-06,0.019415626
,,,-3.51E-06,0.019171251
,,,-3.5E-06,0.019535001
,,,-3.49E-06,0.019305626
,,,-3.48E-06,0.019471876
,,,-3.47E-06,0.019268126
,,,-3.46E-06,0.019331876
,,,-3.45E-06,0.019461876
,,,-3.44E-06,0.019205626
,,,-3.43E-06,0.019230626
,,,-3.42E-06,0.019444376
,,,-3.41E-06,0.019486251
,,,-3.4E-06,0.019385626
,,,-3.39E-06,0.019490626
,,,-3.38E-06,0.019157501
,,,-3.37E-06,0.019402501
,,,-3.36E-06,0.019207501
,,,-3.35E-06,0.019235626
,,,-3.34E-06,0.019446876
,,,-3.33E-06,0.019275626
,,,-3.32E-06,0.019623126
,,,-3.31E-06,0.019411251
,,,-3.3E-06,0.019406251
,,,-3.29E-06,0.019236251
,,,-3.28E-06,0.019436876
,,,-3.27E-06,0.019371876
,,,-3.26E-06,0.019153126
,,,-3.25E-06,0.019396876
,,,-3.24E-06,0.019496876
,,,-3.23E-06,0.019398751
,,,-3.22E-06,0.019378751
,,,-3.21E-06,0.019310001
,,,-3.2E-06,0.019045626
,,,-3.19E-06,0.019376876
,,,-3.18E-06,0.019489376
,,,-3.17E-06,0.019395001
,,,-3.16E-06,0.019369376
,,,-3.15E-06,0.019433751
,,,-3.14E-06,0.019210001
,,,-3.13E-06,0.019164376
,,,-3.12E-06,0.019445626
,,,-3.11E-06,0.019387501
,,,-3.1E-06,0.019418126
,,,-3.09E-06,0.019463126
,,,-3.08E-06,0.019403751
,,,-3.07E-06,0.019455001
,,,-3.06E-06,0.019468126
,,,-3.05E-06,0.019255001
,,,-3.04E-06,0.018957501
,,,-3.03E-06,0.019335626
,,,-3.02E-06,0.019275001
,,,-3.01E-06,0.019537501
,,,-3E-06,0.019401251
,,,-2.99E-06,0.019435626
,,,-2.98E-06,0.019311251
,,,-2.97E-06,0.019301251
,,,-2.96E-06,0.019439376
,,,-2.95E-06,0.019655001
,,,-2.94E-06,0.019435001
,,,-2.93E-06,0.019416876
,,,-2.92E-06,0.019315626
,,,-2.91E-06,0.019399376
,,,-2.9E-06,0.019370001
,,,-2.89E-06,0.019138126
,,,-2.88E-06,0.019328751
,,,-2.87E-06,0.019436251
,,,-2.86E-06,0.019150001
,,,-2.85E-06,0.019581876
,,,-2.84E-06,0.019175626
,,,-2.83E-06,0.019382501
,,,-2.82E-06,0.019384376
,,,-2.81E-06,0.019479376
,,,-2.8E-06,0.019328126
,,,-2.79E-06,0.019415001
,,,-2.78E-06,0.019378751
,,,-2.77E-06,0.019399376
,,,-2.76E-06,0.019348126
,,,-2.75E-06,0.019273126
,,,-2.74E-06,0.019410001
,,,-2.73E-06,0.019385001
,,,-2.72E-06,0.019281251
,,,-2.71E-06,0.019330001
,,,-2.7E-06,0.019570626
,,,-2.69E-06,0.019259376
,,,-2.68E-06,0.019531251
,,,-2.67E-06,0.019456251
,,,-2.66E-06,0.019404376
,,,-2.65E-06,0.019454376
,,,-2.64E-06,0.019524376
,,,-2.63E-06,0.019440626
,,,-2.62E-06,0.019265626
,,,-2.61E-06,0.019401251
,,,-2.6E-06,0.019199376
,,,-2.59E-06,0.019143751
,,,-2.58E-06,0.019446251
,,,-2.57E-06,0.019441251
,,,-2.56E-06,0.019214376
,,,-2.55E-06,0.019297501
,,,-2.54E-06,0.019168126
,,,-2.53E-06,0.019312501
,,,-2.52E-06,0.019309376
,,,-2.51E-06,0.019177501
,,,-2.5E-06,0.019055626
,,,-2.49E-06,0.019179376
,,,-2.48E-06,0.019486251
,,,-2.47E-06,0.019158751
,,,-2.46E-06,0.019578126
,,,-2.45E-06,0.019395626
,,,-2.44E-06,0.019231251
,,,-2.43E-06,0.019637501
,,,-2.42E-06,0.019387501
,,,-2.41E-06,0.019191251
,,,-2.4E-06,0.019296251
,,,-2.39E-06,0.019582501
,,,-2.38E-06,0.019179376
,,,-2.37E-06,0.019453126
,,,-2.36E-06,0.019455626
,,,-2.35E-06,0.019502501
,,,-2.34E-06,0.019350626
,,,-2.33E-06,0.019273751
,,,-2.32E-06,0.019385001
,,,-2.31E-06,0.019400626
,,,-2.3E-06,0.019191251
,,,-2.29E-06,0.019293751
,,,-2.28E-06,0.019351251
,,,-2.27E-06,0.019446876
,,,-2.26E-06,0.019181876
,,,-2.25E-06,0.019425626
,,,-2.24E-06,0.019318751
,,,-2.23E-06,0.019428126
,,,-2.22E-06,0.019288126
,,,-2.21E-06,0.019473126
,,,-2.2E-06,0.019270001
,,,-2.19E-06,0.019344376
,,,-2.18E-06,0.019273751
,,,-2.17E-06,0.019425626
,,,-2.16E-06,0.019235001
,,,-2.15E-06,0.019558751
,,,-2.14E-06,0.019476876
,,,-2.13E-06,0.019409376
,,,-2.12E-06,0.019055626
,,,-2.11E-06,0.019484376
,,,-2.1E-06,0.019201876
,,,-2.09E-06,0.019331876
,,,-2.08E-06,0.019454376
,,,-2.07E-06,0.019246251
,,,-2.06E-06,0.019388751
,,,-2.05E-06,0.019180001
,,,-2.04E-06,0.019367501
,,,-2.03E-06,0.019510001
,,,-2.02E-06,0.019221876
,,,-2.01E-06,0.019364376
,,,-2E-06,0.019590001
,,,-1.99E-06,0.019349376
,,,-1.98E-06,0.019518126
,,,-1.97E-06,0.019324376
,,,-1.96E-06,0.019164376
,,,-1.95E-06,0.019461876
,,,-1.94E-06,0.019464376
,,,-1.93E-06,0.019227501
,,,-1.92E-06,0.019311876
,,,-1.91E-06,0.019574376
,,,-1.9E-06,0.019489376
,,,-1.89E-06,0.019432501
,,,-1.88E-06,0.019152501
,,,-1.87E-06,0.019509376
,,,-1.86E-06,0.019566251
,,,-1.85E-06,0.019354376
,,,-1.84E-06,0.019240626
,,,-1.83E-06,0.019275001
,,,-1.82E-06,0.019523751
,,,-1.81E-06,0.019511876
,,,-1.8E-06,0.019336876
,,,-1.79E-06,0.019438751
,,,-1.78E-06,0.019421251
,,,-1.77E-06,0.019687501
,,,-1.76E-06,0.019107501
,,,-1.75E-06,0.019400626
,,,-1.74E-06,0.019229376
,,,-1.73E-06,0.019473126
,,,-1.72E-06,0.019476251
,,,-1.71E-06,0.019398126
,,,-1.7E-06,0.019305001
,,,-1.69E-06,0.019431876
,,,-1.68E-06,0.019228126
,,,-1.67E-06,0.019658751
,,,-1.66E-06,0.019203126
,,,-1.65E-06,0.019158751
,,,-1.64E-06,0.019267501
,,,-1.63E-06,0.019445626
,,,-1.62E-06,0.019180001
,,,-1.61E-06,0.019257501
,,,-1.6E-06,0.019373751
,,,-1.59E-06,0.019381251
,,,-1.58E-06,0.019565626
,,,-1.57E-06,0.019296876
,,,-1.56E-06,0.019303751
,,,-1.55E-06,0.019478751
,,,-1.54E-06,0.019352501
,,,-1.53E-06,0.019228751
,,,-1.52E-06,0.019333126
,,,-1.51E-06,0.019457501
,,,-1.5E-06,0.019131251
,,,-1.49E-06,0.019143751
,,,-1.48E-06,0.019513751
,,,-1.47E-06,0.019276876
,,,-1.46E-06,0.019284376
,,,-1.45E-06,0.019386876
,,,-1.44E-06,0.019648126
,,,-1.43E-06,0.019292501
,,,-1.42E-06,0.019347501
,,,-1.41E-06,0.019432501
,,,-1.4E-06,0.019475626
,,,-1.39E-06,0.019454376
,,,-1.38E-06,0.019261876
,,,-1.37E-06,0.019473751
,,,-1.36E-06,0.019353751
,,,-1.35E-06,0.019265001
,,,-1.34E-06,0.019349376
,,,-1.33E-06,0.019430001
,,,-1.32E-06,0.019480001
,,,-1.31E-06,0.019518751
,,,-1.3E-06,0.019563126
,,,-1.29E-06,0.019226876
,,,-1.28E-06,0.019401251
,,,-1.27E-06,0.019428126
,,,-1.26E-06,0.019460001
,,,-1.25E-06,0.019458126
,,,-1.24E-06,0.019568751
,,,-1.23E-06,0.019239376
,,,-1.22E-06,0.019345001
,,,-1.21E-06,0.019243751
,,,-1.2E-06,0.019318751
,,,-1.19E-06,0.019415626
,,,-1.18E-06,0.019485001
,,,-1.17E-06,0.019213751
,,,-1.16E-06,0.019300001
,,,-1.15E-06,0.019440001
,,,-1.14E-06,0.019278126
,,,-1.13E-06,0.019414376
,,,-1.12E-06,0.019341251
,,,-1.11E-06,0.019134376
,,,-1.1E-06,0.019480626
,,,-1.09E-06,0.019266251
,,,-1.08E-06,0.019315001
,,,-1.07E-06,0.019483751
,,,-1.06E-06,0.019073751
,,,-1.05E-06,0.019328126
,,,-1.04E-06,0.019380001
,,,-1.03E-06,0.019416251
,,,-1.02E-06,0.019311876
,,,-1.01E-06,0.019485001
,,,-1E-06,0.019313126
,,,-9.9E-07,0.019331251
,,,-9.8E-07,0.019311251
,,,-9.7E-07,0.019409376
,,,-9.6E-07,0.019435626
,,,-9.5E-07,0.019160626
,,,-9.4E-07,0.019298126
,,,-9.3E-07,0.019458126
,,,-9.2E-07,0.019373751
,,,-9.1E-07,0.019438751
,,,-9E-07,0.019369376
,,,-8.9E-07,0.019413751
,,,-8.8E-07,0.019214376
,,,-8.7E-07,0.019236876
,,,-8.6E-07,0.019195001
,,,-8.5E-07,0.019407501
,,,-8.4E-07,0.019278751
,,,-8.3E-07,0.019196876
,,,-8.2E-07,0.019625626
,,,-8.1E-07,0.019330001
,,,-8E-07,0.019391876
,,,-7.9E-07,0.019401251
,,,-7.8E-07,0.019516251
,,,-7.7E-07,0.019368126
,,,-7.6E-07,0.019451251
,,,-7.5E-07,0.019153126
,,,-7.4E-07,0.019448751
,,,-7.3E-07,0.019348126
,,,-7.2E-07,0.019254376
,,,-7.1E-07,0.019350001
,,,-7E-07,0.019460001
,,,-6.9E-07,0.019132501
,,,-6.8E-07,0.019383126
,,,-6.7E-07,0.019476251
,,,-6.6E-07,0.019229376
,,,-6.5E-07,0.019366251
,,,-6.4E-07,0.019368751
,,,-6.3E-07,0.019339376
,,,-6.2E-07,0.019243126
,,,-6.1E-07,0.019354376
,,,-6E-07,0.019426251
,,,-5.9E-07,0.019367501
,,,-5.8E-07,0.019181876
,,,-5.7E-07,0.019340001
,,,-5.6E-07,0.019394376
,,,-5.5E-07,0.019400626
,,,-5.4E-07,0.019527501
,,,-5.3E-07,0.019312501
,,,-5.2E-07,0.019003751
,,,-5.1E-07,0.019178751
,,,-5E-07,0.019402501
,,,-4.9E-07,0.019277501
,,,-4.8E-07,0.019392501
,,,-4.7E-07,0.019387501
,,,-4.6E-07,0.019366876
,,,-4.5E-07,0.019234376
,,,-4.4E-07,0.019391876
,,,-4.3E-07,0.019446251
,,,-4.2E-07,0.019305626
,,,-4.1E-07,0.019355626
,,,-4E-07,0.019439376
,,,-3.9E-07,0.019275001
,,,-3.8E-07,0.019265001
,,,-3.7E-07,0.019203126
,,,-3.6E-07,0.019420626
,,,-3.5E-07,0.019212501
,,,-3.4E-07,0.019565626
,,,-3.3E-07,0.019478126
,,,-3.2E-07,0.019361876
,,,-3.1E-07,0.019335626
,,,-3E-07,0.019322501
,,,-2.9E-07,0.019254376
,,,-2.8E-07,0.019585626
,,,-2.7E-07,0.019245001
,,,-2.6E-07,0.019360001
,,,-2.5E-07,0.019350001
,,,-2.4E-07,0.019332501
,,,-2.3E-07,0.019120626
,,,-2.2E-07,0.019328751
,,,-2.1E-07,0.019291876
,,,-2E-07,0.019192501
,,,-1.9E-07,0.019052501
,,,-1.8E-07,0.019161251
,,,-1.7E-07,0.019560626
,,,-1.6E-07,0.019277501
,,,-1.5E-07,0.019313751
,,,-1.4E-07,0.019193751
,,,-1.3E-07,0.019514376
,,,-1.2E-07,0.019435001
,,,-1.1E-07,0.019536251
,,,-1E-07,0.019439376
,,,-9E-08,0.019447501
,,,-8E-08,0.019239376
,,,-7E-08,0.018936876
,,,-6E-08,0.018534376
,,,-5E-08,0.019737501
,,,-4E-08,0.019904376
,,,-3E-08,0.020755626
,,,-2E-08,0.018618751
,,,-1E-08,0.017940001
,,,0,0.016508126
,,,1E-08,0.020606251
,,,2E-08,0.021154376
,,,3E-08,0.021972501
,,,4E-08,0.018886876
,,,5E-08,0.018420626
,,,6E-08,0.017299376
,,,7E-08,0.018118126
,,,8E-08,0.019485001
,,,9E-08,0.020394376
,,,1E-07,0.020386876
,,,1.1E-07,0.019801876
,,,1.2E-07,0.018906876
,,,1.3E-07,0.018354376
,,,1.4E-07,0.018928126
,,,1.5E-07,0.019157501
,,,1.6E-07,0.019928751
,,,1.7E-07,0.019686251
,,,1.8E-07,0.019392501
,,,1.9E-07,0.019407501
,,,2E-07,0.019363751
,,,2.1E-07,0.019086251
,,,2.2E-07,0.019147501
,,,2.3E-07,0.019208126
,,,2.4E-07,0.019712501
,,,2.5E-07,0.019184376
,,,2.6E-07,0.019689376
,,,2.7E-07,0.019283126
,,,2.8E-07,0.019371251
,,,2.9E-07,0.019346251
,,,3E-07,0.019210001
,,,3.1E-07,0.018965626
,,,3.2E-07,0.019121876
,,,3.3E-07,0.019602501
,,,3.4E-07,0.019369376
,,,3.5E-07,0.019235626
,,,3.6E-07,0.019216251
,,,3.7E-07,0.019323751
,,,3.8E-07,0.019148126
,,,3.9E-07,0.019141876
,,,4E-07,0.019512501
,,,4.1E-07,0.019077501
,,,4.2E-07,0.019287501
,,,4.3E-07,0.019308751
,,,4.4E-07,0.019166251
,,,4.5E-07,0.019465001
,,,4.6E-07,0.019222501
,,,4.7E-07,0.019146876
,,,4.8E-07,0.019452501
,,,4.9E-07,0.019253751
,,,5E-07,0.019353126
,,,5.1E-07,0.019230001
,,,5.2E-07,0.019514376
,,,5.3E-07,0.019235001
,,,5.4E-07,0.019415626
,,,5.5E-07,0.019289376
,,,5.6E-07,0.019482501
,,,5.7E-07,0.019451876
,,,5.8E-07,0.019450626
,,,5.9E-07,0.019627501
,,,6E-07,0.019647501
,,,6.1E-07,0.019190001
,,,6.2E-07,0.019344376
,,,6.3E-07,0.019445626
,,,6.4E-07,0.019229376
,,,6.5E-07,0.019195001
,,,6.6E-07,0.019475626
,,,6.7E-07,0.019304376
,,,6.8E-07,0.019460001
,,,6.9E-07,0.019366251
,,,7E-07,0.019365001
,,,7.1E-07,0.019091251
,,,7.2E-07,0.019203126
,,,7.3E-07,0.019491251
,,,7.4E-07,0.019183751
,,,7.5E-07,0.019369376
,,,7.6E-07,0.019405626
,,,7.7E-07,0.019437501
,,,7.8E-07,0.018973751
,,,7.9E-07,0.019451251
,,,8E-07,0.019521251
,,,8.1E-07,0.019363751
,,,8.2E-07,0.019437501
,,,8.3E-07,0.019257501
,,,8.4E-07,0.019187501
,,,8.5E-07,0.019210001
,,,8.6E-07,0.019570001
,,,8.7E-07,0.019266251
,,,8.8E-07,0.019344376
,,,8.9E-07,0.019031876
,,,9E-07,0.019461251
,,,9.1E-07,0.019494376
,,,9.2E-07,0.019468126
,,,9.3E-07,0.019288751
,,,9.4E-07,0.019490626
,,,9.5E-07,0.019265001
,,,9.6E-07,0.019626251
,,,9.7E-07,0.019398126
,,,9.8E-07,0.019183126
,,,9.9E-07,0.019286876
,,,1E-06,0.019389376
,,,1.01E-06,0.019380626
,,,1.02E-06,0.019463126
,,,1.03E-06,0.019392501
,,,1.04E-06,0.019252501
,,,1.05E-06,0.019507501
,,,1.06E-06,0.019445626
,,,1.07E-06,0.019384376
,,,1.08E-06,0.019304376
,,,1.09E-06,0.019239376
,,,1.1E-06,0.019360626
,,,1.11E-06,0.019249376
,,,1.12E-06,0.019295001
,,,1.13E-06,0.019521876
,,,1.14E-06,0.019481251
,,,1.15E-06,0.019335626
,,,1.16E-06,0.019370001
,,,1.17E-06,0.019620001
,,,1.18E-06,0.019277501
,,,1.19E-06,0.019368126
,,,1.2E-06,0.019108751
,,,1.21E-06,0.019340626
,,,1.22E-06,0.019300001
,,,1.23E-06,0.019246876
,,,1.24E-06,0.019485001
,,,1.25E-06,0.019380001
,,,1.26E-06,0.019261876
,,,1.27E-06,0.019431876
,,,1.28E-06,0.018907501
,,,1.29E-06,0.019350626
,,,1.3E-06,0.019217501
,,,1.31E-06,0.019358751
,,,1.32E-06,0.019201876
,,,1.33E-06,0.019545001
,,,1.34E-06,0.019243126
,,,1.35E-06,0.019139376
,,,1.36E-06,0.019408126
,,,1.37E-06,0.019306251
,,,1.38E-06,0.019218751
,,,1.39E-06,0.019525001
,,,1.4E-06,0.019212501
,,,1.41E-06,0.019293751
,,,1.42E-06,0.019466251
,,,1.43E-06,0.019325001
,,,1.44E-06,0.019363126
,,,1.45E-06,0.019310001
,,,1.46E-06,0.019504376
,,,1.47E-06,0.019300001
,,,1.48E-06,0.019401251
,,,1.49E-06,0.019471876
,,,1.5E-06,0.019410001
,,,1.51E-06,0.019528126
,,,1.52E-06,0.019216251
,,,1.53E-06,0.019203751
,,,1.54E-06,0.019387501
,,,1.55E-06,0.019094376
,,,1.56E-06,0.019391251
,,,1.57E-06,0.019207501
,,,1.58E-06,0.019450626
,,,1.59E-06,0.019408751
,,,1.6E-06,0.019293126
,,,1.61E-06,0.019340626
,,,1.62E-06,0.019407501
,,,1.63E-06,0.019165001
,,,1.64E-06,0.019399376
,,,1.65E-06,0.019416251
,,,1.66E-06,0.019428126
,,,1.67E-06,0.019552501
,,,1.68E-06,0.019532501
,,,1.69E-06,0.019223126
,,,1.7E-06,0.019220001
,,,1.71E-06,0.019196876
,,,1.72E-06,0.019241251
,,,1.73E-06,0.019270001
,,,1.74E-06,0.019244376
,,,1.75E-06,0.019343751
,,,1.76E-06,0.019470626
,,,1.77E-06,0.019285001
,,,1.78E-06,0.019430626
,,,1.79E-06,0.019190001
,,,1.8E-06,0.019369376
,,,1.81E-06,0.019308751
,,,1.82E-06,0.019221251
,,,1.83E-06,0.019433751
,,,1.84E-06,0.019200626
,,,1.85E-06,0.019306876
,,,1.86E-06,0.019359376
,,,1.87E-06,0.019137501
,,,1.88E-06,0.019339376
,,,1.89E-06,0.019386251
,,,1.9E-06,0.019208126
,,,1.91E-06,0.019232501
,,,1.92E-06,0.019325626
,,,1.93E-06,0.019330001
,,,1.94E-06,0.019537501
,,,1.95E-06,0.019243751
,,,1.96E-06,0.019106251
,,,1.97E-06,0.019267501
,,,1.98E-06,0.019272501
,,,1.99E-06,0.019299376
,,,2E-06,0.019523751
,,,2.01E-06,0.019552501
,,,2.02E-06,0.019407501
,,,2.03E-06,0.019393751
,,,2.04E-06,0.019040001
,,,2.05E-06,0.019323751
,,,2.06E-06,0.019358751
,,,2.07E-06,0.019126251
,,,2.08E-06,0.019002501
,,,2.09E-06,0.019509376
,,,2.1E-06,0.019166876
,,,2.11E-06,0.019093751
,,,2.12E-06,0.019423126
,,,2.13E-06,0.019303751
,,,2.14E-06,0.019368751
,,,2.15E-06,0.019521876
,,,2.16E-06,0.019510001
,,,2.17E-06,0.019266251
,,,2.18E-06,0.019226251
,,,2.19E-06,0.019217501
,,,2.2E-06,0.019135001
,,,2.21E-06,0.019357501
,,,2.22E-06,0.019485626
,,,2.23E-06,0.019421251
,,,2.24E-06,0.019507501
,,,2.25E-06,0.019305626
,,,2.26E-06,0.019239376
,,,2.27E-06,0.019085001
,,,2.28E-06,0.019303751
,,,2.29E-06,0.019147501
,,,2.3E-06,0.019160001
,,,2.31E-06,0.019395626
,,,2.32E-06,0.019261876
,,,2.33E-06,0.019358751
,,,2.34E-06,0.019347501
,,,2.35E-06,0.019301876
,,,2.36E-06,0.019470626
,,,2.37E-06,0.019496876
,,,2.38E-06,0.019298751
,,,2.39E-06,0.019256876
,,,2.4E-06,0.019523126
,,,2.41E-06,0.019204376
,,,2.42E-06,0.019333126
,,,2.43E-06,0.019298126
,,,2.44E-06,0.019116251
,,,2.45E-06,0.019311876
,,,2.46E-06,0.019455626
,,,2.47E-06,0.019598126
,,,2.48E-06,0.019525001
,,,2.49E-06,0.019332501
,,,2.5E-06,0.019265001
,,,2.51E-06,0.019467501
,,,2.52E-06,0.019347501
,,,2.53E-06,0.019453126
,,,2.54E-06,0.019521876
,,,2.55E-06,0.019435001
,,,2.56E-06,0.019336876
,,,2.57E-06,0.019283751
,,,2.58E-06,0.019230001
,,,2.59E-06,0.019505001
,,,2.6E-06,0.019201251
,,,2.61E-06,0.019303751
,,,2.62E-06,0.019251251
,,,2.63E-06,0.019290626
,,,2.64E-06,0.019260626
,,,2.65E-06,0.019427501
,,,2.66E-06,0.019189376
,,,2.67E-06,0.019245001
,,,2.68E-06,0.019620001
,,,2.69E-06,0.019155626
,,,2.7E-06,0.019471251
,,,2.71E-06,0.019260001
,,,2.72E-06,0.019400626
,,,2.73E-06,0.019460626
,,,2.74E-06,0.019379376
,,,2.75E-06,0.019314376
,,,2.76E-06,0.019661876
,,,2.77E-06,0.019352501
,,,2.78E-06,0.019431251
,,,2.79E-06,0.019392501
,,,2.8E-06,0.019257501
,,,2.81E-06,0.019274376
,,,2.82E-06,0.019361876
,,,2.83E-06,0.019652501
,,,2.84E-06,0.019246876
,,,2.85E-06,0.019201251
,,,2.86E-06,0.019254376
,,,2.87E-06,0.019279376
,,,2.88E-06,0.019103126
,,,2.89E-06,0.019240001
,,,2.9E-06,0.019415626
,,,2.91E-06,0.019351251
,,,2.92E-06,0.019188126
,,,2.93E-06,0.019514376
,,,2.94E-06,0.019447501
,,,2.95E-06,0.019432501
,,,2.96E-06,0.019567501
,,,2.97E-06,0.019354376
,,,2.98E-06,0.019483751
,,,2.99E-06,0.019150626
,,,3E-06,0.019240626
,,,3.01E-06,0.019165626
,,,3.02E-06,0.019498126
,,,3.03E-06,0.019088751
,,,3.04E-06,0.019380626
,,,3.05E-06,0.019491876
,,,3.06E-06,0.019534376
,,,3.07E-06,0.019386876
,,,3.08E-06,0.019300001
,,,3.09E-06,0.019468751
,,,3.1E-06,0.019423126
,,,3.11E-06,0.019305001
,,,3.12E-06,0.019367501
,,,3.13E-06,0.019287501
,,,3.14E-06,0.019474376
,,,3.15E-06,0.019147501
,,,3.16E-06,0.019488126
,,,3.17E-06,0.019325001
,,,3.18E-06,0.019103126
,,,3.19E-06,0.019216876
,,,3.2E-06,0.019131876
,,,3.21E-06,0.019478126
