data/raw/Final_POL_Test_1/SOP052_Ch2.csv

"Record Length",1000,"Points",-5E-06,0.02298375
"Sample Interval",1E-08,s,-4.99E-06,0.0229925
"Trigger Point",500,"Samples",-4.98E-06,0.02314125
"Trigger Time",0,s,-4.97E-06,0.023026875
"",,,-4.96E-06,0.022969375
"Horizontal Offset",-5E-06,s,-4.95E-06,0.023086875
,,,-4.94E-06,0.0232075
,,,-4.93E-06,0.02316625
,,,-4.92E-06,0.023090625
,,,-4.91E-06,0.02302625
,,,-4.9E-06,0.023310625
,,,-4.89E-06,0.022988125
,,,-4.88E-06,0.023169375
,,,-4.87E-06,0.023013125
,,,-4.86E-06,0.023024375
,,,-4.85E-06,0.02313
,,,-4.84E-06,0.022934375
,,,-4.83E-06,0.02301
,,,-4.82E-06,0.022889375
,,,-4.81E-06,0.0228275
,,,-4.8E-06,0.022829375
,,,-4.79E-06,0.023048125
,,,-4.78E-06,0.02280375
,,,-4.77E-06,0.02317375
,,,-4.76E-06,0.0227975
,,,-4.75E-06,0.022898125
,,,-4.74E-06,0.023024375
,,,-4.73E-06,0.0229675
,,,-4.72E-06,0.022959375
,,,-4.71E-06,0.023061875
,,,-4.7E-06,0.0229375
,,,-4.69E-06,0.0231525
,,,-4.68E-06,0.02292875
,,,-4.67E-06,0.022891875
,,,-4.66E-06,0.023099375
,,,-4.65E-06,0.022789375
,,,-4.64E-06,0.02289625
,,,-4.63E-06,0.022979375
,,,-4.62E-06,0.0228225
,,,-4.61E-06,0.022905
,,,-4.6E-06,0.022855
,,,-4.59E-06,0.02297625
,,,-4.58E-06,0.02324875
,,,-4.57E-06,0.02287875
,,,-4.56E-06,0.023281875
,,,-4.55E-06,0.023108125
,,,-4.54E-06,0.02283625
,,,-4.53E-06,0.0229125
,,,-4.52E-06,0.0231875
,,,-4.51E-06,0.0229025
,,,-4.5E-06,0.022934375
,,,-4.49E-06,0.02290125
,,,-4.48E-06,0.022996875
,,,-4.47E-06,0.022774375
,,,-4.46E-06,0.022975
,,,-4.45E-06,0.02307125
,,,-4.44E-06,0.02291625
,,,-4.43E-06,0.023089375
,,,-4.42E-06,0.0228725
,,,-4.41E-06,0.023095
,,,-4.4E-06,0.022873125
,,,-4.39E-06,0.023039375
,,,-4.38E-06,0.023239375
,,,-4.37E-06,0.022908125
,,,-4.36E-06,0.0229025
,,,-4.35E-06,0.02309125
,,,-4.34E-06,0.02292375
,,,-4.33E-06,0.022916875
,,,-4.32E-06,0.023251875
,,,-4.31E-06,0.02272
,,,-4.3E-06,0.0230825
,,,-4.29E-06,0.022985625
,,,-4.28E-06,0.022980625
,,,-4.27E-06,0.022820625
,,,-4.26E-06,0.022485
,,,-4.25E-06,0.02300375
,,,-4.24E-06,0.023009375
,,,-4.23E-06,0.022931875
,,,-4.22E-06,0.023054375
,,,-4.21E-06,0.022989375
,,,-4.2E-06,0.0230475
,,,-4.19E-06,0.023130625
,,,-4.18E-06,0.02302125
,,,-4.17E-06,0.023185
,,,-4.16E-06,0.022754375
,,,-4.15E-06,0.022921875
,,,-4.14E-06,0.023015625
,,,-4.13E-06,0.02298375
,,,-4.12E-06,0.023030625
,,,-4.11E-06,0.02291125
,,,-4.1E-06,0.022665625
,,,-4.09E-06,0.022931875
,,,-4.08E-06,0.022746875
,,,-4.07E-06,0.022819375
,,,-4.06E-06,0.02291375
,,,-4.05E-06,0.023109375
,,,-4.04E-06,0.023068125
,,,-4.03E-06,0.02302625
,,,-4.02E-06,0.02284375
,,,-4.01E-06,0.02319375
,,,-4E-06,0.022991875
,,,-3.99E-06,0.023140625
,,,-3.98E-06,0.02289
,,,-3.97E-06,0.022994375
,,,-3.96E-06,0.022910625
,,,-3.95E-06,0.0229325
,,,-3.94E-06,0.02301875
,,,-3.93E-06,0.022800625
,,,-3.92E-06,0.02298875
,,,-3.91E-06,0.02297625
,,,-3.9E-06,0.022855625
,,,-3.89E-06,0.022990625
,,,-3.88E-06,0.023118125
,,,-3.87E-06,0.022931875
,,,-3.86E-06,0.022911875
,,,-3.85E-06,0.02289
,,,-3.84E-06,0.022901875
,,,-3.83E-06,0.023144375
,,,-3.82E-06,0.02283125
,,,-3.81E-06,0.02306
,,,-3.8E-06,0.02311875
,,,-3.79E-06,0.0231925
,,,-3.78E-06,0.023206875
,,,-3.77E-06,0.022855
,,,-3.76E-06,0.0230875
,,,-3.75E-06,0.022870625
,,,-3.74E-06,0.02294875
,,,-3.73E-06,0.022935625
,,,-3.72E-06,0.02292375
,,,-3.71E-06,0.022925625
,,,-3.7E-06,0.023166875
,,,-3.69E-06,0.022875625
,,,-3.68E-06,0.02293875
,,,-3.67E-06,0.02292375
,,,-3.66E-06,0.023001875
,,,-3.65E-06,0.02309125
,,,-3.64E-06,0.02289375
,,,-3.63E-06,0.0229325
,,,-3.62E-06,0.022669375
,,,-3.61E-06,0.0230325
,,,-3.6E-06,0.023039375
,,,-3.59E-06,0.0227325
,,,-3.58E-06,0.0233675
,,,-3.57E-06,0.022955
,,,-3.56E-06,0.02306625
,,,-3.55E-06,0.02280375
,,,-3.54E-06,0.02311
,,,-3.53E-06,0.0229625
,,,-3.52E-06,0.023046875
,,,-3.51E-06,0.023053125
,,,-3.5E-06,0.023104375
,,,-3.49E-06,0.0230125
,,,-3.48E-06,0.022984375
,,,-3.47E-06,0.023055625
,,,-3.46E-06,0.022984375
,,,-3.45E-06,0.023341875
,,,-3.44E-06,0.022988125
,,,-3.43E-06,0.02320375
,,,-3.42E-06,0.023048125
,,,-3.41E-06,0.02301375
,,,-3.4E-06,0.02298625
,,,-3.39E-06,0.02300375
,,,-3.38E-06,0.022780625
,,,-3.37E-06,0.022629375
,,,-3.36E-06,0.023
,,,-3.35E-06,0.0230475
,,,-3.34E-06,0.022935625
,,,-3.33E-06,0.022921875
,,,-3.32E-06,0.0230525
,,,-3.31E-06,0.022999375
,,,-3.3E-06,0.023075
,,,-3.29E-06,0.0229575
,,,-3.28E-06,0.0232175
,,,-3.27E-06,0.0231275
,,,-3.26E-06,0.023118125
,,,-3.25E-06,0.02307625
,,,-3.24E-06,0.02315875
,,,-3.23E-06,0.02310375
,,,-3.22E-06,0.02296625
,,,-3.21E-06,0.02293375
,,,-3.2E-06,0.023076875
,,,-3.19E-06,0.022935625
,,,-3.18E-06,0.023105
,,,-3.17E-06,0.022821875
,,,-3.16E-06,0.022829375
,,,-3.15E-06,0.023066875
,,,-3.14E-06,0.022875
,,,-3.13E-06,0.023051875
,,,-3.12E-06,0.022918125
,,,-3.11E-06,0.02304
,,,-3.1E-06,0.022895
,,,-3.09E-06,0.022741875
,,,-3.08E-06,0.022876875
,,,-3.07E-06,0.022930625
,,,-3.06E-06,0.0230675
,,,-3.05E-06,0.02318625
,,,-3.04E-06,0.023070625
,,,-3.03E-06,0.02296125
,,,-3.02E-06,0.0231
,,,-3.01E-06,0.022875625
,,,-3E-06,0.0228675
,,,-2.99E-06,0.02293125
,,,-2.98E-06,0.02312875
,,,-2.97E-06,0.0229175
,,,-2.96E-06,0.022998125
,,,-2.95E-06,0.0230425
,,,-2.94E-06,0.022840625
,,,-2.93E-06,0.02315
,,,-2.92E-06,0.022984375
,,,-2.91E-06,0.023148125
,,,-2.9E-06,0.022933125
,,,-2.89E-06,0.022664375
,,,-2.88E-06,0.02306875
,,,-2.87E-06,0.022866875
,,,-2.86E-06,0.02307125
,,,-2.85E-06,0.023094375
,,,-2.84E-06,0.023165625
,,,-2.83E-06,0.022865625
,,,-2.82E-06,0.022911875
,,,-2.81E-06,0.022938125
,,,-2.8E-06,0.0229225
,,,-2.79E-06,0.02284875
,,,-2.78E-06,0.0230025
,,,-2.77E-06,0.02326375
,,,-2.76E-06,0.022898125
,,,-2.75E-06,0.023004375
,,,-2.74E-06,0.023260625
,,,-2.73E-06,0.0228725
,,,-2.72E-06,0.02312875
,,,-2.71E-06,0.022895625
,,,-2.7E-06,0.02296625
,,,-2.69E-06,0.02287375
,,,-2.68E-06,0.022759375
,,,-2.67E-06,0.023065625
,,,-2.66E-06,0.022944375
,,,-2.65E-06,0.0229825
,,,-2.64E-06,0.022985625
,,,-2.63E-06,0.0229275
,,,-2.62E-06,0.02296875
,,,-2.61E-06,0.0230075
,,,-2.6E-06,0.022875
,,,-2.59E-06,0.02307875
,,,-2.58E-06,0.02295625
,,,-2.57E-06,0.022985
,,,-2.56E-06,0.022846875
,,,-2.55E-06,0.0229525
,,,-2.54E-06,0.023065
,,,-2.53E-06,0.023124375
,,,-2.52E-06,0.023086875
,,,-2.51E-06,0.023063125
,,,-2.5E-06,0.023003125
,,,-2.49E-06,0.023238125
,,,-2.48E-06,0.0231575
,,,-2.47E-06,0.02304375
,,,-2.46E-06,0.0231825
,,,-2.45E-06,0.023125
,,,-2.44E-06,0.022910625
,,,-2.43E-06,0.023043125
,,,-2.42E-06,0.0231975
,,,-2.41E-06,0.022789375
,,,-2.4E-06,0.0229525
,,,-2.39E-06,0.023075625
,,,-2.38E-06,0.022873125
,,,-2.37E-06,0.023070625
,,,-2.36E-06,0.0228175
,,,-2.35E-06,0.0227725
,,,-2.34E-06,0.023181875
,,,-2.33E-06,0.023163125
,,,-2.32E-06,0.023005625
,,,-2.31E-06,0.023041875
,,,-2.3E-06,0.022974375
,,,-2.29E-06,0.0231425
,,,-2.28E-06,0.022655625
,,,-2.27E-06,0.023011875
,,,-2.26E-06,0.022904375
,,,-2.25E-06,0.022990625
,,,-2.24E-06,0.02296875
,,,-2.23E-06,0.023005
,,,-2.22E-06,0.02291
,,,-2.21E-06,0.0230575
,,,-2.2E-06,0.023014375
,,,-2.19E-06,0.02294125
,,,-2.18E-06,0.022848125
,,,-2.17E-06,0.022955625
,,,-2.16E-06,0.022853125
,,,-2.15E-06,0.022885
,,,-2.14E-06,0.023036875
,,,-2.13E-06,0.022828125
,,,-2.12E-06,0.02288625
,,,-2.11E-06,0.022921875
,,,-2.1E-06,0.0229775
,,,-2.09E-06,0.022875625
,,,-2.08E-06,0.022913125
,,,-2.07E-06,0.0228325
,,,-2.06E-06,0.0227475
,,,-2.05E-06,0.022865625
,,,-2.04E-06,0.0230325
,,,-2.03E-06,0.02292
,,,-2.02E-06,0.0229025
,,,-2.01E-06,0.023094375
,,,-2E-06,0.02300625
,,,-1.99E-06,0.02300625
,,,-1.98E-06,0.023175625
,,,-1.97E-06,0.022909375
,,,-1.96E-06,0.022790625
,,,-1.95E-06,0.02299625
,,,-1.94E-06,0.023118125
,,,-1.93E-06,0.022884375
,,,-1.92E-06,0.023096875
,,,-1.91E-06,0.023361875
,,,-1.9E-06,0.022835625
,,,-1.89E-06,0.022953125
,,,-1.88E-06,0.022914375
,,,-1.87E-06,0.022979375
,,,-1.86E-06,0.0229225
,,,-1.85E-06,0.023121875
,,,-1.84E-06,0.02320125
,,,-1.83E-06,0.022821875
,,,-1.82E-06,0.023133125
,,,-1.81E-06,0.02301875
,,,-1.8E-06,0.0229575
,,,-1.79E-06,0.023061875
,,,-1.78E-06,0.023205
,,,-1.77E-06,0.0230025
,,,-1.76E-06,0.0231775
,,,-1.75E-06,0.02298875
,,,-1.74E-06,0.02308125
,,,-1.73E-06,0.02292
,,,-1.72E-06,0.02306625
,,,-1.71E-06,0.02308875
,,,-1.7E-06,0.022850625
,,,-1.69E-06,0.02281125
,,,-1.68E-06,0.023284375
,,,-1.67E-06,0.0230925
,,,-1.66E-06,0.023043125
,,,-1.65E-06,0.02278375
,,,-1.64E-06,0.023131875
,,,-1.63E-06,0.023
,,,-1.62E-06,0.023028125
,,,-1.61E-06,0.022786875
,,,-1.6E-06,0.02289
,,,-1.59E-06,0.0230775
,,,-1.58E-06,0.023025
,,,-1.57E-06,0.023176875
,,,-1.56E-06,0.022859375
,,,-1.55E-06,0.022938125
,,,-1.54E-06,0.02293875
,,,-1.53E-06,0.02325375
,,,-1.52E-06,0.02285
,,,-1.51E-06,0.022845
,,,-1.5E-06,0.02292
,,,-1.49E-06,0.02301375
,,,-1.48E-06,0.022958125
,,,-1.47E-06,0.02297875
,,,-1.46E-06,0.02296875
,,,-1.45E-06,0.02277
,,,-1.44E-06,0.02296625
,,,-1.43E-06,0.0229175
,,,-1.42E-06,0.023088125
,,,-1.41E-06,0.022823125
,,,-1.4E-06,0.02314625
,,,-1.39E-06,0.022841875
,,,-1.38E-06,0.0230025
,,,-1.37E-06,0.023000625
,,,-1.36E-06,0.02306
,,,-1.35E-06,0.023015625
,,,-1.34E-06,0.02280875
,,,-1.33E-06,0.022994375
,,,-1.32E-06,0.023105625
,,,-1.31E-06,0.02317125
,,,-1.3E-06,0.022979375
,,,-1.29E-06,0.02295625
,,,-1.28E-06,0.0231
,,,-1.27E-06,0.022779375
,,,-1.26E-06,0.023160625
,,,-1.25E-06,0.023109375
,,,-1.24E-06,0.02308
,,,-1.23E-06,0.022885625
,,,-1.22E-06,0.02284875
,,,-1.21E-06,0.023041875
,,,-1.2E-06,0.023158125
,,,-1.19E-06,0.023075
,,,-1.18E-06,0.0228175
,,,-1.17E-06,0.022915625
,,,-1.16E-06,0.022979375
,,,-1.15E-06,0.023019375
,,,-1.14E-06,0.02309
,,,-1.13E-06,0.02291625
,,,-1.12E-06,0.022815625
,,,-1.11E-06,0.023030625
,,,-1.1E-06,0.022995
,,,-1.09E-06,0.022843125
,,,-1.08E-06,0.02313875
,,,-1.07E-06,0.023139375
,,,-1.06E-06,0.0228925
,,,-1.05E-06,0.02293375
,,,-1.04E-06,0.0230525
,,,-1.03E-06,0.02308875
,,,-1.02E-06,0.023010625
,,,-1.01E-06,0.0227775
,,,-1E-06,0.023033125
,,,-9.9E-07,0.022908125
,,,-9.8E-07,0.023148125
,,,-9.7E-07,0.023008125
,,,-9.6E-07,0.022846875
,,,-9.5E-07,0.02310875
,,,-9.4E-07,0.023105
,,,-9.3E-07,0.0231725
,,,-9.2E-07,0.023260625
,,,-9.1E-07,0.02317375
,,,-9E-07,0.0232725
,,,-8.9E-07,0.023241875
,,,-8.8E-07,0.02323875
,,,-8.7E-07,0.02293125
,,,-8.6E-07,0.023019375
,,,-8.5E-07,0.02285375
,,,-8.4E-07,0.02292125
,,,-8.3E-07,0.0228925
,,,-8.2E-07,0.0230825
,,,-8.1E-07,0.023171875
,,,-8E-07,0.023153125
,,,-7.9E-07,0.02312875
,,,-7.8E-07,0.0229475
,,,-7.7E-07,0.022909375
,,,-7.6E-07,0.022945625
,,,-7.5E-07,0.022910625
,,,-7.4E-07,0.022785
,,,-7.3E-07,0.02303625
,,,-7.2E-07,0.022915625
,,,-7.1E-07,0.02317375
,,,-7E-07,0.02310375
,,,-6.9E-07,0.022916875
,,,-6.8E-07,0.0229075
,,,-6.7E-07,0.02285375
,,,-6.6E-07,0.022895
,,,-6.5E-07,0.02296625
,,,-6.4E-07,0.022789375
,,,-6.3E-07,0.0228675
,,,-6.2E-07,0.0231
,,,-6.1E-07,0.023036875
,,,-6E-07,0.023018125
,,,-5.9E-07,0.023035
,,,-5.8E-07,0.022998125
,,,-5.7E-07,0.02276375
,,,-5.6E-07,0.023005
,,,-5.5E-07,0.022895
,,,-5.4E-07,0.02288625
,,,-5.3E-07,0.0227775
,,,-5.2E-07,0.022969375
,,,-5.1E-07,0.02281625
,,,-5E-07,0.022835625
,,,-4.9E-07,0.023158125
,,,-4.8E-07,0.023093125
,,,-4.7E-07,0.0229875
,,,-4.6E-07,0.022870625
,,,-4.5E-07,0.02296125
,,,-4.4E-07,0.0230925
,,,-4.3E-07,0.0231925
,,,-4.2E-07,0.0232825
,,,-4.1E-07,0.0230175
,,,-4E-07,0.02295875
,,,-3.9E-07,0.023090625
,,,-3.8E-07,0.023155625
,,,-3.7E-07,0.02301
,,,-3.6E-07,0.022940625
,,,-3.5E-07,0.022888125
,,,-3.4E-07,0.0230875
,,,-3.3E-07,0.02293
,,,-3.2E-07,0.02319125
,,,-3.1E-07,0.023220625
,,,-3E-07,0.022905625
,,,-2.9E-07,0.022893125
,,,-2.8E-07,0.022885625
,,,-2.7E-07,0.023096875
,,,-2.6E-07,0.02317
,,,-2.5E-07,0.02308375
,,,-2.4E-07,0.02288125
,,,-2.3E-07,0.02284125
,,,-2.2E-07,0.0228725
,,,-2.1E-07,0.023124375
,,,-2E-07,0.023040625
,,,-1.9E-07,0.022878125
,,,-1.8E-07,0.0231175
,,,-1.7E-07,0.02304
,,,-1.6E-07,0.023033125
,,,-1.5E-07,0.02299125
,,,-1.4E-07,0.02296125
,,,-1.3E-07,0.023066875
,,,-1.2E-07,0.02305
,,,-1.1E-07,0.023303125
,,,-1E-07,0.02298375
,,,-9E-08,0.023566875
,,,-8E-08,0.02249125
,,,-7E-08,0.0221225
,,,-6E-08,0.022775625
,,,-5E-08,0.02367625
,,,-4E-08,0.024826875
,,,-3E-08,0.024039375
,,,-2E-08,0.020871875
,,,-1E-08,0.019318125
,,,0,0.02156875
,,,1E-08,0.025029375
,,,2E-08,0.026573125
,,,3E-08,0.02495125
,,,4E-08,0.022354375
,,,5E-08,0.02067625
,,,6E-08,0.020458125
,,,7E-08,0.022484375
,,,8E-08,0.023518125
,,,9E-08,0.024715
,,,1E-07,0.02433625
,,,1.1E-07,0.023274375
,,,1.2E-07,0.02192125
,,,1.3E-07,0.022255
,,,1.4E-07,0.02253
,,,1.5E-07,0.02320125
,,,1.6E-07,0.02312375
,,,1.7E-07,0.02296125
,,,1.8E-07,0.02307625
,,,1.9E-07,0.0231025
,,,2E-07,0.022834375
,,,2.1E-07,0.022675625
,,,2.2E-07,0.022818125
,,,2.3E-07,0.022870625
,,,2.4E-07,0.02293125
,,,2.5E-07,0.023129375
,,,2.6E-07,0.02326625
,,,2.7E-07,0.023198125
,,,2.8E-07,0.023045625
,,,2.9E-07,0.02296625
,,,3E-07,0.0228475
,,,3.1E-07,0.022705
,,,3.2E-07,0.022989375
,,,3.3E-07,0.022950625
,,,3.4E-07,0.023053125
,,,3.5E-07,0.022893125
,,,3.6E-07,0.02287625
,,,3.7E-07,0.0229775
,,,3.8E-07,0.02314375
,,,3.9E-07,0.0229425
,,,4E-07,0.023219375
,,,4.1E-07,0.02318625
,,,4.2E-07,0.0230525
,,,4.3E-07,0.02304625
,,,4.4E-07,0.023033125
,,,4.5E-07,0.0229875
,,,4.6E-07,0.02308125
,,,4.7E-07,0.022965
,,,4.8E-07,0.0229
,,,4.9E-07,0.023080625
,,,5E-07,0.022935625
,,,5.1E-07,0.023000625
,,,5.2E-07,0.023066875
,,,5.3E-07,0.02283125
,,,5.4E-07,0.023019375
,,,5.5E-07,0.022981875
,,,5.6E-07,0.022896875
,,,5.7E-07,0.023105625
,,,5.8E-07,0.022869375
,,,5.9E-07,0.0230875
,,,6E-07,0.02297875
,,,6.1E-07,0.022925
,,,6.2E-07,0.02293375
,,,6.3E-07,0.023065
,,,6.4E-07,0.02297
,,,6.5E-07,0.022745
,,,6.6E-07,0.02273125
,,,6.7E-07,0.023275
,,,6.8E-07,0.02274875
,,,6.9E-07,0.022909375
,,,7E-07,0.022983125
,,,7.1E-07,0.022690625
,,,7.2E-07,0.022888125
,,,7.3E-07,0.022815
,,,7.4E-07,0.022876875
,,,7.5E-07,0.023076875
,,,7.6E-07,0.02289375
,,,7.7E-07,0.02292125
,,,7.8E-07,0.023031875
,,,7.9E-07,0.023014375
,,,8E-07,0.022753125
,,,8.1E-07,0.022970625
,,,8.2E-07,0.023059375
,,,8.3E-07,0.022955
,,,8.4E-07,0.02306875
,,,8.5E-07,0.02297625
,,,8.6E-07,0.023249375
,,,8.7E-07,0.022780625
,,,8.8E-07,0.02304875
,,,8.9E-07,0.02305375
,,,9E-07,0.023058125
,,,9.1E-07,0.023048125
,,,9.2E-07,0.0230775
,,,9.3E-07,0.02282625
,,,9.4E-07,0.0232125
,,,9.5E-07,0.023011875
,,,9.6E-07,0.02293125
,,,9.7E-07,0.023159375
,,,9.8E-07,0.023069375
,,,9.9E-07,0.02298125
,,,1E-06,0.023146875
,,,1.01E-06,0.023135
,,,1.02E-06,0.023101875
,,,1.03E-06,0.022765
,,,1.04E-06,0.023034375
,,,1.05E-06,0.022775625
,,,1.06E-06,0.022940625
,,,1.07E-06,0.023000625
,,,1.08E-06,0.02287375
,,,1.09E-06,0.022948125
,,,1.1E-06,0.02285625
,,,1.11E-06,0.023
,,,1.12E-06,0.02306875
,,,1.13E-06,0.02289625
,,,1.14E-06,0.022844375
,,,1.15E-06,0.022791875
,,,1.16E-06,0.0231325
,,,1.17E-06,0.022956875
,,,1.18E-06,0.022920625
,,,1.19E-06,0.02294625
,,,1.2E-06,0.022911875
,,,1.21E-06,0.022888125
,,,1.22E-06,0.023209375
,,,1.23E-06,0.02299375
,,,1.24E-06,0.02300125
,,,1.25E-06,0.023108125
,,,1.26E-06,0.022896875
,,,1.27E-06,0.022908125
,,,1.28E-06,0.0228975
,,,1.29E-06,0.02313875
,,,1.3E-06,0.02298875
,,,1.31E-06,0.02295125
,,,1.32E-06,0.023014375
,,,1.33E-06,0.023051875
,,,1.34E-06,0.023115625
,,,1.35E-06,0.022815625
,,,1.36E-06,0.02310625
,,,1.37E-06,0.02300125
,,,1.38E-06,0.0231675
,,,1.39E-06,0.023086875
,,,1.4E-06,0.022763125
,,,1.41E-06,0.02286625
,,,1.42E-06,0.023003125
,,,1.43E-06,0.02294875
,,,1.44E-06,0.022906875
,,,1.45E-06,0.02275875
,,,1.46E-06,0.02304
,,,1.47E-06,0.02303875
,,,1.48E-06,0.02309
,,,1.49E-06,0.02325125
,,,1.5E-06,0.022939375
,,,1.51E-06,0.023141875
,,,1.52E-06,0.022748125
,,,1.53E-06,0.0229425
,,,1.54E-06,0.023
,,,1.55E-06,0.022999375
,,,1.56E-06,0.02312125
,,,1.57E-06,0.0230425
,,,1.58E-06,0.023021875
,,,1.59E-06,0.023040625
,,,1.6E-06,0.022955625
,,,1.61E-06,0.0230475
,,,1.62E-06,0.02295875
,,,1.63E-06,0.022828125
,,,1.64E-06,0.023179375
,,,1.65E-06,0.022835
,,,1.66E-06,0.0228975
,,,1.67E-06,0.022975625
,,,1.68E-06,0.02287
,,,1.69E-06,0.02297375
,,,1.7E-06,0.022785
,,,1.71E-06,0.02292625
,,,1.72E-06,0.02284875
,,,1.73E-06,0.022820625
,,,1.74E-06,0.023026875
,,,1.75E-06,0.023066875
,,,1.76E-06,0.02301625
,,,1.77E-06,0.02323375
,,,1.78E-06,0.023003125
,,,1.79E-06,0.02287625
,,,1.8E-06,0.0228525
,,,1.81E-06,0.02299625
,,,1.82E-06,0.023130625
,,,1.83E-06,0.023040625
,,,1.84E-06,0.023030625
,,,1.85E-06,0.02273625
,,,1.86E-06,0.022995625
,,,1.87E-06,0.023001875
,,,1.88E-06,0.022806875
,,,1.89E-06,0.02296
,,,1.9E-06,0.022885
,,,1.91E-06,0.022999375
,,,1.92E-06,0.022845625
,,,1.93E-06,0.022919375
,,,1.94E-06,0.02293
,,,1.95E-06,0.022966875
,,,1.96E-06,0.023030625
,,,1.97E-06,0.022824375
,,,1.98E-06,0.023059375
,,,1.99E-06,0.023055625
,,,2E-06,0.023085
,,,2.01E-06,0.022955625
,,,2.02E-06,0.023001875
,,,2.03E-06,0.02299875
,,,2.04E-06,0.023046875
,,,2.05E-06,0.02303375
,,,2.06E-06,0.022965
,,,2.07E-06,0.02309375
,,,2.08E-06,0.022836875
,,,2.09E-06,0.02299
,,,2.1E-06,0.023215
,,,2.11E-06,0.0229075
,,,2.12E-06,0.02297375
,,,2.13E-06,0.023136875
,,,2.14E-06,0.023046875
,,,2.15E-06,0.023168125
,,,2.16E-06,0.023105
,,,2.17E-06,0.02293375
,,,2.18E-06,0.022884375
,,,2.19E-06,0.022953125
,,,2.2E-06,0.022913125
,,,2.21E-06,0.022896875
,,,2.22E-06,0.023115625
,,,2.23E-06,0.0230075
,,,2.24E-06,0.02300875
,,,2.25E-06,0.022889375
,,,2.26E-06,0.023238125
,,,2.27E-06,0.02279625
,,,2.28E-06,0.022964375
,,,2.29E-06,0.023089375
,,,2.3E-06,0.02294875
,,,2.31E-06,0.02288875
,,,2.32E-06,0.023064375
,,,2.33E-06,0.02309625
,,,2.34E-06,0.022678125
,,,2.35E-06,0.022911875
,,,2.36E-06,0.023115625
,,,2.37E-06,0.0231375
,,,2.38E-06,0.0227475
,,,2.39E-06,0.02267
,,,2.4E-06,0.02301625
,,,2.41E-06,0.022971875
,,,2.42E-06,0.0226075
,,,2.43E-06,0.02308
,,,2.44E-06,0.02330625
,,,2.45E-06,0.02299
,,,2.46E-06,0.023035625
,,,2.47E-06,0.02291
,,,2.48E-06,0.022720625
,,,2.49E-06,0.023000625
,,,2.5E-06,0.02302625
,,,2.51E-06,0.0227875
,,,2.52E-06,0.0229375
,,,2.53E-06,0.022844375
,,,2.54E-06,0.023211875
,,,2.55E-06,0.022776875
,,,2.56E-06,0.0230175
,,,2.57E-06,0.023080625
,,,2.58E-06,0.022804375
,,,2.59E-06,0.02306875
,,,2.6E-06,0.023175625
,,,2.61E-06,0.022900625
,,,2.62E-06,0.0229525
,,,2.63E-06,0.02310625
,,,2.64E-06,0.0231925
,,,2.65E-06,0.0227475
,,,2.66E-06,0.0230025
,,,2.67E-06,0.023001875
,,,2.68E-06,0.022745
,,,2.69E-06,0.022894375
,,,2.7E-06,0.0230975
,,,2.71E-06,0.023015625
,,,2.72E-06,0.023031875
,,,2.73E-06,0.0229625
,,,2.74E-06,0.02293375
,,,2.75E-06,0.02299625
,,,2.76E-06,0.02285
,,,2.77E-06,0.022938125
,,,2.78E-06,0.022869375
,,,2.79E-06,0.023091875
,,,2.8E-06,0.023315
,,,2.81E-06,0.02287125
,,,2.82E-06,0.023045625
,,,2.83E-06,0.022935
,,,2.84E-06,0.02305375
,,,2.85E-06,0.023059375
,,,2.86E-06,0.02267
,,,2.87E-06,0.02301125
,,,2.88E-06,0.022940625
,,,2.89E-06,0.023204375
,,,2.9E-06,0.023045
,,,2.91E-06,0.02284875
,,,2.92E-06,0.02311125
,,,2.93E-06,0.023274375
,,,2.94E-06,0.02302125
,,,2.95E-06,0.02286625
,,,2.96E-06,0.0233775
,,,2.97E-06,0.0229575
,,,2.98E-06,0.023048125
,,,2.99E-06,0.02297625
,,,3E-06,0.022833125
,,,3.01E-06,0.023001875
,,,3.02E-06,0.02272
,,,3.03E-06,0.02299625
,,,3.04E-06,0.02317125
,,,3.05E-06,0.02323125
,,,3.06E-06,0.023265
,,,3.07E-06,0.02317375
,,,3.08E-06,0.022905625
,,,3.09E-06,0.02310375
,,,3.1E-06,0.0230725
,,,3.11E-06,0.02307375
,,,3.12E-06,0.0230175
,,,3.13E-06,0.022891875
,,,3.14E-06,0.023155
,,,3.15E-06,0.022978125
,,,3.16E-06,0.02316875
,,,3.17E-06,0.023056875
,,,3.18E-06,0.02296875
,,,3.19E-06,0.02293125
,,,3.2E-06,0.02296125
,,,3.21E-06,0.022888125
,,,3.22E-06,0.02316375
,,,3.23E-06,0.02288125
,,,3.24E-06,0.022890625
,,,3.25E-06,0.023011875
,,,3.26E-06,0.022948125
,,,3.27E-06,0.023080625
,,,3.28E-06,0.0228775
,,,3.29E-06,0.02308375
,,,3.3E-06,0.023040625
,,,3.31E-06,0.023036875
,,,3.32E-06,0.02286625
,,,3.33E-06,0.02303375
,,,3.34E-06,0.022849375
,,,3.35E-06,0.02294125
,,,3.36E-06,0.02286375
,,,3.37E-06,0.0231025
,,,3.38E-06,0.02306
,,,3.39E-06,0.023086875
,,,3.4E-06,0.02302625
,,,3.41E-06,0.02309625
,,,3.42E-06,0.022935
,,,3.43E-06,0.02306375
,,,3.44E-06,0.02262625
,,,3.45E-06,0.023174375
,,,3.46E-06,0.022884375
,,,3.47E-06,0.02298625
,,,3.48E-06,0.023090625
,,,3.49E-06,0.02310875
,,,3.5E-06,0.02302875
,,,3.51E-06,0.023030625
,,,3.52E-06,0.022850625
,,,3.53E-06,0.02273
,,,3.54E-06,0.023163125
,,,3.55E-06,0.022995625
,,,3.56E-06,0.022944375
