data/raw/Final_POL_Test_1/SOP013_Ch3.csv

"Record Length",1000,"Points",-5E-06,0.019446251
"Sample Interval",1E-08,s,-4.99E-06,0.019561876
"Trigger Point",500,"Samples",-4.98E-06,0.019376876
"Trigger Time",0,s,-4.97E-06,0.019535001
"",,,-4.96E-06,0.019472501
"Horizontal Offset",-5E-06,s,-4.95E-06,0.019590001
,,,-4.94E-06,0.019632501
,,,-4.93E-06,0.019406251
,,,-4.92E-06,0.019726251
,,,-4.91E-06,0.019561251
,,,-4.9E-06,0.019476251
,,,-4.89E-06,0.019402501
,,,-4.88E-06,0.019255626
,,,-4.87E-06,0.019522501
,,,-4.86E-06,0.019522501
,,,-4.85E-06,0.019398751
,,,-4.84E-06,0.019425626
,,,-4.83E-06,0.019445626
,,,-4.82E-06,0.019432501
,,,-4.81E-06,0.019561876
,,,-4.8E-06,0.019455626
,,,-4.79E-06,0.019803751
,,,-4.78E-06,0.019515626
,,,-4.77E-06,0.019585001
,,,-4.76E-06,0.019353126
,,,-4.75E-06,0.019548751
,,,-4.74E-06,0.019618751
,,,-4.73E-06,0.019558751
,,,-4.72E-06,0.019707501
,,,-4.71E-06,0.019355001
,,,-4.7E-06,0.019294376
,,,-4.69E-06,0.019640626
,,,-4.68E-06,0.019280626
,,,-4.67E-06,0.019747501
,,,-4.66E-06,0.019418751
,,,-4.65E-06,0.019365001
,,,-4.64E-06,0.019675001
,,,-4.63E-06,0.019551251
,,,-4.62E-06,0.019433751
,,,-4.61E-06,0.019337501
,,,-4.6E-06,0.019714376
,,,-4.59E-06,0.019434376
,,,-4.58E-06,0.019628751
,,,-4.57E-06,0.019840001
,,,-4.56E-06,0.019511876
,,,-4.55E-06,0.019592501
,,,-4.54E-06,0.019595626
,,,-4.53E-06,0.019531876
,,,-4.52E-06,0.019502501
,,,-4.51E-06,0.019501876
,,,-4.5E-06,0.019490001
,,,-4.49E-06,0.019741876
,,,-4.48E-06,0.019498751
,,,-4.47E-06,0.019617501
,,,-4.46E-06,0.019658751
,,,-4.45E-06,0.019838126
,,,-4.44E-06,0.019588751
,,,-4.43E-06,0.019514376
,,,-4.42E-06,0.019487501
,,,-4.41E-06,0.019385626
,,,-4.4E-06,0.019780001
,,,-4.39E-06,0.019629376
,,,-4.38E-06,0.019723751
,,,-4.37E-06,0.019667501
,,,-4.36E-06,0.019565626
,,,-4.35E-06,0.019776251
,,,-4.34E-06,0.019450001
,,,-4.33E-06,0.019578751
,,,-4.32E-06,0.019616251
,,,-4.31E-06,0.019486876
,,,-4.3E-06,0.019596876
,,,-4.29E-06,0.019505001
,,,-4.28E-06,0.019603126
,,,-4.27E-06,0.019483126
,,,-4.26E-06,0.019443126
,,,-4.25E-06,0.019519376
,,,-4.24E-06,0.019840626
,,,-4.23E-06,0.019332501
,,,-4.22E-06,0.019678751
,,,-4.21E-06,0.019510626
,,,-4.2E-06,0.019660626
,,,-4.19E-06,0.019147501
,,,-4.18E-06,0.019588751
,,,-4.17E-06,0.019350001
,,,-4.16E-06,0.019730001
,,,-4.15E-06,0.019640001
,,,-4.14E-06,0.019423751
,,,-4.13E-06,0.019562501
,,,-4.12E-06,0.019549376
,,,-4.11E-06,0.019548126
,,,-4.1E-06,0.019505626
,,,-4.09E-06,0.019621876
,,,-4.08E-06,0.019478751
,,,-4.07E-06,0.019561251
,,,-4.06E-06,0.019445626
,,,-4.05E-06,0.019326876
,,,-4.04E-06,0.019403126
,,,-4.03E-06,0.019439376
,,,-4.02E-06,0.019678126
,,,-4.01E-06,0.019497501
,,,-4E-06,0.019571876
,,,-3.99E-06,0.019622501
,,,-3.98E-06,0.019444376
,,,-3.97E-06,0.019668751
,,,-3.96E-06,0.019758126
,,,-3.95E-06,0.019682501
,,,-3.94E-06,0.019429376
,,,-3.93E-06,0.019443126
,,,-3.92E-06,0.019720001
,,,-3.91E-06,0.019481251
,,,-3.9E-06,0.019730626
,,,-3.89E-06,0.019433751
,,,-3.88E-06,0.019520626
,,,-3.87E-06,0.019270626
,,,-3.86E-06,0.019427501
,,,-3.85E-06,0.019461876
,,,-3.84E-06,0.019478751
,,,-3.83E-06,0.019436876
,,,-3.82E-06,0.019612501
,,,-3.81E-06,0.019587501
,,,-3.8E-06,0.019614376
,,,-3.79E-06,0.019543751
,,,-3.78E-06,0.019722501
,,,-3.77E-06,0.019496251
,,,-3.76E-06,0.019435626
,,,-3.75E-06,0.019583751
,,,-3.74E-06,0.019588751
,,,-3.73E-06,0.019669376
,,,-3.72E-06,0.019528751
,,,-3.71E-06,0.019627501
,,,-3.7E-06,0.019341251
,,,-3.69E-06,0.019671251
,,,-3.68E-06,0.019491251
,,,-3.67E-06,0.019315626
,,,-3.66E-06,0.019678126
,,,-3.65E-06,0.019298126
,,,-3.64E-06,0.019745626
,,,-3.63E-06,0.019718751
,,,-3.62E-06,0.019571876
,,,-3.61E-06,0.019320626
,,,-3.6E-06,0.019410001
,,,-3.59E-06,0.019595626
,,,-3.58E-06,0.019531251
,,,-3.57E-06,0.019598126
,,,-3.56E-06,0.019566251
,,,-3.55E-06,0.019346876
,,,-3.54E-06,0.019462501
,,,-3.53E-06,0.019384376
,,,-3.52E-06,0.019635001
,,,-3.51E-06,0.019636251
,,,-3.5E-06,0.019824376
,,,-3.49E-06,0.019513751
,,,-3.48E-06,0.019553751
,,,-3.47E-06,0.019307501
,,,-3.46E-06,0.019520001
,,,-3.45E-06,0.019292501
,,,-3.44E-06,0.019370001
,,,-3.43E-06,0.019565001
,,,-3.42E-06,0.019710001
,,,-3.41E-06,0.019794376
,,,-3.4E-06,0.019400001
,,,-3.39E-06,0.019730626
,,,-3.38E-06,0.019699376
,,,-3.37E-06,0.019266876
,,,-3.36E-06,0.019370001
,,,-3.35E-06,0.019457501
,,,-3.34E-06,0.019523126
,,,-3.33E-06,0.019456251
,,,-3.32E-06,0.019548751
,,,-3.31E-06,0.019499376
,,,-3.3E-06,0.019548751
,,,-3.29E-06,0.019328126
,,,-3.28E-06,0.019400626
,,,-3.27E-06,0.019406876
,,,-3.26E-06,0.019355001
,,,-3.25E-06,0.019705001
,,,-3.24E-06,0.019583126
,,,-3.23E-06,0.019454376
,,,-3.22E-06,0.019226251
,,,-3.21E-06,0.019220626
,,,-3.2E-06,0.019712501
,,,-3.19E-06,0.019696251
,,,-3.18E-06,0.019420001
,,,-3.17E-06,0.019652501
,,,-3.16E-06,0.019320626
,,,-3.15E-06,0.019643126
,,,-3.14E-06,0.019601251
,,,-3.13E-06,0.019530001
,,,-3.12E-06,0.019292501
,,,-3.11E-06,0.019592501
,,,-3.1E-06,0.019272501
,,,-3.09E-06,0.019536876
,,,-3.08E-06,0.019568751
,,,-3.07E-06,0.019471876
,,,-3.06E-06,0.019562501
,,,-3.05E-06,0.019340626
,,,-3.04E-06,0.019456251
,,,-3.03E-06,0.019505626
,,,-3.02E-06,0.019409376
,,,-3.01E-06,0.019476876
,,,-3E-06,0.019443126
,,,-2.99E-06,0.019535001
,,,-2.98E-06,0.019548751
,,,-2.97E-06,0.019570001
,,,-2.96E-06,0.019408126
,,,-2.95E-06,0.019479376
,,,-2.94E-06,0.019497501
,,,-2.93E-06,0.019769376
,,,-2.92E-06,0.019520001
,,,-2.91E-06,0.019585001
,,,-2.9E-06,0.019565001
,,,-2.89E-06,0.019832501
,,,-2.88E-06,0.019661251
,,,-2.87E-06,0.019616251
,,,-2.86E-06,0.019392501
,,,-2.85E-06,0.019765001
,,,-2.84E-06,0.019567501
,,,-2.83E-06,0.019537501
,,,-2.82E-06,0.019703751
,,,-2.81E-06,0.019536876
,,,-2.8E-06,0.019515626
,,,-2.79E-06,0.019641876
,,,-2.78E-06,0.019594376
,,,-2.77E-06,0.019193126
,,,-2.76E-06,0.019571876
,,,-2.75E-06,0.019364376
,,,-2.74E-06,0.019463751
,,,-2.73E-06,0.019571251
,,,-2.72E-06,0.019486876
,,,-2.71E-06,0.019672501
,,,-2.7E-06,0.019482501
,,,-2.69E-06,0.019387501
,,,-2.68E-06,0.019396876
,,,-2.67E-06,0.019341876
,,,-2.66E-06,0.019918751
,,,-2.65E-06,0.019487501
,,,-2.64E-06,0.019552501
,,,-2.63E-06,0.019724376
,,,-2.62E-06,0.019605001
,,,-2.61E-06,0.019472501
,,,-2.6E-06,0.019367501
,,,-2.59E-06,0.019526876
,,,-2.58E-06,0.019481251
,,,-2.57E-06,0.019606876
,,,-2.56E-06,0.019401876
,,,-2.55E-06,0.019566251
,,,-2.54E-06,0.019352501
,,,-2.53E-06,0.019496876
,,,-2.52E-06,0.019541251
,,,-2.51E-06,0.019629376
,,,-2.5E-06,0.019277501
,,,-2.49E-06,0.019803126
,,,-2.48E-06,0.019630626
,,,-2.47E-06,0.019265626
,,,-2.46E-06,0.019711876
,,,-2.45E-06,0.019585001
,,,-2.44E-06,0.019324376
,,,-2.43E-06,0.019691876
,,,-2.42E-06,0.019560001
,,,-2.41E-06,0.019508751
,,,-2.4E-06,0.019661876
,,,-2.39E-06,0.019516876
,,,-2.38E-06,0.019653126
,,,-2.37E-06,0.019274376
,,,-2.36E-06,0.019542501
,,,-2.35E-06,0.019555626
,,,-2.34E-06,0.019438126
,,,-2.33E-06,0.019641876
,,,-2.32E-06,0.019700626
,,,-2.31E-06,0.019564376
,,,-2.3E-06,0.019950626
,,,-2.29E-06,0.019653126
,,,-2.28E-06,0.019300626
,,,-2.27E-06,0.019571251
,,,-2.26E-06,0.019748126
,,,-2.25E-06,0.019506251
,,,-2.24E-06,0.019370001
,,,-2.23E-06,0.019520001
,,,-2.22E-06,0.019490626
,,,-2.21E-06,0.019236251
,,,-2.2E-06,0.019410001
,,,-2.19E-06,0.019563126
,,,-2.18E-06,0.019848126
,,,-2.17E-06,0.019517501
,,,-2.16E-06,0.019441876
,,,-2.15E-06,0.019727501
,,,-2.14E-06,0.019558751
,,,-2.13E-06,0.019367501
,,,-2.12E-06,0.019517501
,,,-2.11E-06,0.019531251
,,,-2.1E-06,0.019559376
,,,-2.09E-06,0.019320626
,,,-2.08E-06,0.019474376
,,,-2.07E-06,0.019438126
,,,-2.06E-06,0.019583751
,,,-2.05E-06,0.019555626
,,,-2.04E-06,0.019427501
,,,-2.03E-06,0.019550626
,,,-2.02E-06,0.019651251
,,,-2.01E-06,0.019811251
,,,-2E-06,0.019465626
,,,-1.99E-06,0.019652501
,,,-1.98E-06,0.019528751
,,,-1.97E-06,0.019408751
,,,-1.96E-06,0.019358751
,,,-1.95E-06,0.019478751
,,,-1.94E-06,0.019543126
,,,-1.93E-06,0.019591876
,,,-1.92E-06,0.019492501
,,,-1.91E-06,0.019433751
,,,-1.9E-06,0.019598751
,,,-1.89E-06,0.019585001
,,,-1.88E-06,0.019668126
,,,-1.87E-06,0.019741876
,,,-1.86E-06,0.019643751
,,,-1.85E-06,0.019466251
,,,-1.84E-06,0.019481876
,,,-1.83E-06,0.019492501
,,,-1.82E-06,0.019468126
,,,-1.81E-06,0.019573751
,,,-1.8E-06,0.019129376
,,,-1.79E-06,0.019546251
,,,-1.78E-06,0.019596876
,,,-1.77E-06,0.019450001
,,,-1.76E-06,0.019480001
,,,-1.75E-06,0.019733751
,,,-1.74E-06,0.019692501
,,,-1.73E-06,0.019415001
,,,-1.72E-06,0.019371251
,,,-1.71E-06,0.019707501
,,,-1.7E-06,0.019476251
,,,-1.69E-06,0.019385626
,,,-1.68E-06,0.019445626
,,,-1.67E-06,0.019766251
,,,-1.66E-06,0.019522501
,,,-1.65E-06,0.019632501
,,,-1.64E-06,0.019403751
,,,-1.63E-06,0.019415626
,,,-1.62E-06,0.019560626
,,,-1.61E-06,0.019381876
,,,-1.6E-06,0.019503126
,,,-1.59E-06,0.019318126
,,,-1.58E-06,0.019445001
,,,-1.57E-06,0.019406251
,,,-1.56E-06,0.019731251
,,,-1.55E-06,0.019595001
,,,-1.54E-06,0.019387501
,,,-1.53E-06,0.019627501
,,,-1.52E-06,0.019676251
,,,-1.51E-06,0.019578126
,,,-1.5E-06,0.019625626
,,,-1.49E-06,0.019694376
,,,-1.48E-06,0.019445626
,,,-1.47E-06,0.019362501
,,,-1.46E-06,0.019441251
,,,-1.45E-06,0.019476876
,,,-1.44E-06,0.019491876
,,,-1.43E-06,0.019500001
,,,-1.42E-06,0.019681876
,,,-1.41E-06,0.019801251
,,,-1.4E-06,0.019261876
,,,-1.39E-06,0.019416876
,,,-1.38E-06,0.019611251
,,,-1.37E-06,0.019625001
,,,-1.36E-06,0.019827501
,,,-1.35E-06,0.019185001
,,,-1.34E-06,0.019645001
,,,-1.33E-06,0.019242501
,,,-1.32E-06,0.019350001
,,,-1.31E-06,0.019628126
,,,-1.3E-06,0.019466876
,,,-1.29E-06,0.019355626
,,,-1.28E-06,0.019502501
,,,-1.27E-06,0.019431251
,,,-1.26E-06,0.019340001
,,,-1.25E-06,0.019608126
,,,-1.24E-06,0.019333751
,,,-1.23E-06,0.019491251
,,,-1.22E-06,0.019577501
,,,-1.21E-06,0.019501251
,,,-1.2E-06,0.019809376
,,,-1.19E-06,0.019505001
,,,-1.18E-06,0.019672501
,,,-1.17E-06,0.019310001
,,,-1.16E-06,0.019245001
,,,-1.15E-06,0.019530626
,,,-1.14E-06,0.019571876
,,,-1.13E-06,0.019425001
,,,-1.12E-06,0.019397501
,,,-1.11E-06,0.019461251
,,,-1.1E-06,0.019291876
,,,-1.09E-06,0.019380001
,,,-1.08E-06,0.019313751
,,,-1.07E-06,0.019683126
,,,-1.06E-06,0.019311876
,,,-1.05E-06,0.019323751
,,,-1.04E-06,0.019553126
,,,-1.03E-06,0.019426876
,,,-1.02E-06,0.019474376
,,,-1.01E-06,0.019708751
,,,-1E-06,0.019560626
,,,-9.9E-07,0.019341251
,,,-9.8E-07,0.019604376
,,,-9.7E-07,0.019497501
,,,-9.6E-07,0.019563751
,,,-9.5E-07,0.019532501
,,,-9.4E-07,0.019601876
,,,-9.3E-07,0.019543126
,,,-9.2E-07,0.019433126
,,,-9.1E-07,0.019360001
,,,-9E-07,0.019366876
,,,-8.9E-07,0.019498751
,,,-8.8E-07,0.019383751
,,,-8.7E-07,0.019775001
,,,-8.6E-07,0.019467501
,,,-8.5E-07,0.019444376
,,,-8.4E-07,0.019373751
,,,-8.3E-07,0.019571251
,,,-8.2E-07,0.019568126
,,,-8.1E-07,0.019483751
,,,-8E-07,0.019477501
,,,-7.9E-07,0.019654376
,,,-7.8E-07,0.019656251
,,,-7.7E-07,0.019542501
,,,-7.6E-07,0.019473751
,,,-7.5E-07,0.019635001
,,,-7.4E-07,0.019618751
,,,-7.3E-07,0.019595001
,,,-7.2E-07,0.019560626
,,,-7.1E-07,0.019750001
,,,-7E-07,0.019622501
,,,-6.9E-07,0.019454376
,,,-6.8E-07,0.019486876
,,,-6.7E-07,0.019443751
,,,-6.6E-07,0.019638126
,,,-6.5E-07,0.019439376
,,,-6.4E-07,0.019608751
,,,-6.3E-07,0.019521251
,,,-6.2E-07,0.019606876
,,,-6.1E-07,0.019460626
,,,-6E-07,0.019677501
,,,-5.9E-07,0.019401876
,,,-5.8E-07,0.019338126
,,,-5.7E-07,0.019641876
,,,-5.6E-07,0.019589376
,,,-5.5E-07,0.019571251
,,,-5.4E-07,0.019300626
,,,-5.3E-07,0.019479376
,,,-5.2E-07,0.019515626
,,,-5.1E-07,0.019456876
,,,-5E-07,0.019510626
,,,-4.9E-07,0.019555001
,,,-4.8E-07,0.019164376
,,,-4.7E-07,0.019475626
,,,-4.6E-07,0.019543751
,,,-4.5E-07,0.019633751
,,,-4.4E-07,0.019552501
,,,-4.3E-07,0.019590626
,,,-4.2E-07,0.019681876
,,,-4.1E-07,0.019445001
,,,-4E-07,0.019480626
,,,-3.9E-07,0.019374376
,,,-3.8E-07,0.019637501
,,,-3.7E-07,0.019680626
,,,-3.6E-07,0.019575626
,,,-3.5E-07,0.019474376
,,,-3.4E-07,0.019341876
,,,-3.3E-07,0.019717501
,,,-3.2E-07,0.019693751
,,,-3.1E-07,0.019554376
,,,-3E-07,0.019326251
,,,-2.9E-07,0.019284376
,,,-2.8E-07,0.019470001
,,,-2.7E-07,0.019541876
,,,-2.6E-07,0.019448751
,,,-2.5E-07,0.019492501
,,,-2.4E-07,0.019496876
,,,-2.3E-07,0.019686251
,,,-2.2E-07,0.019420001
,,,-2.1E-07,0.019366876
,,,-2E-07,0.019675001
,,,-1.9E-07,0.019566251
,,,-1.8E-07,0.019568126
,,,-1.7E-07,0.019411876
,,,-1.6E-07,0.019501876
,,,-1.5E-07,0.019811876
,,,-1.4E-07,0.019551876
,,,-1.3E-07,0.019588751
,,,-1.2E-07,0.019382501
,,,-1.1E-07,0.019591251
,,,-1E-07,0.019587501
,,,-9E-08,0.019556251
,,,-8E-08,0.019663751
,,,-7E-08,0.019428751
,,,-6E-08,0.019612501
,,,-5E-08,0.020216876
,,,-4E-08,0.019875001
,,,-3E-08,0.018401876
,,,-2E-08,0.018535626
,,,-1E-08,0.019155626
,,,0,0.020348126
,,,1E-08,0.020641251
,,,2E-08,0.020144376
,,,3E-08,0.019145001
,,,4E-08,0.018803751
,,,5E-08,0.018695001
,,,6E-08,0.019302501
,,,7E-08,0.019488751
,,,8E-08,0.019925001
,,,9E-08,0.020158751
,,,1E-07,0.019701876
,,,1.1E-07,0.019226251
,,,1.2E-07,0.019206251
,,,1.3E-07,0.019460626
,,,1.4E-07,0.019434376
,,,1.5E-07,0.019760626
,,,1.6E-07,0.019220626
,,,1.7E-07,0.019486251
,,,1.8E-07,0.019506251
,,,1.9E-07,0.019656876
,,,2E-07,0.019276876
,,,2.1E-07,0.019583126
,,,2.2E-07,0.019453751
,,,2.3E-07,0.019511876
,,,2.4E-07,0.019505001
,,,2.5E-07,0.019473751
,,,2.6E-07,0.019582501
,,,2.7E-07,0.019648126
,,,2.8E-07,0.019591876
,,,2.9E-07,0.019715001
,,,3E-07,0.019400626
,,,3.1E-07,0.019303751
,,,3.2E-07,0.019483751
,,,3.3E-07,0.019385626
,,,3.4E-07,0.019392501
,,,3.5E-07,0.019498126
,,,3.6E-07,0.019331251
,,,3.7E-07,0.019585001
,,,3.8E-07,0.019441876
,,,3.9E-07,0.019538126
,,,4E-07,0.019543751
,,,4.1E-07,0.019688126
,,,4.2E-07,0.019558751
,,,4.3E-07,0.019474376
,,,4.4E-07,0.019608751
,,,4.5E-07,0.019637501
,,,4.6E-07,0.019548126
,,,4.7E-07,0.019569376
,,,4.8E-07,0.019204376
,,,4.9E-07,0.019643751
,,,5E-07,0.019760626
,,,5.1E-07,0.019623751
,,,5.2E-07,0.019218126
,,,5.3E-07,0.019516251
,,,5.4E-07,0.019520001
,,,5.5E-07,0.019822501
,,,5.6E-07,0.019740626
,,,5.7E-07,0.019793751
,,,5.8E-07,0.019403126
,,,5.9E-07,0.019275626
,,,6E-07,0.019596876
,,,6.1E-07,0.019468126
,,,6.2E-07,0.019497501
,,,6.3E-07,0.019216876
,,,6.4E-07,0.019521251
,,,6.5E-07,0.019590001
,,,6.6E-07,0.019350626
,,,6.7E-07,0.019653126
,,,6.8E-07,0.019648126
,,,6.9E-07,0.019696876
,,,7E-07,0.019540001
,,,7.1E-07,0.019751876
,,,7.2E-07,0.019383751
,,,7.3E-07,0.019591876
,,,7.4E-07,0.019436251
,,,7.5E-07,0.019379376
,,,7.6E-07,0.019315001
,,,7.7E-07,0.019455626
,,,7.8E-07,0.019553751
,,,7.9E-07,0.019579376
,,,8E-07,0.019188126
,,,8.1E-07,0.019360626
,,,8.2E-07,0.019360001
,,,8.3E-07,0.019870001
,,,8.4E-07,0.019462501
,,,8.5E-07,0.019488751
,,,8.6E-07,0.019471876
,,,8.7E-07,0.019261251
,,,8.8E-07,0.019691876
,,,8.9E-07,0.019699376
,,,9E-07,0.019650626
,,,9.1E-07,0.019591876
,,,9.2E-07,0.019644376
,,,9.3E-07,0.019629376
,,,9.4E-07,0.019376251
,,,9.5E-07,0.019353126
,,,9.6E-07,0.019705001
,,,9.7E-07,0.019432501
,,,9.8E-07,0.019595001
,,,9.9E-07,0.019698751
,,,1E-06,0.019425001
,,,1.01E-06,0.019463751
,,,1.02E-06,0.019531876
,,,1.03E-06,0.019641251
,,,1.04E-06,0.019594376
,,,1.05E-06,0.019510001
,,,1.06E-06,0.019249376
,,,1.07E-06,0.019496876
,,,1.08E-06,0.019431876
,,,1.09E-06,0.019306251
,,,1.1E-06,0.019300626
,,,1.11E-06,0.019331876
,,,1.12E-06,0.019432501
,,,1.13E-06,0.019453751
,,,1.14E-06,0.019681251
,,,1.15E-06,0.019521876
,,,1.16E-06,0.019672501
,,,1.17E-06,0.019338126
,,,1.18E-06,0.019461876
,,,1.19E-06,0.019723751
,,,1.2E-06,0.019451251
,,,1.21E-06,0.019595626
,,,1.22E-06,0.019628126
,,,1.23E-06,0.019531876
,,,1.24E-06,0.019725001
,,,1.25E-06,0.019305001
,,,1.26E-06,0.019472501
,,,1.27E-06,0.019553126
,,,1.28E-06,0.019643751
,,,1.29E-06,0.019430001
,,,1.3E-06,0.019403751
,,,1.31E-06,0.019714376
,,,1.32E-06,0.019410626
,,,1.33E-06,0.019647501
,,,1.34E-06,0.019658126
,,,1.35E-06,0.019469376
,,,1.36E-06,0.019525626
,,,1.37E-06,0.019305001
,,,1.38E-06,0.019624376
,,,1.39E-06,0.019480001
,,,1.4E-06,0.019445001
,,,1.41E-06,0.019665626
,,,1.42E-06,0.019431251
,,,1.43E-06,0.019647501
,,,1.44E-06,0.019415626
,,,1.45E-06,0.019496876
,,,1.46E-06,0.019386251
,,,1.47E-06,0.019504376
,,,1.48E-06,0.019367501
,,,1.49E-06,0.019435626
,,,1.5E-06,0.019548126
,,,1.51E-06,0.019714376
,,,1.52E-06,0.019305626
,,,1.53E-06,0.019570001
,,,1.54E-06,0.019631876
,,,1.55E-06,0.019758126
,,,1.56E-06,0.019550001
,,,1.57E-06,0.019729376
,,,1.58E-06,0.019417501
,,,1.59E-06,0.019516876
,,,1.6E-06,0.019567501
,,,1.61E-06,0.019337501
,,,1.62E-06,0.019731876
,,,1.63E-06,0.019483751
,,,1.64E-06,0.019551251
,,,1.65E-06,0.019335626
,,,1.66E-06,0.019455001
,,,1.67E-06,0.019700626
,,,1.68E-06,0.019527501
,,,1.69E-06,0.019667501
,,,1.7E-06,0.019601876
,,,1.71E-06,0.019629376
,,,1.72E-06,0.019571251
,,,1.73E-06,0.019328126
,,,1.74E-06,0.019501876
,,,1.75E-06,0.019271876
,,,1.76E-06,0.019268126
,,,1.77E-06,0.019491876
,,,1.78E-06,0.019368126
,,,1.79E-06,0.019825001
,,,1.8E-06,0.019783126
,,,1.81E-06,0.019460001
,,,1.82E-06,0.019678751
,,,1.83E-06,0.019477501
,,,1.84E-06,0.019696251
,,,1.85E-06,0.019518126
,,,1.86E-06,0.019676876
,,,1.87E-06,0.019503751
,,,1.88E-06,0.019658751
,,,1.89E-06,0.019500626
,,,1.9E-06,0.019651876
,,,1.91E-06,0.019342501
,,,1.92E-06,0.019403751
,,,1.93E-06,0.019611251
,,,1.94E-06,0.019555001
,,,1.95E-06,0.019668126
,,,1.96E-06,0.019526876
,,,1.97E-06,0.019654376
,,,1.98E-06,0.019525001
,,,1.99E-06,0.019463751
,,,2E-06,0.019267501
,,,2.01E-06,0.019496876
,,,2.02E-06,0.019401251
,,,2.03E-06,0.019475626
,,,2.04E-06,0.019492501
,,,2.05E-06,0.019723751
,,,2.06E-06,0.019666251
,,,2.07E-06,0.019430626
,,,2.08E-06,0.019620001
,,,2.09E-06,0.019702501
,,,2.1E-06,0.019332501
,,,2.11E-06,0.019672501
,,,2.12E-06,0.019560626
,,,2.13E-06,0.019564376
,,,2.14E-06,0.019628126
,,,2.15E-06,0.019479376
,,,2.16E-06,0.019521876
,,,2.17E-06,0.019656251
,,,2.18E-06,0.019372501
,,,2.19E-06,0.019357501
,,,2.2E-06,0.019406251
,,,2.21E-06,0.019464376
,,,2.22E-06,0.019391876
,,,2.23E-06,0.019698751
,,,2.24E-06,0.019366251
,,,2.25E-06,0.019350001
,,,2.26E-06,0.019621251
,,,2.27E-06,0.019229376
,,,2.28E-06,0.019695001
,,,2.29E-06,0.019627501
,,,2.3E-06,0.019575626
,,,2.31E-06,0.019638751
,,,2.32E-06,0.019534376
,,,2.33E-06,0.019583751
,,,2.34E-06,0.019697501
,,,2.35E-06,0.019567501
,,,2.36E-06,0.019705001
,,,2.37E-06,0.019449376
,,,2.38E-06,0.019605626
,,,2.39E-06,0.019420001
,,,2.4E-06,0.019418751
,,,2.41E-06,0.019605001
,,,2.42E-06,0.019706876
,,,2.43E-06,0.019504376
,,,2.44E-06,0.019500626
,,,2.45E-06,0.019285001
,,,2.46E-06,0.019458751
,,,2.47E-06,0.019563751
,,,2.48E-06,0.019686251
,,,2.49E-06,0.019793751
,,,2.5E-06,0.019611876
,,,2.51E-06,0.019426876
,,,2.52E-06,0.019390626
,,,2.53E-06,0.019548126
,,,2.54E-06,0.019588751
,,,2.55E-06,0.019491251
,,,2.56E-06,0.019462501
,,,2.57E-06,0.019543751
,,,2.58E-06,0.019493751
,,,2.59E-06,0.019400626
,,,2.6E-06,0.019661251
,,,2.61E-06,0.019515626
,,,2.62E-06,0.019555001
,,,2.63E-06,0.019460001
,,,2.64E-06,0.019737501
,,,2.65E-06,0.019587501
,,,2.66E-06,0.019633751
,,,2.67E-06,0.019256251
,,,2.68E-06,0.019471876
,,,2.69E-06,0.019523751
,,,2.7E-06,0.019347501
,,,2.71E-06,0.019435001
,,,2.72E-06,0.019411876
,,,2.73E-06,0.019501876
,,,2.74E-06,0.019733126
,,,2.75E-06,0.019590001
,,,2.76E-06,0.019676251
,,,2.77E-06,0.019684376
,,,2.78E-06,0.019334376
,,,2.79E-06,0.019448751
,,,2.8E-06,0.019498126
,,,2.81E-06,0.019745626
,,,2.82E-06,0.019215626
,,,2.83E-06,0.019434376
,,,2.84E-06,0.019633126
,,,2.85E-06,0.019593126
,,,2.86E-06,0.019312501
,,,2.87E-06,0.019575626
,,,2.88E-06,0.019455626
,,,2.89E-06,0.019512501
,,,2.9E-06,0.019512501
,,,2.91E-06,0.019500001
,,,2.92E-06,0.019338751
,,,2.93E-06,0.019688751
,,,2.94E-06,0.019719376
,,,2.95E-06,0.019530001
,,,2.96E-06,0.019423751
,,,2.97E-06,0.019491251
,,,2.98E-06,0.019688751
,,,2.99E-06,0.019640626
,,,3E-06,0.019421876
,,,3.01E-06,0.019391876
,,,3.02E-06,0.019349376
,,,3.03E-06,0.019481876
,,,3.04E-06,0.019711876
,,,3.05E-06,0.019402501
,,,3.06E-06,0.019349376
,,,3.07E-06,0.019445626
,,,3.08E-06,0.019463751
,,,3.09E-06,0.019755001
,,,3.1E-06,0.019151876
,,,3.11E-06,0.019365001
,,,3.12E-06,0.019786251
,,,3.13E-06,0.019418126
,,,3.14E-06,0.019771251
,,,3.15E-06,0.019435626
,,,3.16E-06,0.019616251
,,,3.17E-06,0.019502501
,,,3.18E-06,0.019700001
,,,3.19E-06,0.019573126
,,,3.2E-06,0.019569376
,,,3.21E-06,0.019595626
