data/raw/Final_POL_Test_1/SOP092_Ch3.csv

"Record Length",1000,"Points",-5E-06,0.021535001
"Sample Interval",1E-08,s,-4.99E-06,0.021558751
"Trigger Point",500,"Samples",-4.98E-06,0.021556251
"Trigger Time",0,s,-4.97E-06,0.021521876
"",,,-4.96E-06,0.021128126
"Horizontal Offset",-5E-06,s,-4.95E-06,0.021528126
,,,-4.94E-06,0.021333751
,,,-4.93E-06,0.021369376
,,,-4.92E-06,0.021328126
,,,-4.91E-06,0.021646251
,,,-4.9E-06,0.021430001
,,,-4.89E-06,0.021623126
,,,-4.88E-06,0.021726876
,,,-4.87E-06,0.021595626
,,,-4.86E-06,0.021661251
,,,-4.85E-06,0.021535626
,,,-4.84E-06,0.021367501
,,,-4.83E-06,0.021471876
,,,-4.82E-06,0.021718751
,,,-4.81E-06,0.021523126
,,,-4.8E-06,0.021616876
,,,-4.79E-06,0.021508751
,,,-4.78E-06,0.021571876
,,,-4.77E-06,0.021436251
,,,-4.76E-06,0.021505001
,,,-4.75E-06,0.021370626
,,,-4.74E-06,0.021578126
,,,-4.73E-06,0.021536251
,,,-4.72E-06,0.021665001
,,,-4.71E-06,0.021278126
,,,-4.7E-06,0.021280626
,,,-4.69E-06,0.021380001
,,,-4.68E-06,0.021371251
,,,-4.67E-06,0.021518126
,,,-4.66E-06,0.021685626
,,,-4.65E-06,0.021665001
,,,-4.64E-06,0.021587501
,,,-4.63E-06,0.021531876
,,,-4.62E-06,0.021245001
,,,-4.61E-06,0.021688751
,,,-4.6E-06,0.021428126
,,,-4.59E-06,0.021510626
,,,-4.58E-06,0.021532501
,,,-4.57E-06,0.021473751
,,,-4.56E-06,0.021634376
,,,-4.55E-06,0.021476251
,,,-4.54E-06,0.021615001
,,,-4.53E-06,0.021603126
,,,-4.52E-06,0.021676251
,,,-4.51E-06,0.021360001
,,,-4.5E-06,0.021377501
,,,-4.49E-06,0.021880001
,,,-4.48E-06,0.021571876
,,,-4.47E-06,0.021689376
,,,-4.46E-06,0.021302501
,,,-4.45E-06,0.021526876
,,,-4.44E-06,0.021438751
,,,-4.43E-06,0.021360001
,,,-4.42E-06,0.021590001
,,,-4.41E-06,0.021543126
,,,-4.4E-06,0.021340626
,,,-4.39E-06,0.021606251
,,,-4.38E-06,0.021603126
,,,-4.37E-06,0.021442501
,,,-4.36E-06,0.021653751
,,,-4.35E-06,0.021550626
,,,-4.34E-06,0.021460001
,,,-4.33E-06,0.021598126
,,,-4.32E-06,0.021368751
,,,-4.31E-06,0.021673751
,,,-4.3E-06,0.021383751
,,,-4.29E-06,0.021435626
,,,-4.28E-06,0.021301876
,,,-4.27E-06,0.021423751
,,,-4.26E-06,0.021474376
,,,-4.25E-06,0.021581876
,,,-4.24E-06,0.021628126
,,,-4.23E-06,0.021635626
,,,-4.22E-06,0.021419376
,,,-4.21E-06,0.021358126
,,,-4.2E-06,0.021537501
,,,-4.19E-06,0.021570626
,,,-4.18E-06,0.021558751
,,,-4.17E-06,0.021425001
,,,-4.16E-06,0.021420626
,,,-4.15E-06,0.021538126
,,,-4.14E-06,0.021704376
,,,-4.13E-06,0.021495626
,,,-4.12E-06,0.021565626
,,,-4.11E-06,0.021401251
,,,-4.1E-06,0.021525626
,,,-4.09E-06,0.021561876
,,,-4.08E-06,0.021606251
,,,-4.07E-06,0.021476876
,,,-4.06E-06,0.021492501
,,,-4.05E-06,0.021354376
,,,-4.04E-06,0.021336251
,,,-4.03E-06,0.021634376
,,,-4.02E-06,0.021674376
,,,-4.01E-06,0.021601876
,,,-4E-06,0.021485001
,,,-3.99E-06,0.021480001
,,,-3.98E-06,0.021413126
,,,-3.97E-06,0.021435626
,,,-3.96E-06,0.021401876
,,,-3.95E-06,0.021079376
,,,-3.94E-06,0.021230626
,,,-3.93E-06,0.021523126
,,,-3.92E-06,0.021473751
,,,-3.91E-06,0.021768751
,,,-3.9E-06,0.021266251
,,,-3.89E-06,0.021613751
,,,-3.88E-06,0.021458751
,,,-3.87E-06,0.021419376
,,,-3.86E-06,0.021479376
,,,-3.85E-06,0.021604376
,,,-3.84E-06,0.021716876
,,,-3.83E-06,0.021641251
,,,-3.82E-06,0.021821876
,,,-3.81E-06,0.021571251
,,,-3.8E-06,0.021508126
,,,-3.79E-06,0.021446876
,,,-3.78E-06,0.021346876
,,,-3.77E-06,0.021691876
,,,-3.76E-06,0.021394376
,,,-3.75E-06,0.021516876
,,,-3.74E-06,0.021540626
,,,-3.73E-06,0.021513751
,,,-3.72E-06,0.021416876
,,,-3.71E-06,0.021655626
,,,-3.7E-06,0.021561251
,,,-3.69E-06,0.021331251
,,,-3.68E-06,0.021586251
,,,-3.67E-06,0.021643126
,,,-3.66E-06,0.021387501
,,,-3.65E-06,0.021551876
,,,-3.64E-06,0.021439376
,,,-3.63E-06,0.021678751
,,,-3.62E-06,0.021545626
,,,-3.61E-06,0.021373751
,,,-3.6E-06,0.021608751
,,,-3.59E-06,0.021455001
,,,-3.58E-06,0.021705001
,,,-3.57E-06,0.021436251
,,,-3.56E-06,0.021224376
,,,-3.55E-06,0.021548751
,,,-3.54E-06,0.021386876
,,,-3.53E-06,0.021524376
,,,-3.52E-06,0.021439376
,,,-3.51E-06,0.021729376
,,,-3.5E-06,0.021625001
,,,-3.49E-06,0.021547501
,,,-3.48E-06,0.021496251
,,,-3.47E-06,0.021241251
,,,-3.46E-06,0.021373126
,,,-3.45E-06,0.021541251
,,,-3.44E-06,0.021605001
,,,-3.43E-06,0.021306876
,,,-3.42E-06,0.021572501
,,,-3.41E-06,0.021660001
,,,-3.4E-06,0.021416251
,,,-3.39E-06,0.021440001
,,,-3.38E-06,0.021473126
,,,-3.37E-06,0.021490626
,,,-3.36E-06,0.021440626
,,,-3.35E-06,0.021678126
,,,-3.34E-06,0.021486251
,,,-3.33E-06,0.021545001
,,,-3.32E-06,0.021488126
,,,-3.31E-06,0.021431876
,,,-3.3E-06,0.021292501
,,,-3.29E-06,0.021426251
,,,-3.28E-06,0.021398126
,,,-3.27E-06,0.021665001
,,,-3.26E-06,0.021500001
,,,-3.25E-06,0.021354376
,,,-3.24E-06,0.021446251
,,,-3.23E-06,0.021495626
,,,-3.22E-06,0.021196876
,,,-3.21E-06,0.021452501
,,,-3.2E-06,0.021485626
,,,-3.19E-06,0.021578751
,,,-3.18E-06,0.021606876
,,,-3.17E-06,0.021845626
,,,-3.16E-06,0.021528126
,,,-3.15E-06,0.021410626
,,,-3.14E-06,0.021342501
,,,-3.13E-06,0.021445626
,,,-3.12E-06,0.021507501
,,,-3.11E-06,0.021555626
,,,-3.1E-06,0.021197501
,,,-3.09E-06,0.021469376
,,,-3.08E-06,0.021473126
,,,-3.07E-06,0.021646251
,,,-3.06E-06,0.021248751
,,,-3.05E-06,0.021478751
,,,-3.04E-06,0.021691251
,,,-3.03E-06,0.021446876
,,,-3.02E-06,0.021660626
,,,-3.01E-06,0.021518126
,,,-3E-06,0.021553751
,,,-2.99E-06,0.021391876
,,,-2.98E-06,0.021415626
,,,-2.97E-06,0.021322501
,,,-2.96E-06,0.021561251
,,,-2.95E-06,0.021289376
,,,-2.94E-06,0.021694376
,,,-2.93E-06,0.021617501
,,,-2.92E-06,0.021586876
,,,-2.91E-06,0.021424376
,,,-2.9E-06,0.021573751
,,,-2.89E-06,0.021735626
,,,-2.88E-06,0.021540001
,,,-2.87E-06,0.021564376
,,,-2.86E-06,0.021435001
,,,-2.85E-06,0.021566876
,,,-2.84E-06,0.021655626
,,,-2.83E-06,0.021455626
,,,-2.82E-06,0.021552501
,,,-2.81E-06,0.021473126
,,,-2.8E-06,0.021507501
,,,-2.79E-06,0.021524376
,,,-2.78E-06,0.021561251
,,,-2.77E-06,0.021535626
,,,-2.76E-06,0.021628126
,,,-2.75E-06,0.021683751
,,,-2.74E-06,0.021320626
,,,-2.73E-06,0.021356876
,,,-2.72E-06,0.021502501
,,,-2.71E-06,0.021657501
,,,-2.7E-06,0.021329376
,,,-2.69E-06,0.021492501
,,,-2.68E-06,0.021537501
,,,-2.67E-06,0.021273751
,,,-2.66E-06,0.021351251
,,,-2.65E-06,0.021375001
,,,-2.64E-06,0.021540001
,,,-2.63E-06,0.021483126
,,,-2.62E-06,0.021650626
,,,-2.61E-06,0.021758126
,,,-2.6E-06,0.021515001
,,,-2.59E-06,0.021390626
,,,-2.58E-06,0.021416876
,,,-2.57E-06,0.021318126
,,,-2.56E-06,0.021379376
,,,-2.55E-06,0.021618751
,,,-2.54E-06,0.021443751
,,,-2.53E-06,0.021628751
,,,-2.52E-06,0.021198126
,,,-2.51E-06,0.021768126
,,,-2.5E-06,0.021581251
,,,-2.49E-06,0.021363126
,,,-2.48E-06,0.021376876
,,,-2.47E-06,0.021371876
,,,-2.46E-06,0.021336876
,,,-2.45E-06,0.021265001
,,,-2.44E-06,0.021411876
,,,-2.43E-06,0.021423126
,,,-2.42E-06,0.021628126
,,,-2.41E-06,0.021641876
,,,-2.4E-06,0.021421251
,,,-2.39E-06,0.021605001
,,,-2.38E-06,0.021495001
,,,-2.37E-06,0.021674376
,,,-2.36E-06,0.021518126
,,,-2.35E-06,0.021595001
,,,-2.34E-06,0.021661251
,,,-2.33E-06,0.021473126
,,,-2.32E-06,0.021413126
,,,-2.31E-06,0.021399376
,,,-2.3E-06,0.021678751
,,,-2.29E-06,0.021663751
,,,-2.28E-06,0.021561876
,,,-2.27E-06,0.021623126
,,,-2.26E-06,0.021658751
,,,-2.25E-06,0.021696251
,,,-2.24E-06,0.021376876
,,,-2.23E-06,0.021371251
,,,-2.22E-06,0.021511251
,,,-2.21E-06,0.021326876
,,,-2.2E-06,0.021550001
,,,-2.19E-06,0.021401876
,,,-2.18E-06,0.021860001
,,,-2.17E-06,0.021401876
,,,-2.16E-06,0.021442501
,,,-2.15E-06,0.021521251
,,,-2.14E-06,0.021581251
,,,-2.13E-06,0.021248751
,,,-2.12E-06,0.021409376
,,,-2.11E-06,0.021353126
,,,-2.1E-06,0.021536876
,,,-2.09E-06,0.021500626
,,,-2.08E-06,0.021358751
,,,-2.07E-06,0.021323751
,,,-2.06E-06,0.021571876
,,,-2.05E-06,0.021443126
,,,-2.04E-06,0.021483751
,,,-2.03E-06,0.021165626
,,,-2.02E-06,0.021271251
,,,-2.01E-06,0.021430626
,,,-2E-06,0.021542501
,,,-1.99E-06,0.021362501
,,,-1.98E-06,0.021590001
,,,-1.97E-06,0.021355001
,,,-1.96E-06,0.021351876
,,,-1.95E-06,0.021603751
,,,-1.94E-06,0.021588751
,,,-1.93E-06,0.021512501
,,,-1.92E-06,0.021518751
,,,-1.91E-06,0.021623126
,,,-1.9E-06,0.021285626
,,,-1.89E-06,0.021502501
,,,-1.88E-06,0.021735626
,,,-1.87E-06,0.021407501
,,,-1.86E-06,0.021322501
,,,-1.85E-06,0.021569376
,,,-1.84E-06,0.021541876
,,,-1.83E-06,0.021364376
,,,-1.82E-06,0.021367501
,,,-1.81E-06,0.021562501
,,,-1.8E-06,0.021441876
,,,-1.79E-06,0.021678751
,,,-1.78E-06,0.021768751
,,,-1.77E-06,0.021578751
,,,-1.76E-06,0.021403751
,,,-1.75E-06,0.021567501
,,,-1.74E-06,0.021795001
,,,-1.73E-06,0.021513751
,,,-1.72E-06,0.021445001
,,,-1.71E-06,0.021640001
,,,-1.7E-06,0.021393126
,,,-1.69E-06,0.021401251
,,,-1.68E-06,0.021617501
,,,-1.67E-06,0.021566251
,,,-1.66E-06,0.021386876
,,,-1.65E-06,0.021457501
,,,-1.64E-06,0.021496251
,,,-1.63E-06,0.021386251
,,,-1.62E-06,0.021523126
,,,-1.61E-06,0.021410001
,,,-1.6E-06,0.021427501
,,,-1.59E-06,0.021353751
,,,-1.58E-06,0.021498751
,,,-1.57E-06,0.021338126
,,,-1.56E-06,0.021361251
,,,-1.55E-06,0.021516251
,,,-1.54E-06,0.021353751
,,,-1.53E-06,0.021432501
,,,-1.52E-06,0.021508751
,,,-1.51E-06,0.021581251
,,,-1.5E-06,0.021554376
,,,-1.49E-06,0.021461876
,,,-1.48E-06,0.021453126
,,,-1.47E-06,0.021311876
,,,-1.46E-06,0.021246251
,,,-1.45E-06,0.021234376
,,,-1.44E-06,0.021498126
,,,-1.43E-06,0.021398751
,,,-1.42E-06,0.021261876
,,,-1.41E-06,0.021336251
,,,-1.4E-06,0.021418751
,,,-1.39E-06,0.021444376
,,,-1.38E-06,0.021642501
,,,-1.37E-06,0.021487501
,,,-1.36E-06,0.021382501
,,,-1.35E-06,0.021570001
,,,-1.34E-06,0.021521876
,,,-1.33E-06,0.021525001
,,,-1.32E-06,0.021655001
,,,-1.31E-06,0.021210626
,,,-1.3E-06,0.021076251
,,,-1.29E-06,0.021481251
,,,-1.28E-06,0.021443751
,,,-1.27E-06,0.021354376
,,,-1.26E-06,0.021255001
,,,-1.25E-06,0.021694376
,,,-1.24E-06,0.021615626
,,,-1.23E-06,0.021394376
,,,-1.22E-06,0.021577501
,,,-1.21E-06,0.021443751
,,,-1.2E-06,0.021579376
,,,-1.19E-06,0.021685001
,,,-1.18E-06,0.021495001
,,,-1.17E-06,0.021381876
,,,-1.16E-06,0.021350626
,,,-1.15E-06,0.021530626
,,,-1.14E-06,0.021385001
,,,-1.13E-06,0.021370626
,,,-1.12E-06,0.021314376
,,,-1.11E-06,0.021361876
,,,-1.1E-06,0.021346251
,,,-1.09E-06,0.021246251
,,,-1.08E-06,0.021412501
,,,-1.07E-06,0.021583126
,,,-1.06E-06,0.021536876
,,,-1.05E-06,0.021282501
,,,-1.04E-06,0.021686876
,,,-1.03E-06,0.021519376
,,,-1.02E-06,0.021557501
,,,-1.01E-06,0.021645001
,,,-1E-06,0.021285001
,,,-9.9E-07,0.021068751
,,,-9.8E-07,0.021330001
,,,-9.7E-07,0.021313126
,,,-9.6E-07,0.021515001
,,,-9.5E-07,0.021352501
,,,-9.4E-07,0.021346876
,,,-9.3E-07,0.021408126
,,,-9.2E-07,0.021542501
,,,-9.1E-07,0.021240626
,,,-9E-07,0.021528751
,,,-8.9E-07,0.021362501
,,,-8.8E-07,0.021394376
,,,-8.7E-07,0.021621876
,,,-8.6E-07,0.021351876
,,,-8.5E-07,0.021598751
,,,-8.4E-07,0.021506251
,,,-8.3E-07,0.021521876
,,,-8.2E-07,0.021300626
,,,-8.1E-07,0.021508126
,,,-8E-07,0.021602501
,,,-7.9E-07,0.021860001
,,,-7.8E-07,0.021401251
,,,-7.7E-07,0.021348751
,,,-7.6E-07,0.021447501
,,,-7.5E-07,0.021270001
,,,-7.4E-07,0.021489376
,,,-7.3E-07,0.021404376
,,,-7.2E-07,0.021493751
,,,-7.1E-07,0.021535626
,,,-7E-07,0.021510626
,,,-6.9E-07,0.021686251
,,,-6.8E-07,0.021422501
,,,-6.7E-07,0.021387501
,,,-6.6E-07,0.021742501
,,,-6.5E-07,0.021510626
,,,-6.4E-07,0.021258751
,,,-6.3E-07,0.021317501
,,,-6.2E-07,0.021720001
,,,-6.1E-07,0.021510626
,,,-6E-07,0.021576251
,,,-5.9E-07,0.021402501
,,,-5.8E-07,0.021165001
,,,-5.7E-07,0.021581876
,,,-5.6E-07,0.021575001
,,,-5.5E-07,0.021340001
,,,-5.4E-07,0.021295001
,,,-5.3E-07,0.021346876
,,,-5.2E-07,0.021671876
,,,-5.1E-07,0.021235001
,,,-5E-07,0.021338126
,,,-4.9E-07,0.021780001
,,,-4.8E-07,0.021721251
,,,-4.7E-07,0.021501251
,,,-4.6E-07,0.021442501
,,,-4.5E-07,0.021591876
,,,-4.4E-07,0.021359376
,,,-4.3E-07,0.021361876
,,,-4.2E-07,0.021479376
,,,-4.1E-07,0.021532501
,,,-4E-07,0.021427501
,,,-3.9E-07,0.021343751
,,,-3.8E-07,0.021501251
,,,-3.7E-07,0.021418126
,,,-3.6E-07,0.021480626
,,,-3.5E-07,0.021468126
,,,-3.4E-07,0.021628126
,,,-3.3E-07,0.021376876
,,,-3.2E-07,0.021463126
,,,-3.1E-07,0.021523751
,,,-3E-07,0.021480626
,,,-2.9E-07,0.021600001
,,,-2.8E-07,0.021618126
,,,-2.7E-07,0.021529376
,,,-2.6E-07,0.021291876
,,,-2.5E-07,0.021432501
,,,-2.4E-07,0.021455001
,,,-2.3E-07,0.021402501
,,,-2.2E-07,0.021481251
,,,-2.1E-07,0.021421251
,,,-2E-07,0.021691876
,,,-1.9E-07,0.021633126
,,,-1.8E-07,0.021471251
,,,-1.7E-07,0.021604376
,,,-1.6E-07,0.021729376
,,,-1.5E-07,0.021125001
,,,-1.4E-07,0.021486876
,,,-1.3E-07,0.021521251
,,,-1.2E-07,0.021612501
,,,-1.1E-07,0.021433751
,,,-1E-07,0.021497501
,,,-9E-08,0.021578751
,,,-8E-08,0.021413751
,,,-7E-08,0.021123751
,,,-6E-08,0.020863126
,,,-5E-08,0.022268126
,,,-4E-08,0.022647501
,,,-3E-08,0.022265626
,,,-2E-08,0.020056251
,,,-1E-08,0.019698126
,,,0,0.020541251
,,,1E-08,0.022360626
,,,2E-08,0.023013126
,,,3E-08,0.022586876
,,,4E-08,0.021657501
,,,5E-08,0.020712501
,,,6E-08,0.020419376
,,,7E-08,0.021136251
,,,8E-08,0.021758126
,,,9E-08,0.022321876
,,,1E-07,0.022110626
,,,1.1E-07,0.021538751
,,,1.2E-07,0.021068126
,,,1.3E-07,0.021037501
,,,1.4E-07,0.021361251
,,,1.5E-07,0.021612501
,,,1.6E-07,0.021670626
,,,1.7E-07,0.021675626
,,,1.8E-07,0.021541251
,,,1.9E-07,0.021540001
,,,2E-07,0.021424376
,,,2.1E-07,0.021508751
,,,2.2E-07,0.021271876
,,,2.3E-07,0.021724376
,,,2.4E-07,0.021586251
,,,2.5E-07,0.021325626
,,,2.6E-07,0.021490001
,,,2.7E-07,0.021517501
,,,2.8E-07,0.021310626
,,,2.9E-07,0.021615001
,,,3E-07,0.021226251
,,,3.1E-07,0.021385001
,,,3.2E-07,0.021600626
,,,3.3E-07,0.021358126
,,,3.4E-07,0.021456876
,,,3.5E-07,0.021468751
,,,3.6E-07,0.021657501
,,,3.7E-07,0.021490001
,,,3.8E-07,0.021714376
,,,3.9E-07,0.021437501
,,,4E-07,0.021384376
,,,4.1E-07,0.021377501
,,,4.2E-07,0.021552501
,,,4.3E-07,0.021223751
,,,4.4E-07,0.021539376
,,,4.5E-07,0.021501251
,,,4.6E-07,0.021499376
,,,4.7E-07,0.021568751
,,,4.8E-07,0.021408751
,,,4.9E-07,0.021821876
,,,5E-07,0.021460626
,,,5.1E-07,0.021379376
,,,5.2E-07,0.021592501
,,,5.3E-07,0.021592501
,,,5.4E-07,0.021588751
,,,5.5E-07,0.021793126
,,,5.6E-07,0.021293126
,,,5.7E-07,0.021300001
,,,5.8E-07,0.021708126
,,,5.9E-07,0.021521876
,,,6E-07,0.021411251
,,,6.1E-07,0.021761876
,,,6.2E-07,0.021310626
,,,6.3E-07,0.021472501
,,,6.4E-07,0.021463126
,,,6.5E-07,0.021548126
,,,6.6E-07,0.021388751
,,,6.7E-07,0.021664376
,,,6.8E-07,0.021563126
,,,6.9E-07,0.021301251
,,,7E-07,0.021607501
,,,7.1E-07,0.021236251
,,,7.2E-07,0.021338751
,,,7.3E-07,0.021192501
,,,7.4E-07,0.021505001
,,,7.5E-07,0.021444376
,,,7.6E-07,0.021505626
,,,7.7E-07,0.021595001
,,,7.8E-07,0.021556251
,,,7.9E-07,0.021495626
,,,8E-07,0.021441876
,,,8.1E-07,0.021700001
,,,8.2E-07,0.021528751
,,,8.3E-07,0.021100001
,,,8.4E-07,0.021666251
,,,8.5E-07,0.021726876
,,,8.6E-07,0.021451876
,,,8.7E-07,0.021492501
,,,8.8E-07,0.021525001
,,,8.9E-07,0.021420001
,,,9E-07,0.021633126
,,,9.1E-07,0.021788751
,,,9.2E-07,0.021730001
,,,9.3E-07,0.021333126
,,,9.4E-07,0.021603751
,,,9.5E-07,0.021468751
,,,9.6E-07,0.021413751
,,,9.7E-07,0.021415001
,,,9.8E-07,0.021372501
,,,9.9E-07,0.021347501
,,,1E-06,0.021723126
,,,1.01E-06,0.021710626
,,,1.02E-06,0.021372501
,,,1.03E-06,0.021777501
,,,1.04E-06,0.021556251
,,,1.05E-06,0.021396876
,,,1.06E-06,0.021519376
,,,1.07E-06,0.021344376
,,,1.08E-06,0.021440626
,,,1.09E-06,0.021383126
,,,1.1E-06,0.021256251
,,,1.11E-06,0.021480001
,,,1.12E-06,0.021329376
,,,1.13E-06,0.021791251
,,,1.14E-06,0.021366251
,,,1.15E-06,0.021301876
,,,1.16E-06,0.021125001
,,,1.17E-06,0.021557501
,,,1.18E-06,0.021663751
,,,1.19E-06,0.021630001
,,,1.2E-06,0.021506251
,,,1.21E-06,0.021556251
,,,1.22E-06,0.021463126
,,,1.23E-06,0.021498126
,,,1.24E-06,0.021532501
,,,1.25E-06,0.021709376
,,,1.26E-06,0.021600001
,,,1.27E-06,0.021526251
,,,1.28E-06,0.021327501
,,,1.29E-06,0.021363751
,,,1.3E-06,0.021511251
,,,1.31E-06,0.021344376
,,,1.32E-06,0.021533126
,,,1.33E-06,0.021212501
,,,1.34E-06,0.021656876
,,,1.35E-06,0.021533751
,,,1.36E-06,0.021251251
,,,1.37E-06,0.021451876
,,,1.38E-06,0.021350626
,,,1.39E-06,0.021562501
,,,1.4E-06,0.021388126
,,,1.41E-06,0.021361251
,,,1.42E-06,0.021722501
,,,1.43E-06,0.021580626
,,,1.44E-06,0.021442501
,,,1.45E-06,0.021420001
,,,1.46E-06,0.021580626
,,,1.47E-06,0.021547501
,,,1.48E-06,0.021412501
,,,1.49E-06,0.021580626
,,,1.5E-06,0.021457501
,,,1.51E-06,0.021546251
,,,1.52E-06,0.021519376
,,,1.53E-06,0.021483126
,,,1.54E-06,0.021583126
,,,1.55E-06,0.021575001
,,,1.56E-06,0.021419376
,,,1.57E-06,0.021730626
,,,1.58E-06,0.021453751
,,,1.59E-06,0.021633751
,,,1.6E-06,0.021434376
,,,1.61E-06,0.021589376
,,,1.62E-06,0.021381876
,,,1.63E-06,0.021556251
,,,1.64E-06,0.021278751
,,,1.65E-06,0.021182501
,,,1.66E-06,0.021513126
,,,1.67E-06,0.021543126
,,,1.68E-06,0.021521876
,,,1.69E-06,0.021765001
,,,1.7E-06,0.021646251
,,,1.71E-06,0.021378126
,,,1.72E-06,0.021386251
,,,1.73E-06,0.021362501
,,,1.74E-06,0.021472501
,,,1.75E-06,0.021810001
,,,1.76E-06,0.021503751
,,,1.77E-06,0.021389376
,,,1.78E-06,0.021481251
,,,1.79E-06,0.021428751
,,,1.8E-06,0.021656876
,,,1.81E-06,0.021460001
,,,1.82E-06,0.021360001
,,,1.83E-06,0.021612501
,,,1.84E-06,0.021795001
,,,1.85E-06,0.021643751
,,,1.86E-06,0.021737501
,,,1.87E-06,0.021679376
,,,1.88E-06,0.021508751
,,,1.89E-06,0.021471876
,,,1.9E-06,0.021598126
,,,1.91E-06,0.021678751
,,,1.92E-06,0.021698751
,,,1.93E-06,0.021617501
,,,1.94E-06,0.021313751
,,,1.95E-06,0.021509376
,,,1.96E-06,0.021830626
,,,1.97E-06,0.021340626
,,,1.98E-06,0.021601251
,,,1.99E-06,0.021562501
,,,2E-06,0.021599376
,,,2.01E-06,0.021413751
,,,2.02E-06,0.021684376
,,,2.03E-06,0.021461876
,,,2.04E-06,0.021438126
,,,2.05E-06,0.021576251
,,,2.06E-06,0.021459376
,,,2.07E-06,0.021501251
,,,2.08E-06,0.021571876
,,,2.09E-06,0.021521876
,,,2.1E-06,0.021570001
,,,2.11E-06,0.021311251
,,,2.12E-06,0.021501251
,,,2.13E-06,0.021394376
,,,2.14E-06,0.021577501
,,,2.15E-06,0.021301876
,,,2.16E-06,0.021445626
,,,2.17E-06,0.021668751
,,,2.18E-06,0.021593126
,,,2.19E-06,0.021516251
,,,2.2E-06,0.021523126
,,,2.21E-06,0.021435001
,,,2.22E-06,0.021705001
,,,2.23E-06,0.021440001
,,,2.24E-06,0.021696251
,,,2.25E-06,0.021650626
,,,2.26E-06,0.021315626
,,,2.27E-06,0.021488751
,,,2.28E-06,0.021522501
,,,2.29E-06,0.021270001
,,,2.3E-06,0.021562501
,,,2.31E-06,0.021420001
,,,2.32E-06,0.021719376
,,,2.33E-06,0.021727501
,,,2.34E-06,0.021595001
,,,2.35E-06,0.021661251
,,,2.36E-06,0.021610626
,,,2.37E-06,0.021460001
,,,2.38E-06,0.021550001
,,,2.39E-06,0.021273126
,,,2.4E-06,0.021138126
,,,2.41E-06,0.021412501
,,,2.42E-06,0.021340626
,,,2.43E-06,0.021388751
,,,2.44E-06,0.021639376
,,,2.45E-06,0.021506876
,,,2.46E-06,0.021380001
,,,2.47E-06,0.021380001
,,,2.48E-06,0.021488751
,,,2.49E-06,0.021561876
,,,2.5E-06,0.021675626
,,,2.51E-06,0.021396876
,,,2.52E-06,0.021361251
,,,2.53E-06,0.021300626
,,,2.54E-06,0.021420626
,,,2.55E-06,0.021614376
,,,2.56E-06,0.021605626
,,,2.57E-06,0.021653751
,,,2.58E-06,0.021515626
,,,2.59E-06,0.021665001
,,,2.6E-06,0.021864376
,,,2.61E-06,0.021469376
,,,2.62E-06,0.021519376
,,,2.63E-06,0.021490001
,,,2.64E-06,0.021428751
,,,2.65E-06,0.021416876
,,,2.66E-06,0.021577501
,,,2.67E-06,0.021842501
,,,2.68E-06,0.021778751
,,,2.69E-06,0.021367501
,,,2.7E-06,0.021408126
,,,2.71E-06,0.021577501
,,,2.72E-06,0.021491876
,,,2.73E-06,0.021537501
,,,2.74E-06,0.021755001
,,,2.75E-06,0.021488751
,,,2.76E-06,0.021468751
,,,2.77E-06,0.021303126
,,,2.78E-06,0.021639376
,,,2.79E-06,0.021282501
,,,2.8E-06,0.021211251
,,,2.81E-06,0.021512501
,,,2.82E-06,0.021170001
,,,2.83E-06,0.021558126
,,,2.84E-06,0.021547501
,,,2.85E-06,0.021381251
,,,2.86E-06,0.021332501
,,,2.87E-06,0.021413751
,,,2.88E-06,0.021576876
,,,2.89E-06,0.021618751
,,,2.9E-06,0.021373751
,,,2.91E-06,0.021613751
,,,2.92E-06,0.021417501
,,,2.93E-06,0.021581251
,,,2.94E-06,0.021501876
,,,2.95E-06,0.021618751
,,,2.96E-06,0.021551876
,,,2.97E-06,0.021427501
,,,2.98E-06,0.021460001
,,,2.99E-06,0.021501876
,,,3E-06,0.021681251
,,,3.01E-06,0.021521251
,,,3.02E-06,0.021472501
,,,3.03E-06,0.021365001
,,,3.04E-06,0.021770001
,,,3.05E-06,0.021291251
,,,3.06E-06,0.021747501
,,,3.07E-06,0.021635626
,,,3.08E-06,0.021551876
,,,3.09E-06,0.021520626
,,,3.1E-06,0.021508126
,,,3.11E-06,0.021351251
,,,3.12E-06,0.021552501
,,,3.13E-06,0.021760626
,,,3.14E-06,0.021570001
,,,3.15E-06,0.021598751
,,,3.16E-06,0.021481876
,,,3.17E-06,0.021458126
,,,3.18E-06,0.021305626
,,,3.19E-06,0.021653751
,,,3.2E-06,0.021364376
,,,3.21E-06,0.021333126
