data/raw/Final_POL_Test_1/SOP039_Ch3.csv

"Record Length",1000,"Points",-5E-06,0.018990001
"Sample Interval",1E-08,s,-4.99E-06,0.019053126
"Trigger Point",500,"Samples",-4.98E-06,0.019030626
"Trigger Time",0,s,-4.97E-06,0.019231251
"",,,-4.96E-06,0.019127501
"Horizontal Offset",-5E-06,s,-4.95E-06,0.018963751
,,,-4.94E-06,0.019189376
,,,-4.93E-06,0.019056876
,,,-4.92E-06,0.019078751
,,,-4.91E-06,0.018981876
,,,-4.9E-06,0.019248126
,,,-4.89E-06,0.018964376
,,,-4.88E-06,0.019125001
,,,-4.87E-06,0.019052501
,,,-4.86E-06,0.018948126
,,,-4.85E-06,0.019099376
,,,-4.84E-06,0.019190001
,,,-4.83E-06,0.019274376
,,,-4.82E-06,0.019223751
,,,-4.81E-06,0.019056251
,,,-4.8E-06,0.019030001
,,,-4.79E-06,0.019104376
,,,-4.78E-06,0.018775626
,,,-4.77E-06,0.019044376
,,,-4.76E-06,0.019078126
,,,-4.75E-06,0.018970626
,,,-4.74E-06,0.018858126
,,,-4.73E-06,0.019265001
,,,-4.72E-06,0.019127501
,,,-4.71E-06,0.019058126
,,,-4.7E-06,0.019007501
,,,-4.69E-06,0.019001876
,,,-4.68E-06,0.019036876
,,,-4.67E-06,0.018842501
,,,-4.66E-06,0.019126876
,,,-4.65E-06,0.019033126
,,,-4.64E-06,0.019199376
,,,-4.63E-06,0.018960626
,,,-4.62E-06,0.018980001
,,,-4.61E-06,0.018938126
,,,-4.6E-06,0.019005001
,,,-4.59E-06,0.019416876
,,,-4.58E-06,0.018961876
,,,-4.57E-06,0.019252501
,,,-4.56E-06,0.019033126
,,,-4.55E-06,0.019131876
,,,-4.54E-06,0.018976251
,,,-4.53E-06,0.019150626
,,,-4.52E-06,0.019123751
,,,-4.51E-06,0.019316251
,,,-4.5E-06,0.018856251
,,,-4.49E-06,0.019132501
,,,-4.48E-06,0.019432501
,,,-4.47E-06,0.018984376
,,,-4.46E-06,0.019185626
,,,-4.45E-06,0.019011876
,,,-4.44E-06,0.019085626
,,,-4.43E-06,0.019081251
,,,-4.42E-06,0.019136251
,,,-4.41E-06,0.019333126
,,,-4.4E-06,0.019136876
,,,-4.39E-06,0.018721876
,,,-4.38E-06,0.018811251
,,,-4.37E-06,0.019088751
,,,-4.36E-06,0.019098126
,,,-4.35E-06,0.018988126
,,,-4.34E-06,0.019169376
,,,-4.33E-06,0.019155626
,,,-4.32E-06,0.019247501
,,,-4.31E-06,0.019419376
,,,-4.3E-06,0.019283126
,,,-4.29E-06,0.018888751
,,,-4.28E-06,0.018908751
,,,-4.27E-06,0.018955001
,,,-4.26E-06,0.019295001
,,,-4.25E-06,0.018836876
,,,-4.24E-06,0.019277501
,,,-4.23E-06,0.019103751
,,,-4.22E-06,0.019135001
,,,-4.21E-06,0.018974376
,,,-4.2E-06,0.018960001
,,,-4.19E-06,0.019077501
,,,-4.18E-06,0.019175001
,,,-4.17E-06,0.019157501
,,,-4.16E-06,0.019155001
,,,-4.15E-06,0.018998751
,,,-4.14E-06,0.018927501
,,,-4.13E-06,0.019057501
,,,-4.12E-06,0.018903751
,,,-4.11E-06,0.019163126
,,,-4.1E-06,0.019126876
,,,-4.09E-06,0.019302501
,,,-4.08E-06,0.019101876
,,,-4.07E-06,0.018993126
,,,-4.06E-06,0.018945001
,,,-4.05E-06,0.019175626
,,,-4.04E-06,0.019013751
,,,-4.03E-06,0.019131251
,,,-4.02E-06,0.019157501
,,,-4.01E-06,0.018971876
,,,-4E-06,0.018860626
,,,-3.99E-06,0.018951876
,,,-3.98E-06,0.019106876
,,,-3.97E-06,0.018926251
,,,-3.96E-06,0.019028751
,,,-3.95E-06,0.019096251
,,,-3.94E-06,0.018977501
,,,-3.93E-06,0.019134376
,,,-3.92E-06,0.019363126
,,,-3.91E-06,0.019015001
,,,-3.9E-06,0.019191876
,,,-3.89E-06,0.019208126
,,,-3.88E-06,0.019022501
,,,-3.87E-06,0.019070001
,,,-3.86E-06,0.019106876
,,,-3.85E-06,0.018755001
,,,-3.84E-06,0.018946876
,,,-3.83E-06,0.019228751
,,,-3.82E-06,0.018972501
,,,-3.81E-06,0.019221251
,,,-3.8E-06,0.019041251
,,,-3.79E-06,0.019288751
,,,-3.78E-06,0.019106251
,,,-3.77E-06,0.019036251
,,,-3.76E-06,0.019133751
,,,-3.75E-06,0.019150001
,,,-3.74E-06,0.019150626
,,,-3.73E-06,0.019133126
,,,-3.72E-06,0.019224376
,,,-3.71E-06,0.018885626
,,,-3.7E-06,0.018916876
,,,-3.69E-06,0.019027501
,,,-3.68E-06,0.018996251
,,,-3.67E-06,0.019102501
,,,-3.66E-06,0.019221876
,,,-3.65E-06,0.019304376
,,,-3.64E-06,0.019021876
,,,-3.63E-06,0.018913751
,,,-3.62E-06,0.019030001
,,,-3.61E-06,0.018964376
,,,-3.6E-06,0.018967501
,,,-3.59E-06,0.018869376
,,,-3.58E-06,0.019091251
,,,-3.57E-06,0.019104376
,,,-3.56E-06,0.018993751
,,,-3.55E-06,0.019091876
,,,-3.54E-06,0.018894376
,,,-3.53E-06,0.019218751
,,,-3.52E-06,0.018921251
,,,-3.51E-06,0.019540626
,,,-3.5E-06,0.019101876
,,,-3.49E-06,0.019010626
,,,-3.48E-06,0.018971876
,,,-3.47E-06,0.018980626
,,,-3.46E-06,0.019135001
,,,-3.45E-06,0.018980001
,,,-3.44E-06,0.019111876
,,,-3.43E-06,0.018621876
,,,-3.42E-06,0.019105001
,,,-3.41E-06,0.019384376
,,,-3.4E-06,0.019004376
,,,-3.39E-06,0.019318126
,,,-3.38E-06,0.019065001
,,,-3.37E-06,0.019139376
,,,-3.36E-06,0.019127501
,,,-3.35E-06,0.019015001
,,,-3.34E-06,0.019101251
,,,-3.33E-06,0.019008126
,,,-3.32E-06,0.019173751
,,,-3.31E-06,0.019130001
,,,-3.3E-06,0.019176251
,,,-3.29E-06,0.018983751
,,,-3.28E-06,0.018919376
,,,-3.27E-06,0.018970001
,,,-3.26E-06,0.019108126
,,,-3.25E-06,0.019028126
,,,-3.24E-06,0.018954376
,,,-3.23E-06,0.018884376
,,,-3.22E-06,0.019014376
,,,-3.21E-06,0.018666251
,,,-3.2E-06,0.018991251
,,,-3.19E-06,0.019031876
,,,-3.18E-06,0.019036876
,,,-3.17E-06,0.019049376
,,,-3.16E-06,0.018965626
,,,-3.15E-06,0.018995001
,,,-3.14E-06,0.018867501
,,,-3.13E-06,0.019068126
,,,-3.12E-06,0.019068751
,,,-3.11E-06,0.018900001
,,,-3.1E-06,0.018970626
,,,-3.09E-06,0.019011251
,,,-3.08E-06,0.019074376
,,,-3.07E-06,0.019113751
,,,-3.06E-06,0.018855626
,,,-3.05E-06,0.019010001
,,,-3.04E-06,0.019061876
,,,-3.03E-06,0.018971251
,,,-3.02E-06,0.018993126
,,,-3.01E-06,0.018964376
,,,-3E-06,0.019373126
,,,-2.99E-06,0.019076251
,,,-2.98E-06,0.019126876
,,,-2.97E-06,0.018948126
,,,-2.96E-06,0.019078126
,,,-2.95E-06,0.019000001
,,,-2.94E-06,0.018981876
,,,-2.93E-06,0.018937501
,,,-2.92E-06,0.019193126
,,,-2.91E-06,0.018968751
,,,-2.9E-06,0.019201251
,,,-2.89E-06,0.018856876
,,,-2.88E-06,0.018936251
,,,-2.87E-06,0.018906876
,,,-2.86E-06,0.018781251
,,,-2.85E-06,0.019087501
,,,-2.84E-06,0.019213751
,,,-2.83E-06,0.018985001
,,,-2.82E-06,0.019166251
,,,-2.81E-06,0.019307501
,,,-2.8E-06,0.018729376
,,,-2.79E-06,0.019126251
,,,-2.78E-06,0.019106876
,,,-2.77E-06,0.019239376
,,,-2.76E-06,0.018962501
,,,-2.75E-06,0.019135001
,,,-2.74E-06,0.019026876
,,,-2.73E-06,0.018991876
,,,-2.72E-06,0.019186876
,,,-2.71E-06,0.019008751
,,,-2.7E-06,0.018970626
,,,-2.69E-06,0.019257501
,,,-2.68E-06,0.019185001
,,,-2.67E-06,0.019151876
,,,-2.66E-06,0.019116251
,,,-2.65E-06,0.019091876
,,,-2.64E-06,0.019290001
,,,-2.63E-06,0.019292501
,,,-2.62E-06,0.019125001
,,,-2.61E-06,0.019151876
,,,-2.6E-06,0.019155001
,,,-2.59E-06,0.018965626
,,,-2.58E-06,0.019014376
,,,-2.57E-06,0.018987501
,,,-2.56E-06,0.018943126
,,,-2.55E-06,0.018968126
,,,-2.54E-06,0.019008126
,,,-2.53E-06,0.019146251
,,,-2.52E-06,0.019285001
,,,-2.51E-06,0.018997501
,,,-2.5E-06,0.019011876
,,,-2.49E-06,0.019092501
,,,-2.48E-06,0.018975001
,,,-2.47E-06,0.019151876
,,,-2.46E-06,0.019156251
,,,-2.45E-06,0.019110001
,,,-2.44E-06,0.019109376
,,,-2.43E-06,0.019076876
,,,-2.42E-06,0.018980001
,,,-2.41E-06,0.019061251
,,,-2.4E-06,0.019104376
,,,-2.39E-06,0.019210626
,,,-2.38E-06,0.019010001
,,,-2.37E-06,0.018980001
,,,-2.36E-06,0.019322501
,,,-2.35E-06,0.019115001
,,,-2.34E-06,0.018974376
,,,-2.33E-06,0.018971251
,,,-2.32E-06,0.019092501
,,,-2.31E-06,0.018925626
,,,-2.3E-06,0.019186251
,,,-2.29E-06,0.019220001
,,,-2.28E-06,0.018963751
,,,-2.27E-06,0.019140001
,,,-2.26E-06,0.019218126
,,,-2.25E-06,0.019220001
,,,-2.24E-06,0.019088126
,,,-2.23E-06,0.018952501
,,,-2.22E-06,0.019030626
,,,-2.21E-06,0.019090626
,,,-2.2E-06,0.019066251
,,,-2.19E-06,0.019080626
,,,-2.18E-06,0.018970001
,,,-2.17E-06,0.019208126
,,,-2.16E-06,0.019100626
,,,-2.15E-06,0.019253126
,,,-2.14E-06,0.019163126
,,,-2.13E-06,0.019399376
,,,-2.12E-06,0.018889376
,,,-2.11E-06,0.019134376
,,,-2.1E-06,0.019080001
,,,-2.09E-06,0.019182501
,,,-2.08E-06,0.018993126
,,,-2.07E-06,0.019117501
,,,-2.06E-06,0.018933751
,,,-2.05E-06,0.019236876
,,,-2.04E-06,0.019163751
,,,-2.03E-06,0.019065001
,,,-2.02E-06,0.019248126
,,,-2.01E-06,0.018812501
,,,-2E-06,0.019131251
,,,-1.99E-06,0.019030001
,,,-1.98E-06,0.019445001
,,,-1.97E-06,0.018947501
,,,-1.96E-06,0.018827501
,,,-1.95E-06,0.019004376
,,,-1.94E-06,0.018983126
,,,-1.93E-06,0.019267501
,,,-1.92E-06,0.018928751
,,,-1.91E-06,0.018882501
,,,-1.9E-06,0.018905626
,,,-1.89E-06,0.019090001
,,,-1.88E-06,0.019138126
,,,-1.87E-06,0.018920001
,,,-1.86E-06,0.018850001
,,,-1.85E-06,0.019142501
,,,-1.84E-06,0.018799376
,,,-1.83E-06,0.018991251
,,,-1.82E-06,0.018962501
,,,-1.81E-06,0.019036876
,,,-1.8E-06,0.018960626
,,,-1.79E-06,0.019090626
,,,-1.78E-06,0.019270626
,,,-1.77E-06,0.019020001
,,,-1.76E-06,0.018953751
,,,-1.75E-06,0.019232501
,,,-1.74E-06,0.019080001
,,,-1.73E-06,0.019065001
,,,-1.72E-06,0.018815001
,,,-1.71E-06,0.019120001
,,,-1.7E-06,0.018892501
,,,-1.69E-06,0.019067501
,,,-1.68E-06,0.018929376
,,,-1.67E-06,0.018893751
,,,-1.66E-06,0.018815001
,,,-1.65E-06,0.019100001
,,,-1.64E-06,0.019046876
,,,-1.63E-06,0.019143126
,,,-1.62E-06,0.018773126
,,,-1.61E-06,0.019148751
,,,-1.6E-06,0.019310626
,,,-1.59E-06,0.019085001
,,,-1.58E-06,0.018898126
,,,-1.57E-06,0.018946876
,,,-1.56E-06,0.019075626
,,,-1.55E-06,0.018811876
,,,-1.54E-06,0.018922501
,,,-1.53E-06,0.019048126
,,,-1.52E-06,0.019029376
,,,-1.51E-06,0.019265626
,,,-1.5E-06,0.019290001
,,,-1.49E-06,0.018937501
,,,-1.48E-06,0.018779376
,,,-1.47E-06,0.018984376
,,,-1.46E-06,0.019093751
,,,-1.45E-06,0.019026251
,,,-1.44E-06,0.019065626
,,,-1.43E-06,0.019028126
,,,-1.42E-06,0.019034376
,,,-1.41E-06,0.018948126
,,,-1.4E-06,0.018973126
,,,-1.39E-06,0.018950001
,,,-1.38E-06,0.019074376
,,,-1.37E-06,0.018891876
,,,-1.36E-06,0.018960001
,,,-1.35E-06,0.019151876
,,,-1.34E-06,0.019160001
,,,-1.33E-06,0.019313126
,,,-1.32E-06,0.019172501
,,,-1.31E-06,0.019110001
,,,-1.3E-06,0.018957501
,,,-1.29E-06,0.019019376
,,,-1.28E-06,0.019085001
,,,-1.27E-06,0.019219376
,,,-1.26E-06,0.019191876
,,,-1.25E-06,0.018993751
,,,-1.24E-06,0.018900001
,,,-1.23E-06,0.018835626
,,,-1.22E-06,0.018963126
,,,-1.21E-06,0.019016251
,,,-1.2E-06,0.019078751
,,,-1.19E-06,0.019114376
,,,-1.18E-06,0.019240626
,,,-1.17E-06,0.019152501
,,,-1.16E-06,0.019060001
,,,-1.15E-06,0.019160001
,,,-1.14E-06,0.019303751
,,,-1.13E-06,0.019073751
,,,-1.12E-06,0.019036251
,,,-1.11E-06,0.019048126
,,,-1.1E-06,0.019176251
,,,-1.09E-06,0.018975626
,,,-1.08E-06,0.019096251
,,,-1.07E-06,0.019027501
,,,-1.06E-06,0.019105001
,,,-1.05E-06,0.019057501
,,,-1.04E-06,0.019126876
,,,-1.03E-06,0.019016876
,,,-1.02E-06,0.018964376
,,,-1.01E-06,0.019109376
,,,-1E-06,0.019008126
,,,-9.9E-07,0.018714376
,,,-9.8E-07,0.019104376
,,,-9.7E-07,0.019006251
,,,-9.6E-07,0.019110626
,,,-9.5E-07,0.019148751
,,,-9.4E-07,0.019228126
,,,-9.3E-07,0.019215001
,,,-9.2E-07,0.018877501
,,,-9.1E-07,0.018860001
,,,-9E-07,0.019010001
,,,-8.9E-07,0.018860626
,,,-8.8E-07,0.019094376
,,,-8.7E-07,0.019376876
,,,-8.6E-07,0.018898126
,,,-8.5E-07,0.019293751
,,,-8.4E-07,0.018998126
,,,-8.3E-07,0.019058751
,,,-8.2E-07,0.019057501
,,,-8.1E-07,0.018911251
,,,-8E-07,0.018993126
,,,-7.9E-07,0.019268751
,,,-7.8E-07,0.018971251
,,,-7.7E-07,0.019050626
,,,-7.6E-07,0.019064376
,,,-7.5E-07,0.018988126
,,,-7.4E-07,0.019189376
,,,-7.3E-07,0.019093126
,,,-7.2E-07,0.018630001
,,,-7.1E-07,0.018961876
,,,-7E-07,0.019146876
,,,-6.9E-07,0.019080001
,,,-6.8E-07,0.019058751
,,,-6.7E-07,0.019129376
,,,-6.6E-07,0.019123126
,,,-6.5E-07,0.019151876
,,,-6.4E-07,0.018937501
,,,-6.3E-07,0.019196876
,,,-6.2E-07,0.019166251
,,,-6.1E-07,0.019056251
,,,-6E-07,0.019030001
,,,-5.9E-07,0.019076876
,,,-5.8E-07,0.018999376
,,,-5.7E-07,0.018978751
,,,-5.6E-07,0.019148751
,,,-5.5E-07,0.019005001
,,,-5.4E-07,0.019073751
,,,-5.3E-07,0.018920001
,,,-5.2E-07,0.019046251
,,,-5.1E-07,0.019043751
,,,-5E-07,0.019120001
,,,-4.9E-07,0.018908751
,,,-4.8E-07,0.019001876
,,,-4.7E-07,0.019015626
,,,-4.6E-07,0.019297501
,,,-4.5E-07,0.018993751
,,,-4.4E-07,0.019216251
,,,-4.3E-07,0.018963126
,,,-4.2E-07,0.019021251
,,,-4.1E-07,0.019031251
,,,-4E-07,0.019001876
,,,-3.9E-07,0.018979376
,,,-3.8E-07,0.018859376
,,,-3.7E-07,0.019222501
,,,-3.6E-07,0.018861876
,,,-3.5E-07,0.019140001
,,,-3.4E-07,0.018910001
,,,-3.3E-07,0.019125001
,,,-3.2E-07,0.018882501
,,,-3.1E-07,0.019131251
,,,-3E-07,0.018986876
,,,-2.9E-07,0.018975001
,,,-2.8E-07,0.018728751
,,,-2.7E-07,0.018998751
,,,-2.6E-07,0.019045001
,,,-2.5E-07,0.019018751
,,,-2.4E-07,0.019055626
,,,-2.3E-07,0.019083751
,,,-2.2E-07,0.019130626
,,,-2.1E-07,0.018950626
,,,-2E-07,0.019113751
,,,-1.9E-07,0.019071251
,,,-1.8E-07,0.019300001
,,,-1.7E-07,0.019368126
,,,-1.6E-07,0.019130626
,,,-1.5E-07,0.018728126
,,,-1.4E-07,0.019054376
,,,-1.3E-07,0.018796876
,,,-1.2E-07,0.018998126
,,,-1.1E-07,0.019155626
,,,-1E-07,0.019206876
,,,-9E-08,0.019102501
,,,-8E-08,0.018860001
,,,-7E-08,0.019006876
,,,-6E-08,0.018488751
,,,-5E-08,0.019590626
,,,-4E-08,0.020145626
,,,-3E-08,0.020425626
,,,-2E-08,0.016693126
,,,-1E-08,0.015691876
,,,0,0.017438126
,,,1E-08,0.021395626
,,,2E-08,0.022573751
,,,3E-08,0.021211251
,,,4E-08,0.017883751
,,,5E-08,0.016728751
,,,6E-08,0.016536251
,,,7E-08,0.018361876
,,,8E-08,0.019443126
,,,9E-08,0.021071876
,,,1E-07,0.020574376
,,,1.1E-07,0.019295001
,,,1.2E-07,0.017964376
,,,1.3E-07,0.017821876
,,,1.4E-07,0.018661876
,,,1.5E-07,0.019277501
,,,1.6E-07,0.019413751
,,,1.7E-07,0.019391251
,,,1.8E-07,0.019173751
,,,1.9E-07,0.018878751
,,,2E-07,0.018960626
,,,2.1E-07,0.018664376
,,,2.2E-07,0.018796876
,,,2.3E-07,0.019065626
,,,2.4E-07,0.019322501
,,,2.5E-07,0.019300001
,,,2.6E-07,0.019092501
,,,2.7E-07,0.018966251
,,,2.8E-07,0.018931251
,,,2.9E-07,0.019130001
,,,3E-07,0.019012501
,,,3.1E-07,0.019278751
,,,3.2E-07,0.019048126
,,,3.3E-07,0.019275001
,,,3.4E-07,0.019019376
,,,3.5E-07,0.018976251
,,,3.6E-07,0.018916876
,,,3.7E-07,0.018923751
,,,3.8E-07,0.018934376
,,,3.9E-07,0.019020626
,,,4E-07,0.019215001
,,,4.1E-07,0.019246876
,,,4.2E-07,0.019146876
,,,4.3E-07,0.019088126
,,,4.4E-07,0.019053126
,,,4.5E-07,0.018895001
,,,4.6E-07,0.019108126
,,,4.7E-07,0.019096876
,,,4.8E-07,0.019055001
,,,4.9E-07,0.018914376
,,,5E-07,0.018930626
,,,5.1E-07,0.019137501
,,,5.2E-07,0.019171876
,,,5.3E-07,0.018958126
,,,5.4E-07,0.019113126
,,,5.5E-07,0.019122501
,,,5.6E-07,0.018870001
,,,5.7E-07,0.019146876
,,,5.8E-07,0.019383126
,,,5.9E-07,0.018986876
,,,6E-07,0.019068126
,,,6.1E-07,0.018894376
,,,6.2E-07,0.018880626
,,,6.3E-07,0.018900626
,,,6.4E-07,0.019272501
,,,6.5E-07,0.019269376
,,,6.6E-07,0.019156251
,,,6.7E-07,0.019043751
,,,6.8E-07,0.019088751
,,,6.9E-07,0.019115626
,,,7E-07,0.019030001
,,,7.1E-07,0.018956251
,,,7.2E-07,0.019294376
,,,7.3E-07,0.018872501
,,,7.4E-07,0.018998751
,,,7.5E-07,0.018983751
,,,7.6E-07,0.018792501
,,,7.7E-07,0.019280001
,,,7.8E-07,0.019100001
,,,7.9E-07,0.019069376
,,,8E-07,0.019084376
,,,8.1E-07,0.019138751
,,,8.2E-07,0.019205626
,,,8.3E-07,0.018835001
,,,8.4E-07,0.019144376
,,,8.5E-07,0.019282501
,,,8.6E-07,0.019160001
,,,8.7E-07,0.019474376
,,,8.8E-07,0.018946876
,,,8.9E-07,0.018848126
,,,9E-07,0.019080001
,,,9.1E-07,0.019130626
,,,9.2E-07,0.019157501
,,,9.3E-07,0.018885626
,,,9.4E-07,0.019050001
,,,9.5E-07,0.018952501
,,,9.6E-07,0.019323126
,,,9.7E-07,0.018885001
,,,9.8E-07,0.019058751
,,,9.9E-07,0.018960626
,,,1E-06,0.019051876
,,,1.01E-06,0.019008126
,,,1.02E-06,0.019063126
,,,1.03E-06,0.019056876
,,,1.04E-06,0.019330001
,,,1.05E-06,0.019017501
,,,1.06E-06,0.019109376
,,,1.07E-06,0.019049376
,,,1.08E-06,0.018873126
,,,1.09E-06,0.019196251
,,,1.1E-06,0.018920626
,,,1.11E-06,0.019166251
,,,1.12E-06,0.019273126
,,,1.13E-06,0.018928751
,,,1.14E-06,0.018925626
,,,1.15E-06,0.019156251
,,,1.16E-06,0.018996251
,,,1.17E-06,0.019056876
,,,1.18E-06,0.019185626
,,,1.19E-06,0.019058126
,,,1.2E-06,0.018957501
,,,1.21E-06,0.018859376
,,,1.22E-06,0.019206876
,,,1.23E-06,0.019028126
,,,1.24E-06,0.019091876
,,,1.25E-06,0.018705626
,,,1.26E-06,0.019148126
,,,1.27E-06,0.019173126
,,,1.28E-06,0.019098126
,,,1.29E-06,0.018928126
,,,1.3E-06,0.019186876
,,,1.31E-06,0.019033751
,,,1.32E-06,0.019046251
,,,1.33E-06,0.019343751
,,,1.34E-06,0.018949376
,,,1.35E-06,0.019060626
,,,1.36E-06,0.019186251
,,,1.37E-06,0.019161876
,,,1.38E-06,0.018821876
,,,1.39E-06,0.019000001
,,,1.4E-06,0.019124376
,,,1.41E-06,0.019191876
,,,1.42E-06,0.018911251
,,,1.43E-06,0.018996876
,,,1.44E-06,0.019016251
,,,1.45E-06,0.019137501
,,,1.46E-06,0.018771876
,,,1.47E-06,0.018965001
,,,1.48E-06,0.018895626
,,,1.49E-06,0.019074376
,,,1.5E-06,0.018868751
,,,1.51E-06,0.019021251
,,,1.52E-06,0.019046251
,,,1.53E-06,0.019094376
,,,1.54E-06,0.018924376
,,,1.55E-06,0.019035001
,,,1.56E-06,0.019088126
,,,1.57E-06,0.019213751
,,,1.58E-06,0.018965001
,,,1.59E-06,0.019206251
,,,1.6E-06,0.019213126
,,,1.61E-06,0.018861876
,,,1.62E-06,0.019008126
,,,1.63E-06,0.019026251
,,,1.64E-06,0.019216251
,,,1.65E-06,0.019106876
,,,1.66E-06,0.018940001
,,,1.67E-06,0.019070001
,,,1.68E-06,0.019058126
,,,1.69E-06,0.019231876
,,,1.7E-06,0.018985626
,,,1.71E-06,0.019035001
,,,1.72E-06,0.019248126
,,,1.73E-06,0.019173126
,,,1.74E-06,0.019052501
,,,1.75E-06,0.018908751
,,,1.76E-06,0.019032501
,,,1.77E-06,0.019147501
,,,1.78E-06,0.018975626
,,,1.79E-06,0.018974376
,,,1.8E-06,0.019276876
,,,1.81E-06,0.019100001
,,,1.82E-06,0.019151876
,,,1.83E-06,0.019083126
,,,1.84E-06,0.019276251
,,,1.85E-06,0.019157501
,,,1.86E-06,0.019258751
,,,1.87E-06,0.019197501
,,,1.88E-06,0.019061251
,,,1.89E-06,0.018856876
,,,1.9E-06,0.019245001
,,,1.91E-06,0.018961251
,,,1.92E-06,0.018885626
,,,1.93E-06,0.018998126
,,,1.94E-06,0.018976251
,,,1.95E-06,0.019037501
,,,1.96E-06,0.018741876
,,,1.97E-06,0.018996251
,,,1.98E-06,0.019062501
,,,1.99E-06,0.018875626
,,,2E-06,0.019077501
,,,2.01E-06,0.018970626
,,,2.02E-06,0.018879376
,,,2.03E-06,0.019081251
,,,2.04E-06,0.018801251
,,,2.05E-06,0.018820001
,,,2.06E-06,0.019290001
,,,2.07E-06,0.018976876
,,,2.08E-06,0.019230001
,,,2.09E-06,0.018784376
,,,2.1E-06,0.018761876
,,,2.11E-06,0.018978751
,,,2.12E-06,0.018846876
,,,2.13E-06,0.019155626
,,,2.14E-06,0.019255626
,,,2.15E-06,0.018838126
,,,2.16E-06,0.019046876
,,,2.17E-06,0.018966876
,,,2.18E-06,0.018860001
,,,2.19E-06,0.019023126
,,,2.2E-06,0.019100001
,,,2.21E-06,0.019026876
,,,2.22E-06,0.018761876
,,,2.23E-06,0.018926251
,,,2.24E-06,0.019161251
,,,2.25E-06,0.019217501
,,,2.26E-06,0.019087501
,,,2.27E-06,0.019036251
,,,2.28E-06,0.019055626
,,,2.29E-06,0.019109376
,,,2.3E-06,0.018843126
,,,2.31E-06,0.019028126
,,,2.32E-06,0.019176876
,,,2.33E-06,0.019000626
,,,2.34E-06,0.019249376
,,,2.35E-06,0.018822501
,,,2.36E-06,0.019134376
,,,2.37E-06,0.018983751
,,,2.38E-06,0.019197501
,,,2.39E-06,0.018846251
,,,2.4E-06,0.018905626
,,,2.41E-06,0.019235001
,,,2.42E-06,0.019205626
,,,2.43E-06,0.019264376
,,,2.44E-06,0.018965626
,,,2.45E-06,0.018840001
,,,2.46E-06,0.018880626
,,,2.47E-06,0.019040001
,,,2.48E-06,0.019031876
,,,2.49E-06,0.019044376
,,,2.5E-06,0.019259376
,,,2.51E-06,0.019010626
,,,2.52E-06,0.019131876
,,,2.53E-06,0.018989376
,,,2.54E-06,0.019106876
,,,2.55E-06,0.018830626
,,,2.56E-06,0.019001251
,,,2.57E-06,0.018940001
,,,2.58E-06,0.019050626
,,,2.59E-06,0.019046251
,,,2.6E-06,0.019054376
,,,2.61E-06,0.019078751
,,,2.62E-06,0.019131251
,,,2.63E-06,0.019168126
,,,2.64E-06,0.019185626
,,,2.65E-06,0.019287501
,,,2.66E-06,0.019239376
,,,2.67E-06,0.019030001
,,,2.68E-06,0.018865001
,,,2.69E-06,0.019002501
,,,2.7E-06,0.019136876
,,,2.71E-06,0.018901876
,,,2.72E-06,0.019003751
,,,2.73E-06,0.019144376
,,,2.74E-06,0.019115626
,,,2.75E-06,0.018948751
,,,2.76E-06,0.018974376
,,,2.77E-06,0.019020001
,,,2.78E-06,0.019056876
,,,2.79E-06,0.018928751
,,,2.8E-06,0.019097501
,,,2.81E-06,0.019012501
,,,2.82E-06,0.018983126
,,,2.83E-06,0.019077501
,,,2.84E-06,0.019061251
,,,2.85E-06,0.018995001
,,,2.86E-06,0.018819376
,,,2.87E-06,0.018868126
,,,2.88E-06,0.018891876
,,,2.89E-06,0.019074376
,,,2.9E-06,0.019138126
,,,2.91E-06,0.018988126
,,,2.92E-06,0.019094376
,,,2.93E-06,0.018967501
,,,2.94E-06,0.018914376
,,,2.95E-06,0.018991876
,,,2.96E-06,0.019221876
,,,2.97E-06,0.019063751
,,,2.98E-06,0.019058751
,,,2.99E-06,0.018868751
,,,3E-06,0.018978751
,,,3.01E-06,0.018950001
,,,3.02E-06,0.019233126
,,,3.03E-06,0.019080626
,,,3.04E-06,0.019073751
,,,3.05E-06,0.019021876
,,,3.06E-06,0.019046876
,,,3.07E-06,0.019241876
,,,3.08E-06,0.019225626
,,,3.09E-06,0.019105001
,,,3.1E-06,0.019186876
,,,3.11E-06,0.019306876
,,,3.12E-06,0.018896251
,,,3.13E-06,0.018976251
,,,3.14E-06,0.019233751
,,,3.15E-06,0.019105626
,,,3.16E-06,0.019251251
,,,3.17E-06,0.018971876
,,,3.18E-06,0.018751251
,,,3.19E-06,0.019001876
,,,3.2E-06,0.018936251
,,,3.21E-06,0.018701876
