data/raw/Final_POL_Test_1/SOP055_Ch1.csv

"Record Length",1000,"Points",-5E-06,0.002880625
"Sample Interval",1E-08,s,-4.99E-06,0.0029675
"Trigger Point",500,"Samples",-4.98E-06,0.003080625
"Trigger Time",0,s,-4.97E-06,0.003223125
"",,,-4.96E-06,0.00292625
"Horizontal Offset",-5E-06,s,-4.95E-06,0.002989375
,,,-4.94E-06,0.0029975
,,,-4.93E-06,0.003011875
,,,-4.92E-06,0.00307625
,,,-4.91E-06,0.0027525
,,,-4.9E-06,0.00276625
,,,-4.89E-06,0.002893125
,,,-4.88E-06,0.003124375
,,,-4.87E-06,0.00304
,,,-4.86E-06,0.00296375
,,,-4.85E-06,0.002878125
,,,-4.84E-06,0.002979375
,,,-4.83E-06,0.002985
,,,-4.82E-06,0.0029325
,,,-4.81E-06,0.003201875
,,,-4.8E-06,0.003029375
,,,-4.79E-06,0.00309375
,,,-4.78E-06,0.00280375
,,,-4.77E-06,0.003135
,,,-4.76E-06,0.002879375
,,,-4.75E-06,0.00275125
,,,-4.74E-06,0.002895625
,,,-4.73E-06,0.002995625
,,,-4.72E-06,0.002914375
,,,-4.71E-06,0.002936875
,,,-4.7E-06,0.002940625
,,,-4.69E-06,0.00284
,,,-4.68E-06,0.00297
,,,-4.67E-06,0.0031625
,,,-4.66E-06,0.003129375
,,,-4.65E-06,0.00284
,,,-4.64E-06,0.00299125
,,,-4.63E-06,0.002995625
,,,-4.62E-06,0.00299125
,,,-4.61E-06,0.00291
,,,-4.6E-06,0.00312
,,,-4.59E-06,0.003095
,,,-4.58E-06,0.002926875
,,,-4.57E-06,0.002913125
,,,-4.56E-06,0.002935625
,,,-4.55E-06,0.0030725
,,,-4.54E-06,0.0030775
,,,-4.53E-06,0.00267375
,,,-4.52E-06,0.00314875
,,,-4.51E-06,0.00294375
,,,-4.5E-06,0.00306125
,,,-4.49E-06,0.0028125
,,,-4.48E-06,0.0030425
,,,-4.47E-06,0.0029
,,,-4.46E-06,0.002850625
,,,-4.45E-06,0.002886875
,,,-4.44E-06,0.00286125
,,,-4.43E-06,0.002774375
,,,-4.42E-06,0.0029725
,,,-4.41E-06,0.002735625
,,,-4.4E-06,0.00321875
,,,-4.39E-06,0.002995
,,,-4.38E-06,0.002785
,,,-4.37E-06,0.00298
,,,-4.36E-06,0.00297875
,,,-4.35E-06,0.002836875
,,,-4.34E-06,0.002949375
,,,-4.33E-06,0.0030525
,,,-4.32E-06,0.002896875
,,,-4.31E-06,0.003015625
,,,-4.3E-06,0.00292375
,,,-4.29E-06,0.002861875
,,,-4.28E-06,0.003161875
,,,-4.27E-06,0.00296125
,,,-4.26E-06,0.002960625
,,,-4.25E-06,0.002865625
,,,-4.24E-06,0.002985625
,,,-4.23E-06,0.003246875
,,,-4.22E-06,0.00308625
,,,-4.21E-06,0.00297875
,,,-4.2E-06,0.002819375
,,,-4.19E-06,0.003093125
,,,-4.18E-06,0.0029325
,,,-4.17E-06,0.00312
,,,-4.16E-06,0.00295125
,,,-4.15E-06,0.00332875
,,,-4.14E-06,0.0030625
,,,-4.13E-06,0.003051875
,,,-4.12E-06,0.00304875
,,,-4.11E-06,0.00300875
,,,-4.1E-06,0.00308125
,,,-4.09E-06,0.00307375
,,,-4.08E-06,0.00278375
,,,-4.07E-06,0.0030375
,,,-4.06E-06,0.003011875
,,,-4.05E-06,0.0030225
,,,-4.04E-06,0.002909375
,,,-4.03E-06,0.00294625
,,,-4.02E-06,0.0028975
,,,-4.01E-06,0.00313875
,,,-4E-06,0.002751875
,,,-3.99E-06,0.00299125
,,,-3.98E-06,0.0031225
,,,-3.97E-06,0.002995
,,,-3.96E-06,0.002869375
,,,-3.95E-06,0.0030725
,,,-3.94E-06,0.00299875
,,,-3.93E-06,0.0030125
,,,-3.92E-06,0.00302625
,,,-3.91E-06,0.002925
,,,-3.9E-06,0.002989375
,,,-3.89E-06,0.002944375
,,,-3.88E-06,0.002855
,,,-3.87E-06,0.003076875
,,,-3.86E-06,0.0031225
,,,-3.85E-06,0.003091875
,,,-3.84E-06,0.00324625
,,,-3.83E-06,0.00283375
,,,-3.82E-06,0.0032675
,,,-3.81E-06,0.003300625
,,,-3.8E-06,0.0029875
,,,-3.79E-06,0.002849375
,,,-3.78E-06,0.00299
,,,-3.77E-06,0.003125
,,,-3.76E-06,0.003053125
,,,-3.75E-06,0.002731875
,,,-3.74E-06,0.00311
,,,-3.73E-06,0.00300125
,,,-3.72E-06,0.0029
,,,-3.71E-06,0.002953125
,,,-3.7E-06,0.00324
,,,-3.69E-06,0.003119375
,,,-3.68E-06,0.003409375
,,,-3.67E-06,0.002813125
,,,-3.66E-06,0.00299125
,,,-3.65E-06,0.00300875
,,,-3.64E-06,0.00303
,,,-3.63E-06,0.00303375
,,,-3.62E-06,0.002854375
,,,-3.61E-06,0.002695625
,,,-3.6E-06,0.003118125
,,,-3.59E-06,0.003199375
,,,-3.58E-06,0.00290125
,,,-3.57E-06,0.003105
,,,-3.56E-06,0.00306125
,,,-3.55E-06,0.003095625
,,,-3.54E-06,0.00301125
,,,-3.53E-06,0.002871875
,,,-3.52E-06,0.0030475
,,,-3.51E-06,0.003033125
,,,-3.5E-06,0.003113125
,,,-3.49E-06,0.003019375
,,,-3.48E-06,0.0030975
,,,-3.47E-06,0.00304
,,,-3.46E-06,0.003103125
,,,-3.45E-06,0.002924375
,,,-3.44E-06,0.003045
,,,-3.43E-06,0.00296875
,,,-3.42E-06,0.002876875
,,,-3.41E-06,0.0031525
,,,-3.4E-06,0.003135625
,,,-3.39E-06,0.0031675
,,,-3.38E-06,0.00280375
,,,-3.37E-06,0.00303375
,,,-3.36E-06,0.0030975
,,,-3.35E-06,0.002965625
,,,-3.34E-06,0.00301625
,,,-3.33E-06,0.003115
,,,-3.32E-06,0.003018125
,,,-3.31E-06,0.0031825
,,,-3.3E-06,0.003041875
,,,-3.29E-06,0.0030175
,,,-3.28E-06,0.002921875
,,,-3.27E-06,0.0029725
,,,-3.26E-06,0.002909375
,,,-3.25E-06,0.00299
,,,-3.24E-06,0.00301625
,,,-3.23E-06,0.003140625
,,,-3.22E-06,0.003054375
,,,-3.21E-06,0.00327875
,,,-3.2E-06,0.00315875
,,,-3.19E-06,0.002880625
,,,-3.18E-06,0.00336
,,,-3.17E-06,0.0030125
,,,-3.16E-06,0.003163125
,,,-3.15E-06,0.002739375
,,,-3.14E-06,0.002865
,,,-3.13E-06,0.0029725
,,,-3.12E-06,0.00292125
,,,-3.11E-06,0.0028975
,,,-3.1E-06,0.003051875
,,,-3.09E-06,0.00284
,,,-3.08E-06,0.00279125
,,,-3.07E-06,0.003080625
,,,-3.06E-06,0.003260625
,,,-3.05E-06,0.0028275
,,,-3.04E-06,0.003115625
,,,-3.03E-06,0.002721875
,,,-3.02E-06,0.002974375
,,,-3.01E-06,0.0030225
,,,-3E-06,0.003
,,,-2.99E-06,0.002870625
,,,-2.98E-06,0.003086875
,,,-2.97E-06,0.00300875
,,,-2.96E-06,0.003025
,,,-2.95E-06,0.003025
,,,-2.94E-06,0.00295625
,,,-2.93E-06,0.0029525
,,,-2.92E-06,0.002733125
,,,-2.91E-06,0.0028
,,,-2.9E-06,0.003086875
,,,-2.89E-06,0.0028675
,,,-2.88E-06,0.003065
,,,-2.87E-06,0.003456875
,,,-2.86E-06,0.002924375
,,,-2.85E-06,0.00290625
,,,-2.84E-06,0.00286375
,,,-2.83E-06,0.002946875
,,,-2.82E-06,0.003003125
,,,-2.81E-06,0.002936875
,,,-2.8E-06,0.00300875
,,,-2.79E-06,0.002786875
,,,-2.78E-06,0.0028
,,,-2.77E-06,0.00314625
,,,-2.76E-06,0.002900625
,,,-2.75E-06,0.0031175
,,,-2.74E-06,0.003115
,,,-2.73E-06,0.003000625
,,,-2.72E-06,0.0028825
,,,-2.71E-06,0.00286
,,,-2.7E-06,0.003035625
,,,-2.69E-06,0.003078125
,,,-2.68E-06,0.00299875
,,,-2.67E-06,0.0028825
,,,-2.66E-06,0.003316875
,,,-2.65E-06,0.003098125
,,,-2.64E-06,0.003089375
,,,-2.63E-06,0.002944375
,,,-2.62E-06,0.002878125
,,,-2.61E-06,0.00303625
,,,-2.6E-06,0.00319
,,,-2.59E-06,0.003035625
,,,-2.58E-06,0.003018125
,,,-2.57E-06,0.0030875
,,,-2.56E-06,0.003191875
,,,-2.55E-06,0.0030275
,,,-2.54E-06,0.00301125
,,,-2.53E-06,0.002995625
,,,-2.52E-06,0.003011875
,,,-2.51E-06,0.00302125
,,,-2.5E-06,0.00297875
,,,-2.49E-06,0.0028175
,,,-2.48E-06,0.00285875
,,,-2.47E-06,0.0028725
,,,-2.46E-06,0.00276
,,,-2.45E-06,0.00302875
,,,-2.44E-06,0.002919375
,,,-2.43E-06,0.00281
,,,-2.42E-06,0.002855625
,,,-2.41E-06,0.00286
,,,-2.4E-06,0.00285375
,,,-2.39E-06,0.00289375
,,,-2.38E-06,0.0029125
,,,-2.37E-06,0.003005625
,,,-2.36E-06,0.002916875
,,,-2.35E-06,0.00278
,,,-2.34E-06,0.002988125
,,,-2.33E-06,0.00297375
,,,-2.32E-06,0.002871875
,,,-2.31E-06,0.00300625
,,,-2.3E-06,0.003095625
,,,-2.29E-06,0.00291875
,,,-2.28E-06,0.0031025
,,,-2.27E-06,0.003055625
,,,-2.26E-06,0.003075
,,,-2.25E-06,0.00281375
,,,-2.24E-06,0.002744375
,,,-2.23E-06,0.002783125
,,,-2.22E-06,0.002885625
,,,-2.21E-06,0.003193125
,,,-2.2E-06,0.00299
,,,-2.19E-06,0.00289
,,,-2.18E-06,0.002840625
,,,-2.17E-06,0.00302125
,,,-2.16E-06,0.0030875
,,,-2.15E-06,0.002905
,,,-2.14E-06,0.00298125
,,,-2.13E-06,0.00309375
,,,-2.12E-06,0.00310375
,,,-2.11E-06,0.002815
,,,-2.1E-06,0.00298125
,,,-2.09E-06,0.0028475
,,,-2.08E-06,0.003094375
,,,-2.07E-06,0.003035625
,,,-2.06E-06,0.00291125
,,,-2.05E-06,0.00274125
,,,-2.04E-06,0.003070625
,,,-2.03E-06,0.002809375
,,,-2.02E-06,0.0030525
,,,-2.01E-06,0.002820625
,,,-2E-06,0.003134375
,,,-1.99E-06,0.00306
,,,-1.98E-06,0.002921875
,,,-1.97E-06,0.00297125
,,,-1.96E-06,0.003238125
,,,-1.95E-06,0.00318875
,,,-1.94E-06,0.00314625
,,,-1.93E-06,0.00311
,,,-1.92E-06,0.002998125
,,,-1.91E-06,0.003185625
,,,-1.9E-06,0.0028775
,,,-1.89E-06,0.0031625
,,,-1.88E-06,0.0029975
,,,-1.87E-06,0.002786875
,,,-1.86E-06,0.002795625
,,,-1.85E-06,0.002903125
,,,-1.84E-06,0.003118125
,,,-1.83E-06,0.003019375
,,,-1.82E-06,0.00308
,,,-1.81E-06,0.00294875
,,,-1.8E-06,0.00287875
,,,-1.79E-06,0.003105
,,,-1.78E-06,0.00297875
,,,-1.77E-06,0.002981875
,,,-1.76E-06,0.0029225
,,,-1.75E-06,0.0029875
,,,-1.74E-06,0.003191875
,,,-1.73E-06,0.002691875
,,,-1.72E-06,0.002813125
,,,-1.71E-06,0.002834375
,,,-1.7E-06,0.002706875
,,,-1.69E-06,0.003031875
,,,-1.68E-06,0.002966875
,,,-1.67E-06,0.00311125
,,,-1.66E-06,0.003240625
,,,-1.65E-06,0.002995625
,,,-1.64E-06,0.0029725
,,,-1.63E-06,0.003010625
,,,-1.62E-06,0.002966875
,,,-1.61E-06,0.00283
,,,-1.6E-06,0.0028775
,,,-1.59E-06,0.002913125
,,,-1.58E-06,0.0031275
,,,-1.57E-06,0.002974375
,,,-1.56E-06,0.003168125
,,,-1.55E-06,0.003193125
,,,-1.54E-06,0.0028175
,,,-1.53E-06,0.002990625
,,,-1.52E-06,0.00291625
,,,-1.51E-06,0.0030525
,,,-1.5E-06,0.002989375
,,,-1.49E-06,0.003021875
,,,-1.48E-06,0.002646875
,,,-1.47E-06,0.002996875
,,,-1.46E-06,0.002916875
,,,-1.45E-06,0.0032075
,,,-1.44E-06,0.00298625
,,,-1.43E-06,0.00283
,,,-1.42E-06,0.00316375
,,,-1.41E-06,0.003056875
,,,-1.4E-06,0.003025625
,,,-1.39E-06,0.00297375
,,,-1.38E-06,0.002998125
,,,-1.37E-06,0.003186875
,,,-1.36E-06,0.00290375
,,,-1.35E-06,0.0028975
,,,-1.34E-06,0.00292625
,,,-1.33E-06,0.00306125
,,,-1.32E-06,0.00308
,,,-1.31E-06,0.002898125
,,,-1.3E-06,0.003060625
,,,-1.29E-06,0.003145625
,,,-1.28E-06,0.003016875
,,,-1.27E-06,0.00297625
,,,-1.26E-06,0.00306625
,,,-1.25E-06,0.002923125
,,,-1.24E-06,0.00321875
,,,-1.23E-06,0.003163125
,,,-1.22E-06,0.002739375
,,,-1.21E-06,0.003008125
,,,-1.2E-06,0.0032275
,,,-1.19E-06,0.003009375
,,,-1.18E-06,0.0028575
,,,-1.17E-06,0.0030225
,,,-1.16E-06,0.002849375
,,,-1.15E-06,0.002955625
,,,-1.14E-06,0.003120625
,,,-1.13E-06,0.00273625
,,,-1.12E-06,0.002945
,,,-1.11E-06,0.00299125
,,,-1.1E-06,0.003066875
,,,-1.09E-06,0.003094375
,,,-1.08E-06,0.00298625
,,,-1.07E-06,0.00310875
,,,-1.06E-06,0.00315
,,,-1.05E-06,0.002886875
,,,-1.04E-06,0.003081875
,,,-1.03E-06,0.00308375
,,,-1.02E-06,0.00302875
,,,-1.01E-06,0.00306375
,,,-1E-06,0.002866875
,,,-9.9E-07,0.002769375
,,,-9.8E-07,0.003010625
,,,-9.7E-07,0.002880625
,,,-9.6E-07,0.002996875
,,,-9.5E-07,0.002868125
,,,-9.4E-07,0.00291
,,,-9.3E-07,0.003015
,,,-9.2E-07,0.002918125
,,,-9.1E-07,0.002926875
,,,-9E-07,0.003013125
,,,-8.9E-07,0.003151875
,,,-8.8E-07,0.00299875
,,,-8.7E-07,0.002514375
,,,-8.6E-07,0.0028475
,,,-8.5E-07,0.003025
,,,-8.4E-07,0.00287625
,,,-8.3E-07,0.00294875
,,,-8.2E-07,0.003035625
,,,-8.1E-07,0.00299625
,,,-8E-07,0.002963125
,,,-7.9E-07,0.002779375
,,,-7.8E-07,0.00285125
,,,-7.7E-07,0.002734375
,,,-7.6E-07,0.00315
,,,-7.5E-07,0.0029575
,,,-7.4E-07,0.00281
,,,-7.3E-07,0.00297625
,,,-7.2E-07,0.003003125
,,,-7.1E-07,0.002809375
,,,-7E-07,0.0029775
,,,-6.9E-07,0.003080625
,,,-6.8E-07,0.003050625
,,,-6.7E-07,0.00319875
,,,-6.6E-07,0.003238125
,,,-6.5E-07,0.003099375
,,,-6.4E-07,0.00295
,,,-6.3E-07,0.002823125
,,,-6.2E-07,0.003028125
,,,-6.1E-07,0.0026675
,,,-6E-07,0.002845
,,,-5.9E-07,0.002910625
,,,-5.8E-07,0.00306
,,,-5.7E-07,0.002913125
,,,-5.6E-07,0.0029025
,,,-5.5E-07,0.002945625
,,,-5.4E-07,0.002915625
,,,-5.3E-07,0.002775625
,,,-5.2E-07,0.003119375
,,,-5.1E-07,0.003056875
,,,-5E-07,0.003065625
,,,-4.9E-07,0.002896875
,,,-4.8E-07,0.003125625
,,,-4.7E-07,0.003045625
,,,-4.6E-07,0.0030725
,,,-4.5E-07,0.002900625
,,,-4.4E-07,0.002860625
,,,-4.3E-07,0.00322
,,,-4.2E-07,0.002993125
,,,-4.1E-07,0.002856875
,,,-4E-07,0.002969375
,,,-3.9E-07,0.0028775
,,,-3.8E-07,0.0030475
,,,-3.7E-07,0.0030575
,,,-3.6E-07,0.00280875
,,,-3.5E-07,0.0033725
,,,-3.4E-07,0.003018125
,,,-3.3E-07,0.003008125
,,,-3.2E-07,0.003198125
,,,-3.1E-07,0.003255
,,,-3E-07,0.00303875
,,,-2.9E-07,0.002923125
,,,-2.8E-07,0.003008125
,,,-2.7E-07,0.002841875
,,,-2.6E-07,0.00296
,,,-2.5E-07,0.002894375
,,,-2.4E-07,0.002784375
,,,-2.3E-07,0.003173125
,,,-2.2E-07,0.00310875
,,,-2.1E-07,0.00283375
,,,-2E-07,0.00314
,,,-1.9E-07,0.00296875
,,,-1.8E-07,0.00283625
,,,-1.7E-07,0.0028725
,,,-1.6E-07,0.0031375
,,,-1.5E-07,0.0029225
,,,-1.4E-07,0.0031525
,,,-1.3E-07,0.0027975
,,,-1.2E-07,0.0031325
,,,-1.1E-07,0.00296125
,,,-1E-07,0.00317625
,,,-9E-08,0.002978125
,,,-8E-08,0.002975625
,,,-7E-08,0.003083125
,,,-6E-08,0.002879375
,,,-5E-08,0.00315
,,,-4E-08,0.00339625
,,,-3E-08,0.0028625
,,,-2E-08,0.0029425
,,,-1E-08,0.0025725
,,,0,0.0033625
,,,1E-08,0.003840625
,,,2E-08,0.003224375
,,,3E-08,0.0027725
,,,4E-08,0.002385625
,,,5E-08,0.00294875
,,,6E-08,0.002993125
,,,7E-08,0.003406875
,,,8E-08,0.003320625
,,,9E-08,0.003056875
,,,1E-07,0.002875
,,,1.1E-07,0.0026775
,,,1.2E-07,0.002860625
,,,1.3E-07,0.002845
,,,1.4E-07,0.0031075
,,,1.5E-07,0.002939375
,,,1.6E-07,0.003019375
,,,1.7E-07,0.00303875
,,,1.8E-07,0.002920625
,,,1.9E-07,0.003164375
,,,2E-07,0.002958125
,,,2.1E-07,0.002949375
,,,2.2E-07,0.002964375
,,,2.3E-07,0.002930625
,,,2.4E-07,0.002898125
,,,2.5E-07,0.0030475
,,,2.6E-07,0.003086875
,,,2.7E-07,0.002941875
,,,2.8E-07,0.003154375
,,,2.9E-07,0.002971875
,,,3E-07,0.002786875
,,,3.1E-07,0.003030625
,,,3.2E-07,0.002898125
,,,3.3E-07,0.003208125
,,,3.4E-07,0.0029825
,,,3.5E-07,0.00300375
,,,3.6E-07,0.002821875
,,,3.7E-07,0.003031875
,,,3.8E-07,0.002918125
,,,3.9E-07,0.002901875
,,,4E-07,0.003119375
,,,4.1E-07,0.002964375
,,,4.2E-07,0.002993125
,,,4.3E-07,0.002794375
,,,4.4E-07,0.003319375
,,,4.5E-07,0.00307625
,,,4.6E-07,0.0028
,,,4.7E-07,0.002904375
,,,4.8E-07,0.002849375
,,,4.9E-07,0.00294375
,,,5E-07,0.003174375
,,,5.1E-07,0.00308
,,,5.2E-07,0.0028875
,,,5.3E-07,0.0028775
,,,5.4E-07,0.003045
,,,5.5E-07,0.003070625
,,,5.6E-07,0.003068125
,,,5.7E-07,0.003010625
,,,5.8E-07,0.00286375
,,,5.9E-07,0.00268
,,,6E-07,0.0028175
,,,6.1E-07,0.00288
,,,6.2E-07,0.002864375
,,,6.3E-07,0.003226875
,,,6.4E-07,0.0029325
,,,6.5E-07,0.003171875
,,,6.6E-07,0.003020625
,,,6.7E-07,0.002865625
,,,6.8E-07,0.00296
,,,6.9E-07,0.003325625
,,,7E-07,0.00331625
,,,7.1E-07,0.002755625
,,,7.2E-07,0.0028975
,,,7.3E-07,0.002865625
,,,7.4E-07,0.003105
,,,7.5E-07,0.002985
,,,7.6E-07,0.00315
,,,7.7E-07,0.002910625
,,,7.8E-07,0.002875625
,,,7.9E-07,0.002851875
,,,8E-07,0.002891875
,,,8.1E-07,0.0028425
,,,8.2E-07,0.00317
,,,8.3E-07,0.0028
,,,8.4E-07,0.0029975
,,,8.5E-07,0.00302875
,,,8.6E-07,0.0031425
,,,8.7E-07,0.003045
,,,8.8E-07,0.00315625
,,,8.9E-07,0.0029425
,,,9E-07,0.0031475
,,,9.1E-07,0.002860625
,,,9.2E-07,0.003165
,,,9.3E-07,0.003104375
,,,9.4E-07,0.00279375
,,,9.5E-07,0.00310375
,,,9.6E-07,0.00291
,,,9.7E-07,0.0032825
,,,9.8E-07,0.002925
,,,9.9E-07,0.0029725
,,,1E-06,0.0029475
,,,1.01E-06,0.0028425
,,,1.02E-06,0.00288
,,,1.03E-06,0.002998125
,,,1.04E-06,0.002751875
,,,1.05E-06,0.0029125
,,,1.06E-06,0.002860625
,,,1.07E-06,0.002671875
,,,1.08E-06,0.00278
,,,1.09E-06,0.003016875
,,,1.1E-06,0.00305875
,,,1.11E-06,0.002949375
,,,1.12E-06,0.00282875
,,,1.13E-06,0.003013125
,,,1.14E-06,0.002779375
,,,1.15E-06,0.003224375
,,,1.16E-06,0.00284
,,,1.17E-06,0.003023125
,,,1.18E-06,0.002791875
,,,1.19E-06,0.00301375
,,,1.2E-06,0.002901875
,,,1.21E-06,0.00313125
,,,1.22E-06,0.00305
,,,1.23E-06,0.003105
,,,1.24E-06,0.002923125
,,,1.25E-06,0.00298
,,,1.26E-06,0.002809375
,,,1.27E-06,0.003079375
,,,1.28E-06,0.0030725
,,,1.29E-06,0.00330125
,,,1.3E-06,0.003075
,,,1.31E-06,0.0032075
,,,1.32E-06,0.00289125
,,,1.33E-06,0.00324375
,,,1.34E-06,0.002781875
,,,1.35E-06,0.002944375
,,,1.36E-06,0.0028325
,,,1.37E-06,0.00287375
,,,1.38E-06,0.003075
,,,1.39E-06,0.003169375
,,,1.4E-06,0.0031325
,,,1.41E-06,0.00300375
,,,1.42E-06,0.003175
,,,1.43E-06,0.003050625
,,,1.44E-06,0.002958125
,,,1.45E-06,0.0029725
,,,1.46E-06,0.00307125
,,,1.47E-06,0.00293875
,,,1.48E-06,0.00301375
,,,1.49E-06,0.00291375
,,,1.5E-06,0.00310875
,,,1.51E-06,0.002933125
,,,1.52E-06,0.00325375
,,,1.53E-06,0.002825625
,,,1.54E-06,0.0031625
,,,1.55E-06,0.003059375
,,,1.56E-06,0.003129375
,,,1.57E-06,0.002789375
,,,1.58E-06,0.002969375
,,,1.59E-06,0.002924375
,,,1.6E-06,0.003054375
,,,1.61E-06,0.002991875
,,,1.62E-06,0.00292875
,,,1.63E-06,0.002989375
,,,1.64E-06,0.003125625
,,,1.65E-06,0.003290625
,,,1.66E-06,0.00317375
,,,1.67E-06,0.0029625
,,,1.68E-06,0.00314375
,,,1.69E-06,0.00284625
,,,1.7E-06,0.00305
,,,1.71E-06,0.002940625
,,,1.72E-06,0.00308125
,,,1.73E-06,0.002955625
,,,1.74E-06,0.003045
,,,1.75E-06,0.003014375
,,,1.76E-06,0.003126875
,,,1.77E-06,0.003154375
,,,1.78E-06,0.003025625
,,,1.79E-06,0.00296875
,,,1.8E-06,0.002973125
,,,1.81E-06,0.002985625
,,,1.82E-06,0.00319375
,,,1.83E-06,0.00317625
,,,1.84E-06,0.00290625
,,,1.85E-06,0.00271625
,,,1.86E-06,0.003309375
,,,1.87E-06,0.002979375
,,,1.88E-06,0.0030475
,,,1.89E-06,0.002733125
,,,1.9E-06,0.0029125
,,,1.91E-06,0.002960625
,,,1.92E-06,0.002765
,,,1.93E-06,0.00298125
,,,1.94E-06,0.00314625
,,,1.95E-06,0.00292125
,,,1.96E-06,0.0032875
,,,1.97E-06,0.003030625
,,,1.98E-06,0.002846875
,,,1.99E-06,0.002850625
,,,2E-06,0.00304125
,,,2.01E-06,0.003043125
,,,2.02E-06,0.003021875
,,,2.03E-06,0.003034375
,,,2.04E-06,0.002893125
,,,2.05E-06,0.003095625
,,,2.06E-06,0.002926875
,,,2.07E-06,0.003075
,,,2.08E-06,0.00304125
,,,2.09E-06,0.0029575
,,,2.1E-06,0.00321875
,,,2.11E-06,0.003
,,,2.12E-06,0.003004375
,,,2.13E-06,0.003009375
,,,2.14E-06,0.002975
,,,2.15E-06,0.0030175
,,,2.16E-06,0.00327625
,,,2.17E-06,0.00326125
,,,2.18E-06,0.00275375
,,,2.19E-06,0.003005625
,,,2.2E-06,0.003209375
,,,2.21E-06,0.003226875
,,,2.22E-06,0.003081875
,,,2.23E-06,0.00297375
,,,2.24E-06,0.00306875
,,,2.25E-06,0.0030925
,,,2.26E-06,0.002935
,,,2.27E-06,0.003014375
,,,2.28E-06,0.0029175
,,,2.29E-06,0.003021875
,,,2.3E-06,0.00298875
,,,2.31E-06,0.00305
,,,2.32E-06,0.003035
,,,2.33E-06,0.002995625
,,,2.34E-06,0.002868125
,,,2.35E-06,0.00278875
,,,2.36E-06,0.003041875
,,,2.37E-06,0.002863125
,,,2.38E-06,0.002823125
,,,2.39E-06,0.003041875
,,,2.4E-06,0.00327625
,,,2.41E-06,0.0031425
,,,2.42E-06,0.0029725
,,,2.43E-06,0.003226875
,,,2.44E-06,0.002818125
,,,2.45E-06,0.00299375
,,,2.46E-06,0.00293625
,,,2.47E-06,0.002745
,,,2.48E-06,0.00293125
,,,2.49E-06,0.003005
,,,2.5E-06,0.002969375
,,,2.51E-06,0.003261875
,,,2.52E-06,0.00285375
,,,2.53E-06,0.00291375
,,,2.54E-06,0.00292375
,,,2.55E-06,0.003221875
,,,2.56E-06,0.003000625
,,,2.57E-06,0.00293
,,,2.58E-06,0.003069375
,,,2.59E-06,0.003120625
,,,2.6E-06,0.002845625
,,,2.61E-06,0.00285625
,,,2.62E-06,0.003051875
,,,2.63E-06,0.00291375
,,,2.64E-06,0.002934375
,,,2.65E-06,0.00339375
,,,2.66E-06,0.0032975
,,,2.67E-06,0.0029625
,,,2.68E-06,0.002998125
,,,2.69E-06,0.00307875
,,,2.7E-06,0.003124375
,,,2.71E-06,0.00311875
,,,2.72E-06,0.002876875
,,,2.73E-06,0.0029425
,,,2.74E-06,0.0029175
,,,2.75E-06,0.0030475
,,,2.76E-06,0.00291625
,,,2.77E-06,0.002905625
,,,2.78E-06,0.002995
,,,2.79E-06,0.002985625
,,,2.8E-06,0.00302875
,,,2.81E-06,0.002801875
,,,2.82E-06,0.002960625
,,,2.83E-06,0.003090625
,,,2.84E-06,0.00312375
,,,2.85E-06,0.00315375
,,,2.86E-06,0.002971875
,,,2.87E-06,0.0029375
,,,2.88E-06,0.00314
,,,2.89E-06,0.00305875
,,,2.9E-06,0.00317375
,,,2.91E-06,0.0029575
,,,2.92E-06,0.00300625
,,,2.93E-06,0.00281375
,,,2.94E-06,0.00295125
,,,2.95E-06,0.00296625
,,,2.96E-06,0.00302875
,,,2.97E-06,0.00294
,,,2.98E-06,0.002919375
,,,2.99E-06,0.002994375
,,,3E-06,0.002880625
,,,3.01E-06,0.00312
,,,3.02E-06,0.003074375
,,,3.03E-06,0.00285125
,,,3.04E-06,0.00322625
,,,3.05E-06,0.002971875
,,,3.06E-06,0.00312625
,,,3.07E-06,0.003118125
,,,3.08E-06,0.002885
,,,3.09E-06,0.003003125
,,,3.1E-06,0.002846875
,,,3.11E-06,0.002880625
,,,3.12E-06,0.00306625
,,,3.13E-06,0.00276125
,,,3.14E-06,0.00272
,,,3.15E-06,0.002759375
,,,3.16E-06,0.002996875
,,,3.17E-06,0.002991875
,,,3.18E-06,0.003181875
,,,3.19E-06,0.002750625
,,,3.2E-06,0.003225
,,,3.21E-06,0.0030225
,,,3.22E-06,0.00328
,,,3.23E-06,0.00303875
,,,3.24E-06,0.002898125
,,,3.25E-06,0.002993125
,,,3.26E-06,0.002934375
,,,3.27E-06,0.003135625
,,,3.28E-06,0.002696875
,,,3.29E-06,0.00306375
,,,3.3E-06,0.00302875
,,,3.31E-06,0.0028975
,,,3.32E-06,0.00292125
,,,3.33E-06,0.00298125
,,,3.34E-06,0.002918125
,,,3.35E-06,0.002854375
,,,3.36E-06,0.00303
,,,3.37E-06,0.0028525
,,,3.38E-06,0.002911875
,,,3.39E-06,0.00306
,,,3.4E-06,0.00278625
,,,3.41E-06,0.002734375
,,,3.42E-06,0.002903125
,,,3.43E-06,0.002784375
,,,3.44E-06,0.002755
,,,3.45E-06,0.0029625
,,,3.46E-06,0.00332
,,,3.47E-06,0.003108125
,,,3.48E-06,0.003055
,,,3.49E-06,0.003115
,,,3.5E-06,0.002886875
,,,3.51E-06,0.003054375
,,,3.52E-06,0.003113125
,,,3.53E-06,0.00312
,,,3.54E-06,0.003025
,,,3.55E-06,0.0029225
,,,3.56E-06,0.002933125
,,,3.57E-06,0.002814375
,,,3.58E-06,0.003098125
,,,3.59E-06,0.002846875
