data/raw/Final_POL_Test_1/SOP010_Ch2.csv

"Record Length",1000,"Points",-5E-06,0.019104375
"Sample Interval",1E-08,s,-4.99E-06,0.0193425
"Trigger Point",500,"Samples",-4.98E-06,0.018895
"Trigger Time",0,s,-4.97E-06,0.0193225
"",,,-4.96E-06,0.019346875
"Horizontal Offset",-5E-06,s,-4.95E-06,0.019089375
,,,-4.94E-06,0.019181875
,,,-4.93E-06,0.019010625
,,,-4.92E-06,0.01907125
,,,-4.91E-06,0.01919375
,,,-4.9E-06,0.019024375
,,,-4.89E-06,0.01921125
,,,-4.88E-06,0.018946875
,,,-4.87E-06,0.0190725
,,,-4.86E-06,0.019088125
,,,-4.85E-06,0.019403125
,,,-4.84E-06,0.019123125
,,,-4.83E-06,0.018791875
,,,-4.82E-06,0.018934375
,,,-4.81E-06,0.01909875
,,,-4.8E-06,0.0187575
,,,-4.79E-06,0.019113125
,,,-4.78E-06,0.01854
,,,-4.77E-06,0.019185
,,,-4.76E-06,0.01911125
,,,-4.75E-06,0.019051875
,,,-4.74E-06,0.019150625
,,,-4.73E-06,0.019371875
,,,-4.72E-06,0.0188675
,,,-4.71E-06,0.0188525
,,,-4.7E-06,0.019060625
,,,-4.69E-06,0.018891875
,,,-4.68E-06,0.01902875
,,,-4.67E-06,0.018959375
,,,-4.66E-06,0.019378125
,,,-4.65E-06,0.01908625
,,,-4.64E-06,0.018894375
,,,-4.63E-06,0.0189025
,,,-4.62E-06,0.019195625
,,,-4.61E-06,0.018896875
,,,-4.6E-06,0.01886625
,,,-4.59E-06,0.01897625
,,,-4.58E-06,0.019119375
,,,-4.57E-06,0.01884125
,,,-4.56E-06,0.019141875
,,,-4.55E-06,0.01897375
,,,-4.54E-06,0.019394375
,,,-4.53E-06,0.01907875
,,,-4.52E-06,0.019058125
,,,-4.51E-06,0.0188975
,,,-4.5E-06,0.01905875
,,,-4.49E-06,0.019206875
,,,-4.48E-06,0.01904875
,,,-4.47E-06,0.019048125
,,,-4.46E-06,0.019055625
,,,-4.45E-06,0.01868625
,,,-4.44E-06,0.01904875
,,,-4.43E-06,0.0190975
,,,-4.42E-06,0.0191525
,,,-4.41E-06,0.019106875
,,,-4.4E-06,0.01910875
,,,-4.39E-06,0.01907125
,,,-4.38E-06,0.01926125
,,,-4.37E-06,0.01932375
,,,-4.36E-06,0.019004375
,,,-4.35E-06,0.01896375
,,,-4.34E-06,0.018871875
,,,-4.33E-06,0.01889
,,,-4.32E-06,0.01908625
,,,-4.31E-06,0.018966875
,,,-4.3E-06,0.01911375
,,,-4.29E-06,0.01926625
,,,-4.28E-06,0.019203125
,,,-4.27E-06,0.019040625
,,,-4.26E-06,0.019108125
,,,-4.25E-06,0.01896125
,,,-4.24E-06,0.019171875
,,,-4.23E-06,0.019101875
,,,-4.22E-06,0.019270625
,,,-4.21E-06,0.01884875
,,,-4.2E-06,0.0189525
,,,-4.19E-06,0.01898625
,,,-4.18E-06,0.019081875
,,,-4.17E-06,0.0190925
,,,-4.16E-06,0.019094375
,,,-4.15E-06,0.0189725
,,,-4.14E-06,0.0189575
,,,-4.13E-06,0.018999375
,,,-4.12E-06,0.0189875
,,,-4.11E-06,0.01886125
,,,-4.1E-06,0.019168125
,,,-4.09E-06,0.018920625
,,,-4.08E-06,0.0191625
,,,-4.07E-06,0.019154375
,,,-4.06E-06,0.01893875
,,,-4.05E-06,0.018705
,,,-4.04E-06,0.018956875
,,,-4.03E-06,0.019019375
,,,-4.02E-06,0.01908375
,,,-4.01E-06,0.019180625
,,,-4E-06,0.019073125
,,,-3.99E-06,0.01933125
,,,-3.98E-06,0.0190775
,,,-3.97E-06,0.018926875
,,,-3.96E-06,0.01879625
,,,-3.95E-06,0.018763125
,,,-3.94E-06,0.0188325
,,,-3.93E-06,0.019066875
,,,-3.92E-06,0.0186975
,,,-3.91E-06,0.019170625
,,,-3.9E-06,0.0190925
,,,-3.89E-06,0.019181875
,,,-3.88E-06,0.019020625
,,,-3.87E-06,0.01915375
,,,-3.86E-06,0.019019375
,,,-3.85E-06,0.019149375
,,,-3.84E-06,0.019163125
,,,-3.83E-06,0.018963125
,,,-3.82E-06,0.019025625
,,,-3.81E-06,0.01911875
,,,-3.8E-06,0.019048125
,,,-3.79E-06,0.019195625
,,,-3.78E-06,0.0192025
,,,-3.77E-06,0.0191125
,,,-3.76E-06,0.018869375
,,,-3.75E-06,0.01897
,,,-3.74E-06,0.019220625
,,,-3.73E-06,0.0189925
,,,-3.72E-06,0.019044375
,,,-3.71E-06,0.018963125
,,,-3.7E-06,0.018648125
,,,-3.69E-06,0.019035
,,,-3.68E-06,0.0189625
,,,-3.67E-06,0.018950625
,,,-3.66E-06,0.0190775
,,,-3.65E-06,0.019188125
,,,-3.64E-06,0.019230625
,,,-3.63E-06,0.0189875
,,,-3.62E-06,0.0191425
,,,-3.61E-06,0.019000625
,,,-3.6E-06,0.018805
,,,-3.59E-06,0.019101875
,,,-3.58E-06,0.01917125
,,,-3.57E-06,0.01923625
,,,-3.56E-06,0.01911125
,,,-3.55E-06,0.0190825
,,,-3.54E-06,0.019154375
,,,-3.53E-06,0.018990625
,,,-3.52E-06,0.018804375
,,,-3.51E-06,0.01908875
,,,-3.5E-06,0.01907375
,,,-3.49E-06,0.0188575
,,,-3.48E-06,0.019118125
,,,-3.47E-06,0.018733125
,,,-3.46E-06,0.01926
,,,-3.45E-06,0.019016875
,,,-3.44E-06,0.019163125
,,,-3.43E-06,0.019160625
,,,-3.42E-06,0.0190975
,,,-3.41E-06,0.018905625
,,,-3.4E-06,0.01892625
,,,-3.39E-06,0.019138125
,,,-3.38E-06,0.01879625
,,,-3.37E-06,0.018890625
,,,-3.36E-06,0.019000625
,,,-3.35E-06,0.01912875
,,,-3.34E-06,0.0191125
,,,-3.33E-06,0.019245
,,,-3.32E-06,0.01916625
,,,-3.31E-06,0.0190425
,,,-3.3E-06,0.01916625
,,,-3.29E-06,0.018900625
,,,-3.28E-06,0.019215625
,,,-3.27E-06,0.019225625
,,,-3.26E-06,0.019049375
,,,-3.25E-06,0.01916375
,,,-3.24E-06,0.019405
,,,-3.23E-06,0.018984375
,,,-3.22E-06,0.01909125
,,,-3.21E-06,0.01896
,,,-3.2E-06,0.01899875
,,,-3.19E-06,0.019088125
,,,-3.18E-06,0.0189725
,,,-3.17E-06,0.0188475
,,,-3.16E-06,0.01910625
,,,-3.15E-06,0.018794375
,,,-3.14E-06,0.018915625
,,,-3.13E-06,0.01887
,,,-3.12E-06,0.019178125
,,,-3.11E-06,0.018985
,,,-3.1E-06,0.019024375
,,,-3.09E-06,0.01923
,,,-3.08E-06,0.019218125
,,,-3.07E-06,0.018916875
,,,-3.06E-06,0.018968125
,,,-3.05E-06,0.019145
,,,-3.04E-06,0.019045625
,,,-3.03E-06,0.019179375
,,,-3.02E-06,0.01909375
,,,-3.01E-06,0.01924625
,,,-3E-06,0.01897
,,,-2.99E-06,0.01913875
,,,-2.98E-06,0.019190625
,,,-2.97E-06,0.019265625
,,,-2.96E-06,0.01882875
,,,-2.95E-06,0.019118125
,,,-2.94E-06,0.01881125
,,,-2.93E-06,0.019226875
,,,-2.92E-06,0.019025625
,,,-2.91E-06,0.019081875
,,,-2.9E-06,0.01919875
,,,-2.89E-06,0.01906625
,,,-2.88E-06,0.01909
,,,-2.87E-06,0.01906375
,,,-2.86E-06,0.01872625
,,,-2.85E-06,0.01884875
,,,-2.84E-06,0.019118125
,,,-2.83E-06,0.01903
,,,-2.82E-06,0.0192
,,,-2.81E-06,0.018805
,,,-2.8E-06,0.0189475
,,,-2.79E-06,0.01915
,,,-2.78E-06,0.018989375
,,,-2.77E-06,0.018979375
,,,-2.76E-06,0.01888875
,,,-2.75E-06,0.019275
,,,-2.74E-06,0.019215625
,,,-2.73E-06,0.019006875
,,,-2.72E-06,0.019154375
,,,-2.71E-06,0.0192425
,,,-2.7E-06,0.019214375
,,,-2.69E-06,0.019195
,,,-2.68E-06,0.01906875
,,,-2.67E-06,0.019100625
,,,-2.66E-06,0.019029375
,,,-2.65E-06,0.01926625
,,,-2.64E-06,0.019083125
,,,-2.63E-06,0.019150625
,,,-2.62E-06,0.018958125
,,,-2.61E-06,0.0192
,,,-2.6E-06,0.019098125
,,,-2.59E-06,0.018979375
,,,-2.58E-06,0.019243125
,,,-2.57E-06,0.018966875
,,,-2.56E-06,0.019235
,,,-2.55E-06,0.018983125
,,,-2.54E-06,0.019093125
,,,-2.53E-06,0.019215
,,,-2.52E-06,0.0192475
,,,-2.51E-06,0.01907
,,,-2.5E-06,0.0190025
,,,-2.49E-06,0.018776875
,,,-2.48E-06,0.01921375
,,,-2.47E-06,0.01912
,,,-2.46E-06,0.01910375
,,,-2.45E-06,0.01904375
,,,-2.44E-06,0.019043125
,,,-2.43E-06,0.0190975
,,,-2.42E-06,0.01904625
,,,-2.41E-06,0.01906375
,,,-2.4E-06,0.01903625
,,,-2.39E-06,0.018915625
,,,-2.38E-06,0.0190325
,,,-2.37E-06,0.01911
,,,-2.36E-06,0.0192125
,,,-2.35E-06,0.018970625
,,,-2.34E-06,0.019180625
,,,-2.33E-06,0.019166875
,,,-2.32E-06,0.019035
,,,-2.31E-06,0.0188825
,,,-2.3E-06,0.019076875
,,,-2.29E-06,0.0192525
,,,-2.28E-06,0.019130625
,,,-2.27E-06,0.018953125
,,,-2.26E-06,0.018934375
,,,-2.25E-06,0.01926875
,,,-2.24E-06,0.019044375
,,,-2.23E-06,0.0189125
,,,-2.22E-06,0.019204375
,,,-2.21E-06,0.01887625
,,,-2.2E-06,0.01897
,,,-2.19E-06,0.019078125
,,,-2.18E-06,0.018954375
,,,-2.17E-06,0.0192375
,,,-2.16E-06,0.01914125
,,,-2.15E-06,0.019119375
,,,-2.14E-06,0.018973125
,,,-2.13E-06,0.019365
,,,-2.12E-06,0.018970625
,,,-2.11E-06,0.019094375
,,,-2.1E-06,0.018945
,,,-2.09E-06,0.019100625
,,,-2.08E-06,0.018835
,,,-2.07E-06,0.01917
,,,-2.06E-06,0.018995
,,,-2.05E-06,0.019090625
,,,-2.04E-06,0.018995
,,,-2.03E-06,0.019355
,,,-2.02E-06,0.0190775
,,,-2.01E-06,0.0191175
,,,-2E-06,0.019010625
,,,-1.99E-06,0.018800625
,,,-1.98E-06,0.01914625
,,,-1.97E-06,0.018989375
,,,-1.96E-06,0.018966875
,,,-1.95E-06,0.019034375
,,,-1.94E-06,0.019025
,,,-1.93E-06,0.018991875
,,,-1.92E-06,0.01930375
,,,-1.91E-06,0.0189025
,,,-1.9E-06,0.019048125
,,,-1.89E-06,0.019
,,,-1.88E-06,0.018685625
,,,-1.87E-06,0.019264375
,,,-1.86E-06,0.01903375
,,,-1.85E-06,0.019278125
,,,-1.84E-06,0.0188625
,,,-1.83E-06,0.018756875
,,,-1.82E-06,0.018958125
,,,-1.81E-06,0.018978125
,,,-1.8E-06,0.019049375
,,,-1.79E-06,0.019206875
,,,-1.78E-06,0.01895625
,,,-1.77E-06,0.019250625
,,,-1.76E-06,0.018969375
,,,-1.75E-06,0.019075
,,,-1.74E-06,0.018984375
,,,-1.73E-06,0.018959375
,,,-1.72E-06,0.01890125
,,,-1.71E-06,0.018810625
,,,-1.7E-06,0.019061875
,,,-1.69E-06,0.019041875
,,,-1.68E-06,0.018951875
,,,-1.67E-06,0.019145
,,,-1.66E-06,0.019013125
,,,-1.65E-06,0.019134375
,,,-1.64E-06,0.01911125
,,,-1.63E-06,0.019086875
,,,-1.62E-06,0.018800625
,,,-1.61E-06,0.0190775
,,,-1.6E-06,0.019158125
,,,-1.59E-06,0.0191225
,,,-1.58E-06,0.018961875
,,,-1.57E-06,0.019064375
,,,-1.56E-06,0.018780625
,,,-1.55E-06,0.018836875
,,,-1.54E-06,0.01877125
,,,-1.53E-06,0.01925875
,,,-1.52E-06,0.01919125
,,,-1.51E-06,0.01900875
,,,-1.5E-06,0.018965625
,,,-1.49E-06,0.0188175
,,,-1.48E-06,0.0188975
,,,-1.47E-06,0.019086875
,,,-1.46E-06,0.018763125
,,,-1.45E-06,0.01877875
,,,-1.44E-06,0.0191625
,,,-1.43E-06,0.01921
,,,-1.42E-06,0.019154375
,,,-1.41E-06,0.01911875
,,,-1.4E-06,0.0189
,,,-1.39E-06,0.018971875
,,,-1.38E-06,0.0193675
,,,-1.37E-06,0.01899125
,,,-1.36E-06,0.01930375
,,,-1.35E-06,0.01908125
,,,-1.34E-06,0.0188825
,,,-1.33E-06,0.01923625
,,,-1.32E-06,0.018919375
,,,-1.31E-06,0.0190725
,,,-1.3E-06,0.01895875
,,,-1.29E-06,0.018710625
,,,-1.28E-06,0.018999375
,,,-1.27E-06,0.019211875
,,,-1.26E-06,0.019110625
,,,-1.25E-06,0.019235625
,,,-1.24E-06,0.0190425
,,,-1.23E-06,0.0188775
,,,-1.22E-06,0.01893375
,,,-1.21E-06,0.019095
,,,-1.2E-06,0.019245625
,,,-1.19E-06,0.019271875
,,,-1.18E-06,0.019035625
,,,-1.17E-06,0.018926875
,,,-1.16E-06,0.01881875
,,,-1.15E-06,0.019045
,,,-1.14E-06,0.0192875
,,,-1.13E-06,0.01886125
,,,-1.12E-06,0.019009375
,,,-1.11E-06,0.019110625
,,,-1.1E-06,0.019098125
,,,-1.09E-06,0.01899125
,,,-1.08E-06,0.0189925
,,,-1.07E-06,0.018925625
,,,-1.06E-06,0.0191275
,,,-1.05E-06,0.01901375
,,,-1.04E-06,0.019219375
,,,-1.03E-06,0.01920875
,,,-1.02E-06,0.01886875
,,,-1.01E-06,0.0188525
,,,-1E-06,0.0190275
,,,-9.9E-07,0.019100625
,,,-9.8E-07,0.018915
,,,-9.7E-07,0.01909375
,,,-9.6E-07,0.01883875
,,,-9.5E-07,0.019095
,,,-9.4E-07,0.018824375
,,,-9.3E-07,0.019044375
,,,-9.2E-07,0.019193125
,,,-9.1E-07,0.018946875
,,,-9E-07,0.018896875
,,,-8.9E-07,0.018985625
,,,-8.8E-07,0.018888125
,,,-8.7E-07,0.018971875
,,,-8.6E-07,0.019183125
,,,-8.5E-07,0.019134375
,,,-8.4E-07,0.019095625
,,,-8.3E-07,0.019010625
,,,-8.2E-07,0.0188825
,,,-8.1E-07,0.018960625
,,,-8E-07,0.0191175
,,,-7.9E-07,0.019039375
,,,-7.8E-07,0.018963125
,,,-7.7E-07,0.018848125
,,,-7.6E-07,0.019171875
,,,-7.5E-07,0.018988125
,,,-7.4E-07,0.0193475
,,,-7.3E-07,0.018910625
,,,-7.2E-07,0.019149375
,,,-7.1E-07,0.01904875
,,,-7E-07,0.019209375
,,,-6.9E-07,0.019051875
,,,-6.8E-07,0.01911125
,,,-6.7E-07,0.019015
,,,-6.6E-07,0.01923
,,,-6.5E-07,0.018945
,,,-6.4E-07,0.019100625
,,,-6.3E-07,0.019115
,,,-6.2E-07,0.01898875
,,,-6.1E-07,0.019130625
,,,-6E-07,0.019354375
,,,-5.9E-07,0.019214375
,,,-5.8E-07,0.0190025
,,,-5.7E-07,0.018865625
,,,-5.6E-07,0.01900125
,,,-5.5E-07,0.0191075
,,,-5.4E-07,0.019058125
,,,-5.3E-07,0.01903125
,,,-5.2E-07,0.019044375
,,,-5.1E-07,0.019140625
,,,-5E-07,0.018713125
,,,-4.9E-07,0.018918125
,,,-4.8E-07,0.01927875
,,,-4.7E-07,0.018831875
,,,-4.6E-07,0.01922125
,,,-4.5E-07,0.019010625
,,,-4.4E-07,0.01915875
,,,-4.3E-07,0.01921375
,,,-4.2E-07,0.0189525
,,,-4.1E-07,0.019225625
,,,-4E-07,0.019318125
,,,-3.9E-07,0.01887625
,,,-3.8E-07,0.018989375
,,,-3.7E-07,0.018919375
,,,-3.6E-07,0.01912625
,,,-3.5E-07,0.01919625
,,,-3.4E-07,0.019100625
,,,-3.3E-07,0.018959375
,,,-3.2E-07,0.019004375
,,,-3.1E-07,0.01917625
,,,-3E-07,0.0191425
,,,-2.9E-07,0.018753125
,,,-2.8E-07,0.019178125
,,,-2.7E-07,0.018971875
,,,-2.6E-07,0.019106875
,,,-2.5E-07,0.01918125
,,,-2.4E-07,0.0190225
,,,-2.3E-07,0.018929375
,,,-2.2E-07,0.019179375
,,,-2.1E-07,0.0189325
,,,-2E-07,0.018920625
,,,-1.9E-07,0.019025
,,,-1.8E-07,0.018846875
,,,-1.7E-07,0.0191225
,,,-1.6E-07,0.019063125
,,,-1.5E-07,0.018971875
,,,-1.4E-07,0.0187875
,,,-1.3E-07,0.019113125
,,,-1.2E-07,0.0189525
,,,-1.1E-07,0.018923125
,,,-1E-07,0.019075
,,,-9E-08,0.01896
,,,-8E-08,0.0189675
,,,-7E-08,0.018898125
,,,-6E-08,0.019195
,,,-5E-08,0.01926875
,,,-4E-08,0.020464375
,,,-3E-08,0.0201175
,,,-2E-08,0.016811875
,,,-1E-08,0.014943749
,,,0,0.017189375
,,,1E-08,0.02215
,,,2E-08,0.02380375
,,,3E-08,0.021894375
,,,4E-08,0.0176325
,,,5E-08,0.015798124
,,,6E-08,0.016120624
,,,7E-08,0.0181975
,,,8E-08,0.02030125
,,,9E-08,0.021431875
,,,1E-07,0.020736875
,,,1.1E-07,0.01939
,,,1.2E-07,0.01751625
,,,1.3E-07,0.0176325
,,,1.4E-07,0.018726875
,,,1.5E-07,0.019584375
,,,1.6E-07,0.019465625
,,,1.7E-07,0.019489375
,,,1.8E-07,0.01903875
,,,1.9E-07,0.019130625
,,,2E-07,0.01906
,,,2.1E-07,0.018503125
,,,2.2E-07,0.018788125
,,,2.3E-07,0.019080625
,,,2.4E-07,0.01891625
,,,2.5E-07,0.019094375
,,,2.6E-07,0.018756875
,,,2.7E-07,0.019086875
,,,2.8E-07,0.01892
,,,2.9E-07,0.018915
,,,3E-07,0.01896
,,,3.1E-07,0.018940625
,,,3.2E-07,0.01915875
,,,3.3E-07,0.019238125
,,,3.4E-07,0.01899125
,,,3.5E-07,0.01891
,,,3.6E-07,0.01893625
,,,3.7E-07,0.01891875
,,,3.8E-07,0.018915625
,,,3.9E-07,0.01917
,,,4E-07,0.019160625
,,,4.1E-07,0.019171875
,,,4.2E-07,0.019015
,,,4.3E-07,0.018945
,,,4.4E-07,0.019018125
,,,4.5E-07,0.019014375
,,,4.6E-07,0.0190975
,,,4.7E-07,0.01879375
,,,4.8E-07,0.019195
,,,4.9E-07,0.018918125
,,,5E-07,0.018818125
,,,5.1E-07,0.01899875
,,,5.2E-07,0.019045
,,,5.3E-07,0.019081875
,,,5.4E-07,0.019024375
,,,5.5E-07,0.0190375
,,,5.6E-07,0.0192375
,,,5.7E-07,0.0192425
,,,5.8E-07,0.019046875
,,,5.9E-07,0.019011875
,,,6E-07,0.019206875
,,,6.1E-07,0.01913125
,,,6.2E-07,0.019070625
,,,6.3E-07,0.01900875
,,,6.4E-07,0.01915375
,,,6.5E-07,0.019093125
,,,6.6E-07,0.019173125
,,,6.7E-07,0.018990625
,,,6.8E-07,0.018961875
,,,6.9E-07,0.01888125
,,,7E-07,0.01904125
,,,7.1E-07,0.019406875
,,,7.2E-07,0.018870625
,,,7.3E-07,0.019228125
,,,7.4E-07,0.01905625
,,,7.5E-07,0.01882875
,,,7.6E-07,0.018995
,,,7.7E-07,0.018866875
,,,7.8E-07,0.018998125
,,,7.9E-07,0.018823125
,,,8E-07,0.018848125
,,,8.1E-07,0.019105
,,,8.2E-07,0.01921
,,,8.3E-07,0.01897375
,,,8.4E-07,0.019233125
,,,8.5E-07,0.018910625
,,,8.6E-07,0.0190475
,,,8.7E-07,0.01923
,,,8.8E-07,0.01902625
,,,8.9E-07,0.019196875
,,,9E-07,0.019100625
,,,9.1E-07,0.019071875
,,,9.2E-07,0.019131875
,,,9.3E-07,0.01893875
,,,9.4E-07,0.018905
,,,9.5E-07,0.0191075
,,,9.6E-07,0.01911
,,,9.7E-07,0.01921625
,,,9.8E-07,0.019404375
,,,9.9E-07,0.0192425
,,,1E-06,0.018844375
,,,1.01E-06,0.019099375
,,,1.02E-06,0.0189525
,,,1.03E-06,0.018821875
,,,1.04E-06,0.019048125
,,,1.05E-06,0.0189375
,,,1.06E-06,0.019138125
,,,1.07E-06,0.019353125
,,,1.08E-06,0.01900375
,,,1.09E-06,0.019284375
,,,1.1E-06,0.018954375
,,,1.11E-06,0.018901875
,,,1.12E-06,0.019114375
,,,1.13E-06,0.019010625
,,,1.14E-06,0.019023125
,,,1.15E-06,0.018966875
,,,1.16E-06,0.018919375
,,,1.17E-06,0.019054375
,,,1.18E-06,0.019195625
,,,1.19E-06,0.0188725
,,,1.2E-06,0.0189125
,,,1.21E-06,0.0189825
,,,1.22E-06,0.018915625
,,,1.23E-06,0.018948125
,,,1.24E-06,0.019108125
,,,1.25E-06,0.019226875
,,,1.26E-06,0.01912
,,,1.27E-06,0.019226875
,,,1.28E-06,0.019003125
,,,1.29E-06,0.019094375
,,,1.3E-06,0.019046875
,,,1.31E-06,0.018750625
,,,1.32E-06,0.0190825
,,,1.33E-06,0.01928125
,,,1.34E-06,0.01904
,,,1.35E-06,0.019275
,,,1.36E-06,0.018908125
,,,1.37E-06,0.01924
,,,1.38E-06,0.019160625
,,,1.39E-06,0.019175625
,,,1.4E-06,0.0191675
,,,1.41E-06,0.019119375
,,,1.42E-06,0.01889625
,,,1.43E-06,0.018956875
,,,1.44E-06,0.01907875
,,,1.45E-06,0.01907125
,,,1.46E-06,0.0191425
,,,1.47E-06,0.019003125
,,,1.48E-06,0.019026875
,,,1.49E-06,0.01885125
,,,1.5E-06,0.018840625
,,,1.51E-06,0.01922375
,,,1.52E-06,0.01887625
,,,1.53E-06,0.01919875
,,,1.54E-06,0.01917125
,,,1.55E-06,0.019095625
,,,1.56E-06,0.019005
,,,1.57E-06,0.018976875
,,,1.58E-06,0.018973125
,,,1.59E-06,0.018729375
,,,1.6E-06,0.01908375
,,,1.61E-06,0.019155
,,,1.62E-06,0.01887125
,,,1.63E-06,0.0190875
,,,1.64E-06,0.019176875
,,,1.65E-06,0.01905
,,,1.66E-06,0.019160625
,,,1.67E-06,0.01891625
,,,1.68E-06,0.019360625
,,,1.69E-06,0.0191
,,,1.7E-06,0.019003125
,,,1.71E-06,0.018810625
,,,1.72E-06,0.0191925
,,,1.73E-06,0.01891
,,,1.74E-06,0.01903625
,,,1.75E-06,0.01915
,,,1.76E-06,0.019150625
,,,1.77E-06,0.019149375
,,,1.78E-06,0.01898
,,,1.79E-06,0.018913125
,,,1.8E-06,0.01907625
,,,1.81E-06,0.01902375
,,,1.82E-06,0.01915375
,,,1.83E-06,0.0188775
,,,1.84E-06,0.019165625
,,,1.85E-06,0.019280625
,,,1.86E-06,0.0189675
,,,1.87E-06,0.019244375
,,,1.88E-06,0.0192475
,,,1.89E-06,0.0191125
,,,1.9E-06,0.01904875
,,,1.91E-06,0.018991875
,,,1.92E-06,0.01899625
,,,1.93E-06,0.0193525
,,,1.94E-06,0.019175
,,,1.95E-06,0.018885625
,,,1.96E-06,0.0191325
,,,1.97E-06,0.0191875
,,,1.98E-06,0.019034375
,,,1.99E-06,0.018934375
,,,2E-06,0.0190375
,,,2.01E-06,0.018969375
,,,2.02E-06,0.018835
,,,2.03E-06,0.019123125
,,,2.04E-06,0.0191175
,,,2.05E-06,0.01918875
,,,2.06E-06,0.01905125
,,,2.07E-06,0.018805
,,,2.08E-06,0.0190675
,,,2.09E-06,0.019068125
,,,2.1E-06,0.018985
,,,2.11E-06,0.01899
,,,2.12E-06,0.019000625
,,,2.13E-06,0.018780625
,,,2.14E-06,0.019245
,,,2.15E-06,0.01915875
,,,2.16E-06,0.01916
,,,2.17E-06,0.019104375
,,,2.18E-06,0.018951875
,,,2.19E-06,0.019296875
,,,2.2E-06,0.01918625
,,,2.21E-06,0.019035625
,,,2.22E-06,0.0192675
,,,2.23E-06,0.01914
,,,2.24E-06,0.019134375
,,,2.25E-06,0.018905625
,,,2.26E-06,0.01911
,,,2.27E-06,0.018916875
,,,2.28E-06,0.018899375
,,,2.29E-06,0.019069375
,,,2.3E-06,0.018900625
,,,2.31E-06,0.019144375
,,,2.32E-06,0.018999375
,,,2.33E-06,0.019035625
,,,2.34E-06,0.018783125
,,,2.35E-06,0.018913125
,,,2.36E-06,0.018811875
,,,2.37E-06,0.018949375
,,,2.38E-06,0.019103125
,,,2.39E-06,0.019099375
,,,2.4E-06,0.018785
,,,2.41E-06,0.019156875
,,,2.42E-06,0.01885625
,,,2.43E-06,0.0189575
,,,2.44E-06,0.019111875
,,,2.45E-06,0.0190375
,,,2.46E-06,0.018830625
,,,2.47E-06,0.018981875
,,,2.48E-06,0.019270625
,,,2.49E-06,0.019170625
,,,2.5E-06,0.019096875
,,,2.51E-06,0.0186925
,,,2.52E-06,0.019
,,,2.53E-06,0.01916875
,,,2.54E-06,0.018953125
,,,2.55E-06,0.019075
,,,2.56E-06,0.01908875
,,,2.57E-06,0.019301875
,,,2.58E-06,0.0189925
,,,2.59E-06,0.019205625
,,,2.6E-06,0.0188625
,,,2.61E-06,0.01906
,,,2.62E-06,0.0188725
,,,2.63E-06,0.0188275
,,,2.64E-06,0.018983125
,,,2.65E-06,0.01903125
,,,2.66E-06,0.0190875
,,,2.67E-06,0.019039375
,,,2.68E-06,0.01907
,,,2.69E-06,0.019145
,,,2.7E-06,0.018916875
,,,2.71E-06,0.01930875
,,,2.72E-06,0.01921
,,,2.73E-06,0.019078125
,,,2.74E-06,0.019069375
,,,2.75E-06,0.018840625
,,,2.76E-06,0.019034375
,,,2.77E-06,0.018830625
,,,2.78E-06,0.01880875
,,,2.79E-06,0.019215625
,,,2.8E-06,0.01900625
,,,2.81E-06,0.01903375
,,,2.82E-06,0.018965625
,,,2.83E-06,0.019176875
,,,2.84E-06,0.01907
,,,2.85E-06,0.018799375
,,,2.86E-06,0.019055625
,,,2.87E-06,0.01894
,,,2.88E-06,0.018983125
,,,2.89E-06,0.019341875
,,,2.9E-06,0.0190225
,,,2.91E-06,0.019163125
,,,2.92E-06,0.0189075
,,,2.93E-06,0.01902375
,,,2.94E-06,0.019135625
,,,2.95E-06,0.019105625
,,,2.96E-06,0.019075625
,,,2.97E-06,0.0189575
,,,2.98E-06,0.01905625
,,,2.99E-06,0.0188675
,,,3E-06,0.019040625
,,,3.01E-06,0.01873875
,,,3.02E-06,0.0192025
,,,3.03E-06,0.018956875
,,,3.04E-06,0.01929375
,,,3.05E-06,0.019065
,,,3.06E-06,0.01910625
,,,3.07E-06,0.01910375
,,,3.08E-06,0.019070625
,,,3.09E-06,0.019156875
,,,3.1E-06,0.019441875
,,,3.11E-06,0.01900875
,,,3.12E-06,0.0190525
,,,3.13E-06,0.019029375
,,,3.14E-06,0.019185625
,,,3.15E-06,0.0189225
,,,3.16E-06,0.018971875
,,,3.17E-06,0.01907375
,,,3.18E-06,0.018878125
,,,3.19E-06,0.01883875
,,,3.2E-06,0.01902125
,,,3.21E-06,0.0190525
,,,3.22E-06,0.019125625
,,,3.23E-06,0.01922875
,,,3.24E-06,0.01886875
,,,3.25E-06,0.01899875
,,,3.26E-06,0.01918625
,,,3.27E-06,0.019171875
,,,3.28E-06,0.019015
,,,3.29E-06,0.018960625
,,,3.3E-06,0.01898875
,,,3.31E-06,0.018883125
,,,3.32E-06,0.018805
,,,3.33E-06,0.018850625
,,,3.34E-06,0.0189
,,,3.35E-06,0.019090625
,,,3.36E-06,0.01899875
,,,3.37E-06,0.01927375
,,,3.38E-06,0.019209375
,,,3.39E-06,0.019134375
,,,3.4E-06,0.019018125
,,,3.41E-06,0.019019375
,,,3.42E-06,0.01924125
,,,3.43E-06,0.019163125
,,,3.44E-06,0.0188875
,,,3.45E-06,0.0191325
,,,3.46E-06,0.01905125
,,,3.47E-06,0.0192975
,,,3.48E-06,0.01941
,,,3.49E-06,0.018929375
,,,3.5E-06,0.0190275
,,,3.51E-06,0.01888125
,,,3.52E-06,0.019141875
,,,3.53E-06,0.01925125
,,,3.54E-06,0.01902125
,,,3.55E-06,0.018945625
,,,3.56E-06,0.019109375
