data/raw/Final_POL_Test_1/SOP033_Ch4.csv

"Record Length",1000,"Points",-5E-06,0.01841125
"Sample Interval",1E-08,s,-4.99E-06,0.01847
"Trigger Point",500,"Samples",-4.98E-06,0.018625625
"Trigger Time",0,s,-4.97E-06,0.01819625
"",,,-4.96E-06,0.018448125
"Horizontal Offset",-5E-06,s,-4.95E-06,0.01855
,,,-4.94E-06,0.01833375
,,,-4.93E-06,0.01861875
,,,-4.92E-06,0.018299375
,,,-4.91E-06,0.0184625
,,,-4.9E-06,0.01857125
,,,-4.89E-06,0.018398125
,,,-4.88E-06,0.0185375
,,,-4.87E-06,0.01859375
,,,-4.86E-06,0.0183625
,,,-4.85E-06,0.018610625
,,,-4.84E-06,0.01839
,,,-4.83E-06,0.01853625
,,,-4.82E-06,0.018400625
,,,-4.81E-06,0.018459375
,,,-4.8E-06,0.01873875
,,,-4.79E-06,0.018485
,,,-4.78E-06,0.0184775
,,,-4.77E-06,0.01835375
,,,-4.76E-06,0.018353125
,,,-4.75E-06,0.018479375
,,,-4.74E-06,0.01858375
,,,-4.73E-06,0.018694375
,,,-4.72E-06,0.018685
,,,-4.71E-06,0.018273125
,,,-4.7E-06,0.01861
,,,-4.69E-06,0.01836375
,,,-4.68E-06,0.018665625
,,,-4.67E-06,0.018650625
,,,-4.66E-06,0.0184275
,,,-4.65E-06,0.01861625
,,,-4.64E-06,0.018634375
,,,-4.63E-06,0.0185225
,,,-4.62E-06,0.01827625
,,,-4.61E-06,0.01850625
,,,-4.6E-06,0.018375
,,,-4.59E-06,0.01849875
,,,-4.58E-06,0.018435625
,,,-4.57E-06,0.018538125
,,,-4.56E-06,0.018720625
,,,-4.55E-06,0.0183875
,,,-4.54E-06,0.0184375
,,,-4.53E-06,0.01835125
,,,-4.52E-06,0.018508125
,,,-4.51E-06,0.0182375
,,,-4.5E-06,0.018678125
,,,-4.49E-06,0.01836
,,,-4.48E-06,0.01866125
,,,-4.47E-06,0.01831375
,,,-4.46E-06,0.01869375
,,,-4.45E-06,0.01872
,,,-4.44E-06,0.01846875
,,,-4.43E-06,0.01868125
,,,-4.42E-06,0.018331875
,,,-4.41E-06,0.018689375
,,,-4.4E-06,0.01824625
,,,-4.39E-06,0.018456875
,,,-4.38E-06,0.018488125
,,,-4.37E-06,0.0186275
,,,-4.36E-06,0.01836875
,,,-4.35E-06,0.01849875
,,,-4.34E-06,0.01868875
,,,-4.33E-06,0.018505625
,,,-4.32E-06,0.018793125
,,,-4.31E-06,0.018550625
,,,-4.3E-06,0.01865875
,,,-4.29E-06,0.01870375
,,,-4.28E-06,0.018474375
,,,-4.27E-06,0.018455625
,,,-4.26E-06,0.01841
,,,-4.25E-06,0.01859375
,,,-4.24E-06,0.018483125
,,,-4.23E-06,0.018365625
,,,-4.22E-06,0.018615
,,,-4.21E-06,0.01830375
,,,-4.2E-06,0.01859
,,,-4.19E-06,0.018499375
,,,-4.18E-06,0.01831
,,,-4.17E-06,0.01848125
,,,-4.16E-06,0.018583125
,,,-4.15E-06,0.018675625
,,,-4.14E-06,0.0182125
,,,-4.13E-06,0.018459375
,,,-4.12E-06,0.018356875
,,,-4.11E-06,0.01857
,,,-4.1E-06,0.0186175
,,,-4.09E-06,0.018440625
,,,-4.08E-06,0.018726875
,,,-4.07E-06,0.018601875
,,,-4.06E-06,0.01862
,,,-4.05E-06,0.01837875
,,,-4.04E-06,0.018485625
,,,-4.03E-06,0.018566875
,,,-4.02E-06,0.01851375
,,,-4.01E-06,0.01821125
,,,-4E-06,0.018410625
,,,-3.99E-06,0.01864625
,,,-3.98E-06,0.0185375
,,,-3.97E-06,0.01850375
,,,-3.96E-06,0.018228125
,,,-3.95E-06,0.018496875
,,,-3.94E-06,0.01841
,,,-3.93E-06,0.0185475
,,,-3.92E-06,0.0185175
,,,-3.91E-06,0.0186825
,,,-3.9E-06,0.018385625
,,,-3.89E-06,0.01862
,,,-3.88E-06,0.018461875
,,,-3.87E-06,0.018229375
,,,-3.86E-06,0.018389375
,,,-3.85E-06,0.018581875
,,,-3.84E-06,0.01844625
,,,-3.83E-06,0.018436875
,,,-3.82E-06,0.01868
,,,-3.81E-06,0.018351875
,,,-3.8E-06,0.01847
,,,-3.79E-06,0.01850875
,,,-3.78E-06,0.01847875
,,,-3.77E-06,0.01831875
,,,-3.76E-06,0.01875
,,,-3.75E-06,0.018578125
,,,-3.74E-06,0.01844375
,,,-3.73E-06,0.01846875
,,,-3.72E-06,0.01834375
,,,-3.71E-06,0.018383125
,,,-3.7E-06,0.018284375
,,,-3.69E-06,0.018596875
,,,-3.68E-06,0.0185525
,,,-3.67E-06,0.018544375
,,,-3.66E-06,0.0184975
,,,-3.65E-06,0.018575625
,,,-3.64E-06,0.01857875
,,,-3.63E-06,0.018455
,,,-3.62E-06,0.01853125
,,,-3.61E-06,0.01841875
,,,-3.6E-06,0.018699375
,,,-3.59E-06,0.0185775
,,,-3.58E-06,0.0185875
,,,-3.57E-06,0.018594375
,,,-3.56E-06,0.01860875
,,,-3.55E-06,0.01849125
,,,-3.54E-06,0.018355
,,,-3.53E-06,0.0185725
,,,-3.52E-06,0.0187925
,,,-3.51E-06,0.018368125
,,,-3.5E-06,0.018405625
,,,-3.49E-06,0.01846
,,,-3.48E-06,0.018691875
,,,-3.47E-06,0.01861125
,,,-3.46E-06,0.018550625
,,,-3.45E-06,0.018430625
,,,-3.44E-06,0.018670625
,,,-3.43E-06,0.0184375
,,,-3.42E-06,0.0183225
,,,-3.41E-06,0.018605625
,,,-3.4E-06,0.018794375
,,,-3.39E-06,0.01863125
,,,-3.38E-06,0.01827125
,,,-3.37E-06,0.018156875
,,,-3.36E-06,0.018728125
,,,-3.35E-06,0.01858625
,,,-3.34E-06,0.018395625
,,,-3.33E-06,0.018326875
,,,-3.32E-06,0.018390625
,,,-3.31E-06,0.018550625
,,,-3.3E-06,0.01829375
,,,-3.29E-06,0.01851125
,,,-3.28E-06,0.01856125
,,,-3.27E-06,0.01840625
,,,-3.26E-06,0.01851875
,,,-3.25E-06,0.0183425
,,,-3.24E-06,0.018511875
,,,-3.23E-06,0.018388125
,,,-3.22E-06,0.018490625
,,,-3.21E-06,0.018365
,,,-3.2E-06,0.018326875
,,,-3.19E-06,0.01844
,,,-3.18E-06,0.018663125
,,,-3.17E-06,0.01838625
,,,-3.16E-06,0.0184175
,,,-3.15E-06,0.01852125
,,,-3.14E-06,0.018560625
,,,-3.13E-06,0.01837625
,,,-3.12E-06,0.01855625
,,,-3.11E-06,0.0185475
,,,-3.1E-06,0.018413125
,,,-3.09E-06,0.018555
,,,-3.08E-06,0.0186975
,,,-3.07E-06,0.018304375
,,,-3.06E-06,0.018416875
,,,-3.05E-06,0.01850875
,,,-3.04E-06,0.018325625
,,,-3.03E-06,0.018553125
,,,-3.02E-06,0.018436875
,,,-3.01E-06,0.01853625
,,,-3E-06,0.01847625
,,,-2.99E-06,0.018604375
,,,-2.98E-06,0.0184725
,,,-2.97E-06,0.018305
,,,-2.96E-06,0.018585
,,,-2.95E-06,0.018758125
,,,-2.94E-06,0.018393125
,,,-2.93E-06,0.018505
,,,-2.92E-06,0.018366875
,,,-2.91E-06,0.018481875
,,,-2.9E-06,0.01854625
,,,-2.89E-06,0.01857
,,,-2.88E-06,0.01864
,,,-2.87E-06,0.018633125
,,,-2.86E-06,0.018261875
,,,-2.85E-06,0.018465625
,,,-2.84E-06,0.0186425
,,,-2.83E-06,0.018349375
,,,-2.82E-06,0.018401875
,,,-2.81E-06,0.018536875
,,,-2.8E-06,0.018566875
,,,-2.79E-06,0.018488125
,,,-2.78E-06,0.018608125
,,,-2.77E-06,0.018494375
,,,-2.76E-06,0.018765
,,,-2.75E-06,0.01864875
,,,-2.74E-06,0.018588125
,,,-2.73E-06,0.01858375
,,,-2.72E-06,0.0183125
,,,-2.71E-06,0.018478125
,,,-2.7E-06,0.018511875
,,,-2.69E-06,0.018671875
,,,-2.68E-06,0.018586875
,,,-2.67E-06,0.018598125
,,,-2.66E-06,0.01839625
,,,-2.65E-06,0.01859125
,,,-2.64E-06,0.018504375
,,,-2.63E-06,0.01857125
,,,-2.62E-06,0.018628125
,,,-2.61E-06,0.018483125
,,,-2.6E-06,0.01859875
,,,-2.59E-06,0.018549375
,,,-2.58E-06,0.018380625
,,,-2.57E-06,0.018698125
,,,-2.56E-06,0.018544375
,,,-2.55E-06,0.01838125
,,,-2.54E-06,0.018315625
,,,-2.53E-06,0.018403125
,,,-2.52E-06,0.01857875
,,,-2.51E-06,0.01839875
,,,-2.5E-06,0.018541875
,,,-2.49E-06,0.0185425
,,,-2.48E-06,0.01862
,,,-2.47E-06,0.018681875
,,,-2.46E-06,0.018598125
,,,-2.45E-06,0.0184425
,,,-2.44E-06,0.018388125
,,,-2.43E-06,0.01874
,,,-2.42E-06,0.018514375
,,,-2.41E-06,0.01846
,,,-2.4E-06,0.018638125
,,,-2.39E-06,0.018384375
,,,-2.38E-06,0.018501875
,,,-2.37E-06,0.01850625
,,,-2.36E-06,0.018454375
,,,-2.35E-06,0.01850875
,,,-2.34E-06,0.018276875
,,,-2.33E-06,0.01834875
,,,-2.32E-06,0.018481875
,,,-2.31E-06,0.0186875
,,,-2.3E-06,0.018568125
,,,-2.29E-06,0.01874875
,,,-2.28E-06,0.018305
,,,-2.27E-06,0.018628125
,,,-2.26E-06,0.018683125
,,,-2.25E-06,0.018536875
,,,-2.24E-06,0.018650625
,,,-2.23E-06,0.018503125
,,,-2.22E-06,0.018564375
,,,-2.21E-06,0.0185625
,,,-2.2E-06,0.01842875
,,,-2.19E-06,0.018299375
,,,-2.18E-06,0.01870625
,,,-2.17E-06,0.018538125
,,,-2.16E-06,0.01857125
,,,-2.15E-06,0.018729375
,,,-2.14E-06,0.018739375
,,,-2.13E-06,0.018485
,,,-2.12E-06,0.01868625
,,,-2.11E-06,0.01856625
,,,-2.1E-06,0.01857125
,,,-2.09E-06,0.01876625
,,,-2.08E-06,0.01839375
,,,-2.07E-06,0.018605
,,,-2.06E-06,0.018355625
,,,-2.05E-06,0.018539375
,,,-2.04E-06,0.018536875
,,,-2.03E-06,0.018336875
,,,-2.02E-06,0.018615625
,,,-2.01E-06,0.018615
,,,-2E-06,0.018696875
,,,-1.99E-06,0.018514375
,,,-1.98E-06,0.018689375
,,,-1.97E-06,0.018628125
,,,-1.96E-06,0.018593125
,,,-1.95E-06,0.018315
,,,-1.94E-06,0.0185725
,,,-1.93E-06,0.01856625
,,,-1.92E-06,0.018564375
,,,-1.91E-06,0.0185775
,,,-1.9E-06,0.018790625
,,,-1.89E-06,0.018599375
,,,-1.88E-06,0.0184325
,,,-1.87E-06,0.018648125
,,,-1.86E-06,0.018700625
,,,-1.85E-06,0.01862375
,,,-1.84E-06,0.018299375
,,,-1.83E-06,0.018385
,,,-1.82E-06,0.01853625
,,,-1.81E-06,0.018593125
,,,-1.8E-06,0.0185025
,,,-1.79E-06,0.01839
,,,-1.78E-06,0.018575
,,,-1.77E-06,0.01836875
,,,-1.76E-06,0.01866125
,,,-1.75E-06,0.018585
,,,-1.74E-06,0.018549375
,,,-1.73E-06,0.01876
,,,-1.72E-06,0.018314375
,,,-1.71E-06,0.018348125
,,,-1.7E-06,0.018309375
,,,-1.69E-06,0.018719375
,,,-1.68E-06,0.018406875
,,,-1.67E-06,0.01829125
,,,-1.66E-06,0.018615625
,,,-1.65E-06,0.018625
,,,-1.64E-06,0.01843125
,,,-1.63E-06,0.018448125
,,,-1.62E-06,0.01859375
,,,-1.61E-06,0.01835875
,,,-1.6E-06,0.018399375
,,,-1.59E-06,0.018473125
,,,-1.58E-06,0.01861625
,,,-1.57E-06,0.01854625
,,,-1.56E-06,0.018715625
,,,-1.55E-06,0.018531875
,,,-1.54E-06,0.018633125
,,,-1.53E-06,0.0185275
,,,-1.52E-06,0.0186075
,,,-1.51E-06,0.01858375
,,,-1.5E-06,0.018569375
,,,-1.49E-06,0.018658125
,,,-1.48E-06,0.01850375
,,,-1.47E-06,0.01856
,,,-1.46E-06,0.018554375
,,,-1.45E-06,0.01858125
,,,-1.44E-06,0.0184175
,,,-1.43E-06,0.0184775
,,,-1.42E-06,0.018368125
,,,-1.41E-06,0.01827375
,,,-1.4E-06,0.018665
,,,-1.39E-06,0.01847125
,,,-1.38E-06,0.018616875
,,,-1.37E-06,0.01852375
,,,-1.36E-06,0.018793125
,,,-1.35E-06,0.018545
,,,-1.34E-06,0.0186475
,,,-1.33E-06,0.01883375
,,,-1.32E-06,0.018521875
,,,-1.31E-06,0.018565
,,,-1.3E-06,0.01833625
,,,-1.29E-06,0.0183975
,,,-1.28E-06,0.01838
,,,-1.27E-06,0.018638125
,,,-1.26E-06,0.0184125
,,,-1.25E-06,0.018670625
,,,-1.24E-06,0.01869125
,,,-1.23E-06,0.018275625
,,,-1.22E-06,0.018455
,,,-1.21E-06,0.0185375
,,,-1.2E-06,0.018335
,,,-1.19E-06,0.018391875
,,,-1.18E-06,0.018410625
,,,-1.17E-06,0.01866
,,,-1.16E-06,0.018621875
,,,-1.15E-06,0.01854625
,,,-1.14E-06,0.0185375
,,,-1.13E-06,0.018725
,,,-1.12E-06,0.01840625
,,,-1.11E-06,0.01875375
,,,-1.1E-06,0.018590625
,,,-1.09E-06,0.018530625
,,,-1.08E-06,0.018729375
,,,-1.07E-06,0.018625
,,,-1.06E-06,0.018254375
,,,-1.05E-06,0.018605
,,,-1.04E-06,0.018575
,,,-1.03E-06,0.018719375
,,,-1.02E-06,0.01841875
,,,-1.01E-06,0.018614375
,,,-1E-06,0.018845625
,,,-9.9E-07,0.018428125
,,,-9.8E-07,0.018420625
,,,-9.7E-07,0.018455
,,,-9.6E-07,0.0186225
,,,-9.5E-07,0.018341875
,,,-9.4E-07,0.01845875
,,,-9.3E-07,0.018475625
,,,-9.2E-07,0.0187775
,,,-9.1E-07,0.018475
,,,-9E-07,0.0182875
,,,-8.9E-07,0.018546875
,,,-8.8E-07,0.018385
,,,-8.7E-07,0.018633125
,,,-8.6E-07,0.01855
,,,-8.5E-07,0.018311875
,,,-8.4E-07,0.0184625
,,,-8.3E-07,0.018505625
,,,-8.2E-07,0.01860375
,,,-8.1E-07,0.018678125
,,,-8E-07,0.018824375
,,,-7.9E-07,0.01851875
,,,-7.8E-07,0.0187225
,,,-7.7E-07,0.018673125
,,,-7.6E-07,0.018266875
,,,-7.5E-07,0.018373125
,,,-7.4E-07,0.018585
,,,-7.3E-07,0.018621875
,,,-7.2E-07,0.01863125
,,,-7.1E-07,0.018368125
,,,-7E-07,0.01843625
,,,-6.9E-07,0.018749375
,,,-6.8E-07,0.018598125
,,,-6.7E-07,0.01853125
,,,-6.6E-07,0.018488125
,,,-6.5E-07,0.01878875
,,,-6.4E-07,0.01845
,,,-6.3E-07,0.01839125
,,,-6.2E-07,0.01864875
,,,-6.1E-07,0.018460625
,,,-6E-07,0.01872
,,,-5.9E-07,0.018634375
,,,-5.8E-07,0.0186175
,,,-5.7E-07,0.01862
,,,-5.6E-07,0.018694375
,,,-5.5E-07,0.018669375
,,,-5.4E-07,0.018469375
,,,-5.3E-07,0.0186125
,,,-5.2E-07,0.018639375
,,,-5.1E-07,0.018610625
,,,-5E-07,0.018395
,,,-4.9E-07,0.0185275
,,,-4.8E-07,0.018588125
,,,-4.7E-07,0.0184875
,,,-4.6E-07,0.0184175
,,,-4.5E-07,0.0184
,,,-4.4E-07,0.01867875
,,,-4.3E-07,0.018414375
,,,-4.2E-07,0.018754375
,,,-4.1E-07,0.018765625
,,,-4E-07,0.018365
,,,-3.9E-07,0.018533125
,,,-3.8E-07,0.01849875
,,,-3.7E-07,0.01837875
,,,-3.6E-07,0.018455
,,,-3.5E-07,0.01842125
,,,-3.4E-07,0.01852125
,,,-3.3E-07,0.018318125
,,,-3.2E-07,0.01833375
,,,-3.1E-07,0.018620625
,,,-3E-07,0.018563125
,,,-2.9E-07,0.018363125
,,,-2.8E-07,0.018734375
,,,-2.7E-07,0.01846375
,,,-2.6E-07,0.01841625
,,,-2.5E-07,0.018443125
,,,-2.4E-07,0.01873875
,,,-2.3E-07,0.01835875
,,,-2.2E-07,0.0184425
,,,-2.1E-07,0.01870125
,,,-2E-07,0.018528125
,,,-1.9E-07,0.01839375
,,,-1.8E-07,0.0185475
,,,-1.7E-07,0.0187375
,,,-1.6E-07,0.018775625
,,,-1.5E-07,0.018470625
,,,-1.4E-07,0.018398125
,,,-1.3E-07,0.018576875
,,,-1.2E-07,0.018734375
,,,-1.1E-07,0.01869875
,,,-1E-07,0.01847375
,,,-9E-08,0.018576875
,,,-8E-08,0.018475625
,,,-7E-08,0.01843625
,,,-6E-08,0.01855875
,,,-5E-08,0.018586875
,,,-4E-08,0.01893625
,,,-3E-08,0.0180325
,,,-2E-08,0.017416875
,,,-1E-08,0.018045
,,,0,0.01895
,,,1E-08,0.01981375
,,,2E-08,0.0189925
,,,3E-08,0.018355625
,,,4E-08,0.017390625
,,,5E-08,0.01783
,,,6E-08,0.01819625
,,,7E-08,0.018755
,,,8E-08,0.019103125
,,,9E-08,0.01912375
,,,1E-07,0.0186575
,,,1.1E-07,0.01801
,,,1.2E-07,0.018213125
,,,1.3E-07,0.018210625
,,,1.4E-07,0.018745625
,,,1.5E-07,0.01881875
,,,1.6E-07,0.018541875
,,,1.7E-07,0.018619375
,,,1.8E-07,0.01864625
,,,1.9E-07,0.018530625
,,,2E-07,0.018330625
,,,2.1E-07,0.01832
,,,2.2E-07,0.018554375
,,,2.3E-07,0.01866875
,,,2.4E-07,0.018365
,,,2.5E-07,0.018495625
,,,2.6E-07,0.018305625
,,,2.7E-07,0.0184975
,,,2.8E-07,0.018530625
,,,2.9E-07,0.0184525
,,,3E-07,0.018445625
,,,3.1E-07,0.01869375
,,,3.2E-07,0.018771875
,,,3.3E-07,0.0186075
,,,3.4E-07,0.0184775
,,,3.5E-07,0.018509375
,,,3.6E-07,0.01849875
,,,3.7E-07,0.018274375
,,,3.8E-07,0.01849125
,,,3.9E-07,0.018670625
,,,4E-07,0.01855875
,,,4.1E-07,0.018398125
,,,4.2E-07,0.018624375
,,,4.3E-07,0.01847875
,,,4.4E-07,0.018543125
,,,4.5E-07,0.01877875
,,,4.6E-07,0.018516875
,,,4.7E-07,0.018736875
,,,4.8E-07,0.018491875
,,,4.9E-07,0.018416875
,,,5E-07,0.018614375
,,,5.1E-07,0.018633125
,,,5.2E-07,0.018644375
,,,5.3E-07,0.01840375
,,,5.4E-07,0.018635
,,,5.5E-07,0.0183925
,,,5.6E-07,0.018674375
,,,5.7E-07,0.018694375
,,,5.8E-07,0.01833875
,,,5.9E-07,0.018151875
,,,6E-07,0.01839125
,,,6.1E-07,0.01842
,,,6.2E-07,0.018685625
,,,6.3E-07,0.018310625
,,,6.4E-07,0.01848375
,,,6.5E-07,0.018708125
,,,6.6E-07,0.01842875
,,,6.7E-07,0.0186375
,,,6.8E-07,0.018555625
,,,6.9E-07,0.018365
,,,7E-07,0.018594375
,,,7.1E-07,0.018559375
,,,7.2E-07,0.0185375
,,,7.3E-07,0.01846125
,,,7.4E-07,0.01840125
,,,7.5E-07,0.0183425
,,,7.6E-07,0.01848
,,,7.7E-07,0.0184475
,,,7.8E-07,0.0186575
,,,7.9E-07,0.01874625
,,,8E-07,0.018568125
,,,8.1E-07,0.018395625
,,,8.2E-07,0.018719375
,,,8.3E-07,0.0183275
,,,8.4E-07,0.01843625
,,,8.5E-07,0.01833
,,,8.6E-07,0.018350625
,,,8.7E-07,0.018654375
,,,8.8E-07,0.01877
,,,8.9E-07,0.01842375
,,,9E-07,0.018346875
,,,9.1E-07,0.018783125
,,,9.2E-07,0.018545
,,,9.3E-07,0.018438125
,,,9.4E-07,0.01854125
,,,9.5E-07,0.01833875
,,,9.6E-07,0.018718125
,,,9.7E-07,0.01843875
,,,9.8E-07,0.018468125
,,,9.9E-07,0.018626875
,,,1E-06,0.018690625
,,,1.01E-06,0.018544375
,,,1.02E-06,0.0184
,,,1.03E-06,0.018598125
,,,1.04E-06,0.018601875
,,,1.05E-06,0.018509375
,,,1.06E-06,0.01855375
,,,1.07E-06,0.018478125
,,,1.08E-06,0.018560625
,,,1.09E-06,0.01825875
,,,1.1E-06,0.0185825
,,,1.11E-06,0.0185425
,,,1.12E-06,0.018309375
,,,1.13E-06,0.018581875
,,,1.14E-06,0.01856
,,,1.15E-06,0.01871625
,,,1.16E-06,0.018726875
,,,1.17E-06,0.018505
,,,1.18E-06,0.018521875
,,,1.19E-06,0.018306875
,,,1.2E-06,0.01863125
,,,1.21E-06,0.0184825
,,,1.22E-06,0.01838375
,,,1.23E-06,0.01851375
,,,1.24E-06,0.01833625
,,,1.25E-06,0.018525625
,,,1.26E-06,0.018595
,,,1.27E-06,0.01860625
,,,1.28E-06,0.01819375
,,,1.29E-06,0.01862375
,,,1.3E-06,0.018526875
,,,1.31E-06,0.01851625
,,,1.32E-06,0.01865625
,,,1.33E-06,0.0183525
,,,1.34E-06,0.018375
,,,1.35E-06,0.01853625
,,,1.36E-06,0.018219375
,,,1.37E-06,0.018330625
,,,1.38E-06,0.018465625
,,,1.39E-06,0.01852875
,,,1.4E-06,0.01870125
,,,1.41E-06,0.01834625
,,,1.42E-06,0.0183725
,,,1.43E-06,0.01844875
,,,1.44E-06,0.018446875
,,,1.45E-06,0.0183375
,,,1.46E-06,0.01855125
,,,1.47E-06,0.0185225
,,,1.48E-06,0.01862375
,,,1.49E-06,0.01849
,,,1.5E-06,0.0184225
,,,1.51E-06,0.01851875
,,,1.52E-06,0.01858375
,,,1.53E-06,0.018438125
,,,1.54E-06,0.0185325
,,,1.55E-06,0.01843375
,,,1.56E-06,0.018319375
,,,1.57E-06,0.0185325
,,,1.58E-06,0.018428125
,,,1.59E-06,0.018563125
,,,1.6E-06,0.018445625
,,,1.61E-06,0.0182275
,,,1.62E-06,0.018485625
,,,1.63E-06,0.0184675
,,,1.64E-06,0.01847875
,,,1.65E-06,0.0185225
,,,1.66E-06,0.018586875
,,,1.67E-06,0.01843875
,,,1.68E-06,0.0184675
,,,1.69E-06,0.01829875
,,,1.7E-06,0.018378125
,,,1.71E-06,0.01849
,,,1.72E-06,0.018685
,,,1.73E-06,0.018585
,,,1.74E-06,0.018629375
,,,1.75E-06,0.018585625
,,,1.76E-06,0.01856
,,,1.77E-06,0.0187075
,,,1.78E-06,0.018363125
,,,1.79E-06,0.01832375
,,,1.8E-06,0.018694375
,,,1.81E-06,0.018619375
,,,1.82E-06,0.018423125
,,,1.83E-06,0.018313125
,,,1.84E-06,0.018661875
,,,1.85E-06,0.01852875
,,,1.86E-06,0.01827875
,,,1.87E-06,0.018578125
,,,1.88E-06,0.0185
,,,1.89E-06,0.018730625
,,,1.9E-06,0.018281875
,,,1.91E-06,0.0187425
,,,1.92E-06,0.018285
,,,1.93E-06,0.0183925
,,,1.94E-06,0.018389375
,,,1.95E-06,0.018269375
,,,1.96E-06,0.018394375
,,,1.97E-06,0.018745
,,,1.98E-06,0.018545625
,,,1.99E-06,0.018461875
,,,2E-06,0.018308125
,,,2.01E-06,0.01868625
,,,2.02E-06,0.01855
,,,2.03E-06,0.01834625
,,,2.04E-06,0.01871
,,,2.05E-06,0.018558125
,,,2.06E-06,0.018273125
,,,2.07E-06,0.01870125
,,,2.08E-06,0.01859
,,,2.09E-06,0.018486875
,,,2.1E-06,0.018794375
,,,2.11E-06,0.018426875
,,,2.12E-06,0.01860625
,,,2.13E-06,0.01833875
,,,2.14E-06,0.0187725
,,,2.15E-06,0.0184775
,,,2.16E-06,0.01837
,,,2.17E-06,0.018563125
,,,2.18E-06,0.018568125
,,,2.19E-06,0.018466875
,,,2.2E-06,0.01873625
,,,2.21E-06,0.018379375
,,,2.22E-06,0.018709375
,,,2.23E-06,0.018833125
,,,2.24E-06,0.018553125
,,,2.25E-06,0.018515625
,,,2.26E-06,0.018490625
,,,2.27E-06,0.018596875
,,,2.28E-06,0.018464375
,,,2.29E-06,0.01878375
,,,2.3E-06,0.01841
,,,2.31E-06,0.018640625
,,,2.32E-06,0.01857375
,,,2.33E-06,0.018548125
,,,2.34E-06,0.01848
,,,2.35E-06,0.0184125
,,,2.36E-06,0.01863625
,,,2.37E-06,0.018401875
,,,2.38E-06,0.018624375
,,,2.39E-06,0.0185725
,,,2.4E-06,0.018514375
,,,2.41E-06,0.0183225
,,,2.42E-06,0.018470625
,,,2.43E-06,0.01815375
,,,2.44E-06,0.018390625
,,,2.45E-06,0.018493125
,,,2.46E-06,0.018821875
,,,2.47E-06,0.018561875
,,,2.48E-06,0.018505625
,,,2.49E-06,0.01870375
,,,2.5E-06,0.018548125
,,,2.51E-06,0.018528125
,,,2.52E-06,0.018354375
,,,2.53E-06,0.01856125
,,,2.54E-06,0.01839875
,,,2.55E-06,0.018618125
,,,2.56E-06,0.01858375
,,,2.57E-06,0.018435
,,,2.58E-06,0.018356875
,,,2.59E-06,0.018435
,,,2.6E-06,0.018649375
,,,2.61E-06,0.018628125
,,,2.62E-06,0.01865625
,,,2.63E-06,0.018459375
,,,2.64E-06,0.0185475
,,,2.65E-06,0.0185225
,,,2.66E-06,0.018539375
,,,2.67E-06,0.0183075
,,,2.68E-06,0.018593125
,,,2.69E-06,0.018295625
,,,2.7E-06,0.018595625
,,,2.71E-06,0.01866
,,,2.72E-06,0.018274375
,,,2.73E-06,0.018470625
,,,2.74E-06,0.01845875
,,,2.75E-06,0.018621875
,,,2.76E-06,0.0184225
,,,2.77E-06,0.01833125
,,,2.78E-06,0.018308125
,,,2.79E-06,0.0182725
,,,2.8E-06,0.01838125
,,,2.81E-06,0.01859375
,,,2.82E-06,0.018620625
,,,2.83E-06,0.01858125
,,,2.84E-06,0.018460625
,,,2.85E-06,0.018541875
,,,2.86E-06,0.01853375
,,,2.87E-06,0.018740625
,,,2.88E-06,0.018435625
,,,2.89E-06,0.018470625
,,,2.9E-06,0.018563125
,,,2.91E-06,0.018545
,,,2.92E-06,0.018511875
,,,2.93E-06,0.01859875
,,,2.94E-06,0.018695625
,,,2.95E-06,0.018741875
,,,2.96E-06,0.018521875
,,,2.97E-06,0.0183775
,,,2.98E-06,0.01857625
,,,2.99E-06,0.018444375
,,,3E-06,0.018458125
,,,3.01E-06,0.018315
,,,3.02E-06,0.018629375
,,,3.03E-06,0.018486875
,,,3.04E-06,0.01833875
,,,3.05E-06,0.018610625
,,,3.06E-06,0.01853375
,,,3.07E-06,0.01850625
,,,3.08E-06,0.018706875
,,,3.09E-06,0.018520625
,,,3.1E-06,0.018536875
,,,3.11E-06,0.018616875
,,,3.12E-06,0.0183
,,,3.13E-06,0.018645
,,,3.14E-06,0.018615
,,,3.15E-06,0.018569375
,,,3.16E-06,0.01834125
,,,3.17E-06,0.018365625
,,,3.18E-06,0.018294375
,,,3.19E-06,0.018669375
,,,3.2E-06,0.0184475
,,,3.21E-06,0.018684375
,,,3.22E-06,0.018320625
,,,3.23E-06,0.0186225
,,,3.24E-06,0.018504375
,,,3.25E-06,0.0184775
,,,3.26E-06,0.01849625
,,,3.27E-06,0.018513125
,,,3.28E-06,0.018825
,,,3.29E-06,0.01865875
,,,3.3E-06,0.01841
,,,3.31E-06,0.018639375
,,,3.32E-06,0.018485625
,,,3.33E-06,0.018454375
,,,3.34E-06,0.0185725
,,,3.35E-06,0.01847625
,,,3.36E-06,0.018385
,,,3.37E-06,0.01853875
,,,3.38E-06,0.01870875
,,,3.39E-06,0.01841
,,,3.4E-06,0.0184475
,,,3.41E-06,0.018403125
,,,3.42E-06,0.0185975
,,,3.43E-06,0.01837875
,,,3.44E-06,0.018373125
,,,3.45E-06,0.018485
,,,3.46E-06,0.018320625
,,,3.47E-06,0.018468125
,,,3.48E-06,0.01839375
,,,3.49E-06,0.018495625
,,,3.5E-06,0.01843375
,,,3.51E-06,0.01856625
,,,3.52E-06,0.018444375
,,,3.53E-06,0.01869125
,,,3.54E-06,0.018514375
,,,3.55E-06,0.018306875
,,,3.56E-06,0.018635625
