data/raw/Final_POL_Test_1/SOP096_Ch2.csv

"Record Length",1000,"Points",-5E-06,0.02403
"Sample Interval",1E-08,s,-4.99E-06,0.024305625
"Trigger Point",500,"Samples",-4.98E-06,0.024095
"Trigger Time",0,s,-4.97E-06,0.023976875
"",,,-4.96E-06,0.02401875
"Horizontal Offset",-5E-06,s,-4.95E-06,0.024216875
,,,-4.94E-06,0.02424875
,,,-4.93E-06,0.024015
,,,-4.92E-06,0.024103125
,,,-4.91E-06,0.024034375
,,,-4.9E-06,0.0240975
,,,-4.89E-06,0.023996875
,,,-4.88E-06,0.024185
,,,-4.87E-06,0.024091875
,,,-4.86E-06,0.024023125
,,,-4.85E-06,0.023960625
,,,-4.84E-06,0.02408875
,,,-4.83E-06,0.02431375
,,,-4.82E-06,0.024096875
,,,-4.81E-06,0.0239925
,,,-4.8E-06,0.023951875
,,,-4.79E-06,0.0241625
,,,-4.78E-06,0.0240425
,,,-4.77E-06,0.024084375
,,,-4.76E-06,0.024078125
,,,-4.75E-06,0.024026875
,,,-4.74E-06,0.023960625
,,,-4.73E-06,0.02438
,,,-4.72E-06,0.024141875
,,,-4.71E-06,0.024304375
,,,-4.7E-06,0.024130625
,,,-4.69E-06,0.0243275
,,,-4.68E-06,0.024046875
,,,-4.67E-06,0.024116875
,,,-4.66E-06,0.024046875
,,,-4.65E-06,0.024141875
,,,-4.64E-06,0.024116875
,,,-4.63E-06,0.02400625
,,,-4.62E-06,0.02413
,,,-4.61E-06,0.02409875
,,,-4.6E-06,0.0240225
,,,-4.59E-06,0.02421625
,,,-4.58E-06,0.024025
,,,-4.57E-06,0.024296875
,,,-4.56E-06,0.024260625
,,,-4.55E-06,0.024249375
,,,-4.54E-06,0.023861875
,,,-4.53E-06,0.02421375
,,,-4.52E-06,0.02395
,,,-4.51E-06,0.024285625
,,,-4.5E-06,0.024163125
,,,-4.49E-06,0.024240625
,,,-4.48E-06,0.0239925
,,,-4.47E-06,0.024441875
,,,-4.46E-06,0.0242675
,,,-4.45E-06,0.024264375
,,,-4.44E-06,0.024265625
,,,-4.43E-06,0.024351875
,,,-4.42E-06,0.0239575
,,,-4.41E-06,0.024154375
,,,-4.4E-06,0.024235625
,,,-4.39E-06,0.024031875
,,,-4.38E-06,0.024025625
,,,-4.37E-06,0.0239175
,,,-4.36E-06,0.02413125
,,,-4.35E-06,0.02397125
,,,-4.34E-06,0.0241475
,,,-4.33E-06,0.02404625
,,,-4.32E-06,0.024135625
,,,-4.31E-06,0.023988125
,,,-4.3E-06,0.02393125
,,,-4.29E-06,0.024218125
,,,-4.28E-06,0.02414
,,,-4.27E-06,0.024041875
,,,-4.26E-06,0.0240275
,,,-4.25E-06,0.024234375
,,,-4.24E-06,0.0242925
,,,-4.23E-06,0.024148125
,,,-4.22E-06,0.0241125
,,,-4.21E-06,0.02393875
,,,-4.2E-06,0.02413875
,,,-4.19E-06,0.024121875
,,,-4.18E-06,0.02384375
,,,-4.17E-06,0.024068125
,,,-4.16E-06,0.023999375
,,,-4.15E-06,0.0242225
,,,-4.14E-06,0.02392625
,,,-4.13E-06,0.024226875
,,,-4.12E-06,0.02369625
,,,-4.11E-06,0.023890625
,,,-4.1E-06,0.02399625
,,,-4.09E-06,0.02428375
,,,-4.08E-06,0.0241375
,,,-4.07E-06,0.024106875
,,,-4.06E-06,0.023980625
,,,-4.05E-06,0.024415625
,,,-4.04E-06,0.02425625
,,,-4.03E-06,0.02406375
,,,-4.02E-06,0.023985
,,,-4.01E-06,0.023988125
,,,-4E-06,0.02397875
,,,-3.99E-06,0.02410125
,,,-3.98E-06,0.0242025
,,,-3.97E-06,0.0242375
,,,-3.96E-06,0.024101875
,,,-3.95E-06,0.024213125
,,,-3.94E-06,0.023965
,,,-3.93E-06,0.0242125
,,,-3.92E-06,0.024075
,,,-3.91E-06,0.024125625
,,,-3.9E-06,0.024235625
,,,-3.89E-06,0.0243525
,,,-3.88E-06,0.023889375
,,,-3.87E-06,0.02393375
,,,-3.86E-06,0.023878125
,,,-3.85E-06,0.024103125
,,,-3.84E-06,0.02400125
,,,-3.83E-06,0.024161875
,,,-3.82E-06,0.024295
,,,-3.81E-06,0.02422
,,,-3.8E-06,0.02414875
,,,-3.79E-06,0.02384
,,,-3.78E-06,0.02435
,,,-3.77E-06,0.024295625
,,,-3.76E-06,0.023896875
,,,-3.75E-06,0.023763125
,,,-3.74E-06,0.024091875
,,,-3.73E-06,0.024236875
,,,-3.72E-06,0.0239675
,,,-3.71E-06,0.024128125
,,,-3.7E-06,0.02393875
,,,-3.69E-06,0.024293125
,,,-3.68E-06,0.0242075
,,,-3.67E-06,0.023866875
,,,-3.66E-06,0.023883125
,,,-3.65E-06,0.024241875
,,,-3.64E-06,0.024255625
,,,-3.63E-06,0.02408625
,,,-3.62E-06,0.023935625
,,,-3.61E-06,0.02394375
,,,-3.6E-06,0.0240825
,,,-3.59E-06,0.024211875
,,,-3.58E-06,0.0241775
,,,-3.57E-06,0.024005
,,,-3.56E-06,0.024025
,,,-3.55E-06,0.024090625
,,,-3.54E-06,0.024200625
,,,-3.53E-06,0.024176875
,,,-3.52E-06,0.02405
,,,-3.51E-06,0.023949375
,,,-3.5E-06,0.024163125
,,,-3.49E-06,0.024009375
,,,-3.48E-06,0.024400625
,,,-3.47E-06,0.0240975
,,,-3.46E-06,0.02410625
,,,-3.45E-06,0.02394125
,,,-3.44E-06,0.024158125
,,,-3.43E-06,0.024028125
,,,-3.42E-06,0.024104375
,,,-3.41E-06,0.024195625
,,,-3.4E-06,0.02407625
,,,-3.39E-06,0.0239475
,,,-3.38E-06,0.02433125
,,,-3.37E-06,0.023965625
,,,-3.36E-06,0.02422875
,,,-3.35E-06,0.023841875
,,,-3.34E-06,0.02404125
,,,-3.33E-06,0.02388375
,,,-3.32E-06,0.02406875
,,,-3.31E-06,0.02426625
,,,-3.3E-06,0.0241625
,,,-3.29E-06,0.0241825
,,,-3.28E-06,0.023831875
,,,-3.27E-06,0.024204375
,,,-3.26E-06,0.024050625
,,,-3.25E-06,0.023899375
,,,-3.24E-06,0.024055625
,,,-3.23E-06,0.02391875
,,,-3.22E-06,0.024111875
,,,-3.21E-06,0.023928125
,,,-3.2E-06,0.024029375
,,,-3.19E-06,0.024054375
,,,-3.18E-06,0.024333125
,,,-3.17E-06,0.0240875
,,,-3.16E-06,0.02404875
,,,-3.15E-06,0.024170625
,,,-3.14E-06,0.02409125
,,,-3.13E-06,0.024138125
,,,-3.12E-06,0.024216875
,,,-3.11E-06,0.02416
,,,-3.1E-06,0.0240325
,,,-3.09E-06,0.02392375
,,,-3.08E-06,0.024263125
,,,-3.07E-06,0.024116875
,,,-3.06E-06,0.024060625
,,,-3.05E-06,0.023915625
,,,-3.04E-06,0.024259375
,,,-3.03E-06,0.024208125
,,,-3.02E-06,0.023895625
,,,-3.01E-06,0.0240075
,,,-3E-06,0.023858125
,,,-2.99E-06,0.024055625
,,,-2.98E-06,0.0241
,,,-2.97E-06,0.0241225
,,,-2.96E-06,0.0241
,,,-2.95E-06,0.02428625
,,,-2.94E-06,0.024088125
,,,-2.93E-06,0.02397625
,,,-2.92E-06,0.024005625
,,,-2.91E-06,0.0240575
,,,-2.9E-06,0.024076875
,,,-2.89E-06,0.024165625
,,,-2.88E-06,0.024241875
,,,-2.87E-06,0.02422125
,,,-2.86E-06,0.02403625
,,,-2.85E-06,0.02414
,,,-2.84E-06,0.024231875
,,,-2.83E-06,0.0242725
,,,-2.82E-06,0.024301875
,,,-2.81E-06,0.02386
,,,-2.8E-06,0.023744375
,,,-2.79E-06,0.02416625
,,,-2.78E-06,0.02419375
,,,-2.77E-06,0.024316875
,,,-2.76E-06,0.02413375
,,,-2.75E-06,0.023809375
,,,-2.74E-06,0.024176875
,,,-2.73E-06,0.023963125
,,,-2.72E-06,0.024064375
,,,-2.71E-06,0.024115
,,,-2.7E-06,0.023941875
,,,-2.69E-06,0.024195
,,,-2.68E-06,0.024148125
,,,-2.67E-06,0.02407625
,,,-2.66E-06,0.02399375
,,,-2.65E-06,0.024240625
,,,-2.64E-06,0.02404625
,,,-2.63E-06,0.024098125
,,,-2.62E-06,0.02397875
,,,-2.61E-06,0.024093125
,,,-2.6E-06,0.024061875
,,,-2.59E-06,0.024175
,,,-2.58E-06,0.02427625
,,,-2.57E-06,0.02419875
,,,-2.56E-06,0.024245625
,,,-2.55E-06,0.0240675
,,,-2.54E-06,0.024261875
,,,-2.53E-06,0.02395375
,,,-2.52E-06,0.024193125
,,,-2.51E-06,0.024145
,,,-2.5E-06,0.023995625
,,,-2.49E-06,0.0241675
,,,-2.48E-06,0.0238275
,,,-2.47E-06,0.024139375
,,,-2.46E-06,0.02401875
,,,-2.45E-06,0.023860625
,,,-2.44E-06,0.024188125
,,,-2.43E-06,0.02410625
,,,-2.42E-06,0.024171875
,,,-2.41E-06,0.024108125
,,,-2.4E-06,0.02402
,,,-2.39E-06,0.02389625
,,,-2.38E-06,0.024283125
,,,-2.37E-06,0.024031875
,,,-2.36E-06,0.024135625
,,,-2.35E-06,0.02398625
,,,-2.34E-06,0.024160625
,,,-2.33E-06,0.024096875
,,,-2.32E-06,0.02419875
,,,-2.31E-06,0.023976875
,,,-2.3E-06,0.024013125
,,,-2.29E-06,0.023980625
,,,-2.28E-06,0.024020625
,,,-2.27E-06,0.0240425
,,,-2.26E-06,0.02395
,,,-2.25E-06,0.024129375
,,,-2.24E-06,0.02413625
,,,-2.23E-06,0.02408625
,,,-2.22E-06,0.02429625
,,,-2.21E-06,0.02430625
,,,-2.2E-06,0.024099375
,,,-2.19E-06,0.024050625
,,,-2.18E-06,0.024151875
,,,-2.17E-06,0.02411625
,,,-2.16E-06,0.023955
,,,-2.15E-06,0.023884375
,,,-2.14E-06,0.024095
,,,-2.13E-06,0.024188125
,,,-2.12E-06,0.024131875
,,,-2.11E-06,0.023989375
,,,-2.1E-06,0.024199375
,,,-2.09E-06,0.02399625
,,,-2.08E-06,0.024318125
,,,-2.07E-06,0.023935625
,,,-2.06E-06,0.02404625
,,,-2.05E-06,0.02401875
,,,-2.04E-06,0.02405125
,,,-2.03E-06,0.023958125
,,,-2.02E-06,0.02413875
,,,-2.01E-06,0.023950625
,,,-2E-06,0.023858125
,,,-1.99E-06,0.024069375
,,,-1.98E-06,0.023835625
,,,-1.97E-06,0.023809375
,,,-1.96E-06,0.0239675
,,,-1.95E-06,0.024084375
,,,-1.94E-06,0.024048125
,,,-1.93E-06,0.02419375
,,,-1.92E-06,0.02397375
,,,-1.91E-06,0.024359375
,,,-1.9E-06,0.024030625
,,,-1.89E-06,0.023886875
,,,-1.88E-06,0.024225
,,,-1.87E-06,0.023999375
,,,-1.86E-06,0.024354375
,,,-1.85E-06,0.023873125
,,,-1.84E-06,0.024031875
,,,-1.83E-06,0.024165
,,,-1.82E-06,0.02408625
,,,-1.81E-06,0.024045
,,,-1.8E-06,0.024166875
,,,-1.79E-06,0.023939375
,,,-1.78E-06,0.0240375
,,,-1.77E-06,0.02422
,,,-1.76E-06,0.0241275
,,,-1.75E-06,0.024424375
,,,-1.74E-06,0.0241625
,,,-1.73E-06,0.024194375
,,,-1.72E-06,0.02394625
,,,-1.71E-06,0.023999375
,,,-1.7E-06,0.024134375
,,,-1.69E-06,0.0240075
,,,-1.68E-06,0.02404
,,,-1.67E-06,0.02420625
,,,-1.66E-06,0.024141875
,,,-1.65E-06,0.0239975
,,,-1.64E-06,0.0239075
,,,-1.63E-06,0.02394625
,,,-1.62E-06,0.024225625
,,,-1.61E-06,0.02404125
,,,-1.6E-06,0.0241075
,,,-1.59E-06,0.023969375
,,,-1.58E-06,0.023986875
,,,-1.57E-06,0.023915
,,,-1.56E-06,0.02396125
,,,-1.55E-06,0.024100625
,,,-1.54E-06,0.024085
,,,-1.53E-06,0.02404875
,,,-1.52E-06,0.0242
,,,-1.51E-06,0.02397
,,,-1.5E-06,0.02401875
,,,-1.49E-06,0.023978125
,,,-1.48E-06,0.024268125
,,,-1.47E-06,0.024059375
,,,-1.46E-06,0.0239125
,,,-1.45E-06,0.0239925
,,,-1.44E-06,0.02425
,,,-1.43E-06,0.024411875
,,,-1.42E-06,0.024086875
,,,-1.41E-06,0.024088125
,,,-1.4E-06,0.02389875
,,,-1.39E-06,0.023855625
,,,-1.38E-06,0.024141875
,,,-1.37E-06,0.023944375
,,,-1.36E-06,0.0237625
,,,-1.35E-06,0.02407875
,,,-1.34E-06,0.02395125
,,,-1.33E-06,0.02411375
,,,-1.32E-06,0.0241625
,,,-1.31E-06,0.02401625
,,,-1.3E-06,0.023985
,,,-1.29E-06,0.023923125
,,,-1.28E-06,0.024055625
,,,-1.27E-06,0.024126875
,,,-1.26E-06,0.024151875
,,,-1.25E-06,0.024059375
,,,-1.24E-06,0.023959375
,,,-1.23E-06,0.023938125
,,,-1.22E-06,0.02404875
,,,-1.21E-06,0.0238175
,,,-1.2E-06,0.023996875
,,,-1.19E-06,0.0244075
,,,-1.18E-06,0.0235925
,,,-1.17E-06,0.024104375
,,,-1.16E-06,0.024055
,,,-1.15E-06,0.023954375
,,,-1.14E-06,0.024065625
,,,-1.13E-06,0.024104375
,,,-1.12E-06,0.0241
,,,-1.11E-06,0.024181875
,,,-1.1E-06,0.024128125
,,,-1.09E-06,0.024071875
,,,-1.08E-06,0.0241525
,,,-1.07E-06,0.024415625
,,,-1.06E-06,0.023974375
,,,-1.05E-06,0.024376875
,,,-1.04E-06,0.02405375
,,,-1.03E-06,0.02417125
,,,-1.02E-06,0.0240875
,,,-1.01E-06,0.024210625
,,,-1E-06,0.024393125
,,,-9.9E-07,0.024173125
,,,-9.8E-07,0.0243675
,,,-9.7E-07,0.02414875
,,,-9.6E-07,0.0241575
,,,-9.5E-07,0.024133125
,,,-9.4E-07,0.02436125
,,,-9.3E-07,0.024174375
,,,-9.2E-07,0.02423125
,,,-9.1E-07,0.023845
,,,-9E-07,0.02405
,,,-8.9E-07,0.0242575
,,,-8.8E-07,0.024095625
,,,-8.7E-07,0.024075625
,,,-8.6E-07,0.02423375
,,,-8.5E-07,0.0239525
,,,-8.4E-07,0.02429
,,,-8.3E-07,0.024245625
,,,-8.2E-07,0.024146875
,,,-8.1E-07,0.02419875
,,,-8E-07,0.024064375
,,,-7.9E-07,0.023799375
,,,-7.8E-07,0.02420125
,,,-7.7E-07,0.024075625
,,,-7.6E-07,0.02426875
,,,-7.5E-07,0.02404375
,,,-7.4E-07,0.024154375
,,,-7.3E-07,0.02386
,,,-7.2E-07,0.023935
,,,-7.1E-07,0.0242175
,,,-7E-07,0.023980625
,,,-6.9E-07,0.02410375
,,,-6.8E-07,0.02421125
,,,-6.7E-07,0.024008125
,,,-6.6E-07,0.02397125
,,,-6.5E-07,0.02405875
,,,-6.4E-07,0.0242075
,,,-6.3E-07,0.02395
,,,-6.2E-07,0.0241275
,,,-6.1E-07,0.024198125
,,,-6E-07,0.02417125
,,,-5.9E-07,0.024175625
,,,-5.8E-07,0.024006875
,,,-5.7E-07,0.02411125
,,,-5.6E-07,0.02399125
,,,-5.5E-07,0.024055
,,,-5.4E-07,0.024280625
,,,-5.3E-07,0.024301875
,,,-5.2E-07,0.02388875
,,,-5.1E-07,0.02403
,,,-5E-07,0.02420125
,,,-4.9E-07,0.024114375
,,,-4.8E-07,0.023675
,,,-4.7E-07,0.023948125
,,,-4.6E-07,0.024051875
,,,-4.5E-07,0.024219375
,,,-4.4E-07,0.024145625
,,,-4.3E-07,0.024243125
,,,-4.2E-07,0.02412
,,,-4.1E-07,0.02404875
,,,-4E-07,0.024205
,,,-3.9E-07,0.024028125
,,,-3.8E-07,0.02394
,,,-3.7E-07,0.02392625
,,,-3.6E-07,0.0242175
,,,-3.5E-07,0.02395625
,,,-3.4E-07,0.024103125
,,,-3.3E-07,0.024078125
,,,-3.2E-07,0.02411625
,,,-3.1E-07,0.023913125
,,,-3E-07,0.023970625
,,,-2.9E-07,0.024364375
,,,-2.8E-07,0.02412625
,,,-2.7E-07,0.024340625
,,,-2.6E-07,0.02407875
,,,-2.5E-07,0.02408
,,,-2.4E-07,0.024056875
,,,-2.3E-07,0.02437
,,,-2.2E-07,0.024201875
,,,-2.1E-07,0.024098125
,,,-2E-07,0.024035
,,,-1.9E-07,0.02437125
,,,-1.8E-07,0.024043125
,,,-1.7E-07,0.024148125
,,,-1.6E-07,0.024039375
,,,-1.5E-07,0.024225625
,,,-1.4E-07,0.024056875
,,,-1.3E-07,0.02386375
,,,-1.2E-07,0.024079375
,,,-1.1E-07,0.0238725
,,,-1E-07,0.024174375
,,,-9E-08,0.024016875
,,,-8E-08,0.024238125
,,,-7E-08,0.023785625
,,,-6E-08,0.023908125
,,,-5E-08,0.02421375
,,,-4E-08,0.024480625
,,,-3E-08,0.024396875
,,,-2E-08,0.023408125
,,,-1E-08,0.023025625
,,,0,0.023365625
,,,1E-08,0.02538875
,,,2E-08,0.025596875
,,,3E-08,0.024826875
,,,4E-08,0.023326875
,,,5E-08,0.02281375
,,,6E-08,0.022926875
,,,7E-08,0.024031875
,,,8E-08,0.02434
,,,9E-08,0.02472125
,,,1E-07,0.0246275
,,,1.1E-07,0.024105625
,,,1.2E-07,0.023718125
,,,1.3E-07,0.023604375
,,,1.4E-07,0.02396
,,,1.5E-07,0.024338125
,,,1.6E-07,0.024504375
,,,1.7E-07,0.024315625
,,,1.8E-07,0.024266875
,,,1.9E-07,0.023933125
,,,2E-07,0.024250625
,,,2.1E-07,0.024260625
,,,2.2E-07,0.024069375
,,,2.3E-07,0.024155
,,,2.4E-07,0.024193125
,,,2.5E-07,0.024259375
,,,2.6E-07,0.02421
,,,2.7E-07,0.023856875
,,,2.8E-07,0.0238775
,,,2.9E-07,0.02388625
,,,3E-07,0.02409
,,,3.1E-07,0.02413125
,,,3.2E-07,0.024189375
,,,3.3E-07,0.02419875
,,,3.4E-07,0.023933125
,,,3.5E-07,0.02430875
,,,3.6E-07,0.02427875
,,,3.7E-07,0.02413625
,,,3.8E-07,0.024175625
,,,3.9E-07,0.02388125
,,,4E-07,0.02423125
,,,4.1E-07,0.02434
,,,4.2E-07,0.02424875
,,,4.3E-07,0.0242825
,,,4.4E-07,0.023966875
,,,4.5E-07,0.024220625
,,,4.6E-07,0.024315
,,,4.7E-07,0.02405625
,,,4.8E-07,0.0239
,,,4.9E-07,0.02412625
,,,5E-07,0.0242325
,,,5.1E-07,0.024450625
,,,5.2E-07,0.02393
,,,5.3E-07,0.02407875
,,,5.4E-07,0.02409
,,,5.5E-07,0.024194375
,,,5.6E-07,0.02444
,,,5.7E-07,0.02403375
,,,5.8E-07,0.02409125
,,,5.9E-07,0.024235625
,,,6E-07,0.024160625
,,,6.1E-07,0.024089375
,,,6.2E-07,0.023971875
,,,6.3E-07,0.02408
,,,6.4E-07,0.024045625
,,,6.5E-07,0.02406
,,,6.6E-07,0.02406
,,,6.7E-07,0.02428125
,,,6.8E-07,0.023985625
,,,6.9E-07,0.023930625
,,,7E-07,0.02417625
,,,7.1E-07,0.02412625
,,,7.2E-07,0.024059375
,,,7.3E-07,0.02442
,,,7.4E-07,0.023951875
,,,7.5E-07,0.024145
,,,7.6E-07,0.0240475
,,,7.7E-07,0.024133125
,,,7.8E-07,0.024008125
,,,7.9E-07,0.024113125
,,,8E-07,0.024116875
,,,8.1E-07,0.024110625
,,,8.2E-07,0.023986875
,,,8.3E-07,0.02417875
,,,8.4E-07,0.02406875
,,,8.5E-07,0.0242725
,,,8.6E-07,0.024169375
,,,8.7E-07,0.02395625
,,,8.8E-07,0.02402875
,,,8.9E-07,0.0242625
,,,9E-07,0.02417875
,,,9.1E-07,0.023876875
,,,9.2E-07,0.024198125
,,,9.3E-07,0.024055625
,,,9.4E-07,0.024018125
,,,9.5E-07,0.02403625
,,,9.6E-07,0.023995625
,,,9.7E-07,0.0241
,,,9.8E-07,0.023894375
,,,9.9E-07,0.0242025
,,,1E-06,0.0240075
,,,1.01E-06,0.0242375
,,,1.02E-06,0.0241525
,,,1.03E-06,0.024120625
,,,1.04E-06,0.02386625
,,,1.05E-06,0.023988125
,,,1.06E-06,0.024250625
,,,1.07E-06,0.024096875
,,,1.08E-06,0.023889375
,,,1.09E-06,0.02421625
,,,1.1E-06,0.0241975
,,,1.11E-06,0.02393375
,,,1.12E-06,0.024075
,,,1.13E-06,0.024069375
,,,1.14E-06,0.02376
,,,1.15E-06,0.02412875
,,,1.16E-06,0.0240825
,,,1.17E-06,0.02374875
,,,1.18E-06,0.024014375
,,,1.19E-06,0.024228125
,,,1.2E-06,0.02406
,,,1.21E-06,0.024249375
,,,1.22E-06,0.024224375
,,,1.23E-06,0.024231875
,,,1.24E-06,0.024338125
,,,1.25E-06,0.024274375
,,,1.26E-06,0.024006875
,,,1.27E-06,0.02396125
,,,1.28E-06,0.024279375
,,,1.29E-06,0.0242325
,,,1.3E-06,0.0239725
,,,1.31E-06,0.024295625
,,,1.32E-06,0.02422125
,,,1.33E-06,0.024190625
,,,1.34E-06,0.023848125
,,,1.35E-06,0.02382125
,,,1.36E-06,0.0240725
,,,1.37E-06,0.02403375
,,,1.38E-06,0.024400625
,,,1.39E-06,0.024205
,,,1.4E-06,0.024228125
,,,1.41E-06,0.024230625
,,,1.42E-06,0.024056875
,,,1.43E-06,0.023981875
,,,1.44E-06,0.024291875
,,,1.45E-06,0.024246875
,,,1.46E-06,0.02396875
,,,1.47E-06,0.0241975
,,,1.48E-06,0.0240625
,,,1.49E-06,0.024134375
,,,1.5E-06,0.024524375
,,,1.51E-06,0.02388875
,,,1.52E-06,0.02407125
,,,1.53E-06,0.024105625
,,,1.54E-06,0.02405625
,,,1.55E-06,0.0239825
,,,1.56E-06,0.02418875
,,,1.57E-06,0.023825
,,,1.58E-06,0.024145625
,,,1.59E-06,0.024178125
,,,1.6E-06,0.024061875
,,,1.61E-06,0.024084375
,,,1.62E-06,0.02402625
,,,1.63E-06,0.024105625
,,,1.64E-06,0.0240375
,,,1.65E-06,0.024283125
,,,1.66E-06,0.024113125
,,,1.67E-06,0.024275625
,,,1.68E-06,0.02389875
,,,1.69E-06,0.02424375
,,,1.7E-06,0.024130625
,,,1.71E-06,0.023834375
,,,1.72E-06,0.024063125
,,,1.73E-06,0.024205
,,,1.74E-06,0.024058125
,,,1.75E-06,0.024291875
,,,1.76E-06,0.0241575
,,,1.77E-06,0.02398625
,,,1.78E-06,0.023849375
,,,1.79E-06,0.023936875
,,,1.8E-06,0.02388375
,,,1.81E-06,0.024235
,,,1.82E-06,0.024214375
,,,1.83E-06,0.02420125
,,,1.84E-06,0.024303125
,,,1.85E-06,0.024260625
,,,1.86E-06,0.0239325
,,,1.87E-06,0.024284375
,,,1.88E-06,0.0240425
,,,1.89E-06,0.023963125
,,,1.9E-06,0.023888125
,,,1.91E-06,0.0239225
,,,1.92E-06,0.024056875
,,,1.93E-06,0.024325
,,,1.94E-06,0.024174375
,,,1.95E-06,0.024168125
,,,1.96E-06,0.024334375
,,,1.97E-06,0.023839375
,,,1.98E-06,0.02416625
,,,1.99E-06,0.0239425
,,,2E-06,0.02432375
,,,2.01E-06,0.024096875
,,,2.02E-06,0.02399625
,,,2.03E-06,0.02402125
,,,2.04E-06,0.02428
,,,2.05E-06,0.0242
,,,2.06E-06,0.024420625
,,,2.07E-06,0.02422625
,,,2.08E-06,0.023756875
,,,2.09E-06,0.024009375
,,,2.1E-06,0.0239525
,,,2.11E-06,0.02418375
,,,2.12E-06,0.024126875
,,,2.13E-06,0.024401875
,,,2.14E-06,0.024256875
,,,2.15E-06,0.024099375
,,,2.16E-06,0.02437875
,,,2.17E-06,0.0243875
,,,2.18E-06,0.024206875
,,,2.19E-06,0.023975
,,,2.2E-06,0.024098125
,,,2.21E-06,0.0242325
,,,2.22E-06,0.0240025
,,,2.23E-06,0.023998125
,,,2.24E-06,0.0239525
,,,2.25E-06,0.0240525
,,,2.26E-06,0.0242625
,,,2.27E-06,0.02417125
,,,2.28E-06,0.024046875
,,,2.29E-06,0.024179375
,,,2.3E-06,0.02419875
,,,2.31E-06,0.024005
,,,2.32E-06,0.024
,,,2.33E-06,0.024236875
,,,2.34E-06,0.024121875
,,,2.35E-06,0.0241125
,,,2.36E-06,0.02417625
,,,2.37E-06,0.02409
,,,2.38E-06,0.024119375
,,,2.39E-06,0.02417875
,,,2.4E-06,0.024098125
,,,2.41E-06,0.023973125
,,,2.42E-06,0.02430375
,,,2.43E-06,0.0239975
,,,2.44E-06,0.024051875
,,,2.45E-06,0.024245
,,,2.46E-06,0.0240875
,,,2.47E-06,0.024035
,,,2.48E-06,0.02418
,,,2.49E-06,0.024173125
,,,2.5E-06,0.0242575
,,,2.51E-06,0.0238475
,,,2.52E-06,0.024030625
,,,2.53E-06,0.02396375
,,,2.54E-06,0.024186875
,,,2.55E-06,0.02406625
,,,2.56E-06,0.024294375
,,,2.57E-06,0.02392875
,,,2.58E-06,0.02398
,,,2.59E-06,0.02398
,,,2.6E-06,0.024198125
,,,2.61E-06,0.0240375
,,,2.62E-06,0.024080625
,,,2.63E-06,0.023883125
,,,2.64E-06,0.024211875
,,,2.65E-06,0.024063125
,,,2.66E-06,0.024050625
,,,2.67E-06,0.0240225
,,,2.68E-06,0.024175
,,,2.69E-06,0.024084375
,,,2.7E-06,0.02412875
,,,2.71E-06,0.02416625
,,,2.72E-06,0.024263125
,,,2.73E-06,0.02398625
,,,2.74E-06,0.023958125
,,,2.75E-06,0.0238025
,,,2.76E-06,0.02426625
,,,2.77E-06,0.02417625
,,,2.78E-06,0.02413875
,,,2.79E-06,0.023714375
,,,2.8E-06,0.023921875
,,,2.81E-06,0.024309375
,,,2.82E-06,0.0243825
,,,2.83E-06,0.0240175
,,,2.84E-06,0.02415125
,,,2.85E-06,0.0241975
,,,2.86E-06,0.0243625
,,,2.87E-06,0.024158125
,,,2.88E-06,0.02426875
,,,2.89E-06,0.02412125
,,,2.9E-06,0.02405625
,,,2.91E-06,0.02423125
,,,2.92E-06,0.024008125
,,,2.93E-06,0.024241875
,,,2.94E-06,0.02398875
,,,2.95E-06,0.023869375
,,,2.96E-06,0.023919375
,,,2.97E-06,0.024195625
,,,2.98E-06,0.0243875
,,,2.99E-06,0.023926875
,,,3E-06,0.0241125
,,,3.01E-06,0.02392
,,,3.02E-06,0.023901875
,,,3.03E-06,0.024104375
,,,3.04E-06,0.02396875
,,,3.05E-06,0.024103125
,,,3.06E-06,0.02396375
,,,3.07E-06,0.0241475
,,,3.08E-06,0.024336875
,,,3.09E-06,0.024069375
,,,3.1E-06,0.02424375
,,,3.11E-06,0.023888125
,,,3.12E-06,0.024238125
,,,3.13E-06,0.02402875
,,,3.14E-06,0.024098125
,,,3.15E-06,0.02425125
,,,3.16E-06,0.02413875
,,,3.17E-06,0.023995625
,,,3.18E-06,0.0239825
,,,3.19E-06,0.024031875
,,,3.2E-06,0.02411
,,,3.21E-06,0.0238725
,,,3.22E-06,0.02391125
,,,3.23E-06,0.024189375
,,,3.24E-06,0.024191875
,,,3.25E-06,0.02400875
,,,3.26E-06,0.024195625
,,,3.27E-06,0.0242075
,,,3.28E-06,0.0241275
,,,3.29E-06,0.023939375
,,,3.3E-06,0.02421
,,,3.31E-06,0.02409
,,,3.32E-06,0.024031875
,,,3.33E-06,0.024243125
,,,3.34E-06,0.024020625
,,,3.35E-06,0.0241
,,,3.36E-06,0.02423
,,,3.37E-06,0.02430375
,,,3.38E-06,0.02410875
,,,3.39E-06,0.024280625
,,,3.4E-06,0.0242
,,,3.41E-06,0.0241325
,,,3.42E-06,0.023899375
,,,3.43E-06,0.023968125
,,,3.44E-06,0.02413375
,,,3.45E-06,0.024404375
,,,3.46E-06,0.02412875
,,,3.47E-06,0.02408125
,,,3.48E-06,0.023685
,,,3.49E-06,0.024081875
,,,3.5E-06,0.024000625
,,,3.51E-06,0.024026875
,,,3.52E-06,0.0236725
,,,3.53E-06,0.02400125
,,,3.54E-06,0.024054375
,,,3.55E-06,0.02425
