data/raw/Final_POL_Test_1/SOP062_Ch4.csv

"Record Length",1000,"Points",-5E-06,0.018548125
"Sample Interval",1E-08,s,-4.99E-06,0.018595625
"Trigger Point",500,"Samples",-4.98E-06,0.018483125
"Trigger Time",0,s,-4.97E-06,0.01873375
"",,,-4.96E-06,0.018494375
"Horizontal Offset",-5E-06,s,-4.95E-06,0.01862625
,,,-4.94E-06,0.018694375
,,,-4.93E-06,0.01865
,,,-4.92E-06,0.0186275
,,,-4.91E-06,0.01843625
,,,-4.9E-06,0.0185875
,,,-4.89E-06,0.018513125
,,,-4.88E-06,0.018451875
,,,-4.87E-06,0.018453125
,,,-4.86E-06,0.01869375
,,,-4.85E-06,0.01863125
,,,-4.84E-06,0.018615625
,,,-4.83E-06,0.018598125
,,,-4.82E-06,0.01860125
,,,-4.81E-06,0.01881625
,,,-4.8E-06,0.018395625
,,,-4.79E-06,0.018303125
,,,-4.78E-06,0.01849
,,,-4.77E-06,0.018631875
,,,-4.76E-06,0.0186475
,,,-4.75E-06,0.018615625
,,,-4.74E-06,0.018938125
,,,-4.73E-06,0.018644375
,,,-4.72E-06,0.01853125
,,,-4.71E-06,0.0187325
,,,-4.7E-06,0.018450625
,,,-4.69E-06,0.018455625
,,,-4.68E-06,0.01855
,,,-4.67E-06,0.018680625
,,,-4.66E-06,0.01893375
,,,-4.65E-06,0.018695625
,,,-4.64E-06,0.018445625
,,,-4.63E-06,0.01842375
,,,-4.62E-06,0.018614375
,,,-4.61E-06,0.01865
,,,-4.6E-06,0.01862625
,,,-4.59E-06,0.01868875
,,,-4.58E-06,0.01839375
,,,-4.57E-06,0.0186075
,,,-4.56E-06,0.0186725
,,,-4.55E-06,0.018736875
,,,-4.54E-06,0.018453125
,,,-4.53E-06,0.018646875
,,,-4.52E-06,0.0184925
,,,-4.51E-06,0.0183325
,,,-4.5E-06,0.018543125
,,,-4.49E-06,0.018486875
,,,-4.48E-06,0.01867
,,,-4.47E-06,0.01855
,,,-4.46E-06,0.01844625
,,,-4.45E-06,0.018551875
,,,-4.44E-06,0.018535
,,,-4.43E-06,0.0184525
,,,-4.42E-06,0.01856
,,,-4.41E-06,0.01865625
,,,-4.4E-06,0.01856125
,,,-4.39E-06,0.018460625
,,,-4.38E-06,0.0184175
,,,-4.37E-06,0.0183775
,,,-4.36E-06,0.0186575
,,,-4.35E-06,0.018474375
,,,-4.34E-06,0.01843125
,,,-4.33E-06,0.0185625
,,,-4.32E-06,0.01851875
,,,-4.31E-06,0.01850875
,,,-4.3E-06,0.018530625
,,,-4.29E-06,0.01841125
,,,-4.28E-06,0.018410625
,,,-4.27E-06,0.018475625
,,,-4.26E-06,0.018430625
,,,-4.25E-06,0.0186075
,,,-4.24E-06,0.018513125
,,,-4.23E-06,0.01862125
,,,-4.22E-06,0.018515625
,,,-4.21E-06,0.018471875
,,,-4.2E-06,0.018571875
,,,-4.19E-06,0.0184125
,,,-4.18E-06,0.01860125
,,,-4.17E-06,0.01859375
,,,-4.16E-06,0.0184925
,,,-4.15E-06,0.018620625
,,,-4.14E-06,0.018431875
,,,-4.13E-06,0.018535625
,,,-4.12E-06,0.018533125
,,,-4.11E-06,0.01842625
,,,-4.1E-06,0.018458125
,,,-4.09E-06,0.01868875
,,,-4.08E-06,0.01859875
,,,-4.07E-06,0.018666875
,,,-4.06E-06,0.018456875
,,,-4.05E-06,0.0184975
,,,-4.04E-06,0.018455
,,,-4.03E-06,0.018455
,,,-4.02E-06,0.018716875
,,,-4.01E-06,0.01852125
,,,-4E-06,0.018640625
,,,-3.99E-06,0.018575
,,,-3.98E-06,0.018545625
,,,-3.97E-06,0.0186525
,,,-3.96E-06,0.01872625
,,,-3.95E-06,0.018714375
,,,-3.94E-06,0.018709375
,,,-3.93E-06,0.018643125
,,,-3.92E-06,0.018614375
,,,-3.91E-06,0.018644375
,,,-3.9E-06,0.01864125
,,,-3.89E-06,0.01857625
,,,-3.88E-06,0.018555
,,,-3.87E-06,0.018599375
,,,-3.86E-06,0.0186
,,,-3.85E-06,0.018425
,,,-3.84E-06,0.018730625
,,,-3.83E-06,0.018728125
,,,-3.82E-06,0.01835875
,,,-3.81E-06,0.01870875
,,,-3.8E-06,0.01827125
,,,-3.79E-06,0.018540625
,,,-3.78E-06,0.01847125
,,,-3.77E-06,0.018450625
,,,-3.76E-06,0.018529375
,,,-3.75E-06,0.018423125
,,,-3.74E-06,0.01869625
,,,-3.73E-06,0.018494375
,,,-3.72E-06,0.0185025
,,,-3.71E-06,0.01852
,,,-3.7E-06,0.018715625
,,,-3.69E-06,0.018675625
,,,-3.68E-06,0.018448125
,,,-3.67E-06,0.01855875
,,,-3.66E-06,0.018448125
,,,-3.65E-06,0.01856375
,,,-3.64E-06,0.018499375
,,,-3.63E-06,0.018559375
,,,-3.62E-06,0.0183875
,,,-3.61E-06,0.01841875
,,,-3.6E-06,0.018609375
,,,-3.59E-06,0.018619375
,,,-3.58E-06,0.018600625
,,,-3.57E-06,0.01854625
,,,-3.56E-06,0.018973125
,,,-3.55E-06,0.01859875
,,,-3.54E-06,0.018519375
,,,-3.53E-06,0.01880125
,,,-3.52E-06,0.01851375
,,,-3.51E-06,0.018774375
,,,-3.5E-06,0.0184575
,,,-3.49E-06,0.01859625
,,,-3.48E-06,0.018509375
,,,-3.47E-06,0.018464375
,,,-3.46E-06,0.018485
,,,-3.45E-06,0.01843
,,,-3.44E-06,0.01839375
,,,-3.43E-06,0.0185325
,,,-3.42E-06,0.018491875
,,,-3.41E-06,0.0188925
,,,-3.4E-06,0.01873375
,,,-3.39E-06,0.018425625
,,,-3.38E-06,0.018304375
,,,-3.37E-06,0.018581875
,,,-3.36E-06,0.018346875
,,,-3.35E-06,0.018681875
,,,-3.34E-06,0.018660625
,,,-3.33E-06,0.018625625
,,,-3.32E-06,0.018699375
,,,-3.31E-06,0.018501875
,,,-3.3E-06,0.018446875
,,,-3.29E-06,0.01853
,,,-3.28E-06,0.01838625
,,,-3.27E-06,0.01836125
,,,-3.26E-06,0.018631875
,,,-3.25E-06,0.018689375
,,,-3.24E-06,0.0185475
,,,-3.23E-06,0.018569375
,,,-3.22E-06,0.0187175
,,,-3.21E-06,0.018589375
,,,-3.2E-06,0.018524375
,,,-3.19E-06,0.018511875
,,,-3.18E-06,0.018631875
,,,-3.17E-06,0.01854375
,,,-3.16E-06,0.01852875
,,,-3.15E-06,0.018641875
,,,-3.14E-06,0.01847
,,,-3.13E-06,0.01838125
,,,-3.12E-06,0.01852625
,,,-3.11E-06,0.018695
,,,-3.1E-06,0.018630625
,,,-3.09E-06,0.01841375
,,,-3.08E-06,0.018595625
,,,-3.07E-06,0.018748125
,,,-3.06E-06,0.01849125
,,,-3.05E-06,0.018580625
,,,-3.04E-06,0.0182875
,,,-3.03E-06,0.01874875
,,,-3.02E-06,0.0188275
,,,-3.01E-06,0.01844625
,,,-3E-06,0.0187125
,,,-2.99E-06,0.01871875
,,,-2.98E-06,0.018660625
,,,-2.97E-06,0.0185125
,,,-2.96E-06,0.01861875
,,,-2.95E-06,0.01830125
,,,-2.94E-06,0.0184575
,,,-2.93E-06,0.018865
,,,-2.92E-06,0.01858375
,,,-2.91E-06,0.018749375
,,,-2.9E-06,0.018555625
,,,-2.89E-06,0.018666875
,,,-2.88E-06,0.01862
,,,-2.87E-06,0.018444375
,,,-2.86E-06,0.018513125
,,,-2.85E-06,0.01850875
,,,-2.84E-06,0.01844375
,,,-2.83E-06,0.018793125
,,,-2.82E-06,0.018468125
,,,-2.81E-06,0.018568125
,,,-2.8E-06,0.018436875
,,,-2.79E-06,0.01858375
,,,-2.78E-06,0.018686875
,,,-2.77E-06,0.018521875
,,,-2.76E-06,0.018631875
,,,-2.75E-06,0.018848125
,,,-2.74E-06,0.018535625
,,,-2.73E-06,0.018535
,,,-2.72E-06,0.018410625
,,,-2.71E-06,0.01855875
,,,-2.7E-06,0.01838125
,,,-2.69E-06,0.018475625
,,,-2.68E-06,0.018545
,,,-2.67E-06,0.0184025
,,,-2.66E-06,0.018560625
,,,-2.65E-06,0.018400625
,,,-2.64E-06,0.01867375
,,,-2.63E-06,0.018505
,,,-2.62E-06,0.01852875
,,,-2.61E-06,0.0185175
,,,-2.6E-06,0.01864375
,,,-2.59E-06,0.018538125
,,,-2.58E-06,0.01841125
,,,-2.57E-06,0.018505
,,,-2.56E-06,0.01853
,,,-2.55E-06,0.018539375
,,,-2.54E-06,0.0181825
,,,-2.53E-06,0.01825875
,,,-2.52E-06,0.018445
,,,-2.51E-06,0.01867125
,,,-2.5E-06,0.018613125
,,,-2.49E-06,0.0184875
,,,-2.48E-06,0.018675
,,,-2.47E-06,0.018526875
,,,-2.46E-06,0.018778125
,,,-2.45E-06,0.01847875
,,,-2.44E-06,0.018385
,,,-2.43E-06,0.0183925
,,,-2.42E-06,0.01852
,,,-2.41E-06,0.018678125
,,,-2.4E-06,0.018653125
,,,-2.39E-06,0.018455
,,,-2.38E-06,0.018468125
,,,-2.37E-06,0.01863
,,,-2.36E-06,0.01853
,,,-2.35E-06,0.018768125
,,,-2.34E-06,0.018580625
,,,-2.33E-06,0.01842875
,,,-2.32E-06,0.018649375
,,,-2.31E-06,0.018751875
,,,-2.3E-06,0.018685625
,,,-2.29E-06,0.018571875
,,,-2.28E-06,0.018328125
,,,-2.27E-06,0.018675
,,,-2.26E-06,0.018616875
,,,-2.25E-06,0.018441875
,,,-2.24E-06,0.018681875
,,,-2.23E-06,0.01854875
,,,-2.22E-06,0.01823625
,,,-2.21E-06,0.018436875
,,,-2.2E-06,0.01865625
,,,-2.19E-06,0.018591875
,,,-2.18E-06,0.018511875
,,,-2.17E-06,0.018381875
,,,-2.16E-06,0.018510625
,,,-2.15E-06,0.018430625
,,,-2.14E-06,0.018461875
,,,-2.13E-06,0.0184725
,,,-2.12E-06,0.01851125
,,,-2.11E-06,0.018643125
,,,-2.1E-06,0.018644375
,,,-2.09E-06,0.018566875
,,,-2.08E-06,0.018829375
,,,-2.07E-06,0.0186475
,,,-2.06E-06,0.01845375
,,,-2.05E-06,0.018411875
,,,-2.04E-06,0.0183625
,,,-2.03E-06,0.0186875
,,,-2.02E-06,0.01842
,,,-2.01E-06,0.018429375
,,,-2E-06,0.018586875
,,,-1.99E-06,0.018539375
,,,-1.98E-06,0.018571875
,,,-1.97E-06,0.0184175
,,,-1.96E-06,0.018566875
,,,-1.95E-06,0.0182875
,,,-1.94E-06,0.018681875
,,,-1.93E-06,0.018326875
,,,-1.92E-06,0.01880625
,,,-1.91E-06,0.018361875
,,,-1.9E-06,0.018300625
,,,-1.89E-06,0.01852125
,,,-1.88E-06,0.018536875
,,,-1.87E-06,0.018838125
,,,-1.86E-06,0.018520625
,,,-1.85E-06,0.018451875
,,,-1.84E-06,0.018573125
,,,-1.83E-06,0.018654375
,,,-1.82E-06,0.01844625
,,,-1.81E-06,0.01851875
,,,-1.8E-06,0.01843875
,,,-1.79E-06,0.018366875
,,,-1.78E-06,0.018305
,,,-1.77E-06,0.01875375
,,,-1.76E-06,0.01846
,,,-1.75E-06,0.0185925
,,,-1.74E-06,0.018789375
,,,-1.73E-06,0.01846875
,,,-1.72E-06,0.018595
,,,-1.71E-06,0.01883125
,,,-1.7E-06,0.01839625
,,,-1.69E-06,0.018570625
,,,-1.68E-06,0.018764375
,,,-1.67E-06,0.01839375
,,,-1.66E-06,0.018715625
,,,-1.65E-06,0.01869
,,,-1.64E-06,0.018513125
,,,-1.63E-06,0.018658125
,,,-1.62E-06,0.0184875
,,,-1.61E-06,0.018620625
,,,-1.6E-06,0.0185875
,,,-1.59E-06,0.018574375
,,,-1.58E-06,0.018513125
,,,-1.57E-06,0.018500625
,,,-1.56E-06,0.018340625
,,,-1.55E-06,0.01848625
,,,-1.54E-06,0.0186375
,,,-1.53E-06,0.01836375
,,,-1.52E-06,0.01862875
,,,-1.51E-06,0.01842125
,,,-1.5E-06,0.0187725
,,,-1.49E-06,0.018530625
,,,-1.48E-06,0.018486875
,,,-1.47E-06,0.0184975
,,,-1.46E-06,0.018634375
,,,-1.45E-06,0.018615
,,,-1.44E-06,0.018725
,,,-1.43E-06,0.018600625
,,,-1.42E-06,0.018709375
,,,-1.41E-06,0.018500625
,,,-1.4E-06,0.018244375
,,,-1.39E-06,0.01845625
,,,-1.38E-06,0.018605625
,,,-1.37E-06,0.01844375
,,,-1.36E-06,0.018650625
,,,-1.35E-06,0.018683125
,,,-1.34E-06,0.0188075
,,,-1.33E-06,0.01833625
,,,-1.32E-06,0.018793125
,,,-1.31E-06,0.018431875
,,,-1.3E-06,0.0186575
,,,-1.29E-06,0.018355625
,,,-1.28E-06,0.01848625
,,,-1.27E-06,0.01853125
,,,-1.26E-06,0.018635
,,,-1.25E-06,0.01864625
,,,-1.24E-06,0.018821875
,,,-1.23E-06,0.018726875
,,,-1.22E-06,0.01854875
,,,-1.21E-06,0.018534375
,,,-1.2E-06,0.01850625
,,,-1.19E-06,0.01873875
,,,-1.18E-06,0.01852875
,,,-1.17E-06,0.018331875
,,,-1.16E-06,0.018581875
,,,-1.15E-06,0.01836875
,,,-1.14E-06,0.01881375
,,,-1.13E-06,0.01855125
,,,-1.12E-06,0.018379375
,,,-1.11E-06,0.018520625
,,,-1.1E-06,0.018559375
,,,-1.09E-06,0.0185475
,,,-1.08E-06,0.0186075
,,,-1.07E-06,0.0184225
,,,-1.06E-06,0.01830375
,,,-1.05E-06,0.0184925
,,,-1.04E-06,0.018595
,,,-1.03E-06,0.01853125
,,,-1.02E-06,0.018646875
,,,-1.01E-06,0.01845625
,,,-1E-06,0.01858875
,,,-9.9E-07,0.018486875
,,,-9.8E-07,0.0186875
,,,-9.7E-07,0.01862875
,,,-9.6E-07,0.018535
,,,-9.5E-07,0.01852625
,,,-9.4E-07,0.018709375
,,,-9.3E-07,0.018486875
,,,-9.2E-07,0.01870125
,,,-9.1E-07,0.018683125
,,,-9E-07,0.018408125
,,,-8.9E-07,0.01855625
,,,-8.8E-07,0.0184225
,,,-8.7E-07,0.018789375
,,,-8.6E-07,0.018485
,,,-8.5E-07,0.01857375
,,,-8.4E-07,0.0185375
,,,-8.3E-07,0.018435
,,,-8.2E-07,0.0184575
,,,-8.1E-07,0.018335625
,,,-8E-07,0.01854625
,,,-7.9E-07,0.018750625
,,,-7.8E-07,0.018623125
,,,-7.7E-07,0.018650625
,,,-7.6E-07,0.018548125
,,,-7.5E-07,0.018394375
,,,-7.4E-07,0.018500625
,,,-7.3E-07,0.018404375
,,,-7.2E-07,0.0185
,,,-7.1E-07,0.01841
,,,-7E-07,0.018595
,,,-6.9E-07,0.018771875
,,,-6.8E-07,0.01870125
,,,-6.7E-07,0.018731875
,,,-6.6E-07,0.018275625
,,,-6.5E-07,0.018620625
,,,-6.4E-07,0.018580625
,,,-6.3E-07,0.018590625
,,,-6.2E-07,0.018536875
,,,-6.1E-07,0.0184175
,,,-6E-07,0.0186825
,,,-5.9E-07,0.018288125
,,,-5.8E-07,0.018466875
,,,-5.7E-07,0.01848375
,,,-5.6E-07,0.018344375
,,,-5.5E-07,0.01839375
,,,-5.4E-07,0.018354375
,,,-5.3E-07,0.0184875
,,,-5.2E-07,0.0185175
,,,-5.1E-07,0.01851
,,,-5E-07,0.0187575
,,,-4.9E-07,0.01859625
,,,-4.8E-07,0.01868375
,,,-4.7E-07,0.01853375
,,,-4.6E-07,0.018556875
,,,-4.5E-07,0.01856875
,,,-4.4E-07,0.018448125
,,,-4.3E-07,0.01845875
,,,-4.2E-07,0.018655
,,,-4.1E-07,0.018429375
,,,-4E-07,0.018590625
,,,-3.9E-07,0.0183675
,,,-3.8E-07,0.018515
,,,-3.7E-07,0.018670625
,,,-3.6E-07,0.0185175
,,,-3.5E-07,0.01872875
,,,-3.4E-07,0.018605625
,,,-3.3E-07,0.018465
,,,-3.2E-07,0.018558125
,,,-3.1E-07,0.018573125
,,,-3E-07,0.0185425
,,,-2.9E-07,0.018655
,,,-2.8E-07,0.01855
,,,-2.7E-07,0.018638125
,,,-2.6E-07,0.018611875
,,,-2.5E-07,0.01869875
,,,-2.4E-07,0.018619375
,,,-2.3E-07,0.0184825
,,,-2.2E-07,0.01855
,,,-2.1E-07,0.01873125
,,,-2E-07,0.0184275
,,,-1.9E-07,0.018538125
,,,-1.8E-07,0.01836625
,,,-1.7E-07,0.018320625
,,,-1.6E-07,0.01865875
,,,-1.5E-07,0.01869
,,,-1.4E-07,0.018155625
,,,-1.3E-07,0.01846
,,,-1.2E-07,0.018505625
,,,-1.1E-07,0.018458125
,,,-1E-07,0.018480625
,,,-9E-08,0.018643125
,,,-8E-08,0.0185625
,,,-7E-08,0.0183125
,,,-6E-08,0.01867875
,,,-5E-08,0.018758125
,,,-4E-08,0.02041
,,,-3E-08,0.01856
,,,-2E-08,0.016840625
,,,-1E-08,0.014846875
,,,0,0.018031875
,,,1E-08,0.02102
,,,2E-08,0.022289375
,,,3E-08,0.020145
,,,4E-08,0.0173425
,,,5E-08,0.01596625
,,,6E-08,0.016459375
,,,7E-08,0.01809
,,,8E-08,0.01963
,,,9E-08,0.0204775
,,,1E-07,0.020029375
,,,1.1E-07,0.0185675
,,,1.2E-07,0.017395625
,,,1.3E-07,0.017651875
,,,1.4E-07,0.01826875
,,,1.5E-07,0.01916875
,,,1.6E-07,0.0189775
,,,1.7E-07,0.01902875
,,,1.8E-07,0.018805625
,,,1.9E-07,0.0184075
,,,2E-07,0.018426875
,,,2.1E-07,0.0183475
,,,2.2E-07,0.018375
,,,2.3E-07,0.018863125
,,,2.4E-07,0.01859
,,,2.5E-07,0.018615625
,,,2.6E-07,0.01844375
,,,2.7E-07,0.018608125
,,,2.8E-07,0.0187875
,,,2.9E-07,0.018543125
,,,3E-07,0.01853
,,,3.1E-07,0.01848125
,,,3.2E-07,0.01872
,,,3.3E-07,0.0186325
,,,3.4E-07,0.018738125
,,,3.5E-07,0.018479375
,,,3.6E-07,0.018540625
,,,3.7E-07,0.018445625
,,,3.8E-07,0.0187025
,,,3.9E-07,0.01834375
,,,4E-07,0.018696875
,,,4.1E-07,0.018639375
,,,4.2E-07,0.018455625
,,,4.3E-07,0.018490625
,,,4.4E-07,0.018463125
,,,4.5E-07,0.018408125
,,,4.6E-07,0.018606875
,,,4.7E-07,0.018395625
,,,4.8E-07,0.0187125
,,,4.9E-07,0.018456875
,,,5E-07,0.018655
,,,5.1E-07,0.0186025
,,,5.2E-07,0.01868875
,,,5.3E-07,0.018490625
,,,5.4E-07,0.01852625
,,,5.5E-07,0.0184875
,,,5.6E-07,0.01863375
,,,5.7E-07,0.018450625
,,,5.8E-07,0.01873375
,,,5.9E-07,0.01867125
,,,6E-07,0.01856625
,,,6.1E-07,0.01838
,,,6.2E-07,0.01844625
,,,6.3E-07,0.018451875
,,,6.4E-07,0.018736875
,,,6.5E-07,0.0184375
,,,6.6E-07,0.018368125
,,,6.7E-07,0.018713125
,,,6.8E-07,0.01837375
,,,6.9E-07,0.018570625
,,,7E-07,0.018483125
,,,7.1E-07,0.018681875
,,,7.2E-07,0.01855125
,,,7.3E-07,0.0184725
,,,7.4E-07,0.01847
,,,7.5E-07,0.018528125
,,,7.6E-07,0.018715625
,,,7.7E-07,0.01869375
,,,7.8E-07,0.01854375
,,,7.9E-07,0.01869625
,,,8E-07,0.018581875
,,,8.1E-07,0.01854375
,,,8.2E-07,0.01866375
,,,8.3E-07,0.018730625
,,,8.4E-07,0.01858125
,,,8.5E-07,0.01856
,,,8.6E-07,0.018408125
,,,8.7E-07,0.018381875
,,,8.8E-07,0.01861
,,,8.9E-07,0.01865
,,,9E-07,0.01871375
,,,9.1E-07,0.018433125
,,,9.2E-07,0.01826
,,,9.3E-07,0.018610625
,,,9.4E-07,0.018405625
,,,9.5E-07,0.01857125
,,,9.6E-07,0.01855375
,,,9.7E-07,0.018566875
,,,9.8E-07,0.0185375
,,,9.9E-07,0.01864875
,,,1E-06,0.018746875
,,,1.01E-06,0.018590625
,,,1.02E-06,0.018475625
,,,1.03E-06,0.018529375
,,,1.04E-06,0.01837
,,,1.05E-06,0.018535625
,,,1.06E-06,0.01862625
,,,1.07E-06,0.01861625
,,,1.08E-06,0.018600625
,,,1.09E-06,0.018316875
,,,1.1E-06,0.018598125
,,,1.11E-06,0.01851625
,,,1.12E-06,0.018825625
,,,1.13E-06,0.01867875
,,,1.14E-06,0.01862375
,,,1.15E-06,0.018643125
,,,1.16E-06,0.01882625
,,,1.17E-06,0.01836625
,,,1.18E-06,0.01875875
,,,1.19E-06,0.01837
,,,1.2E-06,0.018588125
,,,1.21E-06,0.018431875
,,,1.22E-06,0.018510625
,,,1.23E-06,0.0182925
,,,1.24E-06,0.018604375
,,,1.25E-06,0.018681875
,,,1.26E-06,0.018706875
,,,1.27E-06,0.0184175
,,,1.28E-06,0.018516875
,,,1.29E-06,0.018575
,,,1.3E-06,0.018459375
,,,1.31E-06,0.0184625
,,,1.32E-06,0.018565625
,,,1.33E-06,0.01879625
,,,1.34E-06,0.018459375
,,,1.35E-06,0.0185125
,,,1.36E-06,0.01854
,,,1.37E-06,0.01850375
,,,1.38E-06,0.018664375
,,,1.39E-06,0.0187025
,,,1.4E-06,0.018340625
,,,1.41E-06,0.01841125
,,,1.42E-06,0.01874125
,,,1.43E-06,0.01844625
,,,1.44E-06,0.01831625
,,,1.45E-06,0.018471875
,,,1.46E-06,0.01831
,,,1.47E-06,0.018653125
,,,1.48E-06,0.018615625
,,,1.49E-06,0.0185025
,,,1.5E-06,0.018538125
,,,1.51E-06,0.01865
,,,1.52E-06,0.018498125
,,,1.53E-06,0.018660625
,,,1.54E-06,0.01834
,,,1.55E-06,0.01846375
,,,1.56E-06,0.018668125
,,,1.57E-06,0.018645625
,,,1.58E-06,0.0185375
,,,1.59E-06,0.018376875
,,,1.6E-06,0.0185675
,,,1.61E-06,0.018571875
,,,1.62E-06,0.018578125
,,,1.63E-06,0.018405
,,,1.64E-06,0.018621875
,,,1.65E-06,0.0186825
,,,1.66E-06,0.018305
,,,1.67E-06,0.01852
,,,1.68E-06,0.018685625
,,,1.69E-06,0.0184875
,,,1.7E-06,0.018715625
,,,1.71E-06,0.01869875
,,,1.72E-06,0.01856375
,,,1.73E-06,0.018609375
,,,1.74E-06,0.0185725
,,,1.75E-06,0.01878375
,,,1.76E-06,0.018584375
,,,1.77E-06,0.01844375
,,,1.78E-06,0.01845375
,,,1.79E-06,0.0185975
,,,1.8E-06,0.01845
,,,1.81E-06,0.018565
,,,1.82E-06,0.01872125
,,,1.83E-06,0.018634375
,,,1.84E-06,0.018773125
,,,1.85E-06,0.018676875
,,,1.86E-06,0.01841875
,,,1.87E-06,0.018493125
,,,1.88E-06,0.018453125
,,,1.89E-06,0.018846875
,,,1.9E-06,0.018666875
,,,1.91E-06,0.01851625
,,,1.92E-06,0.01856625
,,,1.93E-06,0.018701875
,,,1.94E-06,0.018645
,,,1.95E-06,0.018745625
,,,1.96E-06,0.018630625
,,,1.97E-06,0.0186275
,,,1.98E-06,0.018471875
,,,1.99E-06,0.01849625
,,,2E-06,0.0184325
,,,2.01E-06,0.018455
,,,2.02E-06,0.018488125
,,,2.03E-06,0.018484375
,,,2.04E-06,0.018516875
,,,2.05E-06,0.018623125
,,,2.06E-06,0.018699375
,,,2.07E-06,0.018460625
,,,2.08E-06,0.018539375
,,,2.09E-06,0.0184125
,,,2.1E-06,0.018485
,,,2.11E-06,0.01868125
,,,2.12E-06,0.018511875
,,,2.13E-06,0.01883875
,,,2.14E-06,0.018468125
,,,2.15E-06,0.01850625
,,,2.16E-06,0.018675
,,,2.17E-06,0.0186175
,,,2.18E-06,0.018498125
,,,2.19E-06,0.018390625
,,,2.2E-06,0.018715
,,,2.21E-06,0.01844375
,,,2.22E-06,0.01865
,,,2.23E-06,0.018865
,,,2.24E-06,0.018480625
,,,2.25E-06,0.01841375
,,,2.26E-06,0.018600625
,,,2.27E-06,0.01844
,,,2.28E-06,0.018435
,,,2.29E-06,0.018494375
,,,2.3E-06,0.018628125
,,,2.31E-06,0.018431875
,,,2.32E-06,0.018559375
,,,2.33E-06,0.018760625
,,,2.34E-06,0.018454375
,,,2.35E-06,0.0183525
,,,2.36E-06,0.01845375
,,,2.37E-06,0.018488125
,,,2.38E-06,0.018484375
,,,2.39E-06,0.018478125
,,,2.4E-06,0.01872125
,,,2.41E-06,0.0181325
,,,2.42E-06,0.018385625
,,,2.43E-06,0.018488125
,,,2.44E-06,0.018566875
,,,2.45E-06,0.018663125
,,,2.46E-06,0.018559375
,,,2.47E-06,0.01857
,,,2.48E-06,0.018709375
,,,2.49E-06,0.01852625
,,,2.5E-06,0.01848625
,,,2.51E-06,0.018535625
,,,2.52E-06,0.018454375
,,,2.53E-06,0.018499375
,,,2.54E-06,0.01851875
,,,2.55E-06,0.018569375
,,,2.56E-06,0.018495
,,,2.57E-06,0.018601875
,,,2.58E-06,0.018456875
,,,2.59E-06,0.018553125
,,,2.6E-06,0.01842
,,,2.61E-06,0.01840625
,,,2.62E-06,0.01851125
,,,2.63E-06,0.01837125
,,,2.64E-06,0.018623125
,,,2.65E-06,0.018398125
,,,2.66E-06,0.01846
,,,2.67E-06,0.018491875
,,,2.68E-06,0.018685625
,,,2.69E-06,0.0184575
,,,2.7E-06,0.018545625
,,,2.71E-06,0.018511875
,,,2.72E-06,0.018686875
,,,2.73E-06,0.018453125
,,,2.74E-06,0.018560625
,,,2.75E-06,0.0186
,,,2.76E-06,0.018501875
,,,2.77E-06,0.018420625
,,,2.78E-06,0.018533125
,,,2.79E-06,0.01864625
,,,2.8E-06,0.01865625
,,,2.81E-06,0.0183925
,,,2.82E-06,0.018706875
,,,2.83E-06,0.018525
,,,2.84E-06,0.018475
,,,2.85E-06,0.018581875
,,,2.86E-06,0.01844375
,,,2.87E-06,0.018684375
,,,2.88E-06,0.0184225
,,,2.89E-06,0.01837125
,,,2.9E-06,0.018633125
,,,2.91E-06,0.018795625
,,,2.92E-06,0.018633125
,,,2.93E-06,0.018610625
,,,2.94E-06,0.01849
,,,2.95E-06,0.018365625
,,,2.96E-06,0.018501875
,,,2.97E-06,0.018466875
,,,2.98E-06,0.0185675
,,,2.99E-06,0.01864875
,,,3E-06,0.01852375
,,,3.01E-06,0.018700625
,,,3.02E-06,0.01854625
,,,3.03E-06,0.018284375
,,,3.04E-06,0.0184425
,,,3.05E-06,0.018778125
,,,3.06E-06,0.018743125
,,,3.07E-06,0.018519375
,,,3.08E-06,0.01874875
,,,3.09E-06,0.018493125
,,,3.1E-06,0.01868625
,,,3.11E-06,0.01864
,,,3.12E-06,0.018715625
,,,3.13E-06,0.0185075
,,,3.14E-06,0.01822125
,,,3.15E-06,0.0185425
,,,3.16E-06,0.0185725
,,,3.17E-06,0.0186675
,,,3.18E-06,0.018565
,,,3.19E-06,0.01843375
,,,3.2E-06,0.018663125
,,,3.21E-06,0.018293125
,,,3.22E-06,0.018615
,,,3.23E-06,0.018496875
,,,3.24E-06,0.01821625
,,,3.25E-06,0.018598125
,,,3.26E-06,0.0186425
,,,3.27E-06,0.018630625
,,,3.28E-06,0.01848125
,,,3.29E-06,0.018388125
,,,3.3E-06,0.018653125
,,,3.31E-06,0.0185075
,,,3.32E-06,0.01856125
,,,3.33E-06,0.0185125
,,,3.34E-06,0.018675
,,,3.35E-06,0.018475
,,,3.36E-06,0.018755625
,,,3.37E-06,0.018640625
,,,3.38E-06,0.018785625
,,,3.39E-06,0.018605625
,,,3.4E-06,0.018395625
,,,3.41E-06,0.01844375
,,,3.42E-06,0.018515625
,,,3.43E-06,0.018555625
,,,3.44E-06,0.018773125
,,,3.45E-06,0.018485
,,,3.46E-06,0.01854
,,,3.47E-06,0.018541875
,,,3.48E-06,0.018605625
,,,3.49E-06,0.018748125
,,,3.5E-06,0.018616875
,,,3.51E-06,0.01843875
,,,3.52E-06,0.018449375
,,,3.53E-06,0.018559375
,,,3.54E-06,0.018554375
,,,3.55E-06,0.018495625
,,,3.56E-06,0.018615
