data/raw/Final_POL_Test_1/SOP060_Ch4.csv

"Record Length",1000,"Points",-5E-06,0.01539875
"Sample Interval",1E-08,s,-4.99E-06,0.01532625
"Trigger Point",500,"Samples",-4.98E-06,0.01546875
"Trigger Time",0,s,-4.97E-06,0.0153025
"",,,-4.96E-06,0.0154775
"Horizontal Offset",-5E-06,s,-4.95E-06,0.015471875
,,,-4.94E-06,0.015250625
,,,-4.93E-06,0.0157025
,,,-4.92E-06,0.015560625
,,,-4.91E-06,0.01578125
,,,-4.9E-06,0.01562
,,,-4.89E-06,0.015558125
,,,-4.88E-06,0.015485625
,,,-4.87E-06,0.015535625
,,,-4.86E-06,0.015428125
,,,-4.85E-06,0.015413125
,,,-4.84E-06,0.0154775
,,,-4.83E-06,0.015235
,,,-4.82E-06,0.015670625
,,,-4.81E-06,0.0154975
,,,-4.8E-06,0.01575
,,,-4.79E-06,0.015245625
,,,-4.78E-06,0.01541125
,,,-4.77E-06,0.01531625
,,,-4.76E-06,0.01529
,,,-4.75E-06,0.01552
,,,-4.74E-06,0.015398125
,,,-4.73E-06,0.01533625
,,,-4.72E-06,0.01538
,,,-4.71E-06,0.015499375
,,,-4.7E-06,0.01522375
,,,-4.69E-06,0.0151475
,,,-4.68E-06,0.015268125
,,,-4.67E-06,0.015416875
,,,-4.66E-06,0.0155225
,,,-4.65E-06,0.01535625
,,,-4.64E-06,0.015573125
,,,-4.63E-06,0.01566375
,,,-4.62E-06,0.01560375
,,,-4.61E-06,0.0152875
,,,-4.6E-06,0.015473125
,,,-4.59E-06,0.015329375
,,,-4.58E-06,0.0156
,,,-4.57E-06,0.015668125
,,,-4.56E-06,0.015416875
,,,-4.55E-06,0.0153025
,,,-4.54E-06,0.015573125
,,,-4.53E-06,0.0152575
,,,-4.52E-06,0.01535625
,,,-4.51E-06,0.0154775
,,,-4.5E-06,0.015473125
,,,-4.49E-06,0.015269375
,,,-4.48E-06,0.01555625
,,,-4.47E-06,0.015429375
,,,-4.46E-06,0.0154575
,,,-4.45E-06,0.015654375
,,,-4.44E-06,0.015528125
,,,-4.43E-06,0.015335
,,,-4.42E-06,0.015468125
,,,-4.41E-06,0.015579375
,,,-4.4E-06,0.015391875
,,,-4.39E-06,0.0152825
,,,-4.38E-06,0.015416875
,,,-4.37E-06,0.015551875
,,,-4.36E-06,0.01525
,,,-4.35E-06,0.01529625
,,,-4.34E-06,0.01562125
,,,-4.33E-06,0.015594375
,,,-4.32E-06,0.015675625
,,,-4.31E-06,0.015339375
,,,-4.3E-06,0.015455625
,,,-4.29E-06,0.01551375
,,,-4.28E-06,0.01539125
,,,-4.27E-06,0.01555
,,,-4.26E-06,0.01553
,,,-4.25E-06,0.0153525
,,,-4.24E-06,0.015330625
,,,-4.23E-06,0.015599375
,,,-4.22E-06,0.015701875
,,,-4.21E-06,0.0154025
,,,-4.2E-06,0.015655625
,,,-4.19E-06,0.0151325
,,,-4.18E-06,0.015538125
,,,-4.17E-06,0.015414375
,,,-4.16E-06,0.015446875
,,,-4.15E-06,0.01548625
,,,-4.14E-06,0.015150625
,,,-4.13E-06,0.015379375
,,,-4.12E-06,0.015535
,,,-4.11E-06,0.015561875
,,,-4.1E-06,0.015269375
,,,-4.09E-06,0.015499375
,,,-4.08E-06,0.015453125
,,,-4.07E-06,0.015415625
,,,-4.06E-06,0.015458125
,,,-4.05E-06,0.01532875
,,,-4.04E-06,0.0155175
,,,-4.03E-06,0.015855
,,,-4.02E-06,0.015358125
,,,-4.01E-06,0.015390625
,,,-4E-06,0.01543625
,,,-3.99E-06,0.0155125
,,,-3.98E-06,0.015385
,,,-3.97E-06,0.015376875
,,,-3.96E-06,0.015393125
,,,-3.95E-06,0.015795
,,,-3.94E-06,0.0153975
,,,-3.93E-06,0.015528125
,,,-3.92E-06,0.015525
,,,-3.91E-06,0.015489375
,,,-3.9E-06,0.015490625
,,,-3.89E-06,0.015565
,,,-3.88E-06,0.01552875
,,,-3.87E-06,0.015369375
,,,-3.86E-06,0.015223125
,,,-3.85E-06,0.01548875
,,,-3.84E-06,0.01533375
,,,-3.83E-06,0.01554375
,,,-3.82E-06,0.015549375
,,,-3.81E-06,0.01508125
,,,-3.8E-06,0.015395
,,,-3.79E-06,0.015459375
,,,-3.78E-06,0.015393125
,,,-3.77E-06,0.015459375
,,,-3.76E-06,0.0155175
,,,-3.75E-06,0.015330625
,,,-3.74E-06,0.015405625
,,,-3.73E-06,0.0153475
,,,-3.72E-06,0.015499375
,,,-3.71E-06,0.015398125
,,,-3.7E-06,0.015326875
,,,-3.69E-06,0.01541375
,,,-3.68E-06,0.015229375
,,,-3.67E-06,0.0155175
,,,-3.66E-06,0.015413125
,,,-3.65E-06,0.015571875
,,,-3.64E-06,0.01506
,,,-3.63E-06,0.0155275
,,,-3.62E-06,0.015185
,,,-3.61E-06,0.015476875
,,,-3.6E-06,0.015453125
,,,-3.59E-06,0.015599375
,,,-3.58E-06,0.015305
,,,-3.57E-06,0.01547625
,,,-3.56E-06,0.01534625
,,,-3.55E-06,0.0155725
,,,-3.54E-06,0.01507875
,,,-3.53E-06,0.01530875
,,,-3.52E-06,0.015390625
,,,-3.51E-06,0.015705625
,,,-3.5E-06,0.0154775
,,,-3.49E-06,0.015615
,,,-3.48E-06,0.0157525
,,,-3.47E-06,0.015385
,,,-3.46E-06,0.0155525
,,,-3.45E-06,0.015724375
,,,-3.44E-06,0.0154875
,,,-3.43E-06,0.0154425
,,,-3.42E-06,0.015378125
,,,-3.41E-06,0.01536
,,,-3.4E-06,0.01510375
,,,-3.39E-06,0.015283125
,,,-3.38E-06,0.015466875
,,,-3.37E-06,0.015074375
,,,-3.36E-06,0.015488125
,,,-3.35E-06,0.015388125
,,,-3.34E-06,0.01546625
,,,-3.33E-06,0.01535625
,,,-3.32E-06,0.015495
,,,-3.31E-06,0.01553125
,,,-3.3E-06,0.015366875
,,,-3.29E-06,0.015404375
,,,-3.28E-06,0.01542375
,,,-3.27E-06,0.015344375
,,,-3.26E-06,0.01572
,,,-3.25E-06,0.015594375
,,,-3.24E-06,0.01524875
,,,-3.23E-06,0.015590625
,,,-3.22E-06,0.0153
,,,-3.21E-06,0.0152475
,,,-3.2E-06,0.0155475
,,,-3.19E-06,0.0155
,,,-3.18E-06,0.015178125
,,,-3.17E-06,0.015691875
,,,-3.16E-06,0.015506875
,,,-3.15E-06,0.015435
,,,-3.14E-06,0.015334375
,,,-3.13E-06,0.01553875
,,,-3.12E-06,0.015456875
,,,-3.11E-06,0.0154925
,,,-3.1E-06,0.01554875
,,,-3.09E-06,0.015491875
,,,-3.08E-06,0.015606875
,,,-3.07E-06,0.015599375
,,,-3.06E-06,0.015295625
,,,-3.05E-06,0.015466875
,,,-3.04E-06,0.015519375
,,,-3.03E-06,0.0152875
,,,-3.02E-06,0.01535125
,,,-3.01E-06,0.01547
,,,-3E-06,0.015475625
,,,-2.99E-06,0.01533625
,,,-2.98E-06,0.015425
,,,-2.97E-06,0.015395
,,,-2.96E-06,0.01555375
,,,-2.95E-06,0.01552875
,,,-2.94E-06,0.01561
,,,-2.93E-06,0.015426875
,,,-2.92E-06,0.015358125
,,,-2.91E-06,0.015463125
,,,-2.9E-06,0.015429375
,,,-2.89E-06,0.0152575
,,,-2.88E-06,0.015195
,,,-2.87E-06,0.0154675
,,,-2.86E-06,0.015520625
,,,-2.85E-06,0.015508125
,,,-2.84E-06,0.015713125
,,,-2.83E-06,0.01535375
,,,-2.82E-06,0.0153475
,,,-2.81E-06,0.015434375
,,,-2.8E-06,0.0155
,,,-2.79E-06,0.01530625
,,,-2.78E-06,0.01514625
,,,-2.77E-06,0.0155575
,,,-2.76E-06,0.01563625
,,,-2.75E-06,0.015134375
,,,-2.74E-06,0.01531375
,,,-2.73E-06,0.01528375
,,,-2.72E-06,0.015706875
,,,-2.71E-06,0.015500625
,,,-2.7E-06,0.01521625
,,,-2.69E-06,0.015638125
,,,-2.68E-06,0.015475625
,,,-2.67E-06,0.015443125
,,,-2.66E-06,0.01563
,,,-2.65E-06,0.015586875
,,,-2.64E-06,0.0152675
,,,-2.63E-06,0.0154075
,,,-2.62E-06,0.015305625
,,,-2.61E-06,0.01506375
,,,-2.6E-06,0.015643125
,,,-2.59E-06,0.015454375
,,,-2.58E-06,0.01551375
,,,-2.57E-06,0.0155925
,,,-2.56E-06,0.015313125
,,,-2.55E-06,0.01537625
,,,-2.54E-06,0.015306875
,,,-2.53E-06,0.015436875
,,,-2.52E-06,0.0154025
,,,-2.51E-06,0.0154925
,,,-2.5E-06,0.015320625
,,,-2.49E-06,0.01562375
,,,-2.48E-06,0.015525625
,,,-2.47E-06,0.0154875
,,,-2.46E-06,0.015195
,,,-2.45E-06,0.015519375
,,,-2.44E-06,0.01532375
,,,-2.43E-06,0.0154125
,,,-2.42E-06,0.01567375
,,,-2.41E-06,0.01541125
,,,-2.4E-06,0.0155025
,,,-2.39E-06,0.015346875
,,,-2.38E-06,0.0153775
,,,-2.37E-06,0.015164375
,,,-2.36E-06,0.015609375
,,,-2.35E-06,0.0155275
,,,-2.34E-06,0.01546875
,,,-2.33E-06,0.01556625
,,,-2.32E-06,0.015261875
,,,-2.31E-06,0.01533625
,,,-2.3E-06,0.015168125
,,,-2.29E-06,0.015501875
,,,-2.28E-06,0.01542125
,,,-2.27E-06,0.01545875
,,,-2.26E-06,0.015456875
,,,-2.25E-06,0.01558
,,,-2.24E-06,0.0155575
,,,-2.23E-06,0.015358125
,,,-2.22E-06,0.015718125
,,,-2.21E-06,0.0155475
,,,-2.2E-06,0.015524375
,,,-2.19E-06,0.015633125
,,,-2.18E-06,0.015356875
,,,-2.17E-06,0.0155725
,,,-2.16E-06,0.015360625
,,,-2.15E-06,0.015175
,,,-2.14E-06,0.015484375
,,,-2.13E-06,0.0153975
,,,-2.12E-06,0.015624375
,,,-2.11E-06,0.01508
,,,-2.1E-06,0.015438125
,,,-2.09E-06,0.015219375
,,,-2.08E-06,0.015450625
,,,-2.07E-06,0.015506875
,,,-2.06E-06,0.015440625
,,,-2.05E-06,0.01534
,,,-2.04E-06,0.015639375
,,,-2.03E-06,0.015668125
,,,-2.02E-06,0.015598125
,,,-2.01E-06,0.01557125
,,,-2E-06,0.01550125
,,,-1.99E-06,0.015310625
,,,-1.98E-06,0.015251875
,,,-1.97E-06,0.01546
,,,-1.96E-06,0.01563625
,,,-1.95E-06,0.015458125
,,,-1.94E-06,0.01555375
,,,-1.93E-06,0.015441875
,,,-1.92E-06,0.01549
,,,-1.91E-06,0.0156225
,,,-1.9E-06,0.015710625
,,,-1.89E-06,0.015523125
,,,-1.88E-06,0.015754375
,,,-1.87E-06,0.01531375
,,,-1.86E-06,0.01535375
,,,-1.85E-06,0.015508125
,,,-1.84E-06,0.01553375
,,,-1.83E-06,0.01560375
,,,-1.82E-06,0.015561875
,,,-1.81E-06,0.0155875
,,,-1.8E-06,0.015538125
,,,-1.79E-06,0.015734375
,,,-1.78E-06,0.01564125
,,,-1.77E-06,0.015385625
,,,-1.76E-06,0.0154775
,,,-1.75E-06,0.01532
,,,-1.74E-06,0.015705
,,,-1.73E-06,0.01545
,,,-1.72E-06,0.01526125
,,,-1.71E-06,0.0153975
,,,-1.7E-06,0.01553
,,,-1.69E-06,0.01529125
,,,-1.68E-06,0.015450625
,,,-1.67E-06,0.01552125
,,,-1.66E-06,0.0153475
,,,-1.65E-06,0.01504125
,,,-1.64E-06,0.015336875
,,,-1.63E-06,0.015295
,,,-1.62E-06,0.015495625
,,,-1.61E-06,0.01565375
,,,-1.6E-06,0.0153525
,,,-1.59E-06,0.015448125
,,,-1.58E-06,0.01531875
,,,-1.57E-06,0.0154475
,,,-1.56E-06,0.01529375
,,,-1.55E-06,0.015355
,,,-1.54E-06,0.015469375
,,,-1.53E-06,0.01547375
,,,-1.52E-06,0.01554375
,,,-1.51E-06,0.01567875
,,,-1.5E-06,0.0155875
,,,-1.49E-06,0.015481875
,,,-1.48E-06,0.015448125
,,,-1.47E-06,0.015314375
,,,-1.46E-06,0.01532875
,,,-1.45E-06,0.01552125
,,,-1.44E-06,0.015288125
,,,-1.43E-06,0.0152375
,,,-1.42E-06,0.0154825
,,,-1.41E-06,0.015556875
,,,-1.4E-06,0.01546875
,,,-1.39E-06,0.015333125
,,,-1.38E-06,0.01541125
,,,-1.37E-06,0.015486875
,,,-1.36E-06,0.01549625
,,,-1.35E-06,0.0158275
,,,-1.34E-06,0.01533375
,,,-1.33E-06,0.01555625
,,,-1.32E-06,0.015275
,,,-1.31E-06,0.015315
,,,-1.3E-06,0.015480625
,,,-1.29E-06,0.01557625
,,,-1.28E-06,0.015733125
,,,-1.27E-06,0.015563125
,,,-1.26E-06,0.015463125
,,,-1.25E-06,0.015634375
,,,-1.24E-06,0.01529625
,,,-1.23E-06,0.01545625
,,,-1.22E-06,0.015256875
,,,-1.21E-06,0.01529875
,,,-1.2E-06,0.01547125
,,,-1.19E-06,0.01551875
,,,-1.18E-06,0.01503625
,,,-1.17E-06,0.01554625
,,,-1.16E-06,0.01503625
,,,-1.15E-06,0.015369375
,,,-1.14E-06,0.0153625
,,,-1.13E-06,0.0153675
,,,-1.12E-06,0.015575625
,,,-1.11E-06,0.01535125
,,,-1.1E-06,0.0154575
,,,-1.09E-06,0.015615625
,,,-1.08E-06,0.015381875
,,,-1.07E-06,0.01565375
,,,-1.06E-06,0.01537375
,,,-1.05E-06,0.0152475
,,,-1.04E-06,0.015531875
,,,-1.03E-06,0.015516875
,,,-1.02E-06,0.015506875
,,,-1.01E-06,0.015583125
,,,-1E-06,0.01543
,,,-9.9E-07,0.015289375
,,,-9.8E-07,0.01540375
,,,-9.7E-07,0.015475625
,,,-9.6E-07,0.015753125
,,,-9.5E-07,0.015605
,,,-9.4E-07,0.015444375
,,,-9.3E-07,0.01543125
,,,-9.2E-07,0.0158075
,,,-9.1E-07,0.01526375
,,,-9E-07,0.01554625
,,,-8.9E-07,0.0156625
,,,-8.8E-07,0.0155425
,,,-8.7E-07,0.0154625
,,,-8.6E-07,0.0152625
,,,-8.5E-07,0.01554375
,,,-8.4E-07,0.01537125
,,,-8.3E-07,0.015585625
,,,-8.2E-07,0.015301875
,,,-8.1E-07,0.015428125
,,,-8E-07,0.015359375
,,,-7.9E-07,0.015308125
,,,-7.8E-07,0.015573125
,,,-7.7E-07,0.015283125
,,,-7.6E-07,0.01523125
,,,-7.5E-07,0.0153125
,,,-7.4E-07,0.015254375
,,,-7.3E-07,0.01542
,,,-7.2E-07,0.01512625
,,,-7.1E-07,0.015334375
,,,-7E-07,0.015403125
,,,-6.9E-07,0.01546125
,,,-6.8E-07,0.015583125
,,,-6.7E-07,0.015623125
,,,-6.6E-07,0.015234375
,,,-6.5E-07,0.015465
,,,-6.4E-07,0.015483125
,,,-6.3E-07,0.015266875
,,,-6.2E-07,0.015220625
,,,-6.1E-07,0.0153225
,,,-6E-07,0.015539375
,,,-5.9E-07,0.0153425
,,,-5.8E-07,0.01548375
,,,-5.7E-07,0.01569375
,,,-5.6E-07,0.015588125
,,,-5.5E-07,0.015315
,,,-5.4E-07,0.015573125
,,,-5.3E-07,0.0154025
,,,-5.2E-07,0.015520625
,,,-5.1E-07,0.015764375
,,,-5E-07,0.015324375
,,,-4.9E-07,0.015378125
,,,-4.8E-07,0.015448125
,,,-4.7E-07,0.01548
,,,-4.6E-07,0.01554
,,,-4.5E-07,0.015540625
,,,-4.4E-07,0.015385
,,,-4.3E-07,0.01531125
,,,-4.2E-07,0.015515625
,,,-4.1E-07,0.015470625
,,,-4E-07,0.0155975
,,,-3.9E-07,0.01531125
,,,-3.8E-07,0.015275625
,,,-3.7E-07,0.015284375
,,,-3.6E-07,0.01541625
,,,-3.5E-07,0.015195
,,,-3.4E-07,0.01507125
,,,-3.3E-07,0.0154325
,,,-3.2E-07,0.01532125
,,,-3.1E-07,0.0153825
,,,-3E-07,0.015581875
,,,-2.9E-07,0.015225
,,,-2.8E-07,0.015503125
,,,-2.7E-07,0.01559875
,,,-2.6E-07,0.0154
,,,-2.5E-07,0.01536375
,,,-2.4E-07,0.01540375
,,,-2.3E-07,0.01563875
,,,-2.2E-07,0.015216875
,,,-2.1E-07,0.01528125
,,,-2E-07,0.015693125
,,,-1.9E-07,0.015435625
,,,-1.8E-07,0.01554
,,,-1.7E-07,0.015569375
,,,-1.6E-07,0.015488125
,,,-1.5E-07,0.0154675
,,,-1.4E-07,0.015653125
,,,-1.3E-07,0.015409375
,,,-1.2E-07,0.0152775
,,,-1.1E-07,0.015301875
,,,-1E-07,0.0152925
,,,-9E-08,0.01517
,,,-8E-08,0.01535875
,,,-7E-08,0.014929375
,,,-6E-08,0.015564375
,,,-5E-08,0.016159375
,,,-4E-08,0.01692
,,,-3E-08,0.015175
,,,-2E-08,0.01383875
,,,-1E-08,0.012836875
,,,0,0.01455875
,,,1E-08,0.016874375
,,,2E-08,0.0176825
,,,3E-08,0.017125
,,,4E-08,0.01499125
,,,5E-08,0.0138125
,,,6E-08,0.013745625
,,,7E-08,0.01517
,,,8E-08,0.015705625
,,,9E-08,0.01670625
,,,1E-07,0.016318125
,,,1.1E-07,0.015651875
,,,1.2E-07,0.014806875
,,,1.3E-07,0.014584375
,,,1.4E-07,0.015136875
,,,1.5E-07,0.01547625
,,,1.6E-07,0.01557625
,,,1.7E-07,0.01551625
,,,1.8E-07,0.01564
,,,1.9E-07,0.0156125
,,,2E-07,0.015665
,,,2.1E-07,0.015304375
,,,2.2E-07,0.0152
,,,2.3E-07,0.01534375
,,,2.4E-07,0.015621875
,,,2.5E-07,0.01554375
,,,2.6E-07,0.0153125
,,,2.7E-07,0.015373125
,,,2.8E-07,0.01544125
,,,2.9E-07,0.0154575
,,,3E-07,0.015195
,,,3.1E-07,0.01524375
,,,3.2E-07,0.015408125
,,,3.3E-07,0.01538625
,,,3.4E-07,0.015398125
,,,3.5E-07,0.015335625
,,,3.6E-07,0.01557625
,,,3.7E-07,0.015419375
,,,3.8E-07,0.0151525
,,,3.9E-07,0.01532
,,,4E-07,0.01535375
,,,4.1E-07,0.015404375
,,,4.2E-07,0.015460625
,,,4.3E-07,0.0157125
,,,4.4E-07,0.0158425
,,,4.5E-07,0.015239375
,,,4.6E-07,0.01568875
,,,4.7E-07,0.01516875
,,,4.8E-07,0.015465
,,,4.9E-07,0.0154225
,,,5E-07,0.015549375
,,,5.1E-07,0.015643125
,,,5.2E-07,0.0155225
,,,5.3E-07,0.01527125
,,,5.4E-07,0.015451875
,,,5.5E-07,0.015655
,,,5.6E-07,0.01530625
,,,5.7E-07,0.015399375
,,,5.8E-07,0.015471875
,,,5.9E-07,0.01555
,,,6E-07,0.01547
,,,6.1E-07,0.015700625
,,,6.2E-07,0.015550625
,,,6.3E-07,0.0151375
,,,6.4E-07,0.015291875
,,,6.5E-07,0.015365
,,,6.6E-07,0.01566875
,,,6.7E-07,0.01580875
,,,6.8E-07,0.015435625
,,,6.9E-07,0.0154775
,,,7E-07,0.015435625
,,,7.1E-07,0.01522875
,,,7.2E-07,0.015576875
,,,7.3E-07,0.015500625
,,,7.4E-07,0.0154425
,,,7.5E-07,0.0156475
,,,7.6E-07,0.015466875
,,,7.7E-07,0.015381875
,,,7.8E-07,0.01543375
,,,7.9E-07,0.01536
,,,8E-07,0.015365
,,,8.1E-07,0.0154575
,,,8.2E-07,0.015444375
,,,8.3E-07,0.01551125
,,,8.4E-07,0.015249375
,,,8.5E-07,0.015319375
,,,8.6E-07,0.015376875
,,,8.7E-07,0.015674375
,,,8.8E-07,0.01521875
,,,8.9E-07,0.01548625
,,,9E-07,0.015295
,,,9.1E-07,0.01542875
,,,9.2E-07,0.01537625
,,,9.3E-07,0.0155275
,,,9.4E-07,0.015414375
,,,9.5E-07,0.01568875
,,,9.6E-07,0.015389375
,,,9.7E-07,0.0152525
,,,9.8E-07,0.015340625
,,,9.9E-07,0.015325625
,,,1E-06,0.015434375
,,,1.01E-06,0.01530875
,,,1.02E-06,0.015453125
,,,1.03E-06,0.01556375
,,,1.04E-06,0.01552
,,,1.05E-06,0.015499375
,,,1.06E-06,0.015435625
,,,1.07E-06,0.0154675
,,,1.08E-06,0.01548
,,,1.09E-06,0.015733125
,,,1.1E-06,0.015524375
,,,1.11E-06,0.015655
,,,1.12E-06,0.01537
,,,1.13E-06,0.01533
,,,1.14E-06,0.01555875
,,,1.15E-06,0.015509375
,,,1.16E-06,0.015575625
,,,1.17E-06,0.015555625
,,,1.18E-06,0.01564625
,,,1.19E-06,0.0154125
,,,1.2E-06,0.0154175
,,,1.21E-06,0.01524375
,,,1.22E-06,0.015263125
,,,1.23E-06,0.015548125
,,,1.24E-06,0.015226875
,,,1.25E-06,0.01561375
,,,1.26E-06,0.015515
,,,1.27E-06,0.015539375
,,,1.28E-06,0.01548375
,,,1.29E-06,0.015328125
,,,1.3E-06,0.015495625
,,,1.31E-06,0.01555625
,,,1.32E-06,0.015425
,,,1.33E-06,0.015468125
,,,1.34E-06,0.015484375
,,,1.35E-06,0.015444375
,,,1.36E-06,0.015500625
,,,1.37E-06,0.01560375
,,,1.38E-06,0.015505625
,,,1.39E-06,0.015439375
,,,1.4E-06,0.01552375
,,,1.41E-06,0.0155125
,,,1.42E-06,0.015346875
,,,1.43E-06,0.01535
,,,1.44E-06,0.01533
,,,1.45E-06,0.01560125
,,,1.46E-06,0.01549125
,,,1.47E-06,0.015368125
,,,1.48E-06,0.015449375
,,,1.49E-06,0.015553125
,,,1.5E-06,0.01544
,,,1.51E-06,0.0153275
,,,1.52E-06,0.0156425
,,,1.53E-06,0.01538375
,,,1.54E-06,0.015495
,,,1.55E-06,0.015346875
,,,1.56E-06,0.015285625
,,,1.57E-06,0.015595
,,,1.58E-06,0.015410625
,,,1.59E-06,0.015391875
,,,1.6E-06,0.015413125
,,,1.61E-06,0.01566625
,,,1.62E-06,0.01559375
,,,1.63E-06,0.015395625
,,,1.64E-06,0.015270625
,,,1.65E-06,0.0153775
,,,1.66E-06,0.015584375
,,,1.67E-06,0.015195625
,,,1.68E-06,0.015610625
,,,1.69E-06,0.0156
,,,1.7E-06,0.015625625
,,,1.71E-06,0.015614375
,,,1.72E-06,0.0155075
,,,1.73E-06,0.01541625
,,,1.74E-06,0.015804375
,,,1.75E-06,0.015406875
,,,1.76E-06,0.015765
,,,1.77E-06,0.01548875
,,,1.78E-06,0.015521875
,,,1.79E-06,0.0155125
,,,1.8E-06,0.0151375
,,,1.81E-06,0.01544
,,,1.82E-06,0.01533625
,,,1.83E-06,0.01519875
,,,1.84E-06,0.01553
,,,1.85E-06,0.015593125
,,,1.86E-06,0.015661875
,,,1.87E-06,0.015526875
,,,1.88E-06,0.015376875
,,,1.89E-06,0.015504375
,,,1.9E-06,0.01571125
,,,1.91E-06,0.015395
,,,1.92E-06,0.015503125
,,,1.93E-06,0.0153475
,,,1.94E-06,0.015609375
,,,1.95E-06,0.01504625
,,,1.96E-06,0.01535
,,,1.97E-06,0.015235
,,,1.98E-06,0.0154125
,,,1.99E-06,0.015616875
,,,2E-06,0.015348125
,,,2.01E-06,0.0154875
,,,2.02E-06,0.0155175
,,,2.03E-06,0.015436875
,,,2.04E-06,0.015343125
,,,2.05E-06,0.015476875
,,,2.06E-06,0.015449375
,,,2.07E-06,0.015168125
,,,2.08E-06,0.0154975
,,,2.09E-06,0.01548125
,,,2.1E-06,0.0157675
,,,2.11E-06,0.0154125
,,,2.12E-06,0.01521
,,,2.13E-06,0.0152175
,,,2.14E-06,0.0152575
,,,2.15E-06,0.0156175
,,,2.16E-06,0.0154
,,,2.17E-06,0.01517
,,,2.18E-06,0.015373125
,,,2.19E-06,0.015570625
,,,2.2E-06,0.015466875
,,,2.21E-06,0.015354375
,,,2.22E-06,0.015386875
,,,2.23E-06,0.015268125
,,,2.24E-06,0.015319375
,,,2.25E-06,0.0154
,,,2.26E-06,0.015413125
,,,2.27E-06,0.01551125
,,,2.28E-06,0.015274375
,,,2.29E-06,0.015363125
,,,2.3E-06,0.015403125
,,,2.31E-06,0.01539
,,,2.32E-06,0.01542125
,,,2.33E-06,0.015520625
,,,2.34E-06,0.0155125
,,,2.35E-06,0.015520625
,,,2.36E-06,0.0155825
,,,2.37E-06,0.015440625
,,,2.38E-06,0.015455625
,,,2.39E-06,0.015479375
,,,2.4E-06,0.01541625
,,,2.41E-06,0.01542375
,,,2.42E-06,0.015370625
,,,2.43E-06,0.01525875
,,,2.44E-06,0.0153975
,,,2.45E-06,0.0152575
,,,2.46E-06,0.015476875
,,,2.47E-06,0.015396875
,,,2.48E-06,0.01552375
,,,2.49E-06,0.015585625
,,,2.5E-06,0.015609375
,,,2.51E-06,0.0154475
,,,2.52E-06,0.015319375
,,,2.53E-06,0.015478125
,,,2.54E-06,0.015445625
,,,2.55E-06,0.01554375
,,,2.56E-06,0.0153525
,,,2.57E-06,0.01560375
,,,2.58E-06,0.015320625
,,,2.59E-06,0.01546625
,,,2.6E-06,0.01524375
,,,2.61E-06,0.015388125
,,,2.62E-06,0.01554125
,,,2.63E-06,0.015684375
,,,2.64E-06,0.01548625
,,,2.65E-06,0.015671875
,,,2.66E-06,0.015423125
,,,2.67E-06,0.01553125
,,,2.68E-06,0.015508125
,,,2.69E-06,0.015080625
,,,2.7E-06,0.015531875
,,,2.71E-06,0.01543625
,,,2.72E-06,0.01529375
,,,2.73E-06,0.0154675
,,,2.74E-06,0.015465625
,,,2.75E-06,0.01523625
,,,2.76E-06,0.01545125
,,,2.77E-06,0.0155375
,,,2.78E-06,0.015205
,,,2.79E-06,0.0152875
,,,2.8E-06,0.015299375
,,,2.81E-06,0.015488125
,,,2.82E-06,0.015244375
,,,2.83E-06,0.015679375
,,,2.84E-06,0.015644375
,,,2.85E-06,0.01556625
,,,2.86E-06,0.01523375
,,,2.87E-06,0.015228125
,,,2.88E-06,0.015468125
,,,2.89E-06,0.015479375
,,,2.9E-06,0.015375625
,,,2.91E-06,0.01544
,,,2.92E-06,0.015455
,,,2.93E-06,0.015469375
,,,2.94E-06,0.015515
,,,2.95E-06,0.015595625
,,,2.96E-06,0.01549
,,,2.97E-06,0.0154325
,,,2.98E-06,0.01537
,,,2.99E-06,0.015210625
,,,3E-06,0.015511875
,,,3.01E-06,0.015423125
,,,3.02E-06,0.01530625
,,,3.03E-06,0.015371875
,,,3.04E-06,0.015385
,,,3.05E-06,0.0152075
,,,3.06E-06,0.015506875
,,,3.07E-06,0.015231875
,,,3.08E-06,0.015643125
,,,3.09E-06,0.01534125
,,,3.1E-06,0.015504375
,,,3.11E-06,0.01547875
,,,3.12E-06,0.01547
,,,3.13E-06,0.015343125
,,,3.14E-06,0.01527125
,,,3.15E-06,0.015500625
,,,3.16E-06,0.01535625
,,,3.17E-06,0.015495625
,,,3.18E-06,0.01538625
,,,3.19E-06,0.01527625
,,,3.2E-06,0.015475
,,,3.21E-06,0.015290625
,,,3.22E-06,0.01528125
,,,3.23E-06,0.015465
,,,3.24E-06,0.015291875
,,,3.25E-06,0.015288125
,,,3.26E-06,0.015278125
,,,3.27E-06,0.015569375
,,,3.28E-06,0.01553
,,,3.29E-06,0.0154325
,,,3.3E-06,0.01561625
,,,3.31E-06,0.015589375
,,,3.32E-06,0.015346875
,,,3.33E-06,0.01517
,,,3.34E-06,0.015709375
,,,3.35E-06,0.015561875
,,,3.36E-06,0.015319375
,,,3.37E-06,0.015396875
,,,3.38E-06,0.015224375
,,,3.39E-06,0.015284375
,,,3.4E-06,0.0155275
,,,3.41E-06,0.0155525
,,,3.42E-06,0.015419375
,,,3.43E-06,0.01538
,,,3.44E-06,0.0155275
,,,3.45E-06,0.015040625
,,,3.46E-06,0.01556375
,,,3.47E-06,0.01563125
,,,3.48E-06,0.015391875
,,,3.49E-06,0.015480625
,,,3.5E-06,0.015600625
,,,3.51E-06,0.015436875
,,,3.52E-06,0.015475625
,,,3.53E-06,0.015379375
,,,3.54E-06,0.015434375
,,,3.55E-06,0.01552125
,,,3.56E-06,0.0153575
,,,3.57E-06,0.015360625
,,,3.58E-06,0.01550375
