data/raw/Final_POL_Test_1/SOP060_Ch3.csv

"Record Length",1000,"Points",-5E-06,0.022670626
"Sample Interval",1E-08,s,-4.99E-06,0.022493126
"Trigger Point",500,"Samples",-4.98E-06,0.022582501
"Trigger Time",0,s,-4.97E-06,0.022468751
"",,,-4.96E-06,0.022485626
"Horizontal Offset",-5E-06,s,-4.95E-06,0.022573126
,,,-4.94E-06,0.022401876
,,,-4.93E-06,0.022553126
,,,-4.92E-06,0.022682501
,,,-4.91E-06,0.022332501
,,,-4.9E-06,0.022637501
,,,-4.89E-06,0.022349376
,,,-4.88E-06,0.022566251
,,,-4.87E-06,0.022424376
,,,-4.86E-06,0.022460626
,,,-4.85E-06,0.022617501
,,,-4.84E-06,0.022626876
,,,-4.83E-06,0.022583126
,,,-4.82E-06,0.022793751
,,,-4.81E-06,0.022482501
,,,-4.8E-06,0.022400001
,,,-4.79E-06,0.022726876
,,,-4.78E-06,0.022648751
,,,-4.77E-06,0.022378126
,,,-4.76E-06,0.022751876
,,,-4.75E-06,0.022576876
,,,-4.74E-06,0.022598751
,,,-4.73E-06,0.022755001
,,,-4.72E-06,0.022485001
,,,-4.71E-06,0.022533751
,,,-4.7E-06,0.022685001
,,,-4.69E-06,0.022487501
,,,-4.68E-06,0.022401876
,,,-4.67E-06,0.022501251
,,,-4.66E-06,0.022654376
,,,-4.65E-06,0.022546876
,,,-4.64E-06,0.022459376
,,,-4.63E-06,0.022763751
,,,-4.62E-06,0.022760001
,,,-4.61E-06,0.022410626
,,,-4.6E-06,0.022669376
,,,-4.59E-06,0.022536251
,,,-4.58E-06,0.022633126
,,,-4.57E-06,0.022743126
,,,-4.56E-06,0.022746876
,,,-4.55E-06,0.022883126
,,,-4.54E-06,0.022506876
,,,-4.53E-06,0.022292501
,,,-4.52E-06,0.022726876
,,,-4.51E-06,0.022400626
,,,-4.5E-06,0.022630001
,,,-4.49E-06,0.022760001
,,,-4.48E-06,0.022785001
,,,-4.47E-06,0.022444376
,,,-4.46E-06,0.022805001
,,,-4.45E-06,0.022695626
,,,-4.44E-06,0.022473751
,,,-4.43E-06,0.022753126
,,,-4.42E-06,0.022614376
,,,-4.41E-06,0.022663751
,,,-4.4E-06,0.022800001
,,,-4.39E-06,0.022552501
,,,-4.38E-06,0.022676251
,,,-4.37E-06,0.022760626
,,,-4.36E-06,0.022615001
,,,-4.35E-06,0.022693126
,,,-4.34E-06,0.022616876
,,,-4.33E-06,0.022510001
,,,-4.32E-06,0.022416876
,,,-4.31E-06,0.022580001
,,,-4.3E-06,0.022773751
,,,-4.29E-06,0.022592501
,,,-4.28E-06,0.022313751
,,,-4.27E-06,0.022670626
,,,-4.26E-06,0.022690001
,,,-4.25E-06,0.022716876
,,,-4.24E-06,0.022831251
,,,-4.23E-06,0.022560001
,,,-4.22E-06,0.022267501
,,,-4.21E-06,0.022756251
,,,-4.2E-06,0.022624376
,,,-4.19E-06,0.022517501
,,,-4.18E-06,0.022530626
,,,-4.17E-06,0.022540001
,,,-4.16E-06,0.022761251
,,,-4.15E-06,0.022570626
,,,-4.14E-06,0.022615626
,,,-4.13E-06,0.022357501
,,,-4.12E-06,0.022516251
,,,-4.11E-06,0.022508126
,,,-4.1E-06,0.022809376
,,,-4.09E-06,0.022500626
,,,-4.08E-06,0.022333751
,,,-4.07E-06,0.022636251
,,,-4.06E-06,0.022677501
,,,-4.05E-06,0.022473751
,,,-4.04E-06,0.022801251
,,,-4.03E-06,0.022366251
,,,-4.02E-06,0.022399376
,,,-4.01E-06,0.022579376
,,,-4E-06,0.022455001
,,,-3.99E-06,0.022322501
,,,-3.98E-06,0.022788751
,,,-3.97E-06,0.022755626
,,,-3.96E-06,0.022805626
,,,-3.95E-06,0.022617501
,,,-3.94E-06,0.022731876
,,,-3.93E-06,0.022711876
,,,-3.92E-06,0.022530001
,,,-3.91E-06,0.022675001
,,,-3.9E-06,0.022590001
,,,-3.89E-06,0.022676876
,,,-3.88E-06,0.022548126
,,,-3.87E-06,0.022886251
,,,-3.86E-06,0.022656876
,,,-3.85E-06,0.022553126
,,,-3.84E-06,0.022696876
,,,-3.83E-06,0.022513126
,,,-3.82E-06,0.022864376
,,,-3.81E-06,0.022730001
,,,-3.8E-06,0.022605626
,,,-3.79E-06,0.022675626
,,,-3.78E-06,0.022716251
,,,-3.77E-06,0.022533751
,,,-3.76E-06,0.022605001
,,,-3.75E-06,0.022687501
,,,-3.74E-06,0.022795626
,,,-3.73E-06,0.022635001
,,,-3.72E-06,0.022558126
,,,-3.71E-06,0.022540001
,,,-3.7E-06,0.022669376
,,,-3.69E-06,0.022510001
,,,-3.68E-06,0.022739376
,,,-3.67E-06,0.022514376
,,,-3.66E-06,0.022898751
,,,-3.65E-06,0.022645626
,,,-3.64E-06,0.022791876
,,,-3.63E-06,0.022365626
,,,-3.62E-06,0.022594376
,,,-3.61E-06,0.022473126
,,,-3.6E-06,0.022390001
,,,-3.59E-06,0.022651876
,,,-3.58E-06,0.022725001
,,,-3.57E-06,0.022502501
,,,-3.56E-06,0.022304376
,,,-3.55E-06,0.022626251
,,,-3.54E-06,0.022678126
,,,-3.53E-06,0.022685001
,,,-3.52E-06,0.022603126
,,,-3.51E-06,0.022753126
,,,-3.5E-06,0.022640001
,,,-3.49E-06,0.022841251
,,,-3.48E-06,0.022601876
,,,-3.47E-06,0.022381251
,,,-3.46E-06,0.022577501
,,,-3.45E-06,0.022563751
,,,-3.44E-06,0.022482501
,,,-3.43E-06,0.022580001
,,,-3.42E-06,0.022790001
,,,-3.41E-06,0.022633751
,,,-3.4E-06,0.022538126
,,,-3.39E-06,0.022725001
,,,-3.38E-06,0.022723751
,,,-3.37E-06,0.022615001
,,,-3.36E-06,0.022674376
,,,-3.35E-06,0.022628126
,,,-3.34E-06,0.022680001
,,,-3.33E-06,0.022671876
,,,-3.32E-06,0.022656251
,,,-3.31E-06,0.022714376
,,,-3.3E-06,0.022666251
,,,-3.29E-06,0.022675001
,,,-3.28E-06,0.022543751
,,,-3.27E-06,0.022424376
,,,-3.26E-06,0.022811251
,,,-3.25E-06,0.022668126
,,,-3.24E-06,0.022528751
,,,-3.23E-06,0.022470626
,,,-3.22E-06,0.022339376
,,,-3.21E-06,0.022675001
,,,-3.2E-06,0.022484376
,,,-3.19E-06,0.022760001
,,,-3.18E-06,0.022476876
,,,-3.17E-06,0.022356876
,,,-3.16E-06,0.022388126
,,,-3.15E-06,0.022602501
,,,-3.14E-06,0.022500626
,,,-3.13E-06,0.022578751
,,,-3.12E-06,0.022542501
,,,-3.11E-06,0.022600001
,,,-3.1E-06,0.022768126
,,,-3.09E-06,0.022666876
,,,-3.08E-06,0.022680001
,,,-3.07E-06,0.022588126
,,,-3.06E-06,0.022697501
,,,-3.05E-06,0.022717501
,,,-3.04E-06,0.022845626
,,,-3.03E-06,0.022726876
,,,-3.02E-06,0.022381876
,,,-3.01E-06,0.022558126
,,,-3E-06,0.022451876
,,,-2.99E-06,0.022427501
,,,-2.98E-06,0.022518751
,,,-2.97E-06,0.022786876
,,,-2.96E-06,0.022669376
,,,-2.95E-06,0.022760001
,,,-2.94E-06,0.022709376
,,,-2.93E-06,0.022841251
,,,-2.92E-06,0.022784376
,,,-2.91E-06,0.022532501
,,,-2.9E-06,0.022740001
,,,-2.89E-06,0.022584376
,,,-2.88E-06,0.022388126
,,,-2.87E-06,0.022466876
,,,-2.86E-06,0.022890626
,,,-2.85E-06,0.022590001
,,,-2.84E-06,0.022485626
,,,-2.83E-06,0.022551251
,,,-2.82E-06,0.022583126
,,,-2.81E-06,0.022698126
,,,-2.8E-06,0.022505001
,,,-2.79E-06,0.022671876
,,,-2.78E-06,0.022540001
,,,-2.77E-06,0.022536251
,,,-2.76E-06,0.022516251
,,,-2.75E-06,0.022635001
,,,-2.74E-06,0.022580626
,,,-2.73E-06,0.022436876
,,,-2.72E-06,0.022611251
,,,-2.71E-06,0.022480001
,,,-2.7E-06,0.022538126
,,,-2.69E-06,0.022873751
,,,-2.68E-06,0.022760001
,,,-2.67E-06,0.022553751
,,,-2.66E-06,0.022825001
,,,-2.65E-06,0.022615001
,,,-2.64E-06,0.022593126
,,,-2.63E-06,0.022498751
,,,-2.62E-06,0.022658126
,,,-2.61E-06,0.022668126
,,,-2.6E-06,0.022663751
,,,-2.59E-06,0.022370626
,,,-2.58E-06,0.022697501
,,,-2.57E-06,0.022609376
,,,-2.56E-06,0.022432501
,,,-2.55E-06,0.022549376
,,,-2.54E-06,0.022593126
,,,-2.53E-06,0.022522501
,,,-2.52E-06,0.022592501
,,,-2.51E-06,0.022474376
,,,-2.5E-06,0.022570626
,,,-2.49E-06,0.022784376
,,,-2.48E-06,0.022694376
,,,-2.47E-06,0.022537501
,,,-2.46E-06,0.022654376
,,,-2.45E-06,0.022671876
,,,-2.44E-06,0.022492501
,,,-2.43E-06,0.022607501
,,,-2.42E-06,0.022885001
,,,-2.41E-06,0.022751876
,,,-2.4E-06,0.022463126
,,,-2.39E-06,0.022749376
,,,-2.38E-06,0.022478751
,,,-2.37E-06,0.022760001
,,,-2.36E-06,0.022469376
,,,-2.35E-06,0.022502501
,,,-2.34E-06,0.022550001
,,,-2.33E-06,0.022851876
,,,-2.32E-06,0.022538126
,,,-2.31E-06,0.022886251
,,,-2.3E-06,0.022673126
,,,-2.29E-06,0.022587501
,,,-2.28E-06,0.022428751
,,,-2.27E-06,0.022561251
,,,-2.26E-06,0.022475001
,,,-2.25E-06,0.022531876
,,,-2.24E-06,0.022593126
,,,-2.23E-06,0.022660626
,,,-2.22E-06,0.022706251
,,,-2.21E-06,0.022453126
,,,-2.2E-06,0.022485001
,,,-2.19E-06,0.022561876
,,,-2.18E-06,0.022565626
,,,-2.17E-06,0.022671876
,,,-2.16E-06,0.022570001
,,,-2.15E-06,0.022520001
,,,-2.14E-06,0.022582501
,,,-2.13E-06,0.022555001
,,,-2.12E-06,0.022398126
,,,-2.11E-06,0.022588751
,,,-2.1E-06,0.022503751
,,,-2.09E-06,0.022836876
,,,-2.08E-06,0.022704376
,,,-2.07E-06,0.022480001
,,,-2.06E-06,0.022621876
,,,-2.05E-06,0.022536876
,,,-2.04E-06,0.022636876
,,,-2.03E-06,0.022880001
,,,-2.02E-06,0.022561251
,,,-2.01E-06,0.022473126
,,,-2E-06,0.022330626
,,,-1.99E-06,0.022904376
,,,-1.98E-06,0.022528751
,,,-1.97E-06,0.022638751
,,,-1.96E-06,0.022405626
,,,-1.95E-06,0.022823126
,,,-1.94E-06,0.022600626
,,,-1.93E-06,0.022630001
,,,-1.92E-06,0.022628126
,,,-1.91E-06,0.022539376
,,,-1.9E-06,0.022370626
,,,-1.89E-06,0.022543126
,,,-1.88E-06,0.022689376
,,,-1.87E-06,0.022433126
,,,-1.86E-06,0.022561876
,,,-1.85E-06,0.022645001
,,,-1.84E-06,0.022949376
,,,-1.83E-06,0.022591876
,,,-1.82E-06,0.022446876
,,,-1.81E-06,0.022593126
,,,-1.8E-06,0.022593126
,,,-1.79E-06,0.022573751
,,,-1.78E-06,0.022536876
,,,-1.77E-06,0.022520001
,,,-1.76E-06,0.022750001
,,,-1.75E-06,0.022437501
,,,-1.74E-06,0.022635001
,,,-1.73E-06,0.022728751
,,,-1.72E-06,0.022333126
,,,-1.71E-06,0.022643751
,,,-1.7E-06,0.022518126
,,,-1.69E-06,0.022665626
,,,-1.68E-06,0.022465001
,,,-1.67E-06,0.022608126
,,,-1.66E-06,0.022614376
,,,-1.65E-06,0.022692501
,,,-1.64E-06,0.022615001
,,,-1.63E-06,0.022633126
,,,-1.62E-06,0.022439376
,,,-1.61E-06,0.022762501
,,,-1.6E-06,0.022771251
,,,-1.59E-06,0.022680001
,,,-1.58E-06,0.022498751
,,,-1.57E-06,0.022434376
,,,-1.56E-06,0.022324376
,,,-1.55E-06,0.022373126
,,,-1.54E-06,0.022773751
,,,-1.53E-06,0.022581251
,,,-1.52E-06,0.022812501
,,,-1.51E-06,0.022475001
,,,-1.5E-06,0.022433126
,,,-1.49E-06,0.022294376
,,,-1.48E-06,0.022475001
,,,-1.47E-06,0.022460001
,,,-1.46E-06,0.022792501
,,,-1.45E-06,0.022620626
,,,-1.44E-06,0.022728751
,,,-1.43E-06,0.022491251
,,,-1.42E-06,0.022444376
,,,-1.41E-06,0.022626876
,,,-1.4E-06,0.022490626
,,,-1.39E-06,0.022458126
,,,-1.38E-06,0.022602501
,,,-1.37E-06,0.022571251
,,,-1.36E-06,0.022557501
,,,-1.35E-06,0.023081876
,,,-1.34E-06,0.022846251
,,,-1.33E-06,0.022597501
,,,-1.32E-06,0.022431251
,,,-1.31E-06,0.022591876
,,,-1.3E-06,0.022571876
,,,-1.29E-06,0.022593126
,,,-1.28E-06,0.022886876
,,,-1.27E-06,0.022641876
,,,-1.26E-06,0.022525001
,,,-1.25E-06,0.022608751
,,,-1.24E-06,0.022546876
,,,-1.23E-06,0.022537501
,,,-1.22E-06,0.022346876
,,,-1.21E-06,0.022570001
,,,-1.2E-06,0.022564376
,,,-1.19E-06,0.022485626
,,,-1.18E-06,0.022641876
,,,-1.17E-06,0.022391876
,,,-1.16E-06,0.022528126
,,,-1.15E-06,0.022554376
,,,-1.14E-06,0.022859376
,,,-1.13E-06,0.022546876
,,,-1.12E-06,0.022509376
,,,-1.11E-06,0.022556251
,,,-1.1E-06,0.022453126
,,,-1.09E-06,0.022781251
,,,-1.08E-06,0.022586876
,,,-1.07E-06,0.022608751
,,,-1.06E-06,0.022624376
,,,-1.05E-06,0.022517501
,,,-1.04E-06,0.022430001
,,,-1.03E-06,0.022828126
,,,-1.02E-06,0.022459376
,,,-1.01E-06,0.022717501
,,,-1E-06,0.022704376
,,,-9.9E-07,0.022687501
,,,-9.8E-07,0.022709376
,,,-9.7E-07,0.022538751
,,,-9.6E-07,0.022628126
,,,-9.5E-07,0.022529376
,,,-9.4E-07,0.022738126
,,,-9.3E-07,0.022711251
,,,-9.2E-07,0.022647501
,,,-9.1E-07,0.022296876
,,,-9E-07,0.022371251
,,,-8.9E-07,0.022439376
,,,-8.8E-07,0.022536251
,,,-8.7E-07,0.022653751
,,,-8.6E-07,0.022747501
,,,-8.5E-07,0.022880626
,,,-8.4E-07,0.022753126
,,,-8.3E-07,0.022371251
,,,-8.2E-07,0.022697501
,,,-8.1E-07,0.022472501
,,,-8E-07,0.022637501
,,,-7.9E-07,0.022705626
,,,-7.8E-07,0.022546876
,,,-7.7E-07,0.022705001
,,,-7.6E-07,0.022661251
,,,-7.5E-07,0.022219376
,,,-7.4E-07,0.022408126
,,,-7.3E-07,0.022498126
,,,-7.2E-07,0.022604376
,,,-7.1E-07,0.022483126
,,,-7E-07,0.022398126
,,,-6.9E-07,0.022561876
,,,-6.8E-07,0.022631251
,,,-6.7E-07,0.022518751
,,,-6.6E-07,0.022752501
,,,-6.5E-07,0.022493126
,,,-6.4E-07,0.022531876
,,,-6.3E-07,0.022737501
,,,-6.2E-07,0.022563751
,,,-6.1E-07,0.022848751
,,,-6E-07,0.022496251
,,,-5.9E-07,0.022521876
,,,-5.8E-07,0.022719376
,,,-5.7E-07,0.022605001
,,,-5.6E-07,0.022501876
,,,-5.5E-07,0.022835001
,,,-5.4E-07,0.022516251
,,,-5.3E-07,0.022596251
,,,-5.2E-07,0.022435626
,,,-5.1E-07,0.023090001
,,,-5E-07,0.022681876
,,,-4.9E-07,0.022513751
,,,-4.8E-07,0.022736876
,,,-4.7E-07,0.022670626
,,,-4.6E-07,0.022526251
,,,-4.5E-07,0.022712501
,,,-4.4E-07,0.022655001
,,,-4.3E-07,0.022563126
,,,-4.2E-07,0.022656876
,,,-4.1E-07,0.022519376
,,,-4E-07,0.022607501
,,,-3.9E-07,0.022490001
,,,-3.8E-07,0.022576251
,,,-3.7E-07,0.022378126
,,,-3.6E-07,0.022633126
,,,-3.5E-07,0.022670001
,,,-3.4E-07,0.022873126
,,,-3.3E-07,0.022480001
,,,-3.2E-07,0.022573126
,,,-3.1E-07,0.022675626
,,,-3E-07,0.022380626
,,,-2.9E-07,0.022720626
,,,-2.8E-07,0.022528751
,,,-2.7E-07,0.022574376
,,,-2.6E-07,0.022809376
,,,-2.5E-07,0.022620001
,,,-2.4E-07,0.022547501
,,,-2.3E-07,0.022446876
,,,-2.2E-07,0.022814376
,,,-2.1E-07,0.022605001
,,,-2E-07,0.022657501
,,,-1.9E-07,0.022673751
,,,-1.8E-07,0.022626251
,,,-1.7E-07,0.022783751
,,,-1.6E-07,0.022518751
,,,-1.5E-07,0.022234376
,,,-1.4E-07,0.022453751
,,,-1.3E-07,0.022506876
,,,-1.2E-07,0.022733126
,,,-1.1E-07,0.022759376
,,,-1E-07,0.022755626
,,,-9E-08,0.022666876
,,,-8E-08,0.022685626
,,,-7E-08,0.022441876
,,,-6E-08,0.022495626
,,,-5E-08,0.022457501
,,,-4E-08,0.023853751
,,,-3E-08,0.022960001
,,,-2E-08,0.021989376
,,,-1E-08,0.019998126
,,,0,0.020842501
,,,1E-08,0.024041251
,,,2E-08,0.025260001
,,,3E-08,0.024456251
,,,4E-08,0.022671251
,,,5E-08,0.021265626
,,,6E-08,0.020861251
,,,7E-08,0.021744376
,,,8E-08,0.022850001
,,,9E-08,0.023790626
,,,1E-07,0.023675001
,,,1.1E-07,0.022955001
,,,1.2E-07,0.022085626
,,,1.3E-07,0.021681876
,,,1.4E-07,0.022193751
,,,1.5E-07,0.022686876
,,,1.6E-07,0.023183126
,,,1.7E-07,0.022872501
,,,1.8E-07,0.022707501
,,,1.9E-07,0.022660001
,,,2E-07,0.022459376
,,,2.1E-07,0.022452501
,,,2.2E-07,0.022618751
,,,2.3E-07,0.022663751
,,,2.4E-07,0.022832501
,,,2.5E-07,0.022490001
,,,2.6E-07,0.022650001
,,,2.7E-07,0.022389376
,,,2.8E-07,0.022638126
,,,2.9E-07,0.022626251
,,,3E-07,0.022498126
,,,3.1E-07,0.022603751
,,,3.2E-07,0.022753126
,,,3.3E-07,0.022525001
,,,3.4E-07,0.022403126
,,,3.5E-07,0.022498126
,,,3.6E-07,0.022590001
,,,3.7E-07,0.022448751
,,,3.8E-07,0.022603751
,,,3.9E-07,0.022761251
,,,4E-07,0.022616251
,,,4.1E-07,0.022577501
,,,4.2E-07,0.022578126
,,,4.3E-07,0.022741876
,,,4.4E-07,0.022580001
,,,4.5E-07,0.022565001
,,,4.6E-07,0.022663751
,,,4.7E-07,0.022653126
,,,4.8E-07,0.022585001
,,,4.9E-07,0.022468751
,,,5E-07,0.022622501
,,,5.1E-07,0.022726251
,,,5.2E-07,0.022703751
,,,5.3E-07,0.022578126
,,,5.4E-07,0.022573126
,,,5.5E-07,0.022375001
,,,5.6E-07,0.022570001
,,,5.7E-07,0.022571251
,,,5.8E-07,0.022619376
,,,5.9E-07,0.022861876
,,,6E-07,0.022751876
,,,6.1E-07,0.022522501
,,,6.2E-07,0.022515001
,,,6.3E-07,0.022515626
,,,6.4E-07,0.022756876
,,,6.5E-07,0.022586251
,,,6.6E-07,0.022688751
,,,6.7E-07,0.022720001
,,,6.8E-07,0.022734376
,,,6.9E-07,0.022570626
,,,7E-07,0.022872501
,,,7.1E-07,0.022528751
,,,7.2E-07,0.022637501
,,,7.3E-07,0.022468751
,,,7.4E-07,0.022531251
,,,7.5E-07,0.022614376
,,,7.6E-07,0.022693751
,,,7.7E-07,0.022772501
,,,7.8E-07,0.022886876
,,,7.9E-07,0.022754376
,,,8E-07,0.022661251
,,,8.1E-07,0.022438751
,,,8.2E-07,0.022537501
,,,8.3E-07,0.022722501
,,,8.4E-07,0.022736251
,,,8.5E-07,0.022577501
,,,8.6E-07,0.022701876
,,,8.7E-07,0.022766876
,,,8.8E-07,0.022580001
,,,8.9E-07,0.022470626
,,,9E-07,0.022498751
,,,9.1E-07,0.022630626
,,,9.2E-07,0.022650626
,,,9.3E-07,0.022630001
,,,9.4E-07,0.022730626
,,,9.5E-07,0.022631876
,,,9.6E-07,0.022941251
,,,9.7E-07,0.022648126
,,,9.8E-07,0.022581876
,,,9.9E-07,0.022631251
,,,1E-06,0.022804376
,,,1.01E-06,0.022482501
,,,1.02E-06,0.022675626
,,,1.03E-06,0.022459376
,,,1.04E-06,0.022521251
,,,1.05E-06,0.022368751
,,,1.06E-06,0.022779376
,,,1.07E-06,0.022548126
,,,1.08E-06,0.022819376
,,,1.09E-06,0.022687501
,,,1.1E-06,0.022686251
,,,1.11E-06,0.022374376
,,,1.12E-06,0.022597501
,,,1.13E-06,0.022527501
,,,1.14E-06,0.022593126
,,,1.15E-06,0.022561876
,,,1.16E-06,0.022611251
,,,1.17E-06,0.022650626
,,,1.18E-06,0.022460001
,,,1.19E-06,0.022740626
,,,1.2E-06,0.022583751
,,,1.21E-06,0.022759376
,,,1.22E-06,0.022468751
,,,1.23E-06,0.022571251
,,,1.24E-06,0.022767501
,,,1.25E-06,0.022499376
,,,1.26E-06,0.022417501
,,,1.27E-06,0.022591251
,,,1.28E-06,0.022708126
,,,1.29E-06,0.022434376
,,,1.3E-06,0.022585626
,,,1.31E-06,0.022854376
,,,1.32E-06,0.022543126
,,,1.33E-06,0.022532501
,,,1.34E-06,0.022696876
,,,1.35E-06,0.022473751
,,,1.36E-06,0.022686876
,,,1.37E-06,0.022635626
,,,1.38E-06,0.022500626
,,,1.39E-06,0.022581876
,,,1.4E-06,0.022547501
,,,1.41E-06,0.022829376
,,,1.42E-06,0.022702501
,,,1.43E-06,0.022567501
,,,1.44E-06,0.022570001
,,,1.45E-06,0.022523751
,,,1.46E-06,0.022467501
,,,1.47E-06,0.022366251
,,,1.48E-06,0.022251876
,,,1.49E-06,0.022478126
,,,1.5E-06,0.022753751
,,,1.51E-06,0.022761251
,,,1.52E-06,0.022700001
,,,1.53E-06,0.022553126
,,,1.54E-06,0.022445001
,,,1.55E-06,0.022443126
,,,1.56E-06,0.022498751
,,,1.57E-06,0.022799376
,,,1.58E-06,0.022616876
,,,1.59E-06,0.022665626
,,,1.6E-06,0.022560001
,,,1.61E-06,0.022751876
,,,1.62E-06,0.022763126
,,,1.63E-06,0.022565001
,,,1.64E-06,0.022840001
,,,1.65E-06,0.022364376
,,,1.66E-06,0.022476251
,,,1.67E-06,0.022813751
,,,1.68E-06,0.022603126
,,,1.69E-06,0.022420001
,,,1.7E-06,0.022744376
,,,1.71E-06,0.022653126
,,,1.72E-06,0.022496251
,,,1.73E-06,0.022685626
,,,1.74E-06,0.022737501
,,,1.75E-06,0.022729376
,,,1.76E-06,0.022541251
,,,1.77E-06,0.022401251
,,,1.78E-06,0.022646251
,,,1.79E-06,0.022496876
,,,1.8E-06,0.022685001
,,,1.81E-06,0.022498126
,,,1.82E-06,0.022585001
,,,1.83E-06,0.022391876
,,,1.84E-06,0.022545626
,,,1.85E-06,0.022603126
,,,1.86E-06,0.022668751
,,,1.87E-06,0.022758751
,,,1.88E-06,0.022461876
,,,1.89E-06,0.022370001
,,,1.9E-06,0.022749376
,,,1.91E-06,0.022439376
,,,1.92E-06,0.022581251
,,,1.93E-06,0.022517501
,,,1.94E-06,0.022761251
,,,1.95E-06,0.022730001
,,,1.96E-06,0.022470626
,,,1.97E-06,0.022436876
,,,1.98E-06,0.022395001
,,,1.99E-06,0.022645626
,,,2E-06,0.022590626
,,,2.01E-06,0.022736876
,,,2.02E-06,0.022455001
,,,2.03E-06,0.022656876
,,,2.04E-06,0.022799376
,,,2.05E-06,0.022480626
,,,2.06E-06,0.022385001
,,,2.07E-06,0.022486876
,,,2.08E-06,0.022660626
,,,2.09E-06,0.022587501
,,,2.1E-06,0.022430001
,,,2.11E-06,0.022878751
,,,2.12E-06,0.022548751
,,,2.13E-06,0.022470001
,,,2.14E-06,0.022747501
,,,2.15E-06,0.022746876
,,,2.16E-06,0.022698751
,,,2.17E-06,0.022523751
,,,2.18E-06,0.022555001
,,,2.19E-06,0.022679376
,,,2.2E-06,0.022549376
,,,2.21E-06,0.022385626
,,,2.22E-06,0.022435001
,,,2.23E-06,0.022700001
,,,2.24E-06,0.022548126
,,,2.25E-06,0.022625626
,,,2.26E-06,0.022534376
,,,2.27E-06,0.022649376
,,,2.28E-06,0.022425626
,,,2.29E-06,0.022677501
,,,2.3E-06,0.022591876
,,,2.31E-06,0.022660626
,,,2.32E-06,0.022821876
,,,2.33E-06,0.022413126
,,,2.34E-06,0.022570001
,,,2.35E-06,0.022571876
,,,2.36E-06,0.022642501
,,,2.37E-06,0.022677501
,,,2.38E-06,0.022401876
,,,2.39E-06,0.022723126
,,,2.4E-06,0.022599376
,,,2.41E-06,0.022440001
,,,2.42E-06,0.022246876
,,,2.43E-06,0.022673126
,,,2.44E-06,0.022224376
,,,2.45E-06,0.022510626
,,,2.46E-06,0.022563751
,,,2.47E-06,0.022611251
,,,2.48E-06,0.022612501
,,,2.49E-06,0.022742501
,,,2.5E-06,0.022561251
,,,2.51E-06,0.022306876
,,,2.52E-06,0.022660626
,,,2.53E-06,0.022453751
,,,2.54E-06,0.022588751
,,,2.55E-06,0.022383751
,,,2.56E-06,0.022666251
,,,2.57E-06,0.022643751
,,,2.58E-06,0.022605001
,,,2.59E-06,0.022755001
,,,2.6E-06,0.022355001
,,,2.61E-06,0.022687501
,,,2.62E-06,0.022425626
,,,2.63E-06,0.022690001
,,,2.64E-06,0.022581876
,,,2.65E-06,0.022395001
,,,2.66E-06,0.022553126
,,,2.67E-06,0.022825001
,,,2.68E-06,0.022690626
,,,2.69E-06,0.022631876
,,,2.7E-06,0.022742501
,,,2.71E-06,0.022731876
,,,2.72E-06,0.022408126
,,,2.73E-06,0.022770001
,,,2.74E-06,0.022768751
,,,2.75E-06,0.022593126
,,,2.76E-06,0.022627501
,,,2.77E-06,0.022521876
,,,2.78E-06,0.022502501
,,,2.79E-06,0.022632501
,,,2.8E-06,0.022510626
,,,2.81E-06,0.022661251
,,,2.82E-06,0.022576876
,,,2.83E-06,0.022450001
,,,2.84E-06,0.022689376
,,,2.85E-06,0.022486876
,,,2.86E-06,0.022574376
,,,2.87E-06,0.022755626
,,,2.88E-06,0.022565626
,,,2.89E-06,0.022316876
,,,2.9E-06,0.022445001
,,,2.91E-06,0.022621251
,,,2.92E-06,0.022317501
,,,2.93E-06,0.022543751
,,,2.94E-06,0.022506876
,,,2.95E-06,0.022699376
,,,2.96E-06,0.022800001
,,,2.97E-06,0.022475626
,,,2.98E-06,0.022920626
,,,2.99E-06,0.022654376
,,,3E-06,0.022595626
,,,3.01E-06,0.022543751
,,,3.02E-06,0.022700626
,,,3.03E-06,0.022388126
,,,3.04E-06,0.022414376
,,,3.05E-06,0.022689376
,,,3.06E-06,0.022573751
,,,3.07E-06,0.022510626
,,,3.08E-06,0.022603126
,,,3.09E-06,0.022496876
,,,3.1E-06,0.022712501
,,,3.11E-06,0.022803751
,,,3.12E-06,0.022474376
,,,3.13E-06,0.022595001
,,,3.14E-06,0.022707501
,,,3.15E-06,0.022561251
,,,3.16E-06,0.022531251
,,,3.17E-06,0.022323126
,,,3.18E-06,0.022669376
,,,3.19E-06,0.022650001
,,,3.2E-06,0.022528126
,,,3.21E-06,0.022520626
