data/raw/Final_POL_Test_1/SOP018_Ch4.csv

"Record Length",1000,"Points",-5E-06,0.02155625
"Sample Interval",1E-08,s,-4.99E-06,0.021420625
"Trigger Point",500,"Samples",-4.98E-06,0.02159875
"Trigger Time",0,s,-4.97E-06,0.02175625
"",,,-4.96E-06,0.021654375
"Horizontal Offset",-5E-06,s,-4.95E-06,0.0215325
,,,-4.94E-06,0.021566875
,,,-4.93E-06,0.021420625
,,,-4.92E-06,0.02177375
,,,-4.91E-06,0.0215275
,,,-4.9E-06,0.021535
,,,-4.89E-06,0.021675
,,,-4.88E-06,0.021450625
,,,-4.87E-06,0.02137
,,,-4.86E-06,0.0216025
,,,-4.85E-06,0.02155
,,,-4.84E-06,0.02149375
,,,-4.83E-06,0.021555625
,,,-4.82E-06,0.02150375
,,,-4.81E-06,0.02146875
,,,-4.8E-06,0.02155375
,,,-4.79E-06,0.0214825
,,,-4.78E-06,0.02142
,,,-4.77E-06,0.021425625
,,,-4.76E-06,0.021444375
,,,-4.75E-06,0.021604375
,,,-4.74E-06,0.021763125
,,,-4.73E-06,0.021809375
,,,-4.72E-06,0.021348125
,,,-4.71E-06,0.0213225
,,,-4.7E-06,0.0217
,,,-4.69E-06,0.02179375
,,,-4.68E-06,0.021530625
,,,-4.67E-06,0.0215875
,,,-4.66E-06,0.021500625
,,,-4.65E-06,0.021443125
,,,-4.64E-06,0.021498125
,,,-4.63E-06,0.02174625
,,,-4.62E-06,0.021465
,,,-4.61E-06,0.021598125
,,,-4.6E-06,0.021599375
,,,-4.59E-06,0.021665
,,,-4.58E-06,0.02171625
,,,-4.57E-06,0.021666875
,,,-4.56E-06,0.0216025
,,,-4.55E-06,0.0216025
,,,-4.54E-06,0.021410625
,,,-4.53E-06,0.02171125
,,,-4.52E-06,0.021641875
,,,-4.51E-06,0.021685
,,,-4.5E-06,0.021493125
,,,-4.49E-06,0.02147875
,,,-4.48E-06,0.021620625
,,,-4.47E-06,0.02177125
,,,-4.46E-06,0.02138125
,,,-4.45E-06,0.021463125
,,,-4.44E-06,0.02137125
,,,-4.43E-06,0.021599375
,,,-4.42E-06,0.021724375
,,,-4.41E-06,0.02164
,,,-4.4E-06,0.021620625
,,,-4.39E-06,0.021623125
,,,-4.38E-06,0.021564375
,,,-4.37E-06,0.021494375
,,,-4.36E-06,0.02155125
,,,-4.35E-06,0.021523125
,,,-4.34E-06,0.0217025
,,,-4.33E-06,0.02149
,,,-4.32E-06,0.021674375
,,,-4.31E-06,0.021869375
,,,-4.3E-06,0.02156125
,,,-4.29E-06,0.02147
,,,-4.28E-06,0.021635
,,,-4.27E-06,0.021713125
,,,-4.26E-06,0.0215075
,,,-4.25E-06,0.02173375
,,,-4.24E-06,0.021715625
,,,-4.23E-06,0.021763125
,,,-4.22E-06,0.021809375
,,,-4.21E-06,0.021655
,,,-4.2E-06,0.021295
,,,-4.19E-06,0.021524375
,,,-4.18E-06,0.021711875
,,,-4.17E-06,0.021645625
,,,-4.16E-06,0.021528125
,,,-4.15E-06,0.021458125
,,,-4.14E-06,0.021740625
,,,-4.13E-06,0.02156625
,,,-4.12E-06,0.021390625
,,,-4.11E-06,0.0214975
,,,-4.1E-06,0.021618125
,,,-4.09E-06,0.0214325
,,,-4.08E-06,0.02166375
,,,-4.07E-06,0.02147
,,,-4.06E-06,0.0217625
,,,-4.05E-06,0.021440625
,,,-4.04E-06,0.02145125
,,,-4.03E-06,0.021645625
,,,-4.02E-06,0.021435
,,,-4.01E-06,0.021633125
,,,-4E-06,0.021588125
,,,-3.99E-06,0.0215075
,,,-3.98E-06,0.021745
,,,-3.97E-06,0.02177125
,,,-3.96E-06,0.021500625
,,,-3.95E-06,0.021874375
,,,-3.94E-06,0.0217925
,,,-3.93E-06,0.0214925
,,,-3.92E-06,0.02166
,,,-3.91E-06,0.0215025
,,,-3.9E-06,0.021606875
,,,-3.89E-06,0.021605
,,,-3.88E-06,0.021904375
,,,-3.87E-06,0.021774375
,,,-3.86E-06,0.021741875
,,,-3.85E-06,0.021760625
,,,-3.84E-06,0.021468125
,,,-3.83E-06,0.021655625
,,,-3.82E-06,0.021609375
,,,-3.81E-06,0.021784375
,,,-3.8E-06,0.02156125
,,,-3.79E-06,0.021553125
,,,-3.78E-06,0.021468125
,,,-3.77E-06,0.02164125
,,,-3.76E-06,0.021438125
,,,-3.75E-06,0.0217325
,,,-3.74E-06,0.021584375
,,,-3.73E-06,0.021525
,,,-3.72E-06,0.021819375
,,,-3.71E-06,0.021715
,,,-3.7E-06,0.02147
,,,-3.69E-06,0.02169
,,,-3.68E-06,0.021506875
,,,-3.67E-06,0.02143375
,,,-3.66E-06,0.021416875
,,,-3.65E-06,0.021790625
,,,-3.64E-06,0.02157
,,,-3.63E-06,0.021605
,,,-3.62E-06,0.021293125
,,,-3.61E-06,0.0214875
,,,-3.6E-06,0.021464375
,,,-3.59E-06,0.0215775
,,,-3.58E-06,0.021795
,,,-3.57E-06,0.02160875
,,,-3.56E-06,0.02152125
,,,-3.55E-06,0.0217075
,,,-3.54E-06,0.02145875
,,,-3.53E-06,0.021491875
,,,-3.52E-06,0.021536875
,,,-3.51E-06,0.02177625
,,,-3.5E-06,0.021616875
,,,-3.49E-06,0.021714375
,,,-3.48E-06,0.021335
,,,-3.47E-06,0.021624375
,,,-3.46E-06,0.0217175
,,,-3.45E-06,0.021629375
,,,-3.44E-06,0.02159375
,,,-3.43E-06,0.021454375
,,,-3.42E-06,0.021713125
,,,-3.41E-06,0.02168125
,,,-3.4E-06,0.0217575
,,,-3.39E-06,0.02153
,,,-3.38E-06,0.02174375
,,,-3.37E-06,0.021714375
,,,-3.36E-06,0.021655625
,,,-3.35E-06,0.02137
,,,-3.34E-06,0.021543125
,,,-3.33E-06,0.021798125
,,,-3.32E-06,0.021495
,,,-3.31E-06,0.021540625
,,,-3.3E-06,0.0216425
,,,-3.29E-06,0.021569375
,,,-3.28E-06,0.0215575
,,,-3.27E-06,0.02165125
,,,-3.26E-06,0.021505
,,,-3.25E-06,0.021555
,,,-3.24E-06,0.021391875
,,,-3.23E-06,0.021451875
,,,-3.22E-06,0.021605
,,,-3.21E-06,0.02159
,,,-3.2E-06,0.02148875
,,,-3.19E-06,0.021551875
,,,-3.18E-06,0.021518125
,,,-3.17E-06,0.0219625
,,,-3.16E-06,0.021665
,,,-3.15E-06,0.021410625
,,,-3.14E-06,0.021625625
,,,-3.13E-06,0.02161
,,,-3.12E-06,0.02127
,,,-3.11E-06,0.02184
,,,-3.1E-06,0.02160875
,,,-3.09E-06,0.02158875
,,,-3.08E-06,0.02159125
,,,-3.07E-06,0.02163625
,,,-3.06E-06,0.02169875
,,,-3.05E-06,0.02163125
,,,-3.04E-06,0.02143375
,,,-3.03E-06,0.021576875
,,,-3.02E-06,0.02147125
,,,-3.01E-06,0.02147375
,,,-3E-06,0.021516875
,,,-2.99E-06,0.021541875
,,,-2.98E-06,0.02157
,,,-2.97E-06,0.021794375
,,,-2.96E-06,0.021364375
,,,-2.95E-06,0.021791875
,,,-2.94E-06,0.02189875
,,,-2.93E-06,0.02171
,,,-2.92E-06,0.021378125
,,,-2.91E-06,0.021576875
,,,-2.9E-06,0.0214775
,,,-2.89E-06,0.02162
,,,-2.88E-06,0.02168125
,,,-2.87E-06,0.02138375
,,,-2.86E-06,0.021661875
,,,-2.85E-06,0.021656875
,,,-2.84E-06,0.021585
,,,-2.83E-06,0.02147375
,,,-2.82E-06,0.02167875
,,,-2.81E-06,0.021509375
,,,-2.8E-06,0.021684375
,,,-2.79E-06,0.0215725
,,,-2.78E-06,0.0216725
,,,-2.77E-06,0.02186
,,,-2.76E-06,0.021856875
,,,-2.75E-06,0.02185875
,,,-2.74E-06,0.02165875
,,,-2.73E-06,0.02158625
,,,-2.72E-06,0.021504375
,,,-2.71E-06,0.021704375
,,,-2.7E-06,0.0213425
,,,-2.69E-06,0.0216675
,,,-2.68E-06,0.021530625
,,,-2.67E-06,0.021634375
,,,-2.66E-06,0.021430625
,,,-2.65E-06,0.021401875
,,,-2.64E-06,0.0216725
,,,-2.63E-06,0.021569375
,,,-2.62E-06,0.02140375
,,,-2.61E-06,0.02159125
,,,-2.6E-06,0.02170125
,,,-2.59E-06,0.021836875
,,,-2.58E-06,0.021481875
,,,-2.57E-06,0.021445625
,,,-2.56E-06,0.0216575
,,,-2.55E-06,0.0216225
,,,-2.54E-06,0.02155125
,,,-2.53E-06,0.021668125
,,,-2.52E-06,0.0214875
,,,-2.51E-06,0.02146125
,,,-2.5E-06,0.0215775
,,,-2.49E-06,0.021441875
,,,-2.48E-06,0.02160625
,,,-2.47E-06,0.02181
,,,-2.46E-06,0.02162625
,,,-2.45E-06,0.021539375
,,,-2.44E-06,0.02194625
,,,-2.43E-06,0.02167375
,,,-2.42E-06,0.0213925
,,,-2.41E-06,0.021686875
,,,-2.4E-06,0.02138875
,,,-2.39E-06,0.021585625
,,,-2.38E-06,0.021478125
,,,-2.37E-06,0.02157625
,,,-2.36E-06,0.0216875
,,,-2.35E-06,0.021883125
,,,-2.34E-06,0.021349375
,,,-2.33E-06,0.02173625
,,,-2.32E-06,0.021551875
,,,-2.31E-06,0.021678125
,,,-2.3E-06,0.0217775
,,,-2.29E-06,0.021458125
,,,-2.28E-06,0.021451875
,,,-2.27E-06,0.02147375
,,,-2.26E-06,0.02166
,,,-2.25E-06,0.021660625
,,,-2.24E-06,0.021528125
,,,-2.23E-06,0.021795
,,,-2.22E-06,0.021600625
,,,-2.21E-06,0.021495625
,,,-2.2E-06,0.02178625
,,,-2.19E-06,0.02165125
,,,-2.18E-06,0.02163875
,,,-2.17E-06,0.021660625
,,,-2.16E-06,0.021603125
,,,-2.15E-06,0.02149625
,,,-2.14E-06,0.021549375
,,,-2.13E-06,0.021661875
,,,-2.12E-06,0.0216175
,,,-2.11E-06,0.021576875
,,,-2.1E-06,0.02168625
,,,-2.09E-06,0.021655625
,,,-2.08E-06,0.02165875
,,,-2.07E-06,0.0216075
,,,-2.06E-06,0.0216625
,,,-2.05E-06,0.021619375
,,,-2.04E-06,0.02159875
,,,-2.03E-06,0.02142625
,,,-2.02E-06,0.02163125
,,,-2.01E-06,0.02159625
,,,-2E-06,0.0214575
,,,-1.99E-06,0.02160875
,,,-1.98E-06,0.0217425
,,,-1.97E-06,0.021595625
,,,-1.96E-06,0.021508125
,,,-1.95E-06,0.0216975
,,,-1.94E-06,0.02167
,,,-1.93E-06,0.02159125
,,,-1.92E-06,0.021450625
,,,-1.91E-06,0.02158625
,,,-1.9E-06,0.02154375
,,,-1.89E-06,0.02152625
,,,-1.88E-06,0.021533125
,,,-1.87E-06,0.02131125
,,,-1.86E-06,0.0216275
,,,-1.85E-06,0.02164375
,,,-1.84E-06,0.02159625
,,,-1.83E-06,0.02148
,,,-1.82E-06,0.02134125
,,,-1.81E-06,0.021584375
,,,-1.8E-06,0.0218175
,,,-1.79E-06,0.021676875
,,,-1.78E-06,0.0217375
,,,-1.77E-06,0.02136125
,,,-1.76E-06,0.02156875
,,,-1.75E-06,0.0217725
,,,-1.74E-06,0.021665625
,,,-1.73E-06,0.021304375
,,,-1.72E-06,0.021671875
,,,-1.71E-06,0.02143125
,,,-1.7E-06,0.02153375
,,,-1.69E-06,0.02137
,,,-1.68E-06,0.021785
,,,-1.67E-06,0.021500625
,,,-1.66E-06,0.021710625
,,,-1.65E-06,0.021605625
,,,-1.64E-06,0.02178375
,,,-1.63E-06,0.021515
,,,-1.62E-06,0.021471875
,,,-1.61E-06,0.021609375
,,,-1.6E-06,0.021625625
,,,-1.59E-06,0.021676875
,,,-1.58E-06,0.02150375
,,,-1.57E-06,0.021463125
,,,-1.56E-06,0.021635625
,,,-1.55E-06,0.02151
,,,-1.54E-06,0.0214375
,,,-1.53E-06,0.021353125
,,,-1.52E-06,0.021466875
,,,-1.51E-06,0.02161125
,,,-1.5E-06,0.02172
,,,-1.49E-06,0.0216525
,,,-1.48E-06,0.021808125
,,,-1.47E-06,0.021726875
,,,-1.46E-06,0.02137375
,,,-1.45E-06,0.021591875
,,,-1.44E-06,0.021460625
,,,-1.43E-06,0.021563125
,,,-1.42E-06,0.0215825
,,,-1.41E-06,0.0215275
,,,-1.4E-06,0.0216975
,,,-1.39E-06,0.021675
,,,-1.38E-06,0.02173375
,,,-1.37E-06,0.021595625
,,,-1.36E-06,0.0215975
,,,-1.35E-06,0.021624375
,,,-1.34E-06,0.0215875
,,,-1.33E-06,0.02151875
,,,-1.32E-06,0.0213275
,,,-1.31E-06,0.02133375
,,,-1.3E-06,0.021821875
,,,-1.29E-06,0.021784375
,,,-1.28E-06,0.021735625
,,,-1.27E-06,0.021526875
,,,-1.26E-06,0.021554375
,,,-1.25E-06,0.021503125
,,,-1.24E-06,0.021665
,,,-1.23E-06,0.021435
,,,-1.22E-06,0.0215725
,,,-1.21E-06,0.021865
,,,-1.2E-06,0.021548125
,,,-1.19E-06,0.02153625
,,,-1.18E-06,0.02173375
,,,-1.17E-06,0.021244375
,,,-1.16E-06,0.021466875
,,,-1.15E-06,0.021620625
,,,-1.14E-06,0.02147375
,,,-1.13E-06,0.02183625
,,,-1.12E-06,0.021561875
,,,-1.11E-06,0.021441875
,,,-1.1E-06,0.02149875
,,,-1.09E-06,0.021475
,,,-1.08E-06,0.021424375
,,,-1.07E-06,0.02179
,,,-1.06E-06,0.021823125
,,,-1.05E-06,0.0214925
,,,-1.04E-06,0.0217975
,,,-1.03E-06,0.0215825
,,,-1.02E-06,0.021436875
,,,-1.01E-06,0.021548125
,,,-1E-06,0.02156625
,,,-9.9E-07,0.021409375
,,,-9.8E-07,0.0214675
,,,-9.7E-07,0.02153
,,,-9.6E-07,0.02178625
,,,-9.5E-07,0.021538125
,,,-9.4E-07,0.0216825
,,,-9.3E-07,0.02151875
,,,-9.2E-07,0.02165
,,,-9.1E-07,0.02149875
,,,-9E-07,0.021593125
,,,-8.9E-07,0.021634375
,,,-8.8E-07,0.021696875
,,,-8.7E-07,0.021419375
,,,-8.6E-07,0.021555
,,,-8.5E-07,0.02163375
,,,-8.4E-07,0.021519375
,,,-8.3E-07,0.021543125
,,,-8.2E-07,0.02129375
,,,-8.1E-07,0.021846875
,,,-8E-07,0.021581875
,,,-7.9E-07,0.0216
,,,-7.8E-07,0.02135
,,,-7.7E-07,0.02152125
,,,-7.6E-07,0.021489375
,,,-7.5E-07,0.021515625
,,,-7.4E-07,0.021741875
,,,-7.3E-07,0.021458125
,,,-7.2E-07,0.021666875
,,,-7.1E-07,0.021399375
,,,-7E-07,0.021605
,,,-6.9E-07,0.021620625
,,,-6.8E-07,0.021760625
,,,-6.7E-07,0.021714375
,,,-6.6E-07,0.02140375
,,,-6.5E-07,0.021845625
,,,-6.4E-07,0.02174375
,,,-6.3E-07,0.021565625
,,,-6.2E-07,0.0215
,,,-6.1E-07,0.02161375
,,,-6E-07,0.021558125
,,,-5.9E-07,0.021548125
,,,-5.8E-07,0.02157375
,,,-5.7E-07,0.021553125
,,,-5.6E-07,0.02148375
,,,-5.5E-07,0.021639375
,,,-5.4E-07,0.0214075
,,,-5.3E-07,0.0212725
,,,-5.2E-07,0.021729375
,,,-5.1E-07,0.021634375
,,,-5E-07,0.02142125
,,,-4.9E-07,0.0216275
,,,-4.8E-07,0.02150375
,,,-4.7E-07,0.02172125
,,,-4.6E-07,0.0216125
,,,-4.5E-07,0.02166125
,,,-4.4E-07,0.021539375
,,,-4.3E-07,0.021615625
,,,-4.2E-07,0.02152125
,,,-4.1E-07,0.021534375
,,,-4E-07,0.0215325
,,,-3.9E-07,0.021695
,,,-3.8E-07,0.02138625
,,,-3.7E-07,0.021776875
,,,-3.6E-07,0.0216425
,,,-3.5E-07,0.021516875
,,,-3.4E-07,0.021818125
,,,-3.3E-07,0.02151
,,,-3.2E-07,0.021550625
,,,-3.1E-07,0.021466875
,,,-3E-07,0.02165125
,,,-2.9E-07,0.02164375
,,,-2.8E-07,0.02148375
,,,-2.7E-07,0.02165875
,,,-2.6E-07,0.021525625
,,,-2.5E-07,0.021615625
,,,-2.4E-07,0.02160125
,,,-2.3E-07,0.021581875
,,,-2.2E-07,0.021568125
,,,-2.1E-07,0.02156
,,,-2E-07,0.021645
,,,-1.9E-07,0.02144125
,,,-1.8E-07,0.021576875
,,,-1.7E-07,0.021718125
,,,-1.6E-07,0.02151
,,,-1.5E-07,0.021556875
,,,-1.4E-07,0.0217675
,,,-1.3E-07,0.021430625
,,,-1.2E-07,0.021571875
,,,-1.1E-07,0.021810625
,,,-1E-07,0.02131375
,,,-9E-08,0.021455
,,,-8E-08,0.0214775
,,,-7E-08,0.021425
,,,-6E-08,0.02122625
,,,-5E-08,0.022193125
,,,-4E-08,0.022968125
,,,-3E-08,0.021125625
,,,-2E-08,0.02029875
,,,-1E-08,0.01969625
,,,0,0.022546875
,,,1E-08,0.02297875
,,,2E-08,0.023335
,,,3E-08,0.0216225
,,,4E-08,0.02110125
,,,5E-08,0.0203875
,,,6E-08,0.020965625
,,,7E-08,0.02188875
,,,8E-08,0.022253125
,,,9E-08,0.02266125
,,,1E-07,0.021861875
,,,1.1E-07,0.02127375
,,,1.2E-07,0.020936875
,,,1.3E-07,0.021303125
,,,1.4E-07,0.02161625
,,,1.5E-07,0.02185375
,,,1.6E-07,0.02174
,,,1.7E-07,0.021579375
,,,1.8E-07,0.021956875
,,,1.9E-07,0.021721875
,,,2E-07,0.0215325
,,,2.1E-07,0.02153375
,,,2.2E-07,0.02142
,,,2.3E-07,0.021610625
,,,2.4E-07,0.02160875
,,,2.5E-07,0.02154375
,,,2.6E-07,0.021615
,,,2.7E-07,0.021381875
,,,2.8E-07,0.02176625
,,,2.9E-07,0.021361875
,,,3E-07,0.021464375
,,,3.1E-07,0.02148375
,,,3.2E-07,0.021736875
,,,3.3E-07,0.021524375
,,,3.4E-07,0.021633125
,,,3.5E-07,0.0214
,,,3.6E-07,0.021518125
,,,3.7E-07,0.021681875
,,,3.8E-07,0.021551875
,,,3.9E-07,0.021731875
,,,4E-07,0.02149375
,,,4.1E-07,0.02146625
,,,4.2E-07,0.021845625
,,,4.3E-07,0.02163875
,,,4.4E-07,0.021339375
,,,4.5E-07,0.02163125
,,,4.6E-07,0.021600625
,,,4.7E-07,0.021960625
,,,4.8E-07,0.021541875
,,,4.9E-07,0.021653125
,,,5E-07,0.021448125
,,,5.1E-07,0.021895
,,,5.2E-07,0.02167375
,,,5.3E-07,0.0216375
,,,5.4E-07,0.021573125
,,,5.5E-07,0.021421875
,,,5.6E-07,0.021205625
,,,5.7E-07,0.02157
,,,5.8E-07,0.021419375
,,,5.9E-07,0.021585625
,,,6E-07,0.021640625
,,,6.1E-07,0.0216725
,,,6.2E-07,0.0216525
,,,6.3E-07,0.021865
,,,6.4E-07,0.0213675
,,,6.5E-07,0.021466875
,,,6.6E-07,0.021515625
,,,6.7E-07,0.021725
,,,6.8E-07,0.021699375
,,,6.9E-07,0.021318125
,,,7E-07,0.021615625
,,,7.1E-07,0.021720625
,,,7.2E-07,0.021506875
,,,7.3E-07,0.02186125
,,,7.4E-07,0.021610625
,,,7.5E-07,0.021514375
,,,7.6E-07,0.021840625
,,,7.7E-07,0.02151875
,,,7.8E-07,0.0213875
,,,7.9E-07,0.021628125
,,,8E-07,0.021613125
,,,8.1E-07,0.021601875
,,,8.2E-07,0.021643125
,,,8.3E-07,0.021696875
,,,8.4E-07,0.021320625
,,,8.5E-07,0.02170625
,,,8.6E-07,0.0214975
,,,8.7E-07,0.021344375
,,,8.8E-07,0.021890625
,,,8.9E-07,0.02177625
,,,9E-07,0.021675625
,,,9.1E-07,0.021521875
,,,9.2E-07,0.021671875
,,,9.3E-07,0.02139875
,,,9.4E-07,0.02128375
,,,9.5E-07,0.021665625
,,,9.6E-07,0.0216125
,,,9.7E-07,0.021618125
,,,9.8E-07,0.021685
,,,9.9E-07,0.02151625
,,,1E-06,0.02136625
,,,1.01E-06,0.02179
,,,1.02E-06,0.02161625
,,,1.03E-06,0.021460625
,,,1.04E-06,0.021504375
,,,1.05E-06,0.0217825
,,,1.06E-06,0.021461875
,,,1.07E-06,0.02177375
,,,1.08E-06,0.021646875
,,,1.09E-06,0.0214975
,,,1.1E-06,0.021820625
,,,1.11E-06,0.021514375
,,,1.12E-06,0.021370625
,,,1.13E-06,0.021735
,,,1.14E-06,0.02150125
,,,1.15E-06,0.02145875
,,,1.16E-06,0.021756875
,,,1.17E-06,0.02168125
,,,1.18E-06,0.021719375
,,,1.19E-06,0.02170375
,,,1.2E-06,0.021543125
,,,1.21E-06,0.021406875
,,,1.22E-06,0.02159625
,,,1.23E-06,0.021624375
,,,1.24E-06,0.02152375
,,,1.25E-06,0.021655625
,,,1.26E-06,0.021408125
,,,1.27E-06,0.02177
,,,1.28E-06,0.02159125
,,,1.29E-06,0.02152875
,,,1.3E-06,0.021563125
,,,1.31E-06,0.021550625
,,,1.32E-06,0.021540625
,,,1.33E-06,0.021418125
,,,1.34E-06,0.0213925
,,,1.35E-06,0.021785
,,,1.36E-06,0.02172
,,,1.37E-06,0.02171
,,,1.38E-06,0.021415
,,,1.39E-06,0.021591875
,,,1.4E-06,0.021569375
,,,1.41E-06,0.021943125
,,,1.42E-06,0.021635
,,,1.43E-06,0.021595
,,,1.44E-06,0.02162375
,,,1.45E-06,0.02144625
,,,1.46E-06,0.021934375
,,,1.47E-06,0.021555625
,,,1.48E-06,0.021558125
,,,1.49E-06,0.02173625
,,,1.5E-06,0.021698125
,,,1.51E-06,0.02171125
,,,1.52E-06,0.02159125
,,,1.53E-06,0.0216825
,,,1.54E-06,0.02149625
,,,1.55E-06,0.02166375
,,,1.56E-06,0.02140875
,,,1.57E-06,0.02153125
,,,1.58E-06,0.021706875
,,,1.59E-06,0.021530625
,,,1.6E-06,0.021538125
,,,1.61E-06,0.021745
,,,1.62E-06,0.021219375
,,,1.63E-06,0.0217025
,,,1.64E-06,0.021564375
,,,1.65E-06,0.02164
,,,1.66E-06,0.021454375
,,,1.67E-06,0.02154125
,,,1.68E-06,0.021638125
,,,1.69E-06,0.021701875
,,,1.7E-06,0.021619375
,,,1.71E-06,0.02151875
,,,1.72E-06,0.021460625
,,,1.73E-06,0.021529375
,,,1.74E-06,0.02157375
,,,1.75E-06,0.021623125
,,,1.76E-06,0.02162
,,,1.77E-06,0.02157625
,,,1.78E-06,0.02165375
,,,1.79E-06,0.021680625
,,,1.8E-06,0.0214625
,,,1.81E-06,0.02146875
,,,1.82E-06,0.021548125
,,,1.83E-06,0.02155875
,,,1.84E-06,0.02179125
,,,1.85E-06,0.021679375
,,,1.86E-06,0.021775
,,,1.87E-06,0.021564375
,,,1.88E-06,0.021465625
,,,1.89E-06,0.02141
,,,1.9E-06,0.0214375
,,,1.91E-06,0.02144125
,,,1.92E-06,0.0217375
,,,1.93E-06,0.021534375
,,,1.94E-06,0.021545625
,,,1.95E-06,0.02156125
,,,1.96E-06,0.021666875
,,,1.97E-06,0.021615625
,,,1.98E-06,0.021804375
,,,1.99E-06,0.021603125
,,,2E-06,0.02154875
,,,2.01E-06,0.02157375
,,,2.02E-06,0.021598125
,,,2.03E-06,0.021468125
,,,2.04E-06,0.02172
,,,2.05E-06,0.02137125
,,,2.06E-06,0.021453125
,,,2.07E-06,0.021685625
,,,2.08E-06,0.02154125
,,,2.09E-06,0.0216275
,,,2.1E-06,0.02168125
,,,2.11E-06,0.021571875
,,,2.12E-06,0.02166875
,,,2.13E-06,0.021583125
,,,2.14E-06,0.02159125
,,,2.15E-06,0.02153125
,,,2.16E-06,0.021475625
,,,2.17E-06,0.021599375
,,,2.18E-06,0.0214975
,,,2.19E-06,0.021443125
,,,2.2E-06,0.02138625
,,,2.21E-06,0.021605625
,,,2.22E-06,0.021604375
,,,2.23E-06,0.021693125
,,,2.24E-06,0.021440625
,,,2.25E-06,0.0215275
,,,2.26E-06,0.02159875
,,,2.27E-06,0.021718125
,,,2.28E-06,0.0216175
,,,2.29E-06,0.021623125
,,,2.3E-06,0.02182
,,,2.31E-06,0.021679375
,,,2.32E-06,0.021575
,,,2.33E-06,0.0216125
,,,2.34E-06,0.0217725
,,,2.35E-06,0.021474375
,,,2.36E-06,0.02168625
,,,2.37E-06,0.021611875
,,,2.38E-06,0.021503125
,,,2.39E-06,0.02172125
,,,2.4E-06,0.021365
,,,2.41E-06,0.0216925
,,,2.42E-06,0.021665
,,,2.43E-06,0.02155375
,,,2.44E-06,0.02170875
,,,2.45E-06,0.021480625
,,,2.46E-06,0.02158875
,,,2.47E-06,0.021366875
,,,2.48E-06,0.021655
,,,2.49E-06,0.021625625
,,,2.5E-06,0.0215875
,,,2.51E-06,0.021581875
,,,2.52E-06,0.02145875
,,,2.53E-06,0.02175625
,,,2.54E-06,0.021781875
,,,2.55E-06,0.021859375
,,,2.56E-06,0.021683125
,,,2.57E-06,0.021715625
,,,2.58E-06,0.02155375
,,,2.59E-06,0.021475
,,,2.6E-06,0.021723125
,,,2.61E-06,0.021673125
,,,2.62E-06,0.021495
,,,2.63E-06,0.021609375
,,,2.64E-06,0.02144
,,,2.65E-06,0.02168875
,,,2.66E-06,0.02179875
,,,2.67E-06,0.021716875
,,,2.68E-06,0.021726875
,,,2.69E-06,0.021541875
,,,2.7E-06,0.02126
,,,2.71E-06,0.021660625
,,,2.72E-06,0.021935
,,,2.73E-06,0.02156375
,,,2.74E-06,0.02141125
,,,2.75E-06,0.021770625
,,,2.76E-06,0.021449375
,,,2.77E-06,0.02153875
,,,2.78E-06,0.02176125
,,,2.79E-06,0.021684375
,,,2.8E-06,0.02144
,,,2.81E-06,0.0218125
,,,2.82E-06,0.021735625
,,,2.83E-06,0.02169875
,,,2.84E-06,0.02145125
,,,2.85E-06,0.021625625
,,,2.86E-06,0.021344375
,,,2.87E-06,0.021555625
,,,2.88E-06,0.021666875
,,,2.89E-06,0.0215
,,,2.9E-06,0.021665625
,,,2.91E-06,0.02163375
,,,2.92E-06,0.021665625
,,,2.93E-06,0.0218125
,,,2.94E-06,0.021575625
,,,2.95E-06,0.021290625
,,,2.96E-06,0.021708125
,,,2.97E-06,0.02156
,,,2.98E-06,0.021593125
,,,2.99E-06,0.0218325
,,,3E-06,0.021694375
,,,3.01E-06,0.021688125
,,,3.02E-06,0.02172625
,,,3.03E-06,0.02154625
,,,3.04E-06,0.021490625
,,,3.05E-06,0.02137625
,,,3.06E-06,0.021663125
,,,3.07E-06,0.02151625
,,,3.08E-06,0.021565
,,,3.09E-06,0.0214075
,,,3.1E-06,0.021555
,,,3.11E-06,0.021600625
,,,3.12E-06,0.02144625
,,,3.13E-06,0.02164375
,,,3.14E-06,0.021508125
,,,3.15E-06,0.0216875
,,,3.16E-06,0.02174875
,,,3.17E-06,0.02166
,,,3.18E-06,0.02140375
,,,3.19E-06,0.021398125
,,,3.2E-06,0.021709375
,,,3.21E-06,0.02164875
,,,3.22E-06,0.021589375
,,,3.23E-06,0.021790625
,,,3.24E-06,0.02157125
,,,3.25E-06,0.0217475
,,,3.26E-06,0.021506875
,,,3.27E-06,0.021488125
,,,3.28E-06,0.021828125
,,,3.29E-06,0.02144625
,,,3.3E-06,0.021844375
,,,3.31E-06,0.021510625
,,,3.32E-06,0.021463125
,,,3.33E-06,0.0219225
,,,3.34E-06,0.021690625
,,,3.35E-06,0.02166
,,,3.36E-06,0.0215075
,,,3.37E-06,0.021719375
,,,3.38E-06,0.0214825
,,,3.39E-06,0.021598125
,,,3.4E-06,0.021376875
,,,3.41E-06,0.021588125
,,,3.42E-06,0.021683125
,,,3.43E-06,0.02152875
,,,3.44E-06,0.0214325
,,,3.45E-06,0.021448125
,,,3.46E-06,0.021469375
,,,3.47E-06,0.02151
,,,3.48E-06,0.0214575
,,,3.49E-06,0.0215725
,,,3.5E-06,0.02155375
,,,3.51E-06,0.02126625
,,,3.52E-06,0.021520625
,,,3.53E-06,0.021915
,,,3.54E-06,0.021824375
,,,3.55E-06,0.021545
,,,3.56E-06,0.021565625
,,,3.57E-06,0.0214975
