data/raw/Final_POL_Test_1/SOP027_Ch1.csv

"Record Length",1000,"Points",-5E-06,0.00414125
"Sample Interval",1E-08,s,-4.99E-06,0.004190625
"Trigger Point",500,"Samples",-4.98E-06,0.00421125
"Trigger Time",0,s,-4.97E-06,0.004265625
"",,,-4.96E-06,0.004163125
"Horizontal Offset",-5E-06,s,-4.95E-06,0.004325625
,,,-4.94E-06,0.00408125
,,,-4.93E-06,0.00448
,,,-4.92E-06,0.004294375
,,,-4.91E-06,0.004381875
,,,-4.9E-06,0.00412125
,,,-4.89E-06,0.004103125
,,,-4.88E-06,0.004235
,,,-4.87E-06,0.00462
,,,-4.86E-06,0.004244375
,,,-4.85E-06,0.00419
,,,-4.84E-06,0.0043575
,,,-4.83E-06,0.004134375
,,,-4.82E-06,0.0044025
,,,-4.81E-06,0.004253125
,,,-4.8E-06,0.004258125
,,,-4.79E-06,0.00405375
,,,-4.78E-06,0.004215
,,,-4.77E-06,0.003980625
,,,-4.76E-06,0.004069375
,,,-4.75E-06,0.00448
,,,-4.74E-06,0.00427875
,,,-4.73E-06,0.004300625
,,,-4.72E-06,0.004186875
,,,-4.71E-06,0.0043875
,,,-4.7E-06,0.004223125
,,,-4.69E-06,0.004489375
,,,-4.68E-06,0.004304375
,,,-4.67E-06,0.004348125
,,,-4.66E-06,0.004315
,,,-4.65E-06,0.0043525
,,,-4.64E-06,0.0042975
,,,-4.63E-06,0.0042375
,,,-4.62E-06,0.004234375
,,,-4.61E-06,0.004346875
,,,-4.6E-06,0.00441375
,,,-4.59E-06,0.003950625
,,,-4.58E-06,0.004085
,,,-4.57E-06,0.0042125
,,,-4.56E-06,0.00417625
,,,-4.55E-06,0.004356875
,,,-4.54E-06,0.004590625
,,,-4.53E-06,0.00445375
,,,-4.52E-06,0.0043775
,,,-4.51E-06,0.00442875
,,,-4.5E-06,0.00421625
,,,-4.49E-06,0.00445875
,,,-4.48E-06,0.00470625
,,,-4.47E-06,0.0043775
,,,-4.46E-06,0.004284375
,,,-4.45E-06,0.00418
,,,-4.44E-06,0.0042
,,,-4.43E-06,0.00410375
,,,-4.42E-06,0.004289375
,,,-4.41E-06,0.004485
,,,-4.4E-06,0.004229375
,,,-4.39E-06,0.004260625
,,,-4.38E-06,0.004135
,,,-4.37E-06,0.00411625
,,,-4.36E-06,0.004219375
,,,-4.35E-06,0.00443125
,,,-4.34E-06,0.0045625
,,,-4.33E-06,0.00466375
,,,-4.32E-06,0.004220625
,,,-4.31E-06,0.00423
,,,-4.3E-06,0.004386875
,,,-4.29E-06,0.004216875
,,,-4.28E-06,0.004205625
,,,-4.27E-06,0.004083125
,,,-4.26E-06,0.00436875
,,,-4.25E-06,0.004244375
,,,-4.24E-06,0.00440625
,,,-4.23E-06,0.00442
,,,-4.22E-06,0.004264375
,,,-4.21E-06,0.0043425
,,,-4.2E-06,0.004145
,,,-4.19E-06,0.00425375
,,,-4.18E-06,0.004148125
,,,-4.17E-06,0.00433125
,,,-4.16E-06,0.004206875
,,,-4.15E-06,0.00415375
,,,-4.14E-06,0.0040925
,,,-4.13E-06,0.0042425
,,,-4.12E-06,0.0041475
,,,-4.11E-06,0.00438
,,,-4.1E-06,0.0040925
,,,-4.09E-06,0.004076875
,,,-4.08E-06,0.004135
,,,-4.07E-06,0.00426125
,,,-4.06E-06,0.004039375
,,,-4.05E-06,0.003941875
,,,-4.04E-06,0.004131875
,,,-4.03E-06,0.004151875
,,,-4.02E-06,0.004248125
,,,-4.01E-06,0.004168125
,,,-4E-06,0.004098125
,,,-3.99E-06,0.004348125
,,,-3.98E-06,0.0041575
,,,-3.97E-06,0.004211875
,,,-3.96E-06,0.0041925
,,,-3.95E-06,0.004085625
,,,-3.94E-06,0.00458
,,,-3.93E-06,0.003979375
,,,-3.92E-06,0.00418125
,,,-3.91E-06,0.004285
,,,-3.9E-06,0.00446125
,,,-3.89E-06,0.004148125
,,,-3.88E-06,0.0041375
,,,-3.87E-06,0.004348125
,,,-3.86E-06,0.004026875
,,,-3.85E-06,0.004223125
,,,-3.84E-06,0.0041
,,,-3.83E-06,0.004078125
,,,-3.82E-06,0.004286875
,,,-3.81E-06,0.00416
,,,-3.8E-06,0.00439
,,,-3.79E-06,0.004371875
,,,-3.78E-06,0.00423125
,,,-3.77E-06,0.0044275
,,,-3.76E-06,0.00437
,,,-3.75E-06,0.004354375
,,,-3.74E-06,0.00428125
,,,-3.73E-06,0.00396625
,,,-3.72E-06,0.004330625
,,,-3.71E-06,0.00423875
,,,-3.7E-06,0.00427625
,,,-3.69E-06,0.004005
,,,-3.68E-06,0.00410375
,,,-3.67E-06,0.004570625
,,,-3.66E-06,0.00449
,,,-3.65E-06,0.004166875
,,,-3.64E-06,0.00430125
,,,-3.63E-06,0.004294375
,,,-3.62E-06,0.004195625
,,,-3.61E-06,0.004285
,,,-3.6E-06,0.004220625
,,,-3.59E-06,0.004601875
,,,-3.58E-06,0.004215625
,,,-3.57E-06,0.00459
,,,-3.56E-06,0.004165625
,,,-3.55E-06,0.004430625
,,,-3.54E-06,0.00428125
,,,-3.53E-06,0.00418625
,,,-3.52E-06,0.00409875
,,,-3.51E-06,0.004251875
,,,-3.5E-06,0.00459875
,,,-3.49E-06,0.004604375
,,,-3.48E-06,0.0043475
,,,-3.47E-06,0.004293125
,,,-3.46E-06,0.00430375
,,,-3.45E-06,0.004121875
,,,-3.44E-06,0.00445625
,,,-3.43E-06,0.00414375
,,,-3.42E-06,0.00425875
,,,-3.41E-06,0.004155
,,,-3.4E-06,0.004295625
,,,-3.39E-06,0.004270625
,,,-3.38E-06,0.004319375
,,,-3.37E-06,0.0044825
,,,-3.36E-06,0.004141875
,,,-3.35E-06,0.0043975
,,,-3.34E-06,0.004530625
,,,-3.33E-06,0.00412125
,,,-3.32E-06,0.00412875
,,,-3.31E-06,0.004226875
,,,-3.3E-06,0.004315
,,,-3.29E-06,0.004008125
,,,-3.28E-06,0.004145
,,,-3.27E-06,0.004096875
,,,-3.26E-06,0.003865625
,,,-3.25E-06,0.00418
,,,-3.24E-06,0.004265
,,,-3.23E-06,0.004379375
,,,-3.22E-06,0.00444625
,,,-3.21E-06,0.004361875
,,,-3.2E-06,0.004261875
,,,-3.19E-06,0.0041025
,,,-3.18E-06,0.004008125
,,,-3.17E-06,0.004278125
,,,-3.16E-06,0.004461875
,,,-3.15E-06,0.004201875
,,,-3.14E-06,0.004293125
,,,-3.13E-06,0.00432125
,,,-3.12E-06,0.004200625
,,,-3.11E-06,0.004303125
,,,-3.1E-06,0.004021875
,,,-3.09E-06,0.004036875
,,,-3.08E-06,0.004403125
,,,-3.07E-06,0.004268125
,,,-3.06E-06,0.004175625
,,,-3.05E-06,0.00434375
,,,-3.04E-06,0.004081875
,,,-3.03E-06,0.0043625
,,,-3.02E-06,0.004313125
,,,-3.01E-06,0.004313125
,,,-3E-06,0.00434125
,,,-2.99E-06,0.004243125
,,,-2.98E-06,0.00429875
,,,-2.97E-06,0.004164375
,,,-2.96E-06,0.00418125
,,,-2.95E-06,0.004281875
,,,-2.94E-06,0.004561875
,,,-2.93E-06,0.004340625
,,,-2.92E-06,0.004311875
,,,-2.91E-06,0.00414875
,,,-2.9E-06,0.004524375
,,,-2.89E-06,0.004613125
,,,-2.88E-06,0.004208125
,,,-2.87E-06,0.004170625
,,,-2.86E-06,0.004285
,,,-2.85E-06,0.004349375
,,,-2.84E-06,0.004095
,,,-2.83E-06,0.004240625
,,,-2.82E-06,0.004234375
,,,-2.81E-06,0.004205625
,,,-2.8E-06,0.004050625
,,,-2.79E-06,0.003860625
,,,-2.78E-06,0.00420125
,,,-2.77E-06,0.004304375
,,,-2.76E-06,0.004483125
,,,-2.75E-06,0.004085
,,,-2.74E-06,0.00442625
,,,-2.73E-06,0.00409375
,,,-2.72E-06,0.00434875
,,,-2.71E-06,0.00421
,,,-2.7E-06,0.004418125
,,,-2.69E-06,0.00423
,,,-2.68E-06,0.0042275
,,,-2.67E-06,0.004170625
,,,-2.66E-06,0.00422625
,,,-2.65E-06,0.004243125
,,,-2.64E-06,0.0042725
,,,-2.63E-06,0.00401
,,,-2.62E-06,0.004143125
,,,-2.61E-06,0.004250625
,,,-2.6E-06,0.004206875
,,,-2.59E-06,0.00440125
,,,-2.58E-06,0.0041975
,,,-2.57E-06,0.0043725
,,,-2.56E-06,0.004088125
,,,-2.55E-06,0.0040325
,,,-2.54E-06,0.004336875
,,,-2.53E-06,0.004494375
,,,-2.52E-06,0.004534375
,,,-2.51E-06,0.004163125
,,,-2.5E-06,0.004353125
,,,-2.49E-06,0.004305
,,,-2.48E-06,0.00419
,,,-2.47E-06,0.004245
,,,-2.46E-06,0.0043525
,,,-2.45E-06,0.004341875
,,,-2.44E-06,0.0042125
,,,-2.43E-06,0.004300625
,,,-2.42E-06,0.004210625
,,,-2.41E-06,0.004335
,,,-2.4E-06,0.00421375
,,,-2.39E-06,0.00424625
,,,-2.38E-06,0.004294375
,,,-2.37E-06,0.00406125
,,,-2.36E-06,0.004288125
,,,-2.35E-06,0.00415125
,,,-2.34E-06,0.004238125
,,,-2.33E-06,0.0044725
,,,-2.32E-06,0.004079375
,,,-2.31E-06,0.004276875
,,,-2.3E-06,0.004583125
,,,-2.29E-06,0.00412
,,,-2.28E-06,0.00444125
,,,-2.27E-06,0.004339375
,,,-2.26E-06,0.00424125
,,,-2.25E-06,0.004310625
,,,-2.24E-06,0.004340625
,,,-2.23E-06,0.004108125
,,,-2.22E-06,0.004214375
,,,-2.21E-06,0.004339375
,,,-2.2E-06,0.0042075
,,,-2.19E-06,0.00446
,,,-2.18E-06,0.00416
,,,-2.17E-06,0.0041875
,,,-2.16E-06,0.004076875
,,,-2.15E-06,0.0042975
,,,-2.14E-06,0.004155625
,,,-2.13E-06,0.003936875
,,,-2.12E-06,0.004325
,,,-2.11E-06,0.00431875
,,,-2.1E-06,0.0042775
,,,-2.09E-06,0.004385
,,,-2.08E-06,0.004285
,,,-2.07E-06,0.00438
,,,-2.06E-06,0.004350625
,,,-2.05E-06,0.0042575
,,,-2.04E-06,0.00430125
,,,-2.03E-06,0.00419
,,,-2.02E-06,0.00428375
,,,-2.01E-06,0.004265
,,,-2E-06,0.004293125
,,,-1.99E-06,0.004505
,,,-1.98E-06,0.004221875
,,,-1.97E-06,0.004445
,,,-1.96E-06,0.004395
,,,-1.95E-06,0.004159375
,,,-1.94E-06,0.004395
,,,-1.93E-06,0.0041675
,,,-1.92E-06,0.004485625
,,,-1.91E-06,0.00436
,,,-1.9E-06,0.00448875
,,,-1.89E-06,0.004210625
,,,-1.88E-06,0.004451875
,,,-1.87E-06,0.00425
,,,-1.86E-06,0.004606875
,,,-1.85E-06,0.004079375
,,,-1.84E-06,0.004471875
,,,-1.83E-06,0.00420125
,,,-1.82E-06,0.00436
,,,-1.81E-06,0.00414125
,,,-1.8E-06,0.004189375
,,,-1.79E-06,0.004081875
,,,-1.78E-06,0.004055625
,,,-1.77E-06,0.004143125
,,,-1.76E-06,0.004461875
,,,-1.75E-06,0.0042
,,,-1.74E-06,0.004155
,,,-1.73E-06,0.00412
,,,-1.72E-06,0.004423125
,,,-1.71E-06,0.004210625
,,,-1.7E-06,0.004469375
,,,-1.69E-06,0.00447625
,,,-1.68E-06,0.004165
,,,-1.67E-06,0.00419
,,,-1.66E-06,0.00425
,,,-1.65E-06,0.004281875
,,,-1.64E-06,0.00460125
,,,-1.63E-06,0.003979375
,,,-1.62E-06,0.0039675
,,,-1.61E-06,0.00442125
,,,-1.6E-06,0.004178125
,,,-1.59E-06,0.00433625
,,,-1.58E-06,0.003975625
,,,-1.57E-06,0.004194375
,,,-1.56E-06,0.0041025
,,,-1.55E-06,0.004195
,,,-1.54E-06,0.00417625
,,,-1.53E-06,0.00428625
,,,-1.52E-06,0.004173125
,,,-1.51E-06,0.00415
,,,-1.5E-06,0.004615625
,,,-1.49E-06,0.004255
,,,-1.48E-06,0.00429875
,,,-1.47E-06,0.004418125
,,,-1.46E-06,0.004195625
,,,-1.45E-06,0.004546875
,,,-1.44E-06,0.00428
,,,-1.43E-06,0.00421875
,,,-1.42E-06,0.00422375
,,,-1.41E-06,0.0042625
,,,-1.4E-06,0.004173125
,,,-1.39E-06,0.00424
,,,-1.38E-06,0.003745
,,,-1.37E-06,0.00437
,,,-1.36E-06,0.00441625
,,,-1.35E-06,0.004259375
,,,-1.34E-06,0.00419375
,,,-1.33E-06,0.004160625
,,,-1.32E-06,0.0044
,,,-1.31E-06,0.00398875
,,,-1.3E-06,0.004225625
,,,-1.29E-06,0.004458125
,,,-1.28E-06,0.004316875
,,,-1.27E-06,0.00422125
,,,-1.26E-06,0.004445625
,,,-1.25E-06,0.00424875
,,,-1.24E-06,0.004131875
,,,-1.23E-06,0.00421
,,,-1.22E-06,0.004318125
,,,-1.21E-06,0.004460625
,,,-1.2E-06,0.0041975
,,,-1.19E-06,0.004308125
,,,-1.18E-06,0.00410875
,,,-1.17E-06,0.004349375
,,,-1.16E-06,0.00442875
,,,-1.15E-06,0.004284375
,,,-1.14E-06,0.004405
,,,-1.13E-06,0.00437125
,,,-1.12E-06,0.004305
,,,-1.11E-06,0.00398875
,,,-1.1E-06,0.004435
,,,-1.09E-06,0.004439375
,,,-1.08E-06,0.004294375
,,,-1.07E-06,0.004405
,,,-1.06E-06,0.004181875
,,,-1.05E-06,0.00423125
,,,-1.04E-06,0.004353125
,,,-1.03E-06,0.00416625
,,,-1.02E-06,0.00423875
,,,-1.01E-06,0.00436625
,,,-1E-06,0.00440625
,,,-9.9E-07,0.004358125
,,,-9.8E-07,0.00415375
,,,-9.7E-07,0.0040625
,,,-9.6E-07,0.00432375
,,,-9.5E-07,0.004563125
,,,-9.4E-07,0.004150625
,,,-9.3E-07,0.004185
,,,-9.2E-07,0.004549375
,,,-9.1E-07,0.0041225
,,,-9E-07,0.004190625
,,,-8.9E-07,0.00439125
,,,-8.8E-07,0.004055
,,,-8.7E-07,0.00426375
,,,-8.6E-07,0.004229375
,,,-8.5E-07,0.00419375
,,,-8.4E-07,0.0044275
,,,-8.3E-07,0.00426875
,,,-8.2E-07,0.0044575
,,,-8.1E-07,0.00426125
,,,-8E-07,0.004346875
,,,-7.9E-07,0.004314375
,,,-7.8E-07,0.0044
,,,-7.7E-07,0.00439
,,,-7.6E-07,0.004378125
,,,-7.5E-07,0.004194375
,,,-7.4E-07,0.0043975
,,,-7.3E-07,0.004281875
,,,-7.2E-07,0.004348125
,,,-7.1E-07,0.0044575
,,,-7E-07,0.00408625
,,,-6.9E-07,0.00413625
,,,-6.8E-07,0.00416875
,,,-6.7E-07,0.00424125
,,,-6.6E-07,0.004018125
,,,-6.5E-07,0.004181875
,,,-6.4E-07,0.00431375
,,,-6.3E-07,0.00457625
,,,-6.2E-07,0.004388125
,,,-6.1E-07,0.0040525
,,,-6E-07,0.003996875
,,,-5.9E-07,0.004245625
,,,-5.8E-07,0.00435125
,,,-5.7E-07,0.0042175
,,,-5.6E-07,0.004216875
,,,-5.5E-07,0.004441875
,,,-5.4E-07,0.004155
,,,-5.3E-07,0.0042725
,,,-5.2E-07,0.00445375
,,,-5.1E-07,0.0042725
,,,-5E-07,0.0042825
,,,-4.9E-07,0.004411875
,,,-4.8E-07,0.004235
,,,-4.7E-07,0.00459125
,,,-4.6E-07,0.004145
,,,-4.5E-07,0.004523125
,,,-4.4E-07,0.004128125
,,,-4.3E-07,0.0042625
,,,-4.2E-07,0.00421625
,,,-4.1E-07,0.004285625
,,,-4E-07,0.00408625
,,,-3.9E-07,0.004374375
,,,-3.8E-07,0.0042025
,,,-3.7E-07,0.004315625
,,,-3.6E-07,0.0041325
,,,-3.5E-07,0.00426625
,,,-3.4E-07,0.004170625
,,,-3.3E-07,0.00468
,,,-3.2E-07,0.003978125
,,,-3.1E-07,0.0042375
,,,-3E-07,0.00397875
,,,-2.9E-07,0.004075
,,,-2.8E-07,0.004061875
,,,-2.7E-07,0.004171875
,,,-2.6E-07,0.004156875
,,,-2.5E-07,0.0042525
,,,-2.4E-07,0.00434375
,,,-2.3E-07,0.004536875
,,,-2.2E-07,0.004129375
,,,-2.1E-07,0.004208125
,,,-2E-07,0.004119375
,,,-1.9E-07,0.0045075
,,,-1.8E-07,0.004275625
,,,-1.7E-07,0.00408375
,,,-1.6E-07,0.004331875
,,,-1.5E-07,0.0040525
,,,-1.4E-07,0.00426375
,,,-1.3E-07,0.004109375
,,,-1.2E-07,0.0043275
,,,-1.1E-07,0.004223125
,,,-1E-07,0.0041875
,,,-9E-08,0.00426125
,,,-8E-08,0.004513125
,,,-7E-08,0.004066875
,,,-6E-08,0.004435625
,,,-5E-08,0.004125625
,,,-4E-08,0.00451125
,,,-3E-08,0.004556875
,,,-2E-08,0.004068125
,,,-1E-08,0.003170625
,,,0,0.00407
,,,1E-08,0.00538875
,,,2E-08,0.00521
,,,3E-08,0.0050475
,,,4E-08,0.004090625
,,,5E-08,0.0037225
,,,6E-08,0.003534375
,,,7E-08,0.00404375
,,,8E-08,0.004618125
,,,9E-08,0.0046875
,,,1E-07,0.00476625
,,,1.1E-07,0.00436125
,,,1.2E-07,0.003824375
,,,1.3E-07,0.003943125
,,,1.4E-07,0.00406
,,,1.5E-07,0.004300625
,,,1.6E-07,0.00433375
,,,1.7E-07,0.00434
,,,1.8E-07,0.004318125
,,,1.9E-07,0.00411125
,,,2E-07,0.004146875
,,,2.1E-07,0.004215625
,,,2.2E-07,0.004146875
,,,2.3E-07,0.004305
,,,2.4E-07,0.00452625
,,,2.5E-07,0.00409625
,,,2.6E-07,0.004259375
,,,2.7E-07,0.00419
,,,2.8E-07,0.004274375
,,,2.9E-07,0.00417
,,,3E-07,0.003885625
,,,3.1E-07,0.004516875
,,,3.2E-07,0.00415375
,,,3.3E-07,0.004136875
,,,3.4E-07,0.00435875
,,,3.5E-07,0.00418125
,,,3.6E-07,0.00450125
,,,3.7E-07,0.0042825
,,,3.8E-07,0.00453375
,,,3.9E-07,0.00449125
,,,4E-07,0.00449875
,,,4.1E-07,0.00438875
,,,4.2E-07,0.00426875
,,,4.3E-07,0.00427125
,,,4.4E-07,0.00445
,,,4.5E-07,0.0044175
,,,4.6E-07,0.00421
,,,4.7E-07,0.004259375
,,,4.8E-07,0.004348125
,,,4.9E-07,0.004248125
,,,5E-07,0.00405
,,,5.1E-07,0.003978125
,,,5.2E-07,0.00425125
,,,5.3E-07,0.00431
,,,5.4E-07,0.004185625
,,,5.5E-07,0.0039
,,,5.6E-07,0.003950625
,,,5.7E-07,0.00443625
,,,5.8E-07,0.00422
,,,5.9E-07,0.004235
,,,6E-07,0.004565
,,,6.1E-07,0.004296875
,,,6.2E-07,0.004180625
,,,6.3E-07,0.004553125
,,,6.4E-07,0.004188125
,,,6.5E-07,0.004355
,,,6.6E-07,0.004318125
,,,6.7E-07,0.004276875
,,,6.8E-07,0.004068125
,,,6.9E-07,0.004469375
,,,7E-07,0.0043925
,,,7.1E-07,0.004310625
,,,7.2E-07,0.004245625
,,,7.3E-07,0.00411625
,,,7.4E-07,0.004155
,,,7.5E-07,0.004170625
,,,7.6E-07,0.004175625
,,,7.7E-07,0.00433625
,,,7.8E-07,0.00451375
,,,7.9E-07,0.00407375
,,,8E-07,0.00421625
,,,8.1E-07,0.0044325
,,,8.2E-07,0.0045
,,,8.3E-07,0.004033125
,,,8.4E-07,0.004300625
,,,8.5E-07,0.0044525
,,,8.6E-07,0.00440625
,,,8.7E-07,0.004339375
,,,8.8E-07,0.004073125
,,,8.9E-07,0.004261875
,,,9E-07,0.004265
,,,9.1E-07,0.004229375
,,,9.2E-07,0.004005625
,,,9.3E-07,0.004176875
,,,9.4E-07,0.004169375
,,,9.5E-07,0.004436875
,,,9.6E-07,0.004111875
,,,9.7E-07,0.004215625
,,,9.8E-07,0.004370625
,,,9.9E-07,0.004353125
,,,1E-06,0.00415
,,,1.01E-06,0.00436125
,,,1.02E-06,0.003969375
,,,1.03E-06,0.004273125
,,,1.04E-06,0.0040725
,,,1.05E-06,0.0040875
,,,1.06E-06,0.0040475
,,,1.07E-06,0.00446875
,,,1.08E-06,0.00438375
,,,1.09E-06,0.004095625
,,,1.1E-06,0.004465
,,,1.11E-06,0.004311875
,,,1.12E-06,0.004103125
,,,1.13E-06,0.004126875
,,,1.14E-06,0.004246875
,,,1.15E-06,0.004261875
,,,1.16E-06,0.004305625
,,,1.17E-06,0.00437625
,,,1.18E-06,0.004175
,,,1.19E-06,0.0040625
,,,1.2E-06,0.004366875
,,,1.21E-06,0.004179375
,,,1.22E-06,0.004215625
,,,1.23E-06,0.0040475
,,,1.24E-06,0.004283125
,,,1.25E-06,0.004318125
,,,1.26E-06,0.004453125
,,,1.27E-06,0.004405
,,,1.28E-06,0.0042775
,,,1.29E-06,0.004203125
,,,1.3E-06,0.0042925
,,,1.31E-06,0.00421125
,,,1.32E-06,0.004191875
,,,1.33E-06,0.0043125
,,,1.34E-06,0.004024375
,,,1.35E-06,0.004115
,,,1.36E-06,0.00432875
,,,1.37E-06,0.0043625
,,,1.38E-06,0.004241875
,,,1.39E-06,0.004165625
,,,1.4E-06,0.0043825
,,,1.41E-06,0.00429875
,,,1.42E-06,0.004138125
,,,1.43E-06,0.004286875
,,,1.44E-06,0.003921875
,,,1.45E-06,0.00419625
,,,1.46E-06,0.00414875
,,,1.47E-06,0.0043075
,,,1.48E-06,0.0043725
,,,1.49E-06,0.004146875
,,,1.5E-06,0.00429625
,,,1.51E-06,0.004236875
,,,1.52E-06,0.0042775
,,,1.53E-06,0.004405
,,,1.54E-06,0.00430875
,,,1.55E-06,0.004340625
,,,1.56E-06,0.004225
,,,1.57E-06,0.004085625
,,,1.58E-06,0.0043475
,,,1.59E-06,0.004303125
,,,1.6E-06,0.004365
,,,1.61E-06,0.004294375
,,,1.62E-06,0.004345625
,,,1.63E-06,0.00442125
,,,1.64E-06,0.00400625
,,,1.65E-06,0.004196875
,,,1.66E-06,0.00415
,,,1.67E-06,0.004320625
,,,1.68E-06,0.00408125
,,,1.69E-06,0.00421375
,,,1.7E-06,0.004433125
,,,1.71E-06,0.004154375
,,,1.72E-06,0.00441
,,,1.73E-06,0.0040125
,,,1.74E-06,0.004398125
,,,1.75E-06,0.004129375
,,,1.76E-06,0.00449875
,,,1.77E-06,0.004263125
,,,1.78E-06,0.00421875
,,,1.79E-06,0.0042525
,,,1.8E-06,0.004340625
,,,1.81E-06,0.004060625
,,,1.82E-06,0.00432625
,,,1.83E-06,0.0040775
,,,1.84E-06,0.004498125
,,,1.85E-06,0.004509375
,,,1.86E-06,0.004345
,,,1.87E-06,0.004334375
,,,1.88E-06,0.00420125
,,,1.89E-06,0.00449875
,,,1.9E-06,0.004045625
,,,1.91E-06,0.00415
,,,1.92E-06,0.004275625
,,,1.93E-06,0.00414125
,,,1.94E-06,0.004145625
,,,1.95E-06,0.00440375
,,,1.96E-06,0.004375625
,,,1.97E-06,0.004216875
,,,1.98E-06,0.004069375
,,,1.99E-06,0.00410875
,,,2E-06,0.00430875
,,,2.01E-06,0.0042325
,,,2.02E-06,0.004073125
,,,2.03E-06,0.00461625
,,,2.04E-06,0.004383125
,,,2.05E-06,0.004305
,,,2.06E-06,0.0040675
,,,2.07E-06,0.00433125
,,,2.08E-06,0.004305
,,,2.09E-06,0.004183125
,,,2.1E-06,0.004338125
,,,2.11E-06,0.004020625
,,,2.12E-06,0.004316875
,,,2.13E-06,0.004458125
,,,2.14E-06,0.00426125
,,,2.15E-06,0.00403375
,,,2.16E-06,0.004388125
,,,2.17E-06,0.004381875
,,,2.18E-06,0.004531875
,,,2.19E-06,0.00413375
,,,2.2E-06,0.00434875
,,,2.21E-06,0.004483125
,,,2.22E-06,0.004088125
,,,2.23E-06,0.004483125
,,,2.24E-06,0.004361875
,,,2.25E-06,0.00423
,,,2.26E-06,0.00426125
,,,2.27E-06,0.00424375
,,,2.28E-06,0.004290625
,,,2.29E-06,0.0040925
,,,2.3E-06,0.004419375
,,,2.31E-06,0.004308125
,,,2.32E-06,0.004
,,,2.33E-06,0.004249375
,,,2.34E-06,0.00416875
,,,2.35E-06,0.004273125
,,,2.36E-06,0.00447375
,,,2.37E-06,0.004316875
,,,2.38E-06,0.0043475
,,,2.39E-06,0.00436625
,,,2.4E-06,0.004463125
,,,2.41E-06,0.004193125
,,,2.42E-06,0.004063125
,,,2.43E-06,0.004315
,,,2.44E-06,0.00431
,,,2.45E-06,0.004299375
,,,2.46E-06,0.00412625
,,,2.47E-06,0.00431
,,,2.48E-06,0.004314375
,,,2.49E-06,0.004105
,,,2.5E-06,0.0041575
,,,2.51E-06,0.004115625
,,,2.52E-06,0.004288125
,,,2.53E-06,0.00420875
,,,2.54E-06,0.004200625
,,,2.55E-06,0.004369375
,,,2.56E-06,0.004284375
,,,2.57E-06,0.00434
,,,2.58E-06,0.004175625
,,,2.59E-06,0.0041125
,,,2.6E-06,0.004293125
,,,2.61E-06,0.00422875
,,,2.62E-06,0.004061875
,,,2.63E-06,0.004418125
,,,2.64E-06,0.003976875
,,,2.65E-06,0.004313125
,,,2.66E-06,0.004296875
,,,2.67E-06,0.00445375
,,,2.68E-06,0.0042675
,,,2.69E-06,0.004174375
,,,2.7E-06,0.00409125
,,,2.71E-06,0.00420875
,,,2.72E-06,0.00438125
,,,2.73E-06,0.0043725
,,,2.74E-06,0.004206875
,,,2.75E-06,0.00432375
,,,2.76E-06,0.00428125
,,,2.77E-06,0.004374375
,,,2.78E-06,0.004504375
,,,2.79E-06,0.004415
,,,2.8E-06,0.0043
,,,2.81E-06,0.004269375
,,,2.82E-06,0.004385
,,,2.83E-06,0.0042925
,,,2.84E-06,0.00425375
,,,2.85E-06,0.0041525
,,,2.86E-06,0.004359375
,,,2.87E-06,0.00424125
,,,2.88E-06,0.004219375
,,,2.89E-06,0.004164375
,,,2.9E-06,0.00429
,,,2.91E-06,0.004175625
,,,2.92E-06,0.0041725
,,,2.93E-06,0.004280625
,,,2.94E-06,0.0043325
,,,2.95E-06,0.004270625
,,,2.96E-06,0.004345625
,,,2.97E-06,0.004116875
,,,2.98E-06,0.004241875
,,,2.99E-06,0.004124375
,,,3E-06,0.00430125
,,,3.01E-06,0.00410625
,,,3.02E-06,0.004151875
,,,3.03E-06,0.004480625
,,,3.04E-06,0.00436
,,,3.05E-06,0.0041575
,,,3.06E-06,0.004148125
,,,3.07E-06,0.0042225
,,,3.08E-06,0.004259375
,,,3.09E-06,0.00442
,,,3.1E-06,0.0044125
,,,3.11E-06,0.0041975
,,,3.12E-06,0.00450625
,,,3.13E-06,0.004194375
,,,3.14E-06,0.0043025
,,,3.15E-06,0.004211875
,,,3.16E-06,0.004373125
,,,3.17E-06,0.004269375
,,,3.18E-06,0.0044175
,,,3.19E-06,0.004525
,,,3.2E-06,0.00436125
,,,3.21E-06,0.00409875
,,,3.22E-06,0.004373125
,,,3.23E-06,0.004310625
,,,3.24E-06,0.004271875
,,,3.25E-06,0.004286875
,,,3.26E-06,0.004161875
,,,3.27E-06,0.004203125
,,,3.28E-06,0.00409375
,,,3.29E-06,0.0041325
,,,3.3E-06,0.004441875
,,,3.31E-06,0.0042975
,,,3.32E-06,0.00424125
,,,3.33E-06,0.00433875
,,,3.34E-06,0.004245
,,,3.35E-06,0.004489375
,,,3.36E-06,0.004259375
,,,3.37E-06,0.004246875
,,,3.38E-06,0.0045025
,,,3.39E-06,0.00427125
,,,3.4E-06,0.00401125
,,,3.41E-06,0.0041375
,,,3.42E-06,0.003995625
,,,3.43E-06,0.004424375
,,,3.44E-06,0.0040925
,,,3.45E-06,0.00422375
,,,3.46E-06,0.00438875
,,,3.47E-06,0.0044875
,,,3.48E-06,0.004353125
,,,3.49E-06,0.004350625
,,,3.5E-06,0.004109375
,,,3.51E-06,0.004366875
,,,3.52E-06,0.004430625
,,,3.53E-06,0.0041325
,,,3.54E-06,0.0042725
,,,3.55E-06,0.0041125
,,,3.56E-06,0.004418125
,,,3.57E-06,0.004135625
,,,3.58E-06,0.00416375
,,,3.59E-06,0.003958125
