data/raw/Final_POL_Test_1/SOP036_Ch1.csv

"Record Length",1000,"Points",-5E-06,0.002419375
"Sample Interval",1E-08,s,-4.99E-06,0.002211875
"Trigger Point",500,"Samples",-4.98E-06,0.002200625
"Trigger Time",0,s,-4.97E-06,0.002583125
"",,,-4.96E-06,0.002375
"Horizontal Offset",-5E-06,s,-4.95E-06,0.002240625
,,,-4.94E-06,0.002251875
,,,-4.93E-06,0.002516875
,,,-4.92E-06,0.00228
,,,-4.91E-06,0.002305625
,,,-4.9E-06,0.002103125
,,,-4.89E-06,0.002149375
,,,-4.88E-06,0.0023875
,,,-4.87E-06,0.00221375
,,,-4.86E-06,0.00227875
,,,-4.85E-06,0.002105
,,,-4.84E-06,0.002119375
,,,-4.83E-06,0.00225375
,,,-4.82E-06,0.002263125
,,,-4.81E-06,0.002240625
,,,-4.8E-06,0.002254375
,,,-4.79E-06,0.002549375
,,,-4.78E-06,0.002349375
,,,-4.77E-06,0.002495625
,,,-4.76E-06,0.002298125
,,,-4.75E-06,0.00231625
,,,-4.74E-06,0.002213125
,,,-4.73E-06,0.002394375
,,,-4.72E-06,0.00213625
,,,-4.71E-06,0.00242
,,,-4.7E-06,0.0023675
,,,-4.69E-06,0.00233625
,,,-4.68E-06,0.0021675
,,,-4.67E-06,0.002425
,,,-4.66E-06,0.00220625
,,,-4.65E-06,0.00199875
,,,-4.64E-06,0.00256
,,,-4.63E-06,0.00225
,,,-4.62E-06,0.002173125
,,,-4.61E-06,0.002196875
,,,-4.6E-06,0.002399375
,,,-4.59E-06,0.002275625
,,,-4.58E-06,0.002361875
,,,-4.57E-06,0.002266875
,,,-4.56E-06,0.002476875
,,,-4.55E-06,0.002455625
,,,-4.54E-06,0.00231125
,,,-4.53E-06,0.00227
,,,-4.52E-06,0.002438125
,,,-4.51E-06,0.002315625
,,,-4.5E-06,0.00225125
,,,-4.49E-06,0.0025625
,,,-4.48E-06,0.0023575
,,,-4.47E-06,0.00236375
,,,-4.46E-06,0.00229875
,,,-4.45E-06,0.00232625
,,,-4.44E-06,0.002196875
,,,-4.43E-06,0.002321875
,,,-4.42E-06,0.0024425
,,,-4.41E-06,0.002176875
,,,-4.4E-06,0.00229875
,,,-4.39E-06,0.00222625
,,,-4.38E-06,0.002225625
,,,-4.37E-06,0.00208375
,,,-4.36E-06,0.00240875
,,,-4.35E-06,0.002358125
,,,-4.34E-06,0.001984375
,,,-4.33E-06,0.002283125
,,,-4.32E-06,0.002341875
,,,-4.31E-06,0.002275625
,,,-4.3E-06,0.0022825
,,,-4.29E-06,0.002123125
,,,-4.28E-06,0.0022775
,,,-4.27E-06,0.00235125
,,,-4.26E-06,0.002265625
,,,-4.25E-06,0.002134375
,,,-4.24E-06,0.002119375
,,,-4.23E-06,0.00237875
,,,-4.22E-06,0.00245875
,,,-4.21E-06,0.002125
,,,-4.2E-06,0.00215
,,,-4.19E-06,0.00227
,,,-4.18E-06,0.00232875
,,,-4.17E-06,0.002305625
,,,-4.16E-06,0.00236375
,,,-4.15E-06,0.002150625
,,,-4.14E-06,0.002356875
,,,-4.13E-06,0.00225
,,,-4.12E-06,0.002299375
,,,-4.11E-06,0.002355625
,,,-4.1E-06,0.002066875
,,,-4.09E-06,0.002285
,,,-4.08E-06,0.0022425
,,,-4.07E-06,0.002318125
,,,-4.06E-06,0.002116875
,,,-4.05E-06,0.00227125
,,,-4.04E-06,0.002129375
,,,-4.03E-06,0.00214875
,,,-4.02E-06,0.001948125
,,,-4.01E-06,0.002365625
,,,-4E-06,0.002274375
,,,-3.99E-06,0.0024325
,,,-3.98E-06,0.00231
,,,-3.97E-06,0.002358125
,,,-3.96E-06,0.0021275
,,,-3.95E-06,0.002396875
,,,-3.94E-06,0.0024125
,,,-3.93E-06,0.00245
,,,-3.92E-06,0.00239125
,,,-3.91E-06,0.002241875
,,,-3.9E-06,0.002388125
,,,-3.89E-06,0.002701875
,,,-3.88E-06,0.002124375
,,,-3.87E-06,0.00246
,,,-3.86E-06,0.00231
,,,-3.85E-06,0.002308125
,,,-3.84E-06,0.0021325
,,,-3.83E-06,0.0024175
,,,-3.82E-06,0.002369375
,,,-3.81E-06,0.002151875
,,,-3.8E-06,0.002276875
,,,-3.79E-06,0.002084375
,,,-3.78E-06,0.002494375
,,,-3.77E-06,0.002215625
,,,-3.76E-06,0.002131875
,,,-3.75E-06,0.0020625
,,,-3.74E-06,0.002265
,,,-3.73E-06,0.00224125
,,,-3.72E-06,0.0022775
,,,-3.71E-06,0.00242125
,,,-3.7E-06,0.002296875
,,,-3.69E-06,0.002070625
,,,-3.68E-06,0.002283125
,,,-3.67E-06,0.002191875
,,,-3.66E-06,0.002346875
,,,-3.65E-06,0.002404375
,,,-3.64E-06,0.00225
,,,-3.63E-06,0.002319375
,,,-3.62E-06,0.00233375
,,,-3.61E-06,0.002459375
,,,-3.6E-06,0.00229125
,,,-3.59E-06,0.002153125
,,,-3.58E-06,0.00202125
,,,-3.57E-06,0.002329375
,,,-3.56E-06,0.00232
,,,-3.55E-06,0.00251625
,,,-3.54E-06,0.00217875
,,,-3.53E-06,0.00242375
,,,-3.52E-06,0.002215625
,,,-3.51E-06,0.002346875
,,,-3.5E-06,0.0023175
,,,-3.49E-06,0.00218
,,,-3.48E-06,0.0022325
,,,-3.47E-06,0.002278125
,,,-3.46E-06,0.002184375
,,,-3.45E-06,0.00228375
,,,-3.44E-06,0.002209375
,,,-3.43E-06,0.002078125
,,,-3.42E-06,0.00221375
,,,-3.41E-06,0.002115625
,,,-3.4E-06,0.0024425
,,,-3.39E-06,0.0022925
,,,-3.38E-06,0.002074375
,,,-3.37E-06,0.00234375
,,,-3.36E-06,0.002359375
,,,-3.35E-06,0.002415
,,,-3.34E-06,0.00241625
,,,-3.33E-06,0.002314375
,,,-3.32E-06,0.0021975
,,,-3.31E-06,0.002254375
,,,-3.3E-06,0.002015625
,,,-3.29E-06,0.002465625
,,,-3.28E-06,0.002299375
,,,-3.27E-06,0.00249375
,,,-3.26E-06,0.002289375
,,,-3.25E-06,0.002184375
,,,-3.24E-06,0.00221
,,,-3.23E-06,0.00238625
,,,-3.22E-06,0.0021925
,,,-3.21E-06,0.00227875
,,,-3.2E-06,0.00241125
,,,-3.19E-06,0.002180625
,,,-3.18E-06,0.002314375
,,,-3.17E-06,0.002219375
,,,-3.16E-06,0.00229875
,,,-3.15E-06,0.00220625
,,,-3.14E-06,0.00239875
,,,-3.13E-06,0.00248
,,,-3.12E-06,0.002279375
,,,-3.11E-06,0.002166875
,,,-3.1E-06,0.002298125
,,,-3.09E-06,0.002255
,,,-3.08E-06,0.00222125
,,,-3.07E-06,0.002231875
,,,-3.06E-06,0.00233875
,,,-3.05E-06,0.002243125
,,,-3.04E-06,0.002425
,,,-3.03E-06,0.002306875
,,,-3.02E-06,0.002398125
,,,-3.01E-06,0.0022025
,,,-3E-06,0.002301875
,,,-2.99E-06,0.00212
,,,-2.98E-06,0.0023725
,,,-2.97E-06,0.002186875
,,,-2.96E-06,0.002189375
,,,-2.95E-06,0.002219375
,,,-2.94E-06,0.002429375
,,,-2.93E-06,0.00243125
,,,-2.92E-06,0.002339375
,,,-2.91E-06,0.002238125
,,,-2.9E-06,0.00223125
,,,-2.89E-06,0.002048125
,,,-2.88E-06,0.00241875
,,,-2.87E-06,0.00231125
,,,-2.86E-06,0.00213
,,,-2.85E-06,0.002259375
,,,-2.84E-06,0.00211
,,,-2.83E-06,0.002250625
,,,-2.82E-06,0.002500625
,,,-2.81E-06,0.002173125
,,,-2.8E-06,0.002386875
,,,-2.79E-06,0.002193125
,,,-2.78E-06,0.002375
,,,-2.77E-06,0.002374375
,,,-2.76E-06,0.00234125
,,,-2.75E-06,0.002356875
,,,-2.74E-06,0.002275625
,,,-2.73E-06,0.002606875
,,,-2.72E-06,0.002335
,,,-2.71E-06,0.00211
,,,-2.7E-06,0.0022725
,,,-2.69E-06,0.002344375
,,,-2.68E-06,0.002545625
,,,-2.67E-06,0.002211875
,,,-2.66E-06,0.00239
,,,-2.65E-06,0.002374375
,,,-2.64E-06,0.002486875
,,,-2.63E-06,0.0022925
,,,-2.62E-06,0.002020625
,,,-2.61E-06,0.002120625
,,,-2.6E-06,0.00242375
,,,-2.59E-06,0.002035625
,,,-2.58E-06,0.00263
,,,-2.57E-06,0.002383125
,,,-2.56E-06,0.0020525
,,,-2.55E-06,0.002456875
,,,-2.54E-06,0.002221875
,,,-2.53E-06,0.002438125
,,,-2.52E-06,0.002191875
,,,-2.51E-06,0.002258125
,,,-2.5E-06,0.00243625
,,,-2.49E-06,0.002070625
,,,-2.48E-06,0.002414375
,,,-2.47E-06,0.00225125
,,,-2.46E-06,0.00232375
,,,-2.45E-06,0.002129375
,,,-2.44E-06,0.0023025
,,,-2.43E-06,0.002109375
,,,-2.42E-06,0.002125625
,,,-2.41E-06,0.002221875
,,,-2.4E-06,0.00223375
,,,-2.39E-06,0.002151875
,,,-2.38E-06,0.00249
,,,-2.37E-06,0.002385
,,,-2.36E-06,0.00232875
,,,-2.35E-06,0.002226875
,,,-2.34E-06,0.00239
,,,-2.33E-06,0.002385625
,,,-2.32E-06,0.002475
,,,-2.31E-06,0.002324375
,,,-2.3E-06,0.0023375
,,,-2.29E-06,0.002086875
,,,-2.28E-06,0.002213125
,,,-2.27E-06,0.002368125
,,,-2.26E-06,0.00247125
,,,-2.25E-06,0.002290625
,,,-2.24E-06,0.00215125
,,,-2.23E-06,0.002136875
,,,-2.22E-06,0.0023775
,,,-2.21E-06,0.00225125
,,,-2.2E-06,0.002249375
,,,-2.19E-06,0.00244875
,,,-2.18E-06,0.0023625
,,,-2.17E-06,0.00233625
,,,-2.16E-06,0.0022775
,,,-2.15E-06,0.002344375
,,,-2.14E-06,0.002129375
,,,-2.13E-06,0.002256875
,,,-2.12E-06,0.002089375
,,,-2.11E-06,0.002115625
,,,-2.1E-06,0.002340625
,,,-2.09E-06,0.002414375
,,,-2.08E-06,0.002321875
,,,-2.07E-06,0.00236
,,,-2.06E-06,0.002556875
,,,-2.05E-06,0.002588125
,,,-2.04E-06,0.0023725
,,,-2.03E-06,0.0026025
,,,-2.02E-06,0.002233125
,,,-2.01E-06,0.002365
,,,-2E-06,0.002341875
,,,-1.99E-06,0.002240625
,,,-1.98E-06,0.002099375
,,,-1.97E-06,0.002185625
,,,-1.96E-06,0.002286875
,,,-1.95E-06,0.002300625
,,,-1.94E-06,0.0022575
,,,-1.93E-06,0.00247
,,,-1.92E-06,0.0021925
,,,-1.91E-06,0.002443125
,,,-1.9E-06,0.002261875
,,,-1.89E-06,0.00225
,,,-1.88E-06,0.002220625
,,,-1.87E-06,0.002418125
,,,-1.86E-06,0.002251875
,,,-1.85E-06,0.0023725
,,,-1.84E-06,0.002085625
,,,-1.83E-06,0.002271875
,,,-1.82E-06,0.002433125
,,,-1.81E-06,0.0024075
,,,-1.8E-06,0.002504375
,,,-1.79E-06,0.002294375
,,,-1.78E-06,0.002258125
,,,-1.77E-06,0.002319375
,,,-1.76E-06,0.002080625
,,,-1.75E-06,0.0022075
,,,-1.74E-06,0.0024325
,,,-1.73E-06,0.002015625
,,,-1.72E-06,0.002535625
,,,-1.71E-06,0.00235
,,,-1.7E-06,0.002270625
,,,-1.69E-06,0.002298125
,,,-1.68E-06,0.00205375
,,,-1.67E-06,0.002261875
,,,-1.66E-06,0.002254375
,,,-1.65E-06,0.002183125
,,,-1.64E-06,0.00217
,,,-1.63E-06,0.002379375
,,,-1.62E-06,0.00223375
,,,-1.61E-06,0.00237125
,,,-1.6E-06,0.002106875
,,,-1.59E-06,0.002144375
,,,-1.58E-06,0.0022375
,,,-1.57E-06,0.00232875
,,,-1.56E-06,0.00238
,,,-1.55E-06,0.002501875
,,,-1.54E-06,0.002345625
,,,-1.53E-06,0.002213125
,,,-1.52E-06,0.00232125
,,,-1.51E-06,0.002260625
,,,-1.5E-06,0.0023725
,,,-1.49E-06,0.00242375
,,,-1.48E-06,0.002313125
,,,-1.47E-06,0.002426875
,,,-1.46E-06,0.00232625
,,,-1.45E-06,0.00251875
,,,-1.44E-06,0.00213
,,,-1.43E-06,0.00230125
,,,-1.42E-06,0.002274375
,,,-1.41E-06,0.00242
,,,-1.4E-06,0.002056875
,,,-1.39E-06,0.00225375
,,,-1.38E-06,0.00228375
,,,-1.37E-06,0.0023
,,,-1.36E-06,0.002329375
,,,-1.35E-06,0.002424375
,,,-1.34E-06,0.0022225
,,,-1.33E-06,0.00231
,,,-1.32E-06,0.00236375
,,,-1.31E-06,0.00234125
,,,-1.3E-06,0.0020325
,,,-1.29E-06,0.0020825
,,,-1.28E-06,0.0024575
,,,-1.27E-06,0.002276875
,,,-1.26E-06,0.002251875
,,,-1.25E-06,0.00237375
,,,-1.24E-06,0.0023425
,,,-1.23E-06,0.00238375
,,,-1.22E-06,0.00245375
,,,-1.21E-06,0.00241375
,,,-1.2E-06,0.002099375
,,,-1.19E-06,0.002034375
,,,-1.18E-06,0.002310625
,,,-1.17E-06,0.00236
,,,-1.16E-06,0.00256
,,,-1.15E-06,0.0024225
,,,-1.14E-06,0.002394375
,,,-1.13E-06,0.002281875
,,,-1.12E-06,0.00236375
,,,-1.11E-06,0.00207875
,,,-1.1E-06,0.002371875
,,,-1.09E-06,0.00217125
,,,-1.08E-06,0.002221875
,,,-1.07E-06,0.00236
,,,-1.06E-06,0.00235
,,,-1.05E-06,0.002411875
,,,-1.04E-06,0.002195
,,,-1.03E-06,0.00234875
,,,-1.02E-06,0.002284375
,,,-1.01E-06,0.002556875
,,,-1E-06,0.002180625
,,,-9.9E-07,0.002491875
,,,-9.8E-07,0.00240125
,,,-9.7E-07,0.002249375
,,,-9.6E-07,0.002381875
,,,-9.5E-07,0.002211875
,,,-9.4E-07,0.00240875
,,,-9.3E-07,0.002246875
,,,-9.2E-07,0.00231
,,,-9.1E-07,0.00254875
,,,-9E-07,0.00205625
,,,-8.9E-07,0.002315625
,,,-8.8E-07,0.002388125
,,,-8.7E-07,0.0022375
,,,-8.6E-07,0.002234375
,,,-8.5E-07,0.00219375
,,,-8.4E-07,0.00247125
,,,-8.3E-07,0.002485625
,,,-8.2E-07,0.00231375
,,,-8.1E-07,0.002448125
,,,-8E-07,0.00245625
,,,-7.9E-07,0.0021675
,,,-7.8E-07,0.00227875
,,,-7.7E-07,0.00251375
,,,-7.6E-07,0.0023225
,,,-7.5E-07,0.0024275
,,,-7.4E-07,0.002379375
,,,-7.3E-07,0.002493125
,,,-7.2E-07,0.002414375
,,,-7.1E-07,0.002371875
,,,-7E-07,0.002175625
,,,-6.9E-07,0.002318125
,,,-6.8E-07,0.002626875
,,,-6.7E-07,0.00239
,,,-6.6E-07,0.0025125
,,,-6.5E-07,0.0023675
,,,-6.4E-07,0.00234375
,,,-6.3E-07,0.00219875
,,,-6.2E-07,0.0024825
,,,-6.1E-07,0.00239875
,,,-6E-07,0.00236625
,,,-5.9E-07,0.0019425
,,,-5.8E-07,0.002318125
,,,-5.7E-07,0.00237125
,,,-5.6E-07,0.00238125
,,,-5.5E-07,0.00235125
,,,-5.4E-07,0.0022
,,,-5.3E-07,0.0025175
,,,-5.2E-07,0.002469375
,,,-5.1E-07,0.0025275
,,,-5E-07,0.00215125
,,,-4.9E-07,0.00237125
,,,-4.8E-07,0.00251125
,,,-4.7E-07,0.002530625
,,,-4.6E-07,0.002118125
,,,-4.5E-07,0.0024475
,,,-4.4E-07,0.002300625
,,,-4.3E-07,0.002166875
,,,-4.2E-07,0.0023025
,,,-4.1E-07,0.00232
,,,-4E-07,0.002136875
,,,-3.9E-07,0.002393125
,,,-3.8E-07,0.002286875
,,,-3.7E-07,0.002349375
,,,-3.6E-07,0.002065
,,,-3.5E-07,0.00199375
,,,-3.4E-07,0.00236125
,,,-3.3E-07,0.00253375
,,,-3.2E-07,0.002330625
,,,-3.1E-07,0.0021025
,,,-3E-07,0.002325625
,,,-2.9E-07,0.002349375
,,,-2.8E-07,0.002263125
,,,-2.7E-07,0.002373125
,,,-2.6E-07,0.00247125
,,,-2.5E-07,0.002326875
,,,-2.4E-07,0.002415625
,,,-2.3E-07,0.002529375
,,,-2.2E-07,0.002233125
,,,-2.1E-07,0.002276875
,,,-2E-07,0.002038125
,,,-1.9E-07,0.00196625
,,,-1.8E-07,0.002320625
,,,-1.7E-07,0.00240125
,,,-1.6E-07,0.002221875
,,,-1.5E-07,0.002360625
,,,-1.4E-07,0.002311875
,,,-1.3E-07,0.002244375
,,,-1.2E-07,0.002189375
,,,-1.1E-07,0.002354375
,,,-1E-07,0.002229375
,,,-9E-08,0.002170625
,,,-8E-08,0.002378125
,,,-7E-08,0.00234
,,,-6E-08,0.002548125
,,,-5E-08,0.002145625
,,,-4E-08,0.00210875
,,,-3E-08,0.00167625
,,,-2E-08,0.002585625
,,,-1E-08,0.002808125
,,,0,0.0030075
,,,1E-08,0.002626875
,,,2E-08,0.001763125
,,,3E-08,0.001743125
,,,4E-08,0.00183
,,,5E-08,0.002394375
,,,6E-08,0.00273625
,,,7E-08,0.00280625
,,,8E-08,0.002370625
,,,9E-08,0.00207875
,,,1E-07,0.00181
,,,1.1E-07,0.002319375
,,,1.2E-07,0.002585625
,,,1.3E-07,0.00254875
,,,1.4E-07,0.0023775
,,,1.5E-07,0.002418125
,,,1.6E-07,0.002458125
,,,1.7E-07,0.002395
,,,1.8E-07,0.0021175
,,,1.9E-07,0.002154375
,,,2E-07,0.0020875
,,,2.1E-07,0.00216875
,,,2.2E-07,0.00258125
,,,2.3E-07,0.002386875
,,,2.4E-07,0.002535
,,,2.5E-07,0.002145625
,,,2.6E-07,0.002051875
,,,2.7E-07,0.002430625
,,,2.8E-07,0.002515
,,,2.9E-07,0.002591875
,,,3E-07,0.002055625
,,,3.1E-07,0.00233875
,,,3.2E-07,0.00216375
,,,3.3E-07,0.001989375
,,,3.4E-07,0.002379375
,,,3.5E-07,0.00231
,,,3.6E-07,0.002394375
,,,3.7E-07,0.002164375
,,,3.8E-07,0.0023375
,,,3.9E-07,0.002488125
,,,4E-07,0.002454375
,,,4.1E-07,0.002318125
,,,4.2E-07,0.002255
,,,4.3E-07,0.00228625
,,,4.4E-07,0.0021725
,,,4.5E-07,0.002245625
,,,4.6E-07,0.0024575
,,,4.7E-07,0.002205
,,,4.8E-07,0.002468125
,,,4.9E-07,0.002280625
,,,5E-07,0.002335
,,,5.1E-07,0.00261
,,,5.2E-07,0.00238375
,,,5.3E-07,0.00200875
,,,5.4E-07,0.002285625
,,,5.5E-07,0.002351875
,,,5.6E-07,0.002515
,,,5.7E-07,0.002299375
,,,5.8E-07,0.002180625
,,,5.9E-07,0.00238
,,,6E-07,0.002285625
,,,6.1E-07,0.002325625
,,,6.2E-07,0.002093125
,,,6.3E-07,0.00211625
,,,6.4E-07,0.002483125
,,,6.5E-07,0.00260625
,,,6.6E-07,0.00232625
,,,6.7E-07,0.002478125
,,,6.8E-07,0.00219
,,,6.9E-07,0.002346875
,,,7E-07,0.00218125
,,,7.1E-07,0.00217375
,,,7.2E-07,0.002283125
,,,7.3E-07,0.00233875
,,,7.4E-07,0.00233
,,,7.5E-07,0.002423125
,,,7.6E-07,0.0022425
,,,7.7E-07,0.0024125
,,,7.8E-07,0.002294375
,,,7.9E-07,0.002165
,,,8E-07,0.002275625
,,,8.1E-07,0.002113125
,,,8.2E-07,0.00241
,,,8.3E-07,0.002266875
,,,8.4E-07,0.002471875
,,,8.5E-07,0.002244375
,,,8.6E-07,0.00220875
,,,8.7E-07,0.00200125
,,,8.8E-07,0.002179375
,,,8.9E-07,0.00221375
,,,9E-07,0.00254625
,,,9.1E-07,0.001995
,,,9.2E-07,0.0022825
,,,9.3E-07,0.002471875
,,,9.4E-07,0.00241375
,,,9.5E-07,0.002325
,,,9.6E-07,0.002155
,,,9.7E-07,0.0022525
,,,9.8E-07,0.002198125
,,,9.9E-07,0.002120625
,,,1E-06,0.00217375
,,,1.01E-06,0.002386875
,,,1.02E-06,0.002509375
,,,1.03E-06,0.001905625
,,,1.04E-06,0.002193125
,,,1.05E-06,0.002455
,,,1.06E-06,0.002261875
,,,1.07E-06,0.0023325
,,,1.08E-06,0.00244375
,,,1.09E-06,0.002139375
,,,1.1E-06,0.002543125
,,,1.11E-06,0.002311875
,,,1.12E-06,0.002215625
,,,1.13E-06,0.002320625
,,,1.14E-06,0.002254375
,,,1.15E-06,0.002129375
,,,1.16E-06,0.00263625
,,,1.17E-06,0.002325625
,,,1.18E-06,0.00229125
,,,1.19E-06,0.0022475
,,,1.2E-06,0.002169375
,,,1.21E-06,0.00212375
,,,1.22E-06,0.00237875
,,,1.23E-06,0.002330625
,,,1.24E-06,0.002489375
,,,1.25E-06,0.001998125
,,,1.26E-06,0.002085625
,,,1.27E-06,0.002221875
,,,1.28E-06,0.002280625
,,,1.29E-06,0.00237375
,,,1.3E-06,0.00223875
,,,1.31E-06,0.00215
,,,1.32E-06,0.00238375
,,,1.33E-06,0.002475
,,,1.34E-06,0.00231375
,,,1.35E-06,0.002339375
,,,1.36E-06,0.002361875
,,,1.37E-06,0.00232
,,,1.38E-06,0.0023425
,,,1.39E-06,0.0022
,,,1.4E-06,0.00245
,,,1.41E-06,0.0022375
,,,1.42E-06,0.0023125
,,,1.43E-06,0.002375625
,,,1.44E-06,0.00245625
,,,1.45E-06,0.002348125
,,,1.46E-06,0.00233625
,,,1.47E-06,0.00229875
,,,1.48E-06,0.002415
,,,1.49E-06,0.002148125
,,,1.5E-06,0.002231875
,,,1.51E-06,0.002143125
,,,1.52E-06,0.00221625
,,,1.53E-06,0.002141875
,,,1.54E-06,0.00226875
,,,1.55E-06,0.002288125
,,,1.56E-06,0.002236875
,,,1.57E-06,0.00244
,,,1.58E-06,0.002358125
,,,1.59E-06,0.002264375
,,,1.6E-06,0.0022725
,,,1.61E-06,0.002408125
,,,1.62E-06,0.002073125
,,,1.63E-06,0.0021375
,,,1.64E-06,0.00232375
,,,1.65E-06,0.002563125
,,,1.66E-06,0.002435
,,,1.67E-06,0.001944375
,,,1.68E-06,0.002163125
,,,1.69E-06,0.00215625
,,,1.7E-06,0.002335
,,,1.71E-06,0.0023075
,,,1.72E-06,0.002369375
,,,1.73E-06,0.00232
,,,1.74E-06,0.0021825
,,,1.75E-06,0.00215
,,,1.76E-06,0.00241
,,,1.77E-06,0.002380625
,,,1.78E-06,0.002330625
,,,1.79E-06,0.0019925
,,,1.8E-06,0.002354375
,,,1.81E-06,0.002345
,,,1.82E-06,0.002239375
,,,1.83E-06,0.0021425
,,,1.84E-06,0.00229125
,,,1.85E-06,0.00225625
,,,1.86E-06,0.0020775
,,,1.87E-06,0.00251375
,,,1.88E-06,0.002376875
,,,1.89E-06,0.00219
,,,1.9E-06,0.00203
,,,1.91E-06,0.002466875
,,,1.92E-06,0.001921875
,,,1.93E-06,0.002344375
,,,1.94E-06,0.002383125
,,,1.95E-06,0.002501875
,,,1.96E-06,0.002186875
,,,1.97E-06,0.0022675
,,,1.98E-06,0.002303125
,,,1.99E-06,0.002338125
,,,2E-06,0.002134375
,,,2.01E-06,0.002215625
,,,2.02E-06,0.002321875
,,,2.03E-06,0.002370625
,,,2.04E-06,0.002205625
,,,2.05E-06,0.00230375
,,,2.06E-06,0.002391875
,,,2.07E-06,0.002335625
,,,2.08E-06,0.002199375
,,,2.09E-06,0.00195375
,,,2.1E-06,0.002354375
,,,2.11E-06,0.00225375
,,,2.12E-06,0.00232375
,,,2.13E-06,0.002276875
,,,2.14E-06,0.00255125
,,,2.15E-06,0.002358125
,,,2.16E-06,0.002235625
,,,2.17E-06,0.00228375
,,,2.18E-06,0.0023025
,,,2.19E-06,0.00236375
,,,2.2E-06,0.00223375
,,,2.21E-06,0.002554375
,,,2.22E-06,0.002328125
,,,2.23E-06,0.00225625
,,,2.24E-06,0.00206
,,,2.25E-06,0.00215875
,,,2.26E-06,0.00218125
,,,2.27E-06,0.002235
,,,2.28E-06,0.002311875
,,,2.29E-06,0.00236875
,,,2.3E-06,0.002140625
,,,2.31E-06,0.002488125
,,,2.32E-06,0.002195
,,,2.33E-06,0.00219
,,,2.34E-06,0.002365
,,,2.35E-06,0.0025825
,,,2.36E-06,0.00236375
,,,2.37E-06,0.002164375
,,,2.38E-06,0.002304375
,,,2.39E-06,0.00248
,,,2.4E-06,0.002645625
,,,2.41E-06,0.0022625
,,,2.42E-06,0.0023975
,,,2.43E-06,0.002275
,,,2.44E-06,0.002229375
,,,2.45E-06,0.00226375
,,,2.46E-06,0.002191875
,,,2.47E-06,0.00259125
,,,2.48E-06,0.002195
,,,2.49E-06,0.00229875
,,,2.5E-06,0.002490625
,,,2.51E-06,0.002439375
,,,2.52E-06,0.002085625
,,,2.53E-06,0.00236125
,,,2.54E-06,0.00221875
,,,2.55E-06,0.00229125
,,,2.56E-06,0.0022025
,,,2.57E-06,0.002384375
,,,2.58E-06,0.002391875
,,,2.59E-06,0.002386875
,,,2.6E-06,0.002153125
,,,2.61E-06,0.002028125
,,,2.62E-06,0.002654375
,,,2.63E-06,0.002433125
,,,2.64E-06,0.0023725
,,,2.65E-06,0.0022375
,,,2.66E-06,0.002335625
,,,2.67E-06,0.002358125
,,,2.68E-06,0.00232375
,,,2.69E-06,0.0023075
,,,2.7E-06,0.00228375
,,,2.71E-06,0.00216875
,,,2.72E-06,0.002179375
,,,2.73E-06,0.002465625
,,,2.74E-06,0.0023375
,,,2.75E-06,0.0023625
,,,2.76E-06,0.002205625
,,,2.77E-06,0.002338125
,,,2.78E-06,0.002421875
,,,2.79E-06,0.002615625
,,,2.8E-06,0.00214625
,,,2.81E-06,0.00246
,,,2.82E-06,0.002190625
,,,2.83E-06,0.002428125
,,,2.84E-06,0.002336875
,,,2.85E-06,0.002281875
,,,2.86E-06,0.002236875
,,,2.87E-06,0.00237375
,,,2.88E-06,0.002243125
,,,2.89E-06,0.002436875
,,,2.9E-06,0.0024625
,,,2.91E-06,0.00214
,,,2.92E-06,0.002220625
,,,2.93E-06,0.00215
,,,2.94E-06,0.002235625
,,,2.95E-06,0.0023375
,,,2.96E-06,0.002510625
,,,2.97E-06,0.00236875
,,,2.98E-06,0.002360625
,,,2.99E-06,0.002334375
,,,3E-06,0.00228875
,,,3.01E-06,0.00212375
,,,3.02E-06,0.002069375
,,,3.03E-06,0.002374375
,,,3.04E-06,0.0023875
,,,3.05E-06,0.0023275
,,,3.06E-06,0.002223125
,,,3.07E-06,0.0024225
,,,3.08E-06,0.002365
,,,3.09E-06,0.002390625
,,,3.1E-06,0.002306875
,,,3.11E-06,0.002174375
,,,3.12E-06,0.002420625
,,,3.13E-06,0.00212875
,,,3.14E-06,0.00237125
,,,3.15E-06,0.00222375
,,,3.16E-06,0.0023475
,,,3.17E-06,0.002483125
,,,3.18E-06,0.002514375
,,,3.19E-06,0.0024675
,,,3.2E-06,0.00246875
,,,3.21E-06,0.002114375
,,,3.22E-06,0.00241125
,,,3.23E-06,0.002263125
,,,3.24E-06,0.0022575
,,,3.25E-06,0.0024725
,,,3.26E-06,0.00246375
,,,3.27E-06,0.00238875
,,,3.28E-06,0.002406875
,,,3.29E-06,0.002218125
,,,3.3E-06,0.00213625
,,,3.31E-06,0.002226875
,,,3.32E-06,0.002190625
,,,3.33E-06,0.00213875
,,,3.34E-06,0.00216875
,,,3.35E-06,0.00224625
,,,3.36E-06,0.00233875
,,,3.37E-06,0.00224625
,,,3.38E-06,0.002406875
,,,3.39E-06,0.00248875
,,,3.4E-06,0.0021625
,,,3.41E-06,0.002128125
,,,3.42E-06,0.002334375
,,,3.43E-06,0.002420625
,,,3.44E-06,0.00203625
,,,3.45E-06,0.00222625
,,,3.46E-06,0.002261875
,,,3.47E-06,0.00226375
,,,3.48E-06,0.00217125
,,,3.49E-06,0.0024075
,,,3.5E-06,0.00204
,,,3.51E-06,0.0023075
,,,3.52E-06,0.002269375
,,,3.53E-06,0.002389375
,,,3.54E-06,0.002591875
,,,3.55E-06,0.00230125
