data/raw/Final_POL_Test_1/SOP088_Ch3.csv

"Record Length",1000,"Points",-5E-06,0.017597501
"Sample Interval",1E-08,s,-4.99E-06,0.017557501
"Trigger Point",500,"Samples",-4.98E-06,0.017655001
"Trigger Time",0,s,-4.97E-06,0.017748751
"",,,-4.96E-06,0.017514376
"Horizontal Offset",-5E-06,s,-4.95E-06,0.017647501
,,,-4.94E-06,0.017661876
,,,-4.93E-06,0.017695626
,,,-4.92E-06,0.017656251
,,,-4.91E-06,0.017566876
,,,-4.9E-06,0.017698126
,,,-4.89E-06,0.017701876
,,,-4.88E-06,0.017630626
,,,-4.87E-06,0.017464376
,,,-4.86E-06,0.017436251
,,,-4.85E-06,0.017574376
,,,-4.84E-06,0.017411876
,,,-4.83E-06,0.017644376
,,,-4.82E-06,0.017560626
,,,-4.81E-06,0.017836251
,,,-4.8E-06,0.017721251
,,,-4.79E-06,0.017585626
,,,-4.78E-06,0.017668126
,,,-4.77E-06,0.017785626
,,,-4.76E-06,0.017615001
,,,-4.75E-06,0.017824376
,,,-4.74E-06,0.017696251
,,,-4.73E-06,0.017671876
,,,-4.72E-06,0.017688126
,,,-4.71E-06,0.017710001
,,,-4.7E-06,0.017591876
,,,-4.69E-06,0.017624376
,,,-4.68E-06,0.017536251
,,,-4.67E-06,0.017380001
,,,-4.66E-06,0.017630001
,,,-4.65E-06,0.017906251
,,,-4.64E-06,0.017555626
,,,-4.63E-06,0.017448751
,,,-4.62E-06,0.017535626
,,,-4.61E-06,0.017715001
,,,-4.6E-06,0.017400001
,,,-4.59E-06,0.017556876
,,,-4.58E-06,0.017618126
,,,-4.57E-06,0.017562501
,,,-4.56E-06,0.017548126
,,,-4.55E-06,0.017608126
,,,-4.54E-06,0.017506876
,,,-4.53E-06,0.017718751
,,,-4.52E-06,0.017570626
,,,-4.51E-06,0.017606251
,,,-4.5E-06,0.017777501
,,,-4.49E-06,0.017534376
,,,-4.48E-06,0.017665626
,,,-4.47E-06,0.017550626
,,,-4.46E-06,0.017504376
,,,-4.45E-06,0.017540626
,,,-4.44E-06,0.017759376
,,,-4.43E-06,0.017678126
,,,-4.42E-06,0.017383751
,,,-4.41E-06,0.017583751
,,,-4.4E-06,0.017605001
,,,-4.39E-06,0.017826876
,,,-4.38E-06,0.017490626
,,,-4.37E-06,0.017783126
,,,-4.36E-06,0.017816876
,,,-4.35E-06,0.017291876
,,,-4.34E-06,0.017581876
,,,-4.33E-06,0.017532501
,,,-4.32E-06,0.017451251
,,,-4.31E-06,0.017882501
,,,-4.3E-06,0.017652501
,,,-4.29E-06,0.017678751
,,,-4.28E-06,0.017505626
,,,-4.27E-06,0.017671876
,,,-4.26E-06,0.017586876
,,,-4.25E-06,0.017623126
,,,-4.24E-06,0.017716251
,,,-4.23E-06,0.017890001
,,,-4.22E-06,0.017488126
,,,-4.21E-06,0.017595626
,,,-4.2E-06,0.017417501
,,,-4.19E-06,0.017546251
,,,-4.18E-06,0.017637501
,,,-4.17E-06,0.017654376
,,,-4.16E-06,0.017777501
,,,-4.15E-06,0.017811876
,,,-4.14E-06,0.017438126
,,,-4.13E-06,0.017634376
,,,-4.12E-06,0.017695001
,,,-4.11E-06,0.017747501
,,,-4.1E-06,0.017277501
,,,-4.09E-06,0.017641876
,,,-4.08E-06,0.017830001
,,,-4.07E-06,0.017465626
,,,-4.06E-06,0.017666876
,,,-4.05E-06,0.017621251
,,,-4.04E-06,0.017570001
,,,-4.03E-06,0.017652501
,,,-4.02E-06,0.017911876
,,,-4.01E-06,0.017578126
,,,-4E-06,0.017645626
,,,-3.99E-06,0.017556876
,,,-3.98E-06,0.017560001
,,,-3.97E-06,0.017498126
,,,-3.96E-06,0.017775001
,,,-3.95E-06,0.017967501
,,,-3.94E-06,0.017690001
,,,-3.93E-06,0.017503751
,,,-3.92E-06,0.017780626
,,,-3.91E-06,0.017641876
,,,-3.9E-06,0.017713751
,,,-3.89E-06,0.017740001
,,,-3.88E-06,0.017599376
,,,-3.87E-06,0.017679376
,,,-3.86E-06,0.017745001
,,,-3.85E-06,0.017539376
,,,-3.84E-06,0.017743751
,,,-3.83E-06,0.017682501
,,,-3.82E-06,0.017741876
,,,-3.81E-06,0.017669376
,,,-3.8E-06,0.017490626
,,,-3.79E-06,0.017431251
,,,-3.78E-06,0.017638751
,,,-3.77E-06,0.017636876
,,,-3.76E-06,0.017723126
,,,-3.75E-06,0.017646251
,,,-3.74E-06,0.017663126
,,,-3.73E-06,0.017913126
,,,-3.72E-06,0.017861876
,,,-3.71E-06,0.017436251
,,,-3.7E-06,0.017699376
,,,-3.69E-06,0.017622501
,,,-3.68E-06,0.017805626
,,,-3.67E-06,0.017576876
,,,-3.66E-06,0.017716251
,,,-3.65E-06,0.017766876
,,,-3.64E-06,0.017558751
,,,-3.63E-06,0.017723751
,,,-3.62E-06,0.017772501
,,,-3.61E-06,0.017706251
,,,-3.6E-06,0.017589376
,,,-3.59E-06,0.018025001
,,,-3.58E-06,0.017473751
,,,-3.57E-06,0.017848751
,,,-3.56E-06,0.017618126
,,,-3.55E-06,0.017691876
,,,-3.54E-06,0.017403751
,,,-3.53E-06,0.017674376
,,,-3.52E-06,0.017560626
,,,-3.51E-06,0.017603751
,,,-3.5E-06,0.017388126
,,,-3.49E-06,0.017630626
,,,-3.48E-06,0.017481251
,,,-3.47E-06,0.017592501
,,,-3.46E-06,0.017867501
,,,-3.45E-06,0.017877501
,,,-3.44E-06,0.017688126
,,,-3.43E-06,0.017523751
,,,-3.42E-06,0.017514376
,,,-3.41E-06,0.017398126
,,,-3.4E-06,0.017518126
,,,-3.39E-06,0.017700001
,,,-3.38E-06,0.017593126
,,,-3.37E-06,0.017448126
,,,-3.36E-06,0.017701876
,,,-3.35E-06,0.017575626
,,,-3.34E-06,0.018053126
,,,-3.33E-06,0.017448751
,,,-3.32E-06,0.017566251
,,,-3.31E-06,0.017719376
,,,-3.3E-06,0.017470001
,,,-3.29E-06,0.017440001
,,,-3.28E-06,0.017506251
,,,-3.27E-06,0.017460001
,,,-3.26E-06,0.017574376
,,,-3.25E-06,0.017466251
,,,-3.24E-06,0.017781876
,,,-3.23E-06,0.017495001
,,,-3.22E-06,0.017555001
,,,-3.21E-06,0.017309376
,,,-3.2E-06,0.017438751
,,,-3.19E-06,0.017556876
,,,-3.18E-06,0.017802501
,,,-3.17E-06,0.017635001
,,,-3.16E-06,0.017637501
,,,-3.15E-06,0.017797501
,,,-3.14E-06,0.017505001
,,,-3.13E-06,0.017999376
,,,-3.12E-06,0.017642501
,,,-3.11E-06,0.017475626
,,,-3.1E-06,0.017533126
,,,-3.09E-06,0.017610001
,,,-3.08E-06,0.017606876
,,,-3.07E-06,0.017476876
,,,-3.06E-06,0.017492501
,,,-3.05E-06,0.017628751
,,,-3.04E-06,0.017533751
,,,-3.03E-06,0.017591251
,,,-3.02E-06,0.017763751
,,,-3.01E-06,0.017663126
,,,-3E-06,0.017425001
,,,-2.99E-06,0.017705626
,,,-2.98E-06,0.017726876
,,,-2.97E-06,0.017413751
,,,-2.96E-06,0.017436251
,,,-2.95E-06,0.017691251
,,,-2.94E-06,0.017784376
,,,-2.93E-06,0.017629376
,,,-2.92E-06,0.017438751
,,,-2.91E-06,0.017800001
,,,-2.9E-06,0.017599376
,,,-2.89E-06,0.017525626
,,,-2.88E-06,0.017542501
,,,-2.87E-06,0.017617501
,,,-2.86E-06,0.017553126
,,,-2.85E-06,0.017365626
,,,-2.84E-06,0.017839376
,,,-2.83E-06,0.017551251
,,,-2.82E-06,0.017593751
,,,-2.81E-06,0.017461876
,,,-2.8E-06,0.017409376
,,,-2.79E-06,0.017835001
,,,-2.78E-06,0.017696251
,,,-2.77E-06,0.017653126
,,,-2.76E-06,0.017698751
,,,-2.75E-06,0.017575626
,,,-2.74E-06,0.017646876
,,,-2.73E-06,0.017551251
,,,-2.72E-06,0.018097501
,,,-2.71E-06,0.017632501
,,,-2.7E-06,0.017831876
,,,-2.69E-06,0.017683751
,,,-2.68E-06,0.017725001
,,,-2.67E-06,0.017605001
,,,-2.66E-06,0.017532501
,,,-2.65E-06,0.017672501
,,,-2.64E-06,0.017557501
,,,-2.63E-06,0.017832501
,,,-2.62E-06,0.017523751
,,,-2.61E-06,0.017693126
,,,-2.6E-06,0.017753751
,,,-2.59E-06,0.017736876
,,,-2.58E-06,0.017950626
,,,-2.57E-06,0.017873126
,,,-2.56E-06,0.017586251
,,,-2.55E-06,0.017432501
,,,-2.54E-06,0.017527501
,,,-2.53E-06,0.017488751
,,,-2.52E-06,0.017816876
,,,-2.51E-06,0.017848126
,,,-2.5E-06,0.017564376
,,,-2.49E-06,0.017808751
,,,-2.48E-06,0.017638126
,,,-2.47E-06,0.017605626
,,,-2.46E-06,0.017700001
,,,-2.45E-06,0.017337501
,,,-2.44E-06,0.017617501
,,,-2.43E-06,0.017483126
,,,-2.42E-06,0.017810626
,,,-2.41E-06,0.017856251
,,,-2.4E-06,0.017640626
,,,-2.39E-06,0.017802501
,,,-2.38E-06,0.017501251
,,,-2.37E-06,0.017618751
,,,-2.36E-06,0.017678126
,,,-2.35E-06,0.017803126
,,,-2.34E-06,0.017954376
,,,-2.33E-06,0.017753126
,,,-2.32E-06,0.017386251
,,,-2.31E-06,0.017724376
,,,-2.3E-06,0.017505626
,,,-2.29E-06,0.017425626
,,,-2.28E-06,0.017574376
,,,-2.27E-06,0.017758126
,,,-2.26E-06,0.017615001
,,,-2.25E-06,0.017427501
,,,-2.24E-06,0.017801251
,,,-2.23E-06,0.017733126
,,,-2.22E-06,0.017606876
,,,-2.21E-06,0.017369376
,,,-2.2E-06,0.017553126
,,,-2.19E-06,0.017851876
,,,-2.18E-06,0.017595001
,,,-2.17E-06,0.017754376
,,,-2.16E-06,0.017558126
,,,-2.15E-06,0.017493751
,,,-2.14E-06,0.017357501
,,,-2.13E-06,0.017406251
,,,-2.12E-06,0.017348126
,,,-2.11E-06,0.017462501
,,,-2.1E-06,0.017692501
,,,-2.09E-06,0.017775001
,,,-2.08E-06,0.017526251
,,,-2.07E-06,0.017549376
,,,-2.06E-06,0.017609376
,,,-2.05E-06,0.017839376
,,,-2.04E-06,0.017808126
,,,-2.03E-06,0.017693751
,,,-2.02E-06,0.017816251
,,,-2.01E-06,0.017582501
,,,-2E-06,0.017690626
,,,-1.99E-06,0.017689376
,,,-1.98E-06,0.017653751
,,,-1.97E-06,0.017323751
,,,-1.96E-06,0.017776251
,,,-1.95E-06,0.017621876
,,,-1.94E-06,0.017600626
,,,-1.93E-06,0.017603126
,,,-1.92E-06,0.017664376
,,,-1.91E-06,0.017642501
,,,-1.9E-06,0.017722501
,,,-1.89E-06,0.017682501
,,,-1.88E-06,0.017500001
,,,-1.87E-06,0.017440626
,,,-1.86E-06,0.017566876
,,,-1.85E-06,0.017990626
,,,-1.84E-06,0.017865626
,,,-1.83E-06,0.017556251
,,,-1.82E-06,0.017441251
,,,-1.81E-06,0.017334376
,,,-1.8E-06,0.017480001
,,,-1.79E-06,0.017601876
,,,-1.78E-06,0.017232501
,,,-1.77E-06,0.017637501
,,,-1.76E-06,0.017606876
,,,-1.75E-06,0.017651876
,,,-1.74E-06,0.017726876
,,,-1.73E-06,0.017673126
,,,-1.72E-06,0.017646251
,,,-1.71E-06,0.017488751
,,,-1.7E-06,0.017589376
,,,-1.69E-06,0.017725001
,,,-1.68E-06,0.017805626
,,,-1.67E-06,0.017821876
,,,-1.66E-06,0.017613126
,,,-1.65E-06,0.017671251
,,,-1.64E-06,0.017600001
,,,-1.63E-06,0.017721251
,,,-1.62E-06,0.017513126
,,,-1.61E-06,0.017647501
,,,-1.6E-06,0.017722501
,,,-1.59E-06,0.017741876
,,,-1.58E-06,0.017656251
,,,-1.57E-06,0.017675626
,,,-1.56E-06,0.017608126
,,,-1.55E-06,0.017465626
,,,-1.54E-06,0.017533126
,,,-1.53E-06,0.017889376
,,,-1.52E-06,0.017747501
,,,-1.51E-06,0.017878126
,,,-1.5E-06,0.017694376
,,,-1.49E-06,0.017486251
,,,-1.48E-06,0.017839376
,,,-1.47E-06,0.017495626
,,,-1.46E-06,0.017448126
,,,-1.45E-06,0.017636876
,,,-1.44E-06,0.017778126
,,,-1.43E-06,0.017546876
,,,-1.42E-06,0.017611876
,,,-1.41E-06,0.017546251
,,,-1.4E-06,0.017885626
,,,-1.39E-06,0.017713751
,,,-1.38E-06,0.017710001
,,,-1.37E-06,0.017506876
,,,-1.36E-06,0.017600626
,,,-1.35E-06,0.017802501
,,,-1.34E-06,0.017580626
,,,-1.33E-06,0.017446251
,,,-1.32E-06,0.017593751
,,,-1.31E-06,0.017711251
,,,-1.3E-06,0.017673126
,,,-1.29E-06,0.017913126
,,,-1.28E-06,0.017475001
,,,-1.27E-06,0.017680626
,,,-1.26E-06,0.017848751
,,,-1.25E-06,0.017616251
,,,-1.24E-06,0.017663126
,,,-1.23E-06,0.017574376
,,,-1.22E-06,0.017645626
,,,-1.21E-06,0.017651251
,,,-1.2E-06,0.017658751
,,,-1.19E-06,0.017716251
,,,-1.18E-06,0.017530001
,,,-1.17E-06,0.017699376
,,,-1.16E-06,0.017690626
,,,-1.15E-06,0.017853126
,,,-1.14E-06,0.017595626
,,,-1.13E-06,0.017625001
,,,-1.12E-06,0.017660001
,,,-1.11E-06,0.017596876
,,,-1.1E-06,0.017640626
,,,-1.09E-06,0.017670626
,,,-1.08E-06,0.017648751
,,,-1.07E-06,0.017521876
,,,-1.06E-06,0.017338751
,,,-1.05E-06,0.017646876
,,,-1.04E-06,0.017715001
,,,-1.03E-06,0.017773126
,,,-1.02E-06,0.017463751
,,,-1.01E-06,0.017620626
,,,-1E-06,0.017956251
,,,-9.9E-07,0.017726251
,,,-9.8E-07,0.017728126
,,,-9.7E-07,0.017705626
,,,-9.6E-07,0.017623751
,,,-9.5E-07,0.017971251
,,,-9.4E-07,0.017427501
,,,-9.3E-07,0.017385626
,,,-9.2E-07,0.017966876
,,,-9.1E-07,0.017865626
,,,-9E-07,0.017378126
,,,-8.9E-07,0.017530001
,,,-8.8E-07,0.017776251
,,,-8.7E-07,0.017875626
,,,-8.6E-07,0.017584376
,,,-8.5E-07,0.017654376
,,,-8.4E-07,0.017895626
,,,-8.3E-07,0.017624376
,,,-8.2E-07,0.017761251
,,,-8.1E-07,0.017820626
,,,-8E-07,0.017715001
,,,-7.9E-07,0.017271251
,,,-7.8E-07,0.017857501
,,,-7.7E-07,0.017672501
,,,-7.6E-07,0.017553751
,,,-7.5E-07,0.017675001
,,,-7.4E-07,0.017408126
,,,-7.3E-07,0.017624376
,,,-7.2E-07,0.017698751
,,,-7.1E-07,0.017494376
,,,-7E-07,0.017636876
,,,-6.9E-07,0.017632501
,,,-6.8E-07,0.017691251
,,,-6.7E-07,0.017630626
,,,-6.6E-07,0.017535626
,,,-6.5E-07,0.017600626
,,,-6.4E-07,0.017878126
,,,-6.3E-07,0.017602501
,,,-6.2E-07,0.017637501
,,,-6.1E-07,0.017416876
,,,-6E-07,0.017516876
,,,-5.9E-07,0.017692501
,,,-5.8E-07,0.017773751
,,,-5.7E-07,0.017481876
,,,-5.6E-07,0.017620626
,,,-5.5E-07,0.017725626
,,,-5.4E-07,0.017842501
,,,-5.3E-07,0.017432501
,,,-5.2E-07,0.017537501
,,,-5.1E-07,0.017718751
,,,-5E-07,0.017532501
,,,-4.9E-07,0.017725001
,,,-4.8E-07,0.017508751
,,,-4.7E-07,0.017520001
,,,-4.6E-07,0.017772501
,,,-4.5E-07,0.017523126
,,,-4.4E-07,0.017630001
,,,-4.3E-07,0.017693126
,,,-4.2E-07,0.017665001
,,,-4.1E-07,0.017651876
,,,-4E-07,0.017274376
,,,-3.9E-07,0.017568126
,,,-3.8E-07,0.017760001
,,,-3.7E-07,0.017668126
,,,-3.6E-07,0.017730001
,,,-3.5E-07,0.017655626
,,,-3.4E-07,0.017623751
,,,-3.3E-07,0.017469376
,,,-3.2E-07,0.017726251
,,,-3.1E-07,0.017547501
,,,-3E-07,0.017452501
,,,-2.9E-07,0.017540001
,,,-2.8E-07,0.017417501
,,,-2.7E-07,0.017474376
,,,-2.6E-07,0.017800626
,,,-2.5E-07,0.017447501
,,,-2.4E-07,0.017678126
,,,-2.3E-07,0.017368126
,,,-2.2E-07,0.017551876
,,,-2.1E-07,0.017814376
,,,-2E-07,0.017653751
,,,-1.9E-07,0.017699376
,,,-1.8E-07,0.017460626
,,,-1.7E-07,0.017617501
,,,-1.6E-07,0.017381251
,,,-1.5E-07,0.017583751
,,,-1.4E-07,0.017696251
,,,-1.3E-07,0.017496251
,,,-1.2E-07,0.017786251
,,,-1.1E-07,0.017829376
,,,-1E-07,0.017913126
,,,-9E-08,0.017868751
,,,-8E-08,0.017331876
,,,-7E-08,0.017150001
,,,-6E-08,0.017543126
,,,-5E-08,0.017961876
,,,-4E-08,0.018468751
,,,-3E-08,0.018963126
,,,-2E-08,0.016008751
,,,-1E-08,0.014553126
,,,0,0.015717501
,,,1E-08,0.019302501
,,,2E-08,0.020551876
,,,3E-08,0.019933126
,,,4E-08,0.016965001
,,,5E-08,0.015637501
,,,6E-08,0.015135626
,,,7E-08,0.016778751
,,,8E-08,0.018405626
,,,9E-08,0.019097501
,,,1E-07,0.019006251
,,,1.1E-07,0.017831876
,,,1.2E-07,0.016722501
,,,1.3E-07,0.016415626
,,,1.4E-07,0.017298751
,,,1.5E-07,0.017659376
,,,1.6E-07,0.018231876
,,,1.7E-07,0.018004376
,,,1.8E-07,0.017768126
,,,1.9E-07,0.017623751
,,,2E-07,0.017548751
,,,2.1E-07,0.017218126
,,,2.2E-07,0.017496876
,,,2.3E-07,0.017703126
,,,2.4E-07,0.017663751
,,,2.5E-07,0.017613751
,,,2.6E-07,0.017580001
,,,2.7E-07,0.017467501
,,,2.8E-07,0.017570001
,,,2.9E-07,0.017641876
,,,3E-07,0.018020001
,,,3.1E-07,0.017611876
,,,3.2E-07,0.017702501
,,,3.3E-07,0.017859376
,,,3.4E-07,0.017780001
,,,3.5E-07,0.017750626
,,,3.6E-07,0.017234376
,,,3.7E-07,0.017575626
,,,3.8E-07,0.017643751
,,,3.9E-07,0.017565626
,,,4E-07,0.017841876
,,,4.1E-07,0.017545001
,,,4.2E-07,0.017642501
,,,4.3E-07,0.017606251
,,,4.4E-07,0.017633751
,,,4.5E-07,0.017478751
,,,4.6E-07,0.017744376
,,,4.7E-07,0.017567501
,,,4.8E-07,0.017765626
,,,4.9E-07,0.017681876
,,,5E-07,0.017544376
,,,5.1E-07,0.017573751
,,,5.2E-07,0.017523751
,,,5.3E-07,0.017600001
,,,5.4E-07,0.017653126
,,,5.5E-07,0.017458126
,,,5.6E-07,0.017815001
,,,5.7E-07,0.017940626
,,,5.8E-07,0.017744376
,,,5.9E-07,0.017395626
,,,6E-07,0.017607501
,,,6.1E-07,0.017736876
,,,6.2E-07,0.017815001
,,,6.3E-07,0.017592501
,,,6.4E-07,0.017373126
,,,6.5E-07,0.017833751
,,,6.6E-07,0.017636876
,,,6.7E-07,0.017492501
,,,6.8E-07,0.017702501
,,,6.9E-07,0.017405001
,,,7E-07,0.017571251
,,,7.1E-07,0.017546251
,,,7.2E-07,0.017620001
,,,7.3E-07,0.017677501
,,,7.4E-07,0.017536251
,,,7.5E-07,0.017792501
,,,7.6E-07,0.017690626
,,,7.7E-07,0.017477501
,,,7.8E-07,0.017595626
,,,7.9E-07,0.017659376
,,,8E-07,0.017520626
,,,8.1E-07,0.017871876
,,,8.2E-07,0.017603126
,,,8.3E-07,0.017531251
,,,8.4E-07,0.017468126
,,,8.5E-07,0.017536251
,,,8.6E-07,0.017780001
,,,8.7E-07,0.017532501
,,,8.8E-07,0.017402501
,,,8.9E-07,0.017490001
,,,9E-07,0.017586876
,,,9.1E-07,0.017943126
,,,9.2E-07,0.017338126
,,,9.3E-07,0.017425626
,,,9.4E-07,0.017531251
,,,9.5E-07,0.017540626
,,,9.6E-07,0.017734376
,,,9.7E-07,0.017440001
,,,9.8E-07,0.017683126
,,,9.9E-07,0.017425001
,,,1E-06,0.017548126
,,,1.01E-06,0.017605001
,,,1.02E-06,0.017554376
,,,1.03E-06,0.017710001
,,,1.04E-06,0.017530001
,,,1.05E-06,0.017681876
,,,1.06E-06,0.017764376
,,,1.07E-06,0.017573751
,,,1.08E-06,0.017728126
,,,1.09E-06,0.017712501
,,,1.1E-06,0.017535001
,,,1.11E-06,0.017430001
,,,1.12E-06,0.017923126
,,,1.13E-06,0.017465001
,,,1.14E-06,0.017718751
,,,1.15E-06,0.017586251
,,,1.16E-06,0.017955001
,,,1.17E-06,0.017748126
,,,1.18E-06,0.017535001
,,,1.19E-06,0.017519376
,,,1.2E-06,0.017748751
,,,1.21E-06,0.017650626
,,,1.22E-06,0.017648751
,,,1.23E-06,0.017736876
,,,1.24E-06,0.017683126
,,,1.25E-06,0.017523126
,,,1.26E-06,0.017690626
,,,1.27E-06,0.017792501
,,,1.28E-06,0.017764376
,,,1.29E-06,0.017866876
,,,1.3E-06,0.017611876
,,,1.31E-06,0.017608126
,,,1.32E-06,0.017521876
,,,1.33E-06,0.017567501
,,,1.34E-06,0.017786876
,,,1.35E-06,0.017756876
,,,1.36E-06,0.017670001
,,,1.37E-06,0.017817501
,,,1.38E-06,0.017721876
,,,1.39E-06,0.017727501
,,,1.4E-06,0.017591876
,,,1.41E-06,0.017440001
,,,1.42E-06,0.017723751
,,,1.43E-06,0.017740001
,,,1.44E-06,0.017561251
,,,1.45E-06,0.017716876
,,,1.46E-06,0.017753126
,,,1.47E-06,0.017417501
,,,1.48E-06,0.017358126
,,,1.49E-06,0.017693126
,,,1.5E-06,0.017685626
,,,1.51E-06,0.017731876
,,,1.52E-06,0.017460626
,,,1.53E-06,0.017716876
,,,1.54E-06,0.017608751
,,,1.55E-06,0.017511876
,,,1.56E-06,0.017375626
,,,1.57E-06,0.017606876
,,,1.58E-06,0.017540626
,,,1.59E-06,0.017467501
,,,1.6E-06,0.017567501
,,,1.61E-06,0.017492501
,,,1.62E-06,0.017592501
,,,1.63E-06,0.017450626
,,,1.64E-06,0.017816876
,,,1.65E-06,0.017458751
,,,1.66E-06,0.017507501
,,,1.67E-06,0.017567501
,,,1.68E-06,0.017555626
,,,1.69E-06,0.017467501
,,,1.7E-06,0.017598751
,,,1.71E-06,0.017646876
,,,1.72E-06,0.017538126
,,,1.73E-06,0.017620626
,,,1.74E-06,0.017856876
,,,1.75E-06,0.017496876
,,,1.76E-06,0.017770626
,,,1.77E-06,0.017835001
,,,1.78E-06,0.017708126
,,,1.79E-06,0.017716876
,,,1.8E-06,0.017490001
,,,1.81E-06,0.017906876
,,,1.82E-06,0.017968126
,,,1.83E-06,0.017696876
,,,1.84E-06,0.017650626
,,,1.85E-06,0.017696251
,,,1.86E-06,0.017674376
,,,1.87E-06,0.017504376
,,,1.88E-06,0.017603751
,,,1.89E-06,0.017598751
,,,1.9E-06,0.017583126
,,,1.91E-06,0.017743126
,,,1.92E-06,0.017438751
,,,1.93E-06,0.017818751
,,,1.94E-06,0.017637501
,,,1.95E-06,0.017762501
,,,1.96E-06,0.017655001
,,,1.97E-06,0.017513126
,,,1.98E-06,0.017666876
,,,1.99E-06,0.017643126
,,,2E-06,0.017795626
,,,2.01E-06,0.017784376
,,,2.02E-06,0.017710626
,,,2.03E-06,0.017776876
,,,2.04E-06,0.017787501
,,,2.05E-06,0.017610001
,,,2.06E-06,0.017573751
,,,2.07E-06,0.017811876
,,,2.08E-06,0.017496251
,,,2.09E-06,0.017528751
,,,2.1E-06,0.017435001
,,,2.11E-06,0.017495001
,,,2.12E-06,0.017622501
,,,2.13E-06,0.017590001
,,,2.14E-06,0.017660001
,,,2.15E-06,0.017582501
,,,2.16E-06,0.017506876
,,,2.17E-06,0.017959376
,,,2.18E-06,0.017411876
,,,2.19E-06,0.017703126
,,,2.2E-06,0.017384376
,,,2.21E-06,0.017790001
,,,2.22E-06,0.017523751
,,,2.23E-06,0.017441876
,,,2.24E-06,0.017446251
,,,2.25E-06,0.017553751
,,,2.26E-06,0.017506876
,,,2.27E-06,0.017785626
,,,2.28E-06,0.017522501
,,,2.29E-06,0.017480001
,,,2.3E-06,0.017631251
,,,2.31E-06,0.017731251
,,,2.32E-06,0.017431251
,,,2.33E-06,0.017744376
,,,2.34E-06,0.017652501
,,,2.35E-06,0.017660626
,,,2.36E-06,0.017615626
,,,2.37E-06,0.017585626
,,,2.38E-06,0.018035001
,,,2.39E-06,0.017823126
,,,2.4E-06,0.017746876
,,,2.41E-06,0.017663751
,,,2.42E-06,0.018015626
,,,2.43E-06,0.017588751
,,,2.44E-06,0.017510001
,,,2.45E-06,0.017645001
,,,2.46E-06,0.017708126
,,,2.47E-06,0.017528126
,,,2.48E-06,0.017662501
,,,2.49E-06,0.017690001
,,,2.5E-06,0.017541876
,,,2.51E-06,0.017296251
,,,2.52E-06,0.017448751
,,,2.53E-06,0.017604376
,,,2.54E-06,0.017696876
,,,2.55E-06,0.017376876
,,,2.56E-06,0.017743751
,,,2.57E-06,0.017798751
,,,2.58E-06,0.017818751
,,,2.59E-06,0.017559376
,,,2.6E-06,0.017824376
,,,2.61E-06,0.017730001
,,,2.62E-06,0.017694376
,,,2.63E-06,0.017586251
,,,2.64E-06,0.017648126
,,,2.65E-06,0.017338126
,,,2.66E-06,0.017823751
,,,2.67E-06,0.017642501
,,,2.68E-06,0.017625001
,,,2.69E-06,0.017507501
,,,2.7E-06,0.017827501
,,,2.71E-06,0.017652501
,,,2.72E-06,0.017585001
,,,2.73E-06,0.017587501
,,,2.74E-06,0.017592501
,,,2.75E-06,0.017686876
,,,2.76E-06,0.017414376
,,,2.77E-06,0.017614376
,,,2.78E-06,0.017757501
,,,2.79E-06,0.017640001
,,,2.8E-06,0.017501876
,,,2.81E-06,0.018029376
,,,2.82E-06,0.017643126
,,,2.83E-06,0.017750626
,,,2.84E-06,0.017452501
,,,2.85E-06,0.017691251
,,,2.86E-06,0.017381876
,,,2.87E-06,0.017488126
,,,2.88E-06,0.017606251
,,,2.89E-06,0.017596251
,,,2.9E-06,0.017738126
,,,2.91E-06,0.017386251
,,,2.92E-06,0.017824376
,,,2.93E-06,0.017693751
,,,2.94E-06,0.017821876
,,,2.95E-06,0.017855001
,,,2.96E-06,0.017528126
,,,2.97E-06,0.017762501
,,,2.98E-06,0.017626876
,,,2.99E-06,0.017666876
,,,3E-06,0.017603751
,,,3.01E-06,0.017443751
,,,3.02E-06,0.017595626
,,,3.03E-06,0.017644376
,,,3.04E-06,0.017709376
,,,3.05E-06,0.017493751
,,,3.06E-06,0.017631876
,,,3.07E-06,0.017621251
,,,3.08E-06,0.017652501
,,,3.09E-06,0.017782501
,,,3.1E-06,0.017471251
,,,3.11E-06,0.017646251
,,,3.12E-06,0.017620001
,,,3.13E-06,0.017775626
,,,3.14E-06,0.017533751
,,,3.15E-06,0.017631876
,,,3.16E-06,0.017510626
,,,3.17E-06,0.017548126
,,,3.18E-06,0.017760626
,,,3.19E-06,0.017281876
,,,3.2E-06,0.017855626
,,,3.21E-06,0.017567501
