data/raw/Final_POL_Test_1/SOP072_Ch1.csv

"Record Length",1000,"Points",-5E-06,0.00672625
"Sample Interval",1E-08,s,-4.99E-06,0.006593125
"Trigger Point",500,"Samples",-4.98E-06,0.006510625
"Trigger Time",0,s,-4.97E-06,0.00671375
"",,,-4.96E-06,0.006550625
"Horizontal Offset",-5E-06,s,-4.95E-06,0.0067825
,,,-4.94E-06,0.006436875
,,,-4.93E-06,0.00665
,,,-4.92E-06,0.0063825
,,,-4.91E-06,0.006535625
,,,-4.9E-06,0.006891875
,,,-4.89E-06,0.0068775
,,,-4.88E-06,0.006671875
,,,-4.87E-06,0.006664375
,,,-4.86E-06,0.00664625
,,,-4.85E-06,0.006609375
,,,-4.84E-06,0.006741875
,,,-4.83E-06,0.00681875
,,,-4.82E-06,0.006735
,,,-4.81E-06,0.006796875
,,,-4.8E-06,0.0064575
,,,-4.79E-06,0.00656
,,,-4.78E-06,0.006755625
,,,-4.77E-06,0.006731875
,,,-4.76E-06,0.0066025
,,,-4.75E-06,0.006654375
,,,-4.74E-06,0.00655125
,,,-4.73E-06,0.006661875
,,,-4.72E-06,0.0067275
,,,-4.71E-06,0.006615
,,,-4.7E-06,0.006708125
,,,-4.69E-06,0.0065025
,,,-4.68E-06,0.0066975
,,,-4.67E-06,0.006435
,,,-4.66E-06,0.006870625
,,,-4.65E-06,0.006526875
,,,-4.64E-06,0.00674
,,,-4.63E-06,0.006600625
,,,-4.62E-06,0.00683875
,,,-4.61E-06,0.006565
,,,-4.6E-06,0.006574375
,,,-4.59E-06,0.0064625
,,,-4.58E-06,0.006663125
,,,-4.57E-06,0.006791875
,,,-4.56E-06,0.00663
,,,-4.55E-06,0.006569375
,,,-4.54E-06,0.006583125
,,,-4.53E-06,0.0065
,,,-4.52E-06,0.006689375
,,,-4.51E-06,0.006678125
,,,-4.5E-06,0.006808125
,,,-4.49E-06,0.006805625
,,,-4.48E-06,0.006921875
,,,-4.47E-06,0.00675875
,,,-4.46E-06,0.006726875
,,,-4.45E-06,0.006539375
,,,-4.44E-06,0.00666125
,,,-4.43E-06,0.006761875
,,,-4.42E-06,0.006390625
,,,-4.41E-06,0.0066175
,,,-4.4E-06,0.00658
,,,-4.39E-06,0.006518125
,,,-4.38E-06,0.006714375
,,,-4.37E-06,0.006650625
,,,-4.36E-06,0.006681875
,,,-4.35E-06,0.006555625
,,,-4.34E-06,0.00664625
,,,-4.33E-06,0.00675
,,,-4.32E-06,0.00668625
,,,-4.31E-06,0.00666
,,,-4.3E-06,0.006531875
,,,-4.29E-06,0.00660625
,,,-4.28E-06,0.00658375
,,,-4.27E-06,0.006568125
,,,-4.26E-06,0.006593125
,,,-4.25E-06,0.006589375
,,,-4.24E-06,0.006564375
,,,-4.23E-06,0.006423125
,,,-4.22E-06,0.006669375
,,,-4.21E-06,0.006635
,,,-4.2E-06,0.00658875
,,,-4.19E-06,0.00655
,,,-4.18E-06,0.006670625
,,,-4.17E-06,0.006739375
,,,-4.16E-06,0.00672125
,,,-4.15E-06,0.006550625
,,,-4.14E-06,0.006511875
,,,-4.13E-06,0.006900625
,,,-4.12E-06,0.006743125
,,,-4.11E-06,0.00679
,,,-4.1E-06,0.006415
,,,-4.09E-06,0.0067675
,,,-4.08E-06,0.006551875
,,,-4.07E-06,0.006653125
,,,-4.06E-06,0.006838125
,,,-4.05E-06,0.00668
,,,-4.04E-06,0.00660375
,,,-4.03E-06,0.006968125
,,,-4.02E-06,0.0066775
,,,-4.01E-06,0.0067925
,,,-4E-06,0.00660375
,,,-3.99E-06,0.006770625
,,,-3.98E-06,0.006604375
,,,-3.97E-06,0.006635
,,,-3.96E-06,0.0066675
,,,-3.95E-06,0.006764375
,,,-3.94E-06,0.006650625
,,,-3.93E-06,0.00663875
,,,-3.92E-06,0.006658125
,,,-3.91E-06,0.006628125
,,,-3.9E-06,0.00682625
,,,-3.89E-06,0.006679375
,,,-3.88E-06,0.006809375
,,,-3.87E-06,0.00635625
,,,-3.86E-06,0.006585625
,,,-3.85E-06,0.006700625
,,,-3.84E-06,0.00641
,,,-3.83E-06,0.006871875
,,,-3.82E-06,0.006768125
,,,-3.81E-06,0.006318125
,,,-3.8E-06,0.00673
,,,-3.79E-06,0.0068
,,,-3.78E-06,0.0067875
,,,-3.77E-06,0.00678
,,,-3.76E-06,0.006568125
,,,-3.75E-06,0.0065525
,,,-3.74E-06,0.0065875
,,,-3.73E-06,0.006845625
,,,-3.72E-06,0.006568125
,,,-3.71E-06,0.006731875
,,,-3.7E-06,0.006668125
,,,-3.69E-06,0.0064725
,,,-3.68E-06,0.00676125
,,,-3.67E-06,0.00691875
,,,-3.66E-06,0.00691375
,,,-3.65E-06,0.006513125
,,,-3.64E-06,0.00660125
,,,-3.63E-06,0.006535
,,,-3.62E-06,0.006624375
,,,-3.61E-06,0.006536875
,,,-3.6E-06,0.006638125
,,,-3.59E-06,0.0069425
,,,-3.58E-06,0.00675125
,,,-3.57E-06,0.00689125
,,,-3.56E-06,0.0069025
,,,-3.55E-06,0.006670625
,,,-3.54E-06,0.006526875
,,,-3.53E-06,0.006843125
,,,-3.52E-06,0.006781875
,,,-3.51E-06,0.006614375
,,,-3.5E-06,0.00670625
,,,-3.49E-06,0.00669125
,,,-3.48E-06,0.006445
,,,-3.47E-06,0.006624375
,,,-3.46E-06,0.00666625
,,,-3.45E-06,0.00680625
,,,-3.44E-06,0.006600625
,,,-3.43E-06,0.006714375
,,,-3.42E-06,0.00681625
,,,-3.41E-06,0.00641875
,,,-3.4E-06,0.00678875
,,,-3.39E-06,0.006443125
,,,-3.38E-06,0.006715625
,,,-3.37E-06,0.006521875
,,,-3.36E-06,0.006774375
,,,-3.35E-06,0.00670125
,,,-3.34E-06,0.00682
,,,-3.33E-06,0.006686875
,,,-3.32E-06,0.006705
,,,-3.31E-06,0.006564375
,,,-3.3E-06,0.006689375
,,,-3.29E-06,0.006705625
,,,-3.28E-06,0.0066625
,,,-3.27E-06,0.00673375
,,,-3.26E-06,0.006461875
,,,-3.25E-06,0.00648375
,,,-3.24E-06,0.006961875
,,,-3.23E-06,0.006754375
,,,-3.22E-06,0.006741875
,,,-3.21E-06,0.006591875
,,,-3.2E-06,0.00678625
,,,-3.19E-06,0.006585
,,,-3.18E-06,0.0066325
,,,-3.17E-06,0.006755625
,,,-3.16E-06,0.00692625
,,,-3.15E-06,0.00675375
,,,-3.14E-06,0.006599375
,,,-3.13E-06,0.0067225
,,,-3.12E-06,0.00679
,,,-3.11E-06,0.0065775
,,,-3.1E-06,0.00657875
,,,-3.09E-06,0.006559375
,,,-3.08E-06,0.0066025
,,,-3.07E-06,0.006638125
,,,-3.06E-06,0.006690625
,,,-3.05E-06,0.006553125
,,,-3.04E-06,0.006541875
,,,-3.03E-06,0.006635
,,,-3.02E-06,0.00654
,,,-3.01E-06,0.0066825
,,,-3E-06,0.006526875
,,,-2.99E-06,0.006545
,,,-2.98E-06,0.006555
,,,-2.97E-06,0.006825625
,,,-2.96E-06,0.0066325
,,,-2.95E-06,0.0066875
,,,-2.94E-06,0.006849375
,,,-2.93E-06,0.0067075
,,,-2.92E-06,0.006673125
,,,-2.91E-06,0.0064775
,,,-2.9E-06,0.00695125
,,,-2.89E-06,0.006820625
,,,-2.88E-06,0.006615
,,,-2.87E-06,0.00678125
,,,-2.86E-06,0.006480625
,,,-2.85E-06,0.006755
,,,-2.84E-06,0.006688125
,,,-2.83E-06,0.00662375
,,,-2.82E-06,0.00661875
,,,-2.81E-06,0.006738125
,,,-2.8E-06,0.0065325
,,,-2.79E-06,0.006486875
,,,-2.78E-06,0.00678
,,,-2.77E-06,0.006713125
,,,-2.76E-06,0.00673375
,,,-2.75E-06,0.00656625
,,,-2.74E-06,0.006813125
,,,-2.73E-06,0.00656375
,,,-2.72E-06,0.006990625
,,,-2.71E-06,0.00678625
,,,-2.7E-06,0.00641625
,,,-2.69E-06,0.006504375
,,,-2.68E-06,0.00673625
,,,-2.67E-06,0.00685375
,,,-2.66E-06,0.00653125
,,,-2.65E-06,0.0067925
,,,-2.64E-06,0.006866875
,,,-2.63E-06,0.0067825
,,,-2.62E-06,0.0067675
,,,-2.61E-06,0.00666625
,,,-2.6E-06,0.006581875
,,,-2.59E-06,0.00668125
,,,-2.58E-06,0.006626875
,,,-2.57E-06,0.006814375
,,,-2.56E-06,0.00651
,,,-2.55E-06,0.006774375
,,,-2.54E-06,0.006593125
,,,-2.53E-06,0.006561875
,,,-2.52E-06,0.00660125
,,,-2.51E-06,0.006655625
,,,-2.5E-06,0.00682375
,,,-2.49E-06,0.0066425
,,,-2.48E-06,0.006831875
,,,-2.47E-06,0.006445625
,,,-2.46E-06,0.00643875
,,,-2.45E-06,0.0065125
,,,-2.44E-06,0.006581875
,,,-2.43E-06,0.0066425
,,,-2.42E-06,0.006506875
,,,-2.41E-06,0.0067475
,,,-2.4E-06,0.006666875
,,,-2.39E-06,0.006815625
,,,-2.38E-06,0.00675125
,,,-2.37E-06,0.00652625
,,,-2.36E-06,0.0066025
,,,-2.35E-06,0.00679625
,,,-2.34E-06,0.0067
,,,-2.33E-06,0.00664375
,,,-2.32E-06,0.006974375
,,,-2.31E-06,0.0066175
,,,-2.3E-06,0.00661125
,,,-2.29E-06,0.006603125
,,,-2.28E-06,0.006801875
,,,-2.27E-06,0.006620625
,,,-2.26E-06,0.006725
,,,-2.25E-06,0.0066075
,,,-2.24E-06,0.006660625
,,,-2.23E-06,0.00675
,,,-2.22E-06,0.006646875
,,,-2.21E-06,0.00669375
,,,-2.2E-06,0.006704375
,,,-2.19E-06,0.0066575
,,,-2.18E-06,0.006975
,,,-2.17E-06,0.00650125
,,,-2.16E-06,0.00693125
,,,-2.15E-06,0.006486875
,,,-2.14E-06,0.0068075
,,,-2.13E-06,0.006653125
,,,-2.12E-06,0.006713125
,,,-2.11E-06,0.006628125
,,,-2.1E-06,0.006510625
,,,-2.09E-06,0.006710625
,,,-2.08E-06,0.006728125
,,,-2.07E-06,0.00643875
,,,-2.06E-06,0.006559375
,,,-2.05E-06,0.006619375
,,,-2.04E-06,0.00684625
,,,-2.03E-06,0.006555
,,,-2.02E-06,0.006771875
,,,-2.01E-06,0.006600625
,,,-2E-06,0.0067225
,,,-1.99E-06,0.0066375
,,,-1.98E-06,0.006756875
,,,-1.97E-06,0.006638125
,,,-1.96E-06,0.00661625
,,,-1.95E-06,0.00656
,,,-1.94E-06,0.006849375
,,,-1.93E-06,0.00671625
,,,-1.92E-06,0.006551875
,,,-1.91E-06,0.006771875
,,,-1.9E-06,0.00666375
,,,-1.89E-06,0.006530625
,,,-1.88E-06,0.006671875
,,,-1.87E-06,0.0065875
,,,-1.86E-06,0.006933125
,,,-1.85E-06,0.006649375
,,,-1.84E-06,0.006770625
,,,-1.83E-06,0.006759375
,,,-1.82E-06,0.006683125
,,,-1.81E-06,0.006680625
,,,-1.8E-06,0.00678375
,,,-1.79E-06,0.006793125
,,,-1.78E-06,0.0065825
,,,-1.77E-06,0.006629375
,,,-1.76E-06,0.006535
,,,-1.75E-06,0.0065875
,,,-1.74E-06,0.0067
,,,-1.73E-06,0.006699375
,,,-1.72E-06,0.00664875
,,,-1.71E-06,0.006714375
,,,-1.7E-06,0.006879375
,,,-1.69E-06,0.00674875
,,,-1.68E-06,0.00651375
,,,-1.67E-06,0.0067475
,,,-1.66E-06,0.006749375
,,,-1.65E-06,0.006749375
,,,-1.64E-06,0.00686875
,,,-1.63E-06,0.006680625
,,,-1.62E-06,0.006654375
,,,-1.61E-06,0.00669
,,,-1.6E-06,0.006736875
,,,-1.59E-06,0.00667375
,,,-1.58E-06,0.00654625
,,,-1.57E-06,0.0065725
,,,-1.56E-06,0.0062075
,,,-1.55E-06,0.006461875
,,,-1.54E-06,0.00648625
,,,-1.53E-06,0.006455625
,,,-1.52E-06,0.006598125
,,,-1.51E-06,0.006568125
,,,-1.5E-06,0.00692875
,,,-1.49E-06,0.006714375
,,,-1.48E-06,0.00669375
,,,-1.47E-06,0.00677875
,,,-1.46E-06,0.006616875
,,,-1.45E-06,0.006360625
,,,-1.44E-06,0.006773125
,,,-1.43E-06,0.006813125
,,,-1.42E-06,0.006785625
,,,-1.41E-06,0.006591875
,,,-1.4E-06,0.006875
,,,-1.39E-06,0.00661
,,,-1.38E-06,0.006559375
,,,-1.37E-06,0.0063075
,,,-1.36E-06,0.006670625
,,,-1.35E-06,0.006844375
,,,-1.34E-06,0.00659125
,,,-1.33E-06,0.006648125
,,,-1.32E-06,0.006575625
,,,-1.31E-06,0.00656625
,,,-1.3E-06,0.00673375
,,,-1.29E-06,0.006700625
,,,-1.28E-06,0.00645
,,,-1.27E-06,0.006634375
,,,-1.26E-06,0.006640625
,,,-1.25E-06,0.007061875
,,,-1.24E-06,0.006595625
,,,-1.23E-06,0.00647
,,,-1.22E-06,0.006661875
,,,-1.21E-06,0.006824375
,,,-1.2E-06,0.00662875
,,,-1.19E-06,0.006685
,,,-1.18E-06,0.00661875
,,,-1.17E-06,0.00672375
,,,-1.16E-06,0.006700625
,,,-1.15E-06,0.00680125
,,,-1.14E-06,0.006779375
,,,-1.13E-06,0.00679
,,,-1.12E-06,0.006485625
,,,-1.11E-06,0.006953125
,,,-1.1E-06,0.006724375
,,,-1.09E-06,0.006546875
,,,-1.08E-06,0.00671
,,,-1.07E-06,0.00676625
,,,-1.06E-06,0.00651125
,,,-1.05E-06,0.00675875
,,,-1.04E-06,0.006936875
,,,-1.03E-06,0.0067375
,,,-1.02E-06,0.006675625
,,,-1.01E-06,0.00670375
,,,-1E-06,0.006419375
,,,-9.9E-07,0.006578125
,,,-9.8E-07,0.006635625
,,,-9.7E-07,0.006934375
,,,-9.6E-07,0.00659
,,,-9.5E-07,0.006718125
,,,-9.4E-07,0.006653125
,,,-9.3E-07,0.00673375
,,,-9.2E-07,0.006473125
,,,-9.1E-07,0.00667625
,,,-9E-07,0.006580625
,,,-8.9E-07,0.006764375
,,,-8.8E-07,0.0065925
,,,-8.7E-07,0.006714375
,,,-8.6E-07,0.006675625
,,,-8.5E-07,0.00666375
,,,-8.4E-07,0.006463125
,,,-8.3E-07,0.006791875
,,,-8.2E-07,0.00699375
,,,-8.1E-07,0.00683
,,,-8E-07,0.0064825
,,,-7.9E-07,0.0066175
,,,-7.8E-07,0.00685375
,,,-7.7E-07,0.006709375
,,,-7.6E-07,0.006764375
,,,-7.5E-07,0.00677625
,,,-7.4E-07,0.00669375
,,,-7.3E-07,0.00688375
,,,-7.2E-07,0.00662875
,,,-7.1E-07,0.006455
,,,-7E-07,0.00665875
,,,-6.9E-07,0.006640625
,,,-6.8E-07,0.0066875
,,,-6.7E-07,0.006651875
,,,-6.6E-07,0.0067075
,,,-6.5E-07,0.006728125
,,,-6.4E-07,0.006825625
,,,-6.3E-07,0.006521875
,,,-6.2E-07,0.006585
,,,-6.1E-07,0.006745
,,,-6E-07,0.00679375
,,,-5.9E-07,0.006741875
,,,-5.8E-07,0.00669875
,,,-5.7E-07,0.006715
,,,-5.6E-07,0.00667
,,,-5.5E-07,0.006731875
,,,-5.4E-07,0.00641625
,,,-5.3E-07,0.006684375
,,,-5.2E-07,0.006435
,,,-5.1E-07,0.006771875
,,,-5E-07,0.0067075
,,,-4.9E-07,0.006674375
,,,-4.8E-07,0.006705625
,,,-4.7E-07,0.006731875
,,,-4.6E-07,0.006678125
,,,-4.5E-07,0.0064
,,,-4.4E-07,0.00659375
,,,-4.3E-07,0.0068625
,,,-4.2E-07,0.006621875
,,,-4.1E-07,0.006664375
,,,-4E-07,0.0065075
,,,-3.9E-07,0.006531875
,,,-3.8E-07,0.00681125
,,,-3.7E-07,0.006490625
,,,-3.6E-07,0.006714375
,,,-3.5E-07,0.006545
,,,-3.4E-07,0.006689375
,,,-3.3E-07,0.006720625
,,,-3.2E-07,0.00669375
,,,-3.1E-07,0.006884375
,,,-3E-07,0.006494375
,,,-2.9E-07,0.006664375
,,,-2.8E-07,0.00658875
,,,-2.7E-07,0.006833125
,,,-2.6E-07,0.0065525
,,,-2.5E-07,0.00683875
,,,-2.4E-07,0.006796875
,,,-2.3E-07,0.006620625
,,,-2.2E-07,0.006628125
,,,-2.1E-07,0.006990625
,,,-2E-07,0.006568125
,,,-1.9E-07,0.00653875
,,,-1.8E-07,0.00644125
,,,-1.7E-07,0.00673
,,,-1.6E-07,0.00683
,,,-1.5E-07,0.0069525
,,,-1.4E-07,0.006635
,,,-1.3E-07,0.0065475
,,,-1.2E-07,0.006436875
,,,-1.1E-07,0.006223125
,,,-1E-07,0.006928125
,,,-9E-08,0.0070775
,,,-8E-08,0.00656
,,,-7E-08,0.006084375
,,,-6E-08,0.006259375
,,,-5E-08,0.0069325
,,,-4E-08,0.0080575
,,,-3E-08,0.008299375
,,,-2E-08,0.005413125
,,,-1E-08,0.003608125
,,,0,0.003330625
,,,1E-08,0.008530625
,,,2E-08,0.010041875
,,,3E-08,0.010286875
,,,4E-08,0.006325625
,,,5E-08,0.00461
,,,6E-08,0.0034325
,,,7E-08,0.00513
,,,8E-08,0.0069025
,,,9E-08,0.00847
,,,1E-07,0.00864625
,,,1.1E-07,0.007271875
,,,1.2E-07,0.005945625
,,,1.3E-07,0.00521
,,,1.4E-07,0.005996875
,,,1.5E-07,0.006633125
,,,1.6E-07,0.00699875
,,,1.7E-07,0.006870625
,,,1.8E-07,0.006760625
,,,1.9E-07,0.0067625
,,,2E-07,0.00654375
,,,2.1E-07,0.00652875
,,,2.2E-07,0.006464375
,,,2.3E-07,0.006569375
,,,2.4E-07,0.006556875
,,,2.5E-07,0.006729375
,,,2.6E-07,0.006699375
,,,2.7E-07,0.006881875
,,,2.8E-07,0.006763125
,,,2.9E-07,0.0066075
,,,3E-07,0.006528125
,,,3.1E-07,0.00664
,,,3.2E-07,0.0068625
,,,3.3E-07,0.006844375
,,,3.4E-07,0.006869375
,,,3.5E-07,0.00698
,,,3.6E-07,0.006630625
,,,3.7E-07,0.00654
,,,3.8E-07,0.006730625
,,,3.9E-07,0.00664625
,,,4E-07,0.00647
,,,4.1E-07,0.00669375
,,,4.2E-07,0.006738125
,,,4.3E-07,0.00680625
,,,4.4E-07,0.006816875
,,,4.5E-07,0.006485
,,,4.6E-07,0.006680625
,,,4.7E-07,0.00664125
,,,4.8E-07,0.006560625
,,,4.9E-07,0.00632125
,,,5E-07,0.00685875
,,,5.1E-07,0.006829375
,,,5.2E-07,0.006616875
,,,5.3E-07,0.006620625
,,,5.4E-07,0.006735
,,,5.5E-07,0.006700625
,,,5.6E-07,0.006781875
,,,5.7E-07,0.00700875
,,,5.8E-07,0.006898125
,,,5.9E-07,0.006521875
,,,6E-07,0.006428125
,,,6.1E-07,0.006858125
,,,6.2E-07,0.006685
,,,6.3E-07,0.006813125
,,,6.4E-07,0.006654375
,,,6.5E-07,0.006840625
,,,6.6E-07,0.006560625
,,,6.7E-07,0.006885625
,,,6.8E-07,0.0066475
,,,6.9E-07,0.00663125
,,,7E-07,0.00646375
,,,7.1E-07,0.006655625
,,,7.2E-07,0.006665
,,,7.3E-07,0.006506875
,,,7.4E-07,0.00674125
,,,7.5E-07,0.00654625
,,,7.6E-07,0.00668875
,,,7.7E-07,0.006691875
,,,7.8E-07,0.00679
,,,7.9E-07,0.00682125
,,,8E-07,0.00678125
,,,8.1E-07,0.00670625
,,,8.2E-07,0.00651
,,,8.3E-07,0.006818125
,,,8.4E-07,0.006788125
,,,8.5E-07,0.00642125
,,,8.6E-07,0.0067675
,,,8.7E-07,0.006644375
,,,8.8E-07,0.00658
,,,8.9E-07,0.006761875
,,,9E-07,0.00660625
,,,9.1E-07,0.00657
,,,9.2E-07,0.00678125
,,,9.3E-07,0.006638125
,,,9.4E-07,0.006905
,,,9.5E-07,0.00664
,,,9.6E-07,0.00669375
,,,9.7E-07,0.006785625
,,,9.8E-07,0.00647375
,,,9.9E-07,0.00686125
,,,1E-06,0.006573125
,,,1.01E-06,0.006519375
,,,1.02E-06,0.006670625
,,,1.03E-06,0.006439375
,,,1.04E-06,0.006638125
,,,1.05E-06,0.006554375
,,,1.06E-06,0.006770625
,,,1.07E-06,0.006655
,,,1.08E-06,0.00683
,,,1.09E-06,0.006435
,,,1.1E-06,0.006551875
,,,1.11E-06,0.006636875
,,,1.12E-06,0.00665125
,,,1.13E-06,0.00645
,,,1.14E-06,0.00646
,,,1.15E-06,0.006788125
,,,1.16E-06,0.00672875
,,,1.17E-06,0.0069
,,,1.18E-06,0.0064025
,,,1.19E-06,0.0064775
,,,1.2E-06,0.006691875
,,,1.21E-06,0.006595625
,,,1.22E-06,0.006365
,,,1.23E-06,0.006773125
,,,1.24E-06,0.006509375
,,,1.25E-06,0.006691875
,,,1.26E-06,0.006373125
,,,1.27E-06,0.0068125
,,,1.28E-06,0.006635
,,,1.29E-06,0.00669
,,,1.3E-06,0.00662375
,,,1.31E-06,0.00675
,,,1.32E-06,0.00659125
,,,1.33E-06,0.006514375
,,,1.34E-06,0.006880625
,,,1.35E-06,0.00642875
,,,1.36E-06,0.00648125
,,,1.37E-06,0.006719375
,,,1.38E-06,0.00659625
,,,1.39E-06,0.00682
,,,1.4E-06,0.00669125
,,,1.41E-06,0.006881875
,,,1.42E-06,0.00664375
,,,1.43E-06,0.00656
,,,1.44E-06,0.006680625
,,,1.45E-06,0.006699375
,,,1.46E-06,0.006683125
,,,1.47E-06,0.006756875
,,,1.48E-06,0.0066575
,,,1.49E-06,0.006454375
,,,1.5E-06,0.006748125
,,,1.51E-06,0.006566875
,,,1.52E-06,0.00643125
,,,1.53E-06,0.006681875
,,,1.54E-06,0.006660625
,,,1.55E-06,0.00661
,,,1.56E-06,0.0067875
,,,1.57E-06,0.0069375
,,,1.58E-06,0.006624375
,,,1.59E-06,0.00660125
,,,1.6E-06,0.006655
,,,1.61E-06,0.0065775
,,,1.62E-06,0.006651875
,,,1.63E-06,0.006825
,,,1.64E-06,0.006544375
,,,1.65E-06,0.006849375
,,,1.66E-06,0.006936875
,,,1.67E-06,0.00667
,,,1.68E-06,0.0066025
,,,1.69E-06,0.0064775
,,,1.7E-06,0.0065725
,,,1.71E-06,0.006449375
,,,1.72E-06,0.006823125
,,,1.73E-06,0.00663
,,,1.74E-06,0.00654125
,,,1.75E-06,0.0066375
,,,1.76E-06,0.006774375
,,,1.77E-06,0.006766875
,,,1.78E-06,0.006665
,,,1.79E-06,0.006675
,,,1.8E-06,0.006749375
,,,1.81E-06,0.00660625
,,,1.82E-06,0.00674125
,,,1.83E-06,0.006733125
,,,1.84E-06,0.00691625
,,,1.85E-06,0.006639375
,,,1.86E-06,0.006570625
,,,1.87E-06,0.0065475
,,,1.88E-06,0.00676125
,,,1.89E-06,0.0069425
,,,1.9E-06,0.00681625
,,,1.91E-06,0.0066375
,,,1.92E-06,0.00668125
,,,1.93E-06,0.006685
,,,1.94E-06,0.006633125
,,,1.95E-06,0.006395625
,,,1.96E-06,0.0068225
,,,1.97E-06,0.006803125
,,,1.98E-06,0.006685
,,,1.99E-06,0.006870625
,,,2E-06,0.006895
,,,2.01E-06,0.00675625
,,,2.02E-06,0.0066575
,,,2.03E-06,0.0062375
,,,2.04E-06,0.0065475
,,,2.05E-06,0.006725
,,,2.06E-06,0.006466875
,,,2.07E-06,0.006826875
,,,2.08E-06,0.006541875
,,,2.09E-06,0.006581875
,,,2.1E-06,0.006665
,,,2.11E-06,0.00665875
,,,2.12E-06,0.00674375
,,,2.13E-06,0.0068225
,,,2.14E-06,0.006748125
,,,2.15E-06,0.006728125
,,,2.16E-06,0.00685625
,,,2.17E-06,0.006689375
,,,2.18E-06,0.006561875
,,,2.19E-06,0.00682375
,,,2.2E-06,0.006608125
,,,2.21E-06,0.006709375
,,,2.22E-06,0.00678875
,,,2.23E-06,0.0068525
,,,2.24E-06,0.006744375
,,,2.25E-06,0.00689125
,,,2.26E-06,0.006659375
,,,2.27E-06,0.006473125
,,,2.28E-06,0.006710625
,,,2.29E-06,0.00648125
,,,2.3E-06,0.00668375
,,,2.31E-06,0.00686375
,,,2.32E-06,0.00662125
,,,2.33E-06,0.0066625
,,,2.34E-06,0.00672625
,,,2.35E-06,0.006700625
,,,2.36E-06,0.006606875
,,,2.37E-06,0.00691
,,,2.38E-06,0.006801875
,,,2.39E-06,0.006663125
,,,2.4E-06,0.00665375
,,,2.41E-06,0.006693125
,,,2.42E-06,0.0065375
,,,2.43E-06,0.00686
,,,2.44E-06,0.006698125
,,,2.45E-06,0.006723125
,,,2.46E-06,0.00660125
,,,2.47E-06,0.006675
,,,2.48E-06,0.006870625
,,,2.49E-06,0.0067275
,,,2.5E-06,0.006624375
,,,2.51E-06,0.006665
,,,2.52E-06,0.00644375
,,,2.53E-06,0.00676625
,,,2.54E-06,0.006739375
,,,2.55E-06,0.006903125
,,,2.56E-06,0.006723125
,,,2.57E-06,0.00668
,,,2.58E-06,0.00648
,,,2.59E-06,0.00667875
,,,2.6E-06,0.006480625
,,,2.61E-06,0.00666
,,,2.62E-06,0.006374375
,,,2.63E-06,0.00668
,,,2.64E-06,0.006821875
,,,2.65E-06,0.006985625
,,,2.66E-06,0.0064125
,,,2.67E-06,0.006563125
,,,2.68E-06,0.0064225
,,,2.69E-06,0.006554375
,,,2.7E-06,0.0065575
,,,2.71E-06,0.006641875
,,,2.72E-06,0.00643375
,,,2.73E-06,0.006780625
,,,2.74E-06,0.006558125
,,,2.75E-06,0.0067
,,,2.76E-06,0.0064175
,,,2.77E-06,0.00679
,,,2.78E-06,0.00686375
,,,2.79E-06,0.006648125
,,,2.8E-06,0.006544375
,,,2.81E-06,0.006776875
,,,2.82E-06,0.00666125
,,,2.83E-06,0.006795
,,,2.84E-06,0.0067775
,,,2.85E-06,0.006505625
,,,2.86E-06,0.006529375
,,,2.87E-06,0.0066225
,,,2.88E-06,0.006783125
,,,2.89E-06,0.006818125
,,,2.9E-06,0.006753125
,,,2.91E-06,0.006783125
,,,2.92E-06,0.006489375
,,,2.93E-06,0.006719375
,,,2.94E-06,0.00680375
,,,2.95E-06,0.006728125
,,,2.96E-06,0.0067175
,,,2.97E-06,0.00665625
,,,2.98E-06,0.006935625
,,,2.99E-06,0.006638125
,,,3E-06,0.006829375
,,,3.01E-06,0.00638875
,,,3.02E-06,0.00663375
,,,3.03E-06,0.0066025
,,,3.04E-06,0.0068025
,,,3.05E-06,0.00646
,,,3.06E-06,0.0067825
,,,3.07E-06,0.00674875
,,,3.08E-06,0.00656
,,,3.09E-06,0.006776875
,,,3.1E-06,0.006766875
,,,3.11E-06,0.00679375
,,,3.12E-06,0.00676125
,,,3.13E-06,0.00683625
,,,3.14E-06,0.006514375
,,,3.15E-06,0.00675375
,,,3.16E-06,0.00657
,,,3.17E-06,0.0066025
,,,3.18E-06,0.00661125
,,,3.19E-06,0.006565625
,,,3.2E-06,0.006921875
,,,3.21E-06,0.0065425
,,,3.22E-06,0.00686375
,,,3.23E-06,0.00679625
,,,3.24E-06,0.006640625
,,,3.25E-06,0.0064875
,,,3.26E-06,0.006714375
,,,3.27E-06,0.00653875
,,,3.28E-06,0.00680625
,,,3.29E-06,0.006833125
,,,3.3E-06,0.00675375
,,,3.31E-06,0.00679375
,,,3.32E-06,0.00672875
,,,3.33E-06,0.0066625
,,,3.34E-06,0.00650625
,,,3.35E-06,0.006434375
,,,3.36E-06,0.006605
,,,3.37E-06,0.00683375
,,,3.38E-06,0.006678125
,,,3.39E-06,0.006868125
,,,3.4E-06,0.006611875
,,,3.41E-06,0.00628875
,,,3.42E-06,0.0066875
,,,3.43E-06,0.00626125
,,,3.44E-06,0.006719375
,,,3.45E-06,0.006728125
,,,3.46E-06,0.006721875
,,,3.47E-06,0.006705
,,,3.48E-06,0.00678625
,,,3.49E-06,0.00651625
,,,3.5E-06,0.006536875
,,,3.51E-06,0.006768125
,,,3.52E-06,0.00653125
,,,3.53E-06,0.006743125
,,,3.54E-06,0.006596875
,,,3.55E-06,0.00674625
,,,3.56E-06,0.006690625
,,,3.57E-06,0.006834375
