data/raw/Final_POL_Test_1/SOP005_Ch2.csv

"Record Length",1000,"Points",-5E-06,0.0198525
"Sample Interval",1E-08,s,-4.99E-06,0.019871875
"Trigger Point",500,"Samples",-4.98E-06,0.020088125
"Trigger Time",0,s,-4.97E-06,0.020025
"",,,-4.96E-06,0.0197725
"Horizontal Offset",-5E-06,s,-4.95E-06,0.01992
,,,-4.94E-06,0.0200025
,,,-4.93E-06,0.020053125
,,,-4.92E-06,0.019976875
,,,-4.91E-06,0.019805625
,,,-4.9E-06,0.0199975
,,,-4.89E-06,0.020080625
,,,-4.88E-06,0.02036
,,,-4.87E-06,0.019758125
,,,-4.86E-06,0.01992
,,,-4.85E-06,0.020035625
,,,-4.84E-06,0.019676875
,,,-4.83E-06,0.020335
,,,-4.82E-06,0.019976875
,,,-4.81E-06,0.019938125
,,,-4.8E-06,0.019841875
,,,-4.79E-06,0.019918125
,,,-4.78E-06,0.019993125
,,,-4.77E-06,0.0201875
,,,-4.76E-06,0.01986125
,,,-4.75E-06,0.020035625
,,,-4.74E-06,0.0201775
,,,-4.73E-06,0.02004875
,,,-4.72E-06,0.020134375
,,,-4.71E-06,0.019901875
,,,-4.7E-06,0.0201825
,,,-4.69E-06,0.020096875
,,,-4.68E-06,0.020073125
,,,-4.67E-06,0.02002125
,,,-4.66E-06,0.020064375
,,,-4.65E-06,0.020046875
,,,-4.64E-06,0.020365625
,,,-4.63E-06,0.020048125
,,,-4.62E-06,0.01980125
,,,-4.61E-06,0.019983125
,,,-4.6E-06,0.0200775
,,,-4.59E-06,0.020261875
,,,-4.58E-06,0.0199325
,,,-4.57E-06,0.02011
,,,-4.56E-06,0.020029375
,,,-4.55E-06,0.02023375
,,,-4.54E-06,0.02036375
,,,-4.53E-06,0.019933125
,,,-4.52E-06,0.02006
,,,-4.51E-06,0.01999625
,,,-4.5E-06,0.019771875
,,,-4.49E-06,0.020053125
,,,-4.48E-06,0.01989625
,,,-4.47E-06,0.019625
,,,-4.46E-06,0.020040625
,,,-4.45E-06,0.01997375
,,,-4.44E-06,0.020095625
,,,-4.43E-06,0.020083125
,,,-4.42E-06,0.019695625
,,,-4.41E-06,0.020053125
,,,-4.4E-06,0.0202575
,,,-4.39E-06,0.019820625
,,,-4.38E-06,0.01999875
,,,-4.37E-06,0.02007375
,,,-4.36E-06,0.02010125
,,,-4.35E-06,0.019715
,,,-4.34E-06,0.019745
,,,-4.33E-06,0.020045625
,,,-4.32E-06,0.01972875
,,,-4.31E-06,0.019950625
,,,-4.3E-06,0.020118125
,,,-4.29E-06,0.01990625
,,,-4.28E-06,0.01997125
,,,-4.27E-06,0.01986875
,,,-4.26E-06,0.019831875
,,,-4.25E-06,0.02010375
,,,-4.24E-06,0.020025
,,,-4.23E-06,0.020008125
,,,-4.22E-06,0.02008
,,,-4.21E-06,0.0201875
,,,-4.2E-06,0.0198975
,,,-4.19E-06,0.02022
,,,-4.18E-06,0.020103125
,,,-4.17E-06,0.01981125
,,,-4.16E-06,0.020174375
,,,-4.15E-06,0.019894375
,,,-4.14E-06,0.020154375
,,,-4.13E-06,0.020116875
,,,-4.12E-06,0.019964375
,,,-4.11E-06,0.01975
,,,-4.1E-06,0.0200225
,,,-4.09E-06,0.019985
,,,-4.08E-06,0.020071875
,,,-4.07E-06,0.01985375
,,,-4.06E-06,0.0199725
,,,-4.05E-06,0.020074375
,,,-4.04E-06,0.019960625
,,,-4.03E-06,0.020099375
,,,-4.02E-06,0.01987625
,,,-4.01E-06,0.019890625
,,,-4E-06,0.019948125
,,,-3.99E-06,0.0199575
,,,-3.98E-06,0.020068125
,,,-3.97E-06,0.019873125
,,,-3.96E-06,0.019983125
,,,-3.95E-06,0.01991375
,,,-3.94E-06,0.019963125
,,,-3.93E-06,0.0199725
,,,-3.92E-06,0.0198825
,,,-3.91E-06,0.020209375
,,,-3.9E-06,0.020129375
,,,-3.89E-06,0.01995125
,,,-3.88E-06,0.020028125
,,,-3.87E-06,0.01986875
,,,-3.86E-06,0.0197875
,,,-3.85E-06,0.020065625
,,,-3.84E-06,0.019825
,,,-3.83E-06,0.020190625
,,,-3.82E-06,0.02016625
,,,-3.81E-06,0.02008375
,,,-3.8E-06,0.019934375
,,,-3.79E-06,0.01984375
,,,-3.78E-06,0.0199075
,,,-3.77E-06,0.01988375
,,,-3.76E-06,0.02021125
,,,-3.75E-06,0.02020875
,,,-3.74E-06,0.0199925
,,,-3.73E-06,0.02021875
,,,-3.72E-06,0.020083125
,,,-3.71E-06,0.020188125
,,,-3.7E-06,0.02002
,,,-3.69E-06,0.02003875
,,,-3.68E-06,0.019965
,,,-3.67E-06,0.01996875
,,,-3.66E-06,0.020151875
,,,-3.65E-06,0.01987
,,,-3.64E-06,0.019878125
,,,-3.63E-06,0.01975875
,,,-3.62E-06,0.02021125
,,,-3.61E-06,0.019984375
,,,-3.6E-06,0.02009875
,,,-3.59E-06,0.020233125
,,,-3.58E-06,0.020166875
,,,-3.57E-06,0.019805
,,,-3.56E-06,0.019981875
,,,-3.55E-06,0.02001625
,,,-3.54E-06,0.019900625
,,,-3.53E-06,0.02011875
,,,-3.52E-06,0.02025875
,,,-3.51E-06,0.020189375
,,,-3.5E-06,0.02002625
,,,-3.49E-06,0.02010375
,,,-3.48E-06,0.01978
,,,-3.47E-06,0.01995125
,,,-3.46E-06,0.019989375
,,,-3.45E-06,0.01985375
,,,-3.44E-06,0.0197875
,,,-3.43E-06,0.0199
,,,-3.42E-06,0.01995125
,,,-3.41E-06,0.020130625
,,,-3.4E-06,0.01988
,,,-3.39E-06,0.019821875
,,,-3.38E-06,0.01991375
,,,-3.37E-06,0.01979375
,,,-3.36E-06,0.0198775
,,,-3.35E-06,0.020098125
,,,-3.34E-06,0.020035
,,,-3.33E-06,0.020026875
,,,-3.32E-06,0.019988125
,,,-3.31E-06,0.01994125
,,,-3.3E-06,0.019965
,,,-3.29E-06,0.019955
,,,-3.28E-06,0.0199375
,,,-3.27E-06,0.019963125
,,,-3.26E-06,0.019743125
,,,-3.25E-06,0.01991
,,,-3.24E-06,0.019859375
,,,-3.23E-06,0.020088125
,,,-3.22E-06,0.020043125
,,,-3.21E-06,0.019849375
,,,-3.2E-06,0.02022125
,,,-3.19E-06,0.020145625
,,,-3.18E-06,0.02025875
,,,-3.17E-06,0.019976875
,,,-3.16E-06,0.02021625
,,,-3.15E-06,0.0199675
,,,-3.14E-06,0.0200975
,,,-3.13E-06,0.020016875
,,,-3.12E-06,0.019929375
,,,-3.11E-06,0.01994
,,,-3.1E-06,0.02000875
,,,-3.09E-06,0.01993625
,,,-3.08E-06,0.01988375
,,,-3.07E-06,0.020035625
,,,-3.06E-06,0.019946875
,,,-3.05E-06,0.020180625
,,,-3.04E-06,0.019750625
,,,-3.03E-06,0.020103125
,,,-3.02E-06,0.020125
,,,-3.01E-06,0.020241875
,,,-3E-06,0.019856875
,,,-2.99E-06,0.020285625
,,,-2.98E-06,0.020025625
,,,-2.97E-06,0.01998375
,,,-2.96E-06,0.0200275
,,,-2.95E-06,0.019855
,,,-2.94E-06,0.0203075
,,,-2.93E-06,0.020089375
,,,-2.92E-06,0.019830625
,,,-2.91E-06,0.020281875
,,,-2.9E-06,0.020215
,,,-2.89E-06,0.020018125
,,,-2.88E-06,0.019924375
,,,-2.87E-06,0.01989
,,,-2.86E-06,0.019844375
,,,-2.85E-06,0.019965625
,,,-2.84E-06,0.020389375
,,,-2.83E-06,0.020408125
,,,-2.82E-06,0.02014
,,,-2.81E-06,0.01993375
,,,-2.8E-06,0.02018875
,,,-2.79E-06,0.020128125
,,,-2.78E-06,0.020101875
,,,-2.77E-06,0.020076875
,,,-2.76E-06,0.020046875
,,,-2.75E-06,0.02008
,,,-2.74E-06,0.02008
,,,-2.73E-06,0.0199475
,,,-2.72E-06,0.01987875
,,,-2.71E-06,0.0200425
,,,-2.7E-06,0.019925625
,,,-2.69E-06,0.02011375
,,,-2.68E-06,0.02
,,,-2.67E-06,0.01998875
,,,-2.66E-06,0.0199025
,,,-2.65E-06,0.02020625
,,,-2.64E-06,0.020189375
,,,-2.63E-06,0.02024625
,,,-2.62E-06,0.020008125
,,,-2.61E-06,0.020011875
,,,-2.6E-06,0.0199075
,,,-2.59E-06,0.020066875
,,,-2.58E-06,0.020176875
,,,-2.57E-06,0.019934375
,,,-2.56E-06,0.01996
,,,-2.55E-06,0.019920625
,,,-2.54E-06,0.020061875
,,,-2.53E-06,0.0200625
,,,-2.52E-06,0.01993625
,,,-2.51E-06,0.019733125
,,,-2.5E-06,0.02
,,,-2.49E-06,0.02038625
,,,-2.48E-06,0.020099375
,,,-2.47E-06,0.019946875
,,,-2.46E-06,0.020015625
,,,-2.45E-06,0.019965625
,,,-2.44E-06,0.0203225
,,,-2.43E-06,0.019983125
,,,-2.42E-06,0.020205
,,,-2.41E-06,0.01996125
,,,-2.4E-06,0.01981625
,,,-2.39E-06,0.020205
,,,-2.38E-06,0.020060625
,,,-2.37E-06,0.02017875
,,,-2.36E-06,0.02005875
,,,-2.35E-06,0.01969875
,,,-2.34E-06,0.019935
,,,-2.33E-06,0.019946875
,,,-2.32E-06,0.0200525
,,,-2.31E-06,0.020130625
,,,-2.3E-06,0.019878125
,,,-2.29E-06,0.01993125
,,,-2.28E-06,0.02017875
,,,-2.27E-06,0.020043125
,,,-2.26E-06,0.020049375
,,,-2.25E-06,0.020055
,,,-2.24E-06,0.019954375
,,,-2.23E-06,0.020084375
,,,-2.22E-06,0.02017
,,,-2.21E-06,0.02000625
,,,-2.2E-06,0.01979875
,,,-2.19E-06,0.020001875
,,,-2.18E-06,0.01977625
,,,-2.17E-06,0.0200075
,,,-2.16E-06,0.019985625
,,,-2.15E-06,0.020340625
,,,-2.14E-06,0.0200325
,,,-2.13E-06,0.019780625
,,,-2.12E-06,0.02003125
,,,-2.11E-06,0.020185625
,,,-2.1E-06,0.02008375
,,,-2.09E-06,0.019855625
,,,-2.08E-06,0.01981625
,,,-2.07E-06,0.019831875
,,,-2.06E-06,0.02015375
,,,-2.05E-06,0.02000125
,,,-2.04E-06,0.02022875
,,,-2.03E-06,0.02003125
,,,-2.02E-06,0.019868125
,,,-2.01E-06,0.020076875
,,,-2E-06,0.019953125
,,,-1.99E-06,0.0203925
,,,-1.98E-06,0.0197875
,,,-1.97E-06,0.020016875
,,,-1.96E-06,0.02001
,,,-1.95E-06,0.020078125
,,,-1.94E-06,0.020235625
,,,-1.93E-06,0.0202225
,,,-1.92E-06,0.020095
,,,-1.91E-06,0.0203575
,,,-1.9E-06,0.01977125
,,,-1.89E-06,0.020165625
,,,-1.88E-06,0.0199675
,,,-1.87E-06,0.02018875
,,,-1.86E-06,0.019999375
,,,-1.85E-06,0.020235625
,,,-1.84E-06,0.020030625
,,,-1.83E-06,0.020191875
,,,-1.82E-06,0.020278125
,,,-1.81E-06,0.02002375
,,,-1.8E-06,0.0197975
,,,-1.79E-06,0.019894375
,,,-1.78E-06,0.019955
,,,-1.77E-06,0.020045
,,,-1.76E-06,0.020121875
,,,-1.75E-06,0.02016
,,,-1.74E-06,0.019845
,,,-1.73E-06,0.019915
,,,-1.72E-06,0.01981625
,,,-1.71E-06,0.02003375
,,,-1.7E-06,0.020013125
,,,-1.69E-06,0.019874375
,,,-1.68E-06,0.019968125
,,,-1.67E-06,0.020045
,,,-1.66E-06,0.019994375
,,,-1.65E-06,0.020068125
,,,-1.64E-06,0.0202825
,,,-1.63E-06,0.02011125
,,,-1.62E-06,0.019805
,,,-1.61E-06,0.020225
,,,-1.6E-06,0.01981
,,,-1.59E-06,0.01986625
,,,-1.58E-06,0.020075
,,,-1.57E-06,0.01987625
,,,-1.56E-06,0.019893125
,,,-1.55E-06,0.01978
,,,-1.54E-06,0.020061875
,,,-1.53E-06,0.0200475
,,,-1.52E-06,0.0201125
,,,-1.51E-06,0.020118125
,,,-1.5E-06,0.020003125
,,,-1.49E-06,0.0197025
,,,-1.48E-06,0.01995125
,,,-1.47E-06,0.01991125
,,,-1.46E-06,0.02005
,,,-1.45E-06,0.01981625
,,,-1.44E-06,0.0198825
,,,-1.43E-06,0.019724375
,,,-1.42E-06,0.01998375
,,,-1.41E-06,0.019898125
,,,-1.4E-06,0.02017125
,,,-1.39E-06,0.02003625
,,,-1.38E-06,0.0199675
,,,-1.37E-06,0.020041875
,,,-1.36E-06,0.020024375
,,,-1.35E-06,0.01989
,,,-1.34E-06,0.0200425
,,,-1.33E-06,0.0202125
,,,-1.32E-06,0.02006875
,,,-1.31E-06,0.02005
,,,-1.3E-06,0.02015875
,,,-1.29E-06,0.02000375
,,,-1.28E-06,0.019874375
,,,-1.27E-06,0.020223125
,,,-1.26E-06,0.02007
,,,-1.25E-06,0.020015
,,,-1.24E-06,0.020101875
,,,-1.23E-06,0.019906875
,,,-1.22E-06,0.020025625
,,,-1.21E-06,0.020133125
,,,-1.2E-06,0.020089375
,,,-1.19E-06,0.020020625
,,,-1.18E-06,0.020146875
,,,-1.17E-06,0.019891875
,,,-1.16E-06,0.020320625
,,,-1.15E-06,0.019908125
,,,-1.14E-06,0.019959375
,,,-1.13E-06,0.019886875
,,,-1.12E-06,0.01978625
,,,-1.11E-06,0.0199475
,,,-1.1E-06,0.020006875
,,,-1.09E-06,0.020188125
,,,-1.08E-06,0.019941875
,,,-1.07E-06,0.019914375
,,,-1.06E-06,0.020243125
,,,-1.05E-06,0.019984375
,,,-1.04E-06,0.020113125
,,,-1.03E-06,0.0199825
,,,-1.02E-06,0.020135
,,,-1.01E-06,0.0199325
,,,-1E-06,0.01975125
,,,-9.9E-07,0.02015375
,,,-9.8E-07,0.020035
,,,-9.7E-07,0.019985625
,,,-9.6E-07,0.020190625
,,,-9.5E-07,0.02002125
,,,-9.4E-07,0.0201525
,,,-9.3E-07,0.0198575
,,,-9.2E-07,0.0199625
,,,-9.1E-07,0.020078125
,,,-9E-07,0.020006875
,,,-8.9E-07,0.020119375
,,,-8.8E-07,0.01994625
,,,-8.7E-07,0.019950625
,,,-8.6E-07,0.020068125
,,,-8.5E-07,0.019965625
,,,-8.4E-07,0.01971625
,,,-8.3E-07,0.019949375
,,,-8.2E-07,0.02004875
,,,-8.1E-07,0.02009375
,,,-8E-07,0.02006375
,,,-7.9E-07,0.01988625
,,,-7.8E-07,0.0199975
,,,-7.7E-07,0.020134375
,,,-7.6E-07,0.020174375
,,,-7.5E-07,0.020288125
,,,-7.4E-07,0.019863125
,,,-7.3E-07,0.020111875
,,,-7.2E-07,0.0200025
,,,-7.1E-07,0.0201775
,,,-7E-07,0.0199425
,,,-6.9E-07,0.019960625
,,,-6.8E-07,0.019906875
,,,-6.7E-07,0.019895
,,,-6.6E-07,0.020016875
,,,-6.5E-07,0.019901875
,,,-6.4E-07,0.020126875
,,,-6.3E-07,0.0199375
,,,-6.2E-07,0.020221875
,,,-6.1E-07,0.019935625
,,,-6E-07,0.0199525
,,,-5.9E-07,0.020081875
,,,-5.8E-07,0.019985625
,,,-5.7E-07,0.02015875
,,,-5.6E-07,0.01979
,,,-5.5E-07,0.019866875
,,,-5.4E-07,0.019996875
,,,-5.3E-07,0.0202025
,,,-5.2E-07,0.020069375
,,,-5.1E-07,0.020201875
,,,-5E-07,0.020115625
,,,-4.9E-07,0.020025625
,,,-4.8E-07,0.02006125
,,,-4.7E-07,0.0200375
,,,-4.6E-07,0.020066875
,,,-4.5E-07,0.02002875
,,,-4.4E-07,0.020073125
,,,-4.3E-07,0.02017
,,,-4.2E-07,0.020008125
,,,-4.1E-07,0.02008625
,,,-4E-07,0.019864375
,,,-3.9E-07,0.019918125
,,,-3.8E-07,0.020055625
,,,-3.7E-07,0.0199675
,,,-3.6E-07,0.02011125
,,,-3.5E-07,0.01977
,,,-3.4E-07,0.019975
,,,-3.3E-07,0.01999875
,,,-3.2E-07,0.0200925
,,,-3.1E-07,0.019901875
,,,-3E-07,0.01986875
,,,-2.9E-07,0.01988375
,,,-2.8E-07,0.0201175
,,,-2.7E-07,0.01991875
,,,-2.6E-07,0.02020875
,,,-2.5E-07,0.019991875
,,,-2.4E-07,0.02011625
,,,-2.3E-07,0.019719375
,,,-2.2E-07,0.0198925
,,,-2.1E-07,0.019968125
,,,-2E-07,0.02000625
,,,-1.9E-07,0.020034375
,,,-1.8E-07,0.01994
,,,-1.7E-07,0.019965625
,,,-1.6E-07,0.0201725
,,,-1.5E-07,0.019941875
,,,-1.4E-07,0.020169375
,,,-1.3E-07,0.02012375
,,,-1.2E-07,0.019831875
,,,-1.1E-07,0.020188125
,,,-1E-07,0.02008
,,,-9E-08,0.0201075
,,,-8E-08,0.02005625
,,,-7E-08,0.020073125
,,,-6E-08,0.020063125
,,,-5E-08,0.0203125
,,,-4E-08,0.020145
,,,-3E-08,0.0204125
,,,-2E-08,0.019606875
,,,-1E-08,0.019668125
,,,0,0.019233125
,,,1E-08,0.020759375
,,,2E-08,0.02110375
,,,3E-08,0.02097625
,,,4E-08,0.01999
,,,5E-08,0.0192875
,,,6E-08,0.01919
,,,7E-08,0.01971875
,,,8E-08,0.020254375
,,,9E-08,0.02058625
,,,1E-07,0.02052875
,,,1.1E-07,0.0201725
,,,1.2E-07,0.019821875
,,,1.3E-07,0.019706875
,,,1.4E-07,0.01986125
,,,1.5E-07,0.02009375
,,,1.6E-07,0.02014875
,,,1.7E-07,0.019845625
,,,1.8E-07,0.020158125
,,,1.9E-07,0.019928125
,,,2E-07,0.02010625
,,,2.1E-07,0.019826875
,,,2.2E-07,0.020303125
,,,2.3E-07,0.02012125
,,,2.4E-07,0.01990125
,,,2.5E-07,0.020075
,,,2.6E-07,0.0196675
,,,2.7E-07,0.01998625
,,,2.8E-07,0.02011
,,,2.9E-07,0.01993625
,,,3E-07,0.0203375
,,,3.1E-07,0.020161875
,,,3.2E-07,0.02010875
,,,3.3E-07,0.019881875
,,,3.4E-07,0.02011875
,,,3.5E-07,0.01997875
,,,3.6E-07,0.020118125
,,,3.7E-07,0.0198525
,,,3.8E-07,0.020056875
,,,3.9E-07,0.020090625
,,,4E-07,0.02028875
,,,4.1E-07,0.019958125
,,,4.2E-07,0.01976
,,,4.3E-07,0.020055625
,,,4.4E-07,0.019874375
,,,4.5E-07,0.019920625
,,,4.6E-07,0.019853125
,,,4.7E-07,0.01978875
,,,4.8E-07,0.01983875
,,,4.9E-07,0.02019125
,,,5E-07,0.01997375
,,,5.1E-07,0.01997625
,,,5.2E-07,0.019990625
,,,5.3E-07,0.02006375
,,,5.4E-07,0.020085
,,,5.5E-07,0.0201875
,,,5.6E-07,0.019944375
,,,5.7E-07,0.020045
,,,5.8E-07,0.02016375
,,,5.9E-07,0.020089375
,,,6E-07,0.020093125
,,,6.1E-07,0.0199975
,,,6.2E-07,0.0198075
,,,6.3E-07,0.02015
,,,6.4E-07,0.020094375
,,,6.5E-07,0.020248125
,,,6.6E-07,0.019949375
,,,6.7E-07,0.020223125
,,,6.8E-07,0.0199475
,,,6.9E-07,0.019975625
,,,7E-07,0.01994375
,,,7.1E-07,0.0197625
,,,7.2E-07,0.019758125
,,,7.3E-07,0.0201375
,,,7.4E-07,0.0201825
,,,7.5E-07,0.02007375
,,,7.6E-07,0.01982
,,,7.7E-07,0.01997625
,,,7.8E-07,0.01986
,,,7.9E-07,0.02020875
,,,8E-07,0.01988875
,,,8.1E-07,0.0201125
,,,8.2E-07,0.020104375
,,,8.3E-07,0.020059375
,,,8.4E-07,0.020075
,,,8.5E-07,0.0200425
,,,8.6E-07,0.02021625
,,,8.7E-07,0.019961875
,,,8.8E-07,0.01969
,,,8.9E-07,0.02015
,,,9E-07,0.020018125
,,,9.1E-07,0.019781875
,,,9.2E-07,0.02025375
,,,9.3E-07,0.02008125
,,,9.4E-07,0.02000625
,,,9.5E-07,0.0199825
,,,9.6E-07,0.01987625
,,,9.7E-07,0.01995375
,,,9.8E-07,0.01990375
,,,9.9E-07,0.020091875
,,,1E-06,0.020050625
,,,1.01E-06,0.01977
,,,1.02E-06,0.019798125
,,,1.03E-06,0.019981875
,,,1.04E-06,0.0200275
,,,1.05E-06,0.020064375
,,,1.06E-06,0.019978125
,,,1.07E-06,0.020145625
,,,1.08E-06,0.020215625
,,,1.09E-06,0.02003
,,,1.1E-06,0.0200175
,,,1.11E-06,0.020006875
,,,1.12E-06,0.02007
,,,1.13E-06,0.020041875
,,,1.14E-06,0.0199025
,,,1.15E-06,0.0201125
,,,1.16E-06,0.0199375
,,,1.17E-06,0.02011375
,,,1.18E-06,0.019849375
,,,1.19E-06,0.019821875
,,,1.2E-06,0.019700625
,,,1.21E-06,0.020038125
,,,1.22E-06,0.020209375
,,,1.23E-06,0.019966875
,,,1.24E-06,0.020165625
,,,1.25E-06,0.020238125
,,,1.26E-06,0.01992375
,,,1.27E-06,0.019838125
,,,1.28E-06,0.02001
,,,1.29E-06,0.020041875
,,,1.3E-06,0.0200525
,,,1.31E-06,0.02013625
,,,1.32E-06,0.0202375
,,,1.33E-06,0.019823125
,,,1.34E-06,0.019848125
,,,1.35E-06,0.019998125
,,,1.36E-06,0.019899375
,,,1.37E-06,0.020176875
,,,1.38E-06,0.020268125
,,,1.39E-06,0.0202575
,,,1.4E-06,0.020131875
,,,1.41E-06,0.02008125
,,,1.42E-06,0.02002625
,,,1.43E-06,0.0199225
,,,1.44E-06,0.02000875
,,,1.45E-06,0.019955625
,,,1.46E-06,0.019955
,,,1.47E-06,0.019850625
,,,1.48E-06,0.02004
,,,1.49E-06,0.01990125
,,,1.5E-06,0.01989125
,,,1.51E-06,0.0200075
,,,1.52E-06,0.02015125
,,,1.53E-06,0.020119375
,,,1.54E-06,0.019715625
,,,1.55E-06,0.02022375
,,,1.56E-06,0.0199825
,,,1.57E-06,0.0199425
,,,1.58E-06,0.020218125
,,,1.59E-06,0.020011875
,,,1.6E-06,0.019751875
,,,1.61E-06,0.019975625
,,,1.62E-06,0.020020625
,,,1.63E-06,0.020064375
,,,1.64E-06,0.02014
,,,1.65E-06,0.019915
,,,1.66E-06,0.01991125
,,,1.67E-06,0.01977125
,,,1.68E-06,0.02003875
,,,1.69E-06,0.01996625
,,,1.7E-06,0.02004
,,,1.71E-06,0.01984625
,,,1.72E-06,0.020239375
,,,1.73E-06,0.01972375
,,,1.74E-06,0.020066875
,,,1.75E-06,0.020148125
,,,1.76E-06,0.020163125
,,,1.77E-06,0.01997375
,,,1.78E-06,0.01984625
,,,1.79E-06,0.020018125
,,,1.8E-06,0.020155
,,,1.81E-06,0.020329375
,,,1.82E-06,0.019950625
,,,1.83E-06,0.02001
,,,1.84E-06,0.01996875
,,,1.85E-06,0.0202925
,,,1.86E-06,0.02002
,,,1.87E-06,0.02005125
,,,1.88E-06,0.01985375
,,,1.89E-06,0.019933125
,,,1.9E-06,0.019974375
,,,1.91E-06,0.02007625
,,,1.92E-06,0.0197975
,,,1.93E-06,0.0200175
,,,1.94E-06,0.020309375
,,,1.95E-06,0.020016875
,,,1.96E-06,0.0199325
,,,1.97E-06,0.02035625
,,,1.98E-06,0.020225625
,,,1.99E-06,0.02012875
,,,2E-06,0.020325
,,,2.01E-06,0.019905625
,,,2.02E-06,0.02014375
,,,2.03E-06,0.020181875
,,,2.04E-06,0.01992
,,,2.05E-06,0.02004875
,,,2.06E-06,0.020070625
,,,2.07E-06,0.02016375
,,,2.08E-06,0.020326875
,,,2.09E-06,0.020053125
,,,2.1E-06,0.0197925
,,,2.11E-06,0.020161875
,,,2.12E-06,0.019888125
,,,2.13E-06,0.01976625
,,,2.14E-06,0.019949375
,,,2.15E-06,0.02020875
,,,2.16E-06,0.01979875
,,,2.17E-06,0.0201825
,,,2.18E-06,0.020134375
,,,2.19E-06,0.019890625
,,,2.2E-06,0.02006625
,,,2.21E-06,0.020060625
,,,2.22E-06,0.019981875
,,,2.23E-06,0.02018
,,,2.24E-06,0.019758125
,,,2.25E-06,0.0201025
,,,2.26E-06,0.019845625
,,,2.27E-06,0.01984
,,,2.28E-06,0.02006125
,,,2.29E-06,0.0199125
,,,2.3E-06,0.02007
,,,2.31E-06,0.019998125
,,,2.32E-06,0.019994375
,,,2.33E-06,0.020170625
,,,2.34E-06,0.020049375
,,,2.35E-06,0.020046875
,,,2.36E-06,0.020078125
,,,2.37E-06,0.019845
,,,2.38E-06,0.0199925
,,,2.39E-06,0.020088125
,,,2.4E-06,0.02019125
,,,2.41E-06,0.020258125
,,,2.42E-06,0.01991625
,,,2.43E-06,0.020088125
,,,2.44E-06,0.020165625
,,,2.45E-06,0.01990125
,,,2.46E-06,0.02012
,,,2.47E-06,0.0199
,,,2.48E-06,0.02009625
,,,2.49E-06,0.0200675
,,,2.5E-06,0.01984
,,,2.51E-06,0.019798125
,,,2.52E-06,0.020150625
,,,2.53E-06,0.019993125
,,,2.54E-06,0.019780625
,,,2.55E-06,0.02013
,,,2.56E-06,0.0199
,,,2.57E-06,0.01985375
,,,2.58E-06,0.02022
,,,2.59E-06,0.02005875
,,,2.6E-06,0.0198575
,,,2.61E-06,0.01983125
,,,2.62E-06,0.02011625
,,,2.63E-06,0.020153125
,,,2.64E-06,0.020191875
,,,2.65E-06,0.0202175
,,,2.66E-06,0.02
,,,2.67E-06,0.020245
,,,2.68E-06,0.0201675
,,,2.69E-06,0.020029375
,,,2.7E-06,0.01990625
,,,2.71E-06,0.01984875
,,,2.72E-06,0.019984375
,,,2.73E-06,0.020033125
,,,2.74E-06,0.020183125
,,,2.75E-06,0.020116875
,,,2.76E-06,0.019905
,,,2.77E-06,0.019935625
,,,2.78E-06,0.020265625
,,,2.79E-06,0.02009625
,,,2.8E-06,0.02014125
,,,2.81E-06,0.02010625
,,,2.82E-06,0.0200225
,,,2.83E-06,0.020043125
,,,2.84E-06,0.020006875
,,,2.85E-06,0.019785
,,,2.86E-06,0.019869375
,,,2.87E-06,0.020255625
,,,2.88E-06,0.020088125
,,,2.89E-06,0.02001875
,,,2.9E-06,0.019993125
,,,2.91E-06,0.0200925
,,,2.92E-06,0.020123125
,,,2.93E-06,0.019960625
,,,2.94E-06,0.019755625
,,,2.95E-06,0.019789375
,,,2.96E-06,0.01987625
,,,2.97E-06,0.0201325
,,,2.98E-06,0.0200525
,,,2.99E-06,0.020114375
,,,3E-06,0.01999
,,,3.01E-06,0.01983375
,,,3.02E-06,0.020060625
,,,3.03E-06,0.02012875
,,,3.04E-06,0.020130625
,,,3.05E-06,0.019986875
,,,3.06E-06,0.01990375
,,,3.07E-06,0.02011375
,,,3.08E-06,0.020000625
,,,3.09E-06,0.01998
,,,3.1E-06,0.0201025
,,,3.11E-06,0.01989375
,,,3.12E-06,0.01990625
,,,3.13E-06,0.0201725
,,,3.14E-06,0.02001875
,,,3.15E-06,0.019915
,,,3.16E-06,0.020203125
,,,3.17E-06,0.019978125
,,,3.18E-06,0.019836875
,,,3.19E-06,0.019908125
,,,3.2E-06,0.019874375
,,,3.21E-06,0.02015875
,,,3.22E-06,0.019926875
,,,3.23E-06,0.02002375
,,,3.24E-06,0.01990875
,,,3.25E-06,0.01981375
,,,3.26E-06,0.0203125
,,,3.27E-06,0.020331875
,,,3.28E-06,0.019774375
,,,3.29E-06,0.019875625
,,,3.3E-06,0.019965
,,,3.31E-06,0.0198925
,,,3.32E-06,0.019915
,,,3.33E-06,0.01991125
,,,3.34E-06,0.0196825
,,,3.35E-06,0.02003375
,,,3.36E-06,0.0200275
,,,3.37E-06,0.0202675
,,,3.38E-06,0.020213125
,,,3.39E-06,0.01998625
,,,3.4E-06,0.020056875
,,,3.41E-06,0.01992375
,,,3.42E-06,0.0201125
,,,3.43E-06,0.02016
,,,3.44E-06,0.019995625
,,,3.45E-06,0.020034375
,,,3.46E-06,0.01999
,,,3.47E-06,0.01986
,,,3.48E-06,0.01997625
,,,3.49E-06,0.01993
,,,3.5E-06,0.020144375
,,,3.51E-06,0.020029375
,,,3.52E-06,0.020171875
,,,3.53E-06,0.01993625
,,,3.54E-06,0.020099375
,,,3.55E-06,0.02003875
,,,3.56E-06,0.019849375
,,,3.57E-06,0.019871875
,,,3.58E-06,0.0202125
,,,3.59E-06,0.01998
