data/raw/Final_POL_Test_1/SOP000_Ch1.csv

"Record Length",1000,"Points",-5E-06,0.0044075
"Sample Interval",1E-08,s,-4.99E-06,0.00456625
"Trigger Point",500,"Samples",-4.98E-06,0.004421875
"Trigger Time",0,s,-4.97E-06,0.004315
"",,,-4.96E-06,0.0045475
"Horizontal Offset",-5E-06,s,-4.95E-06,0.00467
,,,-4.94E-06,0.004431875
,,,-4.93E-06,0.00430375
,,,-4.92E-06,0.0041975
,,,-4.91E-06,0.004215625
,,,-4.9E-06,0.004278125
,,,-4.89E-06,0.0045775
,,,-4.88E-06,0.004174375
,,,-4.87E-06,0.0045325
,,,-4.86E-06,0.004180625
,,,-4.85E-06,0.004364375
,,,-4.84E-06,0.004495625
,,,-4.83E-06,0.00443125
,,,-4.82E-06,0.004214375
,,,-4.81E-06,0.0046525
,,,-4.8E-06,0.0044225
,,,-4.79E-06,0.004448125
,,,-4.78E-06,0.004414375
,,,-4.77E-06,0.004510625
,,,-4.76E-06,0.00431
,,,-4.75E-06,0.004344375
,,,-4.74E-06,0.00429
,,,-4.73E-06,0.004335
,,,-4.72E-06,0.004474375
,,,-4.71E-06,0.004409375
,,,-4.7E-06,0.004401875
,,,-4.69E-06,0.00443125
,,,-4.68E-06,0.004485
,,,-4.67E-06,0.004505
,,,-4.66E-06,0.004544375
,,,-4.65E-06,0.004513125
,,,-4.64E-06,0.0045425
,,,-4.63E-06,0.004295
,,,-4.62E-06,0.00455625
,,,-4.61E-06,0.00437
,,,-4.6E-06,0.004301875
,,,-4.59E-06,0.004395625
,,,-4.58E-06,0.0043225
,,,-4.57E-06,0.004673125
,,,-4.56E-06,0.004439375
,,,-4.55E-06,0.004574375
,,,-4.54E-06,0.00438625
,,,-4.53E-06,0.00455125
,,,-4.52E-06,0.004240625
,,,-4.51E-06,0.00426125
,,,-4.5E-06,0.0045
,,,-4.49E-06,0.004329375
,,,-4.48E-06,0.004418125
,,,-4.47E-06,0.00443875
,,,-4.46E-06,0.004408125
,,,-4.45E-06,0.00440125
,,,-4.44E-06,0.004506875
,,,-4.43E-06,0.004498125
,,,-4.42E-06,0.00461375
,,,-4.41E-06,0.004355
,,,-4.4E-06,0.004570625
,,,-4.39E-06,0.004366875
,,,-4.38E-06,0.00459375
,,,-4.37E-06,0.00449125
,,,-4.36E-06,0.0043525
,,,-4.35E-06,0.004378125
,,,-4.34E-06,0.0042825
,,,-4.33E-06,0.00449
,,,-4.32E-06,0.004175
,,,-4.31E-06,0.00443375
,,,-4.3E-06,0.00425875
,,,-4.29E-06,0.004423125
,,,-4.28E-06,0.004328125
,,,-4.27E-06,0.004055
,,,-4.26E-06,0.00419625
,,,-4.25E-06,0.0045525
,,,-4.24E-06,0.00444375
,,,-4.23E-06,0.004340625
,,,-4.22E-06,0.004591875
,,,-4.21E-06,0.004381875
,,,-4.2E-06,0.004505625
,,,-4.19E-06,0.00440875
,,,-4.18E-06,0.0043025
,,,-4.17E-06,0.00437125
,,,-4.16E-06,0.00420625
,,,-4.15E-06,0.004435
,,,-4.14E-06,0.004699375
,,,-4.13E-06,0.004470625
,,,-4.12E-06,0.004179375
,,,-4.11E-06,0.00427125
,,,-4.1E-06,0.004390625
,,,-4.09E-06,0.004249375
,,,-4.08E-06,0.004343125
,,,-4.07E-06,0.0044075
,,,-4.06E-06,0.004358125
,,,-4.05E-06,0.00444375
,,,-4.04E-06,0.004390625
,,,-4.03E-06,0.00414625
,,,-4.02E-06,0.00440625
,,,-4.01E-06,0.004575625
,,,-4E-06,0.004444375
,,,-3.99E-06,0.00426875
,,,-3.98E-06,0.004328125
,,,-3.97E-06,0.004490625
,,,-3.96E-06,0.00451
,,,-3.95E-06,0.00441
,,,-3.94E-06,0.004385
,,,-3.93E-06,0.0041825
,,,-3.92E-06,0.0041325
,,,-3.91E-06,0.004378125
,,,-3.9E-06,0.00472
,,,-3.89E-06,0.00444
,,,-3.88E-06,0.004370625
,,,-3.87E-06,0.004508125
,,,-3.86E-06,0.00429
,,,-3.85E-06,0.004618125
,,,-3.84E-06,0.004580625
,,,-3.83E-06,0.004490625
,,,-3.82E-06,0.0045275
,,,-3.81E-06,0.00448
,,,-3.8E-06,0.004104375
,,,-3.79E-06,0.00411875
,,,-3.78E-06,0.004329375
,,,-3.77E-06,0.00444875
,,,-3.76E-06,0.00424625
,,,-3.75E-06,0.00440625
,,,-3.74E-06,0.004309375
,,,-3.73E-06,0.0043825
,,,-3.72E-06,0.00447
,,,-3.71E-06,0.00437375
,,,-3.7E-06,0.0044725
,,,-3.69E-06,0.0043925
,,,-3.68E-06,0.004661875
,,,-3.67E-06,0.004316875
,,,-3.66E-06,0.0044275
,,,-3.65E-06,0.00450375
,,,-3.64E-06,0.0046075
,,,-3.63E-06,0.00436625
,,,-3.62E-06,0.004351875
,,,-3.61E-06,0.0042375
,,,-3.6E-06,0.00436
,,,-3.59E-06,0.004520625
,,,-3.58E-06,0.004421875
,,,-3.57E-06,0.004471875
,,,-3.56E-06,0.00443
,,,-3.55E-06,0.00443875
,,,-3.54E-06,0.00447
,,,-3.53E-06,0.00419
,,,-3.52E-06,0.004485
,,,-3.51E-06,0.00464375
,,,-3.5E-06,0.004111875
,,,-3.49E-06,0.004430625
,,,-3.48E-06,0.004364375
,,,-3.47E-06,0.004251875
,,,-3.46E-06,0.004059375
,,,-3.45E-06,0.00429875
,,,-3.44E-06,0.00432
,,,-3.43E-06,0.004351875
,,,-3.42E-06,0.00433
,,,-3.41E-06,0.00454625
,,,-3.4E-06,0.004256875
,,,-3.39E-06,0.00440125
,,,-3.38E-06,0.004401875
,,,-3.37E-06,0.00445875
,,,-3.36E-06,0.00407875
,,,-3.35E-06,0.004700625
,,,-3.34E-06,0.00438
,,,-3.33E-06,0.0044875
,,,-3.32E-06,0.00421125
,,,-3.31E-06,0.00452125
,,,-3.3E-06,0.004433125
,,,-3.29E-06,0.004565625
,,,-3.28E-06,0.004545
,,,-3.27E-06,0.004576875
,,,-3.26E-06,0.004456875
,,,-3.25E-06,0.00451375
,,,-3.24E-06,0.00458875
,,,-3.23E-06,0.00452125
,,,-3.22E-06,0.00463625
,,,-3.21E-06,0.004401875
,,,-3.2E-06,0.004379375
,,,-3.19E-06,0.004370625
,,,-3.18E-06,0.0042825
,,,-3.17E-06,0.004203125
,,,-3.16E-06,0.00421
,,,-3.15E-06,0.004408125
,,,-3.14E-06,0.004275
,,,-3.13E-06,0.004395625
,,,-3.12E-06,0.004118125
,,,-3.11E-06,0.004451875
,,,-3.1E-06,0.004365
,,,-3.09E-06,0.0044625
,,,-3.08E-06,0.00436625
,,,-3.07E-06,0.004283125
,,,-3.06E-06,0.004595625
,,,-3.05E-06,0.004396875
,,,-3.04E-06,0.00412375
,,,-3.03E-06,0.004275625
,,,-3.02E-06,0.004866875
,,,-3.01E-06,0.00459125
,,,-3E-06,0.004388125
,,,-2.99E-06,0.004354375
,,,-2.98E-06,0.00451125
,,,-2.97E-06,0.00422375
,,,-2.96E-06,0.004171875
,,,-2.95E-06,0.0044425
,,,-2.94E-06,0.004273125
,,,-2.93E-06,0.0043575
,,,-2.92E-06,0.004395
,,,-2.91E-06,0.004308125
,,,-2.9E-06,0.004555
,,,-2.89E-06,0.004351875
,,,-2.88E-06,0.004310625
,,,-2.87E-06,0.004480625
,,,-2.86E-06,0.004650625
,,,-2.85E-06,0.004405625
,,,-2.84E-06,0.00448625
,,,-2.83E-06,0.00416375
,,,-2.82E-06,0.0043925
,,,-2.81E-06,0.004216875
,,,-2.8E-06,0.00440875
,,,-2.79E-06,0.004363125
,,,-2.78E-06,0.00454625
,,,-2.77E-06,0.0045125
,,,-2.76E-06,0.004249375
,,,-2.75E-06,0.004188125
,,,-2.74E-06,0.004663125
,,,-2.73E-06,0.004351875
,,,-2.72E-06,0.004505625
,,,-2.71E-06,0.00416375
,,,-2.7E-06,0.004344375
,,,-2.69E-06,0.00453875
,,,-2.68E-06,0.004459375
,,,-2.67E-06,0.004345625
,,,-2.66E-06,0.00447625
,,,-2.65E-06,0.004543125
,,,-2.64E-06,0.004385625
,,,-2.63E-06,0.00462
,,,-2.62E-06,0.004364375
,,,-2.61E-06,0.004420625
,,,-2.6E-06,0.0041075
,,,-2.59E-06,0.0044425
,,,-2.58E-06,0.004379375
,,,-2.57E-06,0.004655625
,,,-2.56E-06,0.004336875
,,,-2.55E-06,0.004268125
,,,-2.54E-06,0.0041775
,,,-2.53E-06,0.004128125
,,,-2.52E-06,0.00422
,,,-2.51E-06,0.004384375
,,,-2.5E-06,0.00448625
,,,-2.49E-06,0.00452375
,,,-2.48E-06,0.00430875
,,,-2.47E-06,0.00436
,,,-2.46E-06,0.003980625
,,,-2.45E-06,0.004448125
,,,-2.44E-06,0.00442125
,,,-2.43E-06,0.00438625
,,,-2.42E-06,0.004590625
,,,-2.41E-06,0.004549375
,,,-2.4E-06,0.00447875
,,,-2.39E-06,0.00469875
,,,-2.38E-06,0.004593125
,,,-2.37E-06,0.004585
,,,-2.36E-06,0.00446625
,,,-2.35E-06,0.004471875
,,,-2.34E-06,0.004175
,,,-2.33E-06,0.004378125
,,,-2.32E-06,0.004414375
,,,-2.31E-06,0.004355625
,,,-2.3E-06,0.004186875
,,,-2.29E-06,0.0043875
,,,-2.28E-06,0.00431125
,,,-2.27E-06,0.004091875
,,,-2.26E-06,0.004270625
,,,-2.25E-06,0.004333125
,,,-2.24E-06,0.004191875
,,,-2.23E-06,0.004208125
,,,-2.22E-06,0.00452375
,,,-2.21E-06,0.004298125
,,,-2.2E-06,0.00440875
,,,-2.19E-06,0.004446875
,,,-2.18E-06,0.004143125
,,,-2.17E-06,0.004283125
,,,-2.16E-06,0.004440625
,,,-2.15E-06,0.00448625
,,,-2.14E-06,0.004106875
,,,-2.13E-06,0.004239375
,,,-2.12E-06,0.004406875
,,,-2.11E-06,0.004353125
,,,-2.1E-06,0.004093125
,,,-2.09E-06,0.004535625
,,,-2.08E-06,0.00450125
,,,-2.07E-06,0.004280625
,,,-2.06E-06,0.004208125
,,,-2.05E-06,0.004279375
,,,-2.04E-06,0.004433125
,,,-2.03E-06,0.0043425
,,,-2.02E-06,0.00447875
,,,-2.01E-06,0.004664375
,,,-2E-06,0.00432375
,,,-1.99E-06,0.004435625
,,,-1.98E-06,0.004780625
,,,-1.97E-06,0.0043975
,,,-1.96E-06,0.004519375
,,,-1.95E-06,0.00420625
,,,-1.94E-06,0.004438125
,,,-1.93E-06,0.004221875
,,,-1.92E-06,0.004245
,,,-1.91E-06,0.004443125
,,,-1.9E-06,0.004619375
,,,-1.89E-06,0.004121875
,,,-1.88E-06,0.00431625
,,,-1.87E-06,0.00404
,,,-1.86E-06,0.004515
,,,-1.85E-06,0.00444375
,,,-1.84E-06,0.00449375
,,,-1.83E-06,0.004498125
,,,-1.82E-06,0.00425
,,,-1.81E-06,0.00432
,,,-1.8E-06,0.004208125
,,,-1.79E-06,0.0043875
,,,-1.78E-06,0.0044075
,,,-1.77E-06,0.004440625
,,,-1.76E-06,0.004455
,,,-1.75E-06,0.0045325
,,,-1.74E-06,0.00428625
,,,-1.73E-06,0.004471875
,,,-1.72E-06,0.004445625
,,,-1.71E-06,0.00435625
,,,-1.7E-06,0.004475
,,,-1.69E-06,0.004333125
,,,-1.68E-06,0.004406875
,,,-1.67E-06,0.00435375
,,,-1.66E-06,0.00430375
,,,-1.65E-06,0.0044025
,,,-1.64E-06,0.004510625
,,,-1.63E-06,0.004415
,,,-1.62E-06,0.0042525
,,,-1.61E-06,0.00425875
,,,-1.6E-06,0.00434
,,,-1.59E-06,0.0043675
,,,-1.58E-06,0.00427125
,,,-1.57E-06,0.004549375
,,,-1.56E-06,0.004315
,,,-1.55E-06,0.004279375
,,,-1.54E-06,0.004475625
,,,-1.53E-06,0.00430125
,,,-1.52E-06,0.0043625
,,,-1.51E-06,0.004405625
,,,-1.5E-06,0.004440625
,,,-1.49E-06,0.0043675
,,,-1.48E-06,0.00455875
,,,-1.47E-06,0.00419875
,,,-1.46E-06,0.00452375
,,,-1.45E-06,0.00458625
,,,-1.44E-06,0.004295625
,,,-1.43E-06,0.004613125
,,,-1.42E-06,0.004195625
,,,-1.41E-06,0.004590625
,,,-1.4E-06,0.00408875
,,,-1.39E-06,0.004430625
,,,-1.38E-06,0.004370625
,,,-1.37E-06,0.00445125
,,,-1.36E-06,0.004214375
,,,-1.35E-06,0.004556875
,,,-1.34E-06,0.0043975
,,,-1.33E-06,0.004633125
,,,-1.32E-06,0.00431125
,,,-1.31E-06,0.00457125
,,,-1.3E-06,0.0046625
,,,-1.29E-06,0.004418125
,,,-1.28E-06,0.0042975
,,,-1.27E-06,0.00433625
,,,-1.26E-06,0.004175
,,,-1.25E-06,0.004549375
,,,-1.24E-06,0.00438
,,,-1.23E-06,0.00419375
,,,-1.22E-06,0.004435
,,,-1.21E-06,0.004184375
,,,-1.2E-06,0.00442
,,,-1.19E-06,0.004394375
,,,-1.18E-06,0.004420625
,,,-1.17E-06,0.004415
,,,-1.16E-06,0.00444375
,,,-1.15E-06,0.004479375
,,,-1.14E-06,0.004228125
,,,-1.13E-06,0.00417125
,,,-1.12E-06,0.004244375
,,,-1.11E-06,0.004175
,,,-1.1E-06,0.004549375
,,,-1.09E-06,0.004390625
,,,-1.08E-06,0.004144375
,,,-1.07E-06,0.004316875
,,,-1.06E-06,0.004474375
,,,-1.05E-06,0.004509375
,,,-1.04E-06,0.00429625
,,,-1.03E-06,0.004513125
,,,-1.02E-06,0.004513125
,,,-1.01E-06,0.004244375
,,,-1E-06,0.0043175
,,,-9.9E-07,0.004044375
,,,-9.8E-07,0.004265
,,,-9.7E-07,0.004408125
,,,-9.6E-07,0.004726875
,,,-9.5E-07,0.00454375
,,,-9.4E-07,0.00432375
,,,-9.3E-07,0.004351875
,,,-9.2E-07,0.0044325
,,,-9.1E-07,0.004396875
,,,-9E-07,0.00430875
,,,-8.9E-07,0.004116875
,,,-8.8E-07,0.004434375
,,,-8.7E-07,0.004406875
,,,-8.6E-07,0.004356875
,,,-8.5E-07,0.00449625
,,,-8.4E-07,0.00448875
,,,-8.3E-07,0.00452875
,,,-8.2E-07,0.004374375
,,,-8.1E-07,0.004399375
,,,-8E-07,0.00481875
,,,-7.9E-07,0.004621875
,,,-7.8E-07,0.004296875
,,,-7.7E-07,0.00442875
,,,-7.6E-07,0.00431875
,,,-7.5E-07,0.004324375
,,,-7.4E-07,0.0044175
,,,-7.3E-07,0.00454
,,,-7.2E-07,0.004303125
,,,-7.1E-07,0.0042025
,,,-7E-07,0.00443625
,,,-6.9E-07,0.004349375
,,,-6.8E-07,0.00436
,,,-6.7E-07,0.00446
,,,-6.6E-07,0.00433
,,,-6.5E-07,0.0042075
,,,-6.4E-07,0.004596875
,,,-6.3E-07,0.004264375
,,,-6.2E-07,0.004308125
,,,-6.1E-07,0.00425625
,,,-6E-07,0.004369375
,,,-5.9E-07,0.004475625
,,,-5.8E-07,0.004393125
,,,-5.7E-07,0.004436875
,,,-5.6E-07,0.004449375
,,,-5.5E-07,0.0044425
,,,-5.4E-07,0.00452375
,,,-5.3E-07,0.004470625
,,,-5.2E-07,0.004389375
,,,-5.1E-07,0.0042725
,,,-5E-07,0.00441875
,,,-4.9E-07,0.00447875
,,,-4.8E-07,0.00423625
,,,-4.7E-07,0.004481875
,,,-4.6E-07,0.00432125
,,,-4.5E-07,0.0042375
,,,-4.4E-07,0.0046425
,,,-4.3E-07,0.004485
,,,-4.2E-07,0.004475625
,,,-4.1E-07,0.004285625
,,,-4E-07,0.0043175
,,,-3.9E-07,0.004264375
,,,-3.8E-07,0.004435
,,,-3.7E-07,0.0043075
,,,-3.6E-07,0.004618125
,,,-3.5E-07,0.004281875
,,,-3.4E-07,0.00422625
,,,-3.3E-07,0.004521875
,,,-3.2E-07,0.004300625
,,,-3.1E-07,0.004365625
,,,-3E-07,0.004261875
,,,-2.9E-07,0.004565625
,,,-2.8E-07,0.004315
,,,-2.7E-07,0.0042725
,,,-2.6E-07,0.004399375
,,,-2.5E-07,0.00438625
,,,-2.4E-07,0.004295
,,,-2.3E-07,0.00437375
,,,-2.2E-07,0.00440125
,,,-2.1E-07,0.004515625
,,,-2E-07,0.0042175
,,,-1.9E-07,0.00428875
,,,-1.8E-07,0.004350625
,,,-1.7E-07,0.004516875
,,,-1.6E-07,0.00448875
,,,-1.5E-07,0.00435875
,,,-1.4E-07,0.0044425
,,,-1.3E-07,0.004213125
,,,-1.2E-07,0.00408375
,,,-1.1E-07,0.00443375
,,,-1E-07,0.004434375
,,,-9E-08,0.004394375
,,,-8E-08,0.00440875
,,,-7E-08,0.004343125
,,,-6E-08,0.00437125
,,,-5E-08,0.00435875
,,,-4E-08,0.004639375
,,,-3E-08,0.00479125
,,,-2E-08,0.0045075
,,,-1E-08,0.0035025
,,,0,0.00360125
,,,1E-08,0.004908125
,,,2E-08,0.00544125
,,,3E-08,0.005608125
,,,4E-08,0.0041675
,,,5E-08,0.003706875
,,,6E-08,0.003246875
,,,7E-08,0.00408125
,,,8E-08,0.00447625
,,,9E-08,0.004831875
,,,1E-07,0.004939375
,,,1.1E-07,0.00459625
,,,1.2E-07,0.004493125
,,,1.3E-07,0.003683125
,,,1.4E-07,0.00407375
,,,1.5E-07,0.004178125
,,,1.6E-07,0.004600625
,,,1.7E-07,0.00465375
,,,1.8E-07,0.004580625
,,,1.9E-07,0.004448125
,,,2E-07,0.00443375
,,,2.1E-07,0.004211875
,,,2.2E-07,0.004259375
,,,2.3E-07,0.004235625
,,,2.4E-07,0.004339375
,,,2.5E-07,0.0044375
,,,2.6E-07,0.004589375
,,,2.7E-07,0.00445125
,,,2.8E-07,0.004365625
,,,2.9E-07,0.004369375
,,,3E-07,0.00440375
,,,3.1E-07,0.00459125
,,,3.2E-07,0.00441125
,,,3.3E-07,0.004310625
,,,3.4E-07,0.00417875
,,,3.5E-07,0.0045
,,,3.6E-07,0.004436875
,,,3.7E-07,0.004061875
,,,3.8E-07,0.004469375
,,,3.9E-07,0.004473125
,,,4E-07,0.00444875
,,,4.1E-07,0.004354375
,,,4.2E-07,0.004271875
,,,4.3E-07,0.004245
,,,4.4E-07,0.004425
,,,4.5E-07,0.004619375
,,,4.6E-07,0.004381875
,,,4.7E-07,0.004521875
,,,4.8E-07,0.004348125
,,,4.9E-07,0.004361875
,,,5E-07,0.0043725
,,,5.1E-07,0.00430375
,,,5.2E-07,0.004328125
,,,5.3E-07,0.004191875
,,,5.4E-07,0.0043425
,,,5.5E-07,0.00424625
,,,5.6E-07,0.004450625
,,,5.7E-07,0.004398125
,,,5.8E-07,0.00448125
,,,5.9E-07,0.004341875
,,,6E-07,0.00444625
,,,6.1E-07,0.004333125
,,,6.2E-07,0.004143125
,,,6.3E-07,0.004679375
,,,6.4E-07,0.00457625
,,,6.5E-07,0.00453
,,,6.6E-07,0.0044825
,,,6.7E-07,0.004370625
,,,6.8E-07,0.004318125
,,,6.9E-07,0.00454
,,,7E-07,0.004481875
,,,7.1E-07,0.004398125
,,,7.2E-07,0.004241875
,,,7.3E-07,0.00456125
,,,7.4E-07,0.0043275
,,,7.5E-07,0.00434625
,,,7.6E-07,0.004440625
,,,7.7E-07,0.004269375
,,,7.8E-07,0.004378125
,,,7.9E-07,0.00434625
,,,8E-07,0.004468125
,,,8.1E-07,0.004454375
,,,8.2E-07,0.00424375
,,,8.3E-07,0.004406875
,,,8.4E-07,0.004528125
,,,8.5E-07,0.004226875
,,,8.6E-07,0.004663125
,,,8.7E-07,0.004613125
,,,8.8E-07,0.004319375
,,,8.9E-07,0.0044325
,,,9E-07,0.0040525
,,,9.1E-07,0.004394375
,,,9.2E-07,0.00431625
,,,9.3E-07,0.00427625
,,,9.4E-07,0.00434125
,,,9.5E-07,0.00432375
,,,9.6E-07,0.004615
,,,9.7E-07,0.004354375
,,,9.8E-07,0.00438125
,,,9.9E-07,0.00417
,,,1E-06,0.004365
,,,1.01E-06,0.004369375
,,,1.02E-06,0.004295
,,,1.03E-06,0.0043325
,,,1.04E-06,0.004224375
,,,1.05E-06,0.004356875
,,,1.06E-06,0.0044325
,,,1.07E-06,0.00442875
,,,1.08E-06,0.004383125
,,,1.09E-06,0.0042575
,,,1.1E-06,0.004315
,,,1.11E-06,0.004243125
,,,1.12E-06,0.004365625
,,,1.13E-06,0.004300625
,,,1.14E-06,0.00427375
,,,1.15E-06,0.00463
,,,1.16E-06,0.00441
,,,1.17E-06,0.004280625
,,,1.18E-06,0.004108125
,,,1.19E-06,0.0042925
,,,1.2E-06,0.004385625
,,,1.21E-06,0.004223125
,,,1.22E-06,0.004259375
,,,1.23E-06,0.004535
,,,1.24E-06,0.004531875
,,,1.25E-06,0.004418125
,,,1.26E-06,0.0041775
,,,1.27E-06,0.0045125
,,,1.28E-06,0.004349375
,,,1.29E-06,0.004209375
,,,1.3E-06,0.0042375
,,,1.31E-06,0.004311875
,,,1.32E-06,0.004355625
,,,1.33E-06,0.00430875
,,,1.34E-06,0.004619375
,,,1.35E-06,0.004395
,,,1.36E-06,0.00428625
,,,1.37E-06,0.00447
,,,1.38E-06,0.004264375
,,,1.39E-06,0.0041725
,,,1.4E-06,0.004734375
,,,1.41E-06,0.004366875
,,,1.42E-06,0.004391875
,,,1.43E-06,0.00439125
,,,1.44E-06,0.00451375
,,,1.45E-06,0.0042875
,,,1.46E-06,0.004425625
,,,1.47E-06,0.0044625
,,,1.48E-06,0.004314375
,,,1.49E-06,0.004455625
,,,1.5E-06,0.00425625
,,,1.51E-06,0.004244375
,,,1.52E-06,0.004328125
,,,1.53E-06,0.004326875
,,,1.54E-06,0.004333125
,,,1.55E-06,0.004465
,,,1.56E-06,0.00445375
,,,1.57E-06,0.00438375
,,,1.58E-06,0.004206875
,,,1.59E-06,0.00427375
,,,1.6E-06,0.004334375
,,,1.61E-06,0.004335625
,,,1.62E-06,0.004264375
,,,1.63E-06,0.00425875
,,,1.64E-06,0.00429375
,,,1.65E-06,0.00428125
,,,1.66E-06,0.004485625
,,,1.67E-06,0.004374375
,,,1.68E-06,0.004375625
,,,1.69E-06,0.004350625
,,,1.7E-06,0.00438125
,,,1.71E-06,0.004416875
,,,1.72E-06,0.00455125
,,,1.73E-06,0.004579375
,,,1.74E-06,0.00426125
,,,1.75E-06,0.0045125
,,,1.76E-06,0.00441625
,,,1.77E-06,0.004435
,,,1.78E-06,0.004328125
,,,1.79E-06,0.0043825
,,,1.8E-06,0.004354375
,,,1.81E-06,0.0045725
,,,1.82E-06,0.0043825
,,,1.83E-06,0.004458125
,,,1.84E-06,0.004398125
,,,1.85E-06,0.004150625
,,,1.86E-06,0.0044
,,,1.87E-06,0.004619375
,,,1.88E-06,0.004389375
,,,1.89E-06,0.004390625
,,,1.9E-06,0.00442
,,,1.91E-06,0.0043925
,,,1.92E-06,0.004456875
,,,1.93E-06,0.0045125
,,,1.94E-06,0.004285
,,,1.95E-06,0.004105
,,,1.96E-06,0.00431875
,,,1.97E-06,0.004105625
,,,1.98E-06,0.004399375
,,,1.99E-06,0.004390625
,,,2E-06,0.004343125
,,,2.01E-06,0.004474375
,,,2.02E-06,0.00449125
,,,2.03E-06,0.00433625
,,,2.04E-06,0.00431125
,,,2.05E-06,0.004363125
,,,2.06E-06,0.00430875
,,,2.07E-06,0.004354375
,,,2.08E-06,0.004134375
,,,2.09E-06,0.00457625
,,,2.1E-06,0.00449125
,,,2.11E-06,0.004483125
,,,2.12E-06,0.00432
,,,2.13E-06,0.00444
,,,2.14E-06,0.004570625
,,,2.15E-06,0.0043175
,,,2.16E-06,0.004580625
,,,2.17E-06,0.004279375
,,,2.18E-06,0.00444375
,,,2.19E-06,0.004386875
,,,2.2E-06,0.00437875
,,,2.21E-06,0.00441375
,,,2.22E-06,0.004680625
,,,2.23E-06,0.004291875
,,,2.24E-06,0.00434625
,,,2.25E-06,0.004304375
,,,2.26E-06,0.0042975
,,,2.27E-06,0.004398125
,,,2.28E-06,0.004358125
,,,2.29E-06,0.004285625
,,,2.3E-06,0.004355625
,,,2.31E-06,0.004534375
,,,2.32E-06,0.00432
,,,2.33E-06,0.00446375
,,,2.34E-06,0.004326875
,,,2.35E-06,0.00443125
,,,2.36E-06,0.0041925
,,,2.37E-06,0.004410625
,,,2.38E-06,0.004284375
,,,2.39E-06,0.004385
,,,2.4E-06,0.00428375
,,,2.41E-06,0.0042975
,,,2.42E-06,0.00426125
,,,2.43E-06,0.00445
,,,2.44E-06,0.0043525
,,,2.45E-06,0.004345
,,,2.46E-06,0.004314375
,,,2.47E-06,0.004378125
,,,2.48E-06,0.004113125
,,,2.49E-06,0.004579375
,,,2.5E-06,0.00439
,,,2.51E-06,0.004534375
,,,2.52E-06,0.00438875
,,,2.53E-06,0.00420875
,,,2.54E-06,0.004405625
,,,2.55E-06,0.004435
,,,2.56E-06,0.00437375
,,,2.57E-06,0.004155
,,,2.58E-06,0.0043075
,,,2.59E-06,0.004363125
,,,2.6E-06,0.0042175
,,,2.61E-06,0.00429
,,,2.62E-06,0.004524375
,,,2.63E-06,0.004245
,,,2.64E-06,0.00436125
,,,2.65E-06,0.0046675
,,,2.66E-06,0.0044575
,,,2.67E-06,0.00437125
,,,2.68E-06,0.0041725
,,,2.69E-06,0.004271875
,,,2.7E-06,0.00423
,,,2.71E-06,0.004369375
,,,2.72E-06,0.00434875
,,,2.73E-06,0.004488125
,,,2.74E-06,0.0045425
,,,2.75E-06,0.0042875
,,,2.76E-06,0.0042625
,,,2.77E-06,0.004326875
,,,2.78E-06,0.00436375
,,,2.79E-06,0.00442625
,,,2.8E-06,0.004530625
,,,2.81E-06,0.00447875
,,,2.82E-06,0.004699375
,,,2.83E-06,0.004220625
,,,2.84E-06,0.00422875
,,,2.85E-06,0.00409875
,,,2.86E-06,0.004535625
,,,2.87E-06,0.0042075
,,,2.88E-06,0.004200625
,,,2.89E-06,0.004451875
,,,2.9E-06,0.004245625
,,,2.91E-06,0.004444375
,,,2.92E-06,0.0043275
,,,2.93E-06,0.004208125
,,,2.94E-06,0.004439375
,,,2.95E-06,0.004479375
,,,2.96E-06,0.004661875
,,,2.97E-06,0.00444125
,,,2.98E-06,0.00443625
,,,2.99E-06,0.004124375
,,,3E-06,0.004279375
,,,3.01E-06,0.004176875
,,,3.02E-06,0.00439
,,,3.03E-06,0.0043675
,,,3.04E-06,0.004380625
,,,3.05E-06,0.0042775
,,,3.06E-06,0.004205
,,,3.07E-06,0.004340625
,,,3.08E-06,0.004335
,,,3.09E-06,0.00457
,,,3.1E-06,0.004485
,,,3.11E-06,0.004360625
,,,3.12E-06,0.004505
,,,3.13E-06,0.004559375
,,,3.14E-06,0.004335625
,,,3.15E-06,0.00449625
,,,3.16E-06,0.004448125
,,,3.17E-06,0.00438375
,,,3.18E-06,0.00433375
,,,3.19E-06,0.0045025
,,,3.2E-06,0.004286875
,,,3.21E-06,0.0043975
,,,3.22E-06,0.004336875
,,,3.23E-06,0.004246875
,,,3.24E-06,0.00427875
,,,3.25E-06,0.00436625
,,,3.26E-06,0.004475625
,,,3.27E-06,0.004451875
,,,3.28E-06,0.004485
,,,3.29E-06,0.00439625
,,,3.3E-06,0.004625625
,,,3.31E-06,0.004560625
,,,3.32E-06,0.00429875
,,,3.33E-06,0.00421
,,,3.34E-06,0.004268125
,,,3.35E-06,0.00436
,,,3.36E-06,0.004441875
,,,3.37E-06,0.004371875
,,,3.38E-06,0.004575
,,,3.39E-06,0.004346875
,,,3.4E-06,0.004275625
,,,3.41E-06,0.00423625
,,,3.42E-06,0.004704375
,,,3.43E-06,0.00470125
,,,3.44E-06,0.004343125
,,,3.45E-06,0.004296875
,,,3.46E-06,0.00451
,,,3.47E-06,0.004260625
,,,3.48E-06,0.00432625
,,,3.49E-06,0.004304375
,,,3.5E-06,0.004483125
,,,3.51E-06,0.004536875
,,,3.52E-06,0.004475
,,,3.53E-06,0.004391875
,,,3.54E-06,0.0043825
,,,3.55E-06,0.00419625
