data/raw/Final_POL_Test_1/SOP024_Ch2.csv

"Record Length",1000,"Points",-5E-06,0.01833875
"Sample Interval",1E-08,s,-4.99E-06,0.018228125
"Trigger Point",500,"Samples",-4.98E-06,0.018268125
"Trigger Time",0,s,-4.97E-06,0.018135625
"",,,-4.96E-06,0.017956875
"Horizontal Offset",-5E-06,s,-4.95E-06,0.01792875
,,,-4.94E-06,0.01803
,,,-4.93E-06,0.01805125
,,,-4.92E-06,0.01798125
,,,-4.91E-06,0.018219375
,,,-4.9E-06,0.017946875
,,,-4.89E-06,0.01846
,,,-4.88E-06,0.01817375
,,,-4.87E-06,0.018146875
,,,-4.86E-06,0.01802625
,,,-4.85E-06,0.018200625
,,,-4.84E-06,0.0182325
,,,-4.83E-06,0.01840625
,,,-4.82E-06,0.018126875
,,,-4.81E-06,0.01786
,,,-4.8E-06,0.018275625
,,,-4.79E-06,0.01822
,,,-4.78E-06,0.017935625
,,,-4.77E-06,0.018
,,,-4.76E-06,0.018134375
,,,-4.75E-06,0.018195625
,,,-4.74E-06,0.018374375
,,,-4.73E-06,0.018120625
,,,-4.72E-06,0.017960625
,,,-4.71E-06,0.01797625
,,,-4.7E-06,0.018021875
,,,-4.69E-06,0.018043125
,,,-4.68E-06,0.0179425
,,,-4.67E-06,0.01812875
,,,-4.66E-06,0.018186875
,,,-4.65E-06,0.018128125
,,,-4.64E-06,0.017879375
,,,-4.63E-06,0.018090625
,,,-4.62E-06,0.01804125
,,,-4.61E-06,0.01818
,,,-4.6E-06,0.01802875
,,,-4.59E-06,0.018095625
,,,-4.58E-06,0.0181
,,,-4.57E-06,0.01807125
,,,-4.56E-06,0.0183475
,,,-4.55E-06,0.01854125
,,,-4.54E-06,0.018095625
,,,-4.53E-06,0.017870625
,,,-4.52E-06,0.018324375
,,,-4.51E-06,0.01796
,,,-4.5E-06,0.017978125
,,,-4.49E-06,0.018241875
,,,-4.48E-06,0.018410625
,,,-4.47E-06,0.0182475
,,,-4.46E-06,0.01797
,,,-4.45E-06,0.017990625
,,,-4.44E-06,0.01838125
,,,-4.43E-06,0.01804625
,,,-4.42E-06,0.0181125
,,,-4.41E-06,0.018269375
,,,-4.4E-06,0.0181175
,,,-4.39E-06,0.017960625
,,,-4.38E-06,0.017963125
,,,-4.37E-06,0.017924375
,,,-4.36E-06,0.01809875
,,,-4.35E-06,0.01801625
,,,-4.34E-06,0.017985625
,,,-4.33E-06,0.01811
,,,-4.32E-06,0.017934375
,,,-4.31E-06,0.018198125
,,,-4.3E-06,0.01825125
,,,-4.29E-06,0.017961875
,,,-4.28E-06,0.01815
,,,-4.27E-06,0.018005
,,,-4.26E-06,0.0180325
,,,-4.25E-06,0.0181625
,,,-4.24E-06,0.018233125
,,,-4.23E-06,0.018365625
,,,-4.22E-06,0.0180825
,,,-4.21E-06,0.018021875
,,,-4.2E-06,0.0180475
,,,-4.19E-06,0.018156875
,,,-4.18E-06,0.018180625
,,,-4.17E-06,0.01846
,,,-4.16E-06,0.018043125
,,,-4.15E-06,0.017983125
,,,-4.14E-06,0.018120625
,,,-4.13E-06,0.01826625
,,,-4.12E-06,0.018069375
,,,-4.11E-06,0.018184375
,,,-4.1E-06,0.018325
,,,-4.09E-06,0.018024375
,,,-4.08E-06,0.0180625
,,,-4.07E-06,0.0180325
,,,-4.06E-06,0.018095
,,,-4.05E-06,0.01810625
,,,-4.04E-06,0.0179925
,,,-4.03E-06,0.01824375
,,,-4.02E-06,0.0178125
,,,-4.01E-06,0.018128125
,,,-4E-06,0.018135
,,,-3.99E-06,0.018095
,,,-3.98E-06,0.018025
,,,-3.97E-06,0.0182475
,,,-3.96E-06,0.018229375
,,,-3.95E-06,0.017955
,,,-3.94E-06,0.01824875
,,,-3.93E-06,0.017991875
,,,-3.92E-06,0.018149375
,,,-3.91E-06,0.01797375
,,,-3.9E-06,0.017930625
,,,-3.89E-06,0.0182125
,,,-3.88E-06,0.01802875
,,,-3.87E-06,0.0180025
,,,-3.86E-06,0.01807625
,,,-3.85E-06,0.01805
,,,-3.84E-06,0.018209375
,,,-3.83E-06,0.018299375
,,,-3.82E-06,0.018295
,,,-3.81E-06,0.018344375
,,,-3.8E-06,0.018273125
,,,-3.79E-06,0.01809375
,,,-3.78E-06,0.018085
,,,-3.77E-06,0.0181325
,,,-3.76E-06,0.0182075
,,,-3.75E-06,0.01812125
,,,-3.74E-06,0.018010625
,,,-3.73E-06,0.0184025
,,,-3.72E-06,0.017999375
,,,-3.71E-06,0.018240625
,,,-3.7E-06,0.01775625
,,,-3.69E-06,0.01807875
,,,-3.68E-06,0.018353125
,,,-3.67E-06,0.01817125
,,,-3.66E-06,0.018059375
,,,-3.65E-06,0.0178525
,,,-3.64E-06,0.01827625
,,,-3.63E-06,0.018158125
,,,-3.62E-06,0.017920625
,,,-3.61E-06,0.01809
,,,-3.6E-06,0.018216875
,,,-3.59E-06,0.0181
,,,-3.58E-06,0.018085625
,,,-3.57E-06,0.018460625
,,,-3.56E-06,0.018245625
,,,-3.55E-06,0.017958125
,,,-3.54E-06,0.018139375
,,,-3.53E-06,0.017941875
,,,-3.52E-06,0.018084375
,,,-3.51E-06,0.018245625
,,,-3.5E-06,0.0182075
,,,-3.49E-06,0.018135
,,,-3.48E-06,0.01809875
,,,-3.47E-06,0.018236875
,,,-3.46E-06,0.01835375
,,,-3.45E-06,0.01801125
,,,-3.44E-06,0.017965
,,,-3.43E-06,0.017970625
,,,-3.42E-06,0.018304375
,,,-3.41E-06,0.018148125
,,,-3.4E-06,0.01830875
,,,-3.39E-06,0.018613125
,,,-3.38E-06,0.01817625
,,,-3.37E-06,0.01807625
,,,-3.36E-06,0.0178525
,,,-3.35E-06,0.018033125
,,,-3.34E-06,0.01787625
,,,-3.33E-06,0.018178125
,,,-3.32E-06,0.01822125
,,,-3.31E-06,0.01806875
,,,-3.3E-06,0.0180175
,,,-3.29E-06,0.018103125
,,,-3.28E-06,0.018184375
,,,-3.27E-06,0.017885625
,,,-3.26E-06,0.01808625
,,,-3.25E-06,0.018105
,,,-3.24E-06,0.018305625
,,,-3.23E-06,0.01828
,,,-3.22E-06,0.017798125
,,,-3.21E-06,0.018006875
,,,-3.2E-06,0.018095625
,,,-3.19E-06,0.01788875
,,,-3.18E-06,0.018113125
,,,-3.17E-06,0.018154375
,,,-3.16E-06,0.01812375
,,,-3.15E-06,0.01802375
,,,-3.14E-06,0.01844625
,,,-3.13E-06,0.017966875
,,,-3.12E-06,0.018123125
,,,-3.11E-06,0.018378125
,,,-3.1E-06,0.018075
,,,-3.09E-06,0.01799
,,,-3.08E-06,0.018285625
,,,-3.07E-06,0.018050625
,,,-3.06E-06,0.01821375
,,,-3.05E-06,0.017725625
,,,-3.04E-06,0.017910625
,,,-3.03E-06,0.01794
,,,-3.02E-06,0.01810875
,,,-3.01E-06,0.01812
,,,-3E-06,0.018081875
,,,-2.99E-06,0.018064375
,,,-2.98E-06,0.0178225
,,,-2.97E-06,0.018433125
,,,-2.96E-06,0.01811625
,,,-2.95E-06,0.0179825
,,,-2.94E-06,0.018088125
,,,-2.93E-06,0.018048125
,,,-2.92E-06,0.018414375
,,,-2.91E-06,0.018131875
,,,-2.9E-06,0.0182675
,,,-2.89E-06,0.01786875
,,,-2.88E-06,0.0181875
,,,-2.87E-06,0.018278125
,,,-2.86E-06,0.018101875
,,,-2.85E-06,0.017943125
,,,-2.84E-06,0.018065625
,,,-2.83E-06,0.018263125
,,,-2.82E-06,0.018270625
,,,-2.81E-06,0.01820625
,,,-2.8E-06,0.018144375
,,,-2.79E-06,0.018128125
,,,-2.78E-06,0.01801
,,,-2.77E-06,0.018116875
,,,-2.76E-06,0.018053125
,,,-2.75E-06,0.018415
,,,-2.74E-06,0.0183775
,,,-2.73E-06,0.018099375
,,,-2.72E-06,0.018055
,,,-2.71E-06,0.018001875
,,,-2.7E-06,0.018121875
,,,-2.69E-06,0.0180925
,,,-2.68E-06,0.01825
,,,-2.67E-06,0.01816375
,,,-2.66E-06,0.018255
,,,-2.65E-06,0.0183175
,,,-2.64E-06,0.018139375
,,,-2.63E-06,0.01832375
,,,-2.62E-06,0.01811125
,,,-2.61E-06,0.018105
,,,-2.6E-06,0.018205
,,,-2.59E-06,0.018211875
,,,-2.58E-06,0.018239375
,,,-2.57E-06,0.018286875
,,,-2.56E-06,0.018081875
,,,-2.55E-06,0.018190625
,,,-2.54E-06,0.017888125
,,,-2.53E-06,0.018029375
,,,-2.52E-06,0.017844375
,,,-2.51E-06,0.018256875
,,,-2.5E-06,0.018235625
,,,-2.49E-06,0.017785625
,,,-2.48E-06,0.01805125
,,,-2.47E-06,0.01807375
,,,-2.46E-06,0.017980625
,,,-2.45E-06,0.018174375
,,,-2.44E-06,0.0179175
,,,-2.43E-06,0.01807
,,,-2.42E-06,0.01819625
,,,-2.41E-06,0.0182575
,,,-2.4E-06,0.018444375
,,,-2.39E-06,0.01811
,,,-2.38E-06,0.017898125
,,,-2.37E-06,0.01812
,,,-2.36E-06,0.01798375
,,,-2.35E-06,0.018091875
,,,-2.34E-06,0.01819375
,,,-2.33E-06,0.01824875
,,,-2.32E-06,0.018155625
,,,-2.31E-06,0.018239375
,,,-2.3E-06,0.018331875
,,,-2.29E-06,0.018201875
,,,-2.28E-06,0.017923125
,,,-2.27E-06,0.01793625
,,,-2.26E-06,0.018195
,,,-2.25E-06,0.018015
,,,-2.24E-06,0.018325625
,,,-2.23E-06,0.018141875
,,,-2.22E-06,0.01783125
,,,-2.21E-06,0.017774375
,,,-2.2E-06,0.0180075
,,,-2.19E-06,0.017908125
,,,-2.18E-06,0.017994375
,,,-2.17E-06,0.018233125
,,,-2.16E-06,0.01835375
,,,-2.15E-06,0.018348125
,,,-2.14E-06,0.01815875
,,,-2.13E-06,0.018089375
,,,-2.12E-06,0.01792375
,,,-2.11E-06,0.017989375
,,,-2.1E-06,0.0180925
,,,-2.09E-06,0.0182375
,,,-2.08E-06,0.0181575
,,,-2.07E-06,0.018034375
,,,-2.06E-06,0.0180675
,,,-2.05E-06,0.0181425
,,,-2.04E-06,0.018185625
,,,-2.03E-06,0.018146875
,,,-2.02E-06,0.018138125
,,,-2.01E-06,0.018299375
,,,-2E-06,0.018235
,,,-1.99E-06,0.01832625
,,,-1.98E-06,0.017896875
,,,-1.97E-06,0.01829875
,,,-1.96E-06,0.018198125
,,,-1.95E-06,0.017889375
,,,-1.94E-06,0.017955
,,,-1.93E-06,0.01841625
,,,-1.92E-06,0.01838625
,,,-1.91E-06,0.0185475
,,,-1.9E-06,0.0180275
,,,-1.89E-06,0.01804
,,,-1.88E-06,0.017868125
,,,-1.87E-06,0.01814125
,,,-1.86E-06,0.018298125
,,,-1.85E-06,0.018318125
,,,-1.84E-06,0.018048125
,,,-1.83E-06,0.018231875
,,,-1.82E-06,0.018325625
,,,-1.81E-06,0.01786
,,,-1.8E-06,0.0180825
,,,-1.79E-06,0.01828375
,,,-1.78E-06,0.017960625
,,,-1.77E-06,0.018055625
,,,-1.76E-06,0.018153125
,,,-1.75E-06,0.017729375
,,,-1.74E-06,0.018169375
,,,-1.73E-06,0.017933125
,,,-1.72E-06,0.0182075
,,,-1.71E-06,0.018136875
,,,-1.7E-06,0.018059375
,,,-1.69E-06,0.018205
,,,-1.68E-06,0.018151875
,,,-1.67E-06,0.018305625
,,,-1.66E-06,0.018198125
,,,-1.65E-06,0.018323125
,,,-1.64E-06,0.018135
,,,-1.63E-06,0.018044375
,,,-1.62E-06,0.01791125
,,,-1.61E-06,0.01837125
,,,-1.6E-06,0.01808625
,,,-1.59E-06,0.018318125
,,,-1.58E-06,0.018130625
,,,-1.57E-06,0.01780375
,,,-1.56E-06,0.018080625
,,,-1.55E-06,0.01795875
,,,-1.54E-06,0.01801625
,,,-1.53E-06,0.017951875
,,,-1.52E-06,0.018020625
,,,-1.51E-06,0.01806625
,,,-1.5E-06,0.018006875
,,,-1.49E-06,0.01806625
,,,-1.48E-06,0.018265
,,,-1.47E-06,0.01803625
,,,-1.46E-06,0.018304375
,,,-1.45E-06,0.018130625
,,,-1.44E-06,0.018221875
,,,-1.43E-06,0.018239375
,,,-1.42E-06,0.0182
,,,-1.41E-06,0.017901875
,,,-1.4E-06,0.018068125
,,,-1.39E-06,0.018161875
,,,-1.38E-06,0.018090625
,,,-1.37E-06,0.01807375
,,,-1.36E-06,0.01839
,,,-1.35E-06,0.017984375
,,,-1.34E-06,0.017938125
,,,-1.33E-06,0.018038125
,,,-1.32E-06,0.01822
,,,-1.31E-06,0.01812
,,,-1.3E-06,0.01805
,,,-1.29E-06,0.0183675
,,,-1.28E-06,0.018170625
,,,-1.27E-06,0.018035
,,,-1.26E-06,0.018225
,,,-1.25E-06,0.018145
,,,-1.24E-06,0.01817125
,,,-1.23E-06,0.018293125
,,,-1.22E-06,0.017841875
,,,-1.21E-06,0.018183125
,,,-1.2E-06,0.0182325
,,,-1.19E-06,0.01825625
,,,-1.18E-06,0.018205625
,,,-1.17E-06,0.018126875
,,,-1.16E-06,0.018315625
,,,-1.15E-06,0.018038125
,,,-1.14E-06,0.017918125
,,,-1.13E-06,0.018285625
,,,-1.12E-06,0.017998125
,,,-1.11E-06,0.01837
,,,-1.1E-06,0.017911875
,,,-1.09E-06,0.018001875
,,,-1.08E-06,0.01822625
,,,-1.07E-06,0.0182075
,,,-1.06E-06,0.018028125
,,,-1.05E-06,0.018261875
,,,-1.04E-06,0.01806375
,,,-1.03E-06,0.01827875
,,,-1.02E-06,0.018295
,,,-1.01E-06,0.018274375
,,,-1E-06,0.018184375
,,,-9.9E-07,0.01826
,,,-9.8E-07,0.018071875
,,,-9.7E-07,0.0179225
,,,-9.6E-07,0.017979375
,,,-9.5E-07,0.017899375
,,,-9.4E-07,0.018233125
,,,-9.3E-07,0.01837375
,,,-9.2E-07,0.017996875
,,,-9.1E-07,0.018263125
,,,-9E-07,0.018100625
,,,-8.9E-07,0.018014375
,,,-8.8E-07,0.01817625
,,,-8.7E-07,0.018334375
,,,-8.6E-07,0.018319375
,,,-8.5E-07,0.01814875
,,,-8.4E-07,0.018055625
,,,-8.3E-07,0.01820375
,,,-8.2E-07,0.0182825
,,,-8.1E-07,0.018071875
,,,-8E-07,0.01828625
,,,-7.9E-07,0.018080625
,,,-7.8E-07,0.01793
,,,-7.7E-07,0.01821125
,,,-7.6E-07,0.01814125
,,,-7.5E-07,0.01793125
,,,-7.4E-07,0.01834
,,,-7.3E-07,0.017966875
,,,-7.2E-07,0.01824
,,,-7.1E-07,0.01816375
,,,-7E-07,0.01829625
,,,-6.9E-07,0.018184375
,,,-6.8E-07,0.01803375
,,,-6.7E-07,0.01811
,,,-6.6E-07,0.018209375
,,,-6.5E-07,0.018160625
,,,-6.4E-07,0.017954375
,,,-6.3E-07,0.018170625
,,,-6.2E-07,0.018041875
,,,-6.1E-07,0.018165
,,,-6E-07,0.018385
,,,-5.9E-07,0.01819125
,,,-5.8E-07,0.01790875
,,,-5.7E-07,0.01811375
,,,-5.6E-07,0.01823375
,,,-5.5E-07,0.01801625
,,,-5.4E-07,0.018185625
,,,-5.3E-07,0.018139375
,,,-5.2E-07,0.01801375
,,,-5.1E-07,0.01831
,,,-5E-07,0.018224375
,,,-4.9E-07,0.018154375
,,,-4.8E-07,0.018215625
,,,-4.7E-07,0.018170625
,,,-4.6E-07,0.018315
,,,-4.5E-07,0.018211875
,,,-4.4E-07,0.01809125
,,,-4.3E-07,0.0182775
,,,-4.2E-07,0.01810125
,,,-4.1E-07,0.01776375
,,,-4E-07,0.018041875
,,,-3.9E-07,0.017905
,,,-3.8E-07,0.01792125
,,,-3.7E-07,0.01807625
,,,-3.6E-07,0.018360625
,,,-3.5E-07,0.018416875
,,,-3.4E-07,0.01819625
,,,-3.3E-07,0.018084375
,,,-3.2E-07,0.01826625
,,,-3.1E-07,0.01817375
,,,-3E-07,0.018401875
,,,-2.9E-07,0.018180625
,,,-2.8E-07,0.0179975
,,,-2.7E-07,0.018290625
,,,-2.6E-07,0.018376875
,,,-2.5E-07,0.018150625
,,,-2.4E-07,0.018061875
,,,-2.3E-07,0.018045625
,,,-2.2E-07,0.0179325
,,,-2.1E-07,0.01816375
,,,-2E-07,0.018221875
,,,-1.9E-07,0.018105
,,,-1.8E-07,0.018054375
,,,-1.7E-07,0.018205
,,,-1.6E-07,0.017988125
,,,-1.5E-07,0.017925
,,,-1.4E-07,0.018213125
,,,-1.3E-07,0.01800375
,,,-1.2E-07,0.018259375
,,,-1.1E-07,0.018118125
,,,-1E-07,0.01828875
,,,-9E-08,0.0181675
,,,-8E-08,0.01831
,,,-7E-08,0.018226875
,,,-6E-08,0.018238125
,,,-5E-08,0.018148125
,,,-4E-08,0.019109375
,,,-3E-08,0.01976625
,,,-2E-08,0.0167875
,,,-1E-08,0.014758749
,,,0,0.014181249
,,,1E-08,0.02078875
,,,2E-08,0.02250875
,,,3E-08,0.022276875
,,,4E-08,0.017275
,,,5E-08,0.015545624
,,,6E-08,0.014258124
,,,7E-08,0.016644374
,,,8E-08,0.018930625
,,,9E-08,0.02031
,,,1E-07,0.020409375
,,,1.1E-07,0.018781875
,,,1.2E-07,0.017235
,,,1.3E-07,0.016146249
,,,1.4E-07,0.01759625
,,,1.5E-07,0.01823375
,,,1.6E-07,0.01899375
,,,1.7E-07,0.018699375
,,,1.8E-07,0.018483125
,,,1.9E-07,0.01851625
,,,2E-07,0.0181375
,,,2.1E-07,0.01800125
,,,2.2E-07,0.017685625
,,,2.3E-07,0.017969375
,,,2.4E-07,0.018274375
,,,2.5E-07,0.01819625
,,,2.6E-07,0.018334375
,,,2.7E-07,0.017960625
,,,2.8E-07,0.01793875
,,,2.9E-07,0.01812875
,,,3E-07,0.018188125
,,,3.1E-07,0.018133125
,,,3.2E-07,0.01827875
,,,3.3E-07,0.018226875
,,,3.4E-07,0.018295625
,,,3.5E-07,0.0181425
,,,3.6E-07,0.018046875
,,,3.7E-07,0.01790625
,,,3.8E-07,0.017930625
,,,3.9E-07,0.01780875
,,,4E-07,0.01830125
,,,4.1E-07,0.017945625
,,,4.2E-07,0.018406875
,,,4.3E-07,0.01803875
,,,4.4E-07,0.01834125
,,,4.5E-07,0.018026875
,,,4.6E-07,0.017934375
,,,4.7E-07,0.017926875
,,,4.8E-07,0.018334375
,,,4.9E-07,0.018161875
,,,5E-07,0.018135
,,,5.1E-07,0.018125625
,,,5.2E-07,0.018203125
,,,5.3E-07,0.01809875
,,,5.4E-07,0.017863125
,,,5.5E-07,0.018318125
,,,5.6E-07,0.01799375
,,,5.7E-07,0.018185
,,,5.8E-07,0.018184375
,,,5.9E-07,0.018063125
,,,6E-07,0.0180825
,,,6.1E-07,0.0181475
,,,6.2E-07,0.018060625
,,,6.3E-07,0.018268125
,,,6.4E-07,0.01831
,,,6.5E-07,0.018188125
,,,6.6E-07,0.018020625
,,,6.7E-07,0.018198125
,,,6.8E-07,0.01812875
,,,6.9E-07,0.0180625
,,,7E-07,0.018179375
,,,7.1E-07,0.018244375
,,,7.2E-07,0.01822375
,,,7.3E-07,0.01850375
,,,7.4E-07,0.0181425
,,,7.5E-07,0.0183275
,,,7.6E-07,0.017989375
,,,7.7E-07,0.01785375
,,,7.8E-07,0.01801875
,,,7.9E-07,0.018256875
,,,8E-07,0.0182525
,,,8.1E-07,0.018205
,,,8.2E-07,0.018175
,,,8.3E-07,0.018170625
,,,8.4E-07,0.018138125
,,,8.5E-07,0.01828875
,,,8.6E-07,0.01813875
,,,8.7E-07,0.018094375
,,,8.8E-07,0.01807375
,,,8.9E-07,0.01811125
,,,9E-07,0.018143125
,,,9.1E-07,0.0181225
,,,9.2E-07,0.018220625
,,,9.3E-07,0.0181425
,,,9.4E-07,0.017979375
,,,9.5E-07,0.0182075
,,,9.6E-07,0.01807625
,,,9.7E-07,0.0180075
,,,9.8E-07,0.01814125
,,,9.9E-07,0.018205625
,,,1E-06,0.018314375
,,,1.01E-06,0.01816875
,,,1.02E-06,0.018303125
,,,1.03E-06,0.018161875
,,,1.04E-06,0.018055625
,,,1.05E-06,0.01829125
,,,1.06E-06,0.018193125
,,,1.07E-06,0.01823
,,,1.08E-06,0.018066875
,,,1.09E-06,0.018285625
,,,1.1E-06,0.0179925
,,,1.11E-06,0.0181925
,,,1.12E-06,0.01805875
,,,1.13E-06,0.018028125
,,,1.14E-06,0.01821
,,,1.15E-06,0.01803375
,,,1.16E-06,0.01803875
,,,1.17E-06,0.018179375
,,,1.18E-06,0.018271875
,,,1.19E-06,0.0181775
,,,1.2E-06,0.017655
,,,1.21E-06,0.018051875
,,,1.22E-06,0.018213125
,,,1.23E-06,0.01808875
,,,1.24E-06,0.0182775
,,,1.25E-06,0.01798
,,,1.26E-06,0.018201875
,,,1.27E-06,0.017989375
,,,1.28E-06,0.018224375
,,,1.29E-06,0.0182175
,,,1.3E-06,0.01780375
,,,1.31E-06,0.018255
,,,1.32E-06,0.01792625
,,,1.33E-06,0.018019375
,,,1.34E-06,0.017980625
,,,1.35E-06,0.018191875
,,,1.36E-06,0.01831125
,,,1.37E-06,0.018094375
,,,1.38E-06,0.018210625
,,,1.39E-06,0.01833625
,,,1.4E-06,0.01808
,,,1.41E-06,0.018083125
,,,1.42E-06,0.01823875
,,,1.43E-06,0.018136875
,,,1.44E-06,0.018261875
,,,1.45E-06,0.018185625
,,,1.46E-06,0.018179375
,,,1.47E-06,0.018035
,,,1.48E-06,0.018251875
,,,1.49E-06,0.01810125
,,,1.5E-06,0.01814375
,,,1.51E-06,0.018183125
,,,1.52E-06,0.01810625
,,,1.53E-06,0.0179425
,,,1.54E-06,0.018329375
,,,1.55E-06,0.01839875
,,,1.56E-06,0.018165625
,,,1.57E-06,0.018355
,,,1.58E-06,0.0181725
,,,1.59E-06,0.018054375
,,,1.6E-06,0.018178125
,,,1.61E-06,0.018126875
,,,1.62E-06,0.01797
,,,1.63E-06,0.01808125
,,,1.64E-06,0.018196875
,,,1.65E-06,0.0182575
,,,1.66E-06,0.018285
,,,1.67E-06,0.018185625
,,,1.68E-06,0.018161875
,,,1.69E-06,0.01783625
,,,1.7E-06,0.01810375
,,,1.71E-06,0.01817125
,,,1.72E-06,0.018238125
,,,1.73E-06,0.01809625
,,,1.74E-06,0.018263125
,,,1.75E-06,0.018341875
,,,1.76E-06,0.0183425
,,,1.77E-06,0.0178175
,,,1.78E-06,0.01835875
,,,1.79E-06,0.018368125
,,,1.8E-06,0.0180725
,,,1.81E-06,0.01812125
,,,1.82E-06,0.01827
,,,1.83E-06,0.0181525
,,,1.84E-06,0.01829875
,,,1.85E-06,0.017991875
,,,1.86E-06,0.017961875
,,,1.87E-06,0.018043125
,,,1.88E-06,0.018108125
,,,1.89E-06,0.01810375
,,,1.9E-06,0.018141875
,,,1.91E-06,0.01796125
,,,1.92E-06,0.018116875
,,,1.93E-06,0.017950625
,,,1.94E-06,0.01804625
,,,1.95E-06,0.018064375
,,,1.96E-06,0.017950625
,,,1.97E-06,0.018191875
,,,1.98E-06,0.01825625
,,,1.99E-06,0.01803625
,,,2E-06,0.018075
,,,2.01E-06,0.018313125
,,,2.02E-06,0.01814375
,,,2.03E-06,0.018175
,,,2.04E-06,0.018346875
,,,2.05E-06,0.01814625
,,,2.06E-06,0.017983125
,,,2.07E-06,0.017986875
,,,2.08E-06,0.01831625
,,,2.09E-06,0.018225625
,,,2.1E-06,0.01817
,,,2.11E-06,0.0182625
,,,2.12E-06,0.01805875
,,,2.13E-06,0.017893125
,,,2.14E-06,0.018208125
,,,2.15E-06,0.018111875
,,,2.16E-06,0.018153125
,,,2.17E-06,0.017864375
,,,2.18E-06,0.018110625
,,,2.19E-06,0.01807625
,,,2.2E-06,0.018044375
,,,2.21E-06,0.018451875
,,,2.22E-06,0.0180975
,,,2.23E-06,0.018201875
,,,2.24E-06,0.017893125
,,,2.25E-06,0.018200625
,,,2.26E-06,0.017931875
,,,2.27E-06,0.018224375
,,,2.28E-06,0.018135
,,,2.29E-06,0.018301875
,,,2.3E-06,0.01795125
,,,2.31E-06,0.01820875
,,,2.32E-06,0.01826125
,,,2.33E-06,0.017984375
,,,2.34E-06,0.018015625
,,,2.35E-06,0.017925
,,,2.36E-06,0.018071875
,,,2.37E-06,0.0182775
,,,2.38E-06,0.018074375
,,,2.39E-06,0.018240625
,,,2.4E-06,0.017870625
,,,2.41E-06,0.018105
,,,2.42E-06,0.018075
,,,2.43E-06,0.017965
,,,2.44E-06,0.01811125
,,,2.45E-06,0.0181375
,,,2.46E-06,0.01801375
,,,2.47E-06,0.017925625
,,,2.48E-06,0.01795
,,,2.49E-06,0.0183125
,,,2.5E-06,0.018426875
,,,2.51E-06,0.017965625
,,,2.52E-06,0.017991875
,,,2.53E-06,0.01809625
,,,2.54E-06,0.0183175
,,,2.55E-06,0.018275625
,,,2.56E-06,0.018206875
,,,2.57E-06,0.01808125
,,,2.58E-06,0.018285
,,,2.59E-06,0.018078125
,,,2.6E-06,0.018301875
,,,2.61E-06,0.018001875
,,,2.62E-06,0.0182525
,,,2.63E-06,0.018129375
,,,2.64E-06,0.018431875
,,,2.65E-06,0.018251875
,,,2.66E-06,0.018166875
,,,2.67E-06,0.01826
,,,2.68E-06,0.018193125
,,,2.69E-06,0.0181475
,,,2.7E-06,0.0182575
,,,2.71E-06,0.018243125
,,,2.72E-06,0.018460625
,,,2.73E-06,0.0179375
,,,2.74E-06,0.018053125
,,,2.75E-06,0.018276875
,,,2.76E-06,0.018065
,,,2.77E-06,0.01794875
,,,2.78E-06,0.01818
,,,2.79E-06,0.0180575
,,,2.8E-06,0.018345625
,,,2.81E-06,0.01800125
,,,2.82E-06,0.018144375
,,,2.83E-06,0.018175625
,,,2.84E-06,0.018240625
,,,2.85E-06,0.01824625
,,,2.86E-06,0.018086875
,,,2.87E-06,0.018210625
,,,2.88E-06,0.018233125
,,,2.89E-06,0.018150625
,,,2.9E-06,0.018291875
,,,2.91E-06,0.01821
,,,2.92E-06,0.01804
,,,2.93E-06,0.0181325
,,,2.94E-06,0.018019375
,,,2.95E-06,0.01809125
,,,2.96E-06,0.018020625
,,,2.97E-06,0.018086875
,,,2.98E-06,0.018268125
,,,2.99E-06,0.018090625
,,,3E-06,0.01799625
,,,3.01E-06,0.018176875
,,,3.02E-06,0.01821875
,,,3.03E-06,0.0180675
,,,3.04E-06,0.01821
,,,3.05E-06,0.0183125
,,,3.06E-06,0.018391875
,,,3.07E-06,0.018280625
,,,3.08E-06,0.01816
,,,3.09E-06,0.017838125
,,,3.1E-06,0.01843
,,,3.11E-06,0.0180975
,,,3.12E-06,0.0181025
,,,3.13E-06,0.018146875
,,,3.14E-06,0.018031875
,,,3.15E-06,0.018096875
,,,3.16E-06,0.017985625
,,,3.17E-06,0.018120625
,,,3.18E-06,0.018134375
,,,3.19E-06,0.018076875
,,,3.2E-06,0.0179225
,,,3.21E-06,0.017863125
,,,3.22E-06,0.017874375
,,,3.23E-06,0.018313125
,,,3.24E-06,0.0182825
,,,3.25E-06,0.018423125
,,,3.26E-06,0.018295625
,,,3.27E-06,0.0181125
,,,3.28E-06,0.01808625
,,,3.29E-06,0.018129375
,,,3.3E-06,0.018143125
,,,3.31E-06,0.018343125
,,,3.32E-06,0.018124375
,,,3.33E-06,0.018140625
,,,3.34E-06,0.0180825
,,,3.35E-06,0.0180275
,,,3.36E-06,0.0182225
,,,3.37E-06,0.0182125
,,,3.38E-06,0.018326875
,,,3.39E-06,0.018249375
,,,3.4E-06,0.0180225
,,,3.41E-06,0.0181775
,,,3.42E-06,0.0179775
,,,3.43E-06,0.018416875
,,,3.44E-06,0.01821875
,,,3.45E-06,0.018138125
,,,3.46E-06,0.018160625
,,,3.47E-06,0.01852
,,,3.48E-06,0.01810625
,,,3.49E-06,0.0179
,,,3.5E-06,0.017965625
,,,3.51E-06,0.017921875
,,,3.52E-06,0.018094375
,,,3.53E-06,0.018239375
,,,3.54E-06,0.0183025
,,,3.55E-06,0.01811375
