data/raw/Final_POL_Test_1/SOP064_Ch1.csv

"Record Length",1000,"Points",-5E-06,0.00696125
"Sample Interval",1E-08,s,-4.99E-06,0.00674
"Trigger Point",500,"Samples",-4.98E-06,0.006729375
"Trigger Time",0,s,-4.97E-06,0.007083125
"",,,-4.96E-06,0.006714375
"Horizontal Offset",-5E-06,s,-4.95E-06,0.00676375
,,,-4.94E-06,0.00671875
,,,-4.93E-06,0.006806875
,,,-4.92E-06,0.006285625
,,,-4.91E-06,0.006661875
,,,-4.9E-06,0.0066875
,,,-4.89E-06,0.006945
,,,-4.88E-06,0.006564375
,,,-4.87E-06,0.006721875
,,,-4.86E-06,0.0068575
,,,-4.85E-06,0.006770625
,,,-4.84E-06,0.0069175
,,,-4.83E-06,0.006970625
,,,-4.82E-06,0.00693
,,,-4.81E-06,0.00676
,,,-4.8E-06,0.007115625
,,,-4.79E-06,0.006800625
,,,-4.78E-06,0.006700625
,,,-4.77E-06,0.006580625
,,,-4.76E-06,0.00664
,,,-4.75E-06,0.006716875
,,,-4.74E-06,0.006595625
,,,-4.73E-06,0.0068525
,,,-4.72E-06,0.00682375
,,,-4.71E-06,0.006850625
,,,-4.7E-06,0.007006875
,,,-4.69E-06,0.006838125
,,,-4.68E-06,0.00677875
,,,-4.67E-06,0.006563125
,,,-4.66E-06,0.006836875
,,,-4.65E-06,0.00668875
,,,-4.64E-06,0.006885
,,,-4.63E-06,0.00686
,,,-4.62E-06,0.006808125
,,,-4.61E-06,0.006688125
,,,-4.6E-06,0.006794375
,,,-4.59E-06,0.006714375
,,,-4.58E-06,0.00679375
,,,-4.57E-06,0.00662375
,,,-4.56E-06,0.00703
,,,-4.55E-06,0.0066975
,,,-4.54E-06,0.00681875
,,,-4.53E-06,0.00662125
,,,-4.52E-06,0.006899375
,,,-4.51E-06,0.00682
,,,-4.5E-06,0.006805625
,,,-4.49E-06,0.006600625
,,,-4.48E-06,0.00660375
,,,-4.47E-06,0.00682625
,,,-4.46E-06,0.0068275
,,,-4.45E-06,0.006875
,,,-4.44E-06,0.00676
,,,-4.43E-06,0.006678125
,,,-4.42E-06,0.00680375
,,,-4.41E-06,0.006889375
,,,-4.4E-06,0.00676
,,,-4.39E-06,0.00684875
,,,-4.38E-06,0.00691625
,,,-4.37E-06,0.006718125
,,,-4.36E-06,0.006603125
,,,-4.35E-06,0.006614375
,,,-4.34E-06,0.006588125
,,,-4.33E-06,0.006794375
,,,-4.32E-06,0.006791875
,,,-4.31E-06,0.00676375
,,,-4.3E-06,0.0066475
,,,-4.29E-06,0.00686375
,,,-4.28E-06,0.00651375
,,,-4.27E-06,0.006790625
,,,-4.26E-06,0.006685
,,,-4.25E-06,0.00669875
,,,-4.24E-06,0.00675125
,,,-4.23E-06,0.00638875
,,,-4.22E-06,0.006795
,,,-4.21E-06,0.006570625
,,,-4.2E-06,0.006865
,,,-4.19E-06,0.00657625
,,,-4.18E-06,0.0069875
,,,-4.17E-06,0.006871875
,,,-4.16E-06,0.0068675
,,,-4.15E-06,0.0067925
,,,-4.14E-06,0.00681
,,,-4.13E-06,0.00670625
,,,-4.12E-06,0.006668125
,,,-4.11E-06,0.006965
,,,-4.1E-06,0.006691875
,,,-4.09E-06,0.006695
,,,-4.08E-06,0.006705
,,,-4.07E-06,0.0069475
,,,-4.06E-06,0.006596875
,,,-4.05E-06,0.0070125
,,,-4.04E-06,0.00691125
,,,-4.03E-06,0.006650625
,,,-4.02E-06,0.006734375
,,,-4.01E-06,0.006793125
,,,-4E-06,0.0071
,,,-3.99E-06,0.006739375
,,,-3.98E-06,0.006845625
,,,-3.97E-06,0.006799375
,,,-3.96E-06,0.00669625
,,,-3.95E-06,0.006850625
,,,-3.94E-06,0.00676
,,,-3.93E-06,0.00709125
,,,-3.92E-06,0.00677625
,,,-3.91E-06,0.006795
,,,-3.9E-06,0.00680125
,,,-3.89E-06,0.00681625
,,,-3.88E-06,0.006740625
,,,-3.87E-06,0.006770625
,,,-3.86E-06,0.006744375
,,,-3.85E-06,0.006809375
,,,-3.84E-06,0.006670625
,,,-3.83E-06,0.006825625
,,,-3.82E-06,0.00692875
,,,-3.81E-06,0.0068775
,,,-3.8E-06,0.00685
,,,-3.79E-06,0.00656125
,,,-3.78E-06,0.00658375
,,,-3.77E-06,0.006911875
,,,-3.76E-06,0.006861875
,,,-3.75E-06,0.00673
,,,-3.74E-06,0.0064625
,,,-3.73E-06,0.0069575
,,,-3.72E-06,0.00681125
,,,-3.71E-06,0.006885
,,,-3.7E-06,0.006888125
,,,-3.69E-06,0.006926875
,,,-3.68E-06,0.006814375
,,,-3.67E-06,0.006853125
,,,-3.66E-06,0.006715
,,,-3.65E-06,0.0067775
,,,-3.64E-06,0.006914375
,,,-3.63E-06,0.0068225
,,,-3.62E-06,0.007009375
,,,-3.61E-06,0.00685625
,,,-3.6E-06,0.006734375
,,,-3.59E-06,0.006598125
,,,-3.58E-06,0.006810625
,,,-3.57E-06,0.0066675
,,,-3.56E-06,0.006960625
,,,-3.55E-06,0.00681
,,,-3.54E-06,0.00654625
,,,-3.53E-06,0.006656875
,,,-3.52E-06,0.0065225
,,,-3.51E-06,0.00678125
,,,-3.5E-06,0.00681625
,,,-3.49E-06,0.0068375
,,,-3.48E-06,0.006978125
,,,-3.47E-06,0.007070625
,,,-3.46E-06,0.00685875
,,,-3.45E-06,0.0068525
,,,-3.44E-06,0.00678875
,,,-3.43E-06,0.00655
,,,-3.42E-06,0.007045625
,,,-3.41E-06,0.006878125
,,,-3.4E-06,0.00698375
,,,-3.39E-06,0.006836875
,,,-3.38E-06,0.00699875
,,,-3.37E-06,0.00668125
,,,-3.36E-06,0.00682625
,,,-3.35E-06,0.006668125
,,,-3.34E-06,0.0069175
,,,-3.33E-06,0.006870625
,,,-3.32E-06,0.006909375
,,,-3.31E-06,0.00672375
,,,-3.3E-06,0.0069875
,,,-3.29E-06,0.00668125
,,,-3.28E-06,0.006584375
,,,-3.27E-06,0.006705
,,,-3.26E-06,0.007033125
,,,-3.25E-06,0.006796875
,,,-3.24E-06,0.006746875
,,,-3.23E-06,0.006831875
,,,-3.22E-06,0.006613125
,,,-3.21E-06,0.006714375
,,,-3.2E-06,0.006655
,,,-3.19E-06,0.006556875
,,,-3.18E-06,0.006941875
,,,-3.17E-06,0.006665
,,,-3.16E-06,0.006783125
,,,-3.15E-06,0.006779375
,,,-3.14E-06,0.007005
,,,-3.13E-06,0.006614375
,,,-3.12E-06,0.006485
,,,-3.11E-06,0.00677125
,,,-3.1E-06,0.006930625
,,,-3.09E-06,0.00677
,,,-3.08E-06,0.006683125
,,,-3.07E-06,0.006945
,,,-3.06E-06,0.006585625
,,,-3.05E-06,0.006800625
,,,-3.04E-06,0.006660625
,,,-3.03E-06,0.0065275
,,,-3.02E-06,0.00660375
,,,-3.01E-06,0.00692
,,,-3E-06,0.00681
,,,-2.99E-06,0.0067675
,,,-2.98E-06,0.006766875
,,,-2.97E-06,0.006735
,,,-2.96E-06,0.00674875
,,,-2.95E-06,0.006825
,,,-2.94E-06,0.006701875
,,,-2.93E-06,0.006785
,,,-2.92E-06,0.00670125
,,,-2.91E-06,0.006873125
,,,-2.9E-06,0.006923125
,,,-2.89E-06,0.006780625
,,,-2.88E-06,0.006876875
,,,-2.87E-06,0.006715625
,,,-2.86E-06,0.00648125
,,,-2.85E-06,0.006623125
,,,-2.84E-06,0.006895
,,,-2.83E-06,0.006798125
,,,-2.82E-06,0.00665375
,,,-2.81E-06,0.0067625
,,,-2.8E-06,0.006719375
,,,-2.79E-06,0.006726875
,,,-2.78E-06,0.006795625
,,,-2.77E-06,0.0066275
,,,-2.76E-06,0.007175625
,,,-2.75E-06,0.006923125
,,,-2.74E-06,0.006798125
,,,-2.73E-06,0.006699375
,,,-2.72E-06,0.0067925
,,,-2.71E-06,0.0067975
,,,-2.7E-06,0.0067525
,,,-2.69E-06,0.00680125
,,,-2.68E-06,0.006915625
,,,-2.67E-06,0.0067175
,,,-2.66E-06,0.006933125
,,,-2.65E-06,0.00668125
,,,-2.64E-06,0.006815
,,,-2.63E-06,0.006816875
,,,-2.62E-06,0.006818125
,,,-2.61E-06,0.006891875
,,,-2.6E-06,0.006698125
,,,-2.59E-06,0.00670375
,,,-2.58E-06,0.0068675
,,,-2.57E-06,0.00689125
,,,-2.56E-06,0.006598125
,,,-2.55E-06,0.0065575
,,,-2.54E-06,0.006888125
,,,-2.53E-06,0.006545625
,,,-2.52E-06,0.006799375
,,,-2.51E-06,0.00674125
,,,-2.5E-06,0.00674
,,,-2.49E-06,0.006706875
,,,-2.48E-06,0.0067325
,,,-2.47E-06,0.00689
,,,-2.46E-06,0.0067225
,,,-2.45E-06,0.006798125
,,,-2.44E-06,0.006561875
,,,-2.43E-06,0.006555625
,,,-2.42E-06,0.00675125
,,,-2.41E-06,0.00677
,,,-2.4E-06,0.00677375
,,,-2.39E-06,0.006509375
,,,-2.38E-06,0.006640625
,,,-2.37E-06,0.006663125
,,,-2.36E-06,0.00664
,,,-2.35E-06,0.006705625
,,,-2.34E-06,0.006641875
,,,-2.33E-06,0.006733125
,,,-2.32E-06,0.00664
,,,-2.31E-06,0.00684
,,,-2.3E-06,0.006663125
,,,-2.29E-06,0.006789375
,,,-2.28E-06,0.006653125
,,,-2.27E-06,0.00666625
,,,-2.26E-06,0.006610625
,,,-2.25E-06,0.0066375
,,,-2.24E-06,0.0066225
,,,-2.23E-06,0.00665375
,,,-2.22E-06,0.00689625
,,,-2.21E-06,0.006619375
,,,-2.2E-06,0.00670875
,,,-2.19E-06,0.006904375
,,,-2.18E-06,0.006875625
,,,-2.17E-06,0.006800625
,,,-2.16E-06,0.006890625
,,,-2.15E-06,0.006576875
,,,-2.14E-06,0.006643125
,,,-2.13E-06,0.006736875
,,,-2.12E-06,0.00672875
,,,-2.11E-06,0.0068675
,,,-2.1E-06,0.006915
,,,-2.09E-06,0.006535
,,,-2.08E-06,0.006905625
,,,-2.07E-06,0.00685125
,,,-2.06E-06,0.00672
,,,-2.05E-06,0.00661875
,,,-2.04E-06,0.006660625
,,,-2.03E-06,0.006679375
,,,-2.02E-06,0.00665125
,,,-2.01E-06,0.006848125
,,,-2E-06,0.006933125
,,,-1.99E-06,0.006856875
,,,-1.98E-06,0.00671875
,,,-1.97E-06,0.006755
,,,-1.96E-06,0.006608125
,,,-1.95E-06,0.006735625
,,,-1.94E-06,0.00672
,,,-1.93E-06,0.006916875
,,,-1.92E-06,0.006705625
,,,-1.91E-06,0.006976875
,,,-1.9E-06,0.00653875
,,,-1.89E-06,0.00666125
,,,-1.88E-06,0.00686375
,,,-1.87E-06,0.0067425
,,,-1.86E-06,0.00686875
,,,-1.85E-06,0.006445
,,,-1.84E-06,0.006786875
,,,-1.83E-06,0.006721875
,,,-1.82E-06,0.00686375
,,,-1.81E-06,0.00692
,,,-1.8E-06,0.006943125
,,,-1.79E-06,0.006844375
,,,-1.78E-06,0.0067025
,,,-1.77E-06,0.00658875
,,,-1.76E-06,0.006701875
,,,-1.75E-06,0.006904375
,,,-1.74E-06,0.00664875
,,,-1.73E-06,0.006658125
,,,-1.72E-06,0.00666625
,,,-1.71E-06,0.00664375
,,,-1.7E-06,0.006705625
,,,-1.69E-06,0.006978125
,,,-1.68E-06,0.007078125
,,,-1.67E-06,0.00669125
,,,-1.66E-06,0.006638125
,,,-1.65E-06,0.006804375
,,,-1.64E-06,0.00671875
,,,-1.63E-06,0.006874375
,,,-1.62E-06,0.006706875
,,,-1.61E-06,0.0067625
,,,-1.6E-06,0.006838125
,,,-1.59E-06,0.006771875
,,,-1.58E-06,0.00699125
,,,-1.57E-06,0.0065775
,,,-1.56E-06,0.00682625
,,,-1.55E-06,0.00668
,,,-1.54E-06,0.00683875
,,,-1.53E-06,0.006519375
,,,-1.52E-06,0.006786875
,,,-1.51E-06,0.00672875
,,,-1.5E-06,0.006651875
,,,-1.49E-06,0.006661875
,,,-1.48E-06,0.006539375
,,,-1.47E-06,0.006841875
,,,-1.46E-06,0.007019375
,,,-1.45E-06,0.006654375
,,,-1.44E-06,0.00673625
,,,-1.43E-06,0.00666125
,,,-1.42E-06,0.007074375
,,,-1.41E-06,0.00707125
,,,-1.4E-06,0.006788125
,,,-1.39E-06,0.006591875
,,,-1.38E-06,0.006991875
,,,-1.37E-06,0.006679375
,,,-1.36E-06,0.006453125
,,,-1.35E-06,0.006765625
,,,-1.34E-06,0.006786875
,,,-1.33E-06,0.006611875
,,,-1.32E-06,0.006810625
,,,-1.31E-06,0.0069425
,,,-1.3E-06,0.006874375
,,,-1.29E-06,0.0069675
,,,-1.28E-06,0.0067975
,,,-1.27E-06,0.00654375
,,,-1.26E-06,0.0065675
,,,-1.25E-06,0.006915625
,,,-1.24E-06,0.00711625
,,,-1.23E-06,0.006701875
,,,-1.22E-06,0.006879375
,,,-1.21E-06,0.0067125
,,,-1.2E-06,0.006623125
,,,-1.19E-06,0.006783125
,,,-1.18E-06,0.006720625
,,,-1.17E-06,0.00654875
,,,-1.16E-06,0.006548125
,,,-1.15E-06,0.006951875
,,,-1.14E-06,0.007035
,,,-1.13E-06,0.0067575
,,,-1.12E-06,0.00666625
,,,-1.11E-06,0.006865625
,,,-1.1E-06,0.006733125
,,,-1.09E-06,0.006809375
,,,-1.08E-06,0.006860625
,,,-1.07E-06,0.00678625
,,,-1.06E-06,0.0065925
,,,-1.05E-06,0.00694
,,,-1.04E-06,0.0069125
,,,-1.03E-06,0.006960625
,,,-1.02E-06,0.006576875
,,,-1.01E-06,0.00679
,,,-1E-06,0.006831875
,,,-9.9E-07,0.00652875
,,,-9.8E-07,0.006961875
,,,-9.7E-07,0.00691
,,,-9.6E-07,0.006633125
,,,-9.5E-07,0.006520625
,,,-9.4E-07,0.006659375
,,,-9.3E-07,0.0069875
,,,-9.2E-07,0.006934375
,,,-9.1E-07,0.006676875
,,,-9E-07,0.00665
,,,-8.9E-07,0.006591875
,,,-8.8E-07,0.00664875
,,,-8.7E-07,0.006975
,,,-8.6E-07,0.00674875
,,,-8.5E-07,0.006981875
,,,-8.4E-07,0.00653125
,,,-8.3E-07,0.00673125
,,,-8.2E-07,0.006678125
,,,-8.1E-07,0.006680625
,,,-8E-07,0.00653875
,,,-7.9E-07,0.006559375
,,,-7.8E-07,0.006595
,,,-7.7E-07,0.00652875
,,,-7.6E-07,0.00680125
,,,-7.5E-07,0.00686
,,,-7.4E-07,0.006548125
,,,-7.3E-07,0.006655625
,,,-7.2E-07,0.00669375
,,,-7.1E-07,0.006876875
,,,-7E-07,0.006645625
,,,-6.9E-07,0.00662375
,,,-6.8E-07,0.006650625
,,,-6.7E-07,0.006998125
,,,-6.6E-07,0.006971875
,,,-6.5E-07,0.00691375
,,,-6.4E-07,0.006705625
,,,-6.3E-07,0.006620625
,,,-6.2E-07,0.00662375
,,,-6.1E-07,0.0065075
,,,-6E-07,0.0068725
,,,-5.9E-07,0.00706625
,,,-5.8E-07,0.00683875
,,,-5.7E-07,0.006445
,,,-5.6E-07,0.00666
,,,-5.5E-07,0.00654125
,,,-5.4E-07,0.006925
,,,-5.3E-07,0.0065625
,,,-5.2E-07,0.006740625
,,,-5.1E-07,0.00675375
,,,-5E-07,0.0068075
,,,-4.9E-07,0.006615
,,,-4.8E-07,0.0067475
,,,-4.7E-07,0.006839375
,,,-4.6E-07,0.006540625
,,,-4.5E-07,0.006438125
,,,-4.4E-07,0.006895
,,,-4.3E-07,0.006435625
,,,-4.2E-07,0.0068025
,,,-4.1E-07,0.006684375
,,,-4E-07,0.006571875
,,,-3.9E-07,0.006633125
,,,-3.8E-07,0.006640625
,,,-3.7E-07,0.006661875
,,,-3.6E-07,0.00698875
,,,-3.5E-07,0.006855625
,,,-3.4E-07,0.006533125
,,,-3.3E-07,0.006845625
,,,-3.2E-07,0.006993125
,,,-3.1E-07,0.006753125
,,,-3E-07,0.006709375
,,,-2.9E-07,0.00717875
,,,-2.8E-07,0.006891875
,,,-2.7E-07,0.00679875
,,,-2.6E-07,0.0067075
,,,-2.5E-07,0.006753125
,,,-2.4E-07,0.006790625
,,,-2.3E-07,0.006680625
,,,-2.2E-07,0.0070375
,,,-2.1E-07,0.006730625
,,,-2E-07,0.006926875
,,,-1.9E-07,0.006511875
,,,-1.8E-07,0.0068025
,,,-1.7E-07,0.0066625
,,,-1.6E-07,0.006634375
,,,-1.5E-07,0.006575
,,,-1.4E-07,0.0068875
,,,-1.3E-07,0.006926875
,,,-1.2E-07,0.00661
,,,-1.1E-07,0.00677875
,,,-1E-07,0.006684375
,,,-9E-08,0.00686125
,,,-8E-08,0.00659875
,,,-7E-08,0.00648125
,,,-6E-08,0.006624375
,,,-5E-08,0.00702
,,,-4E-08,0.00751
,,,-3E-08,0.007860625
,,,-2E-08,0.0059975
,,,-1E-08,0.004691875
,,,0,0.003204375
,,,1E-08,0.007739375
,,,2E-08,0.009973125
,,,3E-08,0.010545625
,,,4E-08,0.00731125
,,,5E-08,0.005153125
,,,6E-08,0.003885625
,,,7E-08,0.00476625
,,,8E-08,0.007145
,,,9E-08,0.00823875
,,,1E-07,0.008981875
,,,1.1E-07,0.00774625
,,,1.2E-07,0.006321875
,,,1.3E-07,0.005454375
,,,1.4E-07,0.00607
,,,1.5E-07,0.006655
,,,1.6E-07,0.007103125
,,,1.7E-07,0.00709625
,,,1.8E-07,0.006788125
,,,1.9E-07,0.00676625
,,,2E-07,0.0066
,,,2.1E-07,0.0065225
,,,2.2E-07,0.0067175
,,,2.3E-07,0.006785625
,,,2.4E-07,0.006815
,,,2.5E-07,0.00681875
,,,2.6E-07,0.0068325
,,,2.7E-07,0.00679625
,,,2.8E-07,0.00697125
,,,2.9E-07,0.006915625
,,,3E-07,0.006781875
,,,3.1E-07,0.006876875
,,,3.2E-07,0.006763125
,,,3.3E-07,0.006749375
,,,3.4E-07,0.006678125
,,,3.5E-07,0.006629375
,,,3.6E-07,0.0066625
,,,3.7E-07,0.00657625
,,,3.8E-07,0.00669625
,,,3.9E-07,0.006653125
,,,4E-07,0.006914375
,,,4.1E-07,0.00653375
,,,4.2E-07,0.0066575
,,,4.3E-07,0.006591875
,,,4.4E-07,0.006701875
,,,4.5E-07,0.00667875
,,,4.6E-07,0.00680625
,,,4.7E-07,0.0069
,,,4.8E-07,0.00690875
,,,4.9E-07,0.0067925
,,,5E-07,0.006645625
,,,5.1E-07,0.006814375
,,,5.2E-07,0.00674125
,,,5.3E-07,0.006835625
,,,5.4E-07,0.006449375
,,,5.5E-07,0.00677625
,,,5.6E-07,0.00658375
,,,5.7E-07,0.00664125
,,,5.8E-07,0.006914375
,,,5.9E-07,0.0066775
,,,6E-07,0.0066725
,,,6.1E-07,0.006749375
,,,6.2E-07,0.006550625
,,,6.3E-07,0.006790625
,,,6.4E-07,0.006855
,,,6.5E-07,0.006865625
,,,6.6E-07,0.00695875
,,,6.7E-07,0.00687875
,,,6.8E-07,0.006709375
,,,6.9E-07,0.006645
,,,7E-07,0.0066675
,,,7.1E-07,0.006791875
,,,7.2E-07,0.00683
,,,7.3E-07,0.00691
,,,7.4E-07,0.006734375
,,,7.5E-07,0.0066525
,,,7.6E-07,0.006735625
,,,7.7E-07,0.006656875
,,,7.8E-07,0.006744375
,,,7.9E-07,0.006621875
,,,8E-07,0.00688
,,,8.1E-07,0.006754375
,,,8.2E-07,0.00665625
,,,8.3E-07,0.00690875
,,,8.4E-07,0.006663125
,,,8.5E-07,0.006895625
,,,8.6E-07,0.00637125
,,,8.7E-07,0.006753125
,,,8.8E-07,0.00661375
,,,8.9E-07,0.006665625
,,,9E-07,0.00674
,,,9.1E-07,0.006881875
,,,9.2E-07,0.006809375
,,,9.3E-07,0.006653125
,,,9.4E-07,0.006696875
,,,9.5E-07,0.00676125
,,,9.6E-07,0.006785
,,,9.7E-07,0.00691625
,,,9.8E-07,0.006801875
,,,9.9E-07,0.00689
,,,1E-06,0.006725625
,,,1.01E-06,0.006959375
,,,1.02E-06,0.006860625
,,,1.03E-06,0.006835625
,,,1.04E-06,0.006594375
,,,1.05E-06,0.0067975
,,,1.06E-06,0.006723125
,,,1.07E-06,0.006703125
,,,1.08E-06,0.00665875
,,,1.09E-06,0.00669375
,,,1.1E-06,0.0066875
,,,1.11E-06,0.00690625
,,,1.12E-06,0.006561875
,,,1.13E-06,0.006645625
,,,1.14E-06,0.0067675
,,,1.15E-06,0.00693125
,,,1.16E-06,0.006823125
,,,1.17E-06,0.00681375
,,,1.18E-06,0.006830625
,,,1.19E-06,0.006695625
,,,1.2E-06,0.006896875
,,,1.21E-06,0.006735
,,,1.22E-06,0.006544375
,,,1.23E-06,0.006765
,,,1.24E-06,0.006949375
,,,1.25E-06,0.006869375
,,,1.26E-06,0.00672625
,,,1.27E-06,0.006731875
,,,1.28E-06,0.006605625
,,,1.29E-06,0.006651875
,,,1.3E-06,0.006919375
,,,1.31E-06,0.006703125
,,,1.32E-06,0.006836875
,,,1.33E-06,0.006870625
,,,1.34E-06,0.006695625
,,,1.35E-06,0.00681625
,,,1.36E-06,0.006673125
,,,1.37E-06,0.006578125
,,,1.38E-06,0.00666
,,,1.39E-06,0.0070075
,,,1.4E-06,0.00650875
,,,1.41E-06,0.006515625
,,,1.42E-06,0.00676875
,,,1.43E-06,0.00659875
,,,1.44E-06,0.0066475
,,,1.45E-06,0.006863125
,,,1.46E-06,0.0066375
,,,1.47E-06,0.006588125
,,,1.48E-06,0.007046875
,,,1.49E-06,0.006759375
,,,1.5E-06,0.0065675
,,,1.51E-06,0.00656625
,,,1.52E-06,0.006685
,,,1.53E-06,0.00668375
,,,1.54E-06,0.006954375
,,,1.55E-06,0.006603125
,,,1.56E-06,0.0065125
,,,1.57E-06,0.0066975
,,,1.58E-06,0.006743125
,,,1.59E-06,0.006699375
,,,1.6E-06,0.006615
,,,1.61E-06,0.00666
,,,1.62E-06,0.0068
,,,1.63E-06,0.006783125
,,,1.64E-06,0.006644375
,,,1.65E-06,0.006715
,,,1.66E-06,0.006744375
,,,1.67E-06,0.00682
,,,1.68E-06,0.00636
,,,1.69E-06,0.006715625
,,,1.7E-06,0.006695625
,,,1.71E-06,0.006535625
,,,1.72E-06,0.006739375
,,,1.73E-06,0.00675875
,,,1.74E-06,0.006785625
,,,1.75E-06,0.00672125
,,,1.76E-06,0.00680875
,,,1.77E-06,0.0068275
,,,1.78E-06,0.006701875
,,,1.79E-06,0.006795
,,,1.8E-06,0.00661625
,,,1.81E-06,0.006914375
,,,1.82E-06,0.006629375
,,,1.83E-06,0.006826875
,,,1.84E-06,0.006581875
,,,1.85E-06,0.006453125
,,,1.86E-06,0.00677875
,,,1.87E-06,0.006758125
,,,1.88E-06,0.00673625
,,,1.89E-06,0.00709375
,,,1.9E-06,0.006666875
,,,1.91E-06,0.0067675
,,,1.92E-06,0.00689
,,,1.93E-06,0.006379375
,,,1.94E-06,0.006651875
,,,1.95E-06,0.006833125
,,,1.96E-06,0.00668875
,,,1.97E-06,0.006699375
,,,1.98E-06,0.00669125
,,,1.99E-06,0.006870625
,,,2E-06,0.006596875
,,,2.01E-06,0.006529375
,,,2.02E-06,0.006831875
,,,2.03E-06,0.006561875
,,,2.04E-06,0.00683875
,,,2.05E-06,0.006801875
,,,2.06E-06,0.00673
,,,2.07E-06,0.006690625
,,,2.08E-06,0.00688375
,,,2.09E-06,0.006655
,,,2.1E-06,0.006915
,,,2.11E-06,0.006713125
,,,2.12E-06,0.00665125
,,,2.13E-06,0.00705125
,,,2.14E-06,0.006929375
,,,2.15E-06,0.0064875
,,,2.16E-06,0.0068525
,,,2.17E-06,0.006789375
,,,2.18E-06,0.006629375
,,,2.19E-06,0.006800625
,,,2.2E-06,0.0067
,,,2.21E-06,0.006985
,,,2.22E-06,0.00675375
,,,2.23E-06,0.006918125
,,,2.24E-06,0.00684125
,,,2.25E-06,0.00662
,,,2.26E-06,0.006498125
,,,2.27E-06,0.006954375
,,,2.28E-06,0.00683875
,,,2.29E-06,0.006649375
,,,2.3E-06,0.006554375
,,,2.31E-06,0.006746875
,,,2.32E-06,0.006634375
,,,2.33E-06,0.00696625
,,,2.34E-06,0.0068475
,,,2.35E-06,0.006573125
,,,2.36E-06,0.00667125
,,,2.37E-06,0.0066625
,,,2.38E-06,0.00699875
,,,2.39E-06,0.006790625
,,,2.4E-06,0.007046875
,,,2.41E-06,0.0067725
,,,2.42E-06,0.006583125
,,,2.43E-06,0.00681375
,,,2.44E-06,0.0066875
,,,2.45E-06,0.006888125
,,,2.46E-06,0.006548125
,,,2.47E-06,0.006868125
,,,2.48E-06,0.006785
,,,2.49E-06,0.006846875
,,,2.5E-06,0.006685
,,,2.51E-06,0.00676
,,,2.52E-06,0.006675
,,,2.53E-06,0.006683125
,,,2.54E-06,0.00652
,,,2.55E-06,0.0070375
,,,2.56E-06,0.00645125
,,,2.57E-06,0.00689625
,,,2.58E-06,0.006994375
,,,2.59E-06,0.00662125
,,,2.6E-06,0.006960625
,,,2.61E-06,0.00659875
,,,2.62E-06,0.006981875
,,,2.63E-06,0.006658125
,,,2.64E-06,0.006741875
,,,2.65E-06,0.006824375
,,,2.66E-06,0.006573125
,,,2.67E-06,0.006810625
,,,2.68E-06,0.006805625
,,,2.69E-06,0.006495625
,,,2.7E-06,0.006814375
,,,2.71E-06,0.006713125
,,,2.72E-06,0.00660625
,,,2.73E-06,0.00709
,,,2.74E-06,0.0067525
,,,2.75E-06,0.006748125
,,,2.76E-06,0.006653125
,,,2.77E-06,0.00677375
,,,2.78E-06,0.006845
,,,2.79E-06,0.00665
,,,2.8E-06,0.00679125
,,,2.81E-06,0.006870625
,,,2.82E-06,0.007045
,,,2.83E-06,0.006810625
,,,2.84E-06,0.006995625
,,,2.85E-06,0.00694375
,,,2.86E-06,0.0065625
,,,2.87E-06,0.006796875
,,,2.88E-06,0.006664375
,,,2.89E-06,0.007115625
,,,2.9E-06,0.006775625
,,,2.91E-06,0.00653625
,,,2.92E-06,0.006839375
,,,2.93E-06,0.00658
,,,2.94E-06,0.00676625
,,,2.95E-06,0.006781875
,,,2.96E-06,0.0067825
,,,2.97E-06,0.006773125
,,,2.98E-06,0.006745625
,,,2.99E-06,0.0067825
,,,3E-06,0.00673375
,,,3.01E-06,0.006695625
,,,3.02E-06,0.006675
,,,3.03E-06,0.006615
,,,3.04E-06,0.006764375
,,,3.05E-06,0.0067825
,,,3.06E-06,0.006775
,,,3.07E-06,0.006580625
,,,3.08E-06,0.00667375
,,,3.09E-06,0.0068475
,,,3.1E-06,0.006595
,,,3.11E-06,0.006665625
,,,3.12E-06,0.00678875
,,,3.13E-06,0.006945
,,,3.14E-06,0.00674125
,,,3.15E-06,0.00689125
,,,3.16E-06,0.00665375
,,,3.17E-06,0.006764375
,,,3.18E-06,0.006641875
,,,3.19E-06,0.0067475
,,,3.2E-06,0.00677125
,,,3.21E-06,0.0067175
,,,3.22E-06,0.006755
,,,3.23E-06,0.006731875
,,,3.24E-06,0.00675625
,,,3.25E-06,0.006756875
,,,3.26E-06,0.00685375
,,,3.27E-06,0.006533125
,,,3.28E-06,0.006753125
,,,3.29E-06,0.006790625
,,,3.3E-06,0.00687125
,,,3.31E-06,0.006721875
,,,3.32E-06,0.006711875
,,,3.33E-06,0.006809375
,,,3.34E-06,0.006809375
,,,3.35E-06,0.006613125
,,,3.36E-06,0.00653125
,,,3.37E-06,0.00684125
,,,3.38E-06,0.006734375
,,,3.39E-06,0.00653625
,,,3.4E-06,0.0068275
,,,3.41E-06,0.006651875
,,,3.42E-06,0.006696875
,,,3.43E-06,0.006970625
,,,3.44E-06,0.00676125
,,,3.45E-06,0.00673
,,,3.46E-06,0.0070425
,,,3.47E-06,0.0068725
,,,3.48E-06,0.006694375
,,,3.49E-06,0.007054375
,,,3.5E-06,0.006684375
,,,3.51E-06,0.00663875
,,,3.52E-06,0.006669375
,,,3.53E-06,0.006719375
,,,3.54E-06,0.006975
,,,3.55E-06,0.006683125
,,,3.56E-06,0.0067725
