data/raw/Final_POL_Test_1/SOP061_Ch4.csv

"Record Length",1000,"Points",-5E-06,0.013965625
"Sample Interval",1E-08,s,-4.99E-06,0.01402875
"Trigger Point",500,"Samples",-4.98E-06,0.01391125
"Trigger Time",0,s,-4.97E-06,0.01398
"",,,-4.96E-06,0.01388
"Horizontal Offset",-5E-06,s,-4.95E-06,0.014068125
,,,-4.94E-06,0.01399125
,,,-4.93E-06,0.0140325
,,,-4.92E-06,0.014001875
,,,-4.91E-06,0.013943125
,,,-4.9E-06,0.013979375
,,,-4.89E-06,0.014198125
,,,-4.88E-06,0.0139025
,,,-4.87E-06,0.0138225
,,,-4.86E-06,0.01398
,,,-4.85E-06,0.013926875
,,,-4.84E-06,0.014140625
,,,-4.83E-06,0.0138225
,,,-4.82E-06,0.0137425
,,,-4.81E-06,0.0138525
,,,-4.8E-06,0.013895625
,,,-4.79E-06,0.01395625
,,,-4.78E-06,0.014035625
,,,-4.77E-06,0.0138875
,,,-4.76E-06,0.01403
,,,-4.75E-06,0.01400875
,,,-4.74E-06,0.014086875
,,,-4.73E-06,0.01366375
,,,-4.72E-06,0.0141125
,,,-4.71E-06,0.013923125
,,,-4.7E-06,0.014078125
,,,-4.69E-06,0.0138975
,,,-4.68E-06,0.013873125
,,,-4.67E-06,0.013866875
,,,-4.66E-06,0.01387125
,,,-4.65E-06,0.013795
,,,-4.64E-06,0.013815
,,,-4.63E-06,0.013849375
,,,-4.62E-06,0.014013125
,,,-4.61E-06,0.014124375
,,,-4.6E-06,0.01402625
,,,-4.59E-06,0.01386
,,,-4.58E-06,0.01386375
,,,-4.57E-06,0.01395625
,,,-4.56E-06,0.013804375
,,,-4.55E-06,0.013915625
,,,-4.54E-06,0.013965
,,,-4.53E-06,0.01382
,,,-4.52E-06,0.013855
,,,-4.51E-06,0.013889375
,,,-4.5E-06,0.013825625
,,,-4.49E-06,0.0139325
,,,-4.48E-06,0.014105625
,,,-4.47E-06,0.01369375
,,,-4.46E-06,0.0137975
,,,-4.45E-06,0.013816875
,,,-4.44E-06,0.013885625
,,,-4.43E-06,0.013823125
,,,-4.42E-06,0.014015
,,,-4.41E-06,0.013980625
,,,-4.4E-06,0.013893125
,,,-4.39E-06,0.013779375
,,,-4.38E-06,0.014121875
,,,-4.37E-06,0.014025
,,,-4.36E-06,0.01375625
,,,-4.35E-06,0.0138775
,,,-4.34E-06,0.0140775
,,,-4.33E-06,0.014050625
,,,-4.32E-06,0.014190625
,,,-4.31E-06,0.014155625
,,,-4.3E-06,0.013885
,,,-4.29E-06,0.013901875
,,,-4.28E-06,0.0139625
,,,-4.27E-06,0.0138725
,,,-4.26E-06,0.01365625
,,,-4.25E-06,0.013828125
,,,-4.24E-06,0.013715
,,,-4.23E-06,0.014051875
,,,-4.22E-06,0.01388875
,,,-4.21E-06,0.01402375
,,,-4.2E-06,0.01377375
,,,-4.19E-06,0.013973125
,,,-4.18E-06,0.01433375
,,,-4.17E-06,0.013885625
,,,-4.16E-06,0.013945625
,,,-4.15E-06,0.014005625
,,,-4.14E-06,0.01379625
,,,-4.13E-06,0.013830625
,,,-4.12E-06,0.01378875
,,,-4.11E-06,0.014015625
,,,-4.1E-06,0.013953125
,,,-4.09E-06,0.013656875
,,,-4.08E-06,0.013985
,,,-4.07E-06,0.014129375
,,,-4.06E-06,0.014098125
,,,-4.05E-06,0.01398625
,,,-4.04E-06,0.013956875
,,,-4.03E-06,0.013821875
,,,-4.02E-06,0.013996875
,,,-4.01E-06,0.013820625
,,,-4E-06,0.013761875
,,,-3.99E-06,0.01403
,,,-3.98E-06,0.013675
,,,-3.97E-06,0.013875625
,,,-3.96E-06,0.013984375
,,,-3.95E-06,0.014065
,,,-3.94E-06,0.013886875
,,,-3.93E-06,0.01388375
,,,-3.92E-06,0.0137875
,,,-3.91E-06,0.013825625
,,,-3.9E-06,0.01401375
,,,-3.89E-06,0.01393125
,,,-3.88E-06,0.01383375
,,,-3.87E-06,0.013738125
,,,-3.86E-06,0.0139525
,,,-3.85E-06,0.01403375
,,,-3.84E-06,0.013973125
,,,-3.83E-06,0.014106875
,,,-3.82E-06,0.014015625
,,,-3.81E-06,0.014058125
,,,-3.8E-06,0.01396
,,,-3.79E-06,0.014098125
,,,-3.78E-06,0.014061875
,,,-3.77E-06,0.013916875
,,,-3.76E-06,0.013913125
,,,-3.75E-06,0.013945625
,,,-3.74E-06,0.013835
,,,-3.73E-06,0.0138325
,,,-3.72E-06,0.014001875
,,,-3.71E-06,0.01384375
,,,-3.7E-06,0.01390875
,,,-3.69E-06,0.0138775
,,,-3.68E-06,0.013901875
,,,-3.67E-06,0.0140025
,,,-3.66E-06,0.013794375
,,,-3.65E-06,0.0141125
,,,-3.64E-06,0.013905625
,,,-3.63E-06,0.013981875
,,,-3.62E-06,0.01366625
,,,-3.61E-06,0.013885625
,,,-3.6E-06,0.013769375
,,,-3.59E-06,0.014
,,,-3.58E-06,0.013966875
,,,-3.57E-06,0.014001875
,,,-3.56E-06,0.01415625
,,,-3.55E-06,0.0138175
,,,-3.54E-06,0.01395625
,,,-3.53E-06,0.013598125
,,,-3.52E-06,0.013891875
,,,-3.51E-06,0.01388125
,,,-3.5E-06,0.014155625
,,,-3.49E-06,0.014119375
,,,-3.48E-06,0.013985
,,,-3.47E-06,0.0140825
,,,-3.46E-06,0.013910625
,,,-3.45E-06,0.01401125
,,,-3.44E-06,0.013870625
,,,-3.43E-06,0.01399375
,,,-3.42E-06,0.01380625
,,,-3.41E-06,0.013810625
,,,-3.4E-06,0.014001875
,,,-3.39E-06,0.0138525
,,,-3.38E-06,0.013949375
,,,-3.37E-06,0.013619375
,,,-3.36E-06,0.01402375
,,,-3.35E-06,0.013935
,,,-3.34E-06,0.0139575
,,,-3.33E-06,0.013878125
,,,-3.32E-06,0.013978125
,,,-3.31E-06,0.013923125
,,,-3.3E-06,0.014045625
,,,-3.29E-06,0.013855
,,,-3.28E-06,0.013945
,,,-3.27E-06,0.013726875
,,,-3.26E-06,0.01399125
,,,-3.25E-06,0.014170625
,,,-3.24E-06,0.01401375
,,,-3.23E-06,0.01414625
,,,-3.22E-06,0.013893125
,,,-3.21E-06,0.013850625
,,,-3.2E-06,0.013771875
,,,-3.19E-06,0.013950625
,,,-3.18E-06,0.0139275
,,,-3.17E-06,0.014045
,,,-3.16E-06,0.013775625
,,,-3.15E-06,0.0139025
,,,-3.14E-06,0.013935
,,,-3.13E-06,0.0138425
,,,-3.12E-06,0.01373875
,,,-3.11E-06,0.013690625
,,,-3.1E-06,0.01395625
,,,-3.09E-06,0.01402625
,,,-3.08E-06,0.014175
,,,-3.07E-06,0.01393875
,,,-3.06E-06,0.01406375
,,,-3.05E-06,0.013921875
,,,-3.04E-06,0.013848125
,,,-3.03E-06,0.013791875
,,,-3.02E-06,0.013966875
,,,-3.01E-06,0.013720625
,,,-3E-06,0.014028125
,,,-2.99E-06,0.01377
,,,-2.98E-06,0.01395
,,,-2.97E-06,0.0139125
,,,-2.96E-06,0.0138525
,,,-2.95E-06,0.01398375
,,,-2.94E-06,0.013856875
,,,-2.93E-06,0.01420625
,,,-2.92E-06,0.01392875
,,,-2.91E-06,0.013910625
,,,-2.9E-06,0.013875
,,,-2.89E-06,0.013694375
,,,-2.88E-06,0.0140075
,,,-2.87E-06,0.013885625
,,,-2.86E-06,0.014123125
,,,-2.85E-06,0.01378125
,,,-2.84E-06,0.013811875
,,,-2.83E-06,0.01376
,,,-2.82E-06,0.01396
,,,-2.81E-06,0.013695
,,,-2.8E-06,0.0139
,,,-2.79E-06,0.01392875
,,,-2.78E-06,0.013849375
,,,-2.77E-06,0.01378
,,,-2.76E-06,0.0139625
,,,-2.75E-06,0.013894375
,,,-2.74E-06,0.0138625
,,,-2.73E-06,0.01406375
,,,-2.72E-06,0.01366125
,,,-2.71E-06,0.014091875
,,,-2.7E-06,0.013906875
,,,-2.69E-06,0.01379
,,,-2.68E-06,0.013878125
,,,-2.67E-06,0.013886875
,,,-2.66E-06,0.013931875
,,,-2.65E-06,0.014075
,,,-2.64E-06,0.01388375
,,,-2.63E-06,0.013965625
,,,-2.62E-06,0.01387875
,,,-2.61E-06,0.013851875
,,,-2.6E-06,0.01385625
,,,-2.59E-06,0.01412
,,,-2.58E-06,0.0139775
,,,-2.57E-06,0.013850625
,,,-2.56E-06,0.01401125
,,,-2.55E-06,0.01394375
,,,-2.54E-06,0.01411375
,,,-2.53E-06,0.01404125
,,,-2.52E-06,0.014155625
,,,-2.51E-06,0.01424375
,,,-2.5E-06,0.014008125
,,,-2.49E-06,0.013845
,,,-2.48E-06,0.01398875
,,,-2.47E-06,0.01388875
,,,-2.46E-06,0.014041875
,,,-2.45E-06,0.013715
,,,-2.44E-06,0.01398875
,,,-2.43E-06,0.013699375
,,,-2.42E-06,0.013666875
,,,-2.41E-06,0.01396
,,,-2.4E-06,0.013983125
,,,-2.39E-06,0.013904375
,,,-2.38E-06,0.013953125
,,,-2.37E-06,0.01388
,,,-2.36E-06,0.01384875
,,,-2.35E-06,0.01418125
,,,-2.34E-06,0.014004375
,,,-2.33E-06,0.01374625
,,,-2.32E-06,0.013571875
,,,-2.31E-06,0.013936875
,,,-2.3E-06,0.014009375
,,,-2.29E-06,0.0139625
,,,-2.28E-06,0.013545625
,,,-2.27E-06,0.013820625
,,,-2.26E-06,0.013735
,,,-2.25E-06,0.013881875
,,,-2.24E-06,0.01427875
,,,-2.23E-06,0.0140525
,,,-2.22E-06,0.013869375
,,,-2.21E-06,0.013944375
,,,-2.2E-06,0.013958125
,,,-2.19E-06,0.013806875
,,,-2.18E-06,0.01382125
,,,-2.17E-06,0.01396
,,,-2.16E-06,0.01385375
,,,-2.15E-06,0.013725625
,,,-2.14E-06,0.013865
,,,-2.13E-06,0.013875625
,,,-2.12E-06,0.014028125
,,,-2.11E-06,0.01370625
,,,-2.1E-06,0.0137925
,,,-2.09E-06,0.014034375
,,,-2.08E-06,0.01403875
,,,-2.07E-06,0.0139175
,,,-2.06E-06,0.01396
,,,-2.05E-06,0.014045625
,,,-2.04E-06,0.01378125
,,,-2.03E-06,0.01381625
,,,-2.02E-06,0.013980625
,,,-2.01E-06,0.01404875
,,,-2E-06,0.014001875
,,,-1.99E-06,0.0138125
,,,-1.98E-06,0.0138675
,,,-1.97E-06,0.013855625
,,,-1.96E-06,0.013838125
,,,-1.95E-06,0.01400375
,,,-1.94E-06,0.014130625
,,,-1.93E-06,0.014059375
,,,-1.92E-06,0.0141275
,,,-1.91E-06,0.014049375
,,,-1.9E-06,0.01402125
,,,-1.89E-06,0.01378
,,,-1.88E-06,0.0140025
,,,-1.87E-06,0.013974375
,,,-1.86E-06,0.01424625
,,,-1.85E-06,0.01407875
,,,-1.84E-06,0.013821875
,,,-1.83E-06,0.013934375
,,,-1.82E-06,0.01361125
,,,-1.81E-06,0.01382
,,,-1.8E-06,0.013879375
,,,-1.79E-06,0.013903125
,,,-1.78E-06,0.01416375
,,,-1.77E-06,0.013853125
,,,-1.76E-06,0.013899375
,,,-1.75E-06,0.013844375
,,,-1.74E-06,0.01408
,,,-1.73E-06,0.01381375
,,,-1.72E-06,0.01389875
,,,-1.71E-06,0.01393375
,,,-1.7E-06,0.013709375
,,,-1.69E-06,0.014066875
,,,-1.68E-06,0.013873125
,,,-1.67E-06,0.014066875
,,,-1.66E-06,0.01378375
,,,-1.65E-06,0.01406875
,,,-1.64E-06,0.0137725
,,,-1.63E-06,0.013696875
,,,-1.62E-06,0.01387
,,,-1.61E-06,0.013835625
,,,-1.6E-06,0.01406625
,,,-1.59E-06,0.013868125
,,,-1.58E-06,0.01394
,,,-1.57E-06,0.014008125
,,,-1.56E-06,0.0140075
,,,-1.55E-06,0.013758125
,,,-1.54E-06,0.01384125
,,,-1.53E-06,0.01395625
,,,-1.52E-06,0.01410125
,,,-1.51E-06,0.013809375
,,,-1.5E-06,0.013864375
,,,-1.49E-06,0.013931875
,,,-1.48E-06,0.013886875
,,,-1.47E-06,0.013875
,,,-1.46E-06,0.01400375
,,,-1.45E-06,0.0141
,,,-1.44E-06,0.01402875
,,,-1.43E-06,0.013950625
,,,-1.42E-06,0.01401
,,,-1.41E-06,0.013756875
,,,-1.4E-06,0.01388125
,,,-1.39E-06,0.01360625
,,,-1.38E-06,0.013960625
,,,-1.37E-06,0.013955625
,,,-1.36E-06,0.013921875
,,,-1.35E-06,0.013761875
,,,-1.34E-06,0.013836875
,,,-1.33E-06,0.013860625
,,,-1.32E-06,0.014073125
,,,-1.31E-06,0.013925625
,,,-1.3E-06,0.01387625
,,,-1.29E-06,0.014014375
,,,-1.28E-06,0.0139275
,,,-1.27E-06,0.014079375
,,,-1.26E-06,0.013960625
,,,-1.25E-06,0.01396375
,,,-1.24E-06,0.01404875
,,,-1.23E-06,0.0137775
,,,-1.22E-06,0.01386625
,,,-1.21E-06,0.01391375
,,,-1.2E-06,0.013814375
,,,-1.19E-06,0.0140175
,,,-1.18E-06,0.013911875
,,,-1.17E-06,0.014099375
,,,-1.16E-06,0.013981875
,,,-1.15E-06,0.01396125
,,,-1.14E-06,0.013835
,,,-1.13E-06,0.0138775
,,,-1.12E-06,0.013790625
,,,-1.11E-06,0.014224375
,,,-1.1E-06,0.0139925
,,,-1.09E-06,0.014066875
,,,-1.08E-06,0.014076875
,,,-1.07E-06,0.013865
,,,-1.06E-06,0.01383125
,,,-1.05E-06,0.013911875
,,,-1.04E-06,0.01389375
,,,-1.03E-06,0.013989375
,,,-1.02E-06,0.013824375
,,,-1.01E-06,0.014138125
,,,-1E-06,0.013969375
,,,-9.9E-07,0.0140225
,,,-9.8E-07,0.013831875
,,,-9.7E-07,0.01364375
,,,-9.6E-07,0.014013125
,,,-9.5E-07,0.014161875
,,,-9.4E-07,0.014081875
,,,-9.3E-07,0.013944375
,,,-9.2E-07,0.01394625
,,,-9.1E-07,0.01407
,,,-9E-07,0.013856875
,,,-8.9E-07,0.01375625
,,,-8.8E-07,0.0138725
,,,-8.7E-07,0.013838125
,,,-8.6E-07,0.014109375
,,,-8.5E-07,0.01395375
,,,-8.4E-07,0.013873125
,,,-8.3E-07,0.013529375
,,,-8.2E-07,0.01386875
,,,-8.1E-07,0.013586875
,,,-8E-07,0.0138725
,,,-7.9E-07,0.0137525
,,,-7.8E-07,0.01387125
,,,-7.7E-07,0.013723125
,,,-7.6E-07,0.014196875
,,,-7.5E-07,0.013933125
,,,-7.4E-07,0.013888125
,,,-7.3E-07,0.013945625
,,,-7.2E-07,0.01384125
,,,-7.1E-07,0.014049375
,,,-7E-07,0.014258125
,,,-6.9E-07,0.014069375
,,,-6.8E-07,0.013768125
,,,-6.7E-07,0.013890625
,,,-6.6E-07,0.013979375
,,,-6.5E-07,0.0138975
,,,-6.4E-07,0.013855
,,,-6.3E-07,0.01405875
,,,-6.2E-07,0.01395625
,,,-6.1E-07,0.0138875
,,,-6E-07,0.013926875
,,,-5.9E-07,0.0140575
,,,-5.8E-07,0.01394875
,,,-5.7E-07,0.013761875
,,,-5.6E-07,0.0135575
,,,-5.5E-07,0.013995
,,,-5.4E-07,0.013905
,,,-5.3E-07,0.013779375
,,,-5.2E-07,0.01394625
,,,-5.1E-07,0.013700625
,,,-5E-07,0.013665625
,,,-4.9E-07,0.01396375
,,,-4.8E-07,0.0137875
,,,-4.7E-07,0.0135975
,,,-4.6E-07,0.013975625
,,,-4.5E-07,0.01384625
,,,-4.4E-07,0.014025625
,,,-4.3E-07,0.014039375
,,,-4.2E-07,0.01402875
,,,-4.1E-07,0.013919375
,,,-4E-07,0.013858125
,,,-3.9E-07,0.013776875
,,,-3.8E-07,0.0134975
,,,-3.7E-07,0.013788125
,,,-3.6E-07,0.013690625
,,,-3.5E-07,0.01377125
,,,-3.4E-07,0.0138225
,,,-3.3E-07,0.01413125
,,,-3.2E-07,0.0137425
,,,-3.1E-07,0.01373625
,,,-3E-07,0.013535625
,,,-2.9E-07,0.013918125
,,,-2.8E-07,0.01408625
,,,-2.7E-07,0.013983125
,,,-2.6E-07,0.013965625
,,,-2.5E-07,0.013723125
,,,-2.4E-07,0.014045625
,,,-2.3E-07,0.01369875
,,,-2.2E-07,0.01388125
,,,-2.1E-07,0.013685625
,,,-2E-07,0.014034375
,,,-1.9E-07,0.0136
,,,-1.8E-07,0.0139025
,,,-1.7E-07,0.0137375
,,,-1.6E-07,0.01392625
,,,-1.5E-07,0.013910625
,,,-1.4E-07,0.01379375
,,,-1.3E-07,0.013905
,,,-1.2E-07,0.013955625
,,,-1.1E-07,0.013904375
,,,-1E-07,0.013951875
,,,-9E-08,0.01369625
,,,-8E-08,0.013889375
,,,-7E-08,0.01385
,,,-6E-08,0.013751875
,,,-5E-08,0.013925625
,,,-4E-08,0.01487375
,,,-3E-08,0.015450625
,,,-2E-08,0.012365625
,,,-1E-08,0.010425625
,,,0,0.01018625
,,,1E-08,0.016533125
,,,2E-08,0.018589375
,,,3E-08,0.017815625
,,,4E-08,0.013644375
,,,5E-08,0.0106975
,,,6E-08,0.010165
,,,7E-08,0.01242625
,,,8E-08,0.0146025
,,,9E-08,0.016256875
,,,1E-07,0.01616
,,,1.1E-07,0.014646875
,,,1.2E-07,0.012824375
,,,1.3E-07,0.011903125
,,,1.4E-07,0.013010625
,,,1.5E-07,0.01373375
,,,1.6E-07,0.014439375
,,,1.7E-07,0.01442125
,,,1.8E-07,0.01416875
,,,1.9E-07,0.01410625
,,,2E-07,0.01388
,,,2.1E-07,0.0135275
,,,2.2E-07,0.01354
,,,2.3E-07,0.0139025
,,,2.4E-07,0.014015
,,,2.5E-07,0.014650625
,,,2.6E-07,0.01386
,,,2.7E-07,0.013808125
,,,2.8E-07,0.0137575
,,,2.9E-07,0.013954375
,,,3E-07,0.01364
,,,3.1E-07,0.013763125
,,,3.2E-07,0.01387875
,,,3.3E-07,0.01411
,,,3.4E-07,0.01392375
,,,3.5E-07,0.013781875
,,,3.6E-07,0.0137725
,,,3.7E-07,0.0139925
,,,3.8E-07,0.0139325
,,,3.9E-07,0.01377625
,,,4E-07,0.01399
,,,4.1E-07,0.013841875
,,,4.2E-07,0.013826875
,,,4.3E-07,0.013625625
,,,4.4E-07,0.014089375
,,,4.5E-07,0.013955
,,,4.6E-07,0.013955
,,,4.7E-07,0.014004375
,,,4.8E-07,0.01397
,,,4.9E-07,0.014033125
,,,5E-07,0.014085
,,,5.1E-07,0.01377125
,,,5.2E-07,0.013899375
,,,5.3E-07,0.013815
,,,5.4E-07,0.01416
,,,5.5E-07,0.01373875
,,,5.6E-07,0.014113125
,,,5.7E-07,0.01395375
,,,5.8E-07,0.013679375
,,,5.9E-07,0.014235
,,,6E-07,0.013979375
,,,6.1E-07,0.0138275
,,,6.2E-07,0.013716875
,,,6.3E-07,0.013930625
,,,6.4E-07,0.0139125
,,,6.5E-07,0.0137675
,,,6.6E-07,0.0138425
,,,6.7E-07,0.013903125
,,,6.8E-07,0.0138725
,,,6.9E-07,0.0140625
,,,7E-07,0.01400375
,,,7.1E-07,0.013760625
,,,7.2E-07,0.01385875
,,,7.3E-07,0.014123125
,,,7.4E-07,0.01371125
,,,7.5E-07,0.014039375
,,,7.6E-07,0.0140425
,,,7.7E-07,0.0137875
,,,7.8E-07,0.013795625
,,,7.9E-07,0.0137225
,,,8E-07,0.0138825
,,,8.1E-07,0.0139325
,,,8.2E-07,0.01380625
,,,8.3E-07,0.01407625
,,,8.4E-07,0.013915
,,,8.5E-07,0.014105
,,,8.6E-07,0.014104375
,,,8.7E-07,0.013968125
,,,8.8E-07,0.014048125
,,,8.9E-07,0.013866875
,,,9E-07,0.013753125
,,,9.1E-07,0.013920625
,,,9.2E-07,0.013918125
,,,9.3E-07,0.0138425
,,,9.4E-07,0.013969375
,,,9.5E-07,0.01400125
,,,9.6E-07,0.0137375
,,,9.7E-07,0.0138
,,,9.8E-07,0.0139175
,,,9.9E-07,0.013906875
,,,1E-06,0.01380375
,,,1.01E-06,0.01380875
,,,1.02E-06,0.014041875
,,,1.03E-06,0.013951875
,,,1.04E-06,0.013799375
,,,1.05E-06,0.01397875
,,,1.06E-06,0.01375875
,,,1.07E-06,0.01386
,,,1.08E-06,0.014060625
,,,1.09E-06,0.01380625
,,,1.1E-06,0.0140875
,,,1.11E-06,0.013735625
,,,1.12E-06,0.013754375
,,,1.13E-06,0.01399375
,,,1.14E-06,0.014070625
,,,1.15E-06,0.013908125
,,,1.16E-06,0.014114375
,,,1.17E-06,0.013933125
,,,1.18E-06,0.01381875
,,,1.19E-06,0.013889375
,,,1.2E-06,0.013789375
,,,1.21E-06,0.0138225
,,,1.22E-06,0.014141875
,,,1.23E-06,0.01397
,,,1.24E-06,0.014111875
,,,1.25E-06,0.014294375
,,,1.26E-06,0.01395375
,,,1.27E-06,0.013753125
,,,1.28E-06,0.013981875
,,,1.29E-06,0.013993125
,,,1.3E-06,0.0138575
,,,1.31E-06,0.01411125
,,,1.32E-06,0.01416875
,,,1.33E-06,0.01387
,,,1.34E-06,0.01379125
,,,1.35E-06,0.0136575
,,,1.36E-06,0.013919375
,,,1.37E-06,0.013759375
,,,1.38E-06,0.013906875
,,,1.39E-06,0.013940625
,,,1.4E-06,0.01405625
,,,1.41E-06,0.0138575
,,,1.42E-06,0.013928125
,,,1.43E-06,0.013795625
,,,1.44E-06,0.01391
,,,1.45E-06,0.014035
,,,1.46E-06,0.014048125
,,,1.47E-06,0.01417875
,,,1.48E-06,0.01377625
,,,1.49E-06,0.01416625
,,,1.5E-06,0.01381125
,,,1.51E-06,0.013771875
,,,1.52E-06,0.013888125
,,,1.53E-06,0.01407125
,,,1.54E-06,0.014164375
,,,1.55E-06,0.01384625
,,,1.56E-06,0.013863125
,,,1.57E-06,0.01358375
,,,1.58E-06,0.014039375
,,,1.59E-06,0.013761875
,,,1.6E-06,0.0138075
,,,1.61E-06,0.013926875
,,,1.62E-06,0.013895
,,,1.63E-06,0.013885
,,,1.64E-06,0.01399
,,,1.65E-06,0.0140175
,,,1.66E-06,0.01389125
,,,1.67E-06,0.01393625
,,,1.68E-06,0.01376625
,,,1.69E-06,0.013945625
,,,1.7E-06,0.013875625
,,,1.71E-06,0.0138725
,,,1.72E-06,0.013803125
,,,1.73E-06,0.013988125
,,,1.74E-06,0.01395125
,,,1.75E-06,0.0139775
,,,1.76E-06,0.013813125
,,,1.77E-06,0.0139425
,,,1.78E-06,0.013793125
,,,1.79E-06,0.01406
,,,1.8E-06,0.014185
,,,1.81E-06,0.01395875
,,,1.82E-06,0.013725
,,,1.83E-06,0.013895625
,,,1.84E-06,0.013631875
,,,1.85E-06,0.01381
,,,1.86E-06,0.01399
,,,1.87E-06,0.014064375
,,,1.88E-06,0.014008125
,,,1.89E-06,0.0140275
,,,1.9E-06,0.01398375
,,,1.91E-06,0.01389375
,,,1.92E-06,0.01388625
,,,1.93E-06,0.01399875
,,,1.94E-06,0.014099375
,,,1.95E-06,0.0138825
,,,1.96E-06,0.013790625
,,,1.97E-06,0.014024375
,,,1.98E-06,0.013973125
,,,1.99E-06,0.01378875
,,,2E-06,0.01383
,,,2.01E-06,0.01369125
,,,2.02E-06,0.0135875
,,,2.03E-06,0.0138875
,,,2.04E-06,0.013874375
,,,2.05E-06,0.01401125
,,,2.06E-06,0.013915
,,,2.07E-06,0.01405125
,,,2.08E-06,0.013729375
,,,2.09E-06,0.013878125
,,,2.1E-06,0.013729375
,,,2.11E-06,0.013855625
,,,2.12E-06,0.0138725
,,,2.13E-06,0.01401625
,,,2.14E-06,0.014046875
,,,2.15E-06,0.01415125
,,,2.16E-06,0.013828125
,,,2.17E-06,0.01396
,,,2.18E-06,0.013799375
,,,2.19E-06,0.01396
,,,2.2E-06,0.0140425
,,,2.21E-06,0.013945625
,,,2.22E-06,0.01427375
,,,2.23E-06,0.01407375
,,,2.24E-06,0.0137925
,,,2.25E-06,0.01384375
,,,2.26E-06,0.01384625
,,,2.27E-06,0.013964375
,,,2.28E-06,0.013955625
,,,2.29E-06,0.01387125
,,,2.3E-06,0.013884375
,,,2.31E-06,0.013881875
,,,2.32E-06,0.01384875
,,,2.33E-06,0.013965
,,,2.34E-06,0.01383875
,,,2.35E-06,0.01378
,,,2.36E-06,0.0137125
,,,2.37E-06,0.013854375
,,,2.38E-06,0.014145
,,,2.39E-06,0.014120625
,,,2.4E-06,0.013669375
,,,2.41E-06,0.013805625
,,,2.42E-06,0.013694375
,,,2.43E-06,0.013911875
,,,2.44E-06,0.01371875
,,,2.45E-06,0.01426625
,,,2.46E-06,0.013761875
,,,2.47E-06,0.013775
,,,2.48E-06,0.013940625
,,,2.49E-06,0.013860625
,,,2.5E-06,0.0139
,,,2.51E-06,0.013924375
,,,2.52E-06,0.01413125
,,,2.53E-06,0.013614375
,,,2.54E-06,0.013911875
,,,2.55E-06,0.014026875
,,,2.56E-06,0.01422375
,,,2.57E-06,0.013981875
,,,2.58E-06,0.01387375
,,,2.59E-06,0.013855
,,,2.6E-06,0.01381
,,,2.61E-06,0.0141375
,,,2.62E-06,0.013975
,,,2.63E-06,0.013799375
,,,2.64E-06,0.01378375
,,,2.65E-06,0.0139925
,,,2.66E-06,0.01393375
,,,2.67E-06,0.01389875
,,,2.68E-06,0.01392375
,,,2.69E-06,0.013765625
,,,2.7E-06,0.013895625
,,,2.71E-06,0.0140275
,,,2.72E-06,0.0142
,,,2.73E-06,0.01408
,,,2.74E-06,0.013893125
,,,2.75E-06,0.013885625
,,,2.76E-06,0.013941875
,,,2.77E-06,0.013893125
,,,2.78E-06,0.013834375
,,,2.79E-06,0.014016875
,,,2.8E-06,0.01385625
,,,2.81E-06,0.0139375
,,,2.82E-06,0.01402375
,,,2.83E-06,0.01411
,,,2.84E-06,0.01415125
,,,2.85E-06,0.013860625
,,,2.86E-06,0.01397
,,,2.87E-06,0.013751875
,,,2.88E-06,0.0141025
,,,2.89E-06,0.014084375
,,,2.9E-06,0.01408
,,,2.91E-06,0.013991875
,,,2.92E-06,0.013945
,,,2.93E-06,0.013824375
,,,2.94E-06,0.01384625
,,,2.95E-06,0.013895
,,,2.96E-06,0.014015
,,,2.97E-06,0.014051875
,,,2.98E-06,0.013995625
,,,2.99E-06,0.013966875
,,,3E-06,0.013945
,,,3.01E-06,0.0139225
,,,3.02E-06,0.0139025
,,,3.03E-06,0.01389125
,,,3.04E-06,0.01409625
,,,3.05E-06,0.0140675
,,,3.06E-06,0.013925625
,,,3.07E-06,0.013914375
,,,3.08E-06,0.013839375
,,,3.09E-06,0.01374625
,,,3.1E-06,0.013846875
,,,3.11E-06,0.01389625
,,,3.12E-06,0.01396875
,,,3.13E-06,0.013973125
,,,3.14E-06,0.0139525
,,,3.15E-06,0.014129375
,,,3.16E-06,0.01396375
,,,3.17E-06,0.013936875
,,,3.18E-06,0.014076875
,,,3.19E-06,0.014055625
,,,3.2E-06,0.01383375
,,,3.21E-06,0.013945625
,,,3.22E-06,0.013921875
,,,3.23E-06,0.013895625
,,,3.24E-06,0.0138725
,,,3.25E-06,0.013845
,,,3.26E-06,0.01376125
,,,3.27E-06,0.01379875
,,,3.28E-06,0.013866875
,,,3.29E-06,0.01372
,,,3.3E-06,0.013831875
,,,3.31E-06,0.01399375
,,,3.32E-06,0.013926875
,,,3.33E-06,0.013830625
,,,3.34E-06,0.013961875
,,,3.35E-06,0.013840625
,,,3.36E-06,0.013584375
,,,3.37E-06,0.013680625
,,,3.38E-06,0.0140625
,,,3.39E-06,0.0140175
,,,3.4E-06,0.01374125
,,,3.41E-06,0.013755625
,,,3.42E-06,0.013914375
,,,3.43E-06,0.01394875
,,,3.44E-06,0.01391
,,,3.45E-06,0.0137125
,,,3.46E-06,0.0137925
,,,3.47E-06,0.013913125
,,,3.48E-06,0.01383875
,,,3.49E-06,0.013910625
,,,3.5E-06,0.0138625
,,,3.51E-06,0.0137325
,,,3.52E-06,0.0137525
,,,3.53E-06,0.01394625
,,,3.54E-06,0.013691875
,,,3.55E-06,0.01372125
,,,3.56E-06,0.01400625
,,,3.57E-06,0.013886875
,,,3.58E-06,0.013899375
