data/raw/Final_POL_Test_1/SOP082_Ch4.csv

"Record Length",1000,"Points",-5E-06,0.01759125
"Sample Interval",1E-08,s,-4.99E-06,0.017540625
"Trigger Point",500,"Samples",-4.98E-06,0.01750375
"Trigger Time",0,s,-4.97E-06,0.017526875
"",,,-4.96E-06,0.01761625
"Horizontal Offset",-5E-06,s,-4.95E-06,0.01737375
,,,-4.94E-06,0.017710625
,,,-4.93E-06,0.01757125
,,,-4.92E-06,0.017515
,,,-4.91E-06,0.017588125
,,,-4.9E-06,0.01757
,,,-4.89E-06,0.017489375
,,,-4.88E-06,0.01754875
,,,-4.87E-06,0.017221875
,,,-4.86E-06,0.01739
,,,-4.85E-06,0.017445
,,,-4.84E-06,0.01736
,,,-4.83E-06,0.01748125
,,,-4.82E-06,0.01777625
,,,-4.81E-06,0.017538125
,,,-4.8E-06,0.017408125
,,,-4.79E-06,0.01759375
,,,-4.78E-06,0.017693125
,,,-4.77E-06,0.0174625
,,,-4.76E-06,0.017573125
,,,-4.75E-06,0.017518125
,,,-4.74E-06,0.01738
,,,-4.73E-06,0.017748125
,,,-4.72E-06,0.017906875
,,,-4.71E-06,0.017401875
,,,-4.7E-06,0.01755875
,,,-4.69E-06,0.017279375
,,,-4.68E-06,0.0173525
,,,-4.67E-06,0.01767
,,,-4.66E-06,0.01772625
,,,-4.65E-06,0.017449375
,,,-4.64E-06,0.01768375
,,,-4.63E-06,0.017646875
,,,-4.62E-06,0.01758875
,,,-4.61E-06,0.017498125
,,,-4.6E-06,0.017355625
,,,-4.59E-06,0.0174525
,,,-4.58E-06,0.017523125
,,,-4.57E-06,0.017416875
,,,-4.56E-06,0.01751375
,,,-4.55E-06,0.017718125
,,,-4.54E-06,0.01761375
,,,-4.53E-06,0.01736625
,,,-4.52E-06,0.01753125
,,,-4.51E-06,0.017703125
,,,-4.5E-06,0.017709375
,,,-4.49E-06,0.017510625
,,,-4.48E-06,0.017841875
,,,-4.47E-06,0.017543125
,,,-4.46E-06,0.0175625
,,,-4.45E-06,0.01743375
,,,-4.44E-06,0.017388125
,,,-4.43E-06,0.017474375
,,,-4.42E-06,0.01733375
,,,-4.41E-06,0.01759125
,,,-4.4E-06,0.017654375
,,,-4.39E-06,0.017590625
,,,-4.38E-06,0.0175825
,,,-4.37E-06,0.01751375
,,,-4.36E-06,0.01718375
,,,-4.35E-06,0.01778875
,,,-4.34E-06,0.017561875
,,,-4.33E-06,0.01741875
,,,-4.32E-06,0.01747375
,,,-4.31E-06,0.017495625
,,,-4.3E-06,0.01761875
,,,-4.29E-06,0.01749875
,,,-4.28E-06,0.01753125
,,,-4.27E-06,0.017566875
,,,-4.26E-06,0.017530625
,,,-4.25E-06,0.01732625
,,,-4.24E-06,0.01773875
,,,-4.23E-06,0.017448125
,,,-4.22E-06,0.01747875
,,,-4.21E-06,0.017529375
,,,-4.2E-06,0.01742
,,,-4.19E-06,0.01770125
,,,-4.18E-06,0.017565625
,,,-4.17E-06,0.01763
,,,-4.16E-06,0.01750625
,,,-4.15E-06,0.017445625
,,,-4.14E-06,0.01725875
,,,-4.13E-06,0.017243125
,,,-4.12E-06,0.0173325
,,,-4.11E-06,0.017595625
,,,-4.1E-06,0.017435
,,,-4.09E-06,0.01763375
,,,-4.08E-06,0.017575625
,,,-4.07E-06,0.01756
,,,-4.06E-06,0.017665
,,,-4.05E-06,0.01756
,,,-4.04E-06,0.01763625
,,,-4.03E-06,0.01746375
,,,-4.02E-06,0.0176725
,,,-4.01E-06,0.017559375
,,,-4E-06,0.0172975
,,,-3.99E-06,0.017570625
,,,-3.98E-06,0.017663125
,,,-3.97E-06,0.017476875
,,,-3.96E-06,0.01754375
,,,-3.95E-06,0.017385
,,,-3.94E-06,0.017335
,,,-3.93E-06,0.01773875
,,,-3.92E-06,0.01764125
,,,-3.91E-06,0.0176025
,,,-3.9E-06,0.0175775
,,,-3.89E-06,0.0175525
,,,-3.88E-06,0.01755
,,,-3.87E-06,0.017473125
,,,-3.86E-06,0.0174075
,,,-3.85E-06,0.017445
,,,-3.84E-06,0.017674375
,,,-3.83E-06,0.017453125
,,,-3.82E-06,0.017486875
,,,-3.81E-06,0.01761875
,,,-3.8E-06,0.0173625
,,,-3.79E-06,0.0175025
,,,-3.78E-06,0.017728125
,,,-3.77E-06,0.01741375
,,,-3.76E-06,0.017541875
,,,-3.75E-06,0.017541875
,,,-3.74E-06,0.017445
,,,-3.73E-06,0.0177225
,,,-3.72E-06,0.017794375
,,,-3.71E-06,0.017395
,,,-3.7E-06,0.0175625
,,,-3.69E-06,0.017221875
,,,-3.68E-06,0.0176225
,,,-3.67E-06,0.017465
,,,-3.66E-06,0.017529375
,,,-3.65E-06,0.01760625
,,,-3.64E-06,0.017751875
,,,-3.63E-06,0.017595625
,,,-3.62E-06,0.01755375
,,,-3.61E-06,0.016974375
,,,-3.6E-06,0.017555
,,,-3.59E-06,0.0173875
,,,-3.58E-06,0.017474375
,,,-3.57E-06,0.017415625
,,,-3.56E-06,0.0173775
,,,-3.55E-06,0.0173875
,,,-3.54E-06,0.01747375
,,,-3.53E-06,0.0174
,,,-3.52E-06,0.017513125
,,,-3.51E-06,0.017496875
,,,-3.5E-06,0.0177425
,,,-3.49E-06,0.017604375
,,,-3.48E-06,0.0175925
,,,-3.47E-06,0.017365625
,,,-3.46E-06,0.01742125
,,,-3.45E-06,0.017440625
,,,-3.44E-06,0.017430625
,,,-3.43E-06,0.017955
,,,-3.42E-06,0.01747
,,,-3.41E-06,0.0176375
,,,-3.4E-06,0.017618125
,,,-3.39E-06,0.01755375
,,,-3.38E-06,0.01754875
,,,-3.37E-06,0.017600625
,,,-3.36E-06,0.0173975
,,,-3.35E-06,0.0175675
,,,-3.34E-06,0.0175725
,,,-3.33E-06,0.0178175
,,,-3.32E-06,0.01736
,,,-3.31E-06,0.017460625
,,,-3.3E-06,0.01757625
,,,-3.29E-06,0.01730625
,,,-3.28E-06,0.01741875
,,,-3.27E-06,0.01756875
,,,-3.26E-06,0.01737875
,,,-3.25E-06,0.017584375
,,,-3.24E-06,0.01776875
,,,-3.23E-06,0.01756625
,,,-3.22E-06,0.01756875
,,,-3.21E-06,0.017461875
,,,-3.2E-06,0.01761875
,,,-3.19E-06,0.017231875
,,,-3.18E-06,0.01755
,,,-3.17E-06,0.01752375
,,,-3.16E-06,0.017818125
,,,-3.15E-06,0.0175675
,,,-3.14E-06,0.01758375
,,,-3.13E-06,0.017564375
,,,-3.12E-06,0.01776875
,,,-3.11E-06,0.017595
,,,-3.1E-06,0.017298125
,,,-3.09E-06,0.01754625
,,,-3.08E-06,0.017739375
,,,-3.07E-06,0.01748875
,,,-3.06E-06,0.017444375
,,,-3.05E-06,0.0174425
,,,-3.04E-06,0.0174375
,,,-3.03E-06,0.01761375
,,,-3.02E-06,0.0174
,,,-3.01E-06,0.01747875
,,,-3E-06,0.017580625
,,,-2.99E-06,0.017375
,,,-2.98E-06,0.01747
,,,-2.97E-06,0.017473125
,,,-2.96E-06,0.017491875
,,,-2.95E-06,0.01749625
,,,-2.94E-06,0.017794375
,,,-2.93E-06,0.01762625
,,,-2.92E-06,0.017515625
,,,-2.91E-06,0.017738125
,,,-2.9E-06,0.017570625
,,,-2.89E-06,0.017411875
,,,-2.88E-06,0.017555625
,,,-2.87E-06,0.01767625
,,,-2.86E-06,0.017534375
,,,-2.85E-06,0.01767625
,,,-2.84E-06,0.017478125
,,,-2.83E-06,0.017436875
,,,-2.82E-06,0.017391875
,,,-2.81E-06,0.0178075
,,,-2.8E-06,0.017601875
,,,-2.79E-06,0.017558125
,,,-2.78E-06,0.0175025
,,,-2.77E-06,0.0174
,,,-2.76E-06,0.01749375
,,,-2.75E-06,0.01752875
,,,-2.74E-06,0.017590625
,,,-2.73E-06,0.0177925
,,,-2.72E-06,0.01767
,,,-2.71E-06,0.017500625
,,,-2.7E-06,0.0176525
,,,-2.69E-06,0.017509375
,,,-2.68E-06,0.017566875
,,,-2.67E-06,0.01748125
,,,-2.66E-06,0.017414375
,,,-2.65E-06,0.01747375
,,,-2.64E-06,0.0175625
,,,-2.63E-06,0.01752125
,,,-2.62E-06,0.01759375
,,,-2.61E-06,0.017638125
,,,-2.6E-06,0.01739125
,,,-2.59E-06,0.01742375
,,,-2.58E-06,0.017545625
,,,-2.57E-06,0.01766625
,,,-2.56E-06,0.01753375
,,,-2.55E-06,0.0172825
,,,-2.54E-06,0.01752625
,,,-2.53E-06,0.01738
,,,-2.52E-06,0.01747
,,,-2.51E-06,0.01761375
,,,-2.5E-06,0.017635625
,,,-2.49E-06,0.017200625
,,,-2.48E-06,0.01745875
,,,-2.47E-06,0.01758625
,,,-2.46E-06,0.017451875
,,,-2.45E-06,0.01770625
,,,-2.44E-06,0.017444375
,,,-2.43E-06,0.017545625
,,,-2.42E-06,0.017696875
,,,-2.41E-06,0.017671875
,,,-2.4E-06,0.017398125
,,,-2.39E-06,0.017269375
,,,-2.38E-06,0.01731875
,,,-2.37E-06,0.0175
,,,-2.36E-06,0.01766
,,,-2.35E-06,0.01741
,,,-2.34E-06,0.0173725
,,,-2.33E-06,0.017649375
,,,-2.32E-06,0.01763375
,,,-2.31E-06,0.01745375
,,,-2.3E-06,0.01736375
,,,-2.29E-06,0.017645625
,,,-2.28E-06,0.0175525
,,,-2.27E-06,0.01747125
,,,-2.26E-06,0.017373125
,,,-2.25E-06,0.01759625
,,,-2.24E-06,0.01736
,,,-2.23E-06,0.017345
,,,-2.22E-06,0.01745125
,,,-2.21E-06,0.01745625
,,,-2.2E-06,0.017603125
,,,-2.19E-06,0.017275
,,,-2.18E-06,0.0173575
,,,-2.17E-06,0.017546875
,,,-2.16E-06,0.017595625
,,,-2.15E-06,0.0175925
,,,-2.14E-06,0.01730625
,,,-2.13E-06,0.01746875
,,,-2.12E-06,0.01736
,,,-2.11E-06,0.01757
,,,-2.1E-06,0.017368125
,,,-2.09E-06,0.0174475
,,,-2.08E-06,0.017385
,,,-2.07E-06,0.01748
,,,-2.06E-06,0.01742875
,,,-2.05E-06,0.017313125
,,,-2.04E-06,0.017366875
,,,-2.03E-06,0.01733
,,,-2.02E-06,0.01753875
,,,-2.01E-06,0.017550625
,,,-2E-06,0.017640625
,,,-1.99E-06,0.017531875
,,,-1.98E-06,0.017511875
,,,-1.97E-06,0.01755875
,,,-1.96E-06,0.017581875
,,,-1.95E-06,0.017403125
,,,-1.94E-06,0.0174075
,,,-1.93E-06,0.017451875
,,,-1.92E-06,0.017601875
,,,-1.91E-06,0.01737875
,,,-1.9E-06,0.0174
,,,-1.89E-06,0.01763
,,,-1.88E-06,0.01757
,,,-1.87E-06,0.01764625
,,,-1.86E-06,0.017548125
,,,-1.85E-06,0.01767875
,,,-1.84E-06,0.017489375
,,,-1.83E-06,0.01759
,,,-1.82E-06,0.0176325
,,,-1.81E-06,0.017509375
,,,-1.8E-06,0.017448125
,,,-1.79E-06,0.017198125
,,,-1.78E-06,0.017264375
,,,-1.77E-06,0.017603125
,,,-1.76E-06,0.017635
,,,-1.75E-06,0.017511875
,,,-1.74E-06,0.01748625
,,,-1.73E-06,0.017375625
,,,-1.72E-06,0.017345
,,,-1.71E-06,0.017571875
,,,-1.7E-06,0.017476875
,,,-1.69E-06,0.017505
,,,-1.68E-06,0.01727
,,,-1.67E-06,0.017366875
,,,-1.66E-06,0.017695625
,,,-1.65E-06,0.017385
,,,-1.64E-06,0.017399375
,,,-1.63E-06,0.01749125
,,,-1.62E-06,0.017316875
,,,-1.61E-06,0.017456875
,,,-1.6E-06,0.017516875
,,,-1.59E-06,0.0176275
,,,-1.58E-06,0.017604375
,,,-1.57E-06,0.017548125
,,,-1.56E-06,0.017675
,,,-1.55E-06,0.017569375
,,,-1.54E-06,0.01746125
,,,-1.53E-06,0.017641875
,,,-1.52E-06,0.0174225
,,,-1.51E-06,0.017444375
,,,-1.5E-06,0.01765625
,,,-1.49E-06,0.017599375
,,,-1.48E-06,0.01763625
,,,-1.47E-06,0.017699375
,,,-1.46E-06,0.01775375
,,,-1.45E-06,0.0175325
,,,-1.44E-06,0.017396875
,,,-1.43E-06,0.017390625
,,,-1.42E-06,0.017571875
,,,-1.41E-06,0.01755125
,,,-1.4E-06,0.01738625
,,,-1.39E-06,0.017521875
,,,-1.38E-06,0.017639375
,,,-1.37E-06,0.01713875
,,,-1.36E-06,0.017554375
,,,-1.35E-06,0.017489375
,,,-1.34E-06,0.01774
,,,-1.33E-06,0.01753625
,,,-1.32E-06,0.017544375
,,,-1.31E-06,0.017595625
,,,-1.3E-06,0.01751625
,,,-1.29E-06,0.017589375
,,,-1.28E-06,0.017504375
,,,-1.27E-06,0.017638125
,,,-1.26E-06,0.01786625
,,,-1.25E-06,0.017775
,,,-1.24E-06,0.017490625
,,,-1.23E-06,0.017586875
,,,-1.22E-06,0.01761375
,,,-1.21E-06,0.017391875
,,,-1.2E-06,0.017675625
,,,-1.19E-06,0.0174125
,,,-1.18E-06,0.017510625
,,,-1.17E-06,0.01762625
,,,-1.16E-06,0.017651875
,,,-1.15E-06,0.017204375
,,,-1.14E-06,0.0174175
,,,-1.13E-06,0.017568125
,,,-1.12E-06,0.017411875
,,,-1.11E-06,0.01753875
,,,-1.1E-06,0.017680625
,,,-1.09E-06,0.01765125
,,,-1.08E-06,0.017471875
,,,-1.07E-06,0.017684375
,,,-1.06E-06,0.01772125
,,,-1.05E-06,0.01747
,,,-1.04E-06,0.017561875
,,,-1.03E-06,0.017481875
,,,-1.02E-06,0.01747375
,,,-1.01E-06,0.017610625
,,,-1E-06,0.017485625
,,,-9.9E-07,0.017676875
,,,-9.8E-07,0.017338125
,,,-9.7E-07,0.017591875
,,,-9.6E-07,0.017420625
,,,-9.5E-07,0.01757
,,,-9.4E-07,0.017643125
,,,-9.3E-07,0.017474375
,,,-9.2E-07,0.017360625
,,,-9.1E-07,0.01774625
,,,-9E-07,0.017334375
,,,-8.9E-07,0.0175975
,,,-8.8E-07,0.017365
,,,-8.7E-07,0.01743
,,,-8.6E-07,0.017398125
,,,-8.5E-07,0.0175075
,,,-8.4E-07,0.017578125
,,,-8.3E-07,0.017745625
,,,-8.2E-07,0.017553125
,,,-8.1E-07,0.01773125
,,,-8E-07,0.017565625
,,,-7.9E-07,0.0174175
,,,-7.8E-07,0.017668125
,,,-7.7E-07,0.017511875
,,,-7.6E-07,0.017530625
,,,-7.5E-07,0.01777
,,,-7.4E-07,0.01744125
,,,-7.3E-07,0.017623125
,,,-7.2E-07,0.01744375
,,,-7.1E-07,0.017608125
,,,-7E-07,0.017765625
,,,-6.9E-07,0.01751875
,,,-6.8E-07,0.0173675
,,,-6.7E-07,0.01745875
,,,-6.6E-07,0.017645625
,,,-6.5E-07,0.017403125
,,,-6.4E-07,0.017581875
,,,-6.3E-07,0.017709375
,,,-6.2E-07,0.01745125
,,,-6.1E-07,0.017495
,,,-6E-07,0.01761625
,,,-5.9E-07,0.01770375
,,,-5.8E-07,0.0175625
,,,-5.7E-07,0.01719375
,,,-5.6E-07,0.017349375
,,,-5.5E-07,0.01752
,,,-5.4E-07,0.017625625
,,,-5.3E-07,0.017649375
,,,-5.2E-07,0.0175725
,,,-5.1E-07,0.01769125
,,,-5E-07,0.017539375
,,,-4.9E-07,0.0175825
,,,-4.8E-07,0.01752
,,,-4.7E-07,0.01746
,,,-4.6E-07,0.017575
,,,-4.5E-07,0.01750625
,,,-4.4E-07,0.01759125
,,,-4.3E-07,0.017800625
,,,-4.2E-07,0.01777125
,,,-4.1E-07,0.017718125
,,,-4E-07,0.017505625
,,,-3.9E-07,0.017400625
,,,-3.8E-07,0.017561875
,,,-3.7E-07,0.01738875
,,,-3.6E-07,0.01753375
,,,-3.5E-07,0.01742125
,,,-3.4E-07,0.0173825
,,,-3.3E-07,0.01725875
,,,-3.2E-07,0.017143125
,,,-3.1E-07,0.017609375
,,,-3E-07,0.017491875
,,,-2.9E-07,0.017558125
,,,-2.8E-07,0.017456875
,,,-2.7E-07,0.01769625
,,,-2.6E-07,0.017678125
,,,-2.5E-07,0.01766
,,,-2.4E-07,0.0174775
,,,-2.3E-07,0.017241875
,,,-2.2E-07,0.017669375
,,,-2.1E-07,0.017506875
,,,-2E-07,0.017628125
,,,-1.9E-07,0.017555
,,,-1.8E-07,0.017595
,,,-1.7E-07,0.017316875
,,,-1.6E-07,0.01757125
,,,-1.5E-07,0.0173575
,,,-1.4E-07,0.01754
,,,-1.3E-07,0.0175075
,,,-1.2E-07,0.01743375
,,,-1.1E-07,0.017501875
,,,-1E-07,0.017455
,,,-9E-08,0.01756
,,,-8E-08,0.017663125
,,,-7E-08,0.017433125
,,,-6E-08,0.0174925
,,,-5E-08,0.017375625
,,,-4E-08,0.01785
,,,-3E-08,0.01789125
,,,-2E-08,0.016185625
,,,-1E-08,0.01533375
,,,0,0.01693
,,,1E-08,0.020150625
,,,2E-08,0.020085625
,,,3E-08,0.01869875
,,,4E-08,0.01652125
,,,5E-08,0.0151325
,,,6E-08,0.015846875
,,,7E-08,0.01727625
,,,8E-08,0.0184375
,,,9E-08,0.019141875
,,,1E-07,0.01849125
,,,1.1E-07,0.0178225
,,,1.2E-07,0.016458125
,,,1.3E-07,0.016296875
,,,1.4E-07,0.01719
,,,1.5E-07,0.017756875
,,,1.6E-07,0.017799375
,,,1.7E-07,0.017808125
,,,1.8E-07,0.01775125
,,,1.9E-07,0.01755625
,,,2E-07,0.017396875
,,,2.1E-07,0.01742875
,,,2.2E-07,0.017460625
,,,2.3E-07,0.017336875
,,,2.4E-07,0.01760625
,,,2.5E-07,0.0176975
,,,2.6E-07,0.0176425
,,,2.7E-07,0.01750625
,,,2.8E-07,0.017553125
,,,2.9E-07,0.017405
,,,3E-07,0.01742625
,,,3.1E-07,0.01741
,,,3.2E-07,0.017665625
,,,3.3E-07,0.01763125
,,,3.4E-07,0.017320625
,,,3.5E-07,0.017409375
,,,3.6E-07,0.017178125
,,,3.7E-07,0.0173125
,,,3.8E-07,0.017718125
,,,3.9E-07,0.017380625
,,,4E-07,0.017705
,,,4.1E-07,0.0176925
,,,4.2E-07,0.01748875
,,,4.3E-07,0.01736625
,,,4.4E-07,0.017478125
,,,4.5E-07,0.017670625
,,,4.6E-07,0.017495
,,,4.7E-07,0.017348125
,,,4.8E-07,0.01722375
,,,4.9E-07,0.01731
,,,5E-07,0.01767
,,,5.1E-07,0.01746875
,,,5.2E-07,0.017366875
,,,5.3E-07,0.01741625
,,,5.4E-07,0.017289375
,,,5.5E-07,0.01754
,,,5.6E-07,0.017620625
,,,5.7E-07,0.0175825
,,,5.8E-07,0.017425
,,,5.9E-07,0.01746875
,,,6E-07,0.017758125
,,,6.1E-07,0.01746
,,,6.2E-07,0.017663125
,,,6.3E-07,0.017395
,,,6.4E-07,0.01768
,,,6.5E-07,0.017354375
,,,6.6E-07,0.017438125
,,,6.7E-07,0.017491875
,,,6.8E-07,0.017381875
,,,6.9E-07,0.017485
,,,7E-07,0.017258125
,,,7.1E-07,0.017623125
,,,7.2E-07,0.01729625
,,,7.3E-07,0.0176425
,,,7.4E-07,0.017213125
,,,7.5E-07,0.017638125
,,,7.6E-07,0.017556875
,,,7.7E-07,0.01752875
,,,7.8E-07,0.01750625
,,,7.9E-07,0.0174775
,,,8E-07,0.017705
,,,8.1E-07,0.017320625
,,,8.2E-07,0.017426875
,,,8.3E-07,0.0175775
,,,8.4E-07,0.01758375
,,,8.5E-07,0.017634375
,,,8.6E-07,0.0172775
,,,8.7E-07,0.017390625
,,,8.8E-07,0.01769
,,,8.9E-07,0.0177125
,,,9E-07,0.017543125
,,,9.1E-07,0.0178025
,,,9.2E-07,0.017481875
,,,9.3E-07,0.0173675
,,,9.4E-07,0.017530625
,,,9.5E-07,0.01748625
,,,9.6E-07,0.017423125
,,,9.7E-07,0.01773625
,,,9.8E-07,0.017521875
,,,9.9E-07,0.01761875
,,,1E-06,0.017451875
,,,1.01E-06,0.0175775
,,,1.02E-06,0.01729625
,,,1.03E-06,0.01761375
,,,1.04E-06,0.0175125
,,,1.05E-06,0.017679375
,,,1.06E-06,0.017620625
,,,1.07E-06,0.01756375
,,,1.08E-06,0.0175375
,,,1.09E-06,0.017359375
,,,1.1E-06,0.0174275
,,,1.11E-06,0.017558125
,,,1.12E-06,0.017665625
,,,1.13E-06,0.017626875
,,,1.14E-06,0.017685625
,,,1.15E-06,0.017621875
,,,1.16E-06,0.01763875
,,,1.17E-06,0.0173475
,,,1.18E-06,0.017274375
,,,1.19E-06,0.0175625
,,,1.2E-06,0.017599375
,,,1.21E-06,0.017695
,,,1.22E-06,0.017580625
,,,1.23E-06,0.017524375
,,,1.24E-06,0.017500625
,,,1.25E-06,0.017469375
,,,1.26E-06,0.017428125
,,,1.27E-06,0.017375625
,,,1.28E-06,0.017743125
,,,1.29E-06,0.017568125
,,,1.3E-06,0.017465625
,,,1.31E-06,0.01769125
,,,1.32E-06,0.017525
,,,1.33E-06,0.017765
,,,1.34E-06,0.01752
,,,1.35E-06,0.017439375
,,,1.36E-06,0.01723875
,,,1.37E-06,0.017279375
,,,1.38E-06,0.0176275
,,,1.39E-06,0.017398125
,,,1.4E-06,0.01759125
,,,1.41E-06,0.017640625
,,,1.42E-06,0.01735875
,,,1.43E-06,0.01776
,,,1.44E-06,0.01752375
,,,1.45E-06,0.017569375
,,,1.46E-06,0.01746125
,,,1.47E-06,0.01777
,,,1.48E-06,0.017773125
,,,1.49E-06,0.017565
,,,1.5E-06,0.017498125
,,,1.51E-06,0.01744375
,,,1.52E-06,0.017561875
,,,1.53E-06,0.017614375
,,,1.54E-06,0.017739375
,,,1.55E-06,0.017400625
,,,1.56E-06,0.017495
,,,1.57E-06,0.017609375
,,,1.58E-06,0.017509375
,,,1.59E-06,0.0172525
,,,1.6E-06,0.0175475
,,,1.61E-06,0.01742
,,,1.62E-06,0.01763125
,,,1.63E-06,0.017428125
,,,1.64E-06,0.017440625
,,,1.65E-06,0.017604375
,,,1.66E-06,0.01742875
,,,1.67E-06,0.0175375
,,,1.68E-06,0.017458125
,,,1.69E-06,0.0175925
,,,1.7E-06,0.0174025
,,,1.71E-06,0.01778625
,,,1.72E-06,0.017509375
,,,1.73E-06,0.017351875
,,,1.74E-06,0.01764
,,,1.75E-06,0.017558125
,,,1.76E-06,0.017525
,,,1.77E-06,0.017408125
,,,1.78E-06,0.017655
,,,1.79E-06,0.017631875
,,,1.8E-06,0.017588125
,,,1.81E-06,0.017456875
,,,1.82E-06,0.01778375
,,,1.83E-06,0.017458125
,,,1.84E-06,0.017361875
,,,1.85E-06,0.0172775
,,,1.86E-06,0.017413125
,,,1.87E-06,0.0175675
,,,1.88E-06,0.017395625
,,,1.89E-06,0.0176925
,,,1.9E-06,0.017551875
,,,1.91E-06,0.01739875
,,,1.92E-06,0.017435625
,,,1.93E-06,0.017480625
,,,1.94E-06,0.017718125
,,,1.95E-06,0.017429375
,,,1.96E-06,0.017240625
,,,1.97E-06,0.01772875
,,,1.98E-06,0.0176425
,,,1.99E-06,0.017454375
,,,2E-06,0.01741
,,,2.01E-06,0.017488125
,,,2.02E-06,0.01727375
,,,2.03E-06,0.01761875
,,,2.04E-06,0.0175825
,,,2.05E-06,0.0175675
,,,2.06E-06,0.017630625
,,,2.07E-06,0.01752875
,,,2.08E-06,0.017565
,,,2.09E-06,0.017825625
,,,2.1E-06,0.017916875
,,,2.11E-06,0.017470625
,,,2.12E-06,0.01761
,,,2.13E-06,0.017694375
,,,2.14E-06,0.01762375
,,,2.15E-06,0.017615
,,,2.16E-06,0.017773125
,,,2.17E-06,0.017641875
,,,2.18E-06,0.0175375
,,,2.19E-06,0.017415625
,,,2.2E-06,0.017666875
,,,2.21E-06,0.0173525
,,,2.22E-06,0.01756375
,,,2.23E-06,0.017748125
,,,2.24E-06,0.017531875
,,,2.25E-06,0.017491875
,,,2.26E-06,0.01753625
,,,2.27E-06,0.017514375
,,,2.28E-06,0.017670625
,,,2.29E-06,0.017555625
,,,2.3E-06,0.017538125
,,,2.31E-06,0.017529375
,,,2.32E-06,0.0174125
,,,2.33E-06,0.017483125
,,,2.34E-06,0.017618125
,,,2.35E-06,0.01737625
,,,2.36E-06,0.0173625
,,,2.37E-06,0.0176425
,,,2.38E-06,0.017635
,,,2.39E-06,0.01761125
,,,2.4E-06,0.017629375
,,,2.41E-06,0.017465
,,,2.42E-06,0.017430625
,,,2.43E-06,0.017425
,,,2.44E-06,0.01752375
,,,2.45E-06,0.017525625
,,,2.46E-06,0.017703125
,,,2.47E-06,0.017610625
,,,2.48E-06,0.017496875
,,,2.49E-06,0.017538125
,,,2.5E-06,0.0176275
,,,2.51E-06,0.017771875
,,,2.52E-06,0.017565
,,,2.53E-06,0.017438125
,,,2.54E-06,0.017504375
,,,2.55E-06,0.01735625
,,,2.56E-06,0.017653125
,,,2.57E-06,0.017369375
,,,2.58E-06,0.017654375
,,,2.59E-06,0.017566875
,,,2.6E-06,0.017674375
,,,2.61E-06,0.017625625
,,,2.62E-06,0.017305
,,,2.63E-06,0.01728375
,,,2.64E-06,0.01735625
,,,2.65E-06,0.017645625
,,,2.66E-06,0.01761
,,,2.67E-06,0.017534375
,,,2.68E-06,0.017575
,,,2.69E-06,0.017540625
,,,2.7E-06,0.017643125
,,,2.71E-06,0.017579375
,,,2.72E-06,0.017646875
,,,2.73E-06,0.017539375
,,,2.74E-06,0.017603125
,,,2.75E-06,0.017425625
,,,2.76E-06,0.017454375
,,,2.77E-06,0.01766625
,,,2.78E-06,0.01738
,,,2.79E-06,0.017349375
,,,2.8E-06,0.0174725
,,,2.81E-06,0.01777875
,,,2.82E-06,0.017509375
,,,2.83E-06,0.017600625
,,,2.84E-06,0.017348125
,,,2.85E-06,0.017461875
,,,2.86E-06,0.017444375
,,,2.87E-06,0.01777375
,,,2.88E-06,0.01772625
,,,2.89E-06,0.0171725
,,,2.9E-06,0.01745125
,,,2.91E-06,0.01759
,,,2.92E-06,0.017669375
,,,2.93E-06,0.017653125
,,,2.94E-06,0.01747625
,,,2.95E-06,0.01754875
,,,2.96E-06,0.017656875
,,,2.97E-06,0.01751625
,,,2.98E-06,0.01763125
,,,2.99E-06,0.017445
,,,3E-06,0.017621875
,,,3.01E-06,0.0176975
,,,3.02E-06,0.017466875
,,,3.03E-06,0.017540625
,,,3.04E-06,0.017451875
,,,3.05E-06,0.017531875
,,,3.06E-06,0.017649375
,,,3.07E-06,0.01786
,,,3.08E-06,0.017381875
,,,3.09E-06,0.017461875
,,,3.1E-06,0.017530625
,,,3.11E-06,0.01743625
,,,3.12E-06,0.0174575
,,,3.13E-06,0.017676875
,,,3.14E-06,0.01772125
,,,3.15E-06,0.01746
,,,3.16E-06,0.017505
,,,3.17E-06,0.01779
,,,3.18E-06,0.017464375
,,,3.19E-06,0.0173775
,,,3.2E-06,0.01748375
,,,3.21E-06,0.017605
,,,3.22E-06,0.01741
,,,3.23E-06,0.0177
,,,3.24E-06,0.0177025
,,,3.25E-06,0.01740375
,,,3.26E-06,0.0175825
,,,3.27E-06,0.017451875
,,,3.28E-06,0.017784375
,,,3.29E-06,0.017713125
,,,3.3E-06,0.017513125
,,,3.31E-06,0.01731875
,,,3.32E-06,0.01750125
,,,3.33E-06,0.01756
,,,3.34E-06,0.0171825
,,,3.35E-06,0.017631875
,,,3.36E-06,0.017535
,,,3.37E-06,0.01748875
,,,3.38E-06,0.017488125
,,,3.39E-06,0.017453125
,,,3.4E-06,0.017504375
,,,3.41E-06,0.017385625
,,,3.42E-06,0.01755125
,,,3.43E-06,0.017488125
,,,3.44E-06,0.017573125
,,,3.45E-06,0.0177525
,,,3.46E-06,0.01747
,,,3.47E-06,0.017465
,,,3.48E-06,0.0176
,,,3.49E-06,0.017573125
,,,3.5E-06,0.017311875
,,,3.51E-06,0.017416875
,,,3.52E-06,0.017713125
,,,3.53E-06,0.017524375
,,,3.54E-06,0.017893125
,,,3.55E-06,0.0176175
,,,3.56E-06,0.017639375
,,,3.57E-06,0.01756375
,,,3.58E-06,0.017478125
