data/raw/Final_POL_Test_1/SOP026_Ch3.csv

"Record Length",1000,"Points",-5E-06,0.022317501
"Sample Interval",1E-08,s,-4.99E-06,0.022635001
"Trigger Point",500,"Samples",-4.98E-06,0.022544376
"Trigger Time",0,s,-4.97E-06,0.022713126
"",,,-4.96E-06,0.022664376
"Horizontal Offset",-5E-06,s,-4.95E-06,0.022593751
,,,-4.94E-06,0.022585001
,,,-4.93E-06,0.022563126
,,,-4.92E-06,0.022358126
,,,-4.91E-06,0.022720626
,,,-4.9E-06,0.022721251
,,,-4.89E-06,0.022771876
,,,-4.88E-06,0.022823126
,,,-4.87E-06,0.022482501
,,,-4.86E-06,0.022667501
,,,-4.85E-06,0.022328126
,,,-4.84E-06,0.022544376
,,,-4.83E-06,0.022730001
,,,-4.82E-06,0.022582501
,,,-4.81E-06,0.022554376
,,,-4.8E-06,0.022455626
,,,-4.79E-06,0.022532501
,,,-4.78E-06,0.022658751
,,,-4.77E-06,0.022562501
,,,-4.76E-06,0.022663751
,,,-4.75E-06,0.022478126
,,,-4.74E-06,0.022651876
,,,-4.73E-06,0.022488751
,,,-4.72E-06,0.022703751
,,,-4.71E-06,0.022665626
,,,-4.7E-06,0.022560626
,,,-4.69E-06,0.022427501
,,,-4.68E-06,0.022801251
,,,-4.67E-06,0.022480001
,,,-4.66E-06,0.022660626
,,,-4.65E-06,0.022391251
,,,-4.64E-06,0.022783126
,,,-4.63E-06,0.022570001
,,,-4.62E-06,0.022493751
,,,-4.61E-06,0.022477501
,,,-4.6E-06,0.022523126
,,,-4.59E-06,0.022666251
,,,-4.58E-06,0.022520626
,,,-4.57E-06,0.022532501
,,,-4.56E-06,0.022477501
,,,-4.55E-06,0.022720001
,,,-4.54E-06,0.022462501
,,,-4.53E-06,0.022563126
,,,-4.52E-06,0.022678751
,,,-4.51E-06,0.022649376
,,,-4.5E-06,0.022560001
,,,-4.49E-06,0.022800626
,,,-4.48E-06,0.022622501
,,,-4.47E-06,0.022622501
,,,-4.46E-06,0.022687501
,,,-4.45E-06,0.022405001
,,,-4.44E-06,0.022581876
,,,-4.43E-06,0.022440001
,,,-4.42E-06,0.022643126
,,,-4.41E-06,0.022590001
,,,-4.4E-06,0.022505001
,,,-4.39E-06,0.022552501
,,,-4.38E-06,0.022578126
,,,-4.37E-06,0.022595001
,,,-4.36E-06,0.022597501
,,,-4.35E-06,0.022650001
,,,-4.34E-06,0.022396251
,,,-4.33E-06,0.022885626
,,,-4.32E-06,0.022735001
,,,-4.31E-06,0.022590626
,,,-4.3E-06,0.022596876
,,,-4.29E-06,0.022236876
,,,-4.28E-06,0.022560001
,,,-4.27E-06,0.022373126
,,,-4.26E-06,0.022623751
,,,-4.25E-06,0.022500626
,,,-4.24E-06,0.022498126
,,,-4.23E-06,0.022955001
,,,-4.22E-06,0.022492501
,,,-4.21E-06,0.022531251
,,,-4.2E-06,0.022653751
,,,-4.19E-06,0.022418751
,,,-4.18E-06,0.022523751
,,,-4.17E-06,0.022546251
,,,-4.16E-06,0.022495001
,,,-4.15E-06,0.022611251
,,,-4.14E-06,0.022552501
,,,-4.13E-06,0.022660001
,,,-4.12E-06,0.022692501
,,,-4.11E-06,0.022630626
,,,-4.1E-06,0.022690626
,,,-4.09E-06,0.022689376
,,,-4.08E-06,0.022490001
,,,-4.07E-06,0.022833751
,,,-4.06E-06,0.022837501
,,,-4.05E-06,0.022698751
,,,-4.04E-06,0.022635001
,,,-4.03E-06,0.022573126
,,,-4.02E-06,0.022608126
,,,-4.01E-06,0.022349376
,,,-4E-06,0.022413126
,,,-3.99E-06,0.022675626
,,,-3.98E-06,0.022800626
,,,-3.97E-06,0.022602501
,,,-3.96E-06,0.022347501
,,,-3.95E-06,0.022441876
,,,-3.94E-06,0.022369376
,,,-3.93E-06,0.022545626
,,,-3.92E-06,0.022748126
,,,-3.91E-06,0.022625001
,,,-3.9E-06,0.022890626
,,,-3.89E-06,0.022746876
,,,-3.88E-06,0.022640001
,,,-3.87E-06,0.022615001
,,,-3.86E-06,0.022066876
,,,-3.85E-06,0.022659376
,,,-3.84E-06,0.022578751
,,,-3.83E-06,0.022700001
,,,-3.82E-06,0.022608751
,,,-3.81E-06,0.022453751
,,,-3.8E-06,0.022680001
,,,-3.79E-06,0.022532501
,,,-3.78E-06,0.022697501
,,,-3.77E-06,0.022544376
,,,-3.76E-06,0.022377501
,,,-3.75E-06,0.022481251
,,,-3.74E-06,0.022836251
,,,-3.73E-06,0.022450001
,,,-3.72E-06,0.022588751
,,,-3.71E-06,0.022875001
,,,-3.7E-06,0.022354376
,,,-3.69E-06,0.022507501
,,,-3.68E-06,0.022494376
,,,-3.67E-06,0.022764376
,,,-3.66E-06,0.022848126
,,,-3.65E-06,0.022494376
,,,-3.64E-06,0.022551251
,,,-3.63E-06,0.022695001
,,,-3.62E-06,0.022622501
,,,-3.61E-06,0.022551251
,,,-3.6E-06,0.022434376
,,,-3.59E-06,0.022625626
,,,-3.58E-06,0.022281876
,,,-3.57E-06,0.022444376
,,,-3.56E-06,0.022468126
,,,-3.55E-06,0.022474376
,,,-3.54E-06,0.022578126
,,,-3.53E-06,0.022935626
,,,-3.52E-06,0.022440001
,,,-3.51E-06,0.022635001
,,,-3.5E-06,0.022650626
,,,-3.49E-06,0.022602501
,,,-3.48E-06,0.022650001
,,,-3.47E-06,0.022391876
,,,-3.46E-06,0.022696876
,,,-3.45E-06,0.022662501
,,,-3.44E-06,0.022560626
,,,-3.43E-06,0.022603126
,,,-3.42E-06,0.022459376
,,,-3.41E-06,0.022822501
,,,-3.4E-06,0.022881251
,,,-3.39E-06,0.022845626
,,,-3.38E-06,0.022469376
,,,-3.37E-06,0.022722501
,,,-3.36E-06,0.022540626
,,,-3.35E-06,0.022341876
,,,-3.34E-06,0.022665001
,,,-3.33E-06,0.022455626
,,,-3.32E-06,0.022426251
,,,-3.31E-06,0.022700626
,,,-3.3E-06,0.022344376
,,,-3.29E-06,0.022579376
,,,-3.28E-06,0.022605001
,,,-3.27E-06,0.022451251
,,,-3.26E-06,0.022481876
,,,-3.25E-06,0.022568751
,,,-3.24E-06,0.022674376
,,,-3.23E-06,0.022773751
,,,-3.22E-06,0.022626876
,,,-3.21E-06,0.022690626
,,,-3.2E-06,0.022628751
,,,-3.19E-06,0.022727501
,,,-3.18E-06,0.022578126
,,,-3.17E-06,0.022444376
,,,-3.16E-06,0.022801251
,,,-3.15E-06,0.022578126
,,,-3.14E-06,0.022805001
,,,-3.13E-06,0.022548126
,,,-3.12E-06,0.022566876
,,,-3.11E-06,0.022541251
,,,-3.1E-06,0.022568751
,,,-3.09E-06,0.022596251
,,,-3.08E-06,0.022765626
,,,-3.07E-06,0.022773751
,,,-3.06E-06,0.022716876
,,,-3.05E-06,0.022403751
,,,-3.04E-06,0.022210626
,,,-3.03E-06,0.022475626
,,,-3.02E-06,0.022608751
,,,-3.01E-06,0.022696251
,,,-3E-06,0.022431251
,,,-2.99E-06,0.022693126
,,,-2.98E-06,0.022670626
,,,-2.97E-06,0.022489376
,,,-2.96E-06,0.022568751
,,,-2.95E-06,0.022538751
,,,-2.94E-06,0.022583126
,,,-2.93E-06,0.022488126
,,,-2.92E-06,0.022551251
,,,-2.91E-06,0.022721876
,,,-2.9E-06,0.022693751
,,,-2.89E-06,0.022575001
,,,-2.88E-06,0.022336876
,,,-2.87E-06,0.022561251
,,,-2.86E-06,0.022580001
,,,-2.85E-06,0.022674376
,,,-2.84E-06,0.022658126
,,,-2.83E-06,0.022533751
,,,-2.82E-06,0.022693751
,,,-2.81E-06,0.022593751
,,,-2.8E-06,0.022564376
,,,-2.79E-06,0.022353751
,,,-2.78E-06,0.022429376
,,,-2.77E-06,0.022696876
,,,-2.76E-06,0.022563126
,,,-2.75E-06,0.022637501
,,,-2.74E-06,0.022715626
,,,-2.73E-06,0.022778126
,,,-2.72E-06,0.022523751
,,,-2.71E-06,0.022483751
,,,-2.7E-06,0.022495001
,,,-2.69E-06,0.022778126
,,,-2.68E-06,0.022768126
,,,-2.67E-06,0.022470001
,,,-2.66E-06,0.022406251
,,,-2.65E-06,0.022877501
,,,-2.64E-06,0.022533751
,,,-2.63E-06,0.022383751
,,,-2.62E-06,0.022693751
,,,-2.61E-06,0.022547501
,,,-2.6E-06,0.022343751
,,,-2.59E-06,0.022489376
,,,-2.58E-06,0.022504376
,,,-2.57E-06,0.022610001
,,,-2.56E-06,0.022502501
,,,-2.55E-06,0.022470626
,,,-2.54E-06,0.022520001
,,,-2.53E-06,0.022578126
,,,-2.52E-06,0.022642501
,,,-2.51E-06,0.022590626
,,,-2.5E-06,0.022773126
,,,-2.49E-06,0.022496876
,,,-2.48E-06,0.022673126
,,,-2.47E-06,0.022551251
,,,-2.46E-06,0.022701251
,,,-2.45E-06,0.022474376
,,,-2.44E-06,0.022241876
,,,-2.43E-06,0.022523126
,,,-2.42E-06,0.022733751
,,,-2.41E-06,0.022564376
,,,-2.4E-06,0.022495001
,,,-2.39E-06,0.022698126
,,,-2.38E-06,0.022493751
,,,-2.37E-06,0.022510626
,,,-2.36E-06,0.022600626
,,,-2.35E-06,0.022661876
,,,-2.34E-06,0.022525001
,,,-2.33E-06,0.022695001
,,,-2.32E-06,0.022586251
,,,-2.31E-06,0.022451251
,,,-2.3E-06,0.022643126
,,,-2.29E-06,0.022395001
,,,-2.28E-06,0.022918751
,,,-2.27E-06,0.022645626
,,,-2.26E-06,0.022621876
,,,-2.25E-06,0.022756251
,,,-2.24E-06,0.022538751
,,,-2.23E-06,0.022614376
,,,-2.22E-06,0.022304376
,,,-2.21E-06,0.022343751
,,,-2.2E-06,0.022356876
,,,-2.19E-06,0.022669376
,,,-2.18E-06,0.022580001
,,,-2.17E-06,0.022517501
,,,-2.16E-06,0.022557501
,,,-2.15E-06,0.022641251
,,,-2.14E-06,0.022864376
,,,-2.13E-06,0.022704376
,,,-2.12E-06,0.022507501
,,,-2.11E-06,0.022505001
,,,-2.1E-06,0.022530001
,,,-2.09E-06,0.022413751
,,,-2.08E-06,0.022806251
,,,-2.07E-06,0.022538126
,,,-2.06E-06,0.022406876
,,,-2.05E-06,0.022536251
,,,-2.04E-06,0.022521876
,,,-2.03E-06,0.022450001
,,,-2.02E-06,0.022601876
,,,-2.01E-06,0.022721876
,,,-2E-06,0.022539376
,,,-1.99E-06,0.022630626
,,,-1.98E-06,0.022653126
,,,-1.97E-06,0.022707501
,,,-1.96E-06,0.022412501
,,,-1.95E-06,0.022460626
,,,-1.94E-06,0.022812501
,,,-1.93E-06,0.022372501
,,,-1.92E-06,0.022581251
,,,-1.91E-06,0.022621251
,,,-1.9E-06,0.022520001
,,,-1.89E-06,0.022396876
,,,-1.88E-06,0.022793126
,,,-1.87E-06,0.022379376
,,,-1.86E-06,0.022677501
,,,-1.85E-06,0.022260001
,,,-1.84E-06,0.022441876
,,,-1.83E-06,0.022466251
,,,-1.82E-06,0.022658751
,,,-1.81E-06,0.022810001
,,,-1.8E-06,0.022528751
,,,-1.79E-06,0.022647501
,,,-1.78E-06,0.022524376
,,,-1.77E-06,0.022682501
,,,-1.76E-06,0.022656251
,,,-1.75E-06,0.022463751
,,,-1.74E-06,0.022458126
,,,-1.73E-06,0.022558751
,,,-1.72E-06,0.022494376
,,,-1.71E-06,0.022691876
,,,-1.7E-06,0.022536251
,,,-1.69E-06,0.022856251
,,,-1.68E-06,0.022600001
,,,-1.67E-06,0.022590001
,,,-1.66E-06,0.022766876
,,,-1.65E-06,0.022684376
,,,-1.64E-06,0.022622501
,,,-1.63E-06,0.022591876
,,,-1.62E-06,0.022615626
,,,-1.61E-06,0.022677501
,,,-1.6E-06,0.022672501
,,,-1.59E-06,0.022711251
,,,-1.58E-06,0.022577501
,,,-1.57E-06,0.022605001
,,,-1.56E-06,0.022516251
,,,-1.55E-06,0.022658126
,,,-1.54E-06,0.022793751
,,,-1.53E-06,0.022704376
,,,-1.52E-06,0.022675001
,,,-1.51E-06,0.022598751
,,,-1.5E-06,0.022830001
,,,-1.49E-06,0.022559376
,,,-1.48E-06,0.022873126
,,,-1.47E-06,0.022425626
,,,-1.46E-06,0.022438126
,,,-1.45E-06,0.022691251
,,,-1.44E-06,0.022393126
,,,-1.43E-06,0.022593126
,,,-1.42E-06,0.022686251
,,,-1.41E-06,0.022798126
,,,-1.4E-06,0.022424376
,,,-1.39E-06,0.022513126
,,,-1.38E-06,0.022515626
,,,-1.37E-06,0.022477501
,,,-1.36E-06,0.022658126
,,,-1.35E-06,0.022572501
,,,-1.34E-06,0.022656876
,,,-1.33E-06,0.022547501
,,,-1.32E-06,0.022639376
,,,-1.31E-06,0.022703126
,,,-1.3E-06,0.022664376
,,,-1.29E-06,0.022668751
,,,-1.28E-06,0.022646876
,,,-1.27E-06,0.022749376
,,,-1.26E-06,0.022651876
,,,-1.25E-06,0.022591876
,,,-1.24E-06,0.022712501
,,,-1.23E-06,0.022586876
,,,-1.22E-06,0.022492501
,,,-1.21E-06,0.022413751
,,,-1.2E-06,0.022573751
,,,-1.19E-06,0.022780001
,,,-1.18E-06,0.022570001
,,,-1.17E-06,0.022663126
,,,-1.16E-06,0.022526876
,,,-1.15E-06,0.022646876
,,,-1.14E-06,0.022630001
,,,-1.13E-06,0.022591876
,,,-1.12E-06,0.022433751
,,,-1.11E-06,0.022603126
,,,-1.1E-06,0.022436876
,,,-1.09E-06,0.022547501
,,,-1.08E-06,0.022565626
,,,-1.07E-06,0.022456251
,,,-1.06E-06,0.022445626
,,,-1.05E-06,0.022776251
,,,-1.04E-06,0.022695626
,,,-1.03E-06,0.022475626
,,,-1.02E-06,0.022778751
,,,-1.01E-06,0.022470626
,,,-1E-06,0.022685001
,,,-9.9E-07,0.022508126
,,,-9.8E-07,0.022614376
,,,-9.7E-07,0.022355626
,,,-9.6E-07,0.022541876
,,,-9.5E-07,0.022506876
,,,-9.4E-07,0.022521251
,,,-9.3E-07,0.022529376
,,,-9.2E-07,0.022733126
,,,-9.1E-07,0.022703751
,,,-9E-07,0.022612501
,,,-8.9E-07,0.022381876
,,,-8.8E-07,0.022601251
,,,-8.7E-07,0.022625626
,,,-8.6E-07,0.022632501
,,,-8.5E-07,0.022690626
,,,-8.4E-07,0.022565001
,,,-8.3E-07,0.022626251
,,,-8.2E-07,0.022661251
,,,-8.1E-07,0.022531876
,,,-8E-07,0.022433126
,,,-7.9E-07,0.022417501
,,,-7.8E-07,0.022615001
,,,-7.7E-07,0.022826251
,,,-7.6E-07,0.022798751
,,,-7.5E-07,0.022648126
,,,-7.4E-07,0.022551876
,,,-7.3E-07,0.022539376
,,,-7.2E-07,0.022600626
,,,-7.1E-07,0.022575626
,,,-7E-07,0.022484376
,,,-6.9E-07,0.022637501
,,,-6.8E-07,0.022598126
,,,-6.7E-07,0.022549376
,,,-6.6E-07,0.022450001
,,,-6.5E-07,0.022714376
,,,-6.4E-07,0.022637501
,,,-6.3E-07,0.022678126
,,,-6.2E-07,0.022666251
,,,-6.1E-07,0.022699376
,,,-6E-07,0.022769376
,,,-5.9E-07,0.022636251
,,,-5.8E-07,0.022511251
,,,-5.7E-07,0.022611251
,,,-5.6E-07,0.022468751
,,,-5.5E-07,0.022403126
,,,-5.4E-07,0.022528751
,,,-5.3E-07,0.022546251
,,,-5.2E-07,0.022509376
,,,-5.1E-07,0.022465001
,,,-5E-07,0.022681876
,,,-4.9E-07,0.022588126
,,,-4.8E-07,0.022622501
,,,-4.7E-07,0.022667501
,,,-4.6E-07,0.022287501
,,,-4.5E-07,0.022582501
,,,-4.4E-07,0.022671876
,,,-4.3E-07,0.022511251
,,,-4.2E-07,0.022600001
,,,-4.1E-07,0.022725001
,,,-4E-07,0.022671876
,,,-3.9E-07,0.022415626
,,,-3.8E-07,0.022716251
,,,-3.7E-07,0.022740001
,,,-3.6E-07,0.022595626
,,,-3.5E-07,0.022402501
,,,-3.4E-07,0.022370626
,,,-3.3E-07,0.022625001
,,,-3.2E-07,0.022666251
,,,-3.1E-07,0.022428126
,,,-3E-07,0.022689376
,,,-2.9E-07,0.022520001
,,,-2.8E-07,0.022463751
,,,-2.7E-07,0.022550626
,,,-2.6E-07,0.022803751
,,,-2.5E-07,0.022573751
,,,-2.4E-07,0.022491876
,,,-2.3E-07,0.022605001
,,,-2.2E-07,0.022503751
,,,-2.1E-07,0.022672501
,,,-2E-07,0.022556876
,,,-1.9E-07,0.022648126
,,,-1.8E-07,0.022538751
,,,-1.7E-07,0.022615626
,,,-1.6E-07,0.022549376
,,,-1.5E-07,0.022553126
,,,-1.4E-07,0.022293751
,,,-1.3E-07,0.022592501
,,,-1.2E-07,0.022500001
,,,-1.1E-07,0.022741876
,,,-1E-07,0.022693751
,,,-9E-08,0.022639376
,,,-8E-08,0.022340626
,,,-7E-08,0.022576876
,,,-6E-08,0.022460001
,,,-5E-08,0.022279376
,,,-4E-08,0.023126251
,,,-3E-08,0.023135626
,,,-2E-08,0.022470001
,,,-1E-08,0.019625001
,,,0,0.019713751
,,,1E-08,0.023662501
,,,2E-08,0.026531251
,,,3E-08,0.026353751
,,,4E-08,0.022753126
,,,5E-08,0.020123751
,,,6E-08,0.019258751
,,,7E-08,0.020836251
,,,8E-08,0.023075626
,,,9E-08,0.024221251
,,,1E-07,0.024559376
,,,1.1E-07,0.023381876
,,,1.2E-07,0.022090626
,,,1.3E-07,0.021051251
,,,1.4E-07,0.022016251
,,,1.5E-07,0.022453751
,,,1.6E-07,0.023532501
,,,1.7E-07,0.022916251
,,,1.8E-07,0.022730001
,,,1.9E-07,0.022805001
,,,2E-07,0.022695001
,,,2.1E-07,0.022477501
,,,2.2E-07,0.022398751
,,,2.3E-07,0.022503751
,,,2.4E-07,0.022533126
,,,2.5E-07,0.022754376
,,,2.6E-07,0.022632501
,,,2.7E-07,0.022871251
,,,2.8E-07,0.022502501
,,,2.9E-07,0.022548751
,,,3E-07,0.022442501
,,,3.1E-07,0.022535001
,,,3.2E-07,0.022257501
,,,3.3E-07,0.022404376
,,,3.4E-07,0.022624376
,,,3.5E-07,0.022428751
,,,3.6E-07,0.022865001
,,,3.7E-07,0.022501876
,,,3.8E-07,0.022630626
,,,3.9E-07,0.022607501
,,,4E-07,0.022685626
,,,4.1E-07,0.022443126
,,,4.2E-07,0.022621876
,,,4.3E-07,0.022561251
,,,4.4E-07,0.022368751
,,,4.5E-07,0.022611251
,,,4.6E-07,0.022808126
,,,4.7E-07,0.022784376
,,,4.8E-07,0.022279376
,,,4.9E-07,0.022486876
,,,5E-07,0.022470626
,,,5.1E-07,0.022620626
,,,5.2E-07,0.022748751
,,,5.3E-07,0.022415001
,,,5.4E-07,0.022564376
,,,5.5E-07,0.022504376
,,,5.6E-07,0.022800001
,,,5.7E-07,0.022576876
,,,5.8E-07,0.022644376
,,,5.9E-07,0.022561876
,,,6E-07,0.022653126
,,,6.1E-07,0.022662501
,,,6.2E-07,0.022655001
,,,6.3E-07,0.022413751
,,,6.4E-07,0.022721251
,,,6.5E-07,0.022383126
,,,6.6E-07,0.022567501
,,,6.7E-07,0.022321876
,,,6.8E-07,0.022765001
,,,6.9E-07,0.022565001
,,,7E-07,0.022700001
,,,7.1E-07,0.022431251
,,,7.2E-07,0.022448751
,,,7.3E-07,0.022612501
,,,7.4E-07,0.022760001
,,,7.5E-07,0.022752501
,,,7.6E-07,0.022374376
,,,7.7E-07,0.022669376
,,,7.8E-07,0.022650626
,,,7.9E-07,0.022672501
,,,8E-07,0.022485001
,,,8.1E-07,0.022470001
,,,8.2E-07,0.022415626
,,,8.3E-07,0.022561876
,,,8.4E-07,0.022641251
,,,8.5E-07,0.022518751
,,,8.6E-07,0.022447501
,,,8.7E-07,0.022503751
,,,8.8E-07,0.022927501
,,,8.9E-07,0.022442501
,,,9E-07,0.022751876
,,,9.1E-07,0.022472501
,,,9.2E-07,0.022874376
,,,9.3E-07,0.022413126
,,,9.4E-07,0.022496251
,,,9.5E-07,0.022572501
,,,9.6E-07,0.022675001
,,,9.7E-07,0.022550001
,,,9.8E-07,0.022336876
,,,9.9E-07,0.022871876
,,,1E-06,0.022547501
,,,1.01E-06,0.022595626
,,,1.02E-06,0.022422501
,,,1.03E-06,0.022483126
,,,1.04E-06,0.022572501
,,,1.05E-06,0.022345626
,,,1.06E-06,0.022556876
,,,1.07E-06,0.022431251
,,,1.08E-06,0.022504376
,,,1.09E-06,0.022658126
,,,1.1E-06,0.022635626
,,,1.11E-06,0.022693126
,,,1.12E-06,0.022498751
,,,1.13E-06,0.022605626
,,,1.14E-06,0.022735001
,,,1.15E-06,0.022831876
,,,1.16E-06,0.022675626
,,,1.17E-06,0.022638751
,,,1.18E-06,0.022677501
,,,1.19E-06,0.022475626
,,,1.2E-06,0.022526251
,,,1.21E-06,0.022511876
,,,1.22E-06,0.022496251
,,,1.23E-06,0.022680001
,,,1.24E-06,0.022896251
,,,1.25E-06,0.022418126
,,,1.26E-06,0.022614376
,,,1.27E-06,0.022593126
,,,1.28E-06,0.022556876
,,,1.29E-06,0.022691876
,,,1.3E-06,0.022625626
,,,1.31E-06,0.022780001
,,,1.32E-06,0.022547501
,,,1.33E-06,0.022678751
,,,1.34E-06,0.022735626
,,,1.35E-06,0.022425626
,,,1.36E-06,0.022778751
,,,1.37E-06,0.022693751
,,,1.38E-06,0.022665626
,,,1.39E-06,0.022548751
,,,1.4E-06,0.022614376
,,,1.41E-06,0.022933751
,,,1.42E-06,0.022456251
,,,1.43E-06,0.022954376
,,,1.44E-06,0.022582501
,,,1.45E-06,0.022921876
,,,1.46E-06,0.022746251
,,,1.47E-06,0.022724376
,,,1.48E-06,0.022614376
,,,1.49E-06,0.022738126
,,,1.5E-06,0.022516876
,,,1.51E-06,0.022555001
,,,1.52E-06,0.022363126
,,,1.53E-06,0.022555626
,,,1.54E-06,0.022644376
,,,1.55E-06,0.022755626
,,,1.56E-06,0.022653751
,,,1.57E-06,0.022791251
,,,1.58E-06,0.022614376
,,,1.59E-06,0.022531876
,,,1.6E-06,0.022510001
,,,1.61E-06,0.022468126
,,,1.62E-06,0.022620001
,,,1.63E-06,0.022585626
,,,1.64E-06,0.022386251
,,,1.65E-06,0.022475001
,,,1.66E-06,0.022835626
,,,1.67E-06,0.022620001
,,,1.68E-06,0.022532501
,,,1.69E-06,0.022600001
,,,1.7E-06,0.022400001
,,,1.71E-06,0.022558126
,,,1.72E-06,0.022585001
,,,1.73E-06,0.022518751
,,,1.74E-06,0.022833126
,,,1.75E-06,0.022531876
,,,1.76E-06,0.022585626
,,,1.77E-06,0.022613751
,,,1.78E-06,0.022668751
,,,1.79E-06,0.022364376
,,,1.8E-06,0.022531251
,,,1.81E-06,0.022639376
,,,1.82E-06,0.022886876
,,,1.83E-06,0.022684376
,,,1.84E-06,0.022478126
,,,1.85E-06,0.022699376
,,,1.86E-06,0.022411876
,,,1.87E-06,0.022662501
,,,1.88E-06,0.022590001
,,,1.89E-06,0.022674376
,,,1.9E-06,0.022370001
,,,1.91E-06,0.022629376
,,,1.92E-06,0.022815626
,,,1.93E-06,0.022266251
,,,1.94E-06,0.022857501
,,,1.95E-06,0.022588126
,,,1.96E-06,0.022681251
,,,1.97E-06,0.022327501
,,,1.98E-06,0.022450001
,,,1.99E-06,0.022743751
,,,2E-06,0.022623751
,,,2.01E-06,0.022707501
,,,2.02E-06,0.022529376
,,,2.03E-06,0.022367501
,,,2.04E-06,0.022465626
,,,2.05E-06,0.022606876
,,,2.06E-06,0.022485626
,,,2.07E-06,0.022788751
,,,2.08E-06,0.022616251
,,,2.09E-06,0.022552501
,,,2.1E-06,0.022549376
,,,2.11E-06,0.022761876
,,,2.12E-06,0.022519376
,,,2.13E-06,0.022695001
,,,2.14E-06,0.022911876
,,,2.15E-06,0.022713126
,,,2.16E-06,0.022656251
,,,2.17E-06,0.022689376
,,,2.18E-06,0.022712501
,,,2.19E-06,0.022550626
,,,2.2E-06,0.022715626
,,,2.21E-06,0.022597501
,,,2.22E-06,0.022690001
,,,2.23E-06,0.022810626
,,,2.24E-06,0.022569376
,,,2.25E-06,0.022418751
,,,2.26E-06,0.022680001
,,,2.27E-06,0.022447501
,,,2.28E-06,0.022583751
,,,2.29E-06,0.022603751
,,,2.3E-06,0.022408751
,,,2.31E-06,0.022754376
,,,2.32E-06,0.022601876
,,,2.33E-06,0.022555626
,,,2.34E-06,0.022506251
,,,2.35E-06,0.022490626
,,,2.36E-06,0.022408751
,,,2.37E-06,0.022480626
,,,2.38E-06,0.022773126
,,,2.39E-06,0.022666251
,,,2.4E-06,0.022637501
,,,2.41E-06,0.022738126
,,,2.42E-06,0.022751876
,,,2.43E-06,0.022558126
,,,2.44E-06,0.022377501
,,,2.45E-06,0.022670001
,,,2.46E-06,0.022431876
,,,2.47E-06,0.022595626
,,,2.48E-06,0.022891251
,,,2.49E-06,0.022563751
,,,2.5E-06,0.022468126
,,,2.51E-06,0.022596876
,,,2.52E-06,0.022567501
,,,2.53E-06,0.022344376
,,,2.54E-06,0.022440626
,,,2.55E-06,0.022736251
,,,2.56E-06,0.022540626
,,,2.57E-06,0.022491876
,,,2.58E-06,0.022487501
,,,2.59E-06,0.022636251
,,,2.6E-06,0.022679376
,,,2.61E-06,0.022598751
,,,2.62E-06,0.022393126
,,,2.63E-06,0.022682501
,,,2.64E-06,0.022578751
,,,2.65E-06,0.022517501
,,,2.66E-06,0.022511251
,,,2.67E-06,0.022723126
,,,2.68E-06,0.022508126
,,,2.69E-06,0.022385001
,,,2.7E-06,0.022527501
,,,2.71E-06,0.022605001
,,,2.72E-06,0.022667501
,,,2.73E-06,0.022280001
,,,2.74E-06,0.022570001
,,,2.75E-06,0.022514376
,,,2.76E-06,0.022490001
,,,2.77E-06,0.022808126
,,,2.78E-06,0.022602501
,,,2.79E-06,0.022530001
,,,2.8E-06,0.022740001
,,,2.81E-06,0.022580001
,,,2.82E-06,0.022525001
,,,2.83E-06,0.022752501
,,,2.84E-06,0.022410001
,,,2.85E-06,0.022557501
,,,2.86E-06,0.022700626
,,,2.87E-06,0.022474376
,,,2.88E-06,0.022736251
,,,2.89E-06,0.022583126
,,,2.9E-06,0.022613126
,,,2.91E-06,0.022555001
,,,2.92E-06,0.022768126
,,,2.93E-06,0.022645001
,,,2.94E-06,0.022623126
,,,2.95E-06,0.022528126
,,,2.96E-06,0.022530626
,,,2.97E-06,0.022631876
,,,2.98E-06,0.022551251
,,,2.99E-06,0.022573751
,,,3E-06,0.022415001
,,,3.01E-06,0.022718751
,,,3.02E-06,0.022556251
,,,3.03E-06,0.022719376
,,,3.04E-06,0.022728126
,,,3.05E-06,0.022470001
,,,3.06E-06,0.022830001
,,,3.07E-06,0.022656876
,,,3.08E-06,0.022615626
,,,3.09E-06,0.022608751
,,,3.1E-06,0.022612501
,,,3.11E-06,0.022479376
,,,3.12E-06,0.022511876
,,,3.13E-06,0.022780626
,,,3.14E-06,0.022411251
,,,3.15E-06,0.022483751
,,,3.16E-06,0.022598751
,,,3.17E-06,0.022577501
,,,3.18E-06,0.022461876
,,,3.19E-06,0.022618126
,,,3.2E-06,0.022486251
,,,3.21E-06,0.022786876
