data/raw/Final_POL_Test_1/SOP080_Ch3.csv

"Record Length",1000,"Points",-5E-06,0.016498126
"Sample Interval",1E-08,s,-4.99E-06,0.016430626
"Trigger Point",500,"Samples",-4.98E-06,0.016430626
"Trigger Time",0,s,-4.97E-06,0.016293126
"",,,-4.96E-06,0.016283126
"Horizontal Offset",-5E-06,s,-4.95E-06,0.016458126
,,,-4.94E-06,0.016335626
,,,-4.93E-06,0.016360626
,,,-4.92E-06,0.016456876
,,,-4.91E-06,0.016368126
,,,-4.9E-06,0.016503751
,,,-4.89E-06,0.016476876
,,,-4.88E-06,0.016725001
,,,-4.87E-06,0.016319376
,,,-4.86E-06,0.016229376
,,,-4.85E-06,0.016491251
,,,-4.84E-06,0.016497501
,,,-4.83E-06,0.016501876
,,,-4.82E-06,0.016565001
,,,-4.81E-06,0.016589376
,,,-4.8E-06,0.016428751
,,,-4.79E-06,0.016380626
,,,-4.78E-06,0.016593751
,,,-4.77E-06,0.016292501
,,,-4.76E-06,0.016360001
,,,-4.75E-06,0.016320001
,,,-4.74E-06,0.016420001
,,,-4.73E-06,0.016199376
,,,-4.72E-06,0.016378751
,,,-4.71E-06,0.016376251
,,,-4.7E-06,0.016271876
,,,-4.69E-06,0.016630001
,,,-4.68E-06,0.016321876
,,,-4.67E-06,0.016301251
,,,-4.66E-06,0.016140626
,,,-4.65E-06,0.016409376
,,,-4.64E-06,0.016333126
,,,-4.63E-06,0.016175626
,,,-4.62E-06,0.016331876
,,,-4.61E-06,0.016420626
,,,-4.6E-06,0.016745001
,,,-4.59E-06,0.016590001
,,,-4.58E-06,0.016469376
,,,-4.57E-06,0.016335001
,,,-4.56E-06,0.016218751
,,,-4.55E-06,0.016495626
,,,-4.54E-06,0.016283751
,,,-4.53E-06,0.016490001
,,,-4.52E-06,0.016310626
,,,-4.51E-06,0.016410626
,,,-4.5E-06,0.016539376
,,,-4.49E-06,0.016364376
,,,-4.48E-06,0.016580626
,,,-4.47E-06,0.016325626
,,,-4.46E-06,0.016337501
,,,-4.45E-06,0.016450001
,,,-4.44E-06,0.016311251
,,,-4.43E-06,0.016340001
,,,-4.42E-06,0.016611251
,,,-4.41E-06,0.016528126
,,,-4.4E-06,0.016391251
,,,-4.39E-06,0.016529376
,,,-4.38E-06,0.016451876
,,,-4.37E-06,0.016476251
,,,-4.36E-06,0.016376876
,,,-4.35E-06,0.016340001
,,,-4.34E-06,0.016140001
,,,-4.33E-06,0.016433126
,,,-4.32E-06,0.016507501
,,,-4.31E-06,0.016420626
,,,-4.3E-06,0.016623126
,,,-4.29E-06,0.016559376
,,,-4.28E-06,0.016408751
,,,-4.27E-06,0.016533751
,,,-4.26E-06,0.016266251
,,,-4.25E-06,0.016451876
,,,-4.24E-06,0.016511876
,,,-4.23E-06,0.016441251
,,,-4.22E-06,0.016438126
,,,-4.21E-06,0.016452501
,,,-4.2E-06,0.016605626
,,,-4.19E-06,0.016326251
,,,-4.18E-06,0.016343751
,,,-4.17E-06,0.016391251
,,,-4.16E-06,0.016421251
,,,-4.15E-06,0.016469376
,,,-4.14E-06,0.016218126
,,,-4.13E-06,0.016550001
,,,-4.12E-06,0.016573126
,,,-4.11E-06,0.016575001
,,,-4.1E-06,0.016603751
,,,-4.09E-06,0.016547501
,,,-4.08E-06,0.016521876
,,,-4.07E-06,0.016566876
,,,-4.06E-06,0.016356251
,,,-4.05E-06,0.016202501
,,,-4.04E-06,0.016296876
,,,-4.03E-06,0.016404376
,,,-4.02E-06,0.016383751
,,,-4.01E-06,0.016507501
,,,-4E-06,0.016716251
,,,-3.99E-06,0.016712501
,,,-3.98E-06,0.016430626
,,,-3.97E-06,0.016477501
,,,-3.96E-06,0.016333126
,,,-3.95E-06,0.016438751
,,,-3.94E-06,0.016262501
,,,-3.93E-06,0.016430626
,,,-3.92E-06,0.016437501
,,,-3.91E-06,0.016782501
,,,-3.9E-06,0.016306251
,,,-3.89E-06,0.016306876
,,,-3.88E-06,0.016513751
,,,-3.87E-06,0.016256251
,,,-3.86E-06,0.016550001
,,,-3.85E-06,0.016546251
,,,-3.84E-06,0.016553126
,,,-3.83E-06,0.016341251
,,,-3.82E-06,0.016296876
,,,-3.81E-06,0.016195001
,,,-3.8E-06,0.016490626
,,,-3.79E-06,0.016660626
,,,-3.78E-06,0.016520001
,,,-3.77E-06,0.016441876
,,,-3.76E-06,0.016705001
,,,-3.75E-06,0.016461876
,,,-3.74E-06,0.016305626
,,,-3.73E-06,0.016486876
,,,-3.72E-06,0.016545001
,,,-3.71E-06,0.016452501
,,,-3.7E-06,0.016081251
,,,-3.69E-06,0.016323751
,,,-3.68E-06,0.016388126
,,,-3.67E-06,0.016250001
,,,-3.66E-06,0.016561251
,,,-3.65E-06,0.016465001
,,,-3.64E-06,0.016629376
,,,-3.63E-06,0.016345626
,,,-3.62E-06,0.016493126
,,,-3.61E-06,0.016155626
,,,-3.6E-06,0.016241876
,,,-3.59E-06,0.016231876
,,,-3.58E-06,0.016528751
,,,-3.57E-06,0.016326876
,,,-3.56E-06,0.016595001
,,,-3.55E-06,0.016360001
,,,-3.54E-06,0.016405626
,,,-3.53E-06,0.016329376
,,,-3.52E-06,0.016492501
,,,-3.51E-06,0.016382501
,,,-3.5E-06,0.016426251
,,,-3.49E-06,0.016488126
,,,-3.48E-06,0.016426251
,,,-3.47E-06,0.016211876
,,,-3.46E-06,0.016296251
,,,-3.45E-06,0.016350001
,,,-3.44E-06,0.016493751
,,,-3.43E-06,0.016348126
,,,-3.42E-06,0.016400001
,,,-3.41E-06,0.016435626
,,,-3.4E-06,0.016316876
,,,-3.39E-06,0.016439376
,,,-3.38E-06,0.016386876
,,,-3.37E-06,0.016295626
,,,-3.36E-06,0.016458126
,,,-3.35E-06,0.016418126
,,,-3.34E-06,0.016339376
,,,-3.33E-06,0.016597501
,,,-3.32E-06,0.016455001
,,,-3.31E-06,0.016461876
,,,-3.3E-06,0.016360626
,,,-3.29E-06,0.016364376
,,,-3.28E-06,0.016363126
,,,-3.27E-06,0.016345001
,,,-3.26E-06,0.016485626
,,,-3.25E-06,0.016248126
,,,-3.24E-06,0.016370626
,,,-3.23E-06,0.016468126
,,,-3.22E-06,0.016381876
,,,-3.21E-06,0.016374376
,,,-3.2E-06,0.016373126
,,,-3.19E-06,0.016788751
,,,-3.18E-06,0.016471876
,,,-3.17E-06,0.016331251
,,,-3.16E-06,0.016270626
,,,-3.15E-06,0.016396876
,,,-3.14E-06,0.016356251
,,,-3.13E-06,0.016382501
,,,-3.12E-06,0.016273126
,,,-3.11E-06,0.016432501
,,,-3.1E-06,0.016197501
,,,-3.09E-06,0.016245001
,,,-3.08E-06,0.016411876
,,,-3.07E-06,0.016710001
,,,-3.06E-06,0.016436251
,,,-3.05E-06,0.016314376
,,,-3.04E-06,0.016403751
,,,-3.03E-06,0.016614376
,,,-3.02E-06,0.016540626
,,,-3.01E-06,0.016446876
,,,-3E-06,0.016366876
,,,-2.99E-06,0.016635626
,,,-2.98E-06,0.016201876
,,,-2.97E-06,0.016471251
,,,-2.96E-06,0.016375001
,,,-2.95E-06,0.016191251
,,,-2.94E-06,0.016334376
,,,-2.93E-06,0.016364376
,,,-2.92E-06,0.016650001
,,,-2.91E-06,0.016407501
,,,-2.9E-06,0.016268126
,,,-2.89E-06,0.016546876
,,,-2.88E-06,0.016411251
,,,-2.87E-06,0.016460001
,,,-2.86E-06,0.016336876
,,,-2.85E-06,0.016320001
,,,-2.84E-06,0.016348126
,,,-2.83E-06,0.016524376
,,,-2.82E-06,0.016240626
,,,-2.81E-06,0.016380626
,,,-2.8E-06,0.016549376
,,,-2.79E-06,0.016471876
,,,-2.78E-06,0.016373751
,,,-2.77E-06,0.016292501
,,,-2.76E-06,0.016441251
,,,-2.75E-06,0.016351876
,,,-2.74E-06,0.016440626
,,,-2.73E-06,0.016181876
,,,-2.72E-06,0.016564376
,,,-2.71E-06,0.016400626
,,,-2.7E-06,0.016606251
,,,-2.69E-06,0.016479376
,,,-2.68E-06,0.016703126
,,,-2.67E-06,0.016348751
,,,-2.66E-06,0.016410001
,,,-2.65E-06,0.016423751
,,,-2.64E-06,0.016311876
,,,-2.63E-06,0.016395001
,,,-2.62E-06,0.016640626
,,,-2.61E-06,0.016430001
,,,-2.6E-06,0.016478751
,,,-2.59E-06,0.016523126
,,,-2.58E-06,0.016217501
,,,-2.57E-06,0.016452501
,,,-2.56E-06,0.016483751
,,,-2.55E-06,0.016580626
,,,-2.54E-06,0.016294376
,,,-2.53E-06,0.016726876
,,,-2.52E-06,0.016503126
,,,-2.51E-06,0.016471876
,,,-2.5E-06,0.016505001
,,,-2.49E-06,0.016617501
,,,-2.48E-06,0.016693126
,,,-2.47E-06,0.016451876
,,,-2.46E-06,0.016300001
,,,-2.45E-06,0.016335001
,,,-2.44E-06,0.016455001
,,,-2.43E-06,0.016165001
,,,-2.42E-06,0.016417501
,,,-2.41E-06,0.016438126
,,,-2.4E-06,0.016462501
,,,-2.39E-06,0.016412501
,,,-2.38E-06,0.016415001
,,,-2.37E-06,0.016333126
,,,-2.36E-06,0.016579376
,,,-2.35E-06,0.016353751
,,,-2.34E-06,0.016500626
,,,-2.33E-06,0.016406251
,,,-2.32E-06,0.016555001
,,,-2.31E-06,0.016151876
,,,-2.3E-06,0.016317501
,,,-2.29E-06,0.016461876
,,,-2.28E-06,0.016388126
,,,-2.27E-06,0.016433751
,,,-2.26E-06,0.016086251
,,,-2.25E-06,0.016327501
,,,-2.24E-06,0.016724376
,,,-2.23E-06,0.016284376
,,,-2.22E-06,0.016464376
,,,-2.21E-06,0.016463751
,,,-2.2E-06,0.016171251
,,,-2.19E-06,0.016554376
,,,-2.18E-06,0.016498126
,,,-2.17E-06,0.016491876
,,,-2.16E-06,0.016184376
,,,-2.15E-06,0.016644376
,,,-2.14E-06,0.016545626
,,,-2.13E-06,0.016365001
,,,-2.12E-06,0.016575626
,,,-2.11E-06,0.016319376
,,,-2.1E-06,0.016531876
,,,-2.09E-06,0.016366251
,,,-2.08E-06,0.016416876
,,,-2.07E-06,0.016368126
,,,-2.06E-06,0.016477501
,,,-2.05E-06,0.016533126
,,,-2.04E-06,0.016431876
,,,-2.03E-06,0.016495001
,,,-2.02E-06,0.016451251
,,,-2.01E-06,0.016086251
,,,-2E-06,0.016444376
,,,-1.99E-06,0.016441251
,,,-1.98E-06,0.016217501
,,,-1.97E-06,0.016336876
,,,-1.96E-06,0.016450001
,,,-1.95E-06,0.016300626
,,,-1.94E-06,0.016363126
,,,-1.93E-06,0.016336251
,,,-1.92E-06,0.016480626
,,,-1.91E-06,0.016485001
,,,-1.9E-06,0.016273751
,,,-1.89E-06,0.016409376
,,,-1.88E-06,0.016211876
,,,-1.87E-06,0.016653751
,,,-1.86E-06,0.016196251
,,,-1.85E-06,0.016436876
,,,-1.84E-06,0.016570001
,,,-1.83E-06,0.016271876
,,,-1.82E-06,0.016281251
,,,-1.81E-06,0.016461251
,,,-1.8E-06,0.016435001
,,,-1.79E-06,0.016401251
,,,-1.78E-06,0.016428126
,,,-1.77E-06,0.016448126
,,,-1.76E-06,0.016721876
,,,-1.75E-06,0.016421876
,,,-1.74E-06,0.016148126
,,,-1.73E-06,0.016165626
,,,-1.72E-06,0.016487501
,,,-1.71E-06,0.016603126
,,,-1.7E-06,0.016403751
,,,-1.69E-06,0.016409376
,,,-1.68E-06,0.016536876
,,,-1.67E-06,0.016369376
,,,-1.66E-06,0.016380001
,,,-1.65E-06,0.016472501
,,,-1.64E-06,0.016178126
,,,-1.63E-06,0.016753126
,,,-1.62E-06,0.016402501
,,,-1.61E-06,0.016370001
,,,-1.6E-06,0.016672501
,,,-1.59E-06,0.016478751
,,,-1.58E-06,0.016497501
,,,-1.57E-06,0.016498126
,,,-1.56E-06,0.016490626
,,,-1.55E-06,0.016515001
,,,-1.54E-06,0.016663751
,,,-1.53E-06,0.016616251
,,,-1.52E-06,0.016408751
,,,-1.51E-06,0.016306876
,,,-1.5E-06,0.016285626
,,,-1.49E-06,0.016467501
,,,-1.48E-06,0.016471251
,,,-1.47E-06,0.016775001
,,,-1.46E-06,0.016412501
,,,-1.45E-06,0.016450626
,,,-1.44E-06,0.016439376
,,,-1.43E-06,0.016374376
,,,-1.42E-06,0.016743126
,,,-1.41E-06,0.016506876
,,,-1.4E-06,0.016550001
,,,-1.39E-06,0.016171876
,,,-1.38E-06,0.016154376
,,,-1.37E-06,0.016520001
,,,-1.36E-06,0.016401876
,,,-1.35E-06,0.016399376
,,,-1.34E-06,0.016378751
,,,-1.33E-06,0.016506251
,,,-1.32E-06,0.016535001
,,,-1.31E-06,0.016512501
,,,-1.3E-06,0.016423126
,,,-1.29E-06,0.016510001
,,,-1.28E-06,0.016197501
,,,-1.27E-06,0.016591876
,,,-1.26E-06,0.016463126
,,,-1.25E-06,0.016383126
,,,-1.24E-06,0.016349376
,,,-1.23E-06,0.016485001
,,,-1.22E-06,0.016383751
,,,-1.21E-06,0.016570626
,,,-1.2E-06,0.016175626
,,,-1.19E-06,0.016443126
,,,-1.18E-06,0.016304376
,,,-1.17E-06,0.016415626
,,,-1.16E-06,0.016388126
,,,-1.15E-06,0.016365001
,,,-1.14E-06,0.016463126
,,,-1.13E-06,0.016321251
,,,-1.12E-06,0.016226876
,,,-1.11E-06,0.016262501
,,,-1.1E-06,0.016385626
,,,-1.09E-06,0.016428126
,,,-1.08E-06,0.016197501
,,,-1.07E-06,0.016435626
,,,-1.06E-06,0.016527501
,,,-1.05E-06,0.016251251
,,,-1.04E-06,0.016688126
,,,-1.03E-06,0.016441876
,,,-1.02E-06,0.016229376
,,,-1.01E-06,0.016531251
,,,-1E-06,0.016181251
,,,-9.9E-07,0.016628751
,,,-9.8E-07,0.016241876
,,,-9.7E-07,0.016279376
,,,-9.6E-07,0.016536251
,,,-9.5E-07,0.016338126
,,,-9.4E-07,0.016328126
,,,-9.3E-07,0.016385001
,,,-9.2E-07,0.016502501
,,,-9.1E-07,0.016436251
,,,-9E-07,0.016529376
,,,-8.9E-07,0.016402501
,,,-8.8E-07,0.016438126
,,,-8.7E-07,0.016560001
,,,-8.6E-07,0.016473751
,,,-8.5E-07,0.016280001
,,,-8.4E-07,0.016454376
,,,-8.3E-07,0.016153751
,,,-8.2E-07,0.016410001
,,,-8.1E-07,0.016274376
,,,-8E-07,0.016555626
,,,-7.9E-07,0.016354376
,,,-7.8E-07,0.016223126
,,,-7.7E-07,0.016450001
,,,-7.6E-07,0.016460001
,,,-7.5E-07,0.016354376
,,,-7.4E-07,0.016306251
,,,-7.3E-07,0.016660001
,,,-7.2E-07,0.016538126
,,,-7.1E-07,0.016609376
,,,-7E-07,0.016160001
,,,-6.9E-07,0.016460626
,,,-6.8E-07,0.016243126
,,,-6.7E-07,0.016430626
,,,-6.6E-07,0.016374376
,,,-6.5E-07,0.016219376
,,,-6.4E-07,0.016548751
,,,-6.3E-07,0.016321876
,,,-6.2E-07,0.016228126
,,,-6.1E-07,0.016350626
,,,-6E-07,0.016437501
,,,-5.9E-07,0.016189376
,,,-5.8E-07,0.016092501
,,,-5.7E-07,0.016458126
,,,-5.6E-07,0.016695626
,,,-5.5E-07,0.016622501
,,,-5.4E-07,0.016380001
,,,-5.3E-07,0.016455626
,,,-5.2E-07,0.016340626
,,,-5.1E-07,0.016257501
,,,-5E-07,0.016520001
,,,-4.9E-07,0.016271876
,,,-4.8E-07,0.016522501
,,,-4.7E-07,0.016515001
,,,-4.6E-07,0.016411251
,,,-4.5E-07,0.016627501
,,,-4.4E-07,0.016514376
,,,-4.3E-07,0.016229376
,,,-4.2E-07,0.016197501
,,,-4.1E-07,0.016478751
,,,-4E-07,0.016119376
,,,-3.9E-07,0.016509376
,,,-3.8E-07,0.016545626
,,,-3.7E-07,0.016598751
,,,-3.6E-07,0.016411251
,,,-3.5E-07,0.016426876
,,,-3.4E-07,0.016505001
,,,-3.3E-07,0.016415626
,,,-3.2E-07,0.016478126
,,,-3.1E-07,0.016483751
,,,-3E-07,0.016578126
,,,-2.9E-07,0.016530001
,,,-2.8E-07,0.016458126
,,,-2.7E-07,0.016489376
,,,-2.6E-07,0.016667501
,,,-2.5E-07,0.016552501
,,,-2.4E-07,0.016440001
,,,-2.3E-07,0.016376876
,,,-2.2E-07,0.016206251
,,,-2.1E-07,0.016349376
,,,-2E-07,0.016425626
,,,-1.9E-07,0.016015001
,,,-1.8E-07,0.016310001
,,,-1.7E-07,0.016653751
,,,-1.6E-07,0.016712501
,,,-1.5E-07,0.016268751
,,,-1.4E-07,0.016475001
,,,-1.3E-07,0.016430001
,,,-1.2E-07,0.016100001
,,,-1.1E-07,0.016240001
,,,-1E-07,0.016475001
,,,-9E-08,0.016301251
,,,-8E-08,0.016466251
,,,-7E-08,0.016216251
,,,-6E-08,0.016413126
,,,-5E-08,0.016776251
,,,-4E-08,0.016870001
,,,-3E-08,0.016515001
,,,-2E-08,0.015897501
,,,-1E-08,0.015707501
,,,0,0.015956251
,,,1E-08,0.016970626
,,,2E-08,0.017097501
,,,3E-08,0.016910001
,,,4E-08,0.016106251
,,,5E-08,0.015739376
,,,6E-08,0.015855001
,,,7E-08,0.016111876
,,,8E-08,0.016695001
,,,9E-08,0.016822501
,,,1E-07,0.017030626
,,,1.1E-07,0.016558126
,,,1.2E-07,0.016136251
,,,1.3E-07,0.015994376
,,,1.4E-07,0.016167501
,,,1.5E-07,0.016418751
,,,1.6E-07,0.016377501
,,,1.7E-07,0.016418751
,,,1.8E-07,0.016266251
,,,1.9E-07,0.016646251
,,,2E-07,0.016385001
,,,2.1E-07,0.016446876
,,,2.2E-07,0.016350626
,,,2.3E-07,0.016225626
,,,2.4E-07,0.016422501
,,,2.5E-07,0.016748751
,,,2.6E-07,0.016190626
,,,2.7E-07,0.016433751
,,,2.8E-07,0.016495626
,,,2.9E-07,0.016360626
,,,3E-07,0.016514376
,,,3.1E-07,0.016421876
,,,3.2E-07,0.016373751
,,,3.3E-07,0.016823126
,,,3.4E-07,0.016680626
,,,3.5E-07,0.016179376
,,,3.6E-07,0.016310001
,,,3.7E-07,0.016540001
,,,3.8E-07,0.016321251
,,,3.9E-07,0.016529376
,,,4E-07,0.016571251
,,,4.1E-07,0.016310001
,,,4.2E-07,0.016489376
,,,4.3E-07,0.016389376
,,,4.4E-07,0.016125626
,,,4.5E-07,0.016421876
,,,4.6E-07,0.016311251
,,,4.7E-07,0.016160001
,,,4.8E-07,0.016148751
,,,4.9E-07,0.016476251
,,,5E-07,0.016408126
,,,5.1E-07,0.016411876
,,,5.2E-07,0.016538751
,,,5.3E-07,0.016291876
,,,5.4E-07,0.016426876
,,,5.5E-07,0.016308126
,,,5.6E-07,0.016366876
,,,5.7E-07,0.016466251
,,,5.8E-07,0.016412501
,,,5.9E-07,0.016183751
,,,6E-07,0.016450001
,,,6.1E-07,0.016375626
,,,6.2E-07,0.016303126
,,,6.3E-07,0.016387501
,,,6.4E-07,0.016300626
,,,6.5E-07,0.016290001
,,,6.6E-07,0.016420626
,,,6.7E-07,0.016042501
,,,6.8E-07,0.016436251
,,,6.9E-07,0.016420626
,,,7E-07,0.016296876
,,,7.1E-07,0.016232501
,,,7.2E-07,0.016490626
,,,7.3E-07,0.016365001
,,,7.4E-07,0.016458126
,,,7.5E-07,0.016380001
,,,7.6E-07,0.016521876
,,,7.7E-07,0.016612501
,,,7.8E-07,0.016495626
,,,7.9E-07,0.016436876
,,,8E-07,0.016327501
,,,8.1E-07,0.016312501
,,,8.2E-07,0.016290001
,,,8.3E-07,0.016361251
,,,8.4E-07,0.016351251
,,,8.5E-07,0.016569376
,,,8.6E-07,0.016390626
,,,8.7E-07,0.016520001
,,,8.8E-07,0.016499376
,,,8.9E-07,0.016385626
,,,9E-07,0.016470001
,,,9.1E-07,0.016502501
,,,9.2E-07,0.016505001
,,,9.3E-07,0.016325001
,,,9.4E-07,0.016447501
,,,9.5E-07,0.016275001
,,,9.6E-07,0.016358126
,,,9.7E-07,0.016454376
,,,9.8E-07,0.016728751
,,,9.9E-07,0.016498126
,,,1E-06,0.016472501
,,,1.01E-06,0.016276251
,,,1.02E-06,0.016114376
,,,1.03E-06,0.016415001
,,,1.04E-06,0.016351251
,,,1.05E-06,0.016414376
,,,1.06E-06,0.016453751
,,,1.07E-06,0.016328126
,,,1.08E-06,0.016460626
,,,1.09E-06,0.016299376
,,,1.1E-06,0.016329376
,,,1.11E-06,0.016523126
,,,1.12E-06,0.016654376
,,,1.13E-06,0.016421876
,,,1.14E-06,0.016320626
,,,1.15E-06,0.016408751
,,,1.16E-06,0.016478751
,,,1.17E-06,0.016473751
,,,1.18E-06,0.016310001
,,,1.19E-06,0.016419376
,,,1.2E-06,0.016575001
,,,1.21E-06,0.016537501
,,,1.22E-06,0.016491876
,,,1.23E-06,0.016513126
,,,1.24E-06,0.016412501
,,,1.25E-06,0.016414376
,,,1.26E-06,0.016523126
,,,1.27E-06,0.016495626
,,,1.28E-06,0.016326876
,,,1.29E-06,0.016417501
,,,1.3E-06,0.016471876
,,,1.31E-06,0.016510626
,,,1.32E-06,0.016464376
,,,1.33E-06,0.016456251
,,,1.34E-06,0.016553126
,,,1.35E-06,0.016459376
,,,1.36E-06,0.016287501
,,,1.37E-06,0.016621251
,,,1.38E-06,0.016465626
,,,1.39E-06,0.016646876
,,,1.4E-06,0.016658751
,,,1.41E-06,0.016295626
,,,1.42E-06,0.016610001
,,,1.43E-06,0.016536251
,,,1.44E-06,0.016321251
,,,1.45E-06,0.016537501
,,,1.46E-06,0.016392501
,,,1.47E-06,0.016436876
,,,1.48E-06,0.016354376
,,,1.49E-06,0.016240001
,,,1.5E-06,0.016542501
,,,1.51E-06,0.016683126
,,,1.52E-06,0.016296251
,,,1.53E-06,0.016521876
,,,1.54E-06,0.016695001
,,,1.55E-06,0.016610626
,,,1.56E-06,0.016601251
,,,1.57E-06,0.016293751
,,,1.58E-06,0.016443126
,,,1.59E-06,0.016355001
,,,1.6E-06,0.016385001
,,,1.61E-06,0.016435626
,,,1.62E-06,0.016364376
,,,1.63E-06,0.016403751
,,,1.64E-06,0.016660626
,,,1.65E-06,0.016403126
,,,1.66E-06,0.016458751
,,,1.67E-06,0.016680626
,,,1.68E-06,0.016299376
,,,1.69E-06,0.016356251
,,,1.7E-06,0.016230626
,,,1.71E-06,0.016416876
,,,1.72E-06,0.016470626
,,,1.73E-06,0.016522501
,,,1.74E-06,0.016476251
,,,1.75E-06,0.016646251
,,,1.76E-06,0.016390626
,,,1.77E-06,0.016323126
,,,1.78E-06,0.016199376
,,,1.79E-06,0.016498751
,,,1.8E-06,0.016435001
,,,1.81E-06,0.016563751
,,,1.82E-06,0.016244376
,,,1.83E-06,0.016533751
,,,1.84E-06,0.016483751
,,,1.85E-06,0.016342501
,,,1.86E-06,0.016352501
,,,1.87E-06,0.016391876
,,,1.88E-06,0.016354376
,,,1.89E-06,0.016152501
,,,1.9E-06,0.016520001
,,,1.91E-06,0.016428751
,,,1.92E-06,0.016471876
,,,1.93E-06,0.016380626
,,,1.94E-06,0.016458126
,,,1.95E-06,0.016216876
,,,1.96E-06,0.016297501
,,,1.97E-06,0.016255001
,,,1.98E-06,0.016344376
,,,1.99E-06,0.016518126
,,,2E-06,0.016605626
,,,2.01E-06,0.016445001
,,,2.02E-06,0.016328751
,,,2.03E-06,0.016292501
,,,2.04E-06,0.016730001
,,,2.05E-06,0.016414376
,,,2.06E-06,0.016489376
,,,2.07E-06,0.016389376
,,,2.08E-06,0.016675001
,,,2.09E-06,0.016419376
,,,2.1E-06,0.016625626
,,,2.11E-06,0.016281876
,,,2.12E-06,0.016430001
,,,2.13E-06,0.016278751
,,,2.14E-06,0.016266876
,,,2.15E-06,0.016633126
,,,2.16E-06,0.016651251
,,,2.17E-06,0.016511876
,,,2.18E-06,0.016361251
,,,2.19E-06,0.016239376
,,,2.2E-06,0.016508751
,,,2.21E-06,0.016332501
,,,2.22E-06,0.016553126
,,,2.23E-06,0.016480626
,,,2.24E-06,0.016355626
,,,2.25E-06,0.016455626
,,,2.26E-06,0.016361876
,,,2.27E-06,0.016310001
,,,2.28E-06,0.016190001
,,,2.29E-06,0.016270001
,,,2.3E-06,0.016319376
,,,2.31E-06,0.016561251
,,,2.32E-06,0.016485626
,,,2.33E-06,0.016437501
,,,2.34E-06,0.016230626
,,,2.35E-06,0.016236876
,,,2.36E-06,0.016365001
,,,2.37E-06,0.016393751
,,,2.38E-06,0.016422501
,,,2.39E-06,0.016285626
,,,2.4E-06,0.016423751
,,,2.41E-06,0.016405001
,,,2.42E-06,0.016609376
,,,2.43E-06,0.016420001
,,,2.44E-06,0.016243751
,,,2.45E-06,0.016208126
,,,2.46E-06,0.016468126
,,,2.47E-06,0.016059376
,,,2.48E-06,0.016345001
,,,2.49E-06,0.016370001
,,,2.5E-06,0.016290001
,,,2.51E-06,0.016265001
,,,2.52E-06,0.016457501
,,,2.53E-06,0.016428126
,,,2.54E-06,0.016702501
,,,2.55E-06,0.016375626
,,,2.56E-06,0.016433751
,,,2.57E-06,0.016156876
,,,2.58E-06,0.016338751
,,,2.59E-06,0.016493751
,,,2.6E-06,0.016411251
,,,2.61E-06,0.016489376
,,,2.62E-06,0.016543751
,,,2.63E-06,0.016465001
,,,2.64E-06,0.016474376
,,,2.65E-06,0.016658751
,,,2.66E-06,0.016631251
,,,2.67E-06,0.016413751
,,,2.68E-06,0.016473126
,,,2.69E-06,0.016360001
,,,2.7E-06,0.016372501
,,,2.71E-06,0.016453126
,,,2.72E-06,0.016429376
,,,2.73E-06,0.016582501
,,,2.74E-06,0.016181251
,,,2.75E-06,0.016422501
,,,2.76E-06,0.016564376
,,,2.77E-06,0.016483751
,,,2.78E-06,0.016391876
,,,2.79E-06,0.016274376
,,,2.8E-06,0.016506251
,,,2.81E-06,0.016450626
,,,2.82E-06,0.016431251
,,,2.83E-06,0.016312501
,,,2.84E-06,0.016519376
,,,2.85E-06,0.016546251
,,,2.86E-06,0.016316876
,,,2.87E-06,0.016368126
,,,2.88E-06,0.016361251
,,,2.89E-06,0.016455626
,,,2.9E-06,0.016421251
,,,2.91E-06,0.016358751
,,,2.92E-06,0.016626876
,,,2.93E-06,0.016281876
,,,2.94E-06,0.016460626
,,,2.95E-06,0.016556876
,,,2.96E-06,0.016592501
,,,2.97E-06,0.016409376
,,,2.98E-06,0.016462501
,,,2.99E-06,0.016489376
,,,3E-06,0.016526251
,,,3.01E-06,0.016563126
,,,3.02E-06,0.016406876
,,,3.03E-06,0.016570626
,,,3.04E-06,0.016505001
,,,3.05E-06,0.016626251
,,,3.06E-06,0.016410001
,,,3.07E-06,0.016658751
,,,3.08E-06,0.016630001
,,,3.09E-06,0.016316876
,,,3.1E-06,0.016358751
,,,3.11E-06,0.016522501
,,,3.12E-06,0.016388751
,,,3.13E-06,0.016293126
,,,3.14E-06,0.016399376
,,,3.15E-06,0.016518126
,,,3.16E-06,0.016401876
,,,3.17E-06,0.016383126
,,,3.18E-06,0.016725626
,,,3.19E-06,0.016455001
,,,3.2E-06,0.016421251
,,,3.21E-06,0.016415001
