data/raw/Final_POL_Test_1/SOP020_Ch3.csv

"Record Length",1000,"Points",-5E-06,0.021319376
"Sample Interval",1E-08,s,-4.99E-06,0.021513751
"Trigger Point",500,"Samples",-4.98E-06,0.021194376
"Trigger Time",0,s,-4.97E-06,0.021398126
"",,,-4.96E-06,0.021383751
"Horizontal Offset",-5E-06,s,-4.95E-06,0.021265001
,,,-4.94E-06,0.021422501
,,,-4.93E-06,0.021268751
,,,-4.92E-06,0.021448126
,,,-4.91E-06,0.021475626
,,,-4.9E-06,0.021462501
,,,-4.89E-06,0.021505626
,,,-4.88E-06,0.021505001
,,,-4.87E-06,0.021446876
,,,-4.86E-06,0.021411251
,,,-4.85E-06,0.021145626
,,,-4.84E-06,0.021461876
,,,-4.83E-06,0.021446251
,,,-4.82E-06,0.021244376
,,,-4.81E-06,0.021270626
,,,-4.8E-06,0.021335626
,,,-4.79E-06,0.021561251
,,,-4.78E-06,0.021233751
,,,-4.77E-06,0.021346876
,,,-4.76E-06,0.021423126
,,,-4.75E-06,0.021475626
,,,-4.74E-06,0.021250001
,,,-4.73E-06,0.021330626
,,,-4.72E-06,0.021610626
,,,-4.71E-06,0.021552501
,,,-4.7E-06,0.021509376
,,,-4.69E-06,0.021360001
,,,-4.68E-06,0.021105001
,,,-4.67E-06,0.021467501
,,,-4.66E-06,0.021423126
,,,-4.65E-06,0.021477501
,,,-4.64E-06,0.021448126
,,,-4.63E-06,0.021533751
,,,-4.62E-06,0.021341251
,,,-4.61E-06,0.021465001
,,,-4.6E-06,0.021346876
,,,-4.59E-06,0.021208751
,,,-4.58E-06,0.021568126
,,,-4.57E-06,0.021363126
,,,-4.56E-06,0.021433751
,,,-4.55E-06,0.021326876
,,,-4.54E-06,0.021518751
,,,-4.53E-06,0.021430626
,,,-4.52E-06,0.021758751
,,,-4.51E-06,0.021674376
,,,-4.5E-06,0.021234376
,,,-4.49E-06,0.021489376
,,,-4.48E-06,0.021280001
,,,-4.47E-06,0.021256876
,,,-4.46E-06,0.021418126
,,,-4.45E-06,0.021425001
,,,-4.44E-06,0.021155001
,,,-4.43E-06,0.021175626
,,,-4.42E-06,0.021451876
,,,-4.41E-06,0.021442501
,,,-4.4E-06,0.021261251
,,,-4.39E-06,0.021381876
,,,-4.38E-06,0.021428126
,,,-4.37E-06,0.021533126
,,,-4.36E-06,0.021133126
,,,-4.35E-06,0.021465626
,,,-4.34E-06,0.021499376
,,,-4.33E-06,0.021551251
,,,-4.32E-06,0.021446876
,,,-4.31E-06,0.021491251
,,,-4.3E-06,0.021324376
,,,-4.29E-06,0.021373751
,,,-4.28E-06,0.021666876
,,,-4.27E-06,0.021441876
,,,-4.26E-06,0.021231876
,,,-4.25E-06,0.021434376
,,,-4.24E-06,0.021500001
,,,-4.23E-06,0.021480001
,,,-4.22E-06,0.021250626
,,,-4.21E-06,0.021386876
,,,-4.2E-06,0.021465001
,,,-4.19E-06,0.021434376
,,,-4.18E-06,0.021334376
,,,-4.17E-06,0.021388126
,,,-4.16E-06,0.021486251
,,,-4.15E-06,0.021440626
,,,-4.14E-06,0.021663126
,,,-4.13E-06,0.021314376
,,,-4.12E-06,0.021482501
,,,-4.11E-06,0.021056876
,,,-4.1E-06,0.021568126
,,,-4.09E-06,0.021373126
,,,-4.08E-06,0.021465626
,,,-4.07E-06,0.021326876
,,,-4.06E-06,0.021509376
,,,-4.05E-06,0.021425626
,,,-4.04E-06,0.021430001
,,,-4.03E-06,0.021205626
,,,-4.02E-06,0.021535001
,,,-4.01E-06,0.021361876
,,,-4E-06,0.021342501
,,,-3.99E-06,0.021596251
,,,-3.98E-06,0.021481251
,,,-3.97E-06,0.021520001
,,,-3.96E-06,0.021622501
,,,-3.95E-06,0.021444376
,,,-3.94E-06,0.021543751
,,,-3.93E-06,0.021405001
,,,-3.92E-06,0.021442501
,,,-3.91E-06,0.021289376
,,,-3.9E-06,0.021344376
,,,-3.89E-06,0.021471876
,,,-3.88E-06,0.021580001
,,,-3.87E-06,0.021101876
,,,-3.86E-06,0.021405001
,,,-3.85E-06,0.021475626
,,,-3.84E-06,0.021337501
,,,-3.83E-06,0.021560626
,,,-3.82E-06,0.021396876
,,,-3.81E-06,0.021540001
,,,-3.8E-06,0.021576876
,,,-3.79E-06,0.021519376
,,,-3.78E-06,0.021310626
,,,-3.77E-06,0.021439376
,,,-3.76E-06,0.021463751
,,,-3.75E-06,0.021396876
,,,-3.74E-06,0.021525001
,,,-3.73E-06,0.021606251
,,,-3.72E-06,0.021396251
,,,-3.71E-06,0.021288751
,,,-3.7E-06,0.021696251
,,,-3.69E-06,0.021485001
,,,-3.68E-06,0.021269376
,,,-3.67E-06,0.021430626
,,,-3.66E-06,0.021311876
,,,-3.65E-06,0.021268126
,,,-3.64E-06,0.021469376
,,,-3.63E-06,0.021561251
,,,-3.62E-06,0.021442501
,,,-3.61E-06,0.021126876
,,,-3.6E-06,0.021279376
,,,-3.59E-06,0.021405626
,,,-3.58E-06,0.021426876
,,,-3.57E-06,0.021370626
,,,-3.56E-06,0.021405626
,,,-3.55E-06,0.021582501
,,,-3.54E-06,0.021645626
,,,-3.53E-06,0.021367501
,,,-3.52E-06,0.021116251
,,,-3.51E-06,0.021268751
,,,-3.5E-06,0.021441251
,,,-3.49E-06,0.021596251
,,,-3.48E-06,0.021518751
,,,-3.47E-06,0.021560001
,,,-3.46E-06,0.021385001
,,,-3.45E-06,0.021493751
,,,-3.44E-06,0.021358751
,,,-3.43E-06,0.021363126
,,,-3.42E-06,0.021286876
,,,-3.41E-06,0.021136251
,,,-3.4E-06,0.021463126
,,,-3.39E-06,0.021525626
,,,-3.38E-06,0.021604376
,,,-3.37E-06,0.021339376
,,,-3.36E-06,0.021145626
,,,-3.35E-06,0.021518751
,,,-3.34E-06,0.021198751
,,,-3.33E-06,0.021429376
,,,-3.32E-06,0.021342501
,,,-3.31E-06,0.021316251
,,,-3.3E-06,0.021016251
,,,-3.29E-06,0.021500001
,,,-3.28E-06,0.021232501
,,,-3.27E-06,0.021384376
,,,-3.26E-06,0.021350001
,,,-3.25E-06,0.021616251
,,,-3.24E-06,0.021491251
,,,-3.23E-06,0.021346251
,,,-3.22E-06,0.021310001
,,,-3.21E-06,0.021585001
,,,-3.2E-06,0.021420626
,,,-3.19E-06,0.021261876
,,,-3.18E-06,0.021301876
,,,-3.17E-06,0.021426251
,,,-3.16E-06,0.021476251
,,,-3.15E-06,0.021418126
,,,-3.14E-06,0.021403126
,,,-3.13E-06,0.021427501
,,,-3.12E-06,0.021410001
,,,-3.11E-06,0.021698126
,,,-3.1E-06,0.021176251
,,,-3.09E-06,0.021393751
,,,-3.08E-06,0.021306876
,,,-3.07E-06,0.021404376
,,,-3.06E-06,0.021303751
,,,-3.05E-06,0.021735626
,,,-3.04E-06,0.021416876
,,,-3.03E-06,0.021045001
,,,-3.02E-06,0.021480001
,,,-3.01E-06,0.021422501
,,,-3E-06,0.021556876
,,,-2.99E-06,0.021473126
,,,-2.98E-06,0.021412501
,,,-2.97E-06,0.021424376
,,,-2.96E-06,0.021335001
,,,-2.95E-06,0.021524376
,,,-2.94E-06,0.021416876
,,,-2.93E-06,0.021396876
,,,-2.92E-06,0.021496876
,,,-2.91E-06,0.021153126
,,,-2.9E-06,0.021693126
,,,-2.89E-06,0.021428126
,,,-2.88E-06,0.021400001
,,,-2.87E-06,0.021316876
,,,-2.86E-06,0.021555001
,,,-2.85E-06,0.021375001
,,,-2.84E-06,0.021327501
,,,-2.83E-06,0.021470001
,,,-2.82E-06,0.021311251
,,,-2.81E-06,0.021441251
,,,-2.8E-06,0.021443751
,,,-2.79E-06,0.021182501
,,,-2.78E-06,0.021336876
,,,-2.77E-06,0.021275001
,,,-2.76E-06,0.021378751
,,,-2.75E-06,0.021523126
,,,-2.74E-06,0.021503751
,,,-2.73E-06,0.021523126
,,,-2.72E-06,0.021388126
,,,-2.71E-06,0.021574376
,,,-2.7E-06,0.021258751
,,,-2.69E-06,0.021393751
,,,-2.68E-06,0.021357501
,,,-2.67E-06,0.021341251
,,,-2.66E-06,0.021578126
,,,-2.65E-06,0.021429376
,,,-2.64E-06,0.021517501
,,,-2.63E-06,0.021556876
,,,-2.62E-06,0.021455001
,,,-2.61E-06,0.021484376
,,,-2.6E-06,0.021675626
,,,-2.59E-06,0.021788751
,,,-2.58E-06,0.021441251
,,,-2.57E-06,0.021420626
,,,-2.56E-06,0.021425001
,,,-2.55E-06,0.021273751
,,,-2.54E-06,0.021600001
,,,-2.53E-06,0.021268751
,,,-2.52E-06,0.021501876
,,,-2.51E-06,0.021297501
,,,-2.5E-06,0.021370626
,,,-2.49E-06,0.021238751
,,,-2.48E-06,0.021491251
,,,-2.47E-06,0.021383751
,,,-2.46E-06,0.021358751
,,,-2.45E-06,0.021650626
,,,-2.44E-06,0.021143751
,,,-2.43E-06,0.021529376
,,,-2.42E-06,0.021361876
,,,-2.41E-06,0.021423126
,,,-2.4E-06,0.021372501
,,,-2.39E-06,0.021527501
,,,-2.38E-06,0.021561876
,,,-2.37E-06,0.021446876
,,,-2.36E-06,0.021566251
,,,-2.35E-06,0.021376876
,,,-2.34E-06,0.021536251
,,,-2.33E-06,0.021559376
,,,-2.32E-06,0.021364376
,,,-2.31E-06,0.021206876
,,,-2.3E-06,0.021126876
,,,-2.29E-06,0.021290626
,,,-2.28E-06,0.021513751
,,,-2.27E-06,0.021481876
,,,-2.26E-06,0.021376876
,,,-2.25E-06,0.021292501
,,,-2.24E-06,0.021501251
,,,-2.23E-06,0.021542501
,,,-2.22E-06,0.021362501
,,,-2.21E-06,0.021505626
,,,-2.2E-06,0.021346876
,,,-2.19E-06,0.021435626
,,,-2.18E-06,0.021584376
,,,-2.17E-06,0.021549376
,,,-2.16E-06,0.021288126
,,,-2.15E-06,0.021333126
,,,-2.14E-06,0.021288126
,,,-2.13E-06,0.021042501
,,,-2.12E-06,0.021368126
,,,-2.11E-06,0.021227501
,,,-2.1E-06,0.021630001
,,,-2.09E-06,0.021410626
,,,-2.08E-06,0.021648751
,,,-2.07E-06,0.021212501
,,,-2.06E-06,0.021499376
,,,-2.05E-06,0.021291876
,,,-2.04E-06,0.021302501
,,,-2.03E-06,0.021415626
,,,-2.02E-06,0.021317501
,,,-2.01E-06,0.021110001
,,,-2E-06,0.021548126
,,,-1.99E-06,0.021401251
,,,-1.98E-06,0.021359376
,,,-1.97E-06,0.021371876
,,,-1.96E-06,0.021438751
,,,-1.95E-06,0.021365001
,,,-1.94E-06,0.021295001
,,,-1.93E-06,0.021445001
,,,-1.92E-06,0.021257501
,,,-1.91E-06,0.021350001
,,,-1.9E-06,0.021393751
,,,-1.89E-06,0.021220626
,,,-1.88E-06,0.021438751
,,,-1.87E-06,0.021492501
,,,-1.86E-06,0.021316251
,,,-1.85E-06,0.021474376
,,,-1.84E-06,0.021320626
,,,-1.83E-06,0.021320626
,,,-1.82E-06,0.021247501
,,,-1.81E-06,0.021186251
,,,-1.8E-06,0.021770001
,,,-1.79E-06,0.021242501
,,,-1.78E-06,0.021408126
,,,-1.77E-06,0.021529376
,,,-1.76E-06,0.021671876
,,,-1.75E-06,0.021624376
,,,-1.74E-06,0.021623751
,,,-1.73E-06,0.021476251
,,,-1.72E-06,0.021234376
,,,-1.71E-06,0.021477501
,,,-1.7E-06,0.021445001
,,,-1.69E-06,0.021433751
,,,-1.68E-06,0.021508751
,,,-1.67E-06,0.021458751
,,,-1.66E-06,0.021419376
,,,-1.65E-06,0.021429376
,,,-1.64E-06,0.021547501
,,,-1.63E-06,0.021563126
,,,-1.62E-06,0.021451251
,,,-1.61E-06,0.021571251
,,,-1.6E-06,0.021563751
,,,-1.59E-06,0.021399376
,,,-1.58E-06,0.021413126
,,,-1.57E-06,0.021307501
,,,-1.56E-06,0.021370626
,,,-1.55E-06,0.021328126
,,,-1.54E-06,0.021541251
,,,-1.53E-06,0.021312501
,,,-1.52E-06,0.021454376
,,,-1.51E-06,0.021435001
,,,-1.5E-06,0.021596876
,,,-1.49E-06,0.021405001
,,,-1.48E-06,0.021561876
,,,-1.47E-06,0.021516251
,,,-1.46E-06,0.021340626
,,,-1.45E-06,0.021327501
,,,-1.44E-06,0.021215001
,,,-1.43E-06,0.021437501
,,,-1.42E-06,0.021633751
,,,-1.41E-06,0.021300626
,,,-1.4E-06,0.021449376
,,,-1.39E-06,0.021540001
,,,-1.38E-06,0.021506251
,,,-1.37E-06,0.021279376
,,,-1.36E-06,0.021294376
,,,-1.35E-06,0.021475626
,,,-1.34E-06,0.021405001
,,,-1.33E-06,0.021491251
,,,-1.32E-06,0.021205001
,,,-1.31E-06,0.021448751
,,,-1.3E-06,0.021412501
,,,-1.29E-06,0.021107501
,,,-1.28E-06,0.021366251
,,,-1.27E-06,0.021282501
,,,-1.26E-06,0.021440001
,,,-1.25E-06,0.021488751
,,,-1.24E-06,0.021411876
,,,-1.23E-06,0.021419376
,,,-1.22E-06,0.021437501
,,,-1.21E-06,0.021235001
,,,-1.2E-06,0.021587501
,,,-1.19E-06,0.021304376
,,,-1.18E-06,0.021541876
,,,-1.17E-06,0.021262501
,,,-1.16E-06,0.021477501
,,,-1.15E-06,0.021501251
,,,-1.14E-06,0.021440626
,,,-1.13E-06,0.021525001
,,,-1.12E-06,0.021509376
,,,-1.11E-06,0.021409376
,,,-1.1E-06,0.021228751
,,,-1.09E-06,0.021450001
,,,-1.08E-06,0.021435626
,,,-1.07E-06,0.021503751
,,,-1.06E-06,0.021343751
,,,-1.05E-06,0.021251876
,,,-1.04E-06,0.021422501
,,,-1.03E-06,0.021356876
,,,-1.02E-06,0.021314376
,,,-1.01E-06,0.021591251
,,,-1E-06,0.021380001
,,,-9.9E-07,0.021444376
,,,-9.8E-07,0.021483126
,,,-9.7E-07,0.021204376
,,,-9.6E-07,0.021474376
,,,-9.5E-07,0.021410001
,,,-9.4E-07,0.021373126
,,,-9.3E-07,0.021303751
,,,-9.2E-07,0.021655001
,,,-9.1E-07,0.021488751
,,,-9E-07,0.021393751
,,,-8.9E-07,0.021150001
,,,-8.8E-07,0.021428126
,,,-8.7E-07,0.021373751
,,,-8.6E-07,0.021225626
,,,-8.5E-07,0.021483751
,,,-8.4E-07,0.021525626
,,,-8.3E-07,0.021293126
,,,-8.2E-07,0.021430001
,,,-8.1E-07,0.021481251
,,,-8E-07,0.021318751
,,,-7.9E-07,0.021123126
,,,-7.8E-07,0.021766876
,,,-7.7E-07,0.021502501
,,,-7.6E-07,0.021613751
,,,-7.5E-07,0.021501876
,,,-7.4E-07,0.021395626
,,,-7.3E-07,0.021329376
,,,-7.2E-07,0.021183751
,,,-7.1E-07,0.021500626
,,,-7E-07,0.021500001
,,,-6.9E-07,0.021345626
,,,-6.8E-07,0.021441876
,,,-6.7E-07,0.021359376
,,,-6.6E-07,0.021588126
,,,-6.5E-07,0.021520001
,,,-6.4E-07,0.021481251
,,,-6.3E-07,0.021343126
,,,-6.2E-07,0.021376876
,,,-6.1E-07,0.021381876
,,,-6E-07,0.021474376
,,,-5.9E-07,0.021375626
,,,-5.8E-07,0.021452501
,,,-5.7E-07,0.021565001
,,,-5.6E-07,0.021332501
,,,-5.5E-07,0.021145001
,,,-5.4E-07,0.021380001
,,,-5.3E-07,0.021310001
,,,-5.2E-07,0.021372501
,,,-5.1E-07,0.021343751
,,,-5E-07,0.021512501
,,,-4.9E-07,0.021435001
,,,-4.8E-07,0.021313126
,,,-4.7E-07,0.021385001
,,,-4.6E-07,0.021398126
,,,-4.5E-07,0.021428751
,,,-4.4E-07,0.021670626
,,,-4.3E-07,0.021541251
,,,-4.2E-07,0.021443751
,,,-4.1E-07,0.021603751
,,,-4E-07,0.021469376
,,,-3.9E-07,0.021390001
,,,-3.8E-07,0.021422501
,,,-3.7E-07,0.021465626
,,,-3.6E-07,0.021568126
,,,-3.5E-07,0.021433126
,,,-3.4E-07,0.021455001
,,,-3.3E-07,0.021514376
,,,-3.2E-07,0.021415626
,,,-3.1E-07,0.021332501
,,,-3E-07,0.021190001
,,,-2.9E-07,0.021421876
,,,-2.8E-07,0.021375001
,,,-2.7E-07,0.021661251
,,,-2.6E-07,0.021601251
,,,-2.5E-07,0.021475001
,,,-2.4E-07,0.021335626
,,,-2.3E-07,0.021552501
,,,-2.2E-07,0.021293751
,,,-2.1E-07,0.021421876
,,,-2E-07,0.021521251
,,,-1.9E-07,0.021566251
,,,-1.8E-07,0.021406251
,,,-1.7E-07,0.021268751
,,,-1.6E-07,0.021597501
,,,-1.5E-07,0.021412501
,,,-1.4E-07,0.021304376
,,,-1.3E-07,0.021434376
,,,-1.2E-07,0.021496251
,,,-1.1E-07,0.021159376
,,,-1E-07,0.021340001
,,,-9E-08,0.021410001
,,,-8E-08,0.021442501
,,,-7E-08,0.021295001
,,,-6E-08,0.021456251
,,,-5E-08,0.021502501
,,,-4E-08,0.021903751
,,,-3E-08,0.022625001
,,,-2E-08,0.021018126
,,,-1E-08,0.019486876
,,,0,0.018678751
,,,1E-08,0.022965001
,,,2E-08,0.023918751
,,,3E-08,0.024307501
,,,4E-08,0.021266876
,,,5E-08,0.020166876
,,,6E-08,0.018943751
,,,7E-08,0.020538126
,,,8E-08,0.021573751
,,,9E-08,0.022880626
,,,1E-07,0.022871876
,,,1.1E-07,0.021673751
,,,1.2E-07,0.021114376
,,,1.3E-07,0.020311876
,,,1.4E-07,0.020716251
,,,1.5E-07,0.021236251
,,,1.6E-07,0.021939376
,,,1.7E-07,0.021665001
,,,1.8E-07,0.021572501
,,,1.9E-07,0.021170001
,,,2E-07,0.021211876
,,,2.1E-07,0.021196251
,,,2.2E-07,0.021322501
,,,2.3E-07,0.021627501
,,,2.4E-07,0.021503126
,,,2.5E-07,0.021743126
,,,2.6E-07,0.021319376
,,,2.7E-07,0.021305626
,,,2.8E-07,0.021369376
,,,2.9E-07,0.021273126
,,,3E-07,0.021361251
,,,3.1E-07,0.021632501
,,,3.2E-07,0.021469376
,,,3.3E-07,0.021313126
,,,3.4E-07,0.021274376
,,,3.5E-07,0.021388751
,,,3.6E-07,0.021287501
,,,3.7E-07,0.021353126
,,,3.8E-07,0.021426876
,,,3.9E-07,0.021276251
,,,4E-07,0.021377501
,,,4.1E-07,0.021468126
,,,4.2E-07,0.021133751
,,,4.3E-07,0.021593751
,,,4.4E-07,0.021350001
,,,4.5E-07,0.021270626
,,,4.6E-07,0.021744376
,,,4.7E-07,0.021260626
,,,4.8E-07,0.021433751
,,,4.9E-07,0.021435626
,,,5E-07,0.021435626
,,,5.1E-07,0.021338126
,,,5.2E-07,0.021472501
,,,5.3E-07,0.021327501
,,,5.4E-07,0.021590001
,,,5.5E-07,0.021450001
,,,5.6E-07,0.021383751
,,,5.7E-07,0.021573751
,,,5.8E-07,0.021541876
,,,5.9E-07,0.021633126
,,,6E-07,0.021197501
,,,6.1E-07,0.021485001
,,,6.2E-07,0.021320001
,,,6.3E-07,0.021530001
,,,6.4E-07,0.021417501
,,,6.5E-07,0.021229376
,,,6.6E-07,0.021515001
,,,6.7E-07,0.021460626
,,,6.8E-07,0.021292501
,,,6.9E-07,0.021356251
,,,7E-07,0.021203126
,,,7.1E-07,0.021224376
,,,7.2E-07,0.021377501
,,,7.3E-07,0.021478126
,,,7.4E-07,0.021391876
,,,7.5E-07,0.021440001
,,,7.6E-07,0.021301876
,,,7.7E-07,0.021401251
,,,7.8E-07,0.021218751
,,,7.9E-07,0.021391251
,,,8E-07,0.021300001
,,,8.1E-07,0.021291251
,,,8.2E-07,0.021564376
,,,8.3E-07,0.021376251
,,,8.4E-07,0.021540626
,,,8.5E-07,0.021243126
,,,8.6E-07,0.021323751
,,,8.7E-07,0.021676251
,,,8.8E-07,0.021282501
,,,8.9E-07,0.021306876
,,,9E-07,0.021600001
,,,9.1E-07,0.021360001
,,,9.2E-07,0.021452501
,,,9.3E-07,0.021689376
,,,9.4E-07,0.021128126
,,,9.5E-07,0.021452501
,,,9.6E-07,0.021391251
,,,9.7E-07,0.021496876
,,,9.8E-07,0.021549376
,,,9.9E-07,0.021625001
,,,1E-06,0.021293751
,,,1.01E-06,0.021379376
,,,1.02E-06,0.021305001
,,,1.03E-06,0.021413751
,,,1.04E-06,0.021436251
,,,1.05E-06,0.021378126
,,,1.06E-06,0.021630626
,,,1.07E-06,0.021251251
,,,1.08E-06,0.021576876
,,,1.09E-06,0.021346251
,,,1.1E-06,0.021289376
,,,1.11E-06,0.021490626
,,,1.12E-06,0.021186876
,,,1.13E-06,0.021578751
,,,1.14E-06,0.021431876
,,,1.15E-06,0.021498126
,,,1.16E-06,0.021490001
,,,1.17E-06,0.021353751
,,,1.18E-06,0.021320001
,,,1.19E-06,0.021265626
,,,1.2E-06,0.021345626
,,,1.21E-06,0.021434376
,,,1.22E-06,0.021530626
,,,1.23E-06,0.021596876
,,,1.24E-06,0.021541876
,,,1.25E-06,0.021532501
,,,1.26E-06,0.021381251
,,,1.27E-06,0.021423126
,,,1.28E-06,0.021502501
,,,1.29E-06,0.021455626
,,,1.3E-06,0.021381876
,,,1.31E-06,0.021691876
,,,1.32E-06,0.021206876
,,,1.33E-06,0.021733126
,,,1.34E-06,0.021340001
,,,1.35E-06,0.021395626
,,,1.36E-06,0.021259376
,,,1.37E-06,0.021332501
,,,1.38E-06,0.021614376
,,,1.39E-06,0.021544376
,,,1.4E-06,0.021463751
,,,1.41E-06,0.021631876
,,,1.42E-06,0.021398751
,,,1.43E-06,0.021455626
,,,1.44E-06,0.021115626
,,,1.45E-06,0.021681876
,,,1.46E-06,0.021522501
,,,1.47E-06,0.021443126
,,,1.48E-06,0.021401251
,,,1.49E-06,0.021342501
,,,1.5E-06,0.021386251
,,,1.51E-06,0.021544376
,,,1.52E-06,0.021281251
,,,1.53E-06,0.021465626
,,,1.54E-06,0.021306251
,,,1.55E-06,0.021406251
,,,1.56E-06,0.021333126
,,,1.57E-06,0.021450001
,,,1.58E-06,0.021336251
,,,1.59E-06,0.021428751
,,,1.6E-06,0.021660001
,,,1.61E-06,0.021589376
,,,1.62E-06,0.021283751
,,,1.63E-06,0.021380001
,,,1.64E-06,0.021533126
,,,1.65E-06,0.021556251
,,,1.66E-06,0.021326876
,,,1.67E-06,0.021609376
,,,1.68E-06,0.021473126
,,,1.69E-06,0.021293126
,,,1.7E-06,0.021280001
,,,1.71E-06,0.021481876
,,,1.72E-06,0.021276251
,,,1.73E-06,0.021677501
,,,1.74E-06,0.021381251
,,,1.75E-06,0.021560626
,,,1.76E-06,0.021378126
,,,1.77E-06,0.021419376
,,,1.78E-06,0.021305626
,,,1.79E-06,0.021558126
,,,1.8E-06,0.021328751
,,,1.81E-06,0.021475626
,,,1.82E-06,0.021589376
,,,1.83E-06,0.021413751
,,,1.84E-06,0.021449376
,,,1.85E-06,0.021313751
,,,1.86E-06,0.021526876
,,,1.87E-06,0.021583751
,,,1.88E-06,0.021359376
,,,1.89E-06,0.021714376
,,,1.9E-06,0.021495001
,,,1.91E-06,0.021296251
,,,1.92E-06,0.021383751
,,,1.93E-06,0.021468126
,,,1.94E-06,0.021333126
,,,1.95E-06,0.021440001
,,,1.96E-06,0.021288126
,,,1.97E-06,0.021686876
,,,1.98E-06,0.021501251
,,,1.99E-06,0.021572501
,,,2E-06,0.021383126
,,,2.01E-06,0.021436251
,,,2.02E-06,0.021380626
,,,2.03E-06,0.021403751
,,,2.04E-06,0.021357501
,,,2.05E-06,0.021491876
,,,2.06E-06,0.021350626
,,,2.07E-06,0.021606876
,,,2.08E-06,0.021510626
,,,2.09E-06,0.021340001
,,,2.1E-06,0.021490626
,,,2.11E-06,0.021301876
,,,2.12E-06,0.021740001
,,,2.13E-06,0.021461876
,,,2.14E-06,0.021643751
,,,2.15E-06,0.021278126
,,,2.16E-06,0.021636251
,,,2.17E-06,0.021674376
,,,2.18E-06,0.021525626
,,,2.19E-06,0.020898126
,,,2.2E-06,0.021414376
,,,2.21E-06,0.021458126
,,,2.22E-06,0.021460626
,,,2.23E-06,0.021379376
,,,2.24E-06,0.021586876
,,,2.25E-06,0.021353751
,,,2.26E-06,0.021331876
,,,2.27E-06,0.021700001
,,,2.28E-06,0.021521251
,,,2.29E-06,0.021258126
,,,2.3E-06,0.021363751
,,,2.31E-06,0.021513126
,,,2.32E-06,0.021136251
,,,2.33E-06,0.021626251
,,,2.34E-06,0.021640626
,,,2.35E-06,0.021283751
,,,2.36E-06,0.021698126
,,,2.37E-06,0.021290001
,,,2.38E-06,0.021722501
,,,2.39E-06,0.021451876
,,,2.4E-06,0.021326251
,,,2.41E-06,0.021471251
,,,2.42E-06,0.021584376
,,,2.43E-06,0.021486251
,,,2.44E-06,0.021371251
,,,2.45E-06,0.021411876
,,,2.46E-06,0.021432501
,,,2.47E-06,0.021436251
,,,2.48E-06,0.021458751
,,,2.49E-06,0.021425626
,,,2.5E-06,0.021502501
,,,2.51E-06,0.021475001
,,,2.52E-06,0.021423751
,,,2.53E-06,0.021178751
,,,2.54E-06,0.021270626
,,,2.55E-06,0.021391876
,,,2.56E-06,0.021510626
,,,2.57E-06,0.021313126
,,,2.58E-06,0.021420001
,,,2.59E-06,0.021464376
,,,2.6E-06,0.021437501
,,,2.61E-06,0.021519376
,,,2.62E-06,0.021505001
,,,2.63E-06,0.021473126
,,,2.64E-06,0.021375626
,,,2.65E-06,0.021628751
,,,2.66E-06,0.021518126
,,,2.67E-06,0.021566876
,,,2.68E-06,0.021195001
,,,2.69E-06,0.021142501
,,,2.7E-06,0.021333751
,,,2.71E-06,0.021177501
,,,2.72E-06,0.021455001
,,,2.73E-06,0.021500001
,,,2.74E-06,0.021437501
,,,2.75E-06,0.021428126
,,,2.76E-06,0.021338751
,,,2.77E-06,0.021280001
,,,2.78E-06,0.021412501
,,,2.79E-06,0.021368126
,,,2.8E-06,0.021369376
,,,2.81E-06,0.021493751
,,,2.82E-06,0.021212501
,,,2.83E-06,0.021417501
,,,2.84E-06,0.021193751
,,,2.85E-06,0.021301876
,,,2.86E-06,0.021390001
,,,2.87E-06,0.021568751
,,,2.88E-06,0.021490626
,,,2.89E-06,0.021358126
,,,2.9E-06,0.021509376
,,,2.91E-06,0.021266251
,,,2.92E-06,0.021338126
,,,2.93E-06,0.021378126
,,,2.94E-06,0.021536876
,,,2.95E-06,0.021514376
,,,2.96E-06,0.021319376
,,,2.97E-06,0.021446251
,,,2.98E-06,0.021585001
,,,2.99E-06,0.021368751
,,,3E-06,0.021426251
,,,3.01E-06,0.021414376
,,,3.02E-06,0.021682501
,,,3.03E-06,0.021688751
,,,3.04E-06,0.021423126
,,,3.05E-06,0.021464376
,,,3.06E-06,0.021630626
,,,3.07E-06,0.021306251
,,,3.08E-06,0.021160001
,,,3.09E-06,0.021457501
,,,3.1E-06,0.021571251
,,,3.11E-06,0.021437501
,,,3.12E-06,0.021338751
,,,3.13E-06,0.021618126
,,,3.14E-06,0.021586251
,,,3.15E-06,0.021465626
,,,3.16E-06,0.021584376
,,,3.17E-06,0.021373126
,,,3.18E-06,0.021215626
,,,3.19E-06,0.021332501
,,,3.2E-06,0.021514376
,,,3.21E-06,0.021683751
