data/raw/Final_POL_Test_1/SOP020_Ch2.csv

"Record Length",1000,"Points",-5E-06,0.023863125
"Sample Interval",1E-08,s,-4.99E-06,0.02396
"Trigger Point",500,"Samples",-4.98E-06,0.023729375
"Trigger Time",0,s,-4.97E-06,0.02395875
"",,,-4.96E-06,0.024205625
"Horizontal Offset",-5E-06,s,-4.95E-06,0.023791875
,,,-4.94E-06,0.023938125
,,,-4.93E-06,0.02356375
,,,-4.92E-06,0.023760625
,,,-4.91E-06,0.02367
,,,-4.9E-06,0.02373875
,,,-4.89E-06,0.02387875
,,,-4.88E-06,0.02404875
,,,-4.87E-06,0.024151875
,,,-4.86E-06,0.024003125
,,,-4.85E-06,0.02390625
,,,-4.84E-06,0.02392625
,,,-4.83E-06,0.0237475
,,,-4.82E-06,0.024074375
,,,-4.81E-06,0.023859375
,,,-4.8E-06,0.02400875
,,,-4.79E-06,0.0238775
,,,-4.78E-06,0.02382125
,,,-4.77E-06,0.023969375
,,,-4.76E-06,0.023770625
,,,-4.75E-06,0.024034375
,,,-4.74E-06,0.0238125
,,,-4.73E-06,0.023675
,,,-4.72E-06,0.02387
,,,-4.71E-06,0.023780625
,,,-4.7E-06,0.023985625
,,,-4.69E-06,0.023781875
,,,-4.68E-06,0.023546875
,,,-4.67E-06,0.0238075
,,,-4.66E-06,0.024013125
,,,-4.65E-06,0.02398
,,,-4.64E-06,0.02378625
,,,-4.63E-06,0.024216875
,,,-4.62E-06,0.0241825
,,,-4.61E-06,0.023969375
,,,-4.6E-06,0.023878125
,,,-4.59E-06,0.0239475
,,,-4.58E-06,0.023884375
,,,-4.57E-06,0.02362125
,,,-4.56E-06,0.023893125
,,,-4.55E-06,0.0236525
,,,-4.54E-06,0.02409375
,,,-4.53E-06,0.02390625
,,,-4.52E-06,0.02369875
,,,-4.51E-06,0.0237425
,,,-4.5E-06,0.02389
,,,-4.49E-06,0.023990625
,,,-4.48E-06,0.023854375
,,,-4.47E-06,0.02383625
,,,-4.46E-06,0.02391875
,,,-4.45E-06,0.023853125
,,,-4.44E-06,0.0238325
,,,-4.43E-06,0.02402875
,,,-4.42E-06,0.023790625
,,,-4.41E-06,0.0235725
,,,-4.4E-06,0.0239075
,,,-4.39E-06,0.023760625
,,,-4.38E-06,0.0239075
,,,-4.37E-06,0.02358625
,,,-4.36E-06,0.02377
,,,-4.35E-06,0.02363375
,,,-4.34E-06,0.023841875
,,,-4.33E-06,0.023853125
,,,-4.32E-06,0.02373625
,,,-4.31E-06,0.0238575
,,,-4.3E-06,0.023818125
,,,-4.29E-06,0.023645
,,,-4.28E-06,0.02382875
,,,-4.27E-06,0.02402375
,,,-4.26E-06,0.023935625
,,,-4.25E-06,0.023835
,,,-4.24E-06,0.023739375
,,,-4.23E-06,0.02407625
,,,-4.22E-06,0.02367875
,,,-4.21E-06,0.024016875
,,,-4.2E-06,0.023773125
,,,-4.19E-06,0.02384375
,,,-4.18E-06,0.0240175
,,,-4.17E-06,0.023841875
,,,-4.16E-06,0.02381875
,,,-4.15E-06,0.023983125
,,,-4.14E-06,0.02400625
,,,-4.13E-06,0.02400625
,,,-4.12E-06,0.0236875
,,,-4.11E-06,0.024018125
,,,-4.1E-06,0.02379
,,,-4.09E-06,0.023739375
,,,-4.08E-06,0.023854375
,,,-4.07E-06,0.02372375
,,,-4.06E-06,0.0239875
,,,-4.05E-06,0.02396625
,,,-4.04E-06,0.023568125
,,,-4.03E-06,0.0239225
,,,-4.02E-06,0.02391375
,,,-4.01E-06,0.02396625
,,,-4E-06,0.024086875
,,,-3.99E-06,0.023809375
,,,-3.98E-06,0.023661875
,,,-3.97E-06,0.0237
,,,-3.96E-06,0.02400625
,,,-3.95E-06,0.02404625
,,,-3.94E-06,0.02374625
,,,-3.93E-06,0.023919375
,,,-3.92E-06,0.02380375
,,,-3.91E-06,0.02379625
,,,-3.9E-06,0.02393875
,,,-3.89E-06,0.024023125
,,,-3.88E-06,0.0236575
,,,-3.87E-06,0.0238825
,,,-3.86E-06,0.02359875
,,,-3.85E-06,0.023748125
,,,-3.84E-06,0.02389125
,,,-3.83E-06,0.023846875
,,,-3.82E-06,0.0240025
,,,-3.81E-06,0.023641875
,,,-3.8E-06,0.024053125
,,,-3.79E-06,0.023855
,,,-3.78E-06,0.02364875
,,,-3.77E-06,0.0240125
,,,-3.76E-06,0.023741875
,,,-3.75E-06,0.02395375
,,,-3.74E-06,0.0238525
,,,-3.73E-06,0.02387875
,,,-3.72E-06,0.023878125
,,,-3.71E-06,0.02372125
,,,-3.7E-06,0.023689375
,,,-3.69E-06,0.023945625
,,,-3.68E-06,0.0237325
,,,-3.67E-06,0.02392125
,,,-3.66E-06,0.023775
,,,-3.65E-06,0.023924375
,,,-3.64E-06,0.023781875
,,,-3.63E-06,0.023895625
,,,-3.62E-06,0.024034375
,,,-3.61E-06,0.02393375
,,,-3.6E-06,0.02375875
,,,-3.59E-06,0.023650625
,,,-3.58E-06,0.023784375
,,,-3.57E-06,0.0241375
,,,-3.56E-06,0.02399
,,,-3.55E-06,0.02405125
,,,-3.54E-06,0.023785625
,,,-3.53E-06,0.023838125
,,,-3.52E-06,0.0238525
,,,-3.51E-06,0.0236525
,,,-3.5E-06,0.023783125
,,,-3.49E-06,0.023903125
,,,-3.48E-06,0.0237725
,,,-3.47E-06,0.02384
,,,-3.46E-06,0.0237175
,,,-3.45E-06,0.023798125
,,,-3.44E-06,0.02403375
,,,-3.43E-06,0.0239075
,,,-3.42E-06,0.0239275
,,,-3.41E-06,0.023805
,,,-3.4E-06,0.023909375
,,,-3.39E-06,0.023909375
,,,-3.38E-06,0.02379375
,,,-3.37E-06,0.024021875
,,,-3.36E-06,0.023878125
,,,-3.35E-06,0.023939375
,,,-3.34E-06,0.023898125
,,,-3.33E-06,0.02383
,,,-3.32E-06,0.023863125
,,,-3.31E-06,0.02391875
,,,-3.3E-06,0.02386625
,,,-3.29E-06,0.023995
,,,-3.28E-06,0.0240375
,,,-3.27E-06,0.0240025
,,,-3.26E-06,0.023601875
,,,-3.25E-06,0.023903125
,,,-3.24E-06,0.023911875
,,,-3.23E-06,0.02366
,,,-3.22E-06,0.024101875
,,,-3.21E-06,0.0235375
,,,-3.2E-06,0.023809375
,,,-3.19E-06,0.02375125
,,,-3.18E-06,0.0238875
,,,-3.17E-06,0.023945
,,,-3.16E-06,0.0237425
,,,-3.15E-06,0.023590625
,,,-3.14E-06,0.024015
,,,-3.13E-06,0.0239075
,,,-3.12E-06,0.02388875
,,,-3.11E-06,0.023913125
,,,-3.1E-06,0.023755625
,,,-3.09E-06,0.023914375
,,,-3.08E-06,0.024023125
,,,-3.07E-06,0.023895625
,,,-3.06E-06,0.023953125
,,,-3.05E-06,0.023879375
,,,-3.04E-06,0.024155625
,,,-3.03E-06,0.023795
,,,-3.02E-06,0.02406125
,,,-3.01E-06,0.023765625
,,,-3E-06,0.023879375
,,,-2.99E-06,0.024021875
,,,-2.98E-06,0.023828125
,,,-2.97E-06,0.023871875
,,,-2.96E-06,0.023971875
,,,-2.95E-06,0.023878125
,,,-2.94E-06,0.023931875
,,,-2.93E-06,0.023581875
,,,-2.92E-06,0.023821875
,,,-2.91E-06,0.0242225
,,,-2.9E-06,0.023855625
,,,-2.89E-06,0.023973125
,,,-2.88E-06,0.02372875
,,,-2.87E-06,0.023793125
,,,-2.86E-06,0.024083125
,,,-2.85E-06,0.023789375
,,,-2.84E-06,0.02406875
,,,-2.83E-06,0.023775625
,,,-2.82E-06,0.023775625
,,,-2.81E-06,0.02390875
,,,-2.8E-06,0.024138125
,,,-2.79E-06,0.024105
,,,-2.78E-06,0.023838125
,,,-2.77E-06,0.023946875
,,,-2.76E-06,0.023943125
,,,-2.75E-06,0.02382125
,,,-2.74E-06,0.024168125
,,,-2.73E-06,0.024089375
,,,-2.72E-06,0.024043125
,,,-2.71E-06,0.0237
,,,-2.7E-06,0.02381125
,,,-2.69E-06,0.02386875
,,,-2.68E-06,0.02382875
,,,-2.67E-06,0.02389625
,,,-2.66E-06,0.0240075
,,,-2.65E-06,0.023824375
,,,-2.64E-06,0.02386375
,,,-2.63E-06,0.023625625
,,,-2.62E-06,0.02365625
,,,-2.61E-06,0.023828125
,,,-2.6E-06,0.023688125
,,,-2.59E-06,0.024065
,,,-2.58E-06,0.023798125
,,,-2.57E-06,0.023979375
,,,-2.56E-06,0.023850625
,,,-2.55E-06,0.0238625
,,,-2.54E-06,0.023783125
,,,-2.53E-06,0.02398
,,,-2.52E-06,0.023625
,,,-2.51E-06,0.023868125
,,,-2.5E-06,0.0237825
,,,-2.49E-06,0.02408375
,,,-2.48E-06,0.02364125
,,,-2.47E-06,0.023993125
,,,-2.46E-06,0.02392875
,,,-2.45E-06,0.0240525
,,,-2.44E-06,0.023798125
,,,-2.43E-06,0.023893125
,,,-2.42E-06,0.023949375
,,,-2.41E-06,0.023979375
,,,-2.4E-06,0.02380625
,,,-2.39E-06,0.02389625
,,,-2.38E-06,0.02366
,,,-2.37E-06,0.02403
,,,-2.36E-06,0.023890625
,,,-2.35E-06,0.023845
,,,-2.34E-06,0.02383625
,,,-2.33E-06,0.023940625
,,,-2.32E-06,0.023859375
,,,-2.31E-06,0.023823125
,,,-2.3E-06,0.0236625
,,,-2.29E-06,0.02363
,,,-2.28E-06,0.02369625
,,,-2.27E-06,0.02409875
,,,-2.26E-06,0.023921875
,,,-2.25E-06,0.0237325
,,,-2.24E-06,0.023953125
,,,-2.23E-06,0.0239425
,,,-2.22E-06,0.024035
,,,-2.21E-06,0.024045
,,,-2.2E-06,0.0238225
,,,-2.19E-06,0.023921875
,,,-2.18E-06,0.023974375
,,,-2.17E-06,0.02398125
,,,-2.16E-06,0.02387
,,,-2.15E-06,0.02362
,,,-2.14E-06,0.0239825
,,,-2.13E-06,0.02387375
,,,-2.12E-06,0.02393625
,,,-2.11E-06,0.02386125
,,,-2.1E-06,0.023868125
,,,-2.09E-06,0.02401875
,,,-2.08E-06,0.024195
,,,-2.07E-06,0.024114375
,,,-2.06E-06,0.023918125
,,,-2.05E-06,0.02388875
,,,-2.04E-06,0.02374125
,,,-2.03E-06,0.02377125
,,,-2.02E-06,0.02389625
,,,-2.01E-06,0.02391875
,,,-2E-06,0.023656875
,,,-1.99E-06,0.024034375
,,,-1.98E-06,0.02385625
,,,-1.97E-06,0.02387875
,,,-1.96E-06,0.023903125
,,,-1.95E-06,0.02375875
,,,-1.94E-06,0.023853125
,,,-1.93E-06,0.02381875
,,,-1.92E-06,0.0241
,,,-1.91E-06,0.023850625
,,,-1.9E-06,0.02396875
,,,-1.89E-06,0.023821875
,,,-1.88E-06,0.023505
,,,-1.87E-06,0.023775
,,,-1.86E-06,0.023875625
,,,-1.85E-06,0.023814375
,,,-1.84E-06,0.02391
,,,-1.83E-06,0.024005625
,,,-1.82E-06,0.023909375
,,,-1.81E-06,0.023765625
,,,-1.8E-06,0.0238275
,,,-1.79E-06,0.0239275
,,,-1.78E-06,0.0238825
,,,-1.77E-06,0.02394
,,,-1.76E-06,0.0235225
,,,-1.75E-06,0.024201875
,,,-1.74E-06,0.02395375
,,,-1.73E-06,0.02379125
,,,-1.72E-06,0.023853125
,,,-1.71E-06,0.0239725
,,,-1.7E-06,0.02397375
,,,-1.69E-06,0.02404375
,,,-1.68E-06,0.0238575
,,,-1.67E-06,0.0238525
,,,-1.66E-06,0.023784375
,,,-1.65E-06,0.0239475
,,,-1.64E-06,0.023943125
,,,-1.63E-06,0.023576875
,,,-1.62E-06,0.0235425
,,,-1.61E-06,0.023975625
,,,-1.6E-06,0.02408625
,,,-1.59E-06,0.02403375
,,,-1.58E-06,0.02395
,,,-1.57E-06,0.0239125
,,,-1.56E-06,0.023866875
,,,-1.55E-06,0.0240275
,,,-1.54E-06,0.02360125
,,,-1.53E-06,0.023891875
,,,-1.52E-06,0.023643125
,,,-1.51E-06,0.023671875
,,,-1.5E-06,0.02384125
,,,-1.49E-06,0.023958125
,,,-1.48E-06,0.0241775
,,,-1.47E-06,0.023975625
,,,-1.46E-06,0.023719375
,,,-1.45E-06,0.0237325
,,,-1.44E-06,0.02376375
,,,-1.43E-06,0.023834375
,,,-1.42E-06,0.023844375
,,,-1.41E-06,0.023965
,,,-1.4E-06,0.0238225
,,,-1.39E-06,0.02375625
,,,-1.38E-06,0.024135625
,,,-1.37E-06,0.0238975
,,,-1.36E-06,0.024049375
,,,-1.35E-06,0.0236375
,,,-1.34E-06,0.0238925
,,,-1.33E-06,0.02373875
,,,-1.32E-06,0.02400875
,,,-1.31E-06,0.02372875
,,,-1.3E-06,0.02385375
,,,-1.29E-06,0.023954375
,,,-1.28E-06,0.02374875
,,,-1.27E-06,0.023691875
,,,-1.26E-06,0.023808125
,,,-1.25E-06,0.023819375
,,,-1.24E-06,0.023704375
,,,-1.23E-06,0.02356125
,,,-1.22E-06,0.02374625
,,,-1.21E-06,0.023768125
,,,-1.2E-06,0.023906875
,,,-1.19E-06,0.023959375
,,,-1.18E-06,0.023839375
,,,-1.17E-06,0.02399625
,,,-1.16E-06,0.02364375
,,,-1.15E-06,0.0238725
,,,-1.14E-06,0.023679375
,,,-1.13E-06,0.02373
,,,-1.12E-06,0.023856875
,,,-1.11E-06,0.02385875
,,,-1.1E-06,0.02369375
,,,-1.09E-06,0.0241325
,,,-1.08E-06,0.02380625
,,,-1.07E-06,0.02394375
,,,-1.06E-06,0.023760625
,,,-1.05E-06,0.023915
,,,-1.04E-06,0.023768125
,,,-1.03E-06,0.023723125
,,,-1.02E-06,0.023905625
,,,-1.01E-06,0.02395375
,,,-1E-06,0.024086875
,,,-9.9E-07,0.0240225
,,,-9.8E-07,0.02393
,,,-9.7E-07,0.023936875
,,,-9.6E-07,0.024038125
,,,-9.5E-07,0.024145625
,,,-9.4E-07,0.023951875
,,,-9.3E-07,0.023800625
,,,-9.2E-07,0.02391
,,,-9.1E-07,0.0238475
,,,-9E-07,0.023805
,,,-8.9E-07,0.02384
,,,-8.8E-07,0.023615
,,,-8.7E-07,0.02427
,,,-8.6E-07,0.023895625
,,,-8.5E-07,0.023734375
,,,-8.4E-07,0.0235225
,,,-8.3E-07,0.02395
,,,-8.2E-07,0.023795
,,,-8.1E-07,0.02371125
,,,-8E-07,0.02382125
,,,-7.9E-07,0.023669375
,,,-7.8E-07,0.024000625
,,,-7.7E-07,0.0237675
,,,-7.6E-07,0.02402625
,,,-7.5E-07,0.023884375
,,,-7.4E-07,0.023830625
,,,-7.3E-07,0.023716875
,,,-7.2E-07,0.023806875
,,,-7.1E-07,0.0238275
,,,-7E-07,0.023655625
,,,-6.9E-07,0.02401
,,,-6.8E-07,0.02407625
,,,-6.7E-07,0.023915625
,,,-6.6E-07,0.02401125
,,,-6.5E-07,0.0235225
,,,-6.4E-07,0.02362625
,,,-6.3E-07,0.023705
,,,-6.2E-07,0.023929375
,,,-6.1E-07,0.024020625
,,,-6E-07,0.023925
,,,-5.9E-07,0.024016875
,,,-5.8E-07,0.02397125
,,,-5.7E-07,0.023903125
,,,-5.6E-07,0.0237275
,,,-5.5E-07,0.02373625
,,,-5.4E-07,0.0241425
,,,-5.3E-07,0.0240275
,,,-5.2E-07,0.02371875
,,,-5.1E-07,0.023764375
,,,-5E-07,0.0237425
,,,-4.9E-07,0.0239025
,,,-4.8E-07,0.023708125
,,,-4.7E-07,0.02367875
,,,-4.6E-07,0.0239775
,,,-4.5E-07,0.023914375
,,,-4.4E-07,0.023873125
,,,-4.3E-07,0.0239075
,,,-4.2E-07,0.023756875
,,,-4.1E-07,0.023939375
,,,-4E-07,0.023860625
,,,-3.9E-07,0.023563125
,,,-3.8E-07,0.023859375
,,,-3.7E-07,0.02376
,,,-3.6E-07,0.0236725
,,,-3.5E-07,0.0238625
,,,-3.4E-07,0.024035625
,,,-3.3E-07,0.023623125
,,,-3.2E-07,0.02380125
,,,-3.1E-07,0.02381625
,,,-3E-07,0.023956875
,,,-2.9E-07,0.023985625
,,,-2.8E-07,0.023725
,,,-2.7E-07,0.02381625
,,,-2.6E-07,0.023888125
,,,-2.5E-07,0.023815
,,,-2.4E-07,0.023709375
,,,-2.3E-07,0.023728125
,,,-2.2E-07,0.023700625
,,,-2.1E-07,0.02372
,,,-2E-07,0.023815
,,,-1.9E-07,0.023905
,,,-1.8E-07,0.023891875
,,,-1.7E-07,0.023643125
,,,-1.6E-07,0.02382375
,,,-1.5E-07,0.023743125
,,,-1.4E-07,0.023855625
,,,-1.3E-07,0.024295
,,,-1.2E-07,0.023590625
,,,-1.1E-07,0.023660625
,,,-1E-07,0.023884375
,,,-9E-08,0.0237875
,,,-8E-08,0.02386625
,,,-7E-08,0.023854375
,,,-6E-08,0.02366375
,,,-5E-08,0.023911875
,,,-4E-08,0.02400125
,,,-3E-08,0.02367
,,,-2E-08,0.024110625
,,,-1E-08,0.02376875
,,,0,0.023375625
,,,1E-08,0.024131875
,,,2E-08,0.02378125
,,,3E-08,0.024031875
,,,4E-08,0.0236575
,,,5E-08,0.024426875
,,,6E-08,0.023685625
,,,7E-08,0.024014375
,,,8E-08,0.0237325
,,,9E-08,0.023755625
,,,1E-07,0.02385625
,,,1.1E-07,0.02381375
,,,1.2E-07,0.024095
,,,1.3E-07,0.02388125
,,,1.4E-07,0.023911875
,,,1.5E-07,0.023913125
,,,1.6E-07,0.023940625
,,,1.7E-07,0.023704375
,,,1.8E-07,0.0241475
,,,1.9E-07,0.024135625
,,,2E-07,0.02385375
,,,2.1E-07,0.023814375
,,,2.2E-07,0.023955625
,,,2.3E-07,0.024036875
,,,2.4E-07,0.0237375
,,,2.5E-07,0.0238825
,,,2.6E-07,0.023689375
,,,2.7E-07,0.023790625
,,,2.8E-07,0.023644375
,,,2.9E-07,0.023880625
,,,3E-07,0.02377125
,,,3.1E-07,0.02391
,,,3.2E-07,0.02372375
,,,3.3E-07,0.023844375
,,,3.4E-07,0.02367375
,,,3.5E-07,0.023895
,,,3.6E-07,0.023833125
,,,3.7E-07,0.023528125
,,,3.8E-07,0.023851875
,,,3.9E-07,0.023893125
,,,4E-07,0.02382
,,,4.1E-07,0.023883125
,,,4.2E-07,0.023656875
,,,4.3E-07,0.02399875
,,,4.4E-07,0.023868125
,,,4.5E-07,0.024216875
,,,4.6E-07,0.023969375
,,,4.7E-07,0.0240025
,,,4.8E-07,0.023978125
,,,4.9E-07,0.02390125
,,,5E-07,0.023854375
,,,5.1E-07,0.02382875
,,,5.2E-07,0.023925625
,,,5.3E-07,0.0239325
,,,5.4E-07,0.0241125
,,,5.5E-07,0.0239975
,,,5.6E-07,0.02398
,,,5.7E-07,0.023909375
,,,5.8E-07,0.023828125
,,,5.9E-07,0.023944375
,,,6E-07,0.02370375
,,,6.1E-07,0.023829375
,,,6.2E-07,0.023674375
,,,6.3E-07,0.02390125
,,,6.4E-07,0.024069375
,,,6.5E-07,0.02372125
,,,6.6E-07,0.024025
,,,6.7E-07,0.02393125
,,,6.8E-07,0.023628125
,,,6.9E-07,0.023725
,,,7E-07,0.024120625
,,,7.1E-07,0.02394375
,,,7.2E-07,0.0240125
,,,7.3E-07,0.024150625
,,,7.4E-07,0.02385125
,,,7.5E-07,0.024085625
,,,7.6E-07,0.0237825
,,,7.7E-07,0.02402
,,,7.8E-07,0.023955625
,,,7.9E-07,0.024069375
,,,8E-07,0.024099375
,,,8.1E-07,0.02378375
,,,8.2E-07,0.023721875
,,,8.3E-07,0.024065
,,,8.4E-07,0.023949375
,,,8.5E-07,0.024078125
,,,8.6E-07,0.02381125
,,,8.7E-07,0.024135
,,,8.8E-07,0.023824375
,,,8.9E-07,0.023806875
,,,9E-07,0.023915
,,,9.1E-07,0.024050625
,,,9.2E-07,0.02388375
,,,9.3E-07,0.02376375
,,,9.4E-07,0.024034375
,,,9.5E-07,0.02397
,,,9.6E-07,0.023956875
,,,9.7E-07,0.02393625
,,,9.8E-07,0.02385875
,,,9.9E-07,0.0238125
,,,1E-06,0.023850625
,,,1.01E-06,0.023773125
,,,1.02E-06,0.023921875
,,,1.03E-06,0.02396125
,,,1.04E-06,0.023849375
,,,1.05E-06,0.023781875
,,,1.06E-06,0.024085625
,,,1.07E-06,0.02403375
,,,1.08E-06,0.023813125
,,,1.09E-06,0.023838125
,,,1.1E-06,0.024070625
,,,1.11E-06,0.023864375
,,,1.12E-06,0.02416625
,,,1.13E-06,0.02367375
,,,1.14E-06,0.023975
,,,1.15E-06,0.024006875
,,,1.16E-06,0.02384
,,,1.17E-06,0.023983125
,,,1.18E-06,0.02403
,,,1.19E-06,0.023753125
,,,1.2E-06,0.024086875
,,,1.21E-06,0.023745
,,,1.22E-06,0.02408375
,,,1.23E-06,0.023970625
,,,1.24E-06,0.023885
,,,1.25E-06,0.023938125
,,,1.26E-06,0.023745
,,,1.27E-06,0.02389
,,,1.28E-06,0.02385625
,,,1.29E-06,0.023756875
,,,1.3E-06,0.023930625
,,,1.31E-06,0.023805
,,,1.32E-06,0.024084375
,,,1.33E-06,0.023896875
,,,1.34E-06,0.0238425
,,,1.35E-06,0.023815
,,,1.36E-06,0.0237
,,,1.37E-06,0.023966875
,,,1.38E-06,0.02354125
,,,1.39E-06,0.023871875
,,,1.4E-06,0.023650625
,,,1.41E-06,0.023975
,,,1.42E-06,0.024085625
,,,1.43E-06,0.023859375
,,,1.44E-06,0.023725625
,,,1.45E-06,0.023861875
,,,1.46E-06,0.0240475
,,,1.47E-06,0.0236825
,,,1.48E-06,0.02390875
,,,1.49E-06,0.024185625
,,,1.5E-06,0.023768125
,,,1.51E-06,0.023908125
,,,1.52E-06,0.024076875
,,,1.53E-06,0.0237225
,,,1.54E-06,0.023703125
,,,1.55E-06,0.023885625
,,,1.56E-06,0.02382625
,,,1.57E-06,0.024006875
,,,1.58E-06,0.023929375
,,,1.59E-06,0.02385125
,,,1.6E-06,0.0238575
,,,1.61E-06,0.02406875
,,,1.62E-06,0.023744375
,,,1.63E-06,0.02381375
,,,1.64E-06,0.02368875
,,,1.65E-06,0.023689375
,,,1.66E-06,0.023926875
,,,1.67E-06,0.02381875
,,,1.68E-06,0.023466875
,,,1.69E-06,0.023633125
,,,1.7E-06,0.023884375
,,,1.71E-06,0.02382
,,,1.72E-06,0.023830625
,,,1.73E-06,0.024029375
,,,1.74E-06,0.02366875
,,,1.75E-06,0.023925625
,,,1.76E-06,0.023981875
,,,1.77E-06,0.0237625
,,,1.78E-06,0.023908125
,,,1.79E-06,0.023993125
,,,1.8E-06,0.023816875
,,,1.81E-06,0.023815625
,,,1.82E-06,0.023953125
,,,1.83E-06,0.023894375
,,,1.84E-06,0.024115
,,,1.85E-06,0.02379125
,,,1.86E-06,0.023878125
,,,1.87E-06,0.02406
,,,1.88E-06,0.023966875
,,,1.89E-06,0.02387875
,,,1.9E-06,0.023865625
,,,1.91E-06,0.0238925
,,,1.92E-06,0.0242
,,,1.93E-06,0.0239075
,,,1.94E-06,0.023960625
,,,1.95E-06,0.02402
,,,1.96E-06,0.02368625
,,,1.97E-06,0.023518125
,,,1.98E-06,0.02391
,,,1.99E-06,0.0239425
,,,2E-06,0.0239325
,,,2.01E-06,0.0238025
,,,2.02E-06,0.024005625
,,,2.03E-06,0.023866875
,,,2.04E-06,0.0238825
,,,2.05E-06,0.024074375
,,,2.06E-06,0.023635625
,,,2.07E-06,0.02388375
,,,2.08E-06,0.02381125
,,,2.09E-06,0.023690625
,,,2.1E-06,0.023881875
,,,2.11E-06,0.024130625
,,,2.12E-06,0.0238575
,,,2.13E-06,0.0237375
,,,2.14E-06,0.02392875
,,,2.15E-06,0.02405375
,,,2.16E-06,0.023791875
,,,2.17E-06,0.02374875
,,,2.18E-06,0.02383625
,,,2.19E-06,0.023885625
,,,2.2E-06,0.023914375
,,,2.21E-06,0.0239225
,,,2.22E-06,0.023676875
,,,2.23E-06,0.024133125
,,,2.24E-06,0.023935625
,,,2.25E-06,0.023926875
,,,2.26E-06,0.023994375
,,,2.27E-06,0.023783125
,,,2.28E-06,0.0238925
,,,2.29E-06,0.023950625
,,,2.3E-06,0.023859375
,,,2.31E-06,0.02378875
,,,2.32E-06,0.0237525
,,,2.33E-06,0.02404375
,,,2.34E-06,0.0239125
,,,2.35E-06,0.02376
,,,2.36E-06,0.023936875
,,,2.37E-06,0.023898125
,,,2.38E-06,0.0241675
,,,2.39E-06,0.02409375
,,,2.4E-06,0.02364375
,,,2.41E-06,0.023918125
,,,2.42E-06,0.023791875
,,,2.43E-06,0.023840625
,,,2.44E-06,0.02399625
,,,2.45E-06,0.023964375
,,,2.46E-06,0.02385625
,,,2.47E-06,0.023559375
,,,2.48E-06,0.024009375
,,,2.49E-06,0.02361375
,,,2.5E-06,0.023820625
,,,2.51E-06,0.024024375
,,,2.52E-06,0.024055625
,,,2.53E-06,0.02417625
,,,2.54E-06,0.0240775
,,,2.55E-06,0.023693125
,,,2.56E-06,0.023885
,,,2.57E-06,0.023916875
,,,2.58E-06,0.024063125
,,,2.59E-06,0.0238975
,,,2.6E-06,0.024000625
,,,2.61E-06,0.02372375
,,,2.62E-06,0.02399
,,,2.63E-06,0.02394625
,,,2.64E-06,0.0237075
,,,2.65E-06,0.023764375
,,,2.66E-06,0.0238025
,,,2.67E-06,0.02367625
,,,2.68E-06,0.02392625
,,,2.69E-06,0.023944375
,,,2.7E-06,0.02379
,,,2.71E-06,0.024063125
,,,2.72E-06,0.023908125
,,,2.73E-06,0.02367625
,,,2.74E-06,0.023728125
,,,2.75E-06,0.023938125
,,,2.76E-06,0.02393375
,,,2.77E-06,0.02396125
,,,2.78E-06,0.0237225
,,,2.79E-06,0.023915625
,,,2.8E-06,0.02373125
,,,2.81E-06,0.02380875
,,,2.82E-06,0.0238375
,,,2.83E-06,0.024040625
,,,2.84E-06,0.023794375
,,,2.85E-06,0.0239325
,,,2.86E-06,0.0239225
,,,2.87E-06,0.023969375
,,,2.88E-06,0.023981875
,,,2.89E-06,0.024039375
,,,2.9E-06,0.0238175
,,,2.91E-06,0.024113125
,,,2.92E-06,0.02393625
,,,2.93E-06,0.023729375
,,,2.94E-06,0.02386625
,,,2.95E-06,0.02392125
,,,2.96E-06,0.02412
,,,2.97E-06,0.023785
,,,2.98E-06,0.023814375
,,,2.99E-06,0.02365875
,,,3E-06,0.023896875
,,,3.01E-06,0.023960625
,,,3.02E-06,0.023765
,,,3.03E-06,0.0240925
,,,3.04E-06,0.0236725
,,,3.05E-06,0.024045
,,,3.06E-06,0.0238125
,,,3.07E-06,0.02386
,,,3.08E-06,0.0239975
,,,3.09E-06,0.023790625
,,,3.1E-06,0.02381875
,,,3.11E-06,0.02366
,,,3.12E-06,0.024023125
,,,3.13E-06,0.023828125
,,,3.14E-06,0.023824375
,,,3.15E-06,0.023726875
,,,3.16E-06,0.023556875
,,,3.17E-06,0.023801875
,,,3.18E-06,0.023953125
,,,3.19E-06,0.023873125
,,,3.2E-06,0.024000625
,,,3.21E-06,0.0239875
,,,3.22E-06,0.0239475
,,,3.23E-06,0.023908125
,,,3.24E-06,0.02394375
,,,3.25E-06,0.02382
,,,3.26E-06,0.02407
,,,3.27E-06,0.023891875
,,,3.28E-06,0.02386125
,,,3.29E-06,0.02377375
,,,3.3E-06,0.023945625
,,,3.31E-06,0.0240225
,,,3.32E-06,0.02381
,,,3.33E-06,0.02398875
,,,3.34E-06,0.02395875
,,,3.35E-06,0.023991875
,,,3.36E-06,0.023959375
,,,3.37E-06,0.02383875
,,,3.38E-06,0.02391
,,,3.39E-06,0.02378875
,,,3.4E-06,0.023939375
,,,3.41E-06,0.023758125
,,,3.42E-06,0.023816875
,,,3.43E-06,0.023695
,,,3.44E-06,0.02389125
,,,3.45E-06,0.023964375
,,,3.46E-06,0.023989375
,,,3.47E-06,0.024146875
,,,3.48E-06,0.023918125
,,,3.49E-06,0.023946875
,,,3.5E-06,0.02395
,,,3.51E-06,0.023736875
,,,3.52E-06,0.023968125
,,,3.53E-06,0.02403
,,,3.54E-06,0.02409875
,,,3.55E-06,0.02375625
,,,3.56E-06,0.024085
,,,3.57E-06,0.0238525
