data/raw/Final_POL_Test_1/SOP011_Ch4.csv

"Record Length",1000,"Points",-5E-06,0.0160325
"Sample Interval",1E-08,s,-4.99E-06,0.016116875
"Trigger Point",500,"Samples",-4.98E-06,0.015845625
"Trigger Time",0,s,-4.97E-06,0.0160325
"",,,-4.96E-06,0.01600125
"Horizontal Offset",-5E-06,s,-4.95E-06,0.0161275
,,,-4.94E-06,0.01591625
,,,-4.93E-06,0.0160825
,,,-4.92E-06,0.016026875
,,,-4.91E-06,0.015878125
,,,-4.9E-06,0.0159775
,,,-4.89E-06,0.01598125
,,,-4.88E-06,0.01584125
,,,-4.87E-06,0.0159675
,,,-4.86E-06,0.015636875
,,,-4.85E-06,0.015970625
,,,-4.84E-06,0.016055625
,,,-4.83E-06,0.01607875
,,,-4.82E-06,0.015975
,,,-4.81E-06,0.0161625
,,,-4.8E-06,0.015895
,,,-4.79E-06,0.01601
,,,-4.78E-06,0.0158475
,,,-4.77E-06,0.0160025
,,,-4.76E-06,0.01579375
,,,-4.75E-06,0.015730625
,,,-4.74E-06,0.016133125
,,,-4.73E-06,0.015788125
,,,-4.72E-06,0.01602625
,,,-4.71E-06,0.0159525
,,,-4.7E-06,0.015953125
,,,-4.69E-06,0.0156475
,,,-4.68E-06,0.015798125
,,,-4.67E-06,0.01586
,,,-4.66E-06,0.01585625
,,,-4.65E-06,0.0159625
,,,-4.64E-06,0.01593125
,,,-4.63E-06,0.01604125
,,,-4.62E-06,0.016050625
,,,-4.61E-06,0.015704375
,,,-4.6E-06,0.015871875
,,,-4.59E-06,0.01593125
,,,-4.58E-06,0.01589625
,,,-4.57E-06,0.0161475
,,,-4.56E-06,0.016065
,,,-4.55E-06,0.0161275
,,,-4.54E-06,0.016025625
,,,-4.53E-06,0.015819375
,,,-4.52E-06,0.015835625
,,,-4.51E-06,0.015975625
,,,-4.5E-06,0.016013125
,,,-4.49E-06,0.015956875
,,,-4.48E-06,0.01603375
,,,-4.47E-06,0.01609125
,,,-4.46E-06,0.016198125
,,,-4.45E-06,0.015615
,,,-4.44E-06,0.015856875
,,,-4.43E-06,0.015901875
,,,-4.42E-06,0.0160175
,,,-4.41E-06,0.016190625
,,,-4.4E-06,0.01627
,,,-4.39E-06,0.016175625
,,,-4.38E-06,0.016006875
,,,-4.37E-06,0.015883125
,,,-4.36E-06,0.015759375
,,,-4.35E-06,0.015814375
,,,-4.34E-06,0.016129375
,,,-4.33E-06,0.016024375
,,,-4.32E-06,0.015875625
,,,-4.31E-06,0.016044375
,,,-4.3E-06,0.01599125
,,,-4.29E-06,0.01589125
,,,-4.28E-06,0.015959375
,,,-4.27E-06,0.01621
,,,-4.26E-06,0.0159875
,,,-4.25E-06,0.0158225
,,,-4.24E-06,0.016161875
,,,-4.23E-06,0.016158125
,,,-4.22E-06,0.01582625
,,,-4.21E-06,0.016108125
,,,-4.2E-06,0.01599125
,,,-4.19E-06,0.01576875
,,,-4.18E-06,0.01612
,,,-4.17E-06,0.015904375
,,,-4.16E-06,0.016106875
,,,-4.15E-06,0.015799375
,,,-4.14E-06,0.01594
,,,-4.13E-06,0.016096875
,,,-4.12E-06,0.015803125
,,,-4.11E-06,0.0161075
,,,-4.1E-06,0.015976875
,,,-4.09E-06,0.01592125
,,,-4.08E-06,0.01564375
,,,-4.07E-06,0.01611375
,,,-4.06E-06,0.015953125
,,,-4.05E-06,0.015955625
,,,-4.04E-06,0.016029375
,,,-4.03E-06,0.016
,,,-4.02E-06,0.0159925
,,,-4.01E-06,0.016028125
,,,-4E-06,0.015999375
,,,-3.99E-06,0.01585125
,,,-3.98E-06,0.015860625
,,,-3.97E-06,0.0157575
,,,-3.96E-06,0.01593125
,,,-3.95E-06,0.015891875
,,,-3.94E-06,0.016171875
,,,-3.93E-06,0.016008125
,,,-3.92E-06,0.01607
,,,-3.91E-06,0.01613375
,,,-3.9E-06,0.016125625
,,,-3.89E-06,0.01588125
,,,-3.88E-06,0.01596375
,,,-3.87E-06,0.016041875
,,,-3.86E-06,0.01592
,,,-3.85E-06,0.01606375
,,,-3.84E-06,0.01587625
,,,-3.83E-06,0.01585875
,,,-3.82E-06,0.01616125
,,,-3.81E-06,0.0160875
,,,-3.8E-06,0.015909375
,,,-3.79E-06,0.015860625
,,,-3.78E-06,0.0159
,,,-3.77E-06,0.015971875
,,,-3.76E-06,0.015791875
,,,-3.75E-06,0.0158225
,,,-3.74E-06,0.01618625
,,,-3.73E-06,0.015909375
,,,-3.72E-06,0.01592625
,,,-3.71E-06,0.015635625
,,,-3.7E-06,0.0158575
,,,-3.69E-06,0.016000625
,,,-3.68E-06,0.016059375
,,,-3.67E-06,0.016076875
,,,-3.66E-06,0.015885625
,,,-3.65E-06,0.015855625
,,,-3.64E-06,0.016163125
,,,-3.63E-06,0.016125
,,,-3.62E-06,0.0157375
,,,-3.61E-06,0.0158625
,,,-3.6E-06,0.01590375
,,,-3.59E-06,0.015981875
,,,-3.58E-06,0.0160825
,,,-3.57E-06,0.0163025
,,,-3.56E-06,0.015875
,,,-3.55E-06,0.015915
,,,-3.54E-06,0.0160425
,,,-3.53E-06,0.016035
,,,-3.52E-06,0.016074375
,,,-3.51E-06,0.01591625
,,,-3.5E-06,0.016104375
,,,-3.49E-06,0.0159175
,,,-3.48E-06,0.0160475
,,,-3.47E-06,0.016165
,,,-3.46E-06,0.015921875
,,,-3.45E-06,0.015925
,,,-3.44E-06,0.0158975
,,,-3.43E-06,0.0157275
,,,-3.42E-06,0.0156275
,,,-3.41E-06,0.016158125
,,,-3.4E-06,0.01596125
,,,-3.39E-06,0.016104375
,,,-3.38E-06,0.01584
,,,-3.37E-06,0.015843125
,,,-3.36E-06,0.015934375
,,,-3.35E-06,0.015811875
,,,-3.34E-06,0.0161425
,,,-3.33E-06,0.016373125
,,,-3.32E-06,0.01613375
,,,-3.31E-06,0.015806875
,,,-3.3E-06,0.0162375
,,,-3.29E-06,0.0160275
,,,-3.28E-06,0.015819375
,,,-3.27E-06,0.015878125
,,,-3.26E-06,0.01586
,,,-3.25E-06,0.01586875
,,,-3.24E-06,0.01600625
,,,-3.23E-06,0.0159275
,,,-3.22E-06,0.015990625
,,,-3.21E-06,0.015875625
,,,-3.2E-06,0.016019375
,,,-3.19E-06,0.016058125
,,,-3.18E-06,0.01597875
,,,-3.17E-06,0.0158475
,,,-3.16E-06,0.016144375
,,,-3.15E-06,0.016048125
,,,-3.14E-06,0.0160425
,,,-3.13E-06,0.0157325
,,,-3.12E-06,0.015911875
,,,-3.11E-06,0.01580375
,,,-3.1E-06,0.01602375
,,,-3.09E-06,0.016205
,,,-3.08E-06,0.016024375
,,,-3.07E-06,0.015938125
,,,-3.06E-06,0.01592125
,,,-3.05E-06,0.015669375
,,,-3.04E-06,0.015801875
,,,-3.03E-06,0.0157825
,,,-3.02E-06,0.015945
,,,-3.01E-06,0.0160625
,,,-3E-06,0.015964375
,,,-2.99E-06,0.01572
,,,-2.98E-06,0.015979375
,,,-2.97E-06,0.016059375
,,,-2.96E-06,0.015755
,,,-2.95E-06,0.01587375
,,,-2.94E-06,0.0159325
,,,-2.93E-06,0.016070625
,,,-2.92E-06,0.01598
,,,-2.91E-06,0.016155625
,,,-2.9E-06,0.015885625
,,,-2.89E-06,0.01602875
,,,-2.88E-06,0.015904375
,,,-2.87E-06,0.01593875
,,,-2.86E-06,0.01582125
,,,-2.85E-06,0.016019375
,,,-2.84E-06,0.01592875
,,,-2.83E-06,0.01605375
,,,-2.82E-06,0.015950625
,,,-2.81E-06,0.015964375
,,,-2.8E-06,0.015831875
,,,-2.79E-06,0.0159525
,,,-2.78E-06,0.015978125
,,,-2.77E-06,0.015716875
,,,-2.76E-06,0.015945
,,,-2.75E-06,0.015986875
,,,-2.74E-06,0.01626375
,,,-2.73E-06,0.01571125
,,,-2.72E-06,0.01607875
,,,-2.71E-06,0.016148125
,,,-2.7E-06,0.016043125
,,,-2.69E-06,0.015895625
,,,-2.68E-06,0.015914375
,,,-2.67E-06,0.015741875
,,,-2.66E-06,0.016030625
,,,-2.65E-06,0.01629375
,,,-2.64E-06,0.015898125
,,,-2.63E-06,0.016205625
,,,-2.62E-06,0.016168125
,,,-2.61E-06,0.015871875
,,,-2.6E-06,0.01596
,,,-2.59E-06,0.01592
,,,-2.58E-06,0.01597875
,,,-2.57E-06,0.01606625
,,,-2.56E-06,0.016025
,,,-2.55E-06,0.01618125
,,,-2.54E-06,0.015816875
,,,-2.53E-06,0.01588125
,,,-2.52E-06,0.016111875
,,,-2.51E-06,0.015994375
,,,-2.5E-06,0.01593
,,,-2.49E-06,0.015911875
,,,-2.48E-06,0.016096875
,,,-2.47E-06,0.016061875
,,,-2.46E-06,0.015906875
,,,-2.45E-06,0.01601
,,,-2.44E-06,0.0159675
,,,-2.43E-06,0.015905625
,,,-2.42E-06,0.015798125
,,,-2.41E-06,0.016055625
,,,-2.4E-06,0.016033125
,,,-2.39E-06,0.0158775
,,,-2.38E-06,0.015846875
,,,-2.37E-06,0.015900625
,,,-2.36E-06,0.015894375
,,,-2.35E-06,0.016131875
,,,-2.34E-06,0.016011875
,,,-2.33E-06,0.0158925
,,,-2.32E-06,0.01574375
,,,-2.31E-06,0.015653125
,,,-2.3E-06,0.0159025
,,,-2.29E-06,0.0160725
,,,-2.28E-06,0.015916875
,,,-2.27E-06,0.016030625
,,,-2.26E-06,0.016023125
,,,-2.25E-06,0.01623625
,,,-2.24E-06,0.01615
,,,-2.23E-06,0.015931875
,,,-2.22E-06,0.015879375
,,,-2.21E-06,0.01581875
,,,-2.2E-06,0.015928125
,,,-2.19E-06,0.015913125
,,,-2.18E-06,0.015944375
,,,-2.17E-06,0.015900625
,,,-2.16E-06,0.015940625
,,,-2.15E-06,0.015894375
,,,-2.14E-06,0.016000625
,,,-2.13E-06,0.016275
,,,-2.12E-06,0.016111875
,,,-2.11E-06,0.0160725
,,,-2.1E-06,0.016174375
,,,-2.09E-06,0.016143125
,,,-2.08E-06,0.01580125
,,,-2.07E-06,0.015965
,,,-2.06E-06,0.015925625
,,,-2.05E-06,0.01579125
,,,-2.04E-06,0.015745
,,,-2.03E-06,0.01588
,,,-2.02E-06,0.016108125
,,,-2.01E-06,0.016066875
,,,-2E-06,0.016026875
,,,-1.99E-06,0.016028125
,,,-1.98E-06,0.01582
,,,-1.97E-06,0.0159
,,,-1.96E-06,0.015955625
,,,-1.95E-06,0.01570375
,,,-1.94E-06,0.015775625
,,,-1.93E-06,0.01601125
,,,-1.92E-06,0.016054375
,,,-1.91E-06,0.016196875
,,,-1.9E-06,0.01605
,,,-1.89E-06,0.015875
,,,-1.88E-06,0.015876875
,,,-1.87E-06,0.015809375
,,,-1.86E-06,0.015915625
,,,-1.85E-06,0.015951875
,,,-1.84E-06,0.015689375
,,,-1.83E-06,0.016041875
,,,-1.82E-06,0.015783125
,,,-1.81E-06,0.01605125
,,,-1.8E-06,0.015930625
,,,-1.79E-06,0.016036875
,,,-1.78E-06,0.01613625
,,,-1.77E-06,0.015908125
,,,-1.76E-06,0.015866875
,,,-1.75E-06,0.016101875
,,,-1.74E-06,0.01595125
,,,-1.73E-06,0.01587875
,,,-1.72E-06,0.01602125
,,,-1.71E-06,0.015955
,,,-1.7E-06,0.015765
,,,-1.69E-06,0.0161825
,,,-1.68E-06,0.0160025
,,,-1.67E-06,0.01591375
,,,-1.66E-06,0.015714375
,,,-1.65E-06,0.01588375
,,,-1.64E-06,0.015976875
,,,-1.63E-06,0.016105625
,,,-1.62E-06,0.015833125
,,,-1.61E-06,0.01593
,,,-1.6E-06,0.015796875
,,,-1.59E-06,0.01596625
,,,-1.58E-06,0.01590375
,,,-1.57E-06,0.015835
,,,-1.56E-06,0.01593875
,,,-1.55E-06,0.015860625
,,,-1.54E-06,0.015980625
,,,-1.53E-06,0.016081875
,,,-1.52E-06,0.0161275
,,,-1.51E-06,0.015868125
,,,-1.5E-06,0.016039375
,,,-1.49E-06,0.0161175
,,,-1.48E-06,0.015955
,,,-1.47E-06,0.0160225
,,,-1.46E-06,0.01613625
,,,-1.45E-06,0.01594875
,,,-1.44E-06,0.015716875
,,,-1.43E-06,0.015825625
,,,-1.42E-06,0.016144375
,,,-1.41E-06,0.016073125
,,,-1.4E-06,0.01613625
,,,-1.39E-06,0.015813125
,,,-1.38E-06,0.015855
,,,-1.37E-06,0.01591875
,,,-1.36E-06,0.015939375
,,,-1.35E-06,0.015746875
,,,-1.34E-06,0.0162375
,,,-1.33E-06,0.015973125
,,,-1.32E-06,0.016175625
,,,-1.31E-06,0.015658125
,,,-1.3E-06,0.0157875
,,,-1.29E-06,0.015895
,,,-1.28E-06,0.01579875
,,,-1.27E-06,0.015949375
,,,-1.26E-06,0.015946875
,,,-1.25E-06,0.0161275
,,,-1.24E-06,0.016156875
,,,-1.23E-06,0.016035625
,,,-1.22E-06,0.015919375
,,,-1.21E-06,0.015905625
,,,-1.2E-06,0.01572625
,,,-1.19E-06,0.016010625
,,,-1.18E-06,0.016184375
,,,-1.17E-06,0.016089375
,,,-1.16E-06,0.0157975
,,,-1.15E-06,0.016069375
,,,-1.14E-06,0.01585875
,,,-1.13E-06,0.016009375
,,,-1.12E-06,0.015715
,,,-1.11E-06,0.0160875
,,,-1.1E-06,0.016173125
,,,-1.09E-06,0.015915
,,,-1.08E-06,0.015929375
,,,-1.07E-06,0.016060625
,,,-1.06E-06,0.01594125
,,,-1.05E-06,0.0156275
,,,-1.04E-06,0.015966875
,,,-1.03E-06,0.016163125
,,,-1.02E-06,0.015753125
,,,-1.01E-06,0.01589375
,,,-1E-06,0.01585
,,,-9.9E-07,0.0159125
,,,-9.8E-07,0.0157275
,,,-9.7E-07,0.0160375
,,,-9.6E-07,0.016021875
,,,-9.5E-07,0.01598
,,,-9.4E-07,0.015761875
,,,-9.3E-07,0.015995
,,,-9.2E-07,0.016038125
,,,-9.1E-07,0.016083125
,,,-9E-07,0.015934375
,,,-8.9E-07,0.015976875
,,,-8.8E-07,0.01584625
,,,-8.7E-07,0.01599375
,,,-8.6E-07,0.016074375
,,,-8.5E-07,0.016018125
,,,-8.4E-07,0.0159875
,,,-8.3E-07,0.0160675
,,,-8.2E-07,0.015946875
,,,-8.1E-07,0.016069375
,,,-8E-07,0.015856875
,,,-7.9E-07,0.01582625
,,,-7.8E-07,0.0160525
,,,-7.7E-07,0.015925
,,,-7.6E-07,0.016125625
,,,-7.5E-07,0.0160675
,,,-7.4E-07,0.015969375
,,,-7.3E-07,0.015894375
,,,-7.2E-07,0.015981875
,,,-7.1E-07,0.01586
,,,-7E-07,0.016065
,,,-6.9E-07,0.01602125
,,,-6.8E-07,0.016055625
,,,-6.7E-07,0.015878125
,,,-6.6E-07,0.01561125
,,,-6.5E-07,0.01598625
,,,-6.4E-07,0.016015625
,,,-6.3E-07,0.01580625
,,,-6.2E-07,0.0158525
,,,-6.1E-07,0.0160275
,,,-6E-07,0.016180625
,,,-5.9E-07,0.015980625
,,,-5.8E-07,0.01588625
,,,-5.7E-07,0.0157575
,,,-5.6E-07,0.015765
,,,-5.5E-07,0.015893125
,,,-5.4E-07,0.0159125
,,,-5.3E-07,0.015954375
,,,-5.2E-07,0.015881875
,,,-5.1E-07,0.015724375
,,,-5E-07,0.016009375
,,,-4.9E-07,0.0160225
,,,-4.8E-07,0.01581125
,,,-4.7E-07,0.016059375
,,,-4.6E-07,0.016096875
,,,-4.5E-07,0.0160725
,,,-4.4E-07,0.01593125
,,,-4.3E-07,0.016151875
,,,-4.2E-07,0.016239375
,,,-4.1E-07,0.016118125
,,,-4E-07,0.01609625
,,,-3.9E-07,0.015791875
,,,-3.8E-07,0.01612625
,,,-3.7E-07,0.01587125
,,,-3.6E-07,0.015868125
,,,-3.5E-07,0.015975625
,,,-3.4E-07,0.015858125
,,,-3.3E-07,0.016146875
,,,-3.2E-07,0.015724375
,,,-3.1E-07,0.01595
,,,-3E-07,0.016108125
,,,-2.9E-07,0.01603625
,,,-2.8E-07,0.01619
,,,-2.7E-07,0.015873125
,,,-2.6E-07,0.016
,,,-2.5E-07,0.015985
,,,-2.4E-07,0.016051875
,,,-2.3E-07,0.015875
,,,-2.2E-07,0.015978125
,,,-2.1E-07,0.016049375
,,,-2E-07,0.01589375
,,,-1.9E-07,0.015753125
,,,-1.8E-07,0.01565375
,,,-1.7E-07,0.015643125
,,,-1.6E-07,0.0157675
,,,-1.5E-07,0.016008125
,,,-1.4E-07,0.0160025
,,,-1.3E-07,0.0158825
,,,-1.2E-07,0.015991875
,,,-1.1E-07,0.015928125
,,,-1E-07,0.015871875
,,,-9E-08,0.015923125
,,,-8E-08,0.015845625
,,,-7E-08,0.0156425
,,,-6E-08,0.015853125
,,,-5E-08,0.015890625
,,,-4E-08,0.01659
,,,-3E-08,0.01812375
,,,-2E-08,0.014653125
,,,-1E-08,0.01250875
,,,0,0.011715
,,,1E-08,0.018468125
,,,2E-08,0.020929375
,,,3E-08,0.020499375
,,,4E-08,0.0154825
,,,5E-08,0.012769375
,,,6E-08,0.01215625
,,,7E-08,0.0139925
,,,8E-08,0.016445625
,,,9E-08,0.01841625
,,,1E-07,0.01835875
,,,1.1E-07,0.01705625
,,,1.2E-07,0.01507875
,,,1.3E-07,0.01375375
,,,1.4E-07,0.01485
,,,1.5E-07,0.016055625
,,,1.6E-07,0.0166
,,,1.7E-07,0.016208125
,,,1.8E-07,0.016186875
,,,1.9E-07,0.01601875
,,,2E-07,0.016014375
,,,2.1E-07,0.015866875
,,,2.2E-07,0.01560875
,,,2.3E-07,0.0155375
,,,2.4E-07,0.0160725
,,,2.5E-07,0.016199375
,,,2.6E-07,0.01599
,,,2.7E-07,0.015958125
,,,2.8E-07,0.015904375
,,,2.9E-07,0.01601125
,,,3E-07,0.0158275
,,,3.1E-07,0.016118125
,,,3.2E-07,0.016013125
,,,3.3E-07,0.0159925
,,,3.4E-07,0.0159575
,,,3.5E-07,0.0158825
,,,3.6E-07,0.01605125
,,,3.7E-07,0.015849375
,,,3.8E-07,0.015961875
,,,3.9E-07,0.01595125
,,,4E-07,0.015895
,,,4.1E-07,0.01592125
,,,4.2E-07,0.016148125
,,,4.3E-07,0.015854375
,,,4.4E-07,0.015779375
,,,4.5E-07,0.01600625
,,,4.6E-07,0.01594625
,,,4.7E-07,0.015860625
,,,4.8E-07,0.015833125
,,,4.9E-07,0.0160175
,,,5E-07,0.01565125
,,,5.1E-07,0.015763125
,,,5.2E-07,0.016036875
,,,5.3E-07,0.016234375
,,,5.4E-07,0.015765
,,,5.5E-07,0.015834375
,,,5.6E-07,0.01605875
,,,5.7E-07,0.016003125
,,,5.8E-07,0.016053125
,,,5.9E-07,0.015858125
,,,6E-07,0.01574375
,,,6.1E-07,0.016015625
,,,6.2E-07,0.0159
,,,6.3E-07,0.015905
,,,6.4E-07,0.01593875
,,,6.5E-07,0.01610625
,,,6.6E-07,0.015995
,,,6.7E-07,0.016086875
,,,6.8E-07,0.015941875
,,,6.9E-07,0.0159625
,,,7E-07,0.01596625
,,,7.1E-07,0.015954375
,,,7.2E-07,0.01606375
,,,7.3E-07,0.01603375
,,,7.4E-07,0.016030625
,,,7.5E-07,0.0159375
,,,7.6E-07,0.015741875
,,,7.7E-07,0.015938125
,,,7.8E-07,0.0161025
,,,7.9E-07,0.016323125
,,,8E-07,0.015930625
,,,8.1E-07,0.016088125
,,,8.2E-07,0.01600125
,,,8.3E-07,0.016024375
,,,8.4E-07,0.01570375
,,,8.5E-07,0.015904375
,,,8.6E-07,0.01584375
,,,8.7E-07,0.0157375
,,,8.8E-07,0.01598
,,,8.9E-07,0.016080625
,,,9E-07,0.01595625
,,,9.1E-07,0.015985
,,,9.2E-07,0.015993125
,,,9.3E-07,0.0162575
,,,9.4E-07,0.015923125
,,,9.5E-07,0.01596375
,,,9.6E-07,0.0159075
,,,9.7E-07,0.01593875
,,,9.8E-07,0.015919375
,,,9.9E-07,0.015935625
,,,1E-06,0.016084375
,,,1.01E-06,0.0159675
,,,1.02E-06,0.01615
,,,1.03E-06,0.015911875
,,,1.04E-06,0.016109375
,,,1.05E-06,0.015895
,,,1.06E-06,0.015941875
,,,1.07E-06,0.01609
,,,1.08E-06,0.0161125
,,,1.09E-06,0.015880625
,,,1.1E-06,0.016090625
,,,1.11E-06,0.015714375
,,,1.12E-06,0.015965
,,,1.13E-06,0.01609
,,,1.14E-06,0.015834375
,,,1.15E-06,0.016045625
,,,1.16E-06,0.01618
,,,1.17E-06,0.01581875
,,,1.18E-06,0.015803125
,,,1.19E-06,0.01575625
,,,1.2E-06,0.01596875
,,,1.21E-06,0.015985625
,,,1.22E-06,0.015814375
,,,1.23E-06,0.015868125
,,,1.24E-06,0.01608875
,,,1.25E-06,0.0159175
,,,1.26E-06,0.0159525
,,,1.27E-06,0.01599125
,,,1.28E-06,0.015864375
,,,1.29E-06,0.0160875
,,,1.3E-06,0.01592625
,,,1.31E-06,0.01582
,,,1.32E-06,0.01594125
,,,1.33E-06,0.016011875
,,,1.34E-06,0.016255
,,,1.35E-06,0.01591125
,,,1.36E-06,0.01566875
,,,1.37E-06,0.0160575
,,,1.38E-06,0.015803125
,,,1.39E-06,0.01612875
,,,1.4E-06,0.015845625
,,,1.41E-06,0.01611125
,,,1.42E-06,0.016036875
,,,1.43E-06,0.016128125
,,,1.44E-06,0.015775
,,,1.45E-06,0.015928125
,,,1.46E-06,0.0158125
,,,1.47E-06,0.015994375
,,,1.48E-06,0.015740625
,,,1.49E-06,0.015965
,,,1.5E-06,0.01584125
,,,1.51E-06,0.01600375
,,,1.52E-06,0.015896875
,,,1.53E-06,0.015928125
,,,1.54E-06,0.016193125
,,,1.55E-06,0.016099375
,,,1.56E-06,0.016071875
,,,1.57E-06,0.0158075
,,,1.58E-06,0.015763125
,,,1.59E-06,0.015949375
,,,1.6E-06,0.01599125
,,,1.61E-06,0.016093125
,,,1.62E-06,0.015768125
,,,1.63E-06,0.01619625
,,,1.64E-06,0.015939375
,,,1.65E-06,0.0160375
,,,1.66E-06,0.0160225
,,,1.67E-06,0.01566875
,,,1.68E-06,0.016215
,,,1.69E-06,0.016010625
,,,1.7E-06,0.015895
,,,1.71E-06,0.01594625
,,,1.72E-06,0.015915
,,,1.73E-06,0.01611125
,,,1.74E-06,0.01621375
,,,1.75E-06,0.01581
,,,1.76E-06,0.015898125
,,,1.77E-06,0.015905
,,,1.78E-06,0.0158125
,,,1.79E-06,0.016198125
,,,1.8E-06,0.015751875
,,,1.81E-06,0.01597625
,,,1.82E-06,0.016215
,,,1.83E-06,0.01607625
,,,1.84E-06,0.015920625
,,,1.85E-06,0.016049375
,,,1.86E-06,0.01574625
,,,1.87E-06,0.015930625
,,,1.88E-06,0.015989375
,,,1.89E-06,0.01598125
,,,1.9E-06,0.01579625
,,,1.91E-06,0.01583625
,,,1.92E-06,0.016170625
,,,1.93E-06,0.0159075
,,,1.94E-06,0.015985
,,,1.95E-06,0.0157975
,,,1.96E-06,0.016125
,,,1.97E-06,0.0159175
,,,1.98E-06,0.0158775
,,,1.99E-06,0.01602625
,,,2E-06,0.01606625
,,,2.01E-06,0.015860625
,,,2.02E-06,0.01564125
,,,2.03E-06,0.015700625
,,,2.04E-06,0.016096875
,,,2.05E-06,0.016134375
,,,2.06E-06,0.016154375
,,,2.07E-06,0.01587875
,,,2.08E-06,0.0157375
,,,2.09E-06,0.0157275
,,,2.1E-06,0.015831875
,,,2.11E-06,0.0159875
,,,2.12E-06,0.015981875
,,,2.13E-06,0.01590625
,,,2.14E-06,0.015724375
,,,2.15E-06,0.016140625
,,,2.16E-06,0.016165
,,,2.17E-06,0.016033125
,,,2.18E-06,0.015860625
,,,2.19E-06,0.015858125
,,,2.2E-06,0.016029375
,,,2.21E-06,0.015888125
,,,2.22E-06,0.015840625
,,,2.23E-06,0.015996875
,,,2.24E-06,0.0156525
,,,2.25E-06,0.015885
,,,2.26E-06,0.015925
,,,2.27E-06,0.01581875
,,,2.28E-06,0.01605875
,,,2.29E-06,0.01584
,,,2.3E-06,0.016015
,,,2.31E-06,0.015825625
,,,2.32E-06,0.016019375
,,,2.33E-06,0.01598
,,,2.34E-06,0.0159575
,,,2.35E-06,0.01572
,,,2.36E-06,0.01572625
,,,2.37E-06,0.01574
,,,2.38E-06,0.015868125
,,,2.39E-06,0.0160725
,,,2.4E-06,0.015999375
,,,2.41E-06,0.01592375
,,,2.42E-06,0.015781875
,,,2.43E-06,0.016119375
,,,2.44E-06,0.015865625
,,,2.45E-06,0.01578125
,,,2.46E-06,0.015848125
,,,2.47E-06,0.016020625
,,,2.48E-06,0.01612
,,,2.49E-06,0.0161525
,,,2.5E-06,0.0159075
,,,2.51E-06,0.015771875
,,,2.52E-06,0.0159375
,,,2.53E-06,0.0158825
,,,2.54E-06,0.016068125
,,,2.55E-06,0.016031875
,,,2.56E-06,0.01603375
,,,2.57E-06,0.01592375
,,,2.58E-06,0.015958125
,,,2.59E-06,0.015934375
,,,2.6E-06,0.016083125
,,,2.61E-06,0.01608875
,,,2.62E-06,0.01601
,,,2.63E-06,0.016005
,,,2.64E-06,0.0159975
,,,2.65E-06,0.015853125
,,,2.66E-06,0.016389375
,,,2.67E-06,0.01602875
,,,2.68E-06,0.01574875
,,,2.69E-06,0.015825625
,,,2.7E-06,0.016086875
,,,2.71E-06,0.01589625
,,,2.72E-06,0.015923125
,,,2.73E-06,0.015968125
,,,2.74E-06,0.016044375
,,,2.75E-06,0.0160075
,,,2.76E-06,0.0158725
,,,2.77E-06,0.01580875
,,,2.78E-06,0.016048125
,,,2.79E-06,0.016106875
,,,2.8E-06,0.016174375
,,,2.81E-06,0.01604875
,,,2.82E-06,0.016023125
,,,2.83E-06,0.015975625
,,,2.84E-06,0.015955
,,,2.85E-06,0.015949375
,,,2.86E-06,0.01574125
,,,2.87E-06,0.016115625
,,,2.88E-06,0.015955
,,,2.89E-06,0.015783125
,,,2.9E-06,0.01587375
,,,2.91E-06,0.01584625
,,,2.92E-06,0.015829375
,,,2.93E-06,0.015971875
,,,2.94E-06,0.015845625
,,,2.95E-06,0.015885
,,,2.96E-06,0.016098125
,,,2.97E-06,0.015971875
,,,2.98E-06,0.0161875
,,,2.99E-06,0.015915625
,,,3E-06,0.016023125
,,,3.01E-06,0.015771875
,,,3.02E-06,0.015958125
,,,3.03E-06,0.01598875
,,,3.04E-06,0.015761875
,,,3.05E-06,0.015984375
,,,3.06E-06,0.016070625
,,,3.07E-06,0.015973125
,,,3.08E-06,0.015964375
,,,3.09E-06,0.01593
,,,3.1E-06,0.015825625
,,,3.11E-06,0.01602875
,,,3.12E-06,0.016015625
,,,3.13E-06,0.0159175
,,,3.14E-06,0.016073125
,,,3.15E-06,0.0157325
,,,3.16E-06,0.01579125
,,,3.17E-06,0.0158475
,,,3.18E-06,0.01576625
,,,3.19E-06,0.01593375
,,,3.2E-06,0.01577625
,,,3.21E-06,0.016070625
,,,3.22E-06,0.01579625
,,,3.23E-06,0.01617875
,,,3.24E-06,0.01583625
,,,3.25E-06,0.01581375
,,,3.26E-06,0.015839375
,,,3.27E-06,0.0160125
,,,3.28E-06,0.015875625
,,,3.29E-06,0.016011875
,,,3.3E-06,0.01591375
,,,3.31E-06,0.016274375
,,,3.32E-06,0.016115
,,,3.33E-06,0.0159825
,,,3.34E-06,0.01584375
,,,3.35E-06,0.015965625
,,,3.36E-06,0.016110625
,,,3.37E-06,0.01604125
,,,3.38E-06,0.016235625
,,,3.39E-06,0.016078125
,,,3.4E-06,0.015794375
,,,3.41E-06,0.0161475
,,,3.42E-06,0.016056875
,,,3.43E-06,0.01607875
,,,3.44E-06,0.0159175
,,,3.45E-06,0.015975
,,,3.46E-06,0.01584375
,,,3.47E-06,0.016049375
,,,3.48E-06,0.015888125
,,,3.49E-06,0.016029375
,,,3.5E-06,0.01594875
,,,3.51E-06,0.015764375
,,,3.52E-06,0.015794375
,,,3.53E-06,0.01604625
,,,3.54E-06,0.0158025
,,,3.55E-06,0.01576875
,,,3.56E-06,0.015838125
