data/raw/Final_POL_Test_1/SOP017_Ch1.csv

"Record Length",1000,"Points",-5E-06,0.005956875
"Sample Interval",1E-08,s,-4.99E-06,0.005849375
"Trigger Point",500,"Samples",-4.98E-06,0.00580875
"Trigger Time",0,s,-4.97E-06,0.006160625
"",,,-4.96E-06,0.005820625
"Horizontal Offset",-5E-06,s,-4.95E-06,0.00575
,,,-4.94E-06,0.005726875
,,,-4.93E-06,0.0055675
,,,-4.92E-06,0.0058625
,,,-4.91E-06,0.005905
,,,-4.9E-06,0.005951875
,,,-4.89E-06,0.0058775
,,,-4.88E-06,0.00598375
,,,-4.87E-06,0.006066875
,,,-4.86E-06,0.0058725
,,,-4.85E-06,0.005886875
,,,-4.84E-06,0.00621875
,,,-4.83E-06,0.005946875
,,,-4.82E-06,0.005883125
,,,-4.81E-06,0.006094375
,,,-4.8E-06,0.005835
,,,-4.79E-06,0.006018125
,,,-4.78E-06,0.0060775
,,,-4.77E-06,0.006008125
,,,-4.76E-06,0.00559875
,,,-4.75E-06,0.005716875
,,,-4.74E-06,0.00589875
,,,-4.73E-06,0.005799375
,,,-4.72E-06,0.00592125
,,,-4.71E-06,0.006023125
,,,-4.7E-06,0.00558125
,,,-4.69E-06,0.00580875
,,,-4.68E-06,0.00599375
,,,-4.67E-06,0.00594
,,,-4.66E-06,0.006008125
,,,-4.65E-06,0.00579875
,,,-4.64E-06,0.005841875
,,,-4.63E-06,0.0059
,,,-4.62E-06,0.005758125
,,,-4.61E-06,0.00604625
,,,-4.6E-06,0.005713125
,,,-4.59E-06,0.00585125
,,,-4.58E-06,0.0061075
,,,-4.57E-06,0.00592125
,,,-4.56E-06,0.006204375
,,,-4.55E-06,0.005965625
,,,-4.54E-06,0.0060625
,,,-4.53E-06,0.005848125
,,,-4.52E-06,0.005785625
,,,-4.51E-06,0.00582125
,,,-4.5E-06,0.005943125
,,,-4.49E-06,0.0058275
,,,-4.48E-06,0.00603625
,,,-4.47E-06,0.005779375
,,,-4.46E-06,0.00588
,,,-4.45E-06,0.00595625
,,,-4.44E-06,0.005979375
,,,-4.43E-06,0.005875625
,,,-4.42E-06,0.005844375
,,,-4.41E-06,0.0057525
,,,-4.4E-06,0.00627125
,,,-4.39E-06,0.005734375
,,,-4.38E-06,0.005796875
,,,-4.37E-06,0.006028125
,,,-4.36E-06,0.00602
,,,-4.35E-06,0.006028125
,,,-4.34E-06,0.0061475
,,,-4.33E-06,0.006073125
,,,-4.32E-06,0.005854375
,,,-4.31E-06,0.00581875
,,,-4.3E-06,0.005920625
,,,-4.29E-06,0.005983125
,,,-4.28E-06,0.006023125
,,,-4.27E-06,0.00574625
,,,-4.26E-06,0.00608375
,,,-4.25E-06,0.00604625
,,,-4.24E-06,0.00603
,,,-4.23E-06,0.005975
,,,-4.22E-06,0.00581125
,,,-4.21E-06,0.00613
,,,-4.2E-06,0.005955625
,,,-4.19E-06,0.005680625
,,,-4.18E-06,0.006005625
,,,-4.17E-06,0.00580875
,,,-4.16E-06,0.005865625
,,,-4.15E-06,0.006000625
,,,-4.14E-06,0.005760625
,,,-4.13E-06,0.00599125
,,,-4.12E-06,0.005930625
,,,-4.11E-06,0.005795
,,,-4.1E-06,0.005743125
,,,-4.09E-06,0.006023125
,,,-4.08E-06,0.005784375
,,,-4.07E-06,0.00613125
,,,-4.06E-06,0.005965625
,,,-4.05E-06,0.00575375
,,,-4.04E-06,0.0058725
,,,-4.03E-06,0.00578625
,,,-4.02E-06,0.005924375
,,,-4.01E-06,0.005826875
,,,-4E-06,0.005868125
,,,-3.99E-06,0.006108125
,,,-3.98E-06,0.006090625
,,,-3.97E-06,0.005936875
,,,-3.96E-06,0.00604
,,,-3.95E-06,0.005754375
,,,-3.94E-06,0.00584375
,,,-3.93E-06,0.005826875
,,,-3.92E-06,0.00599
,,,-3.91E-06,0.006004375
,,,-3.9E-06,0.00565
,,,-3.89E-06,0.005586875
,,,-3.88E-06,0.00585375
,,,-3.87E-06,0.005983125
,,,-3.86E-06,0.0058275
,,,-3.85E-06,0.006070625
,,,-3.84E-06,0.00584625
,,,-3.83E-06,0.005956875
,,,-3.82E-06,0.00588
,,,-3.81E-06,0.005845625
,,,-3.8E-06,0.00589625
,,,-3.79E-06,0.005676875
,,,-3.78E-06,0.0057475
,,,-3.77E-06,0.00585375
,,,-3.76E-06,0.006008125
,,,-3.75E-06,0.0058475
,,,-3.74E-06,0.00590625
,,,-3.73E-06,0.0057925
,,,-3.72E-06,0.005836875
,,,-3.71E-06,0.005758125
,,,-3.7E-06,0.005779375
,,,-3.69E-06,0.005905625
,,,-3.68E-06,0.006001875
,,,-3.67E-06,0.005950625
,,,-3.66E-06,0.00585875
,,,-3.65E-06,0.005774375
,,,-3.64E-06,0.005936875
,,,-3.63E-06,0.005835
,,,-3.62E-06,0.00591
,,,-3.61E-06,0.005874375
,,,-3.6E-06,0.005661875
,,,-3.59E-06,0.0060125
,,,-3.58E-06,0.005879375
,,,-3.57E-06,0.006
,,,-3.56E-06,0.005740625
,,,-3.55E-06,0.00600875
,,,-3.54E-06,0.0058325
,,,-3.53E-06,0.005975
,,,-3.52E-06,0.0058725
,,,-3.51E-06,0.006025625
,,,-3.5E-06,0.006033125
,,,-3.49E-06,0.006045
,,,-3.48E-06,0.00590875
,,,-3.47E-06,0.0060625
,,,-3.46E-06,0.0057975
,,,-3.45E-06,0.005981875
,,,-3.44E-06,0.00575
,,,-3.43E-06,0.00589875
,,,-3.42E-06,0.005553125
,,,-3.41E-06,0.00613125
,,,-3.4E-06,0.005913125
,,,-3.39E-06,0.005761875
,,,-3.38E-06,0.005958125
,,,-3.37E-06,0.005890625
,,,-3.36E-06,0.006035625
,,,-3.35E-06,0.00577
,,,-3.34E-06,0.005970625
,,,-3.33E-06,0.005945625
,,,-3.32E-06,0.0060625
,,,-3.31E-06,0.00593
,,,-3.3E-06,0.005759375
,,,-3.29E-06,0.00601
,,,-3.28E-06,0.0060325
,,,-3.27E-06,0.005691875
,,,-3.26E-06,0.00568
,,,-3.25E-06,0.005848125
,,,-3.24E-06,0.0060175
,,,-3.23E-06,0.005628125
,,,-3.22E-06,0.005959375
,,,-3.21E-06,0.00578
,,,-3.2E-06,0.00572125
,,,-3.19E-06,0.00601125
,,,-3.18E-06,0.00607625
,,,-3.17E-06,0.00605
,,,-3.16E-06,0.006099375
,,,-3.15E-06,0.005890625
,,,-3.14E-06,0.00597125
,,,-3.13E-06,0.005858125
,,,-3.12E-06,0.006031875
,,,-3.11E-06,0.005640625
,,,-3.1E-06,0.00592375
,,,-3.09E-06,0.005944375
,,,-3.08E-06,0.0060075
,,,-3.07E-06,0.00606625
,,,-3.06E-06,0.005863125
,,,-3.05E-06,0.0058025
,,,-3.04E-06,0.0056925
,,,-3.03E-06,0.005750625
,,,-3.02E-06,0.005945625
,,,-3.01E-06,0.005955
,,,-3E-06,0.00597375
,,,-2.99E-06,0.00613
,,,-2.98E-06,0.006095
,,,-2.97E-06,0.005988125
,,,-2.96E-06,0.005910625
,,,-2.95E-06,0.0057425
,,,-2.94E-06,0.005595
,,,-2.93E-06,0.0057825
,,,-2.92E-06,0.0059375
,,,-2.91E-06,0.006009375
,,,-2.9E-06,0.005780625
,,,-2.89E-06,0.005681875
,,,-2.88E-06,0.00580875
,,,-2.87E-06,0.0057375
,,,-2.86E-06,0.0057075
,,,-2.85E-06,0.005666875
,,,-2.84E-06,0.0059025
,,,-2.83E-06,0.00616375
,,,-2.82E-06,0.005803125
,,,-2.81E-06,0.005981875
,,,-2.8E-06,0.005891875
,,,-2.79E-06,0.0059175
,,,-2.78E-06,0.00602
,,,-2.77E-06,0.005643125
,,,-2.76E-06,0.005778125
,,,-2.75E-06,0.005689375
,,,-2.74E-06,0.005871875
,,,-2.73E-06,0.00594625
,,,-2.72E-06,0.00601875
,,,-2.71E-06,0.00591625
,,,-2.7E-06,0.00590875
,,,-2.69E-06,0.005946875
,,,-2.68E-06,0.00579
,,,-2.67E-06,0.005935
,,,-2.66E-06,0.005811875
,,,-2.65E-06,0.00605
,,,-2.64E-06,0.005981875
,,,-2.63E-06,0.005991875
,,,-2.62E-06,0.0059
,,,-2.61E-06,0.0057275
,,,-2.6E-06,0.006129375
,,,-2.59E-06,0.005861875
,,,-2.58E-06,0.006081875
,,,-2.57E-06,0.0058025
,,,-2.56E-06,0.00572375
,,,-2.55E-06,0.006101875
,,,-2.54E-06,0.00570875
,,,-2.53E-06,0.0056775
,,,-2.52E-06,0.005965625
,,,-2.51E-06,0.005865
,,,-2.5E-06,0.005765
,,,-2.49E-06,0.00563
,,,-2.48E-06,0.005795625
,,,-2.47E-06,0.005796875
,,,-2.46E-06,0.00581125
,,,-2.45E-06,0.0057025
,,,-2.44E-06,0.005795625
,,,-2.43E-06,0.005916875
,,,-2.42E-06,0.005861875
,,,-2.41E-06,0.0060775
,,,-2.4E-06,0.00605125
,,,-2.39E-06,0.005715625
,,,-2.38E-06,0.005721875
,,,-2.37E-06,0.00602375
,,,-2.36E-06,0.005905
,,,-2.35E-06,0.00578375
,,,-2.34E-06,0.00583
,,,-2.33E-06,0.00628625
,,,-2.32E-06,0.005985
,,,-2.31E-06,0.006181875
,,,-2.3E-06,0.00577625
,,,-2.29E-06,0.00582125
,,,-2.28E-06,0.006014375
,,,-2.27E-06,0.0058225
,,,-2.26E-06,0.005701875
,,,-2.25E-06,0.00592
,,,-2.24E-06,0.00585625
,,,-2.23E-06,0.005925625
,,,-2.22E-06,0.00583
,,,-2.21E-06,0.005814375
,,,-2.2E-06,0.0056675
,,,-2.19E-06,0.005949375
,,,-2.18E-06,0.006005625
,,,-2.17E-06,0.006011875
,,,-2.16E-06,0.005889375
,,,-2.15E-06,0.006016875
,,,-2.14E-06,0.005885625
,,,-2.13E-06,0.005918125
,,,-2.12E-06,0.005969375
,,,-2.11E-06,0.00595875
,,,-2.1E-06,0.00607
,,,-2.09E-06,0.00614875
,,,-2.08E-06,0.006031875
,,,-2.07E-06,0.005845625
,,,-2.06E-06,0.005926875
,,,-2.05E-06,0.00564625
,,,-2.04E-06,0.005705625
,,,-2.03E-06,0.005620625
,,,-2.02E-06,0.006080625
,,,-2.01E-06,0.00602125
,,,-2E-06,0.00609875
,,,-1.99E-06,0.005744375
,,,-1.98E-06,0.0059825
,,,-1.97E-06,0.005760625
,,,-1.96E-06,0.00577
,,,-1.95E-06,0.00573875
,,,-1.94E-06,0.006070625
,,,-1.93E-06,0.005991875
,,,-1.92E-06,0.006040625
,,,-1.91E-06,0.0057175
,,,-1.9E-06,0.00602375
,,,-1.89E-06,0.005710625
,,,-1.88E-06,0.00588125
,,,-1.87E-06,0.005916875
,,,-1.86E-06,0.005941875
,,,-1.85E-06,0.005829375
,,,-1.84E-06,0.005945625
,,,-1.83E-06,0.00601125
,,,-1.82E-06,0.00603375
,,,-1.81E-06,0.005850625
,,,-1.8E-06,0.00616875
,,,-1.79E-06,0.00576125
,,,-1.78E-06,0.00609125
,,,-1.77E-06,0.005683125
,,,-1.76E-06,0.0058125
,,,-1.75E-06,0.006056875
,,,-1.74E-06,0.005844375
,,,-1.73E-06,0.005758125
,,,-1.72E-06,0.00556
,,,-1.71E-06,0.005945
,,,-1.7E-06,0.005961875
,,,-1.69E-06,0.0057825
,,,-1.68E-06,0.00619
,,,-1.67E-06,0.005863125
,,,-1.66E-06,0.00570625
,,,-1.65E-06,0.0059275
,,,-1.64E-06,0.005810625
,,,-1.63E-06,0.005666875
,,,-1.62E-06,0.005955625
,,,-1.61E-06,0.005955
,,,-1.6E-06,0.00597125
,,,-1.59E-06,0.005856875
,,,-1.58E-06,0.005925
,,,-1.57E-06,0.005884375
,,,-1.56E-06,0.005765
,,,-1.55E-06,0.005711875
,,,-1.54E-06,0.00599375
,,,-1.53E-06,0.0060625
,,,-1.52E-06,0.005930625
,,,-1.51E-06,0.00587625
,,,-1.5E-06,0.005888125
,,,-1.49E-06,0.005943125
,,,-1.48E-06,0.005965
,,,-1.47E-06,0.00580625
,,,-1.46E-06,0.006118125
,,,-1.45E-06,0.0060775
,,,-1.44E-06,0.00602375
,,,-1.43E-06,0.006006875
,,,-1.42E-06,0.0063125
,,,-1.41E-06,0.005949375
,,,-1.4E-06,0.005715625
,,,-1.39E-06,0.005825625
,,,-1.38E-06,0.005918125
,,,-1.37E-06,0.006104375
,,,-1.36E-06,0.00588625
,,,-1.35E-06,0.005888125
,,,-1.34E-06,0.00596875
,,,-1.33E-06,0.00580625
,,,-1.32E-06,0.006088125
,,,-1.31E-06,0.00590375
,,,-1.3E-06,0.00604625
,,,-1.29E-06,0.006055625
,,,-1.28E-06,0.00568375
,,,-1.27E-06,0.0059625
,,,-1.26E-06,0.005991875
,,,-1.25E-06,0.005838125
,,,-1.24E-06,0.0057675
,,,-1.23E-06,0.0057575
,,,-1.22E-06,0.00596875
,,,-1.21E-06,0.00594125
,,,-1.2E-06,0.005925
,,,-1.19E-06,0.005888125
,,,-1.18E-06,0.005948125
,,,-1.17E-06,0.00579
,,,-1.16E-06,0.005815625
,,,-1.15E-06,0.005814375
,,,-1.14E-06,0.005849375
,,,-1.13E-06,0.00588625
,,,-1.12E-06,0.00569
,,,-1.11E-06,0.005950625
,,,-1.1E-06,0.005608125
,,,-1.09E-06,0.0057275
,,,-1.08E-06,0.0059725
,,,-1.07E-06,0.00591875
,,,-1.06E-06,0.0060825
,,,-1.05E-06,0.0057575
,,,-1.04E-06,0.005904375
,,,-1.03E-06,0.00574875
,,,-1.02E-06,0.006205625
,,,-1.01E-06,0.00570625
,,,-1E-06,0.006139375
,,,-9.9E-07,0.005850625
,,,-9.8E-07,0.005845
,,,-9.7E-07,0.0058725
,,,-9.6E-07,0.005855625
,,,-9.5E-07,0.00571375
,,,-9.4E-07,0.0058325
,,,-9.3E-07,0.006044375
,,,-9.2E-07,0.005678125
,,,-9.1E-07,0.00611625
,,,-9E-07,0.005740625
,,,-8.9E-07,0.006049375
,,,-8.8E-07,0.0058075
,,,-8.7E-07,0.00608375
,,,-8.6E-07,0.005885
,,,-8.5E-07,0.006028125
,,,-8.4E-07,0.005865
,,,-8.3E-07,0.00571
,,,-8.2E-07,0.00591
,,,-8.1E-07,0.005945
,,,-8E-07,0.005795625
,,,-7.9E-07,0.006249375
,,,-7.8E-07,0.005874375
,,,-7.7E-07,0.0059525
,,,-7.6E-07,0.006211875
,,,-7.5E-07,0.005830625
,,,-7.4E-07,0.0058875
,,,-7.3E-07,0.00601375
,,,-7.2E-07,0.005849375
,,,-7.1E-07,0.005990625
,,,-7E-07,0.00585375
,,,-6.9E-07,0.005756875
,,,-6.8E-07,0.005795625
,,,-6.7E-07,0.0057825
,,,-6.6E-07,0.006024375
,,,-6.5E-07,0.005843125
,,,-6.4E-07,0.006009375
,,,-6.3E-07,0.0058625
,,,-6.2E-07,0.00616875
,,,-6.1E-07,0.00566375
,,,-6E-07,0.00597125
,,,-5.9E-07,0.005963125
,,,-5.8E-07,0.0060475
,,,-5.7E-07,0.00588
,,,-5.6E-07,0.005680625
,,,-5.5E-07,0.005691875
,,,-5.4E-07,0.005819375
,,,-5.3E-07,0.00594625
,,,-5.2E-07,0.005919375
,,,-5.1E-07,0.00586875
,,,-5E-07,0.005954375
,,,-4.9E-07,0.005825625
,,,-4.8E-07,0.00574625
,,,-4.7E-07,0.005795
,,,-4.6E-07,0.00582375
,,,-4.5E-07,0.005901875
,,,-4.4E-07,0.005736875
,,,-4.3E-07,0.0056525
,,,-4.2E-07,0.005813125
,,,-4.1E-07,0.00609125
,,,-4E-07,0.0058575
,,,-3.9E-07,0.005740625
,,,-3.8E-07,0.00583625
,,,-3.7E-07,0.006040625
,,,-3.6E-07,0.00560625
,,,-3.5E-07,0.005899375
,,,-3.4E-07,0.00574375
,,,-3.3E-07,0.00575625
,,,-3.2E-07,0.006175
,,,-3.1E-07,0.00566
,,,-3E-07,0.005733125
,,,-2.9E-07,0.005821875
,,,-2.8E-07,0.005961875
,,,-2.7E-07,0.00598
,,,-2.6E-07,0.006038125
,,,-2.5E-07,0.005801875
,,,-2.4E-07,0.00586125
,,,-2.3E-07,0.00589875
,,,-2.2E-07,0.005906875
,,,-2.1E-07,0.005855625
,,,-2E-07,0.005835625
,,,-1.9E-07,0.00602625
,,,-1.8E-07,0.006065625
,,,-1.7E-07,0.005929375
,,,-1.6E-07,0.00584875
,,,-1.5E-07,0.006065625
,,,-1.4E-07,0.005696875
,,,-1.3E-07,0.005845625
,,,-1.2E-07,0.006041875
,,,-1.1E-07,0.005964375
,,,-1E-07,0.0062875
,,,-9E-08,0.005971875
,,,-8E-08,0.0059175
,,,-7E-08,0.00597375
,,,-6E-08,0.006053125
,,,-5E-08,0.005943125
,,,-4E-08,0.0067075
,,,-3E-08,0.00721125
,,,-2E-08,0.004611875
,,,-1E-08,0.002629375
,,,0,0.003333125
,,,1E-08,0.00815125
,,,2E-08,0.009693125
,,,3E-08,0.008961875
,,,4E-08,0.005456875
,,,5E-08,0.003321875
,,,6E-08,0.00284125
,,,7E-08,0.004883125
,,,8E-08,0.00680125
,,,9E-08,0.007916875
,,,1E-07,0.007999375
,,,1.1E-07,0.0063
,,,1.2E-07,0.005095625
,,,1.3E-07,0.004323125
,,,1.4E-07,0.00536
,,,1.5E-07,0.006040625
,,,1.6E-07,0.00662625
,,,1.7E-07,0.00635
,,,1.8E-07,0.006083125
,,,1.9E-07,0.00590125
,,,2E-07,0.005844375
,,,2.1E-07,0.005789375
,,,2.2E-07,0.00545125
,,,2.3E-07,0.00572375
,,,2.4E-07,0.006099375
,,,2.5E-07,0.00588625
,,,2.6E-07,0.00579875
,,,2.7E-07,0.00582375
,,,2.8E-07,0.005840625
,,,2.9E-07,0.005865
,,,3E-07,0.00593625
,,,3.1E-07,0.0057825
,,,3.2E-07,0.00600125
,,,3.3E-07,0.00588375
,,,3.4E-07,0.00566875
,,,3.5E-07,0.005885
,,,3.6E-07,0.005781875
,,,3.7E-07,0.005995
,,,3.8E-07,0.00608625
,,,3.9E-07,0.005945
,,,4E-07,0.005838125
,,,4.1E-07,0.00583375
,,,4.2E-07,0.0058175
,,,4.3E-07,0.00576
,,,4.4E-07,0.005931875
,,,4.5E-07,0.005816875
,,,4.6E-07,0.0058375
,,,4.7E-07,0.00609375
,,,4.8E-07,0.0061275
,,,4.9E-07,0.00578875
,,,5E-07,0.005978125
,,,5.1E-07,0.00611375
,,,5.2E-07,0.005908125
,,,5.3E-07,0.005756875
,,,5.4E-07,0.005785625
,,,5.5E-07,0.00599
,,,5.6E-07,0.005973125
,,,5.7E-07,0.00575625
,,,5.8E-07,0.005865625
,,,5.9E-07,0.00592125
,,,6E-07,0.0058125
,,,6.1E-07,0.0057625
,,,6.2E-07,0.005863125
,,,6.3E-07,0.006134375
,,,6.4E-07,0.005994375
,,,6.5E-07,0.0059275
,,,6.6E-07,0.005944375
,,,6.7E-07,0.00573875
,,,6.8E-07,0.0058725
,,,6.9E-07,0.0058525
,,,7E-07,0.00590375
,,,7.1E-07,0.00589375
,,,7.2E-07,0.00571375
,,,7.3E-07,0.00595375
,,,7.4E-07,0.0061025
,,,7.5E-07,0.005951875
,,,7.6E-07,0.005718125
,,,7.7E-07,0.00570875
,,,7.8E-07,0.006055625
,,,7.9E-07,0.00572875
,,,8E-07,0.005861875
,,,8.1E-07,0.00585375
,,,8.2E-07,0.0058175
,,,8.3E-07,0.005808125
,,,8.4E-07,0.00606375
,,,8.5E-07,0.005985625
,,,8.6E-07,0.005935625
,,,8.7E-07,0.00599125
,,,8.8E-07,0.005863125
,,,8.9E-07,0.005855625
,,,9E-07,0.0061125
,,,9.1E-07,0.006059375
,,,9.2E-07,0.006081875
,,,9.3E-07,0.005983125
,,,9.4E-07,0.0056775
,,,9.5E-07,0.005820625
,,,9.6E-07,0.00584125
,,,9.7E-07,0.005743125
,,,9.8E-07,0.00598
,,,9.9E-07,0.005929375
,,,1E-06,0.005783125
,,,1.01E-06,0.005978125
,,,1.02E-06,0.00602125
,,,1.03E-06,0.0058025
,,,1.04E-06,0.00567125
,,,1.05E-06,0.006075625
,,,1.06E-06,0.005895625
,,,1.07E-06,0.005881875
,,,1.08E-06,0.005925
,,,1.09E-06,0.00603
,,,1.1E-06,0.0059675
,,,1.11E-06,0.006005625
,,,1.12E-06,0.0059475
,,,1.13E-06,0.0057875
,,,1.14E-06,0.00608625
,,,1.15E-06,0.0059275
,,,1.16E-06,0.0060475
,,,1.17E-06,0.005894375
,,,1.18E-06,0.0059025
,,,1.19E-06,0.0056775
,,,1.2E-06,0.00581
,,,1.21E-06,0.0058575
,,,1.22E-06,0.00603875
,,,1.23E-06,0.005760625
,,,1.24E-06,0.006140625
,,,1.25E-06,0.005876875
,,,1.26E-06,0.00583125
,,,1.27E-06,0.0058225
,,,1.28E-06,0.005935
,,,1.29E-06,0.00585
,,,1.3E-06,0.005738125
,,,1.31E-06,0.005834375
,,,1.32E-06,0.00583625
,,,1.33E-06,0.0058275
,,,1.34E-06,0.00587875
,,,1.35E-06,0.005941875
,,,1.36E-06,0.0060575
,,,1.37E-06,0.00576
,,,1.38E-06,0.006016875
,,,1.39E-06,0.005954375
,,,1.4E-06,0.0059625
,,,1.41E-06,0.005834375
,,,1.42E-06,0.005776875
,,,1.43E-06,0.005794375
,,,1.44E-06,0.00551125
,,,1.45E-06,0.006025
,,,1.46E-06,0.005600625
,,,1.47E-06,0.00557375
,,,1.48E-06,0.005803125
,,,1.49E-06,0.006000625
,,,1.5E-06,0.005739375
,,,1.51E-06,0.005884375
,,,1.52E-06,0.00571875
,,,1.53E-06,0.005930625
,,,1.54E-06,0.0055375
,,,1.55E-06,0.005948125
,,,1.56E-06,0.00595875
,,,1.57E-06,0.00596625
,,,1.58E-06,0.006005625
,,,1.59E-06,0.00609375
,,,1.6E-06,0.006129375
,,,1.61E-06,0.0058725
,,,1.62E-06,0.005801875
,,,1.63E-06,0.005888125
,,,1.64E-06,0.006045
,,,1.65E-06,0.006123125
,,,1.66E-06,0.006008125
,,,1.67E-06,0.00596125
,,,1.68E-06,0.005696875
,,,1.69E-06,0.0058625
,,,1.7E-06,0.0061825
,,,1.71E-06,0.00594875
,,,1.72E-06,0.0057675
,,,1.73E-06,0.005915625
,,,1.74E-06,0.005891875
,,,1.75E-06,0.006060625
,,,1.76E-06,0.00610375
,,,1.77E-06,0.005735
,,,1.78E-06,0.00599375
,,,1.79E-06,0.0059475
,,,1.8E-06,0.006019375
,,,1.81E-06,0.00592375
,,,1.82E-06,0.006155
,,,1.83E-06,0.0058975
,,,1.84E-06,0.006028125
,,,1.85E-06,0.0060575
,,,1.86E-06,0.00586
,,,1.87E-06,0.005645
,,,1.88E-06,0.006034375
,,,1.89E-06,0.005779375
,,,1.9E-06,0.005875625
,,,1.91E-06,0.005781875
,,,1.92E-06,0.005729375
,,,1.93E-06,0.006085625
,,,1.94E-06,0.0059175
,,,1.95E-06,0.005923125
,,,1.96E-06,0.0057475
,,,1.97E-06,0.005754375
,,,1.98E-06,0.005825625
,,,1.99E-06,0.006114375
,,,2E-06,0.00607125
,,,2.01E-06,0.005968125
,,,2.02E-06,0.005846875
,,,2.03E-06,0.00585
,,,2.04E-06,0.006014375
,,,2.05E-06,0.006195
,,,2.06E-06,0.005941875
,,,2.07E-06,0.005960625
,,,2.08E-06,0.005999375
,,,2.09E-06,0.006134375
,,,2.1E-06,0.005805
,,,2.11E-06,0.005976875
,,,2.12E-06,0.005856875
,,,2.13E-06,0.0059675
,,,2.14E-06,0.00612375
,,,2.15E-06,0.005813125
,,,2.16E-06,0.005833125
,,,2.17E-06,0.0059425
,,,2.18E-06,0.00562
,,,2.19E-06,0.00625
,,,2.2E-06,0.005703125
,,,2.21E-06,0.0058675
,,,2.22E-06,0.006084375
,,,2.23E-06,0.00595
,,,2.24E-06,0.005974375
,,,2.25E-06,0.005919375
,,,2.26E-06,0.006075
,,,2.27E-06,0.005931875
,,,2.28E-06,0.006015
,,,2.29E-06,0.00599
,,,2.3E-06,0.00612
,,,2.31E-06,0.006140625
,,,2.32E-06,0.005814375
,,,2.33E-06,0.00588
,,,2.34E-06,0.00590625
,,,2.35E-06,0.005851875
,,,2.36E-06,0.00605625
,,,2.37E-06,0.00583
,,,2.38E-06,0.005910625
,,,2.39E-06,0.006075
,,,2.4E-06,0.0061875
,,,2.41E-06,0.00597
,,,2.42E-06,0.005715625
,,,2.43E-06,0.005985625
,,,2.44E-06,0.005906875
,,,2.45E-06,0.005616875
,,,2.46E-06,0.005939375
,,,2.47E-06,0.006095
,,,2.48E-06,0.006035625
,,,2.49E-06,0.00588875
,,,2.5E-06,0.0059175
,,,2.51E-06,0.006090625
,,,2.52E-06,0.005640625
,,,2.53E-06,0.0058025
,,,2.54E-06,0.00626625
,,,2.55E-06,0.006098125
,,,2.56E-06,0.005909375
,,,2.57E-06,0.00602375
,,,2.58E-06,0.00589375
,,,2.59E-06,0.005974375
,,,2.6E-06,0.005779375
,,,2.61E-06,0.005966875
,,,2.62E-06,0.005736875
,,,2.63E-06,0.0059275
,,,2.64E-06,0.00568875
,,,2.65E-06,0.005881875
,,,2.66E-06,0.005966875
,,,2.67E-06,0.0056375
,,,2.68E-06,0.006009375
,,,2.69E-06,0.005914375
,,,2.7E-06,0.0059275
,,,2.71E-06,0.006150625
,,,2.72E-06,0.00591
,,,2.73E-06,0.005995
,,,2.74E-06,0.005843125
,,,2.75E-06,0.0060525
,,,2.76E-06,0.00596625
,,,2.77E-06,0.00589875
,,,2.78E-06,0.005981875
,,,2.79E-06,0.005694375
,,,2.8E-06,0.00623375
,,,2.81E-06,0.005945625
,,,2.82E-06,0.006105
,,,2.83E-06,0.006039375
,,,2.84E-06,0.005740625
,,,2.85E-06,0.005855625
,,,2.86E-06,0.005848125
,,,2.87E-06,0.005963125
,,,2.88E-06,0.006029375
,,,2.89E-06,0.00558
,,,2.9E-06,0.005958125
,,,2.91E-06,0.005930625
,,,2.92E-06,0.00594625
,,,2.93E-06,0.00594375
,,,2.94E-06,0.005940625
,,,2.95E-06,0.005815625
,,,2.96E-06,0.00592
,,,2.97E-06,0.006118125
,,,2.98E-06,0.005941875
,,,2.99E-06,0.006034375
,,,3E-06,0.005914375
,,,3.01E-06,0.00584625
,,,3.02E-06,0.005815625
,,,3.03E-06,0.00597375
,,,3.04E-06,0.005835
,,,3.05E-06,0.00588
,,,3.06E-06,0.005953125
,,,3.07E-06,0.005806875
,,,3.08E-06,0.00596125
,,,3.09E-06,0.00584125
,,,3.1E-06,0.005869375
,,,3.11E-06,0.00597375
,,,3.12E-06,0.00607375
,,,3.13E-06,0.006095625
,,,3.14E-06,0.00601
,,,3.15E-06,0.0059675
,,,3.16E-06,0.00581875
,,,3.17E-06,0.00588
,,,3.18E-06,0.0056175
,,,3.19E-06,0.00585375
,,,3.2E-06,0.005969375
,,,3.21E-06,0.00598375
,,,3.22E-06,0.00579
,,,3.23E-06,0.00600125
,,,3.24E-06,0.005835625
,,,3.25E-06,0.00564375
,,,3.26E-06,0.00606125
,,,3.27E-06,0.00586
,,,3.28E-06,0.00573375
,,,3.29E-06,0.00577375
,,,3.3E-06,0.00574
,,,3.31E-06,0.00611875
,,,3.32E-06,0.00572625
,,,3.33E-06,0.005805625
,,,3.34E-06,0.005945625
,,,3.35E-06,0.006
,,,3.36E-06,0.005826875
,,,3.37E-06,0.005999375
,,,3.38E-06,0.006179375
,,,3.39E-06,0.006054375
,,,3.4E-06,0.00581625
,,,3.41E-06,0.005855625
,,,3.42E-06,0.00612
,,,3.43E-06,0.005968125
,,,3.44E-06,0.005646875
,,,3.45E-06,0.005728125
,,,3.46E-06,0.005985
,,,3.47E-06,0.005889375
,,,3.48E-06,0.0058975
,,,3.49E-06,0.00595875
,,,3.5E-06,0.005819375
,,,3.51E-06,0.005820625
,,,3.52E-06,0.005855
,,,3.53E-06,0.005634375
,,,3.54E-06,0.005635625
,,,3.55E-06,0.005810625
,,,3.56E-06,0.005985625
,,,3.57E-06,0.005945
