data/raw/Final_POL_Test_1/SOP098_Ch4.csv

"Record Length",1000,"Points",-5E-06,0.020684375
"Sample Interval",1E-08,s,-4.99E-06,0.0207375
"Trigger Point",500,"Samples",-4.98E-06,0.020779375
"Trigger Time",0,s,-4.97E-06,0.020636875
"",,,-4.96E-06,0.020675
"Horizontal Offset",-5E-06,s,-4.95E-06,0.0205725
,,,-4.94E-06,0.020815625
,,,-4.93E-06,0.020590625
,,,-4.92E-06,0.02083125
,,,-4.91E-06,0.020804375
,,,-4.9E-06,0.020721875
,,,-4.89E-06,0.020723125
,,,-4.88E-06,0.020816875
,,,-4.87E-06,0.020830625
,,,-4.86E-06,0.020885
,,,-4.85E-06,0.020728125
,,,-4.84E-06,0.02062875
,,,-4.83E-06,0.020991875
,,,-4.82E-06,0.02062375
,,,-4.81E-06,0.020815
,,,-4.8E-06,0.020991875
,,,-4.79E-06,0.020775
,,,-4.78E-06,0.020751875
,,,-4.77E-06,0.0205775
,,,-4.76E-06,0.02083375
,,,-4.75E-06,0.020639375
,,,-4.74E-06,0.020739375
,,,-4.73E-06,0.020700625
,,,-4.72E-06,0.020510625
,,,-4.71E-06,0.020590625
,,,-4.7E-06,0.020925625
,,,-4.69E-06,0.020630625
,,,-4.68E-06,0.020820625
,,,-4.67E-06,0.0207
,,,-4.66E-06,0.020845
,,,-4.65E-06,0.020739375
,,,-4.64E-06,0.020620625
,,,-4.63E-06,0.020794375
,,,-4.62E-06,0.020935
,,,-4.61E-06,0.0208925
,,,-4.6E-06,0.02061375
,,,-4.59E-06,0.0207
,,,-4.58E-06,0.02061375
,,,-4.57E-06,0.020791875
,,,-4.56E-06,0.0208525
,,,-4.55E-06,0.020570625
,,,-4.54E-06,0.020775
,,,-4.53E-06,0.0206625
,,,-4.52E-06,0.02068375
,,,-4.51E-06,0.020771875
,,,-4.5E-06,0.02061125
,,,-4.49E-06,0.020871875
,,,-4.48E-06,0.0207225
,,,-4.47E-06,0.020880625
,,,-4.46E-06,0.02054
,,,-4.45E-06,0.020460625
,,,-4.44E-06,0.020795
,,,-4.43E-06,0.02051625
,,,-4.42E-06,0.020821875
,,,-4.41E-06,0.020794375
,,,-4.4E-06,0.02087875
,,,-4.39E-06,0.02073
,,,-4.38E-06,0.02045
,,,-4.37E-06,0.020439375
,,,-4.36E-06,0.020493125
,,,-4.35E-06,0.020829375
,,,-4.34E-06,0.02051625
,,,-4.33E-06,0.020891875
,,,-4.32E-06,0.020811875
,,,-4.31E-06,0.020998125
,,,-4.3E-06,0.0209775
,,,-4.29E-06,0.020801875
,,,-4.28E-06,0.020800625
,,,-4.27E-06,0.02081
,,,-4.26E-06,0.020759375
,,,-4.25E-06,0.020806875
,,,-4.24E-06,0.020885625
,,,-4.23E-06,0.02058625
,,,-4.22E-06,0.02075375
,,,-4.21E-06,0.02072125
,,,-4.2E-06,0.02057625
,,,-4.19E-06,0.020630625
,,,-4.18E-06,0.020605
,,,-4.17E-06,0.02063
,,,-4.16E-06,0.02077875
,,,-4.15E-06,0.02062
,,,-4.14E-06,0.020239375
,,,-4.13E-06,0.020891875
,,,-4.12E-06,0.02041375
,,,-4.11E-06,0.020706875
,,,-4.1E-06,0.020675625
,,,-4.09E-06,0.020683125
,,,-4.08E-06,0.02047
,,,-4.07E-06,0.02080375
,,,-4.06E-06,0.020775
,,,-4.05E-06,0.02072125
,,,-4.04E-06,0.020695
,,,-4.03E-06,0.020613125
,,,-4.02E-06,0.020779375
,,,-4.01E-06,0.02071
,,,-4E-06,0.02041
,,,-3.99E-06,0.02073125
,,,-3.98E-06,0.0208675
,,,-3.97E-06,0.02086875
,,,-3.96E-06,0.020759375
,,,-3.95E-06,0.020619375
,,,-3.94E-06,0.02068625
,,,-3.93E-06,0.02050875
,,,-3.92E-06,0.020569375
,,,-3.91E-06,0.02080125
,,,-3.9E-06,0.0207925
,,,-3.89E-06,0.02056625
,,,-3.88E-06,0.02059125
,,,-3.87E-06,0.02064625
,,,-3.86E-06,0.020655625
,,,-3.85E-06,0.02067375
,,,-3.84E-06,0.0207275
,,,-3.83E-06,0.020564375
,,,-3.82E-06,0.020646875
,,,-3.81E-06,0.020850625
,,,-3.8E-06,0.020935
,,,-3.79E-06,0.020511875
,,,-3.78E-06,0.020565
,,,-3.77E-06,0.02096375
,,,-3.76E-06,0.020648125
,,,-3.75E-06,0.02074375
,,,-3.74E-06,0.020578125
,,,-3.73E-06,0.0207725
,,,-3.72E-06,0.02046875
,,,-3.71E-06,0.02072375
,,,-3.7E-06,0.020641875
,,,-3.69E-06,0.020825
,,,-3.68E-06,0.020495625
,,,-3.67E-06,0.0205775
,,,-3.66E-06,0.02066125
,,,-3.65E-06,0.020965625
,,,-3.64E-06,0.020664375
,,,-3.63E-06,0.020851875
,,,-3.62E-06,0.02064
,,,-3.61E-06,0.020718125
,,,-3.6E-06,0.020661875
,,,-3.59E-06,0.020625
,,,-3.58E-06,0.020850625
,,,-3.57E-06,0.020704375
,,,-3.56E-06,0.02083
,,,-3.55E-06,0.020470625
,,,-3.54E-06,0.020574375
,,,-3.53E-06,0.020445
,,,-3.52E-06,0.02083875
,,,-3.51E-06,0.0205775
,,,-3.5E-06,0.020961875
,,,-3.49E-06,0.0204925
,,,-3.48E-06,0.020835625
,,,-3.47E-06,0.020678125
,,,-3.46E-06,0.02051875
,,,-3.45E-06,0.021015
,,,-3.44E-06,0.0206025
,,,-3.43E-06,0.020574375
,,,-3.42E-06,0.020765
,,,-3.41E-06,0.02073875
,,,-3.4E-06,0.020969375
,,,-3.39E-06,0.0206525
,,,-3.38E-06,0.02069
,,,-3.37E-06,0.020676875
,,,-3.36E-06,0.020485
,,,-3.35E-06,0.020561875
,,,-3.34E-06,0.02044
,,,-3.33E-06,0.020548125
,,,-3.32E-06,0.02072
,,,-3.31E-06,0.020515
,,,-3.3E-06,0.020594375
,,,-3.29E-06,0.020639375
,,,-3.28E-06,0.020708125
,,,-3.27E-06,0.020503125
,,,-3.26E-06,0.020679375
,,,-3.25E-06,0.020749375
,,,-3.24E-06,0.020805
,,,-3.23E-06,0.020411875
,,,-3.22E-06,0.02061625
,,,-3.21E-06,0.02065375
,,,-3.2E-06,0.020618125
,,,-3.19E-06,0.02061
,,,-3.18E-06,0.02073125
,,,-3.17E-06,0.020984375
,,,-3.16E-06,0.02076125
,,,-3.15E-06,0.0204825
,,,-3.14E-06,0.020818125
,,,-3.13E-06,0.02059625
,,,-3.12E-06,0.020815625
,,,-3.11E-06,0.020751875
,,,-3.1E-06,0.020529375
,,,-3.09E-06,0.0208025
,,,-3.08E-06,0.020675625
,,,-3.07E-06,0.02075625
,,,-3.06E-06,0.02049125
,,,-3.05E-06,0.0204375
,,,-3.04E-06,0.020660625
,,,-3.03E-06,0.020420625
,,,-3.02E-06,0.020711875
,,,-3.01E-06,0.020830625
,,,-3E-06,0.0207625
,,,-2.99E-06,0.0206025
,,,-2.98E-06,0.020714375
,,,-2.97E-06,0.020705
,,,-2.96E-06,0.020431875
,,,-2.95E-06,0.020669375
,,,-2.94E-06,0.020558125
,,,-2.93E-06,0.02096125
,,,-2.92E-06,0.02062
,,,-2.91E-06,0.02054625
,,,-2.9E-06,0.0209
,,,-2.89E-06,0.02067125
,,,-2.88E-06,0.020688125
,,,-2.87E-06,0.020505625
,,,-2.86E-06,0.020659375
,,,-2.85E-06,0.02088125
,,,-2.84E-06,0.02084625
,,,-2.83E-06,0.02060125
,,,-2.82E-06,0.02084125
,,,-2.81E-06,0.020789375
,,,-2.8E-06,0.02083875
,,,-2.79E-06,0.020449375
,,,-2.78E-06,0.020765625
,,,-2.77E-06,0.020451875
,,,-2.76E-06,0.02070625
,,,-2.75E-06,0.0206775
,,,-2.74E-06,0.02088
,,,-2.73E-06,0.020635625
,,,-2.72E-06,0.020596875
,,,-2.71E-06,0.02083625
,,,-2.7E-06,0.020596875
,,,-2.69E-06,0.020615
,,,-2.68E-06,0.02067125
,,,-2.67E-06,0.020758125
,,,-2.66E-06,0.02048875
,,,-2.65E-06,0.020716875
,,,-2.64E-06,0.020880625
,,,-2.63E-06,0.020584375
,,,-2.62E-06,0.0206475
,,,-2.61E-06,0.02069625
,,,-2.6E-06,0.02048875
,,,-2.59E-06,0.020786875
,,,-2.58E-06,0.020604375
,,,-2.57E-06,0.020733125
,,,-2.56E-06,0.020880625
,,,-2.55E-06,0.0206925
,,,-2.54E-06,0.02049125
,,,-2.53E-06,0.02076
,,,-2.52E-06,0.020598125
,,,-2.51E-06,0.020645
,,,-2.5E-06,0.020883125
,,,-2.49E-06,0.02062625
,,,-2.48E-06,0.02056875
,,,-2.47E-06,0.020525625
,,,-2.46E-06,0.020621875
,,,-2.45E-06,0.020651875
,,,-2.44E-06,0.02078625
,,,-2.43E-06,0.02068
,,,-2.42E-06,0.02069625
,,,-2.41E-06,0.02112125
,,,-2.4E-06,0.020886875
,,,-2.39E-06,0.02061875
,,,-2.38E-06,0.0204425
,,,-2.37E-06,0.0208025
,,,-2.36E-06,0.02084875
,,,-2.35E-06,0.020846875
,,,-2.34E-06,0.0203825
,,,-2.33E-06,0.02087375
,,,-2.32E-06,0.02078125
,,,-2.31E-06,0.020438125
,,,-2.3E-06,0.020859375
,,,-2.29E-06,0.020729375
,,,-2.28E-06,0.02061375
,,,-2.27E-06,0.020613125
,,,-2.26E-06,0.020819375
,,,-2.25E-06,0.020645625
,,,-2.24E-06,0.020866875
,,,-2.23E-06,0.020735
,,,-2.22E-06,0.0208525
,,,-2.21E-06,0.020549375
,,,-2.2E-06,0.020615
,,,-2.19E-06,0.02061875
,,,-2.18E-06,0.0207325
,,,-2.17E-06,0.021001875
,,,-2.16E-06,0.0209
,,,-2.15E-06,0.020486875
,,,-2.14E-06,0.020713125
,,,-2.13E-06,0.02083
,,,-2.12E-06,0.02054375
,,,-2.11E-06,0.020971875
,,,-2.1E-06,0.020605625
,,,-2.09E-06,0.020694375
,,,-2.08E-06,0.02076125
,,,-2.07E-06,0.020634375
,,,-2.06E-06,0.020804375
,,,-2.05E-06,0.020714375
,,,-2.04E-06,0.02039375
,,,-2.03E-06,0.020601875
,,,-2.02E-06,0.020708125
,,,-2.01E-06,0.02086625
,,,-2E-06,0.020905625
,,,-1.99E-06,0.020738125
,,,-1.98E-06,0.020916875
,,,-1.97E-06,0.020625
,,,-1.96E-06,0.0204825
,,,-1.95E-06,0.020714375
,,,-1.94E-06,0.02055375
,,,-1.93E-06,0.020923125
,,,-1.92E-06,0.02101
,,,-1.91E-06,0.020755
,,,-1.9E-06,0.020749375
,,,-1.89E-06,0.020560625
,,,-1.88E-06,0.02053375
,,,-1.87E-06,0.020701875
,,,-1.86E-06,0.02089375
,,,-1.85E-06,0.020618125
,,,-1.84E-06,0.020644375
,,,-1.83E-06,0.020538125
,,,-1.82E-06,0.020726875
,,,-1.81E-06,0.020664375
,,,-1.8E-06,0.020715625
,,,-1.79E-06,0.02069
,,,-1.78E-06,0.020619375
,,,-1.77E-06,0.02075375
,,,-1.76E-06,0.02054375
,,,-1.75E-06,0.020755
,,,-1.74E-06,0.021015
,,,-1.73E-06,0.020546875
,,,-1.72E-06,0.02064125
,,,-1.71E-06,0.020555625
,,,-1.7E-06,0.020955
,,,-1.69E-06,0.0207225
,,,-1.68E-06,0.0209525
,,,-1.67E-06,0.02063
,,,-1.66E-06,0.0206325
,,,-1.65E-06,0.020565
,,,-1.64E-06,0.02067875
,,,-1.63E-06,0.020558125
,,,-1.62E-06,0.020959375
,,,-1.61E-06,0.02072
,,,-1.6E-06,0.020368125
,,,-1.59E-06,0.020650625
,,,-1.58E-06,0.020618125
,,,-1.57E-06,0.0208325
,,,-1.56E-06,0.020830625
,,,-1.55E-06,0.0206075
,,,-1.54E-06,0.020928125
,,,-1.53E-06,0.02086875
,,,-1.52E-06,0.0207075
,,,-1.51E-06,0.02049
,,,-1.5E-06,0.0205875
,,,-1.49E-06,0.02093
,,,-1.48E-06,0.020864375
,,,-1.47E-06,0.02091
,,,-1.46E-06,0.02089625
,,,-1.45E-06,0.020875
,,,-1.44E-06,0.020665
,,,-1.43E-06,0.02060875
,,,-1.42E-06,0.02091
,,,-1.41E-06,0.02086625
,,,-1.4E-06,0.020671875
,,,-1.39E-06,0.020655625
,,,-1.38E-06,0.0206025
,,,-1.37E-06,0.020545
,,,-1.36E-06,0.02058
,,,-1.35E-06,0.02085375
,,,-1.34E-06,0.020681875
,,,-1.33E-06,0.02064375
,,,-1.32E-06,0.02067625
,,,-1.31E-06,0.020433125
,,,-1.3E-06,0.020630625
,,,-1.29E-06,0.021016875
,,,-1.28E-06,0.02070875
,,,-1.27E-06,0.02066625
,,,-1.26E-06,0.02092375
,,,-1.25E-06,0.02072375
,,,-1.24E-06,0.020625625
,,,-1.23E-06,0.020549375
,,,-1.22E-06,0.020543125
,,,-1.21E-06,0.02067875
,,,-1.2E-06,0.020724375
,,,-1.19E-06,0.020825
,,,-1.18E-06,0.020645625
,,,-1.17E-06,0.020889375
,,,-1.16E-06,0.020951875
,,,-1.15E-06,0.020641875
,,,-1.14E-06,0.020675
,,,-1.13E-06,0.02073125
,,,-1.12E-06,0.02085375
,,,-1.11E-06,0.020655
,,,-1.1E-06,0.0208475
,,,-1.09E-06,0.020746875
,,,-1.08E-06,0.020825
,,,-1.07E-06,0.02068375
,,,-1.06E-06,0.020709375
,,,-1.05E-06,0.020875
,,,-1.04E-06,0.020485
,,,-1.03E-06,0.0205875
,,,-1.02E-06,0.020745
,,,-1.01E-06,0.020685
,,,-1E-06,0.020748125
,,,-9.9E-07,0.020843125
,,,-9.8E-07,0.02072625
,,,-9.7E-07,0.020616875
,,,-9.6E-07,0.02057
,,,-9.5E-07,0.020674375
,,,-9.4E-07,0.020571875
,,,-9.3E-07,0.020844375
,,,-9.2E-07,0.02088375
,,,-9.1E-07,0.020621875
,,,-9E-07,0.020859375
,,,-8.9E-07,0.020505
,,,-8.8E-07,0.020940625
,,,-8.7E-07,0.020755625
,,,-8.6E-07,0.020608125
,,,-8.5E-07,0.020793125
,,,-8.4E-07,0.02075125
,,,-8.3E-07,0.02067375
,,,-8.2E-07,0.020833125
,,,-8.1E-07,0.02084
,,,-8E-07,0.02063375
,,,-7.9E-07,0.0207875
,,,-7.8E-07,0.02085625
,,,-7.7E-07,0.020819375
,,,-7.6E-07,0.0206825
,,,-7.5E-07,0.020686875
,,,-7.4E-07,0.020695
,,,-7.3E-07,0.02061875
,,,-7.2E-07,0.02062625
,,,-7.1E-07,0.020674375
,,,-7E-07,0.020701875
,,,-6.9E-07,0.02062375
,,,-6.8E-07,0.02093125
,,,-6.7E-07,0.0207325
,,,-6.6E-07,0.0207275
,,,-6.5E-07,0.020716875
,,,-6.4E-07,0.020696875
,,,-6.3E-07,0.020808125
,,,-6.2E-07,0.02058
,,,-6.1E-07,0.020564375
,,,-6E-07,0.020573125
,,,-5.9E-07,0.020714375
,,,-5.8E-07,0.02057375
,,,-5.7E-07,0.020446875
,,,-5.6E-07,0.02026875
,,,-5.5E-07,0.0207
,,,-5.4E-07,0.020459375
,,,-5.3E-07,0.020640625
,,,-5.2E-07,0.020345
,,,-5.1E-07,0.02100125
,,,-5E-07,0.02075125
,,,-4.9E-07,0.0205925
,,,-4.8E-07,0.020659375
,,,-4.7E-07,0.020805625
,,,-4.6E-07,0.020785
,,,-4.5E-07,0.020743125
,,,-4.4E-07,0.0206925
,,,-4.3E-07,0.020736875
,,,-4.2E-07,0.02063875
,,,-4.1E-07,0.020686875
,,,-4E-07,0.020815625
,,,-3.9E-07,0.02081125
,,,-3.8E-07,0.0206375
,,,-3.7E-07,0.021018125
,,,-3.6E-07,0.0207
,,,-3.5E-07,0.02076875
,,,-3.4E-07,0.02084375
,,,-3.3E-07,0.02070875
,,,-3.2E-07,0.020499375
,,,-3.1E-07,0.020616875
,,,-3E-07,0.020654375
,,,-2.9E-07,0.020645625
,,,-2.8E-07,0.020641875
,,,-2.7E-07,0.02076
,,,-2.6E-07,0.021034375
,,,-2.5E-07,0.020825625
,,,-2.4E-07,0.02052875
,,,-2.3E-07,0.020716875
,,,-2.2E-07,0.020875625
,,,-2.1E-07,0.02059625
,,,-2E-07,0.02085875
,,,-1.9E-07,0.020811875
,,,-1.8E-07,0.020650625
,,,-1.7E-07,0.0208575
,,,-1.6E-07,0.020480625
,,,-1.5E-07,0.020695625
,,,-1.4E-07,0.020625625
,,,-1.3E-07,0.020641875
,,,-1.2E-07,0.020828125
,,,-1.1E-07,0.020554375
,,,-1E-07,0.020755
,,,-9E-08,0.02083
,,,-8E-08,0.02070375
,,,-7E-08,0.020298125
,,,-6E-08,0.020558125
,,,-5E-08,0.020965
,,,-4E-08,0.021046875
,,,-3E-08,0.021631875
,,,-2E-08,0.020078125
,,,-1E-08,0.019323125
,,,0,0.019724375
,,,1E-08,0.02159625
,,,2E-08,0.02225125
,,,3E-08,0.021944375
,,,4E-08,0.0205925
,,,5E-08,0.019715
,,,6E-08,0.019423125
,,,7E-08,0.020358125
,,,8E-08,0.02108875
,,,9E-08,0.02150375
,,,1E-07,0.0213975
,,,1.1E-07,0.020979375
,,,1.2E-07,0.020458125
,,,1.3E-07,0.02027
,,,1.4E-07,0.020485
,,,1.5E-07,0.0206575
,,,1.6E-07,0.0209
,,,1.7E-07,0.02081
,,,1.8E-07,0.02087375
,,,1.9E-07,0.020578125
,,,2E-07,0.02060375
,,,2.1E-07,0.02048875
,,,2.2E-07,0.02077375
,,,2.3E-07,0.020606875
,,,2.4E-07,0.02048
,,,2.5E-07,0.02082875
,,,2.6E-07,0.020860625
,,,2.7E-07,0.02076875
,,,2.8E-07,0.02081375
,,,2.9E-07,0.02082875
,,,3E-07,0.02063125
,,,3.1E-07,0.020771875
,,,3.2E-07,0.02099
,,,3.3E-07,0.02081625
,,,3.4E-07,0.0207475
,,,3.5E-07,0.0206925
,,,3.6E-07,0.020675625
,,,3.7E-07,0.020889375
,,,3.8E-07,0.020621875
,,,3.9E-07,0.02084
,,,4E-07,0.020664375
,,,4.1E-07,0.020769375
,,,4.2E-07,0.020645
,,,4.3E-07,0.02072
,,,4.4E-07,0.020675625
,,,4.5E-07,0.020860625
,,,4.6E-07,0.020964375
,,,4.7E-07,0.020715625
,,,4.8E-07,0.02088125
,,,4.9E-07,0.020469375
,,,5E-07,0.0209325
,,,5.1E-07,0.02060375
,,,5.2E-07,0.020621875
,,,5.3E-07,0.0208175
,,,5.4E-07,0.0208125
,,,5.5E-07,0.0207175
,,,5.6E-07,0.020744375
,,,5.7E-07,0.02065875
,,,5.8E-07,0.02054
,,,5.9E-07,0.02047625
,,,6E-07,0.020614375
,,,6.1E-07,0.020609375
,,,6.2E-07,0.020675625
,,,6.3E-07,0.020848125
,,,6.4E-07,0.020635
,,,6.5E-07,0.020451875
,,,6.6E-07,0.020764375
,,,6.7E-07,0.0205725
,,,6.8E-07,0.020625
,,,6.9E-07,0.0208375
,,,7E-07,0.020725
,,,7.1E-07,0.020654375
,,,7.2E-07,0.020705
,,,7.3E-07,0.020651875
,,,7.4E-07,0.020610625
,,,7.5E-07,0.02088125
,,,7.6E-07,0.020554375
,,,7.7E-07,0.020765625
,,,7.8E-07,0.02065375
,,,7.9E-07,0.02070875
,,,8E-07,0.020738125
,,,8.1E-07,0.02093125
,,,8.2E-07,0.020655
,,,8.3E-07,0.02076875
,,,8.4E-07,0.0206325
,,,8.5E-07,0.020876875
,,,8.6E-07,0.020804375
,,,8.7E-07,0.02078125
,,,8.8E-07,0.02071875
,,,8.9E-07,0.020835625
,,,9E-07,0.02068
,,,9.1E-07,0.020873125
,,,9.2E-07,0.020678125
,,,9.3E-07,0.020708125
,,,9.4E-07,0.020618125
,,,9.5E-07,0.020865625
,,,9.6E-07,0.020705625
,,,9.7E-07,0.0206375
,,,9.8E-07,0.020625
,,,9.9E-07,0.020465
,,,1E-06,0.020878125
,,,1.01E-06,0.020698125
,,,1.02E-06,0.02064125
,,,1.03E-06,0.020805
,,,1.04E-06,0.020775
,,,1.05E-06,0.020555
,,,1.06E-06,0.020806875
,,,1.07E-06,0.020605
,,,1.08E-06,0.02074375
,,,1.09E-06,0.02052375
,,,1.1E-06,0.0209575
,,,1.11E-06,0.020546875
,,,1.12E-06,0.020586875
,,,1.13E-06,0.02072125
,,,1.14E-06,0.020533125
,,,1.15E-06,0.020683125
,,,1.16E-06,0.0209
,,,1.17E-06,0.02085
,,,1.18E-06,0.02053625
,,,1.19E-06,0.020758125
,,,1.2E-06,0.0207225
,,,1.21E-06,0.02064125
,,,1.22E-06,0.020715625
,,,1.23E-06,0.0206875
,,,1.24E-06,0.020555
,,,1.25E-06,0.020779375
,,,1.26E-06,0.020405625
,,,1.27E-06,0.020891875
,,,1.28E-06,0.020688125
,,,1.29E-06,0.020731875
,,,1.3E-06,0.0207175
,,,1.31E-06,0.020710625
,,,1.32E-06,0.02068375
,,,1.33E-06,0.0205975
,,,1.34E-06,0.020553125
,,,1.35E-06,0.0205475
,,,1.36E-06,0.020574375
,,,1.37E-06,0.0208525
,,,1.38E-06,0.0207675
,,,1.39E-06,0.020730625
,,,1.4E-06,0.020610625
,,,1.41E-06,0.0206425
,,,1.42E-06,0.020758125
,,,1.43E-06,0.02056625
,,,1.44E-06,0.02067875
,,,1.45E-06,0.020688125
,,,1.46E-06,0.020849375
,,,1.47E-06,0.020655
,,,1.48E-06,0.020779375
,,,1.49E-06,0.0207025
,,,1.5E-06,0.020591875
,,,1.51E-06,0.020823125
,,,1.52E-06,0.020740625
,,,1.53E-06,0.02062625
,,,1.54E-06,0.020715
,,,1.55E-06,0.02072125
,,,1.56E-06,0.02076
,,,1.57E-06,0.02080125
,,,1.58E-06,0.02074375
,,,1.59E-06,0.020519375
,,,1.6E-06,0.020739375
,,,1.61E-06,0.020701875
,,,1.62E-06,0.020603125
,,,1.63E-06,0.02089375
,,,1.64E-06,0.020723125
,,,1.65E-06,0.020639375
,,,1.66E-06,0.020915
,,,1.67E-06,0.0207275
,,,1.68E-06,0.02071375
,,,1.69E-06,0.0207025
,,,1.7E-06,0.020600625
,,,1.71E-06,0.020635
,,,1.72E-06,0.020758125
,,,1.73E-06,0.0209525
,,,1.74E-06,0.020744375
,,,1.75E-06,0.0207575
,,,1.76E-06,0.020634375
,,,1.77E-06,0.02097625
,,,1.78E-06,0.020739375
,,,1.79E-06,0.02057
,,,1.8E-06,0.02083875
,,,1.81E-06,0.0206525
,,,1.82E-06,0.020754375
,,,1.83E-06,0.020675625
,,,1.84E-06,0.020498125
,,,1.85E-06,0.020829375
,,,1.86E-06,0.0207625
,,,1.87E-06,0.020645
,,,1.88E-06,0.020598125
,,,1.89E-06,0.020898125
,,,1.9E-06,0.020499375
,,,1.91E-06,0.02070125
,,,1.92E-06,0.020926875
,,,1.93E-06,0.02072125
,,,1.94E-06,0.0208725
,,,1.95E-06,0.020685
,,,1.96E-06,0.020698125
,,,1.97E-06,0.020684375
,,,1.98E-06,0.020798125
,,,1.99E-06,0.020831875
,,,2E-06,0.020688125
,,,2.01E-06,0.020615625
,,,2.02E-06,0.02063625
,,,2.03E-06,0.02065875
,,,2.04E-06,0.020693125
,,,2.05E-06,0.021080625
,,,2.06E-06,0.020523125
,,,2.07E-06,0.02068375
,,,2.08E-06,0.02076875
,,,2.09E-06,0.020574375
,,,2.1E-06,0.020549375
,,,2.11E-06,0.02066375
,,,2.12E-06,0.020430625
,,,2.13E-06,0.020708125
,,,2.14E-06,0.020596875
,,,2.15E-06,0.0208575
,,,2.16E-06,0.020576875
,,,2.17E-06,0.020795
,,,2.18E-06,0.0206625
,,,2.19E-06,0.020644375
,,,2.2E-06,0.02073125
,,,2.21E-06,0.0209825
,,,2.22E-06,0.02079625
,,,2.23E-06,0.020621875
,,,2.24E-06,0.02061
,,,2.25E-06,0.020896875
,,,2.26E-06,0.020864375
,,,2.27E-06,0.020826875
,,,2.28E-06,0.020899375
,,,2.29E-06,0.02074
,,,2.3E-06,0.020761875
,,,2.31E-06,0.0207075
,,,2.32E-06,0.020745625
,,,2.33E-06,0.02085
,,,2.34E-06,0.020731875
,,,2.35E-06,0.020909375
,,,2.36E-06,0.02073375
,,,2.37E-06,0.02060875
,,,2.38E-06,0.020881875
,,,2.39E-06,0.020749375
,,,2.4E-06,0.02062875
,,,2.41E-06,0.020461875
,,,2.42E-06,0.020818125
,,,2.43E-06,0.0207825
,,,2.44E-06,0.02063625
,,,2.45E-06,0.020840625
,,,2.46E-06,0.02068
,,,2.47E-06,0.020783125
,,,2.48E-06,0.0205775
,,,2.49E-06,0.02054875
,,,2.5E-06,0.020571875
,,,2.51E-06,0.020710625
,,,2.52E-06,0.02088
,,,2.53E-06,0.02086125
,,,2.54E-06,0.020826875
,,,2.55E-06,0.020600625
,,,2.56E-06,0.020476875
,,,2.57E-06,0.0207825
,,,2.58E-06,0.020545625
,,,2.59E-06,0.02069125
,,,2.6E-06,0.020794375
,,,2.61E-06,0.020914375
,,,2.62E-06,0.021033125
,,,2.63E-06,0.020713125
,,,2.64E-06,0.020630625
,,,2.65E-06,0.020675625
,,,2.66E-06,0.020600625
,,,2.67E-06,0.020600625
,,,2.68E-06,0.0205875
,,,2.69E-06,0.020453125
,,,2.7E-06,0.02061875
,,,2.71E-06,0.020908125
,,,2.72E-06,0.020855
,,,2.73E-06,0.020673125
,,,2.74E-06,0.02067875
,,,2.75E-06,0.02067125
,,,2.76E-06,0.02048125
,,,2.77E-06,0.0206475
,,,2.78E-06,0.02083
,,,2.79E-06,0.020784375
,,,2.8E-06,0.020580625
,,,2.81E-06,0.020618125
,,,2.82E-06,0.020681875
,,,2.83E-06,0.020705625
,,,2.84E-06,0.020525
,,,2.85E-06,0.02069125
,,,2.86E-06,0.02075
,,,2.87E-06,0.020656875
,,,2.88E-06,0.020603125
,,,2.89E-06,0.020471875
,,,2.9E-06,0.020745
,,,2.91E-06,0.0207
,,,2.92E-06,0.020640625
,,,2.93E-06,0.02075625
,,,2.94E-06,0.02062
,,,2.95E-06,0.020489375
,,,2.96E-06,0.020995
,,,2.97E-06,0.020591875
,,,2.98E-06,0.0207725
,,,2.99E-06,0.020733125
,,,3E-06,0.02069
,,,3.01E-06,0.020570625
,,,3.02E-06,0.02071625
,,,3.03E-06,0.020615625
,,,3.04E-06,0.02095375
,,,3.05E-06,0.020451875
,,,3.06E-06,0.02071125
,,,3.07E-06,0.020719375
,,,3.08E-06,0.0209025
,,,3.09E-06,0.020755
,,,3.1E-06,0.0207375
,,,3.11E-06,0.020924375
,,,3.12E-06,0.020615625
,,,3.13E-06,0.020619375
,,,3.14E-06,0.020745
,,,3.15E-06,0.02076875
,,,3.16E-06,0.020743125
,,,3.17E-06,0.02053
,,,3.18E-06,0.0208725
,,,3.19E-06,0.020669375
,,,3.2E-06,0.0207075
,,,3.21E-06,0.020604375
,,,3.22E-06,0.02059375
,,,3.23E-06,0.020513125
,,,3.24E-06,0.020845625
,,,3.25E-06,0.020700625
,,,3.26E-06,0.020504375
,,,3.27E-06,0.020586875
,,,3.28E-06,0.02048375
,,,3.29E-06,0.020581875
,,,3.3E-06,0.020746875
,,,3.31E-06,0.02057
,,,3.32E-06,0.020768125
,,,3.33E-06,0.02043
,,,3.34E-06,0.020455625
,,,3.35E-06,0.020655625
,,,3.36E-06,0.020445625
,,,3.37E-06,0.020814375
,,,3.38E-06,0.020690625
,,,3.39E-06,0.02091375
,,,3.4E-06,0.0206725
,,,3.41E-06,0.020695
,,,3.42E-06,0.02073375
,,,3.43E-06,0.02064375
,,,3.44E-06,0.020693125
,,,3.45E-06,0.02080375
,,,3.46E-06,0.020659375
,,,3.47E-06,0.020885
,,,3.48E-06,0.020789375
,,,3.49E-06,0.020475625
,,,3.5E-06,0.02056625
,,,3.51E-06,0.02083625
,,,3.52E-06,0.020855
,,,3.53E-06,0.02068
,,,3.54E-06,0.020809375
,,,3.55E-06,0.020563125
,,,3.56E-06,0.020779375
,,,3.57E-06,0.020433125
,,,3.58E-06,0.0203675
,,,3.59E-06,0.020705
