data/raw/Final_POL_Test_1/SOP003_Ch3.csv

"Record Length",1000,"Points",-5E-06,0.020993126
"Sample Interval",1E-08,s,-4.99E-06,0.021438126
"Trigger Point",500,"Samples",-4.98E-06,0.021248126
"Trigger Time",0,s,-4.97E-06,0.021176876
"",,,-4.96E-06,0.021013126
"Horizontal Offset",-5E-06,s,-4.95E-06,0.021268126
,,,-4.94E-06,0.021236251
,,,-4.93E-06,0.020776876
,,,-4.92E-06,0.021300626
,,,-4.91E-06,0.021067501
,,,-4.9E-06,0.021188126
,,,-4.89E-06,0.021143751
,,,-4.88E-06,0.021241251
,,,-4.87E-06,0.021145001
,,,-4.86E-06,0.021395001
,,,-4.85E-06,0.021187501
,,,-4.84E-06,0.020997501
,,,-4.83E-06,0.020862501
,,,-4.82E-06,0.021117501
,,,-4.81E-06,0.021120626
,,,-4.8E-06,0.021032501
,,,-4.79E-06,0.021185001
,,,-4.78E-06,0.021135626
,,,-4.77E-06,0.021221876
,,,-4.76E-06,0.021014376
,,,-4.75E-06,0.021174376
,,,-4.74E-06,0.021182501
,,,-4.73E-06,0.021308126
,,,-4.72E-06,0.021111251
,,,-4.71E-06,0.021049376
,,,-4.7E-06,0.021103751
,,,-4.69E-06,0.021146251
,,,-4.68E-06,0.021313751
,,,-4.67E-06,0.021052501
,,,-4.66E-06,0.021196876
,,,-4.65E-06,0.021194376
,,,-4.64E-06,0.021095626
,,,-4.63E-06,0.021117501
,,,-4.62E-06,0.021270626
,,,-4.61E-06,0.021111251
,,,-4.6E-06,0.021231251
,,,-4.59E-06,0.021006876
,,,-4.58E-06,0.020986876
,,,-4.57E-06,0.021191251
,,,-4.56E-06,0.021249376
,,,-4.55E-06,0.021276251
,,,-4.54E-06,0.021168751
,,,-4.53E-06,0.021197501
,,,-4.52E-06,0.021089376
,,,-4.51E-06,0.021098126
,,,-4.5E-06,0.021285001
,,,-4.49E-06,0.021175626
,,,-4.48E-06,0.021266251
,,,-4.47E-06,0.021439376
,,,-4.46E-06,0.021111876
,,,-4.45E-06,0.021288126
,,,-4.44E-06,0.021357501
,,,-4.43E-06,0.021065001
,,,-4.42E-06,0.021035001
,,,-4.41E-06,0.021153751
,,,-4.4E-06,0.021061251
,,,-4.39E-06,0.021223751
,,,-4.38E-06,0.021006251
,,,-4.37E-06,0.021248751
,,,-4.36E-06,0.021138126
,,,-4.35E-06,0.021298751
,,,-4.34E-06,0.021026251
,,,-4.33E-06,0.021393126
,,,-4.32E-06,0.020942501
,,,-4.31E-06,0.021448751
,,,-4.3E-06,0.021196251
,,,-4.29E-06,0.021505001
,,,-4.28E-06,0.021128751
,,,-4.27E-06,0.021334376
,,,-4.26E-06,0.021042501
,,,-4.25E-06,0.021155626
,,,-4.24E-06,0.021190626
,,,-4.23E-06,0.021302501
,,,-4.22E-06,0.021114376
,,,-4.21E-06,0.021156251
,,,-4.2E-06,0.021089376
,,,-4.19E-06,0.021121876
,,,-4.18E-06,0.020954376
,,,-4.17E-06,0.020940626
,,,-4.16E-06,0.021177501
,,,-4.15E-06,0.021231251
,,,-4.14E-06,0.020999376
,,,-4.13E-06,0.020971251
,,,-4.12E-06,0.021316251
,,,-4.11E-06,0.021400001
,,,-4.1E-06,0.021185001
,,,-4.09E-06,0.021038126
,,,-4.08E-06,0.021120626
,,,-4.07E-06,0.021193751
,,,-4.06E-06,0.021196251
,,,-4.05E-06,0.021288126
,,,-4.04E-06,0.021266251
,,,-4.03E-06,0.021106876
,,,-4.02E-06,0.021065626
,,,-4.01E-06,0.021135626
,,,-4E-06,0.021093126
,,,-3.99E-06,0.021261876
,,,-3.98E-06,0.021341876
,,,-3.97E-06,0.021164376
,,,-3.96E-06,0.021012501
,,,-3.95E-06,0.021195001
,,,-3.94E-06,0.021372501
,,,-3.93E-06,0.020865626
,,,-3.92E-06,0.021123126
,,,-3.91E-06,0.021412501
,,,-3.9E-06,0.021201876
,,,-3.89E-06,0.021165001
,,,-3.88E-06,0.021145001
,,,-3.87E-06,0.020905001
,,,-3.86E-06,0.021250626
,,,-3.85E-06,0.021257501
,,,-3.84E-06,0.021283126
,,,-3.83E-06,0.021250001
,,,-3.82E-06,0.021159376
,,,-3.81E-06,0.021074376
,,,-3.8E-06,0.021347501
,,,-3.79E-06,0.021236876
,,,-3.78E-06,0.021297501
,,,-3.77E-06,0.020994376
,,,-3.76E-06,0.020968751
,,,-3.75E-06,0.021246251
,,,-3.74E-06,0.021136876
,,,-3.73E-06,0.021243126
,,,-3.72E-06,0.021385001
,,,-3.71E-06,0.021186876
,,,-3.7E-06,0.021271251
,,,-3.69E-06,0.021127501
,,,-3.68E-06,0.021220626
,,,-3.67E-06,0.021206876
,,,-3.66E-06,0.021267501
,,,-3.65E-06,0.021361876
,,,-3.64E-06,0.021243126
,,,-3.63E-06,0.021238751
,,,-3.62E-06,0.021193751
,,,-3.61E-06,0.021212501
,,,-3.6E-06,0.021304376
,,,-3.59E-06,0.020993751
,,,-3.58E-06,0.021246251
,,,-3.57E-06,0.021208126
,,,-3.56E-06,0.021050001
,,,-3.55E-06,0.021160001
,,,-3.54E-06,0.021301251
,,,-3.53E-06,0.021080626
,,,-3.52E-06,0.021150626
,,,-3.51E-06,0.021216876
,,,-3.5E-06,0.021323126
,,,-3.49E-06,0.021169376
,,,-3.48E-06,0.021240001
,,,-3.47E-06,0.021246251
,,,-3.46E-06,0.021401876
,,,-3.45E-06,0.021176876
,,,-3.44E-06,0.021205626
,,,-3.43E-06,0.021188751
,,,-3.42E-06,0.021171251
,,,-3.41E-06,0.021053751
,,,-3.4E-06,0.021047501
,,,-3.39E-06,0.021244376
,,,-3.38E-06,0.021110626
,,,-3.37E-06,0.021270001
,,,-3.36E-06,0.021325001
,,,-3.35E-06,0.021097501
,,,-3.34E-06,0.021280001
,,,-3.33E-06,0.021259376
,,,-3.32E-06,0.021235626
,,,-3.31E-06,0.020983751
,,,-3.3E-06,0.021136876
,,,-3.29E-06,0.021314376
,,,-3.28E-06,0.020868126
,,,-3.27E-06,0.021304376
,,,-3.26E-06,0.021012501
,,,-3.25E-06,0.021223126
,,,-3.24E-06,0.021316251
,,,-3.23E-06,0.020888126
,,,-3.22E-06,0.021366251
,,,-3.21E-06,0.021301251
,,,-3.2E-06,0.021195626
,,,-3.19E-06,0.021078126
,,,-3.18E-06,0.020983126
,,,-3.17E-06,0.021106251
,,,-3.16E-06,0.021253126
,,,-3.15E-06,0.021276876
,,,-3.14E-06,0.021462501
,,,-3.13E-06,0.020960001
,,,-3.12E-06,0.020998751
,,,-3.11E-06,0.021203126
,,,-3.1E-06,0.021346876
,,,-3.09E-06,0.021046876
,,,-3.08E-06,0.021191251
,,,-3.07E-06,0.021030001
,,,-3.06E-06,0.021303126
,,,-3.05E-06,0.021031876
,,,-3.04E-06,0.021184376
,,,-3.03E-06,0.021109376
,,,-3.02E-06,0.021070626
,,,-3.01E-06,0.021192501
,,,-3E-06,0.021390001
,,,-2.99E-06,0.021305001
,,,-2.98E-06,0.021228126
,,,-2.97E-06,0.021373126
,,,-2.96E-06,0.021091251
,,,-2.95E-06,0.021543751
,,,-2.94E-06,0.021276251
,,,-2.93E-06,0.021106876
,,,-2.92E-06,0.021021876
,,,-2.91E-06,0.021318751
,,,-2.9E-06,0.021270001
,,,-2.89E-06,0.021175001
,,,-2.88E-06,0.021227501
,,,-2.87E-06,0.021061876
,,,-2.86E-06,0.021296251
,,,-2.85E-06,0.021327501
,,,-2.84E-06,0.021085001
,,,-2.83E-06,0.021245626
,,,-2.82E-06,0.021085626
,,,-2.81E-06,0.021166251
,,,-2.8E-06,0.021256251
,,,-2.79E-06,0.021063126
,,,-2.78E-06,0.020995626
,,,-2.77E-06,0.021271251
,,,-2.76E-06,0.021326251
,,,-2.75E-06,0.021072501
,,,-2.74E-06,0.021268751
,,,-2.73E-06,0.021130001
,,,-2.72E-06,0.021276876
,,,-2.71E-06,0.021391251
,,,-2.7E-06,0.020848751
,,,-2.69E-06,0.021060001
,,,-2.68E-06,0.021276251
,,,-2.67E-06,0.021111251
,,,-2.66E-06,0.021081251
,,,-2.65E-06,0.021298751
,,,-2.64E-06,0.021371876
,,,-2.63E-06,0.020941251
,,,-2.62E-06,0.021395001
,,,-2.61E-06,0.021334376
,,,-2.6E-06,0.021401251
,,,-2.59E-06,0.021138751
,,,-2.58E-06,0.021235626
,,,-2.57E-06,0.020990001
,,,-2.56E-06,0.021209376
,,,-2.55E-06,0.021253126
,,,-2.54E-06,0.021228126
,,,-2.53E-06,0.021083751
,,,-2.52E-06,0.021191251
,,,-2.51E-06,0.021255626
,,,-2.5E-06,0.021321876
,,,-2.49E-06,0.021053751
,,,-2.48E-06,0.021428751
,,,-2.47E-06,0.021408751
,,,-2.46E-06,0.021364376
,,,-2.45E-06,0.021173751
,,,-2.44E-06,0.021252501
,,,-2.43E-06,0.021152501
,,,-2.42E-06,0.021353126
,,,-2.41E-06,0.021467501
,,,-2.4E-06,0.021222501
,,,-2.39E-06,0.021150626
,,,-2.38E-06,0.021098126
,,,-2.37E-06,0.021355626
,,,-2.36E-06,0.021198751
,,,-2.35E-06,0.021247501
,,,-2.34E-06,0.021200626
,,,-2.33E-06,0.021591876
,,,-2.32E-06,0.021380626
,,,-2.31E-06,0.021383751
,,,-2.3E-06,0.021136251
,,,-2.29E-06,0.021131251
,,,-2.28E-06,0.021224376
,,,-2.27E-06,0.021104376
,,,-2.26E-06,0.021145626
,,,-2.25E-06,0.021313126
,,,-2.24E-06,0.021083751
,,,-2.23E-06,0.020949376
,,,-2.22E-06,0.021176251
,,,-2.21E-06,0.020916876
,,,-2.2E-06,0.021400001
,,,-2.19E-06,0.021050001
,,,-2.18E-06,0.021222501
,,,-2.17E-06,0.021260626
,,,-2.16E-06,0.021365001
,,,-2.15E-06,0.021180001
,,,-2.14E-06,0.021335626
,,,-2.13E-06,0.021049376
,,,-2.12E-06,0.021217501
,,,-2.11E-06,0.021123751
,,,-2.1E-06,0.021230001
,,,-2.09E-06,0.020943751
,,,-2.08E-06,0.021143126
,,,-2.07E-06,0.021450626
,,,-2.06E-06,0.021149376
,,,-2.05E-06,0.021213751
,,,-2.04E-06,0.021003126
,,,-2.03E-06,0.021190001
,,,-2.02E-06,0.021458751
,,,-2.01E-06,0.021064376
,,,-2E-06,0.021158126
,,,-1.99E-06,0.021326251
,,,-1.98E-06,0.021333751
,,,-1.97E-06,0.021045001
,,,-1.96E-06,0.021126251
,,,-1.95E-06,0.021134376
,,,-1.94E-06,0.020976876
,,,-1.93E-06,0.021177501
,,,-1.92E-06,0.021222501
,,,-1.91E-06,0.021295001
,,,-1.9E-06,0.021166251
,,,-1.89E-06,0.021209376
,,,-1.88E-06,0.021215001
,,,-1.87E-06,0.021152501
,,,-1.86E-06,0.021043126
,,,-1.85E-06,0.021326876
,,,-1.84E-06,0.021098126
,,,-1.83E-06,0.021158126
,,,-1.82E-06,0.021336251
,,,-1.81E-06,0.021198751
,,,-1.8E-06,0.021243751
,,,-1.79E-06,0.021273751
,,,-1.78E-06,0.021163751
,,,-1.77E-06,0.021425626
,,,-1.76E-06,0.021155001
,,,-1.75E-06,0.021167501
,,,-1.74E-06,0.020845626
,,,-1.73E-06,0.021211876
,,,-1.72E-06,0.020943751
,,,-1.71E-06,0.021060001
,,,-1.7E-06,0.021114376
,,,-1.69E-06,0.021151251
,,,-1.68E-06,0.021238751
,,,-1.67E-06,0.021161251
,,,-1.66E-06,0.021041876
,,,-1.65E-06,0.021033751
,,,-1.64E-06,0.021091876
,,,-1.63E-06,0.021188751
,,,-1.62E-06,0.021036876
,,,-1.61E-06,0.021188751
,,,-1.6E-06,0.021136251
,,,-1.59E-06,0.021093126
,,,-1.58E-06,0.021163126
,,,-1.57E-06,0.021275626
,,,-1.56E-06,0.021218126
,,,-1.55E-06,0.021131876
,,,-1.54E-06,0.021058126
,,,-1.53E-06,0.021147501
,,,-1.52E-06,0.021288126
,,,-1.51E-06,0.021205001
,,,-1.5E-06,0.021154376
,,,-1.49E-06,0.021002501
,,,-1.48E-06,0.021249376
,,,-1.47E-06,0.021272501
,,,-1.46E-06,0.021093751
,,,-1.45E-06,0.021402501
,,,-1.44E-06,0.021162501
,,,-1.43E-06,0.020984376
,,,-1.42E-06,0.021263126
,,,-1.41E-06,0.021311251
,,,-1.4E-06,0.021130001
,,,-1.39E-06,0.021252501
,,,-1.38E-06,0.021341251
,,,-1.37E-06,0.021283751
,,,-1.36E-06,0.021158126
,,,-1.35E-06,0.021242501
,,,-1.34E-06,0.021276876
,,,-1.33E-06,0.020883751
,,,-1.32E-06,0.021388126
,,,-1.31E-06,0.021208126
,,,-1.3E-06,0.021225626
,,,-1.29E-06,0.021225626
,,,-1.28E-06,0.021171251
,,,-1.27E-06,0.021258126
,,,-1.26E-06,0.021340626
,,,-1.25E-06,0.021518751
,,,-1.24E-06,0.021170626
,,,-1.23E-06,0.021181251
,,,-1.22E-06,0.020913751
,,,-1.21E-06,0.021180626
,,,-1.2E-06,0.021200626
,,,-1.19E-06,0.021315001
,,,-1.18E-06,0.021256251
,,,-1.17E-06,0.021054376
,,,-1.16E-06,0.021089376
,,,-1.15E-06,0.020981876
,,,-1.14E-06,0.021053126
,,,-1.13E-06,0.021323751
,,,-1.12E-06,0.021181876
,,,-1.11E-06,0.021298751
,,,-1.1E-06,0.021243126
,,,-1.09E-06,0.021231876
,,,-1.08E-06,0.021245001
,,,-1.07E-06,0.021305001
,,,-1.06E-06,0.021047501
,,,-1.05E-06,0.021240001
,,,-1.04E-06,0.021315626
,,,-1.03E-06,0.021136876
,,,-1.02E-06,0.021215001
,,,-1.01E-06,0.021304376
,,,-1E-06,0.021274376
,,,-9.9E-07,0.021163751
,,,-9.8E-07,0.021115626
,,,-9.7E-07,0.021310626
,,,-9.6E-07,0.021005626
,,,-9.5E-07,0.020960626
,,,-9.4E-07,0.021268126
,,,-9.3E-07,0.021348751
,,,-9.2E-07,0.021280001
,,,-9.1E-07,0.021105001
,,,-9E-07,0.021021876
,,,-8.9E-07,0.020855001
,,,-8.8E-07,0.021385626
,,,-8.7E-07,0.021120626
,,,-8.6E-07,0.021162501
,,,-8.5E-07,0.021020001
,,,-8.4E-07,0.021400626
,,,-8.3E-07,0.021128126
,,,-8.2E-07,0.021149376
,,,-8.1E-07,0.021335626
,,,-8E-07,0.021167501
,,,-7.9E-07,0.021054376
,,,-7.8E-07,0.021199376
,,,-7.7E-07,0.021403751
,,,-7.6E-07,0.021073126
,,,-7.5E-07,0.021175626
,,,-7.4E-07,0.021340626
,,,-7.3E-07,0.021088751
,,,-7.2E-07,0.021343751
,,,-7.1E-07,0.021154376
,,,-7E-07,0.021123126
,,,-6.9E-07,0.021266251
,,,-6.8E-07,0.021140001
,,,-6.7E-07,0.021455626
,,,-6.6E-07,0.021335001
,,,-6.5E-07,0.020955001
,,,-6.4E-07,0.021380001
,,,-6.3E-07,0.020901876
,,,-6.2E-07,0.021039376
,,,-6.1E-07,0.021249376
,,,-6E-07,0.021220001
,,,-5.9E-07,0.021172501
,,,-5.8E-07,0.021182501
,,,-5.7E-07,0.021301251
,,,-5.6E-07,0.021370001
,,,-5.5E-07,0.021241251
,,,-5.4E-07,0.021280001
,,,-5.3E-07,0.021085626
,,,-5.2E-07,0.021021876
,,,-5.1E-07,0.020998126
,,,-5E-07,0.021170626
,,,-4.9E-07,0.021375001
,,,-4.8E-07,0.021330001
,,,-4.7E-07,0.021288126
,,,-4.6E-07,0.020930001
,,,-4.5E-07,0.021173751
,,,-4.4E-07,0.021083751
,,,-4.3E-07,0.021168751
,,,-4.2E-07,0.021024376
,,,-4.1E-07,0.021283126
,,,-4E-07,0.021196876
,,,-3.9E-07,0.021045626
,,,-3.8E-07,0.021192501
,,,-3.7E-07,0.021318126
,,,-3.6E-07,0.021310626
,,,-3.5E-07,0.021015001
,,,-3.4E-07,0.021411251
,,,-3.3E-07,0.021115001
,,,-3.2E-07,0.021332501
,,,-3.1E-07,0.021212501
,,,-3E-07,0.021357501
,,,-2.9E-07,0.021248126
,,,-2.8E-07,0.021052501
,,,-2.7E-07,0.021165626
,,,-2.6E-07,0.020999376
,,,-2.5E-07,0.021212501
,,,-2.4E-07,0.021273751
,,,-2.3E-07,0.021375626
,,,-2.2E-07,0.021370001
,,,-2.1E-07,0.021288126
,,,-2E-07,0.021224376
,,,-1.9E-07,0.021263751
,,,-1.8E-07,0.021296251
,,,-1.7E-07,0.021467501
,,,-1.6E-07,0.021336251
,,,-1.5E-07,0.020975626
,,,-1.4E-07,0.021243126
,,,-1.3E-07,0.021079376
,,,-1.2E-07,0.021270001
,,,-1.1E-07,0.021196876
,,,-1E-07,0.021503751
,,,-9E-08,0.021276876
,,,-8E-08,0.021280001
,,,-7E-08,0.021198126
,,,-6E-08,0.021309376
,,,-5E-08,0.021302501
,,,-4E-08,0.021200001
,,,-3E-08,0.020919376
,,,-2E-08,0.021510626
,,,-1E-08,0.021421251
,,,0,0.021341251
,,,1E-08,0.020797501
,,,2E-08,0.020886876
,,,3E-08,0.021188126
,,,4E-08,0.021428751
,,,5E-08,0.021418751
,,,6E-08,0.021418126
,,,7E-08,0.020851876
,,,8E-08,0.020960626
,,,9E-08,0.020971251
,,,1E-07,0.021103751
,,,1.1E-07,0.021298126
,,,1.2E-07,0.021240001
,,,1.3E-07,0.021395001
,,,1.4E-07,0.021050626
,,,1.5E-07,0.021250626
,,,1.6E-07,0.021226251
,,,1.7E-07,0.021194376
,,,1.8E-07,0.020958126
,,,1.9E-07,0.021231876
,,,2E-07,0.021295626
,,,2.1E-07,0.021185001
,,,2.2E-07,0.021107501
,,,2.3E-07,0.021151876
,,,2.4E-07,0.021198751
,,,2.5E-07,0.021087501
,,,2.6E-07,0.021186251
,,,2.7E-07,0.021018751
,,,2.8E-07,0.021245626
,,,2.9E-07,0.021186876
,,,3E-07,0.021219376
,,,3.1E-07,0.021030001
,,,3.2E-07,0.021150001
,,,3.3E-07,0.021228126
,,,3.4E-07,0.021333126
,,,3.5E-07,0.021203126
,,,3.6E-07,0.021451876
,,,3.7E-07,0.021032501
,,,3.8E-07,0.021290626
,,,3.9E-07,0.021309376
,,,4E-07,0.021172501
,,,4.1E-07,0.021175626
,,,4.2E-07,0.021192501
,,,4.3E-07,0.021024376
,,,4.4E-07,0.020945001
,,,4.5E-07,0.021006251
,,,4.6E-07,0.021138126
,,,4.7E-07,0.021383751
,,,4.8E-07,0.021242501
,,,4.9E-07,0.021184376
,,,5E-07,0.021095626
,,,5.1E-07,0.020990626
,,,5.2E-07,0.021160001
,,,5.3E-07,0.021115001
,,,5.4E-07,0.021215001
,,,5.5E-07,0.021395001
,,,5.6E-07,0.021343751
,,,5.7E-07,0.021157501
,,,5.8E-07,0.021116251
,,,5.9E-07,0.021143126
,,,6E-07,0.021351251
,,,6.1E-07,0.021182501
,,,6.2E-07,0.021516876
,,,6.3E-07,0.021056251
,,,6.4E-07,0.021151876
,,,6.5E-07,0.021280626
,,,6.6E-07,0.021518126
,,,6.7E-07,0.021201876
,,,6.8E-07,0.021095001
,,,6.9E-07,0.021095001
,,,7E-07,0.021153751
,,,7.1E-07,0.021164376
,,,7.2E-07,0.021303751
,,,7.3E-07,0.021230626
,,,7.4E-07,0.021203126
,,,7.5E-07,0.021273751
,,,7.6E-07,0.021392501
,,,7.7E-07,0.020907501
,,,7.8E-07,0.021209376
,,,7.9E-07,0.021232501
,,,8E-07,0.021006251
,,,8.1E-07,0.021238751
,,,8.2E-07,0.021221876
,,,8.3E-07,0.021092501
,,,8.4E-07,0.021336251
,,,8.5E-07,0.021075626
,,,8.6E-07,0.021163751
,,,8.7E-07,0.021051251
,,,8.8E-07,0.021216876
,,,8.9E-07,0.021061251
,,,9E-07,0.021096251
,,,9.1E-07,0.021356251
,,,9.2E-07,0.021063126
,,,9.3E-07,0.020993126
,,,9.4E-07,0.021199376
,,,9.5E-07,0.021058126
,,,9.6E-07,0.021077501
,,,9.7E-07,0.021195626
,,,9.8E-07,0.021382501
,,,9.9E-07,0.021441251
,,,1E-06,0.021510001
,,,1.01E-06,0.021208751
,,,1.02E-06,0.021129376
,,,1.03E-06,0.021175001
,,,1.04E-06,0.021207501
,,,1.05E-06,0.021308126
,,,1.06E-06,0.020864376
,,,1.07E-06,0.021145001
,,,1.08E-06,0.021151876
,,,1.09E-06,0.021311251
,,,1.1E-06,0.021187501
,,,1.11E-06,0.021115626
,,,1.12E-06,0.021273126
,,,1.13E-06,0.020968751
,,,1.14E-06,0.021293751
,,,1.15E-06,0.021261251
,,,1.16E-06,0.021106876
,,,1.17E-06,0.021231251
,,,1.18E-06,0.020955001
,,,1.19E-06,0.021240001
,,,1.2E-06,0.021290001
,,,1.21E-06,0.020954376
,,,1.22E-06,0.021315001
,,,1.23E-06,0.021254376
,,,1.24E-06,0.021068751
,,,1.25E-06,0.021228751
,,,1.26E-06,0.021241251
,,,1.27E-06,0.021085001
,,,1.28E-06,0.021183126
,,,1.29E-06,0.021440001
,,,1.3E-06,0.021402501
,,,1.31E-06,0.021107501
,,,1.32E-06,0.021445626
,,,1.33E-06,0.021322501
,,,1.34E-06,0.021365001
,,,1.35E-06,0.021093126
,,,1.36E-06,0.021281876
,,,1.37E-06,0.021433126
,,,1.38E-06,0.021243751
,,,1.39E-06,0.020926251
,,,1.4E-06,0.021035626
,,,1.41E-06,0.021234376
,,,1.42E-06,0.020976876
,,,1.43E-06,0.021075001
,,,1.44E-06,0.021203751
,,,1.45E-06,0.021273126
,,,1.46E-06,0.021065626
,,,1.47E-06,0.021328751
,,,1.48E-06,0.021002501
,,,1.49E-06,0.021259376
,,,1.5E-06,0.021262501
,,,1.51E-06,0.021397501
,,,1.52E-06,0.021070001
,,,1.53E-06,0.020991876
,,,1.54E-06,0.021278126
,,,1.55E-06,0.021161876
,,,1.56E-06,0.021205001
,,,1.57E-06,0.021159376
,,,1.58E-06,0.021146251
,,,1.59E-06,0.020989376
,,,1.6E-06,0.021174376
,,,1.61E-06,0.021071251
,,,1.62E-06,0.021278751
,,,1.63E-06,0.021305626
,,,1.64E-06,0.021321251
,,,1.65E-06,0.021009376
,,,1.66E-06,0.021273751
,,,1.67E-06,0.021330001
,,,1.68E-06,0.021181876
,,,1.69E-06,0.021256251
,,,1.7E-06,0.021298126
,,,1.71E-06,0.021131876
,,,1.72E-06,0.021182501
,,,1.73E-06,0.021121876
,,,1.74E-06,0.021162501
,,,1.75E-06,0.021399376
,,,1.76E-06,0.021438126
,,,1.77E-06,0.021190626
,,,1.78E-06,0.021123751
,,,1.79E-06,0.021311876
,,,1.8E-06,0.021143126
,,,1.81E-06,0.021366876
,,,1.82E-06,0.021201251
,,,1.83E-06,0.021280626
,,,1.84E-06,0.021032501
,,,1.85E-06,0.020832501
,,,1.86E-06,0.021423751
,,,1.87E-06,0.021241251
,,,1.88E-06,0.021168126
,,,1.89E-06,0.021090626
,,,1.9E-06,0.021467501
,,,1.91E-06,0.021126251
,,,1.92E-06,0.021350001
,,,1.93E-06,0.021375001
,,,1.94E-06,0.021106876
,,,1.95E-06,0.021211251
,,,1.96E-06,0.021315001
,,,1.97E-06,0.021102501
,,,1.98E-06,0.021335626
,,,1.99E-06,0.021135001
,,,2E-06,0.021136251
,,,2.01E-06,0.021198751
,,,2.02E-06,0.021341876
,,,2.03E-06,0.021195001
,,,2.04E-06,0.021257501
,,,2.05E-06,0.021435001
,,,2.06E-06,0.021275626
,,,2.07E-06,0.021214376
,,,2.08E-06,0.021100626
,,,2.09E-06,0.021226251
,,,2.1E-06,0.021107501
,,,2.11E-06,0.021341251
,,,2.12E-06,0.021100001
,,,2.13E-06,0.021225001
,,,2.14E-06,0.021101876
,,,2.15E-06,0.021400001
,,,2.16E-06,0.021209376
,,,2.17E-06,0.021094376
,,,2.18E-06,0.021223751
,,,2.19E-06,0.021180626
,,,2.2E-06,0.021039376
,,,2.21E-06,0.021314376
,,,2.22E-06,0.021335001
,,,2.23E-06,0.021449376
,,,2.24E-06,0.021186251
,,,2.25E-06,0.021146251
,,,2.26E-06,0.021188126
,,,2.27E-06,0.021197501
,,,2.28E-06,0.021238126
,,,2.29E-06,0.021114376
,,,2.3E-06,0.021288126
,,,2.31E-06,0.021313751
,,,2.32E-06,0.020957501
,,,2.33E-06,0.021176251
,,,2.34E-06,0.021330626
,,,2.35E-06,0.021223126
,,,2.36E-06,0.021155626
,,,2.37E-06,0.021029376
,,,2.38E-06,0.021092501
,,,2.39E-06,0.021292501
,,,2.4E-06,0.021027501
,,,2.41E-06,0.021061876
,,,2.42E-06,0.021189376
,,,2.43E-06,0.021181251
,,,2.44E-06,0.021286251
,,,2.45E-06,0.021250001
,,,2.46E-06,0.021039376
,,,2.47E-06,0.021190626
,,,2.48E-06,0.021317501
,,,2.49E-06,0.021526251
,,,2.5E-06,0.021128751
,,,2.51E-06,0.020978751
,,,2.52E-06,0.021255001
,,,2.53E-06,0.021180001
,,,2.54E-06,0.021188751
,,,2.55E-06,0.021285001
,,,2.56E-06,0.021218126
,,,2.57E-06,0.021214376
,,,2.58E-06,0.021262501
,,,2.59E-06,0.021009376
,,,2.6E-06,0.021500001
,,,2.61E-06,0.021133751
,,,2.62E-06,0.021235001
,,,2.63E-06,0.021276251
,,,2.64E-06,0.021127501
,,,2.65E-06,0.021254376
,,,2.66E-06,0.021347501
,,,2.67E-06,0.021086876
,,,2.68E-06,0.021126251
,,,2.69E-06,0.021291876
,,,2.7E-06,0.021247501
,,,2.71E-06,0.021244376
,,,2.72E-06,0.021028751
,,,2.73E-06,0.021000001
,,,2.74E-06,0.021222501
,,,2.75E-06,0.021214376
,,,2.76E-06,0.021168751
,,,2.77E-06,0.021287501
,,,2.78E-06,0.021118751
,,,2.79E-06,0.021291251
,,,2.8E-06,0.021206251
,,,2.81E-06,0.021273126
,,,2.82E-06,0.021271251
,,,2.83E-06,0.021055626
,,,2.84E-06,0.021331876
,,,2.85E-06,0.021172501
,,,2.86E-06,0.021065001
,,,2.87E-06,0.021316876
,,,2.88E-06,0.021404376
,,,2.89E-06,0.021357501
,,,2.9E-06,0.020908126
,,,2.91E-06,0.021244376
,,,2.92E-06,0.021198126
,,,2.93E-06,0.021106251
,,,2.94E-06,0.020965626
,,,2.95E-06,0.021268126
,,,2.96E-06,0.021327501
,,,2.97E-06,0.021381251
,,,2.98E-06,0.020995001
,,,2.99E-06,0.020993126
,,,3E-06,0.021122501
,,,3.01E-06,0.021270626
,,,3.02E-06,0.021366876
,,,3.03E-06,0.021110001
,,,3.04E-06,0.021174376
,,,3.05E-06,0.021281251
,,,3.06E-06,0.021192501
,,,3.07E-06,0.021097501
,,,3.08E-06,0.021434376
,,,3.09E-06,0.021253751
,,,3.1E-06,0.021154376
,,,3.11E-06,0.021361876
,,,3.12E-06,0.020998751
,,,3.13E-06,0.021253751
,,,3.14E-06,0.021078126
,,,3.15E-06,0.021292501
,,,3.16E-06,0.021146251
,,,3.17E-06,0.021111876
,,,3.18E-06,0.021210001
,,,3.19E-06,0.021243751
,,,3.2E-06,0.021345001
,,,3.21E-06,0.021491251
