data/raw/Final_POL_Test_1/SOP086_Ch4.csv

"Record Length",1000,"Points",-5E-06,0.015875
"Sample Interval",1E-08,s,-4.99E-06,0.016058125
"Trigger Point",500,"Samples",-4.98E-06,0.015915
"Trigger Time",0,s,-4.97E-06,0.016196875
"",,,-4.96E-06,0.0160375
"Horizontal Offset",-5E-06,s,-4.95E-06,0.01600375
,,,-4.94E-06,0.01618625
,,,-4.93E-06,0.016021875
,,,-4.92E-06,0.0159275
,,,-4.91E-06,0.016129375
,,,-4.9E-06,0.01601625
,,,-4.89E-06,0.016165
,,,-4.88E-06,0.016170625
,,,-4.87E-06,0.015805625
,,,-4.86E-06,0.01618
,,,-4.85E-06,0.016321875
,,,-4.84E-06,0.015844375
,,,-4.83E-06,0.016129375
,,,-4.82E-06,0.01589125
,,,-4.81E-06,0.016228125
,,,-4.8E-06,0.016305625
,,,-4.79E-06,0.016165
,,,-4.78E-06,0.0160825
,,,-4.77E-06,0.016201875
,,,-4.76E-06,0.016038125
,,,-4.75E-06,0.016121875
,,,-4.74E-06,0.01602375
,,,-4.73E-06,0.015899375
,,,-4.72E-06,0.01617
,,,-4.71E-06,0.016058125
,,,-4.7E-06,0.0164075
,,,-4.69E-06,0.015939375
,,,-4.68E-06,0.01563
,,,-4.67E-06,0.0160625
,,,-4.66E-06,0.01616125
,,,-4.65E-06,0.01595875
,,,-4.64E-06,0.016045
,,,-4.63E-06,0.016021875
,,,-4.62E-06,0.0159325
,,,-4.61E-06,0.01599125
,,,-4.6E-06,0.0161725
,,,-4.59E-06,0.016128125
,,,-4.58E-06,0.016083125
,,,-4.57E-06,0.01610375
,,,-4.56E-06,0.016305
,,,-4.55E-06,0.016300625
,,,-4.54E-06,0.01617
,,,-4.53E-06,0.015975
,,,-4.52E-06,0.015745625
,,,-4.51E-06,0.016025
,,,-4.5E-06,0.016175625
,,,-4.49E-06,0.0162725
,,,-4.48E-06,0.0162025
,,,-4.47E-06,0.016111875
,,,-4.46E-06,0.01613125
,,,-4.45E-06,0.0157875
,,,-4.44E-06,0.01629
,,,-4.43E-06,0.016225625
,,,-4.42E-06,0.01624875
,,,-4.41E-06,0.016009375
,,,-4.4E-06,0.01600375
,,,-4.39E-06,0.016155625
,,,-4.38E-06,0.016163125
,,,-4.37E-06,0.01606375
,,,-4.36E-06,0.015996875
,,,-4.35E-06,0.016206875
,,,-4.34E-06,0.015969375
,,,-4.33E-06,0.015929375
,,,-4.32E-06,0.01597875
,,,-4.31E-06,0.0161975
,,,-4.3E-06,0.01614875
,,,-4.29E-06,0.015949375
,,,-4.28E-06,0.016346875
,,,-4.27E-06,0.016171875
,,,-4.26E-06,0.015965625
,,,-4.25E-06,0.016221875
,,,-4.24E-06,0.016018125
,,,-4.23E-06,0.015954375
,,,-4.22E-06,0.0161625
,,,-4.21E-06,0.016024375
,,,-4.2E-06,0.015941875
,,,-4.19E-06,0.01592375
,,,-4.18E-06,0.01577875
,,,-4.17E-06,0.016261875
,,,-4.16E-06,0.016005625
,,,-4.15E-06,0.016245
,,,-4.14E-06,0.016029375
,,,-4.13E-06,0.01592125
,,,-4.12E-06,0.01603875
,,,-4.11E-06,0.01626125
,,,-4.1E-06,0.0163075
,,,-4.09E-06,0.015951875
,,,-4.08E-06,0.016558125
,,,-4.07E-06,0.016068125
,,,-4.06E-06,0.0160775
,,,-4.05E-06,0.016085
,,,-4.04E-06,0.015843125
,,,-4.03E-06,0.01615
,,,-4.02E-06,0.015866875
,,,-4.01E-06,0.01611875
,,,-4E-06,0.016120625
,,,-3.99E-06,0.01625375
,,,-3.98E-06,0.01587625
,,,-3.97E-06,0.015993125
,,,-3.96E-06,0.0160825
,,,-3.95E-06,0.016235625
,,,-3.94E-06,0.01610625
,,,-3.93E-06,0.01618625
,,,-3.92E-06,0.01622
,,,-3.91E-06,0.016095625
,,,-3.9E-06,0.0157275
,,,-3.89E-06,0.016219375
,,,-3.88E-06,0.0162725
,,,-3.87E-06,0.015995625
,,,-3.86E-06,0.015828125
,,,-3.85E-06,0.01606125
,,,-3.84E-06,0.015799375
,,,-3.83E-06,0.016090625
,,,-3.82E-06,0.015880625
,,,-3.81E-06,0.016081875
,,,-3.8E-06,0.0159775
,,,-3.79E-06,0.016174375
,,,-3.78E-06,0.016015
,,,-3.77E-06,0.01605875
,,,-3.76E-06,0.0159675
,,,-3.75E-06,0.016165
,,,-3.74E-06,0.01589625
,,,-3.73E-06,0.016121875
,,,-3.72E-06,0.016060625
,,,-3.71E-06,0.016099375
,,,-3.7E-06,0.016040625
,,,-3.69E-06,0.016008125
,,,-3.68E-06,0.01597
,,,-3.67E-06,0.016054375
,,,-3.66E-06,0.015770625
,,,-3.65E-06,0.016225
,,,-3.64E-06,0.01598375
,,,-3.63E-06,0.016339375
,,,-3.62E-06,0.016163125
,,,-3.61E-06,0.01605875
,,,-3.6E-06,0.01598375
,,,-3.59E-06,0.016185625
,,,-3.58E-06,0.01620125
,,,-3.57E-06,0.016101875
,,,-3.56E-06,0.016155
,,,-3.55E-06,0.01594875
,,,-3.54E-06,0.016149375
,,,-3.53E-06,0.016221875
,,,-3.52E-06,0.01605625
,,,-3.51E-06,0.01599
,,,-3.5E-06,0.0159975
,,,-3.49E-06,0.01596
,,,-3.48E-06,0.0160475
,,,-3.47E-06,0.015973125
,,,-3.46E-06,0.016048125
,,,-3.45E-06,0.0160125
,,,-3.44E-06,0.01604875
,,,-3.43E-06,0.016121875
,,,-3.42E-06,0.01616125
,,,-3.41E-06,0.01598
,,,-3.4E-06,0.016161875
,,,-3.39E-06,0.0159175
,,,-3.38E-06,0.015796875
,,,-3.37E-06,0.016024375
,,,-3.36E-06,0.016073125
,,,-3.35E-06,0.0159675
,,,-3.34E-06,0.0161425
,,,-3.33E-06,0.01590625
,,,-3.32E-06,0.01590625
,,,-3.31E-06,0.01604625
,,,-3.3E-06,0.01619125
,,,-3.29E-06,0.015763125
,,,-3.28E-06,0.01627625
,,,-3.27E-06,0.016301875
,,,-3.26E-06,0.0160525
,,,-3.25E-06,0.01596625
,,,-3.24E-06,0.01621625
,,,-3.23E-06,0.016051875
,,,-3.22E-06,0.016071875
,,,-3.21E-06,0.0160225
,,,-3.2E-06,0.016164375
,,,-3.19E-06,0.0161875
,,,-3.18E-06,0.01618875
,,,-3.17E-06,0.016169375
,,,-3.16E-06,0.0158875
,,,-3.15E-06,0.016075
,,,-3.14E-06,0.0161275
,,,-3.13E-06,0.016353125
,,,-3.12E-06,0.016008125
,,,-3.11E-06,0.015979375
,,,-3.1E-06,0.0159525
,,,-3.09E-06,0.016158125
,,,-3.08E-06,0.016188125
,,,-3.07E-06,0.01594
,,,-3.06E-06,0.01598875
,,,-3.05E-06,0.016204375
,,,-3.04E-06,0.0163375
,,,-3.03E-06,0.01590875
,,,-3.02E-06,0.016125
,,,-3.01E-06,0.016026875
,,,-3E-06,0.016209375
,,,-2.99E-06,0.016078125
,,,-2.98E-06,0.015915625
,,,-2.97E-06,0.016363125
,,,-2.96E-06,0.0161175
,,,-2.95E-06,0.0161725
,,,-2.94E-06,0.01593875
,,,-2.93E-06,0.016128125
,,,-2.92E-06,0.0158575
,,,-2.91E-06,0.0162025
,,,-2.9E-06,0.01627375
,,,-2.89E-06,0.016090625
,,,-2.88E-06,0.0160025
,,,-2.87E-06,0.016256875
,,,-2.86E-06,0.01636875
,,,-2.85E-06,0.015913125
,,,-2.84E-06,0.016138125
,,,-2.83E-06,0.01596
,,,-2.82E-06,0.016139375
,,,-2.81E-06,0.016050625
,,,-2.8E-06,0.016128125
,,,-2.79E-06,0.016100625
,,,-2.78E-06,0.0162525
,,,-2.77E-06,0.016005625
,,,-2.76E-06,0.01590625
,,,-2.75E-06,0.016130625
,,,-2.74E-06,0.016089375
,,,-2.73E-06,0.01609125
,,,-2.72E-06,0.016075
,,,-2.71E-06,0.016
,,,-2.7E-06,0.015895
,,,-2.69E-06,0.01573375
,,,-2.68E-06,0.016028125
,,,-2.67E-06,0.01599875
,,,-2.66E-06,0.016291875
,,,-2.65E-06,0.01594625
,,,-2.64E-06,0.01627
,,,-2.63E-06,0.016005625
,,,-2.62E-06,0.016139375
,,,-2.61E-06,0.01605125
,,,-2.6E-06,0.015886875
,,,-2.59E-06,0.01597625
,,,-2.58E-06,0.016178125
,,,-2.57E-06,0.015974375
,,,-2.56E-06,0.015956875
,,,-2.55E-06,0.0160175
,,,-2.54E-06,0.015835625
,,,-2.53E-06,0.015869375
,,,-2.52E-06,0.016159375
,,,-2.51E-06,0.016201875
,,,-2.5E-06,0.016110625
,,,-2.49E-06,0.01620875
,,,-2.48E-06,0.016101875
,,,-2.47E-06,0.016099375
,,,-2.46E-06,0.01601125
,,,-2.45E-06,0.01617
,,,-2.44E-06,0.016140625
,,,-2.43E-06,0.015820625
,,,-2.42E-06,0.01618125
,,,-2.41E-06,0.016144375
,,,-2.4E-06,0.015969375
,,,-2.39E-06,0.01613
,,,-2.38E-06,0.015920625
,,,-2.37E-06,0.016203125
,,,-2.36E-06,0.015953125
,,,-2.35E-06,0.016078125
,,,-2.34E-06,0.01616875
,,,-2.33E-06,0.015945625
,,,-2.32E-06,0.01599375
,,,-2.31E-06,0.016030625
,,,-2.3E-06,0.015984375
,,,-2.29E-06,0.016011875
,,,-2.28E-06,0.015991875
,,,-2.27E-06,0.016108125
,,,-2.26E-06,0.01630875
,,,-2.25E-06,0.016008125
,,,-2.24E-06,0.0159525
,,,-2.23E-06,0.016056875
,,,-2.22E-06,0.0160275
,,,-2.21E-06,0.015783125
,,,-2.2E-06,0.016135
,,,-2.19E-06,0.0161625
,,,-2.18E-06,0.016090625
,,,-2.17E-06,0.01608
,,,-2.16E-06,0.01613625
,,,-2.15E-06,0.015801875
,,,-2.14E-06,0.0162125
,,,-2.13E-06,0.01605
,,,-2.12E-06,0.015991875
,,,-2.11E-06,0.01620125
,,,-2.1E-06,0.0163375
,,,-2.09E-06,0.016068125
,,,-2.08E-06,0.016230625
,,,-2.07E-06,0.01591875
,,,-2.06E-06,0.01598
,,,-2.05E-06,0.015861875
,,,-2.04E-06,0.016199375
,,,-2.03E-06,0.016226875
,,,-2.02E-06,0.01603875
,,,-2.01E-06,0.01632375
,,,-2E-06,0.016006875
,,,-1.99E-06,0.015874375
,,,-1.98E-06,0.015963125
,,,-1.97E-06,0.015895625
,,,-1.96E-06,0.016101875
,,,-1.95E-06,0.016021875
,,,-1.94E-06,0.015929375
,,,-1.93E-06,0.01639
,,,-1.92E-06,0.016169375
,,,-1.91E-06,0.016174375
,,,-1.9E-06,0.016156875
,,,-1.89E-06,0.016118125
,,,-1.88E-06,0.0160975
,,,-1.87E-06,0.015831875
,,,-1.86E-06,0.016143125
,,,-1.85E-06,0.0160475
,,,-1.84E-06,0.016085625
,,,-1.83E-06,0.01627875
,,,-1.82E-06,0.015883125
,,,-1.81E-06,0.01609375
,,,-1.8E-06,0.01632375
,,,-1.79E-06,0.016021875
,,,-1.78E-06,0.015908125
,,,-1.77E-06,0.015989375
,,,-1.76E-06,0.016085
,,,-1.75E-06,0.016285625
,,,-1.74E-06,0.015985
,,,-1.73E-06,0.015770625
,,,-1.72E-06,0.0159825
,,,-1.71E-06,0.015860625
,,,-1.7E-06,0.016406875
,,,-1.69E-06,0.016184375
,,,-1.68E-06,0.01627625
,,,-1.67E-06,0.01617
,,,-1.66E-06,0.015958125
,,,-1.65E-06,0.016125
,,,-1.64E-06,0.016215
,,,-1.63E-06,0.016005
,,,-1.62E-06,0.016191875
,,,-1.61E-06,0.01589625
,,,-1.6E-06,0.016135
,,,-1.59E-06,0.016084375
,,,-1.58E-06,0.016065625
,,,-1.57E-06,0.0159775
,,,-1.56E-06,0.016044375
,,,-1.55E-06,0.01607
,,,-1.54E-06,0.016115
,,,-1.53E-06,0.0161425
,,,-1.52E-06,0.016305625
,,,-1.51E-06,0.015975625
,,,-1.5E-06,0.01622375
,,,-1.49E-06,0.016469375
,,,-1.48E-06,0.015924375
,,,-1.47E-06,0.0158475
,,,-1.46E-06,0.016240625
,,,-1.45E-06,0.015986875
,,,-1.44E-06,0.0161825
,,,-1.43E-06,0.01595625
,,,-1.42E-06,0.016141875
,,,-1.41E-06,0.016015
,,,-1.4E-06,0.01616125
,,,-1.39E-06,0.0159375
,,,-1.38E-06,0.016056875
,,,-1.37E-06,0.016125625
,,,-1.36E-06,0.01614125
,,,-1.35E-06,0.01603
,,,-1.34E-06,0.016065
,,,-1.33E-06,0.016038125
,,,-1.32E-06,0.015905625
,,,-1.31E-06,0.0162225
,,,-1.3E-06,0.0157725
,,,-1.29E-06,0.016085
,,,-1.28E-06,0.015960625
,,,-1.27E-06,0.01598
,,,-1.26E-06,0.01634875
,,,-1.25E-06,0.01639625
,,,-1.24E-06,0.016085
,,,-1.23E-06,0.015930625
,,,-1.22E-06,0.016061875
,,,-1.21E-06,0.0161575
,,,-1.2E-06,0.0160675
,,,-1.19E-06,0.016038125
,,,-1.18E-06,0.01601
,,,-1.17E-06,0.01613625
,,,-1.16E-06,0.016081875
,,,-1.15E-06,0.01605875
,,,-1.14E-06,0.01607875
,,,-1.13E-06,0.016138125
,,,-1.12E-06,0.015994375
,,,-1.11E-06,0.016124375
,,,-1.1E-06,0.01624125
,,,-1.09E-06,0.01600625
,,,-1.08E-06,0.016223125
,,,-1.07E-06,0.016241875
,,,-1.06E-06,0.01606
,,,-1.05E-06,0.0161325
,,,-1.04E-06,0.016285
,,,-1.03E-06,0.01617375
,,,-1.02E-06,0.016188125
,,,-1.01E-06,0.01612875
,,,-1E-06,0.01593375
,,,-9.9E-07,0.0161975
,,,-9.8E-07,0.016014375
,,,-9.7E-07,0.016055
,,,-9.6E-07,0.01602625
,,,-9.5E-07,0.01611125
,,,-9.4E-07,0.016231875
,,,-9.3E-07,0.0159775
,,,-9.2E-07,0.015856875
,,,-9.1E-07,0.01602625
,,,-9E-07,0.016095
,,,-8.9E-07,0.016083125
,,,-8.8E-07,0.0159825
,,,-8.7E-07,0.01603125
,,,-8.6E-07,0.01618375
,,,-8.5E-07,0.0159075
,,,-8.4E-07,0.015905
,,,-8.3E-07,0.016015625
,,,-8.2E-07,0.0161225
,,,-8.1E-07,0.016034375
,,,-8E-07,0.015916875
,,,-7.9E-07,0.01601
,,,-7.8E-07,0.015599375
,,,-7.7E-07,0.016308125
,,,-7.6E-07,0.016190625
,,,-7.5E-07,0.016204375
,,,-7.4E-07,0.016188125
,,,-7.3E-07,0.01623
,,,-7.2E-07,0.01573625
,,,-7.1E-07,0.016241875
,,,-7E-07,0.016078125
,,,-6.9E-07,0.01630125
,,,-6.8E-07,0.015871875
,,,-6.7E-07,0.016055
,,,-6.6E-07,0.016050625
,,,-6.5E-07,0.015874375
,,,-6.4E-07,0.015890625
,,,-6.3E-07,0.015995625
,,,-6.2E-07,0.016075625
,,,-6.1E-07,0.015886875
,,,-6E-07,0.015926875
,,,-5.9E-07,0.01600125
,,,-5.8E-07,0.01609
,,,-5.7E-07,0.016183125
,,,-5.6E-07,0.0156875
,,,-5.5E-07,0.015840625
,,,-5.4E-07,0.01608
,,,-5.3E-07,0.01605375
,,,-5.2E-07,0.01602
,,,-5.1E-07,0.01589125
,,,-5E-07,0.0161225
,,,-4.9E-07,0.016076875
,,,-4.8E-07,0.015924375
,,,-4.7E-07,0.01619625
,,,-4.6E-07,0.01609625
,,,-4.5E-07,0.01623125
,,,-4.4E-07,0.016221875
,,,-4.3E-07,0.016211875
,,,-4.2E-07,0.01599875
,,,-4.1E-07,0.01610875
,,,-4E-07,0.01580875
,,,-3.9E-07,0.01609625
,,,-3.8E-07,0.016154375
,,,-3.7E-07,0.015835
,,,-3.6E-07,0.016118125
,,,-3.5E-07,0.016171875
,,,-3.4E-07,0.01622375
,,,-3.3E-07,0.016168125
,,,-3.2E-07,0.015974375
,,,-3.1E-07,0.0159925
,,,-3E-07,0.016105625
,,,-2.9E-07,0.01618125
,,,-2.8E-07,0.016269375
,,,-2.7E-07,0.016056875
,,,-2.6E-07,0.016173125
,,,-2.5E-07,0.016143125
,,,-2.4E-07,0.0160125
,,,-2.3E-07,0.01605375
,,,-2.2E-07,0.0160875
,,,-2.1E-07,0.016078125
,,,-2E-07,0.01605125
,,,-1.9E-07,0.016253125
,,,-1.8E-07,0.0159175
,,,-1.7E-07,0.0163
,,,-1.6E-07,0.016075
,,,-1.5E-07,0.01596
,,,-1.4E-07,0.01618375
,,,-1.3E-07,0.016005
,,,-1.2E-07,0.01623
,,,-1.1E-07,0.0163
,,,-1E-07,0.0160575
,,,-9E-08,0.016163125
,,,-8E-08,0.016165625
,,,-7E-08,0.0159425
,,,-6E-08,0.01625625
,,,-5E-08,0.01618625
,,,-4E-08,0.016360625
,,,-3E-08,0.017303125
,,,-2E-08,0.01580625
,,,-1E-08,0.013705625
,,,0,0.013260625
,,,1E-08,0.016890625
,,,2E-08,0.0194225
,,,3E-08,0.019409375
,,,4E-08,0.016380625
,,,5E-08,0.0139425
,,,6E-08,0.013394375
,,,7E-08,0.01448875
,,,8E-08,0.016335625
,,,9E-08,0.0174375
,,,1E-07,0.01811
,,,1.1E-07,0.016926875
,,,1.2E-07,0.015404375
,,,1.3E-07,0.014730625
,,,1.4E-07,0.015314375
,,,1.5E-07,0.01616
,,,1.6E-07,0.01651625
,,,1.7E-07,0.016169375
,,,1.8E-07,0.01630125
,,,1.9E-07,0.015954375
,,,2E-07,0.0161675
,,,2.1E-07,0.015525
,,,2.2E-07,0.015629375
,,,2.3E-07,0.016121875
,,,2.4E-07,0.0161675
,,,2.5E-07,0.016130625
,,,2.6E-07,0.016005
,,,2.7E-07,0.01592125
,,,2.8E-07,0.015951875
,,,2.9E-07,0.01604875
,,,3E-07,0.015898125
,,,3.1E-07,0.016013125
,,,3.2E-07,0.01608875
,,,3.3E-07,0.01599375
,,,3.4E-07,0.01603375
,,,3.5E-07,0.015904375
,,,3.6E-07,0.016020625
,,,3.7E-07,0.01599375
,,,3.8E-07,0.01610125
,,,3.9E-07,0.016160625
,,,4E-07,0.016079375
,,,4.1E-07,0.016078125
,,,4.2E-07,0.016066875
,,,4.3E-07,0.016159375
,,,4.4E-07,0.01598375
,,,4.5E-07,0.015971875
,,,4.6E-07,0.01615875
,,,4.7E-07,0.015988125
,,,4.8E-07,0.01594625
,,,4.9E-07,0.016109375
,,,5E-07,0.0159325
,,,5.1E-07,0.01634875
,,,5.2E-07,0.016046875
,,,5.3E-07,0.01609375
,,,5.4E-07,0.015963125
,,,5.5E-07,0.016145
,,,5.6E-07,0.01578625
,,,5.7E-07,0.01596875
,,,5.8E-07,0.01625875
,,,5.9E-07,0.015975625
,,,6E-07,0.015746875
,,,6.1E-07,0.01612375
,,,6.2E-07,0.0162125
,,,6.3E-07,0.0159625
,,,6.4E-07,0.016100625
,,,6.5E-07,0.015905
,,,6.6E-07,0.015963125
,,,6.7E-07,0.016280625
,,,6.8E-07,0.01606375
,,,6.9E-07,0.01591375
,,,7E-07,0.016294375
,,,7.1E-07,0.01612125
,,,7.2E-07,0.01607375
,,,7.3E-07,0.01584125
,,,7.4E-07,0.015918125
,,,7.5E-07,0.016136875
,,,7.6E-07,0.01599625
,,,7.7E-07,0.016009375
,,,7.8E-07,0.015926875
,,,7.9E-07,0.01621875
,,,8E-07,0.016260625
,,,8.1E-07,0.015769375
,,,8.2E-07,0.01626125
,,,8.3E-07,0.016049375
,,,8.4E-07,0.016115
,,,8.5E-07,0.016509375
,,,8.6E-07,0.01598125
,,,8.7E-07,0.016330625
,,,8.8E-07,0.016131875
,,,8.9E-07,0.016334375
,,,9E-07,0.016153125
,,,9.1E-07,0.01613625
,,,9.2E-07,0.016135
,,,9.3E-07,0.016085
,,,9.4E-07,0.015975
,,,9.5E-07,0.0160775
,,,9.6E-07,0.01596625
,,,9.7E-07,0.016025
,,,9.8E-07,0.016275625
,,,9.9E-07,0.015918125
,,,1E-06,0.01597375
,,,1.01E-06,0.01591875
,,,1.02E-06,0.016196875
,,,1.03E-06,0.01596625
,,,1.04E-06,0.015979375
,,,1.05E-06,0.0161325
,,,1.06E-06,0.016251875
,,,1.07E-06,0.016171875
,,,1.08E-06,0.01625875
,,,1.09E-06,0.01584625
,,,1.1E-06,0.015920625
,,,1.11E-06,0.015974375
,,,1.12E-06,0.01619
,,,1.13E-06,0.016068125
,,,1.14E-06,0.0160575
,,,1.15E-06,0.016033125
,,,1.16E-06,0.016159375
,,,1.17E-06,0.016126875
,,,1.18E-06,0.016094375
,,,1.19E-06,0.016024375
,,,1.2E-06,0.016235625
,,,1.21E-06,0.0159025
,,,1.22E-06,0.016141875
,,,1.23E-06,0.016286875
,,,1.24E-06,0.015979375
,,,1.25E-06,0.015966875
,,,1.26E-06,0.01596625
,,,1.27E-06,0.01622375
,,,1.28E-06,0.016110625
,,,1.29E-06,0.015863125
,,,1.3E-06,0.01603875
,,,1.31E-06,0.0159425
,,,1.32E-06,0.01584875
,,,1.33E-06,0.016338125
,,,1.34E-06,0.01632125
,,,1.35E-06,0.01614
,,,1.36E-06,0.01585
,,,1.37E-06,0.015890625
,,,1.38E-06,0.01598875
,,,1.39E-06,0.016185
,,,1.4E-06,0.016201875
,,,1.41E-06,0.015939375
,,,1.42E-06,0.01615
,,,1.43E-06,0.01623625
,,,1.44E-06,0.01600875
,,,1.45E-06,0.016161875
,,,1.46E-06,0.0158425
,,,1.47E-06,0.01612125
,,,1.48E-06,0.01611125
,,,1.49E-06,0.016220625
,,,1.5E-06,0.01596375
,,,1.51E-06,0.015976875
,,,1.52E-06,0.016009375
,,,1.53E-06,0.016028125
,,,1.54E-06,0.015961875
,,,1.55E-06,0.016305625
,,,1.56E-06,0.016263125
,,,1.57E-06,0.01614
,,,1.58E-06,0.016188125
,,,1.59E-06,0.016024375
,,,1.6E-06,0.016148125
,,,1.61E-06,0.015925
,,,1.62E-06,0.015915
,,,1.63E-06,0.015869375
,,,1.64E-06,0.016069375
,,,1.65E-06,0.01622375
,,,1.66E-06,0.016073125
,,,1.67E-06,0.01597375
,,,1.68E-06,0.0161225
,,,1.69E-06,0.01607125
,,,1.7E-06,0.01624125
,,,1.71E-06,0.0159425
,,,1.72E-06,0.016013125
,,,1.73E-06,0.016214375
,,,1.74E-06,0.016229375
,,,1.75E-06,0.016208125
,,,1.76E-06,0.015955
,,,1.77E-06,0.01602625
,,,1.78E-06,0.016025625
,,,1.79E-06,0.01617
,,,1.8E-06,0.015968125
,,,1.81E-06,0.015890625
,,,1.82E-06,0.01624375
,,,1.83E-06,0.016194375
,,,1.84E-06,0.016146875
,,,1.85E-06,0.016065
,,,1.86E-06,0.016041875
,,,1.87E-06,0.0161375
,,,1.88E-06,0.01609375
,,,1.89E-06,0.01629375
,,,1.9E-06,0.016001875
,,,1.91E-06,0.016036875
,,,1.92E-06,0.015906875
,,,1.93E-06,0.016018125
,,,1.94E-06,0.016124375
,,,1.95E-06,0.01608875
,,,1.96E-06,0.016068125
,,,1.97E-06,0.0158225
,,,1.98E-06,0.015935625
,,,1.99E-06,0.016336875
,,,2E-06,0.01607375
,,,2.01E-06,0.016300625
,,,2.02E-06,0.016025
,,,2.03E-06,0.015930625
,,,2.04E-06,0.015990625
,,,2.05E-06,0.015824375
,,,2.06E-06,0.016185
,,,2.07E-06,0.016119375
,,,2.08E-06,0.016126875
,,,2.09E-06,0.0158875
,,,2.1E-06,0.016076875
,,,2.11E-06,0.016160625
,,,2.12E-06,0.01624
,,,2.13E-06,0.0161
,,,2.14E-06,0.015920625
,,,2.15E-06,0.016110625
,,,2.16E-06,0.01609375
,,,2.17E-06,0.016085
,,,2.18E-06,0.01586875
,,,2.19E-06,0.016308125
,,,2.2E-06,0.016114375
,,,2.21E-06,0.01618625
,,,2.22E-06,0.016241875
,,,2.23E-06,0.016021875
,,,2.24E-06,0.01597625
,,,2.25E-06,0.01611625
,,,2.26E-06,0.016128125
,,,2.27E-06,0.0160475
,,,2.28E-06,0.01619375
,,,2.29E-06,0.01625
,,,2.3E-06,0.016008125
,,,2.31E-06,0.01604875
,,,2.32E-06,0.01612125
,,,2.33E-06,0.016128125
,,,2.34E-06,0.016183125
,,,2.35E-06,0.015945
,,,2.36E-06,0.01586125
,,,2.37E-06,0.01629875
,,,2.38E-06,0.01614375
,,,2.39E-06,0.016045625
,,,2.4E-06,0.016076875
,,,2.41E-06,0.015910625
,,,2.42E-06,0.016231875
,,,2.43E-06,0.015915
,,,2.44E-06,0.016241875
,,,2.45E-06,0.016110625
,,,2.46E-06,0.01617
,,,2.47E-06,0.016083125
,,,2.48E-06,0.016216875
,,,2.49E-06,0.01597875
,,,2.5E-06,0.015989375
,,,2.51E-06,0.016085
,,,2.52E-06,0.01613625
,,,2.53E-06,0.01608
,,,2.54E-06,0.015931875
,,,2.55E-06,0.015920625
,,,2.56E-06,0.016065625
,,,2.57E-06,0.016005625
,,,2.58E-06,0.015735
,,,2.59E-06,0.016018125
,,,2.6E-06,0.016265
,,,2.61E-06,0.01611625
,,,2.62E-06,0.015935
,,,2.63E-06,0.016076875
,,,2.64E-06,0.016154375
,,,2.65E-06,0.0161225
,,,2.66E-06,0.01607
,,,2.67E-06,0.016046875
,,,2.68E-06,0.015805625
,,,2.69E-06,0.016063125
,,,2.7E-06,0.01627625
,,,2.71E-06,0.01606
,,,2.72E-06,0.016294375
,,,2.73E-06,0.016249375
,,,2.74E-06,0.016336875
,,,2.75E-06,0.016226875
,,,2.76E-06,0.01614625
,,,2.77E-06,0.01628625
,,,2.78E-06,0.016246875
,,,2.79E-06,0.016024375
,,,2.8E-06,0.016225
,,,2.81E-06,0.016241875
,,,2.82E-06,0.016348125
,,,2.83E-06,0.01605375
,,,2.84E-06,0.016195
,,,2.85E-06,0.015916875
,,,2.86E-06,0.015945625
,,,2.87E-06,0.0159975
,,,2.88E-06,0.01623875
,,,2.89E-06,0.015875625
,,,2.9E-06,0.016038125
,,,2.91E-06,0.016085
,,,2.92E-06,0.015653125
,,,2.93E-06,0.016158125
,,,2.94E-06,0.016043125
,,,2.95E-06,0.015711875
,,,2.96E-06,0.0158475
,,,2.97E-06,0.016119375
,,,2.98E-06,0.016089375
,,,2.99E-06,0.01609875
,,,3E-06,0.01622125
,,,3.01E-06,0.01613625
,,,3.02E-06,0.016289375
,,,3.03E-06,0.01616125
,,,3.04E-06,0.016284375
,,,3.05E-06,0.01606125
,,,3.06E-06,0.016193125
,,,3.07E-06,0.016095625
,,,3.08E-06,0.01622125
,,,3.09E-06,0.015813125
,,,3.1E-06,0.016225625
,,,3.11E-06,0.0162025
,,,3.12E-06,0.016149375
,,,3.13E-06,0.01570625
,,,3.14E-06,0.016291875
,,,3.15E-06,0.015954375
,,,3.16E-06,0.016254375
,,,3.17E-06,0.01603
,,,3.18E-06,0.01612
,,,3.19E-06,0.016003125
,,,3.2E-06,0.016071875
,,,3.21E-06,0.016025625
,,,3.22E-06,0.0159025
,,,3.23E-06,0.016230625
,,,3.24E-06,0.015998125
,,,3.25E-06,0.016085
,,,3.26E-06,0.016245625
,,,3.27E-06,0.01611875
,,,3.28E-06,0.016058125
,,,3.29E-06,0.016238125
,,,3.3E-06,0.01592625
,,,3.31E-06,0.01596875
,,,3.32E-06,0.01616125
,,,3.33E-06,0.015939375
,,,3.34E-06,0.016054375
,,,3.35E-06,0.016309375
,,,3.36E-06,0.01602
,,,3.37E-06,0.016020625
,,,3.38E-06,0.016001875
,,,3.39E-06,0.016366875
,,,3.4E-06,0.01604
,,,3.41E-06,0.0156125
,,,3.42E-06,0.015933125
,,,3.43E-06,0.016053125
,,,3.44E-06,0.016310625
,,,3.45E-06,0.015965625
,,,3.46E-06,0.016111875
,,,3.47E-06,0.01591875
,,,3.48E-06,0.01621
,,,3.49E-06,0.016076875
,,,3.5E-06,0.0159
,,,3.51E-06,0.016014375
,,,3.52E-06,0.016055625
,,,3.53E-06,0.01599375
,,,3.54E-06,0.01591
,,,3.55E-06,0.01638875
