data/raw/Final_POL_Test_1/SOP068_Ch1.csv

"Record Length",1000,"Points",-5E-06,0.0067
"Sample Interval",1E-08,s,-4.99E-06,0.007019375
"Trigger Point",500,"Samples",-4.98E-06,0.006776875
"Trigger Time",0,s,-4.97E-06,0.006881875
"",,,-4.96E-06,0.0069875
"Horizontal Offset",-5E-06,s,-4.95E-06,0.007244375
,,,-4.94E-06,0.006666875
,,,-4.93E-06,0.007071875
,,,-4.92E-06,0.006865625
,,,-4.91E-06,0.006900625
,,,-4.9E-06,0.0068725
,,,-4.89E-06,0.00709
,,,-4.88E-06,0.006813125
,,,-4.87E-06,0.00697625
,,,-4.86E-06,0.006783125
,,,-4.85E-06,0.006716875
,,,-4.84E-06,0.0068225
,,,-4.83E-06,0.00685375
,,,-4.82E-06,0.00696875
,,,-4.81E-06,0.0073125
,,,-4.8E-06,0.0069075
,,,-4.79E-06,0.00706875
,,,-4.78E-06,0.006880625
,,,-4.77E-06,0.00699
,,,-4.76E-06,0.006831875
,,,-4.75E-06,0.006800625
,,,-4.74E-06,0.006759375
,,,-4.73E-06,0.00709625
,,,-4.72E-06,0.006965625
,,,-4.71E-06,0.006965
,,,-4.7E-06,0.006931875
,,,-4.69E-06,0.006895625
,,,-4.68E-06,0.00679
,,,-4.67E-06,0.00686625
,,,-4.66E-06,0.006685625
,,,-4.65E-06,0.00708375
,,,-4.64E-06,0.00705375
,,,-4.63E-06,0.007025625
,,,-4.62E-06,0.006936875
,,,-4.61E-06,0.006763125
,,,-4.6E-06,0.00673125
,,,-4.59E-06,0.00691375
,,,-4.58E-06,0.00697125
,,,-4.57E-06,0.007139375
,,,-4.56E-06,0.007225625
,,,-4.55E-06,0.006981875
,,,-4.54E-06,0.007000625
,,,-4.53E-06,0.006874375
,,,-4.52E-06,0.006941875
,,,-4.51E-06,0.006714375
,,,-4.5E-06,0.00705
,,,-4.49E-06,0.006903125
,,,-4.48E-06,0.0069275
,,,-4.47E-06,0.0069925
,,,-4.46E-06,0.007015625
,,,-4.45E-06,0.00688875
,,,-4.44E-06,0.006875
,,,-4.43E-06,0.006859375
,,,-4.42E-06,0.006825625
,,,-4.41E-06,0.006871875
,,,-4.4E-06,0.00691625
,,,-4.39E-06,0.006968125
,,,-4.38E-06,0.00695625
,,,-4.37E-06,0.0068225
,,,-4.36E-06,0.00681375
,,,-4.35E-06,0.0072025
,,,-4.34E-06,0.006848125
,,,-4.33E-06,0.00691625
,,,-4.32E-06,0.006893125
,,,-4.31E-06,0.006890625
,,,-4.3E-06,0.0068475
,,,-4.29E-06,0.00687625
,,,-4.28E-06,0.006865625
,,,-4.27E-06,0.00699375
,,,-4.26E-06,0.00673625
,,,-4.25E-06,0.00709125
,,,-4.24E-06,0.007036875
,,,-4.23E-06,0.007115625
,,,-4.22E-06,0.00692
,,,-4.21E-06,0.0068975
,,,-4.2E-06,0.00687
,,,-4.19E-06,0.00698625
,,,-4.18E-06,0.006828125
,,,-4.17E-06,0.007255
,,,-4.16E-06,0.0070625
,,,-4.15E-06,0.006864375
,,,-4.14E-06,0.006855
,,,-4.13E-06,0.006918125
,,,-4.12E-06,0.006826875
,,,-4.11E-06,0.006869375
,,,-4.1E-06,0.006730625
,,,-4.09E-06,0.006849375
,,,-4.08E-06,0.00666875
,,,-4.07E-06,0.007058125
,,,-4.06E-06,0.0069375
,,,-4.05E-06,0.006885
,,,-4.04E-06,0.0068625
,,,-4.03E-06,0.00680125
,,,-4.02E-06,0.00685625
,,,-4.01E-06,0.006819375
,,,-4E-06,0.006966875
,,,-3.99E-06,0.006933125
,,,-3.98E-06,0.0068275
,,,-3.97E-06,0.007025
,,,-3.96E-06,0.006998125
,,,-3.95E-06,0.00679125
,,,-3.94E-06,0.00714625
,,,-3.93E-06,0.006803125
,,,-3.92E-06,0.006925625
,,,-3.91E-06,0.006865625
,,,-3.9E-06,0.00707125
,,,-3.89E-06,0.0068175
,,,-3.88E-06,0.006969375
,,,-3.87E-06,0.006788125
,,,-3.86E-06,0.0068575
,,,-3.85E-06,0.006931875
,,,-3.84E-06,0.00702125
,,,-3.83E-06,0.006828125
,,,-3.82E-06,0.00704625
,,,-3.81E-06,0.007011875
,,,-3.8E-06,0.0070375
,,,-3.79E-06,0.00691875
,,,-3.78E-06,0.00691
,,,-3.77E-06,0.006950625
,,,-3.76E-06,0.00674
,,,-3.75E-06,0.006731875
,,,-3.74E-06,0.007023125
,,,-3.73E-06,0.006909375
,,,-3.72E-06,0.006759375
,,,-3.71E-06,0.007060625
,,,-3.7E-06,0.006775
,,,-3.69E-06,0.0067875
,,,-3.68E-06,0.006836875
,,,-3.67E-06,0.007183125
,,,-3.66E-06,0.006870625
,,,-3.65E-06,0.006885625
,,,-3.64E-06,0.007028125
,,,-3.63E-06,0.00711375
,,,-3.62E-06,0.006848125
,,,-3.61E-06,0.0069225
,,,-3.6E-06,0.0066675
,,,-3.59E-06,0.006726875
,,,-3.58E-06,0.006760625
,,,-3.57E-06,0.00698375
,,,-3.56E-06,0.0070125
,,,-3.55E-06,0.006860625
,,,-3.54E-06,0.006776875
,,,-3.53E-06,0.006925
,,,-3.52E-06,0.006805625
,,,-3.51E-06,0.007124375
,,,-3.5E-06,0.006993125
,,,-3.49E-06,0.006995
,,,-3.48E-06,0.00695375
,,,-3.47E-06,0.006794375
,,,-3.46E-06,0.00699875
,,,-3.45E-06,0.0068875
,,,-3.44E-06,0.006755
,,,-3.43E-06,0.00686125
,,,-3.42E-06,0.006758125
,,,-3.41E-06,0.006844375
,,,-3.4E-06,0.00695875
,,,-3.39E-06,0.006795
,,,-3.38E-06,0.0069725
,,,-3.37E-06,0.006833125
,,,-3.36E-06,0.00679375
,,,-3.35E-06,0.00709625
,,,-3.34E-06,0.00706375
,,,-3.33E-06,0.0068125
,,,-3.32E-06,0.006815625
,,,-3.31E-06,0.006914375
,,,-3.3E-06,0.006890625
,,,-3.29E-06,0.006991875
,,,-3.28E-06,0.007
,,,-3.27E-06,0.00675
,,,-3.26E-06,0.00676125
,,,-3.25E-06,0.006963125
,,,-3.24E-06,0.00703
,,,-3.23E-06,0.006788125
,,,-3.22E-06,0.007104375
,,,-3.21E-06,0.006915625
,,,-3.2E-06,0.006936875
,,,-3.19E-06,0.007100625
,,,-3.18E-06,0.00687875
,,,-3.17E-06,0.0070225
,,,-3.16E-06,0.0068675
,,,-3.15E-06,0.007066875
,,,-3.14E-06,0.006990625
,,,-3.13E-06,0.006985625
,,,-3.12E-06,0.0069675
,,,-3.11E-06,0.006958125
,,,-3.1E-06,0.0069
,,,-3.09E-06,0.00692375
,,,-3.08E-06,0.006908125
,,,-3.07E-06,0.006925625
,,,-3.06E-06,0.0065875
,,,-3.05E-06,0.0070875
,,,-3.04E-06,0.00695
,,,-3.03E-06,0.00691375
,,,-3.02E-06,0.006935625
,,,-3.01E-06,0.00690875
,,,-3E-06,0.00684625
,,,-2.99E-06,0.007156875
,,,-2.98E-06,0.0069425
,,,-2.97E-06,0.0066125
,,,-2.96E-06,0.006676875
,,,-2.95E-06,0.007014375
,,,-2.94E-06,0.0070925
,,,-2.93E-06,0.00709125
,,,-2.92E-06,0.006845625
,,,-2.91E-06,0.00707125
,,,-2.9E-06,0.0069475
,,,-2.89E-06,0.00686875
,,,-2.88E-06,0.00694
,,,-2.87E-06,0.006995625
,,,-2.86E-06,0.007133125
,,,-2.85E-06,0.006905
,,,-2.84E-06,0.006790625
,,,-2.83E-06,0.00694125
,,,-2.82E-06,0.006994375
,,,-2.81E-06,0.006775
,,,-2.8E-06,0.0067975
,,,-2.79E-06,0.006835
,,,-2.78E-06,0.00666875
,,,-2.77E-06,0.006784375
,,,-2.76E-06,0.00696125
,,,-2.75E-06,0.0071375
,,,-2.74E-06,0.006663125
,,,-2.73E-06,0.007024375
,,,-2.72E-06,0.006876875
,,,-2.71E-06,0.007126875
,,,-2.7E-06,0.006819375
,,,-2.69E-06,0.00692375
,,,-2.68E-06,0.007019375
,,,-2.67E-06,0.006844375
,,,-2.66E-06,0.006875625
,,,-2.65E-06,0.0069075
,,,-2.64E-06,0.00677625
,,,-2.63E-06,0.00697875
,,,-2.62E-06,0.006881875
,,,-2.61E-06,0.00690375
,,,-2.6E-06,0.006701875
,,,-2.59E-06,0.007215
,,,-2.58E-06,0.006959375
,,,-2.57E-06,0.00684875
,,,-2.56E-06,0.006961875
,,,-2.55E-06,0.00710375
,,,-2.54E-06,0.006958125
,,,-2.53E-06,0.00704375
,,,-2.52E-06,0.006871875
,,,-2.51E-06,0.00724875
,,,-2.5E-06,0.0071075
,,,-2.49E-06,0.006818125
,,,-2.48E-06,0.007111875
,,,-2.47E-06,0.00684875
,,,-2.46E-06,0.006950625
,,,-2.45E-06,0.00700875
,,,-2.44E-06,0.006845625
,,,-2.43E-06,0.006675625
,,,-2.42E-06,0.0066525
,,,-2.41E-06,0.00696125
,,,-2.4E-06,0.007119375
,,,-2.39E-06,0.006791875
,,,-2.38E-06,0.006785
,,,-2.37E-06,0.0067375
,,,-2.36E-06,0.00704625
,,,-2.35E-06,0.006998125
,,,-2.34E-06,0.00691375
,,,-2.33E-06,0.006829375
,,,-2.32E-06,0.00682
,,,-2.31E-06,0.00696125
,,,-2.3E-06,0.0067275
,,,-2.29E-06,0.006968125
,,,-2.28E-06,0.00702375
,,,-2.27E-06,0.006838125
,,,-2.26E-06,0.00700125
,,,-2.25E-06,0.007061875
,,,-2.24E-06,0.0066975
,,,-2.23E-06,0.006961875
,,,-2.22E-06,0.0067625
,,,-2.21E-06,0.006959375
,,,-2.2E-06,0.006898125
,,,-2.19E-06,0.006815
,,,-2.18E-06,0.0070275
,,,-2.17E-06,0.006943125
,,,-2.16E-06,0.00687
,,,-2.15E-06,0.006958125
,,,-2.14E-06,0.006823125
,,,-2.13E-06,0.006991875
,,,-2.12E-06,0.007001875
,,,-2.11E-06,0.007095
,,,-2.1E-06,0.007063125
,,,-2.09E-06,0.00673
,,,-2.08E-06,0.00697
,,,-2.07E-06,0.006915
,,,-2.06E-06,0.00693
,,,-2.05E-06,0.006816875
,,,-2.04E-06,0.0068725
,,,-2.03E-06,0.007033125
,,,-2.02E-06,0.006655
,,,-2.01E-06,0.006864375
,,,-2E-06,0.00706875
,,,-1.99E-06,0.006765
,,,-1.98E-06,0.006953125
,,,-1.97E-06,0.006898125
,,,-1.96E-06,0.006536875
,,,-1.95E-06,0.007085
,,,-1.94E-06,0.00699625
,,,-1.93E-06,0.006756875
,,,-1.92E-06,0.00699875
,,,-1.91E-06,0.007224375
,,,-1.9E-06,0.00699625
,,,-1.89E-06,0.0066325
,,,-1.88E-06,0.006833125
,,,-1.87E-06,0.006796875
,,,-1.86E-06,0.006848125
,,,-1.85E-06,0.00702
,,,-1.84E-06,0.007105
,,,-1.83E-06,0.006789375
,,,-1.82E-06,0.007085
,,,-1.81E-06,0.006875
,,,-1.8E-06,0.00679
,,,-1.79E-06,0.00686
,,,-1.78E-06,0.0070625
,,,-1.77E-06,0.0068625
,,,-1.76E-06,0.007029375
,,,-1.75E-06,0.006856875
,,,-1.74E-06,0.00719625
,,,-1.73E-06,0.006911875
,,,-1.72E-06,0.007035
,,,-1.71E-06,0.006831875
,,,-1.7E-06,0.0068775
,,,-1.69E-06,0.007085
,,,-1.68E-06,0.00685
,,,-1.67E-06,0.007104375
,,,-1.66E-06,0.00671125
,,,-1.65E-06,0.007100625
,,,-1.64E-06,0.00681125
,,,-1.63E-06,0.006904375
,,,-1.62E-06,0.006793125
,,,-1.61E-06,0.006918125
,,,-1.6E-06,0.006943125
,,,-1.59E-06,0.006616875
,,,-1.58E-06,0.00692
,,,-1.57E-06,0.00679625
,,,-1.56E-06,0.006595
,,,-1.55E-06,0.0068875
,,,-1.54E-06,0.00693375
,,,-1.53E-06,0.006840625
,,,-1.52E-06,0.006755625
,,,-1.51E-06,0.006955625
,,,-1.5E-06,0.006788125
,,,-1.49E-06,0.006830625
,,,-1.48E-06,0.0068775
,,,-1.47E-06,0.006660625
,,,-1.46E-06,0.006954375
,,,-1.45E-06,0.006838125
,,,-1.44E-06,0.006925
,,,-1.43E-06,0.006876875
,,,-1.42E-06,0.006675
,,,-1.41E-06,0.00688375
,,,-1.4E-06,0.006613125
,,,-1.39E-06,0.0070675
,,,-1.38E-06,0.006950625
,,,-1.37E-06,0.00691875
,,,-1.36E-06,0.007001875
,,,-1.35E-06,0.00690125
,,,-1.34E-06,0.00679625
,,,-1.33E-06,0.006829375
,,,-1.32E-06,0.00684
,,,-1.31E-06,0.00691875
,,,-1.3E-06,0.0069025
,,,-1.29E-06,0.00710125
,,,-1.28E-06,0.00675625
,,,-1.27E-06,0.0070425
,,,-1.26E-06,0.006924375
,,,-1.25E-06,0.00704125
,,,-1.24E-06,0.006834375
,,,-1.23E-06,0.00705375
,,,-1.22E-06,0.006895625
,,,-1.21E-06,0.007139375
,,,-1.2E-06,0.00673625
,,,-1.19E-06,0.006731875
,,,-1.18E-06,0.00693875
,,,-1.17E-06,0.0069375
,,,-1.16E-06,0.006933125
,,,-1.15E-06,0.006755625
,,,-1.14E-06,0.006909375
,,,-1.13E-06,0.006689375
,,,-1.12E-06,0.006869375
,,,-1.11E-06,0.006968125
,,,-1.1E-06,0.006964375
,,,-1.09E-06,0.0067925
,,,-1.08E-06,0.006685
,,,-1.07E-06,0.006899375
,,,-1.06E-06,0.0068475
,,,-1.05E-06,0.00678625
,,,-1.04E-06,0.00700375
,,,-1.03E-06,0.0070675
,,,-1.02E-06,0.00684125
,,,-1.01E-06,0.00682375
,,,-1E-06,0.006825625
,,,-9.9E-07,0.00707625
,,,-9.8E-07,0.00699625
,,,-9.7E-07,0.00689125
,,,-9.6E-07,0.00689125
,,,-9.5E-07,0.006635
,,,-9.4E-07,0.006961875
,,,-9.3E-07,0.00699125
,,,-9.2E-07,0.006928125
,,,-9.1E-07,0.00688625
,,,-9E-07,0.006840625
,,,-8.9E-07,0.006931875
,,,-8.8E-07,0.0068625
,,,-8.7E-07,0.0069475
,,,-8.6E-07,0.006838125
,,,-8.5E-07,0.006851875
,,,-8.4E-07,0.006936875
,,,-8.3E-07,0.0069475
,,,-8.2E-07,0.006784375
,,,-8.1E-07,0.006880625
,,,-8E-07,0.00678375
,,,-7.9E-07,0.006779375
,,,-7.8E-07,0.00700375
,,,-7.7E-07,0.006935
,,,-7.6E-07,0.007100625
,,,-7.5E-07,0.007059375
,,,-7.4E-07,0.006951875
,,,-7.3E-07,0.0070175
,,,-7.2E-07,0.00689875
,,,-7.1E-07,0.006951875
,,,-7E-07,0.006755
,,,-6.9E-07,0.006976875
,,,-6.8E-07,0.00691125
,,,-6.7E-07,0.007118125
,,,-6.6E-07,0.00676375
,,,-6.5E-07,0.007174375
,,,-6.4E-07,0.0069075
,,,-6.3E-07,0.00708
,,,-6.2E-07,0.00683375
,,,-6.1E-07,0.006864375
,,,-6E-07,0.006978125
,,,-5.9E-07,0.0068775
,,,-5.8E-07,0.0070875
,,,-5.7E-07,0.00676
,,,-5.6E-07,0.00693125
,,,-5.5E-07,0.006830625
,,,-5.4E-07,0.0068775
,,,-5.3E-07,0.007109375
,,,-5.2E-07,0.0070625
,,,-5.1E-07,0.0067425
,,,-5E-07,0.006853125
,,,-4.9E-07,0.00709
,,,-4.8E-07,0.00689625
,,,-4.7E-07,0.0071
,,,-4.6E-07,0.006941875
,,,-4.5E-07,0.006804375
,,,-4.4E-07,0.00704625
,,,-4.3E-07,0.007109375
,,,-4.2E-07,0.0070475
,,,-4.1E-07,0.00673625
,,,-4E-07,0.006955625
,,,-3.9E-07,0.00693
,,,-3.8E-07,0.00686875
,,,-3.7E-07,0.00693625
,,,-3.6E-07,0.0066425
,,,-3.5E-07,0.00706
,,,-3.4E-07,0.006989375
,,,-3.3E-07,0.007080625
,,,-3.2E-07,0.00705625
,,,-3.1E-07,0.006889375
,,,-3E-07,0.006943125
,,,-2.9E-07,0.00682125
,,,-2.8E-07,0.00701
,,,-2.7E-07,0.00702875
,,,-2.6E-07,0.00704
,,,-2.5E-07,0.00691
,,,-2.4E-07,0.007108125
,,,-2.3E-07,0.00692625
,,,-2.2E-07,0.006829375
,,,-2.1E-07,0.007069375
,,,-2E-07,0.006831875
,,,-1.9E-07,0.006571875
,,,-1.8E-07,0.006935625
,,,-1.7E-07,0.00688
,,,-1.6E-07,0.007025625
,,,-1.5E-07,0.007024375
,,,-1.4E-07,0.00691375
,,,-1.3E-07,0.00702875
,,,-1.2E-07,0.006841875
,,,-1.1E-07,0.00697125
,,,-1E-07,0.00733375
,,,-9E-08,0.0071875
,,,-8E-08,0.0062925
,,,-7E-08,0.005996875
,,,-6E-08,0.006380625
,,,-5E-08,0.0078475
,,,-4E-08,0.00877625
,,,-3E-08,0.007920625
,,,-2E-08,0.0061075
,,,-1E-08,0.0038725
,,,0,0.004454375
,,,1E-08,0.007580625
,,,2E-08,0.00970125
,,,3E-08,0.009991875
,,,4E-08,0.007725
,,,5E-08,0.005556875
,,,6E-08,0.0048125
,,,7E-08,0.005543125
,,,8E-08,0.007000625
,,,9E-08,0.008301875
,,,1E-07,0.00835375
,,,1.1E-07,0.007513125
,,,1.2E-07,0.00626
,,,1.3E-07,0.00604
,,,1.4E-07,0.006255625
,,,1.5E-07,0.00675625
,,,1.6E-07,0.0071975
,,,1.7E-07,0.007125625
,,,1.8E-07,0.006910625
,,,1.9E-07,0.00692875
,,,2E-07,0.007035625
,,,2.1E-07,0.006818125
,,,2.2E-07,0.0065725
,,,2.3E-07,0.0068675
,,,2.4E-07,0.00703125
,,,2.5E-07,0.007038125
,,,2.6E-07,0.006916875
,,,2.7E-07,0.0067925
,,,2.8E-07,0.007133125
,,,2.9E-07,0.006998125
,,,3E-07,0.0067075
,,,3.1E-07,0.007018125
,,,3.2E-07,0.00671375
,,,3.3E-07,0.006756875
,,,3.4E-07,0.006853125
,,,3.5E-07,0.006925
,,,3.6E-07,0.00697375
,,,3.7E-07,0.00708375
,,,3.8E-07,0.007190625
,,,3.9E-07,0.006685
,,,4E-07,0.006933125
,,,4.1E-07,0.007050625
,,,4.2E-07,0.007155625
,,,4.3E-07,0.006864375
,,,4.4E-07,0.006725
,,,4.5E-07,0.006945
,,,4.6E-07,0.0071275
,,,4.7E-07,0.006856875
,,,4.8E-07,0.006831875
,,,4.9E-07,0.00703375
,,,5E-07,0.007115625
,,,5.1E-07,0.00700625
,,,5.2E-07,0.00687125
,,,5.3E-07,0.0068125
,,,5.4E-07,0.00677375
,,,5.5E-07,0.006751875
,,,5.6E-07,0.0068375
,,,5.7E-07,0.0068275
,,,5.8E-07,0.006930625
,,,5.9E-07,0.0067075
,,,6E-07,0.007088125
,,,6.1E-07,0.00672
,,,6.2E-07,0.00658375
,,,6.3E-07,0.007029375
,,,6.4E-07,0.006896875
,,,6.5E-07,0.0069675
,,,6.6E-07,0.0070625
,,,6.7E-07,0.0067925
,,,6.8E-07,0.007005
,,,6.9E-07,0.006854375
,,,7E-07,0.006994375
,,,7.1E-07,0.0068825
,,,7.2E-07,0.007168125
,,,7.3E-07,0.00697375
,,,7.4E-07,0.00718125
,,,7.5E-07,0.006868125
,,,7.6E-07,0.007078125
,,,7.7E-07,0.0068275
,,,7.8E-07,0.006898125
,,,7.9E-07,0.007161875
,,,8E-07,0.006765
,,,8.1E-07,0.006801875
,,,8.2E-07,0.00708375
,,,8.3E-07,0.0068575
,,,8.4E-07,0.00688375
,,,8.5E-07,0.006955
,,,8.6E-07,0.006761875
,,,8.7E-07,0.006829375
,,,8.8E-07,0.007026875
,,,8.9E-07,0.006844375
,,,9E-07,0.006820625
,,,9.1E-07,0.006854375
,,,9.2E-07,0.006808125
,,,9.3E-07,0.006883125
,,,9.4E-07,0.006844375
,,,9.5E-07,0.006848125
,,,9.6E-07,0.007069375
,,,9.7E-07,0.0069475
,,,9.8E-07,0.006954375
,,,9.9E-07,0.006880625
,,,1E-06,0.00697125
,,,1.01E-06,0.006978125
,,,1.02E-06,0.006860625
,,,1.03E-06,0.006943125
,,,1.04E-06,0.006808125
,,,1.05E-06,0.006795
,,,1.06E-06,0.0067125
,,,1.07E-06,0.0069325
,,,1.08E-06,0.006946875
,,,1.09E-06,0.00711
,,,1.1E-06,0.00697625
,,,1.11E-06,0.006795625
,,,1.12E-06,0.00659125
,,,1.13E-06,0.00689
,,,1.14E-06,0.00679625
,,,1.15E-06,0.00705
,,,1.16E-06,0.006685
,,,1.17E-06,0.006723125
,,,1.18E-06,0.00709625
,,,1.19E-06,0.00689875
,,,1.2E-06,0.00675875
,,,1.21E-06,0.006720625
,,,1.22E-06,0.0070025
,,,1.23E-06,0.006719375
,,,1.24E-06,0.00691125
,,,1.25E-06,0.00687875
,,,1.26E-06,0.0067075
,,,1.27E-06,0.006983125
,,,1.28E-06,0.007069375
,,,1.29E-06,0.007161875
,,,1.3E-06,0.00678625
,,,1.31E-06,0.006875625
,,,1.32E-06,0.007095
,,,1.33E-06,0.006788125
,,,1.34E-06,0.007079375
,,,1.35E-06,0.00675875
,,,1.36E-06,0.007063125
,,,1.37E-06,0.006790625
,,,1.38E-06,0.00678625
,,,1.39E-06,0.006874375
,,,1.4E-06,0.00683875
,,,1.41E-06,0.0067825
,,,1.42E-06,0.007049375
,,,1.43E-06,0.006973125
,,,1.44E-06,0.0070025
,,,1.45E-06,0.006759375
,,,1.46E-06,0.006844375
,,,1.47E-06,0.00686125
,,,1.48E-06,0.007094375
,,,1.49E-06,0.00691375
,,,1.5E-06,0.00702
,,,1.51E-06,0.00701625
,,,1.52E-06,0.00689375
,,,1.53E-06,0.006731875
,,,1.54E-06,0.006748125
,,,1.55E-06,0.006825625
,,,1.56E-06,0.006839375
,,,1.57E-06,0.0069875
,,,1.58E-06,0.007058125
,,,1.59E-06,0.0069725
,,,1.6E-06,0.006675625
,,,1.61E-06,0.0069175
,,,1.62E-06,0.006945
,,,1.63E-06,0.006965
,,,1.64E-06,0.006913125
,,,1.65E-06,0.0069825
,,,1.66E-06,0.0068875
,,,1.67E-06,0.006790625
,,,1.68E-06,0.00719125
,,,1.69E-06,0.006674375
,,,1.7E-06,0.00673625
,,,1.71E-06,0.0067575
,,,1.72E-06,0.006918125
,,,1.73E-06,0.007036875
,,,1.74E-06,0.006878125
,,,1.75E-06,0.006959375
,,,1.76E-06,0.007003125
,,,1.77E-06,0.006871875
,,,1.78E-06,0.006775
,,,1.79E-06,0.00689625
,,,1.8E-06,0.00677875
,,,1.81E-06,0.007053125
,,,1.82E-06,0.00675
,,,1.83E-06,0.006905
,,,1.84E-06,0.006859375
,,,1.85E-06,0.006996875
,,,1.86E-06,0.006880625
,,,1.87E-06,0.00682625
,,,1.88E-06,0.006746875
,,,1.89E-06,0.00694375
,,,1.9E-06,0.00687375
,,,1.91E-06,0.0069375
,,,1.92E-06,0.00686625
,,,1.93E-06,0.007009375
,,,1.94E-06,0.0065975
,,,1.95E-06,0.006895625
,,,1.96E-06,0.0066975
,,,1.97E-06,0.006845625
,,,1.98E-06,0.006925625
,,,1.99E-06,0.007058125
,,,2E-06,0.0070375
,,,2.01E-06,0.00708375
,,,2.02E-06,0.00689875
,,,2.03E-06,0.00695375
,,,2.04E-06,0.006968125
,,,2.05E-06,0.0068375
,,,2.06E-06,0.006911875
,,,2.07E-06,0.007051875
,,,2.08E-06,0.00708
,,,2.09E-06,0.006844375
,,,2.1E-06,0.00688625
,,,2.11E-06,0.007046875
,,,2.12E-06,0.006866875
,,,2.13E-06,0.006905
,,,2.14E-06,0.00666
,,,2.15E-06,0.00699625
,,,2.16E-06,0.006918125
,,,2.17E-06,0.006705
,,,2.18E-06,0.006801875
,,,2.19E-06,0.006884375
,,,2.2E-06,0.00705625
,,,2.21E-06,0.0067975
,,,2.22E-06,0.00673125
,,,2.23E-06,0.006658125
,,,2.24E-06,0.0068
,,,2.25E-06,0.006855
,,,2.26E-06,0.006848125
,,,2.27E-06,0.006839375
,,,2.28E-06,0.006979375
,,,2.29E-06,0.0068225
,,,2.3E-06,0.006958125
,,,2.31E-06,0.0068325
,,,2.32E-06,0.00711625
,,,2.33E-06,0.007015
,,,2.34E-06,0.006889375
,,,2.35E-06,0.006894375
,,,2.36E-06,0.006884375
,,,2.37E-06,0.00674625
,,,2.38E-06,0.006974375
,,,2.39E-06,0.006861875
,,,2.4E-06,0.007103125
,,,2.41E-06,0.0067325
,,,2.42E-06,0.006888125
,,,2.43E-06,0.007004375
,,,2.44E-06,0.00698
,,,2.45E-06,0.0070075
,,,2.46E-06,0.00693875
,,,2.47E-06,0.00694625
,,,2.48E-06,0.006948125
,,,2.49E-06,0.006895
,,,2.5E-06,0.007053125
,,,2.51E-06,0.006918125
,,,2.52E-06,0.006956875
,,,2.53E-06,0.0070225
,,,2.54E-06,0.00703875
,,,2.55E-06,0.006855625
,,,2.56E-06,0.0069125
,,,2.57E-06,0.007060625
,,,2.58E-06,0.00692625
,,,2.59E-06,0.006820625
,,,2.6E-06,0.00693375
,,,2.61E-06,0.006778125
,,,2.62E-06,0.007028125
,,,2.63E-06,0.00685
,,,2.64E-06,0.006691875
,,,2.65E-06,0.007035
,,,2.66E-06,0.0068325
,,,2.67E-06,0.00697875
,,,2.68E-06,0.006974375
,,,2.69E-06,0.00682375
,,,2.7E-06,0.006788125
,,,2.71E-06,0.00680875
,,,2.72E-06,0.006885625
,,,2.73E-06,0.006805
,,,2.74E-06,0.007120625
,,,2.75E-06,0.0070075
,,,2.76E-06,0.006923125
,,,2.77E-06,0.006935
,,,2.78E-06,0.006741875
,,,2.79E-06,0.00675375
,,,2.8E-06,0.0070475
,,,2.81E-06,0.0069175
,,,2.82E-06,0.006924375
,,,2.83E-06,0.006784375
,,,2.84E-06,0.0069325
,,,2.85E-06,0.0068775
,,,2.86E-06,0.00686
,,,2.87E-06,0.006895
,,,2.88E-06,0.0069175
,,,2.89E-06,0.00671
,,,2.9E-06,0.006835
,,,2.91E-06,0.007085
,,,2.92E-06,0.007016875
,,,2.93E-06,0.00686875
,,,2.94E-06,0.006796875
,,,2.95E-06,0.007068125
,,,2.96E-06,0.0067775
,,,2.97E-06,0.006860625
,,,2.98E-06,0.006979375
,,,2.99E-06,0.006983125
,,,3E-06,0.006725625
,,,3.01E-06,0.006895625
,,,3.02E-06,0.00703125
,,,3.03E-06,0.006998125
,,,3.04E-06,0.007110625
,,,3.05E-06,0.00693375
,,,3.06E-06,0.00680375
,,,3.07E-06,0.0067825
,,,3.08E-06,0.007009375
,,,3.09E-06,0.006711875
,,,3.1E-06,0.006798125
,,,3.11E-06,0.006833125
,,,3.12E-06,0.006726875
,,,3.13E-06,0.00665375
,,,3.14E-06,0.006808125
,,,3.15E-06,0.006803125
,,,3.16E-06,0.00698
,,,3.17E-06,0.006999375
,,,3.18E-06,0.0068525
,,,3.19E-06,0.00707
,,,3.2E-06,0.00694375
,,,3.21E-06,0.006758125
,,,3.22E-06,0.006930625
,,,3.23E-06,0.00686125
,,,3.24E-06,0.006830625
,,,3.25E-06,0.00699375
,,,3.26E-06,0.00681375
,,,3.27E-06,0.006900625
,,,3.28E-06,0.0069575
,,,3.29E-06,0.006894375
,,,3.3E-06,0.006944375
,,,3.31E-06,0.00683
,,,3.32E-06,0.0067875
,,,3.33E-06,0.006910625
,,,3.34E-06,0.00708125
,,,3.35E-06,0.0069025
,,,3.36E-06,0.007100625
,,,3.37E-06,0.00703625
,,,3.38E-06,0.006838125
,,,3.39E-06,0.00673125
,,,3.4E-06,0.006860625
,,,3.41E-06,0.006793125
,,,3.42E-06,0.00688875
,,,3.43E-06,0.00700125
,,,3.44E-06,0.00688625
,,,3.45E-06,0.006883125
,,,3.46E-06,0.006986875
,,,3.47E-06,0.00693125
,,,3.48E-06,0.00699375
,,,3.49E-06,0.007011875
,,,3.5E-06,0.0068825
,,,3.51E-06,0.0068
,,,3.52E-06,0.006861875
,,,3.53E-06,0.0070425
,,,3.54E-06,0.00718
,,,3.55E-06,0.00685375
,,,3.56E-06,0.006965
,,,3.57E-06,0.007084375
