data/raw/Final_POL_Test_1/SOP021_Ch2.csv

"Record Length",1000,"Points",-5E-06,0.024436875
"Sample Interval",1E-08,s,-4.99E-06,0.024585
"Trigger Point",500,"Samples",-4.98E-06,0.02457875
"Trigger Time",0,s,-4.97E-06,0.02465375
"",,,-4.96E-06,0.024554375
"Horizontal Offset",-5E-06,s,-4.95E-06,0.0246525
,,,-4.94E-06,0.0244175
,,,-4.93E-06,0.024595625
,,,-4.92E-06,0.024424375
,,,-4.91E-06,0.024440625
,,,-4.9E-06,0.024486875
,,,-4.89E-06,0.0246
,,,-4.88E-06,0.024465625
,,,-4.87E-06,0.024494375
,,,-4.86E-06,0.02449625
,,,-4.85E-06,0.024179375
,,,-4.84E-06,0.024626875
,,,-4.83E-06,0.024305625
,,,-4.82E-06,0.024518125
,,,-4.81E-06,0.02449
,,,-4.8E-06,0.02457875
,,,-4.79E-06,0.024745
,,,-4.78E-06,0.0245525
,,,-4.77E-06,0.0244175
,,,-4.76E-06,0.024658125
,,,-4.75E-06,0.024485
,,,-4.74E-06,0.024529375
,,,-4.73E-06,0.02470875
,,,-4.72E-06,0.02453125
,,,-4.71E-06,0.02435
,,,-4.7E-06,0.024395625
,,,-4.69E-06,0.024489375
,,,-4.68E-06,0.02454125
,,,-4.67E-06,0.02442875
,,,-4.66E-06,0.0244725
,,,-4.65E-06,0.02455125
,,,-4.64E-06,0.02460125
,,,-4.63E-06,0.0242375
,,,-4.62E-06,0.0244225
,,,-4.61E-06,0.02435
,,,-4.6E-06,0.02459125
,,,-4.59E-06,0.024575
,,,-4.58E-06,0.024529375
,,,-4.57E-06,0.024574375
,,,-4.56E-06,0.02452875
,,,-4.55E-06,0.024405625
,,,-4.54E-06,0.024439375
,,,-4.53E-06,0.024365
,,,-4.52E-06,0.02480125
,,,-4.51E-06,0.024454375
,,,-4.5E-06,0.0243975
,,,-4.49E-06,0.02454
,,,-4.48E-06,0.0247575
,,,-4.47E-06,0.02471625
,,,-4.46E-06,0.02464
,,,-4.45E-06,0.024529375
,,,-4.44E-06,0.024640625
,,,-4.43E-06,0.02452
,,,-4.42E-06,0.024464375
,,,-4.41E-06,0.024569375
,,,-4.4E-06,0.024661875
,,,-4.39E-06,0.024511875
,,,-4.38E-06,0.024515
,,,-4.37E-06,0.024519375
,,,-4.36E-06,0.024615625
,,,-4.35E-06,0.0244625
,,,-4.34E-06,0.02442875
,,,-4.33E-06,0.024659375
,,,-4.32E-06,0.024605625
,,,-4.31E-06,0.02483875
,,,-4.3E-06,0.024594375
,,,-4.29E-06,0.0245175
,,,-4.28E-06,0.02444375
,,,-4.27E-06,0.02453375
,,,-4.26E-06,0.024414375
,,,-4.25E-06,0.0243575
,,,-4.24E-06,0.0245175
,,,-4.23E-06,0.024628125
,,,-4.22E-06,0.024468125
,,,-4.21E-06,0.024625625
,,,-4.2E-06,0.0245175
,,,-4.19E-06,0.02455
,,,-4.18E-06,0.024685
,,,-4.17E-06,0.02444125
,,,-4.16E-06,0.024425625
,,,-4.15E-06,0.024538125
,,,-4.14E-06,0.024451875
,,,-4.13E-06,0.024263125
,,,-4.12E-06,0.024576875
,,,-4.11E-06,0.024345
,,,-4.1E-06,0.02467375
,,,-4.09E-06,0.024606875
,,,-4.08E-06,0.024614375
,,,-4.07E-06,0.02450625
,,,-4.06E-06,0.02445125
,,,-4.05E-06,0.02458
,,,-4.04E-06,0.024365
,,,-4.03E-06,0.024629375
,,,-4.02E-06,0.024605625
,,,-4.01E-06,0.0245025
,,,-4E-06,0.0246
,,,-3.99E-06,0.02448375
,,,-3.98E-06,0.024590625
,,,-3.97E-06,0.024458125
,,,-3.96E-06,0.02444375
,,,-3.95E-06,0.02467375
,,,-3.94E-06,0.024589375
,,,-3.93E-06,0.024686875
,,,-3.92E-06,0.0246325
,,,-3.91E-06,0.024511875
,,,-3.9E-06,0.02448375
,,,-3.89E-06,0.024535625
,,,-3.88E-06,0.02426
,,,-3.87E-06,0.0245575
,,,-3.86E-06,0.024670625
,,,-3.85E-06,0.024506875
,,,-3.84E-06,0.02446
,,,-3.83E-06,0.024569375
,,,-3.82E-06,0.024761875
,,,-3.81E-06,0.02469
,,,-3.8E-06,0.02449625
,,,-3.79E-06,0.02463875
,,,-3.78E-06,0.02450875
,,,-3.77E-06,0.02425
,,,-3.76E-06,0.024513125
,,,-3.75E-06,0.02466
,,,-3.74E-06,0.024546875
,,,-3.73E-06,0.02455
,,,-3.72E-06,0.02461
,,,-3.71E-06,0.02427125
,,,-3.7E-06,0.024453125
,,,-3.69E-06,0.02443625
,,,-3.68E-06,0.024605625
,,,-3.67E-06,0.02461875
,,,-3.66E-06,0.024494375
,,,-3.65E-06,0.024825625
,,,-3.64E-06,0.024366875
,,,-3.63E-06,0.024598125
,,,-3.62E-06,0.02451625
,,,-3.61E-06,0.02457125
,,,-3.6E-06,0.024693125
,,,-3.59E-06,0.024509375
,,,-3.58E-06,0.024715
,,,-3.57E-06,0.024615
,,,-3.56E-06,0.0245525
,,,-3.55E-06,0.0246
,,,-3.54E-06,0.024483125
,,,-3.53E-06,0.02473
,,,-3.52E-06,0.024374375
,,,-3.51E-06,0.024505
,,,-3.5E-06,0.02467625
,,,-3.49E-06,0.02452
,,,-3.48E-06,0.024733125
,,,-3.47E-06,0.02448875
,,,-3.46E-06,0.024381875
,,,-3.45E-06,0.0246175
,,,-3.44E-06,0.0245925
,,,-3.43E-06,0.02455375
,,,-3.42E-06,0.024570625
,,,-3.41E-06,0.024745625
,,,-3.4E-06,0.024490625
,,,-3.39E-06,0.024476875
,,,-3.38E-06,0.0245225
,,,-3.37E-06,0.024564375
,,,-3.36E-06,0.024623125
,,,-3.35E-06,0.0245875
,,,-3.34E-06,0.024788125
,,,-3.33E-06,0.0245475
,,,-3.32E-06,0.024465
,,,-3.31E-06,0.024464375
,,,-3.3E-06,0.0246875
,,,-3.29E-06,0.024383125
,,,-3.28E-06,0.024668125
,,,-3.27E-06,0.02446625
,,,-3.26E-06,0.024688125
,,,-3.25E-06,0.024494375
,,,-3.24E-06,0.024745
,,,-3.23E-06,0.024629375
,,,-3.22E-06,0.024490625
,,,-3.21E-06,0.0244675
,,,-3.2E-06,0.0245375
,,,-3.19E-06,0.02435375
,,,-3.18E-06,0.02442875
,,,-3.17E-06,0.024525625
,,,-3.16E-06,0.024418125
,,,-3.15E-06,0.024678125
,,,-3.14E-06,0.02446125
,,,-3.13E-06,0.0245475
,,,-3.12E-06,0.024465625
,,,-3.11E-06,0.024539375
,,,-3.1E-06,0.02476625
,,,-3.09E-06,0.02471875
,,,-3.08E-06,0.0246975
,,,-3.07E-06,0.02447
,,,-3.06E-06,0.0244925
,,,-3.05E-06,0.02444
,,,-3.04E-06,0.024775
,,,-3.03E-06,0.024506875
,,,-3.02E-06,0.024520625
,,,-3.01E-06,0.024675
,,,-3E-06,0.024558125
,,,-2.99E-06,0.024599375
,,,-2.98E-06,0.024660625
,,,-2.97E-06,0.02441625
,,,-2.96E-06,0.024516875
,,,-2.95E-06,0.02445625
,,,-2.94E-06,0.024486875
,,,-2.93E-06,0.024620625
,,,-2.92E-06,0.0246325
,,,-2.91E-06,0.0246175
,,,-2.9E-06,0.024624375
,,,-2.89E-06,0.024696875
,,,-2.88E-06,0.02446625
,,,-2.87E-06,0.024399375
,,,-2.86E-06,0.02460875
,,,-2.85E-06,0.024518125
,,,-2.84E-06,0.02472625
,,,-2.83E-06,0.0243025
,,,-2.82E-06,0.0246925
,,,-2.81E-06,0.02458375
,,,-2.8E-06,0.024458125
,,,-2.79E-06,0.024438125
,,,-2.78E-06,0.02445125
,,,-2.77E-06,0.024436875
,,,-2.76E-06,0.024701875
,,,-2.75E-06,0.02464
,,,-2.74E-06,0.024601875
,,,-2.73E-06,0.024205
,,,-2.72E-06,0.024385
,,,-2.71E-06,0.02456
,,,-2.7E-06,0.02440125
,,,-2.69E-06,0.02462625
,,,-2.68E-06,0.02455125
,,,-2.67E-06,0.02453125
,,,-2.66E-06,0.0245175
,,,-2.65E-06,0.02453125
,,,-2.64E-06,0.0244425
,,,-2.63E-06,0.02435625
,,,-2.62E-06,0.024596875
,,,-2.61E-06,0.024291875
,,,-2.6E-06,0.024315625
,,,-2.59E-06,0.024494375
,,,-2.58E-06,0.0244675
,,,-2.57E-06,0.0245425
,,,-2.56E-06,0.024433125
,,,-2.55E-06,0.024504375
,,,-2.54E-06,0.02447375
,,,-2.53E-06,0.024214375
,,,-2.52E-06,0.02462875
,,,-2.51E-06,0.024455625
,,,-2.5E-06,0.02464375
,,,-2.49E-06,0.024548125
,,,-2.48E-06,0.02441125
,,,-2.47E-06,0.024513125
,,,-2.46E-06,0.024325625
,,,-2.45E-06,0.024638125
,,,-2.44E-06,0.024581875
,,,-2.43E-06,0.02432125
,,,-2.42E-06,0.02479
,,,-2.41E-06,0.024326875
,,,-2.4E-06,0.0244575
,,,-2.39E-06,0.024628125
,,,-2.38E-06,0.02465875
,,,-2.37E-06,0.024550625
,,,-2.36E-06,0.024308125
,,,-2.35E-06,0.024554375
,,,-2.34E-06,0.0245175
,,,-2.33E-06,0.02440625
,,,-2.32E-06,0.02436
,,,-2.31E-06,0.024554375
,,,-2.3E-06,0.024385625
,,,-2.29E-06,0.02451625
,,,-2.28E-06,0.024608125
,,,-2.27E-06,0.02465625
,,,-2.26E-06,0.024708125
,,,-2.25E-06,0.024283125
,,,-2.24E-06,0.02455875
,,,-2.23E-06,0.024399375
,,,-2.22E-06,0.024676875
,,,-2.21E-06,0.02438875
,,,-2.2E-06,0.0243425
,,,-2.19E-06,0.024135
,,,-2.18E-06,0.02428625
,,,-2.17E-06,0.024443125
,,,-2.16E-06,0.0244375
,,,-2.15E-06,0.024396875
,,,-2.14E-06,0.0245325
,,,-2.13E-06,0.024893125
,,,-2.12E-06,0.024546875
,,,-2.11E-06,0.024649375
,,,-2.1E-06,0.024371875
,,,-2.09E-06,0.02464625
,,,-2.08E-06,0.024549375
,,,-2.07E-06,0.0247425
,,,-2.06E-06,0.024356875
,,,-2.05E-06,0.024655
,,,-2.04E-06,0.024550625
,,,-2.03E-06,0.024505625
,,,-2.02E-06,0.024305625
,,,-2.01E-06,0.024491875
,,,-2E-06,0.02443875
,,,-1.99E-06,0.02445375
,,,-1.98E-06,0.024671875
,,,-1.97E-06,0.024608125
,,,-1.96E-06,0.024645625
,,,-1.95E-06,0.02452625
,,,-1.94E-06,0.024775625
,,,-1.93E-06,0.024605625
,,,-1.92E-06,0.024513125
,,,-1.91E-06,0.024553125
,,,-1.9E-06,0.0246975
,,,-1.89E-06,0.024699375
,,,-1.88E-06,0.0247325
,,,-1.87E-06,0.02422625
,,,-1.86E-06,0.024553125
,,,-1.85E-06,0.024645625
,,,-1.84E-06,0.02454875
,,,-1.83E-06,0.02468
,,,-1.82E-06,0.024705
,,,-1.81E-06,0.02452125
,,,-1.8E-06,0.02436125
,,,-1.79E-06,0.024450625
,,,-1.78E-06,0.024619375
,,,-1.77E-06,0.024550625
,,,-1.76E-06,0.024628125
,,,-1.75E-06,0.02467
,,,-1.74E-06,0.02446875
,,,-1.73E-06,0.024320625
,,,-1.72E-06,0.024461875
,,,-1.71E-06,0.024611875
,,,-1.7E-06,0.02461875
,,,-1.69E-06,0.024460625
,,,-1.68E-06,0.02450125
,,,-1.67E-06,0.024471875
,,,-1.66E-06,0.024383125
,,,-1.65E-06,0.02474375
,,,-1.64E-06,0.024595
,,,-1.63E-06,0.02451125
,,,-1.62E-06,0.02472
,,,-1.61E-06,0.02465625
,,,-1.6E-06,0.02444375
,,,-1.59E-06,0.02477625
,,,-1.58E-06,0.024598125
,,,-1.57E-06,0.02457
,,,-1.56E-06,0.0243125
,,,-1.55E-06,0.024381875
,,,-1.54E-06,0.024391875
,,,-1.53E-06,0.0244875
,,,-1.52E-06,0.024624375
,,,-1.51E-06,0.0245375
,,,-1.5E-06,0.02472625
,,,-1.49E-06,0.02465
,,,-1.48E-06,0.0245225
,,,-1.47E-06,0.02454875
,,,-1.46E-06,0.0248675
,,,-1.45E-06,0.024686875
,,,-1.44E-06,0.024370625
,,,-1.43E-06,0.024386875
,,,-1.42E-06,0.024619375
,,,-1.41E-06,0.024550625
,,,-1.4E-06,0.024615
,,,-1.39E-06,0.02434625
,,,-1.38E-06,0.02455
,,,-1.37E-06,0.024474375
,,,-1.36E-06,0.024571875
,,,-1.35E-06,0.02448625
,,,-1.34E-06,0.024390625
,,,-1.33E-06,0.024465
,,,-1.32E-06,0.024600625
,,,-1.31E-06,0.02432375
,,,-1.3E-06,0.0247225
,,,-1.29E-06,0.024351875
,,,-1.28E-06,0.0243675
,,,-1.27E-06,0.02443625
,,,-1.26E-06,0.02429125
,,,-1.25E-06,0.024465
,,,-1.24E-06,0.024355625
,,,-1.23E-06,0.0247625
,,,-1.22E-06,0.024485
,,,-1.21E-06,0.0245275
,,,-1.2E-06,0.024860625
,,,-1.19E-06,0.024571875
,,,-1.18E-06,0.0243525
,,,-1.17E-06,0.02464875
,,,-1.16E-06,0.02448125
,,,-1.15E-06,0.024565625
,,,-1.14E-06,0.02423125
,,,-1.13E-06,0.02464625
,,,-1.12E-06,0.0242725
,,,-1.11E-06,0.02451125
,,,-1.1E-06,0.024678125
,,,-1.09E-06,0.024560625
,,,-1.08E-06,0.024601875
,,,-1.07E-06,0.02454625
,,,-1.06E-06,0.02435125
,,,-1.05E-06,0.024640625
,,,-1.04E-06,0.02446875
,,,-1.03E-06,0.024485625
,,,-1.02E-06,0.0247075
,,,-1.01E-06,0.024531875
,,,-1E-06,0.024398125
,,,-9.9E-07,0.024311875
,,,-9.8E-07,0.024508125
,,,-9.7E-07,0.024385
,,,-9.6E-07,0.02452
,,,-9.5E-07,0.0246325
,,,-9.4E-07,0.024495
,,,-9.3E-07,0.024595625
,,,-9.2E-07,0.024571875
,,,-9.1E-07,0.0246425
,,,-9E-07,0.024435625
,,,-8.9E-07,0.024369375
,,,-8.8E-07,0.024593125
,,,-8.7E-07,0.02453875
,,,-8.6E-07,0.024415
,,,-8.5E-07,0.024525
,,,-8.4E-07,0.0244175
,,,-8.3E-07,0.024559375
,,,-8.2E-07,0.024495
,,,-8.1E-07,0.02444625
,,,-8E-07,0.024464375
,,,-7.9E-07,0.0245525
,,,-7.8E-07,0.02441625
,,,-7.7E-07,0.0244225
,,,-7.6E-07,0.02453375
,,,-7.5E-07,0.024474375
,,,-7.4E-07,0.0245425
,,,-7.3E-07,0.02485125
,,,-7.2E-07,0.024508125
,,,-7.1E-07,0.024508125
,,,-7E-07,0.02446375
,,,-6.9E-07,0.0242575
,,,-6.8E-07,0.024214375
,,,-6.7E-07,0.0245325
,,,-6.6E-07,0.0245125
,,,-6.5E-07,0.02418875
,,,-6.4E-07,0.0244
,,,-6.3E-07,0.024586875
,,,-6.2E-07,0.024633125
,,,-6.1E-07,0.024495
,,,-6E-07,0.024395625
,,,-5.9E-07,0.024701875
,,,-5.8E-07,0.02444375
,,,-5.7E-07,0.024651875
,,,-5.6E-07,0.024448125
,,,-5.5E-07,0.02443375
,,,-5.4E-07,0.024486875
,,,-5.3E-07,0.024365625
,,,-5.2E-07,0.024641875
,,,-5.1E-07,0.024771875
,,,-5E-07,0.02460375
,,,-4.9E-07,0.0244125
,,,-4.8E-07,0.024415
,,,-4.7E-07,0.024404375
,,,-4.6E-07,0.024538125
,,,-4.5E-07,0.024515
,,,-4.4E-07,0.024305625
,,,-4.3E-07,0.024414375
,,,-4.2E-07,0.024385
,,,-4.1E-07,0.0243375
,,,-4E-07,0.024430625
,,,-3.9E-07,0.0246725
,,,-3.8E-07,0.024395
,,,-3.7E-07,0.024483125
,,,-3.6E-07,0.02461125
,,,-3.5E-07,0.02458875
,,,-3.4E-07,0.02454875
,,,-3.3E-07,0.024625
,,,-3.2E-07,0.02452625
,,,-3.1E-07,0.02466625
,,,-3E-07,0.024331875
,,,-2.9E-07,0.024575625
,,,-2.8E-07,0.0245925
,,,-2.7E-07,0.024639375
,,,-2.6E-07,0.024730625
,,,-2.5E-07,0.02466
,,,-2.4E-07,0.0244325
,,,-2.3E-07,0.0244275
,,,-2.2E-07,0.02450375
,,,-2.1E-07,0.02467625
,,,-2E-07,0.024506875
,,,-1.9E-07,0.0246475
,,,-1.8E-07,0.024418125
,,,-1.7E-07,0.024708125
,,,-1.6E-07,0.024575
,,,-1.5E-07,0.02442375
,,,-1.4E-07,0.024723125
,,,-1.3E-07,0.024379375
,,,-1.2E-07,0.024768125
,,,-1.1E-07,0.024655625
,,,-1E-07,0.02459875
,,,-9E-08,0.024579375
,,,-8E-08,0.024604375
,,,-7E-08,0.02446125
,,,-6E-08,0.0246925
,,,-5E-08,0.02429
,,,-4E-08,0.025044375
,,,-3E-08,0.024841875
,,,-2E-08,0.02409875
,,,-1E-08,0.023033125
,,,0,0.024310625
,,,1E-08,0.025505
,,,2E-08,0.02577
,,,3E-08,0.025518125
,,,4E-08,0.024049375
,,,5E-08,0.02368
,,,6E-08,0.02370625
,,,7E-08,0.024220625
,,,8E-08,0.02504
,,,9E-08,0.02506
,,,1E-07,0.025250625
,,,1.1E-07,0.024453125
,,,1.2E-07,0.024041875
,,,1.3E-07,0.0240925
,,,1.4E-07,0.024334375
,,,1.5E-07,0.024815
,,,1.6E-07,0.024823125
,,,1.7E-07,0.0244175
,,,1.8E-07,0.024511875
,,,1.9E-07,0.024769375
,,,2E-07,0.024576875
,,,2.1E-07,0.024509375
,,,2.2E-07,0.024360625
,,,2.3E-07,0.024549375
,,,2.4E-07,0.024545
,,,2.5E-07,0.02438125
,,,2.6E-07,0.02448625
,,,2.7E-07,0.024649375
,,,2.8E-07,0.02465875
,,,2.9E-07,0.024501875
,,,3E-07,0.024540625
,,,3.1E-07,0.024485
,,,3.2E-07,0.024364375
,,,3.3E-07,0.024555625
,,,3.4E-07,0.0245525
,,,3.5E-07,0.02447625
,,,3.6E-07,0.024585
,,,3.7E-07,0.024534375
,,,3.8E-07,0.02467875
,,,3.9E-07,0.024411875
,,,4E-07,0.02456375
,,,4.1E-07,0.024331875
,,,4.2E-07,0.024709375
,,,4.3E-07,0.024805
,,,4.4E-07,0.024661875
,,,4.5E-07,0.0246075
,,,4.6E-07,0.02440875
,,,4.7E-07,0.024404375
,,,4.8E-07,0.024591875
,,,4.9E-07,0.024385625
,,,5E-07,0.024455625
,,,5.1E-07,0.024665625
,,,5.2E-07,0.0244675
,,,5.3E-07,0.024574375
,,,5.4E-07,0.024513125
,,,5.5E-07,0.024399375
,,,5.6E-07,0.0244475
,,,5.7E-07,0.0244525
,,,5.8E-07,0.0245525
,,,5.9E-07,0.02476625
,,,6E-07,0.024311875
,,,6.1E-07,0.024380625
,,,6.2E-07,0.024566875
,,,6.3E-07,0.024624375
,,,6.4E-07,0.024585625
,,,6.5E-07,0.024413125
,,,6.6E-07,0.024569375
,,,6.7E-07,0.024515625
,,,6.8E-07,0.02448
,,,6.9E-07,0.02475375
,,,7E-07,0.0246125
,,,7.1E-07,0.024435625
,,,7.2E-07,0.02431625
,,,7.3E-07,0.02471125
,,,7.4E-07,0.024351875
,,,7.5E-07,0.024658125
,,,7.6E-07,0.024270625
,,,7.7E-07,0.0246075
,,,7.8E-07,0.024636875
,,,7.9E-07,0.024585625
,,,8E-07,0.02459125
,,,8.1E-07,0.024425625
,,,8.2E-07,0.024611875
,,,8.3E-07,0.02454875
,,,8.4E-07,0.02449
,,,8.5E-07,0.024438125
,,,8.6E-07,0.0244725
,,,8.7E-07,0.0245325
,,,8.8E-07,0.024738125
,,,8.9E-07,0.024385625
,,,9E-07,0.02466375
,,,9.1E-07,0.02439
,,,9.2E-07,0.024634375
,,,9.3E-07,0.02468625
,,,9.4E-07,0.024539375
,,,9.5E-07,0.024478125
,,,9.6E-07,0.02483625
,,,9.7E-07,0.02459875
,,,9.8E-07,0.024514375
,,,9.9E-07,0.024501875
,,,1E-06,0.02450375
,,,1.01E-06,0.02445375
,,,1.02E-06,0.024406875
,,,1.03E-06,0.024569375
,,,1.04E-06,0.024325
,,,1.05E-06,0.024503125
,,,1.06E-06,0.024584375
,,,1.07E-06,0.0244575
,,,1.08E-06,0.02449
,,,1.09E-06,0.0245525
,,,1.1E-06,0.0246775
,,,1.11E-06,0.024285625
,,,1.12E-06,0.0244475
,,,1.13E-06,0.02441
,,,1.14E-06,0.02458375
,,,1.15E-06,0.024280625
,,,1.16E-06,0.0245775
,,,1.17E-06,0.02443875
,,,1.18E-06,0.02432625
,,,1.19E-06,0.024429375
,,,1.2E-06,0.02464
,,,1.21E-06,0.02436125
,,,1.22E-06,0.02439625
,,,1.23E-06,0.024593125
,,,1.24E-06,0.02444125
,,,1.25E-06,0.024356875
,,,1.26E-06,0.0245375
,,,1.27E-06,0.0244475
,,,1.28E-06,0.024709375
,,,1.29E-06,0.0248725
,,,1.3E-06,0.024365625
,,,1.31E-06,0.024800625
,,,1.32E-06,0.0246675
,,,1.33E-06,0.024361875
,,,1.34E-06,0.0244425
,,,1.35E-06,0.0246275
,,,1.36E-06,0.024375625
,,,1.37E-06,0.024460625
,,,1.38E-06,0.02434375
,,,1.39E-06,0.024615
,,,1.4E-06,0.02451625
,,,1.41E-06,0.02464125
,,,1.42E-06,0.024243125
,,,1.43E-06,0.024421875
,,,1.44E-06,0.0245975
,,,1.45E-06,0.0245225
,,,1.46E-06,0.024641875
,,,1.47E-06,0.024385625
,,,1.48E-06,0.024425625
,,,1.49E-06,0.0245675
,,,1.5E-06,0.024774375
,,,1.51E-06,0.02466
,,,1.52E-06,0.02436
,,,1.53E-06,0.02435625
,,,1.54E-06,0.024565
,,,1.55E-06,0.02465875
,,,1.56E-06,0.024644375
,,,1.57E-06,0.024535625
,,,1.58E-06,0.0246725
,,,1.59E-06,0.02455
,,,1.6E-06,0.024628125
,,,1.61E-06,0.0244575
,,,1.62E-06,0.02460375
,,,1.63E-06,0.024393125
,,,1.64E-06,0.024325
,,,1.65E-06,0.0246125
,,,1.66E-06,0.024505
,,,1.67E-06,0.02437875
,,,1.68E-06,0.02449875
,,,1.69E-06,0.0245475
,,,1.7E-06,0.024404375
,,,1.71E-06,0.0247175
,,,1.72E-06,0.024694375
,,,1.73E-06,0.0245925
,,,1.74E-06,0.024669375
,,,1.75E-06,0.0246575
,,,1.76E-06,0.024413125
,,,1.77E-06,0.02465125
,,,1.78E-06,0.024721875
,,,1.79E-06,0.024688125
,,,1.8E-06,0.02449
,,,1.81E-06,0.0245875
,,,1.82E-06,0.024764375
,,,1.83E-06,0.024538125
,,,1.84E-06,0.024435625
,,,1.85E-06,0.024636875
,,,1.86E-06,0.024565
,,,1.87E-06,0.0246575
,,,1.88E-06,0.02460125
,,,1.89E-06,0.02445125
,,,1.9E-06,0.0242875
,,,1.91E-06,0.024508125
,,,1.92E-06,0.02472875
,,,1.93E-06,0.02446875
,,,1.94E-06,0.02468375
,,,1.95E-06,0.0245075
,,,1.96E-06,0.0245975
,,,1.97E-06,0.024583125
,,,1.98E-06,0.024468125
,,,1.99E-06,0.024446875
,,,2E-06,0.024749375
,,,2.01E-06,0.024481875
,,,2.02E-06,0.02432875
,,,2.03E-06,0.024495625
,,,2.04E-06,0.024401875
,,,2.05E-06,0.024525
,,,2.06E-06,0.024680625
,,,2.07E-06,0.024311875
,,,2.08E-06,0.024620625
,,,2.09E-06,0.02458375
,,,2.1E-06,0.024544375
,,,2.11E-06,0.024355
,,,2.12E-06,0.02465375
,,,2.13E-06,0.02436
,,,2.14E-06,0.024550625
,,,2.15E-06,0.02446375
,,,2.16E-06,0.02473875
,,,2.17E-06,0.024645
,,,2.18E-06,0.024484375
,,,2.19E-06,0.02439
,,,2.2E-06,0.024619375
,,,2.21E-06,0.02421625
,,,2.22E-06,0.0247975
,,,2.23E-06,0.024516875
,,,2.24E-06,0.0244875
,,,2.25E-06,0.024545
,,,2.26E-06,0.02447
,,,2.27E-06,0.024410625
,,,2.28E-06,0.02459125
,,,2.29E-06,0.0244325
,,,2.3E-06,0.02460375
,,,2.31E-06,0.024554375
,,,2.32E-06,0.0244525
,,,2.33E-06,0.02445125
,,,2.34E-06,0.02449875
,,,2.35E-06,0.02455875
,,,2.36E-06,0.024484375
,,,2.37E-06,0.024724375
,,,2.38E-06,0.024405
,,,2.39E-06,0.024191875
,,,2.4E-06,0.0243575
,,,2.41E-06,0.024630625
,,,2.42E-06,0.0246925
,,,2.43E-06,0.024603125
,,,2.44E-06,0.02475625
,,,2.45E-06,0.024535625
,,,2.46E-06,0.024404375
,,,2.47E-06,0.02452
,,,2.48E-06,0.02462125
,,,2.49E-06,0.024225
,,,2.5E-06,0.024469375
,,,2.51E-06,0.024324375
,,,2.52E-06,0.02487375
,,,2.53E-06,0.02441625
,,,2.54E-06,0.02465
,,,2.55E-06,0.02452375
,,,2.56E-06,0.02444875
,,,2.57E-06,0.024703125
,,,2.58E-06,0.0245225
,,,2.59E-06,0.024345
,,,2.6E-06,0.02426875
,,,2.61E-06,0.02458375
,,,2.62E-06,0.024613125
,,,2.63E-06,0.024636875
,,,2.64E-06,0.0245775
,,,2.65E-06,0.0242975
,,,2.66E-06,0.024473125
,,,2.67E-06,0.024391875
,,,2.68E-06,0.024535625
,,,2.69E-06,0.024420625
,,,2.7E-06,0.024641875
,,,2.71E-06,0.024671875
,,,2.72E-06,0.024576875
,,,2.73E-06,0.024635625
,,,2.74E-06,0.024365
,,,2.75E-06,0.0243725
,,,2.76E-06,0.024658125
,,,2.77E-06,0.024384375
,,,2.78E-06,0.024805
,,,2.79E-06,0.02454625
,,,2.8E-06,0.02444875
,,,2.81E-06,0.02449375
,,,2.82E-06,0.024428125
,,,2.83E-06,0.02455125
,,,2.84E-06,0.024578125
,,,2.85E-06,0.024535625
,,,2.86E-06,0.024498125
,,,2.87E-06,0.024443125
,,,2.88E-06,0.02431
,,,2.89E-06,0.024705
,,,2.9E-06,0.02471625
,,,2.91E-06,0.02446625
,,,2.92E-06,0.02461
,,,2.93E-06,0.02449625
,,,2.94E-06,0.024600625
,,,2.95E-06,0.02448
,,,2.96E-06,0.024611875
,,,2.97E-06,0.0243425
,,,2.98E-06,0.024550625
,,,2.99E-06,0.024694375
,,,3E-06,0.02459
,,,3.01E-06,0.024420625
,,,3.02E-06,0.02454625
,,,3.03E-06,0.024696875
,,,3.04E-06,0.024429375
,,,3.05E-06,0.024440625
,,,3.06E-06,0.024481875
,,,3.07E-06,0.024540625
,,,3.08E-06,0.02462375
,,,3.09E-06,0.024590625
,,,3.1E-06,0.0243375
,,,3.11E-06,0.024510625
,,,3.12E-06,0.024619375
,,,3.13E-06,0.02440625
,,,3.14E-06,0.0244275
,,,3.15E-06,0.024558125
,,,3.16E-06,0.024574375
,,,3.17E-06,0.0246825
,,,3.18E-06,0.02455625
,,,3.19E-06,0.0245375
,,,3.2E-06,0.02427125
,,,3.21E-06,0.024749375
,,,3.22E-06,0.024636875
,,,3.23E-06,0.024605
,,,3.24E-06,0.024488125
,,,3.25E-06,0.0244575
,,,3.26E-06,0.024525
,,,3.27E-06,0.024506875
,,,3.28E-06,0.024604375
,,,3.29E-06,0.024560625
,,,3.3E-06,0.024518125
,,,3.31E-06,0.0247875
,,,3.32E-06,0.024469375
,,,3.33E-06,0.024639375
,,,3.34E-06,0.024168125
,,,3.35E-06,0.024511875
,,,3.36E-06,0.024625625
,,,3.37E-06,0.024586875
,,,3.38E-06,0.02442625
,,,3.39E-06,0.024535625
,,,3.4E-06,0.02459125
,,,3.41E-06,0.02464625
,,,3.42E-06,0.024364375
,,,3.43E-06,0.0246675
,,,3.44E-06,0.0246475
,,,3.45E-06,0.024624375
,,,3.46E-06,0.02463625
,,,3.47E-06,0.02458125
,,,3.48E-06,0.0245775
,,,3.49E-06,0.024566875
,,,3.5E-06,0.024648125
,,,3.51E-06,0.02465375
,,,3.52E-06,0.024718125
,,,3.53E-06,0.024561875
,,,3.54E-06,0.024579375
,,,3.55E-06,0.024515
,,,3.56E-06,0.02442375
,,,3.57E-06,0.024460625
,,,3.58E-06,0.0244775
