data/raw/Final_POL_Test_1/SOP076_Ch4.csv

"Record Length",1000,"Points",-5E-06,0.016845
"Sample Interval",1E-08,s,-4.99E-06,0.01654375
"Trigger Point",500,"Samples",-4.98E-06,0.016646875
"Trigger Time",0,s,-4.97E-06,0.016726875
"",,,-4.96E-06,0.016808125
"Horizontal Offset",-5E-06,s,-4.95E-06,0.016624375
,,,-4.94E-06,0.0167375
,,,-4.93E-06,0.016389375
,,,-4.92E-06,0.01648125
,,,-4.91E-06,0.016491875
,,,-4.9E-06,0.0165975
,,,-4.89E-06,0.016693125
,,,-4.88E-06,0.01665125
,,,-4.87E-06,0.016795
,,,-4.86E-06,0.01669125
,,,-4.85E-06,0.016598125
,,,-4.84E-06,0.01668125
,,,-4.83E-06,0.016511875
,,,-4.82E-06,0.016634375
,,,-4.81E-06,0.016745625
,,,-4.8E-06,0.0165025
,,,-4.79E-06,0.0167525
,,,-4.78E-06,0.016560625
,,,-4.77E-06,0.016863125
,,,-4.76E-06,0.016715
,,,-4.75E-06,0.016571875
,,,-4.74E-06,0.01668
,,,-4.73E-06,0.016636875
,,,-4.72E-06,0.016685
,,,-4.71E-06,0.01665125
,,,-4.7E-06,0.01645
,,,-4.69E-06,0.0167475
,,,-4.68E-06,0.016586875
,,,-4.67E-06,0.0169475
,,,-4.66E-06,0.016645625
,,,-4.65E-06,0.016710625
,,,-4.64E-06,0.0165925
,,,-4.63E-06,0.01663875
,,,-4.62E-06,0.016531875
,,,-4.61E-06,0.0167225
,,,-4.6E-06,0.016473125
,,,-4.59E-06,0.01665625
,,,-4.58E-06,0.01650375
,,,-4.57E-06,0.01670125
,,,-4.56E-06,0.016770625
,,,-4.55E-06,0.016618125
,,,-4.54E-06,0.01680125
,,,-4.53E-06,0.01645125
,,,-4.52E-06,0.016930625
,,,-4.51E-06,0.016935625
,,,-4.5E-06,0.016598125
,,,-4.49E-06,0.016570625
,,,-4.48E-06,0.016770625
,,,-4.47E-06,0.016590625
,,,-4.46E-06,0.016809375
,,,-4.45E-06,0.016518125
,,,-4.44E-06,0.01659875
,,,-4.43E-06,0.016636875
,,,-4.42E-06,0.016694375
,,,-4.41E-06,0.016758125
,,,-4.4E-06,0.016750625
,,,-4.39E-06,0.016781875
,,,-4.38E-06,0.016775625
,,,-4.37E-06,0.01636125
,,,-4.36E-06,0.016694375
,,,-4.35E-06,0.016565625
,,,-4.34E-06,0.016688125
,,,-4.33E-06,0.016811875
,,,-4.32E-06,0.01644625
,,,-4.31E-06,0.01677625
,,,-4.3E-06,0.016696875
,,,-4.29E-06,0.0169425
,,,-4.28E-06,0.016640625
,,,-4.27E-06,0.016685625
,,,-4.26E-06,0.016456875
,,,-4.25E-06,0.01665375
,,,-4.24E-06,0.016761875
,,,-4.23E-06,0.016799375
,,,-4.22E-06,0.016710625
,,,-4.21E-06,0.016835
,,,-4.2E-06,0.01662375
,,,-4.19E-06,0.016721875
,,,-4.18E-06,0.0167025
,,,-4.17E-06,0.01676125
,,,-4.16E-06,0.016595
,,,-4.15E-06,0.016573125
,,,-4.14E-06,0.016799375
,,,-4.13E-06,0.016584375
,,,-4.12E-06,0.0164225
,,,-4.11E-06,0.016716875
,,,-4.1E-06,0.016843125
,,,-4.09E-06,0.01657375
,,,-4.08E-06,0.01672875
,,,-4.07E-06,0.016950625
,,,-4.06E-06,0.016810625
,,,-4.05E-06,0.016528125
,,,-4.04E-06,0.016639375
,,,-4.03E-06,0.01631625
,,,-4.02E-06,0.0166375
,,,-4.01E-06,0.016559375
,,,-4E-06,0.01658375
,,,-3.99E-06,0.01666125
,,,-3.98E-06,0.016524375
,,,-3.97E-06,0.01672625
,,,-3.96E-06,0.016735625
,,,-3.95E-06,0.016879375
,,,-3.94E-06,0.016608125
,,,-3.93E-06,0.016591875
,,,-3.92E-06,0.01665
,,,-3.91E-06,0.01653875
,,,-3.9E-06,0.016695625
,,,-3.89E-06,0.016766875
,,,-3.88E-06,0.01654625
,,,-3.87E-06,0.016519375
,,,-3.86E-06,0.0165225
,,,-3.85E-06,0.016451875
,,,-3.84E-06,0.016540625
,,,-3.83E-06,0.016588125
,,,-3.82E-06,0.016756875
,,,-3.81E-06,0.01683
,,,-3.8E-06,0.01675
,,,-3.79E-06,0.0164175
,,,-3.78E-06,0.016478125
,,,-3.77E-06,0.0166225
,,,-3.76E-06,0.016681875
,,,-3.75E-06,0.016715625
,,,-3.74E-06,0.016855625
,,,-3.73E-06,0.016501875
,,,-3.72E-06,0.01671
,,,-3.71E-06,0.0165725
,,,-3.7E-06,0.016515625
,,,-3.69E-06,0.016653125
,,,-3.68E-06,0.016789375
,,,-3.67E-06,0.01673625
,,,-3.66E-06,0.0166475
,,,-3.65E-06,0.016318125
,,,-3.64E-06,0.0164825
,,,-3.63E-06,0.0164625
,,,-3.62E-06,0.01632
,,,-3.61E-06,0.01673875
,,,-3.6E-06,0.01648875
,,,-3.59E-06,0.01656875
,,,-3.58E-06,0.01665625
,,,-3.57E-06,0.01688125
,,,-3.56E-06,0.016716875
,,,-3.55E-06,0.016569375
,,,-3.54E-06,0.01652
,,,-3.53E-06,0.016386875
,,,-3.52E-06,0.01682
,,,-3.51E-06,0.016788125
,,,-3.5E-06,0.01676625
,,,-3.49E-06,0.016846875
,,,-3.48E-06,0.016461875
,,,-3.47E-06,0.016851875
,,,-3.46E-06,0.016663125
,,,-3.45E-06,0.01686375
,,,-3.44E-06,0.016601875
,,,-3.43E-06,0.016628125
,,,-3.42E-06,0.016505
,,,-3.41E-06,0.016686875
,,,-3.4E-06,0.016715
,,,-3.39E-06,0.01657875
,,,-3.38E-06,0.016473125
,,,-3.37E-06,0.016470625
,,,-3.36E-06,0.0167625
,,,-3.35E-06,0.01646875
,,,-3.34E-06,0.01660625
,,,-3.33E-06,0.016625625
,,,-3.32E-06,0.01666125
,,,-3.31E-06,0.016540625
,,,-3.3E-06,0.01662875
,,,-3.29E-06,0.016606875
,,,-3.28E-06,0.016539375
,,,-3.27E-06,0.016595
,,,-3.26E-06,0.01639375
,,,-3.25E-06,0.016678125
,,,-3.24E-06,0.01687875
,,,-3.23E-06,0.016465
,,,-3.22E-06,0.016625625
,,,-3.21E-06,0.016348125
,,,-3.2E-06,0.0165925
,,,-3.19E-06,0.016695
,,,-3.18E-06,0.0169125
,,,-3.17E-06,0.016731875
,,,-3.16E-06,0.01675375
,,,-3.15E-06,0.016905
,,,-3.14E-06,0.01656875
,,,-3.13E-06,0.01675875
,,,-3.12E-06,0.01673625
,,,-3.11E-06,0.016766875
,,,-3.1E-06,0.01668875
,,,-3.09E-06,0.0164125
,,,-3.08E-06,0.016979375
,,,-3.07E-06,0.0167325
,,,-3.06E-06,0.0166
,,,-3.05E-06,0.01664375
,,,-3.04E-06,0.016618125
,,,-3.03E-06,0.016533125
,,,-3.02E-06,0.0163825
,,,-3.01E-06,0.016816875
,,,-3E-06,0.016831875
,,,-2.99E-06,0.016464375
,,,-2.98E-06,0.01666625
,,,-2.97E-06,0.01672875
,,,-2.96E-06,0.016533125
,,,-2.95E-06,0.016591875
,,,-2.94E-06,0.01637375
,,,-2.93E-06,0.016673125
,,,-2.92E-06,0.016711875
,,,-2.91E-06,0.016808125
,,,-2.9E-06,0.01665375
,,,-2.89E-06,0.016621875
,,,-2.88E-06,0.016560625
,,,-2.87E-06,0.016475
,,,-2.86E-06,0.016626875
,,,-2.85E-06,0.016746875
,,,-2.84E-06,0.016695
,,,-2.83E-06,0.01674
,,,-2.82E-06,0.016719375
,,,-2.81E-06,0.016645
,,,-2.8E-06,0.016535
,,,-2.79E-06,0.016525625
,,,-2.78E-06,0.016685625
,,,-2.77E-06,0.01659375
,,,-2.76E-06,0.01652375
,,,-2.75E-06,0.01679875
,,,-2.74E-06,0.01681
,,,-2.73E-06,0.016755
,,,-2.72E-06,0.016715
,,,-2.71E-06,0.016545625
,,,-2.7E-06,0.01628
,,,-2.69E-06,0.01668
,,,-2.68E-06,0.01664125
,,,-2.67E-06,0.0167325
,,,-2.66E-06,0.016666875
,,,-2.65E-06,0.016609375
,,,-2.64E-06,0.0165875
,,,-2.63E-06,0.0165875
,,,-2.62E-06,0.0166775
,,,-2.61E-06,0.01659625
,,,-2.6E-06,0.016658125
,,,-2.59E-06,0.01646375
,,,-2.58E-06,0.0170225
,,,-2.57E-06,0.016569375
,,,-2.56E-06,0.0166175
,,,-2.55E-06,0.01660625
,,,-2.54E-06,0.016595
,,,-2.53E-06,0.016658125
,,,-2.52E-06,0.016616875
,,,-2.51E-06,0.016665625
,,,-2.5E-06,0.01661875
,,,-2.49E-06,0.016665625
,,,-2.48E-06,0.01689625
,,,-2.47E-06,0.01675625
,,,-2.46E-06,0.01671
,,,-2.45E-06,0.016384375
,,,-2.44E-06,0.016699375
,,,-2.43E-06,0.016778125
,,,-2.42E-06,0.016803125
,,,-2.41E-06,0.016861875
,,,-2.4E-06,0.0164925
,,,-2.39E-06,0.01664375
,,,-2.38E-06,0.016435
,,,-2.37E-06,0.016515
,,,-2.36E-06,0.0166175
,,,-2.35E-06,0.01665375
,,,-2.34E-06,0.0167425
,,,-2.33E-06,0.01667125
,,,-2.32E-06,0.016904375
,,,-2.31E-06,0.016568125
,,,-2.3E-06,0.016455
,,,-2.29E-06,0.01655375
,,,-2.28E-06,0.016523125
,,,-2.27E-06,0.01665125
,,,-2.26E-06,0.01663375
,,,-2.25E-06,0.0165425
,,,-2.24E-06,0.01674
,,,-2.23E-06,0.016513125
,,,-2.22E-06,0.0165875
,,,-2.21E-06,0.0164025
,,,-2.2E-06,0.01669375
,,,-2.19E-06,0.016701875
,,,-2.18E-06,0.01648
,,,-2.17E-06,0.016633125
,,,-2.16E-06,0.01677
,,,-2.15E-06,0.0166425
,,,-2.14E-06,0.016561875
,,,-2.13E-06,0.016815625
,,,-2.12E-06,0.016769375
,,,-2.11E-06,0.0167325
,,,-2.1E-06,0.0167775
,,,-2.09E-06,0.016645625
,,,-2.08E-06,0.0165025
,,,-2.07E-06,0.01647125
,,,-2.06E-06,0.016276875
,,,-2.05E-06,0.0168075
,,,-2.04E-06,0.01665375
,,,-2.03E-06,0.0167025
,,,-2.02E-06,0.016614375
,,,-2.01E-06,0.0168775
,,,-2E-06,0.016691875
,,,-1.99E-06,0.0166725
,,,-1.98E-06,0.016680625
,,,-1.97E-06,0.01645
,,,-1.96E-06,0.016461875
,,,-1.95E-06,0.01672
,,,-1.94E-06,0.0164925
,,,-1.93E-06,0.01677875
,,,-1.92E-06,0.016814375
,,,-1.91E-06,0.01675125
,,,-1.9E-06,0.0165125
,,,-1.89E-06,0.016914375
,,,-1.88E-06,0.016523125
,,,-1.87E-06,0.016549375
,,,-1.86E-06,0.016650625
,,,-1.85E-06,0.016679375
,,,-1.84E-06,0.016683125
,,,-1.83E-06,0.016624375
,,,-1.82E-06,0.0166075
,,,-1.81E-06,0.01661375
,,,-1.8E-06,0.0165125
,,,-1.79E-06,0.01645125
,,,-1.78E-06,0.016405
,,,-1.77E-06,0.016525625
,,,-1.76E-06,0.01664625
,,,-1.75E-06,0.01681625
,,,-1.74E-06,0.01660875
,,,-1.73E-06,0.016509375
,,,-1.72E-06,0.0164
,,,-1.71E-06,0.016776875
,,,-1.7E-06,0.016759375
,,,-1.69E-06,0.01675875
,,,-1.68E-06,0.016623125
,,,-1.67E-06,0.01676625
,,,-1.66E-06,0.0165375
,,,-1.65E-06,0.016700625
,,,-1.64E-06,0.01636125
,,,-1.63E-06,0.016556875
,,,-1.62E-06,0.016569375
,,,-1.61E-06,0.01625
,,,-1.6E-06,0.016584375
,,,-1.59E-06,0.016925
,,,-1.58E-06,0.016751875
,,,-1.57E-06,0.016623125
,,,-1.56E-06,0.01652375
,,,-1.55E-06,0.016759375
,,,-1.54E-06,0.01646625
,,,-1.53E-06,0.016826875
,,,-1.52E-06,0.01668125
,,,-1.51E-06,0.016408125
,,,-1.5E-06,0.01677625
,,,-1.49E-06,0.016538125
,,,-1.48E-06,0.016649375
,,,-1.47E-06,0.01665
,,,-1.46E-06,0.01654375
,,,-1.45E-06,0.016568125
,,,-1.44E-06,0.016776875
,,,-1.43E-06,0.01666125
,,,-1.42E-06,0.0165975
,,,-1.41E-06,0.0165275
,,,-1.4E-06,0.01665375
,,,-1.39E-06,0.01647875
,,,-1.38E-06,0.016555625
,,,-1.37E-06,0.01667375
,,,-1.36E-06,0.01656125
,,,-1.35E-06,0.016546875
,,,-1.34E-06,0.01664125
,,,-1.33E-06,0.016433125
,,,-1.32E-06,0.01666125
,,,-1.31E-06,0.016685
,,,-1.3E-06,0.016588125
,,,-1.29E-06,0.016675625
,,,-1.28E-06,0.01674375
,,,-1.27E-06,0.016594375
,,,-1.26E-06,0.01688
,,,-1.25E-06,0.016601875
,,,-1.24E-06,0.016453125
,,,-1.23E-06,0.01642875
,,,-1.22E-06,0.0166075
,,,-1.21E-06,0.016544375
,,,-1.2E-06,0.016528125
,,,-1.19E-06,0.01672125
,,,-1.18E-06,0.01649
,,,-1.17E-06,0.016665625
,,,-1.16E-06,0.01680125
,,,-1.15E-06,0.01675125
,,,-1.14E-06,0.01651
,,,-1.13E-06,0.016584375
,,,-1.12E-06,0.016264375
,,,-1.11E-06,0.016635
,,,-1.1E-06,0.01669875
,,,-1.09E-06,0.016515625
,,,-1.08E-06,0.016650625
,,,-1.07E-06,0.0163225
,,,-1.06E-06,0.0166275
,,,-1.05E-06,0.016461875
,,,-1.04E-06,0.016955
,,,-1.03E-06,0.016788125
,,,-1.02E-06,0.016485625
,,,-1.01E-06,0.016853125
,,,-1E-06,0.016646875
,,,-9.9E-07,0.0166825
,,,-9.8E-07,0.016655625
,,,-9.7E-07,0.01683125
,,,-9.6E-07,0.016611875
,,,-9.5E-07,0.01643625
,,,-9.4E-07,0.016865625
,,,-9.3E-07,0.016938125
,,,-9.2E-07,0.0166025
,,,-9.1E-07,0.016548125
,,,-9E-07,0.01665125
,,,-8.9E-07,0.01650875
,,,-8.8E-07,0.01658125
,,,-8.7E-07,0.016915
,,,-8.6E-07,0.01649625
,,,-8.5E-07,0.01670375
,,,-8.4E-07,0.016670625
,,,-8.3E-07,0.016565625
,,,-8.2E-07,0.016659375
,,,-8.1E-07,0.016681875
,,,-8E-07,0.01677125
,,,-7.9E-07,0.01678875
,,,-7.8E-07,0.016775
,,,-7.7E-07,0.01685
,,,-7.6E-07,0.016598125
,,,-7.5E-07,0.0166675
,,,-7.4E-07,0.01680625
,,,-7.3E-07,0.016721875
,,,-7.2E-07,0.016725625
,,,-7.1E-07,0.016765
,,,-7E-07,0.01669125
,,,-6.9E-07,0.0167025
,,,-6.8E-07,0.01684625
,,,-6.7E-07,0.016676875
,,,-6.6E-07,0.016665
,,,-6.5E-07,0.0167725
,,,-6.4E-07,0.0166975
,,,-6.3E-07,0.016615
,,,-6.2E-07,0.016739375
,,,-6.1E-07,0.0166525
,,,-6E-07,0.0166425
,,,-5.9E-07,0.016955
,,,-5.8E-07,0.016405625
,,,-5.7E-07,0.016541875
,,,-5.6E-07,0.016715625
,,,-5.5E-07,0.016564375
,,,-5.4E-07,0.01648375
,,,-5.3E-07,0.01667625
,,,-5.2E-07,0.0166425
,,,-5.1E-07,0.016485
,,,-5E-07,0.016804375
,,,-4.9E-07,0.016716875
,,,-4.8E-07,0.016595
,,,-4.7E-07,0.016644375
,,,-4.6E-07,0.016641875
,,,-4.5E-07,0.01627125
,,,-4.4E-07,0.01683125
,,,-4.3E-07,0.016889375
,,,-4.2E-07,0.0167075
,,,-4.1E-07,0.01653375
,,,-4E-07,0.01638
,,,-3.9E-07,0.01646
,,,-3.8E-07,0.016384375
,,,-3.7E-07,0.016575625
,,,-3.6E-07,0.016715
,,,-3.5E-07,0.016705625
,,,-3.4E-07,0.016553125
,,,-3.3E-07,0.01648125
,,,-3.2E-07,0.01629125
,,,-3.1E-07,0.0167125
,,,-3E-07,0.01641125
,,,-2.9E-07,0.01649625
,,,-2.8E-07,0.016570625
,,,-2.7E-07,0.016966875
,,,-2.6E-07,0.01653
,,,-2.5E-07,0.016619375
,,,-2.4E-07,0.016640625
,,,-2.3E-07,0.01665125
,,,-2.2E-07,0.016473125
,,,-2.1E-07,0.016781875
,,,-2E-07,0.016926875
,,,-1.9E-07,0.016864375
,,,-1.8E-07,0.01658375
,,,-1.7E-07,0.01669625
,,,-1.6E-07,0.016731875
,,,-1.5E-07,0.016764375
,,,-1.4E-07,0.01645375
,,,-1.3E-07,0.016780625
,,,-1.2E-07,0.016680625
,,,-1.1E-07,0.016519375
,,,-1E-07,0.016905625
,,,-9E-08,0.016739375
,,,-8E-08,0.01667
,,,-7E-08,0.016646875
,,,-6E-08,0.01671375
,,,-5E-08,0.01656375
,,,-4E-08,0.017845
,,,-3E-08,0.0178125
,,,-2E-08,0.014198125
,,,-1E-08,0.012033125
,,,0,0.014361875
,,,1E-08,0.0204075
,,,2E-08,0.02173875
,,,3E-08,0.019300625
,,,4E-08,0.015129375
,,,5E-08,0.013135
,,,6E-08,0.01343625
,,,7E-08,0.015918125
,,,8E-08,0.0177325
,,,9E-08,0.01912375
,,,1E-07,0.018701875
,,,1.1E-07,0.0167525
,,,1.2E-07,0.015095
,,,1.3E-07,0.015043125
,,,1.4E-07,0.01620625
,,,1.5E-07,0.01693125
,,,1.6E-07,0.017558125
,,,1.7E-07,0.01684125
,,,1.8E-07,0.016753125
,,,1.9E-07,0.016610625
,,,2E-07,0.0164875
,,,2.1E-07,0.01639875
,,,2.2E-07,0.01623625
,,,2.3E-07,0.0166425
,,,2.4E-07,0.016910625
,,,2.5E-07,0.01677125
,,,2.6E-07,0.01658
,,,2.7E-07,0.01655375
,,,2.8E-07,0.0167375
,,,2.9E-07,0.016449375
,,,3E-07,0.016645
,,,3.1E-07,0.0167075
,,,3.2E-07,0.01672625
,,,3.3E-07,0.016635625
,,,3.4E-07,0.016540625
,,,3.5E-07,0.0167425
,,,3.6E-07,0.016484375
,,,3.7E-07,0.016561875
,,,3.8E-07,0.016644375
,,,3.9E-07,0.016539375
,,,4E-07,0.016725625
,,,4.1E-07,0.01676
,,,4.2E-07,0.0164425
,,,4.3E-07,0.016635625
,,,4.4E-07,0.01674875
,,,4.5E-07,0.01677125
,,,4.6E-07,0.01649625
,,,4.7E-07,0.01647625
,,,4.8E-07,0.016586875
,,,4.9E-07,0.016554375
,,,5E-07,0.01659625
,,,5.1E-07,0.01668
,,,5.2E-07,0.016559375
,,,5.3E-07,0.01637625
,,,5.4E-07,0.016821875
,,,5.5E-07,0.016506875
,,,5.6E-07,0.01673875
,,,5.7E-07,0.016716875
,,,5.8E-07,0.016540625
,,,5.9E-07,0.016591875
,,,6E-07,0.016603125
,,,6.1E-07,0.01649
,,,6.2E-07,0.01662
,,,6.3E-07,0.016405
,,,6.4E-07,0.01663125
,,,6.5E-07,0.0167
,,,6.6E-07,0.01663625
,,,6.7E-07,0.016908125
,,,6.8E-07,0.016453125
,,,6.9E-07,0.016729375
,,,7E-07,0.016650625
,,,7.1E-07,0.0164925
,,,7.2E-07,0.01637
,,,7.3E-07,0.01661625
,,,7.4E-07,0.0165775
,,,7.5E-07,0.0165725
,,,7.6E-07,0.016770625
,,,7.7E-07,0.01683875
,,,7.8E-07,0.016761875
,,,7.9E-07,0.01674
,,,8E-07,0.016690625
,,,8.1E-07,0.016535
,,,8.2E-07,0.016726875
,,,8.3E-07,0.0169125
,,,8.4E-07,0.01667875
,,,8.5E-07,0.016785
,,,8.6E-07,0.016695
,,,8.7E-07,0.016546875
,,,8.8E-07,0.01655625
,,,8.9E-07,0.016714375
,,,9E-07,0.0169075
,,,9.1E-07,0.016795625
,,,9.2E-07,0.016698125
,,,9.3E-07,0.0165
,,,9.4E-07,0.016584375
,,,9.5E-07,0.016736875
,,,9.6E-07,0.016505
,,,9.7E-07,0.016614375
,,,9.8E-07,0.01655875
,,,9.9E-07,0.016500625
,,,1E-06,0.01671
,,,1.01E-06,0.0165825
,,,1.02E-06,0.01671625
,,,1.03E-06,0.016601875
,,,1.04E-06,0.01672375
,,,1.05E-06,0.01665625
,,,1.06E-06,0.016841875
,,,1.07E-06,0.0167775
,,,1.08E-06,0.016675625
,,,1.09E-06,0.016771875
,,,1.1E-06,0.016661875
,,,1.11E-06,0.01674125
,,,1.12E-06,0.016705
,,,1.13E-06,0.016623125
,,,1.14E-06,0.01678
,,,1.15E-06,0.016580625
,,,1.16E-06,0.0169375
,,,1.17E-06,0.01689375
,,,1.18E-06,0.016739375
,,,1.19E-06,0.01652125
,,,1.2E-06,0.016519375
,,,1.21E-06,0.016521875
,,,1.22E-06,0.0165575
,,,1.23E-06,0.016701875
,,,1.24E-06,0.016763125
,,,1.25E-06,0.016485625
,,,1.26E-06,0.01664875
,,,1.27E-06,0.016533125
,,,1.28E-06,0.01677625
,,,1.29E-06,0.016785625
,,,1.3E-06,0.016659375
,,,1.31E-06,0.01661375
,,,1.32E-06,0.016751875
,,,1.33E-06,0.01686375
,,,1.34E-06,0.0166075
,,,1.35E-06,0.01658375
,,,1.36E-06,0.016644375
,,,1.37E-06,0.01651
,,,1.38E-06,0.016729375
,,,1.39E-06,0.016585
,,,1.4E-06,0.016453125
,,,1.41E-06,0.01646375
,,,1.42E-06,0.016575625
,,,1.43E-06,0.016695
,,,1.44E-06,0.01659
,,,1.45E-06,0.016589375
,,,1.46E-06,0.016488125
,,,1.47E-06,0.01660875
,,,1.48E-06,0.01671875
,,,1.49E-06,0.016684375
,,,1.5E-06,0.0167775
,,,1.51E-06,0.0167175
,,,1.52E-06,0.01664375
,,,1.53E-06,0.016524375
,,,1.54E-06,0.016798125
,,,1.55E-06,0.0164875
,,,1.56E-06,0.0166125
,,,1.57E-06,0.016805625
,,,1.58E-06,0.016544375
,,,1.59E-06,0.016514375
,,,1.6E-06,0.016548125
,,,1.61E-06,0.016531875
,,,1.62E-06,0.01667
,,,1.63E-06,0.016565
,,,1.64E-06,0.01660375
,,,1.65E-06,0.0166225
,,,1.66E-06,0.01657625
,,,1.67E-06,0.0168775
,,,1.68E-06,0.016673125
,,,1.69E-06,0.01664875
,,,1.7E-06,0.016261875
,,,1.71E-06,0.016656875
,,,1.72E-06,0.01657875
,,,1.73E-06,0.016709375
,,,1.74E-06,0.016650625
,,,1.75E-06,0.016465
,,,1.76E-06,0.016646875
,,,1.77E-06,0.016721875
,,,1.78E-06,0.016701875
,,,1.79E-06,0.016485
,,,1.8E-06,0.016514375
,,,1.81E-06,0.016549375
,,,1.82E-06,0.016799375
,,,1.83E-06,0.016326875
,,,1.84E-06,0.0165725
,,,1.85E-06,0.016398125
,,,1.86E-06,0.01670125
,,,1.87E-06,0.01675625
,,,1.88E-06,0.016766875
,,,1.89E-06,0.016730625
,,,1.9E-06,0.016815
,,,1.91E-06,0.016570625
,,,1.92E-06,0.01697625
,,,1.93E-06,0.0165975
,,,1.94E-06,0.016719375
,,,1.95E-06,0.016663125
,,,1.96E-06,0.01649
,,,1.97E-06,0.01664625
,,,1.98E-06,0.01657875
,,,1.99E-06,0.01659125
,,,2E-06,0.01650875
,,,2.01E-06,0.016281875
,,,2.02E-06,0.016565
,,,2.03E-06,0.0166425
,,,2.04E-06,0.016663125
,,,2.05E-06,0.016753125
,,,2.06E-06,0.016660625
,,,2.07E-06,0.0164125
,,,2.08E-06,0.01671625
,,,2.09E-06,0.0166075
,,,2.1E-06,0.01674375
,,,2.11E-06,0.016674375
,,,2.12E-06,0.0165275
,,,2.13E-06,0.0168175
,,,2.14E-06,0.016661875
,,,2.15E-06,0.016835625
,,,2.16E-06,0.0168025
,,,2.17E-06,0.01665625
,,,2.18E-06,0.01636375
,,,2.19E-06,0.016541875
,,,2.2E-06,0.016413125
,,,2.21E-06,0.016651875
,,,2.22E-06,0.01667875
,,,2.23E-06,0.016629375
,,,2.24E-06,0.016791875
,,,2.25E-06,0.01674875
,,,2.26E-06,0.016509375
,,,2.27E-06,0.01675125
,,,2.28E-06,0.016423125
,,,2.29E-06,0.016733125
,,,2.3E-06,0.01677625
,,,2.31E-06,0.016774375
,,,2.32E-06,0.0165475
,,,2.33E-06,0.01657125
,,,2.34E-06,0.016564375
,,,2.35E-06,0.016558125
,,,2.36E-06,0.01670875
,,,2.37E-06,0.01662875
,,,2.38E-06,0.01664
,,,2.39E-06,0.016765625
,,,2.4E-06,0.0169325
,,,2.41E-06,0.016828125
,,,2.42E-06,0.01674125
,,,2.43E-06,0.016556875
,,,2.44E-06,0.01670625
,,,2.45E-06,0.0166675
,,,2.46E-06,0.016776875
,,,2.47E-06,0.01667375
,,,2.48E-06,0.0164375
,,,2.49E-06,0.016746875
,,,2.5E-06,0.016539375
,,,2.51E-06,0.016765625
,,,2.52E-06,0.016436875
,,,2.53E-06,0.016370625
,,,2.54E-06,0.01663625
,,,2.55E-06,0.016613125
,,,2.56E-06,0.016760625
,,,2.57E-06,0.01665875
,,,2.58E-06,0.016644375
,,,2.59E-06,0.01674625
,,,2.6E-06,0.016665625
,,,2.61E-06,0.01646625
,,,2.62E-06,0.016733125
,,,2.63E-06,0.0166825
,,,2.64E-06,0.01641
,,,2.65E-06,0.01667125
,,,2.66E-06,0.016545
,,,2.67E-06,0.016538125
,,,2.68E-06,0.016588125
,,,2.69E-06,0.016551875
,,,2.7E-06,0.016475
,,,2.71E-06,0.016805625
,,,2.72E-06,0.016658125
,,,2.73E-06,0.016883125
,,,2.74E-06,0.016683125
,,,2.75E-06,0.016723125
,,,2.76E-06,0.016678125
,,,2.77E-06,0.016611875
,,,2.78E-06,0.016563125
,,,2.79E-06,0.01652875
,,,2.8E-06,0.016745625
,,,2.81E-06,0.016679375
,,,2.82E-06,0.017001875
,,,2.83E-06,0.016810625
,,,2.84E-06,0.016315
,,,2.85E-06,0.016526875
,,,2.86E-06,0.01640875
,,,2.87E-06,0.01705375
,,,2.88E-06,0.01671625
,,,2.89E-06,0.016709375
,,,2.9E-06,0.01642125
,,,2.91E-06,0.01648625
,,,2.92E-06,0.016685
,,,2.93E-06,0.01655
,,,2.94E-06,0.01673625
,,,2.95E-06,0.016730625
,,,2.96E-06,0.01675375
,,,2.97E-06,0.017185625
,,,2.98E-06,0.016601875
,,,2.99E-06,0.016505625
,,,3E-06,0.016606875
,,,3.01E-06,0.016495
,,,3.02E-06,0.016565625
,,,3.03E-06,0.016594375
,,,3.04E-06,0.016704375
,,,3.05E-06,0.01665625
,,,3.06E-06,0.016689375
,,,3.07E-06,0.016460625
,,,3.08E-06,0.01652625
,,,3.09E-06,0.016720625
,,,3.1E-06,0.0166725
,,,3.11E-06,0.0166125
,,,3.12E-06,0.016594375
,,,3.13E-06,0.016374375
,,,3.14E-06,0.016900625
,,,3.15E-06,0.01659625
,,,3.16E-06,0.01653875
,,,3.17E-06,0.0167925
,,,3.18E-06,0.016371875
,,,3.19E-06,0.016605
,,,3.2E-06,0.016843125
,,,3.21E-06,0.016621875
,,,3.22E-06,0.01686
,,,3.23E-06,0.01654
,,,3.24E-06,0.0169375
,,,3.25E-06,0.01664875
,,,3.26E-06,0.016668125
,,,3.27E-06,0.017013125
,,,3.28E-06,0.016493125
,,,3.29E-06,0.016805
,,,3.3E-06,0.016759375
,,,3.31E-06,0.01661625
,,,3.32E-06,0.01689375
,,,3.33E-06,0.016701875
,,,3.34E-06,0.016504375
,,,3.35E-06,0.016541875
,,,3.36E-06,0.01651375
,,,3.37E-06,0.016793125
,,,3.38E-06,0.016754375
,,,3.39E-06,0.0166775
,,,3.4E-06,0.01682625
,,,3.41E-06,0.016725
,,,3.42E-06,0.016618125
,,,3.43E-06,0.0166
,,,3.44E-06,0.016719375
,,,3.45E-06,0.016630625
,,,3.46E-06,0.016650625
,,,3.47E-06,0.01671
,,,3.48E-06,0.016573125
,,,3.49E-06,0.01661
,,,3.5E-06,0.01628875
,,,3.51E-06,0.01638125
,,,3.52E-06,0.016690625
,,,3.53E-06,0.01682375
,,,3.54E-06,0.0168025
,,,3.55E-06,0.016640625
,,,3.56E-06,0.016788125
