data/raw/Final_POL_Test_1/SOP033_Ch1.csv

"Record Length",1000,"Points",-5E-06,0.006218125
"Sample Interval",1E-08,s,-4.99E-06,0.006173125
"Trigger Point",500,"Samples",-4.98E-06,0.006123125
"Trigger Time",0,s,-4.97E-06,0.00629625
"",,,-4.96E-06,0.0061675
"Horizontal Offset",-5E-06,s,-4.95E-06,0.006188125
,,,-4.94E-06,0.006280625
,,,-4.93E-06,0.006120625
,,,-4.92E-06,0.005948125
,,,-4.91E-06,0.006241875
,,,-4.9E-06,0.006381875
,,,-4.89E-06,0.006054375
,,,-4.88E-06,0.006011875
,,,-4.87E-06,0.006075
,,,-4.86E-06,0.00611875
,,,-4.85E-06,0.006141875
,,,-4.84E-06,0.0058875
,,,-4.83E-06,0.006206875
,,,-4.82E-06,0.00616875
,,,-4.81E-06,0.006021875
,,,-4.8E-06,0.00599125
,,,-4.79E-06,0.00614625
,,,-4.78E-06,0.00590875
,,,-4.77E-06,0.0060275
,,,-4.76E-06,0.00626125
,,,-4.75E-06,0.006204375
,,,-4.74E-06,0.006356875
,,,-4.73E-06,0.006395
,,,-4.72E-06,0.006261875
,,,-4.71E-06,0.006151875
,,,-4.7E-06,0.006335625
,,,-4.69E-06,0.00631375
,,,-4.68E-06,0.00602375
,,,-4.67E-06,0.006220625
,,,-4.66E-06,0.00624375
,,,-4.65E-06,0.00600375
,,,-4.64E-06,0.005989375
,,,-4.63E-06,0.00617375
,,,-4.62E-06,0.006200625
,,,-4.61E-06,0.006261875
,,,-4.6E-06,0.005979375
,,,-4.59E-06,0.0061325
,,,-4.58E-06,0.0061
,,,-4.57E-06,0.006304375
,,,-4.56E-06,0.006125
,,,-4.55E-06,0.006110625
,,,-4.54E-06,0.006238125
,,,-4.53E-06,0.0062875
,,,-4.52E-06,0.005830625
,,,-4.51E-06,0.006176875
,,,-4.5E-06,0.00623
,,,-4.49E-06,0.00607625
,,,-4.48E-06,0.006135625
,,,-4.47E-06,0.006251875
,,,-4.46E-06,0.00616875
,,,-4.45E-06,0.0063475
,,,-4.44E-06,0.006385
,,,-4.43E-06,0.005971875
,,,-4.42E-06,0.0058475
,,,-4.41E-06,0.0063
,,,-4.4E-06,0.006356875
,,,-4.39E-06,0.006329375
,,,-4.38E-06,0.00636875
,,,-4.37E-06,0.005988125
,,,-4.36E-06,0.006201875
,,,-4.35E-06,0.00598375
,,,-4.34E-06,0.00614
,,,-4.33E-06,0.00613
,,,-4.32E-06,0.006165625
,,,-4.31E-06,0.006073125
,,,-4.3E-06,0.006059375
,,,-4.29E-06,0.006259375
,,,-4.28E-06,0.006045625
,,,-4.27E-06,0.00624125
,,,-4.26E-06,0.00589875
,,,-4.25E-06,0.006174375
,,,-4.24E-06,0.006361875
,,,-4.23E-06,0.0061125
,,,-4.22E-06,0.006199375
,,,-4.21E-06,0.006313125
,,,-4.2E-06,0.0062575
,,,-4.19E-06,0.00608125
,,,-4.18E-06,0.00614
,,,-4.17E-06,0.00626
,,,-4.16E-06,0.0062825
,,,-4.15E-06,0.006138125
,,,-4.14E-06,0.006429375
,,,-4.13E-06,0.006236875
,,,-4.12E-06,0.0064275
,,,-4.11E-06,0.006195625
,,,-4.1E-06,0.0063525
,,,-4.09E-06,0.005871875
,,,-4.08E-06,0.006193125
,,,-4.07E-06,0.006271875
,,,-4.06E-06,0.006319375
,,,-4.05E-06,0.00617
,,,-4.04E-06,0.00593
,,,-4.03E-06,0.00619125
,,,-4.02E-06,0.006050625
,,,-4.01E-06,0.00628375
,,,-4E-06,0.006026875
,,,-3.99E-06,0.0062875
,,,-3.98E-06,0.00630125
,,,-3.97E-06,0.00623
,,,-3.96E-06,0.0060875
,,,-3.95E-06,0.00582875
,,,-3.94E-06,0.006209375
,,,-3.93E-06,0.006269375
,,,-3.92E-06,0.0063125
,,,-3.91E-06,0.006074375
,,,-3.9E-06,0.005950625
,,,-3.89E-06,0.005999375
,,,-3.88E-06,0.006089375
,,,-3.87E-06,0.00612625
,,,-3.86E-06,0.00599
,,,-3.85E-06,0.00605625
,,,-3.84E-06,0.006186875
,,,-3.83E-06,0.006400625
,,,-3.82E-06,0.006226875
,,,-3.81E-06,0.006098125
,,,-3.8E-06,0.00611125
,,,-3.79E-06,0.0062125
,,,-3.78E-06,0.00610625
,,,-3.77E-06,0.006251875
,,,-3.76E-06,0.006235625
,,,-3.75E-06,0.0062075
,,,-3.74E-06,0.005928125
,,,-3.73E-06,0.00640625
,,,-3.72E-06,0.0062225
,,,-3.71E-06,0.00621875
,,,-3.7E-06,0.00613875
,,,-3.69E-06,0.00609375
,,,-3.68E-06,0.005885
,,,-3.67E-06,0.0063175
,,,-3.66E-06,0.006226875
,,,-3.65E-06,0.006143125
,,,-3.64E-06,0.0063025
,,,-3.63E-06,0.006071875
,,,-3.62E-06,0.006203125
,,,-3.61E-06,0.006305
,,,-3.6E-06,0.005940625
,,,-3.59E-06,0.006123125
,,,-3.58E-06,0.005939375
,,,-3.57E-06,0.006500625
,,,-3.56E-06,0.006080625
,,,-3.55E-06,0.00614
,,,-3.54E-06,0.006000625
,,,-3.53E-06,0.00594875
,,,-3.52E-06,0.0062375
,,,-3.51E-06,0.0061325
,,,-3.5E-06,0.006135
,,,-3.49E-06,0.005999375
,,,-3.48E-06,0.006164375
,,,-3.47E-06,0.005946875
,,,-3.46E-06,0.006170625
,,,-3.45E-06,0.00627
,,,-3.44E-06,0.0058725
,,,-3.43E-06,0.006328125
,,,-3.42E-06,0.00620375
,,,-3.41E-06,0.006134375
,,,-3.4E-06,0.00625625
,,,-3.39E-06,0.006210625
,,,-3.38E-06,0.00591875
,,,-3.37E-06,0.0061725
,,,-3.36E-06,0.0061325
,,,-3.35E-06,0.005973125
,,,-3.34E-06,0.006193125
,,,-3.33E-06,0.006203125
,,,-3.32E-06,0.00607625
,,,-3.31E-06,0.00600375
,,,-3.3E-06,0.006014375
,,,-3.29E-06,0.0061875
,,,-3.28E-06,0.0062175
,,,-3.27E-06,0.006133125
,,,-3.26E-06,0.006034375
,,,-3.25E-06,0.006399375
,,,-3.24E-06,0.006268125
,,,-3.23E-06,0.006204375
,,,-3.22E-06,0.00637
,,,-3.21E-06,0.006148125
,,,-3.2E-06,0.006099375
,,,-3.19E-06,0.00608875
,,,-3.18E-06,0.006239375
,,,-3.17E-06,0.00641
,,,-3.16E-06,0.006215
,,,-3.15E-06,0.00608375
,,,-3.14E-06,0.00601875
,,,-3.13E-06,0.006079375
,,,-3.12E-06,0.00607625
,,,-3.11E-06,0.0061275
,,,-3.1E-06,0.005879375
,,,-3.09E-06,0.006020625
,,,-3.08E-06,0.006018125
,,,-3.07E-06,0.006455
,,,-3.06E-06,0.00610375
,,,-3.05E-06,0.005959375
,,,-3.04E-06,0.006178125
,,,-3.03E-06,0.006244375
,,,-3.02E-06,0.006285
,,,-3.01E-06,0.00622125
,,,-3E-06,0.00630375
,,,-2.99E-06,0.00626
,,,-2.98E-06,0.005915
,,,-2.97E-06,0.006194375
,,,-2.96E-06,0.00623875
,,,-2.95E-06,0.006198125
,,,-2.94E-06,0.00619125
,,,-2.93E-06,0.006013125
,,,-2.92E-06,0.006199375
,,,-2.91E-06,0.00619375
,,,-2.9E-06,0.006378125
,,,-2.89E-06,0.0063325
,,,-2.88E-06,0.00637625
,,,-2.87E-06,0.00591
,,,-2.86E-06,0.005948125
,,,-2.85E-06,0.00617125
,,,-2.84E-06,0.006165625
,,,-2.83E-06,0.006028125
,,,-2.82E-06,0.006135625
,,,-2.81E-06,0.00632625
,,,-2.8E-06,0.0063525
,,,-2.79E-06,0.00618
,,,-2.78E-06,0.006273125
,,,-2.77E-06,0.005996875
,,,-2.76E-06,0.006200625
,,,-2.75E-06,0.0063675
,,,-2.74E-06,0.006128125
,,,-2.73E-06,0.00609125
,,,-2.72E-06,0.00606625
,,,-2.71E-06,0.00596125
,,,-2.7E-06,0.005948125
,,,-2.69E-06,0.005881875
,,,-2.68E-06,0.006223125
,,,-2.67E-06,0.006006875
,,,-2.66E-06,0.006020625
,,,-2.65E-06,0.0062125
,,,-2.64E-06,0.006299375
,,,-2.63E-06,0.006285
,,,-2.62E-06,0.00615875
,,,-2.61E-06,0.006008125
,,,-2.6E-06,0.006245
,,,-2.59E-06,0.006223125
,,,-2.58E-06,0.00624625
,,,-2.57E-06,0.0061425
,,,-2.56E-06,0.00612
,,,-2.55E-06,0.00588375
,,,-2.54E-06,0.006330625
,,,-2.53E-06,0.005885625
,,,-2.52E-06,0.006159375
,,,-2.51E-06,0.006193125
,,,-2.5E-06,0.00601125
,,,-2.49E-06,0.00633375
,,,-2.48E-06,0.006100625
,,,-2.47E-06,0.00619875
,,,-2.46E-06,0.00635375
,,,-2.45E-06,0.00624875
,,,-2.44E-06,0.0060825
,,,-2.43E-06,0.00627625
,,,-2.42E-06,0.00612375
,,,-2.41E-06,0.00608375
,,,-2.4E-06,0.0060925
,,,-2.39E-06,0.006263125
,,,-2.38E-06,0.005951875
,,,-2.37E-06,0.006144375
,,,-2.36E-06,0.006218125
,,,-2.35E-06,0.00613375
,,,-2.34E-06,0.00584
,,,-2.33E-06,0.005923125
,,,-2.32E-06,0.006319375
,,,-2.31E-06,0.00627875
,,,-2.3E-06,0.006146875
,,,-2.29E-06,0.00627625
,,,-2.28E-06,0.006404375
,,,-2.27E-06,0.006248125
,,,-2.26E-06,0.00607625
,,,-2.25E-06,0.00632
,,,-2.24E-06,0.006261875
,,,-2.23E-06,0.006304375
,,,-2.22E-06,0.006223125
,,,-2.21E-06,0.006155
,,,-2.2E-06,0.00616
,,,-2.19E-06,0.00599
,,,-2.18E-06,0.006084375
,,,-2.17E-06,0.0061025
,,,-2.16E-06,0.006296875
,,,-2.15E-06,0.006121875
,,,-2.14E-06,0.0061875
,,,-2.13E-06,0.006393125
,,,-2.12E-06,0.006035625
,,,-2.11E-06,0.0062775
,,,-2.1E-06,0.006290625
,,,-2.09E-06,0.00631375
,,,-2.08E-06,0.00633125
,,,-2.07E-06,0.006173125
,,,-2.06E-06,0.00611
,,,-2.05E-06,0.006068125
,,,-2.04E-06,0.005949375
,,,-2.03E-06,0.006204375
,,,-2.02E-06,0.00627375
,,,-2.01E-06,0.0062125
,,,-2E-06,0.006155625
,,,-1.99E-06,0.006283125
,,,-1.98E-06,0.006226875
,,,-1.97E-06,0.006146875
,,,-1.96E-06,0.006256875
,,,-1.95E-06,0.0060375
,,,-1.94E-06,0.006049375
,,,-1.93E-06,0.006171875
,,,-1.92E-06,0.006269375
,,,-1.91E-06,0.0063025
,,,-1.9E-06,0.006285
,,,-1.89E-06,0.005925
,,,-1.88E-06,0.005926875
,,,-1.87E-06,0.006123125
,,,-1.86E-06,0.00601375
,,,-1.85E-06,0.00628625
,,,-1.84E-06,0.00593375
,,,-1.83E-06,0.00622875
,,,-1.82E-06,0.005989375
,,,-1.81E-06,0.006075625
,,,-1.8E-06,0.006019375
,,,-1.79E-06,0.00622125
,,,-1.78E-06,0.006080625
,,,-1.77E-06,0.00619375
,,,-1.76E-06,0.0061425
,,,-1.75E-06,0.0060125
,,,-1.74E-06,0.0061
,,,-1.73E-06,0.006108125
,,,-1.72E-06,0.00604875
,,,-1.71E-06,0.006179375
,,,-1.7E-06,0.006171875
,,,-1.69E-06,0.00617375
,,,-1.68E-06,0.006418125
,,,-1.67E-06,0.00613
,,,-1.66E-06,0.0062225
,,,-1.65E-06,0.0060875
,,,-1.64E-06,0.0061375
,,,-1.63E-06,0.00615375
,,,-1.62E-06,0.005964375
,,,-1.61E-06,0.00630125
,,,-1.6E-06,0.006164375
,,,-1.59E-06,0.006303125
,,,-1.58E-06,0.00599125
,,,-1.57E-06,0.006171875
,,,-1.56E-06,0.006031875
,,,-1.55E-06,0.006135
,,,-1.54E-06,0.006118125
,,,-1.53E-06,0.00612125
,,,-1.52E-06,0.00609
,,,-1.51E-06,0.006195
,,,-1.5E-06,0.0060625
,,,-1.49E-06,0.00617625
,,,-1.48E-06,0.00625
,,,-1.47E-06,0.006419375
,,,-1.46E-06,0.006108125
,,,-1.45E-06,0.00609375
,,,-1.44E-06,0.00606625
,,,-1.43E-06,0.006261875
,,,-1.42E-06,0.005926875
,,,-1.41E-06,0.006085
,,,-1.4E-06,0.00636125
,,,-1.39E-06,0.00598625
,,,-1.38E-06,0.00611375
,,,-1.37E-06,0.0060975
,,,-1.36E-06,0.006275
,,,-1.35E-06,0.0062375
,,,-1.34E-06,0.006261875
,,,-1.33E-06,0.006074375
,,,-1.32E-06,0.006071875
,,,-1.31E-06,0.0059525
,,,-1.3E-06,0.006011875
,,,-1.29E-06,0.006181875
,,,-1.28E-06,0.00618625
,,,-1.27E-06,0.006080625
,,,-1.26E-06,0.006063125
,,,-1.25E-06,0.006371875
,,,-1.24E-06,0.006075
,,,-1.23E-06,0.006051875
,,,-1.22E-06,0.006183125
,,,-1.21E-06,0.005986875
,,,-1.2E-06,0.00622125
,,,-1.19E-06,0.00618625
,,,-1.18E-06,0.006243125
,,,-1.17E-06,0.006144375
,,,-1.16E-06,0.00589125
,,,-1.15E-06,0.00606
,,,-1.14E-06,0.005958125
,,,-1.13E-06,0.00615375
,,,-1.12E-06,0.00606375
,,,-1.11E-06,0.00626
,,,-1.1E-06,0.006301875
,,,-1.09E-06,0.0063475
,,,-1.08E-06,0.006175
,,,-1.07E-06,0.006415625
,,,-1.06E-06,0.005896875
,,,-1.05E-06,0.006095
,,,-1.04E-06,0.006254375
,,,-1.03E-06,0.0059825
,,,-1.02E-06,0.00607375
,,,-1.01E-06,0.00606
,,,-1E-06,0.006128125
,,,-9.9E-07,0.006069375
,,,-9.8E-07,0.006071875
,,,-9.7E-07,0.00628125
,,,-9.6E-07,0.00612125
,,,-9.5E-07,0.00590625
,,,-9.4E-07,0.0061775
,,,-9.3E-07,0.0062225
,,,-9.2E-07,0.00604375
,,,-9.1E-07,0.006286875
,,,-9E-07,0.00616875
,,,-8.9E-07,0.00623
,,,-8.8E-07,0.006006875
,,,-8.7E-07,0.006205625
,,,-8.6E-07,0.00618625
,,,-8.5E-07,0.00618
,,,-8.4E-07,0.006183125
,,,-8.3E-07,0.00602375
,,,-8.2E-07,0.0061525
,,,-8.1E-07,0.0061525
,,,-8E-07,0.006165
,,,-7.9E-07,0.00597875
,,,-7.8E-07,0.0062725
,,,-7.7E-07,0.006046875
,,,-7.6E-07,0.006345
,,,-7.5E-07,0.00618125
,,,-7.4E-07,0.0062525
,,,-7.3E-07,0.006290625
,,,-7.2E-07,0.0059525
,,,-7.1E-07,0.0060725
,,,-7E-07,0.006213125
,,,-6.9E-07,0.006420625
,,,-6.8E-07,0.00645625
,,,-6.7E-07,0.0062875
,,,-6.6E-07,0.006091875
,,,-6.5E-07,0.00597125
,,,-6.4E-07,0.0060675
,,,-6.3E-07,0.00625
,,,-6.2E-07,0.006183125
,,,-6.1E-07,0.006333125
,,,-6E-07,0.006226875
,,,-5.9E-07,0.006166875
,,,-5.8E-07,0.006175
,,,-5.7E-07,0.00618125
,,,-5.6E-07,0.006104375
,,,-5.5E-07,0.006189375
,,,-5.4E-07,0.006168125
,,,-5.3E-07,0.00613875
,,,-5.2E-07,0.006095
,,,-5.1E-07,0.00596375
,,,-5E-07,0.00613375
,,,-4.9E-07,0.0060425
,,,-4.8E-07,0.00632125
,,,-4.7E-07,0.006268125
,,,-4.6E-07,0.00584625
,,,-4.5E-07,0.00623625
,,,-4.4E-07,0.006293125
,,,-4.3E-07,0.006144375
,,,-4.2E-07,0.00628125
,,,-4.1E-07,0.00622
,,,-4E-07,0.006188125
,,,-3.9E-07,0.00601375
,,,-3.8E-07,0.006025625
,,,-3.7E-07,0.006226875
,,,-3.6E-07,0.006315
,,,-3.5E-07,0.005968125
,,,-3.4E-07,0.006234375
,,,-3.3E-07,0.006285625
,,,-3.2E-07,0.00611
,,,-3.1E-07,0.006089375
,,,-3E-07,0.005933125
,,,-2.9E-07,0.006163125
,,,-2.8E-07,0.00632375
,,,-2.7E-07,0.0059675
,,,-2.6E-07,0.006189375
,,,-2.5E-07,0.006143125
,,,-2.4E-07,0.006186875
,,,-2.3E-07,0.005846875
,,,-2.2E-07,0.005883125
,,,-2.1E-07,0.006273125
,,,-2E-07,0.0061775
,,,-1.9E-07,0.0062425
,,,-1.8E-07,0.006279375
,,,-1.7E-07,0.006119375
,,,-1.6E-07,0.006148125
,,,-1.5E-07,0.00623375
,,,-1.4E-07,0.005993125
,,,-1.3E-07,0.0061775
,,,-1.2E-07,0.006188125
,,,-1.1E-07,0.006015
,,,-1E-07,0.00588375
,,,-9E-08,0.00612
,,,-8E-08,0.006181875
,,,-7E-08,0.00612
,,,-6E-08,0.006004375
,,,-5E-08,0.00659625
,,,-4E-08,0.00693375
,,,-3E-08,0.0068575
,,,-2E-08,0.00516625
,,,-1E-08,0.003115
,,,0,0.003945
,,,1E-08,0.007671875
,,,2E-08,0.00952125
,,,3E-08,0.008666875
,,,4E-08,0.005735625
,,,5E-08,0.00380875
,,,6E-08,0.003353125
,,,7E-08,0.0050525
,,,8E-08,0.00668625
,,,9E-08,0.00799
,,,1E-07,0.007999375
,,,1.1E-07,0.00657125
,,,1.2E-07,0.0052
,,,1.3E-07,0.004821875
,,,1.4E-07,0.005435
,,,1.5E-07,0.006516875
,,,1.6E-07,0.006509375
,,,1.7E-07,0.00639875
,,,1.8E-07,0.00647375
,,,1.9E-07,0.006384375
,,,2E-07,0.006286875
,,,2.1E-07,0.005739375
,,,2.2E-07,0.006039375
,,,2.3E-07,0.005890625
,,,2.4E-07,0.006293125
,,,2.5E-07,0.0062325
,,,2.6E-07,0.005945625
,,,2.7E-07,0.0062975
,,,2.8E-07,0.006136875
,,,2.9E-07,0.00597375
,,,3E-07,0.005853125
,,,3.1E-07,0.0062075
,,,3.2E-07,0.0061425
,,,3.3E-07,0.00611125
,,,3.4E-07,0.006225
,,,3.5E-07,0.00604
,,,3.6E-07,0.00608625
,,,3.7E-07,0.00611875
,,,3.8E-07,0.0060625
,,,3.9E-07,0.006260625
,,,4E-07,0.005998125
,,,4.1E-07,0.006205
,,,4.2E-07,0.006369375
,,,4.3E-07,0.006365625
,,,4.4E-07,0.006320625
,,,4.5E-07,0.006271875
,,,4.6E-07,0.00614125
,,,4.7E-07,0.005811875
,,,4.8E-07,0.0059875
,,,4.9E-07,0.00602
,,,5E-07,0.0061775
,,,5.1E-07,0.006100625
,,,5.2E-07,0.0060375
,,,5.3E-07,0.0061725
,,,5.4E-07,0.006124375
,,,5.5E-07,0.006166875
,,,5.6E-07,0.00614125
,,,5.7E-07,0.006129375
,,,5.8E-07,0.006031875
,,,5.9E-07,0.006215
,,,6E-07,0.0058975
,,,6.1E-07,0.00617625
,,,6.2E-07,0.006018125
,,,6.3E-07,0.00619
,,,6.4E-07,0.0061025
,,,6.5E-07,0.0061475
,,,6.6E-07,0.006114375
,,,6.7E-07,0.00637625
,,,6.8E-07,0.00622875
,,,6.9E-07,0.0061775
,,,7E-07,0.0061225
,,,7.1E-07,0.00604
,,,7.2E-07,0.0062925
,,,7.3E-07,0.006298125
,,,7.4E-07,0.006353125
,,,7.5E-07,0.006173125
,,,7.6E-07,0.00592375
,,,7.7E-07,0.006134375
,,,7.8E-07,0.006088125
,,,7.9E-07,0.00617875
,,,8E-07,0.00600125
,,,8.1E-07,0.006206875
,,,8.2E-07,0.00608125
,,,8.3E-07,0.006255
,,,8.4E-07,0.006296875
,,,8.5E-07,0.00616875
,,,8.6E-07,0.00564625
,,,8.7E-07,0.00598125
,,,8.8E-07,0.006146875
,,,8.9E-07,0.006159375
,,,9E-07,0.006283125
,,,9.1E-07,0.00632875
,,,9.2E-07,0.00609
,,,9.3E-07,0.00626125
,,,9.4E-07,0.006121875
,,,9.5E-07,0.006175625
,,,9.6E-07,0.00598625
,,,9.7E-07,0.005775
,,,9.8E-07,0.00599
,,,9.9E-07,0.0059375
,,,1E-06,0.00617875
,,,1.01E-06,0.00609125
,,,1.02E-06,0.006021875
,,,1.03E-06,0.0061225
,,,1.04E-06,0.006115625
,,,1.05E-06,0.00623625
,,,1.06E-06,0.006004375
,,,1.07E-06,0.00630625
,,,1.08E-06,0.006009375
,,,1.09E-06,0.006175625
,,,1.1E-06,0.00610125
,,,1.11E-06,0.006175625
,,,1.12E-06,0.006171875
,,,1.13E-06,0.0058025
,,,1.14E-06,0.00594
,,,1.15E-06,0.00619625
,,,1.16E-06,0.00616625
,,,1.17E-06,0.0063075
,,,1.18E-06,0.00606125
,,,1.19E-06,0.006243125
,,,1.2E-06,0.0059075
,,,1.21E-06,0.00618375
,,,1.22E-06,0.006424375
,,,1.23E-06,0.00633
,,,1.24E-06,0.006034375
,,,1.25E-06,0.00588625
,,,1.26E-06,0.0063225
,,,1.27E-06,0.006193125
,,,1.28E-06,0.0059925
,,,1.29E-06,0.0061625
,,,1.3E-06,0.006056875
,,,1.31E-06,0.005999375
,,,1.32E-06,0.006200625
,,,1.33E-06,0.006329375
,,,1.34E-06,0.00621375
,,,1.35E-06,0.006091875
,,,1.36E-06,0.00596375
,,,1.37E-06,0.006111875
,,,1.38E-06,0.006326875
,,,1.39E-06,0.00616125
,,,1.4E-06,0.006083125
,,,1.41E-06,0.00607125
,,,1.42E-06,0.006096875
,,,1.43E-06,0.006228125
,,,1.44E-06,0.005983125
,,,1.45E-06,0.006125
,,,1.46E-06,0.00621125
,,,1.47E-06,0.00605
,,,1.48E-06,0.00616875
,,,1.49E-06,0.006205
,,,1.5E-06,0.006306875
,,,1.51E-06,0.006236875
,,,1.52E-06,0.0063
,,,1.53E-06,0.006013125
,,,1.54E-06,0.00595875
,,,1.55E-06,0.006283125
,,,1.56E-06,0.006185
,,,1.57E-06,0.0061275
,,,1.58E-06,0.006155
,,,1.59E-06,0.00635125
,,,1.6E-06,0.006230625
,,,1.61E-06,0.005903125
,,,1.62E-06,0.006228125
,,,1.63E-06,0.006175625
,,,1.64E-06,0.006125625
,,,1.65E-06,0.00611125
,,,1.66E-06,0.006175625
,,,1.67E-06,0.0061225
,,,1.68E-06,0.0059975
,,,1.69E-06,0.005778125
,,,1.7E-06,0.00626375
,,,1.71E-06,0.005953125
,,,1.72E-06,0.00620875
,,,1.73E-06,0.006180625
,,,1.74E-06,0.006070625
,,,1.75E-06,0.006100625
,,,1.76E-06,0.00622
,,,1.77E-06,0.00624875
,,,1.78E-06,0.00594
,,,1.79E-06,0.005988125
,,,1.8E-06,0.005995
,,,1.81E-06,0.006215
,,,1.82E-06,0.006274375
,,,1.83E-06,0.00590125
,,,1.84E-06,0.006158125
,,,1.85E-06,0.006005625
,,,1.86E-06,0.006254375
,,,1.87E-06,0.00616375
,,,1.88E-06,0.006239375
,,,1.89E-06,0.006271875
,,,1.9E-06,0.006264375
,,,1.91E-06,0.006148125
,,,1.92E-06,0.006195
,,,1.93E-06,0.00596
,,,1.94E-06,0.00607
,,,1.95E-06,0.006331875
,,,1.96E-06,0.006283125
,,,1.97E-06,0.00579875
,,,1.98E-06,0.00617125
,,,1.99E-06,0.00627375
,,,2E-06,0.00591625
,,,2.01E-06,0.00612375
,,,2.02E-06,0.0061225
,,,2.03E-06,0.00607125
,,,2.04E-06,0.006275
,,,2.05E-06,0.005955625
,,,2.06E-06,0.0061575
,,,2.07E-06,0.006373125
,,,2.08E-06,0.005956875
,,,2.09E-06,0.006059375
,,,2.1E-06,0.0059775
,,,2.11E-06,0.006009375
,,,2.12E-06,0.006103125
,,,2.13E-06,0.00634125
,,,2.14E-06,0.006380625
,,,2.15E-06,0.006224375
,,,2.16E-06,0.00613625
,,,2.17E-06,0.006150625
,,,2.18E-06,0.0059675
,,,2.19E-06,0.00615125
,,,2.2E-06,0.0062425
,,,2.21E-06,0.00628125
,,,2.22E-06,0.006375625
,,,2.23E-06,0.006156875
,,,2.24E-06,0.00617125
,,,2.25E-06,0.006274375
,,,2.26E-06,0.006258125
,,,2.27E-06,0.006078125
,,,2.28E-06,0.006314375
,,,2.29E-06,0.0061425
,,,2.3E-06,0.00644625
,,,2.31E-06,0.00599875
,,,2.32E-06,0.00611625
,,,2.33E-06,0.006133125
,,,2.34E-06,0.006129375
,,,2.35E-06,0.006211875
,,,2.36E-06,0.006005
,,,2.37E-06,0.005963125
,,,2.38E-06,0.006061875
,,,2.39E-06,0.006156875
,,,2.4E-06,0.006263125
,,,2.41E-06,0.005965625
,,,2.42E-06,0.006015625
,,,2.43E-06,0.006178125
,,,2.44E-06,0.006205625
,,,2.45E-06,0.0063325
,,,2.46E-06,0.006236875
,,,2.47E-06,0.006245
,,,2.48E-06,0.006214375
,,,2.49E-06,0.00633375
,,,2.5E-06,0.006120625
,,,2.51E-06,0.0059375
,,,2.52E-06,0.0060075
,,,2.53E-06,0.00616
,,,2.54E-06,0.00615
,,,2.55E-06,0.00626
,,,2.56E-06,0.00621
,,,2.57E-06,0.0061675
,,,2.58E-06,0.006239375
,,,2.59E-06,0.00609375
,,,2.6E-06,0.00596375
,,,2.61E-06,0.006109375
,,,2.62E-06,0.006145
,,,2.63E-06,0.005895625
,,,2.64E-06,0.00603875
,,,2.65E-06,0.006295
,,,2.66E-06,0.006484375
,,,2.67E-06,0.006173125
,,,2.68E-06,0.006105
,,,2.69E-06,0.006150625
,,,2.7E-06,0.006084375
,,,2.71E-06,0.006275625
,,,2.72E-06,0.00623
,,,2.73E-06,0.006211875
,,,2.74E-06,0.00612875
,,,2.75E-06,0.00584625
,,,2.76E-06,0.00624125
,,,2.77E-06,0.006034375
,,,2.78E-06,0.0061525
,,,2.79E-06,0.00627375
,,,2.8E-06,0.0061025
,,,2.81E-06,0.0061575
,,,2.82E-06,0.00616875
,,,2.83E-06,0.006235625
,,,2.84E-06,0.006159375
,,,2.85E-06,0.006190625
,,,2.86E-06,0.00606875
,,,2.87E-06,0.00594875
,,,2.88E-06,0.00632625
,,,2.89E-06,0.005923125
,,,2.9E-06,0.006010625
,,,2.91E-06,0.00606375
,,,2.92E-06,0.0062525
,,,2.93E-06,0.00628375
,,,2.94E-06,0.00585875
,,,2.95E-06,0.00607375
,,,2.96E-06,0.006110625
,,,2.97E-06,0.006125
,,,2.98E-06,0.0060925
,,,2.99E-06,0.0061525
,,,3E-06,0.006163125
,,,3.01E-06,0.0060275
,,,3.02E-06,0.006225
,,,3.03E-06,0.00611875
,,,3.04E-06,0.006065
,,,3.05E-06,0.006188125
,,,3.06E-06,0.006258125
,,,3.07E-06,0.00602375
,,,3.08E-06,0.0062075
,,,3.09E-06,0.006361875
,,,3.1E-06,0.00614875
,,,3.11E-06,0.00618125
,,,3.12E-06,0.0061425
,,,3.13E-06,0.006138125
,,,3.14E-06,0.005971875
,,,3.15E-06,0.00605625
,,,3.16E-06,0.006010625
,,,3.17E-06,0.006015625
,,,3.18E-06,0.005923125
,,,3.19E-06,0.00607
,,,3.2E-06,0.00618625
,,,3.21E-06,0.006089375
,,,3.22E-06,0.006225625
,,,3.23E-06,0.005934375
,,,3.24E-06,0.00623
,,,3.25E-06,0.00619375
,,,3.26E-06,0.0061025
,,,3.27E-06,0.00619625
,,,3.28E-06,0.006161875
,,,3.29E-06,0.006069375
,,,3.3E-06,0.006085
,,,3.31E-06,0.006305
,,,3.32E-06,0.00640625
,,,3.33E-06,0.006224375
,,,3.34E-06,0.006093125
,,,3.35E-06,0.0063625
,,,3.36E-06,0.006013125
,,,3.37E-06,0.0060275
,,,3.38E-06,0.006296875
,,,3.39E-06,0.00621625
,,,3.4E-06,0.006295625
,,,3.41E-06,0.006026875
,,,3.42E-06,0.005904375
,,,3.43E-06,0.005955
,,,3.44E-06,0.005899375
,,,3.45E-06,0.0062575
,,,3.46E-06,0.005978125
,,,3.47E-06,0.0062425
,,,3.48E-06,0.006123125
,,,3.49E-06,0.0059775
,,,3.5E-06,0.006066875
,,,3.51E-06,0.00622375
,,,3.52E-06,0.006104375
,,,3.53E-06,0.0060475
,,,3.54E-06,0.006195
,,,3.55E-06,0.006354375
,,,3.56E-06,0.0060025
,,,3.57E-06,0.00611125
,,,3.58E-06,0.00628
