data/raw/Final_POL_Test_1/SOP087_Ch4.csv

"Record Length",1000,"Points",-5E-06,0.0188075
"Sample Interval",1E-08,s,-4.99E-06,0.019023125
"Trigger Point",500,"Samples",-4.98E-06,0.018775625
"Trigger Time",0,s,-4.97E-06,0.018999375
"",,,-4.96E-06,0.018976875
"Horizontal Offset",-5E-06,s,-4.95E-06,0.018875
,,,-4.94E-06,0.01869
,,,-4.93E-06,0.018775
,,,-4.92E-06,0.018998125
,,,-4.91E-06,0.018665625
,,,-4.9E-06,0.018916875
,,,-4.89E-06,0.018871875
,,,-4.88E-06,0.01888
,,,-4.87E-06,0.018935625
,,,-4.86E-06,0.019045625
,,,-4.85E-06,0.01868
,,,-4.84E-06,0.01878625
,,,-4.83E-06,0.01885375
,,,-4.82E-06,0.018741875
,,,-4.81E-06,0.018571875
,,,-4.8E-06,0.01871
,,,-4.79E-06,0.018995
,,,-4.78E-06,0.018889375
,,,-4.77E-06,0.019013125
,,,-4.76E-06,0.018911875
,,,-4.75E-06,0.018776875
,,,-4.74E-06,0.01882875
,,,-4.73E-06,0.018621875
,,,-4.72E-06,0.0187875
,,,-4.71E-06,0.018865
,,,-4.7E-06,0.01865125
,,,-4.69E-06,0.01891375
,,,-4.68E-06,0.01866625
,,,-4.67E-06,0.019006875
,,,-4.66E-06,0.018726875
,,,-4.65E-06,0.018925
,,,-4.64E-06,0.0187275
,,,-4.63E-06,0.01881
,,,-4.62E-06,0.018986875
,,,-4.61E-06,0.018818125
,,,-4.6E-06,0.019001875
,,,-4.59E-06,0.018975
,,,-4.58E-06,0.018901875
,,,-4.57E-06,0.018866875
,,,-4.56E-06,0.01895375
,,,-4.55E-06,0.018675
,,,-4.54E-06,0.018615625
,,,-4.53E-06,0.01917375
,,,-4.52E-06,0.018794375
,,,-4.51E-06,0.0186425
,,,-4.5E-06,0.018805625
,,,-4.49E-06,0.0186325
,,,-4.48E-06,0.01885625
,,,-4.47E-06,0.01896125
,,,-4.46E-06,0.0188075
,,,-4.45E-06,0.019131875
,,,-4.44E-06,0.0189625
,,,-4.43E-06,0.01880375
,,,-4.42E-06,0.01898
,,,-4.41E-06,0.01882375
,,,-4.4E-06,0.01884625
,,,-4.39E-06,0.018721875
,,,-4.38E-06,0.018974375
,,,-4.37E-06,0.018763125
,,,-4.36E-06,0.01871125
,,,-4.35E-06,0.019084375
,,,-4.34E-06,0.019058125
,,,-4.33E-06,0.018844375
,,,-4.32E-06,0.0187175
,,,-4.31E-06,0.018735625
,,,-4.3E-06,0.018574375
,,,-4.29E-06,0.018858125
,,,-4.28E-06,0.019013125
,,,-4.27E-06,0.0188025
,,,-4.26E-06,0.01879625
,,,-4.25E-06,0.019015625
,,,-4.24E-06,0.0186875
,,,-4.23E-06,0.018795625
,,,-4.22E-06,0.018829375
,,,-4.21E-06,0.01865125
,,,-4.2E-06,0.018945625
,,,-4.19E-06,0.01885
,,,-4.18E-06,0.01886875
,,,-4.17E-06,0.0188125
,,,-4.16E-06,0.018788125
,,,-4.15E-06,0.0187725
,,,-4.14E-06,0.0187375
,,,-4.13E-06,0.018806875
,,,-4.12E-06,0.0190125
,,,-4.11E-06,0.019118125
,,,-4.1E-06,0.01887
,,,-4.09E-06,0.01879375
,,,-4.08E-06,0.01883
,,,-4.07E-06,0.0186475
,,,-4.06E-06,0.019040625
,,,-4.05E-06,0.01904375
,,,-4.04E-06,0.018575625
,,,-4.03E-06,0.019004375
,,,-4.02E-06,0.0190175
,,,-4.01E-06,0.018849375
,,,-4E-06,0.01894875
,,,-3.99E-06,0.018729375
,,,-3.98E-06,0.01912375
,,,-3.97E-06,0.018810625
,,,-3.96E-06,0.01877375
,,,-3.95E-06,0.019096875
,,,-3.94E-06,0.018660625
,,,-3.93E-06,0.018890625
,,,-3.92E-06,0.01874125
,,,-3.91E-06,0.01901
,,,-3.9E-06,0.01882
,,,-3.89E-06,0.01891875
,,,-3.88E-06,0.018736875
,,,-3.87E-06,0.018933125
,,,-3.86E-06,0.01852625
,,,-3.85E-06,0.018781875
,,,-3.84E-06,0.01875125
,,,-3.83E-06,0.0188275
,,,-3.82E-06,0.01873625
,,,-3.81E-06,0.018670625
,,,-3.8E-06,0.018831875
,,,-3.79E-06,0.01886
,,,-3.78E-06,0.018875
,,,-3.77E-06,0.0189625
,,,-3.76E-06,0.018798125
,,,-3.75E-06,0.01873
,,,-3.74E-06,0.01873875
,,,-3.73E-06,0.0187975
,,,-3.72E-06,0.0187125
,,,-3.71E-06,0.0187425
,,,-3.7E-06,0.018988125
,,,-3.69E-06,0.018831875
,,,-3.68E-06,0.018870625
,,,-3.67E-06,0.018821875
,,,-3.66E-06,0.018945
,,,-3.65E-06,0.018696875
,,,-3.64E-06,0.018943125
,,,-3.63E-06,0.018926875
,,,-3.62E-06,0.01881125
,,,-3.61E-06,0.01887375
,,,-3.6E-06,0.018831875
,,,-3.59E-06,0.019086875
,,,-3.58E-06,0.019040625
,,,-3.57E-06,0.01885
,,,-3.56E-06,0.018884375
,,,-3.55E-06,0.018758125
,,,-3.54E-06,0.0187825
,,,-3.53E-06,0.0188775
,,,-3.52E-06,0.019035
,,,-3.51E-06,0.018701875
,,,-3.5E-06,0.018815
,,,-3.49E-06,0.0189425
,,,-3.48E-06,0.0190275
,,,-3.47E-06,0.018805625
,,,-3.46E-06,0.01884875
,,,-3.45E-06,0.01879125
,,,-3.44E-06,0.01905375
,,,-3.43E-06,0.018766875
,,,-3.42E-06,0.018845
,,,-3.41E-06,0.019115
,,,-3.4E-06,0.01912625
,,,-3.39E-06,0.018906875
,,,-3.38E-06,0.0186625
,,,-3.37E-06,0.018911875
,,,-3.36E-06,0.018685
,,,-3.35E-06,0.018891875
,,,-3.34E-06,0.01882375
,,,-3.33E-06,0.01865875
,,,-3.32E-06,0.018729375
,,,-3.31E-06,0.0188275
,,,-3.3E-06,0.018830625
,,,-3.29E-06,0.01899
,,,-3.28E-06,0.01873
,,,-3.27E-06,0.018831875
,,,-3.26E-06,0.018695625
,,,-3.25E-06,0.0186775
,,,-3.24E-06,0.0186675
,,,-3.23E-06,0.0187875
,,,-3.22E-06,0.018896875
,,,-3.21E-06,0.018645
,,,-3.2E-06,0.018925625
,,,-3.19E-06,0.018939375
,,,-3.18E-06,0.01880875
,,,-3.17E-06,0.01875875
,,,-3.16E-06,0.018728125
,,,-3.15E-06,0.01911375
,,,-3.14E-06,0.0187875
,,,-3.13E-06,0.018833125
,,,-3.12E-06,0.01899125
,,,-3.11E-06,0.018818125
,,,-3.1E-06,0.0188725
,,,-3.09E-06,0.01883625
,,,-3.08E-06,0.018753125
,,,-3.07E-06,0.018808125
,,,-3.06E-06,0.0186525
,,,-3.05E-06,0.0188825
,,,-3.04E-06,0.01874875
,,,-3.03E-06,0.018933125
,,,-3.02E-06,0.018635
,,,-3.01E-06,0.019055625
,,,-3E-06,0.01879125
,,,-2.99E-06,0.01898875
,,,-2.98E-06,0.01888875
,,,-2.97E-06,0.01909625
,,,-2.96E-06,0.01885625
,,,-2.95E-06,0.018736875
,,,-2.94E-06,0.018883125
,,,-2.93E-06,0.0187375
,,,-2.92E-06,0.018859375
,,,-2.91E-06,0.0187575
,,,-2.9E-06,0.01888
,,,-2.89E-06,0.019185625
,,,-2.88E-06,0.018486875
,,,-2.87E-06,0.0190875
,,,-2.86E-06,0.018968125
,,,-2.85E-06,0.018871875
,,,-2.84E-06,0.018960625
,,,-2.83E-06,0.018716875
,,,-2.82E-06,0.01904875
,,,-2.81E-06,0.0187575
,,,-2.8E-06,0.018921875
,,,-2.79E-06,0.018803125
,,,-2.78E-06,0.01856625
,,,-2.77E-06,0.01867
,,,-2.76E-06,0.01884
,,,-2.75E-06,0.01888375
,,,-2.74E-06,0.018745625
,,,-2.73E-06,0.01895
,,,-2.72E-06,0.0187525
,,,-2.71E-06,0.01884
,,,-2.7E-06,0.01879375
,,,-2.69E-06,0.018883125
,,,-2.68E-06,0.018691875
,,,-2.67E-06,0.01882625
,,,-2.66E-06,0.01894875
,,,-2.65E-06,0.0184825
,,,-2.64E-06,0.018816875
,,,-2.63E-06,0.01877375
,,,-2.62E-06,0.01881875
,,,-2.61E-06,0.01884875
,,,-2.6E-06,0.01887625
,,,-2.59E-06,0.018966875
,,,-2.58E-06,0.0188325
,,,-2.57E-06,0.01872375
,,,-2.56E-06,0.018840625
,,,-2.55E-06,0.01896
,,,-2.54E-06,0.01873125
,,,-2.53E-06,0.018950625
,,,-2.52E-06,0.018936875
,,,-2.51E-06,0.018961875
,,,-2.5E-06,0.0189025
,,,-2.49E-06,0.01886125
,,,-2.48E-06,0.01899375
,,,-2.47E-06,0.01890625
,,,-2.46E-06,0.018698125
,,,-2.45E-06,0.0188325
,,,-2.44E-06,0.018628125
,,,-2.43E-06,0.018979375
,,,-2.42E-06,0.018866875
,,,-2.41E-06,0.018935625
,,,-2.4E-06,0.019034375
,,,-2.39E-06,0.018789375
,,,-2.38E-06,0.018938125
,,,-2.37E-06,0.01870625
,,,-2.36E-06,0.01873375
,,,-2.35E-06,0.01907125
,,,-2.34E-06,0.01874375
,,,-2.33E-06,0.01888875
,,,-2.32E-06,0.018949375
,,,-2.31E-06,0.01865875
,,,-2.3E-06,0.01882625
,,,-2.29E-06,0.01893125
,,,-2.28E-06,0.01879125
,,,-2.27E-06,0.018786875
,,,-2.26E-06,0.018761875
,,,-2.25E-06,0.01881125
,,,-2.24E-06,0.01875625
,,,-2.23E-06,0.018733125
,,,-2.22E-06,0.01875625
,,,-2.21E-06,0.01875
,,,-2.2E-06,0.01887
,,,-2.19E-06,0.018785
,,,-2.18E-06,0.019043125
,,,-2.17E-06,0.018781875
,,,-2.16E-06,0.0186
,,,-2.15E-06,0.01879
,,,-2.14E-06,0.018738125
,,,-2.13E-06,0.01888625
,,,-2.12E-06,0.01913875
,,,-2.11E-06,0.018878125
,,,-2.1E-06,0.01881625
,,,-2.09E-06,0.0186275
,,,-2.08E-06,0.01856875
,,,-2.07E-06,0.0186675
,,,-2.06E-06,0.01880375
,,,-2.05E-06,0.01884375
,,,-2.04E-06,0.01894
,,,-2.03E-06,0.018589375
,,,-2.02E-06,0.018693125
,,,-2.01E-06,0.019136875
,,,-2E-06,0.018845625
,,,-1.99E-06,0.0190625
,,,-1.98E-06,0.018681875
,,,-1.97E-06,0.018933125
,,,-1.96E-06,0.0190475
,,,-1.95E-06,0.018821875
,,,-1.94E-06,0.018886875
,,,-1.93E-06,0.018868125
,,,-1.92E-06,0.018679375
,,,-1.91E-06,0.01876
,,,-1.9E-06,0.018985
,,,-1.89E-06,0.0188975
,,,-1.88E-06,0.018824375
,,,-1.87E-06,0.018863125
,,,-1.86E-06,0.01884
,,,-1.85E-06,0.018756875
,,,-1.84E-06,0.018715625
,,,-1.83E-06,0.018851875
,,,-1.82E-06,0.018686875
,,,-1.81E-06,0.018730625
,,,-1.8E-06,0.018545625
,,,-1.79E-06,0.0188275
,,,-1.78E-06,0.018875
,,,-1.77E-06,0.01890125
,,,-1.76E-06,0.018963125
,,,-1.75E-06,0.018834375
,,,-1.74E-06,0.018901875
,,,-1.73E-06,0.018813125
,,,-1.72E-06,0.018905
,,,-1.71E-06,0.018545
,,,-1.7E-06,0.0188725
,,,-1.69E-06,0.018758125
,,,-1.68E-06,0.01908375
,,,-1.67E-06,0.018941875
,,,-1.66E-06,0.018825625
,,,-1.65E-06,0.01898125
,,,-1.64E-06,0.01869625
,,,-1.63E-06,0.0188
,,,-1.62E-06,0.018826875
,,,-1.61E-06,0.018890625
,,,-1.6E-06,0.01874125
,,,-1.59E-06,0.01873
,,,-1.58E-06,0.019309375
,,,-1.57E-06,0.01873875
,,,-1.56E-06,0.01884
,,,-1.55E-06,0.01872625
,,,-1.54E-06,0.0188475
,,,-1.53E-06,0.018833125
,,,-1.52E-06,0.018835625
,,,-1.51E-06,0.01884625
,,,-1.5E-06,0.01911
,,,-1.49E-06,0.01875
,,,-1.48E-06,0.01892
,,,-1.47E-06,0.018915625
,,,-1.46E-06,0.01860625
,,,-1.45E-06,0.018843125
,,,-1.44E-06,0.019040625
,,,-1.43E-06,0.01867125
,,,-1.42E-06,0.01902
,,,-1.41E-06,0.01853375
,,,-1.4E-06,0.018751875
,,,-1.39E-06,0.0186675
,,,-1.38E-06,0.018648125
,,,-1.37E-06,0.01891375
,,,-1.36E-06,0.018764375
,,,-1.35E-06,0.018863125
,,,-1.34E-06,0.019148125
,,,-1.33E-06,0.018878125
,,,-1.32E-06,0.01880625
,,,-1.31E-06,0.018909375
,,,-1.3E-06,0.01877625
,,,-1.29E-06,0.01879625
,,,-1.28E-06,0.01915125
,,,-1.27E-06,0.019034375
,,,-1.26E-06,0.018576875
,,,-1.25E-06,0.01884125
,,,-1.24E-06,0.019078125
,,,-1.23E-06,0.018630625
,,,-1.22E-06,0.018575625
,,,-1.21E-06,0.01887875
,,,-1.2E-06,0.01889375
,,,-1.19E-06,0.018795625
,,,-1.18E-06,0.0187725
,,,-1.17E-06,0.01878625
,,,-1.16E-06,0.01883375
,,,-1.15E-06,0.0188975
,,,-1.14E-06,0.01891
,,,-1.13E-06,0.018630625
,,,-1.12E-06,0.018851875
,,,-1.11E-06,0.01885375
,,,-1.1E-06,0.018933125
,,,-1.09E-06,0.01888
,,,-1.08E-06,0.01899375
,,,-1.07E-06,0.018834375
,,,-1.06E-06,0.01871625
,,,-1.05E-06,0.018633125
,,,-1.04E-06,0.0186975
,,,-1.03E-06,0.01908625
,,,-1.02E-06,0.01877375
,,,-1.01E-06,0.018604375
,,,-1E-06,0.018913125
,,,-9.9E-07,0.01915125
,,,-9.8E-07,0.018966875
,,,-9.7E-07,0.018621875
,,,-9.6E-07,0.01886875
,,,-9.5E-07,0.0189775
,,,-9.4E-07,0.0189225
,,,-9.3E-07,0.0189
,,,-9.2E-07,0.018595
,,,-9.1E-07,0.0188125
,,,-9E-07,0.018825625
,,,-8.9E-07,0.018818125
,,,-8.8E-07,0.01899125
,,,-8.7E-07,0.018958125
,,,-8.6E-07,0.01884125
,,,-8.5E-07,0.018858125
,,,-8.4E-07,0.0186475
,,,-8.3E-07,0.018711875
,,,-8.2E-07,0.018894375
,,,-8.1E-07,0.01913625
,,,-8E-07,0.018849375
,,,-7.9E-07,0.0188325
,,,-7.8E-07,0.018916875
,,,-7.7E-07,0.01875
,,,-7.6E-07,0.018600625
,,,-7.5E-07,0.018831875
,,,-7.4E-07,0.018985
,,,-7.3E-07,0.0188425
,,,-7.2E-07,0.01879125
,,,-7.1E-07,0.018905625
,,,-7E-07,0.018726875
,,,-6.9E-07,0.0187525
,,,-6.8E-07,0.018913125
,,,-6.7E-07,0.019154375
,,,-6.6E-07,0.018809375
,,,-6.5E-07,0.019025625
,,,-6.4E-07,0.018928125
,,,-6.3E-07,0.018903125
,,,-6.2E-07,0.018835
,,,-6.1E-07,0.01897625
,,,-6E-07,0.018909375
,,,-5.9E-07,0.01880375
,,,-5.8E-07,0.018741875
,,,-5.7E-07,0.01877125
,,,-5.6E-07,0.018856875
,,,-5.5E-07,0.0187175
,,,-5.4E-07,0.018781875
,,,-5.3E-07,0.018779375
,,,-5.2E-07,0.01855125
,,,-5.1E-07,0.018681875
,,,-5E-07,0.018590625
,,,-4.9E-07,0.018825625
,,,-4.8E-07,0.018925625
,,,-4.7E-07,0.019061875
,,,-4.6E-07,0.018825
,,,-4.5E-07,0.018653125
,,,-4.4E-07,0.018810625
,,,-4.3E-07,0.018981875
,,,-4.2E-07,0.01882625
,,,-4.1E-07,0.01897625
,,,-4E-07,0.01879125
,,,-3.9E-07,0.01864625
,,,-3.8E-07,0.019028125
,,,-3.7E-07,0.01889125
,,,-3.6E-07,0.018941875
,,,-3.5E-07,0.01875875
,,,-3.4E-07,0.018799375
,,,-3.3E-07,0.018973125
,,,-3.2E-07,0.01892125
,,,-3.1E-07,0.01887875
,,,-3E-07,0.018868125
,,,-2.9E-07,0.01886875
,,,-2.8E-07,0.018655625
,,,-2.7E-07,0.0188625
,,,-2.6E-07,0.01896
,,,-2.5E-07,0.018744375
,,,-2.4E-07,0.018814375
,,,-2.3E-07,0.018736875
,,,-2.2E-07,0.0189275
,,,-2.1E-07,0.018859375
,,,-2E-07,0.01874375
,,,-1.9E-07,0.01890875
,,,-1.8E-07,0.018909375
,,,-1.7E-07,0.0187375
,,,-1.6E-07,0.01872
,,,-1.5E-07,0.01897
,,,-1.4E-07,0.018623125
,,,-1.3E-07,0.018781875
,,,-1.2E-07,0.01892625
,,,-1.1E-07,0.018945625
,,,-1E-07,0.018854375
,,,-9E-08,0.018795
,,,-8E-08,0.018891875
,,,-7E-08,0.019006875
,,,-6E-08,0.01938
,,,-5E-08,0.018504375
,,,-4E-08,0.018369375
,,,-3E-08,0.0181975
,,,-2E-08,0.01904125
,,,-1E-08,0.019410625
,,,0,0.019378125
,,,1E-08,0.0188275
,,,2E-08,0.018436875
,,,3E-08,0.018435625
,,,4E-08,0.018778125
,,,5E-08,0.01900375
,,,6E-08,0.019121875
,,,7E-08,0.018971875
,,,8E-08,0.018701875
,,,9E-08,0.018539375
,,,1E-07,0.018526875
,,,1.1E-07,0.018849375
,,,1.2E-07,0.018961875
,,,1.3E-07,0.018998125
,,,1.4E-07,0.018955625
,,,1.5E-07,0.0186825
,,,1.6E-07,0.018825
,,,1.7E-07,0.019085
,,,1.8E-07,0.01904125
,,,1.9E-07,0.018825
,,,2E-07,0.019020625
,,,2.1E-07,0.018861875
,,,2.2E-07,0.01881625
,,,2.3E-07,0.018713125
,,,2.4E-07,0.01887875
,,,2.5E-07,0.01864375
,,,2.6E-07,0.01889375
,,,2.7E-07,0.01876875
,,,2.8E-07,0.018855
,,,2.9E-07,0.018773125
,,,3E-07,0.018960625
,,,3.1E-07,0.018870625
,,,3.2E-07,0.018683125
,,,3.3E-07,0.018638125
,,,3.4E-07,0.01881375
,,,3.5E-07,0.018783125
,,,3.6E-07,0.018625625
,,,3.7E-07,0.018790625
,,,3.8E-07,0.018743125
,,,3.9E-07,0.019050625
,,,4E-07,0.0189625
,,,4.1E-07,0.0189775
,,,4.2E-07,0.0184625
,,,4.3E-07,0.01866625
,,,4.4E-07,0.019005625
,,,4.5E-07,0.0189325
,,,4.6E-07,0.0187875
,,,4.7E-07,0.018721875
,,,4.8E-07,0.018885625
,,,4.9E-07,0.01896625
,,,5E-07,0.01893625
,,,5.1E-07,0.018780625
,,,5.2E-07,0.018973125
,,,5.3E-07,0.018685625
,,,5.4E-07,0.018734375
,,,5.5E-07,0.01910625
,,,5.6E-07,0.0188475
,,,5.7E-07,0.01898
,,,5.8E-07,0.018730625
,,,5.9E-07,0.018763125
,,,6E-07,0.018886875
,,,6.1E-07,0.0186925
,,,6.2E-07,0.018908125
,,,6.3E-07,0.0187875
,,,6.4E-07,0.01917875
,,,6.5E-07,0.01886125
,,,6.6E-07,0.018940625
,,,6.7E-07,0.01892625
,,,6.8E-07,0.0188675
,,,6.9E-07,0.018815
,,,7E-07,0.0188325
,,,7.1E-07,0.018835
,,,7.2E-07,0.018498125
,,,7.3E-07,0.01900125
,,,7.4E-07,0.018604375
,,,7.5E-07,0.019008125
,,,7.6E-07,0.018933125
,,,7.7E-07,0.018691875
,,,7.8E-07,0.01870625
,,,7.9E-07,0.01883875
,,,8E-07,0.018994375
,,,8.1E-07,0.01861
,,,8.2E-07,0.0189675
,,,8.3E-07,0.018765
,,,8.4E-07,0.01891875
,,,8.5E-07,0.01885625
,,,8.6E-07,0.018749375
,,,8.7E-07,0.0190425
,,,8.8E-07,0.018920625
,,,8.9E-07,0.018706875
,,,9E-07,0.0189875
,,,9.1E-07,0.01926125
,,,9.2E-07,0.0186425
,,,9.3E-07,0.018776875
,,,9.4E-07,0.018645
,,,9.5E-07,0.018870625
,,,9.6E-07,0.018869375
,,,9.7E-07,0.018838125
,,,9.8E-07,0.018963125
,,,9.9E-07,0.01890625
,,,1E-06,0.01874
,,,1.01E-06,0.018928125
,,,1.02E-06,0.018819375
,,,1.03E-06,0.0190825
,,,1.04E-06,0.018735625
,,,1.05E-06,0.018721875
,,,1.06E-06,0.0190425
,,,1.07E-06,0.0190275
,,,1.08E-06,0.018855
,,,1.09E-06,0.018945
,,,1.1E-06,0.0187125
,,,1.11E-06,0.0189275
,,,1.12E-06,0.018810625
,,,1.13E-06,0.01859125
,,,1.14E-06,0.018699375
,,,1.15E-06,0.01901
,,,1.16E-06,0.018775625
,,,1.17E-06,0.0190475
,,,1.18E-06,0.0188025
,,,1.19E-06,0.018589375
,,,1.2E-06,0.018974375
,,,1.21E-06,0.018815625
,,,1.22E-06,0.018758125
,,,1.23E-06,0.018691875
,,,1.24E-06,0.01873
,,,1.25E-06,0.01892625
,,,1.26E-06,0.018638125
,,,1.27E-06,0.018683125
,,,1.28E-06,0.01900625
,,,1.29E-06,0.018935625
,,,1.3E-06,0.018875
,,,1.31E-06,0.0187025
,,,1.32E-06,0.018845
,,,1.33E-06,0.0190125
,,,1.34E-06,0.0188175
,,,1.35E-06,0.0188825
,,,1.36E-06,0.01896125
,,,1.37E-06,0.01901
,,,1.38E-06,0.018665
,,,1.39E-06,0.018861875
,,,1.4E-06,0.018839375
,,,1.41E-06,0.0191875
,,,1.42E-06,0.01897875
,,,1.43E-06,0.018735
,,,1.44E-06,0.0187625
,,,1.45E-06,0.01898
,,,1.46E-06,0.018801875
,,,1.47E-06,0.018560625
,,,1.48E-06,0.0187925
,,,1.49E-06,0.018901875
,,,1.5E-06,0.018840625
,,,1.51E-06,0.018665
,,,1.52E-06,0.018764375
,,,1.53E-06,0.01889875
,,,1.54E-06,0.01867375
,,,1.55E-06,0.018873125
,,,1.56E-06,0.018923125
,,,1.57E-06,0.018688125
,,,1.58E-06,0.018953125
,,,1.59E-06,0.01885625
,,,1.6E-06,0.018924375
,,,1.61E-06,0.018785625
,,,1.62E-06,0.018735625
,,,1.63E-06,0.0189675
,,,1.64E-06,0.01873375
,,,1.65E-06,0.01888625
,,,1.66E-06,0.018853125
,,,1.67E-06,0.018750625
,,,1.68E-06,0.018920625
,,,1.69E-06,0.018788125
,,,1.7E-06,0.018858125
,,,1.71E-06,0.01868875
,,,1.72E-06,0.018955625
,,,1.73E-06,0.018809375
,,,1.74E-06,0.018874375
,,,1.75E-06,0.01885625
,,,1.76E-06,0.01859875
,,,1.77E-06,0.018905625
,,,1.78E-06,0.01890125
,,,1.79E-06,0.018943125
,,,1.8E-06,0.01882125
,,,1.81E-06,0.018943125
,,,1.82E-06,0.01881
,,,1.83E-06,0.01868
,,,1.84E-06,0.0189325
,,,1.85E-06,0.01901125
,,,1.86E-06,0.0187425
,,,1.87E-06,0.018724375
,,,1.88E-06,0.018885625
,,,1.89E-06,0.018803125
,,,1.9E-06,0.019095625
,,,1.91E-06,0.01874375
,,,1.92E-06,0.01887375
,,,1.93E-06,0.018941875
,,,1.94E-06,0.018759375
,,,1.95E-06,0.018788125
,,,1.96E-06,0.018740625
,,,1.97E-06,0.01876625
,,,1.98E-06,0.01899125
,,,1.99E-06,0.01874625
,,,2E-06,0.019029375
,,,2.01E-06,0.01864625
,,,2.02E-06,0.01886625
,,,2.03E-06,0.01893375
,,,2.04E-06,0.01881625
,,,2.05E-06,0.018890625
,,,2.06E-06,0.01886
,,,2.07E-06,0.0188325
,,,2.08E-06,0.018915
,,,2.09E-06,0.01878375
,,,2.1E-06,0.018714375
,,,2.11E-06,0.018810625
,,,2.12E-06,0.01897375
,,,2.13E-06,0.01865
,,,2.14E-06,0.01871125
,,,2.15E-06,0.01899125
,,,2.16E-06,0.018673125
,,,2.17E-06,0.01875625
,,,2.18E-06,0.01889125
,,,2.19E-06,0.01888125
,,,2.2E-06,0.018730625
,,,2.21E-06,0.018823125
,,,2.22E-06,0.0188725
,,,2.23E-06,0.018826875
,,,2.24E-06,0.0189375
,,,2.25E-06,0.018785
,,,2.26E-06,0.01890375
,,,2.27E-06,0.01884375
,,,2.28E-06,0.018800625
,,,2.29E-06,0.0188125
,,,2.3E-06,0.018655
,,,2.31E-06,0.018831875
,,,2.32E-06,0.018788125
,,,2.33E-06,0.01861875
,,,2.34E-06,0.018880625
,,,2.35E-06,0.01874625
,,,2.36E-06,0.018939375
,,,2.37E-06,0.01903375
,,,2.38E-06,0.018719375
,,,2.39E-06,0.01896875
,,,2.4E-06,0.0187375
,,,2.41E-06,0.01880625
,,,2.42E-06,0.018805
,,,2.43E-06,0.018759375
,,,2.44E-06,0.018778125
,,,2.45E-06,0.018865
,,,2.46E-06,0.018938125
,,,2.47E-06,0.01898625
,,,2.48E-06,0.01892375
,,,2.49E-06,0.01866125
,,,2.5E-06,0.018714375
,,,2.51E-06,0.0188725
,,,2.52E-06,0.01880625
,,,2.53E-06,0.01868125
,,,2.54E-06,0.01891125
,,,2.55E-06,0.018849375
,,,2.56E-06,0.01895375
,,,2.57E-06,0.018861875
,,,2.58E-06,0.019075
,,,2.59E-06,0.018755
,,,2.6E-06,0.018913125
,,,2.61E-06,0.018795625
,,,2.62E-06,0.018908125
,,,2.63E-06,0.018890625
,,,2.64E-06,0.01887625
,,,2.65E-06,0.01869375
,,,2.66E-06,0.01904375
,,,2.67E-06,0.018793125
,,,2.68E-06,0.018598125
,,,2.69E-06,0.018888125
,,,2.7E-06,0.01858625
,,,2.71E-06,0.0186825
,,,2.72E-06,0.01899
,,,2.73E-06,0.018838125
,,,2.74E-06,0.018725
,,,2.75E-06,0.018936875
,,,2.76E-06,0.018926875
,,,2.77E-06,0.01870625
,,,2.78E-06,0.018891875
,,,2.79E-06,0.018789375
,,,2.8E-06,0.0186825
,,,2.81E-06,0.01909375
,,,2.82E-06,0.0189125
,,,2.83E-06,0.01914625
,,,2.84E-06,0.01890125
,,,2.85E-06,0.018888125
,,,2.86E-06,0.01889125
,,,2.87E-06,0.0187925
,,,2.88E-06,0.018999375
,,,2.89E-06,0.018604375
,,,2.9E-06,0.01882
,,,2.91E-06,0.01894375
,,,2.92E-06,0.018790625
,,,2.93E-06,0.018706875
,,,2.94E-06,0.01863375
,,,2.95E-06,0.018746875
,,,2.96E-06,0.018775
,,,2.97E-06,0.0188375
,,,2.98E-06,0.018658125
,,,2.99E-06,0.01888375
,,,3E-06,0.018779375
,,,3.01E-06,0.018855625
,,,3.02E-06,0.018768125
,,,3.03E-06,0.018784375
,,,3.04E-06,0.01903
,,,3.05E-06,0.01893375
,,,3.06E-06,0.01892
,,,3.07E-06,0.018764375
,,,3.08E-06,0.019029375
,,,3.09E-06,0.01880625
,,,3.1E-06,0.018920625
,,,3.11E-06,0.018815
,,,3.12E-06,0.01895
,,,3.13E-06,0.018888125
,,,3.14E-06,0.01896875
,,,3.15E-06,0.0189575
,,,3.16E-06,0.018633125
,,,3.17E-06,0.018804375
,,,3.18E-06,0.0187025
,,,3.19E-06,0.01880375
,,,3.2E-06,0.018825
,,,3.21E-06,0.0188975
,,,3.22E-06,0.019015
,,,3.23E-06,0.01892375
,,,3.24E-06,0.018643125
,,,3.25E-06,0.01865875
,,,3.26E-06,0.018990625
,,,3.27E-06,0.01875875
,,,3.28E-06,0.01896625
,,,3.29E-06,0.018905
,,,3.3E-06,0.01892375
,,,3.31E-06,0.01888
,,,3.32E-06,0.01900625
,,,3.33E-06,0.018840625
,,,3.34E-06,0.018829375
,,,3.35E-06,0.018866875
,,,3.36E-06,0.0190325
,,,3.37E-06,0.018834375
,,,3.38E-06,0.018833125
,,,3.39E-06,0.018900625
,,,3.4E-06,0.018656875
,,,3.41E-06,0.018668125
,,,3.42E-06,0.018655625
,,,3.43E-06,0.01901375
,,,3.44E-06,0.018811875
,,,3.45E-06,0.01879625
,,,3.46E-06,0.01867625
,,,3.47E-06,0.01859625
,,,3.48E-06,0.01878875
,,,3.49E-06,0.018745
,,,3.5E-06,0.0188375
,,,3.51E-06,0.0189025
,,,3.52E-06,0.018835625
,,,3.53E-06,0.01872375
,,,3.54E-06,0.018871875
,,,3.55E-06,0.0190575
,,,3.56E-06,0.01890625
,,,3.57E-06,0.01863
,,,3.58E-06,0.01891375
