data/raw/Final_POL_Test_1/SOP019_Ch4.csv

"Record Length",1000,"Points",-5E-06,0.021468125
"Sample Interval",1E-08,s,-4.99E-06,0.021595625
"Trigger Point",500,"Samples",-4.98E-06,0.02144875
"Trigger Time",0,s,-4.97E-06,0.0215425
"",,,-4.96E-06,0.0213575
"Horizontal Offset",-5E-06,s,-4.95E-06,0.021304375
,,,-4.94E-06,0.021548125
,,,-4.93E-06,0.021456875
,,,-4.92E-06,0.0217025
,,,-4.91E-06,0.02128
,,,-4.9E-06,0.021465625
,,,-4.89E-06,0.021576875
,,,-4.88E-06,0.021586875
,,,-4.87E-06,0.0213975
,,,-4.86E-06,0.021440625
,,,-4.85E-06,0.021245625
,,,-4.84E-06,0.02160875
,,,-4.83E-06,0.02147625
,,,-4.82E-06,0.02159
,,,-4.81E-06,0.021528125
,,,-4.8E-06,0.021685
,,,-4.79E-06,0.02162875
,,,-4.78E-06,0.0212125
,,,-4.77E-06,0.02146125
,,,-4.76E-06,0.021411875
,,,-4.75E-06,0.021683125
,,,-4.74E-06,0.021475625
,,,-4.73E-06,0.021593125
,,,-4.72E-06,0.02140875
,,,-4.71E-06,0.021205625
,,,-4.7E-06,0.021633125
,,,-4.69E-06,0.02144875
,,,-4.68E-06,0.021466875
,,,-4.67E-06,0.0215
,,,-4.66E-06,0.02147125
,,,-4.65E-06,0.02164125
,,,-4.64E-06,0.02148375
,,,-4.63E-06,0.021448125
,,,-4.62E-06,0.02140625
,,,-4.61E-06,0.021444375
,,,-4.6E-06,0.02173375
,,,-4.59E-06,0.021553125
,,,-4.58E-06,0.02138375
,,,-4.57E-06,0.021658125
,,,-4.56E-06,0.021374375
,,,-4.55E-06,0.021320625
,,,-4.54E-06,0.02130125
,,,-4.53E-06,0.0214425
,,,-4.52E-06,0.021368125
,,,-4.51E-06,0.02157875
,,,-4.5E-06,0.021644375
,,,-4.49E-06,0.02183125
,,,-4.48E-06,0.0215325
,,,-4.47E-06,0.021328125
,,,-4.46E-06,0.021385625
,,,-4.45E-06,0.021375625
,,,-4.44E-06,0.021410625
,,,-4.43E-06,0.021630625
,,,-4.42E-06,0.0216025
,,,-4.41E-06,0.021544375
,,,-4.4E-06,0.021454375
,,,-4.39E-06,0.02157375
,,,-4.38E-06,0.02119
,,,-4.37E-06,0.021365625
,,,-4.36E-06,0.021594375
,,,-4.35E-06,0.021325
,,,-4.34E-06,0.02143875
,,,-4.33E-06,0.021665
,,,-4.32E-06,0.02142375
,,,-4.31E-06,0.021645
,,,-4.3E-06,0.02134375
,,,-4.29E-06,0.02131375
,,,-4.28E-06,0.021399375
,,,-4.27E-06,0.02131375
,,,-4.26E-06,0.02144
,,,-4.25E-06,0.02122875
,,,-4.24E-06,0.02142375
,,,-4.23E-06,0.02123875
,,,-4.22E-06,0.021764375
,,,-4.21E-06,0.02148125
,,,-4.2E-06,0.02162625
,,,-4.19E-06,0.021398125
,,,-4.18E-06,0.021453125
,,,-4.17E-06,0.021274375
,,,-4.16E-06,0.02164125
,,,-4.15E-06,0.02136125
,,,-4.14E-06,0.021361875
,,,-4.13E-06,0.02143875
,,,-4.12E-06,0.02141125
,,,-4.11E-06,0.02166875
,,,-4.1E-06,0.0214225
,,,-4.09E-06,0.021608125
,,,-4.08E-06,0.021541875
,,,-4.07E-06,0.02154375
,,,-4.06E-06,0.021318125
,,,-4.05E-06,0.02168
,,,-4.04E-06,0.021754375
,,,-4.03E-06,0.021645625
,,,-4.02E-06,0.021411875
,,,-4.01E-06,0.0213625
,,,-4E-06,0.0215175
,,,-3.99E-06,0.02141375
,,,-3.98E-06,0.021098125
,,,-3.97E-06,0.021348125
,,,-3.96E-06,0.02149
,,,-3.95E-06,0.02147375
,,,-3.94E-06,0.02141875
,,,-3.93E-06,0.021590625
,,,-3.92E-06,0.022075
,,,-3.91E-06,0.021579375
,,,-3.9E-06,0.0213525
,,,-3.89E-06,0.02155125
,,,-3.88E-06,0.021314375
,,,-3.87E-06,0.0215175
,,,-3.86E-06,0.02159375
,,,-3.85E-06,0.021533125
,,,-3.84E-06,0.021598125
,,,-3.83E-06,0.021676875
,,,-3.82E-06,0.0217675
,,,-3.81E-06,0.02139875
,,,-3.8E-06,0.0212025
,,,-3.79E-06,0.0214775
,,,-3.78E-06,0.0214125
,,,-3.77E-06,0.02164
,,,-3.76E-06,0.021515625
,,,-3.75E-06,0.021476875
,,,-3.74E-06,0.021349375
,,,-3.73E-06,0.02155375
,,,-3.72E-06,0.021455625
,,,-3.71E-06,0.021493125
,,,-3.7E-06,0.02156625
,,,-3.69E-06,0.02146875
,,,-3.68E-06,0.021393125
,,,-3.67E-06,0.0214775
,,,-3.66E-06,0.021515625
,,,-3.65E-06,0.021621875
,,,-3.64E-06,0.021270625
,,,-3.63E-06,0.021443125
,,,-3.62E-06,0.02147375
,,,-3.61E-06,0.021636875
,,,-3.6E-06,0.02152375
,,,-3.59E-06,0.02142875
,,,-3.58E-06,0.0215925
,,,-3.57E-06,0.02165125
,,,-3.56E-06,0.021375625
,,,-3.55E-06,0.02162625
,,,-3.54E-06,0.021524375
,,,-3.53E-06,0.0213375
,,,-3.52E-06,0.021145
,,,-3.51E-06,0.021426875
,,,-3.5E-06,0.021503125
,,,-3.49E-06,0.021395
,,,-3.48E-06,0.021525
,,,-3.47E-06,0.02112125
,,,-3.46E-06,0.02142
,,,-3.45E-06,0.0216575
,,,-3.44E-06,0.021514375
,,,-3.43E-06,0.02138
,,,-3.42E-06,0.021340625
,,,-3.41E-06,0.02143
,,,-3.4E-06,0.021439375
,,,-3.39E-06,0.021406875
,,,-3.38E-06,0.021279375
,,,-3.37E-06,0.02157375
,,,-3.36E-06,0.0217675
,,,-3.35E-06,0.021825
,,,-3.34E-06,0.021706875
,,,-3.33E-06,0.021194375
,,,-3.32E-06,0.0215625
,,,-3.31E-06,0.021403125
,,,-3.3E-06,0.021553125
,,,-3.29E-06,0.021435
,,,-3.28E-06,0.02160375
,,,-3.27E-06,0.0215325
,,,-3.26E-06,0.0215875
,,,-3.25E-06,0.02139
,,,-3.24E-06,0.021294375
,,,-3.23E-06,0.0217075
,,,-3.22E-06,0.0217175
,,,-3.21E-06,0.021414375
,,,-3.2E-06,0.021326875
,,,-3.19E-06,0.021349375
,,,-3.18E-06,0.021464375
,,,-3.17E-06,0.021540625
,,,-3.16E-06,0.021584375
,,,-3.15E-06,0.021368125
,,,-3.14E-06,0.021531875
,,,-3.13E-06,0.0213
,,,-3.12E-06,0.021459375
,,,-3.11E-06,0.021813125
,,,-3.1E-06,0.0214325
,,,-3.09E-06,0.02150625
,,,-3.08E-06,0.02148875
,,,-3.07E-06,0.021441875
,,,-3.06E-06,0.02136375
,,,-3.05E-06,0.021563125
,,,-3.04E-06,0.021445
,,,-3.03E-06,0.02155
,,,-3.02E-06,0.021521875
,,,-3.01E-06,0.021520625
,,,-3E-06,0.02165625
,,,-2.99E-06,0.021426875
,,,-2.98E-06,0.021368125
,,,-2.97E-06,0.021878125
,,,-2.96E-06,0.0215925
,,,-2.95E-06,0.02147375
,,,-2.94E-06,0.0214225
,,,-2.93E-06,0.021525625
,,,-2.92E-06,0.021369375
,,,-2.91E-06,0.021615
,,,-2.9E-06,0.021475625
,,,-2.89E-06,0.02156125
,,,-2.88E-06,0.02125125
,,,-2.87E-06,0.02175125
,,,-2.86E-06,0.0214975
,,,-2.85E-06,0.02153375
,,,-2.84E-06,0.02152625
,,,-2.83E-06,0.02144375
,,,-2.82E-06,0.02130125
,,,-2.81E-06,0.021250625
,,,-2.8E-06,0.021426875
,,,-2.79E-06,0.021584375
,,,-2.78E-06,0.02149375
,,,-2.77E-06,0.021419375
,,,-2.76E-06,0.021475625
,,,-2.75E-06,0.021488125
,,,-2.74E-06,0.02140125
,,,-2.73E-06,0.021415
,,,-2.72E-06,0.021681875
,,,-2.71E-06,0.021353125
,,,-2.7E-06,0.021646875
,,,-2.69E-06,0.021326875
,,,-2.68E-06,0.021509375
,,,-2.67E-06,0.021556875
,,,-2.66E-06,0.021250625
,,,-2.65E-06,0.02160625
,,,-2.64E-06,0.021379375
,,,-2.63E-06,0.021508125
,,,-2.62E-06,0.021415
,,,-2.61E-06,0.021910625
,,,-2.6E-06,0.021701875
,,,-2.59E-06,0.02147
,,,-2.58E-06,0.0213625
,,,-2.57E-06,0.021793125
,,,-2.56E-06,0.021474375
,,,-2.55E-06,0.021691875
,,,-2.54E-06,0.0215475
,,,-2.53E-06,0.021445625
,,,-2.52E-06,0.021575
,,,-2.51E-06,0.021601875
,,,-2.5E-06,0.021174375
,,,-2.49E-06,0.021605
,,,-2.48E-06,0.021525625
,,,-2.47E-06,0.021400625
,,,-2.46E-06,0.02142
,,,-2.45E-06,0.021286875
,,,-2.44E-06,0.021495
,,,-2.43E-06,0.021641875
,,,-2.42E-06,0.02134375
,,,-2.41E-06,0.021549375
,,,-2.4E-06,0.0213725
,,,-2.39E-06,0.021514375
,,,-2.38E-06,0.021603125
,,,-2.37E-06,0.02118625
,,,-2.36E-06,0.02151375
,,,-2.35E-06,0.021328125
,,,-2.34E-06,0.021710625
,,,-2.33E-06,0.021536875
,,,-2.32E-06,0.0214475
,,,-2.31E-06,0.021398125
,,,-2.3E-06,0.021313125
,,,-2.29E-06,0.02171375
,,,-2.28E-06,0.021441875
,,,-2.27E-06,0.021590625
,,,-2.26E-06,0.021599375
,,,-2.25E-06,0.02145375
,,,-2.24E-06,0.02156625
,,,-2.23E-06,0.0217875
,,,-2.22E-06,0.02132125
,,,-2.21E-06,0.0213375
,,,-2.2E-06,0.021571875
,,,-2.19E-06,0.021558125
,,,-2.18E-06,0.021545
,,,-2.17E-06,0.0217
,,,-2.16E-06,0.021455
,,,-2.15E-06,0.02144875
,,,-2.14E-06,0.021454375
,,,-2.13E-06,0.021415
,,,-2.12E-06,0.021593125
,,,-2.11E-06,0.0214775
,,,-2.1E-06,0.021450625
,,,-2.09E-06,0.021571875
,,,-2.08E-06,0.021671875
,,,-2.07E-06,0.021421875
,,,-2.06E-06,0.021585
,,,-2.05E-06,0.021485
,,,-2.04E-06,0.02129125
,,,-2.03E-06,0.021518125
,,,-2.02E-06,0.02151875
,,,-2.01E-06,0.021420625
,,,-2E-06,0.02162875
,,,-1.99E-06,0.021344375
,,,-1.98E-06,0.02155875
,,,-1.97E-06,0.021526875
,,,-1.96E-06,0.0213125
,,,-1.95E-06,0.021720625
,,,-1.94E-06,0.021455
,,,-1.93E-06,0.02142125
,,,-1.92E-06,0.0214225
,,,-1.91E-06,0.021538125
,,,-1.9E-06,0.02146125
,,,-1.89E-06,0.021354375
,,,-1.88E-06,0.021798125
,,,-1.87E-06,0.021571875
,,,-1.86E-06,0.02153875
,,,-1.85E-06,0.021493125
,,,-1.84E-06,0.021235
,,,-1.83E-06,0.02162125
,,,-1.82E-06,0.021515625
,,,-1.81E-06,0.021288125
,,,-1.8E-06,0.021644375
,,,-1.79E-06,0.02152375
,,,-1.78E-06,0.021528125
,,,-1.77E-06,0.02159875
,,,-1.76E-06,0.02168875
,,,-1.75E-06,0.021249375
,,,-1.74E-06,0.0215225
,,,-1.73E-06,0.021385625
,,,-1.72E-06,0.021621875
,,,-1.71E-06,0.021559375
,,,-1.7E-06,0.021639375
,,,-1.69E-06,0.02140125
,,,-1.68E-06,0.021509375
,,,-1.67E-06,0.021558125
,,,-1.66E-06,0.021696875
,,,-1.65E-06,0.02166125
,,,-1.64E-06,0.021551875
,,,-1.63E-06,0.021459375
,,,-1.62E-06,0.021525
,,,-1.61E-06,0.021615
,,,-1.6E-06,0.021495
,,,-1.59E-06,0.02144
,,,-1.58E-06,0.02141875
,,,-1.57E-06,0.02132875
,,,-1.56E-06,0.021555
,,,-1.55E-06,0.021714375
,,,-1.54E-06,0.02169625
,,,-1.53E-06,0.02126
,,,-1.52E-06,0.0215825
,,,-1.51E-06,0.021404375
,,,-1.5E-06,0.021154375
,,,-1.49E-06,0.021553125
,,,-1.48E-06,0.021335625
,,,-1.47E-06,0.02164625
,,,-1.46E-06,0.021489375
,,,-1.45E-06,0.02154875
,,,-1.44E-06,0.02148375
,,,-1.43E-06,0.02159
,,,-1.42E-06,0.02163875
,,,-1.41E-06,0.021379375
,,,-1.4E-06,0.0214475
,,,-1.39E-06,0.021286875
,,,-1.38E-06,0.021481875
,,,-1.37E-06,0.02129375
,,,-1.36E-06,0.021375625
,,,-1.35E-06,0.021609375
,,,-1.34E-06,0.021436875
,,,-1.33E-06,0.02134125
,,,-1.32E-06,0.021353125
,,,-1.31E-06,0.021703125
,,,-1.3E-06,0.021593125
,,,-1.29E-06,0.021635
,,,-1.28E-06,0.021670625
,,,-1.27E-06,0.02144625
,,,-1.26E-06,0.021475625
,,,-1.25E-06,0.021559375
,,,-1.24E-06,0.021265625
,,,-1.23E-06,0.0214
,,,-1.22E-06,0.021579375
,,,-1.21E-06,0.02132125
,,,-1.2E-06,0.021725
,,,-1.19E-06,0.021355
,,,-1.18E-06,0.02163125
,,,-1.17E-06,0.02151375
,,,-1.16E-06,0.021298125
,,,-1.15E-06,0.02148
,,,-1.14E-06,0.0216725
,,,-1.13E-06,0.0215025
,,,-1.12E-06,0.02165
,,,-1.11E-06,0.02154125
,,,-1.1E-06,0.02147125
,,,-1.09E-06,0.02160375
,,,-1.08E-06,0.021715
,,,-1.07E-06,0.021564375
,,,-1.06E-06,0.02148875
,,,-1.05E-06,0.0220175
,,,-1.04E-06,0.0217025
,,,-1.03E-06,0.02124375
,,,-1.02E-06,0.02128
,,,-1.01E-06,0.021595625
,,,-1E-06,0.0214125
,,,-9.9E-07,0.021536875
,,,-9.8E-07,0.021654375
,,,-9.7E-07,0.02155
,,,-9.6E-07,0.021128125
,,,-9.5E-07,0.021375
,,,-9.4E-07,0.021293125
,,,-9.3E-07,0.021538125
,,,-9.2E-07,0.021420625
,,,-9.1E-07,0.021519375
,,,-9E-07,0.021540625
,,,-8.9E-07,0.0215575
,,,-8.8E-07,0.0216625
,,,-8.7E-07,0.021478125
,,,-8.6E-07,0.02150875
,,,-8.5E-07,0.021571875
,,,-8.4E-07,0.02142375
,,,-8.3E-07,0.021631875
,,,-8.2E-07,0.021744375
,,,-8.1E-07,0.0214225
,,,-8E-07,0.021581875
,,,-7.9E-07,0.02185875
,,,-7.8E-07,0.02139
,,,-7.7E-07,0.021505625
,,,-7.6E-07,0.0215975
,,,-7.5E-07,0.02167
,,,-7.4E-07,0.0216225
,,,-7.3E-07,0.0215375
,,,-7.2E-07,0.02147875
,,,-7.1E-07,0.0214825
,,,-7E-07,0.021264375
,,,-6.9E-07,0.021536875
,,,-6.8E-07,0.021390625
,,,-6.7E-07,0.0212675
,,,-6.6E-07,0.021428125
,,,-6.5E-07,0.02159625
,,,-6.4E-07,0.021453125
,,,-6.3E-07,0.02158375
,,,-6.2E-07,0.021370625
,,,-6.1E-07,0.02151625
,,,-6E-07,0.021461875
,,,-5.9E-07,0.02104125
,,,-5.8E-07,0.021264375
,,,-5.7E-07,0.021283125
,,,-5.6E-07,0.021621875
,,,-5.5E-07,0.0214625
,,,-5.4E-07,0.0215325
,,,-5.3E-07,0.02174875
,,,-5.2E-07,0.021461875
,,,-5.1E-07,0.02143375
,,,-5E-07,0.021468125
,,,-4.9E-07,0.021381875
,,,-4.8E-07,0.0213425
,,,-4.7E-07,0.02145875
,,,-4.6E-07,0.021479375
,,,-4.5E-07,0.021496875
,,,-4.4E-07,0.021518125
,,,-4.3E-07,0.02144375
,,,-4.2E-07,0.021428125
,,,-4.1E-07,0.021641875
,,,-4E-07,0.0215275
,,,-3.9E-07,0.0214325
,,,-3.8E-07,0.0214975
,,,-3.7E-07,0.0215275
,,,-3.6E-07,0.021469375
,,,-3.5E-07,0.021575
,,,-3.4E-07,0.021558125
,,,-3.3E-07,0.021284375
,,,-3.2E-07,0.021498125
,,,-3.1E-07,0.0214175
,,,-3E-07,0.0214475
,,,-2.9E-07,0.021558125
,,,-2.8E-07,0.02133875
,,,-2.7E-07,0.021556875
,,,-2.6E-07,0.021534375
,,,-2.5E-07,0.021475
,,,-2.4E-07,0.021513125
,,,-2.3E-07,0.02136
,,,-2.2E-07,0.021505625
,,,-2.1E-07,0.02143875
,,,-2E-07,0.0216075
,,,-1.9E-07,0.021470625
,,,-1.8E-07,0.021539375
,,,-1.7E-07,0.02151625
,,,-1.6E-07,0.02126125
,,,-1.5E-07,0.02138875
,,,-1.4E-07,0.021499375
,,,-1.3E-07,0.021575625
,,,-1.2E-07,0.0215025
,,,-1.1E-07,0.0218625
,,,-1E-07,0.021664375
,,,-9E-08,0.021315
,,,-8E-08,0.02158375
,,,-7E-08,0.021281875
,,,-6E-08,0.02122
,,,-5E-08,0.021735
,,,-4E-08,0.022359375
,,,-3E-08,0.02195125
,,,-2E-08,0.02082875
,,,-1E-08,0.019548125
,,,0,0.020465
,,,1E-08,0.0226325
,,,2E-08,0.023535625
,,,3E-08,0.023583125
,,,4E-08,0.021678125
,,,5E-08,0.020188125
,,,6E-08,0.019494375
,,,7E-08,0.020375
,,,8E-08,0.02200875
,,,9E-08,0.023105625
,,,1E-07,0.022751875
,,,1.1E-07,0.02181
,,,1.2E-07,0.020789375
,,,1.3E-07,0.020541875
,,,1.4E-07,0.0207625
,,,1.5E-07,0.021513125
,,,1.6E-07,0.021925625
,,,1.7E-07,0.02194625
,,,1.8E-07,0.021506875
,,,1.9E-07,0.021353125
,,,2E-07,0.02136
,,,2.1E-07,0.021345625
,,,2.2E-07,0.021598125
,,,2.3E-07,0.02127625
,,,2.4E-07,0.021681875
,,,2.5E-07,0.0215275
,,,2.6E-07,0.021425625
,,,2.7E-07,0.02147875
,,,2.8E-07,0.021544375
,,,2.9E-07,0.02161625
,,,3E-07,0.02166
,,,3.1E-07,0.021621875
,,,3.2E-07,0.021289375
,,,3.3E-07,0.021483125
,,,3.4E-07,0.021563125
,,,3.5E-07,0.0215225
,,,3.6E-07,0.021315625
,,,3.7E-07,0.02126125
,,,3.8E-07,0.021595
,,,3.9E-07,0.021326875
,,,4E-07,0.021525625
,,,4.1E-07,0.021231875
,,,4.2E-07,0.021505625
,,,4.3E-07,0.021589375
,,,4.4E-07,0.021685625
,,,4.5E-07,0.02161
,,,4.6E-07,0.0215575
,,,4.7E-07,0.0216225
,,,4.8E-07,0.021305
,,,4.9E-07,0.021375
,,,5E-07,0.02132
,,,5.1E-07,0.02165
,,,5.2E-07,0.02166
,,,5.3E-07,0.0214275
,,,5.4E-07,0.021400625
,,,5.5E-07,0.02126875
,,,5.6E-07,0.021495
,,,5.7E-07,0.021939375
,,,5.8E-07,0.021375
,,,5.9E-07,0.021553125
,,,6E-07,0.021490625
,,,6.1E-07,0.02156375
,,,6.2E-07,0.021743125
,,,6.3E-07,0.02134625
,,,6.4E-07,0.021235
,,,6.5E-07,0.02134875
,,,6.6E-07,0.02158
,,,6.7E-07,0.02146
,,,6.8E-07,0.021361875
,,,6.9E-07,0.021420625
,,,7E-07,0.021423125
,,,7.1E-07,0.02166125
,,,7.2E-07,0.021318125
,,,7.3E-07,0.02144
,,,7.4E-07,0.021354375
,,,7.5E-07,0.02143375
,,,7.6E-07,0.02149375
,,,7.7E-07,0.021585625
,,,7.8E-07,0.021378125
,,,7.9E-07,0.021566875
,,,8E-07,0.021600625
,,,8.1E-07,0.021476875
,,,8.2E-07,0.021680625
,,,8.3E-07,0.021296875
,,,8.4E-07,0.021479375
,,,8.5E-07,0.0215625
,,,8.6E-07,0.021501875
,,,8.7E-07,0.021464375
,,,8.8E-07,0.02141625
,,,8.9E-07,0.021565625
,,,9E-07,0.02158
,,,9.1E-07,0.021445625
,,,9.2E-07,0.021479375
,,,9.3E-07,0.021294375
,,,9.4E-07,0.0216225
,,,9.5E-07,0.021675
,,,9.6E-07,0.0212425
,,,9.7E-07,0.0214725
,,,9.8E-07,0.02130375
,,,9.9E-07,0.02151
,,,1E-06,0.021940625
,,,1.01E-06,0.021771875
,,,1.02E-06,0.021269375
,,,1.03E-06,0.0216875
,,,1.04E-06,0.021593125
,,,1.05E-06,0.021286875
,,,1.06E-06,0.021500625
,,,1.07E-06,0.0214075
,,,1.08E-06,0.021440625
,,,1.09E-06,0.021458125
,,,1.1E-06,0.021606875
,,,1.11E-06,0.021458125
,,,1.12E-06,0.02170125
,,,1.13E-06,0.021550625
,,,1.14E-06,0.021794375
,,,1.15E-06,0.021350625
,,,1.16E-06,0.02171125
,,,1.17E-06,0.021653125
,,,1.18E-06,0.021423125
,,,1.19E-06,0.021458125
,,,1.2E-06,0.0213725
,,,1.21E-06,0.0212975
,,,1.22E-06,0.021653125
,,,1.23E-06,0.02168875
,,,1.24E-06,0.021396875
,,,1.25E-06,0.02161625
,,,1.26E-06,0.021245
,,,1.27E-06,0.021305625
,,,1.28E-06,0.0216075
,,,1.29E-06,0.021391875
,,,1.3E-06,0.02127625
,,,1.31E-06,0.021415625
,,,1.32E-06,0.02147625
,,,1.33E-06,0.021554375
,,,1.34E-06,0.021441875
,,,1.35E-06,0.021561875
,,,1.36E-06,0.021405625
,,,1.37E-06,0.021528125
,,,1.38E-06,0.021681875
,,,1.39E-06,0.021445625
,,,1.4E-06,0.021514375
,,,1.41E-06,0.021334375
,,,1.42E-06,0.021654375
,,,1.43E-06,0.021625625
,,,1.44E-06,0.021473125
,,,1.45E-06,0.02143125
,,,1.46E-06,0.021765625
,,,1.47E-06,0.021643125
,,,1.48E-06,0.0212525
,,,1.49E-06,0.021431875
,,,1.5E-06,0.021599375
,,,1.51E-06,0.0217
,,,1.52E-06,0.02174
,,,1.53E-06,0.021848125
,,,1.54E-06,0.02157875
,,,1.55E-06,0.02127375
,,,1.56E-06,0.021701875
,,,1.57E-06,0.0215175
,,,1.58E-06,0.021675625
,,,1.59E-06,0.0216275
,,,1.6E-06,0.021405
,,,1.61E-06,0.02130125
,,,1.62E-06,0.021716875
,,,1.63E-06,0.02119
,,,1.64E-06,0.021740625
,,,1.65E-06,0.021655
,,,1.66E-06,0.02136625
,,,1.67E-06,0.021451875
,,,1.68E-06,0.02146625
,,,1.69E-06,0.02153
,,,1.7E-06,0.02145375
,,,1.71E-06,0.0214525
,,,1.72E-06,0.021231875
,,,1.73E-06,0.021443125
,,,1.74E-06,0.021608125
,,,1.75E-06,0.02153375
,,,1.76E-06,0.02121625
,,,1.77E-06,0.02143625
,,,1.78E-06,0.021478125
,,,1.79E-06,0.0212675
,,,1.8E-06,0.02162625
,,,1.81E-06,0.021258125
,,,1.82E-06,0.0215525
,,,1.83E-06,0.02173375
,,,1.84E-06,0.021425
,,,1.85E-06,0.021583125
,,,1.86E-06,0.02156875
,,,1.87E-06,0.021384375
,,,1.88E-06,0.0214975
,,,1.89E-06,0.021585
,,,1.9E-06,0.0215275
,,,1.91E-06,0.02165
,,,1.92E-06,0.021555625
,,,1.93E-06,0.021561875
,,,1.94E-06,0.02176375
,,,1.95E-06,0.02173375
,,,1.96E-06,0.021575
,,,1.97E-06,0.02157875
,,,1.98E-06,0.021579375
,,,1.99E-06,0.021416875
,,,2E-06,0.021505625
,,,2.01E-06,0.021516875
,,,2.02E-06,0.021411875
,,,2.03E-06,0.02129
,,,2.04E-06,0.021225625
,,,2.05E-06,0.02178375
,,,2.06E-06,0.021445625
,,,2.07E-06,0.021595625
,,,2.08E-06,0.02139375
,,,2.09E-06,0.02158125
,,,2.1E-06,0.021574375
,,,2.11E-06,0.0216175
,,,2.12E-06,0.021388125
,,,2.13E-06,0.021344375
,,,2.14E-06,0.02152125
,,,2.15E-06,0.02128375
,,,2.16E-06,0.021605625
,,,2.17E-06,0.021365
,,,2.18E-06,0.02153375
,,,2.19E-06,0.021368125
,,,2.2E-06,0.021685
,,,2.21E-06,0.021511875
,,,2.22E-06,0.0215825
,,,2.23E-06,0.02155875
,,,2.24E-06,0.021619375
,,,2.25E-06,0.021578125
,,,2.26E-06,0.02130625
,,,2.27E-06,0.021306875
,,,2.28E-06,0.021398125
,,,2.29E-06,0.021515
,,,2.3E-06,0.02175375
,,,2.31E-06,0.02160125
,,,2.32E-06,0.021534375
,,,2.33E-06,0.021556875
,,,2.34E-06,0.021440625
,,,2.35E-06,0.0215525
,,,2.36E-06,0.02154125
,,,2.37E-06,0.02142875
,,,2.38E-06,0.02138125
,,,2.39E-06,0.02152375
,,,2.4E-06,0.021360625
,,,2.41E-06,0.021628125
,,,2.42E-06,0.021635625
,,,2.43E-06,0.0215325
,,,2.44E-06,0.02141
,,,2.45E-06,0.021385
,,,2.46E-06,0.021213125
,,,2.47E-06,0.021241875
,,,2.48E-06,0.021491875
,,,2.49E-06,0.021499375
,,,2.5E-06,0.021429375
,,,2.51E-06,0.021406875
,,,2.52E-06,0.02140125
,,,2.53E-06,0.021528125
,,,2.54E-06,0.0215475
,,,2.55E-06,0.02179125
,,,2.56E-06,0.021580625
,,,2.57E-06,0.02157375
,,,2.58E-06,0.02133
,,,2.59E-06,0.02133875
,,,2.6E-06,0.0213875
,,,2.61E-06,0.021435
,,,2.62E-06,0.021555625
,,,2.63E-06,0.021574375
,,,2.64E-06,0.02130375
,,,2.65E-06,0.021534375
,,,2.66E-06,0.021510625
,,,2.67E-06,0.021509375
,,,2.68E-06,0.0212875
,,,2.69E-06,0.02142375
,,,2.7E-06,0.021143125
,,,2.71E-06,0.021394375
,,,2.72E-06,0.02137625
,,,2.73E-06,0.021514375
,,,2.74E-06,0.02166375
,,,2.75E-06,0.02149
,,,2.76E-06,0.02161125
,,,2.77E-06,0.0215025
,,,2.78E-06,0.021315625
,,,2.79E-06,0.0214375
,,,2.8E-06,0.02159
,,,2.81E-06,0.0217275
,,,2.82E-06,0.02142
,,,2.83E-06,0.02141
,,,2.84E-06,0.02148875
,,,2.85E-06,0.021304375
,,,2.86E-06,0.0214625
,,,2.87E-06,0.021601875
,,,2.88E-06,0.021535625
,,,2.89E-06,0.02181625
,,,2.9E-06,0.02133375
,,,2.91E-06,0.021253125
,,,2.92E-06,0.02172125
,,,2.93E-06,0.021329375
,,,2.94E-06,0.021365
,,,2.95E-06,0.021345625
,,,2.96E-06,0.021321875
,,,2.97E-06,0.021504375
,,,2.98E-06,0.02177875
,,,2.99E-06,0.02159625
,,,3E-06,0.021485625
,,,3.01E-06,0.02154375
,,,3.02E-06,0.02122875
,,,3.03E-06,0.02144625
,,,3.04E-06,0.02149125
,,,3.05E-06,0.021375625
,,,3.06E-06,0.02153125
,,,3.07E-06,0.021445625
,,,3.08E-06,0.02137625
,,,3.09E-06,0.021635
,,,3.1E-06,0.021224375
,,,3.11E-06,0.021348125
,,,3.12E-06,0.02178625
,,,3.13E-06,0.021605625
,,,3.14E-06,0.0217525
,,,3.15E-06,0.021579375
,,,3.16E-06,0.021431875
,,,3.17E-06,0.02141
,,,3.18E-06,0.021450625
,,,3.19E-06,0.02150125
,,,3.2E-06,0.021501875
,,,3.21E-06,0.021339375
,,,3.22E-06,0.021414375
,,,3.23E-06,0.021615625
,,,3.24E-06,0.021354375
,,,3.25E-06,0.021568125
,,,3.26E-06,0.0210625
,,,3.27E-06,0.021580625
,,,3.28E-06,0.02156375
,,,3.29E-06,0.02143875
,,,3.3E-06,0.0213325
,,,3.31E-06,0.021738125
,,,3.32E-06,0.02140125
,,,3.33E-06,0.02179375
,,,3.34E-06,0.021504375
,,,3.35E-06,0.021516875
,,,3.36E-06,0.02160125
,,,3.37E-06,0.021578125
,,,3.38E-06,0.02143875
,,,3.39E-06,0.02165875
,,,3.4E-06,0.021389375
,,,3.41E-06,0.021540625
,,,3.42E-06,0.021603125
,,,3.43E-06,0.02147625
,,,3.44E-06,0.0214425
,,,3.45E-06,0.021376875
,,,3.46E-06,0.02163125
,,,3.47E-06,0.021525
,,,3.48E-06,0.021599375
,,,3.49E-06,0.021324375
,,,3.5E-06,0.021615625
,,,3.51E-06,0.021656875
,,,3.52E-06,0.02155125
,,,3.53E-06,0.021423125
,,,3.54E-06,0.021589375
,,,3.55E-06,0.02144625
