data/raw/Final_POL_Test_1/SOP039_Ch4.csv

"Record Length",1000,"Points",-5E-06,0.018785625
"Sample Interval",1E-08,s,-4.99E-06,0.018751875
"Trigger Point",500,"Samples",-4.98E-06,0.018653125
"Trigger Time",0,s,-4.97E-06,0.01888
"",,,-4.96E-06,0.01896
"Horizontal Offset",-5E-06,s,-4.95E-06,0.019005625
,,,-4.94E-06,0.01869875
,,,-4.93E-06,0.018874375
,,,-4.92E-06,0.01866625
,,,-4.91E-06,0.018704375
,,,-4.9E-06,0.01859
,,,-4.89E-06,0.018736875
,,,-4.88E-06,0.018800625
,,,-4.87E-06,0.018881875
,,,-4.86E-06,0.01883625
,,,-4.85E-06,0.01868125
,,,-4.84E-06,0.018718125
,,,-4.83E-06,0.018900625
,,,-4.82E-06,0.018680625
,,,-4.81E-06,0.01870375
,,,-4.8E-06,0.018728125
,,,-4.79E-06,0.018825625
,,,-4.78E-06,0.018466875
,,,-4.77E-06,0.01886
,,,-4.76E-06,0.01872
,,,-4.75E-06,0.0185
,,,-4.74E-06,0.018824375
,,,-4.73E-06,0.0190025
,,,-4.72E-06,0.0187175
,,,-4.71E-06,0.018769375
,,,-4.7E-06,0.018795
,,,-4.69E-06,0.018671875
,,,-4.68E-06,0.0186125
,,,-4.67E-06,0.019
,,,-4.66E-06,0.01884125
,,,-4.65E-06,0.0187
,,,-4.64E-06,0.01884
,,,-4.63E-06,0.018758125
,,,-4.62E-06,0.018939375
,,,-4.61E-06,0.018675625
,,,-4.6E-06,0.01897
,,,-4.59E-06,0.018875
,,,-4.58E-06,0.0188325
,,,-4.57E-06,0.018970625
,,,-4.56E-06,0.018718125
,,,-4.55E-06,0.01873875
,,,-4.54E-06,0.018548125
,,,-4.53E-06,0.018858125
,,,-4.52E-06,0.018954375
,,,-4.51E-06,0.0186475
,,,-4.5E-06,0.01868
,,,-4.49E-06,0.019233125
,,,-4.48E-06,0.018659375
,,,-4.47E-06,0.018735625
,,,-4.46E-06,0.018703125
,,,-4.45E-06,0.018644375
,,,-4.44E-06,0.018744375
,,,-4.43E-06,0.018824375
,,,-4.42E-06,0.01875
,,,-4.41E-06,0.018619375
,,,-4.4E-06,0.018484375
,,,-4.39E-06,0.018605625
,,,-4.38E-06,0.01883
,,,-4.37E-06,0.0186175
,,,-4.36E-06,0.01871
,,,-4.35E-06,0.018776875
,,,-4.34E-06,0.01880375
,,,-4.33E-06,0.0186725
,,,-4.32E-06,0.01870875
,,,-4.31E-06,0.018690625
,,,-4.3E-06,0.01909375
,,,-4.29E-06,0.018846875
,,,-4.28E-06,0.018743125
,,,-4.27E-06,0.01861
,,,-4.26E-06,0.01855125
,,,-4.25E-06,0.0187825
,,,-4.24E-06,0.018715
,,,-4.23E-06,0.018944375
,,,-4.22E-06,0.018898125
,,,-4.21E-06,0.018773125
,,,-4.2E-06,0.01877625
,,,-4.19E-06,0.0186875
,,,-4.18E-06,0.0188525
,,,-4.17E-06,0.01891625
,,,-4.16E-06,0.01877375
,,,-4.15E-06,0.0190125
,,,-4.14E-06,0.0187075
,,,-4.13E-06,0.019061875
,,,-4.12E-06,0.01870125
,,,-4.11E-06,0.018840625
,,,-4.1E-06,0.0187375
,,,-4.09E-06,0.018746875
,,,-4.08E-06,0.0188175
,,,-4.07E-06,0.01900625
,,,-4.06E-06,0.018881875
,,,-4.05E-06,0.018815
,,,-4.04E-06,0.018778125
,,,-4.03E-06,0.01870125
,,,-4.02E-06,0.018746875
,,,-4.01E-06,0.01862625
,,,-4E-06,0.019276875
,,,-3.99E-06,0.018851875
,,,-3.98E-06,0.018681875
,,,-3.97E-06,0.018763125
,,,-3.96E-06,0.018555625
,,,-3.95E-06,0.018473125
,,,-3.94E-06,0.018683125
,,,-3.93E-06,0.0187475
,,,-3.92E-06,0.018754375
,,,-3.91E-06,0.018725625
,,,-3.9E-06,0.0186475
,,,-3.89E-06,0.018698125
,,,-3.88E-06,0.018919375
,,,-3.87E-06,0.0189
,,,-3.86E-06,0.018523125
,,,-3.85E-06,0.01904
,,,-3.84E-06,0.01890125
,,,-3.83E-06,0.01895
,,,-3.82E-06,0.018830625
,,,-3.81E-06,0.018801875
,,,-3.8E-06,0.018875625
,,,-3.79E-06,0.018715
,,,-3.78E-06,0.018625
,,,-3.77E-06,0.018963125
,,,-3.76E-06,0.01863875
,,,-3.75E-06,0.019011875
,,,-3.74E-06,0.018894375
,,,-3.73E-06,0.01877125
,,,-3.72E-06,0.0189175
,,,-3.71E-06,0.018915625
,,,-3.7E-06,0.018795625
,,,-3.69E-06,0.018684375
,,,-3.68E-06,0.018838125
,,,-3.67E-06,0.01888125
,,,-3.66E-06,0.018778125
,,,-3.65E-06,0.018874375
,,,-3.64E-06,0.018861875
,,,-3.63E-06,0.018716875
,,,-3.62E-06,0.01908125
,,,-3.61E-06,0.0188325
,,,-3.6E-06,0.0187275
,,,-3.59E-06,0.01852375
,,,-3.58E-06,0.018760625
,,,-3.57E-06,0.019016875
,,,-3.56E-06,0.018958125
,,,-3.55E-06,0.0187975
,,,-3.54E-06,0.018673125
,,,-3.53E-06,0.018838125
,,,-3.52E-06,0.018968125
,,,-3.51E-06,0.019049375
,,,-3.5E-06,0.018581875
,,,-3.49E-06,0.018843125
,,,-3.48E-06,0.018814375
,,,-3.47E-06,0.01870875
,,,-3.46E-06,0.018591875
,,,-3.45E-06,0.018615625
,,,-3.44E-06,0.018745625
,,,-3.43E-06,0.01852
,,,-3.42E-06,0.0190425
,,,-3.41E-06,0.018738125
,,,-3.4E-06,0.018651875
,,,-3.39E-06,0.019146875
,,,-3.38E-06,0.018831875
,,,-3.37E-06,0.01879125
,,,-3.36E-06,0.018845625
,,,-3.35E-06,0.01890625
,,,-3.34E-06,0.018774375
,,,-3.33E-06,0.0188775
,,,-3.32E-06,0.018725
,,,-3.31E-06,0.018785
,,,-3.3E-06,0.01862
,,,-3.29E-06,0.018944375
,,,-3.28E-06,0.01888
,,,-3.27E-06,0.018750625
,,,-3.26E-06,0.018830625
,,,-3.25E-06,0.01880875
,,,-3.24E-06,0.018569375
,,,-3.23E-06,0.01862625
,,,-3.22E-06,0.01854375
,,,-3.21E-06,0.018649375
,,,-3.2E-06,0.018805
,,,-3.19E-06,0.01865
,,,-3.18E-06,0.01889625
,,,-3.17E-06,0.01885125
,,,-3.16E-06,0.01863625
,,,-3.15E-06,0.018683125
,,,-3.14E-06,0.018795625
,,,-3.13E-06,0.018645
,,,-3.12E-06,0.018808125
,,,-3.11E-06,0.018751875
,,,-3.1E-06,0.01905625
,,,-3.09E-06,0.01879125
,,,-3.08E-06,0.01857375
,,,-3.07E-06,0.018934375
,,,-3.06E-06,0.01873
,,,-3.05E-06,0.01907875
,,,-3.04E-06,0.018848125
,,,-3.03E-06,0.01858125
,,,-3.02E-06,0.018714375
,,,-3.01E-06,0.01885625
,,,-3E-06,0.01864125
,,,-2.99E-06,0.018688125
,,,-2.98E-06,0.018895
,,,-2.97E-06,0.018694375
,,,-2.96E-06,0.018463125
,,,-2.95E-06,0.018634375
,,,-2.94E-06,0.018596875
,,,-2.93E-06,0.018668125
,,,-2.92E-06,0.018803125
,,,-2.91E-06,0.018945
,,,-2.9E-06,0.019016875
,,,-2.89E-06,0.018675625
,,,-2.88E-06,0.018661875
,,,-2.87E-06,0.01870625
,,,-2.86E-06,0.018741875
,,,-2.85E-06,0.018838125
,,,-2.84E-06,0.018933125
,,,-2.83E-06,0.01893625
,,,-2.82E-06,0.0188575
,,,-2.81E-06,0.018881875
,,,-2.8E-06,0.018879375
,,,-2.79E-06,0.018749375
,,,-2.78E-06,0.01859
,,,-2.77E-06,0.0188725
,,,-2.76E-06,0.018848125
,,,-2.75E-06,0.018861875
,,,-2.74E-06,0.018659375
,,,-2.73E-06,0.0189225
,,,-2.72E-06,0.018660625
,,,-2.71E-06,0.01865625
,,,-2.7E-06,0.018905
,,,-2.69E-06,0.01874375
,,,-2.68E-06,0.01888125
,,,-2.67E-06,0.018885
,,,-2.66E-06,0.0189075
,,,-2.65E-06,0.01882375
,,,-2.64E-06,0.018635
,,,-2.63E-06,0.01880125
,,,-2.62E-06,0.01859375
,,,-2.61E-06,0.0189925
,,,-2.6E-06,0.01872
,,,-2.59E-06,0.018969375
,,,-2.58E-06,0.018735
,,,-2.57E-06,0.01860875
,,,-2.56E-06,0.01885625
,,,-2.55E-06,0.018765
,,,-2.54E-06,0.018891875
,,,-2.53E-06,0.01855375
,,,-2.52E-06,0.01873875
,,,-2.51E-06,0.018856875
,,,-2.5E-06,0.01861
,,,-2.49E-06,0.018945625
,,,-2.48E-06,0.018786875
,,,-2.47E-06,0.01861875
,,,-2.46E-06,0.01886375
,,,-2.45E-06,0.018599375
,,,-2.44E-06,0.019014375
,,,-2.43E-06,0.01877625
,,,-2.42E-06,0.018769375
,,,-2.41E-06,0.01901375
,,,-2.4E-06,0.01866125
,,,-2.39E-06,0.018703125
,,,-2.38E-06,0.01863875
,,,-2.37E-06,0.0189575
,,,-2.36E-06,0.01877625
,,,-2.35E-06,0.01866875
,,,-2.34E-06,0.019045625
,,,-2.33E-06,0.01855125
,,,-2.32E-06,0.018808125
,,,-2.31E-06,0.01882875
,,,-2.3E-06,0.01902625
,,,-2.29E-06,0.01891375
,,,-2.28E-06,0.018678125
,,,-2.27E-06,0.01882875
,,,-2.26E-06,0.0188225
,,,-2.25E-06,0.018915
,,,-2.24E-06,0.018736875
,,,-2.23E-06,0.0186175
,,,-2.22E-06,0.018671875
,,,-2.21E-06,0.01873875
,,,-2.2E-06,0.018643125
,,,-2.19E-06,0.0188775
,,,-2.18E-06,0.01885375
,,,-2.17E-06,0.01883375
,,,-2.16E-06,0.018766875
,,,-2.15E-06,0.01894
,,,-2.14E-06,0.01857625
,,,-2.13E-06,0.018891875
,,,-2.12E-06,0.018769375
,,,-2.11E-06,0.018735
,,,-2.1E-06,0.018743125
,,,-2.09E-06,0.01879375
,,,-2.08E-06,0.0189225
,,,-2.07E-06,0.0189025
,,,-2.06E-06,0.018825
,,,-2.05E-06,0.01881375
,,,-2.04E-06,0.0191325
,,,-2.03E-06,0.01899375
,,,-2.02E-06,0.018645
,,,-2.01E-06,0.01874875
,,,-2E-06,0.01887
,,,-1.99E-06,0.018811875
,,,-1.98E-06,0.018773125
,,,-1.97E-06,0.01862375
,,,-1.96E-06,0.0190175
,,,-1.95E-06,0.018725
,,,-1.94E-06,0.01874125
,,,-1.93E-06,0.018816875
,,,-1.92E-06,0.018663125
,,,-1.91E-06,0.018914375
,,,-1.9E-06,0.01876
,,,-1.89E-06,0.018974375
,,,-1.88E-06,0.0187925
,,,-1.87E-06,0.018564375
,,,-1.86E-06,0.018735
,,,-1.85E-06,0.0192825
,,,-1.84E-06,0.018520625
,,,-1.83E-06,0.01863
,,,-1.82E-06,0.0187475
,,,-1.81E-06,0.019003125
,,,-1.8E-06,0.018754375
,,,-1.79E-06,0.018930625
,,,-1.78E-06,0.018905
,,,-1.77E-06,0.0190325
,,,-1.76E-06,0.018535
,,,-1.75E-06,0.0187425
,,,-1.74E-06,0.018835
,,,-1.73E-06,0.018781875
,,,-1.72E-06,0.018915625
,,,-1.71E-06,0.018950625
,,,-1.7E-06,0.01882
,,,-1.69E-06,0.018974375
,,,-1.68E-06,0.01873
,,,-1.67E-06,0.0189825
,,,-1.66E-06,0.018848125
,,,-1.65E-06,0.0189175
,,,-1.64E-06,0.018794375
,,,-1.63E-06,0.018730625
,,,-1.62E-06,0.01888
,,,-1.61E-06,0.01874625
,,,-1.6E-06,0.01878
,,,-1.59E-06,0.019018125
,,,-1.58E-06,0.018891875
,,,-1.57E-06,0.018631875
,,,-1.56E-06,0.018706875
,,,-1.55E-06,0.01845125
,,,-1.54E-06,0.018604375
,,,-1.53E-06,0.01887625
,,,-1.52E-06,0.018899375
,,,-1.51E-06,0.018639375
,,,-1.5E-06,0.01892
,,,-1.49E-06,0.018726875
,,,-1.48E-06,0.01875
,,,-1.47E-06,0.018779375
,,,-1.46E-06,0.018800625
,,,-1.45E-06,0.018561875
,,,-1.44E-06,0.01854875
,,,-1.43E-06,0.018533125
,,,-1.42E-06,0.0189275
,,,-1.41E-06,0.018786875
,,,-1.4E-06,0.018830625
,,,-1.39E-06,0.018691875
,,,-1.38E-06,0.01862125
,,,-1.37E-06,0.018755625
,,,-1.36E-06,0.018780625
,,,-1.35E-06,0.018824375
,,,-1.34E-06,0.0189825
,,,-1.33E-06,0.018765
,,,-1.32E-06,0.018504375
,,,-1.31E-06,0.018821875
,,,-1.3E-06,0.018815625
,,,-1.29E-06,0.0186975
,,,-1.28E-06,0.018915625
,,,-1.27E-06,0.018825
,,,-1.26E-06,0.01892125
,,,-1.25E-06,0.018835
,,,-1.24E-06,0.01883
,,,-1.23E-06,0.0188875
,,,-1.22E-06,0.018646875
,,,-1.21E-06,0.018645
,,,-1.2E-06,0.018589375
,,,-1.19E-06,0.01885875
,,,-1.18E-06,0.018644375
,,,-1.17E-06,0.019056875
,,,-1.16E-06,0.018729375
,,,-1.15E-06,0.01894
,,,-1.14E-06,0.018669375
,,,-1.13E-06,0.01878875
,,,-1.12E-06,0.018811875
,,,-1.11E-06,0.01893
,,,-1.1E-06,0.01876
,,,-1.09E-06,0.018681875
,,,-1.08E-06,0.01864
,,,-1.07E-06,0.018775625
,,,-1.06E-06,0.018674375
,,,-1.05E-06,0.018714375
,,,-1.04E-06,0.01866
,,,-1.03E-06,0.018711875
,,,-1.02E-06,0.018835625
,,,-1.01E-06,0.0189325
,,,-1E-06,0.018778125
,,,-9.9E-07,0.018715625
,,,-9.8E-07,0.01871
,,,-9.7E-07,0.018831875
,,,-9.6E-07,0.01851125
,,,-9.5E-07,0.018641875
,,,-9.4E-07,0.018855
,,,-9.3E-07,0.018869375
,,,-9.2E-07,0.018820625
,,,-9.1E-07,0.018745625
,,,-9E-07,0.01880375
,,,-8.9E-07,0.01877
,,,-8.8E-07,0.018898125
,,,-8.7E-07,0.019058125
,,,-8.6E-07,0.018578125
,,,-8.5E-07,0.018861875
,,,-8.4E-07,0.01875375
,,,-8.3E-07,0.018595625
,,,-8.2E-07,0.018814375
,,,-8.1E-07,0.0189675
,,,-8E-07,0.018415625
,,,-7.9E-07,0.018473125
,,,-7.8E-07,0.019040625
,,,-7.7E-07,0.018630625
,,,-7.6E-07,0.018751875
,,,-7.5E-07,0.018713125
,,,-7.4E-07,0.018823125
,,,-7.3E-07,0.018853125
,,,-7.2E-07,0.018846875
,,,-7.1E-07,0.0188475
,,,-7E-07,0.0188325
,,,-6.9E-07,0.018790625
,,,-6.8E-07,0.0186975
,,,-6.7E-07,0.018890625
,,,-6.6E-07,0.018796875
,,,-6.5E-07,0.018925
,,,-6.4E-07,0.0185725
,,,-6.3E-07,0.018793125
,,,-6.2E-07,0.01860375
,,,-6.1E-07,0.0187975
,,,-6E-07,0.01882625
,,,-5.9E-07,0.018651875
,,,-5.8E-07,0.018583125
,,,-5.7E-07,0.019160625
,,,-5.6E-07,0.01887875
,,,-5.5E-07,0.018859375
,,,-5.4E-07,0.01881875
,,,-5.3E-07,0.01887
,,,-5.2E-07,0.0187725
,,,-5.1E-07,0.018764375
,,,-5E-07,0.018825
,,,-4.9E-07,0.01873
,,,-4.8E-07,0.0188325
,,,-4.7E-07,0.01873375
,,,-4.6E-07,0.018580625
,,,-4.5E-07,0.01897375
,,,-4.4E-07,0.01885
,,,-4.3E-07,0.018798125
,,,-4.2E-07,0.019095625
,,,-4.1E-07,0.0185625
,,,-4E-07,0.0189075
,,,-3.9E-07,0.018945625
,,,-3.8E-07,0.018741875
,,,-3.7E-07,0.01891875
,,,-3.6E-07,0.018926875
,,,-3.5E-07,0.018943125
,,,-3.4E-07,0.018954375
,,,-3.3E-07,0.01867875
,,,-3.2E-07,0.018681875
,,,-3.1E-07,0.01858125
,,,-3E-07,0.018623125
,,,-2.9E-07,0.018954375
,,,-2.8E-07,0.0186675
,,,-2.7E-07,0.018825625
,,,-2.6E-07,0.0187775
,,,-2.5E-07,0.018805
,,,-2.4E-07,0.018750625
,,,-2.3E-07,0.018825
,,,-2.2E-07,0.019071875
,,,-2.1E-07,0.018764375
,,,-2E-07,0.01892625
,,,-1.9E-07,0.018630625
,,,-1.8E-07,0.019085625
,,,-1.7E-07,0.018910625
,,,-1.6E-07,0.018615
,,,-1.5E-07,0.01902625
,,,-1.4E-07,0.01888125
,,,-1.3E-07,0.018869375
,,,-1.2E-07,0.018808125
,,,-1.1E-07,0.018495
,,,-1E-07,0.018933125
,,,-9E-08,0.018773125
,,,-8E-08,0.019049375
,,,-7E-08,0.018723125
,,,-6E-08,0.018749375
,,,-5E-08,0.019125
,,,-4E-08,0.019444375
,,,-3E-08,0.0193425
,,,-2E-08,0.017908125
,,,-1E-08,0.01772
,,,0,0.018371875
,,,1E-08,0.01970125
,,,2E-08,0.01997875
,,,3E-08,0.01933625
,,,4E-08,0.0185
,,,5E-08,0.018163125
,,,6E-08,0.017981875
,,,7E-08,0.0183525
,,,8E-08,0.018731875
,,,9E-08,0.019418125
,,,1E-07,0.019335
,,,1.1E-07,0.01891625
,,,1.2E-07,0.018338125
,,,1.3E-07,0.018269375
,,,1.4E-07,0.018610625
,,,1.5E-07,0.019136875
,,,1.6E-07,0.018995
,,,1.7E-07,0.0187125
,,,1.8E-07,0.018894375
,,,1.9E-07,0.01879
,,,2E-07,0.018880625
,,,2.1E-07,0.019045
,,,2.2E-07,0.01874625
,,,2.3E-07,0.018905
,,,2.4E-07,0.018996875
,,,2.5E-07,0.018686875
,,,2.6E-07,0.0190075
,,,2.7E-07,0.018780625
,,,2.8E-07,0.01874125
,,,2.9E-07,0.018856875
,,,3E-07,0.01876625
,,,3.1E-07,0.018985
,,,3.2E-07,0.018749375
,,,3.3E-07,0.0188625
,,,3.4E-07,0.0185525
,,,3.5E-07,0.01872375
,,,3.6E-07,0.018821875
,,,3.7E-07,0.0188875
,,,3.8E-07,0.01880625
,,,3.9E-07,0.0186625
,,,4E-07,0.018638125
,,,4.1E-07,0.0187075
,,,4.2E-07,0.018845625
,,,4.3E-07,0.0189325
,,,4.4E-07,0.018753125
,,,4.5E-07,0.0187025
,,,4.6E-07,0.0190825
,,,4.7E-07,0.018664375
,,,4.8E-07,0.01886
,,,4.9E-07,0.0187675
,,,5E-07,0.01885
,,,5.1E-07,0.018921875
,,,5.2E-07,0.018445625
,,,5.3E-07,0.018826875
,,,5.4E-07,0.018880625
,,,5.5E-07,0.0186975
,,,5.6E-07,0.018904375
,,,5.7E-07,0.018615
,,,5.8E-07,0.019104375
,,,5.9E-07,0.01860375
,,,6E-07,0.018998125
,,,6.1E-07,0.01864
,,,6.2E-07,0.01879
,,,6.3E-07,0.0188775
,,,6.4E-07,0.018689375
,,,6.5E-07,0.018961875
,,,6.6E-07,0.01866375
,,,6.7E-07,0.01873875
,,,6.8E-07,0.0185225
,,,6.9E-07,0.01878
,,,7E-07,0.0188625
,,,7.1E-07,0.018865625
,,,7.2E-07,0.0187475
,,,7.3E-07,0.018791875
,,,7.4E-07,0.018801875
,,,7.5E-07,0.0189375
,,,7.6E-07,0.018974375
,,,7.7E-07,0.01877125
,,,7.8E-07,0.01859875
,,,7.9E-07,0.018763125
,,,8E-07,0.018739375
,,,8.1E-07,0.018599375
,,,8.2E-07,0.0188475
,,,8.3E-07,0.018955
,,,8.4E-07,0.019006875
,,,8.5E-07,0.018655625
,,,8.6E-07,0.01880875
,,,8.7E-07,0.0185875
,,,8.8E-07,0.01878
,,,8.9E-07,0.018898125
,,,9E-07,0.018664375
,,,9.1E-07,0.01885875
,,,9.2E-07,0.018904375
,,,9.3E-07,0.018691875
,,,9.4E-07,0.01894
,,,9.5E-07,0.018781875
,,,9.6E-07,0.01884
,,,9.7E-07,0.019056875
,,,9.8E-07,0.018649375
,,,9.9E-07,0.01888625
,,,1E-06,0.018665
,,,1.01E-06,0.01875375
,,,1.02E-06,0.018780625
,,,1.03E-06,0.019044375
,,,1.04E-06,0.018689375
,,,1.05E-06,0.0187925
,,,1.06E-06,0.01896
,,,1.07E-06,0.01900625
,,,1.08E-06,0.018858125
,,,1.09E-06,0.018904375
,,,1.1E-06,0.01872
,,,1.11E-06,0.018808125
,,,1.12E-06,0.0186875
,,,1.13E-06,0.018569375
,,,1.14E-06,0.01861625
,,,1.15E-06,0.01863125
,,,1.16E-06,0.018555
,,,1.17E-06,0.018945
,,,1.18E-06,0.01867
,,,1.19E-06,0.01861625
,,,1.2E-06,0.018875
,,,1.21E-06,0.0186975
,,,1.22E-06,0.01860125
,,,1.23E-06,0.018774375
,,,1.24E-06,0.0188125
,,,1.25E-06,0.018765
,,,1.26E-06,0.01890125
,,,1.27E-06,0.018856875
,,,1.28E-06,0.01862875
,,,1.29E-06,0.01854625
,,,1.3E-06,0.018935
,,,1.31E-06,0.018830625
,,,1.32E-06,0.01855875
,,,1.33E-06,0.018550625
,,,1.34E-06,0.018785
,,,1.35E-06,0.018796875
,,,1.36E-06,0.0188
,,,1.37E-06,0.018600625
,,,1.38E-06,0.01902875
,,,1.39E-06,0.01882875
,,,1.4E-06,0.01906625
,,,1.41E-06,0.01861625
,,,1.42E-06,0.018655
,,,1.43E-06,0.018600625
,,,1.44E-06,0.01886375
,,,1.45E-06,0.018765625
,,,1.46E-06,0.018849375
,,,1.47E-06,0.019028125
,,,1.48E-06,0.0186625
,,,1.49E-06,0.0186825
,,,1.5E-06,0.0188625
,,,1.51E-06,0.0190675
,,,1.52E-06,0.018619375
,,,1.53E-06,0.01856625
,,,1.54E-06,0.018765
,,,1.55E-06,0.018964375
,,,1.56E-06,0.018875625
,,,1.57E-06,0.018866875
,,,1.58E-06,0.01875875
,,,1.59E-06,0.0188425
,,,1.6E-06,0.018856875
,,,1.61E-06,0.0184425
,,,1.62E-06,0.018904375
,,,1.63E-06,0.0187375
,,,1.64E-06,0.01869375
,,,1.65E-06,0.018799375
,,,1.66E-06,0.0185775
,,,1.67E-06,0.018754375
,,,1.68E-06,0.018905625
,,,1.69E-06,0.018829375
,,,1.7E-06,0.018360625
,,,1.71E-06,0.018770625
,,,1.72E-06,0.01884375
,,,1.73E-06,0.01891
,,,1.74E-06,0.01891875
,,,1.75E-06,0.01895
,,,1.76E-06,0.01878875
,,,1.77E-06,0.018875
,,,1.78E-06,0.01871
,,,1.79E-06,0.01882125
,,,1.8E-06,0.01870375
,,,1.81E-06,0.018945
,,,1.82E-06,0.018881875
,,,1.83E-06,0.018810625
,,,1.84E-06,0.018741875
,,,1.85E-06,0.01856125
,,,1.86E-06,0.0186975
,,,1.87E-06,0.018823125
,,,1.88E-06,0.018685625
,,,1.89E-06,0.01885875
,,,1.9E-06,0.019068125
,,,1.91E-06,0.018886875
,,,1.92E-06,0.01897125
,,,1.93E-06,0.01864625
,,,1.94E-06,0.01907125
,,,1.95E-06,0.01895
,,,1.96E-06,0.01877375
,,,1.97E-06,0.01889
,,,1.98E-06,0.01889875
,,,1.99E-06,0.01868875
,,,2E-06,0.018909375
,,,2.01E-06,0.0189925
,,,2.02E-06,0.018899375
,,,2.03E-06,0.018649375
,,,2.04E-06,0.0189475
,,,2.05E-06,0.018650625
,,,2.06E-06,0.018995
,,,2.07E-06,0.01877625
,,,2.08E-06,0.018719375
,,,2.09E-06,0.018945
,,,2.1E-06,0.0188325
,,,2.11E-06,0.01873375
,,,2.12E-06,0.01883875
,,,2.13E-06,0.01886375
,,,2.14E-06,0.018708125
,,,2.15E-06,0.018616875
,,,2.16E-06,0.018800625
,,,2.17E-06,0.018826875
,,,2.18E-06,0.018713125
,,,2.19E-06,0.01867
,,,2.2E-06,0.018644375
,,,2.21E-06,0.01867125
,,,2.22E-06,0.01887125
,,,2.23E-06,0.018768125
,,,2.24E-06,0.018769375
,,,2.25E-06,0.01883125
,,,2.26E-06,0.01881625
,,,2.27E-06,0.018730625
,,,2.28E-06,0.01894625
,,,2.29E-06,0.018745
,,,2.3E-06,0.018874375
,,,2.31E-06,0.019040625
,,,2.32E-06,0.0189475
,,,2.33E-06,0.01900125
,,,2.34E-06,0.018919375
,,,2.35E-06,0.018851875
,,,2.36E-06,0.0186125
,,,2.37E-06,0.018653125
,,,2.38E-06,0.0187125
,,,2.39E-06,0.018735
,,,2.4E-06,0.0190225
,,,2.41E-06,0.0188675
,,,2.42E-06,0.018749375
,,,2.43E-06,0.018668125
,,,2.44E-06,0.018595625
,,,2.45E-06,0.018764375
,,,2.46E-06,0.018746875
,,,2.47E-06,0.018739375
,,,2.48E-06,0.0187925
,,,2.49E-06,0.018551875
,,,2.5E-06,0.019029375
,,,2.51E-06,0.018953125
,,,2.52E-06,0.0189375
,,,2.53E-06,0.01889875
,,,2.54E-06,0.018991875
,,,2.55E-06,0.01898125
,,,2.56E-06,0.018723125
,,,2.57E-06,0.018730625
,,,2.58E-06,0.01878375
,,,2.59E-06,0.018830625
,,,2.6E-06,0.018520625
,,,2.61E-06,0.018619375
,,,2.62E-06,0.018804375
,,,2.63E-06,0.01880375
,,,2.64E-06,0.018828125
,,,2.65E-06,0.01886
,,,2.66E-06,0.018913125
,,,2.67E-06,0.018738125
,,,2.68E-06,0.0187075
,,,2.69E-06,0.01893375
,,,2.7E-06,0.01866125
,,,2.71E-06,0.018549375
,,,2.72E-06,0.018695625
,,,2.73E-06,0.01891875
,,,2.74E-06,0.01876375
,,,2.75E-06,0.018691875
,,,2.76E-06,0.018683125
,,,2.77E-06,0.018805625
,,,2.78E-06,0.01861625
,,,2.79E-06,0.0187425
,,,2.8E-06,0.018848125
,,,2.81E-06,0.019033125
,,,2.82E-06,0.018715625
,,,2.83E-06,0.0189325
,,,2.84E-06,0.018945625
,,,2.85E-06,0.01834625
,,,2.86E-06,0.01875
,,,2.87E-06,0.0188425
,,,2.88E-06,0.01906125
,,,2.89E-06,0.018750625
,,,2.9E-06,0.01882375
,,,2.91E-06,0.018780625
,,,2.92E-06,0.018794375
,,,2.93E-06,0.018746875
,,,2.94E-06,0.01893375
,,,2.95E-06,0.018976875
,,,2.96E-06,0.018754375
,,,2.97E-06,0.01887875
,,,2.98E-06,0.018819375
,,,2.99E-06,0.018525625
,,,3E-06,0.018629375
,,,3.01E-06,0.018920625
,,,3.02E-06,0.01896875
,,,3.03E-06,0.01865125
,,,3.04E-06,0.0188
,,,3.05E-06,0.01888125
,,,3.06E-06,0.018943125
,,,3.07E-06,0.0186825
,,,3.08E-06,0.018685
,,,3.09E-06,0.018630625
,,,3.1E-06,0.01875125
,,,3.11E-06,0.0190125
,,,3.12E-06,0.01898625
,,,3.13E-06,0.018750625
,,,3.14E-06,0.018910625
,,,3.15E-06,0.01897
,,,3.16E-06,0.018654375
,,,3.17E-06,0.01859375
,,,3.18E-06,0.018848125
,,,3.19E-06,0.01866125
,,,3.2E-06,0.019000625
,,,3.21E-06,0.0187275
,,,3.22E-06,0.018874375
,,,3.23E-06,0.01877
,,,3.24E-06,0.018838125
,,,3.25E-06,0.0188125
,,,3.26E-06,0.018951875
,,,3.27E-06,0.018796875
,,,3.28E-06,0.018954375
,,,3.29E-06,0.01876625
,,,3.3E-06,0.018821875
,,,3.31E-06,0.018791875
,,,3.32E-06,0.0189425
,,,3.33E-06,0.0188275
,,,3.34E-06,0.018914375
,,,3.35E-06,0.01895875
,,,3.36E-06,0.0187125
,,,3.37E-06,0.018658125
,,,3.38E-06,0.018956875
,,,3.39E-06,0.01874625
,,,3.4E-06,0.01882875
,,,3.41E-06,0.018648125
,,,3.42E-06,0.01858125
,,,3.43E-06,0.018698125
,,,3.44E-06,0.018774375
,,,3.45E-06,0.018826875
,,,3.46E-06,0.0187775
,,,3.47E-06,0.01867375
,,,3.48E-06,0.018836875
,,,3.49E-06,0.0186725
,,,3.5E-06,0.018814375
,,,3.51E-06,0.018946875
,,,3.52E-06,0.018943125
,,,3.53E-06,0.0187425
,,,3.54E-06,0.0188725
,,,3.55E-06,0.01905875
,,,3.56E-06,0.018614375
,,,3.57E-06,0.018856875
,,,3.58E-06,0.01871125
,,,3.59E-06,0.01866
