data/raw/Final_POL_Test_1/SOP089_Ch3.csv

"Record Length",1000,"Points",-5E-06,0.021920001
"Sample Interval",1E-08,s,-4.99E-06,0.022040001
"Trigger Point",500,"Samples",-4.98E-06,0.022042501
"Trigger Time",0,s,-4.97E-06,0.021813126
"",,,-4.96E-06,0.022036876
"Horizontal Offset",-5E-06,s,-4.95E-06,0.021819376
,,,-4.94E-06,0.021806876
,,,-4.93E-06,0.021948751
,,,-4.92E-06,0.021721876
,,,-4.91E-06,0.022136251
,,,-4.9E-06,0.021946876
,,,-4.89E-06,0.021888751
,,,-4.88E-06,0.022114376
,,,-4.87E-06,0.021941251
,,,-4.86E-06,0.021940001
,,,-4.85E-06,0.021828751
,,,-4.84E-06,0.021838751
,,,-4.83E-06,0.021795001
,,,-4.82E-06,0.021958126
,,,-4.81E-06,0.021774376
,,,-4.8E-06,0.021853751
,,,-4.79E-06,0.021938751
,,,-4.78E-06,0.021486876
,,,-4.77E-06,0.022198126
,,,-4.76E-06,0.021929376
,,,-4.75E-06,0.021862501
,,,-4.74E-06,0.021990001
,,,-4.73E-06,0.021910001
,,,-4.72E-06,0.022098126
,,,-4.71E-06,0.021617501
,,,-4.7E-06,0.021935001
,,,-4.69E-06,0.021717501
,,,-4.68E-06,0.022041876
,,,-4.67E-06,0.021873126
,,,-4.66E-06,0.021711876
,,,-4.65E-06,0.021770001
,,,-4.64E-06,0.021784376
,,,-4.63E-06,0.022037501
,,,-4.62E-06,0.022075001
,,,-4.61E-06,0.021910626
,,,-4.6E-06,0.021941251
,,,-4.59E-06,0.021913751
,,,-4.58E-06,0.021841876
,,,-4.57E-06,0.021758126
,,,-4.56E-06,0.021900001
,,,-4.55E-06,0.021953126
,,,-4.54E-06,0.021949376
,,,-4.53E-06,0.021946251
,,,-4.52E-06,0.021708126
,,,-4.51E-06,0.021762501
,,,-4.5E-06,0.021901876
,,,-4.49E-06,0.022123126
,,,-4.48E-06,0.021983126
,,,-4.47E-06,0.021755001
,,,-4.46E-06,0.021844376
,,,-4.45E-06,0.021973126
,,,-4.44E-06,0.021920001
,,,-4.43E-06,0.021896251
,,,-4.42E-06,0.021847501
,,,-4.41E-06,0.022019376
,,,-4.4E-06,0.021915626
,,,-4.39E-06,0.022030001
,,,-4.38E-06,0.021903751
,,,-4.37E-06,0.022091251
,,,-4.36E-06,0.021733751
,,,-4.35E-06,0.021669376
,,,-4.34E-06,0.021854376
,,,-4.33E-06,0.021885626
,,,-4.32E-06,0.022021876
,,,-4.31E-06,0.021875626
,,,-4.3E-06,0.021951876
,,,-4.29E-06,0.022231876
,,,-4.28E-06,0.021680626
,,,-4.27E-06,0.021845626
,,,-4.26E-06,0.022166251
,,,-4.25E-06,0.022123126
,,,-4.24E-06,0.021975626
,,,-4.23E-06,0.021890001
,,,-4.22E-06,0.021802501
,,,-4.21E-06,0.022253126
,,,-4.2E-06,0.021945001
,,,-4.19E-06,0.022011251
,,,-4.18E-06,0.021916251
,,,-4.17E-06,0.021665001
,,,-4.16E-06,0.021746876
,,,-4.15E-06,0.021828126
,,,-4.14E-06,0.021882501
,,,-4.13E-06,0.021889376
,,,-4.12E-06,0.021933751
,,,-4.11E-06,0.022001876
,,,-4.1E-06,0.021706251
,,,-4.09E-06,0.022084376
,,,-4.08E-06,0.021921876
,,,-4.07E-06,0.021831876
,,,-4.06E-06,0.021823126
,,,-4.05E-06,0.021940626
,,,-4.04E-06,0.021961876
,,,-4.03E-06,0.021962501
,,,-4.02E-06,0.021753126
,,,-4.01E-06,0.021905001
,,,-4E-06,0.021853126
,,,-3.99E-06,0.021731876
,,,-3.98E-06,0.021931876
,,,-3.97E-06,0.021984376
,,,-3.96E-06,0.021842501
,,,-3.95E-06,0.021915001
,,,-3.94E-06,0.021967501
,,,-3.93E-06,0.021984376
,,,-3.92E-06,0.022011251
,,,-3.91E-06,0.021875626
,,,-3.9E-06,0.022015626
,,,-3.89E-06,0.021716251
,,,-3.88E-06,0.021760626
,,,-3.87E-06,0.021905626
,,,-3.86E-06,0.021960626
,,,-3.85E-06,0.021721876
,,,-3.84E-06,0.022030626
,,,-3.83E-06,0.022134376
,,,-3.82E-06,0.022032501
,,,-3.81E-06,0.022087501
,,,-3.8E-06,0.021982501
,,,-3.79E-06,0.022094376
,,,-3.78E-06,0.022100626
,,,-3.77E-06,0.022029376
,,,-3.76E-06,0.021734376
,,,-3.75E-06,0.021835626
,,,-3.74E-06,0.022040001
,,,-3.73E-06,0.021951876
,,,-3.72E-06,0.022015626
,,,-3.71E-06,0.021666876
,,,-3.7E-06,0.021881876
,,,-3.69E-06,0.021698126
,,,-3.68E-06,0.021672501
,,,-3.67E-06,0.021694376
,,,-3.66E-06,0.021951251
,,,-3.65E-06,0.021814376
,,,-3.64E-06,0.022062501
,,,-3.63E-06,0.021780626
,,,-3.62E-06,0.021930001
,,,-3.61E-06,0.021920001
,,,-3.6E-06,0.022095626
,,,-3.59E-06,0.021843751
,,,-3.58E-06,0.021763751
,,,-3.57E-06,0.021748751
,,,-3.56E-06,0.021889376
,,,-3.55E-06,0.021771251
,,,-3.54E-06,0.021798751
,,,-3.53E-06,0.021998126
,,,-3.52E-06,0.021758751
,,,-3.51E-06,0.021777501
,,,-3.5E-06,0.021813126
,,,-3.49E-06,0.021990626
,,,-3.48E-06,0.021792501
,,,-3.47E-06,0.021847501
,,,-3.46E-06,0.021638751
,,,-3.45E-06,0.021836251
,,,-3.44E-06,0.022171876
,,,-3.43E-06,0.021700001
,,,-3.42E-06,0.021933126
,,,-3.41E-06,0.021780626
,,,-3.4E-06,0.021883751
,,,-3.39E-06,0.021883751
,,,-3.38E-06,0.022023126
,,,-3.37E-06,0.022008751
,,,-3.36E-06,0.021696251
,,,-3.35E-06,0.021920001
,,,-3.34E-06,0.021828751
,,,-3.33E-06,0.022078126
,,,-3.32E-06,0.021955626
,,,-3.31E-06,0.021993126
,,,-3.3E-06,0.021974376
,,,-3.29E-06,0.021793751
,,,-3.28E-06,0.021913751
,,,-3.27E-06,0.022132501
,,,-3.26E-06,0.021676876
,,,-3.25E-06,0.021938126
,,,-3.24E-06,0.021759376
,,,-3.23E-06,0.021847501
,,,-3.22E-06,0.022183751
,,,-3.21E-06,0.021885626
,,,-3.2E-06,0.021840001
,,,-3.19E-06,0.021828751
,,,-3.18E-06,0.022090001
,,,-3.17E-06,0.021935001
,,,-3.16E-06,0.021961876
,,,-3.15E-06,0.022020626
,,,-3.14E-06,0.021898751
,,,-3.13E-06,0.021950626
,,,-3.12E-06,0.021775001
,,,-3.11E-06,0.022071251
,,,-3.1E-06,0.021891251
,,,-3.09E-06,0.022025626
,,,-3.08E-06,0.021878126
,,,-3.07E-06,0.022041876
,,,-3.06E-06,0.022200001
,,,-3.05E-06,0.021712501
,,,-3.04E-06,0.022248126
,,,-3.03E-06,0.021964376
,,,-3.02E-06,0.022001876
,,,-3.01E-06,0.021911876
,,,-3E-06,0.022072501
,,,-2.99E-06,0.021860626
,,,-2.98E-06,0.021925626
,,,-2.97E-06,0.021892501
,,,-2.96E-06,0.021830001
,,,-2.95E-06,0.021917501
,,,-2.94E-06,0.021803126
,,,-2.93E-06,0.022042501
,,,-2.92E-06,0.021741876
,,,-2.91E-06,0.021963751
,,,-2.9E-06,0.022131876
,,,-2.89E-06,0.021895001
,,,-2.88E-06,0.021930001
,,,-2.87E-06,0.021886876
,,,-2.86E-06,0.021971876
,,,-2.85E-06,0.022025626
,,,-2.84E-06,0.021927501
,,,-2.83E-06,0.022062501
,,,-2.82E-06,0.022180626
,,,-2.81E-06,0.021905626
,,,-2.8E-06,0.021896876
,,,-2.79E-06,0.021773751
,,,-2.78E-06,0.021961251
,,,-2.77E-06,0.021793126
,,,-2.76E-06,0.021976876
,,,-2.75E-06,0.022092501
,,,-2.74E-06,0.021780626
,,,-2.73E-06,0.022109376
,,,-2.72E-06,0.022015626
,,,-2.71E-06,0.021811876
,,,-2.7E-06,0.021601251
,,,-2.69E-06,0.022188126
,,,-2.68E-06,0.022151876
,,,-2.67E-06,0.021940001
,,,-2.66E-06,0.021871876
,,,-2.65E-06,0.022030626
,,,-2.64E-06,0.021983126
,,,-2.63E-06,0.021997501
,,,-2.62E-06,0.021903751
,,,-2.61E-06,0.021632501
,,,-2.6E-06,0.022066251
,,,-2.59E-06,0.021789376
,,,-2.58E-06,0.021964376
,,,-2.57E-06,0.021610001
,,,-2.56E-06,0.021980001
,,,-2.55E-06,0.021716251
,,,-2.54E-06,0.021779376
,,,-2.53E-06,0.022140001
,,,-2.52E-06,0.022038126
,,,-2.51E-06,0.021856251
,,,-2.5E-06,0.021715001
,,,-2.49E-06,0.021802501
,,,-2.48E-06,0.021786251
,,,-2.47E-06,0.022010626
,,,-2.46E-06,0.021946876
,,,-2.45E-06,0.021996251
,,,-2.44E-06,0.021941251
,,,-2.43E-06,0.021785626
,,,-2.42E-06,0.022116876
,,,-2.41E-06,0.021830626
,,,-2.4E-06,0.021890626
,,,-2.39E-06,0.021868751
,,,-2.38E-06,0.022035626
,,,-2.37E-06,0.022007501
,,,-2.36E-06,0.022089376
,,,-2.35E-06,0.021889376
,,,-2.34E-06,0.021909376
,,,-2.33E-06,0.022054376
,,,-2.32E-06,0.021729376
,,,-2.31E-06,0.022068751
,,,-2.3E-06,0.022000626
,,,-2.29E-06,0.022111251
,,,-2.28E-06,0.021683751
,,,-2.27E-06,0.022047501
,,,-2.26E-06,0.021881251
,,,-2.25E-06,0.022075001
,,,-2.24E-06,0.022107501
,,,-2.23E-06,0.021810626
,,,-2.22E-06,0.021801251
,,,-2.21E-06,0.021838126
,,,-2.2E-06,0.021990001
,,,-2.19E-06,0.021870001
,,,-2.18E-06,0.021815626
,,,-2.17E-06,0.021948126
,,,-2.16E-06,0.022033126
,,,-2.15E-06,0.021947501
,,,-2.14E-06,0.021946876
,,,-2.13E-06,0.021720001
,,,-2.12E-06,0.022039376
,,,-2.11E-06,0.021685626
,,,-2.1E-06,0.021973126
,,,-2.09E-06,0.021871876
,,,-2.08E-06,0.021681876
,,,-2.07E-06,0.021893126
,,,-2.06E-06,0.022005001
,,,-2.05E-06,0.022009376
,,,-2.04E-06,0.021835001
,,,-2.03E-06,0.021735626
,,,-2.02E-06,0.021927501
,,,-2.01E-06,0.021956251
,,,-2E-06,0.021808126
,,,-1.99E-06,0.021895626
,,,-1.98E-06,0.022050626
,,,-1.97E-06,0.021697501
,,,-1.96E-06,0.021783126
,,,-1.95E-06,0.021532501
,,,-1.94E-06,0.021600001
,,,-1.93E-06,0.021880001
,,,-1.92E-06,0.021884376
,,,-1.91E-06,0.021885001
,,,-1.9E-06,0.021806876
,,,-1.89E-06,0.021813126
,,,-1.88E-06,0.021973126
,,,-1.87E-06,0.022063126
,,,-1.86E-06,0.021676251
,,,-1.85E-06,0.021753126
,,,-1.84E-06,0.022004376
,,,-1.83E-06,0.021814376
,,,-1.82E-06,0.022018126
,,,-1.81E-06,0.022110001
,,,-1.8E-06,0.021885001
,,,-1.79E-06,0.021888126
,,,-1.78E-06,0.021828126
,,,-1.77E-06,0.021921876
,,,-1.76E-06,0.021796876
,,,-1.75E-06,0.021914376
,,,-1.74E-06,0.021781251
,,,-1.73E-06,0.021908751
,,,-1.72E-06,0.021852501
,,,-1.71E-06,0.021926876
,,,-1.7E-06,0.022168126
,,,-1.69E-06,0.022042501
,,,-1.68E-06,0.021707501
,,,-1.67E-06,0.022047501
,,,-1.66E-06,0.021842501
,,,-1.65E-06,0.021940001
,,,-1.64E-06,0.021666876
,,,-1.63E-06,0.021833126
,,,-1.62E-06,0.021973126
,,,-1.61E-06,0.021942501
,,,-1.6E-06,0.021828751
,,,-1.59E-06,0.021870001
,,,-1.58E-06,0.021900626
,,,-1.57E-06,0.021906876
,,,-1.56E-06,0.021994376
,,,-1.55E-06,0.021738126
,,,-1.54E-06,0.022055626
,,,-1.53E-06,0.021886876
,,,-1.52E-06,0.022193126
,,,-1.51E-06,0.022021251
,,,-1.5E-06,0.021847501
,,,-1.49E-06,0.021975001
,,,-1.48E-06,0.021942501
,,,-1.47E-06,0.022052501
,,,-1.46E-06,0.021773126
,,,-1.45E-06,0.021938751
,,,-1.44E-06,0.021866876
,,,-1.43E-06,0.021968126
,,,-1.42E-06,0.021817501
,,,-1.41E-06,0.021975626
,,,-1.4E-06,0.022121251
,,,-1.39E-06,0.022003126
,,,-1.38E-06,0.021795001
,,,-1.37E-06,0.021893126
,,,-1.36E-06,0.021750001
,,,-1.35E-06,0.021720001
,,,-1.34E-06,0.022125626
,,,-1.33E-06,0.021813751
,,,-1.32E-06,0.022074376
,,,-1.31E-06,0.022100001
,,,-1.3E-06,0.022045626
,,,-1.29E-06,0.021894376
,,,-1.28E-06,0.022235626
,,,-1.27E-06,0.021893126
,,,-1.26E-06,0.021803751
,,,-1.25E-06,0.021869376
,,,-1.24E-06,0.022033126
,,,-1.23E-06,0.021690626
,,,-1.22E-06,0.021905001
,,,-1.21E-06,0.021860626
,,,-1.2E-06,0.021890001
,,,-1.19E-06,0.021925001
,,,-1.18E-06,0.021885001
,,,-1.17E-06,0.021948126
,,,-1.16E-06,0.022017501
,,,-1.15E-06,0.021798751
,,,-1.14E-06,0.021745626
,,,-1.13E-06,0.021912501
,,,-1.12E-06,0.021895001
,,,-1.11E-06,0.021927501
,,,-1.1E-06,0.022170626
,,,-1.09E-06,0.021811251
,,,-1.08E-06,0.021800626
,,,-1.07E-06,0.021831876
,,,-1.06E-06,0.021866251
,,,-1.05E-06,0.021840001
,,,-1.04E-06,0.021958126
,,,-1.03E-06,0.021800001
,,,-1.02E-06,0.021960001
,,,-1.01E-06,0.022005626
,,,-1E-06,0.021816251
,,,-9.9E-07,0.021839376
,,,-9.8E-07,0.021917501
,,,-9.7E-07,0.021848126
,,,-9.6E-07,0.021936876
,,,-9.5E-07,0.022025001
,,,-9.4E-07,0.022010001
,,,-9.3E-07,0.021902501
,,,-9.2E-07,0.021712501
,,,-9.1E-07,0.022013126
,,,-9E-07,0.021750626
,,,-8.9E-07,0.021905626
,,,-8.8E-07,0.021737501
,,,-8.7E-07,0.021820001
,,,-8.6E-07,0.022057501
,,,-8.5E-07,0.021952501
,,,-8.4E-07,0.021688751
,,,-8.3E-07,0.022048126
,,,-8.2E-07,0.021806876
,,,-8.1E-07,0.021728751
,,,-8E-07,0.021571876
,,,-7.9E-07,0.021705626
,,,-7.8E-07,0.021865001
,,,-7.7E-07,0.022027501
,,,-7.6E-07,0.021862501
,,,-7.5E-07,0.021822501
,,,-7.4E-07,0.022026876
,,,-7.3E-07,0.022110001
,,,-7.2E-07,0.021892501
,,,-7.1E-07,0.022011876
,,,-7E-07,0.021803751
,,,-6.9E-07,0.022040001
,,,-6.8E-07,0.021843751
,,,-6.7E-07,0.022103751
,,,-6.6E-07,0.021622501
,,,-6.5E-07,0.021734376
,,,-6.4E-07,0.021951876
,,,-6.3E-07,0.021779376
,,,-6.2E-07,0.021921251
,,,-6.1E-07,0.022118126
,,,-6E-07,0.021730001
,,,-5.9E-07,0.021985001
,,,-5.8E-07,0.021891251
,,,-5.7E-07,0.021755001
,,,-5.6E-07,0.021940001
,,,-5.5E-07,0.021817501
,,,-5.4E-07,0.021837501
,,,-5.3E-07,0.021760626
,,,-5.2E-07,0.021855626
,,,-5.1E-07,0.022068751
,,,-5E-07,0.022106251
,,,-4.9E-07,0.021796876
,,,-4.8E-07,0.021973751
,,,-4.7E-07,0.021901251
,,,-4.6E-07,0.021708751
,,,-4.5E-07,0.022086251
,,,-4.4E-07,0.022145626
,,,-4.3E-07,0.021988126
,,,-4.2E-07,0.021786876
,,,-4.1E-07,0.022068126
,,,-4E-07,0.021866876
,,,-3.9E-07,0.021775626
,,,-3.8E-07,0.021848751
,,,-3.7E-07,0.021829376
,,,-3.6E-07,0.021910001
,,,-3.5E-07,0.021961251
,,,-3.4E-07,0.021662501
,,,-3.3E-07,0.021910001
,,,-3.2E-07,0.022010001
,,,-3.1E-07,0.021931251
,,,-3E-07,0.021768126
,,,-2.9E-07,0.021975626
,,,-2.8E-07,0.021715001
,,,-2.7E-07,0.021804376
,,,-2.6E-07,0.021870626
,,,-2.5E-07,0.022118126
,,,-2.4E-07,0.021908126
,,,-2.3E-07,0.021748126
,,,-2.2E-07,0.021868751
,,,-2.1E-07,0.021961251
,,,-2E-07,0.021815626
,,,-1.9E-07,0.022008126
,,,-1.8E-07,0.021958751
,,,-1.7E-07,0.021765001
,,,-1.6E-07,0.021834376
,,,-1.5E-07,0.021961251
,,,-1.4E-07,0.021923751
,,,-1.3E-07,0.021700626
,,,-1.2E-07,0.021805001
,,,-1.1E-07,0.021840626
,,,-1E-07,0.021756876
,,,-9E-08,0.021941251
,,,-8E-08,0.021852501
,,,-7E-08,0.021671876
,,,-6E-08,0.021941251
,,,-5E-08,0.022368751
,,,-4E-08,0.022121876
,,,-3E-08,0.021339376
,,,-2E-08,0.021176251
,,,-1E-08,0.021317501
,,,0,0.021905001
,,,1E-08,0.022633751
,,,2E-08,0.022970001
,,,3E-08,0.021895001
,,,4E-08,0.021549376
,,,5E-08,0.021280001
,,,6E-08,0.021341876
,,,7E-08,0.021982501
,,,8E-08,0.022049376
,,,9E-08,0.022456251
,,,1E-07,0.021861876
,,,1.1E-07,0.021718126
,,,1.2E-07,0.021674376
,,,1.3E-07,0.021710001
,,,1.4E-07,0.021675001
,,,1.5E-07,0.022052501
,,,1.6E-07,0.021963751
,,,1.7E-07,0.021963751
,,,1.8E-07,0.021860001
,,,1.9E-07,0.021835001
,,,2E-07,0.021816251
,,,2.1E-07,0.021835001
,,,2.2E-07,0.021736251
,,,2.3E-07,0.021722501
,,,2.4E-07,0.021757501
,,,2.5E-07,0.021900001
,,,2.6E-07,0.022057501
,,,2.7E-07,0.021984376
,,,2.8E-07,0.021946876
,,,2.9E-07,0.021973126
,,,3E-07,0.021762501
,,,3.1E-07,0.021939376
,,,3.2E-07,0.022011251
,,,3.3E-07,0.022047501
,,,3.4E-07,0.021955626
,,,3.5E-07,0.021893751
,,,3.6E-07,0.021823126
,,,3.7E-07,0.022046876
,,,3.8E-07,0.021835001
,,,3.9E-07,0.021963751
,,,4E-07,0.021961876
,,,4.1E-07,0.021746876
,,,4.2E-07,0.021927501
,,,4.3E-07,0.021938126
,,,4.4E-07,0.021947501
,,,4.5E-07,0.021801251
,,,4.6E-07,0.022105001
,,,4.7E-07,0.021957501
,,,4.8E-07,0.021785001
,,,4.9E-07,0.021932501
,,,5E-07,0.021926876
,,,5.1E-07,0.021965626
,,,5.2E-07,0.021703751
,,,5.3E-07,0.022066251
,,,5.4E-07,0.021790001
,,,5.5E-07,0.021837501
,,,5.6E-07,0.021567501
,,,5.7E-07,0.021695001
,,,5.8E-07,0.021819376
,,,5.9E-07,0.021843751
,,,6E-07,0.022052501
,,,6.1E-07,0.021870001
,,,6.2E-07,0.021743126
,,,6.3E-07,0.021780626
,,,6.4E-07,0.021801251
,,,6.5E-07,0.022027501
,,,6.6E-07,0.022150626
,,,6.7E-07,0.022031876
,,,6.8E-07,0.022048126
,,,6.9E-07,0.021993126
,,,7E-07,0.021741876
,,,7.1E-07,0.022097501
,,,7.2E-07,0.022018126
,,,7.3E-07,0.022046251
,,,7.4E-07,0.021694376
,,,7.5E-07,0.021938126
,,,7.6E-07,0.021833126
,,,7.7E-07,0.021822501
,,,7.8E-07,0.022000001
,,,7.9E-07,0.021788126
,,,8E-07,0.021778751
,,,8.1E-07,0.021780626
,,,8.2E-07,0.022081876
,,,8.3E-07,0.021818126
,,,8.4E-07,0.021920626
,,,8.5E-07,0.021961251
,,,8.6E-07,0.021766251
,,,8.7E-07,0.021842501
,,,8.8E-07,0.021634376
,,,8.9E-07,0.021904376
,,,9E-07,0.021915001
,,,9.1E-07,0.021967501
,,,9.2E-07,0.021735001
,,,9.3E-07,0.022006876
,,,9.4E-07,0.021828751
,,,9.5E-07,0.021955001
,,,9.6E-07,0.022018126
,,,9.7E-07,0.021798751
,,,9.8E-07,0.021857501
,,,9.9E-07,0.021932501
,,,1E-06,0.022043126
,,,1.01E-06,0.022081876
,,,1.02E-06,0.021924376
,,,1.03E-06,0.021976876
,,,1.04E-06,0.021929376
,,,1.05E-06,0.021765001
,,,1.06E-06,0.021691876
,,,1.07E-06,0.021771251
,,,1.08E-06,0.021851251
,,,1.09E-06,0.022106251
,,,1.1E-06,0.021890001
,,,1.11E-06,0.021907501
,,,1.12E-06,0.022017501
,,,1.13E-06,0.021785001
,,,1.14E-06,0.021917501
,,,1.15E-06,0.021761876
,,,1.16E-06,0.021970626
,,,1.17E-06,0.021983751
,,,1.18E-06,0.022196251
,,,1.19E-06,0.021822501
,,,1.2E-06,0.021903126
,,,1.21E-06,0.021883126
,,,1.22E-06,0.021788751
,,,1.23E-06,0.021961251
,,,1.24E-06,0.021805626
,,,1.25E-06,0.021684376
,,,1.26E-06,0.021892501
,,,1.27E-06,0.021966876
,,,1.28E-06,0.022111251
,,,1.29E-06,0.021902501
,,,1.3E-06,0.021994376
,,,1.31E-06,0.021908126
,,,1.32E-06,0.022037501
,,,1.33E-06,0.021808126
,,,1.34E-06,0.022039376
,,,1.35E-06,0.021846876
,,,1.36E-06,0.022108751
,,,1.37E-06,0.021692501
,,,1.38E-06,0.021791876
,,,1.39E-06,0.021659376
,,,1.4E-06,0.021954376
,,,1.41E-06,0.021751251
,,,1.42E-06,0.021943751
,,,1.43E-06,0.021822501
,,,1.44E-06,0.021918751
,,,1.45E-06,0.021940001
,,,1.46E-06,0.022051876
,,,1.47E-06,0.021908126
,,,1.48E-06,0.022041876
,,,1.49E-06,0.022017501
,,,1.5E-06,0.021720001
,,,1.51E-06,0.021794376
,,,1.52E-06,0.021996251
,,,1.53E-06,0.021730001
,,,1.54E-06,0.022095626
,,,1.55E-06,0.021795626
,,,1.56E-06,0.021716251
,,,1.57E-06,0.021886251
,,,1.58E-06,0.021905001
,,,1.59E-06,0.021706876
,,,1.6E-06,0.021919376
,,,1.61E-06,0.021963126
,,,1.62E-06,0.021706876
,,,1.63E-06,0.021963126
,,,1.64E-06,0.021921876
,,,1.65E-06,0.022064376
,,,1.66E-06,0.021901251
,,,1.67E-06,0.022049376
,,,1.68E-06,0.022073126
,,,1.69E-06,0.021944376
,,,1.7E-06,0.021932501
,,,1.71E-06,0.021741251
,,,1.72E-06,0.022130001
,,,1.73E-06,0.021728126
,,,1.74E-06,0.022240626
,,,1.75E-06,0.021929376
,,,1.76E-06,0.021862501
,,,1.77E-06,0.021716876
,,,1.78E-06,0.022078126
,,,1.79E-06,0.021971251
,,,1.8E-06,0.021705001
,,,1.81E-06,0.021841876
,,,1.82E-06,0.021937501
,,,1.83E-06,0.022002501
,,,1.84E-06,0.021887501
,,,1.85E-06,0.021863751
,,,1.86E-06,0.021732501
,,,1.87E-06,0.021920001
,,,1.88E-06,0.021953751
,,,1.89E-06,0.021752501
,,,1.9E-06,0.021811876
,,,1.91E-06,0.021627501
,,,1.92E-06,0.021805626
,,,1.93E-06,0.021853126
,,,1.94E-06,0.021685626
,,,1.95E-06,0.022189376
,,,1.96E-06,0.021978126
,,,1.97E-06,0.021981876
,,,1.98E-06,0.021746876
,,,1.99E-06,0.021753126
,,,2E-06,0.021641876
,,,2.01E-06,0.021924376
,,,2.02E-06,0.021893751
,,,2.03E-06,0.022036251
,,,2.04E-06,0.021892501
,,,2.05E-06,0.021766251
,,,2.06E-06,0.021923751
,,,2.07E-06,0.021884376
,,,2.08E-06,0.021897501
,,,2.09E-06,0.021738751
,,,2.1E-06,0.021841876
,,,2.11E-06,0.021986251
,,,2.12E-06,0.022124376
,,,2.13E-06,0.021745626
,,,2.14E-06,0.022110001
,,,2.15E-06,0.021838126
,,,2.16E-06,0.021901251
,,,2.17E-06,0.022043126
,,,2.18E-06,0.021892501
,,,2.19E-06,0.021776251
,,,2.2E-06,0.021891876
,,,2.21E-06,0.021768751
,,,2.22E-06,0.021931251
,,,2.23E-06,0.021936876
,,,2.24E-06,0.021835626
,,,2.25E-06,0.021891876
,,,2.26E-06,0.021821876
,,,2.27E-06,0.021988126
,,,2.28E-06,0.021926876
,,,2.29E-06,0.022048751
,,,2.3E-06,0.021958751
,,,2.31E-06,0.021731251
,,,2.32E-06,0.022105626
,,,2.33E-06,0.021861251
,,,2.34E-06,0.022008126
,,,2.35E-06,0.021991876
,,,2.36E-06,0.021973751
,,,2.37E-06,0.021738126
,,,2.38E-06,0.021762501
,,,2.39E-06,0.021861251
,,,2.4E-06,0.022269376
,,,2.41E-06,0.021996876
,,,2.42E-06,0.021690001
,,,2.43E-06,0.021799376
,,,2.44E-06,0.021552501
,,,2.45E-06,0.021855626
,,,2.46E-06,0.021817501
,,,2.47E-06,0.021882501
,,,2.48E-06,0.021429376
,,,2.49E-06,0.021912501
,,,2.5E-06,0.022182501
,,,2.51E-06,0.021861876
,,,2.52E-06,0.021882501
,,,2.53E-06,0.022021251
,,,2.54E-06,0.021666251
,,,2.55E-06,0.021912501
,,,2.56E-06,0.021806251
,,,2.57E-06,0.021884376
,,,2.58E-06,0.021896876
,,,2.59E-06,0.021992501
,,,2.6E-06,0.021807501
,,,2.61E-06,0.021748126
,,,2.62E-06,0.021881876
,,,2.63E-06,0.021937501
,,,2.64E-06,0.021981876
,,,2.65E-06,0.021883126
,,,2.66E-06,0.022008751
,,,2.67E-06,0.021755001
,,,2.68E-06,0.022023751
,,,2.69E-06,0.021793126
,,,2.7E-06,0.021748126
,,,2.71E-06,0.021875626
,,,2.72E-06,0.021729376
,,,2.73E-06,0.021780626
,,,2.74E-06,0.021809376
,,,2.75E-06,0.021898126
,,,2.76E-06,0.021922501
,,,2.77E-06,0.022065001
,,,2.78E-06,0.021990626
,,,2.79E-06,0.021888751
,,,2.8E-06,0.021918126
,,,2.81E-06,0.021929376
,,,2.82E-06,0.021857501
,,,2.83E-06,0.021835001
,,,2.84E-06,0.021909376
,,,2.85E-06,0.021939376
,,,2.86E-06,0.021905626
,,,2.87E-06,0.021808126
,,,2.88E-06,0.021818126
,,,2.89E-06,0.021976251
,,,2.9E-06,0.022116876
,,,2.91E-06,0.021758126
,,,2.92E-06,0.021832501
,,,2.93E-06,0.021649376
,,,2.94E-06,0.021900001
,,,2.95E-06,0.021883751
,,,2.96E-06,0.022036876
,,,2.97E-06,0.021876876
,,,2.98E-06,0.021900626
,,,2.99E-06,0.021765001
,,,3E-06,0.021883751
,,,3.01E-06,0.021990626
,,,3.02E-06,0.021888126
,,,3.03E-06,0.021820001
,,,3.04E-06,0.021847501
,,,3.05E-06,0.021859376
,,,3.06E-06,0.021977501
,,,3.07E-06,0.021994376
,,,3.08E-06,0.021805001
,,,3.09E-06,0.021716251
,,,3.1E-06,0.021894376
,,,3.11E-06,0.021970626
,,,3.12E-06,0.022166876
,,,3.13E-06,0.021720001
,,,3.14E-06,0.022065001
,,,3.15E-06,0.021865001
,,,3.16E-06,0.021938751
,,,3.17E-06,0.021648126
,,,3.18E-06,0.022025626
,,,3.19E-06,0.022009376
,,,3.2E-06,0.021780626
,,,3.21E-06,0.022025001
