data/raw/Final_POL_Test_1/SOP007_Ch4.csv

"Record Length",1000,"Points",-5E-06,0.0187875
"Sample Interval",1E-08,s,-4.99E-06,0.0188475
"Trigger Point",500,"Samples",-4.98E-06,0.018798125
"Trigger Time",0,s,-4.97E-06,0.0186475
"",,,-4.96E-06,0.018863125
"Horizontal Offset",-5E-06,s,-4.95E-06,0.01872875
,,,-4.94E-06,0.018831875
,,,-4.93E-06,0.01870375
,,,-4.92E-06,0.01895875
,,,-4.91E-06,0.018424375
,,,-4.9E-06,0.018813125
,,,-4.89E-06,0.018880625
,,,-4.88E-06,0.01890375
,,,-4.87E-06,0.01869375
,,,-4.86E-06,0.01831625
,,,-4.85E-06,0.018626875
,,,-4.84E-06,0.01882875
,,,-4.83E-06,0.01887125
,,,-4.82E-06,0.018480625
,,,-4.81E-06,0.018578125
,,,-4.8E-06,0.01871375
,,,-4.79E-06,0.01857
,,,-4.78E-06,0.0186125
,,,-4.77E-06,0.018655625
,,,-4.76E-06,0.0190175
,,,-4.75E-06,0.018676875
,,,-4.74E-06,0.018765
,,,-4.73E-06,0.018593125
,,,-4.72E-06,0.018744375
,,,-4.71E-06,0.01876875
,,,-4.7E-06,0.018576875
,,,-4.69E-06,0.018755
,,,-4.68E-06,0.018685
,,,-4.67E-06,0.01881
,,,-4.66E-06,0.018813125
,,,-4.65E-06,0.018678125
,,,-4.64E-06,0.01893375
,,,-4.63E-06,0.018596875
,,,-4.62E-06,0.018744375
,,,-4.61E-06,0.018756875
,,,-4.6E-06,0.018749375
,,,-4.59E-06,0.018583125
,,,-4.58E-06,0.018890625
,,,-4.57E-06,0.018656875
,,,-4.56E-06,0.018685
,,,-4.55E-06,0.018478125
,,,-4.54E-06,0.018710625
,,,-4.53E-06,0.01874
,,,-4.52E-06,0.01884875
,,,-4.51E-06,0.0187875
,,,-4.5E-06,0.018803125
,,,-4.49E-06,0.018755
,,,-4.48E-06,0.019006875
,,,-4.47E-06,0.01875875
,,,-4.46E-06,0.018844375
,,,-4.45E-06,0.018734375
,,,-4.44E-06,0.018488125
,,,-4.43E-06,0.018678125
,,,-4.42E-06,0.018771875
,,,-4.41E-06,0.01857875
,,,-4.4E-06,0.018713125
,,,-4.39E-06,0.018686875
,,,-4.38E-06,0.01874
,,,-4.37E-06,0.018416875
,,,-4.36E-06,0.018621875
,,,-4.35E-06,0.0188325
,,,-4.34E-06,0.0189525
,,,-4.33E-06,0.01869125
,,,-4.32E-06,0.018444375
,,,-4.31E-06,0.018798125
,,,-4.3E-06,0.018869375
,,,-4.29E-06,0.018668125
,,,-4.28E-06,0.018741875
,,,-4.27E-06,0.018795
,,,-4.26E-06,0.018885625
,,,-4.25E-06,0.0186875
,,,-4.24E-06,0.01894875
,,,-4.23E-06,0.018676875
,,,-4.22E-06,0.01867875
,,,-4.21E-06,0.0186475
,,,-4.2E-06,0.018603125
,,,-4.19E-06,0.018911875
,,,-4.18E-06,0.0188425
,,,-4.17E-06,0.018801875
,,,-4.16E-06,0.01873875
,,,-4.15E-06,0.018520625
,,,-4.14E-06,0.018826875
,,,-4.13E-06,0.01885
,,,-4.12E-06,0.01886
,,,-4.11E-06,0.018870625
,,,-4.1E-06,0.018671875
,,,-4.09E-06,0.01885
,,,-4.08E-06,0.0188325
,,,-4.07E-06,0.01870875
,,,-4.06E-06,0.01886375
,,,-4.05E-06,0.01879125
,,,-4.04E-06,0.018863125
,,,-4.03E-06,0.018728125
,,,-4.02E-06,0.0188025
,,,-4.01E-06,0.01905875
,,,-4E-06,0.018746875
,,,-3.99E-06,0.01853
,,,-3.98E-06,0.018924375
,,,-3.97E-06,0.018730625
,,,-3.96E-06,0.01867875
,,,-3.95E-06,0.0185975
,,,-3.94E-06,0.0188425
,,,-3.93E-06,0.01872875
,,,-3.92E-06,0.0186625
,,,-3.91E-06,0.018756875
,,,-3.9E-06,0.018880625
,,,-3.89E-06,0.018715
,,,-3.88E-06,0.018706875
,,,-3.87E-06,0.01898125
,,,-3.86E-06,0.018964375
,,,-3.85E-06,0.018655
,,,-3.84E-06,0.018549375
,,,-3.83E-06,0.018583125
,,,-3.82E-06,0.018899375
,,,-3.81E-06,0.018625
,,,-3.8E-06,0.018983125
,,,-3.79E-06,0.018866875
,,,-3.78E-06,0.018915625
,,,-3.77E-06,0.01895375
,,,-3.76E-06,0.01868625
,,,-3.75E-06,0.01872
,,,-3.74E-06,0.018776875
,,,-3.73E-06,0.01888625
,,,-3.72E-06,0.018824375
,,,-3.71E-06,0.018888125
,,,-3.7E-06,0.018949375
,,,-3.69E-06,0.01839625
,,,-3.68E-06,0.018409375
,,,-3.67E-06,0.018621875
,,,-3.66E-06,0.018815625
,,,-3.65E-06,0.01885375
,,,-3.64E-06,0.01878875
,,,-3.63E-06,0.018563125
,,,-3.62E-06,0.018875
,,,-3.61E-06,0.018755
,,,-3.6E-06,0.018430625
,,,-3.59E-06,0.018586875
,,,-3.58E-06,0.018809375
,,,-3.57E-06,0.01885125
,,,-3.56E-06,0.018693125
,,,-3.55E-06,0.01865
,,,-3.54E-06,0.018483125
,,,-3.53E-06,0.01877875
,,,-3.52E-06,0.018775625
,,,-3.51E-06,0.018791875
,,,-3.5E-06,0.018685
,,,-3.49E-06,0.01879875
,,,-3.48E-06,0.01882125
,,,-3.47E-06,0.01877375
,,,-3.46E-06,0.01870625
,,,-3.45E-06,0.01883375
,,,-3.44E-06,0.01884125
,,,-3.43E-06,0.0185525
,,,-3.42E-06,0.018773125
,,,-3.41E-06,0.01884375
,,,-3.4E-06,0.01877125
,,,-3.39E-06,0.01869625
,,,-3.38E-06,0.01908375
,,,-3.37E-06,0.018939375
,,,-3.36E-06,0.01890125
,,,-3.35E-06,0.018733125
,,,-3.34E-06,0.018650625
,,,-3.33E-06,0.01871125
,,,-3.32E-06,0.0186925
,,,-3.31E-06,0.018931875
,,,-3.3E-06,0.018681875
,,,-3.29E-06,0.018876875
,,,-3.28E-06,0.018825
,,,-3.27E-06,0.018914375
,,,-3.26E-06,0.018600625
,,,-3.25E-06,0.0187
,,,-3.24E-06,0.01870125
,,,-3.23E-06,0.018800625
,,,-3.22E-06,0.01861625
,,,-3.21E-06,0.01880625
,,,-3.2E-06,0.018800625
,,,-3.19E-06,0.018513125
,,,-3.18E-06,0.0187225
,,,-3.17E-06,0.018686875
,,,-3.16E-06,0.018686875
,,,-3.15E-06,0.018955
,,,-3.14E-06,0.01886375
,,,-3.13E-06,0.018804375
,,,-3.12E-06,0.01874375
,,,-3.11E-06,0.018916875
,,,-3.1E-06,0.01879375
,,,-3.09E-06,0.01855375
,,,-3.08E-06,0.018806875
,,,-3.07E-06,0.01873375
,,,-3.06E-06,0.0189725
,,,-3.05E-06,0.018770625
,,,-3.04E-06,0.0187925
,,,-3.03E-06,0.01880125
,,,-3.02E-06,0.01884
,,,-3.01E-06,0.01883
,,,-3E-06,0.01863375
,,,-2.99E-06,0.01880875
,,,-2.98E-06,0.01898375
,,,-2.97E-06,0.018873125
,,,-2.96E-06,0.01883125
,,,-2.95E-06,0.01879
,,,-2.94E-06,0.018720625
,,,-2.93E-06,0.018848125
,,,-2.92E-06,0.018758125
,,,-2.91E-06,0.0189125
,,,-2.9E-06,0.018756875
,,,-2.89E-06,0.0185875
,,,-2.88E-06,0.01885875
,,,-2.87E-06,0.018580625
,,,-2.86E-06,0.01879375
,,,-2.85E-06,0.0186575
,,,-2.84E-06,0.018931875
,,,-2.83E-06,0.018911875
,,,-2.82E-06,0.018539375
,,,-2.81E-06,0.018809375
,,,-2.8E-06,0.018520625
,,,-2.79E-06,0.018758125
,,,-2.78E-06,0.0188625
,,,-2.77E-06,0.018684375
,,,-2.76E-06,0.01866
,,,-2.75E-06,0.018821875
,,,-2.74E-06,0.01887375
,,,-2.73E-06,0.0188225
,,,-2.72E-06,0.018739375
,,,-2.71E-06,0.018465
,,,-2.7E-06,0.018898125
,,,-2.69E-06,0.018849375
,,,-2.68E-06,0.01873125
,,,-2.67E-06,0.018875625
,,,-2.66E-06,0.01877125
,,,-2.65E-06,0.01873
,,,-2.64E-06,0.018740625
,,,-2.63E-06,0.018830625
,,,-2.62E-06,0.01878875
,,,-2.61E-06,0.01877875
,,,-2.6E-06,0.01866125
,,,-2.59E-06,0.0185725
,,,-2.58E-06,0.018779375
,,,-2.57E-06,0.0186225
,,,-2.56E-06,0.018785625
,,,-2.55E-06,0.018861875
,,,-2.54E-06,0.01879875
,,,-2.53E-06,0.01860375
,,,-2.52E-06,0.01883125
,,,-2.51E-06,0.018475
,,,-2.5E-06,0.018765
,,,-2.49E-06,0.018695
,,,-2.48E-06,0.01878875
,,,-2.47E-06,0.018535625
,,,-2.46E-06,0.01868875
,,,-2.45E-06,0.01879875
,,,-2.44E-06,0.018865
,,,-2.43E-06,0.01865
,,,-2.42E-06,0.0189125
,,,-2.41E-06,0.018840625
,,,-2.4E-06,0.01879125
,,,-2.39E-06,0.018663125
,,,-2.38E-06,0.018646875
,,,-2.37E-06,0.0186325
,,,-2.36E-06,0.018776875
,,,-2.35E-06,0.01850375
,,,-2.34E-06,0.018933125
,,,-2.33E-06,0.018831875
,,,-2.32E-06,0.018665625
,,,-2.31E-06,0.0187475
,,,-2.3E-06,0.01860875
,,,-2.29E-06,0.018725625
,,,-2.28E-06,0.018618125
,,,-2.27E-06,0.01870625
,,,-2.26E-06,0.0187425
,,,-2.25E-06,0.0186775
,,,-2.24E-06,0.01861125
,,,-2.23E-06,0.018736875
,,,-2.22E-06,0.018749375
,,,-2.21E-06,0.01897625
,,,-2.2E-06,0.01858625
,,,-2.19E-06,0.01873875
,,,-2.18E-06,0.018633125
,,,-2.17E-06,0.018858125
,,,-2.16E-06,0.018620625
,,,-2.15E-06,0.01899875
,,,-2.14E-06,0.01867
,,,-2.13E-06,0.01867125
,,,-2.12E-06,0.018595
,,,-2.11E-06,0.01871625
,,,-2.1E-06,0.0189
,,,-2.09E-06,0.018794375
,,,-2.08E-06,0.018736875
,,,-2.07E-06,0.01894625
,,,-2.06E-06,0.018591875
,,,-2.05E-06,0.018601875
,,,-2.04E-06,0.018664375
,,,-2.03E-06,0.018835625
,,,-2.02E-06,0.018470625
,,,-2.01E-06,0.018818125
,,,-2E-06,0.018795625
,,,-1.99E-06,0.018800625
,,,-1.98E-06,0.01887125
,,,-1.97E-06,0.018541875
,,,-1.96E-06,0.0189425
,,,-1.95E-06,0.01874375
,,,-1.94E-06,0.018889375
,,,-1.93E-06,0.01869
,,,-1.92E-06,0.018755625
,,,-1.91E-06,0.018871875
,,,-1.9E-06,0.01855375
,,,-1.89E-06,0.01875375
,,,-1.88E-06,0.018893125
,,,-1.87E-06,0.018915625
,,,-1.86E-06,0.018895625
,,,-1.85E-06,0.018819375
,,,-1.84E-06,0.018665625
,,,-1.83E-06,0.018798125
,,,-1.82E-06,0.01876125
,,,-1.81E-06,0.0189375
,,,-1.8E-06,0.01882125
,,,-1.79E-06,0.0186675
,,,-1.78E-06,0.0188725
,,,-1.77E-06,0.018853125
,,,-1.76E-06,0.01854375
,,,-1.75E-06,0.018811875
,,,-1.74E-06,0.019198125
,,,-1.73E-06,0.0184725
,,,-1.72E-06,0.018884375
,,,-1.71E-06,0.01849375
,,,-1.7E-06,0.018678125
,,,-1.69E-06,0.018535625
,,,-1.68E-06,0.0189725
,,,-1.67E-06,0.01877125
,,,-1.66E-06,0.01854
,,,-1.65E-06,0.01865875
,,,-1.64E-06,0.01886625
,,,-1.63E-06,0.018811875
,,,-1.62E-06,0.018745
,,,-1.61E-06,0.018724375
,,,-1.6E-06,0.01869625
,,,-1.59E-06,0.01863625
,,,-1.58E-06,0.018805625
,,,-1.57E-06,0.01891
,,,-1.56E-06,0.0186025
,,,-1.55E-06,0.01863625
,,,-1.54E-06,0.018543125
,,,-1.53E-06,0.018833125
,,,-1.52E-06,0.018695
,,,-1.51E-06,0.018621875
,,,-1.5E-06,0.0187025
,,,-1.49E-06,0.01885625
,,,-1.48E-06,0.01869375
,,,-1.47E-06,0.0185925
,,,-1.46E-06,0.018684375
,,,-1.45E-06,0.018699375
,,,-1.44E-06,0.018509375
,,,-1.43E-06,0.018809375
,,,-1.42E-06,0.018936875
,,,-1.41E-06,0.018720625
,,,-1.4E-06,0.01875125
,,,-1.39E-06,0.018475
,,,-1.38E-06,0.018714375
,,,-1.37E-06,0.018725625
,,,-1.36E-06,0.018773125
,,,-1.35E-06,0.018748125
,,,-1.34E-06,0.018715
,,,-1.33E-06,0.018640625
,,,-1.32E-06,0.01862125
,,,-1.31E-06,0.018909375
,,,-1.3E-06,0.018695
,,,-1.29E-06,0.01878375
,,,-1.28E-06,0.018641875
,,,-1.27E-06,0.018691875
,,,-1.26E-06,0.018695
,,,-1.25E-06,0.0186225
,,,-1.24E-06,0.018585
,,,-1.23E-06,0.018810625
,,,-1.22E-06,0.018741875
,,,-1.21E-06,0.018581875
,,,-1.2E-06,0.01891625
,,,-1.19E-06,0.01889375
,,,-1.18E-06,0.018599375
,,,-1.17E-06,0.018813125
,,,-1.16E-06,0.018645
,,,-1.15E-06,0.0188475
,,,-1.14E-06,0.01876
,,,-1.13E-06,0.01880375
,,,-1.12E-06,0.01889125
,,,-1.11E-06,0.01897625
,,,-1.1E-06,0.018593125
,,,-1.09E-06,0.018725
,,,-1.08E-06,0.01865625
,,,-1.07E-06,0.01880625
,,,-1.06E-06,0.01888125
,,,-1.05E-06,0.01869
,,,-1.04E-06,0.018828125
,,,-1.03E-06,0.018684375
,,,-1.02E-06,0.018891875
,,,-1.01E-06,0.0185475
,,,-1E-06,0.0187425
,,,-9.9E-07,0.01878875
,,,-9.8E-07,0.01888625
,,,-9.7E-07,0.018909375
,,,-9.6E-07,0.018698125
,,,-9.5E-07,0.0187725
,,,-9.4E-07,0.018890625
,,,-9.3E-07,0.018626875
,,,-9.2E-07,0.018816875
,,,-9.1E-07,0.01879125
,,,-9E-07,0.01848625
,,,-8.9E-07,0.018938125
,,,-8.8E-07,0.018701875
,,,-8.7E-07,0.0186275
,,,-8.6E-07,0.018690625
,,,-8.5E-07,0.0188775
,,,-8.4E-07,0.018770625
,,,-8.3E-07,0.01853625
,,,-8.2E-07,0.01868625
,,,-8.1E-07,0.01899375
,,,-8E-07,0.01883
,,,-7.9E-07,0.018631875
,,,-7.8E-07,0.018930625
,,,-7.7E-07,0.01890125
,,,-7.6E-07,0.018786875
,,,-7.5E-07,0.018694375
,,,-7.4E-07,0.01879875
,,,-7.3E-07,0.018648125
,,,-7.2E-07,0.018700625
,,,-7.1E-07,0.018959375
,,,-7E-07,0.018876875
,,,-6.9E-07,0.018710625
,,,-6.8E-07,0.018599375
,,,-6.7E-07,0.01877
,,,-6.6E-07,0.01885
,,,-6.5E-07,0.01892375
,,,-6.4E-07,0.018931875
,,,-6.3E-07,0.0188125
,,,-6.2E-07,0.01874375
,,,-6.1E-07,0.01874
,,,-6E-07,0.01878625
,,,-5.9E-07,0.0187
,,,-5.8E-07,0.01867125
,,,-5.7E-07,0.01845625
,,,-5.6E-07,0.018745625
,,,-5.5E-07,0.01847
,,,-5.4E-07,0.019015625
,,,-5.3E-07,0.018929375
,,,-5.2E-07,0.018715
,,,-5.1E-07,0.018556875
,,,-5E-07,0.018578125
,,,-4.9E-07,0.018450625
,,,-4.8E-07,0.018875625
,,,-4.7E-07,0.01886
,,,-4.6E-07,0.018800625
,,,-4.5E-07,0.01875125
,,,-4.4E-07,0.01847375
,,,-4.3E-07,0.01876125
,,,-4.2E-07,0.018749375
,,,-4.1E-07,0.0186925
,,,-4E-07,0.018795
,,,-3.9E-07,0.018685625
,,,-3.8E-07,0.018575
,,,-3.7E-07,0.01859
,,,-3.6E-07,0.0188
,,,-3.5E-07,0.01863
,,,-3.4E-07,0.018688125
,,,-3.3E-07,0.01886
,,,-3.2E-07,0.018799375
,,,-3.1E-07,0.01888375
,,,-3E-07,0.018796875
,,,-2.9E-07,0.018805
,,,-2.8E-07,0.018594375
,,,-2.7E-07,0.01847875
,,,-2.6E-07,0.01894
,,,-2.5E-07,0.018725
,,,-2.4E-07,0.018700625
,,,-2.3E-07,0.018695625
,,,-2.2E-07,0.018735
,,,-2.1E-07,0.018995
,,,-2E-07,0.01869125
,,,-1.9E-07,0.01883125
,,,-1.8E-07,0.01890875
,,,-1.7E-07,0.018824375
,,,-1.6E-07,0.018779375
,,,-1.5E-07,0.01892625
,,,-1.4E-07,0.018875
,,,-1.3E-07,0.01883125
,,,-1.2E-07,0.018755625
,,,-1.1E-07,0.01879875
,,,-1E-07,0.01867
,,,-9E-08,0.018678125
,,,-8E-08,0.01883375
,,,-7E-08,0.018723125
,,,-6E-08,0.018763125
,,,-5E-08,0.018678125
,,,-4E-08,0.019755625
,,,-3E-08,0.0190275
,,,-2E-08,0.01649
,,,-1E-08,0.016165625
,,,0,0.01854875
,,,1E-08,0.02160375
,,,2E-08,0.022005625
,,,3E-08,0.019414375
,,,4E-08,0.0171325
,,,5E-08,0.01623875
,,,6E-08,0.017031875
,,,7E-08,0.0185925
,,,8E-08,0.02003375
,,,9E-08,0.0202
,,,1E-07,0.019344375
,,,1.1E-07,0.018214375
,,,1.2E-07,0.01744875
,,,1.3E-07,0.0179625
,,,1.4E-07,0.018648125
,,,1.5E-07,0.019195625
,,,1.6E-07,0.01935625
,,,1.7E-07,0.019106875
,,,1.8E-07,0.01892
,,,1.9E-07,0.018703125
,,,2E-07,0.018463125
,,,2.1E-07,0.01840125
,,,2.2E-07,0.01873375
,,,2.3E-07,0.01871375
,,,2.4E-07,0.019084375
,,,2.5E-07,0.018951875
,,,2.6E-07,0.01881
,,,2.7E-07,0.018725
,,,2.8E-07,0.01864875
,,,2.9E-07,0.0185625
,,,3E-07,0.018659375
,,,3.1E-07,0.01868125
,,,3.2E-07,0.018785625
,,,3.3E-07,0.0188375
,,,3.4E-07,0.0187975
,,,3.5E-07,0.0187675
,,,3.6E-07,0.018801875
,,,3.7E-07,0.01873375
,,,3.8E-07,0.018604375
,,,3.9E-07,0.018726875
,,,4E-07,0.01864
,,,4.1E-07,0.01865125
,,,4.2E-07,0.01880625
,,,4.3E-07,0.01868375
,,,4.4E-07,0.01851
,,,4.5E-07,0.018829375
,,,4.6E-07,0.018626875
,,,4.7E-07,0.01862125
,,,4.8E-07,0.01884125
,,,4.9E-07,0.018543125
,,,5E-07,0.018825625
,,,5.1E-07,0.018975625
,,,5.2E-07,0.018579375
,,,5.3E-07,0.01896
,,,5.4E-07,0.01889125
,,,5.5E-07,0.0187275
,,,5.6E-07,0.01871125
,,,5.7E-07,0.01855
,,,5.8E-07,0.018845
,,,5.9E-07,0.0188075
,,,6E-07,0.018685
,,,6.1E-07,0.0189075
,,,6.2E-07,0.018696875
,,,6.3E-07,0.018699375
,,,6.4E-07,0.018903125
,,,6.5E-07,0.01878625
,,,6.6E-07,0.0189325
,,,6.7E-07,0.0188
,,,6.8E-07,0.018691875
,,,6.9E-07,0.0187075
,,,7E-07,0.01858625
,,,7.1E-07,0.018778125
,,,7.2E-07,0.018743125
,,,7.3E-07,0.018979375
,,,7.4E-07,0.0188825
,,,7.5E-07,0.0188025
,,,7.6E-07,0.01875375
,,,7.7E-07,0.0189425
,,,7.8E-07,0.018518125
,,,7.9E-07,0.018646875
,,,8E-07,0.01884
,,,8.1E-07,0.01852375
,,,8.2E-07,0.01880625
,,,8.3E-07,0.018796875
,,,8.4E-07,0.018668125
,,,8.5E-07,0.0187475
,,,8.6E-07,0.01857125
,,,8.7E-07,0.018549375
,,,8.8E-07,0.018710625
,,,8.9E-07,0.018794375
,,,9E-07,0.018686875
,,,9.1E-07,0.018709375
,,,9.2E-07,0.01860375
,,,9.3E-07,0.018698125
,,,9.4E-07,0.0186625
,,,9.5E-07,0.0184475
,,,9.6E-07,0.018516875
,,,9.7E-07,0.01874
,,,9.8E-07,0.018759375
,,,9.9E-07,0.01900125
,,,1E-06,0.0187925
,,,1.01E-06,0.0188975
,,,1.02E-06,0.018648125
,,,1.03E-06,0.018690625
,,,1.04E-06,0.01888875
,,,1.05E-06,0.018885625
,,,1.06E-06,0.018895
,,,1.07E-06,0.01890125
,,,1.08E-06,0.018855
,,,1.09E-06,0.018796875
,,,1.1E-06,0.01883
,,,1.11E-06,0.018905625
,,,1.12E-06,0.0186525
,,,1.13E-06,0.018793125
,,,1.14E-06,0.018856875
,,,1.15E-06,0.01877
,,,1.16E-06,0.018861875
,,,1.17E-06,0.018994375
,,,1.18E-06,0.018595
,,,1.19E-06,0.0188325
,,,1.2E-06,0.01877375
,,,1.21E-06,0.018791875
,,,1.22E-06,0.018711875
,,,1.23E-06,0.0188075
,,,1.24E-06,0.0188025
,,,1.25E-06,0.018620625
,,,1.26E-06,0.018784375
,,,1.27E-06,0.01894
,,,1.28E-06,0.01879625
,,,1.29E-06,0.01859375
,,,1.3E-06,0.0187425
,,,1.31E-06,0.01878875
,,,1.32E-06,0.01882625
,,,1.33E-06,0.01898625
,,,1.34E-06,0.0186525
,,,1.35E-06,0.018658125
,,,1.36E-06,0.01869875
,,,1.37E-06,0.018803125
,,,1.38E-06,0.01884875
,,,1.39E-06,0.018831875
,,,1.4E-06,0.018951875
,,,1.41E-06,0.018586875
,,,1.42E-06,0.018905
,,,1.43E-06,0.019038125
,,,1.44E-06,0.018796875
,,,1.45E-06,0.018766875
,,,1.46E-06,0.01871625
,,,1.47E-06,0.018646875
,,,1.48E-06,0.01878875
,,,1.49E-06,0.01874125
,,,1.5E-06,0.01873875
,,,1.51E-06,0.01871875
,,,1.52E-06,0.0187525
,,,1.53E-06,0.018854375
,,,1.54E-06,0.018886875
,,,1.55E-06,0.01871125
,,,1.56E-06,0.01866125
,,,1.57E-06,0.018791875
,,,1.58E-06,0.018484375
,,,1.59E-06,0.018494375
,,,1.6E-06,0.018928125
,,,1.61E-06,0.018995
,,,1.62E-06,0.018738125
,,,1.63E-06,0.018769375
,,,1.64E-06,0.018798125
,,,1.65E-06,0.01867125
,,,1.66E-06,0.018784375
,,,1.67E-06,0.018711875
,,,1.68E-06,0.018725625
,,,1.69E-06,0.018823125
,,,1.7E-06,0.01881375
,,,1.71E-06,0.018829375
,,,1.72E-06,0.01892375
,,,1.73E-06,0.01888
,,,1.74E-06,0.0188
,,,1.75E-06,0.018789375
,,,1.76E-06,0.018546875
,,,1.77E-06,0.01871125
,,,1.78E-06,0.01888625
,,,1.79E-06,0.01862875
,,,1.8E-06,0.018825
,,,1.81E-06,0.01906375
,,,1.82E-06,0.018894375
,,,1.83E-06,0.018840625
,,,1.84E-06,0.01878
,,,1.85E-06,0.018813125
,,,1.86E-06,0.0187375
,,,1.87E-06,0.018800625
,,,1.88E-06,0.018820625
,,,1.89E-06,0.018845625
,,,1.9E-06,0.0189275
,,,1.91E-06,0.018824375
,,,1.92E-06,0.018896875
,,,1.93E-06,0.018736875
,,,1.94E-06,0.018783125
,,,1.95E-06,0.018961875
,,,1.96E-06,0.01848375
,,,1.97E-06,0.018785
,,,1.98E-06,0.018701875
,,,1.99E-06,0.018610625
,,,2E-06,0.018925
,,,2.01E-06,0.01869125
,,,2.02E-06,0.018625625
,,,2.03E-06,0.018761875
,,,2.04E-06,0.018833125
,,,2.05E-06,0.01872375
,,,2.06E-06,0.0187825
,,,2.07E-06,0.01874
,,,2.08E-06,0.01876375
,,,2.09E-06,0.0186175
,,,2.1E-06,0.018825625
,,,2.11E-06,0.01876
,,,2.12E-06,0.018886875
,,,2.13E-06,0.018776875
,,,2.14E-06,0.018860625
,,,2.15E-06,0.01891375
,,,2.16E-06,0.0184725
,,,2.17E-06,0.01871375
,,,2.18E-06,0.01881
,,,2.19E-06,0.018838125
,,,2.2E-06,0.018615
,,,2.21E-06,0.018645
,,,2.22E-06,0.01871125
,,,2.23E-06,0.01890125
,,,2.24E-06,0.018644375
,,,2.25E-06,0.018644375
,,,2.26E-06,0.01887125
,,,2.27E-06,0.01869625
,,,2.28E-06,0.018745625
,,,2.29E-06,0.018654375
,,,2.3E-06,0.018948125
,,,2.31E-06,0.018776875
,,,2.32E-06,0.018788125
,,,2.33E-06,0.018855
,,,2.34E-06,0.018795625
,,,2.35E-06,0.018829375
,,,2.36E-06,0.018678125
,,,2.37E-06,0.01868625
,,,2.38E-06,0.0187
,,,2.39E-06,0.018948125
,,,2.4E-06,0.0187025
,,,2.41E-06,0.01882875
,,,2.42E-06,0.01840125
,,,2.43E-06,0.018655
,,,2.44E-06,0.018683125
,,,2.45E-06,0.01892125
,,,2.46E-06,0.01874875
,,,2.47E-06,0.018841875
,,,2.48E-06,0.018840625
,,,2.49E-06,0.018919375
,,,2.5E-06,0.0187825
,,,2.51E-06,0.01882125
,,,2.52E-06,0.01866875
,,,2.53E-06,0.018625
,,,2.54E-06,0.018743125
,,,2.55E-06,0.0189325
,,,2.56E-06,0.018855625
,,,2.57E-06,0.0188925
,,,2.58E-06,0.01862
,,,2.59E-06,0.018664375
,,,2.6E-06,0.0187425
,,,2.61E-06,0.0190875
,,,2.62E-06,0.0186925
,,,2.63E-06,0.01873625
,,,2.64E-06,0.0189
,,,2.65E-06,0.018701875
,,,2.66E-06,0.018765625
,,,2.67E-06,0.018589375
,,,2.68E-06,0.01899
,,,2.69E-06,0.01883125
,,,2.7E-06,0.01882125
,,,2.71E-06,0.018715
,,,2.72E-06,0.01875875
,,,2.73E-06,0.018750625
,,,2.74E-06,0.018700625
,,,2.75E-06,0.018836875
,,,2.76E-06,0.018751875
,,,2.77E-06,0.01881625
,,,2.78E-06,0.018765
,,,2.79E-06,0.018735625
,,,2.8E-06,0.0187975
,,,2.81E-06,0.018801875
,,,2.82E-06,0.01865125
,,,2.83E-06,0.018549375
,,,2.84E-06,0.01866
,,,2.85E-06,0.0188875
,,,2.86E-06,0.018668125
,,,2.87E-06,0.018821875
,,,2.88E-06,0.018835
,,,2.89E-06,0.01872625
,,,2.9E-06,0.01888625
,,,2.91E-06,0.018514375
,,,2.92E-06,0.01877625
,,,2.93E-06,0.018730625
,,,2.94E-06,0.018648125
,,,2.95E-06,0.018768125
,,,2.96E-06,0.0188075
,,,2.97E-06,0.018723125
,,,2.98E-06,0.018699375
,,,2.99E-06,0.01873375
,,,3E-06,0.018759375
,,,3.01E-06,0.01894
,,,3.02E-06,0.0186925
,,,3.03E-06,0.0186425
,,,3.04E-06,0.0188275
,,,3.05E-06,0.018625
,,,3.06E-06,0.0186375
,,,3.07E-06,0.018568125
,,,3.08E-06,0.01870125
,,,3.09E-06,0.018636875
,,,3.1E-06,0.01871375
,,,3.11E-06,0.018711875
,,,3.12E-06,0.01860125
,,,3.13E-06,0.01853125
,,,3.14E-06,0.0189175
,,,3.15E-06,0.01874125
,,,3.16E-06,0.01885
,,,3.17E-06,0.018725625
,,,3.18E-06,0.018715625
,,,3.19E-06,0.01866625
,,,3.2E-06,0.01873625
,,,3.21E-06,0.018718125
,,,3.22E-06,0.01887875
,,,3.23E-06,0.01888
,,,3.24E-06,0.018715
,,,3.25E-06,0.01871625
,,,3.26E-06,0.018598125
,,,3.27E-06,0.018655
,,,3.28E-06,0.01878625
,,,3.29E-06,0.0187325
,,,3.3E-06,0.019
,,,3.31E-06,0.018766875
,,,3.32E-06,0.018748125
,,,3.33E-06,0.018645
,,,3.34E-06,0.018665625
,,,3.35E-06,0.018705
,,,3.36E-06,0.018859375
,,,3.37E-06,0.018708125
,,,3.38E-06,0.0186975
,,,3.39E-06,0.0188825
,,,3.4E-06,0.018986875
,,,3.41E-06,0.018691875
,,,3.42E-06,0.018446875
,,,3.43E-06,0.01887375
,,,3.44E-06,0.01855375
,,,3.45E-06,0.01880375
,,,3.46E-06,0.01894
,,,3.47E-06,0.01887875
,,,3.48E-06,0.018763125
,,,3.49E-06,0.01866125
,,,3.5E-06,0.0186775
,,,3.51E-06,0.018785625
,,,3.52E-06,0.018706875
,,,3.53E-06,0.018786875
,,,3.54E-06,0.018784375
,,,3.55E-06,0.018823125
,,,3.56E-06,0.01875875
,,,3.57E-06,0.018621875
,,,3.58E-06,0.018599375
,,,3.59E-06,0.0188275
