data/raw/Final_POL_Test_1/SOP096_Ch4.csv

"Record Length",1000,"Points",-5E-06,0.0163725
"Sample Interval",1E-08,s,-4.99E-06,0.016255625
"Trigger Point",500,"Samples",-4.98E-06,0.01607625
"Trigger Time",0,s,-4.97E-06,0.016328125
"",,,-4.96E-06,0.016541875
"Horizontal Offset",-5E-06,s,-4.95E-06,0.016246875
,,,-4.94E-06,0.01611125
,,,-4.93E-06,0.01648
,,,-4.92E-06,0.016373125
,,,-4.91E-06,0.01637
,,,-4.9E-06,0.0163075
,,,-4.89E-06,0.01645875
,,,-4.88E-06,0.01654
,,,-4.87E-06,0.016578125
,,,-4.86E-06,0.01629
,,,-4.85E-06,0.016269375
,,,-4.84E-06,0.01626125
,,,-4.83E-06,0.01624625
,,,-4.82E-06,0.016405625
,,,-4.81E-06,0.01644875
,,,-4.8E-06,0.0164525
,,,-4.79E-06,0.016288125
,,,-4.78E-06,0.01635125
,,,-4.77E-06,0.0161925
,,,-4.76E-06,0.016111875
,,,-4.75E-06,0.016103125
,,,-4.74E-06,0.016521875
,,,-4.73E-06,0.016521875
,,,-4.72E-06,0.016391875
,,,-4.71E-06,0.01634875
,,,-4.7E-06,0.016131875
,,,-4.69E-06,0.0162475
,,,-4.68E-06,0.016345
,,,-4.67E-06,0.016329375
,,,-4.66E-06,0.01634375
,,,-4.65E-06,0.01648
,,,-4.64E-06,0.016238125
,,,-4.63E-06,0.016445625
,,,-4.62E-06,0.01645875
,,,-4.61E-06,0.01627125
,,,-4.6E-06,0.01643625
,,,-4.59E-06,0.016269375
,,,-4.58E-06,0.01633125
,,,-4.57E-06,0.0162975
,,,-4.56E-06,0.01632125
,,,-4.55E-06,0.016471875
,,,-4.54E-06,0.016601875
,,,-4.53E-06,0.01647125
,,,-4.52E-06,0.01625
,,,-4.51E-06,0.01640625
,,,-4.5E-06,0.0163725
,,,-4.49E-06,0.016296875
,,,-4.48E-06,0.01653375
,,,-4.47E-06,0.016375625
,,,-4.46E-06,0.01620125
,,,-4.45E-06,0.016465625
,,,-4.44E-06,0.01611125
,,,-4.43E-06,0.0162125
,,,-4.42E-06,0.016371875
,,,-4.41E-06,0.016364375
,,,-4.4E-06,0.01610625
,,,-4.39E-06,0.016585
,,,-4.38E-06,0.016539375
,,,-4.37E-06,0.01630625
,,,-4.36E-06,0.0162825
,,,-4.35E-06,0.0161025
,,,-4.34E-06,0.016424375
,,,-4.33E-06,0.016363125
,,,-4.32E-06,0.0164975
,,,-4.31E-06,0.01645375
,,,-4.3E-06,0.016240625
,,,-4.29E-06,0.01634625
,,,-4.28E-06,0.016369375
,,,-4.27E-06,0.0163975
,,,-4.26E-06,0.016303125
,,,-4.25E-06,0.016350625
,,,-4.24E-06,0.016276875
,,,-4.23E-06,0.016346875
,,,-4.22E-06,0.016323125
,,,-4.21E-06,0.01636125
,,,-4.2E-06,0.016344375
,,,-4.19E-06,0.01613125
,,,-4.18E-06,0.016373125
,,,-4.17E-06,0.016250625
,,,-4.16E-06,0.016368125
,,,-4.15E-06,0.016523125
,,,-4.14E-06,0.016520625
,,,-4.13E-06,0.016459375
,,,-4.12E-06,0.0162625
,,,-4.11E-06,0.016255625
,,,-4.1E-06,0.01617
,,,-4.09E-06,0.016284375
,,,-4.08E-06,0.016286875
,,,-4.07E-06,0.01632
,,,-4.06E-06,0.016376875
,,,-4.05E-06,0.01636
,,,-4.04E-06,0.01622
,,,-4.03E-06,0.01632625
,,,-4.02E-06,0.016516875
,,,-4.01E-06,0.01650625
,,,-4E-06,0.01653125
,,,-3.99E-06,0.016380625
,,,-3.98E-06,0.016275
,,,-3.97E-06,0.01595875
,,,-3.96E-06,0.01665
,,,-3.95E-06,0.01603375
,,,-3.94E-06,0.016428125
,,,-3.93E-06,0.01614125
,,,-3.92E-06,0.016381875
,,,-3.91E-06,0.0164475
,,,-3.9E-06,0.016426875
,,,-3.89E-06,0.0166425
,,,-3.88E-06,0.01631375
,,,-3.87E-06,0.016254375
,,,-3.86E-06,0.01641125
,,,-3.85E-06,0.016338125
,,,-3.84E-06,0.016511875
,,,-3.83E-06,0.01659625
,,,-3.82E-06,0.0165025
,,,-3.81E-06,0.0163
,,,-3.8E-06,0.016555
,,,-3.79E-06,0.016175
,,,-3.78E-06,0.015885
,,,-3.77E-06,0.0161625
,,,-3.76E-06,0.016146875
,,,-3.75E-06,0.016576875
,,,-3.74E-06,0.016504375
,,,-3.73E-06,0.01649875
,,,-3.72E-06,0.0162875
,,,-3.71E-06,0.0165475
,,,-3.7E-06,0.01630875
,,,-3.69E-06,0.016295625
,,,-3.68E-06,0.01620125
,,,-3.67E-06,0.01625
,,,-3.66E-06,0.016571875
,,,-3.65E-06,0.016250625
,,,-3.64E-06,0.0162125
,,,-3.63E-06,0.016378125
,,,-3.62E-06,0.01642375
,,,-3.61E-06,0.016254375
,,,-3.6E-06,0.016633125
,,,-3.59E-06,0.016114375
,,,-3.58E-06,0.016250625
,,,-3.57E-06,0.016684375
,,,-3.56E-06,0.016131875
,,,-3.55E-06,0.01649125
,,,-3.54E-06,0.016079375
,,,-3.53E-06,0.016465
,,,-3.52E-06,0.016266875
,,,-3.51E-06,0.016383125
,,,-3.5E-06,0.01644125
,,,-3.49E-06,0.016258125
,,,-3.48E-06,0.01641
,,,-3.47E-06,0.016285
,,,-3.46E-06,0.01620875
,,,-3.45E-06,0.016334375
,,,-3.44E-06,0.01640125
,,,-3.43E-06,0.016444375
,,,-3.42E-06,0.01632125
,,,-3.41E-06,0.016328125
,,,-3.4E-06,0.016609375
,,,-3.39E-06,0.0165325
,,,-3.38E-06,0.016209375
,,,-3.37E-06,0.015965
,,,-3.36E-06,0.016241875
,,,-3.35E-06,0.016375
,,,-3.34E-06,0.01639625
,,,-3.33E-06,0.016444375
,,,-3.32E-06,0.01623375
,,,-3.31E-06,0.01639375
,,,-3.3E-06,0.01631125
,,,-3.29E-06,0.016311875
,,,-3.28E-06,0.01638125
,,,-3.27E-06,0.016091875
,,,-3.26E-06,0.01627375
,,,-3.25E-06,0.016490625
,,,-3.24E-06,0.016556875
,,,-3.23E-06,0.016511875
,,,-3.22E-06,0.016345625
,,,-3.21E-06,0.01645125
,,,-3.2E-06,0.015910625
,,,-3.19E-06,0.016206875
,,,-3.18E-06,0.016289375
,,,-3.17E-06,0.016485625
,,,-3.16E-06,0.016305625
,,,-3.15E-06,0.01658125
,,,-3.14E-06,0.016380625
,,,-3.13E-06,0.016515625
,,,-3.12E-06,0.016303125
,,,-3.11E-06,0.016356875
,,,-3.1E-06,0.016303125
,,,-3.09E-06,0.01641875
,,,-3.08E-06,0.0164175
,,,-3.07E-06,0.016346875
,,,-3.06E-06,0.016341875
,,,-3.05E-06,0.01658875
,,,-3.04E-06,0.016409375
,,,-3.03E-06,0.016565625
,,,-3.02E-06,0.016379375
,,,-3.01E-06,0.016499375
,,,-3E-06,0.016291875
,,,-2.99E-06,0.016305625
,,,-2.98E-06,0.0165975
,,,-2.97E-06,0.01634625
,,,-2.96E-06,0.016234375
,,,-2.95E-06,0.016368125
,,,-2.94E-06,0.016213125
,,,-2.93E-06,0.016299375
,,,-2.92E-06,0.016354375
,,,-2.91E-06,0.01655
,,,-2.9E-06,0.0162725
,,,-2.89E-06,0.01643
,,,-2.88E-06,0.016290625
,,,-2.87E-06,0.0164025
,,,-2.86E-06,0.01647375
,,,-2.85E-06,0.01645
,,,-2.84E-06,0.01648625
,,,-2.83E-06,0.01640875
,,,-2.82E-06,0.01642375
,,,-2.81E-06,0.0165125
,,,-2.8E-06,0.016305625
,,,-2.79E-06,0.01628
,,,-2.78E-06,0.016331875
,,,-2.77E-06,0.016415
,,,-2.76E-06,0.01633375
,,,-2.75E-06,0.016289375
,,,-2.74E-06,0.01593875
,,,-2.73E-06,0.016274375
,,,-2.72E-06,0.0165
,,,-2.71E-06,0.016064375
,,,-2.7E-06,0.016280625
,,,-2.69E-06,0.016316875
,,,-2.68E-06,0.01654375
,,,-2.67E-06,0.01644125
,,,-2.66E-06,0.016374375
,,,-2.65E-06,0.01649625
,,,-2.64E-06,0.016155625
,,,-2.63E-06,0.01625
,,,-2.62E-06,0.016065
,,,-2.61E-06,0.01622625
,,,-2.6E-06,0.016255
,,,-2.59E-06,0.0164875
,,,-2.58E-06,0.016308125
,,,-2.57E-06,0.016340625
,,,-2.56E-06,0.01617375
,,,-2.55E-06,0.016495625
,,,-2.54E-06,0.01643125
,,,-2.53E-06,0.016175625
,,,-2.52E-06,0.016228125
,,,-2.51E-06,0.016116875
,,,-2.5E-06,0.01625375
,,,-2.49E-06,0.016555
,,,-2.48E-06,0.016121875
,,,-2.47E-06,0.016475
,,,-2.46E-06,0.01636625
,,,-2.45E-06,0.016499375
,,,-2.44E-06,0.016133125
,,,-2.43E-06,0.01645
,,,-2.42E-06,0.0163475
,,,-2.41E-06,0.016546875
,,,-2.4E-06,0.0163
,,,-2.39E-06,0.0162275
,,,-2.38E-06,0.0165875
,,,-2.37E-06,0.016431875
,,,-2.36E-06,0.0163325
,,,-2.35E-06,0.01639
,,,-2.34E-06,0.016378125
,,,-2.33E-06,0.016310625
,,,-2.32E-06,0.016245625
,,,-2.31E-06,0.016296875
,,,-2.3E-06,0.016490625
,,,-2.29E-06,0.016271875
,,,-2.28E-06,0.016230625
,,,-2.27E-06,0.01616125
,,,-2.26E-06,0.0165025
,,,-2.25E-06,0.016413125
,,,-2.24E-06,0.01633125
,,,-2.23E-06,0.01623375
,,,-2.22E-06,0.016320625
,,,-2.21E-06,0.016176875
,,,-2.2E-06,0.01633625
,,,-2.19E-06,0.01652125
,,,-2.18E-06,0.01652875
,,,-2.17E-06,0.01629625
,,,-2.16E-06,0.016480625
,,,-2.15E-06,0.016276875
,,,-2.14E-06,0.016403125
,,,-2.13E-06,0.01620375
,,,-2.12E-06,0.0164275
,,,-2.11E-06,0.016399375
,,,-2.1E-06,0.01636625
,,,-2.09E-06,0.016145625
,,,-2.08E-06,0.016295625
,,,-2.07E-06,0.01655625
,,,-2.06E-06,0.01644125
,,,-2.05E-06,0.016380625
,,,-2.04E-06,0.016344375
,,,-2.03E-06,0.01643125
,,,-2.02E-06,0.016434375
,,,-2.01E-06,0.016025
,,,-2E-06,0.01614875
,,,-1.99E-06,0.016366875
,,,-1.98E-06,0.01639625
,,,-1.97E-06,0.016329375
,,,-1.96E-06,0.016591875
,,,-1.95E-06,0.01661125
,,,-1.94E-06,0.01635375
,,,-1.93E-06,0.016318125
,,,-1.92E-06,0.01631625
,,,-1.91E-06,0.01669375
,,,-1.9E-06,0.016356875
,,,-1.89E-06,0.016175
,,,-1.88E-06,0.016355
,,,-1.87E-06,0.0162325
,,,-1.86E-06,0.016306875
,,,-1.85E-06,0.016525
,,,-1.84E-06,0.0163225
,,,-1.83E-06,0.016230625
,,,-1.82E-06,0.016503125
,,,-1.81E-06,0.01636375
,,,-1.8E-06,0.01634625
,,,-1.79E-06,0.01623
,,,-1.78E-06,0.016334375
,,,-1.77E-06,0.016413125
,,,-1.76E-06,0.016246875
,,,-1.75E-06,0.016269375
,,,-1.74E-06,0.016286875
,,,-1.73E-06,0.016409375
,,,-1.72E-06,0.016208125
,,,-1.71E-06,0.016489375
,,,-1.7E-06,0.016213125
,,,-1.69E-06,0.016345625
,,,-1.68E-06,0.016289375
,,,-1.67E-06,0.016248125
,,,-1.66E-06,0.016211875
,,,-1.65E-06,0.016371875
,,,-1.64E-06,0.016350625
,,,-1.63E-06,0.01602125
,,,-1.62E-06,0.01623
,,,-1.61E-06,0.016510625
,,,-1.6E-06,0.0162875
,,,-1.59E-06,0.016223125
,,,-1.58E-06,0.0164825
,,,-1.57E-06,0.01641875
,,,-1.56E-06,0.01619625
,,,-1.55E-06,0.0163775
,,,-1.54E-06,0.015978125
,,,-1.53E-06,0.01625125
,,,-1.52E-06,0.01649
,,,-1.51E-06,0.016235625
,,,-1.5E-06,0.01635875
,,,-1.49E-06,0.01628
,,,-1.48E-06,0.016334375
,,,-1.47E-06,0.016425
,,,-1.46E-06,0.01655
,,,-1.45E-06,0.01641625
,,,-1.44E-06,0.016364375
,,,-1.43E-06,0.016446875
,,,-1.42E-06,0.016494375
,,,-1.41E-06,0.016570625
,,,-1.4E-06,0.01620625
,,,-1.39E-06,0.0163875
,,,-1.38E-06,0.01651375
,,,-1.37E-06,0.01629125
,,,-1.36E-06,0.016304375
,,,-1.35E-06,0.016249375
,,,-1.34E-06,0.016266875
,,,-1.33E-06,0.016459375
,,,-1.32E-06,0.016425625
,,,-1.31E-06,0.016369375
,,,-1.3E-06,0.0163325
,,,-1.29E-06,0.0163825
,,,-1.28E-06,0.016586875
,,,-1.27E-06,0.01627875
,,,-1.26E-06,0.01639875
,,,-1.25E-06,0.016334375
,,,-1.24E-06,0.0162025
,,,-1.23E-06,0.016291875
,,,-1.22E-06,0.016489375
,,,-1.21E-06,0.016411875
,,,-1.2E-06,0.0163925
,,,-1.19E-06,0.01628875
,,,-1.18E-06,0.016364375
,,,-1.17E-06,0.01651
,,,-1.16E-06,0.016544375
,,,-1.15E-06,0.016565
,,,-1.14E-06,0.016528125
,,,-1.13E-06,0.016145625
,,,-1.12E-06,0.0163275
,,,-1.11E-06,0.01642125
,,,-1.1E-06,0.0162925
,,,-1.09E-06,0.016664375
,,,-1.08E-06,0.016140625
,,,-1.07E-06,0.01649
,,,-1.06E-06,0.016275625
,,,-1.05E-06,0.016291875
,,,-1.04E-06,0.0162275
,,,-1.03E-06,0.01636875
,,,-1.02E-06,0.016335
,,,-1.01E-06,0.016331875
,,,-1E-06,0.01638375
,,,-9.9E-07,0.01655375
,,,-9.8E-07,0.01625875
,,,-9.7E-07,0.016140625
,,,-9.6E-07,0.0164175
,,,-9.5E-07,0.016400625
,,,-9.4E-07,0.01624875
,,,-9.3E-07,0.01611125
,,,-9.2E-07,0.01642875
,,,-9.1E-07,0.016425625
,,,-9E-07,0.0164
,,,-8.9E-07,0.0162875
,,,-8.8E-07,0.016174375
,,,-8.7E-07,0.016169375
,,,-8.6E-07,0.0164825
,,,-8.5E-07,0.01621375
,,,-8.4E-07,0.0163725
,,,-8.3E-07,0.0164175
,,,-8.2E-07,0.01648875
,,,-8.1E-07,0.016185625
,,,-8E-07,0.01603875
,,,-7.9E-07,0.016145625
,,,-7.8E-07,0.0162425
,,,-7.7E-07,0.016225
,,,-7.6E-07,0.016323125
,,,-7.5E-07,0.016409375
,,,-7.4E-07,0.016456875
,,,-7.3E-07,0.01614125
,,,-7.2E-07,0.01625625
,,,-7.1E-07,0.01627
,,,-7E-07,0.016328125
,,,-6.9E-07,0.016263125
,,,-6.8E-07,0.01634625
,,,-6.7E-07,0.0163825
,,,-6.6E-07,0.01632375
,,,-6.5E-07,0.01631125
,,,-6.4E-07,0.016411875
,,,-6.3E-07,0.016455625
,,,-6.2E-07,0.016085625
,,,-6.1E-07,0.0162725
,,,-6E-07,0.01602625
,,,-5.9E-07,0.0164625
,,,-5.8E-07,0.0164225
,,,-5.7E-07,0.01641875
,,,-5.6E-07,0.016293125
,,,-5.5E-07,0.016645
,,,-5.4E-07,0.016324375
,,,-5.3E-07,0.016050625
,,,-5.2E-07,0.016276875
,,,-5.1E-07,0.01603875
,,,-5E-07,0.01626625
,,,-4.9E-07,0.016269375
,,,-4.8E-07,0.016373125
,,,-4.7E-07,0.016306875
,,,-4.6E-07,0.0163925
,,,-4.5E-07,0.01627125
,,,-4.4E-07,0.016275625
,,,-4.3E-07,0.0163375
,,,-4.2E-07,0.0163275
,,,-4.1E-07,0.016171875
,,,-4E-07,0.01635625
,,,-3.9E-07,0.0163975
,,,-3.8E-07,0.016433125
,,,-3.7E-07,0.01642
,,,-3.6E-07,0.016395
,,,-3.5E-07,0.016403125
,,,-3.4E-07,0.01647875
,,,-3.3E-07,0.016384375
,,,-3.2E-07,0.0165675
,,,-3.1E-07,0.016158125
,,,-3E-07,0.016348125
,,,-2.9E-07,0.01632375
,,,-2.8E-07,0.01616625
,,,-2.7E-07,0.016245
,,,-2.6E-07,0.016508125
,,,-2.5E-07,0.01643
,,,-2.4E-07,0.01625375
,,,-2.3E-07,0.016325
,,,-2.2E-07,0.0164575
,,,-2.1E-07,0.01632625
,,,-2E-07,0.016301875
,,,-1.9E-07,0.016470625
,,,-1.8E-07,0.0165225
,,,-1.7E-07,0.016384375
,,,-1.6E-07,0.01633375
,,,-1.5E-07,0.01642875
,,,-1.4E-07,0.016445
,,,-1.3E-07,0.01641875
,,,-1.2E-07,0.016341875
,,,-1.1E-07,0.0164225
,,,-1E-07,0.016615625
,,,-9E-08,0.01634625
,,,-8E-08,0.01599875
,,,-7E-08,0.015805625
,,,-6E-08,0.016759375
,,,-5E-08,0.01679625
,,,-4E-08,0.016965625
,,,-3E-08,0.0178625
,,,-2E-08,0.015670625
,,,-1E-08,0.01326875
,,,0,0.0127975
,,,1E-08,0.017519375
,,,2E-08,0.02028625
,,,3E-08,0.020193125
,,,4E-08,0.016791875
,,,5E-08,0.014156875
,,,6E-08,0.012968125
,,,7E-08,0.014396875
,,,8E-08,0.01647875
,,,9E-08,0.017660625
,,,1E-07,0.018649375
,,,1.1E-07,0.01740375
,,,1.2E-07,0.015823125
,,,1.3E-07,0.014915625
,,,1.4E-07,0.01545625
,,,1.5E-07,0.01630375
,,,1.6E-07,0.016788125
,,,1.7E-07,0.016833125
,,,1.8E-07,0.016245
,,,1.9E-07,0.0163475
,,,2E-07,0.016470625
,,,2.1E-07,0.016338125
,,,2.2E-07,0.015958125
,,,2.3E-07,0.016325
,,,2.4E-07,0.016196875
,,,2.5E-07,0.016546875
,,,2.6E-07,0.01649625
,,,2.7E-07,0.016396875
,,,2.8E-07,0.01640875
,,,2.9E-07,0.016245
,,,3E-07,0.01644
,,,3.1E-07,0.016171875
,,,3.2E-07,0.016109375
,,,3.3E-07,0.01652875
,,,3.4E-07,0.016314375
,,,3.5E-07,0.016374375
,,,3.6E-07,0.016420625
,,,3.7E-07,0.016236875
,,,3.8E-07,0.0160275
,,,3.9E-07,0.016449375
,,,4E-07,0.016090625
,,,4.1E-07,0.016426875
,,,4.2E-07,0.016505
,,,4.3E-07,0.016126875
,,,4.4E-07,0.016289375
,,,4.5E-07,0.016256875
,,,4.6E-07,0.0162375
,,,4.7E-07,0.016240625
,,,4.8E-07,0.016205
,,,4.9E-07,0.016224375
,,,5E-07,0.0164725
,,,5.1E-07,0.016461875
,,,5.2E-07,0.01645125
,,,5.3E-07,0.016463125
,,,5.4E-07,0.016119375
,,,5.5E-07,0.016518125
,,,5.6E-07,0.016345625
,,,5.7E-07,0.016359375
,,,5.8E-07,0.0162075
,,,5.9E-07,0.0164
,,,6E-07,0.01644625
,,,6.1E-07,0.016470625
,,,6.2E-07,0.01640875
,,,6.3E-07,0.01652
,,,6.4E-07,0.0165775
,,,6.5E-07,0.0160525
,,,6.6E-07,0.0164725
,,,6.7E-07,0.01643
,,,6.8E-07,0.016191875
,,,6.9E-07,0.016513125
,,,7E-07,0.01645625
,,,7.1E-07,0.01632
,,,7.2E-07,0.016159375
,,,7.3E-07,0.016155625
,,,7.4E-07,0.016429375
,,,7.5E-07,0.016484375
,,,7.6E-07,0.01622875
,,,7.7E-07,0.016483125
,,,7.8E-07,0.016625
,,,7.9E-07,0.016388125
,,,8E-07,0.01642875
,,,8.1E-07,0.016393125
,,,8.2E-07,0.016468125
,,,8.3E-07,0.016154375
,,,8.4E-07,0.016544375
,,,8.5E-07,0.016416875
,,,8.6E-07,0.0162525
,,,8.7E-07,0.01651125
,,,8.8E-07,0.016275
,,,8.9E-07,0.016299375
,,,9E-07,0.016470625
,,,9.1E-07,0.0162375
,,,9.2E-07,0.0162175
,,,9.3E-07,0.016275
,,,9.4E-07,0.01624875
,,,9.5E-07,0.0166425
,,,9.6E-07,0.016228125
,,,9.7E-07,0.016340625
,,,9.8E-07,0.016375
,,,9.9E-07,0.016088125
,,,1E-06,0.016619375
,,,1.01E-06,0.01652125
,,,1.02E-06,0.01621
,,,1.03E-06,0.016189375
,,,1.04E-06,0.01649875
,,,1.05E-06,0.016458125
,,,1.06E-06,0.016266875
,,,1.07E-06,0.0162825
,,,1.08E-06,0.016251875
,,,1.09E-06,0.016370625
,,,1.1E-06,0.01607
,,,1.11E-06,0.01624375
,,,1.12E-06,0.016371875
,,,1.13E-06,0.01633
,,,1.14E-06,0.016465
,,,1.15E-06,0.01628875
,,,1.16E-06,0.016393125
,,,1.17E-06,0.016331875
,,,1.18E-06,0.01643125
,,,1.19E-06,0.016495
,,,1.2E-06,0.01631875
,,,1.21E-06,0.01641875
,,,1.22E-06,0.016155
,,,1.23E-06,0.016565625
,,,1.24E-06,0.0163675
,,,1.25E-06,0.016225625
,,,1.26E-06,0.0164675
,,,1.27E-06,0.01619625
,,,1.28E-06,0.016210625
,,,1.29E-06,0.016289375
,,,1.3E-06,0.01618
,,,1.31E-06,0.016443125
,,,1.32E-06,0.016221875
,,,1.33E-06,0.016315
,,,1.34E-06,0.01641875
,,,1.35E-06,0.016356875
,,,1.36E-06,0.0162225
,,,1.37E-06,0.016493125
,,,1.38E-06,0.0163725
,,,1.39E-06,0.016495
,,,1.4E-06,0.016424375
,,,1.41E-06,0.016554375
,,,1.42E-06,0.016373125
,,,1.43E-06,0.0165275
,,,1.44E-06,0.016269375
,,,1.45E-06,0.0162125
,,,1.46E-06,0.016446875
,,,1.47E-06,0.016440625
,,,1.48E-06,0.016079375
,,,1.49E-06,0.016459375
,,,1.5E-06,0.0165125
,,,1.51E-06,0.016198125
,,,1.52E-06,0.016285625
,,,1.53E-06,0.01628875
,,,1.54E-06,0.016109375
,,,1.55E-06,0.016331875
,,,1.56E-06,0.01633625
,,,1.57E-06,0.016196875
,,,1.58E-06,0.0162825
,,,1.59E-06,0.016326875
,,,1.6E-06,0.016405
,,,1.61E-06,0.016435625
,,,1.62E-06,0.016216875
,,,1.63E-06,0.01649125
,,,1.64E-06,0.01623
,,,1.65E-06,0.016425
,,,1.66E-06,0.016484375
,,,1.67E-06,0.016229375
,,,1.68E-06,0.016531875
,,,1.69E-06,0.01616375
,,,1.7E-06,0.016126875
,,,1.71E-06,0.016230625
,,,1.72E-06,0.016733125
,,,1.73E-06,0.01643625
,,,1.74E-06,0.0163075
,,,1.75E-06,0.0164
,,,1.76E-06,0.016509375
,,,1.77E-06,0.01622
,,,1.78E-06,0.016299375
,,,1.79E-06,0.01642625
,,,1.8E-06,0.01625375
,,,1.81E-06,0.0162675
,,,1.82E-06,0.016479375
,,,1.83E-06,0.01618
,,,1.84E-06,0.016409375
,,,1.85E-06,0.0161525
,,,1.86E-06,0.015988125
,,,1.87E-06,0.016510625
,,,1.88E-06,0.016355625
,,,1.89E-06,0.016355625
,,,1.9E-06,0.016435
,,,1.91E-06,0.016245
,,,1.92E-06,0.016514375
,,,1.93E-06,0.016585625
,,,1.94E-06,0.016199375
,,,1.95E-06,0.016225625
,,,1.96E-06,0.0161225
,,,1.97E-06,0.016249375
,,,1.98E-06,0.016245625
,,,1.99E-06,0.01641125
,,,2E-06,0.016440625
,,,2.01E-06,0.0162
,,,2.02E-06,0.016355625
,,,2.03E-06,0.0162575
,,,2.04E-06,0.0164875
,,,2.05E-06,0.01632875
,,,2.06E-06,0.016309375
,,,2.07E-06,0.016303125
,,,2.08E-06,0.01639375
,,,2.09E-06,0.016115625
,,,2.1E-06,0.01623875
,,,2.11E-06,0.016318125
,,,2.12E-06,0.016370625
,,,2.13E-06,0.016083125
,,,2.14E-06,0.016393125
,,,2.15E-06,0.01632625
,,,2.16E-06,0.016423125
,,,2.17E-06,0.01653
,,,2.18E-06,0.01637375
,,,2.19E-06,0.0160725
,,,2.2E-06,0.01638375
,,,2.21E-06,0.016231875
,,,2.22E-06,0.0163225
,,,2.23E-06,0.016225625
,,,2.24E-06,0.016354375
,,,2.25E-06,0.0165725
,,,2.26E-06,0.01607875
,,,2.27E-06,0.016335625
,,,2.28E-06,0.016288125
,,,2.29E-06,0.016264375
,,,2.3E-06,0.016343125
,,,2.31E-06,0.0164325
,,,2.32E-06,0.016435
,,,2.33E-06,0.016465625
,,,2.34E-06,0.01634375
,,,2.35E-06,0.016333125
,,,2.36E-06,0.016426875
,,,2.37E-06,0.01639
,,,2.38E-06,0.016586875
,,,2.39E-06,0.016465625
,,,2.4E-06,0.01644125
,,,2.41E-06,0.01602375
,,,2.42E-06,0.016428125
,,,2.43E-06,0.0162675
,,,2.44E-06,0.016183125
,,,2.45E-06,0.0163575
,,,2.46E-06,0.016228125
,,,2.47E-06,0.016244375
,,,2.48E-06,0.016614375
,,,2.49E-06,0.0162025
,,,2.5E-06,0.016308125
,,,2.51E-06,0.01662375
,,,2.52E-06,0.016101875
,,,2.53E-06,0.016198125
,,,2.54E-06,0.016371875
,,,2.55E-06,0.01650125
,,,2.56E-06,0.016345625
,,,2.57E-06,0.0164125
,,,2.58E-06,0.016606875
,,,2.59E-06,0.016441875
,,,2.6E-06,0.01641125
,,,2.61E-06,0.016256875
,,,2.62E-06,0.016219375
,,,2.63E-06,0.016209375
,,,2.64E-06,0.016285625
,,,2.65E-06,0.016485
,,,2.66E-06,0.016295625
,,,2.67E-06,0.01637875
,,,2.68E-06,0.016323125
,,,2.69E-06,0.016484375
,,,2.7E-06,0.0163975
,,,2.71E-06,0.016221875
,,,2.72E-06,0.01621
,,,2.73E-06,0.01659375
,,,2.74E-06,0.016455625
,,,2.75E-06,0.0163525
,,,2.76E-06,0.016236875
,,,2.77E-06,0.016471875
,,,2.78E-06,0.0163025
,,,2.79E-06,0.01657875
,,,2.8E-06,0.016108125
,,,2.81E-06,0.016284375
,,,2.82E-06,0.016176875
,,,2.83E-06,0.016228125
,,,2.84E-06,0.016348125
,,,2.85E-06,0.016363125
,,,2.86E-06,0.016329375
,,,2.87E-06,0.016566875
,,,2.88E-06,0.016290625
,,,2.89E-06,0.016551875
,,,2.9E-06,0.01630125
,,,2.91E-06,0.016568125
,,,2.92E-06,0.01613625
,,,2.93E-06,0.016395
,,,2.94E-06,0.016131875
,,,2.95E-06,0.01636125
,,,2.96E-06,0.01627625
,,,2.97E-06,0.0165225
,,,2.98E-06,0.016175
,,,2.99E-06,0.0163375
,,,3E-06,0.01627125
,,,3.01E-06,0.016253125
,,,3.02E-06,0.016271875
,,,3.03E-06,0.01622875
,,,3.04E-06,0.016300625
,,,3.05E-06,0.0163125
,,,3.06E-06,0.01606
,,,3.07E-06,0.016461875
,,,3.08E-06,0.01626875
,,,3.09E-06,0.0163825
,,,3.1E-06,0.016266875
,,,3.11E-06,0.01630875
,,,3.12E-06,0.016146875
,,,3.13E-06,0.01653125
,,,3.14E-06,0.016423125
,,,3.15E-06,0.016325
,,,3.16E-06,0.01633375
,,,3.17E-06,0.016334375
,,,3.18E-06,0.016225625
,,,3.19E-06,0.0163125
,,,3.2E-06,0.016488125
,,,3.21E-06,0.01639875
,,,3.22E-06,0.0161575
,,,3.23E-06,0.0165125
,,,3.24E-06,0.016368125
,,,3.25E-06,0.01646875
,,,3.26E-06,0.016308125
,,,3.27E-06,0.016380625
,,,3.28E-06,0.016120625
,,,3.29E-06,0.01632375
,,,3.3E-06,0.016345
,,,3.31E-06,0.016186875
,,,3.32E-06,0.0164225
,,,3.33E-06,0.01647625
,,,3.34E-06,0.0162375
,,,3.35E-06,0.016364375
,,,3.36E-06,0.0162625
,,,3.37E-06,0.01645
,,,3.38E-06,0.016144375
,,,3.39E-06,0.01632
,,,3.4E-06,0.01646125
,,,3.41E-06,0.016431875
,,,3.42E-06,0.01613875
,,,3.43E-06,0.0161175
,,,3.44E-06,0.016409375
,,,3.45E-06,0.0161875
,,,3.46E-06,0.016059375
,,,3.47E-06,0.01642375
,,,3.48E-06,0.0166275
,,,3.49E-06,0.016456875
,,,3.5E-06,0.01640125
,,,3.51E-06,0.01648875
,,,3.52E-06,0.016473125
,,,3.53E-06,0.016296875
,,,3.54E-06,0.0165925
,,,3.55E-06,0.01661375
