data/raw/Final_POL_Test_1/SOP093_Ch1.csv

"Record Length",1000,"Points",-5E-06,0.007185625
"Sample Interval",1E-08,s,-4.99E-06,0.00748125
"Trigger Point",500,"Samples",-4.98E-06,0.007478125
"Trigger Time",0,s,-4.97E-06,0.007268125
"",,,-4.96E-06,0.00746
"Horizontal Offset",-5E-06,s,-4.95E-06,0.007510625
,,,-4.94E-06,0.00718375
,,,-4.93E-06,0.00738125
,,,-4.92E-06,0.007234375
,,,-4.91E-06,0.0071875
,,,-4.9E-06,0.00739125
,,,-4.89E-06,0.007446875
,,,-4.88E-06,0.00716125
,,,-4.87E-06,0.00732625
,,,-4.86E-06,0.007300625
,,,-4.85E-06,0.007096875
,,,-4.84E-06,0.0072825
,,,-4.83E-06,0.007175625
,,,-4.82E-06,0.007215
,,,-4.81E-06,0.006859375
,,,-4.8E-06,0.0072875
,,,-4.79E-06,0.00720125
,,,-4.78E-06,0.00712125
,,,-4.77E-06,0.007434375
,,,-4.76E-06,0.00731125
,,,-4.75E-06,0.00732875
,,,-4.74E-06,0.00737375
,,,-4.73E-06,0.00715625
,,,-4.72E-06,0.007189375
,,,-4.71E-06,0.007556875
,,,-4.7E-06,0.0072975
,,,-4.69E-06,0.007146875
,,,-4.68E-06,0.007415625
,,,-4.67E-06,0.007429375
,,,-4.66E-06,0.007231875
,,,-4.65E-06,0.007270625
,,,-4.64E-06,0.00720375
,,,-4.63E-06,0.007171875
,,,-4.62E-06,0.007266875
,,,-4.61E-06,0.0071675
,,,-4.6E-06,0.007151875
,,,-4.59E-06,0.0073675
,,,-4.58E-06,0.0072325
,,,-4.57E-06,0.007245
,,,-4.56E-06,0.007484375
,,,-4.55E-06,0.007185625
,,,-4.54E-06,0.0072675
,,,-4.53E-06,0.0070775
,,,-4.52E-06,0.007395
,,,-4.51E-06,0.007161875
,,,-4.5E-06,0.007135625
,,,-4.49E-06,0.007344375
,,,-4.48E-06,0.007254375
,,,-4.47E-06,0.007206875
,,,-4.46E-06,0.00714625
,,,-4.45E-06,0.007004375
,,,-4.44E-06,0.00726125
,,,-4.43E-06,0.007303125
,,,-4.42E-06,0.007368125
,,,-4.41E-06,0.0073575
,,,-4.4E-06,0.00739
,,,-4.39E-06,0.007335
,,,-4.38E-06,0.007003125
,,,-4.37E-06,0.007139375
,,,-4.36E-06,0.0074125
,,,-4.35E-06,0.007235
,,,-4.34E-06,0.0073425
,,,-4.33E-06,0.007010625
,,,-4.32E-06,0.0072325
,,,-4.31E-06,0.00735
,,,-4.3E-06,0.007285625
,,,-4.29E-06,0.007298125
,,,-4.28E-06,0.0073275
,,,-4.27E-06,0.0074775
,,,-4.26E-06,0.00729125
,,,-4.25E-06,0.00734875
,,,-4.24E-06,0.0075075
,,,-4.23E-06,0.007445
,,,-4.22E-06,0.00726125
,,,-4.21E-06,0.007315
,,,-4.2E-06,0.00740625
,,,-4.19E-06,0.007339375
,,,-4.18E-06,0.007299375
,,,-4.17E-06,0.00756875
,,,-4.16E-06,0.00735375
,,,-4.15E-06,0.007361875
,,,-4.14E-06,0.00715
,,,-4.13E-06,0.007235
,,,-4.12E-06,0.007133125
,,,-4.11E-06,0.0072025
,,,-4.1E-06,0.00695
,,,-4.09E-06,0.007246875
,,,-4.08E-06,0.00733375
,,,-4.07E-06,0.00727375
,,,-4.06E-06,0.007445625
,,,-4.05E-06,0.00741
,,,-4.04E-06,0.007113125
,,,-4.03E-06,0.0072975
,,,-4.02E-06,0.00725625
,,,-4.01E-06,0.007410625
,,,-4E-06,0.00722625
,,,-3.99E-06,0.00716125
,,,-3.98E-06,0.00728375
,,,-3.97E-06,0.007326875
,,,-3.96E-06,0.00720625
,,,-3.95E-06,0.00723125
,,,-3.94E-06,0.007475
,,,-3.93E-06,0.007153125
,,,-3.92E-06,0.00723875
,,,-3.91E-06,0.0072425
,,,-3.9E-06,0.007211875
,,,-3.89E-06,0.00731375
,,,-3.88E-06,0.00741
,,,-3.87E-06,0.007171875
,,,-3.86E-06,0.00752625
,,,-3.85E-06,0.007338125
,,,-3.84E-06,0.007363125
,,,-3.83E-06,0.007483125
,,,-3.82E-06,0.00738875
,,,-3.81E-06,0.00724125
,,,-3.8E-06,0.007163125
,,,-3.79E-06,0.00736625
,,,-3.78E-06,0.007044375
,,,-3.77E-06,0.007350625
,,,-3.76E-06,0.006998125
,,,-3.75E-06,0.00720625
,,,-3.74E-06,0.007230625
,,,-3.73E-06,0.00740875
,,,-3.72E-06,0.00743375
,,,-3.71E-06,0.007294375
,,,-3.7E-06,0.00712
,,,-3.69E-06,0.0073525
,,,-3.68E-06,0.0072425
,,,-3.67E-06,0.007126875
,,,-3.66E-06,0.007215
,,,-3.65E-06,0.00722875
,,,-3.64E-06,0.00717
,,,-3.63E-06,0.007108125
,,,-3.62E-06,0.00717375
,,,-3.61E-06,0.007359375
,,,-3.6E-06,0.0073475
,,,-3.59E-06,0.00713375
,,,-3.58E-06,0.007425
,,,-3.57E-06,0.0072775
,,,-3.56E-06,0.007243125
,,,-3.55E-06,0.007470625
,,,-3.54E-06,0.007188125
,,,-3.53E-06,0.007231875
,,,-3.52E-06,0.00710625
,,,-3.51E-06,0.007324375
,,,-3.5E-06,0.007259375
,,,-3.49E-06,0.0073075
,,,-3.48E-06,0.00736625
,,,-3.47E-06,0.007149375
,,,-3.46E-06,0.007259375
,,,-3.45E-06,0.007531875
,,,-3.44E-06,0.00724625
,,,-3.43E-06,0.0073175
,,,-3.42E-06,0.00726875
,,,-3.41E-06,0.0075475
,,,-3.4E-06,0.007409375
,,,-3.39E-06,0.00736875
,,,-3.38E-06,0.007200625
,,,-3.37E-06,0.007175625
,,,-3.36E-06,0.007215625
,,,-3.35E-06,0.007285625
,,,-3.34E-06,0.007250625
,,,-3.33E-06,0.007335625
,,,-3.32E-06,0.007240625
,,,-3.31E-06,0.0074925
,,,-3.3E-06,0.00730875
,,,-3.29E-06,0.007283125
,,,-3.28E-06,0.007209375
,,,-3.27E-06,0.0071725
,,,-3.26E-06,0.007404375
,,,-3.25E-06,0.007415625
,,,-3.24E-06,0.00745
,,,-3.23E-06,0.00730625
,,,-3.22E-06,0.00720875
,,,-3.21E-06,0.006980625
,,,-3.2E-06,0.007284375
,,,-3.19E-06,0.0073275
,,,-3.18E-06,0.007269375
,,,-3.17E-06,0.007261875
,,,-3.16E-06,0.007275625
,,,-3.15E-06,0.007631875
,,,-3.14E-06,0.00739625
,,,-3.13E-06,0.007173125
,,,-3.12E-06,0.007345625
,,,-3.11E-06,0.007211875
,,,-3.1E-06,0.007151875
,,,-3.09E-06,0.00718625
,,,-3.08E-06,0.007271875
,,,-3.07E-06,0.00710375
,,,-3.06E-06,0.00721
,,,-3.05E-06,0.00710875
,,,-3.04E-06,0.007150625
,,,-3.03E-06,0.007063125
,,,-3.02E-06,0.00711125
,,,-3.01E-06,0.00729125
,,,-3E-06,0.00726125
,,,-2.99E-06,0.007213125
,,,-2.98E-06,0.007281875
,,,-2.97E-06,0.0071125
,,,-2.96E-06,0.007305
,,,-2.95E-06,0.007406875
,,,-2.94E-06,0.007346875
,,,-2.93E-06,0.00738125
,,,-2.92E-06,0.0071675
,,,-2.91E-06,0.00731375
,,,-2.9E-06,0.007095625
,,,-2.89E-06,0.007146875
,,,-2.88E-06,0.007199375
,,,-2.87E-06,0.007321875
,,,-2.86E-06,0.007241875
,,,-2.85E-06,0.00723375
,,,-2.84E-06,0.00729375
,,,-2.83E-06,0.00733625
,,,-2.82E-06,0.00737125
,,,-2.81E-06,0.0071525
,,,-2.8E-06,0.007199375
,,,-2.79E-06,0.00738375
,,,-2.78E-06,0.007165
,,,-2.77E-06,0.00744625
,,,-2.76E-06,0.007100625
,,,-2.75E-06,0.007418125
,,,-2.74E-06,0.00719375
,,,-2.73E-06,0.007321875
,,,-2.72E-06,0.007444375
,,,-2.71E-06,0.007078125
,,,-2.7E-06,0.0071675
,,,-2.69E-06,0.007119375
,,,-2.68E-06,0.00701
,,,-2.67E-06,0.007460625
,,,-2.66E-06,0.007190625
,,,-2.65E-06,0.00718875
,,,-2.64E-06,0.007138125
,,,-2.63E-06,0.007445
,,,-2.62E-06,0.007374375
,,,-2.61E-06,0.00716
,,,-2.6E-06,0.00731
,,,-2.59E-06,0.007405
,,,-2.58E-06,0.007551875
,,,-2.57E-06,0.007329375
,,,-2.56E-06,0.007444375
,,,-2.55E-06,0.0071275
,,,-2.54E-06,0.007520625
,,,-2.53E-06,0.0072775
,,,-2.52E-06,0.0074725
,,,-2.51E-06,0.007350625
,,,-2.5E-06,0.0073325
,,,-2.49E-06,0.0073325
,,,-2.48E-06,0.007185
,,,-2.47E-06,0.00745
,,,-2.46E-06,0.00717
,,,-2.45E-06,0.00718
,,,-2.44E-06,0.0072425
,,,-2.43E-06,0.00740625
,,,-2.42E-06,0.007114375
,,,-2.41E-06,0.00728375
,,,-2.4E-06,0.0072175
,,,-2.39E-06,0.007383125
,,,-2.38E-06,0.00708625
,,,-2.37E-06,0.007255625
,,,-2.36E-06,0.00716
,,,-2.35E-06,0.007345625
,,,-2.34E-06,0.007086875
,,,-2.33E-06,0.007308125
,,,-2.32E-06,0.007504375
,,,-2.31E-06,0.007119375
,,,-2.3E-06,0.007235625
,,,-2.29E-06,0.007261875
,,,-2.28E-06,0.0072975
,,,-2.27E-06,0.007245625
,,,-2.26E-06,0.00736875
,,,-2.25E-06,0.007375
,,,-2.24E-06,0.00765125
,,,-2.23E-06,0.00738875
,,,-2.22E-06,0.0072825
,,,-2.21E-06,0.007211875
,,,-2.2E-06,0.007038125
,,,-2.19E-06,0.00731375
,,,-2.18E-06,0.007491875
,,,-2.17E-06,0.007211875
,,,-2.16E-06,0.007411875
,,,-2.15E-06,0.007088125
,,,-2.14E-06,0.007254375
,,,-2.13E-06,0.0071025
,,,-2.12E-06,0.007379375
,,,-2.11E-06,0.007271875
,,,-2.1E-06,0.00729125
,,,-2.09E-06,0.00716875
,,,-2.08E-06,0.00721125
,,,-2.07E-06,0.00733
,,,-2.06E-06,0.007065625
,,,-2.05E-06,0.00735375
,,,-2.04E-06,0.007619375
,,,-2.03E-06,0.0072275
,,,-2.02E-06,0.00735375
,,,-2.01E-06,0.007238125
,,,-2E-06,0.00740375
,,,-1.99E-06,0.00737875
,,,-1.98E-06,0.00718875
,,,-1.97E-06,0.00736875
,,,-1.96E-06,0.007524375
,,,-1.95E-06,0.00739125
,,,-1.94E-06,0.007276875
,,,-1.93E-06,0.007424375
,,,-1.92E-06,0.00709875
,,,-1.91E-06,0.007474375
,,,-1.9E-06,0.007208125
,,,-1.89E-06,0.007241875
,,,-1.88E-06,0.0071425
,,,-1.87E-06,0.0072325
,,,-1.86E-06,0.007436875
,,,-1.85E-06,0.007556875
,,,-1.84E-06,0.007370625
,,,-1.83E-06,0.007285
,,,-1.82E-06,0.007228125
,,,-1.81E-06,0.007326875
,,,-1.8E-06,0.007364375
,,,-1.79E-06,0.007243125
,,,-1.78E-06,0.007073125
,,,-1.77E-06,0.0074125
,,,-1.76E-06,0.007478125
,,,-1.75E-06,0.00735
,,,-1.74E-06,0.00744
,,,-1.73E-06,0.00721125
,,,-1.72E-06,0.007205
,,,-1.71E-06,0.0073075
,,,-1.7E-06,0.007275625
,,,-1.69E-06,0.007138125
,,,-1.68E-06,0.007460625
,,,-1.67E-06,0.007499375
,,,-1.66E-06,0.007213125
,,,-1.65E-06,0.00694
,,,-1.64E-06,0.007455
,,,-1.63E-06,0.007411875
,,,-1.62E-06,0.00729125
,,,-1.61E-06,0.00735625
,,,-1.6E-06,0.00708125
,,,-1.59E-06,0.007045625
,,,-1.58E-06,0.00719375
,,,-1.57E-06,0.007055625
,,,-1.56E-06,0.0072875
,,,-1.55E-06,0.007249375
,,,-1.54E-06,0.007241875
,,,-1.53E-06,0.00741
,,,-1.52E-06,0.007200625
,,,-1.51E-06,0.007273125
,,,-1.5E-06,0.00739625
,,,-1.49E-06,0.007286875
,,,-1.48E-06,0.0070725
,,,-1.47E-06,0.007474375
,,,-1.46E-06,0.00717125
,,,-1.45E-06,0.007035625
,,,-1.44E-06,0.007105
,,,-1.43E-06,0.00717625
,,,-1.42E-06,0.00762375
,,,-1.41E-06,0.007388125
,,,-1.4E-06,0.00729
,,,-1.39E-06,0.007433125
,,,-1.38E-06,0.006981875
,,,-1.37E-06,0.007195625
,,,-1.36E-06,0.0074925
,,,-1.35E-06,0.0074925
,,,-1.34E-06,0.007355
,,,-1.33E-06,0.00734375
,,,-1.32E-06,0.00727
,,,-1.31E-06,0.007193125
,,,-1.3E-06,0.00752625
,,,-1.29E-06,0.0072525
,,,-1.28E-06,0.007293125
,,,-1.27E-06,0.00747625
,,,-1.26E-06,0.007055625
,,,-1.25E-06,0.007423125
,,,-1.24E-06,0.007205
,,,-1.23E-06,0.007386875
,,,-1.22E-06,0.00729
,,,-1.21E-06,0.00700875
,,,-1.2E-06,0.007384375
,,,-1.19E-06,0.007371875
,,,-1.18E-06,0.007358125
,,,-1.17E-06,0.00737125
,,,-1.16E-06,0.0072675
,,,-1.15E-06,0.00701
,,,-1.14E-06,0.007335
,,,-1.13E-06,0.007301875
,,,-1.12E-06,0.007321875
,,,-1.11E-06,0.00731875
,,,-1.1E-06,0.007536875
,,,-1.09E-06,0.007395625
,,,-1.08E-06,0.007275
,,,-1.07E-06,0.00727625
,,,-1.06E-06,0.0071675
,,,-1.05E-06,0.0072625
,,,-1.04E-06,0.00728625
,,,-1.03E-06,0.007333125
,,,-1.02E-06,0.00717875
,,,-1.01E-06,0.0072475
,,,-1E-06,0.00719
,,,-9.9E-07,0.00751625
,,,-9.8E-07,0.007554375
,,,-9.7E-07,0.007288125
,,,-9.6E-07,0.00725375
,,,-9.5E-07,0.007013125
,,,-9.4E-07,0.0072125
,,,-9.3E-07,0.00748375
,,,-9.2E-07,0.007371875
,,,-9.1E-07,0.007303125
,,,-9E-07,0.0071575
,,,-8.9E-07,0.00708
,,,-8.8E-07,0.007196875
,,,-8.7E-07,0.00725125
,,,-8.6E-07,0.0073025
,,,-8.5E-07,0.007235625
,,,-8.4E-07,0.007234375
,,,-8.3E-07,0.00740875
,,,-8.2E-07,0.00724
,,,-8.1E-07,0.007261875
,,,-8E-07,0.007345625
,,,-7.9E-07,0.007109375
,,,-7.8E-07,0.00729
,,,-7.7E-07,0.007098125
,,,-7.6E-07,0.007295625
,,,-7.5E-07,0.00721
,,,-7.4E-07,0.007354375
,,,-7.3E-07,0.00723875
,,,-7.2E-07,0.0074875
,,,-7.1E-07,0.00737125
,,,-7E-07,0.00722875
,,,-6.9E-07,0.00753625
,,,-6.8E-07,0.00708125
,,,-6.7E-07,0.0070525
,,,-6.6E-07,0.007256875
,,,-6.5E-07,0.007391875
,,,-6.4E-07,0.00732875
,,,-6.3E-07,0.0071725
,,,-6.2E-07,0.00765125
,,,-6.1E-07,0.007125
,,,-6E-07,0.00746
,,,-5.9E-07,0.007420625
,,,-5.8E-07,0.007241875
,,,-5.7E-07,0.00714625
,,,-5.6E-07,0.007150625
,,,-5.5E-07,0.00732375
,,,-5.4E-07,0.0071625
,,,-5.3E-07,0.007185625
,,,-5.2E-07,0.007228125
,,,-5.1E-07,0.007195625
,,,-5E-07,0.007304375
,,,-4.9E-07,0.007166875
,,,-4.8E-07,0.00710375
,,,-4.7E-07,0.00734
,,,-4.6E-07,0.00730875
,,,-4.5E-07,0.00733
,,,-4.4E-07,0.00747125
,,,-4.3E-07,0.007611875
,,,-4.2E-07,0.007176875
,,,-4.1E-07,0.00731125
,,,-4E-07,0.007534375
,,,-3.9E-07,0.0073375
,,,-3.8E-07,0.007448125
,,,-3.7E-07,0.007459375
,,,-3.6E-07,0.00721875
,,,-3.5E-07,0.00726875
,,,-3.4E-07,0.007144375
,,,-3.3E-07,0.007285625
,,,-3.2E-07,0.007339375
,,,-3.1E-07,0.007138125
,,,-3E-07,0.00732375
,,,-2.9E-07,0.007068125
,,,-2.8E-07,0.0072275
,,,-2.7E-07,0.0071425
,,,-2.6E-07,0.007515625
,,,-2.5E-07,0.007276875
,,,-2.4E-07,0.0071725
,,,-2.3E-07,0.0070575
,,,-2.2E-07,0.00748375
,,,-2.1E-07,0.0072
,,,-2E-07,0.007435625
,,,-1.9E-07,0.00746625
,,,-1.8E-07,0.00738125
,,,-1.7E-07,0.00734625
,,,-1.6E-07,0.00707375
,,,-1.5E-07,0.007388125
,,,-1.4E-07,0.00734125
,,,-1.3E-07,0.007408125
,,,-1.2E-07,0.00723375
,,,-1.1E-07,0.007508125
,,,-1E-07,0.0074975
,,,-9E-08,0.007158125
,,,-8E-08,0.007171875
,,,-7E-08,0.007316875
,,,-6E-08,0.007053125
,,,-5E-08,0.00765
,,,-4E-08,0.008478125
,,,-3E-08,0.008065625
,,,-2E-08,0.0050175
,,,-1E-08,0.00352625
,,,0,0.006556875
,,,1E-08,0.0102275
,,,2E-08,0.0112975
,,,3E-08,0.009348125
,,,4E-08,0.006078125
,,,5E-08,0.00426375
,,,6E-08,0.004993125
,,,7E-08,0.006581875
,,,8E-08,0.008684375
,,,9E-08,0.009296875
,,,1E-07,0.008738125
,,,1.1E-07,0.007645
,,,1.2E-07,0.0059925
,,,1.3E-07,0.006155
,,,1.4E-07,0.00703375
,,,1.5E-07,0.007820625
,,,1.6E-07,0.00764875
,,,1.7E-07,0.007565625
,,,1.8E-07,0.0074275
,,,1.9E-07,0.007373125
,,,2E-07,0.00714875
,,,2.1E-07,0.007026875
,,,2.2E-07,0.00712375
,,,2.3E-07,0.007121875
,,,2.4E-07,0.007376875
,,,2.5E-07,0.00725625
,,,2.6E-07,0.00708125
,,,2.7E-07,0.0069625
,,,2.8E-07,0.00722875
,,,2.9E-07,0.007338125
,,,3E-07,0.0073575
,,,3.1E-07,0.007196875
,,,3.2E-07,0.007284375
,,,3.3E-07,0.007341875
,,,3.4E-07,0.00718125
,,,3.5E-07,0.00709875
,,,3.6E-07,0.00732
,,,3.7E-07,0.00721
,,,3.8E-07,0.00729875
,,,3.9E-07,0.007564375
,,,4E-07,0.007226875
,,,4.1E-07,0.007293125
,,,4.2E-07,0.00701875
,,,4.3E-07,0.00738
,,,4.4E-07,0.0074675
,,,4.5E-07,0.00738125
,,,4.6E-07,0.007238125
,,,4.7E-07,0.00731375
,,,4.8E-07,0.0070825
,,,4.9E-07,0.007256875
,,,5E-07,0.007505625
,,,5.1E-07,0.007170625
,,,5.2E-07,0.0071425
,,,5.3E-07,0.0071525
,,,5.4E-07,0.00765625
,,,5.5E-07,0.007130625
,,,5.6E-07,0.007324375
,,,5.7E-07,0.007155625
,,,5.8E-07,0.007563125
,,,5.9E-07,0.00742875
,,,6E-07,0.00717375
,,,6.1E-07,0.0074825
,,,6.2E-07,0.0072025
,,,6.3E-07,0.007470625
,,,6.4E-07,0.007421875
,,,6.5E-07,0.007341875
,,,6.6E-07,0.007271875
,,,6.7E-07,0.0073375
,,,6.8E-07,0.007165
,,,6.9E-07,0.0073325
,,,7E-07,0.007238125
,,,7.1E-07,0.007099375
,,,7.2E-07,0.00711
,,,7.3E-07,0.00746625
,,,7.4E-07,0.0073925
,,,7.5E-07,0.007441875
,,,7.6E-07,0.00751625
,,,7.7E-07,0.00738875
,,,7.8E-07,0.0071575
,,,7.9E-07,0.007148125
,,,8E-07,0.00721
,,,8.1E-07,0.007324375
,,,8.2E-07,0.007190625
,,,8.3E-07,0.00714
,,,8.4E-07,0.007345
,,,8.5E-07,0.007501875
,,,8.6E-07,0.0072925
,,,8.7E-07,0.007248125
,,,8.8E-07,0.007221875
,,,8.9E-07,0.00708875
,,,9E-07,0.007406875
,,,9.1E-07,0.007644375
,,,9.2E-07,0.007688125
,,,9.3E-07,0.007426875
,,,9.4E-07,0.007119375
,,,9.5E-07,0.007135
,,,9.6E-07,0.007209375
,,,9.7E-07,0.00737875
,,,9.8E-07,0.00739
,,,9.9E-07,0.0072325
,,,1E-06,0.007590625
,,,1.01E-06,0.00734625
,,,1.02E-06,0.007211875
,,,1.03E-06,0.00704
,,,1.04E-06,0.00701375
,,,1.05E-06,0.007201875
,,,1.06E-06,0.007225625
,,,1.07E-06,0.007359375
,,,1.08E-06,0.0074425
,,,1.09E-06,0.00730875
,,,1.1E-06,0.007345
,,,1.11E-06,0.007150625
,,,1.12E-06,0.00711125
,,,1.13E-06,0.007231875
,,,1.14E-06,0.00721
,,,1.15E-06,0.007298125
,,,1.16E-06,0.007349375
,,,1.17E-06,0.007336875
,,,1.18E-06,0.00728375
,,,1.19E-06,0.007331875
,,,1.2E-06,0.00738
,,,1.21E-06,0.00744125
,,,1.22E-06,0.007285625
,,,1.23E-06,0.007345625
,,,1.24E-06,0.00723625
,,,1.25E-06,0.007220625
,,,1.26E-06,0.00734
,,,1.27E-06,0.00718875
,,,1.28E-06,0.0074725
,,,1.29E-06,0.00721
,,,1.3E-06,0.0073325
,,,1.31E-06,0.0069575
,,,1.32E-06,0.00745
,,,1.33E-06,0.0074675
,,,1.34E-06,0.007163125
,,,1.35E-06,0.007061875
,,,1.36E-06,0.0075675
,,,1.37E-06,0.007146875
,,,1.38E-06,0.007380625
,,,1.39E-06,0.007491875
,,,1.4E-06,0.0070425
,,,1.41E-06,0.007295
,,,1.42E-06,0.007448125
,,,1.43E-06,0.007274375
,,,1.44E-06,0.0072625
,,,1.45E-06,0.007485
,,,1.46E-06,0.007223125
,,,1.47E-06,0.00711875
,,,1.48E-06,0.0072575
,,,1.49E-06,0.00723375
,,,1.5E-06,0.007376875
,,,1.51E-06,0.00727125
,,,1.52E-06,0.007150625
,,,1.53E-06,0.007393125
,,,1.54E-06,0.00717625
,,,1.55E-06,0.0073375
,,,1.56E-06,0.0072525
,,,1.57E-06,0.007275625
,,,1.58E-06,0.007209375
,,,1.59E-06,0.00764
,,,1.6E-06,0.0074325
,,,1.61E-06,0.007454375
,,,1.62E-06,0.007208125
,,,1.63E-06,0.006988125
,,,1.64E-06,0.007175
,,,1.65E-06,0.00720625
,,,1.66E-06,0.007266875
,,,1.67E-06,0.0071975
,,,1.68E-06,0.00730375
,,,1.69E-06,0.00740375
,,,1.7E-06,0.0073875
,,,1.71E-06,0.007011875
,,,1.72E-06,0.0073925
,,,1.73E-06,0.007355625
,,,1.74E-06,0.007305625
,,,1.75E-06,0.007206875
,,,1.76E-06,0.0071975
,,,1.77E-06,0.007200625
,,,1.78E-06,0.007464375
,,,1.79E-06,0.00711125
,,,1.8E-06,0.00730875
,,,1.81E-06,0.00707
,,,1.82E-06,0.00723
,,,1.83E-06,0.007421875
,,,1.84E-06,0.007353125
,,,1.85E-06,0.007091875
,,,1.86E-06,0.007156875
,,,1.87E-06,0.007281875
,,,1.88E-06,0.007401875
,,,1.89E-06,0.00723125
,,,1.9E-06,0.00732625
,,,1.91E-06,0.007161875
,,,1.92E-06,0.007290625
,,,1.93E-06,0.0072675
,,,1.94E-06,0.00725875
,,,1.95E-06,0.007236875
,,,1.96E-06,0.007145625
,,,1.97E-06,0.007465
,,,1.98E-06,0.007316875
,,,1.99E-06,0.007355625
,,,2E-06,0.0074725
,,,2.01E-06,0.00726625
,,,2.02E-06,0.00714625
,,,2.03E-06,0.0073175
,,,2.04E-06,0.007184375
,,,2.05E-06,0.007421875
,,,2.06E-06,0.007409375
,,,2.07E-06,0.00716625
,,,2.08E-06,0.00735375
,,,2.09E-06,0.0071275
,,,2.1E-06,0.00721125
,,,2.11E-06,0.007383125
,,,2.12E-06,0.007316875
,,,2.13E-06,0.007504375
,,,2.14E-06,0.00733625
,,,2.15E-06,0.00726375
,,,2.16E-06,0.00724375
,,,2.17E-06,0.00701875
,,,2.18E-06,0.0072225
,,,2.19E-06,0.007255
,,,2.2E-06,0.00707375
,,,2.21E-06,0.00724
,,,2.22E-06,0.007250625
,,,2.23E-06,0.007385
,,,2.24E-06,0.007624375
,,,2.25E-06,0.007304375
,,,2.26E-06,0.0071675
,,,2.27E-06,0.007140625
,,,2.28E-06,0.007189375
,,,2.29E-06,0.007235
,,,2.3E-06,0.007130625
,,,2.31E-06,0.0072275
,,,2.32E-06,0.0072025
,,,2.33E-06,0.0072625
,,,2.34E-06,0.007145625
,,,2.35E-06,0.00740625
,,,2.36E-06,0.007328125
,,,2.37E-06,0.0073175
,,,2.38E-06,0.0071775
,,,2.39E-06,0.0074025
,,,2.4E-06,0.0072975
,,,2.41E-06,0.007249375
,,,2.42E-06,0.007189375
,,,2.43E-06,0.007330625
,,,2.44E-06,0.007315
,,,2.45E-06,0.007165
,,,2.46E-06,0.00726875
,,,2.47E-06,0.00718875
,,,2.48E-06,0.007311875
,,,2.49E-06,0.007154375
,,,2.5E-06,0.007393125
,,,2.51E-06,0.007241875
,,,2.52E-06,0.00733625
,,,2.53E-06,0.00721125
,,,2.54E-06,0.007448125
,,,2.55E-06,0.007165
,,,2.56E-06,0.0072875
,,,2.57E-06,0.0072875
,,,2.58E-06,0.007313125
,,,2.59E-06,0.007294375
,,,2.6E-06,0.007175
,,,2.61E-06,0.00737
,,,2.62E-06,0.00721375
,,,2.63E-06,0.007188125
,,,2.64E-06,0.00722
,,,2.65E-06,0.007341875
,,,2.66E-06,0.00705875
,,,2.67E-06,0.007294375
,,,2.68E-06,0.007014375
,,,2.69E-06,0.007375625
,,,2.7E-06,0.007273125
,,,2.71E-06,0.00748875
,,,2.72E-06,0.0072225
,,,2.73E-06,0.0070825
,,,2.74E-06,0.007135625
,,,2.75E-06,0.007316875
,,,2.76E-06,0.007323125
,,,2.77E-06,0.007493125
,,,2.78E-06,0.00712625
,,,2.79E-06,0.007304375
,,,2.8E-06,0.007334375
,,,2.81E-06,0.0073525
,,,2.82E-06,0.007215
,,,2.83E-06,0.007198125
,,,2.84E-06,0.00729875
,,,2.85E-06,0.00707625
,,,2.86E-06,0.007376875
,,,2.87E-06,0.007133125
,,,2.88E-06,0.007263125
,,,2.89E-06,0.00725625
,,,2.9E-06,0.007165625
,,,2.91E-06,0.007445
,,,2.92E-06,0.007314375
,,,2.93E-06,0.0072175
,,,2.94E-06,0.007130625
,,,2.95E-06,0.007316875
,,,2.96E-06,0.0073425
,,,2.97E-06,0.007339375
,,,2.98E-06,0.007133125
,,,2.99E-06,0.007436875
,,,3E-06,0.007443125
,,,3.01E-06,0.007210625
,,,3.02E-06,0.0073525
,,,3.03E-06,0.007381875
,,,3.04E-06,0.00732375
,,,3.05E-06,0.007100625
,,,3.06E-06,0.0071025
,,,3.07E-06,0.00721625
,,,3.08E-06,0.0071825
,,,3.09E-06,0.00706375
,,,3.1E-06,0.00723125
,,,3.11E-06,0.0074425
,,,3.12E-06,0.007261875
,,,3.13E-06,0.00726625
,,,3.14E-06,0.007339375
,,,3.15E-06,0.007388125
,,,3.16E-06,0.007234375
,,,3.17E-06,0.007315625
,,,3.18E-06,0.0074425
,,,3.19E-06,0.007289375
,,,3.2E-06,0.0074575
,,,3.21E-06,0.0072475
,,,3.22E-06,0.007541875
,,,3.23E-06,0.00744875
,,,3.24E-06,0.0071875
,,,3.25E-06,0.007225
,,,3.26E-06,0.00718875
,,,3.27E-06,0.007111875
,,,3.28E-06,0.007374375
,,,3.29E-06,0.00736625
,,,3.3E-06,0.007179375
,,,3.31E-06,0.00705875
,,,3.32E-06,0.007431875
,,,3.33E-06,0.007346875
,,,3.34E-06,0.007283125
,,,3.35E-06,0.007335
,,,3.36E-06,0.00740125
,,,3.37E-06,0.007306875
,,,3.38E-06,0.00718875
,,,3.39E-06,0.007356875
,,,3.4E-06,0.00721375
,,,3.41E-06,0.0071075
,,,3.42E-06,0.00749625
,,,3.43E-06,0.00727125
,,,3.44E-06,0.007430625
,,,3.45E-06,0.0073025
,,,3.46E-06,0.007213125
,,,3.47E-06,0.00707625
,,,3.48E-06,0.007130625
,,,3.49E-06,0.007420625
,,,3.5E-06,0.0069925
,,,3.51E-06,0.00728125
,,,3.52E-06,0.007338125
,,,3.53E-06,0.007294375
,,,3.54E-06,0.00706625
,,,3.55E-06,0.00705125
,,,3.56E-06,0.007314375
