data/raw/Final_POL_Test_1/SOP042_Ch4.csv

"Record Length",1000,"Points",-5E-06,0.016801875
"Sample Interval",1E-08,s,-4.99E-06,0.01688375
"Trigger Point",500,"Samples",-4.98E-06,0.016594375
"Trigger Time",0,s,-4.97E-06,0.016665625
"",,,-4.96E-06,0.016684375
"Horizontal Offset",-5E-06,s,-4.95E-06,0.0165775
,,,-4.94E-06,0.016608125
,,,-4.93E-06,0.016801875
,,,-4.92E-06,0.016628125
,,,-4.91E-06,0.016754375
,,,-4.9E-06,0.0168675
,,,-4.89E-06,0.01672
,,,-4.88E-06,0.0165525
,,,-4.87E-06,0.016814375
,,,-4.86E-06,0.0168675
,,,-4.85E-06,0.016693125
,,,-4.84E-06,0.01667
,,,-4.83E-06,0.0167875
,,,-4.82E-06,0.0169125
,,,-4.81E-06,0.01638125
,,,-4.8E-06,0.016728125
,,,-4.79E-06,0.0167275
,,,-4.78E-06,0.01671375
,,,-4.77E-06,0.017193125
,,,-4.76E-06,0.01689375
,,,-4.75E-06,0.0166825
,,,-4.74E-06,0.0167
,,,-4.73E-06,0.016928125
,,,-4.72E-06,0.016683125
,,,-4.71E-06,0.01661
,,,-4.7E-06,0.01693125
,,,-4.69E-06,0.016690625
,,,-4.68E-06,0.016791875
,,,-4.67E-06,0.0166525
,,,-4.66E-06,0.01664375
,,,-4.65E-06,0.01662375
,,,-4.64E-06,0.01658125
,,,-4.63E-06,0.016730625
,,,-4.62E-06,0.016818125
,,,-4.61E-06,0.016979375
,,,-4.6E-06,0.016849375
,,,-4.59E-06,0.01682625
,,,-4.58E-06,0.01677125
,,,-4.57E-06,0.016593125
,,,-4.56E-06,0.0167875
,,,-4.55E-06,0.01694375
,,,-4.54E-06,0.016804375
,,,-4.53E-06,0.01667
,,,-4.52E-06,0.016750625
,,,-4.51E-06,0.016706875
,,,-4.5E-06,0.016610625
,,,-4.49E-06,0.0168175
,,,-4.48E-06,0.016566875
,,,-4.47E-06,0.017005625
,,,-4.46E-06,0.0167775
,,,-4.45E-06,0.016800625
,,,-4.44E-06,0.016623125
,,,-4.43E-06,0.01671125
,,,-4.42E-06,0.0166975
,,,-4.41E-06,0.0167775
,,,-4.4E-06,0.016775
,,,-4.39E-06,0.016710625
,,,-4.38E-06,0.016855
,,,-4.37E-06,0.016884375
,,,-4.36E-06,0.016699375
,,,-4.35E-06,0.0168025
,,,-4.34E-06,0.016736875
,,,-4.33E-06,0.016505
,,,-4.32E-06,0.016605
,,,-4.31E-06,0.016835625
,,,-4.3E-06,0.016731875
,,,-4.29E-06,0.016871875
,,,-4.28E-06,0.01675625
,,,-4.27E-06,0.0169225
,,,-4.26E-06,0.016851875
,,,-4.25E-06,0.016761875
,,,-4.24E-06,0.016865
,,,-4.23E-06,0.016776875
,,,-4.22E-06,0.016648125
,,,-4.21E-06,0.01694875
,,,-4.2E-06,0.01671
,,,-4.19E-06,0.01644375
,,,-4.18E-06,0.016894375
,,,-4.17E-06,0.01683
,,,-4.16E-06,0.016616875
,,,-4.15E-06,0.01678875
,,,-4.14E-06,0.01648125
,,,-4.13E-06,0.016901875
,,,-4.12E-06,0.01676
,,,-4.11E-06,0.01681
,,,-4.1E-06,0.016489375
,,,-4.09E-06,0.01657125
,,,-4.08E-06,0.01671625
,,,-4.07E-06,0.0169025
,,,-4.06E-06,0.016795625
,,,-4.05E-06,0.0166825
,,,-4.04E-06,0.016948125
,,,-4.03E-06,0.01688625
,,,-4.02E-06,0.0166825
,,,-4.01E-06,0.01666625
,,,-4E-06,0.016665625
,,,-3.99E-06,0.01688875
,,,-3.98E-06,0.016758125
,,,-3.97E-06,0.0170175
,,,-3.96E-06,0.016804375
,,,-3.95E-06,0.016763125
,,,-3.94E-06,0.016865625
,,,-3.93E-06,0.01698125
,,,-3.92E-06,0.016531875
,,,-3.91E-06,0.016665
,,,-3.9E-06,0.016899375
,,,-3.89E-06,0.016986875
,,,-3.88E-06,0.016753125
,,,-3.87E-06,0.016891875
,,,-3.86E-06,0.016825625
,,,-3.85E-06,0.01677
,,,-3.84E-06,0.016854375
,,,-3.83E-06,0.01682
,,,-3.82E-06,0.01667625
,,,-3.81E-06,0.016839375
,,,-3.8E-06,0.01637
,,,-3.79E-06,0.016865
,,,-3.78E-06,0.01666125
,,,-3.77E-06,0.0167625
,,,-3.76E-06,0.0165875
,,,-3.75E-06,0.01669125
,,,-3.74E-06,0.01644375
,,,-3.73E-06,0.01662125
,,,-3.72E-06,0.01683
,,,-3.71E-06,0.01683
,,,-3.7E-06,0.0166975
,,,-3.69E-06,0.016829375
,,,-3.68E-06,0.016875625
,,,-3.67E-06,0.01694
,,,-3.66E-06,0.016795625
,,,-3.65E-06,0.0168225
,,,-3.64E-06,0.01681125
,,,-3.63E-06,0.016860625
,,,-3.62E-06,0.016644375
,,,-3.61E-06,0.01698875
,,,-3.6E-06,0.016629375
,,,-3.59E-06,0.01645875
,,,-3.58E-06,0.016643125
,,,-3.57E-06,0.01664
,,,-3.56E-06,0.01687875
,,,-3.55E-06,0.01678625
,,,-3.54E-06,0.01665375
,,,-3.53E-06,0.01668
,,,-3.52E-06,0.016716875
,,,-3.51E-06,0.016833125
,,,-3.5E-06,0.016871875
,,,-3.49E-06,0.0168425
,,,-3.48E-06,0.016844375
,,,-3.47E-06,0.01668875
,,,-3.46E-06,0.01665125
,,,-3.45E-06,0.016911875
,,,-3.44E-06,0.01663875
,,,-3.43E-06,0.016658125
,,,-3.42E-06,0.01663
,,,-3.41E-06,0.016935625
,,,-3.4E-06,0.0168475
,,,-3.39E-06,0.01665375
,,,-3.38E-06,0.016714375
,,,-3.37E-06,0.016693125
,,,-3.36E-06,0.016553125
,,,-3.35E-06,0.01669125
,,,-3.34E-06,0.016583125
,,,-3.33E-06,0.016624375
,,,-3.32E-06,0.016733125
,,,-3.31E-06,0.016905625
,,,-3.3E-06,0.016705625
,,,-3.29E-06,0.01689375
,,,-3.28E-06,0.016774375
,,,-3.27E-06,0.01683625
,,,-3.26E-06,0.01653625
,,,-3.25E-06,0.0166
,,,-3.24E-06,0.016798125
,,,-3.23E-06,0.01666625
,,,-3.22E-06,0.016855625
,,,-3.21E-06,0.016676875
,,,-3.2E-06,0.016641875
,,,-3.19E-06,0.016755
,,,-3.18E-06,0.016854375
,,,-3.17E-06,0.01657125
,,,-3.16E-06,0.01672625
,,,-3.15E-06,0.0166675
,,,-3.14E-06,0.01693875
,,,-3.13E-06,0.01678
,,,-3.12E-06,0.016948125
,,,-3.11E-06,0.016698125
,,,-3.1E-06,0.0168225
,,,-3.09E-06,0.01665125
,,,-3.08E-06,0.016506875
,,,-3.07E-06,0.016670625
,,,-3.06E-06,0.016728125
,,,-3.05E-06,0.01665625
,,,-3.04E-06,0.016938125
,,,-3.03E-06,0.016744375
,,,-3.02E-06,0.016771875
,,,-3.01E-06,0.016503125
,,,-3E-06,0.016829375
,,,-2.99E-06,0.01669
,,,-2.98E-06,0.016555
,,,-2.97E-06,0.016889375
,,,-2.96E-06,0.016864375
,,,-2.95E-06,0.01668625
,,,-2.94E-06,0.016780625
,,,-2.93E-06,0.016775625
,,,-2.92E-06,0.016675625
,,,-2.91E-06,0.01669375
,,,-2.9E-06,0.0168375
,,,-2.89E-06,0.016778125
,,,-2.88E-06,0.016925625
,,,-2.87E-06,0.016863125
,,,-2.86E-06,0.01676375
,,,-2.85E-06,0.01687
,,,-2.84E-06,0.0166075
,,,-2.83E-06,0.01670125
,,,-2.82E-06,0.016758125
,,,-2.81E-06,0.01701625
,,,-2.8E-06,0.016724375
,,,-2.79E-06,0.016810625
,,,-2.78E-06,0.017044375
,,,-2.77E-06,0.016858125
,,,-2.76E-06,0.01658375
,,,-2.75E-06,0.016625
,,,-2.74E-06,0.01677875
,,,-2.73E-06,0.01682125
,,,-2.72E-06,0.0168025
,,,-2.71E-06,0.01674125
,,,-2.7E-06,0.016701875
,,,-2.69E-06,0.016626875
,,,-2.68E-06,0.01663375
,,,-2.67E-06,0.016736875
,,,-2.66E-06,0.0167875
,,,-2.65E-06,0.0164725
,,,-2.64E-06,0.016556875
,,,-2.63E-06,0.01694625
,,,-2.62E-06,0.016951875
,,,-2.61E-06,0.01661875
,,,-2.6E-06,0.016605625
,,,-2.59E-06,0.01700125
,,,-2.58E-06,0.0166475
,,,-2.57E-06,0.0168525
,,,-2.56E-06,0.0167525
,,,-2.55E-06,0.01669125
,,,-2.54E-06,0.016820625
,,,-2.53E-06,0.017023125
,,,-2.52E-06,0.016730625
,,,-2.51E-06,0.0166375
,,,-2.5E-06,0.016681875
,,,-2.49E-06,0.01654
,,,-2.48E-06,0.016745
,,,-2.47E-06,0.016709375
,,,-2.46E-06,0.016859375
,,,-2.45E-06,0.016829375
,,,-2.44E-06,0.01650375
,,,-2.43E-06,0.0167175
,,,-2.42E-06,0.0166325
,,,-2.41E-06,0.0167425
,,,-2.4E-06,0.016705
,,,-2.39E-06,0.01666625
,,,-2.38E-06,0.0166275
,,,-2.37E-06,0.0166125
,,,-2.36E-06,0.0166275
,,,-2.35E-06,0.016898125
,,,-2.34E-06,0.016785
,,,-2.33E-06,0.0167075
,,,-2.32E-06,0.01657875
,,,-2.31E-06,0.017013125
,,,-2.3E-06,0.016775
,,,-2.29E-06,0.016505
,,,-2.28E-06,0.0166525
,,,-2.27E-06,0.016826875
,,,-2.26E-06,0.016903125
,,,-2.25E-06,0.017014375
,,,-2.24E-06,0.016808125
,,,-2.23E-06,0.016729375
,,,-2.22E-06,0.01648
,,,-2.21E-06,0.01677375
,,,-2.2E-06,0.01654625
,,,-2.19E-06,0.01691375
,,,-2.18E-06,0.01693125
,,,-2.17E-06,0.01684125
,,,-2.16E-06,0.01664375
,,,-2.15E-06,0.01666875
,,,-2.14E-06,0.016730625
,,,-2.13E-06,0.016684375
,,,-2.12E-06,0.0163825
,,,-2.11E-06,0.016780625
,,,-2.1E-06,0.01655125
,,,-2.09E-06,0.01669875
,,,-2.08E-06,0.0166625
,,,-2.07E-06,0.016789375
,,,-2.06E-06,0.01666
,,,-2.05E-06,0.016815625
,,,-2.04E-06,0.016556875
,,,-2.03E-06,0.016793125
,,,-2.02E-06,0.0167925
,,,-2.01E-06,0.01663375
,,,-2E-06,0.01694
,,,-1.99E-06,0.016643125
,,,-1.98E-06,0.016713125
,,,-1.97E-06,0.017005
,,,-1.96E-06,0.016954375
,,,-1.95E-06,0.016903125
,,,-1.94E-06,0.0166475
,,,-1.93E-06,0.01684625
,,,-1.92E-06,0.016671875
,,,-1.91E-06,0.01689625
,,,-1.9E-06,0.01694
,,,-1.89E-06,0.016599375
,,,-1.88E-06,0.016900625
,,,-1.87E-06,0.016835625
,,,-1.86E-06,0.0168525
,,,-1.85E-06,0.016824375
,,,-1.84E-06,0.016790625
,,,-1.83E-06,0.017036875
,,,-1.82E-06,0.01677125
,,,-1.81E-06,0.01668125
,,,-1.8E-06,0.016523125
,,,-1.79E-06,0.016774375
,,,-1.78E-06,0.016718125
,,,-1.77E-06,0.016845
,,,-1.76E-06,0.016614375
,,,-1.75E-06,0.01664
,,,-1.74E-06,0.016664375
,,,-1.73E-06,0.016810625
,,,-1.72E-06,0.016705
,,,-1.71E-06,0.01674875
,,,-1.7E-06,0.0167075
,,,-1.69E-06,0.016886875
,,,-1.68E-06,0.016493125
,,,-1.67E-06,0.016796875
,,,-1.66E-06,0.016768125
,,,-1.65E-06,0.016881875
,,,-1.64E-06,0.01661875
,,,-1.63E-06,0.0165875
,,,-1.62E-06,0.01668875
,,,-1.61E-06,0.01686
,,,-1.6E-06,0.016706875
,,,-1.59E-06,0.01685375
,,,-1.58E-06,0.01678875
,,,-1.57E-06,0.016513125
,,,-1.56E-06,0.016738125
,,,-1.55E-06,0.016849375
,,,-1.54E-06,0.01672375
,,,-1.53E-06,0.0168125
,,,-1.52E-06,0.016675
,,,-1.51E-06,0.016736875
,,,-1.5E-06,0.016589375
,,,-1.49E-06,0.01671875
,,,-1.48E-06,0.016704375
,,,-1.47E-06,0.01663125
,,,-1.46E-06,0.016849375
,,,-1.45E-06,0.016661875
,,,-1.44E-06,0.016605
,,,-1.43E-06,0.01663
,,,-1.42E-06,0.01678
,,,-1.41E-06,0.0169575
,,,-1.4E-06,0.01662
,,,-1.39E-06,0.016883125
,,,-1.38E-06,0.016723125
,,,-1.37E-06,0.01671125
,,,-1.36E-06,0.016806875
,,,-1.35E-06,0.016709375
,,,-1.34E-06,0.01645625
,,,-1.33E-06,0.0166625
,,,-1.32E-06,0.016928125
,,,-1.31E-06,0.01691375
,,,-1.3E-06,0.01668375
,,,-1.29E-06,0.01677625
,,,-1.28E-06,0.0165325
,,,-1.27E-06,0.016650625
,,,-1.26E-06,0.016656875
,,,-1.25E-06,0.016758125
,,,-1.24E-06,0.016658125
,,,-1.23E-06,0.016591875
,,,-1.22E-06,0.0166475
,,,-1.21E-06,0.0168225
,,,-1.2E-06,0.01676
,,,-1.19E-06,0.016865
,,,-1.18E-06,0.0168775
,,,-1.17E-06,0.016703125
,,,-1.16E-06,0.01696625
,,,-1.15E-06,0.016884375
,,,-1.14E-06,0.016886875
,,,-1.13E-06,0.01671375
,,,-1.12E-06,0.016795625
,,,-1.11E-06,0.016715
,,,-1.1E-06,0.016700625
,,,-1.09E-06,0.016795
,,,-1.08E-06,0.01670875
,,,-1.07E-06,0.016813125
,,,-1.06E-06,0.01644125
,,,-1.05E-06,0.016540625
,,,-1.04E-06,0.0168475
,,,-1.03E-06,0.016668125
,,,-1.02E-06,0.016641875
,,,-1.01E-06,0.01656125
,,,-1E-06,0.016756875
,,,-9.9E-07,0.016639375
,,,-9.8E-07,0.01643625
,,,-9.7E-07,0.016750625
,,,-9.6E-07,0.016761875
,,,-9.5E-07,0.0167
,,,-9.4E-07,0.0169325
,,,-9.3E-07,0.016785
,,,-9.2E-07,0.016686875
,,,-9.1E-07,0.016714375
,,,-9E-07,0.0166175
,,,-8.9E-07,0.01670375
,,,-8.8E-07,0.01674875
,,,-8.7E-07,0.01684
,,,-8.6E-07,0.016668125
,,,-8.5E-07,0.016661875
,,,-8.4E-07,0.016676875
,,,-8.3E-07,0.0169275
,,,-8.2E-07,0.01700375
,,,-8.1E-07,0.01658625
,,,-8E-07,0.0168475
,,,-7.9E-07,0.01684125
,,,-7.8E-07,0.0168225
,,,-7.7E-07,0.016454375
,,,-7.6E-07,0.0167375
,,,-7.5E-07,0.016573125
,,,-7.4E-07,0.016895625
,,,-7.3E-07,0.016634375
,,,-7.2E-07,0.016741875
,,,-7.1E-07,0.016516875
,,,-7E-07,0.016641875
,,,-6.9E-07,0.016689375
,,,-6.8E-07,0.01677
,,,-6.7E-07,0.01684875
,,,-6.6E-07,0.01669
,,,-6.5E-07,0.016773125
,,,-6.4E-07,0.01697125
,,,-6.3E-07,0.0168
,,,-6.2E-07,0.016585625
,,,-6.1E-07,0.016659375
,,,-6E-07,0.01678125
,,,-5.9E-07,0.01682375
,,,-5.8E-07,0.01661125
,,,-5.7E-07,0.016899375
,,,-5.6E-07,0.016655
,,,-5.5E-07,0.016868125
,,,-5.4E-07,0.016509375
,,,-5.3E-07,0.0168075
,,,-5.2E-07,0.016774375
,,,-5.1E-07,0.01688625
,,,-5E-07,0.016745625
,,,-4.9E-07,0.0166925
,,,-4.8E-07,0.016713125
,,,-4.7E-07,0.016875
,,,-4.6E-07,0.016665
,,,-4.5E-07,0.016806875
,,,-4.4E-07,0.016539375
,,,-4.3E-07,0.0167725
,,,-4.2E-07,0.016845
,,,-4.1E-07,0.016996875
,,,-4E-07,0.016705
,,,-3.9E-07,0.0168925
,,,-3.8E-07,0.016819375
,,,-3.7E-07,0.016613125
,,,-3.6E-07,0.0167
,,,-3.5E-07,0.016504375
,,,-3.4E-07,0.016651875
,,,-3.3E-07,0.0166625
,,,-3.2E-07,0.016680625
,,,-3.1E-07,0.016885625
,,,-3E-07,0.016725
,,,-2.9E-07,0.016431875
,,,-2.8E-07,0.01680125
,,,-2.7E-07,0.0166975
,,,-2.6E-07,0.016814375
,,,-2.5E-07,0.01682375
,,,-2.4E-07,0.016634375
,,,-2.3E-07,0.016831875
,,,-2.2E-07,0.016808125
,,,-2.1E-07,0.016943125
,,,-2E-07,0.016659375
,,,-1.9E-07,0.0169925
,,,-1.8E-07,0.016863125
,,,-1.7E-07,0.0166475
,,,-1.6E-07,0.01653
,,,-1.5E-07,0.016449375
,,,-1.4E-07,0.016671875
,,,-1.3E-07,0.01662875
,,,-1.2E-07,0.016741875
,,,-1.1E-07,0.0168225
,,,-1E-07,0.016939375
,,,-9E-08,0.01687875
,,,-8E-08,0.016861875
,,,-7E-08,0.0167975
,,,-6E-08,0.01691375
,,,-5E-08,0.01679125
,,,-4E-08,0.016760625
,,,-3E-08,0.017196875
,,,-2E-08,0.016328125
,,,-1E-08,0.01576875
,,,0,0.015638125
,,,1E-08,0.018070625
,,,2E-08,0.017836875
,,,3E-08,0.017700625
,,,4E-08,0.0161575
,,,5E-08,0.016138125
,,,6E-08,0.01596625
,,,7E-08,0.016590625
,,,8E-08,0.017205
,,,9E-08,0.017024375
,,,1E-07,0.017168125
,,,1.1E-07,0.016786875
,,,1.2E-07,0.01636125
,,,1.3E-07,0.016454375
,,,1.4E-07,0.01682125
,,,1.5E-07,0.0171125
,,,1.6E-07,0.016855625
,,,1.7E-07,0.016835
,,,1.8E-07,0.016419375
,,,1.9E-07,0.0166575
,,,2E-07,0.016974375
,,,2.1E-07,0.016645
,,,2.2E-07,0.01649
,,,2.3E-07,0.017025
,,,2.4E-07,0.016778125
,,,2.5E-07,0.016799375
,,,2.6E-07,0.01693625
,,,2.7E-07,0.016798125
,,,2.8E-07,0.016703125
,,,2.9E-07,0.01652
,,,3E-07,0.016744375
,,,3.1E-07,0.017024375
,,,3.2E-07,0.016804375
,,,3.3E-07,0.016639375
,,,3.4E-07,0.01659125
,,,3.5E-07,0.016779375
,,,3.6E-07,0.0170175
,,,3.7E-07,0.016913125
,,,3.8E-07,0.016795625
,,,3.9E-07,0.016840625
,,,4E-07,0.01661625
,,,4.1E-07,0.016645625
,,,4.2E-07,0.0166775
,,,4.3E-07,0.01672
,,,4.4E-07,0.01687125
,,,4.5E-07,0.016936875
,,,4.6E-07,0.01687125
,,,4.7E-07,0.016861875
,,,4.8E-07,0.016558125
,,,4.9E-07,0.016734375
,,,5E-07,0.0168875
,,,5.1E-07,0.0168275
,,,5.2E-07,0.016829375
,,,5.3E-07,0.01670375
,,,5.4E-07,0.0167875
,,,5.5E-07,0.016626875
,,,5.6E-07,0.01677625
,,,5.7E-07,0.0167775
,,,5.8E-07,0.0168625
,,,5.9E-07,0.01692875
,,,6E-07,0.01691
,,,6.1E-07,0.01685
,,,6.2E-07,0.0165325
,,,6.3E-07,0.01685875
,,,6.4E-07,0.01672125
,,,6.5E-07,0.01672
,,,6.6E-07,0.016805
,,,6.7E-07,0.016445625
,,,6.8E-07,0.016628125
,,,6.9E-07,0.016786875
,,,7E-07,0.016771875
,,,7.1E-07,0.016676875
,,,7.2E-07,0.01662375
,,,7.3E-07,0.017140625
,,,7.4E-07,0.01669125
,,,7.5E-07,0.016819375
,,,7.6E-07,0.016580625
,,,7.7E-07,0.016501875
,,,7.8E-07,0.01670375
,,,7.9E-07,0.0166875
,,,8E-07,0.01670625
,,,8.1E-07,0.016708125
,,,8.2E-07,0.016655625
,,,8.3E-07,0.016588125
,,,8.4E-07,0.016875625
,,,8.5E-07,0.01678625
,,,8.6E-07,0.016389375
,,,8.7E-07,0.016716875
,,,8.8E-07,0.016581875
,,,8.9E-07,0.016670625
,,,9E-07,0.016765625
,,,9.1E-07,0.01681625
,,,9.2E-07,0.01671
,,,9.3E-07,0.016850625
,,,9.4E-07,0.016723125
,,,9.5E-07,0.01673125
,,,9.6E-07,0.0167675
,,,9.7E-07,0.016513125
,,,9.8E-07,0.016963125
,,,9.9E-07,0.01666875
,,,1E-06,0.0167225
,,,1.01E-06,0.016823125
,,,1.02E-06,0.016794375
,,,1.03E-06,0.016634375
,,,1.04E-06,0.016668125
,,,1.05E-06,0.01666
,,,1.06E-06,0.016658125
,,,1.07E-06,0.016665
,,,1.08E-06,0.016841875
,,,1.09E-06,0.01658375
,,,1.1E-06,0.016686875
,,,1.11E-06,0.016760625
,,,1.12E-06,0.016743125
,,,1.13E-06,0.0168825
,,,1.14E-06,0.01654625
,,,1.15E-06,0.016664375
,,,1.16E-06,0.016838125
,,,1.17E-06,0.01645
,,,1.18E-06,0.01669
,,,1.19E-06,0.0167325
,,,1.2E-06,0.016625625
,,,1.21E-06,0.016824375
,,,1.22E-06,0.016501875
,,,1.23E-06,0.01652625
,,,1.24E-06,0.01685625
,,,1.25E-06,0.016733125
,,,1.26E-06,0.01672625
,,,1.27E-06,0.017038125
,,,1.28E-06,0.01675625
,,,1.29E-06,0.016943125
,,,1.3E-06,0.016659375
,,,1.31E-06,0.016645625
,,,1.32E-06,0.016448125
,,,1.33E-06,0.016896875
,,,1.34E-06,0.016639375
,,,1.35E-06,0.01647625
,,,1.36E-06,0.016751875
,,,1.37E-06,0.01680625
,,,1.38E-06,0.016709375
,,,1.39E-06,0.01675125
,,,1.4E-06,0.016719375
,,,1.41E-06,0.016974375
,,,1.42E-06,0.01664625
,,,1.43E-06,0.016689375
,,,1.44E-06,0.016930625
,,,1.45E-06,0.0167975
,,,1.46E-06,0.016485
,,,1.47E-06,0.0167625
,,,1.48E-06,0.016855
,,,1.49E-06,0.016795625
,,,1.5E-06,0.01711625
,,,1.51E-06,0.016579375
,,,1.52E-06,0.0167975
,,,1.53E-06,0.016834375
,,,1.54E-06,0.01664
,,,1.55E-06,0.016679375
,,,1.56E-06,0.016766875
,,,1.57E-06,0.016718125
,,,1.58E-06,0.01690625
,,,1.59E-06,0.01655875
,,,1.6E-06,0.0167575
,,,1.61E-06,0.01684875
,,,1.62E-06,0.016884375
,,,1.63E-06,0.01666375
,,,1.64E-06,0.016729375
,,,1.65E-06,0.016623125
,,,1.66E-06,0.0167275
,,,1.67E-06,0.016765
,,,1.68E-06,0.0169125
,,,1.69E-06,0.016684375
,,,1.7E-06,0.016656875
,,,1.71E-06,0.01679125
,,,1.72E-06,0.0168175
,,,1.73E-06,0.01664
,,,1.74E-06,0.017024375
,,,1.75E-06,0.01664875
,,,1.76E-06,0.016594375
,,,1.77E-06,0.01693625
,,,1.78E-06,0.016644375
,,,1.79E-06,0.01688125
,,,1.8E-06,0.016761875
,,,1.81E-06,0.01662125
,,,1.82E-06,0.017034375
,,,1.83E-06,0.016725
,,,1.84E-06,0.016825
,,,1.85E-06,0.016781875
,,,1.86E-06,0.01667875
,,,1.87E-06,0.0167775
,,,1.88E-06,0.01678
,,,1.89E-06,0.01662125
,,,1.9E-06,0.016828125
,,,1.91E-06,0.01696625
,,,1.92E-06,0.01673625
,,,1.93E-06,0.016813125
,,,1.94E-06,0.016845625
,,,1.95E-06,0.016535625
,,,1.96E-06,0.01682125
,,,1.97E-06,0.01682875
,,,1.98E-06,0.016895625
,,,1.99E-06,0.0167025
,,,2E-06,0.01676375
,,,2.01E-06,0.016923125
,,,2.02E-06,0.016605
,,,2.03E-06,0.0168125
,,,2.04E-06,0.01649
,,,2.05E-06,0.016696875
,,,2.06E-06,0.016999375
,,,2.07E-06,0.016670625
,,,2.08E-06,0.016675
,,,2.09E-06,0.016719375
,,,2.1E-06,0.016865625
,,,2.11E-06,0.016725625
,,,2.12E-06,0.01684875
,,,2.13E-06,0.01663
,,,2.14E-06,0.016898125
,,,2.15E-06,0.016793125
,,,2.16E-06,0.016753125
,,,2.17E-06,0.01687
,,,2.18E-06,0.016621875
,,,2.19E-06,0.01674125
,,,2.2E-06,0.01681
,,,2.21E-06,0.016689375
,,,2.22E-06,0.016769375
,,,2.23E-06,0.016791875
,,,2.24E-06,0.016665
,,,2.25E-06,0.016755625
,,,2.26E-06,0.016785625
,,,2.27E-06,0.01683625
,,,2.28E-06,0.0166
,,,2.29E-06,0.016704375
,,,2.3E-06,0.0168775
,,,2.31E-06,0.01661125
,,,2.32E-06,0.01694625
,,,2.33E-06,0.0167825
,,,2.34E-06,0.016541875
,,,2.35E-06,0.016558125
,,,2.36E-06,0.016585
,,,2.37E-06,0.01645125
,,,2.38E-06,0.016694375
,,,2.39E-06,0.016506875
,,,2.4E-06,0.01668375
,,,2.41E-06,0.01649125
,,,2.42E-06,0.016856875
,,,2.43E-06,0.016539375
,,,2.44E-06,0.016914375
,,,2.45E-06,0.01671875
,,,2.46E-06,0.016886875
,,,2.47E-06,0.01679875
,,,2.48E-06,0.016673125
,,,2.49E-06,0.0168725
,,,2.5E-06,0.016811875
,,,2.51E-06,0.016639375
,,,2.52E-06,0.01677375
,,,2.53E-06,0.016795625
,,,2.54E-06,0.01690375
,,,2.55E-06,0.016355
,,,2.56E-06,0.016781875
,,,2.57E-06,0.0167325
,,,2.58E-06,0.01694125
,,,2.59E-06,0.016739375
,,,2.6E-06,0.01643375
,,,2.61E-06,0.016664375
,,,2.62E-06,0.01665625
,,,2.63E-06,0.01663375
,,,2.64E-06,0.016780625
,,,2.65E-06,0.016736875
,,,2.66E-06,0.016605
,,,2.67E-06,0.016815
,,,2.68E-06,0.01677
,,,2.69E-06,0.01652625
,,,2.7E-06,0.016804375
,,,2.71E-06,0.016693125
,,,2.72E-06,0.01674875
,,,2.73E-06,0.01664
,,,2.74E-06,0.016981875
,,,2.75E-06,0.01669875
,,,2.76E-06,0.01663625
,,,2.77E-06,0.01681375
,,,2.78E-06,0.016861875
,,,2.79E-06,0.016339375
,,,2.8E-06,0.01692875
,,,2.81E-06,0.016696875
,,,2.82E-06,0.016745625
,,,2.83E-06,0.016716875
,,,2.84E-06,0.016664375
,,,2.85E-06,0.016770625
,,,2.86E-06,0.016863125
,,,2.87E-06,0.0167525
,,,2.88E-06,0.016925
,,,2.89E-06,0.016908125
,,,2.9E-06,0.01655875
,,,2.91E-06,0.0165925
,,,2.92E-06,0.016896875
,,,2.93E-06,0.01670625
,,,2.94E-06,0.016765
,,,2.95E-06,0.0168875
,,,2.96E-06,0.01683125
,,,2.97E-06,0.016545
,,,2.98E-06,0.016788125
,,,2.99E-06,0.016871875
,,,3E-06,0.017001875
,,,3.01E-06,0.016775
,,,3.02E-06,0.016856875
,,,3.03E-06,0.01678625
,,,3.04E-06,0.016930625
,,,3.05E-06,0.01678375
,,,3.06E-06,0.01673375
,,,3.07E-06,0.016864375
,,,3.08E-06,0.01669375
,,,3.09E-06,0.01681
,,,3.1E-06,0.016718125
,,,3.11E-06,0.01691875
,,,3.12E-06,0.01658375
,,,3.13E-06,0.016776875
,,,3.14E-06,0.016790625
,,,3.15E-06,0.01679625
,,,3.16E-06,0.016643125
,,,3.17E-06,0.01664375
,,,3.18E-06,0.016569375
,,,3.19E-06,0.01702125
,,,3.2E-06,0.016551875
,,,3.21E-06,0.01661375
,,,3.22E-06,0.01669
,,,3.23E-06,0.016838125
,,,3.24E-06,0.01660375
,,,3.25E-06,0.0167175
,,,3.26E-06,0.016861875
,,,3.27E-06,0.01663
,,,3.28E-06,0.01667625
,,,3.29E-06,0.0166475
,,,3.3E-06,0.01664625
,,,3.31E-06,0.016791875
,,,3.32E-06,0.01669625
,,,3.33E-06,0.016775
,,,3.34E-06,0.01684375
,,,3.35E-06,0.016550625
,,,3.36E-06,0.017000625
,,,3.37E-06,0.016820625
,,,3.38E-06,0.016648125
,,,3.39E-06,0.01688
,,,3.4E-06,0.016733125
,,,3.41E-06,0.01664875
,,,3.42E-06,0.016635
,,,3.43E-06,0.01686875
,,,3.44E-06,0.016728125
,,,3.45E-06,0.016661875
,,,3.46E-06,0.016749375
,,,3.47E-06,0.0169075
,,,3.48E-06,0.016885625
,,,3.49E-06,0.0167725
,,,3.5E-06,0.01682
,,,3.51E-06,0.01652875
,,,3.52E-06,0.01671125
,,,3.53E-06,0.016921875
,,,3.54E-06,0.016880625
,,,3.55E-06,0.016614375
,,,3.56E-06,0.016923125
,,,3.57E-06,0.016471875
