data/raw/Final_POL_Test_1/SOP056_Ch3.csv

"Record Length",1000,"Points",-5E-06,0.016246876
"Sample Interval",1E-08,s,-4.99E-06,0.016095001
"Trigger Point",500,"Samples",-4.98E-06,0.016333126
"Trigger Time",0,s,-4.97E-06,0.016021876
"",,,-4.96E-06,0.016224376
"Horizontal Offset",-5E-06,s,-4.95E-06,0.016053751
,,,-4.94E-06,0.016056251
,,,-4.93E-06,0.016216251
,,,-4.92E-06,0.016006251
,,,-4.91E-06,0.015962501
,,,-4.9E-06,0.016084376
,,,-4.89E-06,0.015896876
,,,-4.88E-06,0.016140626
,,,-4.87E-06,0.016082501
,,,-4.86E-06,0.016205001
,,,-4.85E-06,0.016073126
,,,-4.84E-06,0.016189376
,,,-4.83E-06,0.016443751
,,,-4.82E-06,0.016061876
,,,-4.81E-06,0.016141251
,,,-4.8E-06,0.016316876
,,,-4.79E-06,0.016043126
,,,-4.78E-06,0.016489376
,,,-4.77E-06,0.016120626
,,,-4.76E-06,0.016333751
,,,-4.75E-06,0.016064376
,,,-4.74E-06,0.016152501
,,,-4.73E-06,0.016014376
,,,-4.72E-06,0.016073751
,,,-4.71E-06,0.015912501
,,,-4.7E-06,0.016093751
,,,-4.69E-06,0.016021876
,,,-4.68E-06,0.016103751
,,,-4.67E-06,0.016261251
,,,-4.66E-06,0.016077501
,,,-4.65E-06,0.016282501
,,,-4.64E-06,0.015921251
,,,-4.63E-06,0.015972501
,,,-4.62E-06,0.016296876
,,,-4.61E-06,0.016113126
,,,-4.6E-06,0.016145626
,,,-4.59E-06,0.016075001
,,,-4.58E-06,0.016016876
,,,-4.57E-06,0.016327501
,,,-4.56E-06,0.016050001
,,,-4.55E-06,0.016402501
,,,-4.54E-06,0.016168751
,,,-4.53E-06,0.016076251
,,,-4.52E-06,0.016352501
,,,-4.51E-06,0.016318751
,,,-4.5E-06,0.016121251
,,,-4.49E-06,0.016063126
,,,-4.48E-06,0.016048126
,,,-4.47E-06,0.016136876
,,,-4.46E-06,0.016076876
,,,-4.45E-06,0.016185001
,,,-4.44E-06,0.016134376
,,,-4.43E-06,0.016200626
,,,-4.42E-06,0.016282501
,,,-4.41E-06,0.016406251
,,,-4.4E-06,0.016191876
,,,-4.39E-06,0.016308126
,,,-4.38E-06,0.016295001
,,,-4.37E-06,0.016368751
,,,-4.36E-06,0.015986876
,,,-4.35E-06,0.016096251
,,,-4.34E-06,0.016076876
,,,-4.33E-06,0.016085626
,,,-4.32E-06,0.016303126
,,,-4.31E-06,0.015998126
,,,-4.3E-06,0.016253126
,,,-4.29E-06,0.016083126
,,,-4.28E-06,0.016111251
,,,-4.27E-06,0.016129376
,,,-4.26E-06,0.016433126
,,,-4.25E-06,0.016204376
,,,-4.24E-06,0.016271251
,,,-4.23E-06,0.016127501
,,,-4.22E-06,0.016283751
,,,-4.21E-06,0.016246876
,,,-4.2E-06,0.016081876
,,,-4.19E-06,0.016231876
,,,-4.18E-06,0.016015626
,,,-4.17E-06,0.016291251
,,,-4.16E-06,0.016019376
,,,-4.15E-06,0.015992501
,,,-4.14E-06,0.016216251
,,,-4.13E-06,0.016128751
,,,-4.12E-06,0.016146876
,,,-4.11E-06,0.016184376
,,,-4.1E-06,0.016038751
,,,-4.09E-06,0.016131251
,,,-4.08E-06,0.016263126
,,,-4.07E-06,0.016421251
,,,-4.06E-06,0.015990001
,,,-4.05E-06,0.016161251
,,,-4.04E-06,0.016106876
,,,-4.03E-06,0.015888126
,,,-4.02E-06,0.015892501
,,,-4.01E-06,0.016288126
,,,-4E-06,0.016304376
,,,-3.99E-06,0.016368751
,,,-3.98E-06,0.016271876
,,,-3.97E-06,0.016103126
,,,-3.96E-06,0.016215626
,,,-3.95E-06,0.016002501
,,,-3.94E-06,0.016195001
,,,-3.93E-06,0.015727501
,,,-3.92E-06,0.015998126
,,,-3.91E-06,0.016548126
,,,-3.9E-06,0.015991251
,,,-3.89E-06,0.016028751
,,,-3.88E-06,0.016081876
,,,-3.87E-06,0.016152501
,,,-3.86E-06,0.016118126
,,,-3.85E-06,0.016056876
,,,-3.84E-06,0.016373126
,,,-3.83E-06,0.016329376
,,,-3.82E-06,0.016128751
,,,-3.81E-06,0.016309376
,,,-3.8E-06,0.016192501
,,,-3.79E-06,0.016125626
,,,-3.78E-06,0.016144376
,,,-3.77E-06,0.016178751
,,,-3.76E-06,0.016072501
,,,-3.75E-06,0.016484376
,,,-3.74E-06,0.016065001
,,,-3.73E-06,0.016278126
,,,-3.72E-06,0.016271251
,,,-3.71E-06,0.016293751
,,,-3.7E-06,0.016070001
,,,-3.69E-06,0.016262501
,,,-3.68E-06,0.016178126
,,,-3.67E-06,0.016302501
,,,-3.66E-06,0.016226876
,,,-3.65E-06,0.016035626
,,,-3.64E-06,0.016112501
,,,-3.63E-06,0.016315001
,,,-3.62E-06,0.016195626
,,,-3.61E-06,0.016332501
,,,-3.6E-06,0.016113126
,,,-3.59E-06,0.015882501
,,,-3.58E-06,0.016148751
,,,-3.57E-06,0.016130001
,,,-3.56E-06,0.016175626
,,,-3.55E-06,0.016273751
,,,-3.54E-06,0.016021876
,,,-3.53E-06,0.015796876
,,,-3.52E-06,0.016111251
,,,-3.51E-06,0.016195626
,,,-3.5E-06,0.016161876
,,,-3.49E-06,0.016151251
,,,-3.48E-06,0.016240001
,,,-3.47E-06,0.016151876
,,,-3.46E-06,0.016373751
,,,-3.45E-06,0.016037501
,,,-3.44E-06,0.016208126
,,,-3.43E-06,0.015981251
,,,-3.42E-06,0.016051251
,,,-3.41E-06,0.016247501
,,,-3.4E-06,0.016165001
,,,-3.39E-06,0.016403751
,,,-3.38E-06,0.016210626
,,,-3.37E-06,0.016108126
,,,-3.36E-06,0.016090626
,,,-3.35E-06,0.015971876
,,,-3.34E-06,0.016138751
,,,-3.33E-06,0.016248751
,,,-3.32E-06,0.016090626
,,,-3.31E-06,0.016240001
,,,-3.3E-06,0.015937501
,,,-3.29E-06,0.016087501
,,,-3.28E-06,0.016203751
,,,-3.27E-06,0.016224376
,,,-3.26E-06,0.016151251
,,,-3.25E-06,0.016304376
,,,-3.24E-06,0.016306251
,,,-3.23E-06,0.016132501
,,,-3.22E-06,0.016130001
,,,-3.21E-06,0.016098126
,,,-3.2E-06,0.016117501
,,,-3.19E-06,0.016020001
,,,-3.18E-06,0.016055001
,,,-3.17E-06,0.016393126
,,,-3.16E-06,0.016180001
,,,-3.15E-06,0.016103751
,,,-3.14E-06,0.015984376
,,,-3.13E-06,0.016082501
,,,-3.12E-06,0.015986251
,,,-3.11E-06,0.016091251
,,,-3.1E-06,0.016103126
,,,-3.09E-06,0.016083751
,,,-3.08E-06,0.016161251
,,,-3.07E-06,0.016011876
,,,-3.06E-06,0.016095001
,,,-3.05E-06,0.016176876
,,,-3.04E-06,0.015968126
,,,-3.03E-06,0.016182501
,,,-3.02E-06,0.016041876
,,,-3.01E-06,0.016223751
,,,-3E-06,0.015861876
,,,-2.99E-06,0.015898126
,,,-2.98E-06,0.015951876
,,,-2.97E-06,0.016199376
,,,-2.96E-06,0.016247501
,,,-2.95E-06,0.016279376
,,,-2.94E-06,0.016364376
,,,-2.93E-06,0.016147501
,,,-2.92E-06,0.016076876
,,,-2.91E-06,0.016085626
,,,-2.9E-06,0.016023126
,,,-2.89E-06,0.016166251
,,,-2.88E-06,0.016106251
,,,-2.87E-06,0.016177501
,,,-2.86E-06,0.016143751
,,,-2.85E-06,0.016079376
,,,-2.84E-06,0.016077501
,,,-2.83E-06,0.016050001
,,,-2.82E-06,0.016058126
,,,-2.81E-06,0.016106876
,,,-2.8E-06,0.016306251
,,,-2.79E-06,0.016153126
,,,-2.78E-06,0.016217501
,,,-2.77E-06,0.015993751
,,,-2.76E-06,0.016388751
,,,-2.75E-06,0.016187501
,,,-2.74E-06,0.016207501
,,,-2.73E-06,0.016006251
,,,-2.72E-06,0.015761876
,,,-2.71E-06,0.016058751
,,,-2.7E-06,0.016325001
,,,-2.69E-06,0.016150001
,,,-2.68E-06,0.016255001
,,,-2.67E-06,0.015972501
,,,-2.66E-06,0.016306251
,,,-2.65E-06,0.016203751
,,,-2.64E-06,0.016120001
,,,-2.63E-06,0.015956251
,,,-2.62E-06,0.016101251
,,,-2.61E-06,0.016009376
,,,-2.6E-06,0.015979376
,,,-2.59E-06,0.016356876
,,,-2.58E-06,0.016230626
,,,-2.57E-06,0.016091251
,,,-2.56E-06,0.016410626
,,,-2.55E-06,0.016181251
,,,-2.54E-06,0.016214376
,,,-2.53E-06,0.016122501
,,,-2.52E-06,0.015942501
,,,-2.51E-06,0.016120626
,,,-2.5E-06,0.016338126
,,,-2.49E-06,0.016024376
,,,-2.48E-06,0.016197501
,,,-2.47E-06,0.016130001
,,,-2.46E-06,0.016298126
,,,-2.45E-06,0.016178126
,,,-2.44E-06,0.015959376
,,,-2.43E-06,0.016112501
,,,-2.42E-06,0.016182501
,,,-2.41E-06,0.016146251
,,,-2.4E-06,0.016156251
,,,-2.39E-06,0.016206251
,,,-2.38E-06,0.015832501
,,,-2.37E-06,0.016255626
,,,-2.36E-06,0.015906876
,,,-2.35E-06,0.016395001
,,,-2.34E-06,0.016351876
,,,-2.33E-06,0.016026876
,,,-2.32E-06,0.016171876
,,,-2.31E-06,0.016303751
,,,-2.3E-06,0.016350001
,,,-2.29E-06,0.016115001
,,,-2.28E-06,0.016249376
,,,-2.27E-06,0.016095001
,,,-2.26E-06,0.016272501
,,,-2.25E-06,0.016251876
,,,-2.24E-06,0.016045001
,,,-2.23E-06,0.015990001
,,,-2.22E-06,0.016079376
,,,-2.21E-06,0.015870626
,,,-2.2E-06,0.016106876
,,,-2.19E-06,0.016376251
,,,-2.18E-06,0.016217501
,,,-2.17E-06,0.016190626
,,,-2.16E-06,0.016064376
,,,-2.15E-06,0.016091251
,,,-2.14E-06,0.016100626
,,,-2.13E-06,0.016048126
,,,-2.12E-06,0.016090001
,,,-2.11E-06,0.016279376
,,,-2.1E-06,0.016194376
,,,-2.09E-06,0.016408751
,,,-2.08E-06,0.016362501
,,,-2.07E-06,0.016301251
,,,-2.06E-06,0.015792501
,,,-2.05E-06,0.015891876
,,,-2.04E-06,0.016256251
,,,-2.03E-06,0.016240626
,,,-2.02E-06,0.015952501
,,,-2.01E-06,0.016081251
,,,-2E-06,0.016166876
,,,-1.99E-06,0.016051251
,,,-1.98E-06,0.016272501
,,,-1.97E-06,0.016176251
,,,-1.96E-06,0.016243126
,,,-1.95E-06,0.016445001
,,,-1.94E-06,0.016201251
,,,-1.93E-06,0.016055001
,,,-1.92E-06,0.016095626
,,,-1.91E-06,0.016046251
,,,-1.9E-06,0.016100001
,,,-1.89E-06,0.015960001
,,,-1.88E-06,0.016444376
,,,-1.87E-06,0.016151876
,,,-1.86E-06,0.016020626
,,,-1.85E-06,0.016391251
,,,-1.84E-06,0.016065001
,,,-1.83E-06,0.016415001
,,,-1.82E-06,0.016040001
,,,-1.81E-06,0.016183751
,,,-1.8E-06,0.016024376
,,,-1.79E-06,0.016135001
,,,-1.78E-06,0.015918126
,,,-1.77E-06,0.016203751
,,,-1.76E-06,0.016253751
,,,-1.75E-06,0.016161876
,,,-1.74E-06,0.016516251
,,,-1.73E-06,0.016155001
,,,-1.72E-06,0.016369376
,,,-1.71E-06,0.016123126
,,,-1.7E-06,0.015909376
,,,-1.69E-06,0.016101251
,,,-1.68E-06,0.016183126
,,,-1.67E-06,0.016093126
,,,-1.66E-06,0.015968126
,,,-1.65E-06,0.015985626
,,,-1.64E-06,0.016167501
,,,-1.63E-06,0.015911876
,,,-1.62E-06,0.016112501
,,,-1.61E-06,0.016147501
,,,-1.6E-06,0.016200001
,,,-1.59E-06,0.016252501
,,,-1.58E-06,0.016073751
,,,-1.57E-06,0.016045626
,,,-1.56E-06,0.016071251
,,,-1.55E-06,0.016340001
,,,-1.54E-06,0.016081251
,,,-1.53E-06,0.016176251
,,,-1.52E-06,0.016208751
,,,-1.51E-06,0.016090001
,,,-1.5E-06,0.016031876
,,,-1.49E-06,0.016138751
,,,-1.48E-06,0.016236251
,,,-1.47E-06,0.016229376
,,,-1.46E-06,0.016226876
,,,-1.45E-06,0.016200626
,,,-1.44E-06,0.016105626
,,,-1.43E-06,0.015976251
,,,-1.42E-06,0.016101251
,,,-1.41E-06,0.016235001
,,,-1.4E-06,0.016153126
,,,-1.39E-06,0.015818126
,,,-1.38E-06,0.016031876
,,,-1.37E-06,0.016211876
,,,-1.36E-06,0.016056251
,,,-1.35E-06,0.016026251
,,,-1.34E-06,0.016276251
,,,-1.33E-06,0.016175001
,,,-1.32E-06,0.016105001
,,,-1.31E-06,0.016075001
,,,-1.3E-06,0.016053126
,,,-1.29E-06,0.016222501
,,,-1.28E-06,0.016092501
,,,-1.27E-06,0.016099376
,,,-1.26E-06,0.016250626
,,,-1.25E-06,0.016122501
,,,-1.24E-06,0.016145626
,,,-1.23E-06,0.016045001
,,,-1.22E-06,0.015966876
,,,-1.21E-06,0.016355001
,,,-1.2E-06,0.016075001
,,,-1.19E-06,0.016295001
,,,-1.18E-06,0.016128751
,,,-1.17E-06,0.016125001
,,,-1.16E-06,0.016190001
,,,-1.15E-06,0.016488126
,,,-1.14E-06,0.016220001
,,,-1.13E-06,0.016124376
,,,-1.12E-06,0.016146251
,,,-1.11E-06,0.016358126
,,,-1.1E-06,0.016277501
,,,-1.09E-06,0.015998126
,,,-1.08E-06,0.016005001
,,,-1.07E-06,0.016197501
,,,-1.06E-06,0.016076251
,,,-1.05E-06,0.016301251
,,,-1.04E-06,0.016019376
,,,-1.03E-06,0.016193126
,,,-1.02E-06,0.016177501
,,,-1.01E-06,0.015918751
,,,-1E-06,0.016413126
,,,-9.9E-07,0.016066876
,,,-9.8E-07,0.016243751
,,,-9.7E-07,0.015983126
,,,-9.6E-07,0.015873751
,,,-9.5E-07,0.016048751
,,,-9.4E-07,0.016213126
,,,-9.3E-07,0.016288751
,,,-9.2E-07,0.016295626
,,,-9.1E-07,0.016112501
,,,-9E-07,0.016215626
,,,-8.9E-07,0.016195001
,,,-8.8E-07,0.016265626
,,,-8.7E-07,0.016107501
,,,-8.6E-07,0.015988751
,,,-8.5E-07,0.016420001
,,,-8.4E-07,0.016493751
,,,-8.3E-07,0.016056251
,,,-8.2E-07,0.015973751
,,,-8.1E-07,0.016097501
,,,-8E-07,0.016315626
,,,-7.9E-07,0.015899376
,,,-7.8E-07,0.016094376
,,,-7.7E-07,0.016341251
,,,-7.6E-07,0.016313126
,,,-7.5E-07,0.016188126
,,,-7.4E-07,0.015848126
,,,-7.3E-07,0.016121251
,,,-7.2E-07,0.016075001
,,,-7.1E-07,0.015856876
,,,-7E-07,0.016270626
,,,-6.9E-07,0.015998751
,,,-6.8E-07,0.016053126
,,,-6.7E-07,0.016098751
,,,-6.6E-07,0.016122501
,,,-6.5E-07,0.015898126
,,,-6.4E-07,0.016054376
,,,-6.3E-07,0.016195001
,,,-6.2E-07,0.016492501
,,,-6.1E-07,0.016278126
,,,-6E-07,0.016072501
,,,-5.9E-07,0.016165001
,,,-5.8E-07,0.016078751
,,,-5.7E-07,0.016025626
,,,-5.6E-07,0.016066876
,,,-5.5E-07,0.015966251
,,,-5.4E-07,0.016270001
,,,-5.3E-07,0.015866251
,,,-5.2E-07,0.016110001
,,,-5.1E-07,0.016036251
,,,-5E-07,0.015954376
,,,-4.9E-07,0.015883751
,,,-4.8E-07,0.016129376
,,,-4.7E-07,0.015946876
,,,-4.6E-07,0.016084376
,,,-4.5E-07,0.016093751
,,,-4.4E-07,0.016167501
,,,-4.3E-07,0.016194376
,,,-4.2E-07,0.016168126
,,,-4.1E-07,0.015985626
,,,-4E-07,0.015900626
,,,-3.9E-07,0.016168126
,,,-3.8E-07,0.016188126
,,,-3.7E-07,0.016304376
,,,-3.6E-07,0.016102501
,,,-3.5E-07,0.016172501
,,,-3.4E-07,0.016046251
,,,-3.3E-07,0.015898751
,,,-3.2E-07,0.016412501
,,,-3.1E-07,0.016031251
,,,-3E-07,0.015975001
,,,-2.9E-07,0.016211876
,,,-2.8E-07,0.016048751
,,,-2.7E-07,0.016333126
,,,-2.6E-07,0.016136876
,,,-2.5E-07,0.016230001
,,,-2.4E-07,0.016001251
,,,-2.3E-07,0.015993751
,,,-2.2E-07,0.016145001
,,,-2.1E-07,0.016319376
,,,-2E-07,0.016244376
,,,-1.9E-07,0.016376251
,,,-1.8E-07,0.016284376
,,,-1.7E-07,0.015831251
,,,-1.6E-07,0.015993751
,,,-1.5E-07,0.016015001
,,,-1.4E-07,0.016140001
,,,-1.3E-07,0.016148126
,,,-1.2E-07,0.015962501
,,,-1.1E-07,0.016088126
,,,-1E-07,0.016420001
,,,-9E-08,0.016156876
,,,-8E-08,0.015955001
,,,-7E-08,0.015863126
,,,-6E-08,0.016301876
,,,-5E-08,0.016438126
,,,-4E-08,0.017070626
,,,-3E-08,0.017135626
,,,-2E-08,0.014571876
,,,-1E-08,0.012816876
,,,0,0.013693751
,,,1E-08,0.018643126
,,,2E-08,0.020186251
,,,3E-08,0.019504376
,,,4E-08,0.015508751
,,,5E-08,0.013440626
,,,6E-08,0.012946251
,,,7E-08,0.014933126
,,,8E-08,0.016854376
,,,9E-08,0.018328126
,,,1E-07,0.017871876
,,,1.1E-07,0.016558126
,,,1.2E-07,0.015201876
,,,1.3E-07,0.014878126
,,,1.4E-07,0.015354376
,,,1.5E-07,0.016244376
,,,1.6E-07,0.016636251
,,,1.7E-07,0.016428126
,,,1.8E-07,0.016204376
,,,1.9E-07,0.016273126
,,,2E-07,0.016008751
,,,2.1E-07,0.015893126
,,,2.2E-07,0.015743751
,,,2.3E-07,0.016260001
,,,2.4E-07,0.016127501
,,,2.5E-07,0.016160001
,,,2.6E-07,0.016270001
,,,2.7E-07,0.016325001
,,,2.8E-07,0.016357501
,,,2.9E-07,0.015847501
,,,3E-07,0.016055001
,,,3.1E-07,0.016223126
,,,3.2E-07,0.016171251
,,,3.3E-07,0.016327501
,,,3.4E-07,0.016198751
,,,3.5E-07,0.016159376
,,,3.6E-07,0.015765626
,,,3.7E-07,0.016022501
,,,3.8E-07,0.016387501
,,,3.9E-07,0.016093126
,,,4E-07,0.016205626
,,,4.1E-07,0.016089376
,,,4.2E-07,0.016100626
,,,4.3E-07,0.016212501
,,,4.4E-07,0.016133751
,,,4.5E-07,0.016173751
,,,4.6E-07,0.016110001
,,,4.7E-07,0.016278751
,,,4.8E-07,0.016106251
,,,4.9E-07,0.016013751
,,,5E-07,0.016259376
,,,5.1E-07,0.016139376
,,,5.2E-07,0.016093126
,,,5.3E-07,0.016148126
,,,5.4E-07,0.016024376
,,,5.5E-07,0.016111251
,,,5.6E-07,0.016126251
,,,5.7E-07,0.015977501
,,,5.8E-07,0.016170001
,,,5.9E-07,0.016381876
,,,6E-07,0.016000626
,,,6.1E-07,0.015966876
,,,6.2E-07,0.016156251
,,,6.3E-07,0.016192501
,,,6.4E-07,0.016181876
,,,6.5E-07,0.016078126
,,,6.6E-07,0.016180001
,,,6.7E-07,0.016165626
,,,6.8E-07,0.015811251
,,,6.9E-07,0.016015001
,,,7E-07,0.016110626
,,,7.1E-07,0.016198126
,,,7.2E-07,0.016142501
,,,7.3E-07,0.016174376
,,,7.4E-07,0.016311876
,,,7.5E-07,0.016219376
,,,7.6E-07,0.016136876
,,,7.7E-07,0.015966876
,,,7.8E-07,0.016053126
,,,7.9E-07,0.016118126
,,,8E-07,0.016159376
,,,8.1E-07,0.015958751
,,,8.2E-07,0.016036251
,,,8.3E-07,0.016313751
,,,8.4E-07,0.016152501
,,,8.5E-07,0.016146876
,,,8.6E-07,0.016181876
,,,8.7E-07,0.016153751
,,,8.8E-07,0.016295626
,,,8.9E-07,0.016040001
,,,9E-07,0.016238751
,,,9.1E-07,0.016076251
,,,9.2E-07,0.016132501
,,,9.3E-07,0.016228126
,,,9.4E-07,0.016171251
,,,9.5E-07,0.016320626
,,,9.6E-07,0.016145626
,,,9.7E-07,0.015946251
,,,9.8E-07,0.016344376
,,,9.9E-07,0.016291876
,,,1E-06,0.016242501
,,,1.01E-06,0.016272501
,,,1.02E-06,0.016045626
,,,1.03E-06,0.016066876
,,,1.04E-06,0.016302501
,,,1.05E-06,0.016114376
,,,1.06E-06,0.016054376
,,,1.07E-06,0.016243751
,,,1.08E-06,0.016160626
,,,1.09E-06,0.016187501
,,,1.1E-06,0.016098751
,,,1.11E-06,0.016238751
,,,1.12E-06,0.016160001
,,,1.13E-06,0.016128126
,,,1.14E-06,0.016063126
,,,1.15E-06,0.016311251
,,,1.16E-06,0.016121251
,,,1.17E-06,0.016286251
,,,1.18E-06,0.015920626
,,,1.19E-06,0.015942501
,,,1.2E-06,0.016126876
,,,1.21E-06,0.016216251
,,,1.22E-06,0.016312501
,,,1.23E-06,0.016295626
,,,1.24E-06,0.016114376
,,,1.25E-06,0.016401876
,,,1.26E-06,0.016126251
,,,1.27E-06,0.016282501
,,,1.28E-06,0.016234376
,,,1.29E-06,0.016168126
,,,1.3E-06,0.016317501
,,,1.31E-06,0.015952501
,,,1.32E-06,0.016256876
,,,1.33E-06,0.016120626
,,,1.34E-06,0.016180626
,,,1.35E-06,0.015952501
,,,1.36E-06,0.016030001
,,,1.37E-06,0.015785001
,,,1.38E-06,0.016378126
,,,1.39E-06,0.016228751
,,,1.4E-06,0.016125001
,,,1.41E-06,0.016045001
,,,1.42E-06,0.016122501
,,,1.43E-06,0.016159376
,,,1.44E-06,0.016030626
,,,1.45E-06,0.016296251
,,,1.46E-06,0.016192501
,,,1.47E-06,0.016011876
,,,1.48E-06,0.015983751
,,,1.49E-06,0.016392501
,,,1.5E-06,0.016195001
,,,1.51E-06,0.015946251
,,,1.52E-06,0.016216251
,,,1.53E-06,0.015916876
,,,1.54E-06,0.015988126
,,,1.55E-06,0.016135001
,,,1.56E-06,0.016318751
,,,1.57E-06,0.015989376
,,,1.58E-06,0.016212501
,,,1.59E-06,0.016001251
,,,1.6E-06,0.016160001
,,,1.61E-06,0.016223751
,,,1.62E-06,0.016080001
,,,1.63E-06,0.016255001
,,,1.64E-06,0.016434376
,,,1.65E-06,0.016120001
,,,1.66E-06,0.016129376
,,,1.67E-06,0.015961251
,,,1.68E-06,0.015986876
,,,1.69E-06,0.016002501
,,,1.7E-06,0.016000626
,,,1.71E-06,0.015960626
,,,1.72E-06,0.016282501
,,,1.73E-06,0.016450626
,,,1.74E-06,0.016091251
,,,1.75E-06,0.016298751
,,,1.76E-06,0.016073751
,,,1.77E-06,0.015951876
,,,1.78E-06,0.015938751
,,,1.79E-06,0.015830001
,,,1.8E-06,0.016241251
,,,1.81E-06,0.016035626
,,,1.82E-06,0.016061251
,,,1.83E-06,0.016304376
,,,1.84E-06,0.016313751
,,,1.85E-06,0.016057501
,,,1.86E-06,0.016022501
,,,1.87E-06,0.016224376
,,,1.88E-06,0.016091876
,,,1.89E-06,0.016161876
,,,1.9E-06,0.016090001
,,,1.91E-06,0.016216251
,,,1.92E-06,0.016288751
,,,1.93E-06,0.016016876
,,,1.94E-06,0.016066251
,,,1.95E-06,0.016097501
,,,1.96E-06,0.016180626
,,,1.97E-06,0.016358751
,,,1.98E-06,0.015912501
,,,1.99E-06,0.016190001
,,,2E-06,0.016149376
,,,2.01E-06,0.016173751
,,,2.02E-06,0.015935001
,,,2.03E-06,0.016077501
,,,2.04E-06,0.015878751
,,,2.05E-06,0.016121251
,,,2.06E-06,0.016180626
,,,2.07E-06,0.016165001
,,,2.08E-06,0.016214376
,,,2.09E-06,0.015956876
,,,2.1E-06,0.016180626
,,,2.11E-06,0.016170001
,,,2.12E-06,0.015717501
,,,2.13E-06,0.016067501
,,,2.14E-06,0.016368751
,,,2.15E-06,0.016118126
,,,2.16E-06,0.016339376
,,,2.17E-06,0.016015626
,,,2.18E-06,0.016267501
,,,2.19E-06,0.016354376
,,,2.2E-06,0.016531876
,,,2.21E-06,0.016216251
,,,2.22E-06,0.016218751
,,,2.23E-06,0.016130001
,,,2.24E-06,0.016233751
,,,2.25E-06,0.016261876
,,,2.26E-06,0.016266251
,,,2.27E-06,0.016426251
,,,2.28E-06,0.016351876
,,,2.29E-06,0.016186876
,,,2.3E-06,0.016241876
,,,2.31E-06,0.016035001
,,,2.32E-06,0.016465626
,,,2.33E-06,0.016319376
,,,2.34E-06,0.016263751
,,,2.35E-06,0.016192501
,,,2.36E-06,0.016285001
,,,2.37E-06,0.016170001
,,,2.38E-06,0.016213126
,,,2.39E-06,0.016077501
,,,2.4E-06,0.016390001
,,,2.41E-06,0.015997501
,,,2.42E-06,0.016049376
,,,2.43E-06,0.016143126
,,,2.44E-06,0.016084376
,,,2.45E-06,0.015980626
,,,2.46E-06,0.016075001
,,,2.47E-06,0.016383751
,,,2.48E-06,0.016257501
,,,2.49E-06,0.016271251
,,,2.5E-06,0.016164376
,,,2.51E-06,0.015969376
,,,2.52E-06,0.016024376
,,,2.53E-06,0.016036251
,,,2.54E-06,0.016103751
,,,2.55E-06,0.016397501
,,,2.56E-06,0.016030626
,,,2.57E-06,0.016547501
,,,2.58E-06,0.015988751
,,,2.59E-06,0.016052501
,,,2.6E-06,0.016263751
,,,2.61E-06,0.015945626
,,,2.62E-06,0.016196251
,,,2.63E-06,0.016213751
,,,2.64E-06,0.016296251
,,,2.65E-06,0.016118751
,,,2.66E-06,0.016122501
,,,2.67E-06,0.016325001
,,,2.68E-06,0.016112501
,,,2.69E-06,0.016362501
,,,2.7E-06,0.016115626
,,,2.71E-06,0.016129376
,,,2.72E-06,0.016164376
,,,2.73E-06,0.016188751
,,,2.74E-06,0.016125626
,,,2.75E-06,0.016055626
,,,2.76E-06,0.016146876
,,,2.77E-06,0.016198751
,,,2.78E-06,0.016136251
,,,2.79E-06,0.016215001
,,,2.8E-06,0.016380001
,,,2.81E-06,0.016161876
,,,2.82E-06,0.016262501
,,,2.83E-06,0.016354376
,,,2.84E-06,0.016116876
,,,2.85E-06,0.016180001
,,,2.86E-06,0.016128751
,,,2.87E-06,0.015916876
,,,2.88E-06,0.016066876
,,,2.89E-06,0.016203126
,,,2.9E-06,0.016206251
,,,2.91E-06,0.015972501
,,,2.92E-06,0.016040001
,,,2.93E-06,0.016143751
,,,2.94E-06,0.015990001
,,,2.95E-06,0.016095626
,,,2.96E-06,0.016208751
,,,2.97E-06,0.016411876
,,,2.98E-06,0.016026876
,,,2.99E-06,0.016146876
,,,3E-06,0.016133751
,,,3.01E-06,0.016068126
,,,3.02E-06,0.016166876
,,,3.03E-06,0.016071876
,,,3.04E-06,0.016127501
,,,3.05E-06,0.016305626
,,,3.06E-06,0.016010626
,,,3.07E-06,0.016076251
,,,3.08E-06,0.016123751
,,,3.09E-06,0.016326876
,,,3.1E-06,0.016106251
,,,3.11E-06,0.016071251
,,,3.12E-06,0.016149376
,,,3.13E-06,0.016425001
,,,3.14E-06,0.016045001
,,,3.15E-06,0.016121251
,,,3.16E-06,0.016082501
,,,3.17E-06,0.015945001
,,,3.18E-06,0.016241876
,,,3.19E-06,0.016280626
,,,3.2E-06,0.016006876
,,,3.21E-06,0.016171251
