data/raw/Final_POL_Test_1/SOP022_Ch4.csv

"Record Length",1000,"Points",-5E-06,0.01599875
"Sample Interval",1E-08,s,-4.99E-06,0.0161725
"Trigger Point",500,"Samples",-4.98E-06,0.015775
"Trigger Time",0,s,-4.97E-06,0.01588375
"",,,-4.96E-06,0.015819375
"Horizontal Offset",-5E-06,s,-4.95E-06,0.0157925
,,,-4.94E-06,0.0155375
,,,-4.93E-06,0.01566875
,,,-4.92E-06,0.015784375
,,,-4.91E-06,0.01581625
,,,-4.9E-06,0.01585125
,,,-4.89E-06,0.01565
,,,-4.88E-06,0.015678125
,,,-4.87E-06,0.0159375
,,,-4.86E-06,0.01570875
,,,-4.85E-06,0.015924375
,,,-4.84E-06,0.0159475
,,,-4.83E-06,0.016095
,,,-4.82E-06,0.01573125
,,,-4.81E-06,0.015993125
,,,-4.8E-06,0.01577625
,,,-4.79E-06,0.015793125
,,,-4.78E-06,0.0155925
,,,-4.77E-06,0.015698125
,,,-4.76E-06,0.015708125
,,,-4.75E-06,0.0157175
,,,-4.74E-06,0.015793125
,,,-4.73E-06,0.01577375
,,,-4.72E-06,0.01593
,,,-4.71E-06,0.01593375
,,,-4.7E-06,0.016083125
,,,-4.69E-06,0.015803125
,,,-4.68E-06,0.0159175
,,,-4.67E-06,0.015853125
,,,-4.66E-06,0.015845625
,,,-4.65E-06,0.015634375
,,,-4.64E-06,0.01598875
,,,-4.63E-06,0.015829375
,,,-4.62E-06,0.0157875
,,,-4.61E-06,0.01581875
,,,-4.6E-06,0.015766875
,,,-4.59E-06,0.015984375
,,,-4.58E-06,0.016086875
,,,-4.57E-06,0.015898125
,,,-4.56E-06,0.015938125
,,,-4.55E-06,0.015724375
,,,-4.54E-06,0.0157325
,,,-4.53E-06,0.0154925
,,,-4.52E-06,0.015906875
,,,-4.51E-06,0.01565375
,,,-4.5E-06,0.0159225
,,,-4.49E-06,0.0160375
,,,-4.48E-06,0.01602625
,,,-4.47E-06,0.01591875
,,,-4.46E-06,0.015655625
,,,-4.45E-06,0.01586625
,,,-4.44E-06,0.015728125
,,,-4.43E-06,0.015906875
,,,-4.42E-06,0.01558125
,,,-4.41E-06,0.015861875
,,,-4.4E-06,0.015968125
,,,-4.39E-06,0.0157975
,,,-4.38E-06,0.015708125
,,,-4.37E-06,0.015491875
,,,-4.36E-06,0.015665
,,,-4.35E-06,0.01562875
,,,-4.34E-06,0.01576125
,,,-4.33E-06,0.015670625
,,,-4.32E-06,0.015705
,,,-4.31E-06,0.01581875
,,,-4.3E-06,0.01559125
,,,-4.29E-06,0.015745
,,,-4.28E-06,0.015614375
,,,-4.27E-06,0.015986875
,,,-4.26E-06,0.01583625
,,,-4.25E-06,0.015640625
,,,-4.24E-06,0.015783125
,,,-4.23E-06,0.016004375
,,,-4.22E-06,0.01596
,,,-4.21E-06,0.015854375
,,,-4.2E-06,0.015828125
,,,-4.19E-06,0.015825
,,,-4.18E-06,0.016035
,,,-4.17E-06,0.015800625
,,,-4.16E-06,0.01562375
,,,-4.15E-06,0.015674375
,,,-4.14E-06,0.015905625
,,,-4.13E-06,0.015970625
,,,-4.12E-06,0.015845625
,,,-4.11E-06,0.01575125
,,,-4.1E-06,0.015930625
,,,-4.09E-06,0.015806875
,,,-4.08E-06,0.01569625
,,,-4.07E-06,0.015944375
,,,-4.06E-06,0.015955625
,,,-4.05E-06,0.01605
,,,-4.04E-06,0.015894375
,,,-4.03E-06,0.01573125
,,,-4.02E-06,0.01567625
,,,-4.01E-06,0.016031875
,,,-4E-06,0.015940625
,,,-3.99E-06,0.016073125
,,,-3.98E-06,0.0159625
,,,-3.97E-06,0.0158875
,,,-3.96E-06,0.01527625
,,,-3.95E-06,0.015815625
,,,-3.94E-06,0.015641875
,,,-3.93E-06,0.015620625
,,,-3.92E-06,0.01587
,,,-3.91E-06,0.01575
,,,-3.9E-06,0.015894375
,,,-3.89E-06,0.015525625
,,,-3.88E-06,0.015895625
,,,-3.87E-06,0.015814375
,,,-3.86E-06,0.015768125
,,,-3.85E-06,0.015719375
,,,-3.84E-06,0.01581125
,,,-3.83E-06,0.015944375
,,,-3.82E-06,0.015955625
,,,-3.81E-06,0.015551875
,,,-3.8E-06,0.01599
,,,-3.79E-06,0.01591625
,,,-3.78E-06,0.015724375
,,,-3.77E-06,0.015744375
,,,-3.76E-06,0.0156275
,,,-3.75E-06,0.0157225
,,,-3.74E-06,0.015988125
,,,-3.73E-06,0.015715
,,,-3.72E-06,0.01609
,,,-3.71E-06,0.015874375
,,,-3.7E-06,0.015723125
,,,-3.69E-06,0.01591125
,,,-3.68E-06,0.015868125
,,,-3.67E-06,0.015864375
,,,-3.66E-06,0.0158375
,,,-3.65E-06,0.015818125
,,,-3.64E-06,0.015856875
,,,-3.63E-06,0.015891875
,,,-3.62E-06,0.015815
,,,-3.61E-06,0.015694375
,,,-3.6E-06,0.015746875
,,,-3.59E-06,0.015819375
,,,-3.58E-06,0.01596
,,,-3.57E-06,0.01595375
,,,-3.56E-06,0.015859375
,,,-3.55E-06,0.01567875
,,,-3.54E-06,0.015956875
,,,-3.53E-06,0.01544875
,,,-3.52E-06,0.01593375
,,,-3.51E-06,0.0157275
,,,-3.5E-06,0.01593625
,,,-3.49E-06,0.015778125
,,,-3.48E-06,0.015805625
,,,-3.47E-06,0.015999375
,,,-3.46E-06,0.01572125
,,,-3.45E-06,0.0157525
,,,-3.44E-06,0.016031875
,,,-3.43E-06,0.015744375
,,,-3.42E-06,0.015995625
,,,-3.41E-06,0.016151875
,,,-3.4E-06,0.01600125
,,,-3.39E-06,0.015816875
,,,-3.38E-06,0.015805
,,,-3.37E-06,0.015696875
,,,-3.36E-06,0.015945625
,,,-3.35E-06,0.015795625
,,,-3.34E-06,0.015575
,,,-3.33E-06,0.015790625
,,,-3.32E-06,0.0160075
,,,-3.31E-06,0.015644375
,,,-3.3E-06,0.0158
,,,-3.29E-06,0.015860625
,,,-3.28E-06,0.015879375
,,,-3.27E-06,0.015695625
,,,-3.26E-06,0.01573625
,,,-3.25E-06,0.015851875
,,,-3.24E-06,0.015968125
,,,-3.23E-06,0.01589125
,,,-3.22E-06,0.015688125
,,,-3.21E-06,0.01586
,,,-3.2E-06,0.01563125
,,,-3.19E-06,0.015850625
,,,-3.18E-06,0.015725
,,,-3.17E-06,0.0159625
,,,-3.16E-06,0.01590125
,,,-3.15E-06,0.015881875
,,,-3.14E-06,0.01560375
,,,-3.13E-06,0.0157175
,,,-3.12E-06,0.01577375
,,,-3.11E-06,0.015820625
,,,-3.1E-06,0.015801875
,,,-3.09E-06,0.015938125
,,,-3.08E-06,0.01593375
,,,-3.07E-06,0.01573375
,,,-3.06E-06,0.01602625
,,,-3.05E-06,0.01605625
,,,-3.04E-06,0.01590375
,,,-3.03E-06,0.0157075
,,,-3.02E-06,0.01589625
,,,-3.01E-06,0.01594
,,,-3E-06,0.015871875
,,,-2.99E-06,0.016045625
,,,-2.98E-06,0.015750625
,,,-2.97E-06,0.015834375
,,,-2.96E-06,0.01563
,,,-2.95E-06,0.015811875
,,,-2.94E-06,0.01579625
,,,-2.93E-06,0.0157775
,,,-2.92E-06,0.01599
,,,-2.91E-06,0.01584125
,,,-2.9E-06,0.015666875
,,,-2.89E-06,0.01577625
,,,-2.88E-06,0.01577875
,,,-2.87E-06,0.0156675
,,,-2.86E-06,0.0155325
,,,-2.85E-06,0.015851875
,,,-2.84E-06,0.015918125
,,,-2.83E-06,0.01588375
,,,-2.82E-06,0.01608875
,,,-2.81E-06,0.015721875
,,,-2.8E-06,0.01593625
,,,-2.79E-06,0.0158275
,,,-2.78E-06,0.0157625
,,,-2.77E-06,0.015745
,,,-2.76E-06,0.016105
,,,-2.75E-06,0.015814375
,,,-2.74E-06,0.015811875
,,,-2.73E-06,0.015774375
,,,-2.72E-06,0.01575
,,,-2.71E-06,0.0155875
,,,-2.7E-06,0.015659375
,,,-2.69E-06,0.015745625
,,,-2.68E-06,0.0158425
,,,-2.67E-06,0.015728125
,,,-2.66E-06,0.015761875
,,,-2.65E-06,0.01588125
,,,-2.64E-06,0.01577875
,,,-2.63E-06,0.01568625
,,,-2.62E-06,0.01574875
,,,-2.61E-06,0.015634375
,,,-2.6E-06,0.01567375
,,,-2.59E-06,0.015903125
,,,-2.58E-06,0.0161475
,,,-2.57E-06,0.01578
,,,-2.56E-06,0.01604
,,,-2.55E-06,0.01571
,,,-2.54E-06,0.01580125
,,,-2.53E-06,0.015719375
,,,-2.52E-06,0.015638125
,,,-2.51E-06,0.01567125
,,,-2.5E-06,0.01575625
,,,-2.49E-06,0.015784375
,,,-2.48E-06,0.016014375
,,,-2.47E-06,0.015948125
,,,-2.46E-06,0.0157275
,,,-2.45E-06,0.015533125
,,,-2.44E-06,0.015886875
,,,-2.43E-06,0.015828125
,,,-2.42E-06,0.016094375
,,,-2.41E-06,0.015888125
,,,-2.4E-06,0.015765625
,,,-2.39E-06,0.015969375
,,,-2.38E-06,0.015841875
,,,-2.37E-06,0.015908125
,,,-2.36E-06,0.01605625
,,,-2.35E-06,0.015884375
,,,-2.34E-06,0.01587625
,,,-2.33E-06,0.01596
,,,-2.32E-06,0.01591125
,,,-2.31E-06,0.01586
,,,-2.3E-06,0.01594375
,,,-2.29E-06,0.01548625
,,,-2.28E-06,0.0157625
,,,-2.27E-06,0.01594
,,,-2.26E-06,0.015758125
,,,-2.25E-06,0.01576875
,,,-2.24E-06,0.01579375
,,,-2.23E-06,0.015969375
,,,-2.22E-06,0.015834375
,,,-2.21E-06,0.01554875
,,,-2.2E-06,0.015744375
,,,-2.19E-06,0.01569
,,,-2.18E-06,0.0161125
,,,-2.17E-06,0.0159575
,,,-2.16E-06,0.015889375
,,,-2.15E-06,0.01590875
,,,-2.14E-06,0.015819375
,,,-2.13E-06,0.01555625
,,,-2.12E-06,0.0161525
,,,-2.11E-06,0.015815625
,,,-2.1E-06,0.015834375
,,,-2.09E-06,0.016005
,,,-2.08E-06,0.015905625
,,,-2.07E-06,0.015865
,,,-2.06E-06,0.01568875
,,,-2.05E-06,0.015804375
,,,-2.04E-06,0.0157025
,,,-2.03E-06,0.0157525
,,,-2.02E-06,0.0158225
,,,-2.01E-06,0.01584
,,,-2E-06,0.0155775
,,,-1.99E-06,0.016073125
,,,-1.98E-06,0.01581375
,,,-1.97E-06,0.01572
,,,-1.96E-06,0.0157825
,,,-1.95E-06,0.016071875
,,,-1.94E-06,0.01600875
,,,-1.93E-06,0.015725
,,,-1.92E-06,0.01604125
,,,-1.91E-06,0.015840625
,,,-1.9E-06,0.015880625
,,,-1.89E-06,0.015704375
,,,-1.88E-06,0.015618125
,,,-1.87E-06,0.015546875
,,,-1.86E-06,0.01584125
,,,-1.85E-06,0.01595125
,,,-1.84E-06,0.015899375
,,,-1.83E-06,0.01587875
,,,-1.82E-06,0.015728125
,,,-1.81E-06,0.015629375
,,,-1.8E-06,0.015585
,,,-1.79E-06,0.01552875
,,,-1.78E-06,0.015778125
,,,-1.77E-06,0.01573125
,,,-1.76E-06,0.015850625
,,,-1.75E-06,0.01593875
,,,-1.74E-06,0.01572875
,,,-1.73E-06,0.015950625
,,,-1.72E-06,0.015919375
,,,-1.71E-06,0.01583
,,,-1.7E-06,0.015755
,,,-1.69E-06,0.015616875
,,,-1.68E-06,0.015910625
,,,-1.67E-06,0.015700625
,,,-1.66E-06,0.0156975
,,,-1.65E-06,0.015885625
,,,-1.64E-06,0.01566875
,,,-1.63E-06,0.015951875
,,,-1.62E-06,0.01592625
,,,-1.61E-06,0.0157925
,,,-1.6E-06,0.015805625
,,,-1.59E-06,0.01557625
,,,-1.58E-06,0.01593125
,,,-1.57E-06,0.015731875
,,,-1.56E-06,0.015785625
,,,-1.55E-06,0.015838125
,,,-1.54E-06,0.015741875
,,,-1.53E-06,0.0156275
,,,-1.52E-06,0.015819375
,,,-1.51E-06,0.01565875
,,,-1.5E-06,0.015756875
,,,-1.49E-06,0.015848125
,,,-1.48E-06,0.015951875
,,,-1.47E-06,0.01598875
,,,-1.46E-06,0.0157975
,,,-1.45E-06,0.015731875
,,,-1.44E-06,0.01575375
,,,-1.43E-06,0.01591375
,,,-1.42E-06,0.0158325
,,,-1.41E-06,0.015806875
,,,-1.4E-06,0.01597375
,,,-1.39E-06,0.0158225
,,,-1.38E-06,0.015869375
,,,-1.37E-06,0.01581125
,,,-1.36E-06,0.01563
,,,-1.35E-06,0.01587
,,,-1.34E-06,0.01595375
,,,-1.33E-06,0.01576875
,,,-1.32E-06,0.01590125
,,,-1.31E-06,0.016020625
,,,-1.3E-06,0.015798125
,,,-1.29E-06,0.0159
,,,-1.28E-06,0.01601
,,,-1.27E-06,0.015770625
,,,-1.26E-06,0.01581
,,,-1.25E-06,0.0157525
,,,-1.24E-06,0.015873125
,,,-1.23E-06,0.015839375
,,,-1.22E-06,0.015640625
,,,-1.21E-06,0.0156225
,,,-1.2E-06,0.015713125
,,,-1.19E-06,0.015994375
,,,-1.18E-06,0.01576875
,,,-1.17E-06,0.015753125
,,,-1.16E-06,0.015785
,,,-1.15E-06,0.015815625
,,,-1.14E-06,0.0159125
,,,-1.13E-06,0.015815
,,,-1.12E-06,0.01572875
,,,-1.11E-06,0.0160475
,,,-1.1E-06,0.015880625
,,,-1.09E-06,0.015825
,,,-1.08E-06,0.015736875
,,,-1.07E-06,0.015859375
,,,-1.06E-06,0.01566875
,,,-1.05E-06,0.015769375
,,,-1.04E-06,0.01566125
,,,-1.03E-06,0.01591625
,,,-1.02E-06,0.015845
,,,-1.01E-06,0.01574125
,,,-1E-06,0.016024375
,,,-9.9E-07,0.01610875
,,,-9.8E-07,0.015549375
,,,-9.7E-07,0.01592125
,,,-9.6E-07,0.015908125
,,,-9.5E-07,0.0158
,,,-9.4E-07,0.01567125
,,,-9.3E-07,0.015853125
,,,-9.2E-07,0.01585375
,,,-9.1E-07,0.01573375
,,,-9E-07,0.01581875
,,,-8.9E-07,0.015944375
,,,-8.8E-07,0.01591625
,,,-8.7E-07,0.015906875
,,,-8.6E-07,0.015921875
,,,-8.5E-07,0.015770625
,,,-8.4E-07,0.015690625
,,,-8.3E-07,0.015831875
,,,-8.2E-07,0.01581375
,,,-8.1E-07,0.01577875
,,,-8E-07,0.015845
,,,-7.9E-07,0.015806875
,,,-7.8E-07,0.015890625
,,,-7.7E-07,0.015869375
,,,-7.6E-07,0.016023125
,,,-7.5E-07,0.01585875
,,,-7.4E-07,0.015423125
,,,-7.3E-07,0.015878125
,,,-7.2E-07,0.015519375
,,,-7.1E-07,0.015940625
,,,-7E-07,0.01579625
,,,-6.9E-07,0.0160125
,,,-6.8E-07,0.015804375
,,,-6.7E-07,0.015713125
,,,-6.6E-07,0.0156825
,,,-6.5E-07,0.0156575
,,,-6.4E-07,0.016144375
,,,-6.3E-07,0.0156725
,,,-6.2E-07,0.01566625
,,,-6.1E-07,0.015859375
,,,-6E-07,0.015738125
,,,-5.9E-07,0.015746875
,,,-5.8E-07,0.015813125
,,,-5.7E-07,0.015586875
,,,-5.6E-07,0.01601875
,,,-5.5E-07,0.015824375
,,,-5.4E-07,0.015888125
,,,-5.3E-07,0.0155625
,,,-5.2E-07,0.01568375
,,,-5.1E-07,0.0157925
,,,-5E-07,0.015996875
,,,-4.9E-07,0.01588
,,,-4.8E-07,0.015894375
,,,-4.7E-07,0.015941875
,,,-4.6E-07,0.015725625
,,,-4.5E-07,0.01571
,,,-4.4E-07,0.01592875
,,,-4.3E-07,0.01604875
,,,-4.2E-07,0.015608125
,,,-4.1E-07,0.015913125
,,,-4E-07,0.015980625
,,,-3.9E-07,0.015704375
,,,-3.8E-07,0.01593375
,,,-3.7E-07,0.015886875
,,,-3.6E-07,0.015786875
,,,-3.5E-07,0.016020625
,,,-3.4E-07,0.015821875
,,,-3.3E-07,0.01589
,,,-3.2E-07,0.01572125
,,,-3.1E-07,0.015790625
,,,-3E-07,0.015893125
,,,-2.9E-07,0.015705
,,,-2.8E-07,0.0158225
,,,-2.7E-07,0.01581125
,,,-2.6E-07,0.01582875
,,,-2.5E-07,0.015616875
,,,-2.4E-07,0.0157
,,,-2.3E-07,0.015805625
,,,-2.2E-07,0.01586375
,,,-2.1E-07,0.0158075
,,,-2E-07,0.015655625
,,,-1.9E-07,0.01586
,,,-1.8E-07,0.01581125
,,,-1.7E-07,0.015955625
,,,-1.6E-07,0.015609375
,,,-1.5E-07,0.01603875
,,,-1.4E-07,0.01547375
,,,-1.3E-07,0.01579375
,,,-1.2E-07,0.015671875
,,,-1.1E-07,0.015944375
,,,-1E-07,0.0157125
,,,-9E-08,0.01596
,,,-8E-08,0.01581
,,,-7E-08,0.01541
,,,-6E-08,0.015638125
,,,-5E-08,0.015968125
,,,-4E-08,0.0172
,,,-3E-08,0.01653875
,,,-2E-08,0.0140175
,,,-1E-08,0.012223125
,,,0,0.014776875
,,,1E-08,0.018176875
,,,2E-08,0.01956125
,,,3E-08,0.01768875
,,,4E-08,0.015043125
,,,5E-08,0.013241875
,,,6E-08,0.01346125
,,,7E-08,0.01551125
,,,8E-08,0.016565625
,,,9E-08,0.0177325
,,,1E-07,0.0170825
,,,1.1E-07,0.0157875
,,,1.2E-07,0.014510625
,,,1.3E-07,0.014325
,,,1.4E-07,0.015396875
,,,1.5E-07,0.01598875
,,,1.6E-07,0.016474375
,,,1.7E-07,0.0162975
,,,1.8E-07,0.016118125
,,,1.9E-07,0.01599375
,,,2E-07,0.01602875
,,,2.1E-07,0.015525
,,,2.2E-07,0.01565875
,,,2.3E-07,0.01580875
,,,2.4E-07,0.01580125
,,,2.5E-07,0.016064375
,,,2.6E-07,0.0158875
,,,2.7E-07,0.015756875
,,,2.8E-07,0.01585
,,,2.9E-07,0.015890625
,,,3E-07,0.01543125
,,,3.1E-07,0.015786875
,,,3.2E-07,0.01578375
,,,3.3E-07,0.015884375
,,,3.4E-07,0.015761875
,,,3.5E-07,0.015904375
,,,3.6E-07,0.0157025
,,,3.7E-07,0.015994375
,,,3.8E-07,0.0158475
,,,3.9E-07,0.015850625
,,,4E-07,0.0159475
,,,4.1E-07,0.01583875
,,,4.2E-07,0.015961875
,,,4.3E-07,0.015804375
,,,4.4E-07,0.016008125
,,,4.5E-07,0.0158
,,,4.6E-07,0.01604625
,,,4.7E-07,0.015748125
,,,4.8E-07,0.015760625
,,,4.9E-07,0.015955
,,,5E-07,0.015815
,,,5.1E-07,0.015863125
,,,5.2E-07,0.015948125
,,,5.3E-07,0.0156625
,,,5.4E-07,0.015756875
,,,5.5E-07,0.0158525
,,,5.6E-07,0.01581125
,,,5.7E-07,0.01570375
,,,5.8E-07,0.0157525
,,,5.9E-07,0.015880625
,,,6E-07,0.0157325
,,,6.1E-07,0.0160225
,,,6.2E-07,0.0158225
,,,6.3E-07,0.01567
,,,6.4E-07,0.0158225
,,,6.5E-07,0.0158875
,,,6.6E-07,0.01559
,,,6.7E-07,0.015941875
,,,6.8E-07,0.015845
,,,6.9E-07,0.01596
,,,7E-07,0.015574375
,,,7.1E-07,0.015741875
,,,7.2E-07,0.015995
,,,7.3E-07,0.015945
,,,7.4E-07,0.015691875
,,,7.5E-07,0.015904375
,,,7.6E-07,0.0160775
,,,7.7E-07,0.01565625
,,,7.8E-07,0.0157825
,,,7.9E-07,0.01578625
,,,8E-07,0.01571625
,,,8.1E-07,0.015776875
,,,8.2E-07,0.01579125
,,,8.3E-07,0.0157775
,,,8.4E-07,0.015835625
,,,8.5E-07,0.015956875
,,,8.6E-07,0.015795
,,,8.7E-07,0.0157
,,,8.8E-07,0.015543125
,,,8.9E-07,0.01589
,,,9E-07,0.0159325
,,,9.1E-07,0.016088125
,,,9.2E-07,0.016101875
,,,9.3E-07,0.015911875
,,,9.4E-07,0.015795
,,,9.5E-07,0.015765625
,,,9.6E-07,0.01571375
,,,9.7E-07,0.01588875
,,,9.8E-07,0.0158675
,,,9.9E-07,0.0159925
,,,1E-06,0.015693125
,,,1.01E-06,0.01571
,,,1.02E-06,0.015850625
,,,1.03E-06,0.016036875
,,,1.04E-06,0.0157725
,,,1.05E-06,0.0158175
,,,1.06E-06,0.015836875
,,,1.07E-06,0.01566125
,,,1.08E-06,0.01569375
,,,1.09E-06,0.01582125
,,,1.1E-06,0.015665
,,,1.11E-06,0.01578625
,,,1.12E-06,0.016100625
,,,1.13E-06,0.01582125
,,,1.14E-06,0.01623375
,,,1.15E-06,0.0157325
,,,1.16E-06,0.015813125
,,,1.17E-06,0.015983125
,,,1.18E-06,0.01594
,,,1.19E-06,0.015934375
,,,1.2E-06,0.015903125
,,,1.21E-06,0.0157775
,,,1.22E-06,0.0159025
,,,1.23E-06,0.015751875
,,,1.24E-06,0.015640625
,,,1.25E-06,0.015825
,,,1.26E-06,0.01600625
,,,1.27E-06,0.016129375
,,,1.28E-06,0.015628125
,,,1.29E-06,0.015851875
,,,1.3E-06,0.015890625
,,,1.31E-06,0.015861875
,,,1.32E-06,0.015869375
,,,1.33E-06,0.01575125
,,,1.34E-06,0.015836875
,,,1.35E-06,0.01569125
,,,1.36E-06,0.015451875
,,,1.37E-06,0.01594875
,,,1.38E-06,0.0158425
,,,1.39E-06,0.015791875
,,,1.4E-06,0.015715
,,,1.41E-06,0.01581
,,,1.42E-06,0.015919375
,,,1.43E-06,0.015593125
,,,1.44E-06,0.015955625
,,,1.45E-06,0.015839375
,,,1.46E-06,0.0158625
,,,1.47E-06,0.015725
,,,1.48E-06,0.015601875
,,,1.49E-06,0.016033125
,,,1.5E-06,0.0158025
,,,1.51E-06,0.01588625
,,,1.52E-06,0.015974375
,,,1.53E-06,0.015934375
,,,1.54E-06,0.015893125
,,,1.55E-06,0.0157925
,,,1.56E-06,0.0161275
,,,1.57E-06,0.01579875
,,,1.58E-06,0.01587875
,,,1.59E-06,0.015920625
,,,1.6E-06,0.015693125
,,,1.61E-06,0.01549125
,,,1.62E-06,0.0157925
,,,1.63E-06,0.016085
,,,1.64E-06,0.015815
,,,1.65E-06,0.015660625
,,,1.66E-06,0.016000625
,,,1.67E-06,0.01570125
,,,1.68E-06,0.0156825
,,,1.69E-06,0.0158675
,,,1.7E-06,0.016098125
,,,1.71E-06,0.01560125
,,,1.72E-06,0.01560875
,,,1.73E-06,0.015896875
,,,1.74E-06,0.015778125
,,,1.75E-06,0.015451875
,,,1.76E-06,0.01565625
,,,1.77E-06,0.015730625
,,,1.78E-06,0.015858125
,,,1.79E-06,0.015759375
,,,1.8E-06,0.0158075
,,,1.81E-06,0.01563875
,,,1.82E-06,0.01595
,,,1.83E-06,0.01594625
,,,1.84E-06,0.01578375
,,,1.85E-06,0.015896875
,,,1.86E-06,0.015901875
,,,1.87E-06,0.0156475
,,,1.88E-06,0.015975
,,,1.89E-06,0.015825
,,,1.9E-06,0.015988125
,,,1.91E-06,0.015688125
,,,1.92E-06,0.01557625
,,,1.93E-06,0.015795625
,,,1.94E-06,0.016
,,,1.95E-06,0.01575375
,,,1.96E-06,0.015896875
,,,1.97E-06,0.015711875
,,,1.98E-06,0.01569625
,,,1.99E-06,0.01582875
,,,2E-06,0.01574
,,,2.01E-06,0.015746875
,,,2.02E-06,0.015838125
,,,2.03E-06,0.015759375
,,,2.04E-06,0.01566625
,,,2.05E-06,0.015855625
,,,2.06E-06,0.015724375
,,,2.07E-06,0.01567125
,,,2.08E-06,0.01576875
,,,2.09E-06,0.015766875
,,,2.1E-06,0.01569375
,,,2.11E-06,0.015969375
,,,2.12E-06,0.016043125
,,,2.13E-06,0.015633125
,,,2.14E-06,0.015995625
,,,2.15E-06,0.01574125
,,,2.16E-06,0.015873125
,,,2.17E-06,0.015806875
,,,2.18E-06,0.015595625
,,,2.19E-06,0.015546875
,,,2.2E-06,0.015871875
,,,2.21E-06,0.01581875
,,,2.22E-06,0.015951875
,,,2.23E-06,0.015844375
,,,2.24E-06,0.015873125
,,,2.25E-06,0.016008125
,,,2.26E-06,0.0157775
,,,2.27E-06,0.015738125
,,,2.28E-06,0.015879375
,,,2.29E-06,0.01564875
,,,2.3E-06,0.015864375
,,,2.31E-06,0.01584625
,,,2.32E-06,0.016069375
,,,2.33E-06,0.0158475
,,,2.34E-06,0.015856875
,,,2.35E-06,0.01552125
,,,2.36E-06,0.015785625
,,,2.37E-06,0.015795625
,,,2.38E-06,0.01576
,,,2.39E-06,0.015968125
,,,2.4E-06,0.0159275
,,,2.41E-06,0.015746875
,,,2.42E-06,0.015800625
,,,2.43E-06,0.01595
,,,2.44E-06,0.01573
,,,2.45E-06,0.015539375
,,,2.46E-06,0.015745625
,,,2.47E-06,0.01578125
,,,2.48E-06,0.015721875
,,,2.49E-06,0.015828125
,,,2.5E-06,0.016041875
,,,2.51E-06,0.01562
,,,2.52E-06,0.015874375
,,,2.53E-06,0.015895
,,,2.54E-06,0.015878125
,,,2.55E-06,0.0158175
,,,2.56E-06,0.015890625
,,,2.57E-06,0.015854375
,,,2.58E-06,0.015880625
,,,2.59E-06,0.01583625
,,,2.6E-06,0.015775
,,,2.61E-06,0.01595375
,,,2.62E-06,0.0157875
,,,2.63E-06,0.01573375
,,,2.64E-06,0.01562125
,,,2.65E-06,0.01594875
,,,2.66E-06,0.01571625
,,,2.67E-06,0.015706875
,,,2.68E-06,0.01598625
,,,2.69E-06,0.015661875
,,,2.7E-06,0.015960625
,,,2.71E-06,0.015946875
,,,2.72E-06,0.015858125
,,,2.73E-06,0.015894375
,,,2.74E-06,0.015709375
,,,2.75E-06,0.015826875
,,,2.76E-06,0.015521875
,,,2.77E-06,0.015815
,,,2.78E-06,0.015900625
,,,2.79E-06,0.01589125
,,,2.8E-06,0.015829375
,,,2.81E-06,0.015849375
,,,2.82E-06,0.01580375
,,,2.83E-06,0.0158525
,,,2.84E-06,0.015814375
,,,2.85E-06,0.01578
,,,2.86E-06,0.015871875
,,,2.87E-06,0.01563875
,,,2.88E-06,0.01596125
,,,2.89E-06,0.015895
,,,2.9E-06,0.015689375
,,,2.91E-06,0.01559625
,,,2.92E-06,0.01582375
,,,2.93E-06,0.016030625
,,,2.94E-06,0.01582
,,,2.95E-06,0.016031875
,,,2.96E-06,0.015729375
,,,2.97E-06,0.015931875
,,,2.98E-06,0.0157125
,,,2.99E-06,0.015943125
,,,3E-06,0.015710625
,,,3.01E-06,0.015559375
,,,3.02E-06,0.015789375
,,,3.03E-06,0.01599375
,,,3.04E-06,0.015960625
,,,3.05E-06,0.01569
,,,3.06E-06,0.015766875
,,,3.07E-06,0.01585875
,,,3.08E-06,0.015559375
,,,3.09E-06,0.015685625
,,,3.1E-06,0.01582
,,,3.11E-06,0.015864375
,,,3.12E-06,0.015715
,,,3.13E-06,0.015425625
,,,3.14E-06,0.015661875
,,,3.15E-06,0.015753125
,,,3.16E-06,0.015746875
,,,3.17E-06,0.01585125
,,,3.18E-06,0.015720625
,,,3.19E-06,0.01577
,,,3.2E-06,0.015653125
,,,3.21E-06,0.015825
,,,3.22E-06,0.015961875
,,,3.23E-06,0.015774375
,,,3.24E-06,0.01597
,,,3.25E-06,0.015715
,,,3.26E-06,0.015845625
,,,3.27E-06,0.01561875
,,,3.28E-06,0.015798125
,,,3.29E-06,0.0156675
,,,3.3E-06,0.01572
,,,3.31E-06,0.0159525
,,,3.32E-06,0.015935625
,,,3.33E-06,0.016015625
,,,3.34E-06,0.015624375
,,,3.35E-06,0.015799375
,,,3.36E-06,0.015731875
,,,3.37E-06,0.015764375
,,,3.38E-06,0.015805
,,,3.39E-06,0.015544375
,,,3.4E-06,0.015801875
,,,3.41E-06,0.015753125
,,,3.42E-06,0.015763125
,,,3.43E-06,0.01566375
,,,3.44E-06,0.01576
,,,3.45E-06,0.015784375
,,,3.46E-06,0.01575125
,,,3.47E-06,0.01590125
,,,3.48E-06,0.015665625
,,,3.49E-06,0.0159825
,,,3.5E-06,0.0158725
,,,3.51E-06,0.01568875
,,,3.52E-06,0.01553125
,,,3.53E-06,0.015638125
,,,3.54E-06,0.015716875
,,,3.55E-06,0.01585
,,,3.56E-06,0.015868125
,,,3.57E-06,0.0157225
