data/raw/lightera_POL_calibration_traces/Final_POL_Test/SOP019_Ch4.csv

"Record Length",1000,"Points",-1E-05,0.0168
"Sample Interval",2E-08,s,-9.98E-06,0.01704
"Trigger Point",500,"Samples",-9.96E-06,0.01704
"Trigger Time",1.77712124037907E-08,s,-9.94E-06,0.0168
"",,,-9.92E-06,0.01704
"Horizontal Offset",-1E-05,s,-9.9E-06,0.01704
,,,-9.88E-06,0.0168
,,,-9.86E-06,0.01704
,,,-9.84E-06,0.01656
,,,-9.82E-06,0.01704
,,,-9.8E-06,0.01752
,,,-9.78E-06,0.0168
,,,-9.76E-06,0.0168
,,,-9.74E-06,0.0156
,,,-9.72E-06,0.01704
,,,-9.7E-06,0.01608
,,,-9.68E-06,0.01752
,,,-9.66E-06,0.01656
,,,-9.64E-06,0.01584
,,,-9.62E-06,0.01656
,,,-9.6E-06,0.01704
,,,-9.58E-06,0.01824
,,,-9.56E-06,0.01704
,,,-9.54E-06,0.01728
,,,-9.52E-06,0.01608
,,,-9.5E-06,0.0168
,,,-9.48E-06,0.01728
,,,-9.46E-06,0.01656
,,,-9.44E-06,0.0156
,,,-9.42E-06,0.01824
,,,-9.4E-06,0.01632
,,,-9.38E-06,0.01704
,,,-9.36E-06,0.0168
,,,-9.34E-06,0.01704
,,,-9.32E-06,0.01728
,,,-9.3E-06,0.0168
,,,-9.28E-06,0.0168
,,,-9.26E-06,0.01776
,,,-9.24E-06,0.01656
,,,-9.22E-06,0.0156
,,,-9.2E-06,0.01752
,,,-9.18E-06,0.01704
,,,-9.16E-06,0.01608
,,,-9.14E-06,0.0168
,,,-9.12E-06,0.01704
,,,-9.1E-06,0.018
,,,-9.08E-06,0.01656
,,,-9.06E-06,0.0168
,,,-9.04E-06,0.01752
,,,-9.02E-06,0.01632
,,,-9E-06,0.01752
,,,-8.98E-06,0.0168
,,,-8.96E-06,0.0168
,,,-8.94E-06,0.01704
,,,-8.92E-06,0.01752
,,,-8.9E-06,0.0168
,,,-8.88E-06,0.0168
,,,-8.86E-06,0.0168
,,,-8.84E-06,0.0168
,,,-8.82E-06,0.01704
,,,-8.8E-06,0.01728
,,,-8.78E-06,0.01632
,,,-8.76E-06,0.01752
,,,-8.74E-06,0.0168
,,,-8.72E-06,0.01656
,,,-8.7E-06,0.01584
,,,-8.68E-06,0.018
,,,-8.66E-06,0.01752
,,,-8.64E-06,0.01608
,,,-8.62E-06,0.01608
,,,-8.6E-06,0.01656
,,,-8.58E-06,0.018
,,,-8.56E-06,0.01752
,,,-8.54E-06,0.01728
,,,-8.52E-06,0.01728
,,,-8.5E-06,0.01608
,,,-8.48E-06,0.01704
,,,-8.46E-06,0.01752
,,,-8.44E-06,0.01728
,,,-8.42E-06,0.01752
,,,-8.4E-06,0.01776
,,,-8.38E-06,0.0168
,,,-8.36E-06,0.01728
,,,-8.34E-06,0.01752
,,,-8.32E-06,0.01656
,,,-8.3E-06,0.01776
,,,-8.28E-06,0.018
,,,-8.26E-06,0.01656
,,,-8.24E-06,0.01776
,,,-8.22E-06,0.01656
,,,-8.2E-06,0.01704
,,,-8.18E-06,0.0168
,,,-8.16E-06,0.01752
,,,-8.14E-06,0.01608
,,,-8.12E-06,0.0156
,,,-8.1E-06,0.01656
,,,-8.08E-06,0.01608
,,,-8.06E-06,0.01752
,,,-8.04E-06,0.018
,,,-8.02E-06,0.01584
,,,-8E-06,0.01776
,,,-7.98E-06,0.018
,,,-7.96E-06,0.01632
,,,-7.94E-06,0.0156
,,,-7.92E-06,0.01752
,,,-7.9E-06,0.01752
,,,-7.88E-06,0.01656
,,,-7.86E-06,0.01656
,,,-7.84E-06,0.01512
,,,-7.82E-06,0.01608
,,,-7.8E-06,0.01752
,,,-7.78E-06,0.01728
,,,-7.76E-06,0.01704
,,,-7.74E-06,0.01728
,,,-7.72E-06,0.01632
,,,-7.7E-06,0.01632
,,,-7.68E-06,0.018
,,,-7.66E-06,0.01752
,,,-7.64E-06,0.01848
,,,-7.62E-06,0.01776
,,,-7.6E-06,0.01656
,,,-7.58E-06,0.0168
,,,-7.56E-06,0.01656
,,,-7.54E-06,0.018
,,,-7.52E-06,0.01728
,,,-7.5E-06,0.01752
,,,-7.48E-06,0.01704
,,,-7.46E-06,0.01728
,,,-7.44E-06,0.01776
,,,-7.42E-06,0.01608
,,,-7.4E-06,0.01704
,,,-7.38E-06,0.0168
,,,-7.36E-06,0.01608
,,,-7.34E-06,0.01728
,,,-7.32E-06,0.01632
,,,-7.3E-06,0.01656
,,,-7.28E-06,0.0168
,,,-7.26E-06,0.01752
,,,-7.24E-06,0.0168
,,,-7.22E-06,0.01656
,,,-7.2E-06,0.01704
,,,-7.18E-06,0.01752
,,,-7.16E-06,0.01848
,,,-7.14E-06,0.01824
,,,-7.12E-06,0.01704
,,,-7.1E-06,0.01728
,,,-7.08E-06,0.01752
,,,-7.06E-06,0.0168
,,,-7.04E-06,0.01704
,,,-7.02E-06,0.01704
,,,-7E-06,0.01728
,,,-6.98E-06,0.0168
,,,-6.96E-06,0.01704
,,,-6.94E-06,0.01752
,,,-6.92E-06,0.01776
,,,-6.9E-06,0.0168
,,,-6.88E-06,0.0168
,,,-6.86E-06,0.0168
,,,-6.84E-06,0.01776
,,,-6.82E-06,0.01632
,,,-6.8E-06,0.0168
,,,-6.78E-06,0.018
,,,-6.76E-06,0.01728
,,,-6.74E-06,0.01752
,,,-6.72E-06,0.01752
,,,-6.7E-06,0.01728
,,,-6.68E-06,0.01536
,,,-6.66E-06,0.01776
,,,-6.64E-06,0.01728
,,,-6.62E-06,0.0168
,,,-6.6E-06,0.01656
,,,-6.58E-06,0.01584
,,,-6.56E-06,0.01608
,,,-6.54E-06,0.01728
,,,-6.52E-06,0.0168
,,,-6.5E-06,0.01632
,,,-6.48E-06,0.01752
,,,-6.46E-06,0.01728
,,,-6.44E-06,0.01656
,,,-6.42E-06,0.0168
,,,-6.4E-06,0.01728
,,,-6.38E-06,0.01752
,,,-6.36E-06,0.01632
,,,-6.34E-06,0.01728
,,,-6.32E-06,0.0168
,,,-6.3E-06,0.01584
,,,-6.28E-06,0.01752
,,,-6.26E-06,0.01608
,,,-6.24E-06,0.01704
,,,-6.22E-06,0.01776
,,,-6.2E-06,0.01632
,,,-6.18E-06,0.01704
,,,-6.16E-06,0.0168
,,,-6.14E-06,0.01752
,,,-6.12E-06,0.0168
,,,-6.1E-06,0.01728
,,,-6.08E-06,0.01752
,,,-6.06E-06,0.01656
,,,-6.04E-06,0.01608
,,,-6.02E-06,0.01728
,,,-6E-06,0.0168
,,,-5.98E-06,0.01584
,,,-5.96E-06,0.01776
,,,-5.94E-06,0.01704
,,,-5.92E-06,0.01656
,,,-5.9E-06,0.0168
,,,-5.88E-06,0.01728
,,,-5.86E-06,0.01704
,,,-5.84E-06,0.0168
,,,-5.82E-06,0.0168
,,,-5.8E-06,0.0168
,,,-5.78E-06,0.01752
,,,-5.76E-06,0.0168
,,,-5.74E-06,0.01752
,,,-5.72E-06,0.01704
,,,-5.7E-06,0.01752
,,,-5.68E-06,0.01728
,,,-5.66E-06,0.01728
,,,-5.64E-06,0.01656
,,,-5.62E-06,0.01632
,,,-5.6E-06,0.01728
,,,-5.58E-06,0.0168
,,,-5.56E-06,0.018
,,,-5.54E-06,0.01704
,,,-5.52E-06,0.01632
,,,-5.5E-06,0.018
,,,-5.48E-06,0.01704
,,,-5.46E-06,0.01752
,,,-5.44E-06,0.0168
,,,-5.42E-06,0.01608
,,,-5.4E-06,0.018
,,,-5.38E-06,0.01632
,,,-5.36E-06,0.01752
,,,-5.34E-06,0.01656
,,,-5.32E-06,0.01656
,,,-5.3E-06,0.0168
,,,-5.28E-06,0.01584
,,,-5.26E-06,0.0168
,,,-5.24E-06,0.01728
,,,-5.22E-06,0.01704
,,,-5.2E-06,0.018
,,,-5.18E-06,0.01776
,,,-5.16E-06,0.018
,,,-5.14E-06,0.01656
,,,-5.12E-06,0.01632
,,,-5.1E-06,0.01728
,,,-5.08E-06,0.01656
,,,-5.06E-06,0.01632
,,,-5.04E-06,0.01752
,,,-5.02E-06,0.01752
,,,-5E-06,0.0168
,,,-4.98E-06,0.01728
,,,-4.96E-06,0.01776
,,,-4.94E-06,0.01728
,,,-4.92E-06,0.0168
,,,-4.9E-06,0.01656
,,,-4.88E-06,0.01704
,,,-4.86E-06,0.018
,,,-4.84E-06,0.01704
,,,-4.82E-06,0.01704
,,,-4.8E-06,0.0168
,,,-4.78E-06,0.01656
,,,-4.76E-06,0.01632
,,,-4.74E-06,0.01776
,,,-4.72E-06,0.01704
,,,-4.7E-06,0.01752
,,,-4.68E-06,0.01728
,,,-4.66E-06,0.01704
,,,-4.64E-06,0.01608
,,,-4.62E-06,0.01728
,,,-4.6E-06,0.01632
,,,-4.58E-06,0.01728
,,,-4.56E-06,0.01704
,,,-4.54E-06,0.01752
,,,-4.52E-06,0.0168
,,,-4.5E-06,0.01656
,,,-4.48E-06,0.01536
,,,-4.46E-06,0.0168
,,,-4.44E-06,0.01752
,,,-4.42E-06,0.01728
,,,-4.4E-06,0.01728
,,,-4.38E-06,0.0168
,,,-4.36E-06,0.01632
,,,-4.34E-06,0.01704
,,,-4.32E-06,0.01728
,,,-4.3E-06,0.01656
,,,-4.28E-06,0.0168
,,,-4.26E-06,0.0168
,,,-4.24E-06,0.01632
,,,-4.22E-06,0.01704
,,,-4.2E-06,0.01752
,,,-4.18E-06,0.01656
,,,-4.16E-06,0.01728
,,,-4.14E-06,0.01656
,,,-4.12E-06,0.01728
,,,-4.1E-06,0.01632
,,,-4.08E-06,0.01704
,,,-4.06E-06,0.01776
,,,-4.04E-06,0.01656
,,,-4.02E-06,0.01656
,,,-4E-06,0.0168
,,,-3.98E-06,0.01656
,,,-3.96E-06,0.01728
,,,-3.94E-06,0.01824
,,,-3.92E-06,0.0168
,,,-3.9E-06,0.018
,,,-3.88E-06,0.0168
,,,-3.86E-06,0.01776
,,,-3.84E-06,0.01584
,,,-3.82E-06,0.01656
,,,-3.8E-06,0.01776
,,,-3.78E-06,0.0168
,,,-3.76E-06,0.01728
,,,-3.74E-06,0.01824
,,,-3.72E-06,0.01704
,,,-3.7E-06,0.01704
,,,-3.68E-06,0.01704
,,,-3.66E-06,0.018
,,,-3.64E-06,0.01656
,,,-3.62E-06,0.01632
,,,-3.6E-06,0.01656
,,,-3.58E-06,0.01728
,,,-3.56E-06,0.01704
,,,-3.54E-06,0.01632
,,,-3.52E-06,0.01632
,,,-3.5E-06,0.01632
,,,-3.48E-06,0.01752
,,,-3.46E-06,0.01704
,,,-3.44E-06,0.01776
,,,-3.42E-06,0.01752
,,,-3.4E-06,0.01776
,,,-3.38E-06,0.01776
,,,-3.36E-06,0.0168
,,,-3.34E-06,0.01704
,,,-3.32E-06,0.01656
,,,-3.3E-06,0.01632
,,,-3.28E-06,0.0168
,,,-3.26E-06,0.01656
,,,-3.24E-06,0.01704
,,,-3.22E-06,0.018
,,,-3.2E-06,0.0168
,,,-3.18E-06,0.01752
,,,-3.16E-06,0.01728
,,,-3.14E-06,0.01632
,,,-3.12E-06,0.01824
,,,-3.1E-06,0.01752
,,,-3.08E-06,0.01656
,,,-3.06E-06,0.01728
,,,-3.04E-06,0.0168
,,,-3.02E-06,0.01656
,,,-3E-06,0.01704
,,,-2.98E-06,0.01776
,,,-2.96E-06,0.01656
,,,-2.94E-06,0.01728
,,,-2.92E-06,0.01536
,,,-2.9E-06,0.0168
,,,-2.88E-06,0.01584
,,,-2.86E-06,0.01728
,,,-2.84E-06,0.0168
,,,-2.82E-06,0.01656
,,,-2.8E-06,0.01632
,,,-2.78E-06,0.01704
,,,-2.76E-06,0.01704
,,,-2.74E-06,0.01632
,,,-2.72E-06,0.01728
,,,-2.7E-06,0.01584
,,,-2.68E-06,0.01632
,,,-2.66E-06,0.01656
,,,-2.64E-06,0.01656
,,,-2.62E-06,0.01728
,,,-2.6E-06,0.01632
,,,-2.58E-06,0.01632
,,,-2.56E-06,0.01728
,,,-2.54E-06,0.01728
,,,-2.52E-06,0.01608
,,,-2.5E-06,0.01632
,,,-2.48E-06,0.01728
,,,-2.46E-06,0.01656
,,,-2.44E-06,0.01656
,,,-2.42E-06,0.0168
,,,-2.4E-06,0.01728
,,,-2.38E-06,0.01752
,,,-2.36E-06,0.01776
,,,-2.34E-06,0.01608
,,,-2.32E-06,0.01752
,,,-2.3E-06,0.01824
,,,-2.28E-06,0.01776
,,,-2.26E-06,0.01656
,,,-2.24E-06,0.0168
,,,-2.22E-06,0.01704
,,,-2.2E-06,0.0168
,,,-2.18E-06,0.01704
,,,-2.16E-06,0.01632
,,,-2.14E-06,0.01704
,,,-2.12E-06,0.01656
,,,-2.1E-06,0.0168
,,,-2.08E-06,0.01632
,,,-2.06E-06,0.01656
,,,-2.04E-06,0.01656
,,,-2.02E-06,0.0168
,,,-2E-06,0.01656
,,,-1.98E-06,0.0168
,,,-1.96E-06,0.0168
,,,-1.94E-06,0.01656
,,,-1.92E-06,0.01728
,,,-1.9E-06,0.01656
,,,-1.88E-06,0.0168
,,,-1.86E-06,0.0168
,,,-1.84E-06,0.01608
,,,-1.82E-06,0.01824
,,,-1.8E-06,0.01752
,,,-1.78E-06,0.01752
,,,-1.76E-06,0.0168
,,,-1.74E-06,0.01728
,,,-1.72E-06,0.01704
,,,-1.7E-06,0.01776
,,,-1.68E-06,0.01704
,,,-1.66E-06,0.01656
,,,-1.64E-06,0.01752
,,,-1.62E-06,0.01752
,,,-1.6E-06,0.01704
,,,-1.58E-06,0.0168
,,,-1.56E-06,0.01752
,,,-1.54E-06,0.0168
,,,-1.52E-06,0.01704
,,,-1.5E-06,0.01656
,,,-1.48E-06,0.01704
,,,-1.46E-06,0.01824
,,,-1.44E-06,0.01656
,,,-1.42E-06,0.01704
,,,-1.4E-06,0.01608
,,,-1.38E-06,0.01728
,,,-1.36E-06,0.01752
,,,-1.34E-06,0.01632
,,,-1.32E-06,0.01776
,,,-1.3E-06,0.0168
,,,-1.28E-06,0.0168
,,,-1.26E-06,0.01656
,,,-1.24E-06,0.0168
,,,-1.22E-06,0.01704
,,,-1.2E-06,0.01752
,,,-1.18E-06,0.01752
,,,-1.16E-06,0.01776
,,,-1.14E-06,0.01776
,,,-1.12E-06,0.01752
,,,-1.1E-06,0.01728
,,,-1.08E-06,0.01728
,,,-1.06E-06,0.01728
,,,-1.04E-06,0.0168
,,,-1.02E-06,0.01632
,,,-1E-06,0.01536
,,,-9.8E-07,0.0168
,,,-9.6E-07,0.018
,,,-9.4E-07,0.01704
,,,-9.2E-07,0.01632
,,,-9E-07,0.01704
,,,-8.8E-07,0.01752
,,,-8.6E-07,0.01728
,,,-8.4E-07,0.01704
,,,-8.2E-07,0.01752
,,,-8E-07,0.01728
,,,-7.8E-07,0.01704
,,,-7.6E-07,0.01776
,,,-7.4E-07,0.0168
,,,-7.2E-07,0.0168
,,,-7E-07,0.01656
,,,-6.8E-07,0.01608
,,,-6.6E-07,0.01728
,,,-6.4E-07,0.01776
,,,-6.2E-07,0.01656
,,,-6E-07,0.0168
,,,-5.8E-07,0.01584
,,,-5.6E-07,0.01704
,,,-5.4E-07,0.018
,,,-5.2E-07,0.01656
,,,-5E-07,0.01704
,,,-4.8E-07,0.01608
,,,-4.6E-07,0.01608
,,,-4.4E-07,0.01704
,,,-4.2E-07,0.01632
,,,-4E-07,0.01656
,,,-3.8E-07,0.01656
,,,-3.6E-07,0.01584
,,,-3.4E-07,0.01704
,,,-3.2E-07,0.01752
,,,-3E-07,0.01656
,,,-2.8E-07,0.01752
,,,-2.6E-07,0.01728
,,,-2.4E-07,0.01752
,,,-2.2E-07,0.01656
,,,-2E-07,0.01728
,,,-1.8E-07,0.0168
,,,-1.6E-07,0.01824
,,,-1.4E-07,0.01656
,,,-1.2E-07,0.0168
,,,-1E-07,0.01704
,,,-8E-08,0.0168
,,,-6E-08,0.01704
,,,-4E-08,0.01632
,,,-2E-08,0.01704
,,,0,0.01704
,,,2E-08,0.01752
,,,4E-08,0.01776
,,,6E-08,0.0168
,,,8E-08,0.0168
,,,1E-07,0.0168
,,,1.2E-07,0.0168
,,,1.4E-07,0.01656
,,,1.6E-07,0.01848
,,,1.8E-07,0.01728
,,,2E-07,0.01704
,,,2.2E-07,0.01776
,,,2.4E-07,0.01848
,,,2.6E-07,0.01656
,,,2.8E-07,0.01656
,,,3E-07,0.01704
,,,3.2E-07,0.01704
,,,3.4E-07,0.0168
,,,3.6E-07,0.01632
,,,3.8E-07,0.01704
,,,4E-07,0.01656
,,,4.2E-07,0.01632
,,,4.4E-07,0.01728
,,,4.6E-07,0.0156
,,,4.8E-07,0.01704
,,,5E-07,0.01608
,,,5.2E-07,0.01704
,,,5.4E-07,0.01728
,,,5.6E-07,0.01632
,,,5.8E-07,0.0168
,,,6E-07,0.01728
,,,6.2E-07,0.0168
,,,6.4E-07,0.018
,,,6.6E-07,0.01776
,,,6.8E-07,0.01704
,,,7E-07,0.01728
,,,7.2E-07,0.01704
,,,7.4E-07,0.01656
,,,7.6E-07,0.0168
,,,7.8E-07,0.01656
,,,8E-07,0.01656
,,,8.2E-07,0.01776
,,,8.4E-07,0.01608
,,,8.6E-07,0.0168
,,,8.8E-07,0.01704
,,,9E-07,0.01704
,,,9.2E-07,0.0168
,,,9.4E-07,0.01728
,,,9.6E-07,0.0168
,,,9.8E-07,0.0156
,,,1E-06,0.01776
,,,1.02E-06,0.0168
,,,1.04E-06,0.01728
,,,1.06E-06,0.01632
,,,1.08E-06,0.01656
,,,1.1E-06,0.0168
,,,1.12E-06,0.01776
,,,1.14E-06,0.018
,,,1.16E-06,0.01728
,,,1.18E-06,0.0168
,,,1.2E-06,0.01656
,,,1.22E-06,0.0168
,,,1.24E-06,0.01608
,,,1.26E-06,0.0168
,,,1.28E-06,0.01752
,,,1.3E-06,0.01656
,,,1.32E-06,0.01776
,,,1.34E-06,0.01704
,,,1.36E-06,0.01728
,,,1.38E-06,0.01656
,,,1.4E-06,0.01728
,,,1.42E-06,0.0168
,,,1.44E-06,0.01752
,,,1.46E-06,0.01824
,,,1.48E-06,0.0168
,,,1.5E-06,0.018
,,,1.52E-06,0.01752
,,,1.54E-06,0.01632
,,,1.56E-06,0.01752
,,,1.58E-06,0.01704
,,,1.6E-06,0.018
,,,1.62E-06,0.01656
,,,1.64E-06,0.01752
,,,1.66E-06,0.0156
,,,1.68E-06,0.01656
,,,1.7E-06,0.01752
,,,1.72E-06,0.01656
,,,1.74E-06,0.01704
,,,1.76E-06,0.01608
,,,1.78E-06,0.0168
,,,1.8E-06,0.01704
,,,1.82E-06,0.01608
,,,1.84E-06,0.0168
,,,1.86E-06,0.01608
,,,1.88E-06,0.01728
,,,1.9E-06,0.0168
,,,1.92E-06,0.01728
,,,1.94E-06,0.01752
,,,1.96E-06,0.01704
,,,1.98E-06,0.01704
,,,2E-06,0.01728
,,,2.02E-06,0.01656
,,,2.04E-06,0.01752
,,,2.06E-06,0.01632
,,,2.08E-06,0.01848
,,,2.1E-06,0.0168
,,,2.12E-06,0.0168
,,,2.14E-06,0.01728
,,,2.16E-06,0.01752
,,,2.18E-06,0.01776
,,,2.2E-06,0.01704
,,,2.22E-06,0.01632
,,,2.24E-06,0.01752
,,,2.26E-06,0.01728
,,,2.28E-06,0.01656
,,,2.3E-06,0.01656
,,,2.32E-06,0.01728
,,,2.34E-06,0.0168
,,,2.36E-06,0.01632
,,,2.38E-06,0.01848
,,,2.4E-06,0.0168
,,,2.42E-06,0.01752
,,,2.44E-06,0.01632
,,,2.46E-06,0.01728
,,,2.48E-06,0.01704
,,,2.5E-06,0.018
,,,2.52E-06,0.0168
,,,2.54E-06,0.0168
,,,2.56E-06,0.01704
,,,2.58E-06,0.01704
,,,2.6E-06,0.01656
,,,2.62E-06,0.01752
,,,2.64E-06,0.0168
,,,2.66E-06,0.01704
,,,2.68E-06,0.01728
,,,2.7E-06,0.01752
,,,2.72E-06,0.018
,,,2.74E-06,0.01728
,,,2.76E-06,0.01656
,,,2.78E-06,0.01704
,,,2.8E-06,0.018
,,,2.82E-06,0.01728
,,,2.84E-06,0.0156
,,,2.86E-06,0.01728
,,,2.88E-06,0.01728
,,,2.9E-06,0.01752
,,,2.92E-06,0.0168
,,,2.94E-06,0.018
,,,2.96E-06,0.0156
,,,2.98E-06,0.01728
,,,3E-06,0.01656
,,,3.02E-06,0.01632
,,,3.04E-06,0.01656
,,,3.06E-06,0.01776
,,,3.08E-06,0.01656
,,,3.1E-06,0.01776
,,,3.12E-06,0.0168
,,,3.14E-06,0.01704
,,,3.16E-06,0.01752
,,,3.18E-06,0.01656
,,,3.2E-06,0.01776
,,,3.22E-06,0.01656
,,,3.24E-06,0.01656
,,,3.26E-06,0.0168
,,,3.28E-06,0.01632
,,,3.3E-06,0.01776
,,,3.32E-06,0.0168
,,,3.34E-06,0.0168
,,,3.36E-06,0.01728
,,,3.38E-06,0.01632
,,,3.4E-06,0.01656
,,,3.42E-06,0.01656
,,,3.44E-06,0.01632
,,,3.46E-06,0.01728
,,,3.48E-06,0.01704
,,,3.5E-06,0.01752
,,,3.52E-06,0.01728
,,,3.54E-06,0.01752
,,,3.56E-06,0.01584
,,,3.58E-06,0.01728
,,,3.6E-06,0.01704
,,,3.62E-06,0.0168
,,,3.64E-06,0.01704
,,,3.66E-06,0.01752
,,,3.68E-06,0.01656
,,,3.7E-06,0.01632
,,,3.72E-06,0.01824
,,,3.74E-06,0.01728
,,,3.76E-06,0.0168
,,,3.78E-06,0.01608
,,,3.8E-06,0.01704
,,,3.82E-06,0.01776
,,,3.84E-06,0.01728
,,,3.86E-06,0.01752
,,,3.88E-06,0.01656
,,,3.9E-06,0.01776
,,,3.92E-06,0.01704
,,,3.94E-06,0.01656
,,,3.96E-06,0.01608
,,,3.98E-06,0.01632
,,,4E-06,0.01632
,,,4.02E-06,0.0168
,,,4.04E-06,0.01632
,,,4.06E-06,0.018
,,,4.08E-06,0.01704
,,,4.1E-06,0.0168
,,,4.12E-06,0.01704
,,,4.14E-06,0.01704
,,,4.16E-06,0.01656
,,,4.18E-06,0.0168
,,,4.2E-06,0.01656
,,,4.22E-06,0.01656
,,,4.24E-06,0.01656
,,,4.26E-06,0.01704
,,,4.28E-06,0.01656
,,,4.3E-06,0.01656
,,,4.32E-06,0.0168
,,,4.34E-06,0.01728
,,,4.36E-06,0.0168
,,,4.38E-06,0.01704
,,,4.4E-06,0.01752
,,,4.42E-06,0.01728
,,,4.44E-06,0.01656
,,,4.46E-06,0.01728
,,,4.48E-06,0.01752
,,,4.5E-06,0.01632
,,,4.52E-06,0.01656
,,,4.54E-06,0.01656
,,,4.56E-06,0.01656
,,,4.58E-06,0.0168
,,,4.6E-06,0.01704
,,,4.62E-06,0.018
,,,4.64E-06,0.01728
,,,4.66E-06,0.01656
,,,4.68E-06,0.01752
,,,4.7E-06,0.01704
,,,4.72E-06,0.01656
,,,4.74E-06,0.01752
,,,4.76E-06,0.0168
,,,4.78E-06,0.01704
,,,4.8E-06,0.01704
,,,4.82E-06,0.01728
,,,4.84E-06,0.0168
,,,4.86E-06,0.01704
,,,4.88E-06,0.01656
,,,4.9E-06,0.01728
,,,4.92E-06,0.01704
,,,4.94E-06,0.01608
,,,4.96E-06,0.01656
,,,4.98E-06,0.01728
,,,5E-06,0.01776
,,,5.02E-06,0.01776
,,,5.04E-06,0.01608
,,,5.06E-06,0.0168
,,,5.08E-06,0.0168
,,,5.1E-06,0.01608
,,,5.12E-06,0.0168
,,,5.14E-06,0.0168
,,,5.16E-06,0.01656
,,,5.18E-06,0.01752
,,,5.2E-06,0.01728
,,,5.22E-06,0.01656
,,,5.24E-06,0.01728
,,,5.26E-06,0.01728
,,,5.28E-06,0.01656
,,,5.3E-06,0.01584
,,,5.32E-06,0.018
,,,5.34E-06,0.0168
,,,5.36E-06,0.01776
,,,5.38E-06,0.01848
,,,5.4E-06,0.01656
,,,5.42E-06,0.018
,,,5.44E-06,0.01608
,,,5.46E-06,0.018
,,,5.48E-06,0.01584
,,,5.5E-06,0.018
,,,5.52E-06,0.01752
,,,5.54E-06,0.01656
,,,5.56E-06,0.0168
,,,5.58E-06,0.01704
,,,5.6E-06,0.0168
,,,5.62E-06,0.01656
,,,5.64E-06,0.018
,,,5.66E-06,0.01632
,,,5.68E-06,0.01632
,,,5.7E-06,0.01752
,,,5.72E-06,0.01848
,,,5.74E-06,0.01656
,,,5.76E-06,0.01752
,,,5.78E-06,0.01752
,,,5.8E-06,0.01776
,,,5.82E-06,0.0168
,,,5.84E-06,0.01584
,,,5.86E-06,0.018
,,,5.88E-06,0.01824
,,,5.9E-06,0.01608
,,,5.92E-06,0.0168
,,,5.94E-06,0.01704
,,,5.96E-06,0.01656
,,,5.98E-06,0.01656
,,,6E-06,0.01728
,,,6.02E-06,0.01728
,,,6.04E-06,0.018
,,,6.06E-06,0.01584
,,,6.08E-06,0.01728
,,,6.1E-06,0.01728
,,,6.12E-06,0.01752
,,,6.14E-06,0.0168
,,,6.16E-06,0.01776
,,,6.18E-06,0.01824
,,,6.2E-06,0.01752
,,,6.22E-06,0.01776
,,,6.24E-06,0.01656
,,,6.26E-06,0.01704
,,,6.28E-06,0.0168
,,,6.3E-06,0.01656
,,,6.32E-06,0.01704
,,,6.34E-06,0.0168
,,,6.36E-06,0.01752
,,,6.38E-06,0.01704
,,,6.4E-06,0.01728
,,,6.42E-06,0.01848
,,,6.44E-06,0.01728
,,,6.46E-06,0.0168
,,,6.48E-06,0.01656
,,,6.5E-06,0.01752
,,,6.52E-06,0.01608
,,,6.54E-06,0.018
,,,6.56E-06,0.01656
,,,6.58E-06,0.01608
,,,6.6E-06,0.01728
,,,6.62E-06,0.01536
,,,6.64E-06,0.01752
,,,6.66E-06,0.0168
,,,6.68E-06,0.01632
,,,6.7E-06,0.01776
,,,6.72E-06,0.01776
,,,6.74E-06,0.01704
,,,6.76E-06,0.01704
,,,6.78E-06,0.01704
,,,6.8E-06,0.01752
,,,6.82E-06,0.01704
,,,6.84E-06,0.0168
,,,6.86E-06,0.01584
,,,6.88E-06,0.01728
,,,6.9E-06,0.01656
,,,6.92E-06,0.01728
,,,6.94E-06,0.01632
,,,6.96E-06,0.01584
,,,6.98E-06,0.0168
,,,7E-06,0.01752
,,,7.02E-06,0.01752
,,,7.04E-06,0.0168
,,,7.06E-06,0.01752
,,,7.08E-06,0.0168
,,,7.1E-06,0.01656
,,,7.12E-06,0.01704
,,,7.14E-06,0.01608
,,,7.16E-06,0.01776
,,,7.18E-06,0.01752
,,,7.2E-06,0.0168
,,,7.22E-06,0.01632
,,,7.24E-06,0.01656
,,,7.26E-06,0.01776
,,,7.28E-06,0.018
,,,7.3E-06,0.01656
,,,7.32E-06,0.01728
,,,7.34E-06,0.0156
,,,7.36E-06,0.01704
,,,7.38E-06,0.01728
,,,7.4E-06,0.01632
,,,7.42E-06,0.01752
,,,7.44E-06,0.01728
,,,7.46E-06,0.01608
,,,7.48E-06,0.01752
,,,7.5E-06,0.01752
,,,7.52E-06,0.01632
,,,7.54E-06,0.01656
,,,7.56E-06,0.01608
,,,7.58E-06,0.0168
,,,7.6E-06,0.01656
,,,7.62E-06,0.01728
,,,7.64E-06,0.0168
,,,7.66E-06,0.01728
,,,7.68E-06,0.01632
,,,7.7E-06,0.0168
,,,7.72E-06,0.0168
,,,7.74E-06,0.01728
,,,7.76E-06,0.01776
,,,7.78E-06,0.01728
,,,7.8E-06,0.018
,,,7.82E-06,0.01728
,,,7.84E-06,0.01728
,,,7.86E-06,0.01776
,,,7.88E-06,0.01728
,,,7.9E-06,0.01752
,,,7.92E-06,0.01656
,,,7.94E-06,0.01752
,,,7.96E-06,0.01704
,,,7.98E-06,0.01752
,,,8E-06,0.0168
,,,8.02E-06,0.01584
,,,8.04E-06,0.01752
,,,8.06E-06,0.01872
,,,8.08E-06,0.01656
,,,8.1E-06,0.01704
,,,8.12E-06,0.01656
,,,8.14E-06,0.01776
,,,8.16E-06,0.01608
,,,8.18E-06,0.0168
,,,8.2E-06,0.0168
,,,8.22E-06,0.0156
,,,8.24E-06,0.01728
,,,8.26E-06,0.01776
,,,8.28E-06,0.01752
,,,8.3E-06,0.018
,,,8.32E-06,0.01656
,,,8.34E-06,0.01608
,,,8.36E-06,0.01728
,,,8.38E-06,0.01728
,,,8.4E-06,0.01704
,,,8.42E-06,0.01608
,,,8.44E-06,0.01728
,,,8.46E-06,0.01728
,,,8.48E-06,0.01704
,,,8.5E-06,0.0168
,,,8.52E-06,0.01656
,,,8.54E-06,0.0168
,,,8.56E-06,0.01752
,,,8.58E-06,0.0168
,,,8.6E-06,0.01632
,,,8.62E-06,0.01656
,,,8.64E-06,0.01656
,,,8.66E-06,0.01632
,,,8.68E-06,0.01656
,,,8.7E-06,0.01656
,,,8.72E-06,0.01824
,,,8.74E-06,0.01728
,,,8.76E-06,0.018
,,,8.78E-06,0.01704
,,,8.8E-06,0.0168
,,,8.82E-06,0.01632
,,,8.84E-06,0.0156
,,,8.86E-06,0.01752
,,,8.88E-06,0.0168
,,,8.9E-06,0.0168
,,,8.92E-06,0.01704
,,,8.94E-06,0.01728
,,,8.96E-06,0.0168
,,,8.98E-06,0.01752
,,,9E-06,0.01704
,,,9.02E-06,0.0168
,,,9.04E-06,0.01704
,,,9.06E-06,0.01704
,,,9.08E-06,0.0168
,,,9.1E-06,0.0168
,,,9.12E-06,0.01776
,,,9.14E-06,0.0168
,,,9.16E-06,0.01656
,,,9.18E-06,0.01656
,,,9.2E-06,0.01632
,,,9.22E-06,0.01656
,,,9.24E-06,0.01752
,,,9.26E-06,0.01752
,,,9.28E-06,0.01704
,,,9.3E-06,0.01752
,,,9.32E-06,0.01608
,,,9.34E-06,0.0168
,,,9.36E-06,0.01704
,,,9.38E-06,0.0168
,,,9.4E-06,0.01704
,,,9.42E-06,0.01704
,,,9.44E-06,0.01728
,,,9.46E-06,0.01608
,,,9.48E-06,0.01728
,,,9.5E-06,0.01704
,,,9.52E-06,0.0168
,,,9.54E-06,0.01632
,,,9.56E-06,0.0168
,,,9.58E-06,0.01656
,,,9.6E-06,0.01704
,,,9.62E-06,0.01848
,,,9.64E-06,0.01872
,,,9.66E-06,0.0168
,,,9.68E-06,0.018
,,,9.7E-06,0.01728
,,,9.72E-06,0.01728
,,,9.74E-06,0.01776
,,,9.76E-06,0.01752
,,,9.78E-06,0.01752
,,,9.8E-06,0.01704
,,,9.82E-06,0.01752
,,,9.84E-06,0.01752
,,,9.86E-06,0.01632
,,,9.88E-06,0.01704
,,,9.9E-06,0.0168
,,,9.92E-06,0.018
,,,9.94E-06,0.0168
,,,9.96E-06,0.01656
,,,9.98E-06,0.01752
