data/raw/lightera_POL_calibration_traces/Final_POL_Test/SOP013_Ch1.csv

"Record Length",1000,"Points",-1E-05,0.00384
"Sample Interval",2E-08,s,-9.98E-06,0.0036
"Trigger Point",500,"Samples",-9.96E-06,0.0036
"Trigger Time",1.28257124037873E-08,s,-9.94E-06,0.00408
"",,,-9.92E-06,0.00264
"Horizontal Offset",-1E-05,s,-9.9E-06,0.00288
,,,-9.88E-06,0.0036
,,,-9.86E-06,0.0036
,,,-9.84E-06,0.00384
,,,-9.82E-06,0.0036
,,,-9.8E-06,0.00408
,,,-9.78E-06,0.00288
,,,-9.76E-06,0.00384
,,,-9.74E-06,0.00288
,,,-9.72E-06,0.00432
,,,-9.7E-06,0.00384
,,,-9.68E-06,0.0036
,,,-9.66E-06,0.00336
,,,-9.64E-06,0.00336
,,,-9.62E-06,0.00384
,,,-9.6E-06,0.00312
,,,-9.58E-06,0.00384
,,,-9.56E-06,0.00504
,,,-9.54E-06,0.00456
,,,-9.52E-06,0.00384
,,,-9.5E-06,0.00264
,,,-9.48E-06,0.00312
,,,-9.46E-06,0.00336
,,,-9.44E-06,0.00384
,,,-9.42E-06,0.00384
,,,-9.4E-06,0.0024
,,,-9.38E-06,0.00384
,,,-9.36E-06,0.00288
,,,-9.34E-06,0.00312
,,,-9.32E-06,0.00456
,,,-9.3E-06,0.00408
,,,-9.28E-06,0.00312
,,,-9.26E-06,0.0036
,,,-9.24E-06,0.00312
,,,-9.22E-06,0.00312
,,,-9.2E-06,0.00336
,,,-9.18E-06,0.00408
,,,-9.16E-06,0.00288
,,,-9.14E-06,0.00408
,,,-9.12E-06,0.00384
,,,-9.1E-06,0.00312
,,,-9.08E-06,0.00408
,,,-9.06E-06,0.0036
,,,-9.04E-06,0.00384
,,,-9.02E-06,0.0036
,,,-9E-06,0.00384
,,,-8.98E-06,0.00432
,,,-8.96E-06,0.00408
,,,-8.94E-06,0.0036
,,,-8.92E-06,0.00312
,,,-8.9E-06,0.0048
,,,-8.88E-06,0.00408
,,,-8.86E-06,0.0036
,,,-8.84E-06,0.00384
,,,-8.82E-06,0.00288
,,,-8.8E-06,0.0036
,,,-8.78E-06,0.0048
,,,-8.76E-06,0.0036
,,,-8.74E-06,0.00288
,,,-8.72E-06,0.00384
,,,-8.7E-06,0.00264
,,,-8.68E-06,0.00288
,,,-8.66E-06,0.00432
,,,-8.64E-06,0.00336
,,,-8.62E-06,0.00336
,,,-8.6E-06,0.00408
,,,-8.58E-06,0.0036
,,,-8.56E-06,0.00288
,,,-8.54E-06,0.00384
,,,-8.52E-06,0.0036
,,,-8.5E-06,0.00336
,,,-8.48E-06,0.00312
,,,-8.46E-06,0.0036
,,,-8.44E-06,0.00432
,,,-8.42E-06,0.0036
,,,-8.4E-06,0.00384
,,,-8.38E-06,0.00456
,,,-8.36E-06,0.0036
,,,-8.34E-06,0.00384
,,,-8.32E-06,0.00456
,,,-8.3E-06,0.00312
,,,-8.28E-06,0.00432
,,,-8.26E-06,0.00288
,,,-8.24E-06,0.00288
,,,-8.22E-06,0.00312
,,,-8.2E-06,0.00432
,,,-8.18E-06,0.00384
,,,-8.16E-06,0.00408
,,,-8.14E-06,0.00408
,,,-8.12E-06,0.00456
,,,-8.1E-06,0.00336
,,,-8.08E-06,0.0036
,,,-8.06E-06,0.00336
,,,-8.04E-06,0.00456
,,,-8.02E-06,0.00288
,,,-8E-06,0.00264
,,,-7.98E-06,0.00312
,,,-7.96E-06,0.00408
,,,-7.94E-06,0.0036
,,,-7.92E-06,0.0036
,,,-7.9E-06,0.00408
,,,-7.88E-06,0.00192
,,,-7.86E-06,0.0036
,,,-7.84E-06,0.0036
,,,-7.82E-06,0.00408
,,,-7.8E-06,0.00384
,,,-7.78E-06,0.00432
,,,-7.76E-06,0.0036
,,,-7.74E-06,0.00432
,,,-7.72E-06,0.00336
,,,-7.7E-06,0.0036
,,,-7.68E-06,0.00456
,,,-7.66E-06,0.00336
,,,-7.64E-06,0.00264
,,,-7.62E-06,0.00456
,,,-7.6E-06,0.00312
,,,-7.58E-06,0.00408
,,,-7.56E-06,0.00432
,,,-7.54E-06,0.00336
,,,-7.52E-06,0.0036
,,,-7.5E-06,0.00336
,,,-7.48E-06,0.00288
,,,-7.46E-06,0.00288
,,,-7.44E-06,0.00312
,,,-7.42E-06,0.00312
,,,-7.4E-06,0.00432
,,,-7.38E-06,0.0036
,,,-7.36E-06,0.00336
,,,-7.34E-06,0.00384
,,,-7.32E-06,0.0036
,,,-7.3E-06,0.00336
,,,-7.28E-06,0.00384
,,,-7.26E-06,0.0036
,,,-7.24E-06,0.00408
,,,-7.22E-06,0.00288
,,,-7.2E-06,0.00384
,,,-7.18E-06,0.00384
,,,-7.16E-06,0.00528
,,,-7.14E-06,0.00384
,,,-7.12E-06,0.00408
,,,-7.1E-06,0.00312
,,,-7.08E-06,0.00288
,,,-7.06E-06,0.00432
,,,-7.04E-06,0.0036
,,,-7.02E-06,0.00408
,,,-7E-06,0.0036
,,,-6.98E-06,0.00384
,,,-6.96E-06,0.00384
,,,-6.94E-06,0.00336
,,,-6.92E-06,0.0036
,,,-6.9E-06,0.00336
,,,-6.88E-06,0.00432
,,,-6.86E-06,0.00408
,,,-6.84E-06,0.0036
,,,-6.82E-06,0.0036
,,,-6.8E-06,0.00384
,,,-6.78E-06,0.00408
,,,-6.76E-06,0.00216
,,,-6.74E-06,0.00288
,,,-6.72E-06,0.00432
,,,-6.7E-06,0.00288
,,,-6.68E-06,0.00384
,,,-6.66E-06,0.00432
,,,-6.64E-06,0.0036
,,,-6.62E-06,0.00384
,,,-6.6E-06,0.00264
,,,-6.58E-06,0.00408
,,,-6.56E-06,0.00432
,,,-6.54E-06,0.00384
,,,-6.52E-06,0.00384
,,,-6.5E-06,0.00336
,,,-6.48E-06,0.0036
,,,-6.46E-06,0.00264
,,,-6.44E-06,0.00384
,,,-6.42E-06,0.0036
,,,-6.4E-06,0.00384
,,,-6.38E-06,0.0036
,,,-6.36E-06,0.00336
,,,-6.34E-06,0.00312
,,,-6.32E-06,0.00384
,,,-6.3E-06,0.00288
,,,-6.28E-06,0.00384
,,,-6.26E-06,0.00432
,,,-6.24E-06,0.00384
,,,-6.22E-06,0.00336
,,,-6.2E-06,0.00312
,,,-6.18E-06,0.00408
,,,-6.16E-06,0.00216
,,,-6.14E-06,0.00408
,,,-6.12E-06,0.00288
,,,-6.1E-06,0.00336
,,,-6.08E-06,0.0036
,,,-6.06E-06,0.00312
,,,-6.04E-06,0.0036
,,,-6.02E-06,0.00264
,,,-6E-06,0.0036
,,,-5.98E-06,0.00408
,,,-5.96E-06,0.00408
,,,-5.94E-06,0.00408
,,,-5.92E-06,0.00384
,,,-5.9E-06,0.00408
,,,-5.88E-06,0.00336
,,,-5.86E-06,0.00312
,,,-5.84E-06,0.0036
,,,-5.82E-06,0.0036
,,,-5.8E-06,0.00456
,,,-5.78E-06,0.00288
,,,-5.76E-06,0.00384
,,,-5.74E-06,0.00384
,,,-5.72E-06,0.00336
,,,-5.7E-06,0.00312
,,,-5.68E-06,0.00288
,,,-5.66E-06,0.00336
,,,-5.64E-06,0.00336
,,,-5.62E-06,0.0036
,,,-5.6E-06,0.00456
,,,-5.58E-06,0.00384
,,,-5.56E-06,0.00384
,,,-5.54E-06,0.00384
,,,-5.52E-06,0.00264
,,,-5.5E-06,0.00288
,,,-5.48E-06,0.00336
,,,-5.46E-06,0.0048
,,,-5.44E-06,0.0036
,,,-5.42E-06,0.0036
,,,-5.4E-06,0.00288
,,,-5.38E-06,0.00384
,,,-5.36E-06,0.0036
,,,-5.34E-06,0.00408
,,,-5.32E-06,0.00456
,,,-5.3E-06,0.00336
,,,-5.28E-06,0.00288
,,,-5.26E-06,0.0036
,,,-5.24E-06,0.00384
,,,-5.22E-06,0.00336
,,,-5.2E-06,0.0036
,,,-5.18E-06,0.00264
,,,-5.16E-06,0.00456
,,,-5.14E-06,0.00408
,,,-5.12E-06,0.00384
,,,-5.1E-06,0.00336
,,,-5.08E-06,0.00336
,,,-5.06E-06,0.00312
,,,-5.04E-06,0.00384
,,,-5.02E-06,0.00384
,,,-5E-06,0.0036
,,,-4.98E-06,0.00432
,,,-4.96E-06,0.00312
,,,-4.94E-06,0.00384
,,,-4.92E-06,0.00216
,,,-4.9E-06,0.00432
,,,-4.88E-06,0.00384
,,,-4.86E-06,0.00336
,,,-4.84E-06,0.00336
,,,-4.82E-06,0.00384
,,,-4.8E-06,0.0036
,,,-4.78E-06,0.00312
,,,-4.76E-06,0.00336
,,,-4.74E-06,0.00408
,,,-4.72E-06,0.00384
,,,-4.7E-06,0.00288
,,,-4.68E-06,0.00264
,,,-4.66E-06,0.00408
,,,-4.64E-06,0.0024
,,,-4.62E-06,0.0036
,,,-4.6E-06,0.00504
,,,-4.58E-06,0.00336
,,,-4.56E-06,0.00408
,,,-4.54E-06,0.0036
,,,-4.52E-06,0.00312
,,,-4.5E-06,0.00336
,,,-4.48E-06,0.0036
,,,-4.46E-06,0.00384
,,,-4.44E-06,0.00336
,,,-4.42E-06,0.00336
,,,-4.4E-06,0.00408
,,,-4.38E-06,0.00432
,,,-4.36E-06,0.00216
,,,-4.34E-06,0.00408
,,,-4.32E-06,0.00408
,,,-4.3E-06,0.00408
,,,-4.28E-06,0.00288
,,,-4.26E-06,0.00432
,,,-4.24E-06,0.00312
,,,-4.22E-06,0.00288
,,,-4.2E-06,0.00288
,,,-4.18E-06,0.00408
,,,-4.16E-06,0.00288
,,,-4.14E-06,0.00336
,,,-4.12E-06,0.0036
,,,-4.1E-06,0.00216
,,,-4.08E-06,0.0036
,,,-4.06E-06,0.00456
,,,-4.04E-06,0.00336
,,,-4.02E-06,0.0048
,,,-4E-06,0.00384
,,,-3.98E-06,0.00336
,,,-3.96E-06,0.00312
,,,-3.94E-06,0.00336
,,,-3.92E-06,0.00336
,,,-3.9E-06,0.00288
,,,-3.88E-06,0.00336
,,,-3.86E-06,0.00336
,,,-3.84E-06,0.00408
,,,-3.82E-06,0.0036
,,,-3.8E-06,0.00432
,,,-3.78E-06,0.00408
,,,-3.76E-06,0.00408
,,,-3.74E-06,0.00456
,,,-3.72E-06,0.0036
,,,-3.7E-06,0.00432
,,,-3.68E-06,0.00312
,,,-3.66E-06,0.00408
,,,-3.64E-06,0.00408
,,,-3.62E-06,0.00288
,,,-3.6E-06,0.00456
,,,-3.58E-06,0.00288
,,,-3.56E-06,0.0036
,,,-3.54E-06,0.00456
,,,-3.52E-06,0.0036
,,,-3.5E-06,0.00456
,,,-3.48E-06,0.0048
,,,-3.46E-06,0.00384
,,,-3.44E-06,0.00408
,,,-3.42E-06,0.00384
,,,-3.4E-06,0.00408
,,,-3.38E-06,0.00336
,,,-3.36E-06,0.00408
,,,-3.34E-06,0.00336
,,,-3.32E-06,0.00336
,,,-3.3E-06,0.00408
,,,-3.28E-06,0.00192
,,,-3.26E-06,0.00312
,,,-3.24E-06,0.00264
,,,-3.22E-06,0.00408
,,,-3.2E-06,0.00384
,,,-3.18E-06,0.00288
,,,-3.16E-06,0.00336
,,,-3.14E-06,0.00336
,,,-3.12E-06,0.00408
,,,-3.1E-06,0.0036
,,,-3.08E-06,0.00384
,,,-3.06E-06,0.00432
,,,-3.04E-06,0.00456
,,,-3.02E-06,0.00456
,,,-3E-06,0.00384
,,,-2.98E-06,0.00408
,,,-2.96E-06,0.00384
,,,-2.94E-06,0.0036
,,,-2.92E-06,0.00288
,,,-2.9E-06,0.0036
,,,-2.88E-06,0.00264
,,,-2.86E-06,0.00336
,,,-2.84E-06,0.00336
,,,-2.82E-06,0.00312
,,,-2.8E-06,0.0036
,,,-2.78E-06,0.0036
,,,-2.76E-06,0.00384
,,,-2.74E-06,0.00264
,,,-2.72E-06,0.00336
,,,-2.7E-06,0.00408
,,,-2.68E-06,0.00432
,,,-2.66E-06,0.0036
,,,-2.64E-06,0.0036
,,,-2.62E-06,0.0036
,,,-2.6E-06,0.00288
,,,-2.58E-06,0.00336
,,,-2.56E-06,0.00336
,,,-2.54E-06,0.0048
,,,-2.52E-06,0.0036
,,,-2.5E-06,0.00504
,,,-2.48E-06,0.00384
,,,-2.46E-06,0.00384
,,,-2.44E-06,0.00408
,,,-2.42E-06,0.00336
,,,-2.4E-06,0.00264
,,,-2.38E-06,0.00336
,,,-2.36E-06,0.00384
,,,-2.34E-06,0.00384
,,,-2.32E-06,0.00336
,,,-2.3E-06,0.00312
,,,-2.28E-06,0.0036
,,,-2.26E-06,0.00432
,,,-2.24E-06,0.00264
,,,-2.22E-06,0.00408
,,,-2.2E-06,0.00432
,,,-2.18E-06,0.00336
,,,-2.16E-06,0.00312
,,,-2.14E-06,0.00384
,,,-2.12E-06,0.00264
,,,-2.1E-06,0.00384
,,,-2.08E-06,0.00456
,,,-2.06E-06,0.00288
,,,-2.04E-06,0.00408
,,,-2.02E-06,0.00336
,,,-2E-06,0.00384
,,,-1.98E-06,0.00408
,,,-1.96E-06,0.0036
,,,-1.94E-06,0.00432
,,,-1.92E-06,0.00336
,,,-1.9E-06,0.00312
,,,-1.88E-06,0.00384
,,,-1.86E-06,0.0048
,,,-1.84E-06,0.0036
,,,-1.82E-06,0.00336
,,,-1.8E-06,0.00432
,,,-1.78E-06,0.00312
,,,-1.76E-06,0.00384
,,,-1.74E-06,0.00336
,,,-1.72E-06,0.00384
,,,-1.7E-06,0.00336
,,,-1.68E-06,0.00384
,,,-1.66E-06,0.00384
,,,-1.64E-06,0.00408
,,,-1.62E-06,0.0036
,,,-1.6E-06,0.00504
,,,-1.58E-06,0.00408
,,,-1.56E-06,0.0036
,,,-1.54E-06,0.00312
,,,-1.52E-06,0.00312
,,,-1.5E-06,0.00288
,,,-1.48E-06,0.0036
,,,-1.46E-06,0.00288
,,,-1.44E-06,0.0048
,,,-1.42E-06,0.00384
,,,-1.4E-06,0.0048
,,,-1.38E-06,0.00432
,,,-1.36E-06,0.00384
,,,-1.34E-06,0.00384
,,,-1.32E-06,0.00432
,,,-1.3E-06,0.00288
,,,-1.28E-06,0.00408
,,,-1.26E-06,0.00264
,,,-1.24E-06,0.0036
,,,-1.22E-06,0.00312
,,,-1.2E-06,0.00456
,,,-1.18E-06,0.00408
,,,-1.16E-06,0.00384
,,,-1.14E-06,0.00312
,,,-1.12E-06,0.00312
,,,-1.1E-06,0.00384
,,,-1.08E-06,0.00384
,,,-1.06E-06,0.00408
,,,-1.04E-06,0.00528
,,,-1.02E-06,0.00408
,,,-1E-06,0.0036
,,,-9.8E-07,0.00336
,,,-9.6E-07,0.00408
,,,-9.4E-07,0.00288
,,,-9.2E-07,0.00408
,,,-9E-07,0.0036
,,,-8.8E-07,0.00576
,,,-8.6E-07,0.00432
,,,-8.4E-07,0.00432
,,,-8.2E-07,0.0036
,,,-8E-07,0.00384
,,,-7.8E-07,0.00384
,,,-7.6E-07,0.00384
,,,-7.4E-07,0.00336
,,,-7.2E-07,0.00408
,,,-7E-07,0.00264
,,,-6.8E-07,0.0036
,,,-6.6E-07,0.00264
,,,-6.4E-07,0.00528
,,,-6.2E-07,0.00384
,,,-6E-07,0.00408
,,,-5.8E-07,0.0036
,,,-5.6E-07,0.00336
,,,-5.4E-07,0.00264
,,,-5.2E-07,0.00384
,,,-5E-07,0.0036
,,,-4.8E-07,0.00432
,,,-4.6E-07,0.00264
,,,-4.4E-07,0.00288
,,,-4.2E-07,0.00432
,,,-4E-07,0.0036
,,,-3.8E-07,0.00456
,,,-3.6E-07,0.00408
,,,-3.4E-07,0.00288
,,,-3.2E-07,0.00264
,,,-3E-07,0.00408
,,,-2.8E-07,0.00432
,,,-2.6E-07,0.00456
,,,-2.4E-07,0.00288
,,,-2.2E-07,0.00336
,,,-2E-07,0.0036
,,,-1.8E-07,0.00096
,,,-1.6E-07,0.00504
,,,-1.4E-07,0.00264
,,,-1.2E-07,0.00384
,,,-1E-07,0.00384
,,,-8E-08,0.00384
,,,-6E-08,0.00336
,,,-4E-08,0.00336
,,,-2E-08,0.00432
,,,0,0.00432
,,,2E-08,0.00264
,,,4E-08,0.00456
,,,6E-08,0.0036
,,,8E-08,0.00384
,,,1E-07,0.0036
,,,1.2E-07,0.00408
,,,1.4E-07,0.00432
,,,1.6E-07,0.00336
,,,1.8E-07,0.00408
,,,2E-07,0.00384
,,,2.2E-07,0.00288
,,,2.4E-07,0.00336
,,,2.6E-07,0.0048
,,,2.8E-07,0.00384
,,,3E-07,0.00408
,,,3.2E-07,0.00408
,,,3.4E-07,0.00264
,,,3.6E-07,0.00384
,,,3.8E-07,0.00408
,,,4E-07,0.00384
,,,4.2E-07,0.00408
,,,4.4E-07,0.00312
,,,4.6E-07,0.0036
,,,4.8E-07,0.00456
,,,5E-07,0.00336
,,,5.2E-07,0.00408
,,,5.4E-07,0.00384
,,,5.6E-07,0.00312
,,,5.8E-07,0.00288
,,,6E-07,0.00432
,,,6.2E-07,0.00336
,,,6.4E-07,0.00432
,,,6.6E-07,0.00264
,,,6.8E-07,0.00408
,,,7E-07,0.00288
,,,7.2E-07,0.00312
,,,7.4E-07,0.00288
,,,7.6E-07,0.00408
,,,7.8E-07,0.00336
,,,8E-07,0.0048
,,,8.2E-07,0.0036
,,,8.4E-07,0.00288
,,,8.6E-07,0.00456
,,,8.8E-07,0.0036
,,,9E-07,0.0036
,,,9.2E-07,0.0048
,,,9.4E-07,0.00288
,,,9.6E-07,0.00384
,,,9.8E-07,0.00336
,,,1E-06,0.00312
,,,1.02E-06,0.0036
,,,1.04E-06,0.00312
,,,1.06E-06,0.0024
,,,1.08E-06,0.00384
,,,1.1E-06,0.00384
,,,1.12E-06,0.00384
,,,1.14E-06,0.00384
,,,1.16E-06,0.00456
,,,1.18E-06,0.00384
,,,1.2E-06,0.00456
,,,1.22E-06,0.00432
,,,1.24E-06,0.00384
,,,1.26E-06,0.0036
,,,1.28E-06,0.00384
,,,1.3E-06,0.0036
,,,1.32E-06,0.00312
,,,1.34E-06,0.00408
,,,1.36E-06,0.00408
,,,1.38E-06,0.00384
,,,1.4E-06,0.00336
,,,1.42E-06,0.0036
,,,1.44E-06,0.00336
,,,1.46E-06,0.00288
,,,1.48E-06,0.00264
,,,1.5E-06,0.0036
,,,1.52E-06,0.00456
,,,1.54E-06,0.00216
,,,1.56E-06,0.00336
,,,1.58E-06,0.00384
,,,1.6E-06,0.00336
,,,1.62E-06,0.00336
,,,1.64E-06,0.0036
,,,1.66E-06,0.00336
,,,1.68E-06,0.00288
,,,1.7E-06,0.00336
,,,1.72E-06,0.0048
,,,1.74E-06,0.00288
,,,1.76E-06,0.0036
,,,1.78E-06,0.00336
,,,1.8E-06,0.00456
,,,1.82E-06,0.0036
,,,1.84E-06,0.00504
,,,1.86E-06,0.00336
,,,1.88E-06,0.00336
,,,1.9E-06,0.00432
,,,1.92E-06,0.00312
,,,1.94E-06,0.00336
,,,1.96E-06,0.00456
,,,1.98E-06,0.00408
,,,2E-06,0.0036
,,,2.02E-06,0.00336
,,,2.04E-06,0.00384
,,,2.06E-06,0.00312
,,,2.08E-06,0.00432
,,,2.1E-06,0.00288
,,,2.12E-06,0.00384
,,,2.14E-06,0.00384
,,,2.16E-06,0.00264
,,,2.18E-06,0.0036
,,,2.2E-06,0.00264
,,,2.22E-06,0.00432
,,,2.24E-06,0.00336
,,,2.26E-06,0.00288
,,,2.28E-06,0.00288
,,,2.3E-06,0.0024
,,,2.32E-06,0.00336
,,,2.34E-06,0.00336
,,,2.36E-06,0.00504
,,,2.38E-06,0.00408
,,,2.4E-06,0.00288
,,,2.42E-06,0.00408
,,,2.44E-06,0.0036
,,,2.46E-06,0.00336
,,,2.48E-06,0.00336
,,,2.5E-06,0.0036
,,,2.52E-06,0.00408
,,,2.54E-06,0.00408
,,,2.56E-06,0.00456
,,,2.58E-06,0.00312
,,,2.6E-06,0.00408
,,,2.62E-06,0.00432
,,,2.64E-06,0.00408
,,,2.66E-06,0.0036
,,,2.68E-06,0.00288
,,,2.7E-06,0.00264
,,,2.72E-06,0.00336
,,,2.74E-06,0.00288
,,,2.76E-06,0.00432
,,,2.78E-06,0.0036
,,,2.8E-06,0.00432
,,,2.82E-06,0.00312
,,,2.84E-06,0.00384
,,,2.86E-06,0.00432
,,,2.88E-06,0.00264
,,,2.9E-06,0.00408
,,,2.92E-06,0.00384
,,,2.94E-06,0.00504
,,,2.96E-06,0.0036
,,,2.98E-06,0.00288
,,,3E-06,0.00528
,,,3.02E-06,0.0036
,,,3.04E-06,0.00336
,,,3.06E-06,0.00384
,,,3.08E-06,0.00216
,,,3.1E-06,0.00456
,,,3.12E-06,0.00408
,,,3.14E-06,0.00408
,,,3.16E-06,0.00264
,,,3.18E-06,0.00312
,,,3.2E-06,0.00264
,,,3.22E-06,0.00288
,,,3.24E-06,0.00312
,,,3.26E-06,0.00408
,,,3.28E-06,0.00264
,,,3.3E-06,0.00432
,,,3.32E-06,0.00384
,,,3.34E-06,0.00288
,,,3.36E-06,0.00432
,,,3.38E-06,0.00384
,,,3.4E-06,0.00336
,,,3.42E-06,0.00336
,,,3.44E-06,0.0048
,,,3.46E-06,0.00336
,,,3.48E-06,0.00384
,,,3.5E-06,0.00408
,,,3.52E-06,0.00312
,,,3.54E-06,0.0036
,,,3.56E-06,0.00432
,,,3.58E-06,0.00408
,,,3.6E-06,0.00288
,,,3.62E-06,0.0048
,,,3.64E-06,0.00312
,,,3.66E-06,0.00456
,,,3.68E-06,0.00384
,,,3.7E-06,0.00384
,,,3.72E-06,0.00264
,,,3.74E-06,0.00288
,,,3.76E-06,0.00336
,,,3.78E-06,0.00288
,,,3.8E-06,0.00384
,,,3.82E-06,0.00384
,,,3.84E-06,0.00432
,,,3.86E-06,0.0036
,,,3.88E-06,0.00456
,,,3.9E-06,0.00312
,,,3.92E-06,0.00336
,,,3.94E-06,0.00336
,,,3.96E-06,0.00408
,,,3.98E-06,0.00384
,,,4E-06,0.00264
,,,4.02E-06,0.00288
,,,4.04E-06,0.00384
,,,4.06E-06,0.0048
,,,4.08E-06,0.00456
,,,4.1E-06,0.00432
,,,4.12E-06,0.00408
,,,4.14E-06,0.00312
,,,4.16E-06,0.00288
,,,4.18E-06,0.0036
,,,4.2E-06,0.00336
,,,4.22E-06,0.00336
,,,4.24E-06,0.00408
,,,4.26E-06,0.00408
,,,4.28E-06,0.0036
,,,4.3E-06,0.00432
,,,4.32E-06,0.00432
,,,4.34E-06,0.00336
,,,4.36E-06,0.00432
,,,4.38E-06,0.0036
,,,4.4E-06,0.00384
,,,4.42E-06,0.00384
,,,4.44E-06,0.00288
,,,4.46E-06,0.00336
,,,4.48E-06,0.00336
,,,4.5E-06,0.0036
,,,4.52E-06,0.0036
,,,4.54E-06,0.00336
,,,4.56E-06,0.00408
,,,4.58E-06,0.00288
,,,4.6E-06,0.00408
,,,4.62E-06,0.00384
,,,4.64E-06,0.00408
,,,4.66E-06,0.00336
,,,4.68E-06,0.00408
,,,4.7E-06,0.00336
,,,4.72E-06,0.00408
,,,4.74E-06,0.0036
,,,4.76E-06,0.00384
,,,4.78E-06,0.00336
,,,4.8E-06,0.00384
,,,4.82E-06,0.0036
,,,4.84E-06,0.00408
,,,4.86E-06,0.00432
,,,4.88E-06,0.0036
,,,4.9E-06,0.00312
,,,4.92E-06,0.0024
,,,4.94E-06,0.00408
,,,4.96E-06,0.00312
,,,4.98E-06,0.00456
,,,5E-06,0.0036
,,,5.02E-06,0.0036
,,,5.04E-06,0.0036
,,,5.06E-06,0.00408
,,,5.08E-06,0.00408
,,,5.1E-06,0.00432
,,,5.12E-06,0.00408
,,,5.14E-06,0.00336
,,,5.16E-06,0.0036
,,,5.18E-06,0.0036
,,,5.2E-06,0.00336
,,,5.22E-06,0.00408
,,,5.24E-06,0.00384
,,,5.26E-06,0.0024
,,,5.28E-06,0.00312
,,,5.3E-06,0.00336
,,,5.32E-06,0.00456
,,,5.34E-06,0.00408
,,,5.36E-06,0.00432
,,,5.38E-06,0.0036
,,,5.4E-06,0.00288
,,,5.42E-06,0.00408
,,,5.44E-06,0.00456
,,,5.46E-06,0.00408
,,,5.48E-06,0.00336
,,,5.5E-06,0.00264
,,,5.52E-06,0.00384
,,,5.54E-06,0.00288
,,,5.56E-06,0.00432
,,,5.58E-06,0.00288
,,,5.6E-06,0.00432
,,,5.62E-06,0.0036
,,,5.64E-06,0.00408
,,,5.66E-06,0.00264
,,,5.68E-06,0.00288
,,,5.7E-06,0.00432
,,,5.72E-06,0.00336
,,,5.74E-06,0.00384
,,,5.76E-06,0.00432
,,,5.78E-06,0.00288
,,,5.8E-06,0.00384
,,,5.82E-06,0.00384
,,,5.84E-06,0.0048
,,,5.86E-06,0.00456
,,,5.88E-06,0.0036
,,,5.9E-06,0.0036
,,,5.92E-06,0.00384
,,,5.94E-06,0.00264
,,,5.96E-06,0.00456
,,,5.98E-06,0.00384
,,,6E-06,0.00312
,,,6.02E-06,0.0024
,,,6.04E-06,0.00432
,,,6.06E-06,0.00336
,,,6.08E-06,0.00408
,,,6.1E-06,0.00216
,,,6.12E-06,0.00432
,,,6.14E-06,0.00384
,,,6.16E-06,0.00432
,,,6.18E-06,0.00288
,,,6.2E-06,0.00336
,,,6.22E-06,0.00312
,,,6.24E-06,0.00384
,,,6.26E-06,0.0036
,,,6.28E-06,0.00408
,,,6.3E-06,0.00288
,,,6.32E-06,0.00312
,,,6.34E-06,0.00408
,,,6.36E-06,0.0036
,,,6.38E-06,0.00312
,,,6.4E-06,0.00456
,,,6.42E-06,0.00432
,,,6.44E-06,0.00384
,,,6.46E-06,0.00408
,,,6.48E-06,0.00408
,,,6.5E-06,0.00384
,,,6.52E-06,0.00432
,,,6.54E-06,0.0036
,,,6.56E-06,0.00264
,,,6.58E-06,0.0036
,,,6.6E-06,0.00432
,,,6.62E-06,0.00432
,,,6.64E-06,0.0036
,,,6.66E-06,0.00336
,,,6.68E-06,0.00336
,,,6.7E-06,0.00264
,,,6.72E-06,0.00312
,,,6.74E-06,0.00408
,,,6.76E-06,0.00288
,,,6.78E-06,0.00288
,,,6.8E-06,0.00384
,,,6.82E-06,0.00336
,,,6.84E-06,0.00312
,,,6.86E-06,0.0036
,,,6.88E-06,0.00384
,,,6.9E-06,0.00408
,,,6.92E-06,0.00408
,,,6.94E-06,0.00432
,,,6.96E-06,0.00384
,,,6.98E-06,0.0036
,,,7E-06,0.0036
,,,7.02E-06,0.0036
,,,7.04E-06,0.00504
,,,7.06E-06,0.00288
,,,7.08E-06,0.00264
,,,7.1E-06,0.0036
,,,7.12E-06,0.0036
,,,7.14E-06,0.00384
,,,7.16E-06,0.00336
,,,7.18E-06,0.00384
,,,7.2E-06,0.00432
,,,7.22E-06,0.00384
,,,7.24E-06,0.00432
,,,7.26E-06,0.00408
,,,7.28E-06,0.00264
,,,7.3E-06,0.00288
,,,7.32E-06,0.00456
,,,7.34E-06,0.00312
,,,7.36E-06,0.00336
,,,7.38E-06,0.00384
,,,7.4E-06,0.00288
,,,7.42E-06,0.00264
,,,7.44E-06,0.00384
,,,7.46E-06,0.00384
,,,7.48E-06,0.0036
,,,7.5E-06,0.00288
,,,7.52E-06,0.00312
,,,7.54E-06,0.00384
,,,7.56E-06,0.00432
,,,7.58E-06,0.00384
,,,7.6E-06,0.00504
,,,7.62E-06,0.00288
,,,7.64E-06,0.00336
,,,7.66E-06,0.00288
,,,7.68E-06,0.00264
,,,7.7E-06,0.00384
,,,7.72E-06,0.00216
,,,7.74E-06,0.0036
,,,7.76E-06,0.00336
,,,7.78E-06,0.00264
,,,7.8E-06,0.00408
,,,7.82E-06,0.00336
,,,7.84E-06,0.00384
,,,7.86E-06,0.00408
,,,7.88E-06,0.00336
,,,7.9E-06,0.00336
,,,7.92E-06,0.0036
,,,7.94E-06,0.00456
,,,7.96E-06,0.00384
,,,7.98E-06,0.00312
,,,8E-06,0.00288
,,,8.02E-06,0.00288
,,,8.04E-06,0.0048
,,,8.06E-06,0.00288
,,,8.08E-06,0.00264
,,,8.1E-06,0.00336
,,,8.12E-06,0.00312
,,,8.14E-06,0.0048
,,,8.16E-06,0.00432
,,,8.18E-06,0.00264
,,,8.2E-06,0.0036
,,,8.22E-06,0.00432
,,,8.24E-06,0.00264
,,,8.26E-06,0.00456
,,,8.28E-06,0.00432
,,,8.3E-06,0.00384
,,,8.32E-06,0.00264
,,,8.34E-06,0.00384
,,,8.36E-06,0.00312
,,,8.38E-06,0.00432
,,,8.4E-06,0.00288
,,,8.42E-06,0.00384
,,,8.44E-06,0.00384
,,,8.46E-06,0.00384
,,,8.48E-06,0.00384
,,,8.5E-06,0.00288
,,,8.52E-06,0.00384
,,,8.54E-06,0.00336
,,,8.56E-06,0.00288
,,,8.58E-06,0.00264
,,,8.6E-06,0.00408
,,,8.62E-06,0.00384
,,,8.64E-06,0.0048
,,,8.66E-06,0.00336
,,,8.68E-06,0.00264
,,,8.7E-06,0.0036
,,,8.72E-06,0.00336
,,,8.74E-06,0.00408
,,,8.76E-06,0.00504
,,,8.78E-06,0.00336
,,,8.8E-06,0.00336
,,,8.82E-06,0.0036
,,,8.84E-06,0.0036
,,,8.86E-06,0.00384
,,,8.88E-06,0.00312
,,,8.9E-06,0.00312
,,,8.92E-06,0.00288
,,,8.94E-06,0.00408
,,,8.96E-06,0.00288
,,,8.98E-06,0.00336
,,,9E-06,0.00384
,,,9.02E-06,0.00336
,,,9.04E-06,0.00408
,,,9.06E-06,0.00336
,,,9.08E-06,0.00288
,,,9.1E-06,0.00312
,,,9.12E-06,0.00312
,,,9.14E-06,0.00408
,,,9.16E-06,0.0036
,,,9.18E-06,0.00336
,,,9.2E-06,0.00408
,,,9.22E-06,0.00432
,,,9.24E-06,0.0036
,,,9.26E-06,0.00312
,,,9.28E-06,0.0036
,,,9.3E-06,0.00312
,,,9.32E-06,0.00408
,,,9.34E-06,0.00432
,,,9.36E-06,0.0036
,,,9.38E-06,0.0036
,,,9.4E-06,0.00216
,,,9.42E-06,0.00384
,,,9.44E-06,0.00384
,,,9.46E-06,0.00264
,,,9.48E-06,0.00384
,,,9.5E-06,0.00264
,,,9.52E-06,0.00384
,,,9.54E-06,0.00264
,,,9.56E-06,0.00336
,,,9.58E-06,0.00288
,,,9.6E-06,0.00408
,,,9.62E-06,0.00312
,,,9.64E-06,0.00336
,,,9.66E-06,0.0048
,,,9.68E-06,0.00384
,,,9.7E-06,0.0048
,,,9.72E-06,0.00336
,,,9.74E-06,0.00432
,,,9.76E-06,0.0036
,,,9.78E-06,0.00408
,,,9.8E-06,0.00384
,,,9.82E-06,0.00384
,,,9.84E-06,0.00288
,,,9.86E-06,0.00336
,,,9.88E-06,0.00384
