data/raw/lightera_POL_calibration_traces/Final_POL_Test/SOP002_Ch4.csv

"Record Length",1000,"Points",-1E-05,0.0204
"Sample Interval",2E-08,s,-9.98E-06,0.02112
"Trigger Point",500,"Samples",-9.96E-06,0.02016
"Trigger Time",1.25984624037847E-08,s,-9.94E-06,0.01992
"",,,-9.92E-06,0.02064
"Horizontal Offset",-1E-05,s,-9.9E-06,0.02184
,,,-9.88E-06,0.02064
,,,-9.86E-06,0.02136
,,,-9.84E-06,0.02016
,,,-9.82E-06,0.02112
,,,-9.8E-06,0.02064
,,,-9.78E-06,0.0192
,,,-9.76E-06,0.02016
,,,-9.74E-06,0.0204
,,,-9.72E-06,0.02064
,,,-9.7E-06,0.02016
,,,-9.68E-06,0.0192
,,,-9.66E-06,0.0204
,,,-9.64E-06,0.01992
,,,-9.62E-06,0.01944
,,,-9.6E-06,0.0204
,,,-9.58E-06,0.0204
,,,-9.56E-06,0.01968
,,,-9.54E-06,0.01992
,,,-9.52E-06,0.01968
,,,-9.5E-06,0.02016
,,,-9.48E-06,0.0204
,,,-9.46E-06,0.02064
,,,-9.44E-06,0.0204
,,,-9.42E-06,0.0204
,,,-9.4E-06,0.02136
,,,-9.38E-06,0.0204
,,,-9.36E-06,0.0204
,,,-9.34E-06,0.02088
,,,-9.32E-06,0.0192
,,,-9.3E-06,0.01992
,,,-9.28E-06,0.02088
,,,-9.26E-06,0.0204
,,,-9.24E-06,0.01968
,,,-9.22E-06,0.02016
,,,-9.2E-06,0.0204
,,,-9.18E-06,0.02112
,,,-9.16E-06,0.02088
,,,-9.14E-06,0.02064
,,,-9.12E-06,0.02136
,,,-9.1E-06,0.02112
,,,-9.08E-06,0.0204
,,,-9.06E-06,0.02112
,,,-9.04E-06,0.02064
,,,-9.02E-06,0.01968
,,,-9E-06,0.02088
,,,-8.98E-06,0.02016
,,,-8.96E-06,0.02064
,,,-8.94E-06,0.0204
,,,-8.92E-06,0.02088
,,,-8.9E-06,0.02016
,,,-8.88E-06,0.01944
,,,-8.86E-06,0.0204
,,,-8.84E-06,0.02088
,,,-8.82E-06,0.01944
,,,-8.8E-06,0.0204
,,,-8.78E-06,0.02064
,,,-8.76E-06,0.0204
,,,-8.74E-06,0.02064
,,,-8.72E-06,0.01992
,,,-8.7E-06,0.0204
,,,-8.68E-06,0.02064
,,,-8.66E-06,0.01968
,,,-8.64E-06,0.0204
,,,-8.62E-06,0.0204
,,,-8.6E-06,0.0204
,,,-8.58E-06,0.01968
,,,-8.56E-06,0.01968
,,,-8.54E-06,0.02064
,,,-8.52E-06,0.01968
,,,-8.5E-06,0.02016
,,,-8.48E-06,0.02016
,,,-8.46E-06,0.0204
,,,-8.44E-06,0.02088
,,,-8.42E-06,0.02088
,,,-8.4E-06,0.0204
,,,-8.38E-06,0.02016
,,,-8.36E-06,0.01992
,,,-8.34E-06,0.02016
,,,-8.32E-06,0.01968
,,,-8.3E-06,0.02112
,,,-8.28E-06,0.0204
,,,-8.26E-06,0.0204
,,,-8.24E-06,0.02016
,,,-8.22E-06,0.02064
,,,-8.2E-06,0.01944
,,,-8.18E-06,0.0204
,,,-8.16E-06,0.02136
,,,-8.14E-06,0.0204
,,,-8.12E-06,0.01968
,,,-8.1E-06,0.0204
,,,-8.08E-06,0.02064
,,,-8.06E-06,0.02112
,,,-8.04E-06,0.01872
,,,-8.02E-06,0.02016
,,,-8E-06,0.02064
,,,-7.98E-06,0.0216
,,,-7.96E-06,0.02112
,,,-7.94E-06,0.01968
,,,-7.92E-06,0.02064
,,,-7.9E-06,0.0204
,,,-7.88E-06,0.0204
,,,-7.86E-06,0.02016
,,,-7.84E-06,0.01992
,,,-7.82E-06,0.02016
,,,-7.8E-06,0.0204
,,,-7.78E-06,0.01968
,,,-7.76E-06,0.02064
,,,-7.74E-06,0.0204
,,,-7.72E-06,0.02136
,,,-7.7E-06,0.0204
,,,-7.68E-06,0.01944
,,,-7.66E-06,0.01968
,,,-7.64E-06,0.01968
,,,-7.62E-06,0.01968
,,,-7.6E-06,0.02112
,,,-7.58E-06,0.02112
,,,-7.56E-06,0.02112
,,,-7.54E-06,0.0192
,,,-7.52E-06,0.01992
,,,-7.5E-06,0.02088
,,,-7.48E-06,0.02208
,,,-7.46E-06,0.0192
,,,-7.44E-06,0.02016
,,,-7.42E-06,0.02088
,,,-7.4E-06,0.02064
,,,-7.38E-06,0.01992
,,,-7.36E-06,0.02064
,,,-7.34E-06,0.01944
,,,-7.32E-06,0.01992
,,,-7.3E-06,0.01992
,,,-7.28E-06,0.02016
,,,-7.26E-06,0.01968
,,,-7.24E-06,0.01968
,,,-7.22E-06,0.01968
,,,-7.2E-06,0.02016
,,,-7.18E-06,0.01968
,,,-7.16E-06,0.0216
,,,-7.14E-06,0.0204
,,,-7.12E-06,0.0204
,,,-7.1E-06,0.0204
,,,-7.08E-06,0.0204
,,,-7.06E-06,0.02016
,,,-7.04E-06,0.02016
,,,-7.02E-06,0.02136
,,,-7E-06,0.02112
,,,-6.98E-06,0.01968
,,,-6.96E-06,0.01968
,,,-6.94E-06,0.0204
,,,-6.92E-06,0.02016
,,,-6.9E-06,0.0192
,,,-6.88E-06,0.02064
,,,-6.86E-06,0.02016
,,,-6.84E-06,0.01944
,,,-6.82E-06,0.02088
,,,-6.8E-06,0.0204
,,,-6.78E-06,0.02016
,,,-6.76E-06,0.01944
,,,-6.74E-06,0.02016
,,,-6.72E-06,0.02088
,,,-6.7E-06,0.01992
,,,-6.68E-06,0.02064
,,,-6.66E-06,0.01896
,,,-6.64E-06,0.0204
,,,-6.62E-06,0.01992
,,,-6.6E-06,0.01968
,,,-6.58E-06,0.0204
,,,-6.56E-06,0.02064
,,,-6.54E-06,0.02016
,,,-6.52E-06,0.0204
,,,-6.5E-06,0.01968
,,,-6.48E-06,0.0204
,,,-6.46E-06,0.02016
,,,-6.44E-06,0.02064
,,,-6.42E-06,0.01896
,,,-6.4E-06,0.02184
,,,-6.38E-06,0.01992
,,,-6.36E-06,0.02064
,,,-6.34E-06,0.01992
,,,-6.32E-06,0.02064
,,,-6.3E-06,0.02088
,,,-6.28E-06,0.0204
,,,-6.26E-06,0.02088
,,,-6.24E-06,0.01968
,,,-6.22E-06,0.02088
,,,-6.2E-06,0.02088
,,,-6.18E-06,0.01992
,,,-6.16E-06,0.0204
,,,-6.14E-06,0.02016
,,,-6.12E-06,0.02016
,,,-6.1E-06,0.02088
,,,-6.08E-06,0.02016
,,,-6.06E-06,0.0204
,,,-6.04E-06,0.01992
,,,-6.02E-06,0.01992
,,,-6E-06,0.02064
,,,-5.98E-06,0.01968
,,,-5.96E-06,0.02064
,,,-5.94E-06,0.0204
,,,-5.92E-06,0.0204
,,,-5.9E-06,0.02112
,,,-5.88E-06,0.0204
,,,-5.86E-06,0.0204
,,,-5.84E-06,0.02088
,,,-5.82E-06,0.02016
,,,-5.8E-06,0.02088
,,,-5.78E-06,0.02064
,,,-5.76E-06,0.0204
,,,-5.74E-06,0.02136
,,,-5.72E-06,0.0204
,,,-5.7E-06,0.02064
,,,-5.68E-06,0.02112
,,,-5.66E-06,0.02016
,,,-5.64E-06,0.02088
,,,-5.62E-06,0.0204
,,,-5.6E-06,0.0204
,,,-5.58E-06,0.02136
,,,-5.56E-06,0.02184
,,,-5.54E-06,0.0192
,,,-5.52E-06,0.02016
,,,-5.5E-06,0.0216
,,,-5.48E-06,0.02016
,,,-5.46E-06,0.02064
,,,-5.44E-06,0.02064
,,,-5.42E-06,0.01992
,,,-5.4E-06,0.02016
,,,-5.38E-06,0.02064
,,,-5.36E-06,0.01944
,,,-5.34E-06,0.01992
,,,-5.32E-06,0.01992
,,,-5.3E-06,0.02016
,,,-5.28E-06,0.01992
,,,-5.26E-06,0.02112
,,,-5.24E-06,0.02136
,,,-5.22E-06,0.0204
,,,-5.2E-06,0.02136
,,,-5.18E-06,0.02064
,,,-5.16E-06,0.01944
,,,-5.14E-06,0.0204
,,,-5.12E-06,0.01992
,,,-5.1E-06,0.01992
,,,-5.08E-06,0.02088
,,,-5.06E-06,0.0204
,,,-5.04E-06,0.02064
,,,-5.02E-06,0.0216
,,,-5E-06,0.0216
,,,-4.98E-06,0.02136
,,,-4.96E-06,0.02064
,,,-4.94E-06,0.02088
,,,-4.92E-06,0.0192
,,,-4.9E-06,0.0204
,,,-4.88E-06,0.01872
,,,-4.86E-06,0.02016
,,,-4.84E-06,0.02088
,,,-4.82E-06,0.02112
,,,-4.8E-06,0.0204
,,,-4.78E-06,0.01944
,,,-4.76E-06,0.02016
,,,-4.74E-06,0.02088
,,,-4.72E-06,0.02064
,,,-4.7E-06,0.01968
,,,-4.68E-06,0.0204
,,,-4.66E-06,0.0204
,,,-4.64E-06,0.02136
,,,-4.62E-06,0.02016
,,,-4.6E-06,0.01968
,,,-4.58E-06,0.02136
,,,-4.56E-06,0.02064
,,,-4.54E-06,0.0204
,,,-4.52E-06,0.02016
,,,-4.5E-06,0.02136
,,,-4.48E-06,0.02016
,,,-4.46E-06,0.02088
,,,-4.44E-06,0.0204
,,,-4.42E-06,0.02184
,,,-4.4E-06,0.02064
,,,-4.38E-06,0.0204
,,,-4.36E-06,0.01968
,,,-4.34E-06,0.02016
,,,-4.32E-06,0.02064
,,,-4.3E-06,0.01968
,,,-4.28E-06,0.02112
,,,-4.26E-06,0.02064
,,,-4.24E-06,0.02136
,,,-4.22E-06,0.0204
,,,-4.2E-06,0.0204
,,,-4.18E-06,0.01968
,,,-4.16E-06,0.02136
,,,-4.14E-06,0.02088
,,,-4.12E-06,0.01872
,,,-4.1E-06,0.0204
,,,-4.08E-06,0.0204
,,,-4.06E-06,0.02088
,,,-4.04E-06,0.02064
,,,-4.02E-06,0.01968
,,,-4E-06,0.01992
,,,-3.98E-06,0.0216
,,,-3.96E-06,0.01896
,,,-3.94E-06,0.02016
,,,-3.92E-06,0.0204
,,,-3.9E-06,0.02136
,,,-3.88E-06,0.02016
,,,-3.86E-06,0.02016
,,,-3.84E-06,0.02016
,,,-3.82E-06,0.01968
,,,-3.8E-06,0.0192
,,,-3.78E-06,0.02088
,,,-3.76E-06,0.02016
,,,-3.74E-06,0.01968
,,,-3.72E-06,0.02064
,,,-3.7E-06,0.02088
,,,-3.68E-06,0.02088
,,,-3.66E-06,0.02064
,,,-3.64E-06,0.01992
,,,-3.62E-06,0.02064
,,,-3.6E-06,0.0204
,,,-3.58E-06,0.01992
,,,-3.56E-06,0.02064
,,,-3.54E-06,0.01992
,,,-3.52E-06,0.02016
,,,-3.5E-06,0.02016
,,,-3.48E-06,0.0204
,,,-3.46E-06,0.01992
,,,-3.44E-06,0.02088
,,,-3.42E-06,0.01968
,,,-3.4E-06,0.01968
,,,-3.38E-06,0.02064
,,,-3.36E-06,0.02016
,,,-3.34E-06,0.02016
,,,-3.32E-06,0.02088
,,,-3.3E-06,0.02064
,,,-3.28E-06,0.02112
,,,-3.26E-06,0.02088
,,,-3.24E-06,0.01872
,,,-3.22E-06,0.02064
,,,-3.2E-06,0.01968
,,,-3.18E-06,0.02064
,,,-3.16E-06,0.02016
,,,-3.14E-06,0.01872
,,,-3.12E-06,0.01944
,,,-3.1E-06,0.0204
,,,-3.08E-06,0.01968
,,,-3.06E-06,0.02136
,,,-3.04E-06,0.0204
,,,-3.02E-06,0.02064
,,,-3E-06,0.02088
,,,-2.98E-06,0.01944
,,,-2.96E-06,0.0204
,,,-2.94E-06,0.02064
,,,-2.92E-06,0.0204
,,,-2.9E-06,0.02064
,,,-2.88E-06,0.01992
,,,-2.86E-06,0.02112
,,,-2.84E-06,0.0204
,,,-2.82E-06,0.01992
,,,-2.8E-06,0.0204
,,,-2.78E-06,0.02064
,,,-2.76E-06,0.0192
,,,-2.74E-06,0.02184
,,,-2.72E-06,0.02016
,,,-2.7E-06,0.01968
,,,-2.68E-06,0.0216
,,,-2.66E-06,0.0204
,,,-2.64E-06,0.02016
,,,-2.62E-06,0.01968
,,,-2.6E-06,0.02064
,,,-2.58E-06,0.02088
,,,-2.56E-06,0.02112
,,,-2.54E-06,0.02016
,,,-2.52E-06,0.02136
,,,-2.5E-06,0.01896
,,,-2.48E-06,0.02064
,,,-2.46E-06,0.01968
,,,-2.44E-06,0.02064
,,,-2.42E-06,0.0204
,,,-2.4E-06,0.01992
,,,-2.38E-06,0.02064
,,,-2.36E-06,0.01968
,,,-2.34E-06,0.01992
,,,-2.32E-06,0.01944
,,,-2.3E-06,0.02016
,,,-2.28E-06,0.02136
,,,-2.26E-06,0.01992
,,,-2.24E-06,0.01968
,,,-2.22E-06,0.02088
,,,-2.2E-06,0.01992
,,,-2.18E-06,0.0204
,,,-2.16E-06,0.02088
,,,-2.14E-06,0.01968
,,,-2.12E-06,0.02232
,,,-2.1E-06,0.01992
,,,-2.08E-06,0.01968
,,,-2.06E-06,0.02016
,,,-2.04E-06,0.02088
,,,-2.02E-06,0.02016
,,,-2E-06,0.0204
,,,-1.98E-06,0.0192
,,,-1.96E-06,0.01992
,,,-1.94E-06,0.01992
,,,-1.92E-06,0.02136
,,,-1.9E-06,0.0216
,,,-1.88E-06,0.02064
,,,-1.86E-06,0.02016
,,,-1.84E-06,0.02016
,,,-1.82E-06,0.02016
,,,-1.8E-06,0.0204
,,,-1.78E-06,0.02088
,,,-1.76E-06,0.02016
,,,-1.74E-06,0.0204
,,,-1.72E-06,0.0204
,,,-1.7E-06,0.0204
,,,-1.68E-06,0.0192
,,,-1.66E-06,0.0204
,,,-1.64E-06,0.01944
,,,-1.62E-06,0.01968
,,,-1.6E-06,0.02016
,,,-1.58E-06,0.02088
,,,-1.56E-06,0.0192
,,,-1.54E-06,0.02016
,,,-1.52E-06,0.02088
,,,-1.5E-06,0.01968
,,,-1.48E-06,0.01944
,,,-1.46E-06,0.02064
,,,-1.44E-06,0.01944
,,,-1.42E-06,0.02088
,,,-1.4E-06,0.0204
,,,-1.38E-06,0.01968
,,,-1.36E-06,0.0216
,,,-1.34E-06,0.02016
,,,-1.32E-06,0.01968
,,,-1.3E-06,0.01968
,,,-1.28E-06,0.02064
,,,-1.26E-06,0.02016
,,,-1.24E-06,0.02088
,,,-1.22E-06,0.01944
,,,-1.2E-06,0.0204
,,,-1.18E-06,0.02064
,,,-1.16E-06,0.02016
,,,-1.14E-06,0.02136
,,,-1.12E-06,0.01944
,,,-1.1E-06,0.02136
,,,-1.08E-06,0.02016
,,,-1.06E-06,0.02088
,,,-1.04E-06,0.0204
,,,-1.02E-06,0.02112
,,,-1E-06,0.01944
,,,-9.8E-07,0.02064
,,,-9.6E-07,0.02064
,,,-9.4E-07,0.02016
,,,-9.2E-07,0.01992
,,,-9E-07,0.0192
,,,-8.8E-07,0.0204
,,,-8.6E-07,0.02064
,,,-8.4E-07,0.02088
,,,-8.2E-07,0.02016
,,,-8E-07,0.02016
,,,-7.8E-07,0.01944
,,,-7.6E-07,0.02136
,,,-7.4E-07,0.02064
,,,-7.2E-07,0.0204
,,,-7E-07,0.0204
,,,-6.8E-07,0.0192
,,,-6.6E-07,0.02112
,,,-6.4E-07,0.0204
,,,-6.2E-07,0.02088
,,,-6E-07,0.02136
,,,-5.8E-07,0.02064
,,,-5.6E-07,0.0204
,,,-5.4E-07,0.01944
,,,-5.2E-07,0.01944
,,,-5E-07,0.02112
,,,-4.8E-07,0.02016
,,,-4.6E-07,0.01968
,,,-4.4E-07,0.0204
,,,-4.2E-07,0.0204
,,,-4E-07,0.02016
,,,-3.8E-07,0.02088
,,,-3.6E-07,0.0192
,,,-3.4E-07,0.01992
,,,-3.2E-07,0.02088
,,,-3E-07,0.02016
,,,-2.8E-07,0.01944
,,,-2.6E-07,0.02064
,,,-2.4E-07,0.02064
,,,-2.2E-07,0.02064
,,,-2E-07,0.01968
,,,-1.8E-07,0.01992
,,,-1.6E-07,0.02016
,,,-1.4E-07,0.0204
,,,-1.2E-07,0.02016
,,,-1E-07,0.02064
,,,-8E-08,0.0204
,,,-6E-08,0.01992
,,,-4E-08,0.02064
,,,-2E-08,0.0204
,,,0,0.01992
,,,2E-08,0.01992
,,,4E-08,0.01968
,,,6E-08,0.02064
,,,8E-08,0.0216
,,,1E-07,0.01992
,,,1.2E-07,0.01992
,,,1.4E-07,0.01992
,,,1.6E-07,0.0192
,,,1.8E-07,0.01992
,,,2E-07,0.01968
,,,2.2E-07,0.0204
,,,2.4E-07,0.02088
,,,2.6E-07,0.0204
,,,2.8E-07,0.02064
,,,3E-07,0.0192
,,,3.2E-07,0.01848
,,,3.4E-07,0.02016
,,,3.6E-07,0.02064
,,,3.8E-07,0.02016
,,,4E-07,0.0204
,,,4.2E-07,0.02136
,,,4.4E-07,0.02016
,,,4.6E-07,0.01968
,,,4.8E-07,0.0204
,,,5E-07,0.02064
,,,5.2E-07,0.0204
,,,5.4E-07,0.0204
,,,5.6E-07,0.02016
,,,5.8E-07,0.01992
,,,6E-07,0.02016
,,,6.2E-07,0.01968
,,,6.4E-07,0.02064
,,,6.6E-07,0.01992
,,,6.8E-07,0.0192
,,,7E-07,0.02136
,,,7.2E-07,0.02088
,,,7.4E-07,0.02064
,,,7.6E-07,0.0192
,,,7.8E-07,0.02016
,,,8E-07,0.02088
,,,8.2E-07,0.0204
,,,8.4E-07,0.02016
,,,8.6E-07,0.02112
,,,8.8E-07,0.01992
,,,9E-07,0.02064
,,,9.2E-07,0.0204
,,,9.4E-07,0.01896
,,,9.6E-07,0.01992
,,,9.8E-07,0.02064
,,,1E-06,0.02112
,,,1.02E-06,0.0204
,,,1.04E-06,0.0216
,,,1.06E-06,0.02112
,,,1.08E-06,0.02064
,,,1.1E-06,0.02016
,,,1.12E-06,0.0204
,,,1.14E-06,0.02064
,,,1.16E-06,0.01968
,,,1.18E-06,0.0204
,,,1.2E-06,0.02088
,,,1.22E-06,0.0204
,,,1.24E-06,0.02088
,,,1.26E-06,0.0204
,,,1.28E-06,0.02112
,,,1.3E-06,0.0204
,,,1.32E-06,0.02136
,,,1.34E-06,0.01968
,,,1.36E-06,0.0192
,,,1.38E-06,0.01992
,,,1.4E-06,0.02112
,,,1.42E-06,0.0204
,,,1.44E-06,0.01992
,,,1.46E-06,0.02136
,,,1.48E-06,0.0204
,,,1.5E-06,0.02088
,,,1.52E-06,0.02064
,,,1.54E-06,0.01968
,,,1.56E-06,0.02064
,,,1.58E-06,0.01944
,,,1.6E-06,0.01968
,,,1.62E-06,0.02016
,,,1.64E-06,0.02088
,,,1.66E-06,0.0204
,,,1.68E-06,0.02112
,,,1.7E-06,0.02184
,,,1.72E-06,0.02016
,,,1.74E-06,0.01872
,,,1.76E-06,0.01992
,,,1.78E-06,0.01968
,,,1.8E-06,0.02016
,,,1.82E-06,0.02088
,,,1.84E-06,0.01992
,,,1.86E-06,0.02064
,,,1.88E-06,0.02088
,,,1.9E-06,0.0204
,,,1.92E-06,0.02088
,,,1.94E-06,0.01992
,,,1.96E-06,0.0192
,,,1.98E-06,0.02016
,,,2E-06,0.0204
,,,2.02E-06,0.02064
,,,2.04E-06,0.02112
,,,2.06E-06,0.02088
,,,2.08E-06,0.01968
,,,2.1E-06,0.02064
,,,2.12E-06,0.01968
,,,2.14E-06,0.02088
,,,2.16E-06,0.0204
,,,2.18E-06,0.0204
,,,2.2E-06,0.01968
,,,2.22E-06,0.02088
,,,2.24E-06,0.02016
,,,2.26E-06,0.0204
,,,2.28E-06,0.02088
,,,2.3E-06,0.01944
,,,2.32E-06,0.01944
,,,2.34E-06,0.0204
,,,2.36E-06,0.02016
,,,2.38E-06,0.01944
,,,2.4E-06,0.02088
,,,2.42E-06,0.02016
,,,2.44E-06,0.02136
,,,2.46E-06,0.02064
,,,2.48E-06,0.02088
,,,2.5E-06,0.02064
,,,2.52E-06,0.02016
,,,2.54E-06,0.02208
,,,2.56E-06,0.01968
,,,2.58E-06,0.02088
,,,2.6E-06,0.01968
,,,2.62E-06,0.02064
,,,2.64E-06,0.01968
,,,2.66E-06,0.02112
,,,2.68E-06,0.02064
,,,2.7E-06,0.02016
,,,2.72E-06,0.01992
,,,2.74E-06,0.01968
,,,2.76E-06,0.02112
,,,2.78E-06,0.01968
,,,2.8E-06,0.02088
,,,2.82E-06,0.02016
,,,2.84E-06,0.02064
,,,2.86E-06,0.02136
,,,2.88E-06,0.02016
,,,2.9E-06,0.02016
,,,2.92E-06,0.01944
,,,2.94E-06,0.01992
,,,2.96E-06,0.02064
,,,2.98E-06,0.01992
,,,3E-06,0.02112
,,,3.02E-06,0.01992
,,,3.04E-06,0.02088
,,,3.06E-06,0.02064
,,,3.08E-06,0.02016
,,,3.1E-06,0.02016
,,,3.12E-06,0.02088
,,,3.14E-06,0.02136
,,,3.16E-06,0.02088
,,,3.18E-06,0.02088
,,,3.2E-06,0.01992
,,,3.22E-06,0.02136
,,,3.24E-06,0.02112
,,,3.26E-06,0.01968
,,,3.28E-06,0.0204
,,,3.3E-06,0.0204
,,,3.32E-06,0.01992
,,,3.34E-06,0.01992
,,,3.36E-06,0.02136
,,,3.38E-06,0.01968
,,,3.4E-06,0.02016
,,,3.42E-06,0.0204
,,,3.44E-06,0.0204
,,,3.46E-06,0.02136
,,,3.48E-06,0.0204
,,,3.5E-06,0.0204
,,,3.52E-06,0.01992
,,,3.54E-06,0.02016
,,,3.56E-06,0.01992
,,,3.58E-06,0.02016
,,,3.6E-06,0.0204
,,,3.62E-06,0.01992
,,,3.64E-06,0.02136
,,,3.66E-06,0.02088
,,,3.68E-06,0.02112
,,,3.7E-06,0.02064
,,,3.72E-06,0.02112
,,,3.74E-06,0.02088
,,,3.76E-06,0.01968
,,,3.78E-06,0.01992
,,,3.8E-06,0.02064
,,,3.82E-06,0.01992
,,,3.84E-06,0.01968
,,,3.86E-06,0.02136
,,,3.88E-06,0.02112
,,,3.9E-06,0.01896
,,,3.92E-06,0.02016
,,,3.94E-06,0.02088
,,,3.96E-06,0.01968
,,,3.98E-06,0.02016
,,,4E-06,0.02184
,,,4.02E-06,0.02136
,,,4.04E-06,0.02088
,,,4.06E-06,0.02088
,,,4.08E-06,0.02184
,,,4.1E-06,0.01944
,,,4.12E-06,0.0204
,,,4.14E-06,0.02088
,,,4.16E-06,0.02136
,,,4.18E-06,0.02136
,,,4.2E-06,0.02112
,,,4.22E-06,0.02016
,,,4.24E-06,0.01944
,,,4.26E-06,0.01992
,,,4.28E-06,0.02064
,,,4.3E-06,0.0204
,,,4.32E-06,0.0204
,,,4.34E-06,0.02136
,,,4.36E-06,0.01968
,,,4.38E-06,0.02016
,,,4.4E-06,0.02136
,,,4.42E-06,0.02136
,,,4.44E-06,0.02016
,,,4.46E-06,0.0204
,,,4.48E-06,0.01968
,,,4.5E-06,0.0204
,,,4.52E-06,0.02016
,,,4.54E-06,0.02088
,,,4.56E-06,0.02088
,,,4.58E-06,0.01992
,,,4.6E-06,0.02136
,,,4.62E-06,0.01968
,,,4.64E-06,0.02016
,,,4.66E-06,0.0216
,,,4.68E-06,0.0192
,,,4.7E-06,0.02088
,,,4.72E-06,0.01992
,,,4.74E-06,0.0216
,,,4.76E-06,0.01992
,,,4.78E-06,0.02112
,,,4.8E-06,0.0204
,,,4.82E-06,0.02064
,,,4.84E-06,0.01992
,,,4.86E-06,0.01944
,,,4.88E-06,0.02112
,,,4.9E-06,0.01944
,,,4.92E-06,0.0204
,,,4.94E-06,0.01992
,,,4.96E-06,0.02064
,,,4.98E-06,0.02184
,,,5E-06,0.02016
,,,5.02E-06,0.02088
,,,5.04E-06,0.02088
,,,5.06E-06,0.02064
,,,5.08E-06,0.02088
,,,5.1E-06,0.02064
,,,5.12E-06,0.02088
,,,5.14E-06,0.02064
,,,5.16E-06,0.02112
,,,5.18E-06,0.02112
,,,5.2E-06,0.02016
,,,5.22E-06,0.02064
,,,5.24E-06,0.01968
,,,5.26E-06,0.01848
,,,5.28E-06,0.02064
,,,5.3E-06,0.0192
,,,5.32E-06,0.02064
,,,5.34E-06,0.02064
,,,5.36E-06,0.01968
,,,5.38E-06,0.02016
,,,5.4E-06,0.0192
,,,5.42E-06,0.01968
,,,5.44E-06,0.02112
,,,5.46E-06,0.02088
,,,5.48E-06,0.0204
,,,5.5E-06,0.02016
,,,5.52E-06,0.02064
,,,5.54E-06,0.02064
,,,5.56E-06,0.02016
,,,5.58E-06,0.02016
,,,5.6E-06,0.02016
,,,5.62E-06,0.0204
,,,5.64E-06,0.02136
,,,5.66E-06,0.01968
,,,5.68E-06,0.0192
,,,5.7E-06,0.0204
,,,5.72E-06,0.01944
,,,5.74E-06,0.0204
,,,5.76E-06,0.02016
,,,5.78E-06,0.02136
,,,5.8E-06,0.0204
,,,5.82E-06,0.01944
,,,5.84E-06,0.02016
,,,5.86E-06,0.0204
,,,5.88E-06,0.01944
,,,5.9E-06,0.02088
,,,5.92E-06,0.02088
,,,5.94E-06,0.01992
,,,5.96E-06,0.02016
,,,5.98E-06,0.02112
,,,6E-06,0.02088
,,,6.02E-06,0.01968
,,,6.04E-06,0.02016
,,,6.06E-06,0.01944
,,,6.08E-06,0.02136
,,,6.1E-06,0.02064
,,,6.12E-06,0.01896
,,,6.14E-06,0.02016
,,,6.16E-06,0.01992
,,,6.18E-06,0.01944
,,,6.2E-06,0.02064
,,,6.22E-06,0.02064
,,,6.24E-06,0.01944
,,,6.26E-06,0.02136
,,,6.28E-06,0.01968
,,,6.3E-06,0.02016
,,,6.32E-06,0.02064
,,,6.34E-06,0.0192
,,,6.36E-06,0.02136
,,,6.38E-06,0.02112
,,,6.4E-06,0.02088
,,,6.42E-06,0.0192
,,,6.44E-06,0.02064
,,,6.46E-06,0.0204
,,,6.48E-06,0.0204
,,,6.5E-06,0.02016
,,,6.52E-06,0.02088
,,,6.54E-06,0.01992
,,,6.56E-06,0.02088
,,,6.58E-06,0.01968
,,,6.6E-06,0.0204
,,,6.62E-06,0.01992
,,,6.64E-06,0.02064
,,,6.66E-06,0.02064
,,,6.68E-06,0.01968
,,,6.7E-06,0.02064
,,,6.72E-06,0.02112
,,,6.74E-06,0.0192
,,,6.76E-06,0.02088
,,,6.78E-06,0.0216
,,,6.8E-06,0.02112
,,,6.82E-06,0.01944
,,,6.84E-06,0.02088
,,,6.86E-06,0.02064
,,,6.88E-06,0.0204
,,,6.9E-06,0.02112
,,,6.92E-06,0.02184
,,,6.94E-06,0.0192
,,,6.96E-06,0.01992
,,,6.98E-06,0.02016
,,,7E-06,0.01968
,,,7.02E-06,0.0192
,,,7.04E-06,0.01992
,,,7.06E-06,0.02016
,,,7.08E-06,0.01992
,,,7.1E-06,0.02016
,,,7.12E-06,0.02064
,,,7.14E-06,0.0204
,,,7.16E-06,0.01968
,,,7.18E-06,0.02064
,,,7.2E-06,0.0204
,,,7.22E-06,0.0216
,,,7.24E-06,0.01944
,,,7.26E-06,0.02136
,,,7.28E-06,0.0204
,,,7.3E-06,0.0204
,,,7.32E-06,0.02112
,,,7.34E-06,0.01944
,,,7.36E-06,0.02016
,,,7.38E-06,0.02088
,,,7.4E-06,0.01992
,,,7.42E-06,0.02016
,,,7.44E-06,0.0192
,,,7.46E-06,0.01968
,,,7.48E-06,0.0204
,,,7.5E-06,0.01944
,,,7.52E-06,0.0204
,,,7.54E-06,0.01944
,,,7.56E-06,0.0204
,,,7.58E-06,0.02184
,,,7.6E-06,0.02064
,,,7.62E-06,0.02064
,,,7.64E-06,0.02064
,,,7.66E-06,0.02016
,,,7.68E-06,0.02184
,,,7.7E-06,0.01992
,,,7.72E-06,0.02112
,,,7.74E-06,0.02088
,,,7.76E-06,0.0204
,,,7.78E-06,0.02088
,,,7.8E-06,0.02064
,,,7.82E-06,0.0204
,,,7.84E-06,0.01968
,,,7.86E-06,0.02064
,,,7.88E-06,0.02064
,,,7.9E-06,0.01944
,,,7.92E-06,0.0204
,,,7.94E-06,0.02184
,,,7.96E-06,0.02088
,,,7.98E-06,0.0192
,,,8E-06,0.0204
,,,8.02E-06,0.02088
,,,8.04E-06,0.02112
,,,8.06E-06,0.02064
,,,8.08E-06,0.0204
,,,8.1E-06,0.02112
,,,8.12E-06,0.0192
,,,8.14E-06,0.02088
,,,8.16E-06,0.0204
,,,8.18E-06,0.0192
,,,8.2E-06,0.01968
,,,8.22E-06,0.02064
,,,8.24E-06,0.02088
,,,8.26E-06,0.02064
,,,8.28E-06,0.02112
,,,8.3E-06,0.02064
,,,8.32E-06,0.0204
,,,8.34E-06,0.02112
,,,8.36E-06,0.01968
,,,8.38E-06,0.01944
,,,8.4E-06,0.0192
,,,8.42E-06,0.01992
,,,8.44E-06,0.01992
,,,8.46E-06,0.0204
,,,8.48E-06,0.02064
,,,8.5E-06,0.02088
,,,8.52E-06,0.02064
,,,8.54E-06,0.02016
,,,8.56E-06,0.02016
,,,8.58E-06,0.01944
,,,8.6E-06,0.0204
,,,8.62E-06,0.02112
,,,8.64E-06,0.0204
,,,8.66E-06,0.01992
,,,8.68E-06,0.02184
,,,8.7E-06,0.02016
,,,8.72E-06,0.02088
,,,8.74E-06,0.01992
,,,8.76E-06,0.02088
,,,8.78E-06,0.0192
,,,8.8E-06,0.0204
,,,8.82E-06,0.02136
,,,8.84E-06,0.02136
,,,8.86E-06,0.0216
,,,8.88E-06,0.02112
,,,8.9E-06,0.02088
,,,8.92E-06,0.01896
,,,8.94E-06,0.02088
,,,8.96E-06,0.0192
,,,8.98E-06,0.01992
,,,9E-06,0.0204
,,,9.02E-06,0.02016
,,,9.04E-06,0.01992
,,,9.06E-06,0.01968
,,,9.08E-06,0.01992
,,,9.1E-06,0.0204
,,,9.12E-06,0.01992
,,,9.14E-06,0.02064
,,,9.16E-06,0.01824
,,,9.18E-06,0.0204
,,,9.2E-06,0.01992
,,,9.22E-06,0.0204
,,,9.24E-06,0.02016
,,,9.26E-06,0.02136
,,,9.28E-06,0.01944
,,,9.3E-06,0.01944
,,,9.32E-06,0.01944
,,,9.34E-06,0.0204
,,,9.36E-06,0.01968
,,,9.38E-06,0.01992
,,,9.4E-06,0.01992
,,,9.42E-06,0.02208
,,,9.44E-06,0.02088
,,,9.46E-06,0.02064
,,,9.48E-06,0.02088
,,,9.5E-06,0.0204
,,,9.52E-06,0.0204
,,,9.54E-06,0.02112
,,,9.56E-06,0.02016
,,,9.58E-06,0.01968
,,,9.6E-06,0.0204
,,,9.62E-06,0.02064
,,,9.64E-06,0.0192
,,,9.66E-06,0.01992
,,,9.68E-06,0.02064
,,,9.7E-06,0.01992
,,,9.72E-06,0.01992
,,,9.74E-06,0.01968
,,,9.76E-06,0.02016
,,,9.78E-06,0.02016
,,,9.8E-06,0.01992
,,,9.82E-06,0.02064
,,,9.84E-06,0.01992
,,,9.86E-06,0.0204
,,,9.88E-06,0.01992
,,,9.9E-06,0.02064
,,,9.92E-06,0.0216
,,,9.94E-06,0.0204
