data/raw/lightera_POL_calibration_traces/fast_Polarimeter_Callbration/SOP22000_Ch2.csv

"Record Length",100000,"Points",-0.00057,0.008640001
"Sample Interval",1E-08,s,-0.00056999,0.008280001
"Trigger Point",57000,"Samples",-0.00056998,0.008280001
"Trigger Time",3.31871240370674E-09,s,-0.00056997,0.007200001
"",,,-0.00056996,0.008640001
"Horizontal Offset",-0.00057,s,-0.00056995,0.006840001
,,,-0.00056994,0.007920001
,,,-0.00056993,0.008280001
,,,-0.00056992,0.007560001
,,,-0.00056991,0.008280001
,,,-0.0005699,0.009000001
,,,-0.00056989,0.007920001
,,,-0.00056988,0.008640001
,,,-0.00056987,0.008640001
,,,-0.00056986,0.008640001
,,,-0.00056985,0.008280001
,,,-0.00056984,0.008280001
,,,-0.00056983,0.009000001
,,,-0.00056982,0.008280001
,,,-0.00056981,0.007560001
,,,-0.0005698,0.007920001
,,,-0.00056979,0.007200001
,,,-0.00056978,0.007200001
,,,-0.00056977,0.008640001
,,,-0.00056976,0.007920001
,,,-0.00056975,0.008280001
,,,-0.00056974,0.007200001
,,,-0.00056973,0.007920001
,,,-0.00056972,0.008640001
,,,-0.00056971,0.009000001
,,,-0.0005697,0.009000001
,,,-0.00056969,0.008280001
,,,-0.00056968,0.007920001
,,,-0.00056967,0.008640001
,,,-0.00056966,0.007200001
,,,-0.00056965,0.008280001
,,,-0.00056964,0.007920001
,,,-0.00056963,0.008280001
,,,-0.00056962,0.007560001
,,,-0.00056961,0.007560001
,,,-0.0005696,0.008280001
,,,-0.00056959,0.006840001
,,,-0.00056958,0.008640001
,,,-0.00056957,0.007200001
,,,-0.00056956,0.008280001
,,,-0.00056955,0.007560001
,,,-0.00056954,0.008280001
,,,-0.00056953,0.008640001
,,,-0.00056952,0.007560001
,,,-0.00056951,0.007200001
,,,-0.0005695,0.008640001
,,,-0.00056949,0.007560001
,,,-0.00056948,0.008640001
,,,-0.00056947,0.008280001
,,,-0.00056946,0.007560001
,,,-0.00056945,0.008640001
,,,-0.00056944,0.007560001
,,,-0.00056943,0.007560001
,,,-0.00056942,0.008280001
,,,-0.00056941,0.007200001
,,,-0.0005694,0.008640001
,,,-0.00056939,0.008640001
,,,-0.00056938,0.007560001
,,,-0.00056937,0.008640001
,,,-0.00056936,0.007560001
,,,-0.00056935,0.008280001
,,,-0.00056934,0.009000001
,,,-0.00056933,0.009000001
,,,-0.00056932,0.007560001
,,,-0.00056931,0.008640001
,,,-0.0005693,0.006840001
,,,-0.00056929,0.008640001
,,,-0.00056928,0.009000001
,,,-0.00056927,0.008640001
,,,-0.00056926,0.009720001
,,,-0.00056925,0.008640001
,,,-0.00056924,0.007560001
,,,-0.00056923,0.009360001
,,,-0.00056922,0.007200001
,,,-0.00056921,0.008280001
,,,-0.0005692,0.007560001
,,,-0.00056919,0.009000001
,,,-0.00056918,0.008640001
,,,-0.00056917,0.007920001
,,,-0.00056916,0.007920001
,,,-0.00056915,0.006480001
,,,-0.00056914,0.008280001
,,,-0.00056913,0.008640001
,,,-0.00056912,0.007560001
,,,-0.00056911,0.008640001
,,,-0.0005691,0.009000001
,,,-0.00056909,0.008640001
,,,-0.00056908,0.007920001
,,,-0.00056907,0.007560001
,,,-0.00056906,0.007920001
,,,-0.00056905,0.008280001
,,,-0.00056904,0.007920001
,,,-0.00056903,0.008640001
,,,-0.00056902,0.009000001
,,,-0.00056901,0.008640001
,,,-0.000569,0.008280001
,,,-0.00056899,0.008640001
,,,-0.00056898,0.007200001
,,,-0.00056897,0.008280001
,,,-0.00056896,0.007920001
,,,-0.00056895,0.007200001
,,,-0.00056894,0.008280001
,,,-0.00056893,0.009360001
,,,-0.00056892,0.007920001
,,,-0.00056891,0.008280001
,,,-0.0005689,0.008280001
,,,-0.00056889,0.007200001
,,,-0.00056888,0.007200001
,,,-0.00056887,0.007200001
,,,-0.00056886,0.008280001
,,,-0.00056885,0.008640001
,,,-0.00056884,0.009000001
,,,-0.00056883,0.007920001
,,,-0.00056882,0.008280001
,,,-0.00056881,0.007560001
,,,-0.0005688,0.008280001
,,,-0.00056879,0.009360001
,,,-0.00056878,0.008640001
,,,-0.00056877,0.009000001
,,,-0.00056876,0.006480001
,,,-0.00056875,0.007200001
,,,-0.00056874,0.007920001
,,,-0.00056873,0.008280001
,,,-0.00056872,0.008640001
,,,-0.00056871,0.008280001
,,,-0.0005687,0.007920001
,,,-0.00056869,0.009000001
,,,-0.00056868,0.008640001
,,,-0.00056867,0.007560001
,,,-0.00056866,0.009720001
,,,-0.00056865,0.006480001
,,,-0.00056864,0.008640001
,,,-0.00056863,0.008280001
,,,-0.00056862,0.009000001
,,,-0.00056861,0.007560001
,,,-0.0005686,0.007200001
,,,-0.00056859,0.007560001
,,,-0.00056858,0.007920001
,,,-0.00056857,0.007920001
,,,-0.00056856,0.008280001
,,,-0.00056855,0.009000001
,,,-0.00056854,0.007560001
,,,-0.00056853,0.009360001
,,,-0.00056852,0.007560001
,,,-0.00056851,0.008280001
,,,-0.0005685,0.008280001
,,,-0.00056849,0.007920001
,,,-0.00056848,0.008640001
,,,-0.00056847,0.007200001
,,,-0.00056846,0.007920001
,,,-0.00056845,0.007920001
,,,-0.00056844,0.008280001
,,,-0.00056843,0.008280001
,,,-0.00056842,0.007200001
,,,-0.00056841,0.007560001
,,,-0.0005684,0.008280001
,,,-0.00056839,0.006840001
,,,-0.00056838,0.008640001
,,,-0.00056837,0.009360001
,,,-0.00056836,0.007560001
,,,-0.00056835,0.008280001
,,,-0.00056834,0.008280001
,,,-0.00056833,0.008640001
,,,-0.00056832,0.007560001
,,,-0.00056831,0.009000001
,,,-0.0005683,0.008280001
,,,-0.00056829,0.009720001
,,,-0.00056828,0.007200001
,,,-0.00056827,0.007920001
,,,-0.00056826,0.009000001
,,,-0.00056825,0.008280001
,,,-0.00056824,0.008640001
,,,-0.00056823,0.008280001
,,,-0.00056822,0.007920001
,,,-0.00056821,0.008640001
,,,-0.0005682,0.007560001
,,,-0.00056819,0.007560001
,,,-0.00056818,0.006840001
,,,-0.00056817,0.008640001
,,,-0.00056816,0.007560001
,,,-0.00056815,0.008280001
,,,-0.00056814,0.006480001
,,,-0.00056813,0.008280001
,,,-0.00056812,0.008280001
,,,-0.00056811,0.008280001
,,,-0.0005681,0.007200001
,,,-0.00056809,0.007920001
,,,-0.00056808,0.007560001
,,,-0.00056807,0.008280001
,,,-0.00056806,0.008280001
,,,-0.00056805,0.008640001
,,,-0.00056804,0.007560001
,,,-0.00056803,0.008280001
,,,-0.00056802,0.008640001
,,,-0.00056801,0.007920001
,,,-0.000568,0.008280001
,,,-0.00056799,0.007920001
,,,-0.00056798,0.007920001
,,,-0.00056797,0.008280001
,,,-0.00056796,0.008280001
,,,-0.00056795,0.006840001
,,,-0.00056794,0.008280001
,,,-0.00056793,0.008640001
,,,-0.00056792,0.008640001
,,,-0.00056791,0.007560001
,,,-0.0005679,0.007560001
,,,-0.00056789,0.007200001
,,,-0.00056788,0.009360001
,,,-0.00056787,0.008640001
,,,-0.00056786,0.007560001
,,,-0.00056785,0.008280001
,,,-0.00056784,0.009000001
,,,-0.00056783,0.007560001
,,,-0.00056782,0.007560001
,,,-0.00056781,0.008280001
,,,-0.0005678,0.007560001
,,,-0.00056779,0.008280001
,,,-0.00056778,0.008640001
,,,-0.00056777,0.008280001
,,,-0.00056776,0.007560001
,,,-0.00056775,0.007560001
,,,-0.00056774,0.007200001
,,,-0.00056773,0.009000001
,,,-0.00056772,0.008280001
,,,-0.00056771,0.009000001
,,,-0.0005677,0.008280001
,,,-0.00056769,0.009000001
,,,-0.00056768,0.008640001
,,,-0.00056767,0.009360001
,,,-0.00056766,0.006480001
,,,-0.00056765,0.006120001
,,,-0.00056764,0.008280001
,,,-0.00056763,0.008280001
,,,-0.00056762,0.008280001
,,,-0.00056761,0.010080001
,,,-0.0005676,0.008280001
,,,-0.00056759,0.007920001
,,,-0.00056758,0.007560001
,,,-0.00056757,0.007920001
,,,-0.00056756,0.008640001
,,,-0.00056755,0.008640001
,,,-0.00056754,0.009000001
,,,-0.00056753,0.007920001
,,,-0.00056752,0.009360001
,,,-0.00056751,0.007920001
,,,-0.0005675,0.008280001
,,,-0.00056749,0.007200001
,,,-0.00056748,0.008640001
,,,-0.00056747,0.007200001
,,,-0.00056746,0.008280001
,,,-0.00056745,0.007920001
,,,-0.00056744,0.008280001
,,,-0.00056743,0.008280001
,,,-0.00056742,0.007920001
,,,-0.00056741,0.007920001
,,,-0.0005674,0.007920001
,,,-0.00056739,0.007920001
,,,-0.00056738,0.009000001
,,,-0.00056737,0.009000001
,,,-0.00056736,0.007920001
,,,-0.00056735,0.007920001
,,,-0.00056734,0.009000001
,,,-0.00056733,0.007920001
,,,-0.00056732,0.007560001
,,,-0.00056731,0.007920001
,,,-0.0005673,0.008640001
,,,-0.00056729,0.009360001
,,,-0.00056728,0.009000001
,,,-0.00056727,0.007560001
,,,-0.00056726,0.007560001
,,,-0.00056725,0.007200001
,,,-0.00056724,0.007560001
,,,-0.00056723,0.007560001
,,,-0.00056722,0.008640001
,,,-0.00056721,0.009360001
,,,-0.0005672,0.007920001
,,,-0.00056719,0.008280001
,,,-0.00056718,0.007560001
,,,-0.00056717,0.008280001
,,,-0.00056716,0.007920001
,,,-0.00056715,0.008280001
,,,-0.00056714,0.008640001
,,,-0.00056713,0.008640001
,,,-0.00056712,0.007560001
,,,-0.00056711,0.006840001
,,,-0.0005671,0.008640001
,,,-0.00056709,0.007560001
,,,-0.00056708,0.007920001
,,,-0.00056707,0.007920001
,,,-0.00056706,0.008640001
,,,-0.00056705,0.009360001
,,,-0.00056704,0.007200001
,,,-0.00056703,0.008280001
,,,-0.00056702,0.008280001
,,,-0.00056701,0.009000001
,,,-0.000567,0.007920001
,,,-0.00056699,0.009000001
,,,-0.00056698,0.008280001
,,,-0.00056697,0.007920001
,,,-0.00056696,0.009000001
,,,-0.00056695,0.009000001
,,,-0.00056694,0.007920001
,,,-0.00056693,0.008640001
,,,-0.00056692,0.007920001
,,,-0.00056691,0.008640001
,,,-0.0005669,0.007560001
,,,-0.00056689,0.009360001
,,,-0.00056688,0.008640001
,,,-0.00056687,0.008280001
,,,-0.00056686,0.008640001
,,,-0.00056685,0.009360001
,,,-0.00056684,0.009000001
,,,-0.00056683,0.009000001
,,,-0.00056682,0.008640001
,,,-0.00056681,0.010080001
,,,-0.0005668,0.007560001
,,,-0.00056679,0.007560001
,,,-0.00056678,0.007200001
,,,-0.00056677,0.008280001
,,,-0.00056676,0.008640001
,,,-0.00056675,0.007920001
,,,-0.00056674,0.008280001
,,,-0.00056673,0.009360001
,,,-0.00056672,0.008640001
,,,-0.00056671,0.009000001
,,,-0.0005667,0.008640001
,,,-0.00056669,0.007560001
,,,-0.00056668,0.008280001
,,,-0.00056667,0.007560001
,,,-0.00056666,0.007920001
,,,-0.00056665,0.009720001
,,,-0.00056664,0.008280001
,,,-0.00056663,0.009000001
,,,-0.00056662,0.008280001
,,,-0.00056661,0.008640001
,,,-0.0005666,0.008280001
,,,-0.00056659,0.008640001
,,,-0.00056658,0.009000001
,,,-0.00056657,0.007560001
,,,-0.00056656,0.007920001
,,,-0.00056655,0.007200001
,,,-0.00056654,0.009000001
,,,-0.00056653,0.008640001
,,,-0.00056652,0.009000001
,,,-0.00056651,0.007560001
,,,-0.0005665,0.008640001
,,,-0.00056649,0.007920001
,,,-0.00056648,0.007920001
,,,-0.00056647,0.007920001
,,,-0.00056646,0.007200001
,,,-0.00056645,0.007200001
,,,-0.00056644,0.008640001
,,,-0.00056643,0.006840001
,,,-0.00056642,0.007920001
,,,-0.00056641,0.007200001
,,,-0.0005664,0.007560001
,,,-0.00056639,0.008280001
,,,-0.00056638,0.007560001
,,,-0.00056637,0.009360001
,,,-0.00056636,0.008640001
,,,-0.00056635,0.008640001
,,,-0.00056634,0.007200001
,,,-0.00056633,0.006480001
,,,-0.00056632,0.007560001
,,,-0.00056631,0.007920001
,,,-0.0005663,0.007920001
,,,-0.00056629,0.008640001
,,,-0.00056628,0.007920001
,,,-0.00056627,0.007200001
,,,-0.00056626,0.007920001
,,,-0.00056625,0.009360001
,,,-0.00056624,0.007920001
,,,-0.00056623,0.008280001
,,,-0.00056622,0.007920001
,,,-0.00056621,0.008280001
,,,-0.0005662,0.009000001
,,,-0.00056619,0.007560001
,,,-0.00056618,0.007560001
,,,-0.00056617,0.009360001
,,,-0.00056616,0.007920001
,,,-0.00056615,0.007200001
,,,-0.00056614,0.008640001
,,,-0.00056613,0.008640001
,,,-0.00056612,0.008280001
,,,-0.00056611,0.007560001
,,,-0.0005661,0.007560001
,,,-0.00056609,0.007200001
,,,-0.00056608,0.008280001
,,,-0.00056607,0.008640001
,,,-0.00056606,0.007560001
,,,-0.00056605,0.010080001
,,,-0.00056604,0.008280001
,,,-0.00056603,0.007920001
,,,-0.00056602,0.006120001
,,,-0.00056601,0.008280001
,,,-0.000566,0.007920001
,,,-0.00056599,0.009000001
,,,-0.00056598,0.007920001
,,,-0.00056597,0.006840001
,,,-0.00056596,0.008280001
,,,-0.00056595,0.008640001
,,,-0.00056594,0.007560001
,,,-0.00056593,0.007920001
,,,-0.00056592,0.007200001
,,,-0.00056591,0.007920001
,,,-0.0005659,0.007920001
,,,-0.00056589,0.008280001
,,,-0.00056588,0.009000001
,,,-0.00056587,0.007920001
,,,-0.00056586,0.009000001
,,,-0.00056585,0.009000001
,,,-0.00056584,0.007560001
,,,-0.00056583,0.007560001
,,,-0.00056582,0.008640001
,,,-0.00056581,0.009000001
,,,-0.0005658,0.009000001
,,,-0.00056579,0.009000001
,,,-0.00056578,0.007920001
,,,-0.00056577,0.009000001
,,,-0.00056576,0.009000001
,,,-0.00056575,0.007560001
,,,-0.00056574,0.009000001
,,,-0.00056573,0.009000001
,,,-0.00056572,0.007920001
,,,-0.00056571,0.007200001
,,,-0.0005657,0.007920001
,,,-0.00056569,0.007200001
,,,-0.00056568,0.007920001
,,,-0.00056567,0.006480001
,,,-0.00056566,0.007200001
,,,-0.00056565,0.008640001
,,,-0.00056564,0.007920001
,,,-0.00056563,0.007920001
,,,-0.00056562,0.008280001
,,,-0.00056561,0.007560001
,,,-0.0005656,0.005760001
,,,-0.00056559,0.008280001
,,,-0.00056558,0.008280001
,,,-0.00056557,0.008640001
,,,-0.00056556,0.007560001
,,,-0.00056555,0.008280001
,,,-0.00056554,0.009000001
,,,-0.00056553,0.007560001
,,,-0.00056552,0.008280001
,,,-0.00056551,0.007200001
,,,-0.0005655,0.008640001
,,,-0.00056549,0.007200001
,,,-0.00056548,0.007920001
,,,-0.00056547,0.009360001
,,,-0.00056546,0.009360001
,,,-0.00056545,0.008280001
,,,-0.00056544,0.009000001
,,,-0.00056543,0.008280001
,,,-0.00056542,0.009720001
,,,-0.00056541,0.008280001
,,,-0.0005654,0.007920001
,,,-0.00056539,0.008280001
,,,-0.00056538,0.007200001
,,,-0.00056537,0.009000001
,,,-0.00056536,0.010080001
,,,-0.00056535,0.008640001
,,,-0.00056534,0.007920001
,,,-0.00056533,0.007560001
,,,-0.00056532,0.008280001
,,,-0.00056531,0.009000001
,,,-0.0005653,0.008640001
,,,-0.00056529,0.007560001
,,,-0.00056528,0.007560001
,,,-0.00056527,0.008640001
,,,-0.00056526,0.007920001
,,,-0.00056525,0.009720001
,,,-0.00056524,0.007560001
,,,-0.00056523,0.007200001
,,,-0.00056522,0.006840001
,,,-0.00056521,0.007920001
,,,-0.0005652,0.008280001
,,,-0.00056519,0.008640001
,,,-0.00056518,0.008640001
,,,-0.00056517,0.007920001
,,,-0.00056516,0.009000001
,,,-0.00056515,0.009000001
,,,-0.00056514,0.007920001
,,,-0.00056513,0.007920001
,,,-0.00056512,0.008280001
,,,-0.00056511,0.007200001
,,,-0.0005651,0.008280001
,,,-0.00056509,0.007920001
,,,-0.00056508,0.007920001
,,,-0.00056507,0.008640001
,,,-0.00056506,0.009000001
,,,-0.00056505,0.007200001
,,,-0.00056504,0.007920001
,,,-0.00056503,0.008640001
,,,-0.00056502,0.007920001
,,,-0.00056501,0.008640001
,,,-0.000565,0.007920001
,,,-0.00056499,0.007200001
,,,-0.00056498,0.009360001
,,,-0.00056497,0.007920001
,,,-0.00056496,0.008280001
,,,-0.00056495,0.006840001
,,,-0.00056494,0.008640001
,,,-0.00056493,0.007560001
,,,-0.00056492,0.008640001
,,,-0.00056491,0.007560001
,,,-0.0005649,0.008280001
,,,-0.00056489,0.008280001
,,,-0.00056488,0.008280001
,,,-0.00056487,0.007920001
,,,-0.00056486,0.006840001
,,,-0.00056485,0.007920001
,,,-0.00056484,0.007560001
,,,-0.00056483,0.008280001
,,,-0.00056482,0.008640001
,,,-0.00056481,0.008280001
,,,-0.0005648,0.008280001
,,,-0.00056479,0.007920001
,,,-0.00056478,0.007920001
,,,-0.00056477,0.008280001
,,,-0.00056476,0.009360001
,,,-0.00056475,0.008280001
,,,-0.00056474,0.009000001
,,,-0.00056473,0.007920001
,,,-0.00056472,0.008280001
,,,-0.00056471,0.008280001
,,,-0.0005647,0.008640001
,,,-0.00056469,0.008280001
,,,-0.00056468,0.008280001
,,,-0.00056467,0.007920001
,,,-0.00056466,0.007920001
,,,-0.00056465,0.008640001
,,,-0.00056464,0.007560001
,,,-0.00056463,0.007920001
,,,-0.00056462,0.007920001
,,,-0.00056461,0.007920001
,,,-0.0005646,0.008640001
,,,-0.00056459,0.009720001
,,,-0.00056458,0.008280001
,,,-0.00056457,0.008640001
,,,-0.00056456,0.009360001
,,,-0.00056455,0.009360001
,,,-0.00056454,0.007920001
,,,-0.00056453,0.008280001
,,,-0.00056452,0.009000001
,,,-0.00056451,0.009000001
,,,-0.0005645,0.007560001
,,,-0.00056449,0.008280001
,,,-0.00056448,0.008280001
,,,-0.00056447,0.009000001
,,,-0.00056446,0.009000001
,,,-0.00056445,0.006840001
,,,-0.00056444,0.008280001
,,,-0.00056443,0.009360001
,,,-0.00056442,0.009000001
,,,-0.00056441,0.008280001
,,,-0.0005644,0.008640001
,,,-0.00056439,0.007200001
,,,-0.00056438,0.008280001
,,,-0.00056437,0.008640001
,,,-0.00056436,0.007200001
,,,-0.00056435,0.007560001
,,,-0.00056434,0.007200001
,,,-0.00056433,0.008640001
,,,-0.00056432,0.007920001
,,,-0.00056431,0.008640001
,,,-0.0005643,0.008280001
,,,-0.00056429,0.007200001
,,,-0.00056428,0.007200001
,,,-0.00056427,0.007920001
,,,-0.00056426,0.007920001
,,,-0.00056425,0.007920001
,,,-0.00056424,0.009720001
,,,-0.00056423,0.008640001
,,,-0.00056422,0.007560001
,,,-0.00056421,0.007920001
,,,-0.0005642,0.007920001
,,,-0.00056419,0.007200001
,,,-0.00056418,0.007200001
,,,-0.00056417,0.007200001
,,,-0.00056416,0.007560001
,,,-0.00056415,0.008280001
,,,-0.00056414,0.008280001
,,,-0.00056413,0.007920001
,,,-0.00056412,0.007920001
,,,-0.00056411,0.008280001
,,,-0.0005641,0.008640001
,,,-0.00056409,0.009720001
,,,-0.00056408,0.008280001
,,,-0.00056407,0.008280001
,,,-0.00056406,0.006840001
,,,-0.00056405,0.007920001
,,,-0.00056404,0.007560001
,,,-0.00056403,0.008640001
,,,-0.00056402,0.007560001
,,,-0.00056401,0.008280001
,,,-0.000564,0.009000001
,,,-0.00056399,0.008640001
,,,-0.00056398,0.009000001
,,,-0.00056397,0.009360001
,,,-0.00056396,0.007200001
,,,-0.00056395,0.008640001
,,,-0.00056394,0.009000001
,,,-0.00056393,0.007920001
,,,-0.00056392,0.008280001
,,,-0.00056391,0.007560001
,,,-0.0005639,0.008640001
,,,-0.00056389,0.008280001
,,,-0.00056388,0.008280001
,,,-0.00056387,0.007200001
,,,-0.00056386,0.007560001
,,,-0.00056385,0.008640001
,,,-0.00056384,0.007920001
,,,-0.00056383,0.008280001
,,,-0.00056382,0.009000001
,,,-0.00056381,0.007560001
,,,-0.0005638,0.008640001
,,,-0.00056379,0.008640001
,,,-0.00056378,0.007560001
,,,-0.00056377,0.009000001
,,,-0.00056376,0.010080001
,,,-0.00056375,0.009360001
,,,-0.00056374,0.007560001
,,,-0.00056373,0.008280001
,,,-0.00056372,0.007560001
,,,-0.00056371,0.008640001
,,,-0.0005637,0.007920001
,,,-0.00056369,0.006840001
,,,-0.00056368,0.007920001
,,,-0.00056367,0.008280001
,,,-0.00056366,0.008280001
,,,-0.00056365,0.009000001
,,,-0.00056364,0.008280001
,,,-0.00056363,0.009360001
,,,-0.00056362,0.009360001
,,,-0.00056361,0.008640001
,,,-0.0005636,0.007200001
,,,-0.00056359,0.009000001
,,,-0.00056358,0.009000001
,,,-0.00056357,0.008280001
,,,-0.00056356,0.009000001
,,,-0.00056355,0.007560001
,,,-0.00056354,0.007920001
,,,-0.00056353,0.009000001
,,,-0.00056352,0.007560001
,,,-0.00056351,0.008280001
,,,-0.0005635,0.009720001
,,,-0.00056349,0.009360001
,,,-0.00056348,0.006840001
,,,-0.00056347,0.009000001
,,,-0.00056346,0.007560001
,,,-0.00056345,0.009720001
,,,-0.00056344,0.006480001
,,,-0.00056343,0.007920001
,,,-0.00056342,0.008280001
,,,-0.00056341,0.008280001
,,,-0.0005634,0.007560001
,,,-0.00056339,0.008280001
,,,-0.00056338,0.008640001
,,,-0.00056337,0.008280001
,,,-0.00056336,0.009720001
,,,-0.00056335,0.008280001
,,,-0.00056334,0.008640001
,,,-0.00056333,0.009000001
,,,-0.00056332,0.007560001
,,,-0.00056331,0.008640001
,,,-0.0005633,0.007560001
,,,-0.00056329,0.007560001
,,,-0.00056328,0.008280001
,,,-0.00056327,0.007560001
,,,-0.00056326,0.008640001
,,,-0.00056325,0.008280001
,,,-0.00056324,0.007200001
,,,-0.00056323,0.007920001
,,,-0.00056322,0.009360001
,,,-0.00056321,0.007560001
,,,-0.0005632,0.009000001
,,,-0.00056319,0.007920001
,,,-0.00056318,0.007560001
,,,-0.00056317,0.007920001
,,,-0.00056316,0.009360001
,,,-0.00056315,0.008280001
,,,-0.00056314,0.008640001
,,,-0.00056313,0.007920001
,,,-0.00056312,0.009000001
,,,-0.00056311,0.009000001
,,,-0.0005631,0.008280001
,,,-0.00056309,0.007560001
,,,-0.00056308,0.007920001
,,,-0.00056307,0.007560001
,,,-0.00056306,0.006840001
,,,-0.00056305,0.007920001
,,,-0.00056304,0.008280001
,,,-0.00056303,0.008280001
,,,-0.00056302,0.007560001
,,,-0.00056301,0.006840001
,,,-0.000563,0.007200001
,,,-0.00056299,0.008640001
,,,-0.00056298,0.007200001
,,,-0.00056297,0.009000001
,,,-0.00056296,0.007920001
,,,-0.00056295,0.007920001
,,,-0.00056294,0.009000001
,,,-0.00056293,0.008280001
,,,-0.00056292,0.008280001
,,,-0.00056291,0.007560001
,,,-0.0005629,0.008640001
,,,-0.00056289,0.007920001
,,,-0.00056288,0.009720001
,,,-0.00056287,0.009360001
,,,-0.00056286,0.007920001
,,,-0.00056285,0.009000001
,,,-0.00056284,0.009000001
,,,-0.00056283,0.007200001
,,,-0.00056282,0.008640001
,,,-0.00056281,0.007920001
,,,-0.0005628,0.007560001
,,,-0.00056279,0.009000001
,,,-0.00056278,0.007920001
,,,-0.00056277,0.007560001
,,,-0.00056276,0.008280001
,,,-0.00056275,0.009360001
,,,-0.00056274,0.008280001
,,,-0.00056273,0.009360001
,,,-0.00056272,0.006840001
,,,-0.00056271,0.008280001
,,,-0.0005627,0.009000001
,,,-0.00056269,0.007560001
,,,-0.00056268,0.009000001
,,,-0.00056267,0.009000001
,,,-0.00056266,0.008640001
,,,-0.00056265,0.007920001
,,,-0.00056264,0.008280001
,,,-0.00056263,0.007200001
