data/raw/lightera_POL_calibration_traces/fast_Polarimeter_Callbration/SOP7000_Ch4.csv

"Record Length",100000,"Points",-0.0005,0.002800014
"Sample Interval",1E-08,s,-0.00049999,0.003600014
"Trigger Point",50000,"Samples",-0.00049998,0.003600014
"Trigger Time",9.15221240371466E-09,s,-0.00049997,0.003600014
"",,,-0.00049996,0.002000014
"Horizontal Offset",-0.0005,s,-0.00049995,0.002000014
,,,-0.00049994,0.002800014
,,,-0.00049993,0.003600014
,,,-0.00049992,0.002800014
,,,-0.00049991,0.003600014
,,,-0.0004999,0.002800014
,,,-0.00049989,0.002000014
,,,-0.00049988,0.003600014
,,,-0.00049987,0.002800014
,,,-0.00049986,0.002800014
,,,-0.00049985,0.002000014
,,,-0.00049984,0.002800014
,,,-0.00049983,0.003600014
,,,-0.00049982,0.004400014
,,,-0.00049981,0.003600014
,,,-0.0004998,0.004400014
,,,-0.00049979,0.004400014
,,,-0.00049978,0.002000014
,,,-0.00049977,0.003600014
,,,-0.00049976,0.002800014
,,,-0.00049975,0.003600014
,,,-0.00049974,0.002000014
,,,-0.00049973,0.002000014
,,,-0.00049972,0.002800014
,,,-0.00049971,0.002000014
,,,-0.0004997,0.003600014
,,,-0.00049969,0.003600014
,,,-0.00049968,0.004400014
,,,-0.00049967,0.002800014
,,,-0.00049966,0.003600014
,,,-0.00049965,0.002000014
,,,-0.00049964,0.002800014
,,,-0.00049963,0.006000014
,,,-0.00049962,0.002800014
,,,-0.00049961,0.002800014
,,,-0.0004996,0.004400014
,,,-0.00049959,0.002000014
,,,-0.00049958,0.002800014
,,,-0.00049957,0.003600014
,,,-0.00049956,0.002800014
,,,-0.00049955,0.002000014
,,,-0.00049954,0.003600014
,,,-0.00049953,0.006000014
,,,-0.00049952,0.004400014
,,,-0.00049951,0.001200014
,,,-0.0004995,0.003600014
,,,-0.00049949,0.003600014
,,,-0.00049948,0.002800014
,,,-0.00049947,0.003600014
,,,-0.00049946,0.002800014
,,,-0.00049945,0.004400014
,,,-0.00049944,0.005200014
,,,-0.00049943,0.002000014
,,,-0.00049942,0.002800014
,,,-0.00049941,0.004400014
,,,-0.0004994,0.002800014
,,,-0.00049939,0.005200014
,,,-0.00049938,0.003600014
,,,-0.00049937,0.002800014
,,,-0.00049936,0.005200014
,,,-0.00049935,0.004400014
,,,-0.00049934,0.002000014
,,,-0.00049933,0.002800014
,,,-0.00049932,0.002800014
,,,-0.00049931,0.003600014
,,,-0.0004993,0.002000014
,,,-0.00049929,0.002000014
,,,-0.00049928,0.002000014
,,,-0.00049927,0.004400014
,,,-0.00049926,0.002800014
,,,-0.00049925,0.004400014
,,,-0.00049924,0.002000014
,,,-0.00049923,0.003600014
,,,-0.00049922,0.005200014
,,,-0.00049921,0.002800014
,,,-0.0004992,0.004400014
,,,-0.00049919,0.004400014
,,,-0.00049918,0.002800014
,,,-0.00049917,0.002000014
,,,-0.00049916,0.001200014
,,,-0.00049915,0.003600014
,,,-0.00049914,0.002800014
,,,-0.00049913,0.004400014
,,,-0.00049912,0.002800014
,,,-0.00049911,0.002000014
,,,-0.0004991,0.001200014
,,,-0.00049909,0.002800014
,,,-0.00049908,0.004400014
,,,-0.00049907,0.002800014
,,,-0.00049906,0.002000014
,,,-0.00049905,0.004400014
,,,-0.00049904,0.002000014
,,,-0.00049903,0.001200014
,,,-0.00049902,0.004400014
,,,-0.00049901,0.001200014
,,,-0.000499,0.002800014
,,,-0.00049899,0.005200014
,,,-0.00049898,0.003600014
,,,-0.00049897,0.002800014
,,,-0.00049896,0.002800014
,,,-0.00049895,0.001200014
,,,-0.00049894,0.003600014
,,,-0.00049893,0.002000014
,,,-0.00049892,0.004400014
,,,-0.00049891,0.002800014
,,,-0.0004989,0.003600014
,,,-0.00049889,0.002000014
,,,-0.00049888,0.004400014
,,,-0.00049887,0.002000014
,,,-0.00049886,0.002800014
,,,-0.00049885,0.004400014
,,,-0.00049884,0.004400014
,,,-0.00049883,0.002000014
,,,-0.00049882,0.003600014
,,,-0.00049881,0.002000014
,,,-0.0004988,0.002000014
,,,-0.00049879,0.002800014
,,,-0.00049878,0.003600014
,,,-0.00049877,0.002000014
,,,-0.00049876,0.002800014
,,,-0.00049875,0.005200014
,,,-0.00049874,0.001200014
,,,-0.00049873,0.002800014
,,,-0.00049872,0.002800014
,,,-0.00049871,0.003600014
,,,-0.0004987,0.002800014
,,,-0.00049869,0.003600014
,,,-0.00049868,0.003600014
,,,-0.00049867,0.002800014
,,,-0.00049866,0.004400014
,,,-0.00049865,0.004400014
,,,-0.00049864,0.005200014
,,,-0.00049863,0.001200014
,,,-0.00049862,0.002800014
,,,-0.00049861,0.003600014
,,,-0.0004986,0.005200014
,,,-0.00049859,0.003600014
,,,-0.00049858,0.002000014
,,,-0.00049857,0.004400014
,,,-0.00049856,0.002000014
,,,-0.00049855,0.002000014
,,,-0.00049854,0.002800014
,,,-0.00049853,0.004400014
,,,-0.00049852,0.002800014
,,,-0.00049851,0.002800014
,,,-0.0004985,0.003600014
,,,-0.00049849,0.004400014
,,,-0.00049848,0.002800014
,,,-0.00049847,0.004400014
,,,-0.00049846,0.002800014
,,,-0.00049845,0.001200014
,,,-0.00049844,0.005200014
,,,-0.00049843,0.002000014
,,,-0.00049842,0.002800014
,,,-0.00049841,0.002800014
,,,-0.0004984,0.000400014
,,,-0.00049839,0.003600014
,,,-0.00049838,0.002000014
,,,-0.00049837,0.002000014
,,,-0.00049836,0.000400014
,,,-0.00049835,0.002800014
,,,-0.00049834,0.002800014
,,,-0.00049833,0.003600014
,,,-0.00049832,0.001200014
,,,-0.00049831,0.003600014
,,,-0.0004983,0.004400014
,,,-0.00049829,0.003600014
,,,-0.00049828,0.003600014
,,,-0.00049827,0.003600014
,,,-0.00049826,0.002000014
,,,-0.00049825,0.004400014
,,,-0.00049824,0.004400014
,,,-0.00049823,0.002800014
,,,-0.00049822,0.000400014
,,,-0.00049821,0.001200014
,,,-0.0004982,0.002800014
,,,-0.00049819,0.006000014
,,,-0.00049818,0.002800014
,,,-0.00049817,0.002000014
,,,-0.00049816,0.003600014
,,,-0.00049815,0.002000014
,,,-0.00049814,0.004400014
,,,-0.00049813,0.003600014
,,,-0.00049812,0.002800014
,,,-0.00049811,0.003600014
,,,-0.0004981,0.002800014
,,,-0.00049809,0.004400014
,,,-0.00049808,0.002800014
,,,-0.00049807,0.001200014
,,,-0.00049806,0.003600014
,,,-0.00049805,0.004400014
,,,-0.00049804,0.003600014
,,,-0.00049803,0.004400014
,,,-0.00049802,0.002800014
,,,-0.00049801,0.001200014
,,,-0.000498,0.002000014
,,,-0.00049799,0.002000014
,,,-0.00049798,0.002000014
,,,-0.00049797,0.002800014
,,,-0.00049796,0.003600014
,,,-0.00049795,0.004400014
,,,-0.00049794,0.000400014
,,,-0.00049793,0.004400014
,,,-0.00049792,0.003600014
,,,-0.00049791,0.005200014
,,,-0.0004979,0.004400014
,,,-0.00049789,0.002800014
,,,-0.00049788,0.002800014
,,,-0.00049787,0.001200014
,,,-0.00049786,0.002800014
,,,-0.00049785,0.003600014
,,,-0.00049784,0.002800014
,,,-0.00049783,0.003600014
,,,-0.00049782,0.002800014
,,,-0.00049781,0.002000014
,,,-0.0004978,0.005200014
,,,-0.00049779,0.000400014
,,,-0.00049778,0.002800014
,,,-0.00049777,0.002800014
,,,-0.00049776,0.004400014
,,,-0.00049775,0.004400014
,,,-0.00049774,0.002800014
,,,-0.00049773,0.001200014
,,,-0.00049772,0.002000014
,,,-0.00049771,0.002000014
,,,-0.0004977,0.002000014
,,,-0.00049769,0.002000014
,,,-0.00049768,0.003600014
,,,-0.00049767,0.002800014
,,,-0.00049766,0.003600014
,,,-0.00049765,0.004400014
,,,-0.00049764,0.002800014
,,,-0.00049763,0.003600014
,,,-0.00049762,0.004400014
,,,-0.00049761,0.002800014
,,,-0.0004976,0.003600014
,,,-0.00049759,0.003600014
,,,-0.00049758,0.002000014
,,,-0.00049757,0.003600014
,,,-0.00049756,0.002000014
,,,-0.00049755,0.004400014
,,,-0.00049754,0.003600014
,,,-0.00049753,0.003600014
,,,-0.00049752,0.002000014
,,,-0.00049751,0.002800014
,,,-0.0004975,0.003600014
,,,-0.00049749,0.003600014
,,,-0.00049748,0.002800014
,,,-0.00049747,0.003600014
,,,-0.00049746,0.002800014
,,,-0.00049745,0.005200014
,,,-0.00049744,0.004400014
,,,-0.00049743,0.002800014
,,,-0.00049742,0.002000014
,,,-0.00049741,0.002000014
,,,-0.0004974,0.002800014
,,,-0.00049739,0.003600014
,,,-0.00049738,0.004400014
,,,-0.00049737,0.005200014
,,,-0.00049736,0.002000014
,,,-0.00049735,0.002000014
,,,-0.00049734,0.003600014
,,,-0.00049733,0.002000014
,,,-0.00049732,0.004400014
,,,-0.00049731,0.002000014
,,,-0.0004973,0.003600014
,,,-0.00049729,0.002800014
,,,-0.00049728,0.002800014
,,,-0.00049727,0.002000014
,,,-0.00049726,0.002000014
,,,-0.00049725,0.003600014
,,,-0.00049724,0.004400014
,,,-0.00049723,0.002000014
,,,-0.00049722,0.002000014
,,,-0.00049721,0.002800014
,,,-0.0004972,0.003600014
,,,-0.00049719,0.004400014
,,,-0.00049718,0.002000014
,,,-0.00049717,0.002800014
,,,-0.00049716,0.004400014
,,,-0.00049715,0.003600014
,,,-0.00049714,0.002800014
,,,-0.00049713,0.003600014
,,,-0.00049712,0.004400014
,,,-0.00049711,0.001200014
,,,-0.0004971,0.002800014
,,,-0.00049709,0.003600014
,,,-0.00049708,0.004400014
,,,-0.00049707,0.002800014
,,,-0.00049706,0.004400014
,,,-0.00049705,0.001200014
,,,-0.00049704,0.002800014
,,,-0.00049703,0.003600014
,,,-0.00049702,0.002800014
,,,-0.00049701,0.002800014
,,,-0.000497,0.002000014
,,,-0.00049699,0.002000014
,,,-0.00049698,0.004400014
,,,-0.00049697,0.002000014
,,,-0.00049696,0.005200014
,,,-0.00049695,0.005200014
,,,-0.00049694,0.002000014
,,,-0.00049693,0.002000014
,,,-0.00049692,0.002800014
,,,-0.00049691,0.004400014
,,,-0.0004969,0.002800014
,,,-0.00049689,0.002000014
,,,-0.00049688,0.000400014
,,,-0.00049687,0.003600014
,,,-0.00049686,0.003600014
,,,-0.00049685,0.003600014
,,,-0.00049684,0.003600014
,,,-0.00049683,0.001200014
,,,-0.00049682,0.003600014
,,,-0.00049681,0.004400014
,,,-0.0004968,0.002000014
,,,-0.00049679,0.003600014
,,,-0.00049678,0.003600014
,,,-0.00049677,0.002000014
,,,-0.00049676,0.002000014
,,,-0.00049675,0.002800014
,,,-0.00049674,0.005200014
,,,-0.00049673,0.002000014
,,,-0.00049672,0.003600014
,,,-0.00049671,0.002800014
,,,-0.0004967,0.006800014
,,,-0.00049669,0.003600014
,,,-0.00049668,0.001200014
,,,-0.00049667,0.002000014
,,,-0.00049666,0.002800014
,,,-0.00049665,0.002000014
,,,-0.00049664,0.002000014
,,,-0.00049663,0.003600014
,,,-0.00049662,0.003600014
,,,-0.00049661,0.001200014
,,,-0.0004966,0.002800014
,,,-0.00049659,0.004400014
,,,-0.00049658,0.002000014
,,,-0.00049657,0.001200014
,,,-0.00049656,0.002000014
,,,-0.00049655,0.002000014
,,,-0.00049654,0.002000014
,,,-0.00049653,0.002000014
,,,-0.00049652,0.003600014
,,,-0.00049651,0.003600014
,,,-0.0004965,0.004400014
,,,-0.00049649,0.003600014
,,,-0.00049648,0.002000014
,,,-0.00049647,0.002000014
,,,-0.00049646,0.002800014
,,,-0.00049645,0.004400014
,,,-0.00049644,0.002000014
,,,-0.00049643,0.004400014
,,,-0.00049642,0.002800014
,,,-0.00049641,0.004400014
,,,-0.0004964,0.003600014
,,,-0.00049639,0.003600014
,,,-0.00049638,0.004400014
,,,-0.00049637,0.003600014
,,,-0.00049636,0.002800014
,,,-0.00049635,0.002000014
,,,-0.00049634,0.004400014
,,,-0.00049633,0.002000014
,,,-0.00049632,0.003600014
,,,-0.00049631,0.002800014
,,,-0.0004963,0.002000014
,,,-0.00049629,0.002000014
,,,-0.00049628,0.002800014
,,,-0.00049627,0.002800014
,,,-0.00049626,0.002000014
,,,-0.00049625,0.002000014
,,,-0.00049624,0.003600014
,,,-0.00049623,0.001200014
,,,-0.00049622,0.002000014
,,,-0.00049621,0.002800014
,,,-0.0004962,0.001200014
,,,-0.00049619,0.004400014
,,,-0.00049618,0.003600014
,,,-0.00049617,0.002800014
,,,-0.00049616,0.002000014
,,,-0.00049615,0.002800014
,,,-0.00049614,0.003600014
,,,-0.00049613,0.003600014
,,,-0.00049612,0.002800014
,,,-0.00049611,0.002800014
,,,-0.0004961,0.004400014
,,,-0.00049609,0.004400014
,,,-0.00049608,0.004400014
,,,-0.00049607,0.003600014
,,,-0.00049606,0.001200014
,,,-0.00049605,0.004400014
,,,-0.00049604,0.003600014
,,,-0.00049603,0.001200014
,,,-0.00049602,0.002000014
,,,-0.00049601,0.002000014
,,,-0.000496,0.002800014
,,,-0.00049599,0.003600014
,,,-0.00049598,0.002800014
,,,-0.00049597,0.002800014
,,,-0.00049596,0.002800014
,,,-0.00049595,0.003600014
,,,-0.00049594,0.004400014
,,,-0.00049593,0.004400014
,,,-0.00049592,0.002800014
,,,-0.00049591,0.004400014
,,,-0.0004959,0.002800014
,,,-0.00049589,0.004400014
,,,-0.00049588,0.002000014
,,,-0.00049587,0.002800014
,,,-0.00049586,0.004400014
,,,-0.00049585,0.004400014
,,,-0.00049584,0.002000014
,,,-0.00049583,0.002800014
,,,-0.00049582,0.002000014
,,,-0.00049581,0.002000014
,,,-0.0004958,0.004400014
,,,-0.00049579,0.003600014
,,,-0.00049578,0.002800014
,,,-0.00049577,0.002000014
,,,-0.00049576,0.005200014
,,,-0.00049575,0.003600014
,,,-0.00049574,0.004400014
,,,-0.00049573,0.003600014
,,,-0.00049572,0.002800014
,,,-0.00049571,0.004400014
,,,-0.0004957,0.002000014
,,,-0.00049569,0.002800014
,,,-0.00049568,0.002800014
,,,-0.00049567,0.004400014
,,,-0.00049566,0.002000014
,,,-0.00049565,0.002800014
,,,-0.00049564,0.002800014
,,,-0.00049563,0.001200014
,,,-0.00049562,0.004400014
,,,-0.00049561,0.003600014
,,,-0.0004956,0.002800014
,,,-0.00049559,0.001200014
,,,-0.00049558,0.003600014
,,,-0.00049557,0.003600014
,,,-0.00049556,0.002000014
,,,-0.00049555,0.004400014
,,,-0.00049554,0.002800014
,,,-0.00049553,0.005200014
,,,-0.00049552,0.002800014
,,,-0.00049551,0.002800014
,,,-0.0004955,0.003600014
,,,-0.00049549,0.002800014
,,,-0.00049548,0.001200014
,,,-0.00049547,0.004400014
,,,-0.00049546,0.001200014
,,,-0.00049545,0.002000014
,,,-0.00049544,0.003600014
,,,-0.00049543,0.003600014
,,,-0.00049542,0.002800014
,,,-0.00049541,0.002000014
,,,-0.0004954,0.002800014
,,,-0.00049539,0.003600014
,,,-0.00049538,0.003600014
,,,-0.00049537,0.003600014
,,,-0.00049536,0.002000014
,,,-0.00049535,0.002000014
,,,-0.00049534,0.002800014
,,,-0.00049533,0.002800014
,,,-0.00049532,0.002800014
,,,-0.00049531,0.002000014
,,,-0.0004953,0.002000014
,,,-0.00049529,0.002000014
,,,-0.00049528,0.004400014
,,,-0.00049527,0.002800014
,,,-0.00049526,0.004400014
,,,-0.00049525,0.002800014
,,,-0.00049524,0.002000014
,,,-0.00049523,0.002800014
,,,-0.00049522,0.003600014
,,,-0.00049521,0.003600014
,,,-0.0004952,0.003600014
,,,-0.00049519,0.002000014
,,,-0.00049518,0.002800014
,,,-0.00049517,0.002800014
,,,-0.00049516,0.003600014
,,,-0.00049515,0.002000014
,,,-0.00049514,0.003600014
,,,-0.00049513,0.001200014
,,,-0.00049512,0.003600014
,,,-0.00049511,0.002000014
,,,-0.0004951,0.003600014
,,,-0.00049509,0.002000014
,,,-0.00049508,0.003600014
,,,-0.00049507,0.003600014
,,,-0.00049506,0.002000014
,,,-0.00049505,0.003600014
,,,-0.00049504,0.001200014
,,,-0.00049503,0.004400014
,,,-0.00049502,0.006000014
,,,-0.00049501,0.002800014
,,,-0.000495,0.002800014
,,,-0.00049499,0.003600014
,,,-0.00049498,0.004400014
,,,-0.00049497,0.004400014
,,,-0.00049496,0.002800014
,,,-0.00049495,0.005200014
,,,-0.00049494,0.004400014
,,,-0.00049493,0.002800014
,,,-0.00049492,0.006000014
,,,-0.00049491,0.004400014
,,,-0.0004949,0.002000014
,,,-0.00049489,0.003600014
,,,-0.00049488,0.002000014
,,,-0.00049487,0.002800014
,,,-0.00049486,0.001200014
,,,-0.00049485,0.002800014
,,,-0.00049484,0.003600014
,,,-0.00049483,0.003600014
,,,-0.00049482,0.002000014
,,,-0.00049481,0.002000014
,,,-0.0004948,0.003600014
,,,-0.00049479,0.002800014
,,,-0.00049478,0.002800014
,,,-0.00049477,0.003600014
,,,-0.00049476,0.004400014
,,,-0.00049475,0.002000014
,,,-0.00049474,0.005200014
,,,-0.00049473,0.003600014
,,,-0.00049472,0.003600014
,,,-0.00049471,0.004400014
,,,-0.0004947,0.004400014
,,,-0.00049469,0.002000014
,,,-0.00049468,0.004400014
,,,-0.00049467,0.004400014
,,,-0.00049466,0.001200014
,,,-0.00049465,0.002800014
,,,-0.00049464,0.002800014
,,,-0.00049463,0.002000014
,,,-0.00049462,0.004400014
,,,-0.00049461,0.004400014
,,,-0.0004946,0.002000014
,,,-0.00049459,0.003600014
,,,-0.00049458,0.001200014
,,,-0.00049457,0.003600014
,,,-0.00049456,0.002800014
,,,-0.00049455,0.004400014
,,,-0.00049454,0.003600014
,,,-0.00049453,0.002800014
,,,-0.00049452,0.002800014
,,,-0.00049451,0.003600014
,,,-0.0004945,0.003600014
,,,-0.00049449,0.002800014
,,,-0.00049448,0.002000014
,,,-0.00049447,0.003600014
,,,-0.00049446,0.002800014
,,,-0.00049445,0.004400014
,,,-0.00049444,0.002800014
,,,-0.00049443,0.002000014
,,,-0.00049442,0.001200014
,,,-0.00049441,0.004400014
,,,-0.0004944,0.002800014
,,,-0.00049439,0.002000014
,,,-0.00049438,0.002800014
,,,-0.00049437,0.001200014
,,,-0.00049436,0.004400014
,,,-0.00049435,0.002800014
,,,-0.00049434,0.004400014
,,,-0.00049433,0.002000014
,,,-0.00049432,0.002800014
,,,-0.00049431,0.003600014
,,,-0.0004943,0.003600014
,,,-0.00049429,0.002000014
,,,-0.00049428,0.002800014
,,,-0.00049427,0.002800014
,,,-0.00049426,0.003600014
,,,-0.00049425,0.002800014
,,,-0.00049424,0.002800014
,,,-0.00049423,0.002000014
,,,-0.00049422,0.003600014
,,,-0.00049421,0.002800014
,,,-0.0004942,0.003600014
,,,-0.00049419,0.001200014
,,,-0.00049418,0.002000014
,,,-0.00049417,0.002800014
,,,-0.00049416,0.003600014
,,,-0.00049415,0.002800014
,,,-0.00049414,0.004400014
,,,-0.00049413,0.001200014
,,,-0.00049412,0.001200014
,,,-0.00049411,0.004400014
,,,-0.0004941,0.004400014
,,,-0.00049409,0.003600014
,,,-0.00049408,0.003600014
,,,-0.00049407,0.004400014
,,,-0.00049406,0.004400014
,,,-0.00049405,0.005200014
,,,-0.00049404,0.004400014
,,,-0.00049403,0.002800014
,,,-0.00049402,0.004400014
,,,-0.00049401,0.004400014
,,,-0.000494,0.003600014
,,,-0.00049399,0.002800014
,,,-0.00049398,0.002800014
,,,-0.00049397,0.002000014
,,,-0.00049396,0.002800014
,,,-0.00049395,0.002000014
,,,-0.00049394,0.001200014
,,,-0.00049393,0.002000014
,,,-0.00049392,0.003600014
,,,-0.00049391,0.000400014
,,,-0.0004939,0.004400014
,,,-0.00049389,0.004400014
,,,-0.00049388,0.004400014
,,,-0.00049387,0.002800014
,,,-0.00049386,0.004400014
,,,-0.00049385,0.002000014
,,,-0.00049384,0.003600014
,,,-0.00049383,0.004400014
,,,-0.00049382,0.004400014
,,,-0.00049381,0.002000014
,,,-0.0004938,0.003600014
,,,-0.00049379,0.002800014
,,,-0.00049378,0.003600014
,,,-0.00049377,0.002000014
,,,-0.00049376,0.002800014
,,,-0.00049375,0.002800014
,,,-0.00049374,0.002000014
,,,-0.00049373,0.002000014
,,,-0.00049372,0.003600014
,,,-0.00049371,0.002800014
,,,-0.0004937,0.002800014
,,,-0.00049369,0.002000014
,,,-0.00049368,0.005200014
,,,-0.00049367,0.002800014
,,,-0.00049366,0.002800014
,,,-0.00049365,0.002800014
,,,-0.00049364,0.003600014
,,,-0.00049363,0.003600014
,,,-0.00049362,0.002800014
,,,-0.00049361,0.003600014
,,,-0.0004936,0.003600014
,,,-0.00049359,0.004400014
,,,-0.00049358,0.004400014
,,,-0.00049357,0.002800014
,,,-0.00049356,0.002000014
,,,-0.00049355,0.003600014
,,,-0.00049354,0.004400014
,,,-0.00049353,0.002000014
,,,-0.00049352,0.001200014
,,,-0.00049351,0.001200014
,,,-0.0004935,0.002800014
,,,-0.00049349,0.004400014
,,,-0.00049348,0.002800014
,,,-0.00049347,0.001200014
,,,-0.00049346,0.004400014
,,,-0.00049345,0.003600014
,,,-0.00049344,0.002000014
,,,-0.00049343,0.001200014
,,,-0.00049342,0.002800014
,,,-0.00049341,0.002000014
,,,-0.0004934,0.004400014
,,,-0.00049339,0.001200014
,,,-0.00049338,0.002000014
,,,-0.00049337,0.002800014
,,,-0.00049336,0.003600014
,,,-0.00049335,0.002000014
,,,-0.00049334,0.002800014
,,,-0.00049333,0.004400014
,,,-0.00049332,0.003600014
,,,-0.00049331,0.002000014
,,,-0.0004933,0.003600014
,,,-0.00049329,0.003600014
,,,-0.00049328,0.005200014
,,,-0.00049327,0.003600014
,,,-0.00049326,0.004400014
,,,-0.00049325,0.005200014
,,,-0.00049324,0.002800014
,,,-0.00049323,0.004400014
,,,-0.00049322,0.003600014
,,,-0.00049321,0.002800014
,,,-0.0004932,0.002800014
,,,-0.00049319,0.002800014
,,,-0.00049318,0.004400014
,,,-0.00049317,0.003600014
,,,-0.00049316,0.004400014
,,,-0.00049315,0.002000014
,,,-0.00049314,0.002800014
,,,-0.00049313,0.002000014
,,,-0.00049312,0.004400014
,,,-0.00049311,0.001200014
,,,-0.0004931,0.004400014
,,,-0.00049309,0.004400014
,,,-0.00049308,0.005200014
,,,-0.00049307,0.005200014
,,,-0.00049306,0.002800014
,,,-0.00049305,0.004400014
,,,-0.00049304,0.002800014
,,,-0.00049303,0.002000014
,,,-0.00049302,0.002000014
,,,-0.00049301,0.002800014
,,,-0.000493,0.001200014
,,,-0.00049299,0.003600014
,,,-0.00049298,0.002800014
,,,-0.00049297,0.003600014
,,,-0.00049296,0.002800014
,,,-0.00049295,0.002800014
,,,-0.00049294,0.004400014
,,,-0.00049293,0.002000014
,,,-0.00049292,0.003600014
,,,-0.00049291,0.003600014
,,,-0.0004929,0.002800014
,,,-0.00049289,0.002800014
,,,-0.00049288,0.003600014
,,,-0.00049287,0.003600014
,,,-0.00049286,0.005200014
,,,-0.00049285,0.004400014
,,,-0.00049284,0.002000014
,,,-0.00049283,0.002800014
,,,-0.00049282,0.002800014
,,,-0.00049281,0.003600014
,,,-0.0004928,0.004400014
,,,-0.00049279,0.003600014
,,,-0.00049278,0.003600014
,,,-0.00049277,0.002800014
,,,-0.00049276,0.002000014
,,,-0.00049275,0.002800014
,,,-0.00049274,0.002000014
,,,-0.00049273,0.002000014
,,,-0.00049272,0.003600014
,,,-0.00049271,0.002800014
,,,-0.0004927,0.002800014
,,,-0.00049269,0.002800014
,,,-0.00049268,0.003600014
,,,-0.00049267,0.002800014
,,,-0.00049266,0.004400014
,,,-0.00049265,0.003600014
,,,-0.00049264,0.003600014
,,,-0.00049263,0.002800014
