data/REFERENCED_CALIBRATION/SOP003_Ch1.csv

"Record Length",10000,"Points",-0.01004,-0.00392
"Sample Interval",2E-06,s,-0.010038,-0.00168
"Trigger Point",5020,"Samples",-0.010036,-0.00308
"Trigger Time",1.50903571240633E-06,s,-0.010034,-0.0014
"",,,-0.010032,-0.00364
"Horizontal Offset",-0.01004,s,-0.01003,-0.00252
,,,-0.010028,-0.00448
,,,-0.010026,-0.00196
,,,-0.010024,-0.00168
,,,-0.010022,-0.00252
,,,-0.01002,-0.00112
,,,-0.010018,-0.0028
,,,-0.010016,-0.00252
,,,-0.010014,-0.00252
,,,-0.010012,-0.00224
,,,-0.01001,-0.00504
,,,-0.010008,-0.00252
,,,-0.010006,-0.00336
,,,-0.010004,-0.0028
,,,-0.010002,-0.00336
,,,-0.01,-0.0014
,,,-0.009998,-0.00252
,,,-0.009996,-0.00252
,,,-0.009994,-0.00252
,,,-0.009992,-0.00392
,,,-0.00999,-0.00196
,,,-0.009988,-0.00336
,,,-0.009986,-0.0042
,,,-0.009984,-0.00308
,,,-0.009982,-0.00168
,,,-0.00998,-0.00364
,,,-0.009978,-0.00308
,,,-0.009976,-0.0042
,,,-0.009974,-0.00308
,,,-0.009972,-0.0028
,,,-0.00997,-0.00252
,,,-0.009968,-0.00252
,,,-0.009966,-0.00504
,,,-0.009964,-0.00168
,,,-0.009962,-0.00448
,,,-0.00996,-0.00364
,,,-0.009958,-0.00168
,,,-0.009956,-0.00336
,,,-0.009954,-0.0014
,,,-0.009952,-0.00224
,,,-0.00995,-0.00364
,,,-0.009948,-0.00168
,,,-0.009946,-0.00364
,,,-0.009944,-0.00252
,,,-0.009942,-0.00308
,,,-0.00994,-0.00196
,,,-0.009938,-0.00252
,,,-0.009936,-0.00336
,,,-0.009934,-0.00392
,,,-0.009932,-0.00504
,,,-0.00993,-0.00252
,,,-0.009928,-0.00364
,,,-0.009926,-0.00336
,,,-0.009924,-0.00056
,,,-0.009922,-0.0056
,,,-0.00992,-0.00364
,,,-0.009918,-0.00196
,,,-0.009916,-0.0042
,,,-0.009914,-0.00336
,,,-0.009912,-0.00224
,,,-0.00991,-0.0042
,,,-0.009908,-0.00308
,,,-0.009906,-0.0042
,,,-0.009904,-0.00392
,,,-0.009902,-0.00392
,,,-0.0099,-0.00364
,,,-0.009898,-0.00252
,,,-0.009896,-0.0028
,,,-0.009894,-0.00336
,,,-0.009892,-0.0028
,,,-0.00989,-0.0042
,,,-0.009888,-0.00308
,,,-0.009886,-0.00252
,,,-0.009884,-0.00252
,,,-0.009882,-0.00224
,,,-0.00988,-0.00196
,,,-0.009878,-0.00252
,,,-0.009876,-0.00252
,,,-0.009874,-0.00308
,,,-0.009872,-0.00392
,,,-0.00987,-0.00252
,,,-0.009868,-0.00336
,,,-0.009866,-0.00336
,,,-0.009864,-0.00084
,,,-0.009862,-0.00252
,,,-0.00986,-0.00196
,,,-0.009858,-0.00476
,,,-0.009856,-0.00252
,,,-0.009854,-0.00448
,,,-0.009852,-0.0028
,,,-0.00985,-0.00392
,,,-0.009848,-0.00336
,,,-0.009846,-0.00252
,,,-0.009844,-0.00336
,,,-0.009842,-0.00196
,,,-0.00984,-0.00252
,,,-0.009838,-0.00196
,,,-0.009836,-0.00252
,,,-0.009834,-0.00448
,,,-0.009832,-0.00308
,,,-0.00983,-0.00252
,,,-0.009828,-0.00336
,,,-0.009826,-0.00084
,,,-0.009824,-0.00224
,,,-0.009822,-0.00196
,,,-0.00982,-0.00336
,,,-0.009818,-0.00028
,,,-0.009816,-0.00252
,,,-0.009814,-0.0014
,,,-0.009812,-0.00252
,,,-0.00981,-0.00196
,,,-0.009808,-0.00252
,,,-0.009806,-0.0042
,,,-0.009804,-0.0014
,,,-0.009802,-0.00392
,,,-0.0098,-0.00252
,,,-0.009798,-0.00224
,,,-0.009796,-0.0014
,,,-0.009794,-0.00308
,,,-0.009792,-0.0014
,,,-0.00979,-0.00224
,,,-0.009788,-0.00168
,,,-0.009786,-0.00392
,,,-0.009784,-0.00308
,,,-0.009782,-0.00252
,,,-0.00978,-0.00252
,,,-0.009778,-0.00224
,,,-0.009776,-0.0042
,,,-0.009774,-0.0028
,,,-0.009772,-0.00336
,,,-0.00977,-0.00112
,,,-0.009768,-0.00392
,,,-0.009766,-0.0014
,,,-0.009764,-0.00168
,,,-0.009762,-0.00336
,,,-0.00976,-0.00168
,,,-0.009758,-0.00448
,,,-0.009756,-0.00308
,,,-0.009754,-0.00336
,,,-0.009752,-0.00224
,,,-0.00975,-0.00224
,,,-0.009748,-0.00252
,,,-0.009746,-0.00336
,,,-0.009744,-0.00448
,,,-0.009742,-0.00336
,,,-0.00974,-0.00336
,,,-0.009738,-0.00168
,,,-0.009736,-0.00308
,,,-0.009734,-0.0042
,,,-0.009732,-0.00336
,,,-0.00973,-0.00196
,,,-0.009728,-0.00196
,,,-0.009726,-0.00308
,,,-0.009724,-0.00336
,,,-0.009722,-0.00308
,,,-0.00972,-0.00168
,,,-0.009718,-0.00392
,,,-0.009716,-0.00364
,,,-0.009714,-0.00224
,,,-0.009712,-0.0014
,,,-0.00971,-0.00308
,,,-0.009708,-0.00168
,,,-0.009706,-0.0042
,,,-0.009704,-0.00392
,,,-0.009702,-0.00336
,,,-0.0097,-0.00308
,,,-0.009698,-0.00112
,,,-0.009696,-0.00336
,,,-0.009694,-0.00308
,,,-0.009692,-0.0028
,,,-0.00969,-0.0042
,,,-0.009688,-0.0042
,,,-0.009686,-0.00196
,,,-0.009684,-0.0042
,,,-0.009682,-0.0014
,,,-0.00968,-0.0028
,,,-0.009678,-0.00392
,,,-0.009676,-0.0014
,,,-0.009674,-0.00336
,,,-0.009672,-0.00168
,,,-0.00967,-0.00336
,,,-0.009668,-0.00392
,,,-0.009666,-0.00168
,,,-0.009664,-0.00224
,,,-0.009662,-0.00308
,,,-0.00966,-0.00196
,,,-0.009658,-0.00308
,,,-0.009656,-0.00364
,,,-0.009654,-0.0028
,,,-0.009652,-0.00336
,,,-0.00965,-0.00196
,,,-0.009648,-0.0028
,,,-0.009646,-0.0014
,,,-0.009644,-0.00168
,,,-0.009642,-0.00336
,,,-0.00964,-0.00336
,,,-0.009638,-0.00308
,,,-0.009636,-0.00364
,,,-0.009634,-0.00224
,,,-0.009632,-0.00308
,,,-0.00963,-0.00336
,,,-0.009628,-0.00392
,,,-0.009626,-0.00168
,,,-0.009624,-0.0042
,,,-0.009622,-0.00364
,,,-0.00962,-0.00448
,,,-0.009618,-0.00336
,,,-0.009616,-0.00196
,,,-0.009614,-0.00364
,,,-0.009612,-0.00448
,,,-0.00961,-0.00336
,,,-0.009608,-0.00224
,,,-0.009606,-0.00168
,,,-0.009604,-0.00364
,,,-0.009602,-0.00308
,,,-0.0096,-0.00224
,,,-0.009598,-0.00308
,,,-0.009596,-0.00336
,,,-0.009594,-0.0028
,,,-0.009592,-0.00224
,,,-0.00959,-0.0028
,,,-0.009588,-0.00252
,,,-0.009586,-0.00168
,,,-0.009584,-0.00224
,,,-0.009582,-0.00336
,,,-0.00958,-0.00364
,,,-0.009578,-0.00168
,,,-0.009576,-0.00364
,,,-0.009574,-0.00364
,,,-0.009572,-0.00448
,,,-0.00957,-0.00336
,,,-0.009568,-0.00476
,,,-0.009566,-0.0042
,,,-0.009564,-0.0042
,,,-0.009562,-0.0028
,,,-0.00956,-0.00308
,,,-0.009558,-0.0056
,,,-0.009556,-0.00364
,,,-0.009554,-0.00252
,,,-0.009552,-0.00168
,,,-0.00955,-0.00196
,,,-0.009548,-0.00308
,,,-0.009546,-0.00252
,,,-0.009544,-0.00308
,,,-0.009542,-0.00364
,,,-0.00954,-0.00224
,,,-0.009538,-0.0042
,,,-0.009536,-0.00336
,,,-0.009534,-0.0028
,,,-0.009532,-0.00168
,,,-0.00953,-0.00336
,,,-0.009528,-0.00168
,,,-0.009526,-0.00308
,,,-0.009524,-0.00196
,,,-0.009522,-0.00308
,,,-0.00952,-0.00336
,,,-0.009518,-0.00336
,,,-0.009516,-0.00364
,,,-0.009514,-0.00196
,,,-0.009512,-0.00308
,,,-0.00951,-0.00364
,,,-0.009508,-0.00224
,,,-0.009506,-0.00336
,,,-0.009504,-0.00308
,,,-0.009502,-0.00336
,,,-0.0095,-0.00392
,,,-0.009498,-0.00308
,,,-0.009496,-0.0042
,,,-0.009494,-0.00364
,,,-0.009492,-0.00448
,,,-0.00949,-0.0042
,,,-0.009488,-0.00308
,,,-0.009486,-0.00168
,,,-0.009484,-0.00308
,,,-0.009482,-0.00168
,,,-0.00948,-0.00224
,,,-0.009478,-0.0042
,,,-0.009476,-0.00336
,,,-0.009474,-0.00364
,,,-0.009472,-0.00252
,,,-0.00947,-0.00308
,,,-0.009468,-0.00224
,,,-0.009466,-0.0028
,,,-0.009464,-0.00168
,,,-0.009462,-0.00252
,,,-0.00946,-0.00224
,,,-0.009458,-0.00364
,,,-0.009456,-0.0028
,,,-0.009454,-0.00196
,,,-0.009452,-0.00224
,,,-0.00945,-0.00168
,,,-0.009448,-0.00308
,,,-0.009446,-0.00252
,,,-0.009444,-0.00308
,,,-0.009442,-0.00336
,,,-0.00944,-0.00392
,,,-0.009438,-0.00336
,,,-0.009436,-0.00196
,,,-0.009434,-0.00252
,,,-0.009432,-0.00168
,,,-0.00943,-0.00336
,,,-0.009428,-0.00168
,,,-0.009426,-0.00224
,,,-0.009424,-0.00392
,,,-0.009422,-0.0042
,,,-0.00942,-0.00336
,,,-0.009418,-0.00392
,,,-0.009416,-0.00308
,,,-0.009414,-0.00084
,,,-0.009412,-0.00168
,,,-0.00941,-0.00336
,,,-0.009408,-0.0042
,,,-0.009406,-0.00196
,,,-0.009404,-0.00252
,,,-0.009402,-0.00336
,,,-0.0094,-0.0028
,,,-0.009398,-0.00504
,,,-0.009396,-0.00392
,,,-0.009394,-0.00308
,,,-0.009392,-0.00308
,,,-0.00939,-0.00336
,,,-0.009388,-0.00252
,,,-0.009386,-0.00168
,,,-0.009384,-0.00364
,,,-0.009382,-0.00336
,,,-0.00938,-0.00196
,,,-0.009378,-0.00364
,,,-0.009376,-0.00224
,,,-0.009374,-0.00112
,,,-0.009372,-0.00308
,,,-0.00937,-0.00336
,,,-0.009368,-0.00308
,,,-0.009366,-0.00308
,,,-0.009364,-0.00336
,,,-0.009362,-0.00392
,,,-0.00936,-0.00224
,,,-0.009358,-0.00224
,,,-0.009356,-0.00308
,,,-0.009354,-0.00364
,,,-0.009352,-0.00336
,,,-0.00935,-0.00252
,,,-0.009348,-0.0042
,,,-0.009346,-0.00224
,,,-0.009344,-0.00252
,,,-0.009342,-0.00448
,,,-0.00934,-0.0014
,,,-0.009338,-0.00252
,,,-0.009336,-0.00448
,,,-0.009334,-0.00252
,,,-0.009332,-0.0042
,,,-0.00933,-0.00168
,,,-0.009328,-0.00308
,,,-0.009326,-0.00308
,,,-0.009324,-0.00168
,,,-0.009322,-0.00392
,,,-0.00932,-0.0042
,,,-0.009318,-0.00308
,,,-0.009316,-0.00336
,,,-0.009314,-0.00308
,,,-0.009312,-0.0028
,,,-0.00931,-0.00504
,,,-0.009308,-0.00168
,,,-0.009306,-0.00196
,,,-0.009304,-0.00336
,,,-0.009302,-0.0014
,,,-0.0093,-0.00336
,,,-0.009298,-0.00252
,,,-0.009296,-0.00308
,,,-0.009294,-0.00084
,,,-0.009292,-0.00364
,,,-0.00929,-0.00392
,,,-0.009288,-0.0028
,,,-0.009286,-0.00224
,,,-0.009284,-0.00364
,,,-0.009282,-0.00336
,,,-0.00928,-0.00336
,,,-0.009278,-0.0028
,,,-0.009276,-0.00196
,,,-0.009274,-0.00252
,,,-0.009272,-0.0014
,,,-0.00927,-0.0028
,,,-0.009268,-0.0028
,,,-0.009266,-0.00168
,,,-0.009264,-0.0028
,,,-0.009262,-0.00364
,,,-0.00926,-0.00168
,,,-0.009258,-0.00168
,,,-0.009256,-0.0028
,,,-0.009254,-0.00224
,,,-0.009252,-0.00308
,,,-0.00925,-0.00308
,,,-0.009248,-0.00168
,,,-0.009246,-0.00308
,,,-0.009244,-0.00168
,,,-0.009242,-0.00336
,,,-0.00924,-0.00308
,,,-0.009238,-0.00224
,,,-0.009236,-0.00084
,,,-0.009234,-0.0028
,,,-0.009232,-0.00364
,,,-0.00923,-0.0042
,,,-0.009228,-0.00308
,,,-0.009226,-0.00336
,,,-0.009224,-0.00224
,,,-0.009222,-0.00196
,,,-0.00922,-0.00364
,,,-0.009218,-0.00504
,,,-0.009216,-0.00532
,,,-0.009214,-0.00196
,,,-0.009212,-0.00168
,,,-0.00921,-0.0014
,,,-0.009208,-0.0028
,,,-0.009206,-0.00336
,,,-0.009204,-0.0028
,,,-0.009202,-0.00364
,,,-0.0092,-0.0042
,,,-0.009198,-0.00364
,,,-0.009196,-0.00336
,,,-0.009194,-0.00252
,,,-0.009192,-0.00448
,,,-0.00919,-0.00168
,,,-0.009188,-0.00252
,,,-0.009186,-0.0028
,,,-0.009184,-0.00224
,,,-0.009182,-0.00364
,,,-0.00918,-0.00448
,,,-0.009178,-0.00224
,,,-0.009176,-0.00224
,,,-0.009174,-0.0042
,,,-0.009172,-0.0028
,,,-0.00917,-0.00224
,,,-0.009168,-0.00392
,,,-0.009166,-0.00252
,,,-0.009164,-0.00392
,,,-0.009162,-0.00168
,,,-0.00916,-0.00196
,,,-0.009158,-0.00308
,,,-0.009156,-0.0014
,,,-0.009154,-0.00504
,,,-0.009152,-0.00392
,,,-0.00915,-0.0014
,,,-0.009148,-0.00252
,,,-0.009146,-0.00308
,,,-0.009144,-0.0014
,,,-0.009142,-0.0042
,,,-0.00914,-0.00196
,,,-0.009138,-0.00252
,,,-0.009136,-0.0014
,,,-0.009134,-0.00308
,,,-0.009132,-0.00224
,,,-0.00913,-0.00084
,,,-0.009128,-0.00252
,,,-0.009126,-0.00224
,,,-0.009124,-0.00336
,,,-0.009122,-0.00224
,,,-0.00912,-0.00252
,,,-0.009118,-0.00224
,,,-0.009116,-0.00336
,,,-0.009114,-0.0028
,,,-0.009112,-0.00476
,,,-0.00911,-0.00336
,,,-0.009108,-0.00224
,,,-0.009106,-0.00196
,,,-0.009104,-0.00364
,,,-0.009102,-0.00364
,,,-0.0091,-0.00308
,,,-0.009098,-0.00504
,,,-0.009096,-0.00196
,,,-0.009094,-0.00224
,,,-0.009092,-0.00336
,,,-0.00909,-0.0028
,,,-0.009088,-0.00392
,,,-0.009086,-0.00084
,,,-0.009084,-0.00336
,,,-0.009082,-0.00196
,,,-0.00908,-0.00196
,,,-0.009078,-0.00308
,,,-0.009076,-0.00308
,,,-0.009074,-0.00308
,,,-0.009072,-0.00224
,,,-0.00907,-0.00252
,,,-0.009068,-0.00196
,,,-0.009066,-0.00308
,,,-0.009064,-0.00168
,,,-0.009062,-0.00252
,,,-0.00906,-0.00364
,,,-0.009058,-0.00196
,,,-0.009056,-0.00224
,,,-0.009054,-0.0014
,,,-0.009052,-0.0028
,,,-0.00905,-0.00224
,,,-0.009048,-0.00336
,,,-0.009046,-0.0028
,,,-0.009044,-0.00336
,,,-0.009042,-0.00224
,,,-0.00904,-0.00336
,,,-0.009038,-0.00308
,,,-0.009036,-0.00308
,,,-0.009034,-0.00364
,,,-0.009032,-0.00252
,,,-0.00903,-0.00252
,,,-0.009028,-0.0042
,,,-0.009026,-0.00308
,,,-0.009024,-0.00168
,,,-0.009022,-0.00392
,,,-0.00902,-0.00336
,,,-0.009018,-0.00112
,,,-0.009016,-0.00364
,,,-0.009014,-0.00364
,,,-0.009012,-0.00308
,,,-0.00901,-0.0042
,,,-0.009008,-0.0014
,,,-0.009006,-0.0028
,,,-0.009004,-0.0028
,,,-0.009002,-0.00252
,,,-0.009,-0.00196
,,,-0.008998,-0.00084
,,,-0.008996,-0.00056
,,,-0.008994,-0.00364
,,,-0.008992,-0.00336
,,,-0.00899,-0.00448
,,,-0.008988,-0.00336
,,,-0.008986,-0.00252
,,,-0.008984,-0.00252
,,,-0.008982,-0.00448
,,,-0.00898,-0.00308
,,,-0.008978,-0.00336
,,,-0.008976,-0.0014
,,,-0.008974,-0.00224
,,,-0.008972,-0.00168
,,,-0.00897,-0.00196
,,,-0.008968,-0.00224
,,,-0.008966,-0.00336
,,,-0.008964,-0.0014
,,,-0.008962,-0.00364
,,,-0.00896,-0.00364
,,,-0.008958,-0.00224
,,,-0.008956,-0.00308
,,,-0.008954,-0.0014
,,,-0.008952,-0.00308
,,,-0.00895,-0.0042
,,,-0.008948,-0.00168
,,,-0.008946,-0.00196
,,,-0.008944,-0.00224
,,,-0.008942,-0.00392
,,,-0.00894,-0.00224
,,,-0.008938,-0.00252
,,,-0.008936,-0.0028
,,,-0.008934,-0.0014
,,,-0.008932,-0.00336
,,,-0.00893,-0.00252
,,,-0.008928,-0.00028
,,,-0.008926,-0.00084
,,,-0.008924,-0.0028
,,,-0.008922,-0.00196
,,,-0.00892,-0.00224
,,,-0.008918,-0.00196
,,,-0.008916,-0.00308
,,,-0.008914,-0.0014
,,,-0.008912,-0.00252
,,,-0.00891,-0.0028
,,,-0.008908,-0.00392
,,,-0.008906,-0.00392
,,,-0.008904,-0.00196
,,,-0.008902,-0.0028
,,,-0.0089,-0.00084
,,,-0.008898,-0.00364
,,,-0.008896,-0.00364
,,,-0.008894,-0.00308
,,,-0.008892,-0.00308
,,,-0.00889,-0.00196
,,,-0.008888,-0.0042
,,,-0.008886,-0.0042
,,,-0.008884,-0.00392
,,,-0.008882,-0.00252
,,,-0.00888,-0.00308
,,,-0.008878,-0.00336
,,,-0.008876,-0.00336
,,,-0.008874,-0.00448
,,,-0.008872,-0.0028
,,,-0.00887,-0.00196
,,,-0.008868,-0.00084
,,,-0.008866,-0.00168
,,,-0.008864,-0.00336
,,,-0.008862,-0.00336
,,,-0.00886,-0.00224
,,,-0.008858,-0.00224
,,,-0.008856,-0.0028
,,,-0.008854,-0.00252
,,,-0.008852,-0.00308
,,,-0.00885,-0.00196
,,,-0.008848,-0.00364
,,,-0.008846,-0.00504
,,,-0.008844,-0.0028
,,,-0.008842,-0.00476
,,,-0.00884,-0.0028
,,,-0.008838,-0.00168
,,,-0.008836,-0.00224
,,,-0.008834,-0.00392
,,,-0.008832,-0.00168
,,,-0.00883,-0.00308
,,,-0.008828,-0.00364
,,,-0.008826,-0.00336
,,,-0.008824,-0.00392
,,,-0.008822,-0.00252
,,,-0.00882,-0.00336
,,,-0.008818,-0.00252
,,,-0.008816,-0.00336
,,,-0.008814,-0.00392
,,,-0.008812,-0.00336
,,,-0.00881,-0.00336
,,,-0.008808,-0.00112
,,,-0.008806,-0.0028
,,,-0.008804,-0.00168
,,,-0.008802,-0.00224
,,,-0.0088,-0.0056
,,,-0.008798,-0.0042
,,,-0.008796,-0.00308
,,,-0.008794,-0.00392
,,,-0.008792,-0.0014
,,,-0.00879,-0.00224
,,,-0.008788,-0.00168
,,,-0.008786,-0.0042
,,,-0.008784,-0.00252
,,,-0.008782,-0.00392
,,,-0.00878,-0.0028
,,,-0.008778,-0.0028
,,,-0.008776,-0.00476
,,,-0.008774,-0.00392
,,,-0.008772,-0.00224
,,,-0.00877,-0.00308
,,,-0.008768,-0.00252
,,,-0.008766,-0.00168
,,,-0.008764,-0.0028
,,,-0.008762,-0.00168
,,,-0.00876,-0.0028
,,,-0.008758,-0.00392
,,,-0.008756,-0.00336
,,,-0.008754,-0.00168
,,,-0.008752,-0.00308
,,,-0.00875,-0.0014
,,,-0.008748,-0.0028
,,,-0.008746,-0.00364
,,,-0.008744,-0.00392
,,,-0.008742,-0.00392
,,,-0.00874,-0.0042
,,,-0.008738,-0.00308
,,,-0.008736,-0.00252
,,,-0.008734,-0.00364
,,,-0.008732,-0.0042
,,,-0.00873,-0.00252
,,,-0.008728,-0.00308
,,,-0.008726,-0.00364
,,,-0.008724,-0.00224
,,,-0.008722,-0.00336
,,,-0.00872,-0.0042
,,,-0.008718,-0.00392
,,,-0.008716,-0.00224
,,,-0.008714,-0.00224
,,,-0.008712,-0.00336
,,,-0.00871,-0.00224
,,,-0.008708,-0.0042
,,,-0.008706,-0.00252
,,,-0.008704,-0.00308
,,,-0.008702,-0.00252
,,,-0.0087,-0.00392
,,,-0.008698,-0.00196
,,,-0.008696,-0.00252
,,,-0.008694,-0.00392
,,,-0.008692,-0.00252
,,,-0.00869,-0.00308
,,,-0.008688,-0.0042
,,,-0.008686,-0.00252
,,,-0.008684,-0.00364
,,,-0.008682,-0.00308
,,,-0.00868,-0.00224
,,,-0.008678,-0.00336
,,,-0.008676,-0.00308
,,,-0.008674,-0.0028
,,,-0.008672,-0.00336
,,,-0.00867,-0.00224
,,,-0.008668,-0.0028
,,,-0.008666,-0.00336
,,,-0.008664,-0.00308
,,,-0.008662,-0.0028
,,,-0.00866,-0.00364
,,,-0.008658,-0.0014
,,,-0.008656,-0.00364
,,,-0.008654,-0.0014
,,,-0.008652,-0.00336
,,,-0.00865,-0.00224
,,,-0.008648,-0.00308
,,,-0.008646,-0.00252
,,,-0.008644,-0.00252
,,,-0.008642,-0.00392
,,,-0.00864,-0.00308
,,,-0.008638,-0.00364
,,,-0.008636,-0.00196
,,,-0.008634,-0.00252
,,,-0.008632,-0.00224
,,,-0.00863,-0.00224
,,,-0.008628,-0.00168
,,,-0.008626,-0.00252
,,,-0.008624,-0.00224
,,,-0.008622,-0.00252
,,,-0.00862,-0.00168
,,,-0.008618,-0.00392
,,,-0.008616,-0.00308
,,,-0.008614,-0.00196
,,,-0.008612,-0.00196
,,,-0.00861,-0.00448
,,,-0.008608,-0.00308
,,,-0.008606,-0.00364
,,,-0.008604,-0.0028
,,,-0.008602,-0.00336
,,,-0.0086,-0.00308
,,,-0.008598,-0.00308
,,,-0.008596,-0.00448
,,,-0.008594,-0.00168
,,,-0.008592,-0.00224
,,,-0.00859,-0.00168
,,,-0.008588,-0.00392
,,,-0.008586,-0.00168
,,,-0.008584,-0.00252
,,,-0.008582,-0.0042
,,,-0.00858,-0.00392
,,,-0.008578,-0.00476
,,,-0.008576,-0.0042
,,,-0.008574,-0.00308
,,,-0.008572,-0.0042
,,,-0.00857,-0.00336
,,,-0.008568,-0.00252
,,,-0.008566,-0.00252
,,,-0.008564,-0.00364
,,,-0.008562,-0.00336
,,,-0.00856,-0.00196
,,,-0.008558,-0.00392
,,,-0.008556,-0.0028
,,,-0.008554,-0.00308
,,,-0.008552,-0.00196
,,,-0.00855,-0.00224
,,,-0.008548,-0.00252
,,,-0.008546,-0.00392
,,,-0.008544,-0.0028
,,,-0.008542,-0.00308
,,,-0.00854,-0.00308
,,,-0.008538,-0.00336
,,,-0.008536,-0.00252
,,,-0.008534,-0.00224
,,,-0.008532,-0.00224
,,,-0.00853,-0.00112
,,,-0.008528,-0.00308
,,,-0.008526,-0.00168
,,,-0.008524,-0.00336
,,,-0.008522,-0.00476
,,,-0.00852,-0.00308
,,,-0.008518,-0.00336
,,,-0.008516,-0.0028
,,,-0.008514,-0.00112
,,,-0.008512,-0.0028
,,,-0.00851,-0.00364
,,,-0.008508,-0.00336
,,,-0.008506,-0.0042
,,,-0.008504,-0.0014
,,,-0.008502,-0.00196
,,,-0.0085,-0.00392
,,,-0.008498,-0.00336
,,,-0.008496,-0.00308
,,,-0.008494,-0.00224
,,,-0.008492,-0.00308
,,,-0.00849,-0.00336
,,,-0.008488,-0.00336
,,,-0.008486,-0.0042
,,,-0.008484,-0.00252
,,,-0.008482,-0.00392
,,,-0.00848,-0.0028
,,,-0.008478,-0.00308
,,,-0.008476,-0.00448
,,,-0.008474,-0.00224
,,,-0.008472,-0.00392
,,,-0.00847,-0.00308
,,,-0.008468,-0.00168
,,,-0.008466,-0.00364
,,,-0.008464,-0.00196
,,,-0.008462,-0.00448
,,,-0.00846,-0.00392
,,,-0.008458,-0.00252
,,,-0.008456,-0.00252
,,,-0.008454,-0.00224
,,,-0.008452,-0.00196
,,,-0.00845,-0.00168
,,,-0.008448,-0.00196
,,,-0.008446,-0.00336
,,,-0.008444,-0.00392
,,,-0.008442,-0.00252
,,,-0.00844,-0.00336
,,,-0.008438,-0.00476
,,,-0.008436,-0.0042
,,,-0.008434,-0.00364
,,,-0.008432,-0.00252
,,,-0.00843,-0.00252
,,,-0.008428,-0.00224
,,,-0.008426,-0.00308
,,,-0.008424,-0.00112
,,,-0.008422,-0.0028
,,,-0.00842,-0.00196
,,,-0.008418,-0.00336
,,,-0.008416,-0.0028
,,,-0.008414,-0.00252
,,,-0.008412,-0.00448
,,,-0.00841,-0.00392
,,,-0.008408,-0.00336
,,,-0.008406,-0.0042
,,,-0.008404,-0.00224
,,,-0.008402,-0.00336
,,,-0.0084,-0.0028
,,,-0.008398,-0.00392
,,,-0.008396,-0.00308
,,,-0.008394,-0.00308
,,,-0.008392,-0.00476
,,,-0.00839,-0.00196
,,,-0.008388,-0.00336
,,,-0.008386,-0.0028
,,,-0.008384,-0.00112
,,,-0.008382,-0.00336
,,,-0.00838,-0.00252
,,,-0.008378,-0.0028
,,,-0.008376,-0.0028
,,,-0.008374,-0.00252
,,,-0.008372,-0.0028
,,,-0.00837,-0.00252
,,,-0.008368,-0.00196
,,,-0.008366,-0.0028
,,,-0.008364,-0.00364
,,,-0.008362,-0.00252
,,,-0.00836,-0.00364
,,,-0.008358,-0.00308
,,,-0.008356,-0.0014
,,,-0.008354,-0.00392
,,,-0.008352,-0.00308
,,,-0.00835,-0.00448
,,,-0.008348,-0.00028
,,,-0.008346,-0.00196
,,,-0.008344,-0.0028
,,,-0.008342,-0.00448
,,,-0.00834,-0.00308
,,,-0.008338,-0.0042
,,,-0.008336,-0.00084
,,,-0.008334,-0.00224
,,,-0.008332,-0.00308
,,,-0.00833,-0.0028
,,,-0.008328,-0.00252
,,,-0.008326,-0.00336
,,,-0.008324,-0.00168
,,,-0.008322,-0.00364
,,,-0.00832,-0.00168
,,,-0.008318,-0.00364
,,,-0.008316,-0.00252
,,,-0.008314,-0.00168
,,,-0.008312,-0.00196
,,,-0.00831,-0.00364
,,,-0.008308,-0.00224
,,,-0.008306,-0.00252
,,,-0.008304,-0.00336
,,,-0.008302,-0.00252
,,,-0.0083,-0.00252
,,,-0.008298,-0.00308
,,,-0.008296,-0.00308
,,,-0.008294,-0.0042
,,,-0.008292,-0.0028
,,,-0.00829,-0.00392
,,,-0.008288,-0.00336
,,,-0.008286,-0.00336
,,,-0.008284,-0.00196
,,,-0.008282,-0.00336
,,,-0.00828,-0.00308
,,,-0.008278,-0.0028
,,,-0.008276,-0.0014
,,,-0.008274,-0.00392
,,,-0.008272,-0.00336
,,,-0.00827,-0.00224
,,,-0.008268,-0.00168
,,,-0.008266,-0.00252
,,,-0.008264,-0.0028
,,,-0.008262,-0.00084
,,,-0.00826,-0.0014
,,,-0.008258,-0.00308
,,,-0.008256,-0.00308
,,,-0.008254,-0.00224
,,,-0.008252,-0.00252
,,,-0.00825,-0.00252
,,,-0.008248,-0.00308
,,,-0.008246,-0.00392
,,,-0.008244,-0.00224
,,,-0.008242,-0.00476
,,,-0.00824,-0.00308
,,,-0.008238,-0.00196
,,,-0.008236,-0.0014
,,,-0.008234,-0.00196
,,,-0.008232,-0.0028
,,,-0.00823,-0.0042
,,,-0.008228,-0.00392
,,,-0.008226,-0.00392
,,,-0.008224,-0.00252
,,,-0.008222,-0.00336
,,,-0.00822,-0.0028
,,,-0.008218,-0.0028
,,,-0.008216,-0.00448
,,,-0.008214,-0.0042
,,,-0.008212,-0.00308
,,,-0.00821,-0.00364
,,,-0.008208,-0.00448
,,,-0.008206,-0.00308
,,,-0.008204,-0.00308
