data/REFERENCED_CALIBRATION/SOP_TRAJECTORY002_Ch4.csv

"Record Length",2500,"Points",-0.00251,0.01596
"Sample Interval",2E-06,s,-0.002508,0.01596
"Trigger Point",1255,"Samples",-0.002506,0.016520001
"Trigger Time",1.0644827586209E-06,s,-0.002504,0.017360001
"",,,-0.002502,0.017640001
"Horizontal Offset",-0.00251,s,-0.0025,0.017920001
,,,-0.002498,0.017640001
,,,-0.002496,0.018480001
,,,-0.002494,0.019040001
,,,-0.002492,0.019880001
,,,-0.00249,0.019880001
,,,-0.002488,0.019600001
,,,-0.002486,0.019600001
,,,-0.002484,0.019880001
,,,-0.002482,0.019880001
,,,-0.00248,0.020720001
,,,-0.002478,0.021840001
,,,-0.002476,0.021000001
,,,-0.002474,0.022400001
,,,-0.002472,0.021000001
,,,-0.00247,0.020720001
,,,-0.002468,0.019880001
,,,-0.002466,0.021560001
,,,-0.002464,0.019320001
,,,-0.002462,0.018480001
,,,-0.00246,0.018480001
,,,-0.002458,0.018480001
,,,-0.002456,0.017080001
,,,-0.002454,0.016800001
,,,-0.002452,0.01596
,,,-0.00245,0.017080001
,,,-0.002448,0.016800001
,,,-0.002446,0.016240001
,,,-0.002444,0.016800001
,,,-0.002442,0.016520001
,,,-0.00244,0.016520001
,,,-0.002438,0.018480001
,,,-0.002436,0.018480001
,,,-0.002434,0.017920001
,,,-0.002432,0.019600001
,,,-0.00243,0.018760001
,,,-0.002428,0.020440001
,,,-0.002426,0.019880001
,,,-0.002424,0.021560001
,,,-0.002422,0.021280001
,,,-0.00242,0.021560001
,,,-0.002418,0.021000001
,,,-0.002416,0.020160001
,,,-0.002414,0.020440001
,,,-0.002412,0.019600001
,,,-0.00241,0.020160001
,,,-0.002408,0.020440001
,,,-0.002406,0.019040001
,,,-0.002404,0.019600001
,,,-0.002402,0.018480001
,,,-0.0024,0.018200001
,,,-0.002398,0.017360001
,,,-0.002396,0.017920001
,,,-0.002394,0.017920001
,,,-0.002392,0.017920001
,,,-0.00239,0.01596
,,,-0.002388,0.01568
,,,-0.002386,0.016520001
,,,-0.002384,0.01568
,,,-0.002382,0.016520001
,,,-0.00238,0.01568
,,,-0.002378,0.016800001
,,,-0.002376,0.016240001
,,,-0.002374,0.018480001
,,,-0.002372,0.017640001
,,,-0.00237,0.018760001
,,,-0.002368,0.019040001
,,,-0.002366,0.018480001
,,,-0.002364,0.020160001
,,,-0.002362,0.018480001
,,,-0.00236,0.019600001
,,,-0.002358,0.021000001
,,,-0.002356,0.021000001
,,,-0.002354,0.022120001
,,,-0.002352,0.021000001
,,,-0.00235,0.021840001
,,,-0.002348,0.021000001
,,,-0.002346,0.020160001
,,,-0.002344,0.021000001
,,,-0.002342,0.020160001
,,,-0.00234,0.019040001
,,,-0.002338,0.018200001
,,,-0.002336,0.018200001
,,,-0.002334,0.018200001
,,,-0.002332,0.016520001
,,,-0.00233,0.018200001
,,,-0.002328,0.0154
,,,-0.002326,0.01568
,,,-0.002324,0.016240001
,,,-0.002322,0.016520001
,,,-0.00232,0.017360001
,,,-0.002318,0.017640001
,,,-0.002316,0.016800001
,,,-0.002314,0.017640001
,,,-0.002312,0.018480001
,,,-0.00231,0.017080001
,,,-0.002308,0.018480001
,,,-0.002306,0.019880001
,,,-0.002304,0.019600001
,,,-0.002302,0.019600001
,,,-0.0023,0.021000001
,,,-0.002298,0.020160001
,,,-0.002296,0.021560001
,,,-0.002294,0.021280001
,,,-0.002292,0.021000001
,,,-0.00229,0.021560001
,,,-0.002288,0.019880001
,,,-0.002286,0.020720001
,,,-0.002284,0.021280001
,,,-0.002282,0.020440001
,,,-0.00228,0.020160001
,,,-0.002278,0.019880001
,,,-0.002276,0.018760001
,,,-0.002274,0.017920001
,,,-0.002272,0.018480001
,,,-0.00227,0.017640001
,,,-0.002268,0.016800001
,,,-0.002266,0.017080001
,,,-0.002264,0.016240001
,,,-0.002262,0.017360001
,,,-0.00226,0.01596
,,,-0.002258,0.017640001
,,,-0.002256,0.016800001
,,,-0.002254,0.01568
,,,-0.002252,0.017080001
,,,-0.00225,0.017920001
,,,-0.002248,0.016240001
,,,-0.002246,0.018200001
,,,-0.002244,0.018480001
,,,-0.002242,0.017920001
,,,-0.00224,0.019880001
,,,-0.002238,0.021000001
,,,-0.002236,0.019320001
,,,-0.002234,0.019320001
,,,-0.002232,0.020160001
,,,-0.00223,0.019040001
,,,-0.002228,0.020720001
,,,-0.002226,0.021000001
,,,-0.002224,0.021840001
,,,-0.002222,0.021560001
,,,-0.00222,0.019880001
,,,-0.002218,0.021000001
,,,-0.002216,0.021000001
,,,-0.002214,0.019880001
,,,-0.002212,0.020440001
,,,-0.00221,0.018200001
,,,-0.002208,0.017920001
,,,-0.002206,0.017920001
,,,-0.002204,0.016520001
,,,-0.002202,0.01568
,,,-0.0022,0.016240001
,,,-0.002198,0.017640001
,,,-0.002196,0.017080001
,,,-0.002194,0.016800001
,,,-0.002192,0.016240001
,,,-0.00219,0.017920001
,,,-0.002188,0.017640001
,,,-0.002186,0.016520001
,,,-0.002184,0.019320001
,,,-0.002182,0.019040001
,,,-0.00218,0.020160001
,,,-0.002178,0.019320001
,,,-0.002176,0.020720001
,,,-0.002174,0.019600001
,,,-0.002172,0.021000001
,,,-0.00217,0.019880001
,,,-0.002168,0.022400001
,,,-0.002166,0.021000001
,,,-0.002164,0.019880001
,,,-0.002162,0.020440001
,,,-0.00216,0.021000001
,,,-0.002158,0.019880001
,,,-0.002156,0.019880001
,,,-0.002154,0.019040001
,,,-0.002152,0.017920001
,,,-0.00215,0.017360001
,,,-0.002148,0.018480001
,,,-0.002146,0.017080001
,,,-0.002144,0.017640001
,,,-0.002142,0.016800001
,,,-0.00214,0.016800001
,,,-0.002138,0.01568
,,,-0.002136,0.016240001
,,,-0.002134,0.017080001
,,,-0.002132,0.01568
,,,-0.00213,0.016240001
,,,-0.002128,0.017360001
,,,-0.002126,0.017080001
,,,-0.002124,0.017640001
,,,-0.002122,0.017920001
,,,-0.00212,0.017920001
,,,-0.002118,0.017920001
,,,-0.002116,0.019880001
,,,-0.002114,0.019880001
,,,-0.002112,0.020440001
,,,-0.00211,0.019880001
,,,-0.002108,0.018200001
,,,-0.002106,0.021560001
,,,-0.002104,0.021560001
,,,-0.002102,0.021840001
,,,-0.0021,0.021560001
,,,-0.002098,0.020440001
,,,-0.002096,0.020440001
,,,-0.002094,0.020160001
,,,-0.002092,0.020440001
,,,-0.00209,0.021560001
,,,-0.002088,0.019320001
,,,-0.002086,0.018760001
,,,-0.002084,0.018760001
,,,-0.002082,0.017920001
,,,-0.00208,0.016800001
,,,-0.002078,0.017640001
,,,-0.002076,0.017920001
,,,-0.002074,0.01568
,,,-0.002072,0.01568
,,,-0.00207,0.01568
,,,-0.002068,0.01596
,,,-0.002066,0.01568
,,,-0.002064,0.017360001
,,,-0.002062,0.017920001
,,,-0.00206,0.016800001
,,,-0.002058,0.016800001
,,,-0.002056,0.018760001
,,,-0.002054,0.018200001
,,,-0.002052,0.019600001
,,,-0.00205,0.020440001
,,,-0.002048,0.020720001
,,,-0.002046,0.021560001
,,,-0.002044,0.020160001
,,,-0.002042,0.022120001
,,,-0.00204,0.022120001
,,,-0.002038,0.022400001
,,,-0.002036,0.020720001
,,,-0.002034,0.021000001
,,,-0.002032,0.020720001
,,,-0.00203,0.020440001
,,,-0.002028,0.020440001
,,,-0.002026,0.019600001
,,,-0.002024,0.017080001
,,,-0.002022,0.018200001
,,,-0.00202,0.018760001
,,,-0.002018,0.017920001
,,,-0.002016,0.01596
,,,-0.002014,0.01512
,,,-0.002012,0.016800001
,,,-0.00201,0.016800001
,,,-0.002008,0.016520001
,,,-0.002006,0.016240001
,,,-0.002004,0.016520001
,,,-0.002002,0.01512
,,,-0.002,0.017920001
,,,-0.001998,0.01596
,,,-0.001996,0.017360001
,,,-0.001994,0.017360001
,,,-0.001992,0.018480001
,,,-0.00199,0.019880001
,,,-0.001988,0.018760001
,,,-0.001986,0.020440001
,,,-0.001984,0.020720001
,,,-0.001982,0.021000001
,,,-0.00198,0.021560001
,,,-0.001978,0.021000001
,,,-0.001976,0.021840001
,,,-0.001974,0.021560001
,,,-0.001972,0.022960001
,,,-0.00197,0.020720001
,,,-0.001968,0.021000001
,,,-0.001966,0.020440001
,,,-0.001964,0.021280001
,,,-0.001962,0.020160001
,,,-0.00196,0.020160001
,,,-0.001958,0.019600001
,,,-0.001956,0.018480001
,,,-0.001954,0.017920001
,,,-0.001952,0.017360001
,,,-0.00195,0.016520001
,,,-0.001948,0.017640001
,,,-0.001946,0.016520001
,,,-0.001944,0.016800001
,,,-0.001942,0.01484
,,,-0.00194,0.017080001
,,,-0.001938,0.016520001
,,,-0.001936,0.017920001
,,,-0.001934,0.018480001
,,,-0.001932,0.018480001
,,,-0.00193,0.019320001
,,,-0.001928,0.020160001
,,,-0.001926,0.020720001
,,,-0.001924,0.021000001
,,,-0.001922,0.020160001
,,,-0.00192,0.021280001
,,,-0.001918,0.022120001
,,,-0.001916,0.020160001
,,,-0.001914,0.020160001
,,,-0.001912,0.021560001
,,,-0.00191,0.019320001
,,,-0.001908,0.020440001
,,,-0.001906,0.019320001
,,,-0.001904,0.019880001
,,,-0.001902,0.018760001
,,,-0.0019,0.018760001
,,,-0.001898,0.018200001
,,,-0.001896,0.017360001
,,,-0.001894,0.017360001
,,,-0.001892,0.017920001
,,,-0.00189,0.016240001
,,,-0.001888,0.01596
,,,-0.001886,0.016240001
,,,-0.001884,0.017080001
,,,-0.001882,0.016520001
,,,-0.00188,0.01596
,,,-0.001878,0.017360001
,,,-0.001876,0.018200001
,,,-0.001874,0.017080001
,,,-0.001872,0.016240001
,,,-0.00187,0.018200001
,,,-0.001868,0.017920001
,,,-0.001866,0.018760001
,,,-0.001864,0.019600001
,,,-0.001862,0.019320001
,,,-0.00186,0.019320001
,,,-0.001858,0.020440001
,,,-0.001856,0.020440001
,,,-0.001854,0.021280001
,,,-0.001852,0.020720001
,,,-0.00185,0.020720001
,,,-0.001848,0.022960001
,,,-0.001846,0.022680001
,,,-0.001844,0.020720001
,,,-0.001842,0.021000001
,,,-0.00184,0.019880001
,,,-0.001838,0.020720001
,,,-0.001836,0.019880001
,,,-0.001834,0.018480001
,,,-0.001832,0.018480001
,,,-0.00183,0.017920001
,,,-0.001828,0.017640001
,,,-0.001826,0.017640001
,,,-0.001824,0.01568
,,,-0.001822,0.016240001
,,,-0.00182,0.016800001
,,,-0.001818,0.016800001
,,,-0.001816,0.01568
,,,-0.001814,0.017360001
,,,-0.001812,0.01596
,,,-0.00181,0.018480001
,,,-0.001808,0.017640001
,,,-0.001806,0.018480001
,,,-0.001804,0.019040001
,,,-0.001802,0.018760001
,,,-0.0018,0.021000001
,,,-0.001798,0.021280001
,,,-0.001796,0.021560001
,,,-0.001794,0.021560001
,,,-0.001792,0.021000001
,,,-0.00179,0.021000001
,,,-0.001788,0.022120001
,,,-0.001786,0.022120001
,,,-0.001784,0.019880001
,,,-0.001782,0.021280001
,,,-0.00178,0.019880001
,,,-0.001778,0.019880001
,,,-0.001776,0.017920001
,,,-0.001774,0.019320001
,,,-0.001772,0.018200001
,,,-0.00177,0.017920001
,,,-0.001768,0.017080001
,,,-0.001766,0.016520001
,,,-0.001764,0.016520001
,,,-0.001762,0.016240001
,,,-0.00176,0.016800001
,,,-0.001758,0.016520001
,,,-0.001756,0.017080001
,,,-0.001754,0.01596
,,,-0.001752,0.01568
,,,-0.00175,0.017360001
,,,-0.001748,0.017080001
,,,-0.001746,0.017640001
,,,-0.001744,0.017640001
,,,-0.001742,0.017920001
,,,-0.00174,0.018760001
,,,-0.001738,0.018480001
,,,-0.001736,0.019040001
,,,-0.001734,0.018200001
,,,-0.001732,0.019600001
,,,-0.00173,0.021000001
,,,-0.001728,0.021000001
,,,-0.001726,0.021560001
,,,-0.001724,0.020720001
,,,-0.001722,0.021000001
,,,-0.00172,0.020440001
,,,-0.001718,0.020440001
,,,-0.001716,0.021280001
,,,-0.001714,0.018200001
,,,-0.001712,0.019600001
,,,-0.00171,0.018480001
,,,-0.001708,0.019040001
,,,-0.001706,0.017920001
,,,-0.001704,0.019040001
,,,-0.001702,0.017360001
,,,-0.0017,0.016800001
,,,-0.001698,0.017080001
,,,-0.001696,0.016800001
,,,-0.001694,0.016520001
,,,-0.001692,0.016520001
,,,-0.00169,0.01568
,,,-0.001688,0.017080001
,,,-0.001686,0.019040001
,,,-0.001684,0.018480001
,,,-0.001682,0.017920001
,,,-0.00168,0.017920001
,,,-0.001678,0.018200001
,,,-0.001676,0.020440001
,,,-0.001674,0.021280001
,,,-0.001672,0.021000001
,,,-0.00167,0.021000001
,,,-0.001668,0.021280001
,,,-0.001666,0.021000001
,,,-0.001664,0.021000001
,,,-0.001662,0.020160001
,,,-0.00166,0.021280001
,,,-0.001658,0.019880001
,,,-0.001656,0.021560001
,,,-0.001654,0.021000001
,,,-0.001652,0.018760001
,,,-0.00165,0.018480001
,,,-0.001648,0.019600001
,,,-0.001646,0.018200001
,,,-0.001644,0.019040001
,,,-0.001642,0.016800001
,,,-0.00164,0.016520001
,,,-0.001638,0.017360001
,,,-0.001636,0.0154
,,,-0.001634,0.016800001
,,,-0.001632,0.017080001
,,,-0.00163,0.01568
,,,-0.001628,0.018200001
,,,-0.001626,0.018480001
,,,-0.001624,0.017360001
,,,-0.001622,0.0154
,,,-0.00162,0.016800001
,,,-0.001618,0.018200001
,,,-0.001616,0.017920001
,,,-0.001614,0.018480001
,,,-0.001612,0.019320001
,,,-0.00161,0.019320001
,,,-0.001608,0.020440001
,,,-0.001606,0.019600001
,,,-0.001604,0.020440001
,,,-0.001602,0.020720001
,,,-0.0016,0.021560001
,,,-0.001598,0.021560001
,,,-0.001596,0.020160001
,,,-0.001594,0.022120001
,,,-0.001592,0.021000001
,,,-0.00159,0.021000001
,,,-0.001588,0.021000001
,,,-0.001586,0.020440001
,,,-0.001584,0.021280001
,,,-0.001582,0.018480001
,,,-0.00158,0.018480001
,,,-0.001578,0.018480001
,,,-0.001576,0.016520001
,,,-0.001574,0.017360001
,,,-0.001572,0.01568
,,,-0.00157,0.016520001
,,,-0.001568,0.0154
,,,-0.001566,0.017640001
,,,-0.001564,0.016800001
,,,-0.001562,0.017920001
,,,-0.00156,0.017080001
,,,-0.001558,0.018200001
,,,-0.001556,0.018480001
,,,-0.001554,0.018480001
,,,-0.001552,0.020160001
,,,-0.00155,0.020160001
,,,-0.001548,0.020720001
,,,-0.001546,0.019880001
,,,-0.001544,0.021000001
,,,-0.001542,0.020440001
,,,-0.00154,0.021840001
,,,-0.001538,0.021280001
,,,-0.001536,0.021000001
,,,-0.001534,0.021280001
,,,-0.001532,0.019880001
,,,-0.00153,0.021560001
,,,-0.001528,0.020720001
,,,-0.001526,0.019880001
,,,-0.001524,0.018760001
,,,-0.001522,0.017920001
,,,-0.00152,0.017360001
,,,-0.001518,0.017640001
,,,-0.001516,0.017640001
,,,-0.001514,0.016520001
,,,-0.001512,0.016240001
,,,-0.00151,0.016520001
,,,-0.001508,0.01596
,,,-0.001506,0.016800001
,,,-0.001504,0.0154
,,,-0.001502,0.01596
,,,-0.0015,0.017080001
,,,-0.001498,0.016800001
,,,-0.001496,0.018480001
,,,-0.001494,0.016800001
,,,-0.001492,0.018200001
,,,-0.00149,0.019040001
,,,-0.001488,0.018480001
,,,-0.001486,0.018480001
,,,-0.001484,0.019320001
,,,-0.001482,0.020720001
,,,-0.00148,0.020160001
,,,-0.001478,0.020440001
,,,-0.001476,0.020720001
,,,-0.001474,0.021000001
,,,-0.001472,0.021280001
,,,-0.00147,0.021840001
,,,-0.001468,0.020160001
,,,-0.001466,0.020440001
,,,-0.001464,0.021000001
,,,-0.001462,0.021280001
,,,-0.00146,0.021840001
,,,-0.001458,0.019880001
,,,-0.001456,0.018760001
,,,-0.001454,0.018480001
,,,-0.001452,0.017360001
,,,-0.00145,0.017920001
,,,-0.001448,0.017080001
,,,-0.001446,0.018480001
,,,-0.001444,0.017080001
,,,-0.001442,0.01456
,,,-0.00144,0.016520001
,,,-0.001438,0.017360001
,,,-0.001436,0.017640001
,,,-0.001434,0.017640001
,,,-0.001432,0.017640001
,,,-0.00143,0.017360001
,,,-0.001428,0.018200001
,,,-0.001426,0.019880001
,,,-0.001424,0.018480001
,,,-0.001422,0.019600001
,,,-0.00142,0.019880001
,,,-0.001418,0.021000001
,,,-0.001416,0.020440001
,,,-0.001414,0.021560001
,,,-0.001412,0.020720001
,,,-0.00141,0.021280001
,,,-0.001408,0.020440001
,,,-0.001406,0.021840001
,,,-0.001404,0.020160001
,,,-0.001402,0.019600001
,,,-0.0014,0.019600001
,,,-0.001398,0.019040001
,,,-0.001396,0.019040001
,,,-0.001394,0.018200001
,,,-0.001392,0.018480001
,,,-0.00139,0.017080001
,,,-0.001388,0.016800001
,,,-0.001386,0.016520001
,,,-0.001384,0.016240001
,,,-0.001382,0.016240001
,,,-0.00138,0.01568
,,,-0.001378,0.01512
,,,-0.001376,0.016800001
,,,-0.001374,0.017080001
,,,-0.001372,0.017080001
,,,-0.00137,0.016240001
,,,-0.001368,0.017640001
,,,-0.001366,0.017640001
,,,-0.001364,0.018760001
,,,-0.001362,0.018760001
,,,-0.00136,0.020160001
,,,-0.001358,0.019320001
,,,-0.001356,0.019600001
,,,-0.001354,0.021000001
,,,-0.001352,0.020160001
,,,-0.00135,0.020440001
,,,-0.001348,0.021560001
,,,-0.001346,0.022120001
,,,-0.001344,0.021560001
,,,-0.001342,0.021280001
,,,-0.00134,0.020160001
,,,-0.001338,0.021000001
,,,-0.001336,0.021000001
,,,-0.001334,0.020440001
,,,-0.001332,0.019880001
,,,-0.00133,0.016800001
,,,-0.001328,0.019320001
,,,-0.001326,0.016800001
,,,-0.001324,0.017360001
,,,-0.001322,0.016800001
,,,-0.00132,0.01596
,,,-0.001318,0.01596
,,,-0.001316,0.016800001
,,,-0.001314,0.016240001
,,,-0.001312,0.017640001
,,,-0.00131,0.016520001
,,,-0.001308,0.017360001
,,,-0.001306,0.017920001
,,,-0.001304,0.017920001
,,,-0.001302,0.019600001
,,,-0.0013,0.018760001
,,,-0.001298,0.019320001
,,,-0.001296,0.018760001
,,,-0.001294,0.021280001
,,,-0.001292,0.020440001
,,,-0.00129,0.020160001
,,,-0.001288,0.021280001
,,,-0.001286,0.020720001
,,,-0.001284,0.019880001
,,,-0.001282,0.021560001
,,,-0.00128,0.021280001
,,,-0.001278,0.019880001
,,,-0.001276,0.020160001
,,,-0.001274,0.019880001
,,,-0.001272,0.017920001
,,,-0.00127,0.017920001
,,,-0.001268,0.019320001
,,,-0.001266,0.017360001
,,,-0.001264,0.017080001
,,,-0.001262,0.017920001
,,,-0.00126,0.017640001
,,,-0.001258,0.01596
,,,-0.001256,0.016520001
,,,-0.001254,0.01568
,,,-0.001252,0.01596
,,,-0.00125,0.016240001
,,,-0.001248,0.017080001
,,,-0.001246,0.017080001
,,,-0.001244,0.016800001
,,,-0.001242,0.018760001
,,,-0.00124,0.018200001
,,,-0.001238,0.017920001
,,,-0.001236,0.019320001
,,,-0.001234,0.019600001
,,,-0.001232,0.021000001
,,,-0.00123,0.021560001
,,,-0.001228,0.021000001
,,,-0.001226,0.019600001
,,,-0.001224,0.020440001
,,,-0.001222,0.021000001
,,,-0.00122,0.022120001
,,,-0.001218,0.020440001
,,,-0.001216,0.021560001
,,,-0.001214,0.019320001
,,,-0.001212,0.021000001
,,,-0.00121,0.019880001
,,,-0.001208,0.019880001
,,,-0.001206,0.019040001
,,,-0.001204,0.017080001
,,,-0.001202,0.017640001
,,,-0.0012,0.017360001
,,,-0.001198,0.01596
,,,-0.001196,0.0154
,,,-0.001194,0.01596
,,,-0.001192,0.016240001
,,,-0.00119,0.01512
,,,-0.001188,0.016520001
,,,-0.001186,0.01512
,,,-0.001184,0.01568
,,,-0.001182,0.018480001
,,,-0.00118,0.018200001
,,,-0.001178,0.019040001
,,,-0.001176,0.018200001
,,,-0.001174,0.019320001
,,,-0.001172,0.020160001
,,,-0.00117,0.019600001
,,,-0.001168,0.021000001
,,,-0.001166,0.019880001
,,,-0.001164,0.019880001
,,,-0.001162,0.020720001
,,,-0.00116,0.021000001
,,,-0.001158,0.020440001
,,,-0.001156,0.020720001
,,,-0.001154,0.021280001
,,,-0.001152,0.021840001
,,,-0.00115,0.020440001
,,,-0.001148,0.018760001
,,,-0.001146,0.019320001
,,,-0.001144,0.017360001
,,,-0.001142,0.017920001
,,,-0.00114,0.017640001
,,,-0.001138,0.016240001
,,,-0.001136,0.017640001
,,,-0.001134,0.01596
,,,-0.001132,0.01568
,,,-0.00113,0.01596
,,,-0.001128,0.01596
,,,-0.001126,0.01484
,,,-0.001124,0.0154
,,,-0.001122,0.016520001
,,,-0.00112,0.017920001
,,,-0.001118,0.017920001
,,,-0.001116,0.017920001
,,,-0.001114,0.017080001
,,,-0.001112,0.019320001
,,,-0.00111,0.018760001
,,,-0.001108,0.019880001
,,,-0.001106,0.020440001
,,,-0.001104,0.019600001
,,,-0.001102,0.021000001
,,,-0.0011,0.021560001
,,,-0.001098,0.019880001
,,,-0.001096,0.021560001
,,,-0.001094,0.021560001
,,,-0.001092,0.020720001
,,,-0.00109,0.022120001
,,,-0.001088,0.020720001
,,,-0.001086,0.020160001
,,,-0.001084,0.019040001
,,,-0.001082,0.019600001
,,,-0.00108,0.019880001
,,,-0.001078,0.017360001
,,,-0.001076,0.018200001
,,,-0.001074,0.017080001
,,,-0.001072,0.017080001
,,,-0.00107,0.017080001
,,,-0.001068,0.016520001
,,,-0.001066,0.016800001
,,,-0.001064,0.017640001
,,,-0.001062,0.016520001
,,,-0.00106,0.018200001
,,,-0.001058,0.016520001
,,,-0.001056,0.017360001
,,,-0.001054,0.017920001
,,,-0.001052,0.017920001
,,,-0.00105,0.019040001
,,,-0.001048,0.019040001
,,,-0.001046,0.020160001
,,,-0.001044,0.020160001
,,,-0.001042,0.021280001
,,,-0.00104,0.021280001
,,,-0.001038,0.020720001
,,,-0.001036,0.022400001
,,,-0.001034,0.021560001
,,,-0.001032,0.021560001
,,,-0.00103,0.020160001
,,,-0.001028,0.019600001
,,,-0.001026,0.020440001
,,,-0.001024,0.019600001
,,,-0.001022,0.018480001
,,,-0.00102,0.018200001
,,,-0.001018,0.017360001
,,,-0.001016,0.019040001
,,,-0.001014,0.017080001
,,,-0.001012,0.01596
,,,-0.00101,0.016240001
,,,-0.001008,0.0154
,,,-0.001006,0.01596
,,,-0.001004,0.016800001
,,,-0.001002,0.016800001
,,,-0.001,0.018200001
,,,-0.000998,0.017360001
,,,-0.000996,0.017080001
,,,-0.000994,0.016800001
,,,-0.000992,0.016240001
,,,-0.00099,0.017920001
,,,-0.000988,0.020440001
,,,-0.000986,0.018480001
,,,-0.000984,0.019320001
,,,-0.000982,0.019320001
,,,-0.00098,0.019320001
,,,-0.000978,0.020160001
,,,-0.000976,0.021560001
,,,-0.000974,0.021000001
,,,-0.000972,0.021280001
,,,-0.00097,0.021000001
,,,-0.000968,0.021560001
,,,-0.000966,0.020440001
,,,-0.000964,0.021840001
,,,-0.000962,0.019880001
,,,-0.00096,0.021000001
,,,-0.000958,0.020720001
,,,-0.000956,0.020440001
,,,-0.000954,0.016800001
,,,-0.000952,0.017920001
,,,-0.00095,0.017920001
,,,-0.000948,0.016800001
,,,-0.000946,0.0154
,,,-0.000944,0.017360001
,,,-0.000942,0.017080001
,,,-0.00094,0.01484
,,,-0.000938,0.01568
,,,-0.000936,0.017080001
,,,-0.000934,0.017920001
,,,-0.000932,0.017920001
,,,-0.00093,0.017920001
,,,-0.000928,0.019320001
,,,-0.000926,0.018200001
,,,-0.000924,0.019040001
,,,-0.000922,0.020440001
,,,-0.00092,0.019880001
,,,-0.000918,0.019040001
,,,-0.000916,0.019040001
,,,-0.000914,0.021000001
,,,-0.000912,0.021000001
,,,-0.00091,0.021560001
,,,-0.000908,0.022120001
,,,-0.000906,0.021280001
,,,-0.000904,0.021280001
,,,-0.000902,0.020160001
,,,-0.0009,0.020720001
,,,-0.000898,0.019600001
,,,-0.000896,0.018760001
,,,-0.000894,0.019040001
,,,-0.000892,0.019320001
,,,-0.00089,0.017360001
,,,-0.000888,0.016520001
