data/REFERENCED_CALIBRATION/SOP_TRAJECTORY002_Ch3.csv

"Record Length",2500,"Points",-0.00251,0.021980001
"Sample Interval",2E-06,s,-0.002508,0.022260001
"Trigger Point",1255,"Samples",-0.002506,0.021420001
"Trigger Time",1.0644827586209E-06,s,-0.002504,0.021420001
"",,,-0.002502,0.022260001
"Horizontal Offset",-0.00251,s,-0.0025,0.021980001
,,,-0.002498,0.021980001
,,,-0.002496,0.022540001
,,,-0.002494,0.022820001
,,,-0.002492,0.020580001
,,,-0.00249,0.022260001
,,,-0.002488,0.020020001
,,,-0.002486,0.022260001
,,,-0.002484,0.020580001
,,,-0.002482,0.021420001
,,,-0.00248,0.021140001
,,,-0.002478,0.020300001
,,,-0.002476,0.019460001
,,,-0.002474,0.018900001
,,,-0.002472,0.018060001
,,,-0.00247,0.019180001
,,,-0.002468,0.020020001
,,,-0.002466,0.018620001
,,,-0.002464,0.018340001
,,,-0.002462,0.017780001
,,,-0.00246,0.018340001
,,,-0.002458,0.018340001
,,,-0.002456,0.020860001
,,,-0.002454,0.020580001
,,,-0.002452,0.021700001
,,,-0.00245,0.020860001
,,,-0.002448,0.021140001
,,,-0.002446,0.022540001
,,,-0.002444,0.021980001
,,,-0.002442,0.021980001
,,,-0.00244,0.021420001
,,,-0.002438,0.020860001
,,,-0.002436,0.021420001
,,,-0.002434,0.021700001
,,,-0.002432,0.021700001
,,,-0.00243,0.020860001
,,,-0.002428,0.020860001
,,,-0.002426,0.021980001
,,,-0.002424,0.021140001
,,,-0.002422,0.020020001
,,,-0.00242,0.020860001
,,,-0.002418,0.020860001
,,,-0.002416,0.019460001
,,,-0.002414,0.020300001
,,,-0.002412,0.020020001
,,,-0.00241,0.019740001
,,,-0.002408,0.018060001
,,,-0.002406,0.020020001
,,,-0.002404,0.019740001
,,,-0.002402,0.019460001
,,,-0.0024,0.019460001
,,,-0.002398,0.020300001
,,,-0.002396,0.019180001
,,,-0.002394,0.019740001
,,,-0.002392,0.019460001
,,,-0.00239,0.021140001
,,,-0.002388,0.020300001
,,,-0.002386,0.020020001
,,,-0.002384,0.020580001
,,,-0.002382,0.022260001
,,,-0.00238,0.021420001
,,,-0.002378,0.021700001
,,,-0.002376,0.022540001
,,,-0.002374,0.021140001
,,,-0.002372,0.021980001
,,,-0.00237,0.021700001
,,,-0.002368,0.022260001
,,,-0.002366,0.022820001
,,,-0.002364,0.020860001
,,,-0.002362,0.021700001
,,,-0.00236,0.019740001
,,,-0.002358,0.020300001
,,,-0.002356,0.021980001
,,,-0.002354,0.021420001
,,,-0.002352,0.019460001
,,,-0.00235,0.018620001
,,,-0.002348,0.018340001
,,,-0.002346,0.020580001
,,,-0.002344,0.018060001
,,,-0.002342,0.019180001
,,,-0.00234,0.018620001
,,,-0.002338,0.018900001
,,,-0.002336,0.019460001
,,,-0.002334,0.019740001
,,,-0.002332,0.020300001
,,,-0.00233,0.018340001
,,,-0.002328,0.018900001
,,,-0.002326,0.019460001
,,,-0.002324,0.020580001
,,,-0.002322,0.020580001
,,,-0.00232,0.022260001
,,,-0.002318,0.021980001
,,,-0.002316,0.022260001
,,,-0.002314,0.021140001
,,,-0.002312,0.021140001
,,,-0.00231,0.021700001
,,,-0.002308,0.021140001
,,,-0.002306,0.022260001
,,,-0.002304,0.020860001
,,,-0.002302,0.020300001
,,,-0.0023,0.021980001
,,,-0.002298,0.020020001
,,,-0.002296,0.019180001
,,,-0.002294,0.020300001
,,,-0.002292,0.018620001
,,,-0.00229,0.019740001
,,,-0.002288,0.019740001
,,,-0.002286,0.019460001
,,,-0.002284,0.020300001
,,,-0.002282,0.018620001
,,,-0.00228,0.020020001
,,,-0.002278,0.018340001
,,,-0.002276,0.017780001
,,,-0.002274,0.018620001
,,,-0.002272,0.019180001
,,,-0.00227,0.020020001
,,,-0.002268,0.021140001
,,,-0.002266,0.020580001
,,,-0.002264,0.021140001
,,,-0.002262,0.021700001
,,,-0.00226,0.021980001
,,,-0.002258,0.021980001
,,,-0.002256,0.022820001
,,,-0.002254,0.021420001
,,,-0.002252,0.023660001
,,,-0.00225,0.021420001
,,,-0.002248,0.021980001
,,,-0.002246,0.021420001
,,,-0.002244,0.022260001
,,,-0.002242,0.022260001
,,,-0.00224,0.021140001
,,,-0.002238,0.021420001
,,,-0.002236,0.021980001
,,,-0.002234,0.021980001
,,,-0.002232,0.020860001
,,,-0.00223,0.019180001
,,,-0.002228,0.019460001
,,,-0.002226,0.020020001
,,,-0.002224,0.018900001
,,,-0.002222,0.019460001
,,,-0.00222,0.019740001
,,,-0.002218,0.018060001
,,,-0.002216,0.017780001
,,,-0.002214,0.018060001
,,,-0.002212,0.017780001
,,,-0.00221,0.018060001
,,,-0.002208,0.018620001
,,,-0.002206,0.019740001
,,,-0.002204,0.018060001
,,,-0.002202,0.019460001
,,,-0.0022,0.021140001
,,,-0.002198,0.021420001
,,,-0.002196,0.021140001
,,,-0.002194,0.020580001
,,,-0.002192,0.021980001
,,,-0.00219,0.020580001
,,,-0.002188,0.022260001
,,,-0.002186,0.022540001
,,,-0.002184,0.021420001
,,,-0.002182,0.022820001
,,,-0.00218,0.023100001
,,,-0.002178,0.022820001
,,,-0.002176,0.020300001
,,,-0.002174,0.021980001
,,,-0.002172,0.021420001
,,,-0.00217,0.020860001
,,,-0.002168,0.020020001
,,,-0.002166,0.020300001
,,,-0.002164,0.019180001
,,,-0.002162,0.018900001
,,,-0.00216,0.020020001
,,,-0.002158,0.018340001
,,,-0.002156,0.018060001
,,,-0.002154,0.019460001
,,,-0.002152,0.019180001
,,,-0.00215,0.019460001
,,,-0.002148,0.018620001
,,,-0.002146,0.020300001
,,,-0.002144,0.020300001
,,,-0.002142,0.021980001
,,,-0.00214,0.019460001
,,,-0.002138,0.020860001
,,,-0.002136,0.022260001
,,,-0.002134,0.021420001
,,,-0.002132,0.020020001
,,,-0.00213,0.021140001
,,,-0.002128,0.023100001
,,,-0.002126,0.022260001
,,,-0.002124,0.022540001
,,,-0.002122,0.021980001
,,,-0.00212,0.022260001
,,,-0.002118,0.021420001
,,,-0.002116,0.021140001
,,,-0.002114,0.021420001
,,,-0.002112,0.020300001
,,,-0.00211,0.019460001
,,,-0.002108,0.021700001
,,,-0.002106,0.020300001
,,,-0.002104,0.019460001
,,,-0.002102,0.018900001
,,,-0.0021,0.017780001
,,,-0.002098,0.020300001
,,,-0.002096,0.017780001
,,,-0.002094,0.019180001
,,,-0.002092,0.018620001
,,,-0.00209,0.019180001
,,,-0.002088,0.016380001
,,,-0.002086,0.019180001
,,,-0.002084,0.018060001
,,,-0.002082,0.020020001
,,,-0.00208,0.018060001
,,,-0.002078,0.018340001
,,,-0.002076,0.020580001
,,,-0.002074,0.020860001
,,,-0.002072,0.022820001
,,,-0.00207,0.021700001
,,,-0.002068,0.021140001
,,,-0.002066,0.021980001
,,,-0.002064,0.022260001
,,,-0.002062,0.021980001
,,,-0.00206,0.022540001
,,,-0.002058,0.022820001
,,,-0.002056,0.021980001
,,,-0.002054,0.021140001
,,,-0.002052,0.022820001
,,,-0.00205,0.021420001
,,,-0.002048,0.021700001
,,,-0.002046,0.020300001
,,,-0.002044,0.018620001
,,,-0.002042,0.018620001
,,,-0.00204,0.020860001
,,,-0.002038,0.019180001
,,,-0.002036,0.018900001
,,,-0.002034,0.018900001
,,,-0.002032,0.020580001
,,,-0.00203,0.019460001
,,,-0.002028,0.018340001
,,,-0.002026,0.018900001
,,,-0.002024,0.019180001
,,,-0.002022,0.019460001
,,,-0.00202,0.021140001
,,,-0.002018,0.019460001
,,,-0.002016,0.022540001
,,,-0.002014,0.020580001
,,,-0.002012,0.020860001
,,,-0.00201,0.021420001
,,,-0.002008,0.022260001
,,,-0.002006,0.020580001
,,,-0.002004,0.023100001
,,,-0.002002,0.021420001
,,,-0.002,0.021140001
,,,-0.001998,0.021980001
,,,-0.001996,0.022820001
,,,-0.001994,0.021700001
,,,-0.001992,0.021420001
,,,-0.00199,0.021700001
,,,-0.001988,0.022260001
,,,-0.001986,0.021140001
,,,-0.001984,0.019460001
,,,-0.001982,0.020580001
,,,-0.00198,0.020580001
,,,-0.001978,0.019460001
,,,-0.001976,0.020020001
,,,-0.001974,0.020580001
,,,-0.001972,0.019180001
,,,-0.00197,0.018340001
,,,-0.001968,0.017780001
,,,-0.001966,0.018620001
,,,-0.001964,0.018340001
,,,-0.001962,0.019180001
,,,-0.00196,0.020300001
,,,-0.001958,0.019460001
,,,-0.001956,0.018340001
,,,-0.001954,0.018620001
,,,-0.001952,0.020860001
,,,-0.00195,0.018620001
,,,-0.001948,0.021420001
,,,-0.001946,0.021980001
,,,-0.001944,0.021700001
,,,-0.001942,0.023100001
,,,-0.00194,0.021140001
,,,-0.001938,0.021980001
,,,-0.001936,0.021700001
,,,-0.001934,0.021700001
,,,-0.001932,0.023380001
,,,-0.00193,0.021420001
,,,-0.001928,0.022260001
,,,-0.001926,0.021420001
,,,-0.001924,0.019740001
,,,-0.001922,0.020580001
,,,-0.00192,0.020860001
,,,-0.001918,0.019460001
,,,-0.001916,0.019180001
,,,-0.001914,0.018900001
,,,-0.001912,0.018620001
,,,-0.00191,0.020020001
,,,-0.001908,0.018900001
,,,-0.001906,0.017500001
,,,-0.001904,0.018060001
,,,-0.001902,0.019180001
,,,-0.0019,0.019180001
,,,-0.001898,0.017780001
,,,-0.001896,0.020300001
,,,-0.001894,0.018620001
,,,-0.001892,0.020020001
,,,-0.00189,0.020860001
,,,-0.001888,0.021140001
,,,-0.001886,0.020300001
,,,-0.001884,0.021980001
,,,-0.001882,0.022260001
,,,-0.00188,0.021420001
,,,-0.001878,0.022540001
,,,-0.001876,0.021420001
,,,-0.001874,0.022260001
,,,-0.001872,0.022540001
,,,-0.00187,0.021140001
,,,-0.001868,0.021980001
,,,-0.001866,0.022260001
,,,-0.001864,0.021980001
,,,-0.001862,0.021420001
,,,-0.00186,0.021700001
,,,-0.001858,0.021980001
,,,-0.001856,0.022820001
,,,-0.001854,0.020020001
,,,-0.001852,0.019740001
,,,-0.00185,0.018060001
,,,-0.001848,0.018060001
,,,-0.001846,0.019740001
,,,-0.001844,0.020020001
,,,-0.001842,0.019460001
,,,-0.00184,0.019180001
,,,-0.001838,0.018620001
,,,-0.001836,0.018060001
,,,-0.001834,0.018620001
,,,-0.001832,0.019180001
,,,-0.00183,0.018060001
,,,-0.001828,0.019180001
,,,-0.001826,0.020020001
,,,-0.001824,0.021420001
,,,-0.001822,0.020580001
,,,-0.00182,0.021420001
,,,-0.001818,0.020020001
,,,-0.001816,0.021420001
,,,-0.001814,0.022260001
,,,-0.001812,0.022260001
,,,-0.00181,0.021700001
,,,-0.001808,0.021420001
,,,-0.001806,0.021700001
,,,-0.001804,0.022260001
,,,-0.001802,0.023660001
,,,-0.0018,0.021700001
,,,-0.001798,0.021420001
,,,-0.001796,0.019740001
,,,-0.001794,0.019460001
,,,-0.001792,0.020860001
,,,-0.00179,0.018340001
,,,-0.001788,0.019740001
,,,-0.001786,0.019180001
,,,-0.001784,0.018340001
,,,-0.001782,0.018620001
,,,-0.00178,0.019180001
,,,-0.001778,0.019180001
,,,-0.001776,0.018340001
,,,-0.001774,0.018620001
,,,-0.001772,0.019180001
,,,-0.00177,0.019180001
,,,-0.001768,0.019460001
,,,-0.001766,0.019180001
,,,-0.001764,0.020860001
,,,-0.001762,0.021980001
,,,-0.00176,0.020860001
,,,-0.001758,0.020580001
,,,-0.001756,0.019740001
,,,-0.001754,0.021700001
,,,-0.001752,0.022540001
,,,-0.00175,0.021980001
,,,-0.001748,0.023100001
,,,-0.001746,0.022260001
,,,-0.001744,0.022820001
,,,-0.001742,0.022540001
,,,-0.00174,0.021700001
,,,-0.001738,0.022820001
,,,-0.001736,0.022260001
,,,-0.001734,0.021700001
,,,-0.001732,0.020580001
,,,-0.00173,0.021140001
,,,-0.001728,0.021140001
,,,-0.001726,0.020860001
,,,-0.001724,0.018340001
,,,-0.001722,0.018900001
,,,-0.00172,0.018620001
,,,-0.001718,0.017220001
,,,-0.001716,0.018900001
,,,-0.001714,0.019180001
,,,-0.001712,0.018060001
,,,-0.00171,0.018340001
,,,-0.001708,0.019740001
,,,-0.001706,0.019180001
,,,-0.001704,0.019460001
,,,-0.001702,0.018620001
,,,-0.0017,0.020580001
,,,-0.001698,0.020300001
,,,-0.001696,0.021140001
,,,-0.001694,0.020580001
,,,-0.001692,0.021980001
,,,-0.00169,0.021420001
,,,-0.001688,0.021700001
,,,-0.001686,0.021980001
,,,-0.001684,0.022260001
,,,-0.001682,0.021700001
,,,-0.00168,0.022820001
,,,-0.001678,0.022260001
,,,-0.001676,0.021420001
,,,-0.001674,0.020580001
,,,-0.001672,0.021420001
,,,-0.00167,0.019460001
,,,-0.001668,0.020300001
,,,-0.001666,0.020580001
,,,-0.001664,0.019460001
,,,-0.001662,0.018900001
,,,-0.00166,0.018900001
,,,-0.001658,0.018900001
,,,-0.001656,0.018340001
,,,-0.001654,0.018620001
,,,-0.001652,0.020580001
,,,-0.00165,0.018620001
,,,-0.001648,0.017780001
,,,-0.001646,0.020580001
,,,-0.001644,0.019460001
,,,-0.001642,0.018620001
,,,-0.00164,0.019740001
,,,-0.001638,0.020020001
,,,-0.001636,0.021420001
,,,-0.001634,0.020860001
,,,-0.001632,0.021420001
,,,-0.00163,0.021140001
,,,-0.001628,0.022540001
,,,-0.001626,0.021140001
,,,-0.001624,0.022260001
,,,-0.001622,0.023660001
,,,-0.00162,0.021140001
,,,-0.001618,0.022260001
,,,-0.001616,0.023380001
,,,-0.001614,0.022820001
,,,-0.001612,0.022260001
,,,-0.00161,0.021700001
,,,-0.001608,0.020580001
,,,-0.001606,0.020020001
,,,-0.001604,0.021980001
,,,-0.001602,0.019180001
,,,-0.0016,0.019740001
,,,-0.001598,0.018620001
,,,-0.001596,0.018340001
,,,-0.001594,0.018900001
,,,-0.001592,0.018900001
,,,-0.00159,0.019180001
,,,-0.001588,0.019740001
,,,-0.001586,0.017780001
,,,-0.001584,0.018900001
,,,-0.001582,0.020020001
,,,-0.00158,0.018340001
,,,-0.001578,0.020860001
,,,-0.001576,0.019180001
,,,-0.001574,0.018340001
,,,-0.001572,0.021140001
,,,-0.00157,0.021420001
,,,-0.001568,0.021700001
,,,-0.001566,0.021980001
,,,-0.001564,0.022260001
,,,-0.001562,0.022260001
,,,-0.00156,0.020580001
,,,-0.001558,0.022820001
,,,-0.001556,0.020580001
,,,-0.001554,0.023100001
,,,-0.001552,0.021700001
,,,-0.00155,0.021700001
,,,-0.001548,0.020860001
,,,-0.001546,0.021980001
,,,-0.001544,0.022820001
,,,-0.001542,0.020580001
,,,-0.00154,0.019180001
,,,-0.001538,0.020580001
,,,-0.001536,0.020300001
,,,-0.001534,0.019740001
,,,-0.001532,0.019740001
,,,-0.00153,0.018340001
,,,-0.001528,0.019460001
,,,-0.001526,0.019180001
,,,-0.001524,0.020860001
,,,-0.001522,0.019180001
,,,-0.00152,0.019460001
,,,-0.001518,0.019740001
,,,-0.001516,0.019180001
,,,-0.001514,0.021420001
,,,-0.001512,0.021140001
,,,-0.00151,0.020300001
,,,-0.001508,0.020300001
,,,-0.001506,0.022260001
,,,-0.001504,0.020860001
,,,-0.001502,0.023100001
,,,-0.0015,0.021420001
,,,-0.001498,0.022540001
,,,-0.001496,0.020860001
,,,-0.001494,0.022820001
,,,-0.001492,0.022260001
,,,-0.00149,0.022540001
,,,-0.001488,0.022540001
,,,-0.001486,0.022260001
,,,-0.001484,0.020300001
,,,-0.001482,0.021700001
,,,-0.00148,0.021700001
,,,-0.001478,0.021140001
,,,-0.001476,0.019460001
,,,-0.001474,0.020300001
,,,-0.001472,0.019740001
,,,-0.00147,0.019180001
,,,-0.001468,0.018900001
,,,-0.001466,0.019740001
,,,-0.001464,0.017220001
,,,-0.001462,0.018340001
,,,-0.00146,0.018060001
,,,-0.001458,0.018340001
,,,-0.001456,0.016940001
,,,-0.001454,0.018900001
,,,-0.001452,0.018900001
,,,-0.00145,0.019460001
,,,-0.001448,0.020860001
,,,-0.001446,0.018620001
,,,-0.001444,0.020020001
,,,-0.001442,0.020860001
,,,-0.00144,0.021420001
,,,-0.001438,0.020860001
,,,-0.001436,0.022540001
,,,-0.001434,0.021980001
,,,-0.001432,0.022260001
,,,-0.00143,0.021420001
,,,-0.001428,0.020580001
,,,-0.001426,0.021700001
,,,-0.001424,0.022260001
,,,-0.001422,0.021980001
,,,-0.00142,0.020580001
,,,-0.001418,0.020860001
,,,-0.001416,0.020300001
,,,-0.001414,0.018900001
,,,-0.001412,0.019460001
,,,-0.00141,0.017780001
,,,-0.001408,0.021140001
,,,-0.001406,0.019460001
,,,-0.001404,0.020300001
,,,-0.001402,0.017500001
,,,-0.0014,0.018340001
,,,-0.001398,0.019180001
,,,-0.001396,0.019460001
,,,-0.001394,0.018340001
,,,-0.001392,0.020020001
,,,-0.00139,0.019740001
,,,-0.001388,0.021420001
,,,-0.001386,0.021980001
,,,-0.001384,0.020580001
,,,-0.001382,0.020580001
,,,-0.00138,0.021700001
,,,-0.001378,0.021140001
,,,-0.001376,0.023100001
,,,-0.001374,0.022540001
,,,-0.001372,0.021980001
,,,-0.00137,0.021700001
,,,-0.001368,0.021140001
,,,-0.001366,0.022820001
,,,-0.001364,0.022820001
,,,-0.001362,0.021700001
,,,-0.00136,0.021140001
,,,-0.001358,0.021700001
,,,-0.001356,0.023100001
,,,-0.001354,0.021420001
,,,-0.001352,0.021700001
,,,-0.00135,0.020300001
,,,-0.001348,0.020300001
,,,-0.001346,0.019460001
,,,-0.001344,0.020020001
,,,-0.001342,0.017500001
,,,-0.00134,0.020020001
,,,-0.001338,0.017780001
,,,-0.001336,0.018620001
,,,-0.001334,0.017220001
,,,-0.001332,0.018060001
,,,-0.00133,0.020300001
,,,-0.001328,0.018620001
,,,-0.001326,0.018620001
,,,-0.001324,0.019740001
,,,-0.001322,0.019180001
,,,-0.00132,0.020580001
,,,-0.001318,0.020860001
,,,-0.001316,0.020580001
,,,-0.001314,0.020860001
,,,-0.001312,0.022260001
,,,-0.00131,0.021980001
,,,-0.001308,0.022260001
,,,-0.001306,0.023660001
,,,-0.001304,0.022540001
,,,-0.001302,0.021980001
,,,-0.0013,0.021140001
,,,-0.001298,0.022540001
,,,-0.001296,0.021700001
,,,-0.001294,0.021980001
,,,-0.001292,0.020300001
,,,-0.00129,0.021980001
,,,-0.001288,0.019180001
,,,-0.001286,0.020300001
,,,-0.001284,0.019460001
,,,-0.001282,0.020300001
,,,-0.00128,0.018620001
,,,-0.001278,0.019180001
,,,-0.001276,0.019180001
,,,-0.001274,0.019740001
,,,-0.001272,0.021140001
,,,-0.00127,0.019460001
,,,-0.001268,0.019740001
,,,-0.001266,0.020300001
,,,-0.001264,0.019460001
,,,-0.001262,0.020300001
,,,-0.00126,0.021700001
,,,-0.001258,0.020580001
,,,-0.001256,0.021420001
,,,-0.001254,0.022820001
,,,-0.001252,0.020860001
,,,-0.00125,0.020580001
,,,-0.001248,0.021140001
,,,-0.001246,0.021420001
,,,-0.001244,0.022820001
,,,-0.001242,0.021980001
,,,-0.00124,0.021140001
,,,-0.001238,0.021980001
,,,-0.001236,0.021980001
,,,-0.001234,0.021140001
,,,-0.001232,0.020020001
,,,-0.00123,0.021980001
,,,-0.001228,0.021420001
,,,-0.001226,0.020300001
,,,-0.001224,0.018620001
,,,-0.001222,0.019460001
,,,-0.00122,0.018900001
,,,-0.001218,0.020020001
,,,-0.001216,0.019460001
,,,-0.001214,0.018060001
,,,-0.001212,0.018900001
,,,-0.00121,0.017780001
,,,-0.001208,0.018340001
,,,-0.001206,0.017780001
,,,-0.001204,0.018620001
,,,-0.001202,0.018620001
,,,-0.0012,0.020580001
,,,-0.001198,0.018900001
,,,-0.001196,0.020580001
,,,-0.001194,0.022260001
,,,-0.001192,0.021420001
,,,-0.00119,0.021980001
,,,-0.001188,0.021980001
,,,-0.001186,0.023100001
,,,-0.001184,0.021140001
,,,-0.001182,0.023380001
,,,-0.00118,0.023100001
,,,-0.001178,0.022260001
,,,-0.001176,0.020860001
,,,-0.001174,0.021980001
,,,-0.001172,0.021700001
,,,-0.00117,0.021420001
,,,-0.001168,0.020580001
,,,-0.001166,0.019740001
,,,-0.001164,0.020300001
,,,-0.001162,0.020860001
,,,-0.00116,0.018900001
,,,-0.001158,0.018620001
,,,-0.001156,0.020300001
,,,-0.001154,0.018900001
,,,-0.001152,0.017780001
,,,-0.00115,0.018620001
,,,-0.001148,0.020020001
,,,-0.001146,0.019180001
,,,-0.001144,0.020020001
,,,-0.001142,0.019740001
,,,-0.00114,0.021700001
,,,-0.001138,0.019740001
,,,-0.001136,0.020580001
,,,-0.001134,0.021980001
,,,-0.001132,0.021140001
,,,-0.00113,0.021980001
,,,-0.001128,0.023100001
,,,-0.001126,0.021700001
,,,-0.001124,0.021420001
,,,-0.001122,0.022260001
,,,-0.00112,0.021980001
,,,-0.001118,0.021980001
,,,-0.001116,0.023660001
,,,-0.001114,0.021140001
,,,-0.001112,0.020580001
,,,-0.00111,0.021700001
,,,-0.001108,0.021420001
,,,-0.001106,0.020300001
,,,-0.001104,0.021420001
,,,-0.001102,0.021420001
,,,-0.0011,0.021140001
,,,-0.001098,0.020580001
,,,-0.001096,0.020580001
,,,-0.001094,0.020020001
,,,-0.001092,0.019740001
,,,-0.00109,0.020020001
,,,-0.001088,0.017780001
,,,-0.001086,0.018340001
,,,-0.001084,0.017500001
,,,-0.001082,0.016660001
,,,-0.00108,0.018340001
,,,-0.001078,0.019460001
,,,-0.001076,0.017780001
,,,-0.001074,0.020860001
,,,-0.001072,0.019740001
,,,-0.00107,0.020300001
,,,-0.001068,0.020860001
,,,-0.001066,0.020860001
,,,-0.001064,0.022540001
,,,-0.001062,0.022540001
,,,-0.00106,0.022540001
,,,-0.001058,0.021980001
,,,-0.001056,0.021140001
,,,-0.001054,0.022540001
,,,-0.001052,0.022820001
,,,-0.00105,0.021980001
,,,-0.001048,0.021700001
,,,-0.001046,0.023380001
,,,-0.001044,0.020300001
,,,-0.001042,0.019740001
,,,-0.00104,0.019180001
,,,-0.001038,0.021140001
,,,-0.001036,0.020300001
,,,-0.001034,0.020860001
,,,-0.001032,0.020580001
,,,-0.00103,0.020020001
,,,-0.001028,0.019180001
,,,-0.001026,0.018900001
,,,-0.001024,0.020020001
,,,-0.001022,0.020020001
,,,-0.00102,0.020300001
,,,-0.001018,0.019180001
,,,-0.001016,0.019460001
,,,-0.001014,0.021420001
,,,-0.001012,0.020860001
,,,-0.00101,0.021140001
,,,-0.001008,0.021420001
,,,-0.001006,0.021420001
,,,-0.001004,0.021420001
,,,-0.001002,0.020300001
,,,-0.001,0.021980001
,,,-0.000998,0.020860001
,,,-0.000996,0.021140001
,,,-0.000994,0.021140001
,,,-0.000992,0.022820001
,,,-0.00099,0.023100001
,,,-0.000988,0.021980001
,,,-0.000986,0.021980001
,,,-0.000984,0.023100001
,,,-0.000982,0.022820001
,,,-0.00098,0.021980001
,,,-0.000978,0.020860001
,,,-0.000976,0.019740001
,,,-0.000974,0.019460001
,,,-0.000972,0.020300001
,,,-0.00097,0.020580001
,,,-0.000968,0.018900001
,,,-0.000966,0.018340001
,,,-0.000964,0.017780001
,,,-0.000962,0.017780001
,,,-0.00096,0.018340001
,,,-0.000958,0.016660001
,,,-0.000956,0.019460001
,,,-0.000954,0.018900001
,,,-0.000952,0.019180001
,,,-0.00095,0.019180001
,,,-0.000948,0.018900001
,,,-0.000946,0.020580001
,,,-0.000944,0.020300001
,,,-0.000942,0.021420001
,,,-0.00094,0.020020001
,,,-0.000938,0.020580001
,,,-0.000936,0.022260001
,,,-0.000934,0.020860001
,,,-0.000932,0.021700001
,,,-0.00093,0.021980001
,,,-0.000928,0.021700001
,,,-0.000926,0.021140001
,,,-0.000924,0.022540001
,,,-0.000922,0.021420001
,,,-0.00092,0.021700001
,,,-0.000918,0.021420001
,,,-0.000916,0.019460001
,,,-0.000914,0.020580001
,,,-0.000912,0.017780001
,,,-0.00091,0.019460001
